{
    "goal": {
        "global_pose": {
            "orientation": {
                "w": 0.005598929693374612,
                "x": 0.007748599140229565,
                "y": 0.7110244013736278,
                "z": -0.7031023480610252
            },
            "position": {
                "x": -0.8858502320852131,
                "y": -0.7141253447532654,
                "z": 0.3711530566215515
            }
        },
        "name": "move_to_auspresseinheit_C"
    },
    "id": "KPIECE_move_to_auspresseinheit_C_51",
    "joint_names": [
        "shoulder_pan_joint",
        "shoulder_lift_joint",
        "elbow_joint",
        "wrist_1_joint",
        "wrist_2_joint",
        "wrist_3_joint"
    ],
    "metrics": {
        "cart_traj_len": 0.4935014630772848,
        "distance_elbow_joint": 1.009332746946626,
        "distance_shoulder_lift_joint": 0.33023020428090366,
        "distance_shoulder_pan_joint": 0.2560406517015661,
        "distance_wrist_1_joint": 0.6917743378439672,
        "distance_wrist_2_joint": 1.3189216097616314,
        "distance_wrist_3_joint": 0.07518011134768043,
        "smoothness": 0.0,
        "time": 2.1271142,
        "traj_len": 1.9187182341037923,
        "weighted_distance": 2.417133805188148
    },
    "planner": "KPIECE",
    "start": {
        "state": {
            "elbow_joint": 1.752795957773711,
            "shoulder_lift_joint": -0.9740617694225064,
            "shoulder_pan_joint": -2.967991417825858,
            "wrist_1_joint": -0.7595177689806859,
            "wrist_2_joint": 1.7443932448377395,
            "wrist_3_joint": 3.199131542505932
        }
    },
    "waypoints": [
        {
            "positions": [
                -2.967991417825858,
                -0.9740617694225064,
                1.752795957773711,
                -0.7595177689806859,
                1.7443932448377395,
                3.199131542505932
            ]
        },
        {
            "positions": [
                -2.942387352655701,
                -0.9410387489944161,
                1.6518626830790486,
                -0.6903403351962891,
                1.6125010838615763,
                3.191613531371164
            ]
        },
        {
            "positions": [
                -2.916783287485545,
                -0.9080157285663257,
                1.5509294083843859,
                -0.6211629014118925,
                1.4806089228854131,
                3.184095520236396
            ]
        },
        {
            "positions": [
                -2.891179222315388,
                -0.8749927081382354,
                1.4499961336897234,
                -0.5519854676274958,
                1.3487167619092502,
                3.176577509101628
            ]
        },
        {
            "positions": [
                -2.8655751571452317,
                -0.841969687710145,
                1.3490628589950606,
                -0.482808033843099,
                1.2168246009330868,
                3.16905949796686
            ]
        },
        {
            "positions": [
                -2.839971091975075,
                -0.8089466672820547,
                1.248129584300398,
                -0.4136306000587023,
                1.0849324399569238,
                3.1615414868320917
            ]
        },
        {
            "positions": [
                -2.814367026804918,
                -0.7759236468539643,
                1.1471963096057354,
                -0.34445316627430556,
                0.9530402789807607,
                3.1540234756973238
            ]
        },
        {
            "positions": [
                -2.788762961634762,
                -0.742900626425874,
                1.0462630349110729,
                -0.2752757324899089,
                0.8211481180045975,
                3.146505464562556
            ]
        },
        {
            "positions": [
                -2.763158896464605,
                -0.7098776059977835,
                0.9453297602164102,
                -0.2060982987055121,
                0.6892559570284342,
                3.138987453427788
            ]
        },
        {
            "positions": [
                -2.7375548312944487,
                -0.6768545855696931,
                0.8443964855217477,
                -0.13692086492111533,
                0.5573637960522713,
                3.1314694422930196
            ]
        },
        {
            "positions": [
                -2.711950766124292,
                -0.6438315651416028,
                0.7434632108270852,
                -0.06774343113671864,
                0.42547163507610797,
                3.1239514311582517
            ]
        }
    ]
}