{
    "goal": {
        "global_pose": {
            "orientation": {
                "w": 0.7031023502349854,
                "x": -0.7110244035720825,
                "y": 0.007748599164187908,
                "z": 0.005598929710686207
            },
            "position": {
                "x": 0.11585023208521307,
                "y": 0.44412534475326537,
                "z": 0.3711530566215515
            }
        },
        "name": "move_to_auspresseinheit_A"
    },
    "id": "KPIECE_move_to_auspresseinheit_A_133",
    "joint_names": [
        "shoulder_pan_joint",
        "shoulder_lift_joint",
        "elbow_joint",
        "wrist_1_joint",
        "wrist_2_joint",
        "wrist_3_joint"
    ],
    "metrics": {
        "cart_traj_len": 4.195132472750015,
        "distance_elbow_joint": 1.8610470713882883,
        "distance_shoulder_lift_joint": 2.0090535337089124,
        "distance_shoulder_pan_joint": 5.2783015118856085,
        "distance_wrist_1_joint": 6.224814267580925,
        "distance_wrist_2_joint": 1.607379998089216,
        "distance_wrist_3_joint": 11.984002142396415,
        "smoothness": 0.45248540944651916,
        "time": 0.426416283,
        "traj_len": 5.381876858963736,
        "weighted_distance": 7.795177809101746
    },
    "planner": "KPIECE",
    "start": {
        "state": {
            "elbow_joint": 2.4225747245308327,
            "shoulder_lift_joint": -1.373653427065438,
            "shoulder_pan_joint": -0.33786330853087027,
            "wrist_1_joint": -1.0288602302712604,
            "wrist_2_joint": 1.23302299562683,
            "wrist_3_joint": -3.094021725338297
        }
    },
    "waypoints": [
        {
            "positions": [
                -0.33786330853087027,
                -1.373653427065438,
                2.4225747245308327,
                -1.0288602302712604,
                1.23302299562683,
                -3.094021725338297
            ]
        },
        {
            "positions": [
                -0.2822154013620757,
                -1.3928283701087212,
                2.32786068266738,
                -1.0082625634214153,
                1.1565176875945062,
                -2.974942463215968
            ]
        },
        {
            "positions": [
                -0.22656749419328104,
                -1.4120033131520047,
                2.233146640803928,
                -0.98766489657157,
                1.0800123795621823,
                -2.855863201093639
            ]
        },
        {
            "positions": [
                -0.17091958702448645,
                -1.431178256195288,
                2.1384325989404758,
                -0.9670672297217249,
                1.0035070715298586,
                -2.7367839389713096
            ]
        },
        {
            "positions": [
                -0.11527167985569181,
                -1.4503531992385712,
                2.0437185570770238,
                -0.9464695628718797,
                0.9270017634975349,
                -2.6177046768489802
            ]
        },
        {
            "positions": [
                -0.059623772686897225,
                -1.4695281422818547,
                1.9490045152135713,
                -0.9258718960220345,
                0.8504964554652111,
                -2.498625414726651
            ]
        },
        {
            "positions": [
                -0.003975865518102639,
                -1.488703085325138,
                1.854290473350119,
                -0.9052742291721892,
                0.7739911474328873,
                -2.3795461526043216
            ]
        },
        {
            "positions": [
                0.05167204165069195,
                -1.5078780283684212,
                1.7595764314866669,
                -0.884676562322344,
                0.6974858394005636,
                -2.2604668904819927
            ]
        },
        {
            "positions": [
                0.10731994881948664,
                -1.5270529714117047,
                1.6648623896232144,
                -0.8640788954724989,
                0.6209805313682398,
                -2.1413876283596633
            ]
        },
        {
            "positions": [
                0.16296785598828117,
                -1.546227914454988,
                1.5701483477597622,
                -0.8434812286226537,
                0.544475223335916,
                -2.022308366237334
            ]
        },
        {
            "positions": [
                0.21861576315707582,
                -1.5654028574982712,
                1.47543430589631,
                -0.8228835617728085,
                0.4679699153035924,
                -1.903229104115005
            ]
        },
        {
            "positions": [
                0.3000009834825549,
                -1.59909420428033,
                1.4805429280250004,
                -0.7230740413288279,
                0.4848697685884403,
                -1.7539124671501731
            ]
        },
        {
            "positions": [
                0.381386203808034,
                -1.632785551062389,
                1.4856515501536909,
                -0.6232645208848473,
                0.5017696218732881,
                -1.6045958301853416
            ]
        },
        {
            "positions": [
                0.46277142413351313,
                -1.6664768978444477,
                1.4907601722823811,
                -0.5234550004408666,
                0.518669475158136,
                -1.4552791932205098
            ]
        },
        {
            "positions": [
                0.5441566444589923,
                -1.7001682446265067,
                1.4958687944110716,
                -0.42364547999688595,
                0.5355693284429839,
                -1.305962556255678
            ]
        },
        {
            "positions": [
                0.6255418647844713,
                -1.7338595914085655,
                1.500977416539762,
                -0.32383595955290534,
                0.5524691817278318,
                -1.1566459192908463
            ]
        },
        {
            "positions": [
                0.7069270851099504,
                -1.7675509381906243,
                1.5060860386684523,
                -0.2240264391089246,
                0.5693690350126795,
                -1.0073292823260145
            ]
        },
        {
            "positions": [
                0.7883123054354295,
                -1.8012422849726832,
                1.5111946607971427,
                -0.124216918664944,
                0.5862688882975274,
                -0.8580126453611829
            ]
        },
        {
            "positions": [
                0.8696975257609085,
                -1.834933631754742,
                1.5163032829258332,
                -0.024407398220963383,
                0.6031687415823753,
                -0.7086960083963512
            ]
        },
        {
            "positions": [
                0.9510827460863878,
                -1.868624978536801,
                1.5214119050545236,
                0.07540212222301723,
                0.6200685948672232,
                -0.5593793714315194
            ]
        },
        {
            "positions": [
                1.0324679664118668,
                -1.9023163253188597,
                1.526520527183214,
                0.17521164266699785,
                0.636968448152071,
                -0.4100627344666876
            ]
        },
        {
            "positions": [
                1.1138531867373458,
                -1.9360076721009185,
                1.5316291493119043,
                0.27502116311097846,
                0.6538683014369189,
                -0.26074609750185607
            ]
        },
        {
            "positions": [
                1.195238407062825,
                -1.9696990188829773,
                1.5367377714405948,
                0.3748306835549593,
                0.6707681547217668,
                -0.1114294605370243
            ]
        },
        {
            "positions": [
                1.276623627388304,
                -2.0033903656650365,
                1.5418463935692852,
                0.4746402039989399,
                0.6876680080066147,
                0.03788717642780748
            ]
        },
        {
            "positions": [
                1.358008847713783,
                -2.0370817124470952,
                1.5469550156979754,
                0.5744497244429205,
                0.7045678612914625,
                0.18720381339263903
            ]
        },
        {
            "positions": [
                1.4393940680392623,
                -2.070773059229154,
                1.552063637826666,
                0.6742592448869011,
                0.7214677145763104,
                0.3365204503574708
            ]
        },
        {
            "positions": [
                1.5207792883647413,
                -2.1044644060112128,
                1.5571722599553564,
                0.7740687653308818,
                0.7383675678611583,
                0.4858370873223026
            ]
        },
        {
            "positions": [
                1.6021645086902203,
                -2.1381557527932715,
                1.5622808820840468,
                0.8738782857748624,
                0.7552674211460062,
                0.6351537242871343
            ]
        },
        {
            "positions": [
                1.6835497290156995,
                -2.1718470995753307,
                1.5673895042127373,
                0.973687806218843,
                0.772167274430854,
                0.7844703612519661
            ]
        },
        {
            "positions": [
                1.7649349493411786,
                -2.205538446357389,
                1.5724981263414275,
                1.0734973266628236,
                0.7890671277157019,
                0.9337869982167979
            ]
        },
        {
            "positions": [
                1.8463201696666578,
                -2.2392297931394483,
                1.577606748470118,
                1.1733068471068042,
                0.8059669810005496,
                1.0831036351816297
            ]
        },
        {
            "positions": [
                1.9277053899921368,
                -2.272921139921507,
                1.5827153705988084,
                1.273116367550785,
                0.8228668342853975,
                1.232420272146461
            ]
        },
        {
            "positions": [
                2.009090610317616,
                -2.306612486703566,
                1.5878239927274986,
                1.3729258879947654,
                0.8397666875702454,
                1.3817369091112928
            ]
        },
        {
            "positions": [
                2.0904758306430953,
                -2.3403038334856245,
                1.592932614856189,
                1.4727354084387463,
                0.8566665408550933,
                1.5310535460761245
            ]
        },
        {
            "positions": [
                2.171861050968574,
                -2.3739951802676833,
                1.5980412369848795,
                1.5725449288827271,
                0.8735663941399412,
                1.6803701830409563
            ]
        },
        {
            "positions": [
                2.2532462712940533,
                -2.4076865270497425,
                1.60314985911357,
                1.6723544493267075,
                0.8904662474247891,
                1.829686820005788
            ]
        },
        {
            "positions": [
                2.3346314916195325,
                -2.4413778738318013,
                1.6082584812422605,
                1.7721639697706884,
                0.907366100709637,
                1.9790034569706199
            ]
        },
        {
            "positions": [
                2.4160167119450118,
                -2.47506922061386,
                1.6133671033709507,
                1.8719734902146687,
                0.9242659539944849,
                2.128320093935451
            ]
        },
        {
            "positions": [
                2.4974019322704906,
                -2.508760567395919,
                1.6184757254996411,
                1.9717830106586496,
                0.9411658072793327,
                2.2776367309002827
            ]
        },
        {
            "positions": [
                2.57878715259597,
                -2.5424519141779776,
                1.6235843476283316,
                2.07159253110263,
                0.9580656605641805,
                2.4269533678651145
            ]
        },
        {
            "positions": [
                2.660172372921449,
                -2.5761432609600368,
                1.6286929697570218,
                2.171402051546611,
                0.9749655138490283,
                2.5762700048299463
            ]
        },
        {
            "positions": [
                2.741557593246928,
                -2.6098346077420955,
                1.6338015918857123,
                2.271211571990591,
                0.9918653671338762,
                2.725586641794778
            ]
        },
        {
            "positions": [
                2.822942813572407,
                -2.6435259545241543,
                1.6389102140144027,
                2.3710210924345723,
                1.008765220418724,
                2.8749032787596103
            ]
        },
        {
            "positions": [
                2.758776286609306,
                -2.6211265300923303,
                1.6616505396094232,
                2.2854170638019937,
                0.9996278988232439,
                2.692628213962686
            ]
        },
        {
            "positions": [
                2.694609759646205,
                -2.598727105660506,
                1.6843908652044435,
                2.199813035169415,
                0.9904905772277637,
                2.5103531491657614
            ]
        },
        {
            "positions": [
                2.630443232683104,
                -2.576327681228682,
                1.707131190799464,
                2.1142090065368366,
                0.9813532556322835,
                2.328078084368837
            ]
        },
        {
            "positions": [
                2.566276705720003,
                -2.553928256796858,
                1.7298715163944842,
                2.0286049779042585,
                0.9722159340368033,
                2.1458030195719124
            ]
        },
        {
            "positions": [
                2.502110178756902,
                -2.5315288323650336,
                1.7526118419895047,
                1.94300094927168,
                0.9630786124413231,
                1.963527954774988
            ]
        },
        {
            "positions": [
                2.437943651793801,
                -2.5091294079332096,
                1.7753521675845252,
                1.8573969206391014,
                0.9539412908458429,
                1.7812528899780633
            ]
        },
        {
            "positions": [
                2.3737771248307,
                -2.4867299835013856,
                1.7980924931795454,
                1.771792892006523,
                0.9448039692503627,
                1.5989778251811388
            ]
        },
        {
            "positions": [
                2.309610597867599,
                -2.4643305590695612,
                1.820832818774566,
                1.6861888633739444,
                0.9356666476548825,
                1.4167027603842144
            ]
        },
        {
            "positions": [
                2.245444070904498,
                -2.4419311346377373,
                1.8435731443695862,
                1.600584834741366,
                0.9265293260594023,
                1.2344276955872902
            ]
        },
        {
            "positions": [
                2.181277543941397,
                -2.4195317102059133,
                1.8663134699646067,
                1.5149808061087875,
                0.917392004463922,
                1.0521526307903655
            ]
        },
        {
            "positions": [
                2.117111016978296,
                -2.397132285774089,
                1.889053795559627,
                1.4293767774762092,
                0.9082546828684418,
                0.8698775659934412
            ]
        },
        {
            "positions": [
                2.0529444900151947,
                -2.374732861342265,
                1.9117941211546474,
                1.3437727488436306,
                0.8991173612729616,
                0.6876025011965163
            ]
        },
        {
            "positions": [
                1.9887779630520939,
                -2.352333436910441,
                1.9345344467496677,
                1.258168720211052,
                0.8899800396774814,
                0.5053274363995923
            ]
        },
        {
            "positions": [
                1.924611436088993,
                -2.3299340124786165,
                1.9572747723446882,
                1.1725646915784735,
                0.8808427180820012,
                0.3230523716026674
            ]
        },
        {
            "positions": [
                1.8604449091258919,
                -2.3075345880467926,
                1.9800150979397086,
                1.0869606629458952,
                0.871705396486521,
                0.1407773068057434
            ]
        },
        {
            "positions": [
                1.7962783821627908,
                -2.2851351636149686,
                2.002755423534729,
                1.0013566343133167,
                0.8625680748910408,
                -0.041497757991181494
            ]
        },
        {
            "positions": [
                1.73211185519969,
                -2.262735739183144,
                2.025495749129749,
                0.9157526056807381,
                0.8534307532955606,
                -0.2237728227881055
            ]
        },
        {
            "positions": [
                1.6679453282365888,
                -2.2403363147513202,
                2.0482360747247697,
                0.8301485770481598,
                0.8442934317000804,
                -0.40604788758502997
            ]
        },
        {
            "positions": [
                1.6037788012734877,
                -2.2179368903194963,
                2.07097640031979,
                0.744544548415581,
                0.8351561101046002,
                -0.5883229523819549
            ]
        },
        {
            "positions": [
                1.5396122743103868,
                -2.195537465887672,
                2.0937167259148106,
                0.6589405197830027,
                0.82601878850912,
                -0.7705980171788793
            ]
        },
        {
            "positions": [
                1.4754457473472857,
                -2.173138041455848,
                2.1164570515098307,
                0.5733364911504242,
                0.8168814669136398,
                -0.9528730819758033
            ]
        },
        {
            "positions": [
                1.4112792203841849,
                -2.150738617024024,
                2.139197377104851,
                0.48773246251784586,
                0.8077441453181596,
                -1.1351481467727278
            ]
        },
        {
            "positions": [
                1.3471126934210838,
                -2.1283391925921995,
                2.1619377026998716,
                0.4021284338852671,
                0.7986068237226793,
                -1.3174232115696527
            ]
        },
        {
            "positions": [
                1.2829461664579827,
                -2.1059397681603755,
                2.184678028294892,
                0.316524405252689,
                0.7894695021271991,
                -1.4996982763665776
            ]
        },
        {
            "positions": [
                1.2187796394948818,
                -2.0835403437285516,
                2.2074183538899126,
                0.23092037662011045,
                0.7803321805317189,
                -1.6819733411635016
            ]
        },
        {
            "positions": [
                1.154613112531781,
                -2.0611409192967276,
                2.2301586794849326,
                0.1453163479875319,
                0.7711948589362387,
                -1.8642484059604256
            ]
        },
        {
            "positions": [
                1.0904465855686796,
                -2.038741494864903,
                2.252899005079953,
                0.05971231935495336,
                0.7620575373407585,
                -2.0465234707573505
            ]
        },
        {
            "positions": [
                1.0262800586055787,
                -2.0163420704330792,
                2.2756393306749736,
                -0.025891709277625186,
                0.7529202157452783,
                -2.2287985355542754
            ]
        },
        {
            "positions": [
                0.9621135316424776,
                -1.9939426460012548,
                2.298379656269994,
                -0.11149573791020373,
                0.7437828941497981,
                -2.4110736003511994
            ]
        },
        {
            "positions": [
                0.8979470046793767,
                -1.9715432215694308,
                2.3211199818650146,
                -0.19709976654278183,
                0.734645572554318,
                -2.5933486651481235
            ]
        },
        {
            "positions": [
                0.8337804777162756,
                -1.9491437971376067,
                2.3438603074600346,
                -0.2827037951753608,
                0.7255082509588378,
                -2.7756237299450484
            ]
        },
        {
            "positions": [
                0.7696139507531745,
                -1.9267443727057825,
                2.366600633055055,
                -0.3683078238079389,
                0.7163709293633576,
                -2.9578987947419733
            ]
        },
        {
            "positions": [
                0.7054474237900739,
                -1.9043449482739585,
                2.3893409586500756,
                -0.4539118524405175,
                0.7072336077678774,
                -3.1401738595388973
            ]
        }
    ]
}