{
    "goal": {
        "global_pose": {
            "orientation": {
                "w": -0.4816463035849501,
                "x": 0.5182115481033762,
                "y": 0.4908360881923453,
                "z": -0.5084816262002911
            },
            "position": {
                "x": -0.8240239810943604,
                "y": -0.300875300988555,
                "z": 0.16403168439865112
            }
        },
        "name": "move_to_storage_C"
    },
    "id": "KPIECE_move_to_storage_C_121",
    "joint_names": [
        "shoulder_pan_joint",
        "shoulder_lift_joint",
        "elbow_joint",
        "wrist_1_joint",
        "wrist_2_joint",
        "wrist_3_joint"
    ],
    "metrics": {
        "cart_traj_len": 0.576236793956389,
        "distance_elbow_joint": 0.25711473350238223,
        "distance_shoulder_lift_joint": 0.1883587979554957,
        "distance_shoulder_pan_joint": 0.4955693843668407,
        "distance_wrist_1_joint": 0.08179245069570784,
        "distance_wrist_2_joint": 1.0626663904417164,
        "distance_wrist_3_joint": 0.056913395433581204,
        "smoothness": 0.0,
        "time": 0.169922156,
        "traj_len": 1.463699133153984,
        "weighted_distance": 1.844098908518822
    },
    "planner": "KPIECE",
    "start": {
        "state": {
            "elbow_joint": 2.010868315001653,
            "shoulder_lift_joint": -1.1634956873357014,
            "shoulder_pan_joint": -2.4736205022346103,
            "wrist_1_joint": -0.8367026794713948,
            "wrist_2_joint": 0.6746043897044093,
            "wrist_3_joint": 3.1335220948105738
        }
    },
    "waypoints": [
        {
            "positions": [
                -2.4736205022346103,
                -1.1634956873357014,
                2.010868315001653,
                -0.8367026794713948,
                0.6746043897044093,
                3.1335220948105738
            ]
        },
        {
            "positions": [
                -2.5562153996290835,
                -1.1321025543431187,
                1.9680158594179227,
                -0.8230706043554434,
                0.8517154547780287,
                3.1430076607161705
            ]
        },
        {
            "positions": [
                -2.638810297023557,
                -1.1007094213505362,
                1.9251634038341923,
                -0.8094385292394921,
                1.028826519851648,
                3.1524932266217673
            ]
        },
        {
            "positions": [
                -2.721405194418031,
                -1.0693162883579537,
                1.882310948250462,
                -0.7958064541235408,
                1.2059375849252674,
                3.161978792527364
            ]
        },
        {
            "positions": [
                -2.804000091812504,
                -1.037923155365371,
                1.8394584926667317,
                -0.7821743790075896,
                1.3830486499988868,
                3.1714643584329614
            ]
        },
        {
            "positions": [
                -2.8865949892069773,
                -1.0065300223727882,
                1.7966060370830013,
                -0.7685423038916382,
                1.5601597150725062,
                3.180949924338558
            ]
        },
        {
            "positions": [
                -2.969189886601451,
                -0.9751368893802057,
                1.7537535814992709,
                -0.7549102287756869,
                1.7372707801461256,
                3.190435490244155
            ]
        }
    ]
}