{
    "goal": {
        "global_pose": {
            "orientation": {
                "w": 0.7047431493862688,
                "x": -0.7094548369677653,
                "y": 0.0024358444001904,
                "z": -0.0022348060817251984
            },
            "position": {
                "x": -0.39052492380142206,
                "y": 0.3671506643295288,
                "z": 0.19426114857196808
            }
        },
        "name": "move_to_magneteinheit_D"
    },
    "id": "KPIECE_move_to_magneteinheit_D_26",
    "joint_names": [
        "shoulder_pan_joint",
        "shoulder_lift_joint",
        "elbow_joint",
        "wrist_1_joint",
        "wrist_2_joint",
        "wrist_3_joint"
    ],
    "metrics": {
        "cart_traj_len": 4.047874374990335,
        "distance_elbow_joint": 3.2515493992962874,
        "distance_shoulder_lift_joint": 2.1818482442002822,
        "distance_shoulder_pan_joint": 5.968450835310511,
        "distance_wrist_1_joint": 2.155758072418198,
        "distance_wrist_2_joint": 3.1064472943942634,
        "distance_wrist_3_joint": 6.888707083481231,
        "smoothness": 0.5012549367530111,
        "time": 0.562032172,
        "traj_len": 4.853118680714574,
        "weighted_distance": 6.526283817217549
    },
    "planner": "KPIECE",
    "start": {
        "state": {
            "elbow_joint": 0.7495348899011973,
            "shoulder_lift_joint": -0.6476975780737697,
            "shoulder_pan_joint": -2.711696901376276,
            "wrist_1_joint": -0.07506478080974305,
            "wrist_2_joint": 0.4329665971545858,
            "wrist_3_joint": 3.1361499051832524
        }
    },
    "waypoints": [
        {
            "positions": [
                -2.711696901376276,
                -0.6476975780737697,
                0.7495348899011973,
                -0.07506478080974305,
                0.4329665971545858,
                3.1361499051832524
            ]
        },
        {
            "positions": [
                -2.705028603696305,
                -0.6671064434915862,
                0.7554869231419212,
                0.04660379349338638,
                0.34911909065160474,
                3.002297522827176
            ]
        },
        {
            "positions": [
                -2.6983603060163337,
                -0.6865153089094026,
                0.761438956382645,
                0.1682723677965158,
                0.26527158414862373,
                2.8684451404711
            ]
        },
        {
            "positions": [
                -2.6916920083363625,
                -0.7059241743272191,
                0.7673909896233689,
                0.2899409420996452,
                0.18142407764564267,
                2.7345927581150242
            ]
        },
        {
            "positions": [
                -2.6850237106563912,
                -0.7253330397450356,
                0.7733430228640927,
                0.41160951640277466,
                0.09757657114266166,
                2.600740375758948
            ]
        },
        {
            "positions": [
                -2.6783554129764204,
                -0.744741905162852,
                0.7792950561048166,
                0.533278090705904,
                0.013729064639680544,
                2.466887993402872
            ]
        },
        {
            "positions": [
                -2.671687115296449,
                -0.7641507705806685,
                0.7852470893455404,
                0.6549466650090334,
                -0.07011844186330046,
                2.333035611046796
            ]
        },
        {
            "positions": [
                -2.665018817616478,
                -0.783559635998485,
                0.7911991225862643,
                0.776615239312163,
                -0.15396594836628147,
                2.1991832286907194
            ]
        },
        {
            "positions": [
                -2.6583505199365067,
                -0.8029685014163014,
                0.7971511558269881,
                0.8982838136152924,
                -0.23781345486926248,
                2.0653308463346436
            ]
        },
        {
            "positions": [
                -2.6516822222565355,
                -0.8223773668341179,
                0.803103189067712,
                1.0199523879184218,
                -0.3216609613722436,
                1.9314784639785674
            ]
        },
        {
            "positions": [
                -2.538707532591167,
                -0.873086919766267,
                0.7708614465918899,
                1.0536490001317267,
                -0.31056527869115763,
                1.8180285288368432
            ]
        },
        {
            "positions": [
                -2.425732842925799,
                -0.9237964726984161,
                0.7386197041160677,
                1.0873456123450314,
                -0.29946959601007167,
                1.704578593695119
            ]
        },
        {
            "positions": [
                -2.3127581532604307,
                -0.9745060256305652,
                0.7063779616402456,
                1.1210422245583362,
                -0.28837391332898576,
                1.5911286585533948
            ]
        },
        {
            "positions": [
                -2.1997834635950624,
                -1.0252155785627144,
                0.6741362191644233,
                1.154738836771641,
                -0.2772782306478998,
                1.4776787234116706
            ]
        },
        {
            "positions": [
                -2.086808773929694,
                -1.0759251314948635,
                0.6418944766886012,
                1.1884354489849458,
                -0.26618254796681384,
                1.3642287882699464
            ]
        },
        {
            "positions": [
                -1.9419189790084102,
                -1.0648169803844685,
                0.5328243106181466,
                1.1759528546350877,
                -0.30306634799648213,
                1.4408462081245916
            ]
        },
        {
            "positions": [
                -1.7970291840871264,
                -1.0537088292740737,
                0.4237541445476921,
                1.1634702602852296,
                -0.3399501480261505,
                1.5174636279792366
            ]
        },
        {
            "positions": [
                -1.6521393891658427,
                -1.0426006781636787,
                0.31468397847723756,
                1.1509876659353715,
                -0.37683394805581877,
                1.5940810478338818
            ]
        },
        {
            "positions": [
                -1.5072495942445587,
                -1.0314925270532838,
                0.20561381240678295,
                1.1385050715855134,
                -0.4137177480854871,
                1.6706984676885268
            ]
        },
        {
            "positions": [
                -1.3623597993232748,
                -1.020384375942889,
                0.09654364633632839,
                1.1260224772356553,
                -0.4506015481151554,
                1.747315887543172
            ]
        },
        {
            "positions": [
                -1.2174700044019913,
                -1.009276224832494,
                -0.012526519734126107,
                1.1135398828857972,
                -0.4874853481448237,
                1.8239333073978172
            ]
        },
        {
            "positions": [
                -1.072580209480707,
                -0.9981680737220991,
                -0.12159668580458083,
                1.1010572885359389,
                -0.5243691481744921,
                1.9005507272524622
            ]
        },
        {
            "positions": [
                -0.9276904145594234,
                -0.9870599226117043,
                -0.23066685187503533,
                1.0885746941860808,
                -0.5612529482041604,
                1.9771681471071074
            ]
        },
        {
            "positions": [
                -0.7828006196381396,
                -0.9759517715013093,
                -0.3397370179454898,
                1.0760920998362227,
                -0.5981367482338287,
                2.0537855669617526
            ]
        },
        {
            "positions": [
                -0.6379108247168557,
                -0.9648436203909144,
                -0.44880718401594444,
                1.0636095054863646,
                -0.635020548263497,
                2.1304029868163976
            ]
        },
        {
            "positions": [
                -0.49302102979557194,
                -0.9537354692805196,
                -0.5578773500863989,
                1.0511269111365065,
                -0.6719043482931653,
                2.2070204066710426
            ]
        },
        {
            "positions": [
                -0.3481312348742882,
                -0.9426273181701247,
                -0.6669475161568534,
                1.0386443167866484,
                -0.7087881483228335,
                2.283637826525688
            ]
        },
        {
            "positions": [
                -0.20324143995300425,
                -0.9315191670597297,
                -0.7760176822273082,
                1.0261617224367903,
                -0.7456719483525018,
                2.360255246380333
            ]
        },
        {
            "positions": [
                -0.05835164503172008,
                -0.9204110159493348,
                -0.8850878482977629,
                1.0136791280869322,
                -0.7825557483821702,
                2.4368726662349784
            ]
        },
        {
            "positions": [
                0.08653814988956343,
                -0.90930286483894,
                -0.9941580143682172,
                1.001196533737074,
                -0.8194395484118384,
                2.5134900860896234
            ]
        },
        {
            "positions": [
                0.23142794481084739,
                -0.8981947137285451,
                -1.1032281804386719,
                0.988713939387216,
                -0.8563233484415068,
                2.5901075059442684
            ]
        },
        {
            "positions": [
                0.37631773973213134,
                -0.8870865626181501,
                -1.2122983465091264,
                0.9762313450373578,
                -0.8932071484711751,
                2.6667249257989134
            ]
        },
        {
            "positions": [
                0.5212075346534149,
                -0.8759784115077552,
                -1.3213685125795809,
                0.9637487506874997,
                -0.9300909485008434,
                2.7433423456535584
            ]
        },
        {
            "positions": [
                0.6660973295746988,
                -0.8648702603973604,
                -1.4304386786500354,
                0.9512661563376416,
                -0.9669747485305117,
                2.819959765508204
            ]
        },
        {
            "positions": [
                0.8109871244959828,
                -0.8537621092869654,
                -1.53950884472049,
                0.9387835619877835,
                -1.00385854856018,
                2.8965771853628492
            ]
        },
        {
            "positions": [
                0.9558769194172663,
                -0.8426539581765705,
                -1.6485790107909444,
                0.9263009676379252,
                -1.0407423485898484,
                2.9731946052174942
            ]
        },
        {
            "positions": [
                1.1007667143385502,
                -0.8315458070661756,
                -1.757649176861399,
                0.9138183732880671,
                -1.0776261486195167,
                3.049812025072139
            ]
        },
        {
            "positions": [
                1.2456565092598342,
                -0.8204376559557807,
                -1.8667193429318538,
                0.901335778938209,
                -1.114509948649185,
                3.126429444926784
            ]
        },
        {
            "positions": [
                1.3905463041811177,
                -0.8093295048453859,
                -1.975789509002308,
                0.8888531845883509,
                -1.1513937486788532,
                3.203046864781429
            ]
        },
        {
            "positions": [
                1.5354360991024016,
                -0.7982213537349909,
                -2.084859675072763,
                0.8763705902384928,
                -1.1882775487085215,
                3.2796642846360746
            ]
        },
        {
            "positions": [
                1.4571943793373179,
                -0.8653084861449598,
                -2.0989514130722764,
                0.9027429985965408,
                -1.1258118068121443,
                3.134148354172357
            ]
        },
        {
            "positions": [
                1.3789526595722343,
                -0.9323956185549287,
                -2.11304315107179,
                0.9291154069545888,
                -1.0633460649157673,
                2.9886324237086392
            ]
        },
        {
            "positions": [
                1.3007109398071508,
                -0.9994827509648976,
                -2.1271348890713035,
                0.9554878153126368,
                -1.0008803230193903,
                2.8431164932449215
            ]
        },
        {
            "positions": [
                1.222469220042067,
                -1.0665698833748665,
                -2.141226627070817,
                0.9818602236706848,
                -0.9384145811230131,
                2.6976005627812034
            ]
        },
        {
            "positions": [
                1.1442275002769833,
                -1.1336570157848356,
                -2.1553183650703307,
                1.008232632028733,
                -0.875948839226636,
                2.5520846323174857
            ]
        },
        {
            "positions": [
                1.0659857805118997,
                -1.2007441481948042,
                -2.169410103069844,
                1.0346050403867808,
                -0.8134830973302589,
                2.406568701853768
            ]
        },
        {
            "positions": [
                0.9877440607468161,
                -1.2678312806047733,
                -2.1835018410693574,
                1.0609774487448287,
                -0.7510173554338818,
                2.2610527713900503
            ]
        },
        {
            "positions": [
                0.9095023409817324,
                -1.3349184130147422,
                -2.197593579068871,
                1.0873498571028768,
                -0.6885516135375047,
                2.1155368409263327
            ]
        },
        {
            "positions": [
                0.8312606212166488,
                -1.4020055454247111,
                -2.2116853170683846,
                1.113722265460925,
                -0.6260858716411276,
                1.9700209104626147
            ]
        },
        {
            "positions": [
                0.7530189014515651,
                -1.46909267783468,
                -2.225777055067898,
                1.1400946738189728,
                -0.5636201297447505,
                1.824504979998897
            ]
        },
        {
            "positions": [
                0.6747771816864815,
                -1.536179810244649,
                -2.2398687930674117,
                1.1664670821770207,
                -0.5011543878483734,
                1.6789890495351794
            ]
        },
        {
            "positions": [
                0.596535461921398,
                -1.6032669426546178,
                -2.2539605310669253,
                1.1928394905350688,
                -0.4386886459519963,
                1.5334731190714617
            ]
        },
        {
            "positions": [
                0.5182937421563141,
                -1.6703540750645867,
                -2.268052269066439,
                1.2192118988931169,
                -0.3762229040556192,
                1.3879571886077438
            ]
        },
        {
            "positions": [
                0.44005202239123054,
                -1.7374412074745555,
                -2.2821440070659524,
                1.2455843072511648,
                -0.3137571621592421,
                1.242441258144026
            ]
        },
        {
            "positions": [
                0.361810302626147,
                -1.8045283398845244,
                -2.296235745065466,
                1.2719567156092126,
                -0.2512914202628651,
                1.0969253276803084
            ]
        },
        {
            "positions": [
                0.28356858286106323,
                -1.8716154722944935,
                -2.3103274830649796,
                1.2983291239672607,
                -0.1888256783664879,
                0.9514093972165907
            ]
        },
        {
            "positions": [
                0.2053268630959797,
                -1.9387026047044622,
                -2.3244192210644927,
                1.3247015323253089,
                -0.1263599364701109,
                0.805893466752873
            ]
        },
        {
            "positions": [
                0.12708514333089593,
                -2.0057897371144313,
                -2.3385109590640063,
                1.3510739406833567,
                -0.06389419457373369,
                0.6603775362891549
            ]
        },
        {
            "positions": [
                0.04884342356581217,
                -2.0728768695244,
                -2.35260269706352,
                1.3774463490414046,
                -0.0014284526773564732,
                0.5148616058254372
            ]
        },
        {
            "positions": [
                -0.029398296199271368,
                -2.139964001934369,
                -2.3666944350630335,
                1.4038187573994527,
                0.06103728921902052,
                0.36934567536171947
            ]
        },
        {
            "positions": [
                -0.10764001596435513,
                -2.207051134344338,
                -2.380786173062547,
                1.4301911657575008,
                0.12350303111539773,
                0.22382974489800178
            ]
        },
        {
            "positions": [
                -0.18588173572943872,
                -2.274138266754307,
                -2.3948779110620606,
                1.4565635741155487,
                0.18596877301177467,
                0.07831381443428391
            ]
        }
    ]
}