{
    "goal": {
        "global_pose": {
            "orientation": {
                "w": 0.7047431468963623,
                "x": -0.7094548344612122,
                "y": 0.0024358443915843964,
                "z": -0.0022348060738295317
            },
            "position": {
                "x": 0.6094750761985779,
                "y": 0.3671506643295288,
                "z": 0.19426114857196808
            }
        },
        "name": "move_to_magneteinheit_A"
    },
    "id": "KPIECE_move_to_magneteinheit_A_96",
    "joint_names": [
        "shoulder_pan_joint",
        "shoulder_lift_joint",
        "elbow_joint",
        "wrist_1_joint",
        "wrist_2_joint",
        "wrist_3_joint"
    ],
    "metrics": {
        "cart_traj_len": 1.0535950519550432,
        "distance_elbow_joint": 0.3781038863611188,
        "distance_shoulder_lift_joint": 0.3692980906243626,
        "distance_shoulder_pan_joint": 1.240899932323239,
        "distance_wrist_1_joint": 2.2008733578657136,
        "distance_wrist_2_joint": 1.6905848744012528,
        "distance_wrist_3_joint": 1.2307966803244712,
        "smoothness": 0.0,
        "time": 0.09256298500000001,
        "traj_len": 2.6665627354142933,
        "weighted_distance": 3.669279004765932
    },
    "planner": "KPIECE",
    "start": {
        "state": {
            "elbow_joint": 1.5739458966750683,
            "shoulder_lift_joint": -1.4977259741207325,
            "shoulder_pan_joint": -1.1188672016454206,
            "wrist_1_joint": 1.494575848278785,
            "wrist_2_joint": -1.5706037134824402,
            "wrist_3_joint": -2.0226957942261072
        }
    },
    "waypoints": [
        {
            "positions": [
                -1.1188672016454206,
                -1.4977259741207325,
                1.5739458966750683,
                1.494575848278785,
                -1.5706037134824402,
                -2.0226957942261072
            ]
        },
        {
            "positions": [
                -1.0499283165163518,
                -1.47720941353049,
                1.594951668139575,
                1.3723051061751343,
                -1.4766823315712596,
                -2.0910733875774667
            ]
        },
        {
            "positions": [
                -0.980989431387283,
                -1.4566928529402479,
                1.6159574396040814,
                1.2500343640714835,
                -1.3827609496600788,
                -2.1594509809288263
            ]
        },
        {
            "positions": [
                -0.9120505462582141,
                -1.4361762923500054,
                1.636963211068588,
                1.1277636219678326,
                -1.288839567748898,
                -2.2278285742801858
            ]
        },
        {
            "positions": [
                -0.8431116611291454,
                -1.415659731759763,
                1.6579689825330948,
                1.005492879864182,
                -1.1949181858377174,
                -2.2962061676315453
            ]
        },
        {
            "positions": [
                -0.7741727760000765,
                -1.3951431711695206,
                1.6789747539976014,
                0.8832221377605312,
                -1.1009968039265368,
                -2.364583760982905
            ]
        },
        {
            "positions": [
                -0.7052338908710076,
                -1.3746266105792784,
                1.6999805254621079,
                0.7609513956568805,
                -1.007075422015356,
                -2.4329613543342643
            ]
        },
        {
            "positions": [
                -0.6362950057419388,
                -1.354110049989036,
                1.7209862969266145,
                0.6386806535532297,
                -0.9131540401041752,
                -2.501338947685624
            ]
        },
        {
            "positions": [
                -0.56735612061287,
                -1.3335934893987935,
                1.7419920683911212,
                0.516409911449579,
                -0.8192326581929945,
                -2.5697165410369833
            ]
        },
        {
            "positions": [
                -0.4984172354838011,
                -1.313076928808551,
                1.7629978398556276,
                0.3941391693459282,
                -0.7253112762818138,
                -2.638094134388343
            ]
        },
        {
            "positions": [
                -0.42947835035473225,
                -1.2925603682183089,
                1.7840036113201343,
                0.27186842724227733,
                -0.6313898943706331,
                -2.7064717277397023
            ]
        },
        {
            "positions": [
                -0.3605394652256634,
                -1.2720438076280665,
                1.805009382784641,
                0.14959768513862648,
                -0.5374685124594523,
                -2.774849321091062
            ]
        },
        {
            "positions": [
                -0.2916005800965946,
                -1.251527247037824,
                1.8260151542491476,
                0.02732694303497607,
                -0.44354713054827166,
                -2.8432269144424214
            ]
        },
        {
            "positions": [
                -0.22266169496752575,
                -1.2310106864475818,
                1.847020925713654,
                -0.09494379906867478,
                -0.34962574863709106,
                -2.911604507793781
            ]
        },
        {
            "positions": [
                -0.153722809838457,
                -1.2104941258573394,
                1.8680266971781607,
                -0.21721454117232564,
                -0.25570436672591024,
                -2.9799821011451404
            ]
        },
        {
            "positions": [
                -0.084783924709388,
                -1.189977565267097,
                1.8890324686426674,
                -0.3394852832759765,
                -0.1617829848147294,
                -3.0483596944965
            ]
        },
        {
            "positions": [
                -0.015845039580319353,
                -1.1694610046768545,
                1.9100382401071738,
                -0.4617560253796269,
                -0.06786160290354881,
                -3.1167372878478594
            ]
        },
        {
            "positions": [
                0.05309384554874952,
                -1.1489444440866123,
                1.9310440115716805,
                -0.5840267674832778,
                0.02605977900763179,
                -3.185114881199219
            ]
        },
        {
            "positions": [
                0.12203273067781836,
                -1.12842788349637,
                1.9520497830361871,
                -0.7062975095869285,
                0.11998116091881264,
                -3.2534924745505784
            ]
        }
    ]
}