{
    "goal": {
        "global_pose": {
            "orientation": {
                "w": 0.7031023502349854,
                "x": -0.7110244035720825,
                "y": 0.007748599164187908,
                "z": 0.005598929710686207
            },
            "position": {
                "x": 0.11585023208521307,
                "y": 0.44412534475326537,
                "z": 0.3711530566215515
            }
        },
        "name": "move_to_auspresseinheit_A"
    },
    "id": "KPIECE_move_to_auspresseinheit_A_40",
    "joint_names": [
        "shoulder_pan_joint",
        "shoulder_lift_joint",
        "elbow_joint",
        "wrist_1_joint",
        "wrist_2_joint",
        "wrist_3_joint"
    ],
    "metrics": {
        "cart_traj_len": 0.740580839984817,
        "distance_elbow_joint": 0.2385697193087548,
        "distance_shoulder_lift_joint": 0.6381097067939201,
        "distance_shoulder_pan_joint": 1.0454267538081226,
        "distance_wrist_1_joint": 0.8206542000283945,
        "distance_wrist_2_joint": 0.5275168745188819,
        "distance_wrist_3_joint": 1.4172573387578566,
        "smoothness": 0.9306741257832915,
        "time": 0.922765218,
        "traj_len": 2.165071498407369,
        "weighted_distance": 2.978291514489292
    },
    "planner": "KPIECE",
    "start": {
        "state": {
            "elbow_joint": 2.4225747245308327,
            "shoulder_lift_joint": -1.373653427065438,
            "shoulder_pan_joint": -0.33786330853087027,
            "wrist_1_joint": -1.0288602302712604,
            "wrist_2_joint": 1.23302299562683,
            "wrist_3_joint": -3.094021725338297
        }
    },
    "waypoints": [
        {
            "positions": [
                -0.33786330853087027,
                -1.373653427065438,
                2.4225747245308327,
                -1.0288602302712604,
                1.23302299562683,
                -3.094021725338297
            ]
        },
        {
            "positions": [
                -0.27111450090690853,
                -1.4388088852653518,
                2.407701671212738,
                -0.9523873460180964,
                1.1755242039413858,
                -3.0170043347938864
            ]
        },
        {
            "positions": [
                -0.2043656932829468,
                -1.5039643434652654,
                2.3928286178946436,
                -0.8759144617649325,
                1.1180254122559417,
                -2.939986944249476
            ]
        },
        {
            "positions": [
                -0.13761688565898506,
                -1.5691198016651793,
                2.3779555645765496,
                -0.7994415775117685,
                1.0605266205704975,
                -2.8629695537050655
            ]
        },
        {
            "positions": [
                -0.07086807803502332,
                -1.6342752598650931,
                2.363082511258455,
                -0.7229686932586046,
                1.0030278288850534,
                -2.7859521631606547
            ]
        },
        {
            "positions": [
                -0.004119270411061582,
                -1.699430718065007,
                2.3482094579403605,
                -0.6464958090054405,
                0.9455290371996091,
                -2.7089347726162445
            ]
        },
        {
            "positions": [
                0.06262953721290015,
                -1.7645861762649206,
                2.333336404622266,
                -0.5700229247522766,
                0.888030245514165,
                -2.631917382071834
            ]
        },
        {
            "positions": [
                0.1293783448368619,
                -1.8297416344648345,
                2.318463351304172,
                -0.49355004049911255,
                0.8305314538287207,
                -2.554899991527423
            ]
        },
        {
            "positions": [
                0.19612715246082363,
                -1.8948970926647482,
                2.3035902979860774,
                -0.41707715624594865,
                0.7730326621432766,
                -2.477882600983013
            ]
        },
        {
            "positions": [
                0.2628759600847853,
                -1.960052550864662,
                2.288717244667983,
                -0.34060427199278465,
                0.7155338704578325,
                -2.400865210438602
            ]
        },
        {
            "positions": [
                0.34761092444133224,
                -1.9500974334246992,
                2.3122950118990557,
                -0.36782741273816166,
                0.7137398756756831,
                -2.5423251109653098
            ]
        },
        {
            "positions": [
                0.43234588879787916,
                -1.9401423159847362,
                2.3358727791301286,
                -0.3950505534835387,
                0.7119458808935337,
                -2.6837850114920174
            ]
        },
        {
            "positions": [
                0.5240850742910036,
                -1.9295421999464795,
                2.355058347458048,
                -0.4210345402365936,
                0.7097992942983385,
                -2.830845352426933
            ]
        },
        {
            "positions": [
                0.6158242597841279,
                -1.9189420839082227,
                2.3742439157859683,
                -0.4470185269896485,
                0.7076527077031433,
                -2.977905693361848
            ]
        },
        {
            "positions": [
                0.7075634452772523,
                -1.908341967869966,
                2.393429484113888,
                -0.4730025137427034,
                0.7055061211079481,
                -3.124966034296764
            ]
        }
    ]
}