{
    "goal": {
        "global_pose": {
            "orientation": {
                "w": 0.7047431468963623,
                "x": -0.7094548344612122,
                "y": 0.0024358443915843964,
                "z": -0.0022348060738295317
            },
            "position": {
                "x": 0.6094750761985779,
                "y": 0.3671506643295288,
                "z": 0.19426114857196808
            }
        },
        "name": "move_to_magneteinheit_A"
    },
    "id": "KPIECE_move_to_magneteinheit_A_129",
    "joint_names": [
        "shoulder_pan_joint",
        "shoulder_lift_joint",
        "elbow_joint",
        "wrist_1_joint",
        "wrist_2_joint",
        "wrist_3_joint"
    ],
    "metrics": {
        "cart_traj_len": 1.0531929168139065,
        "distance_elbow_joint": 0.3843255445981866,
        "distance_shoulder_lift_joint": 0.3655631276984024,
        "distance_shoulder_pan_joint": 1.2411120574502459,
        "distance_wrist_1_joint": 2.2219536185030817,
        "distance_wrist_2_joint": 1.6901595838564554,
        "distance_wrist_3_joint": 1.2133808819472471,
        "smoothness": 2.8047739791568236e-16,
        "time": 0.108181141,
        "traj_len": 2.667675919982339,
        "weighted_distance": 3.6681561826492133
    },
    "planner": "KPIECE",
    "start": {
        "state": {
            "elbow_joint": 1.5739458966750683,
            "shoulder_lift_joint": -1.4977259741207325,
            "shoulder_pan_joint": -1.1188672016454206,
            "wrist_1_joint": 1.494575848278785,
            "wrist_2_joint": -1.5706037134824402,
            "wrist_3_joint": -2.0226957942261072
        }
    },
    "waypoints": [
        {
            "positions": [
                -1.1188672016454206,
                -1.4977259741207325,
                1.5739458966750683,
                1.494575848278785,
                -1.5706037134824402,
                -2.0226957942261072
            ]
        },
        {
            "positions": [
                -1.0499165317870736,
                -1.4774169114708213,
                1.5952973158194121,
                1.3711339805841694,
                -1.4767059588237483,
                -2.0901058432231765
            ]
        },
        {
            "positions": [
                -0.9809658619287267,
                -1.45710784882091,
                1.6166487349637557,
                1.2476921128895537,
                -1.3828082041650562,
                -2.1575158922202458
            ]
        },
        {
            "positions": [
                -0.9120151920703796,
                -1.4367987861709988,
                1.6380001541080995,
                1.124250245194938,
                -1.2889104495063644,
                -2.224925941217315
            ]
        },
        {
            "positions": [
                -0.8430645222120327,
                -1.4164897235210876,
                1.659351573252443,
                1.0008083775003225,
                -1.1950126948476725,
                -2.2923359902143843
            ]
        },
        {
            "positions": [
                -0.7741138523536857,
                -1.3961806608711762,
                1.6807029923967869,
                0.8773665098057067,
                -1.1011149401889804,
                -2.3597460392114535
            ]
        },
        {
            "positions": [
                -0.7051631824953387,
                -1.375871598221265,
                1.7020544115411305,
                0.7539246421110911,
                -1.0072171855302885,
                -2.427156088208523
            ]
        },
        {
            "positions": [
                -0.6362125126369917,
                -1.3555625355713539,
                1.7234058306854743,
                0.6304827744164754,
                -0.9133194308715964,
                -2.494566137205592
            ]
        },
        {
            "positions": [
                -0.5672618427786447,
                -1.3352534729214425,
                1.7447572498298178,
                0.5070409067218599,
                -0.8194216762129045,
                -2.5619761862026618
            ]
        },
        {
            "positions": [
                -0.4983111729202977,
                -1.3149444102715313,
                1.7661086689741616,
                0.3835990390272441,
                -0.7255239215542125,
                -2.629386235199731
            ]
        },
        {
            "positions": [
                -0.4293605030619507,
                -1.2946353476216201,
                1.7874600881185054,
                0.2601571713326285,
                -0.6316261668955205,
                -2.6967962841968003
            ]
        },
        {
            "positions": [
                -0.36040983320360365,
                -1.2743262849717087,
                1.808811507262849,
                0.13671530363801265,
                -0.5377284122368284,
                -2.7642063331938695
            ]
        },
        {
            "positions": [
                -0.2914591633452568,
                -1.2540172223217976,
                1.8301629264071928,
                0.01327343594339725,
                -0.4438306575781368,
                -2.831616382190939
            ]
        },
        {
            "positions": [
                -0.2225084934869097,
                -1.2337081596718864,
                1.8515143455515364,
                -0.11016843175121838,
                -0.3499329029194447,
                -2.899026431188008
            ]
        },
        {
            "positions": [
                -0.15355782362856274,
                -1.213399097021975,
                1.8728657646958802,
                -0.23361029944583422,
                -0.2560351482607526,
                -2.9664364801850773
            ]
        },
        {
            "positions": [
                -0.08460715377021577,
                -1.1930900343720638,
                1.8942171838402238,
                -0.35705216714044985,
                -0.1621373936020607,
                -3.0338465291821466
            ]
        },
        {
            "positions": [
                -0.01565648391186869,
                -1.1727809717221527,
                1.9155686029845675,
                -0.48049403483506525,
                -0.06823963894336882,
                -3.101256578179216
            ]
        },
        {
            "positions": [
                0.05329418594647817,
                -1.1524719090722413,
                1.9369200221289113,
                -0.6039359025296809,
                0.02565811571532306,
                -3.168666627176285
            ]
        },
        {
            "positions": [
                0.12224485580482532,
                -1.1321628464223301,
                1.958271441273255,
                -0.7273777702242967,
                0.11955587037401523,
                -3.2360766761733544
            ]
        }
    ]
}