{
    "goal": {
        "global_pose": {
            "orientation": {
                "w": 0.005598929693374612,
                "x": 0.007748599140229565,
                "y": 0.7110244013736278,
                "z": -0.7031023480610252
            },
            "position": {
                "x": 0.1141497679147869,
                "y": -0.7141253447532654,
                "z": 0.3711530566215515
            }
        },
        "name": "move_to_auspresseinheit_B"
    },
    "id": "KPIECE_move_to_auspresseinheit_B_21",
    "joint_names": [
        "shoulder_pan_joint",
        "shoulder_lift_joint",
        "elbow_joint",
        "wrist_1_joint",
        "wrist_2_joint",
        "wrist_3_joint"
    ],
    "metrics": {
        "cart_traj_len": 0.56492698598112,
        "distance_elbow_joint": 0.05835968688317039,
        "distance_shoulder_lift_joint": 0.2955552499689751,
        "distance_shoulder_pan_joint": 0.5798027058981954,
        "distance_wrist_1_joint": 0.31464797976360936,
        "distance_wrist_2_joint": 0.984416379662231,
        "distance_wrist_3_joint": 0.009678840646923703,
        "smoothness": 5.075305255429287e-16,
        "time": 0.015305164999999999,
        "traj_len": 1.4974848389292978,
        "weighted_distance": 1.8870301755782264
    },
    "planner": "KPIECE",
    "start": {
        "state": {
            "elbow_joint": 2.019306165916698,
            "shoulder_lift_joint": -1.1220205098164344,
            "shoulder_pan_joint": -1.095207207618794,
            "wrist_1_joint": -0.8559671824921639,
            "wrist_2_joint": 0.47596387242952726,
            "wrist_3_joint": 3.159081874673826
        }
    },
    "waypoints": [
        {
            "positions": [
                -1.095207207618794,
                -1.1220205098164344,
                2.019306165916698,
                -0.8559671824921639,
                0.47596387242952726,
                3.159081874673826
            ]
        },
        {
            "positions": [
                -1.1918409919351598,
                -1.1712797181445969,
                2.0095795514361696,
                -0.8035258525315623,
                0.6400332690398991,
                3.1606950147816466
            ]
        },
        {
            "positions": [
                -1.2884747762515258,
                -1.2205389264727595,
                1.9998529369556413,
                -0.7510845225709607,
                0.8041026656502709,
                3.162308154889467
            ]
        },
        {
            "positions": [
                -1.3851085605678917,
                -1.269798134800922,
                1.990126322475113,
                -0.6986431926103591,
                0.9681720622606427,
                3.1639212949972877
            ]
        },
        {
            "positions": [
                -1.4817423448842575,
                -1.3190573431290844,
                1.9803997079945843,
                -0.6462018626497577,
                1.1322414588710146,
                3.1655344351051085
            ]
        },
        {
            "positions": [
                -1.5783761292006235,
                -1.368316551457247,
                1.970673093514056,
                -0.593760532689156,
                1.2963108554813865,
                3.167147575212929
            ]
        },
        {
            "positions": [
                -1.6750099135169894,
                -1.4175757597854095,
                1.9609464790335276,
                -0.5413192027285545,
                1.4603802520917581,
                3.1687607153207495
            ]
        }
    ]
}