{
    "goal": {
        "global_pose": {
            "orientation": {
                "w": -0.00223480608172531,
                "x": 0.0024358444001904467,
                "y": 0.7094548369677653,
                "z": -0.704743149386269
            },
            "position": {
                "x": 0.6205249238014221,
                "y": -0.6371506643295288,
                "z": 0.19426114857196808
            }
        },
        "name": "move_to_magneteinheit_B"
    },
    "id": "KPIECE_move_to_magneteinheit_B_86",
    "joint_names": [
        "shoulder_pan_joint",
        "shoulder_lift_joint",
        "elbow_joint",
        "wrist_1_joint",
        "wrist_2_joint",
        "wrist_3_joint"
    ],
    "metrics": {
        "cart_traj_len": 1.4526052956511712,
        "distance_elbow_joint": 0.7277098520787331,
        "distance_shoulder_lift_joint": 1.24738860617778,
        "distance_shoulder_pan_joint": 1.6211758230918445,
        "distance_wrist_1_joint": 2.6098331999766864,
        "distance_wrist_2_joint": 2.934444996900977,
        "distance_wrist_3_joint": 3.1349310075057657,
        "smoothness": 3.053113318408425e-16,
        "time": 0.10279997700000001,
        "traj_len": 3.503638606610531,
        "weighted_distance": 4.908118142182499
    },
    "planner": "KPIECE",
    "start": {
        "state": {
            "elbow_joint": 2.3935871308073637,
            "shoulder_lift_joint": -1.9085141043777403,
            "shoulder_pan_joint": 0.7066247067284167,
            "wrist_1_joint": -0.46782909355067076,
            "wrist_2_joint": 0.7096259085804283,
            "wrist_3_joint": -3.1358149275257428
        }
    },
    "waypoints": [
        {
            "positions": [
                0.7066247067284167,
                -1.9085141043777403,
                2.3935871308073637,
                -0.46782909355067076,
                0.7096259085804283,
                -3.1358149275257428
            ]
        },
        {
            "positions": [
                0.6543287124351314,
                -1.868275762242973,
                2.3701126194499853,
                -0.38364092580948733,
                0.6149663925513645,
                -3.0346881208320085
            ]
        },
        {
            "positions": [
                0.6020327181418461,
                -1.8280374201082061,
                2.346638108092607,
                -0.2994527580683039,
                0.5203068765223008,
                -2.933561314138274
            ]
        },
        {
            "positions": [
                0.5497367238485608,
                -1.787799077973439,
                2.3231635967352284,
                -0.21526459032712048,
                0.425647360493237,
                -2.83243450744454
            ]
        },
        {
            "positions": [
                0.4974407295552755,
                -1.747560735838672,
                2.29968908537785,
                -0.13107642258593705,
                0.33098784446417323,
                -2.731307700750805
            ]
        },
        {
            "positions": [
                0.44514473526199017,
                -1.7073223937039048,
                2.276214574020471,
                -0.04688825484475362,
                0.23632832843510942,
                -2.630180894057071
            ]
        },
        {
            "positions": [
                0.39284874096870487,
                -1.6670840515691376,
                2.2527400626630927,
                0.03729991289642981,
                0.14166881240604567,
                -2.5290540873633365
            ]
        },
        {
            "positions": [
                0.34055274667541957,
                -1.6268457094343707,
                2.2292655513057142,
                0.12148808063761324,
                0.047009296376981924,
                -2.427927280669602
            ]
        },
        {
            "positions": [
                0.2882567523821343,
                -1.5866073672996035,
                2.205791039948336,
                0.20567624837879667,
                -0.04765021965208183,
                -2.326800473975868
            ]
        },
        {
            "positions": [
                0.23596075808884892,
                -1.5463690251648363,
                2.1823165285909574,
                0.2898644161199802,
                -0.1423097356811457,
                -2.225673667282133
            ]
        },
        {
            "positions": [
                0.18366476379556362,
                -1.5061306830300694,
                2.158842017233579,
                0.3740525838611635,
                -0.23696925171020944,
                -2.1245468605883993
            ]
        },
        {
            "positions": [
                0.13136876950227827,
                -1.4658923408953022,
                2.1353675058762005,
                0.45824075160234706,
                -0.3316287677392732,
                -2.0234200538946645
            ]
        },
        {
            "positions": [
                0.07907277520899303,
                -1.4256539987605352,
                2.111892994518822,
                0.5424289193435303,
                -0.42628828376833694,
                -1.9222932472009302
            ]
        },
        {
            "positions": [
                0.026776780915707676,
                -1.385415656625768,
                2.088418483161443,
                0.6266170870847139,
                -0.5209477997974007,
                -1.821166440507196
            ]
        },
        {
            "positions": [
                -0.025519213377577565,
                -1.3451773144910009,
                2.064943971804065,
                0.7108052548258972,
                -0.6156073158264644,
                -1.7200396338134616
            ]
        },
        {
            "positions": [
                -0.07781520767086292,
                -1.3049389723562337,
                2.0414694604466863,
                0.7949934225670807,
                -0.7102668318555284,
                -1.618912827119727
            ]
        },
        {
            "positions": [
                -0.13011120196414816,
                -1.264700630221467,
                2.017994949089308,
                0.879181590308264,
                -0.8049263478845919,
                -1.5177860204259928
            ]
        },
        {
            "positions": [
                -0.1824071962574334,
                -1.2244622880866998,
                1.9945204377319294,
                0.9633697580494474,
                -0.8995858639136557,
                -1.4166592137322584
            ]
        },
        {
            "positions": [
                -0.23470319055071887,
                -1.1842239459519326,
                1.971045926374551,
                1.0475579257906311,
                -0.9942453799427197,
                -1.315532407038524
            ]
        },
        {
            "positions": [
                -0.2869991848440041,
                -1.1439856038171654,
                1.9475714150171726,
                1.1317460935318144,
                -1.0889048959717833,
                -1.2144056003447896
            ]
        },
        {
            "positions": [
                -0.33929517913728946,
                -1.1037472616823985,
                1.9240969036597941,
                1.2159342612729978,
                -1.1835644120008473,
                -1.1132787936510553
            ]
        },
        {
            "positions": [
                -0.3915911734305747,
                -1.0635089195476315,
                1.9006223923024157,
                1.300122429014181,
                -1.2782239280299108,
                -1.012151986957321
            ]
        },
        {
            "positions": [
                -0.44388716772386017,
                -1.0232705774128643,
                1.877147880945037,
                1.3843105967553648,
                -1.3728834440589748,
                -0.9110251802635863
            ]
        },
        {
            "positions": [
                -0.4961831620171454,
                -0.9830322352780971,
                1.8536733695876586,
                1.4684987644965481,
                -1.4675429600880388,
                -0.809898373569852
            ]
        },
        {
            "positions": [
                -0.5484791563104306,
                -0.9427938931433301,
                1.83019885823028,
                1.5526869322377315,
                -1.5622024761171023,
                -0.7087715668761176
            ]
        },
        {
            "positions": [
                -0.6007751506037159,
                -0.902555551008563,
                1.8067243468729015,
                1.6368750999789148,
                -1.6568619921461658,
                -0.6076447601823833
            ]
        },
        {
            "positions": [
                -0.6530711448970014,
                -0.8623172088737958,
                1.783249835515523,
                1.7210632677200985,
                -1.7515215081752298,
                -0.506517953488649
            ]
        },
        {
            "positions": [
                -0.7053671391902866,
                -0.8220788667390286,
                1.7597753241581446,
                1.8052514354612819,
                -1.8461810242042938,
                -0.4053911467949147
            ]
        },
        {
            "positions": [
                -0.7576631334835718,
                -0.7818405246042617,
                1.7363008128007662,
                1.8894396032024652,
                -1.9408405402333573,
                -0.3042643401011804
            ]
        },
        {
            "positions": [
                -0.8099591277768571,
                -0.7416021824694947,
                1.7128263014433878,
                1.9736277709436485,
                -2.0355000562624213,
                -0.2031375334074461
            ]
        },
        {
            "positions": [
                -0.8622551220701425,
                -0.7013638403347273,
                1.689351790086009,
                2.0578159386848323,
                -2.1301595722914852,
                -0.10201072671371136
            ]
        },
        {
            "positions": [
                -0.9145511163634278,
                -0.6611254981999605,
                1.6658772787286307,
                2.1420041064260156,
                -2.2248190883205488,
                -0.0008839200199768381
            ]
        }
    ]
}