{
    "goal": {
        "global_pose": {
            "orientation": {
                "w": -0.4816463035849501,
                "x": 0.5182115481033762,
                "y": 0.4908360881923453,
                "z": -0.5084816262002911
            },
            "position": {
                "x": -0.8240239810943604,
                "y": 0.19912469901144506,
                "z": 0.16403168439865112
            }
        },
        "name": "move_to_storage_D"
    },
    "id": "KPIECE_move_to_storage_D_122",
    "joint_names": [
        "shoulder_pan_joint",
        "shoulder_lift_joint",
        "elbow_joint",
        "wrist_1_joint",
        "wrist_2_joint",
        "wrist_3_joint"
    ],
    "metrics": {
        "cart_traj_len": 4.08366969494885,
        "distance_elbow_joint": 4.213625536650615,
        "distance_shoulder_lift_joint": 1.479742751076301,
        "distance_shoulder_pan_joint": 2.813804754443506,
        "distance_wrist_1_joint": 2.3172614131127087,
        "distance_wrist_2_joint": 1.689119159739796,
        "distance_wrist_3_joint": 3.1238782699456484,
        "smoothness": 0.20927657819265508,
        "time": 0.243229946,
        "traj_len": 3.954419285428466,
        "weighted_distance": 5.088375870325655
    },
    "planner": "KPIECE",
    "start": {
        "state": {
            "elbow_joint": -2.384821997420982,
            "shoulder_lift_joint": -2.2788054674887404,
            "shoulder_pan_joint": -0.18546946417610016,
            "wrist_1_joint": 1.4845937964226739,
            "wrist_2_joint": 0.1789877726866377,
            "wrist_3_joint": 0.03710572555276528
        }
    },
    "waypoints": [
        {
            "positions": [
                -0.18546946417610016,
                -2.2788054674887404,
                -2.384821997420982,
                1.4845937964226739,
                0.1789877726866377,
                0.03710572555276528
            ]
        },
        {
            "positions": [
                -0.16368607518164213,
                -2.2353045899055557,
                -2.3720606717193364,
                1.5035104978995817,
                0.17257071769126614,
                0.0031596022484214406
            ]
        },
        {
            "positions": [
                -0.08267407345229684,
                -2.1938102996849653,
                -2.278156384456791,
                1.43493314863325,
                0.212788663139274,
                -0.06447840578637679
            ]
        },
        {
            "positions": [
                -0.001662071722951547,
                -2.152316009464375,
                -2.184252097194246,
                1.3663557993669182,
                0.25300660858728186,
                -0.132116413821175
            ]
        },
        {
            "positions": [
                0.07934993000639373,
                -2.1108217192437846,
                -2.0903478099317003,
                1.2977784501005862,
                0.29322455403528974,
                -0.19975442185597322
            ]
        },
        {
            "positions": [
                0.16036193173573904,
                -2.0693274290231947,
                -1.996443522669155,
                1.2292011008342545,
                0.3334424994832976,
                -0.26739242989077144
            ]
        },
        {
            "positions": [
                0.24137393346508434,
                -2.0278331388026043,
                -1.9025392354066097,
                1.1606237515679227,
                0.37366044493130546,
                -0.3350304379255697
            ]
        },
        {
            "positions": [
                0.3223859351944296,
                -1.986338848582014,
                -1.8086349481440642,
                1.092046402301591,
                0.41387839037931334,
                -0.4026684459603679
            ]
        },
        {
            "positions": [
                0.4033979369237749,
                -1.9448445583614236,
                -1.714730660881519,
                1.0234690530352593,
                0.4540963358273212,
                -0.4703064539951661
            ]
        },
        {
            "positions": [
                0.4844099386531202,
                -1.9033502681408332,
                -1.6208263736189736,
                0.9548917037689274,
                0.49431428127532906,
                -0.5379444620299643
            ]
        },
        {
            "positions": [
                0.5654219403824655,
                -1.861855977920243,
                -1.5269220863564281,
                0.8863143545025957,
                0.534532226723337,
                -0.6055824700647625
            ]
        },
        {
            "positions": [
                0.6464339421118108,
                -1.8203616876996527,
                -1.4330177990938828,
                0.8177370052362638,
                0.5747501721713448,
                -0.6732204780995608
            ]
        },
        {
            "positions": [
                0.7274459438411561,
                -1.7788673974790625,
                -1.3391135118313375,
                0.7491596559699321,
                0.6149681176193527,
                -0.7408584861343589
            ]
        },
        {
            "positions": [
                0.8084579455705013,
                -1.7373731072584722,
                -1.245209224568792,
                0.6805823067036003,
                0.6551860630673605,
                -0.8084964941691571
            ]
        },
        {
            "positions": [
                0.8894699472998467,
                -1.6958788170378818,
                -1.1513049373062467,
                0.6120049574372685,
                0.6954040085153683,
                -0.8761345022039554
            ]
        },
        {
            "positions": [
                0.9704819490291919,
                -1.6543845268172914,
                -1.0574006500437014,
                0.5434276081709367,
                0.7356219539633762,
                -0.9437725102387535
            ]
        },
        {
            "positions": [
                1.0514939507585375,
                -1.612890236596701,
                -0.9634963627811559,
                0.47485025890460486,
                0.7758398994113842,
                -1.0114105182735518
            ]
        },
        {
            "positions": [
                1.1325059524878824,
                -1.571395946376111,
                -0.8695920755186106,
                0.4062729096382731,
                0.816057844859392,
                -1.07904852630835
            ]
        },
        {
            "positions": [
                1.2135179542172279,
                -1.5299016561555208,
                -0.7756877882560653,
                0.3376955603719414,
                0.8562757903073999,
                -1.1466865343431483
            ]
        },
        {
            "positions": [
                1.2945299559465733,
                -1.4884073659349304,
                -0.6817835009935198,
                0.26911821110560963,
                0.8964937357554077,
                -1.2143245423779465
            ]
        },
        {
            "positions": [
                1.3755419576759182,
                -1.44691307571434,
                -0.5878792137309745,
                0.20054086183927766,
                0.9367116812034155,
                -1.2819625504127448
            ]
        },
        {
            "positions": [
                1.4565539594052637,
                -1.4054187854937497,
                -0.4939749264684292,
                0.13196351257294592,
                0.9769296266514234,
                -1.349600558447543
            ]
        },
        {
            "positions": [
                1.537565961134609,
                -1.3639244952731593,
                -0.4000706392058837,
                0.06338616330661417,
                1.0171475720994314,
                -1.417238566482341
            ]
        },
        {
            "positions": [
                1.6185779628639545,
                -1.3224302050525691,
                -0.30616635194333863,
                -0.00519118595971757,
                1.0573655175474392,
                -1.4848765745171393
            ]
        },
        {
            "positions": [
                1.6995899645932995,
                -1.2809359148319788,
                -0.21226206468079312,
                -0.07376853522604931,
                1.097583462995447,
                -1.5525145825519375
            ]
        },
        {
            "positions": [
                1.780601966322645,
                -1.2394416246113886,
                -0.1183577774182476,
                -0.14234588449238106,
                1.137801408443455,
                -1.6201525905867358
            ]
        },
        {
            "positions": [
                1.8616139680519903,
                -1.1979473343907983,
                -0.02445349015570253,
                -0.21092323375871302,
                1.1780193538914627,
                -1.687790598621534
            ]
        },
        {
            "positions": [
                1.9426259697813357,
                -1.1564530441702079,
                0.06945079710684299,
                -0.27950058302504477,
                1.2182372993394706,
                -1.7554286066563323
            ]
        },
        {
            "positions": [
                2.0236379715106807,
                -1.1149587539496175,
                0.1633550843693885,
                -0.3480779322913765,
                1.2584552447874784,
                -1.8230666146911305
            ]
        },
        {
            "positions": [
                2.104649973240026,
                -1.0734644637290274,
                0.2572593716319336,
                -0.41665528155770826,
                1.2986731902354862,
                -1.8907046227259285
            ]
        },
        {
            "positions": [
                2.1856619749693715,
                -1.031970173508437,
                0.3511636588944791,
                -0.48523263082404,
                1.3388911356834943,
                -1.9583426307607268
            ]
        },
        {
            "positions": [
                2.266673976698717,
                -0.9904758832878466,
                0.4450679461570246,
                -0.553809980090372,
                1.379109081131502,
                -2.025980638795525
            ]
        },
        {
            "positions": [
                2.347685978428062,
                -0.9489815930672565,
                0.5389722334195697,
                -0.6223873293567037,
                1.41932702657951,
                -2.0936186468303233
            ]
        },
        {
            "positions": [
                2.4286979801574073,
                -0.907487302846666,
                0.6328765206821152,
                -0.6909646786230353,
                1.4595449720275178,
                -2.1612566548651215
            ]
        },
        {
            "positions": [
                2.4536526439211572,
                -0.9210403761509444,
                0.7823673980005549,
                -0.7039483705121833,
                1.4100789907264961,
                -2.276946141056092
            ]
        },
        {
            "positions": [
                2.478607307684907,
                -0.9345934494552227,
                0.9318582753189946,
                -0.7169320624013312,
                1.3606130094254745,
                -2.3926356272470617
            ]
        },
        {
            "positions": [
                2.503561971448657,
                -0.9481465227595011,
                1.0813491526374341,
                -0.7299157542904792,
                1.3111470281244528,
                -2.508325113438032
            ]
        },
        {
            "positions": [
                2.528516635212407,
                -0.9616995960637793,
                1.230840029955874,
                -0.7428994461796272,
                1.2616810468234312,
                -2.6240145996290023
            ]
        },
        {
            "positions": [
                2.5534712989761563,
                -0.9752526693680577,
                1.3803309072743135,
                -0.7558831380687752,
                1.2122150655224098,
                -2.7397040858199726
            ]
        },
        {
            "positions": [
                2.578425962739906,
                -0.988805742672336,
                1.529821784592753,
                -0.7688668299579231,
                1.1627490842213881,
                -2.855393572010943
            ]
        },
        {
            "positions": [
                2.603380626503656,
                -1.0023588159766144,
                1.6793126619111929,
                -0.781850521847071,
                1.1132831029203665,
                -2.9710830582019128
            ]
        },
        {
            "positions": [
                2.628335290267406,
                -1.0159118892808927,
                1.8288035392296325,
                -0.794834213736219,
                1.0638171216193448,
                -3.086772544392883
            ]
        }
    ]
}