{
    "goal": {
        "global_pose": {
            "orientation": {
                "w": -0.4816463035849501,
                "x": 0.5182115481033762,
                "y": 0.4908360881923453,
                "z": -0.5084816262002911
            },
            "position": {
                "x": -0.8240239810943604,
                "y": -0.300875300988555,
                "z": 0.16403168439865112
            }
        },
        "name": "move_to_storage_C"
    },
    "id": "KPIECE_move_to_storage_C_89",
    "joint_names": [
        "shoulder_pan_joint",
        "shoulder_lift_joint",
        "elbow_joint",
        "wrist_1_joint",
        "wrist_2_joint",
        "wrist_3_joint"
    ],
    "metrics": {
        "cart_traj_len": 0.5761763432195459,
        "distance_elbow_joint": 0.2551253157048814,
        "distance_shoulder_lift_joint": 0.18807090062474052,
        "distance_shoulder_pan_joint": 0.4957040678085556,
        "distance_wrist_1_joint": 0.07435792292743282,
        "distance_wrist_2_joint": 1.061950320018532,
        "distance_wrist_3_joint": 0.06011722043301271,
        "smoothness": 2.5376526478085547e-16,
        "time": 0.252086042,
        "traj_len": 1.4612753838743588,
        "weighted_distance": 1.8417025903573965
    },
    "planner": "KPIECE",
    "start": {
        "state": {
            "elbow_joint": 2.010868315001653,
            "shoulder_lift_joint": -1.1634956873357014,
            "shoulder_pan_joint": -2.4736205022346103,
            "wrist_1_joint": -0.8367026794713948,
            "wrist_2_joint": 0.6746043897044093,
            "wrist_3_joint": 3.1335220948105738
        }
    },
    "waypoints": [
        {
            "positions": [
                -2.4736205022346103,
                -1.1634956873357014,
                2.010868315001653,
                -0.8367026794713948,
                0.6746043897044093,
                3.1335220948105738
            ]
        },
        {
            "positions": [
                -2.5562378468693696,
                -1.132150537231578,
                1.9683474290508396,
                -0.8243096923168226,
                0.851596109707498,
                3.143541631549409
            ]
        },
        {
            "positions": [
                -2.638855191504129,
                -1.1008053871274546,
                1.9258265431000259,
                -0.8119167051622505,
                1.0285878297105866,
                3.1535611682882445
            ]
        },
        {
            "positions": [
                -2.7214725361388883,
                -1.069460237023331,
                1.8833056571492124,
                -0.7995237180076784,
                1.2055795497136752,
                3.16358070502708
            ]
        },
        {
            "positions": [
                -2.804089880773647,
                -1.0381150869192077,
                1.840784771198399,
                -0.7871307308531063,
                1.382571269716764,
                3.1736002417659157
            ]
        },
        {
            "positions": [
                -2.8867072254084065,
                -1.0067699368150844,
                1.7982638852475852,
                -0.7747377436985341,
                1.5595629897198529,
                3.183619778504751
            ]
        },
        {
            "positions": [
                -2.969324570043166,
                -0.9754247867109609,
                1.7557429992967717,
                -0.7623447565439619,
                1.7365547097229412,
                3.1936393152435865
            ]
        }
    ]
}