{
    "goal": {
        "global_pose": {
            "orientation": {
                "w": 0.7031023480610252,
                "x": -0.7110244013736278,
                "y": 0.0077485991402295624,
                "z": 0.005598929693374583
            },
            "position": {
                "x": -0.8841497679147869,
                "y": 0.44412534475326537,
                "z": 0.3711530566215515
            }
        },
        "name": "move_to_auspresseinheit_D"
    },
    "id": "KPIECE_move_to_auspresseinheit_D_150",
    "joint_names": [
        "shoulder_pan_joint",
        "shoulder_lift_joint",
        "elbow_joint",
        "wrist_1_joint",
        "wrist_2_joint",
        "wrist_3_joint"
    ],
    "metrics": {
        "cart_traj_len": 0.8659923188558643,
        "distance_elbow_joint": 0.4863973037380822,
        "distance_shoulder_lift_joint": 0.2953863956212762,
        "distance_shoulder_pan_joint": 0.20932301773211748,
        "distance_wrist_1_joint": 3.3155271448054333,
        "distance_wrist_2_joint": 3.6511766503521064,
        "distance_wrist_3_joint": 3.7391543204567004,
        "smoothness": 0.1441244633894049,
        "time": 4.09574316,
        "traj_len": 3.4200825768840315,
        "weighted_distance": 5.11292257605928
    },
    "planner": "KPIECE",
    "start": {
        "state": {
            "elbow_joint": 1.8268400409724999,
            "shoulder_lift_joint": -1.0144045787793008,
            "shoulder_pan_joint": 2.6280239544362485,
            "wrist_1_joint": -0.790705565816056,
            "wrist_2_joint": 1.0573557467365533,
            "wrist_3_joint": 3.1851377467193758
        }
    },
    "waypoints": [
        {
            "positions": [
                2.6280239544362485,
                -1.0144045787793008,
                1.8268400409724999,
                -0.790705565816056,
                1.0573557467365533,
                3.1851377467193758
            ]
        },
        {
            "positions": [
                2.623085754381373,
                -1.013945073731056,
                1.8202415995149201,
                -0.67563843841069,
                0.93696761456352,
                3.0413301428308865
            ]
        },
        {
            "positions": [
                2.6181475543264976,
                -1.013485568682811,
                1.8136431580573404,
                -0.5605713110053242,
                0.8165794823904866,
                2.8975225389423973
            ]
        },
        {
            "positions": [
                2.613209354271622,
                -1.013026063634566,
                1.8070447165997607,
                -0.44550418359995825,
                0.6961913502174533,
                2.7537149350539076
            ]
        },
        {
            "positions": [
                2.6082711542167467,
                -1.0125665585863213,
                1.800446275142181,
                -0.33043705619459235,
                0.57580321804442,
                2.6099073311654184
            ]
        },
        {
            "positions": [
                2.6033329541618713,
                -1.0121070535380765,
                1.7938478336846013,
                -0.21536992878922634,
                0.4554150858713867,
                2.466099727276929
            ]
        },
        {
            "positions": [
                2.5983947541069954,
                -1.0116475484898315,
                1.7872493922270216,
                -0.1003028013838605,
                0.33502695369835334,
                2.32229212338844
            ]
        },
        {
            "positions": [
                2.59345655405212,
                -1.0111880434415865,
                1.7806509507694421,
                0.014764326021505458,
                0.21463882152532,
                2.1784845194999507
            ]
        },
        {
            "positions": [
                2.5885183539972445,
                -1.0107285383933418,
                1.7740525093118624,
                0.1298314534268713,
                0.09425068935228675,
                2.0346769156114615
            ]
        },
        {
            "positions": [
                2.583580153942369,
                -1.010269033345097,
                1.7674540678542827,
                0.24489858083223726,
                -0.026137442820746593,
                1.890869311722972
            ]
        },
        {
            "positions": [
                2.5786419538874936,
                -1.009809528296852,
                1.760855626396703,
                0.3599657082376033,
                -0.14652557499377994,
                1.7470617078344826
            ]
        },
        {
            "positions": [
                2.573703753832618,
                -1.009350023248607,
                1.7542571849391233,
                0.47503283564296894,
                -0.2669137071668133,
                1.6032541039459935
            ]
        },
        {
            "positions": [
                2.5687655537777427,
                -1.0088905182003622,
                1.7476587434815436,
                0.590099963048335,
                -0.38730183933984663,
                1.459446500057504
            ]
        },
        {
            "positions": [
                2.5638273537228673,
                -1.0084310131521175,
                1.741060302023964,
                0.7051670904537009,
                -0.5076899715128798,
                1.3156388961690149
            ]
        },
        {
            "positions": [
                2.558889153667992,
                -1.0079715081038725,
                1.7344618605663842,
                0.8202342178590669,
                -0.6280781036859133,
                1.1718312922805252
            ]
        },
        {
            "positions": [
                2.5539509536131164,
                -1.0075120030556275,
                1.7278634191088045,
                0.9353013452644328,
                -0.7484662358589467,
                1.0280236883920364
            ]
        },
        {
            "positions": [
                2.549012753558241,
                -1.0070524980073827,
                1.7212649776512248,
                1.0503684726697986,
                -0.8688543680319798,
                0.8842160845035472
            ]
        },
        {
            "positions": [
                2.5440745535033655,
                -1.006592992959138,
                1.714666536193645,
                1.1654356000751647,
                -0.9892425002050134,
                0.7404084806150575
            ]
        },
        {
            "positions": [
                2.53913635344849,
                -1.006133487910893,
                1.7080680947360656,
                1.2805027274805305,
                -1.1096306323780465,
                0.5966008767265683
            ]
        },
        {
            "positions": [
                2.534198153393614,
                -1.005673982862648,
                1.7014696532784859,
                1.3955698548858961,
                -1.2300187645510796,
                0.452793272838079
            ]
        },
        {
            "positions": [
                2.5292599533387388,
                -1.0052144778144032,
                1.6948712118209062,
                1.5106369822912626,
                -1.3504068967241132,
                0.30898566894958934
            ]
        },
        {
            "positions": [
                2.5243217532838633,
                -1.0047549727661584,
                1.6882727703633265,
                1.6257041096966283,
                -1.4707950288971468,
                0.1651780650611001
            ]
        },
        {
            "positions": [
                2.519383553228988,
                -1.0042954677179134,
                1.6816743289057468,
                1.7407712371019939,
                -1.5911831610701799,
                0.02137046117261132
            ]
        },
        {
            "positions": [
                2.5144453531741124,
                -1.0038359626696685,
                1.675075887448167,
                1.8558383645073604,
                -1.7115712932432134,
                -0.12243714271587836
            ]
        },
        {
            "positions": [
                2.509507153119237,
                -1.0033764576214237,
                1.6684774459905873,
                1.9709054919127262,
                -1.8319594254162466,
                -0.2662447466043676
            ]
        },
        {
            "positions": [
                2.5246415225217547,
                -0.9559834118775239,
                1.6138049945312258,
                2.063224839758835,
                -1.9589363384494642,
                -0.21828277541554136
            ]
        },
        {
            "positions": [
                2.5397758919242723,
                -0.908590366133624,
                1.559132543071864,
                2.1555441876049435,
                -2.085913251482682,
                -0.17032080422671514
            ]
        },
        {
            "positions": [
                2.55491026132679,
                -0.8611973203897241,
                1.5044600916125024,
                2.247863535451052,
                -2.2128901645159,
                -0.12235883303788889
            ]
        },
        {
            "positions": [
                2.5700446307293077,
                -0.8138042746458243,
                1.4497876401531409,
                2.3401828832971603,
                -2.3398670775491173,
                -0.07439686184906266
            ]
        },
        {
            "positions": [
                2.5851790001318253,
                -0.7664112289019245,
                1.3951151886937794,
                2.432502231143269,
                -2.466843990582335,
                -0.02643489066023641
            ]
        },
        {
            "positions": [
                2.600313369534343,
                -0.7190181831580246,
                1.3404427372344176,
                2.5248215789893775,
                -2.593820903615553,
                0.02152708052858981
            ]
        }
    ]
}