{
    "goal": {
        "global_pose": {
            "orientation": {
                "w": 0.5084816217422485,
                "x": -0.49083608388900757,
                "y": 0.5182115435600281,
                "z": -0.4816462993621826
            },
            "position": {
                "x": 0.5540239810943604,
                "y": 0.030875300988554955,
                "z": 0.16403168439865112
            }
        },
        "name": "move_to_storage_A"
    },
    "id": "KPIECE_move_to_storage_A_80",
    "joint_names": [
        "shoulder_pan_joint",
        "shoulder_lift_joint",
        "elbow_joint",
        "wrist_1_joint",
        "wrist_2_joint",
        "wrist_3_joint"
    ],
    "metrics": {
        "cart_traj_len": 0.3531015005176847,
        "distance_elbow_joint": 0.45085842974699597,
        "distance_shoulder_lift_joint": 0.2368008810741391,
        "distance_shoulder_pan_joint": 0.4636750253642426,
        "distance_wrist_1_joint": 0.24343945418955626,
        "distance_wrist_2_joint": 1.0916710175756625,
        "distance_wrist_3_joint": 0.10378378101699726,
        "smoothness": 4.440892098500626e-16,
        "time": 0.09399797900000001,
        "traj_len": 1.6094187115128227,
        "weighted_distance": 2.032955145291407
    },
    "planner": "KPIECE",
    "start": {
        "state": {
            "elbow_joint": 1.9715474177455299,
            "shoulder_lift_joint": -1.139484666580328,
            "shoulder_pan_joint": 0.12281154398918248,
            "wrist_1_joint": -0.7804687475355282,
            "wrist_2_joint": 0.12958649657246987,
            "wrist_3_joint": -3.1924925159053466
        }
    },
    "waypoints": [
        {
            "positions": [
                0.12281154398918248,
                -1.139484666580328,
                1.9715474177455299,
                -0.7804687475355282,
                0.12958649657246987,
                -3.1924925159053466
            ]
        },
        {
            "positions": [
                0.05657225465143355,
                -1.1733133638766335,
                2.0359557648522437,
                -0.8152458124197505,
                0.2855394990832788,
                -3.177666261474347
            ]
        },
        {
            "positions": [
                -0.009667034686315384,
                -1.207142061172939,
                2.100364111958957,
                -0.8500228773039729,
                0.4414925015940878,
                -3.1628400070433473
            ]
        },
        {
            "positions": [
                -0.07590632402406433,
                -1.2409707584692447,
                2.164772459065671,
                -0.8847999421881951,
                0.5974455041048967,
                -3.1480137526123477
            ]
        },
        {
            "positions": [
                -0.14214561336181325,
                -1.2747994557655504,
                2.229180806172385,
                -0.9195770070724175,
                0.7533985066157057,
                -3.133187498181348
            ]
        },
        {
            "positions": [
                -0.20838490269956222,
                -1.308628153061856,
                2.2935891532790986,
                -0.9543540719566398,
                0.9093515091265147,
                -3.1183612437503485
            ]
        },
        {
            "positions": [
                -0.27462419203731114,
                -1.3424568503581615,
                2.357997500385812,
                -0.9891311368408622,
                1.0653045116373236,
                -3.103534989319349
            ]
        },
        {
            "positions": [
                -0.3408634813750601,
                -1.376285547654467,
                2.422405847492526,
                -1.0239082017250845,
                1.2212575141481326,
                -3.0887087348883493
            ]
        }
    ]
}