{
    "goal": {
        "global_pose": {
            "orientation": {
                "w": 0.7031023480610252,
                "x": -0.7110244013736278,
                "y": 0.0077485991402295624,
                "z": 0.005598929693374583
            },
            "position": {
                "x": -0.8841497679147869,
                "y": 0.44412534475326537,
                "z": 0.3711530566215515
            }
        },
        "name": "move_to_auspresseinheit_D"
    },
    "id": "KPIECE_move_to_auspresseinheit_D_31",
    "joint_names": [
        "shoulder_pan_joint",
        "shoulder_lift_joint",
        "elbow_joint",
        "wrist_1_joint",
        "wrist_2_joint",
        "wrist_3_joint"
    ],
    "metrics": {
        "cart_traj_len": 3.879187834341507,
        "distance_elbow_joint": 3.021768143203211,
        "distance_shoulder_lift_joint": 1.3147241671051448,
        "distance_shoulder_pan_joint": 2.7972633272039023,
        "distance_wrist_1_joint": 3.3939365855658448,
        "distance_wrist_2_joint": 1.2217593803949467,
        "distance_wrist_3_joint": 1.900479745206721,
        "smoothness": 0.3255576369317186,
        "time": 0.08534542,
        "traj_len": 3.6945813495820836,
        "weighted_distance": 4.69750857423954
    },
    "planner": "KPIECE",
    "start": {
        "state": {
            "elbow_joint": 1.8268400409724999,
            "shoulder_lift_joint": -1.0144045787793008,
            "shoulder_pan_joint": 2.6280239544362485,
            "wrist_1_joint": -0.790705565816056,
            "wrist_2_joint": 1.0573557467365533,
            "wrist_3_joint": 3.1851377467193758
        }
    },
    "waypoints": [
        {
            "positions": [
                2.6280239544362485,
                -1.0144045787793008,
                1.8268400409724999,
                -0.790705565816056,
                1.0573557467365533,
                3.1851377467193758
            ]
        },
        {
            "positions": [
                2.602048714550129,
                -1.008415345649531,
                1.708837813278634,
                -0.6956103243818227,
                1.044958676686537,
                3.0486371342799843
            ]
        },
        {
            "positions": [
                2.57607347466401,
                -1.0024261125197613,
                1.590835585584768,
                -0.6005150829475893,
                1.0325616066365209,
                2.9121365218405932
            ]
        },
        {
            "positions": [
                2.5500982347778907,
                -0.9964368793899916,
                1.472833357890902,
                -0.505419841513356,
                1.0201645365865044,
                2.7756359094012018
            ]
        },
        {
            "positions": [
                2.5241229948917714,
                -0.9904476462602219,
                1.3548311301970362,
                -0.4103246000791226,
                1.0077674665364882,
                2.6391352969618103
            ]
        },
        {
            "positions": [
                2.498147755005652,
                -0.9844584131304521,
                1.23682890250317,
                -0.3152293586448892,
                0.995370396486472,
                2.5026346845224188
            ]
        },
        {
            "positions": [
                2.472172515119533,
                -0.9784691800006824,
                1.1188266748093043,
                -0.2201341172106559,
                0.9829733264364557,
                2.3661340720830277
            ]
        },
        {
            "positions": [
                2.4461972752334136,
                -0.9724799468709127,
                1.0008244471154382,
                -0.12503887577642245,
                0.9705762563864394,
                2.2296334596436362
            ]
        },
        {
            "positions": [
                2.3527888235190897,
                -1.0179370731279396,
                0.9224047132102184,
                -0.22247708633093,
                0.9300412603134096,
                2.263382583148314
            ]
        },
        {
            "positions": [
                2.259380371804766,
                -1.0633941993849667,
                0.8439849793049987,
                -0.3199152968854375,
                0.8895062642403799,
                2.297131706652992
            ]
        },
        {
            "positions": [
                2.165971920090442,
                -1.1088513256419938,
                0.765565245399779,
                -0.41735350743994504,
                0.8489712681673501,
                2.33088083015767
            ]
        },
        {
            "positions": [
                2.072563468376118,
                -1.1543084518990208,
                0.6871455114945593,
                -0.5147917179944526,
                0.8084362720943205,
                2.364629953662348
            ]
        },
        {
            "positions": [
                1.9791550166617944,
                -1.1997655781560477,
                0.6087257775893395,
                -0.6122299285489602,
                0.7679012760212907,
                2.398379077167026
            ]
        },
        {
            "positions": [
                1.8857465649474707,
                -1.2452227044130748,
                0.5303060436841198,
                -0.7096681391034677,
                0.727366279948261,
                2.4321282006717038
            ]
        },
        {
            "positions": [
                1.7923381132331468,
                -1.290679830670102,
                0.4518863097789001,
                -0.8071063496579752,
                0.6868312838752312,
                2.4658773241763816
            ]
        },
        {
            "positions": [
                1.698929661518823,
                -1.3361369569271289,
                0.3734665758736804,
                -0.9045445602124828,
                0.6462962878022014,
                2.4996264476810595
            ]
        },
        {
            "positions": [
                1.605521209804499,
                -1.381594083184156,
                0.29504684196846065,
                -1.0019827707669904,
                0.6057612917291717,
                2.5333755711857373
            ]
        },
        {
            "positions": [
                1.5121127580901752,
                -1.427051209441183,
                0.21662710806324093,
                -1.099420981321498,
                0.5652262956561419,
                2.567124694690415
            ]
        },
        {
            "positions": [
                1.4187043063758513,
                -1.47250833569821,
                0.1382073741580212,
                -1.1968591918760054,
                0.5246912995831122,
                2.600873818195093
            ]
        },
        {
            "positions": [
                1.3252958546615277,
                -1.517965461955237,
                0.05978764025280148,
                -1.294297402430513,
                0.4841563035100825,
                2.6346229416997713
            ]
        },
        {
            "positions": [
                1.2318874029472038,
                -1.5634225882122639,
                -0.018632093652418247,
                -1.3917356129850205,
                0.44362130743705264,
                2.668372065204449
            ]
        },
        {
            "positions": [
                1.13847895123288,
                -1.608879714469291,
                -0.09705182755763797,
                -1.489173823539528,
                0.40308631136402295,
                2.702121188709127
            ]
        },
        {
            "positions": [
                1.045070499518556,
                -1.6543368407263181,
                -0.1754715614628577,
                -1.5866120340940355,
                0.36255131529099327,
                2.735870312213805
            ]
        },
        {
            "positions": [
                0.9516620478042324,
                -1.699793966983345,
                -0.2538912953680774,
                -1.684050244648543,
                0.3220163192179635,
                2.7696194357184827
            ]
        },
        {
            "positions": [
                0.8582535960899085,
                -1.745251093240372,
                -0.33231102927329714,
                -1.7814884552030505,
                0.2814813231449338,
                2.8033685592231605
            ]
        },
        {
            "positions": [
                0.7648451443755844,
                -1.7907082194973993,
                -0.41073076317851687,
                -1.8789266657575583,
                0.2409463270719039,
                2.837117682727839
            ]
        },
        {
            "positions": [
                0.6714366926612607,
                -1.8361653457544262,
                -0.4891504970837366,
                -1.9763648763120658,
                0.2004113309988742,
                2.8708668062325167
            ]
        },
        {
            "positions": [
                0.5780282409469368,
                -1.8816224720114532,
                -0.5675702309889563,
                -2.0738030868665733,
                0.1598763349258444,
                2.9046159297371945
            ]
        },
        {
            "positions": [
                0.48461978923261295,
                -1.92707959826848,
                -0.645989964894176,
                -2.171241297421081,
                0.11934133885281473,
                2.9383650532418724
            ]
        },
        {
            "positions": [
                0.39121133751828907,
                -1.9725367245255072,
                -0.7244096987993958,
                -2.2686795079755884,
                0.07880634277978504,
                2.97211417674655
            ]
        },
        {
            "positions": [
                0.29780288580396563,
                -2.017993850782534,
                -0.8028294327046155,
                -2.366117718530096,
                0.03827134670675525,
                3.005863300251228
            ]
        },
        {
            "positions": [
                0.20439443408964175,
                -2.0634509770395613,
                -0.8812491666098352,
                -2.4635559290846034,
                -0.002263649366274434,
                3.039612423755906
            ]
        },
        {
            "positions": [
                0.11098598237531743,
                -2.1089081032965886,
                -0.9596689005150549,
                -2.560994139639111,
                -0.04279864543930423,
                3.073361547260584
            ]
        },
        {
            "positions": [
                0.01757753066099399,
                -2.1543652295536155,
                -1.0380886344202747,
                -2.6584323501936185,
                -0.08333364151233413,
                3.107110670765262
            ]
        },
        {
            "positions": [
                -0.07583092105332989,
                -2.1998223558106424,
                -1.1165083683254946,
                -2.755870560748126,
                -0.12386863758536382,
                3.14085979426994
            ]
        },
        {
            "positions": [
                -0.1692393727676537,
                -2.2452794820676694,
                -1.1949281022307139,
                -2.8533087713026335,
                -0.1644036336583934,
                3.1746089177746177
            ]
        }
    ]
}