{
    "goal": {
        "global_pose": {
            "orientation": {
                "w": 0.005598929693374612,
                "x": 0.007748599140229565,
                "y": 0.7110244013736278,
                "z": -0.7031023480610252
            },
            "position": {
                "x": -0.8858502320852131,
                "y": -0.7141253447532654,
                "z": 0.3711530566215515
            }
        },
        "name": "move_to_auspresseinheit_C"
    },
    "id": "KPIECE_move_to_auspresseinheit_C_105",
    "joint_names": [
        "shoulder_pan_joint",
        "shoulder_lift_joint",
        "elbow_joint",
        "wrist_1_joint",
        "wrist_2_joint",
        "wrist_3_joint"
    ],
    "metrics": {
        "cart_traj_len": 0.4939790882448067,
        "distance_elbow_joint": 1.0195807140963256,
        "distance_shoulder_lift_joint": 0.33471381566690983,
        "distance_shoulder_pan_joint": 0.2553770153927153,
        "distance_wrist_1_joint": 0.7104985385486591,
        "distance_wrist_2_joint": 1.321863757080952,
        "distance_wrist_3_joint": 0.0801078832672193,
        "smoothness": 6.459479416000911e-16,
        "time": 1.3498175060000002,
        "traj_len": 1.929285288404175,
        "weighted_distance": 2.4320196928102433
    },
    "planner": "KPIECE",
    "start": {
        "state": {
            "elbow_joint": 1.752795957773711,
            "shoulder_lift_joint": -0.9740617694225064,
            "shoulder_pan_joint": -2.967991417825858,
            "wrist_1_joint": -0.7595177689806859,
            "wrist_2_joint": 1.7443932448377395,
            "wrist_3_joint": 3.199131542505932
        }
    },
    "waypoints": [
        {
            "positions": [
                -2.967991417825858,
                -0.9740617694225064,
                1.752795957773711,
                -0.7595177689806859,
                1.7443932448377395,
                3.199131542505932
            ]
        },
        {
            "positions": [
                -2.9424537162865865,
                -0.9405903878558155,
                1.6508378863640785,
                -0.68846791512582,
                1.6122068691296443,
                3.1911207541792104
            ]
        },
        {
            "positions": [
                -2.916916014747315,
                -0.9071190062891245,
                1.548879814954446,
                -0.6174180612709541,
                1.480020493421549,
                3.183109965852488
            ]
        },
        {
            "positions": [
                -2.8913783132080435,
                -0.8736476247224335,
                1.4469217435448134,
                -0.5463682074160883,
                1.3478341177134538,
                3.1750991775257664
            ]
        },
        {
            "positions": [
                -2.865840611668772,
                -0.8401762431557425,
                1.3449636721351808,
                -0.4753183535612223,
                1.2156477420053586,
                3.1670883891990442
            ]
        },
        {
            "positions": [
                -2.8403029101295,
                -0.8067048615890515,
                1.2430056007255483,
                -0.4042684997063564,
                1.0834613662972634,
                3.1590776008723225
            ]
        },
        {
            "positions": [
                -2.8147652085902286,
                -0.7732334800223606,
                1.141047529315916,
                -0.3332186458514905,
                0.9512749905891683,
                3.1510668125456007
            ]
        },
        {
            "positions": [
                -2.789227507050957,
                -0.7397620984556695,
                1.0390894579062833,
                -0.2621687919966247,
                0.8190886148810732,
                3.1430560242188785
            ]
        },
        {
            "positions": [
                -2.7636898055116856,
                -0.7062907168889785,
                0.9371313864966506,
                -0.19111893814175873,
                0.686902239172978,
                3.135045235892157
            ]
        },
        {
            "positions": [
                -2.738152103972414,
                -0.6728193353222875,
                0.8351733150870181,
                -0.12006908428689278,
                0.5547158634648828,
                3.1270344475654346
            ]
        },
        {
            "positions": [
                -2.7126144024331427,
                -0.6393479537555966,
                0.7332152436773857,
                -0.04901923043202689,
                0.42252948775678756,
                3.119023659238713
            ]
        }
    ]
}