{
    "goal": {
        "global_pose": {
            "orientation": {
                "w": 0.5084816217422485,
                "x": -0.49083608388900757,
                "y": 0.5182115435600281,
                "z": -0.4816462993621826
            },
            "position": {
                "x": 0.5540239810943604,
                "y": 0.030875300988554955,
                "z": 0.16403168439865112
            }
        },
        "name": "move_to_storage_A"
    },
    "id": "KPIECE_move_to_storage_A_57",
    "joint_names": [
        "shoulder_pan_joint",
        "shoulder_lift_joint",
        "elbow_joint",
        "wrist_1_joint",
        "wrist_2_joint",
        "wrist_3_joint"
    ],
    "metrics": {
        "cart_traj_len": 0.35262915274795026,
        "distance_elbow_joint": 0.4517717661763325,
        "distance_shoulder_lift_joint": 0.23579734257258744,
        "distance_shoulder_pan_joint": 0.46277815891958457,
        "distance_wrist_1_joint": 0.24655614153417893,
        "distance_wrist_2_joint": 1.0918181860709284,
        "distance_wrist_3_joint": 0.09128366938186083,
        "smoothness": 0.0,
        "time": 0.053796176,
        "traj_len": 1.606239479235731,
        "weighted_distance": 2.025079487581735
    },
    "planner": "KPIECE",
    "start": {
        "state": {
            "elbow_joint": 1.9715474177455299,
            "shoulder_lift_joint": -1.139484666580328,
            "shoulder_pan_joint": 0.12281154398918248,
            "wrist_1_joint": -0.7804687475355282,
            "wrist_2_joint": 0.12958649657246987,
            "wrist_3_joint": -3.1924925159053466
        }
    },
    "waypoints": [
        {
            "positions": [
                0.12281154398918248,
                -1.139484666580328,
                1.9715474177455299,
                -0.7804687475355282,
                0.12958649657246987,
                -3.1924925159053466
            ]
        },
        {
            "positions": [
                0.05670037842924183,
                -1.1731700012335549,
                2.036086241485006,
                -0.8156910534689823,
                0.2855605231540311,
                -3.179451991707938
            ]
        },
        {
            "positions": [
                -0.009410787130698817,
                -1.2068553358867815,
                2.1006250652244822,
                -0.8509133594024365,
                0.44153454973559225,
                -3.166411467510529
            ]
        },
        {
            "positions": [
                -0.07552195269063947,
                -1.2405406705400084,
                2.165163888963958,
                -0.8861356653358906,
                0.5975085763171535,
                -3.1533709433131203
            ]
        },
        {
            "positions": [
                -0.14163311825058011,
                -1.274226005193235,
                2.229702712703434,
                -0.9213579712693447,
                0.7534826028987147,
                -3.140330419115712
            ]
        },
        {
            "positions": [
                -0.2077442838105208,
                -1.307911339846462,
                2.29424153644291,
                -0.9565802772027989,
                0.909456629480276,
                -3.1272898949183032
            ]
        },
        {
            "positions": [
                -0.2738554493704614,
                -1.3415966744996886,
                2.3587803601823865,
                -0.9918025831362529,
                1.065430656061837,
                -3.1142493707208945
            ]
        },
        {
            "positions": [
                -0.3399666149304021,
                -1.3752820091529154,
                2.4233191839218624,
                -1.0270248890697071,
                1.2214046826433982,
                -3.1012088465234857
            ]
        }
    ]
}