{
    "goal": {
        "global_pose": {
            "orientation": {
                "w": 0.7031023502349854,
                "x": -0.7110244035720825,
                "y": 0.007748599164187908,
                "z": 0.005598929710686207
            },
            "position": {
                "x": 0.11585023208521307,
                "y": 0.44412534475326537,
                "z": 0.3711530566215515
            }
        },
        "name": "move_to_auspresseinheit_A"
    },
    "id": "KPIECE_move_to_auspresseinheit_A_117",
    "joint_names": [
        "shoulder_pan_joint",
        "shoulder_lift_joint",
        "elbow_joint",
        "wrist_1_joint",
        "wrist_2_joint",
        "wrist_3_joint"
    ],
    "metrics": {
        "cart_traj_len": 3.8977831038803856,
        "distance_elbow_joint": 9.040299777361287,
        "distance_shoulder_lift_joint": 2.213220438604253,
        "distance_shoulder_pan_joint": 2.972889552714233,
        "distance_wrist_1_joint": 1.6241586576211404,
        "distance_wrist_2_joint": 7.542127360321267,
        "distance_wrist_3_joint": 7.595415058485878,
        "smoothness": 0.46512987823593127,
        "time": 0.36032089700000003,
        "traj_len": 5.56669658281355,
        "weighted_distance": 7.439437275763688
    },
    "planner": "KPIECE",
    "start": {
        "state": {
            "elbow_joint": 2.4225747245308327,
            "shoulder_lift_joint": -1.373653427065438,
            "shoulder_pan_joint": -0.33786330853087027,
            "wrist_1_joint": -1.0288602302712604,
            "wrist_2_joint": 1.23302299562683,
            "wrist_3_joint": -3.094021725338297
        }
    },
    "waypoints": [
        {
            "positions": [
                -0.33786330853087027,
                -1.373653427065438,
                2.4225747245308327,
                -1.0288602302712604,
                1.23302299562683,
                -3.094021725338297
            ]
        },
        {
            "positions": [
                -0.29672532012465447,
                -1.353173225112961,
                2.31193573626814,
                -1.0020035632878252,
                1.1346160753923746,
                -3.0020301731816272
            ]
        },
        {
            "positions": [
                -0.2555873317184386,
                -1.3326930231604839,
                2.2012967480054466,
                -0.97514689630439,
                1.0362091551579193,
                -2.9100386210249574
            ]
        },
        {
            "positions": [
                -0.21444934331222282,
                -1.312212821208007,
                2.090657759742754,
                -0.9482902293209549,
                0.937802234923464,
                -2.818047068868287
            ]
        },
        {
            "positions": [
                -0.17331135490600702,
                -1.29173261925553,
                1.9800187714800608,
                -0.9214335623375196,
                0.8393953146890086,
                -2.726055516711617
            ]
        },
        {
            "positions": [
                -0.1321733664997912,
                -1.271252417303053,
                1.8693797832173678,
                -0.8945768953540845,
                0.7409883944545533,
                -2.6340639645549473
            ]
        },
        {
            "positions": [
                -0.0910353780935754,
                -1.250772215350576,
                1.758740794954675,
                -0.8677202283706493,
                0.642581474220098,
                -2.5420724123982774
            ]
        },
        {
            "positions": [
                -0.04989738968735957,
                -1.230292013398099,
                1.648101806691982,
                -0.8408635613872141,
                0.5441745539856426,
                -2.4500808602416075
            ]
        },
        {
            "positions": [
                -0.008759401281143775,
                -1.209811811445622,
                1.537462818429289,
                -0.8140068944037788,
                0.44576763375118733,
                -2.3580893080849377
            ]
        },
        {
            "positions": [
                0.03237858712507202,
                -1.189331609493145,
                1.426823830166596,
                -0.7871502274203437,
                0.34736071351673203,
                -2.2660977559282673
            ]
        },
        {
            "positions": [
                0.07351657553128788,
                -1.1688514075406682,
                1.316184841903903,
                -0.7602935604369085,
                0.24895379328227674,
                -2.1741062037715975
            ]
        },
        {
            "positions": [
                0.11465456393750367,
                -1.1483712055881912,
                1.20554585364121,
                -0.7334368934534733,
                0.15054687304782122,
                -2.082114651614927
            ]
        },
        {
            "positions": [
                0.15579255234371947,
                -1.1278910036357142,
                1.0949068653785172,
                -0.7065802264700382,
                0.05213995281336614,
                -1.9901230994582577
            ]
        },
        {
            "positions": [
                0.19693054074993527,
                -1.1074108016832371,
                0.9842678771158242,
                -0.6797235594866029,
                -0.04626696742108938,
                -1.8981315473015876
            ]
        },
        {
            "positions": [
                0.23806852915615112,
                -1.0869305997307601,
                0.8736288888531312,
                -0.6528668925031678,
                -0.14467388765554468,
                -1.8061399951449175
            ]
        },
        {
            "positions": [
                0.27920651756236686,
                -1.0664503977782833,
                0.7629899005904384,
                -0.6260102255197326,
                -0.24308080788999997,
                -1.7141484429882476
            ]
        },
        {
            "positions": [
                0.3203445059685827,
                -1.0459701958258063,
                0.6523509123277453,
                -0.5991535585362974,
                -0.34148772812445527,
                -1.6221568908315778
            ]
        },
        {
            "positions": [
                0.36148249437479846,
                -1.0254899938733293,
                0.5417119240650525,
                -0.5722968915528621,
                -0.43989464835891057,
                -1.530165338674908
            ]
        },
        {
            "positions": [
                0.4026204827810143,
                -1.0050097919208523,
                0.4310729358023595,
                -0.545440224569427,
                -0.5383015685933659,
                -1.4381737865182378
            ]
        },
        {
            "positions": [
                0.44375847118723016,
                -0.9845295899683753,
                0.32043394753966625,
                -0.5185835575859917,
                -0.6367084888278214,
                -1.3461822343615677
            ]
        },
        {
            "positions": [
                0.484896459593446,
                -0.9640493880158983,
                0.20979495927697345,
                -0.4917268906025566,
                -0.7351154090622765,
                -1.2541906822048978
            ]
        },
        {
            "positions": [
                0.5260344479996617,
                -0.9435691860634213,
                0.09915597101428064,
                -0.46487022361912145,
                -0.833522329296732,
                -1.162199130048228
            ]
        },
        {
            "positions": [
                0.5671724364058777,
                -0.9230889841109444,
                -0.011483017248412608,
                -0.4380135566356862,
                -0.9319292495311875,
                -1.0702075778915576
            ]
        },
        {
            "positions": [
                0.6083104248120934,
                -0.9026087821584674,
                -0.12212200551110541,
                -0.41115688965225095,
                -1.0303361697656426,
                -0.9782160257348878
            ]
        },
        {
            "positions": [
                0.6494484132183092,
                -0.8821285802059904,
                -0.23276099377379822,
                -0.3843002226688159,
                -1.1287430900000976,
                -0.8862244735782183
            ]
        },
        {
            "positions": [
                0.6905864016245251,
                -0.8616483782535135,
                -0.343399982036491,
                -0.35744355568538067,
                -1.2271500102345532,
                -0.794232921421548
            ]
        },
        {
            "positions": [
                0.7317243900307409,
                -0.8411681763010365,
                -0.4540389702991843,
                -0.3305868887019455,
                -1.3255569304690087,
                -0.7022413692648781
            ]
        },
        {
            "positions": [
                0.7728623784369568,
                -0.8206879743485594,
                -0.5646779585618775,
                -0.3037302217185103,
                -1.4239638507034638,
                -0.6102498171082078
            ]
        },
        {
            "positions": [
                0.8140003668431726,
                -0.8002077723960824,
                -0.6753169468245703,
                -0.276873554735075,
                -1.5223707709379193,
                -0.5182582649515379
            ]
        },
        {
            "positions": [
                0.8551383552493883,
                -0.7797275704436055,
                -0.7859559350872631,
                -0.25001688775164,
                -1.6207776911723744,
                -0.4262667127948685
            ]
        },
        {
            "positions": [
                0.896276343655604,
                -0.7592473684911285,
                -0.8965949233499559,
                -0.22316022076820474,
                -1.7191846114068299,
                -0.3342751606381982
            ]
        },
        {
            "positions": [
                0.93741433206182,
                -0.7387671665386516,
                -1.0072339116126492,
                -0.1963035537847695,
                -1.817591531641285,
                -0.2422836084815283
            ]
        },
        {
            "positions": [
                0.9785523204680358,
                -0.7182869645861746,
                -1.117872899875342,
                -0.16944688680133435,
                -1.9159984518757405,
                -0.15029205632485843
            ]
        },
        {
            "positions": [
                1.0196903088742517,
                -0.6978067626336976,
                -1.2285118881380352,
                -0.1425902198178991,
                -2.014405372110196,
                -0.058300504168188105
            ]
        },
        {
            "positions": [
                1.0608282972804672,
                -0.6773265606812207,
                -1.3391508764007276,
                -0.11573355283446396,
                -2.112812292344651,
                0.033691047988481326
            ]
        },
        {
            "positions": [
                1.1019662856866832,
                -0.6568463587287436,
                -1.4497898646634209,
                -0.08887688585102882,
                -2.211219212579106,
                0.12568260014515165
            ]
        },
        {
            "positions": [
                1.143104274092899,
                -0.6363661567762666,
                -1.5604288529261137,
                -0.06202021886759357,
                -2.3096261328135617,
                0.21767415230182152
            ]
        },
        {
            "positions": [
                1.184242262499115,
                -0.6158859548237896,
                -1.6710678411888065,
                -0.03516355188415843,
                -2.408033053048017,
                0.3096657044584914
            ]
        },
        {
            "positions": [
                1.2253802509053306,
                -0.5954057528713127,
                -1.7817068294515002,
                -0.008306884900723066,
                -2.5064399732824727,
                0.4016572566151617
            ]
        },
        {
            "positions": [
                1.2665182393115464,
                -0.5749255509188358,
                -1.892345817714192,
                0.018549782082711852,
                -2.6048468935169273,
                0.49364880877183115
            ]
        },
        {
            "positions": [
                1.3076562277177624,
                -0.5544453489663588,
                -2.0029848059768858,
                0.045406449066147214,
                -2.703253813751383,
                0.5856403609285015
            ]
        },
        {
            "positions": [
                1.348794216123978,
                -0.5339651470138818,
                -2.1136237942395786,
                0.07226311604958235,
                -2.8016607339858384,
                0.6776319130851713
            ]
        },
        {
            "positions": [
                1.3219655368434726,
                -0.5693120547878194,
                -1.9903380597152398,
                0.061037246814265596,
                -2.706920214254001,
                0.5762420685061157
            ]
        },
        {
            "positions": [
                1.2951368575629674,
                -0.604658962561757,
                -1.8670523251909008,
                0.04981137757894884,
                -2.612179694522164,
                0.47485222392706006
            ]
        },
        {
            "positions": [
                1.268308178282462,
                -0.6400058703356947,
                -1.743766590666562,
                0.03858550834363208,
                -2.5174391747903266,
                0.3734623793480044
            ]
        },
        {
            "positions": [
                1.2414794990019566,
                -0.6753527781096322,
                -1.620480856142223,
                0.02735963910831532,
                -2.4226986550584892,
                0.27207253476894877
            ]
        },
        {
            "positions": [
                1.2146508197214512,
                -0.7106996858835699,
                -1.4971951216178843,
                0.016133769872998555,
                -2.327958135326652,
                0.17068269018989302
            ]
        },
        {
            "positions": [
                1.1878221404409457,
                -0.7460465936575075,
                -1.3739093870935455,
                0.004907900637681803,
                -2.233217615594815,
                0.06929284561083748
            ]
        },
        {
            "positions": [
                1.1609934611604404,
                -0.7813935014314451,
                -1.2506236525692065,
                -0.0063179685976349625,
                -2.1384770958629775,
                -0.03209699896821827
            ]
        },
        {
            "positions": [
                1.134164781879935,
                -0.8167404092053827,
                -1.1273379180448675,
                -0.017543837832951714,
                -2.04373657613114,
                -0.1334868435472738
            ]
        },
        {
            "positions": [
                1.1073361025994295,
                -0.8520873169793204,
                -1.0040521835205287,
                -0.02876970706826848,
                -1.948996056399303,
                -0.23487668812632956
            ]
        },
        {
            "positions": [
                1.0805074233189242,
                -0.8874342247532581,
                -0.8807664489961897,
                -0.039995576303585245,
                -1.8542555366674658,
                -0.3362665327053853
            ]
        },
        {
            "positions": [
                1.0536787440384188,
                -0.9227811325271957,
                -0.757480714471851,
                -0.05122144553890201,
                -1.7595150169356284,
                -0.43765637728444107
            ]
        },
        {
            "positions": [
                1.0268500647579133,
                -0.9581280403011332,
                -0.6341949799475122,
                -0.06244731477421875,
                -1.6647744972037912,
                -0.5390462218634964
            ]
        },
        {
            "positions": [
                1.000021385477408,
                -0.9934749480750709,
                -0.5109092454231732,
                -0.07367318400953551,
                -1.5700339774719538,
                -0.6404360664425521
            ]
        },
        {
            "positions": [
                0.9731927061969026,
                -1.0288218558490085,
                -0.3876235108988344,
                -0.08489905324485228,
                -1.4752934577401167,
                -0.7418259110216079
            ]
        },
        {
            "positions": [
                0.9463640269163971,
                -1.0641687636229462,
                -0.2643377763744954,
                -0.09612492248016904,
                -1.3805529380082793,
                -0.8432157556006636
            ]
        },
        {
            "positions": [
                0.9195353476358918,
                -1.0995156713968837,
                -0.14105204185015663,
                -0.10735079171548578,
                -1.285812418276442,
                -0.944605600179719
            ]
        },
        {
            "positions": [
                0.8927066683553864,
                -1.1348625791708213,
                -0.017766307325817632,
                -0.11857666095080255,
                -1.191071898544605,
                -1.0459954447587747
            ]
        },
        {
            "positions": [
                0.865877989074881,
                -1.170209486944759,
                0.10551942719852114,
                -0.1298025301861193,
                -1.0963313788127675,
                -1.1473852893378305
            ]
        },
        {
            "positions": [
                0.8390493097943756,
                -1.2055563947186967,
                0.22880516172285992,
                -0.14102839942143608,
                -1.0015908590809302,
                -1.2487751339168862
            ]
        },
        {
            "positions": [
                0.8122206305138702,
                -1.2409033024926344,
                0.35209089624719914,
                -0.15225426865675284,
                -0.906850339349093,
                -1.350164978495942
            ]
        },
        {
            "positions": [
                0.7853919512333648,
                -1.2762502102665718,
                0.4753766307715379,
                -0.1634801378920696,
                -0.8121098196172556,
                -1.4515548230749977
            ]
        },
        {
            "positions": [
                0.7585632719528593,
                -1.3115971180405097,
                0.5986623652958767,
                -0.17470600712738638,
                -0.7173692998854184,
                -1.5529446676540535
            ]
        },
        {
            "positions": [
                0.7317345926723541,
                -1.3469440258144472,
                0.7219480998202155,
                -0.18593187636270309,
                -0.6226287801535815,
                -1.6543345122331083
            ]
        },
        {
            "positions": [
                0.7049059133918487,
                -1.3822909335883846,
                0.8452338343445542,
                -0.19715774559801985,
                -0.5278882604217441,
                -1.755724356812164
            ]
        },
        {
            "positions": [
                0.6780772341113432,
                -1.4176378413623225,
                0.968519568868893,
                -0.20838361483333662,
                -0.4331477406899067,
                -1.8571142013912199
            ]
        },
        {
            "positions": [
                0.6512485548308379,
                -1.45298474913626,
                1.0918053033932322,
                -0.21960948406865338,
                -0.3384072209580693,
                -1.9585040459702756
            ]
        },
        {
            "positions": [
                0.6244198755503325,
                -1.4883316569101976,
                1.215091037917571,
                -0.23083535330397015,
                -0.2436667012262319,
                -2.0598938905493314
            ]
        },
        {
            "positions": [
                0.597591196269827,
                -1.5236785646841353,
                1.3383767724419098,
                -0.2420612225392869,
                -0.14892618149439496,
                -2.161283735128387
            ]
        },
        {
            "positions": [
                0.5707625169893217,
                -1.559025472458073,
                1.461662506966249,
                -0.2532870917746037,
                -0.05418566176255757,
                -2.262673579707443
            ]
        },
        {
            "positions": [
                0.5439338377088162,
                -1.5943723802320107,
                1.5849482414905878,
                -0.26451296100992044,
                0.04055485796927982,
                -2.3640634242864986
            ]
        },
        {
            "positions": [
                0.5171051584283108,
                -1.6297192880059481,
                1.7082339760149265,
                -0.2757388302452372,
                0.13529537770111721,
                -2.4654532688655544
            ]
        },
        {
            "positions": [
                0.4902764791478056,
                -1.6650661957798858,
                1.8315197105392653,
                -0.2869646994805539,
                0.23003589743295416,
                -2.5668431134446092
            ]
        },
        {
            "positions": [
                0.4634477998673001,
                -1.7004131035538232,
                1.954805445063604,
                -0.2981905687158707,
                0.32477641716479155,
                -2.668232958023665
            ]
        },
        {
            "positions": [
                0.43661912058679475,
                -1.735760011327761,
                2.0780911795879433,
                -0.30941643795118745,
                0.4195169368966285,
                -2.7696228026027208
            ]
        },
        {
            "positions": [
                0.4097904413062893,
                -1.7711069191016986,
                2.2013769141122816,
                -0.3206423071865042,
                0.5142574566284659,
                -2.8710126471817765
            ]
        },
        {
            "positions": [
                0.3829617620257839,
                -1.8064538268756363,
                2.324662648636621,
                -0.331868176421821,
                0.6089979763603035,
                -2.9724024917608323
            ]
        },
        {
            "positions": [
                0.4897616200128476,
                -1.8401349864392837,
                2.346600920541509,
                -0.3715028493647869,
                0.6412596164811221,
                -3.030311496832967
            ]
        },
        {
            "positions": [
                0.5965614779999113,
                -1.8738161460029314,
                2.3685391924463968,
                -0.4111375223077528,
                0.6735212566019407,
                -3.088220501905102
            ]
        },
        {
            "positions": [
                0.7033613359869751,
                -1.907497305566579,
                2.3904774643512847,
                -0.45077219525071877,
                0.7057828967227593,
                -3.146129506977237
            ]
        }
    ]
}