{
    "goal": {
        "global_pose": {
            "orientation": {
                "w": 0.7047431468963623,
                "x": -0.7094548344612122,
                "y": 0.0024358443915843964,
                "z": -0.0022348060738295317
            },
            "position": {
                "x": 0.6094750761985779,
                "y": 0.3671506643295288,
                "z": 0.19426114857196808
            }
        },
        "name": "move_to_magneteinheit_A"
    },
    "id": "KPIECE_move_to_magneteinheit_A_106",
    "joint_names": [
        "shoulder_pan_joint",
        "shoulder_lift_joint",
        "elbow_joint",
        "wrist_1_joint",
        "wrist_2_joint",
        "wrist_3_joint"
    ],
    "metrics": {
        "cart_traj_len": 1.053078121122222,
        "distance_elbow_joint": 0.38366803107959835,
        "distance_shoulder_lift_joint": 0.3655728424655518,
        "distance_shoulder_pan_joint": 1.2414102823254294,
        "distance_wrist_1_joint": 2.2028935254885322,
        "distance_wrist_2_joint": 1.7010843725639213,
        "distance_wrist_3_joint": 1.2270595275705882,
        "smoothness": 1.8698493194378823e-16,
        "time": 0.029924143,
        "traj_len": 2.668649205402168,
        "weighted_distance": 3.6714827433459702
    },
    "planner": "KPIECE",
    "start": {
        "state": {
            "elbow_joint": 1.5739458966750683,
            "shoulder_lift_joint": -1.4977259741207325,
            "shoulder_pan_joint": -1.1188672016454206,
            "wrist_1_joint": 1.494575848278785,
            "wrist_2_joint": -1.5706037134824402,
            "wrist_3_joint": -2.0226957942261072
        }
    },
    "waypoints": [
        {
            "positions": [
                -1.1188672016454206,
                -1.4977259741207325,
                1.5739458966750683,
                1.494575848278785,
                -1.5706037134824402,
                -2.0226957942261072
            ]
        },
        {
            "positions": [
                -1.0498999637384523,
                -1.4774163717615352,
                1.5952607872906015,
                1.3721928746405332,
                -1.476099026117778,
                -2.090865767980029
            ]
        },
        {
            "positions": [
                -0.980932725831484,
                -1.4571067694023379,
                1.6165756779061349,
                1.2498099010022814,
                -1.3815943387531155,
                -2.1590357417339505
            ]
        },
        {
            "positions": [
                -0.9119654879245158,
                -1.4367971670431405,
                1.637890568521668,
                1.1274269273640296,
                -1.2870896513884533,
                -2.227205715487872
            ]
        },
        {
            "positions": [
                -0.8429982500175475,
                -1.4164875646839432,
                1.6592054591372014,
                1.0050439537257778,
                -1.192584964023791,
                -2.2953756892417934
            ]
        },
        {
            "positions": [
                -0.7740310121105791,
                -1.396177962324746,
                1.6805203497527346,
                0.882660980087526,
                -1.0980802766591287,
                -2.363545662995715
            ]
        },
        {
            "positions": [
                -0.7050637742036109,
                -1.3758683599655486,
                1.7018352403682677,
                0.7602780064492742,
                -1.0035755892944664,
                -2.4317156367496366
            ]
        },
        {
            "positions": [
                -0.6360965362966425,
                -1.3555587576063513,
                1.723150130983801,
                0.6378950328110224,
                -0.9090709019298041,
                -2.4998856105035583
            ]
        },
        {
            "positions": [
                -0.5671292983896743,
                -1.335249155247154,
                1.7444650215993343,
                0.5155120591727707,
                -0.8145662145651419,
                -2.56805558425748
            ]
        },
        {
            "positions": [
                -0.49816206048270595,
                -1.3149395528879566,
                1.7657799122148674,
                0.39312908553451886,
                -0.7200615272004796,
                -2.636225558011401
            ]
        },
        {
            "positions": [
                -0.4291948225757376,
                -1.2946299505287593,
                1.7870948028304008,
                0.27074611189626707,
                -0.6255568398358172,
                -2.704395531765323
            ]
        },
        {
            "positions": [
                -0.36022758466876925,
                -1.274320348169562,
                1.808409693445934,
                0.14836313825801528,
                -0.5310521524711549,
                -2.7725655055192444
            ]
        },
        {
            "positions": [
                -0.2912603467618011,
                -1.2540107458103646,
                1.8297245840614673,
                0.02598016461976349,
                -0.43654746510649267,
                -2.840735479273166
            ]
        },
        {
            "positions": [
                -0.22229310885483278,
                -1.2337011434511673,
                1.8510394746770005,
                -0.0964028090184883,
                -0.34204277774183045,
                -2.9089054530270877
            ]
        },
        {
            "positions": [
                -0.15332587094786443,
                -1.21339154109197,
                1.8723543652925336,
                -0.2187857826567401,
                -0.247538090377168,
                -2.9770754267810093
            ]
        },
        {
            "positions": [
                -0.08435863304089608,
                -1.1930819387327727,
                1.893669255908067,
                -0.3411687562949919,
                -0.1530334030125058,
                -3.045245400534931
            ]
        },
        {
            "positions": [
                -0.015391395133927954,
                -1.1727723363735754,
                1.9149841465236002,
                -0.4635517299332437,
                -0.058528715647843566,
                -3.113415374288852
            ]
        },
        {
            "positions": [
                0.053575842773040394,
                -1.152462734014378,
                1.9362990371391335,
                -0.5859347035714955,
                0.035975971716818655,
                -3.181585348042774
            ]
        },
        {
            "positions": [
                0.12254308068000878,
                -1.1321531316551807,
                1.9576139277546667,
                -0.7083176772097475,
                0.13048065908148102,
                -3.2497553217966955
            ]
        }
    ]
}