{
    "goal": {
        "global_pose": {
            "orientation": {
                "w": 0.5084816262002911,
                "x": -0.4908360881923452,
                "y": 0.5182115481033761,
                "z": -0.48164630358495003
            },
            "position": {
                "x": 0.5540239810943604,
                "y": -0.46912469901144505,
                "z": 0.16403168439865112
            }
        },
        "name": "move_to_storage_B"
    },
    "id": "KPIECE_move_to_storage_B_112",
    "joint_names": [
        "shoulder_pan_joint",
        "shoulder_lift_joint",
        "elbow_joint",
        "wrist_1_joint",
        "wrist_2_joint",
        "wrist_3_joint"
    ],
    "metrics": {
        "cart_traj_len": 1.0117631027138436,
        "distance_elbow_joint": 0.3536999301460406,
        "distance_shoulder_lift_joint": 0.45981948836011766,
        "distance_shoulder_pan_joint": 0.7595490951060936,
        "distance_wrist_1_joint": 3.007389047834954,
        "distance_wrist_2_joint": 2.6990369940966366,
        "distance_wrist_3_joint": 3.6664606033948157,
        "smoothness": 0.17811224890669905,
        "time": 0.09675958600000001,
        "traj_len": 3.3084671917579382,
        "weighted_distance": 4.897479189099212
    },
    "planner": "KPIECE",
    "start": {
        "state": {
            "elbow_joint": 1.6649325706314817,
            "shoulder_lift_joint": -0.6616388048112454,
            "shoulder_pan_joint": -0.9139837860083814,
            "wrist_1_joint": 2.146757197745094,
            "wrist_2_joint": -2.234196043158733,
            "wrist_3_joint": 0.005471033829999897
        }
    },
    "waypoints": [
        {
            "positions": [
                -0.9139837860083814,
                -0.6616388048112454,
                1.6649325706314817,
                2.146757197745094,
                -2.234196043158733,
                0.005471033829999897
            ]
        },
        {
            "positions": [
                -0.872814808049065,
                -0.7074331758494006,
                1.6755746352836438,
                2.0571857905228548,
                -2.078006827692059,
                0.04395519859065725
            ]
        },
        {
            "positions": [
                -0.8316458300897486,
                -0.7532275468875557,
                1.6862166999358057,
                1.9676143833006157,
                -1.9218176122253858,
                0.08243936335131462
            ]
        },
        {
            "positions": [
                -0.7904768521304322,
                -0.7990219179257109,
                1.6968587645879678,
                1.8780429760783763,
                -1.7656283967587123,
                0.12092352811197198
            ]
        },
        {
            "positions": [
                -0.7493078741711158,
                -0.844816288963866,
                1.7075008292401297,
                1.7884715688561372,
                -1.6094391812920388,
                0.15940769287262932
            ]
        },
        {
            "positions": [
                -0.7081388962117994,
                -0.8906106600020212,
                1.7181428938922918,
                1.698900161633898,
                -1.4532499658253653,
                0.19789185763328668
            ]
        },
        {
            "positions": [
                -0.666969918252483,
                -0.9364050310401764,
                1.7287849585444537,
                1.6093287544116586,
                -1.2970607503586917,
                0.23637602239394404
            ]
        },
        {
            "positions": [
                -0.6258009402931666,
                -0.9821994020783315,
                1.7394270231966158,
                1.5197573471894195,
                -1.1408715348920182,
                0.2748601871546014
            ]
        },
        {
            "positions": [
                -0.6482469521689227,
                -0.9888307778446663,
                1.75272252212904,
                1.406405480652311,
                -1.064409035566784,
                0.11309488000840076
            ]
        },
        {
            "positions": [
                -0.6706929640446788,
                -0.9954621536110011,
                1.766018021061464,
                1.2930536141152023,
                -0.9879465362415494,
                -0.0486704271377999
            ]
        },
        {
            "positions": [
                -0.6931389759204349,
                -1.0020935293773359,
                1.779313519993888,
                1.1797017475780938,
                -0.911484036916315,
                -0.21043573428400053
            ]
        },
        {
            "positions": [
                -0.7155849877961911,
                -1.0087249051436709,
                1.7926090189263122,
                1.0663498810409853,
                -0.8350215375910806,
                -0.3722010414302012
            ]
        },
        {
            "positions": [
                -0.7380309996719472,
                -1.0153562809100056,
                1.8059045178587363,
                0.9529980145038767,
                -0.7585590382658463,
                -0.5339663485764019
            ]
        },
        {
            "positions": [
                -0.7604770115477033,
                -1.0219876566763404,
                1.8192000167911606,
                0.8396461479667682,
                -0.6820965389406117,
                -0.6957316557226025
            ]
        },
        {
            "positions": [
                -0.7829230234234594,
                -1.0286190324426754,
                1.8324955157235847,
                0.7262942814296596,
                -0.6056340396153774,
                -0.8574969628688032
            ]
        },
        {
            "positions": [
                -0.8053690352992157,
                -1.0352504082090102,
                1.8457910146560088,
                0.6129424148925511,
                -0.529171540290143,
                -1.0192622700150038
            ]
        },
        {
            "positions": [
                -0.8278150471749718,
                -1.041881783975345,
                1.859086513588433,
                0.4995905483554426,
                -0.4527090409649086,
                -1.1810275771612044
            ]
        },
        {
            "positions": [
                -0.8502610590507279,
                -1.04851315974168,
                1.872382012520857,
                0.3862386818183339,
                -0.3762465416396742,
                -1.342792884307405
            ]
        },
        {
            "positions": [
                -0.872707070926484,
                -1.0551445355080147,
                1.885677511453281,
                0.2728868152812254,
                -0.29978404231443967,
                -1.504558191453606
            ]
        },
        {
            "positions": [
                -0.8951530828022402,
                -1.0617759112743494,
                1.8989730103857052,
                0.1595349487441169,
                -0.22332154298920537,
                -1.6663234985998063
            ]
        },
        {
            "positions": [
                -0.9175990946779964,
                -1.0684072870406844,
                1.9122685093181293,
                0.046183082207008175,
                -0.14685904366397085,
                -1.8280888057460074
            ]
        },
        {
            "positions": [
                -0.9400451065537524,
                -1.0750386628070192,
                1.9255640082505534,
                -0.06716878433010032,
                -0.07039654433873666,
                -1.9898541128922078
            ]
        },
        {
            "positions": [
                -0.9624911184295086,
                -1.081670038573354,
                1.9388595071829777,
                -0.1805206508672088,
                0.006065954986497868,
                -2.1516194200384087
            ]
        },
        {
            "positions": [
                -0.9849371303052648,
                -1.0883014143396887,
                1.9521550061154018,
                -0.2938725174043173,
                0.08252845431173217,
                -2.313384727184609
            ]
        },
        {
            "positions": [
                -1.0073831421810209,
                -1.0949327901060237,
                1.965450505047826,
                -0.407224383941426,
                0.1589909536369667,
                -2.47515003433081
            ]
        },
        {
            "positions": [
                -1.029829154056777,
                -1.1015641658723585,
                1.97874600398025,
                -0.5205762504785343,
                0.235453452962201,
                -2.6369153414770103
            ]
        },
        {
            "positions": [
                -1.0522751659325331,
                -1.1081955416386933,
                1.9920415029126741,
                -0.6339281170156432,
                0.3119159522874355,
                -2.798680648623211
            ]
        },
        {
            "positions": [
                -1.0747211778082892,
                -1.1148269174050283,
                2.005337001845098,
                -0.7472799835527517,
                0.3883784516126698,
                -2.9604459557694116
            ]
        },
        {
            "positions": [
                -1.0971671896840454,
                -1.121458293171363,
                2.0186325007775223,
                -0.8606318500898603,
                0.46484095093790423,
                -3.1222112629156125
            ]
        }
    ]
}