{
    "goal": {
        "global_pose": {
            "orientation": {
                "w": -0.4816463035849501,
                "x": 0.5182115481033762,
                "y": 0.4908360881923453,
                "z": -0.5084816262002911
            },
            "position": {
                "x": -0.8240239810943604,
                "y": -0.300875300988555,
                "z": 0.16403168439865112
            }
        },
        "name": "move_to_storage_C"
    },
    "id": "KPIECE_move_to_storage_C_74",
    "joint_names": [
        "shoulder_pan_joint",
        "shoulder_lift_joint",
        "elbow_joint",
        "wrist_1_joint",
        "wrist_2_joint",
        "wrist_3_joint"
    ],
    "metrics": {
        "cart_traj_len": 0.5768427783107529,
        "distance_elbow_joint": 0.2573178204596509,
        "distance_shoulder_lift_joint": 0.19033421249885574,
        "distance_shoulder_pan_joint": 0.49542445641432176,
        "distance_wrist_1_joint": 0.07238510232234463,
        "distance_wrist_2_joint": 1.0607255644689975,
        "distance_wrist_3_joint": 0.06138876495465029,
        "smoothness": 2.5376526478085547e-16,
        "time": 0.17849956,
        "traj_len": 1.462045115965585,
        "weighted_distance": 1.8421357490205392
    },
    "planner": "KPIECE",
    "start": {
        "state": {
            "elbow_joint": 2.010868315001653,
            "shoulder_lift_joint": -1.1634956873357014,
            "shoulder_pan_joint": -2.4736205022346103,
            "wrist_1_joint": -0.8367026794713948,
            "wrist_2_joint": 0.6746043897044093,
            "wrist_3_joint": 3.1335220948105738
        }
    },
    "waypoints": [
        {
            "positions": [
                -2.4736205022346103,
                -1.1634956873357014,
                2.010868315001653,
                -0.8367026794713948,
                0.6746043897044093,
                3.1335220948105738
            ]
        },
        {
            "positions": [
                -2.5561912449703303,
                -1.131773318585892,
                1.9679820115917113,
                -0.824638495751004,
                0.8513919837825755,
                3.1437535556363487
            ]
        },
        {
            "positions": [
                -2.638761987706051,
                -1.1000509498360829,
                1.9250957081817694,
                -0.8125743120306133,
                1.0281795778607417,
                3.1539850164621237
            ]
        },
        {
            "positions": [
                -2.7213327304417714,
                -1.0683285810862735,
                1.8822094047718276,
                -0.8005101283102225,
                1.204967171938908,
                3.1642164772878987
            ]
        },
        {
            "positions": [
                -2.8039034731774914,
                -1.0366062123364643,
                1.8393231013618858,
                -0.7884459445898316,
                1.3817547660170741,
                3.174447938113674
            ]
        },
        {
            "positions": [
                -2.8864742159132115,
                -1.004883843586655,
                1.796436797951944,
                -0.7763817608694409,
                1.5585423600952404,
                3.184679398939449
            ]
        },
        {
            "positions": [
                -2.969044958648932,
                -0.9731614748368457,
                1.7535504945420022,
                -0.7643175771490501,
                1.7353299541734066,
                3.194910859765224
            ]
        }
    ]
}