{
    "goal": {
        "global_pose": {
            "orientation": {
                "w": -0.4816463035849501,
                "x": 0.5182115481033762,
                "y": 0.4908360881923453,
                "z": -0.5084816262002911
            },
            "position": {
                "x": -0.8240239810943604,
                "y": 0.19912469901144506,
                "z": 0.16403168439865112
            }
        },
        "name": "move_to_storage_D"
    },
    "id": "KPIECE_move_to_storage_D_14",
    "joint_names": [
        "shoulder_pan_joint",
        "shoulder_lift_joint",
        "elbow_joint",
        "wrist_1_joint",
        "wrist_2_joint",
        "wrist_3_joint"
    ],
    "metrics": {
        "cart_traj_len": 3.9605010824680074,
        "distance_elbow_joint": 4.210099696461626,
        "distance_shoulder_lift_joint": 1.2679134968433996,
        "distance_shoulder_pan_joint": 2.8125293522109795,
        "distance_wrist_1_joint": 2.2749886076776473,
        "distance_wrist_2_joint": 0.8737955441120034,
        "distance_wrist_3_joint": 3.3225419259715467,
        "smoothness": 0.11265296744111981,
        "time": 0.118142995,
        "traj_len": 3.8421177263687802,
        "weighted_distance": 4.955374519348658
    },
    "planner": "KPIECE",
    "start": {
        "state": {
            "elbow_joint": -2.384821997420982,
            "shoulder_lift_joint": -2.2788054674887404,
            "shoulder_pan_joint": -0.18546946417610016,
            "wrist_1_joint": 1.4845937964226739,
            "wrist_2_joint": 0.1789877726866377,
            "wrist_3_joint": 0.03710572555276528
        }
    },
    "waypoints": [
        {
            "positions": [
                -0.18546946417610016,
                -2.2788054674887404,
                -2.384821997420982,
                1.4845937964226739,
                0.1789877726866377,
                0.03710572555276528
            ]
        },
        {
            "positions": [
                -0.09873368772177041,
                -2.2794670183865104,
                -2.36733253523062,
                1.4354389714235611,
                0.3216792169614784,
                0.08567488996123848
            ]
        },
        {
            "positions": [
                -0.011997911267440653,
                -2.2801285692842805,
                -2.349843073040258,
                1.3862841464244484,
                0.464370661236319,
                0.1342440543697117
            ]
        },
        {
            "positions": [
                0.06859002603147486,
                -2.2425196636755316,
                -2.226869078287492,
                1.3220980376012348,
                0.47509053664205747,
                0.058701215768159815
            ]
        },
        {
            "positions": [
                0.14917796333039038,
                -2.2049107580667826,
                -2.1038950835347254,
                1.2579119287780212,
                0.48581041204779596,
                -0.016841622833392078
            ]
        },
        {
            "positions": [
                0.2297659006293059,
                -2.1673018524580336,
                -1.9809210887819586,
                1.1937258199548075,
                0.4965302874535344,
                -0.09238446143494397
            ]
        },
        {
            "positions": [
                0.3103538379282214,
                -2.1296929468492847,
                -1.8579470940291922,
                1.129539711131594,
                0.5072501628592729,
                -0.16792730003649586
            ]
        },
        {
            "positions": [
                0.39094177522713697,
                -2.0920840412405353,
                -1.7349730992764258,
                1.0653536023083803,
                0.5179700382650114,
                -0.24347013863804778
            ]
        },
        {
            "positions": [
                0.47152971252605247,
                -2.0544751356317863,
                -1.6119991045236592,
                1.0011674934851666,
                0.5286899136707498,
                -0.31901297723959965
            ]
        },
        {
            "positions": [
                0.552117649824968,
                -2.0168662300230373,
                -1.4890251097708926,
                0.9369813846619531,
                0.5394097890764883,
                -0.39455581584115157
            ]
        },
        {
            "positions": [
                0.6327055871238835,
                -1.9792573244142884,
                -1.3660511150181263,
                0.8727952758387395,
                0.5501296644822268,
                -0.47009865444270343
            ]
        },
        {
            "positions": [
                0.713293524422799,
                -1.9416484188055394,
                -1.2430771202653599,
                0.8086091670155259,
                0.5608495398879653,
                -0.5456414930442552
            ]
        },
        {
            "positions": [
                0.7938814617217146,
                -1.9040395131967904,
                -1.1201031255125933,
                0.7444230581923122,
                0.5715694152937038,
                -0.6211843316458072
            ]
        },
        {
            "positions": [
                0.87446939902063,
                -1.8664306075880415,
                -0.9971291307598269,
                0.6802369493690987,
                0.5822892906994422,
                -0.696727170247359
            ]
        },
        {
            "positions": [
                0.9550573363195456,
                -1.8288217019792925,
                -0.8741551360070603,
                0.6160508405458851,
                0.5930091661051807,
                -0.772270008848911
            ]
        },
        {
            "positions": [
                1.0356452736184611,
                -1.7912127963705433,
                -0.7511811412542939,
                0.5518647317226715,
                0.6037290415109192,
                -0.8478128474504629
            ]
        },
        {
            "positions": [
                1.1162332109173767,
                -1.7536038907617943,
                -0.6282071465015273,
                0.48767862289945785,
                0.6144489169166576,
                -0.9233556860520149
            ]
        },
        {
            "positions": [
                1.1968211482162923,
                -1.7159949851530452,
                -0.5052331517487607,
                0.4234925140762441,
                0.6251687923223961,
                -0.9988985246535669
            ]
        },
        {
            "positions": [
                1.2774090855152076,
                -1.6783860795442962,
                -0.38225915699599433,
                0.3593064052530306,
                0.6358886677281346,
                -1.0744413632551186
            ]
        },
        {
            "positions": [
                1.3579970228141232,
                -1.6407771739355472,
                -0.25928516224322795,
                0.2951202964298172,
                0.6466085431338731,
                -1.1499842018566704
            ]
        },
        {
            "positions": [
                1.4385849601130387,
                -1.6031682683267983,
                -0.13631116749046157,
                0.23093418760660334,
                0.6573284185396115,
                -1.2255270404582224
            ]
        },
        {
            "positions": [
                1.519172897411954,
                -1.5655593627180493,
                -0.013337172737695191,
                0.16674807878338993,
                0.66804829394535,
                -1.3010698790597743
            ]
        },
        {
            "positions": [
                1.5997608347108698,
                -1.5279504571093003,
                0.10963682201507163,
                0.10256196996017608,
                0.6787681693510885,
                -1.3766127176613263
            ]
        },
        {
            "positions": [
                1.6803487720097852,
                -1.4903415515005514,
                0.232610816767838,
                0.03837586113696245,
                0.689488044756827,
                -1.452155556262878
            ]
        },
        {
            "positions": [
                1.7609367093087007,
                -1.4527326458918024,
                0.3555848115206044,
                -0.025810247686250953,
                0.7002079201625655,
                -1.5276983948644298
            ]
        },
        {
            "positions": [
                1.8415246466076163,
                -1.4151237402830532,
                0.4785588062733712,
                -0.0899963565094648,
                0.710927795568304,
                -1.603241233465982
            ]
        },
        {
            "positions": [
                1.9221125839065318,
                -1.3775148346743042,
                0.6015328010261376,
                -0.1541824653326782,
                0.7216476709740425,
                -1.6787840720675338
            ]
        },
        {
            "positions": [
                2.002700521205447,
                -1.3399059290655553,
                0.724506795778904,
                -0.21836857415589184,
                0.732367546379781,
                -1.7543269106690855
            ]
        },
        {
            "positions": [
                2.083288458504363,
                -1.302297023456806,
                0.8474807905316704,
                -0.28255468297910546,
                0.7430874217855195,
                -1.8298697492706375
            ]
        },
        {
            "positions": [
                2.1638763958032783,
                -1.2646881178480573,
                0.9704547852844367,
                -0.3467407918023191,
                0.7538072971912578,
                -1.9054125878721893
            ]
        },
        {
            "positions": [
                2.244464333102194,
                -1.2270792122393082,
                1.0934287800372036,
                -0.4109269006255327,
                0.7645271725969963,
                -1.9809554264737415
            ]
        },
        {
            "positions": [
                2.3250522704011094,
                -1.1894703066305592,
                1.21640277478997,
                -0.4751130094487464,
                0.7752470480027348,
                -2.056498265075293
            ]
        },
        {
            "positions": [
                2.3681962157773624,
                -1.164337144859968,
                1.3033849068257806,
                -0.5201532668496359,
                0.81489508640215,
                -2.204307019033807
            ]
        },
        {
            "positions": [
                2.411340161153615,
                -1.139203983089377,
                1.3903670388615912,
                -0.5651935242505255,
                0.8545431248015651,
                -2.3521157729923203
            ]
        },
        {
            "positions": [
                2.454484106529868,
                -1.1140708213187858,
                1.4773491708974018,
                -0.6102337816514151,
                0.8941911632009804,
                -2.499924526950834
            ]
        },
        {
            "positions": [
                2.497628051906121,
                -1.0889376595481945,
                1.5643313029332122,
                -0.6552740390523046,
                0.9338392016003956,
                -2.647733280909348
            ]
        },
        {
            "positions": [
                2.540771997282374,
                -1.0638044977776033,
                1.6513134349690228,
                -0.7003142964531941,
                0.9734872399998107,
                -2.7955420348678617
            ]
        },
        {
            "positions": [
                2.5839159426586265,
                -1.0386713360070123,
                1.7382955670048335,
                -0.7453545538540837,
                1.013135278399226,
                -2.943350788826375
            ]
        },
        {
            "positions": [
                2.6270598880348794,
                -1.0135381742364211,
                1.825277699040644,
                -0.7903948112549732,
                1.0527833167986411,
                -3.091159542784889
            ]
        }
    ]
}