{
    "goal": {
        "global_pose": {
            "orientation": {
                "w": 0.7047431468963623,
                "x": -0.7094548344612122,
                "y": 0.0024358443915843964,
                "z": -0.0022348060738295317
            },
            "position": {
                "x": 0.6094750761985779,
                "y": 0.3671506643295288,
                "z": 0.19426114857196808
            }
        },
        "name": "move_to_magneteinheit_A"
    },
    "id": "KPIECE_move_to_magneteinheit_A_120",
    "joint_names": [
        "shoulder_pan_joint",
        "shoulder_lift_joint",
        "elbow_joint",
        "wrist_1_joint",
        "wrist_2_joint",
        "wrist_3_joint"
    ],
    "metrics": {
        "cart_traj_len": 1.0529787911041752,
        "distance_elbow_joint": 0.4163925940985649,
        "distance_shoulder_lift_joint": 0.3492028016309088,
        "distance_shoulder_pan_joint": 1.2414238020985349,
        "distance_wrist_1_joint": 2.3494274559113757,
        "distance_wrist_2_joint": 1.7075613708269772,
        "distance_wrist_3_joint": 1.1074393511175389,
        "smoothness": 8.88178426732994e-16,
        "time": 0.030278382,
        "traj_len": 2.6779558203383225,
        "weighted_distance": 3.66651263527856
    },
    "planner": "KPIECE",
    "start": {
        "state": {
            "elbow_joint": 1.5739458966750683,
            "shoulder_lift_joint": -1.4977259741207325,
            "shoulder_pan_joint": -1.1188672016454206,
            "wrist_1_joint": 1.494575848278785,
            "wrist_2_joint": -1.5706037134824402,
            "wrist_3_joint": -2.0226957942261072
        }
    },
    "waypoints": [
        {
            "positions": [
                -1.1188672016454206,
                -1.4977259741207325,
                1.5739458966750683,
                1.494575848278785,
                -1.5706037134824402,
                -2.0226957942261072
            ]
        },
        {
            "positions": [
                -1.0535291067981294,
                -1.479346879298053,
                1.5958612963644665,
                1.3709217716518705,
                -1.4807320623862834,
                -2.0809820758638726
            ]
        },
        {
            "positions": [
                -0.988191011950838,
                -1.4609677844753737,
                1.6177766960538646,
                1.247267695024956,
                -1.3908604112901268,
                -2.1392683575016376
            ]
        },
        {
            "positions": [
                -0.9228529171035467,
                -1.4425886896526943,
                1.6396920957432628,
                1.1236136183980414,
                -1.3009887601939703,
                -2.197554639139403
            ]
        },
        {
            "positions": [
                -0.8575148222562554,
                -1.4242095948300149,
                1.661607495432661,
                0.9999595417711269,
                -1.2111171090978134,
                -2.255840920777168
            ]
        },
        {
            "positions": [
                -0.7921767274089642,
                -1.4058305000073354,
                1.683522895122059,
                0.8763054651442125,
                -1.1212454580016566,
                -2.3141272024149333
            ]
        },
        {
            "positions": [
                -0.7268386325616728,
                -1.387451405184656,
                1.7054382948114573,
                0.752651388517298,
                -1.0313738069055,
                -2.3724134840526983
            ]
        },
        {
            "positions": [
                -0.6615005377143814,
                -1.3690723103619766,
                1.7273536945008554,
                0.6289973118903834,
                -0.9415021558093434,
                -2.4306997656904636
            ]
        },
        {
            "positions": [
                -0.5961624428670902,
                -1.3506932155392972,
                1.7492690941902536,
                0.5053432352634689,
                -0.8516305047131867,
                -2.488986047328229
            ]
        },
        {
            "positions": [
                -0.5308243480197989,
                -1.3323141207166178,
                1.7711844938796517,
                0.3816891586365545,
                -0.76175885361703,
                -2.547272328965994
            ]
        },
        {
            "positions": [
                -0.4654862531725076,
                -1.3139350258939384,
                1.7930998935690499,
                0.25803508200964,
                -0.6718872025208733,
                -2.6055586106037594
            ]
        },
        {
            "positions": [
                -0.4001481583252162,
                -1.295555931071259,
                1.815015293258448,
                0.13438100538272524,
                -0.5820155514247165,
                -2.6638448922415243
            ]
        },
        {
            "positions": [
                -0.33481006347792497,
                -1.2771768362485796,
                1.8369306929478462,
                0.010726928755810938,
                -0.4921439003285599,
                -2.7221311738792897
            ]
        },
        {
            "positions": [
                -0.2694719686306336,
                -1.2587977414259002,
                1.8588460926372443,
                -0.1129271478711038,
                -0.4022722492324031,
                -2.780417455517055
            ]
        },
        {
            "positions": [
                -0.20413387378334236,
                -1.2404186466032208,
                1.8807614923266425,
                -0.2365812244980181,
                -0.31240059813624654,
                -2.83870373715482
            ]
        },
        {
            "positions": [
                -0.138795778936051,
                -1.2220395517805414,
                1.9026768920160406,
                -0.3602353011249326,
                -0.22252894704008974,
                -2.8969900187925854
            ]
        },
        {
            "positions": [
                -0.07345768408875974,
                -1.203660456957862,
                1.9245922917054388,
                -0.48388937775184715,
                -0.13265729594393316,
                -2.9552763004303504
            ]
        },
        {
            "positions": [
                -0.008119589241468272,
                -1.1852813621351825,
                1.946507691394837,
                -0.6075434543787617,
                -0.04278564484777636,
                -3.013562582068116
            ]
        },
        {
            "positions": [
                0.057218505605822756,
                -1.1669022673125031,
                1.968423091084235,
                -0.731197531005676,
                0.04708600624838022,
                -3.071848863705881
            ]
        },
        {
            "positions": [
                0.12255660045311428,
                -1.1485231724898237,
                1.9903384907736332,
                -0.8548516076325908,
                0.13695765734453713,
                -3.130135145343646
            ]
        }
    ]
}