{
    "goal": {
        "global_pose": {
            "orientation": {
                "w": 0.7031023502349854,
                "x": -0.7110244035720825,
                "y": 0.007748599164187908,
                "z": 0.005598929710686207
            },
            "position": {
                "x": 0.11585023208521307,
                "y": 0.44412534475326537,
                "z": 0.3711530566215515
            }
        },
        "name": "move_to_auspresseinheit_A"
    },
    "id": "KPIECE_move_to_auspresseinheit_A_83",
    "joint_names": [
        "shoulder_pan_joint",
        "shoulder_lift_joint",
        "elbow_joint",
        "wrist_1_joint",
        "wrist_2_joint",
        "wrist_3_joint"
    ],
    "metrics": {
        "cart_traj_len": 1.0663057027106078,
        "distance_elbow_joint": 0.1937835671443855,
        "distance_shoulder_lift_joint": 1.5648404345857252,
        "distance_shoulder_pan_joint": 1.047847152684887,
        "distance_wrist_1_joint": 1.0774551454506471,
        "distance_wrist_2_joint": 6.378899942913353,
        "distance_wrist_3_joint": 9.680727450931672,
        "smoothness": 0.6298632996039798,
        "time": 0.212515485,
        "traj_len": 4.465820606978148,
        "weighted_distance": 6.838228109966647
    },
    "planner": "KPIECE",
    "start": {
        "state": {
            "elbow_joint": 2.4225747245308327,
            "shoulder_lift_joint": -1.373653427065438,
            "shoulder_pan_joint": -0.33786330853087027,
            "wrist_1_joint": -1.0288602302712604,
            "wrist_2_joint": 1.23302299562683,
            "wrist_3_joint": -3.094021725338297
        }
    },
    "waypoints": [
        {
            "positions": [
                -0.33786330853087027,
                -1.373653427065438,
                2.4225747245308327,
                -1.0288602302712604,
                1.23302299562683,
                -3.094021725338297
            ]
        },
        {
            "positions": [
                -0.314525341132918,
                -1.4140506114140745,
                2.418277023879208,
                -1.0386020549141315,
                1.1005157676617154,
                -2.9087735123758724
            ]
        },
        {
            "positions": [
                -0.2911873737349658,
                -1.454447795762711,
                2.4139793232275837,
                -1.0483438795570026,
                0.9680085396966012,
                -2.7235252994134482
            ]
        },
        {
            "positions": [
                -0.2678494063370135,
                -1.4948449801113475,
                2.4096816225759587,
                -1.0580857041998737,
                0.8355013117314867,
                -2.5382770864510236
            ]
        },
        {
            "positions": [
                -0.24451143893906124,
                -1.535242164459984,
                2.4053839219243343,
                -1.0678275288427448,
                0.7029940837663723,
                -2.353028873488599
            ]
        },
        {
            "positions": [
                -0.221173471541109,
                -1.5756393488086207,
                2.4010862212727098,
                -1.0775693534856157,
                0.5704868558012579,
                -2.1677806605261747
            ]
        },
        {
            "positions": [
                -0.19783550414315676,
                -1.6160365331572573,
                2.3967885206210853,
                -1.0873111781284868,
                0.4379796278361434,
                -1.98253244756375
            ]
        },
        {
            "positions": [
                -0.17449753674520452,
                -1.6564337175058936,
                2.3924908199694603,
                -1.0970530027713579,
                0.30547239987102914,
                -1.7972842346013258
            ]
        },
        {
            "positions": [
                -0.15115956934725225,
                -1.6968309018545304,
                2.388193119317836,
                -1.106794827414229,
                0.17296517190591465,
                -1.6120360216389011
            ]
        },
        {
            "positions": [
                -0.1278216019493,
                -1.7372280862031668,
                2.3838954186662114,
                -1.1165366520571,
                0.04045794394080038,
                -1.4267878086764767
            ]
        },
        {
            "positions": [
                -0.10448363455134774,
                -1.7776252705518034,
                2.379597718014587,
                -1.1262784766999712,
                -0.09204928402431412,
                -1.241539595714052
            ]
        },
        {
            "positions": [
                -0.0811456671533955,
                -1.81802245490044,
                2.375300017362962,
                -1.1360203013428423,
                -0.2245565119894286,
                -1.0562913827516276
            ]
        },
        {
            "positions": [
                -0.057807699755443254,
                -1.8584196392490766,
                2.3710023167113374,
                -1.1457621259857134,
                -0.3570637399545431,
                -0.8710431697892029
            ]
        },
        {
            "positions": [
                -0.03446973235749101,
                -1.8988168235977132,
                2.366704616059713,
                -1.1555039506285842,
                -0.4895709679196574,
                -0.6857949568267787
            ]
        },
        {
            "positions": [
                -0.01113176495953877,
                -1.9392140079463496,
                2.3624069154080884,
                -1.1652457752714553,
                -0.6220781958847716,
                -0.5005467438643545
            ]
        },
        {
            "positions": [
                0.012206202438413472,
                -1.9796111922949862,
                2.358109214756464,
                -1.1749875999143264,
                -0.7545854238498859,
                -0.31529853090192983
            ]
        },
        {
            "positions": [
                0.03554416983636577,
                -2.0200083766436228,
                2.353811514104839,
                -1.1847294245571975,
                -0.8870926518150006,
                -0.13005031793950517
            ]
        },
        {
            "positions": [
                0.05888213723431801,
                -2.060405560992259,
                2.3495138134532145,
                -1.1944712492000686,
                -1.019599879780115,
                0.055197895022919496
            ]
        },
        {
            "positions": [
                0.08222010463227025,
                -2.100802745340896,
                2.34521611280159,
                -1.2042130738429397,
                -1.1521071077452292,
                0.24044610798534372
            ]
        },
        {
            "positions": [
                0.10555807203022244,
                -2.1411999296895323,
                2.3409184121499655,
                -1.2139548984858108,
                -1.284614335710344,
                0.42569432094776793
            ]
        },
        {
            "positions": [
                0.1288960394281748,
                -2.181597114038169,
                2.3366207114983406,
                -1.223696723128682,
                -1.4171215636754582,
                0.610942533910193
            ]
        },
        {
            "positions": [
                0.15223400682612698,
                -2.2219942983868055,
                2.332323010846716,
                -1.233438547771553,
                -1.5496287916405729,
                0.7961907468726173
            ]
        },
        {
            "positions": [
                0.17557197422407927,
                -2.262391482735442,
                2.3280253101950916,
                -1.243180372414424,
                -1.6821360196056871,
                0.9814389598350419
            ]
        },
        {
            "positions": [
                0.19890994162203152,
                -2.3027886670840787,
                2.323727609543467,
                -1.252922197057295,
                -1.8146432475708014,
                1.1666871727974661
            ]
        },
        {
            "positions": [
                0.22224790901998376,
                -2.343185851432715,
                2.319429908891842,
                -1.2626640217001661,
                -1.9471504755359161,
                1.3519353857598913
            ]
        },
        {
            "positions": [
                0.245585876417936,
                -2.383583035781352,
                2.3151322082402177,
                -1.2724058463430372,
                -2.0796577035010304,
                1.5371835987223155
            ]
        },
        {
            "positions": [
                0.2689238438158883,
                -2.4239802201299883,
                2.310834507588593,
                -1.2821476709859083,
                -2.2121649314661447,
                1.7224318116847397
            ]
        },
        {
            "positions": [
                0.2865662438294134,
                -2.4033996744691413,
                2.314116241596679,
                -1.2491809627964683,
                -2.0948164508333296,
                1.5278608551283943
            ]
        },
        {
            "positions": [
                0.3042086438429386,
                -2.3828191288082943,
                2.3173979756047647,
                -1.2162142546070285,
                -1.977467970200514,
                1.333289898572049
            ]
        },
        {
            "positions": [
                0.32185104385646374,
                -2.3622385831474473,
                2.320679709612851,
                -1.1832475464175884,
                -1.860119489567699,
                1.1387189420157038
            ]
        },
        {
            "positions": [
                0.3394934438699889,
                -2.3416580374866003,
                2.3239614436209366,
                -1.1502808382281484,
                -1.7427710089348833,
                0.9441479854593584
            ]
        },
        {
            "positions": [
                0.35713584388351405,
                -2.3210774918257533,
                2.3272431776290223,
                -1.1173141300387086,
                -1.6254225283020682,
                0.749577028903013
            ]
        },
        {
            "positions": [
                0.3747782438970392,
                -2.3004969461649063,
                2.330524911637108,
                -1.0843474218492686,
                -1.508074047669253,
                0.5550060723466679
            ]
        },
        {
            "positions": [
                0.39242064391056436,
                -2.2799164005040593,
                2.3338066456451942,
                -1.0513807136598285,
                -1.3907255670364376,
                0.3604351157903223
            ]
        },
        {
            "positions": [
                0.41006304392408954,
                -2.2593358548432123,
                2.33708837965328,
                -1.0184140054703885,
                -1.2733770864036222,
                0.16586415923397713
            ]
        },
        {
            "positions": [
                0.42770544393761467,
                -2.2387553091823653,
                2.3403701136613657,
                -0.9854472972809487,
                -1.156028605770807,
                -0.02870679732236825
            ]
        },
        {
            "positions": [
                0.4453478439511398,
                -2.2181747635215183,
                2.3436518476694514,
                -0.9524805890915087,
                -1.0386801251379916,
                -0.22327775387871363
            ]
        },
        {
            "positions": [
                0.4629902439646649,
                -2.1975942178606713,
                2.3469335816775376,
                -0.9195138809020686,
                -0.9213316445051762,
                -0.417848710435059
            ]
        },
        {
            "positions": [
                0.48063264397819006,
                -2.1770136721998243,
                2.3502153156856234,
                -0.8865471727126288,
                -0.8039831638723611,
                -0.6124196669914039
            ]
        },
        {
            "positions": [
                0.4982750439917153,
                -2.1564331265389773,
                2.353497049693709,
                -0.8535804645231888,
                -0.6866346832395456,
                -0.8069906235477498
            ]
        },
        {
            "positions": [
                0.5159174440052404,
                -2.1358525808781303,
                2.356778783701795,
                -0.8206137563337488,
                -0.5692862026067302,
                -1.0015615801040951
            ]
        },
        {
            "positions": [
                0.5335598440187656,
                -2.1152720352172834,
                2.360060517709881,
                -0.7876470481443089,
                -0.45193772197391513,
                -1.19613253666044
            ]
        },
        {
            "positions": [
                0.5512022440322908,
                -2.0946914895564364,
                2.3633422517179667,
                -0.7546803399548689,
                -0.3345892413410998,
                -1.3907034932167854
            ]
        },
        {
            "positions": [
                0.5688446440458159,
                -2.0741109438955894,
                2.3666239857260525,
                -0.7217136317654289,
                -0.21724076070828424,
                -1.5852744497731308
            ]
        },
        {
            "positions": [
                0.586487044059341,
                -2.0535303982347424,
                2.369905719734138,
                -0.688746923575989,
                -0.09989228007546913,
                -1.7798454063294762
            ]
        },
        {
            "positions": [
                0.6041294440728662,
                -2.0329498525738954,
                2.3731874537422244,
                -0.655780215386549,
                0.01745620055734598,
                -1.9744163628858216
            ]
        },
        {
            "positions": [
                0.6217718440863913,
                -2.0123693069130484,
                2.37646918775031,
                -0.622813507197109,
                0.13480468119016153,
                -2.168987319442167
            ]
        },
        {
            "positions": [
                0.6394142440999164,
                -1.9917887612522014,
                2.379750921758396,
                -0.5898467990076691,
                0.25215316182297665,
                -2.363558275998512
            ]
        },
        {
            "positions": [
                0.6570566441134416,
                -1.9712082155913544,
                2.3830326557664816,
                -0.5568800908182291,
                0.3695016424557922,
                -2.5581292325548577
            ]
        },
        {
            "positions": [
                0.6746990441269668,
                -1.9506276699305074,
                2.386314389774568,
                -0.5239133826287892,
                0.4868501230886073,
                -2.7527001891112026
            ]
        },
        {
            "positions": [
                0.6923414441404918,
                -1.9300471242696604,
                2.3895961237826535,
                -0.49094667443934925,
                0.6041986037214224,
                -2.9472711456675476
            ]
        },
        {
            "positions": [
                0.709983844154017,
                -1.9094665786088134,
                2.3928778577907392,
                -0.4579799662499092,
                0.721547084354238,
                -3.141842102223894
            ]
        }
    ]
}