{
    "goal": {
        "global_pose": {
            "orientation": {
                "w": -0.00223480608172531,
                "x": 0.0024358444001904467,
                "y": 0.7094548369677653,
                "z": -0.704743149386269
            },
            "position": {
                "x": 0.6205249238014221,
                "y": -0.6371506643295288,
                "z": 0.19426114857196808
            }
        },
        "name": "move_to_magneteinheit_B"
    },
    "id": "KPIECE_move_to_magneteinheit_B_20",
    "joint_names": [
        "shoulder_pan_joint",
        "shoulder_lift_joint",
        "elbow_joint",
        "wrist_1_joint",
        "wrist_2_joint",
        "wrist_3_joint"
    ],
    "metrics": {
        "cart_traj_len": 3.2969962578436505,
        "distance_elbow_joint": 4.194722573633567,
        "distance_shoulder_lift_joint": 0.612159543841621,
        "distance_shoulder_pan_joint": 1.972442954478419,
        "distance_wrist_1_joint": 2.2679397737503244,
        "distance_wrist_2_joint": 0.6863253928280981,
        "distance_wrist_3_joint": 3.1628850541486653,
        "smoothness": 0.3563327784623512,
        "time": 1.9984405719999998,
        "traj_len": 3.5911662858576587,
        "weighted_distance": 4.709194258846884
    },
    "planner": "KPIECE",
    "start": {
        "state": {
            "elbow_joint": 2.3935871308073637,
            "shoulder_lift_joint": -1.9085141043777403,
            "shoulder_pan_joint": 0.7066247067284167,
            "wrist_1_joint": -0.46782909355067076,
            "wrist_2_joint": 0.7096259085804283,
            "wrist_3_joint": -3.1358149275257428
        }
    },
    "waypoints": [
        {
            "positions": [
                0.7066247067284167,
                -1.9085141043777403,
                2.3935871308073637,
                -0.46782909355067076,
                0.7096259085804283,
                -3.1358149275257428
            ]
        },
        {
            "positions": [
                0.7831488534058207,
                -1.925626807987047,
                2.4154080445525428,
                -0.4953969458614577,
                0.7855212988837555,
                -3.061341195451518
            ]
        },
        {
            "positions": [
                0.8596730000832247,
                -1.942739511596354,
                2.437228958297722,
                -0.5229647981722446,
                0.8614166891870827,
                -2.986867463377293
            ]
        },
        {
            "positions": [
                0.9361971467606287,
                -1.9598522152056608,
                2.459049872042901,
                -0.5505326504830316,
                0.93731207949041,
                -2.9123937313030686
            ]
        },
        {
            "positions": [
                1.0136077561996473,
                -1.9561703720014438,
                2.3516851446007134,
                -0.47179476332070375,
                0.9240461686076181,
                -2.8481656754508524
            ]
        },
        {
            "positions": [
                1.091018365638666,
                -1.952488528797227,
                2.244320417158526,
                -0.3930568761583759,
                0.9107802577248264,
                -2.7839376195986363
            ]
        },
        {
            "positions": [
                1.1684289750776848,
                -1.94880668559301,
                2.1369556897163386,
                -0.3143189889960481,
                0.8975143468420346,
                -2.71970956374642
            ]
        },
        {
            "positions": [
                1.2458395845167034,
                -1.945124842388793,
                2.029590962274151,
                -0.23558110183372027,
                0.8842484359592427,
                -2.655481507894204
            ]
        },
        {
            "positions": [
                1.323250193955722,
                -1.941442999184576,
                1.9222262348319634,
                -0.15684321467139245,
                0.870982525076451,
                -2.591253452041988
            ]
        },
        {
            "positions": [
                1.4006608033947407,
                -1.9377611559803591,
                1.814861507389776,
                -0.07810532750906463,
                0.8577166141936592,
                -2.5270253961897717
            ]
        },
        {
            "positions": [
                1.4558217072056825,
                -1.9450151742697017,
                1.6653721485229618,
                -0.01782039548565923,
                0.8495743906590744,
                -2.4230481605601257
            ]
        },
        {
            "positions": [
                1.5109826110166245,
                -1.9522691925590443,
                1.5158827896561478,
                0.042464536537746164,
                0.8414321671244895,
                -2.3190709249304797
            ]
        },
        {
            "positions": [
                1.5661435148275662,
                -1.9595232108483869,
                1.3663934307893335,
                0.10274946856115155,
                0.8332899435899047,
                -2.2150936893008337
            ]
        },
        {
            "positions": [
                1.6213044186385082,
                -1.9667772291377295,
                1.2169040719225195,
                0.16303440058455695,
                0.8251477200553199,
                -2.1111164536711877
            ]
        },
        {
            "positions": [
                1.67646532244945,
                -1.974031247427072,
                1.067414713055705,
                0.22331933260796233,
                0.8170054965207351,
                -2.0071392180415417
            ]
        },
        {
            "positions": [
                1.7316262262603916,
                -1.9812852657164146,
                0.917925354188891,
                0.28360426463136773,
                0.8088632729861502,
                -1.903161982411896
            ]
        },
        {
            "positions": [
                1.7867871300713336,
                -1.9885392840057572,
                0.7684359953220767,
                0.3438891966547732,
                0.8007210494515654,
                -1.79918474678225
            ]
        },
        {
            "positions": [
                1.8419480338822753,
                -1.9957933022950998,
                0.6189466364552627,
                0.40417412867817853,
                0.7925788259169806,
                -1.6952075111526042
            ]
        },
        {
            "positions": [
                1.897108937693217,
                -2.003047320584442,
                0.46945727758844824,
                0.46445906070158394,
                0.7844366023823958,
                -1.5912302755229581
            ]
        },
        {
            "positions": [
                1.952269841504159,
                -2.0103013388737847,
                0.3199679187216342,
                0.5247439927249893,
                0.7762943788478109,
                -1.4872530398933121
            ]
        },
        {
            "positions": [
                2.007430745315101,
                -2.0175553571631273,
                0.17047855985481997,
                0.5850289247483947,
                0.7681521553132261,
                -1.3832758042636661
            ]
        },
        {
            "positions": [
                2.0625916491260425,
                -2.02480937545247,
                0.02098920098800594,
                0.6453138567718001,
                0.7600099317786413,
                -1.2792985686340201
            ]
        },
        {
            "positions": [
                2.1177525529369845,
                -2.0320633937418124,
                -0.12850015787880809,
                0.7055987887952054,
                0.7518677082440565,
                -1.1753213330043744
            ]
        },
        {
            "positions": [
                2.1729134567479265,
                -2.039317412031155,
                -0.27798951674562256,
                0.765883720818611,
                0.7437254847094716,
                -1.0713440973747281
            ]
        },
        {
            "positions": [
                2.2280743605588684,
                -2.0465714303204976,
                -0.4274788756124366,
                0.8261686528420163,
                0.7355832611748868,
                -0.9673668617450824
            ]
        },
        {
            "positions": [
                2.28323526436981,
                -2.05382544860984,
                -0.5769682344792506,
                0.8864535848654217,
                0.727441037640302,
                -0.8633896261154363
            ]
        },
        {
            "positions": [
                2.338396168180752,
                -2.0610794668991828,
                -0.7264575933460651,
                0.9467385168888269,
                0.7192988141057172,
                -0.7594123904857903
            ]
        },
        {
            "positions": [
                2.393557071991694,
                -2.0683334851885253,
                -0.8759469522128795,
                1.0070234489122325,
                0.7111565905711323,
                -0.6554351548561443
            ]
        },
        {
            "positions": [
                2.4487179758026354,
                -2.075587503477868,
                -1.0254363110796936,
                1.0673083809356378,
                0.7030143670365475,
                -0.5514579192264983
            ]
        },
        {
            "positions": [
                2.5038788796135774,
                -2.0828415217672105,
                -1.1749256699465076,
                1.1275933129590432,
                0.6948721435019627,
                -0.44748068359685256
            ]
        },
        {
            "positions": [
                2.5590397834245193,
                -2.090095540056553,
                -1.3244150288133216,
                1.1878782449824485,
                0.6867299199673779,
                -0.34350344796720655
            ]
        },
        {
            "positions": [
                2.614200687235461,
                -2.0973495583458956,
                -1.473904387680136,
                1.248163177005854,
                0.678587696432793,
                -0.23952621233756055
            ]
        },
        {
            "positions": [
                2.669361591046403,
                -2.1046035766352382,
                -1.6233937465469501,
                1.3084481090292595,
                0.6704454728982082,
                -0.13554897670791438
            ]
        },
        {
            "positions": [
                2.6661262343262586,
                -2.2285662276797447,
                -1.6389991511496762,
                1.1996962899273682,
                0.6065212677895699,
                -0.08134260893096887
            ]
        },
        {
            "positions": [
                2.662890877606114,
                -2.3525288787242515,
                -1.654604555752402,
                1.090944470825477,
                0.5425970626809318,
                -0.027136241154023355
            ]
        },
        {
            "positions": [
                2.65965552088597,
                -2.476491529768758,
                -1.6702099603551281,
                0.9821926517235858,
                0.47867285757229355,
                0.02707012662292215
            ]
        }
    ]
}