{
    "goal": {
        "global_pose": {
            "orientation": {
                "w": -0.00223480608172531,
                "x": 0.0024358444001904467,
                "y": 0.7094548369677653,
                "z": -0.704743149386269
            },
            "position": {
                "x": -0.37947507619857795,
                "y": -0.6371506643295288,
                "z": 0.19426114857196808
            }
        },
        "name": "move_to_magneteinheit_C"
    },
    "id": "KPIECE_move_to_magneteinheit_C_47",
    "joint_names": [
        "shoulder_pan_joint",
        "shoulder_lift_joint",
        "elbow_joint",
        "wrist_1_joint",
        "wrist_2_joint",
        "wrist_3_joint"
    ],
    "metrics": {
        "cart_traj_len": 3.7927012623702803,
        "distance_elbow_joint": 0.8429905183056552,
        "distance_shoulder_lift_joint": 2.6026748695935833,
        "distance_shoulder_pan_joint": 5.351109539479033,
        "distance_wrist_1_joint": 2.703520461793676,
        "distance_wrist_2_joint": 3.470770639753948,
        "distance_wrist_3_joint": 2.316083852651471,
        "smoothness": 0.7267607765256273,
        "time": 0.190922662,
        "traj_len": 4.157781846318703,
        "weighted_distance": 5.300340431371171
    },
    "planner": "KPIECE",
    "start": {
        "state": {
            "elbow_joint": 1.9565354006590394,
            "shoulder_lift_joint": -1.4165861576513559,
            "shoulder_pan_joint": -1.6717766223277177,
            "wrist_1_joint": -0.5286633288215096,
            "wrist_2_joint": 1.4727565892594296,
            "wrist_3_joint": 3.1593482883155493
        }
    },
    "waypoints": [
        {
            "positions": [
                -1.6717766223277177,
                -1.4165861576513559,
                1.9565354006590394,
                -0.5286633288215096,
                1.4727565892594296,
                3.1593482883155493
            ]
        },
        {
            "positions": [
                -1.568423524642363,
                -1.4699352647965704,
                1.9768265935903444,
                -0.47383690669691386,
                1.3754973161110735,
                3.1057716115059404
            ]
        },
        {
            "positions": [
                -1.4650704269570083,
                -1.5232843719417852,
                1.9971177865216494,
                -0.4190104845723182,
                1.2782380429627171,
                3.0521949346963315
            ]
        },
        {
            "positions": [
                -1.3617173292716536,
                -1.576633479087,
                2.0174089794529544,
                -0.3641840624477225,
                1.180978769814361,
                2.9986182578867226
            ]
        },
        {
            "positions": [
                -1.2583642315862988,
                -1.6299825862322146,
                2.0377001723842594,
                -0.30935764032312685,
                1.0837194966660046,
                2.945041581077114
            ]
        },
        {
            "positions": [
                -1.1550111339009441,
                -1.6833316933774292,
                2.0579913653155644,
                -0.25453121819853114,
                0.9864602235176485,
                2.891464904267505
            ]
        },
        {
            "positions": [
                -1.0516580362155894,
                -1.736680800522644,
                2.0782825582468694,
                -0.1997047960739355,
                0.8892009503692924,
                2.837888227457896
            ]
        },
        {
            "positions": [
                -0.9483049385302346,
                -1.7900299076678587,
                2.0985737511781744,
                -0.14487837394933978,
                0.7919416772209361,
                2.784311550648287
            ]
        },
        {
            "positions": [
                -0.8449518408448797,
                -1.8433790148130733,
                2.1188649441094793,
                -0.09005195182474407,
                0.6946824040725799,
                2.7307348738386783
            ]
        },
        {
            "positions": [
                -0.741598743159525,
                -1.896728121958288,
                2.1391561370407843,
                -0.03522552970014842,
                0.5974231309242236,
                2.6771581970290694
            ]
        },
        {
            "positions": [
                -0.6382456454741703,
                -1.9500772291035027,
                2.1594473299720893,
                0.01960089242444729,
                0.5001638577758675,
                2.6235815202194606
            ]
        },
        {
            "positions": [
                -0.5348925477888156,
                -2.0034263362487175,
                2.1797385229033948,
                0.07442731454904294,
                0.4029045846275112,
                2.5700048434098517
            ]
        },
        {
            "positions": [
                -0.43153945010346084,
                -2.0567754433939323,
                2.2000297158346998,
                0.1292537366736386,
                0.3056453114791551,
                2.516428166600243
            ]
        },
        {
            "positions": [
                -0.3281863524181061,
                -2.1101245505391466,
                2.2203209087660047,
                0.18408015879823436,
                0.20838603833079872,
                2.462851489790634
            ]
        },
        {
            "positions": [
                -0.2248332547327514,
                -2.1634736576843614,
                2.2406121016973097,
                0.23890658092283001,
                0.11112676518244258,
                2.409274812981025
            ]
        },
        {
            "positions": [
                -0.12148015704739668,
                -2.216822764829576,
                2.2609032946286147,
                0.29373300304742567,
                0.013867492034086437,
                2.355698136171416
            ]
        },
        {
            "positions": [
                -0.01812705936204173,
                -2.2701718719747905,
                2.2811944875599197,
                0.34855942517202143,
                -0.08339178111426993,
                2.3021214593618073
            ]
        },
        {
            "positions": [
                0.08522603832331277,
                -2.3235209791200053,
                2.3014856804912247,
                0.403385847296617,
                -0.18065105426262607,
                2.2485447825521985
            ]
        },
        {
            "positions": [
                0.1885791360086677,
                -2.37687008626522,
                2.3217768734225297,
                0.45821226942121274,
                -0.2779103274109824,
                2.1949681057425896
            ]
        },
        {
            "positions": [
                0.29193223369402244,
                -2.430219193410435,
                2.3420680663538347,
                0.5130386915458084,
                -0.37516960055933857,
                2.1413914289329807
            ]
        },
        {
            "positions": [
                0.39528533137937716,
                -2.4835683005556497,
                2.3623592592851397,
                0.5678651136704042,
                -0.4724288737076947,
                2.087814752123372
            ]
        },
        {
            "positions": [
                0.4986384290647319,
                -2.536917407700864,
                2.3826504522164447,
                0.6226915357949999,
                -0.5696881468560511,
                2.034238075313763
            ]
        },
        {
            "positions": [
                0.6019915267500866,
                -2.590266514846079,
                2.4029416451477497,
                0.6775179579195956,
                -0.6669474200044072,
                1.9806613985041541
            ]
        },
        {
            "positions": [
                0.4681940749935114,
                -2.5281363186548242,
                2.3856988506339696,
                0.6124162546564403,
                -0.6090749578091851,
                2.030113440366766
            ]
        },
        {
            "positions": [
                0.33439662323693614,
                -2.466006122463569,
                2.368456056120189,
                0.5473145513932851,
                -0.5512024956139628,
                2.0795654822293783
            ]
        },
        {
            "positions": [
                0.20059917148036094,
                -2.4038759262723146,
                2.351213261606409,
                0.4822128481301299,
                -0.4933300334187407,
                2.12901752409199
            ]
        },
        {
            "positions": [
                0.06680171972378568,
                -2.3417457300810596,
                2.333970467092629,
                0.41711114486697465,
                -0.4354575712235186,
                2.178469565954602
            ]
        },
        {
            "positions": [
                -0.06699573203278952,
                -2.279615533889805,
                2.3167276725788484,
                0.3520094416038194,
                -0.3775851090282964,
                2.227921607817214
            ]
        },
        {
            "positions": [
                -0.20079318378936473,
                -2.21748533769855,
                2.2994848780650683,
                0.2869077383406642,
                -0.31971264683307427,
                2.2773736496798263
            ]
        },
        {
            "positions": [
                -0.33459063554594004,
                -2.1553551415072953,
                2.282242083551288,
                0.2218060350775089,
                -0.261840184637852,
                2.326825691542438
            ]
        },
        {
            "positions": [
                -0.46838808730251524,
                -2.0932249453160403,
                2.264999289037508,
                0.15670433181435373,
                -0.2039677224426299,
                2.37627773340505
            ]
        },
        {
            "positions": [
                -0.6021855390590904,
                -2.0310947491247857,
                2.2477564945237276,
                0.09160262855119838,
                -0.1460952602474077,
                2.425729775267662
            ]
        },
        {
            "positions": [
                -0.7359829908156656,
                -1.968964552933531,
                2.2305137000099475,
                0.026500925288043264,
                -0.08822279805218558,
                2.475181817130274
            ]
        },
        {
            "positions": [
                -0.8697804425722409,
                -1.906834356742276,
                2.2132709054961675,
                -0.03860077797511208,
                -0.03035033585696334,
                2.5246338589928863
            ]
        },
        {
            "positions": [
                -1.003577894328816,
                -1.8447041605510213,
                2.196028110982387,
                -0.1037024812382672,
                0.02752212633825868,
                2.574085900855498
            ]
        },
        {
            "positions": [
                -1.1373753460853913,
                -1.7825739643597664,
                2.178785316468607,
                -0.16880418450142243,
                0.08539458853348081,
                2.62353794271811
            ]
        },
        {
            "positions": [
                -1.2711727978419667,
                -1.7204437681685116,
                2.1615425219548268,
                -0.23390588776457777,
                0.14326705072870316,
                2.672989984580722
            ]
        },
        {
            "positions": [
                -1.4049702495985419,
                -1.6583135719772568,
                2.1442997274410462,
                -0.299007591027733,
                0.2011395129239253,
                2.722442026443334
            ]
        },
        {
            "positions": [
                -1.538767701355117,
                -1.5961833757860022,
                2.127056932927266,
                -0.3641092942908881,
                0.2590119751191474,
                2.7718940683059463
            ]
        },
        {
            "positions": [
                -1.6725651531116918,
                -1.5340531795947474,
                2.109814138413486,
                -0.42921099755404346,
                0.31688443731436955,
                2.821346110168558
            ]
        },
        {
            "positions": [
                -1.8063626048682675,
                -1.4719229834034924,
                2.0925713438997056,
                -0.4943127008171988,
                0.3747568995095918,
                2.87079815203117
            ]
        },
        {
            "positions": [
                -1.9401600566248427,
                -1.4097927872122378,
                2.0753285493859255,
                -0.5594144040803539,
                0.4326293617048138,
                2.920250193893782
            ]
        },
        {
            "positions": [
                -2.073957508381418,
                -1.347662591020983,
                2.0580857548721454,
                -0.624516107343509,
                0.49050182390003605,
                2.969702235756394
            ]
        },
        {
            "positions": [
                -2.207754960137993,
                -1.2855323948297281,
                2.0408429603583653,
                -0.6896178106066644,
                0.5483742860952581,
                3.0191542776190063
            ]
        },
        {
            "positions": [
                -2.3415524118945683,
                -1.2234021986384733,
                2.023600165844585,
                -0.7547195138698197,
                0.6062467482904805,
                3.068606319481618
            ]
        },
        {
            "positions": [
                -2.4753498636511435,
                -1.1612720024472185,
                2.0063573713308047,
                -0.8198212171329748,
                0.6641192104857024,
                3.11805836134423
            ]
        }
    ]
}