{
    "goal": {
        "global_pose": {
            "orientation": {
                "w": 0.7047431468963623,
                "x": -0.7094548344612122,
                "y": 0.0024358443915843964,
                "z": -0.0022348060738295317
            },
            "position": {
                "x": 0.6094750761985779,
                "y": 0.3671506643295288,
                "z": 0.19426114857196808
            }
        },
        "name": "move_to_magneteinheit_A"
    },
    "id": "KPIECE_move_to_magneteinheit_A_18",
    "joint_names": [
        "shoulder_pan_joint",
        "shoulder_lift_joint",
        "elbow_joint",
        "wrist_1_joint",
        "wrist_2_joint",
        "wrist_3_joint"
    ],
    "metrics": {
        "cart_traj_len": 1.0534804655791468,
        "distance_elbow_joint": 0.384129788097743,
        "distance_shoulder_lift_joint": 0.36462482164880616,
        "distance_shoulder_pan_joint": 1.2424438093155228,
        "distance_wrist_1_joint": 2.2057778457923627,
        "distance_wrist_2_joint": 1.7106959946197244,
        "distance_wrist_3_joint": 1.2302387145441491,
        "smoothness": 2.6645352801989826e-16,
        "time": 0.037348503,
        "traj_len": 2.6716869154184795,
        "weighted_distance": 3.676256553005883
    },
    "planner": "KPIECE",
    "start": {
        "state": {
            "elbow_joint": 1.5739458966750683,
            "shoulder_lift_joint": -1.4977259741207325,
            "shoulder_pan_joint": -1.1188672016454206,
            "wrist_1_joint": 1.494575848278785,
            "wrist_2_joint": -1.5706037134824402,
            "wrist_3_joint": -2.0226957942261072
        }
    },
    "waypoints": [
        {
            "positions": [
                -1.1188672016454206,
                -1.4977259741207325,
                1.5739458966750683,
                1.494575848278785,
                -1.5706037134824402,
                -2.0226957942261072
            ]
        },
        {
            "positions": [
                -1.0534754222077616,
                -1.4785351940339533,
                1.5941632539433706,
                1.378482277447608,
                -1.4805670821866652,
                -2.087445200254747
            ]
        },
        {
            "positions": [
                -0.9880836427701025,
                -1.4593444139471738,
                1.614380611211673,
                1.262388706616431,
                -1.3905304508908902,
                -2.152194606283386
            ]
        },
        {
            "positions": [
                -0.9226918633324434,
                -1.4401536338603946,
                1.6345979684799752,
                1.146295135785254,
                -1.3004938195951152,
                -2.2169440123120254
            ]
        },
        {
            "positions": [
                -0.8573000838947843,
                -1.4209628537736154,
                1.6548153257482774,
                1.030201564954077,
                -1.2104571882993405,
                -2.281693418340665
            ]
        },
        {
            "positions": [
                -0.7919083044571251,
                -1.4017720736868362,
                1.6750326830165796,
                0.9141079941229001,
                -1.1204205570035655,
                -2.3464428243693045
            ]
        },
        {
            "positions": [
                -0.7265165250194661,
                -1.3825812936000568,
                1.695250040284882,
                0.7980144232917231,
                -1.0303839257077905,
                -2.4111922303979436
            ]
        },
        {
            "positions": [
                -0.661124745581807,
                -1.3633905135132776,
                1.7154673975531842,
                0.6819208524605461,
                -0.9403472944120155,
                -2.475941636426583
            ]
        },
        {
            "positions": [
                -0.595732966144148,
                -1.3441997334264983,
                1.7356847548214864,
                0.5658272816293691,
                -0.8503106631162405,
                -2.5406910424552227
            ]
        },
        {
            "positions": [
                -0.5303411867064888,
                -1.3250089533397191,
                1.7559021120897886,
                0.44973371079819224,
                -0.7602740318204655,
                -2.6054404484838622
            ]
        },
        {
            "positions": [
                -0.4649494072688297,
                -1.3058181732529397,
                1.776119469358091,
                0.33364013996701525,
                -0.6702374005246906,
                -2.6701898545125013
            ]
        },
        {
            "positions": [
                -0.39955762783117055,
                -1.2866273931661605,
                1.7963368266263933,
                0.21754656913583803,
                -0.5802007692289155,
                -2.734939260541141
            ]
        },
        {
            "positions": [
                -0.3341658483935116,
                -1.2674366130793813,
                1.8165541838946955,
                0.10145299830466126,
                -0.49016413793314073,
                -2.7996886665697804
            ]
        },
        {
            "positions": [
                -0.26877406895585243,
                -1.2482458329926018,
                1.8367715411629977,
                -0.014640572526515738,
                -0.4001275066373655,
                -2.86443807259842
            ]
        },
        {
            "positions": [
                -0.20338228951819337,
                -1.2290550529058226,
                1.8569888984312999,
                -0.13073414335769273,
                -0.31009087534159074,
                -2.929187478627059
            ]
        },
        {
            "positions": [
                -0.1379905100805342,
                -1.2098642728190434,
                1.8772062556996023,
                -0.24682771418886973,
                -0.22005424404581553,
                -2.9939368846556986
            ]
        },
        {
            "positions": [
                -0.07259873064287525,
                -1.1906734927322642,
                1.8974236129679045,
                -0.3629212850200467,
                -0.13001761275004076,
                -3.0586862906843377
            ]
        },
        {
            "positions": [
                -0.007206951205215972,
                -1.171482712645485,
                1.917640970236207,
                -0.4790148558512237,
                -0.03998098145426576,
                -3.1234356967129777
            ]
        },
        {
            "positions": [
                0.05818482823244309,
                -1.1522919325587055,
                1.9378583275045091,
                -0.5951084266824005,
                0.05005564984150923,
                -3.188185102741617
            ]
        },
        {
            "positions": [
                0.12357660767010226,
                -1.1331011524719263,
                1.9580756847728114,
                -0.7112019975135775,
                0.14009228113728425,
                -3.2529345087702564
            ]
        }
    ]
}