{
    "goal": {
        "global_pose": {
            "orientation": {
                "w": -0.4816463035849501,
                "x": 0.5182115481033762,
                "y": 0.4908360881923453,
                "z": -0.5084816262002911
            },
            "position": {
                "x": -0.8240239810943604,
                "y": 0.19912469901144506,
                "z": 0.16403168439865112
            }
        },
        "name": "move_to_storage_D"
    },
    "id": "KPIECE_move_to_storage_D_15",
    "joint_names": [
        "shoulder_pan_joint",
        "shoulder_lift_joint",
        "elbow_joint",
        "wrist_1_joint",
        "wrist_2_joint",
        "wrist_3_joint"
    ],
    "metrics": {
        "cart_traj_len": 3.502844898511553,
        "distance_elbow_joint": 3.937772168756295,
        "distance_shoulder_lift_joint": 1.0502082200603744,
        "distance_shoulder_pan_joint": 2.266697138730941,
        "distance_wrist_1_joint": 3.834328048967212,
        "distance_wrist_2_joint": 2.2279344913736967,
        "distance_wrist_3_joint": 3.120760945852011,
        "smoothness": 0.2708628181011592,
        "time": 0.046459624000000005,
        "traj_len": 4.054343475057403,
        "weighted_distance": 5.361108602312162
    },
    "planner": "KPIECE",
    "start": {
        "state": {
            "elbow_joint": -2.384821997420982,
            "shoulder_lift_joint": -2.2788054674887404,
            "shoulder_pan_joint": -0.18546946417610016,
            "wrist_1_joint": 1.4845937964226739,
            "wrist_2_joint": 0.1789877726866377,
            "wrist_3_joint": 0.03710572555276528
        }
    },
    "waypoints": [
        {
            "positions": [
                -0.18546946417610016,
                -2.2788054674887404,
                -2.384821997420982,
                1.4845937964226739,
                0.1789877726866377,
                0.03710572555276528
            ]
        },
        {
            "positions": [
                -0.10487018033384952,
                -2.238691039370309,
                -2.2349933909432007,
                1.4198011540809534,
                0.19406347867179582,
                0.0029453057251023346
            ]
        },
        {
            "positions": [
                -0.024270896491598887,
                -2.198576611251877,
                -2.0851647844654195,
                1.3550085117392328,
                0.20913918465695394,
                -0.031215114102560608
            ]
        },
        {
            "positions": [
                0.056328387350651765,
                -2.158462183133446,
                -1.9353361779876384,
                1.2902158693975123,
                0.22421489064211206,
                -0.06537553393022355
            ]
        },
        {
            "positions": [
                0.1369276711929024,
                -2.118347755015014,
                -1.7855075715098572,
                1.2254232270557919,
                0.23929059662727017,
                -0.09953595375788649
            ]
        },
        {
            "positions": [
                0.217526955035153,
                -2.0782333268965827,
                -1.635678965032076,
                1.1606305847140712,
                0.25436630261242826,
                -0.13369637358554942
            ]
        },
        {
            "positions": [
                0.2981262388774037,
                -2.038118898778151,
                -1.4858503585542948,
                1.0958379423723508,
                0.2694420085975864,
                -0.16785679341321239
            ]
        },
        {
            "positions": [
                0.37872552271965426,
                -1.9980044706597195,
                -1.3360217520765136,
                1.0310453000306303,
                0.2845177145827445,
                -0.20201721324087532
            ]
        },
        {
            "positions": [
                0.45932480656190494,
                -1.957890042541288,
                -1.1861931455987325,
                0.9662526576889098,
                0.2995934205679026,
                -0.23617763306853826
            ]
        },
        {
            "positions": [
                0.5399240904041556,
                -1.9177756144228564,
                -1.0363645391209513,
                0.9014600153471892,
                0.31466912655306073,
                -0.2703380528962012
            ]
        },
        {
            "positions": [
                0.6205233742464062,
                -1.877661186304425,
                -0.8865359326431701,
                0.8366673730054688,
                0.32974483253821885,
                -0.30449847272386416
            ]
        },
        {
            "positions": [
                0.7011226580886567,
                -1.8375467581859932,
                -0.7367073261653891,
                0.7718747306637482,
                0.34482053852337696,
                -0.3386588925515271
            ]
        },
        {
            "positions": [
                0.7817219419309076,
                -1.7974323300675619,
                -0.5868787196876077,
                0.7070820883220277,
                0.3598962445085351,
                -0.3728193123791901
            ]
        },
        {
            "positions": [
                0.8623212257731583,
                -1.75731790194913,
                -0.43705011320982656,
                0.6422894459803071,
                0.3749719504936932,
                -0.406979732206853
            ]
        },
        {
            "positions": [
                0.9429205096154087,
                -1.7172034738306987,
                -0.2872215067320454,
                0.5774968036385867,
                0.3900476564788513,
                -0.44114015203451595
            ]
        },
        {
            "positions": [
                1.0235197934576594,
                -1.6770890457122671,
                -0.13739290025426398,
                0.5127041612968661,
                0.40512336246400943,
                -0.4753005718621789
            ]
        },
        {
            "positions": [
                0.9843454274910971,
                -1.6936998530561154,
                -0.19999819920202616,
                0.4066879237471845,
                0.3309826624048863,
                -0.5719062995820703
            ]
        },
        {
            "positions": [
                0.9451710615245349,
                -1.7103106603999636,
                -0.26260349814978834,
                0.30067168619750284,
                0.2568419623457632,
                -0.6685120273019616
            ]
        },
        {
            "positions": [
                0.9059966955579726,
                -1.7269214677438116,
                -0.32520879709755046,
                0.1946554486478212,
                0.18270126228664002,
                -0.765117755021853
            ]
        },
        {
            "positions": [
                0.8668223295914104,
                -1.7435322750876598,
                -0.38781409604531264,
                0.08863921109813955,
                0.10856056222751692,
                -0.8617234827417444
            ]
        },
        {
            "positions": [
                0.827647963624848,
                -1.760143082431508,
                -0.4504193949930748,
                -0.017377026451542155,
                0.03441986216839377,
                -0.9583292104616357
            ]
        },
        {
            "positions": [
                0.7884735976582857,
                -1.7767538897753563,
                -0.5130246939408369,
                -0.12339326400122375,
                -0.03972083789072939,
                -1.054934938181527
            ]
        },
        {
            "positions": [
                0.7492992316917235,
                -1.7933646971192045,
                -0.5756299928885992,
                -0.22940950155090545,
                -0.11386153794985249,
                -1.1515406659014185
            ]
        },
        {
            "positions": [
                0.7101248657251613,
                -1.8099755044630528,
                -0.6382352918363613,
                -0.33542573910058704,
                -0.1880022380089756,
                -1.24814639362131
            ]
        },
        {
            "positions": [
                0.670950499758599,
                -1.8265863118069008,
                -0.7008405907841235,
                -0.44144197665026874,
                -0.2621429380680988,
                -1.3447521213412013
            ]
        },
        {
            "positions": [
                0.6317761337920367,
                -1.843197119150749,
                -0.7634458897318857,
                -0.5474582141999504,
                -0.3362836381272219,
                -1.4413578490610925
            ]
        },
        {
            "positions": [
                0.5926017678254745,
                -1.8598079264945973,
                -0.8260511886796479,
                -0.653474451749632,
                -0.410424338186345,
                -1.5379635767809838
            ]
        },
        {
            "positions": [
                0.5534274018589121,
                -1.8764187338384455,
                -0.88865648762741,
                -0.7594906892993136,
                -0.4845650382454682,
                -1.6345693045008751
            ]
        },
        {
            "positions": [
                0.5142530358923499,
                -1.8930295411822935,
                -0.9512617865751721,
                -0.8655069268489954,
                -0.5587057383045912,
                -1.7311750322207669
            ]
        },
        {
            "positions": [
                0.4750786699257876,
                -1.9096403485261417,
                -1.0138670855229344,
                -0.971523164398677,
                -0.6328464383637145,
                -1.8277807599406581
            ]
        },
        {
            "positions": [
                0.4359043039592253,
                -1.92625115586999,
                -1.0764723844706965,
                -1.0775394019483588,
                -0.7069871384228377,
                -1.9243864876605494
            ]
        },
        {
            "positions": [
                0.3967299379926631,
                -1.9428619632138382,
                -1.1390776834184586,
                -1.1835556394980402,
                -0.7811278384819607,
                -2.0209922153804407
            ]
        },
        {
            "positions": [
                0.3575555720261008,
                -1.9594727705576864,
                -1.201682982366221,
                -1.289571877047722,
                -0.8552685385410841,
                -2.1175979431003324
            ]
        },
        {
            "positions": [
                0.31838120605953857,
                -1.9760835779015347,
                -1.264288281313983,
                -1.3955881145974036,
                -0.9294092386002071,
                -2.2142036708202233
            ]
        },
        {
            "positions": [
                0.27920684009297625,
                -1.992694385245383,
                -1.3268935802617452,
                -1.5016043521470854,
                -1.0035499386593303,
                -2.310809398540115
            ]
        },
        {
            "positions": [
                0.24003247412641404,
                -2.009305192589231,
                -1.3894988792095073,
                -1.607620589696767,
                -1.0776906387184533,
                -2.4074151262600063
            ]
        },
        {
            "positions": [
                0.2008581081598516,
                -2.0259159999330794,
                -1.4521041781572697,
                -1.7136368272464486,
                -1.1518313387775765,
                -2.5040208539798976
            ]
        },
        {
            "positions": [
                0.1616837421932894,
                -2.042526807276927,
                -1.5147094771050318,
                -1.8196530647961302,
                -1.2259720388366995,
                -2.600626581699789
            ]
        },
        {
            "positions": [
                0.12250937622672708,
                -2.0591376146207754,
                -1.577314776052794,
                -1.9256693023458118,
                -1.3001127388958227,
                -2.69723230941968
            ]
        },
        {
            "positions": [
                0.08333501026016488,
                -2.0757484219646236,
                -1.639920075000556,
                -2.031685539895493,
                -1.374253438954946,
                -2.7938380371395715
            ]
        },
        {
            "positions": [
                0.04416064429360256,
                -2.092359229308472,
                -1.7025253739483184,
                -2.1377017774451756,
                -1.448394139014069,
                -2.890443764859463
            ]
        },
        {
            "positions": [
                0.004986278327040461,
                -2.10897003665232,
                -1.7651306728960803,
                -2.2437180149948572,
                -1.522534839073192,
                -2.9870494925793545
            ]
        },
        {
            "positions": [
                -0.034188087639521886,
                -2.1255808439961683,
                -1.8277359718438426,
                -2.349734252544539,
                -1.5966755391323153,
                -3.0836552202992458
            ]
        }
    ]
}