{
    "goal": {
        "global_pose": {
            "orientation": {
                "w": 0.5084816262002911,
                "x": -0.4908360881923452,
                "y": 0.5182115481033761,
                "z": -0.48164630358495003
            },
            "position": {
                "x": 0.5540239810943604,
                "y": -0.46912469901144505,
                "z": 0.16403168439865112
            }
        },
        "name": "move_to_storage_B"
    },
    "id": "KPIECE_move_to_storage_B_45",
    "joint_names": [
        "shoulder_pan_joint",
        "shoulder_lift_joint",
        "elbow_joint",
        "wrist_1_joint",
        "wrist_2_joint",
        "wrist_3_joint"
    ],
    "metrics": {
        "cart_traj_len": 1.4437764146820835,
        "distance_elbow_joint": 0.7734769304508393,
        "distance_shoulder_lift_joint": 0.7158723816150707,
        "distance_shoulder_pan_joint": 1.150743235603006,
        "distance_wrist_1_joint": 3.112043807033011,
        "distance_wrist_2_joint": 2.703178996910416,
        "distance_wrist_3_joint": 3.83256511507342,
        "smoothness": 0.34757408269912504,
        "time": 0.079031466,
        "traj_len": 3.5054073182279066,
        "weighted_distance": 5.076242064832608
    },
    "planner": "KPIECE",
    "start": {
        "state": {
            "elbow_joint": 1.6649325706314817,
            "shoulder_lift_joint": -0.6616388048112454,
            "shoulder_pan_joint": -0.9139837860083814,
            "wrist_1_joint": 2.146757197745094,
            "wrist_2_joint": -2.234196043158733,
            "wrist_3_joint": 0.005471033829999897
        }
    },
    "waypoints": [
        {
            "positions": [
                -0.9139837860083814,
                -0.6616388048112454,
                1.6649325706314817,
                2.146757197745094,
                -2.234196043158733,
                0.005471033829999897
            ]
        },
        {
            "positions": [
                -0.8170343640955378,
                -0.7374817292135397,
                1.6224422593445218,
                2.1594598847483124,
                -2.1863543321111893,
                -0.06407099388159329
            ]
        },
        {
            "positions": [
                -0.7200849421826943,
                -0.8133246536158341,
                1.5799519480575617,
                2.1721625717515307,
                -2.138512621063646,
                -0.1336130215931865
            ]
        },
        {
            "positions": [
                -0.6231355202698508,
                -0.8891675780181283,
                1.5374616367706018,
                2.1848652587547486,
                -2.090670910016102,
                -0.20315504930477968
            ]
        },
        {
            "positions": [
                -0.526186098357007,
                -0.9650105024204227,
                1.4949713254836416,
                2.197567945757967,
                -2.0428291989685583,
                -0.27269707701637286
            ]
        },
        {
            "positions": [
                -0.4292366764441635,
                -1.040853426822717,
                1.4524810141966817,
                2.210270632761185,
                -1.9949874879210148,
                -0.34223910472796604
            ]
        },
        {
            "positions": [
                -0.44714327966237777,
                -1.0495014302846886,
                1.4705377499626078,
                2.095977185511415,
                -1.8983119393615828,
                -0.2157013205488293
            ]
        },
        {
            "positions": [
                -0.46504988288059207,
                -1.0581494337466602,
                1.4885944857285338,
                1.981683738261645,
                -1.8016363908021507,
                -0.08916353636969254
            ]
        },
        {
            "positions": [
                -0.48295648609880637,
                -1.0667974372086317,
                1.50665122149446,
                1.867390291011875,
                -1.7049608422427187,
                0.03737424780944426
            ]
        },
        {
            "positions": [
                -0.5008630893170206,
                -1.0754454406706033,
                1.524707957260386,
                1.7530968437621048,
                -1.6082852936832868,
                0.16391203198858095
            ]
        },
        {
            "positions": [
                -0.5187696925352349,
                -1.084093444132575,
                1.5427646930263121,
                1.6388033965123348,
                -1.5116097451238546,
                0.2904498161677178
            ]
        },
        {
            "positions": [
                -0.5366762957534492,
                -1.0927414475945465,
                1.5608214287922384,
                1.5245099492625647,
                -1.4149341965644227,
                0.41698760034685456
            ]
        },
        {
            "positions": [
                -0.5545828989716635,
                -1.1013894510565179,
                1.5788781645581644,
                1.4102165020127946,
                -1.3182586480049907,
                0.5435253845259914
            ]
        },
        {
            "positions": [
                -0.5724895021898777,
                -1.1100374545184895,
                1.5969349003240905,
                1.2959230547630245,
                -1.2215830994455588,
                0.6700631687051279
            ]
        },
        {
            "positions": [
                -0.590396105408092,
                -1.118685457980461,
                1.6149916360900165,
                1.1816296075132544,
                -1.1249075508861266,
                0.7966009528842648
            ]
        },
        {
            "positions": [
                -0.6083027086263062,
                -1.1273334614424326,
                1.6330483718559425,
                1.0673361602634843,
                -1.0282320023266944,
                0.9231387370634017
            ]
        },
        {
            "positions": [
                -0.6262093118445206,
                -1.1359814649044042,
                1.6511051076218688,
                0.9530427130137142,
                -0.9315564537672627,
                1.0496765212425383
            ]
        },
        {
            "positions": [
                -0.6441159150627348,
                -1.1446294683663758,
                1.6691618433877948,
                0.8387492657639442,
                -0.8348809052078305,
                1.1762143054216752
            ]
        },
        {
            "positions": [
                -0.662022518280949,
                -1.1532774718283474,
                1.6872185791537209,
                0.7244558185141741,
                -0.7382053566483986,
                1.3027520896008118
            ]
        },
        {
            "positions": [
                -0.6799291214991634,
                -1.161925475290319,
                1.7052753149196471,
                0.610162371264404,
                -0.6415298080889664,
                1.4292898737799489
            ]
        },
        {
            "positions": [
                -0.6978357247173776,
                -1.1705734787522906,
                1.7233320506855732,
                0.4958689240146339,
                -0.5448542595295345,
                1.5558276579590855
            ]
        },
        {
            "positions": [
                -0.7157423279355919,
                -1.1792214822142622,
                1.7413887864514992,
                0.3815754767648638,
                -0.44817871097010253,
                1.682365442138222
            ]
        },
        {
            "positions": [
                -0.7336489311538061,
                -1.1878694856762337,
                1.7594455222174252,
                0.2672820295150937,
                -0.35150316241067037,
                1.808903226317359
            ]
        },
        {
            "positions": [
                -0.7515555343720204,
                -1.196517489138205,
                1.7775022579833513,
                0.15298858226532364,
                -0.2548276138512384,
                1.9354410104964956
            ]
        },
        {
            "positions": [
                -0.7694621375902346,
                -1.2051654926001767,
                1.7955589937492775,
                0.03869513501555355,
                -0.15815206529180648,
                2.0619787946756323
            ]
        },
        {
            "positions": [
                -0.787368740808449,
                -1.2138134960621483,
                1.8136157295152036,
                -0.07559831223421654,
                -0.06147651673237431,
                2.1885165788547694
            ]
        },
        {
            "positions": [
                -0.8052753440266632,
                -1.2224614995241199,
                1.8316724652811296,
                -0.18989175948398662,
                0.03519903182705786,
                2.315054363033906
            ]
        },
        {
            "positions": [
                -0.8231819472448776,
                -1.2311095029860915,
                1.8497292010470558,
                -0.3041852067337567,
                0.13187458038648936,
                2.4415921472130426
            ]
        },
        {
            "positions": [
                -0.8410885504630918,
                -1.239757506448063,
                1.8677859368129819,
                -0.4184786539835268,
                0.22855012894592175,
                2.5681299313921797
            ]
        },
        {
            "positions": [
                -0.8589951536813061,
                -1.2484055099100346,
                1.885842672578908,
                -0.5327721012332969,
                0.3252256775053537,
                2.6946677155713163
            ]
        },
        {
            "positions": [
                -0.9180545658817175,
                -1.2161290907809643,
                1.9177586014873613,
                -0.6091440107389066,
                0.3611649965669361,
                2.806654754625359
            ]
        },
        {
            "positions": [
                -0.977113978082129,
                -1.183852671651894,
                1.9496745303958145,
                -0.6855159202445161,
                0.39710431562851856,
                2.9186417936794022
            ]
        },
        {
            "positions": [
                -1.0361733902825403,
                -1.1515762525228235,
                1.9815904593042677,
                -0.7618878297501257,
                0.43304363469010104,
                3.030628832733445
            ]
        },
        {
            "positions": [
                -1.0952328024829519,
                -1.1192998333937532,
                2.013506388212721,
                -0.8382597392557354,
                0.4689829537516835,
                3.1426158717874877
            ]
        }
    ]
}