{
    "goal": {
        "global_pose": {
            "orientation": {
                "w": 0.5084816262002911,
                "x": -0.4908360881923452,
                "y": 0.5182115481033761,
                "z": -0.48164630358495003
            },
            "position": {
                "x": 0.5540239810943604,
                "y": -0.46912469901144505,
                "z": 0.16403168439865112
            }
        },
        "name": "move_to_storage_B"
    },
    "id": "KPIECE_move_to_storage_B_109",
    "joint_names": [
        "shoulder_pan_joint",
        "shoulder_lift_joint",
        "elbow_joint",
        "wrist_1_joint",
        "wrist_2_joint",
        "wrist_3_joint"
    ],
    "metrics": {
        "cart_traj_len": 0.87724590584098,
        "distance_elbow_joint": 0.35092398935781755,
        "distance_shoulder_lift_joint": 0.4594519346181414,
        "distance_shoulder_pan_joint": 0.6803761477156361,
        "distance_wrist_1_joint": 3.046125159545271,
        "distance_wrist_2_joint": 2.7159685401249534,
        "distance_wrist_3_joint": 3.264945512446738,
        "smoothness": 0.17037640840560453,
        "time": 0.12755723800000002,
        "traj_len": 3.2431144419845186,
        "weighted_distance": 4.775958124646012
    },
    "planner": "KPIECE",
    "start": {
        "state": {
            "elbow_joint": 1.6649325706314817,
            "shoulder_lift_joint": -0.6616388048112454,
            "shoulder_pan_joint": -0.9139837860083814,
            "wrist_1_joint": 2.146757197745094,
            "wrist_2_joint": -2.234196043158733,
            "wrist_3_joint": 0.005471033829999897
        }
    },
    "waypoints": [
        {
            "positions": [
                -0.9139837860083814,
                -0.6616388048112454,
                1.6649325706314817,
                2.146757197745094,
                -2.234196043158733,
                0.005471033829999897
            ]
        },
        {
            "positions": [
                -0.8307173910064835,
                -0.7194131907948467,
                1.6797557177347042,
                2.1563789933774755,
                -2.1541660263087774,
                0.026016481890613168
            ]
        },
        {
            "positions": [
                -0.7474509960045854,
                -0.7771875767784479,
                1.6945788648379267,
                2.166000789009857,
                -2.074136009458822,
                0.04656192995122644
            ]
        },
        {
            "positions": [
                -0.6641846010026875,
                -0.8349619627620491,
                1.7094020119411493,
                2.1756225846422383,
                -1.9941059926088665,
                0.06710737801183972
            ]
        },
        {
            "positions": [
                -0.6814076795110852,
                -0.8464071138287427,
                1.7216601938630753,
                2.054932193736313,
                -1.8950708530258629,
                -0.061024988718756196
            ]
        },
        {
            "positions": [
                -0.6986307580194829,
                -0.8578522648954362,
                1.7339183757850012,
                1.9342418028303883,
                -1.7960357134428595,
                -0.1891573554493521
            ]
        },
        {
            "positions": [
                -0.7158538365278806,
                -0.8692974159621296,
                1.7461765577069273,
                1.8135514119244631,
                -1.6970005738598561,
                -0.317289722179948
            ]
        },
        {
            "positions": [
                -0.7330769150362783,
                -0.8807425670288231,
                1.7584347396288533,
                1.692861021018538,
                -1.5979654342768526,
                -0.4454220889105439
            ]
        },
        {
            "positions": [
                -0.7502999935446759,
                -0.8921877180955167,
                1.7706929215507792,
                1.572170630112613,
                -1.498930294693849,
                -0.5735544556411398
            ]
        },
        {
            "positions": [
                -0.7675230720530737,
                -0.9036328691622102,
                1.7829511034727052,
                1.451480239206688,
                -1.3998951551108456,
                -0.7016868223717356
            ]
        },
        {
            "positions": [
                -0.7847461505614713,
                -0.9150780202289037,
                1.7952092853946313,
                1.3307898483007627,
                -1.300860015527842,
                -0.8298191891023317
            ]
        },
        {
            "positions": [
                -0.801969229069869,
                -0.9265231712955971,
                1.8074674673165572,
                1.2100994573948376,
                -1.2018248759448387,
                -0.9579515558329276
            ]
        },
        {
            "positions": [
                -0.8191923075782668,
                -0.9379683223622907,
                1.8197256492384832,
                1.0894090664889127,
                -1.102789736361835,
                -1.0860839225635235
            ]
        },
        {
            "positions": [
                -0.8364153860866644,
                -0.9494134734289842,
                1.8319838311604093,
                0.9687186755829875,
                -1.0037545967788315,
                -1.2142162892941195
            ]
        },
        {
            "positions": [
                -0.8536384645950621,
                -0.9608586244956777,
                1.8442420130823352,
                0.8480282846770624,
                -0.9047194571958281,
                -1.3423486560247153
            ]
        },
        {
            "positions": [
                -0.8708615431034598,
                -0.9723037755623711,
                1.8565001950042612,
                0.7273378937711374,
                -0.8056843176128248,
                -1.4704810227553111
            ]
        },
        {
            "positions": [
                -0.8880846216118575,
                -0.9837489266290647,
                1.8687583769261873,
                0.6066475028652123,
                -0.7066491780298212,
                -1.5986133894859071
            ]
        },
        {
            "positions": [
                -0.9053077001202552,
                -0.9951940776957582,
                1.8810165588481134,
                0.48595711195928715,
                -0.6076140384468176,
                -1.7267457562165032
            ]
        },
        {
            "positions": [
                -0.9225307786286528,
                -1.0066392287624517,
                1.8932747407700392,
                0.3652667210533622,
                -0.5085788988638142,
                -1.8548781229470988
            ]
        },
        {
            "positions": [
                -0.9397538571370505,
                -1.0180843798291452,
                1.9055329226919653,
                0.24457633014743707,
                -0.4095437592808109,
                -1.983010489677695
            ]
        },
        {
            "positions": [
                -0.9569769356454483,
                -1.0295295308958388,
                1.9177911046138914,
                0.1238859392415117,
                -0.3105086196978073,
                -2.111142856408291
            ]
        },
        {
            "positions": [
                -0.9742000141538459,
                -1.0409746819625323,
                1.9300492865358172,
                0.003195548335586995,
                -0.21147348011480394,
                -2.2392752231388866
            ]
        },
        {
            "positions": [
                -0.9914230926622436,
                -1.0524198330292258,
                1.9423074684577433,
                -0.11749484257033815,
                -0.11243834053180035,
                -2.3674075898694826
            ]
        },
        {
            "positions": [
                -1.0086461711706414,
                -1.0638649840959191,
                1.9545656503796693,
                -0.2381852334762633,
                -0.013403200948796767,
                -2.4955399566000787
            ]
        },
        {
            "positions": [
                -1.025869249679039,
                -1.0753101351626126,
                1.9668238323015952,
                -0.358875624382188,
                0.0856319386342066,
                -2.6236723233306742
            ]
        },
        {
            "positions": [
                -1.0430923281874367,
                -1.0867552862293062,
                1.9790820142235213,
                -0.4795660152881136,
                0.18466707821721018,
                -2.7518046900612703
            ]
        },
        {
            "positions": [
                -1.0603154066958345,
                -1.0982004372959997,
                1.9913401961454473,
                -0.6002564061940387,
                0.28370221780021376,
                -2.8799370567918663
            ]
        },
        {
            "positions": [
                -1.077538485204232,
                -1.1096455883626932,
                2.003598378067373,
                -0.7209467970999635,
                0.3827373573832169,
                -3.008069423522462
            ]
        },
        {
            "positions": [
                -1.0947615637126298,
                -1.1210907394293868,
                2.0158565599892992,
                -0.8416371880058886,
                0.4817724969662203,
                -3.136201790253058
            ]
        }
    ]
}