{
    "goal": {
        "global_pose": {
            "orientation": {
                "w": 0.7047431468963623,
                "x": -0.7094548344612122,
                "y": 0.0024358443915843964,
                "z": -0.0022348060738295317
            },
            "position": {
                "x": 0.6094750761985779,
                "y": 0.3671506643295288,
                "z": 0.19426114857196808
            }
        },
        "name": "move_to_magneteinheit_A"
    },
    "id": "KPIECE_move_to_magneteinheit_A_145",
    "joint_names": [
        "shoulder_pan_joint",
        "shoulder_lift_joint",
        "elbow_joint",
        "wrist_1_joint",
        "wrist_2_joint",
        "wrist_3_joint"
    ],
    "metrics": {
        "cart_traj_len": 1.053526563396294,
        "distance_elbow_joint": 0.3960600156816605,
        "distance_shoulder_lift_joint": 0.35853035306516134,
        "distance_shoulder_pan_joint": 1.2429175443928806,
        "distance_wrist_1_joint": 2.262846593830217,
        "distance_wrist_2_joint": 1.7064261094686413,
        "distance_wrist_3_joint": 1.1734925521397233,
        "smoothness": 8.881784267329942e-17,
        "time": 0.132531958,
        "traj_len": 2.67212895807412,
        "weighted_distance": 3.668314459824374
    },
    "planner": "KPIECE",
    "start": {
        "state": {
            "elbow_joint": 1.5739458966750683,
            "shoulder_lift_joint": -1.4977259741207325,
            "shoulder_pan_joint": -1.1188672016454206,
            "wrist_1_joint": 1.494575848278785,
            "wrist_2_joint": -1.5706037134824402,
            "wrist_3_joint": -2.0226957942261072
        }
    },
    "waypoints": [
        {
            "positions": [
                -1.1188672016454206,
                -1.4977259741207325,
                1.5739458966750683,
                1.494575848278785,
                -1.5706037134824402,
                -2.0226957942261072
            ]
        },
        {
            "positions": [
                -1.0534504887826375,
                -1.4788559555383556,
                1.5947911606583136,
                1.3754786591298263,
                -1.4807918129840907,
                -2.0844585601281977
            ]
        },
        {
            "positions": [
                -0.9880337759198543,
                -1.4599859369559787,
                1.6156364246415589,
                1.2563814699808673,
                -1.3909799124857412,
                -2.1462213260302887
            ]
        },
        {
            "positions": [
                -0.9226170630570711,
                -1.4411159183736018,
                1.6364816886248041,
                1.1372842808319086,
                -1.3011680119873916,
                -2.207984091932379
            ]
        },
        {
            "positions": [
                -0.857200350194288,
                -1.4222458997912248,
                1.6573269526080494,
                1.0181870916829499,
                -1.211356111489042,
                -2.26974685783447
            ]
        },
        {
            "positions": [
                -0.7917836373315047,
                -1.403375881208848,
                1.6781722165912947,
                0.899089902533991,
                -1.1215442109906926,
                -2.3315096237365607
            ]
        },
        {
            "positions": [
                -0.7263669244687215,
                -1.384505862626471,
                1.6990174805745402,
                0.7799927133850323,
                -1.031732310492343,
                -2.3932723896386516
            ]
        },
        {
            "positions": [
                -0.6609502116059384,
                -1.365635844044094,
                1.7198627445577854,
                0.6608955242360735,
                -0.9419204099939935,
                -2.455035155540742
            ]
        },
        {
            "positions": [
                -0.5955334987431552,
                -1.3467658254617172,
                1.7407080085410307,
                0.5417983350871146,
                -0.852108509495644,
                -2.5167979214428327
            ]
        },
        {
            "positions": [
                -0.5301167858803719,
                -1.3278958068793403,
                1.761553272524276,
                0.4227011459381558,
                -0.7622966089972943,
                -2.5785606873449236
            ]
        },
        {
            "positions": [
                -0.46470007301758876,
                -1.3090257882969634,
                1.7823985365075212,
                0.30360395678919705,
                -0.6724847084989448,
                -2.640323453247014
            ]
        },
        {
            "positions": [
                -0.3992833601548055,
                -1.2901557697145865,
                1.8032438004907665,
                0.1845067676402381,
                -0.5826728080005952,
                -2.702086219149105
            ]
        },
        {
            "positions": [
                -0.3338666472920224,
                -1.2712857511322095,
                1.8240890644740118,
                0.0654095784912796,
                -0.49286090750224587,
                -2.7638489850511956
            ]
        },
        {
            "positions": [
                -0.26844993442923915,
                -1.2524157325498326,
                1.8449343284572572,
                -0.05368761065767935,
                -0.4030490070038961,
                -2.8256117509532865
            ]
        },
        {
            "positions": [
                -0.2030332215664561,
                -1.2335457139674557,
                1.8657795924405023,
                -0.17278479980663808,
                -0.3132371065055468,
                -2.887374516855377
            ]
        },
        {
            "positions": [
                -0.1376165087036728,
                -1.2146756953850788,
                1.8866248564237478,
                -0.291881988955597,
                -0.22342520600719706,
                -2.9491372827574676
            ]
        },
        {
            "positions": [
                -0.07219979584088976,
                -1.1958056768027019,
                1.9074701204069928,
                -0.41097917810455575,
                -0.13361330550884776,
                -3.0109000486595585
            ]
        },
        {
            "positions": [
                -0.0067830829781063695,
                -1.176935658220325,
                1.9283153843902383,
                -0.5300763672535147,
                -0.04380140501049801,
                -3.072662814561649
            ]
        },
        {
            "positions": [
                0.0586336298846768,
                -1.158065639637948,
                1.9491606483734836,
                -0.6491735564024734,
                0.04601049548785152,
                -3.1344255804637395
            ]
        },
        {
            "positions": [
                0.1240503427474599,
                -1.1391956210555712,
                1.9700059123567288,
                -0.7682707455514322,
                0.1358223959862011,
                -3.1961883463658305
            ]
        }
    ]
}