{
    "goal": {
        "global_pose": {
            "orientation": {
                "w": 0.7031023502349854,
                "x": -0.7110244035720825,
                "y": 0.007748599164187908,
                "z": 0.005598929710686207
            },
            "position": {
                "x": 0.11585023208521307,
                "y": 0.44412534475326537,
                "z": 0.3711530566215515
            }
        },
        "name": "move_to_auspresseinheit_A"
    },
    "id": "KPIECE_move_to_auspresseinheit_A_106",
    "joint_names": [
        "shoulder_pan_joint",
        "shoulder_lift_joint",
        "elbow_joint",
        "wrist_1_joint",
        "wrist_2_joint",
        "wrist_3_joint"
    ],
    "metrics": {
        "cart_traj_len": 2.356121244646886,
        "distance_elbow_joint": 1.9505681627649518,
        "distance_shoulder_lift_joint": 0.8613005590649254,
        "distance_shoulder_pan_joint": 2.3085813340166648,
        "distance_wrist_1_joint": 2.3209429262666057,
        "distance_wrist_2_joint": 1.1900881154220988,
        "distance_wrist_3_joint": 4.342605704134604,
        "smoothness": 0.5702508923587065,
        "time": 0.703741942,
        "traj_len": 3.601955968868838,
        "weighted_distance": 5.017004011521992
    },
    "planner": "KPIECE",
    "start": {
        "state": {
            "elbow_joint": 2.4225747245308327,
            "shoulder_lift_joint": -1.373653427065438,
            "shoulder_pan_joint": -0.33786330853087027,
            "wrist_1_joint": -1.0288602302712604,
            "wrist_2_joint": 1.23302299562683,
            "wrist_3_joint": -3.094021725338297
        }
    },
    "waypoints": [
        {
            "positions": [
                -0.33786330853087027,
                -1.373653427065438,
                2.4225747245308327,
                -1.0288602302712604,
                1.23302299562683,
                -3.094021725338297
            ]
        },
        {
            "positions": [
                -0.35543152026007246,
                -1.3917024789523391,
                2.3398456976553805,
                -1.0445791172630534,
                1.1606526022330355,
                -2.911559093461417
            ]
        },
        {
            "positions": [
                -0.3729997319892747,
                -1.40975153083924,
                2.2571166707799284,
                -1.0602980042548464,
                1.0882822088392408,
                -2.729096461584536
            ]
        },
        {
            "positions": [
                -0.3905679437184769,
                -1.427800582726141,
                2.174387643904476,
                -1.0760168912466397,
                1.0159118154454463,
                -2.546633829707656
            ]
        },
        {
            "positions": [
                -0.4081361554476791,
                -1.4458496346130423,
                2.0916586170290237,
                -1.0917357782384327,
                0.9435414220516516,
                -2.3641711978307756
            ]
        },
        {
            "positions": [
                -0.4257043671768813,
                -1.4638986864999435,
                2.0089295901535715,
                -1.1074546652302257,
                0.8711710286578571,
                -2.181708565953895
            ]
        },
        {
            "positions": [
                -0.44327257890608357,
                -1.4819477383868445,
                1.9262005632781194,
                -1.1231735522220188,
                0.7988006352640626,
                -1.9992459340770148
            ]
        },
        {
            "positions": [
                -0.46084079063528577,
                -1.4999967902737454,
                1.8434715364026673,
                -1.1388924392138118,
                0.7264302418702681,
                -1.8167833022001343
            ]
        },
        {
            "positions": [
                -0.478409002364488,
                -1.5180458421606466,
                1.7607425095272147,
                -1.154611326205605,
                0.6540598484764734,
                -1.6343206703232538
            ]
        },
        {
            "positions": [
                -0.4959772140936902,
                -1.5360948940475478,
                1.6780134826517625,
                -1.170330213197398,
                0.5816894550826789,
                -1.4518580384463733
            ]
        },
        {
            "positions": [
                -0.5135454258228924,
                -1.5541439459344488,
                1.5952844557763104,
                -1.186049100189191,
                0.5093190616888843,
                -1.269395406569493
            ]
        },
        {
            "positions": [
                -0.3897061940248432,
                -1.5915350264872519,
                1.574966626011938,
                -1.0637235343775056,
                0.5032372178849683,
                -1.2287506555577843
            ]
        },
        {
            "positions": [
                -0.26586696222679396,
                -1.6289261070400547,
                1.5546487962475655,
                -0.9413979685658201,
                0.49715537408105237,
                -1.1881059045460753
            ]
        },
        {
            "positions": [
                -0.14202773042874473,
                -1.6663171875928575,
                1.5343309664831928,
                -0.8190724027541347,
                0.49107353027713646,
                -1.1474611535343666
            ]
        },
        {
            "positions": [
                -0.018188498630695493,
                -1.7037082681456606,
                1.5140131367188203,
                -0.6967468369424492,
                0.4849916864732205,
                -1.1068164025226577
            ]
        },
        {
            "positions": [
                0.10565073316735374,
                -1.7410993486984636,
                1.4936953069544479,
                -0.5744212711307637,
                0.47890984266930453,
                -1.066171651510949
            ]
        },
        {
            "positions": [
                0.22948996496540297,
                -1.7784904292512664,
                1.4733774771900752,
                -0.4520957053190783,
                0.4728279988653886,
                -1.0255269004992402
            ]
        },
        {
            "positions": [
                0.3533291967634522,
                -1.8158815098040693,
                1.4530596474257027,
                -0.32977013950739287,
                0.46674615506147266,
                -0.9848821494875314
            ]
        },
        {
            "positions": [
                0.4771684285615014,
                -1.8532725903568723,
                1.4327418176613302,
                -0.20744457369570735,
                0.4606643112575567,
                -0.9442373984758226
            ]
        },
        {
            "positions": [
                0.5629703728072576,
                -1.8807281983860378,
                1.5035275458999007,
                -0.1492609447862669,
                0.5029056795785115,
                -1.055802993417414
            ]
        },
        {
            "positions": [
                0.6487723170530139,
                -1.9081838064152035,
                1.5743132741384709,
                -0.09107731587682641,
                0.5451470478994664,
                -1.1673685883590055
            ]
        },
        {
            "positions": [
                0.73457426129877,
                -1.9356394144443692,
                1.6450990023770413,
                -0.03289368696738593,
                0.5873884162204213,
                -1.278934183300597
            ]
        },
        {
            "positions": [
                0.8203762055445263,
                -1.9630950224735346,
                1.7158847306156115,
                0.025289941942054528,
                0.6296297845413761,
                -1.3904997782421882
            ]
        },
        {
            "positions": [
                0.9061781497902825,
                -1.9905506305027,
                1.786670458854182,
                0.08347357085149498,
                0.671871152862331,
                -1.5020653731837799
            ]
        },
        {
            "positions": [
                0.9919800940360388,
                -2.018006238531866,
                1.8574561870927524,
                0.1416571997609355,
                0.7141125211832858,
                -1.613630968125371
            ]
        },
        {
            "positions": [
                1.077782038281795,
                -2.0454618465610315,
                1.9282419153313226,
                0.19984082867037595,
                0.7563538895042408,
                -1.7251965630669626
            ]
        },
        {
            "positions": [
                1.1635839825275514,
                -2.072917454590197,
                1.999027643569893,
                0.2580244575798164,
                0.7985952578251956,
                -1.836762158008554
            ]
        },
        {
            "positions": [
                1.1185430815617121,
                -2.0569326217490618,
                2.0472180734636978,
                0.18275918506733557,
                0.7930370524691639,
                -1.9853347846368463
            ]
        },
        {
            "positions": [
                1.073502180595873,
                -2.0409477889079266,
                2.0954085033575023,
                0.10749391255485471,
                0.7874788471131322,
                -2.1339074112651386
            ]
        },
        {
            "positions": [
                1.0284612796300339,
                -2.0249629560667914,
                2.143598933251307,
                0.03222864004237386,
                0.7819206417571005,
                -2.2824800378934307
            ]
        },
        {
            "positions": [
                0.9834203786641947,
                -2.0089781232256567,
                2.1917893631451113,
                -0.04303663247010697,
                0.7763624364010687,
                -2.4310526645217228
            ]
        },
        {
            "positions": [
                0.9383794776983555,
                -1.9929932903845216,
                2.2399797930389163,
                -0.11830190498258786,
                0.770804231045037,
                -2.5796252911500153
            ]
        },
        {
            "positions": [
                0.8933385767325164,
                -1.9770084575433864,
                2.2881702229327208,
                -0.1935671774950687,
                0.7652460256890053,
                -2.7281979177783073
            ]
        },
        {
            "positions": [
                0.8314971092061282,
                -1.954965946045601,
                2.3232725064740736,
                -0.2829301319966628,
                0.7497629415726732,
                -2.8644848704348553
            ]
        },
        {
            "positions": [
                0.7696556416797401,
                -1.932923434547816,
                2.358374790015427,
                -0.3722930864982569,
                0.7342798574563411,
                -3.0007718230914038
            ]
        },
        {
            "positions": [
                0.7078141741533519,
                -1.9108809230500305,
                2.3934770735567796,
                -0.46165604099985097,
                0.7187967733400089,
                -3.1370587757479518
            ]
        }
    ]
}