{
    "goal": {
        "global_pose": {
            "orientation": {
                "w": -0.4816463035849501,
                "x": 0.5182115481033762,
                "y": 0.4908360881923453,
                "z": -0.5084816262002911
            },
            "position": {
                "x": -0.8240239810943604,
                "y": 0.19912469901144506,
                "z": 0.16403168439865112
            }
        },
        "name": "move_to_storage_D"
    },
    "id": "KPIECE_move_to_storage_D_107",
    "joint_names": [
        "shoulder_pan_joint",
        "shoulder_lift_joint",
        "elbow_joint",
        "wrist_1_joint",
        "wrist_2_joint",
        "wrist_3_joint"
    ],
    "metrics": {
        "cart_traj_len": 3.7370619007562684,
        "distance_elbow_joint": 4.209767571686664,
        "distance_shoulder_lift_joint": 1.2637463318974271,
        "distance_shoulder_pan_joint": 2.8140332365292173,
        "distance_wrist_1_joint": 2.387149716872331,
        "distance_wrist_2_joint": 0.9571526872631998,
        "distance_wrist_3_joint": 3.1781084967370843,
        "smoothness": 0.1700078648003464,
        "time": 0.234181692,
        "traj_len": 3.84837082945315,
        "weighted_distance": 4.950805736301478
    },
    "planner": "KPIECE",
    "start": {
        "state": {
            "elbow_joint": -2.384821997420982,
            "shoulder_lift_joint": -2.2788054674887404,
            "shoulder_pan_joint": -0.18546946417610016,
            "wrist_1_joint": 1.4845937964226739,
            "wrist_2_joint": 0.1789877726866377,
            "wrist_3_joint": 0.03710572555276528
        }
    },
    "waypoints": [
        {
            "positions": [
                -0.18546946417610016,
                -2.2788054674887404,
                -2.384821997420982,
                1.4845937964226739,
                0.1789877726866377,
                0.03710572555276528
            ]
        },
        {
            "positions": [
                -0.08683482764777965,
                -2.223280775343176,
                -2.315306050449092,
                1.546485431433259,
                0.23730451244036416,
                0.01777999346175338
            ]
        },
        {
            "positions": [
                -0.00959157626313556,
                -2.1924722281138913,
                -2.207941778237798,
                1.4957854533197268,
                0.26349619929334395,
                0.10980941001116538
            ]
        },
        {
            "positions": [
                0.06765167512150853,
                -2.161663680884607,
                -2.1005775060265037,
                1.4450854752061943,
                0.2896878861463237,
                0.2018388265605774
            ]
        },
        {
            "positions": [
                0.1448949265061526,
                -2.1308551336553228,
                -1.9932132338152098,
                1.3943854970926621,
                0.31587957299930347,
                0.2938682431099894
            ]
        },
        {
            "positions": [
                0.2221381778907967,
                -2.1000465864260383,
                -1.8858489616039156,
                1.34368551897913,
                0.34207125985228326,
                0.38589765965940137
            ]
        },
        {
            "positions": [
                0.2993814292754408,
                -2.0692380391967538,
                -1.7784846893926214,
                1.2929855408655975,
                0.36826294670526305,
                0.47792707620881336
            ]
        },
        {
            "positions": [
                0.37662468066008487,
                -2.0384294919674693,
                -1.6711204171813274,
                1.2422855627520653,
                0.39445463355824284,
                0.5699564927582255
            ]
        },
        {
            "positions": [
                0.4538679320447289,
                -2.0076209447381848,
                -1.5637561449700332,
                1.191585584638533,
                0.4206463204112226,
                0.6619859093076375
            ]
        },
        {
            "positions": [
                0.5311111834293731,
                -1.9768123975089005,
                -1.456391872758739,
                1.1408856065250006,
                0.4468380072642023,
                0.7540153258570494
            ]
        },
        {
            "positions": [
                0.6083544348140172,
                -1.946003850279616,
                -1.349027600547445,
                1.0901856284114684,
                0.4730296941171821,
                0.8460447424064614
            ]
        },
        {
            "positions": [
                0.6855976861986613,
                -1.9151953030503317,
                -1.241663328336151,
                1.039485650297936,
                0.4992213809701619,
                0.9380741589558734
            ]
        },
        {
            "positions": [
                0.7628409375833053,
                -1.8843867558210472,
                -1.134299056124857,
                0.9887856721844038,
                0.5254130678231417,
                1.0301035755052852
            ]
        },
        {
            "positions": [
                0.8400841889679495,
                -1.8535782085917627,
                -1.0269347839135627,
                0.9380856940708715,
                0.5516047546761215,
                1.1221329920546974
            ]
        },
        {
            "positions": [
                0.9173274403525934,
                -1.8227696613624784,
                -0.9195705117022688,
                0.8873857159573393,
                0.5777964415291013,
                1.2141624086041094
            ]
        },
        {
            "positions": [
                0.9945706917372376,
                -1.791961114133194,
                -0.8122062394909744,
                0.8366857378438068,
                0.6039881283820809,
                1.3061918251535214
            ]
        },
        {
            "positions": [
                1.0718139431218816,
                -1.7611525669039096,
                -0.7048419672796804,
                0.7859857597302746,
                0.6301798152350607,
                1.3982212417029334
            ]
        },
        {
            "positions": [
                1.1490571945065258,
                -1.7303440196746251,
                -0.5974776950683862,
                0.7352857816167423,
                0.6563715020880405,
                1.4902506582523454
            ]
        },
        {
            "positions": [
                1.2263004458911697,
                -1.6995354724453406,
                -0.49011342285709225,
                0.6845858035032101,
                0.6825631889410203,
                1.5822800748017574
            ]
        },
        {
            "positions": [
                1.3035436972758139,
                -1.6687269252160561,
                -0.3827491506457983,
                0.6338858253896779,
                0.7087548757940001,
                1.6743094913511694
            ]
        },
        {
            "positions": [
                1.380786948660458,
                -1.6379183779867716,
                -0.27538487843450365,
                0.5831858472761454,
                0.7349465626469799,
                1.7663389079005816
            ]
        },
        {
            "positions": [
                1.4580302000451022,
                -1.6071098307574874,
                -0.1680206062232097,
                0.5324858691626131,
                0.7611382494999597,
                1.8583683244499933
            ]
        },
        {
            "positions": [
                1.5352734514297461,
                -1.576301283528203,
                -0.060656334011915725,
                0.48178589104908087,
                0.7873299363529394,
                1.9503977409994053
            ]
        },
        {
            "positions": [
                1.61251670281439,
                -1.5454927362989186,
                0.04670793819937824,
                0.43108591293554865,
                0.813521623205919,
                2.042427157548817
            ]
        },
        {
            "positions": [
                1.6897599541990345,
                -1.514684189069634,
                0.15407221041067265,
                0.3803859348220162,
                0.8397133100588989,
                2.1344565740982295
            ]
        },
        {
            "positions": [
                1.7670032055836784,
                -1.4838756418403496,
                0.2614364826219666,
                0.329685956708484,
                0.8659049969118788,
                2.2264859906476415
            ]
        },
        {
            "positions": [
                1.8442464569683226,
                -1.4530670946110653,
                0.3688007548332606,
                0.2789859785949518,
                0.8920966837648585,
                2.3185154071970535
            ]
        },
        {
            "positions": [
                1.9214897083529663,
                -1.422258547381781,
                0.47616502704455455,
                0.22828600048141956,
                0.9182883706178382,
                2.4105448237464655
            ]
        },
        {
            "positions": [
                1.9987329597376107,
                -1.3914500001524965,
                0.583529299255849,
                0.17758602236788712,
                0.9444800574708181,
                2.5025742402958775
            ]
        },
        {
            "positions": [
                2.0759762111222546,
                -1.360641452923212,
                0.6908935714671434,
                0.12688604425435468,
                0.9706717443237978,
                2.5946036568452895
            ]
        },
        {
            "positions": [
                2.153219462506899,
                -1.3298329056939275,
                0.7982578436784373,
                0.07618606614082246,
                0.9968634311767777,
                2.6866330733947015
            ]
        },
        {
            "positions": [
                2.230462713891543,
                -1.2990243584646433,
                0.9056221158897313,
                0.025486088027290243,
                1.0230551180297573,
                2.7786624899441135
            ]
        },
        {
            "positions": [
                2.3077059652761873,
                -1.2682158112353588,
                1.0129863881010257,
                -0.025213890086242197,
                1.0492468048827372,
                2.8706919064935255
            ]
        },
        {
            "positions": [
                2.3849492166608313,
                -1.2374072640060745,
                1.1203506603123197,
                -0.07591386819977441,
                1.075438491735717,
                2.9627213230429374
            ]
        },
        {
            "positions": [
                2.462192468045475,
                -1.20659871677679,
                1.2277149325236136,
                -0.12661384631330663,
                1.1016301785886966,
                3.0547507395923494
            ]
        },
        {
            "positions": [
                2.4954667289070036,
                -1.1682908005396946,
                1.3471610608720272,
                -0.25704560713634267,
                1.0947281223164684,
                3.079113143295445
            ]
        },
        {
            "positions": [
                2.528740989768532,
                -1.1299828843025992,
                1.4666071892204409,
                -0.3874773679593787,
                1.0878260660442403,
                3.10347554699854
            ]
        },
        {
            "positions": [
                2.5620152506300604,
                -1.091674968065504,
                1.5860533175688543,
                -0.5179091287824147,
                1.080924009772012,
                3.127837950701635
            ]
        },
        {
            "positions": [
                2.595289511491589,
                -1.0533670518284086,
                1.7054994459172679,
                -0.6483408896054508,
                1.074021953499784,
                3.15220035440473
            ]
        },
        {
            "positions": [
                2.6285637723531172,
                -1.0150591355913132,
                1.8249455742656815,
                -0.7787726504284868,
                1.0671198972275557,
                3.1765627581078255
            ]
        }
    ]
}