{
    "goal": {
        "global_pose": {
            "orientation": {
                "w": -0.4816463035849501,
                "x": 0.5182115481033762,
                "y": 0.4908360881923453,
                "z": -0.5084816262002911
            },
            "position": {
                "x": -0.8240239810943604,
                "y": 0.19912469901144506,
                "z": 0.16403168439865112
            }
        },
        "name": "move_to_storage_D"
    },
    "id": "KPIECE_move_to_storage_D_146",
    "joint_names": [
        "shoulder_pan_joint",
        "shoulder_lift_joint",
        "elbow_joint",
        "wrist_1_joint",
        "wrist_2_joint",
        "wrist_3_joint"
    ],
    "metrics": {
        "cart_traj_len": 4.087807483505969,
        "distance_elbow_joint": 4.212484470607209,
        "distance_shoulder_lift_joint": 1.2639906387155544,
        "distance_shoulder_pan_joint": 2.815518929067993,
        "distance_wrist_1_joint": 3.262890674177494,
        "distance_wrist_2_joint": 1.820765032634711,
        "distance_wrist_3_joint": 3.153011243923625,
        "smoothness": 0.19868993500526402,
        "time": 0.102854683,
        "traj_len": 4.065545595504567,
        "weighted_distance": 5.283780766060041
    },
    "planner": "KPIECE",
    "start": {
        "state": {
            "elbow_joint": -2.384821997420982,
            "shoulder_lift_joint": -2.2788054674887404,
            "shoulder_pan_joint": -0.18546946417610016,
            "wrist_1_joint": 1.4845937964226739,
            "wrist_2_joint": 0.1789877726866377,
            "wrist_3_joint": 0.03710572555276528
        }
    },
    "waypoints": [
        {
            "positions": [
                -0.18546946417610016,
                -2.2788054674887404,
                -2.384821997420982,
                1.4845937964226739,
                0.1789877726866377,
                0.03710572555276528
            ]
        },
        {
            "positions": [
                -0.07039726979038233,
                -2.2325871214296127,
                -2.3675576038197716,
                1.3727138262596936,
                0.21250529165364657,
                0.09088462575223785
            ]
        },
        {
            "positions": [
                -0.0011662048850647477,
                -2.209015910594437,
                -2.250764307377716,
                1.2944981462347591,
                0.251352416959896,
                0.14889767076254526
            ]
        },
        {
            "positions": [
                0.06806486002025283,
                -2.1854446997592616,
                -2.1339710109356598,
                1.2162824662098246,
                0.2901995422661454,
                0.20691071577285267
            ]
        },
        {
            "positions": [
                0.13729592492557044,
                -2.161873488924086,
                -2.017177714493604,
                1.13806678618489,
                0.32904666757239487,
                0.2649237607831601
            ]
        },
        {
            "positions": [
                0.206526989830888,
                -2.1383022780889105,
                -1.9003844180515483,
                1.0598511061599556,
                0.3678937928786443,
                0.3229368057934675
            ]
        },
        {
            "positions": [
                0.2757580547362056,
                -2.1147310672537345,
                -1.7835911216094924,
                0.9816354261350211,
                0.4067409181848938,
                0.38094985080377486
            ]
        },
        {
            "positions": [
                0.34498911964152323,
                -2.091159856418559,
                -1.6667978251674365,
                0.9034197461100866,
                0.4455880434911432,
                0.4389628958140823
            ]
        },
        {
            "positions": [
                0.41422018454684073,
                -2.0675886455833834,
                -1.5500045287253807,
                0.8252040660851522,
                0.4844351687973926,
                0.4969759408243897
            ]
        },
        {
            "positions": [
                0.48345124945215834,
                -2.044017434748208,
                -1.433211232283325,
                0.7469883860602177,
                0.5232822941036421,
                0.5549889858346971
            ]
        },
        {
            "positions": [
                0.552682314357476,
                -2.0204462239130323,
                -1.316417935841269,
                0.6687727060352832,
                0.5621294194098916,
                0.6130020308450046
            ]
        },
        {
            "positions": [
                0.6219133792627936,
                -1.9968750130778568,
                -1.1996246393992132,
                0.5905570260103487,
                0.600976544716141,
                0.671015075855312
            ]
        },
        {
            "positions": [
                0.6911444441681112,
                -1.973303802242681,
                -1.0828313429571572,
                0.5123413459854141,
                0.6398236700223905,
                0.7290281208656194
            ]
        },
        {
            "positions": [
                0.7603755090734288,
                -1.9497325914075054,
                -0.9660380465151015,
                0.43412566596047963,
                0.6786707953286399,
                0.7870411658759269
            ]
        },
        {
            "positions": [
                0.8296065739787462,
                -1.9261613805723299,
                -0.8492447500730458,
                0.35590998593554524,
                0.7175179206348892,
                0.8450542108862341
            ]
        },
        {
            "positions": [
                0.8988376388840638,
                -1.9025901697371543,
                -0.7324514536309898,
                0.27769430591061073,
                0.7563650459411386,
                0.9030672558965416
            ]
        },
        {
            "positions": [
                0.9680687037893814,
                -1.8790189589019786,
                -0.6156581571889339,
                0.19947862588567622,
                0.7952121712473881,
                0.961080300906849
            ]
        },
        {
            "positions": [
                1.037299768694699,
                -1.855447748066803,
                -0.4988648607468782,
                0.12126294586074171,
                0.8340592965536375,
                1.0190933459171563
            ]
        },
        {
            "positions": [
                1.1065308336000166,
                -1.8318765372316275,
                -0.38207156430482225,
                0.0430472658358072,
                0.872906421859887,
                1.0771063909274639
            ]
        },
        {
            "positions": [
                1.1757618985053342,
                -1.808305326396452,
                -0.26527826786276654,
                -0.035168414189127306,
                0.9117535471661364,
                1.1351194359377712
            ]
        },
        {
            "positions": [
                1.2449929634106518,
                -1.7847341155612764,
                -0.14848497142071038,
                -0.11338409421406181,
                0.9506006724723859,
                1.1931324809480786
            ]
        },
        {
            "positions": [
                1.3142240283159694,
                -1.7611629047261006,
                -0.03169167497865466,
                -0.19159977423899632,
                0.9894477977786353,
                1.251145525958386
            ]
        },
        {
            "positions": [
                1.383455093221287,
                -1.737591693890925,
                0.08510162146340106,
                -0.26981545426393083,
                1.0282949230848848,
                1.3091585709686935
            ]
        },
        {
            "positions": [
                1.4526861581266046,
                -1.7140204830557493,
                0.20189491790545722,
                -0.34803113428886534,
                1.0671420483911342,
                1.3671716159790008
            ]
        },
        {
            "positions": [
                1.5219172230319222,
                -1.6904492722205737,
                0.31868821434751293,
                -0.42624681431379985,
                1.1059891736973837,
                1.4251846609893082
            ]
        },
        {
            "positions": [
                1.5911482879372398,
                -1.6668780613853982,
                0.43548151078956865,
                -0.5044624943387344,
                1.1448362990036332,
                1.4831977059996158
            ]
        },
        {
            "positions": [
                1.6603793528425574,
                -1.6433068505502226,
                0.5522748072316248,
                -0.5826781743636689,
                1.1836834243098826,
                1.541210751009923
            ]
        },
        {
            "positions": [
                1.7296104177478746,
                -1.619735639715047,
                0.6690681036736801,
                -0.6608938543886032,
                1.2225305496161318,
                1.5992237960202302
            ]
        },
        {
            "positions": [
                1.7988414826531922,
                -1.5961644288798715,
                0.7858614001157362,
                -0.7391095344135374,
                1.2613776749223813,
                1.6572368410305378
            ]
        },
        {
            "positions": [
                1.8680725475585098,
                -1.572593218044696,
                0.902654696557792,
                -0.8173252144384722,
                1.3002248002286307,
                1.7152498860408452
            ]
        },
        {
            "positions": [
                1.9373036124638277,
                -1.5490220072095204,
                1.0194479929998477,
                -0.8955408944634065,
                1.3390719255348802,
                1.7732629310511525
            ]
        },
        {
            "positions": [
                2.006534677369145,
                -1.5254507963743447,
                1.1362412894419038,
                -0.9737565744883412,
                1.3779190508411296,
                1.83127597606146
            ]
        },
        {
            "positions": [
                2.075765742274463,
                -1.5018795855391691,
                1.2530345858839596,
                -1.0519722545132755,
                1.416766176147379,
                1.8892890210717674
            ]
        },
        {
            "positions": [
                2.1449968071797803,
                -1.4783083747039933,
                1.3698278823260153,
                -1.1301879345382102,
                1.4556133014536285,
                1.9473020660820748
            ]
        },
        {
            "positions": [
                2.214227872085098,
                -1.4547371638688178,
                1.4866211787680714,
                -1.2084036145631445,
                1.494460426759878,
                2.0053151110923824
            ]
        },
        {
            "positions": [
                2.2834589369904155,
                -1.4311659530336422,
                1.603414475210127,
                -1.2866192945880792,
                1.5333075520661275,
                2.0633281561026897
            ]
        },
        {
            "positions": [
                2.3267827529781,
                -1.3791220625010852,
                1.6314454749571392,
                -1.2251595966922366,
                1.4750018954092248,
                2.2041767577744023
            ]
        },
        {
            "positions": [
                2.370106568965785,
                -1.327078171968528,
                1.6594764747041515,
                -1.163699898796394,
                1.4166962387523223,
                2.345025359446115
            ]
        },
        {
            "positions": [
                2.4134303849534695,
                -1.2750342814359712,
                1.6875074744511638,
                -1.1022402009005514,
                1.3583905820954196,
                2.4858739611178273
            ]
        },
        {
            "positions": [
                2.4567542009411545,
                -1.222990390903414,
                1.7155384741981763,
                -1.0407805030047086,
                1.300084925438517,
                2.6267225627895403
            ]
        },
        {
            "positions": [
                2.500078016928839,
                -1.170946500370857,
                1.7435694739451886,
                -0.979320805108866,
                1.2417792687816143,
                2.767571164461253
            ]
        },
        {
            "positions": [
                2.5434018329165236,
                -1.1189026098383001,
                1.7716004736922009,
                -0.9178611072130234,
                1.1834736121247116,
                2.9084197661329654
            ]
        },
        {
            "positions": [
                2.5867256489042085,
                -1.066858719305743,
                1.7996314734392131,
                -0.8564014093171808,
                1.1251679554678091,
                3.049268367804678
            ]
        },
        {
            "positions": [
                2.630049464891893,
                -1.014814828773186,
                1.8276624731862254,
                -0.7949417114213381,
                1.0668622988109064,
                3.1901169694763905
            ]
        }
    ]
}