{
    "goal": {
        "global_pose": {
            "orientation": {
                "w": 0.7047431468963623,
                "x": -0.7094548344612122,
                "y": 0.0024358443915843964,
                "z": -0.0022348060738295317
            },
            "position": {
                "x": 0.6094750761985779,
                "y": 0.3671506643295288,
                "z": 0.19426114857196808
            }
        },
        "name": "move_to_magneteinheit_A"
    },
    "id": "KPIECE_move_to_magneteinheit_A_1",
    "joint_names": [
        "shoulder_pan_joint",
        "shoulder_lift_joint",
        "elbow_joint",
        "wrist_1_joint",
        "wrist_2_joint",
        "wrist_3_joint"
    ],
    "metrics": {
        "cart_traj_len": 1.0537712612228045,
        "distance_elbow_joint": 0.40566025730450517,
        "distance_shoulder_lift_joint": 0.35427886171419587,
        "distance_shoulder_pan_joint": 1.242849395202032,
        "distance_wrist_1_joint": 2.319828632891359,
        "distance_wrist_2_joint": 1.6963047525082404,
        "distance_wrist_3_joint": 1.126816222012863,
        "smoothness": 3.5527137069319767e-16,
        "time": 0.012401911,
        "traj_len": 2.6731513465633023,
        "weighted_distance": 3.662718109691015
    },
    "planner": "KPIECE",
    "start": {
        "state": {
            "elbow_joint": 1.5739458966750683,
            "shoulder_lift_joint": -1.4977259741207325,
            "shoulder_pan_joint": -1.1188672016454206,
            "wrist_1_joint": 1.494575848278785,
            "wrist_2_joint": -1.5706037134824402,
            "wrist_3_joint": -2.0226957942261072
        }
    },
    "waypoints": [
        {
            "positions": [
                -1.1188672016454206,
                -1.4977259741207325,
                1.5739458966750683,
                1.494575848278785,
                -1.5706037134824402,
                -2.0226957942261072
            ]
        },
        {
            "positions": [
                -1.0534540755821558,
                -1.479079718241038,
                1.5952964365332003,
                1.3724796044423977,
                -1.4813245159820065,
                -2.0820019111741526
            ]
        },
        {
            "positions": [
                -0.988040949518891,
                -1.4604334623613435,
                1.616646976391332,
                1.2503833606060104,
                -1.3920453184815729,
                -2.141308028122198
            ]
        },
        {
            "positions": [
                -0.9226278234556261,
                -1.441787206481649,
                1.637997516249464,
                1.1282871167696231,
                -1.302766120981139,
                -2.2006141450702437
            ]
        },
        {
            "positions": [
                -0.8572146973923613,
                -1.4231409506019543,
                1.6593480561075957,
                1.0061908729332356,
                -1.2134869234807053,
                -2.259920262018289
            ]
        },
        {
            "positions": [
                -0.7918015713290965,
                -1.4044946947222599,
                1.6806985959657277,
                0.8840946290968484,
                -1.1242077259802716,
                -2.3192263789663343
            ]
        },
        {
            "positions": [
                -0.7263884452658316,
                -1.3858484388425654,
                1.7020491358238594,
                0.761998385260461,
                -1.034928528479838,
                -2.3785324959143797
            ]
        },
        {
            "positions": [
                -0.6609753192025667,
                -1.3672021829628709,
                1.7233996756819914,
                0.6399021414240738,
                -0.9456493309794043,
                -2.437838612862425
            ]
        },
        {
            "positions": [
                -0.5955621931393019,
                -1.3485559270831764,
                1.744750215540123,
                0.5178058975876865,
                -0.8563701334789706,
                -2.4971447298104708
            ]
        },
        {
            "positions": [
                -0.530149067076037,
                -1.329909671203482,
                1.766100755398255,
                0.3957096537512992,
                -0.767090935978537,
                -2.556450846758516
            ]
        },
        {
            "positions": [
                -0.46473594101277216,
                -1.3112634153237872,
                1.7874512952563868,
                0.2736134099149119,
                -0.6778117384781032,
                -2.6157569637065614
            ]
        },
        {
            "positions": [
                -0.3993228149495073,
                -1.2926171594440927,
                1.8088018351145188,
                0.1515171660785244,
                -0.5885325409776694,
                -2.675063080654607
            ]
        },
        {
            "positions": [
                -0.3339096888862425,
                -1.2739709035643982,
                1.8301523749726505,
                0.029420922242137104,
                -0.4992533434772357,
                -2.7343691976026525
            ]
        },
        {
            "positions": [
                -0.2684965628229776,
                -1.2553246476847038,
                1.8515029148307824,
                -0.09267532159425018,
                -0.40997414597680204,
                -2.793675314550698
            ]
        },
        {
            "positions": [
                -0.20308343675971285,
                -1.2366783918050093,
                1.8728534546889142,
                -0.21477156543063747,
                -0.32069494847636837,
                -2.852981431498743
            ]
        },
        {
            "positions": [
                -0.13767031069644797,
                -1.2180321359253146,
                1.8942039945470461,
                -0.33686780926702475,
                -0.2314157509759347,
                -2.9122875484467885
            ]
        },
        {
            "positions": [
                -0.0722571846331832,
                -1.1993858800456203,
                1.9155545344051779,
                -0.45896405310341204,
                -0.14213655347550103,
                -2.971593665394834
            ]
        },
        {
            "positions": [
                -0.006844058569918321,
                -1.1807396241659256,
                1.9369050742633098,
                -0.5810602969397995,
                -0.05285735597506713,
                -3.030899782342879
            ]
        },
        {
            "positions": [
                0.05856906749334656,
                -1.162093368286231,
                1.9582556141214416,
                -0.7031565407761866,
                0.036421841525366316,
                -3.0902058992909245
            ]
        },
        {
            "positions": [
                0.12398219355661148,
                -1.1434471124065366,
                1.9796061539795735,
                -0.825252784612574,
                0.12570103902580024,
                -3.1495120162389703
            ]
        }
    ]
}