{
    "goal": {
        "global_pose": {
            "orientation": {
                "w": 0.7047431493862688,
                "x": -0.7094548369677653,
                "y": 0.0024358444001904,
                "z": -0.0022348060817251984
            },
            "position": {
                "x": -0.39052492380142206,
                "y": 0.3671506643295288,
                "z": 0.19426114857196808
            }
        },
        "name": "move_to_magneteinheit_D"
    },
    "id": "KPIECE_move_to_magneteinheit_D_143",
    "joint_names": [
        "shoulder_pan_joint",
        "shoulder_lift_joint",
        "elbow_joint",
        "wrist_1_joint",
        "wrist_2_joint",
        "wrist_3_joint"
    ],
    "metrics": {
        "cart_traj_len": 4.5678490975359844,
        "distance_elbow_joint": 3.786144829635906,
        "distance_shoulder_lift_joint": 1.6608367413908707,
        "distance_shoulder_pan_joint": 3.2663156764547554,
        "distance_wrist_1_joint": 3.1246882032203493,
        "distance_wrist_2_joint": 1.6613782703930273,
        "distance_wrist_3_joint": 6.679635795610713,
        "smoothness": 0.7551318880504825,
        "time": 0.112479899,
        "traj_len": 4.4921041302162195,
        "weighted_distance": 6.190665358549146
    },
    "planner": "KPIECE",
    "start": {
        "state": {
            "elbow_joint": 0.7495348899011973,
            "shoulder_lift_joint": -0.6476975780737697,
            "shoulder_pan_joint": -2.711696901376276,
            "wrist_1_joint": -0.07506478080974305,
            "wrist_2_joint": 0.4329665971545858,
            "wrist_3_joint": 3.1361499051832524
        }
    },
    "waypoints": [
        {
            "positions": [
                -2.711696901376276,
                -0.6476975780737697,
                0.7495348899011973,
                -0.07506478080974305,
                0.4329665971545858,
                3.1361499051832524
            ]
        },
        {
            "positions": [
                -2.700582430417885,
                -0.7290758603183082,
                0.8343852576640645,
                0.0030349174523140593,
                0.5228789121571439,
                3.1445385112173474
            ]
        },
        {
            "positions": [
                -2.6894679594594937,
                -0.8104541425628466,
                0.9192356254269316,
                0.08113461571437117,
                0.612791227159702,
                3.152927117251443
            ]
        },
        {
            "positions": [
                -2.6783534885011027,
                -0.8918324248073851,
                1.0040859931897987,
                0.1592343139764283,
                0.7027035421622602,
                3.1613157232855382
            ]
        },
        {
            "positions": [
                -2.6672390175427116,
                -0.9732107070519236,
                1.0889363609526659,
                0.23733401223848538,
                0.7926158571648183,
                3.169704329319633
            ]
        },
        {
            "positions": [
                -2.6048652937744685,
                -0.9918249072809161,
                1.0164333853666787,
                0.182202699321118,
                0.7647718684638547,
                3.0174255945406125
            ]
        },
        {
            "positions": [
                -2.542491570006226,
                -1.0104391075099086,
                0.9439304097806918,
                0.12707138640375057,
                0.7369278797628911,
                2.865146859761592
            ]
        },
        {
            "positions": [
                -2.4801178462379827,
                -1.029053307738901,
                0.8714274341947046,
                0.07194007348638318,
                0.7090838910619275,
                2.7128681249825717
            ]
        },
        {
            "positions": [
                -2.41774412246974,
                -1.0476675079678934,
                0.7989244586087175,
                0.016808760569015757,
                0.6812399023609639,
                2.560589390203551
            ]
        },
        {
            "positions": [
                -2.355370398701497,
                -1.0662817081968858,
                0.7264214830227305,
                -0.038322552348351635,
                0.6533959136600003,
                2.4083106554245304
            ]
        },
        {
            "positions": [
                -2.2929966749332538,
                -1.0848959084258785,
                0.6539185074367434,
                -0.09345386526571903,
                0.6255519249590367,
                2.25603192064551
            ]
        },
        {
            "positions": [
                -2.230622951165011,
                -1.1035101086548709,
                0.5814155318507562,
                -0.14858517818308647,
                0.597707936258073,
                2.1037531858664895
            ]
        },
        {
            "positions": [
                -2.168249227396768,
                -1.1221243088838633,
                0.5089125562647692,
                -0.20371649110045387,
                0.5698639475571093,
                1.9514744510874689
            ]
        },
        {
            "positions": [
                -2.1058755036285253,
                -1.140738509112856,
                0.4364095806787821,
                -0.25884780401782126,
                0.5420199588561457,
                1.7991957163084482
            ]
        },
        {
            "positions": [
                -2.043501779860282,
                -1.1593527093418483,
                0.36390660509279504,
                -0.31397911693518865,
                0.5141759701551821,
                1.6469169815294278
            ]
        },
        {
            "positions": [
                -1.9811280560920392,
                -1.1779669095708407,
                0.29140362950680787,
                -0.36911042985255604,
                0.4863319814542185,
                1.4946382467504071
            ]
        },
        {
            "positions": [
                -1.9187543323237963,
                -1.1965811097998333,
                0.21890065392082092,
                -0.42424174276992344,
                0.4584879927532549,
                1.3423595119713867
            ]
        },
        {
            "positions": [
                -1.8563806085555532,
                -1.2151953100288257,
                0.14639767833483375,
                -0.47937305568729083,
                0.43064400405229125,
                1.190080777192366
            ]
        },
        {
            "positions": [
                -1.7940068847873105,
                -1.2338095102578182,
                0.07389470274884657,
                -0.5345043686046583,
                0.40280001535132764,
                1.0378020424133454
            ]
        },
        {
            "positions": [
                -1.7316331610190674,
                -1.2524237104868106,
                0.001391727162859624,
                -0.5896356815220256,
                0.37495602665036404,
                0.8855233076343252
            ]
        },
        {
            "positions": [
                -1.6692594372508245,
                -1.2710379107158032,
                -0.07111124842312755,
                -0.6447669944393931,
                0.34711203794940043,
                0.7332445728553045
            ]
        },
        {
            "positions": [
                -1.6068857134825816,
                -1.2896521109447956,
                -0.1436142240091145,
                -0.6998983073567604,
                0.3192680492484368,
                0.5809658380762839
            ]
        },
        {
            "positions": [
                -1.5445119897143387,
                -1.308266311173788,
                -0.21611719959510167,
                -0.7550296202741279,
                0.29142406054747316,
                0.42868710329726323
            ]
        },
        {
            "positions": [
                -1.4821382659460955,
                -1.3268805114027806,
                -0.28862017518108884,
                -0.8101609331914953,
                0.26358007184650956,
                0.2764083685182426
            ]
        },
        {
            "positions": [
                -1.4197645421778529,
                -1.345494711631773,
                -0.3611231507670758,
                -0.8652922461088627,
                0.23573608314554595,
                0.12412963373922237
            ]
        },
        {
            "positions": [
                -1.3573908184096097,
                -1.3641089118607654,
                -0.43362612635306297,
                -0.9204235590262301,
                0.20789209444458234,
                -0.028149101039798285
            ]
        },
        {
            "positions": [
                -1.2950170946413668,
                -1.3827231120897578,
                -0.5061291019390501,
                -0.9755548719435975,
                0.18004810574361874,
                -0.18042783581881894
            ]
        },
        {
            "positions": [
                -1.2326433708731237,
                -1.4013373123187505,
                -0.5786320775250373,
                -1.030686184860965,
                0.15220411704265502,
                -0.3327065705978396
            ]
        },
        {
            "positions": [
                -1.170269647104881,
                -1.4199515125477429,
                -0.651135053111024,
                -1.0858174977783324,
                0.12436012834169152,
                -0.4849853053768598
            ]
        },
        {
            "positions": [
                -1.1078959233366381,
                -1.4385657127767353,
                -0.7236380286970112,
                -1.1409488106956998,
                0.09651613964072792,
                -0.6372640401558805
            ]
        },
        {
            "positions": [
                -1.045522199568395,
                -1.457179913005728,
                -0.7961410042829984,
                -1.1960801236130671,
                0.0686721509397642,
                -0.7895427749349011
            ]
        },
        {
            "positions": [
                -0.9831484758001521,
                -1.4757941132347203,
                -0.8686439798689856,
                -1.2512114365304345,
                0.04082816223880059,
                -0.9418215097139218
            ]
        },
        {
            "positions": [
                -0.9207747520319092,
                -1.4944083134637127,
                -0.9411469554549727,
                -1.306342749447802,
                0.012984173537836985,
                -1.0941002444929424
            ]
        },
        {
            "positions": [
                -0.8584010282636663,
                -1.5130225136927051,
                -1.0136499310409595,
                -1.3614740623651693,
                -0.01485981516312651,
                -1.2463789792719622
            ]
        },
        {
            "positions": [
                -0.7960273044954234,
                -1.5316367139216975,
                -1.0861529066269466,
                -1.4166053752825367,
                -0.04270380386409023,
                -1.3986577140509828
            ]
        },
        {
            "positions": [
                -0.7336535807271805,
                -1.5502509141506902,
                -1.1586558822129338,
                -1.471736688199904,
                -0.07054779256505384,
                -1.5509364488300035
            ]
        },
        {
            "positions": [
                -0.6712798569589373,
                -1.5688651143796828,
                -1.231158857798921,
                -1.5268680011172715,
                -0.09839178126601744,
                -1.7032151836090241
            ]
        },
        {
            "positions": [
                -0.6089061331906942,
                -1.5874793146086752,
                -1.3036618333849082,
                -1.581999314034639,
                -0.12623576996698116,
                -1.8554939183880448
            ]
        },
        {
            "positions": [
                -0.5465324094224515,
                -1.6060935148376676,
                -1.3761648089708949,
                -1.6371306269520063,
                -0.15407975866794466,
                -2.0077726531670654
            ]
        },
        {
            "positions": [
                -0.48415868565420883,
                -1.62470771506666,
                -1.448667784556882,
                -1.6922619398693737,
                -0.18192374736890826,
                -2.160051387946086
            ]
        },
        {
            "positions": [
                -0.4217849618859657,
                -1.6433219152956524,
                -1.5211707601428692,
                -1.747393252786741,
                -0.20976773606987198,
                -2.3123301227251067
            ]
        },
        {
            "positions": [
                -0.3594112381177226,
                -1.661936115524645,
                -1.5936737357288564,
                -1.8025245657041085,
                -0.2376117247708356,
                -2.4646088575041274
            ]
        },
        {
            "positions": [
                -0.29703751434947945,
                -1.6805503157536377,
                -1.6661767113148436,
                -1.8576558786214759,
                -0.2654557134717992,
                -2.616887592283148
            ]
        },
        {
            "positions": [
                -0.23466379058123676,
                -1.69916451598263,
                -1.7386796869008303,
                -1.9127871915388432,
                -0.2932997021727628,
                -2.769166327062168
            ]
        },
        {
            "positions": [
                -0.17229006681299408,
                -1.7177787162116225,
                -1.8111826624868175,
                -1.9679185044562106,
                -0.3211436908737264,
                -2.9214450618411885
            ]
        },
        {
            "positions": [
                -0.10991634304475112,
                -1.7363929164406149,
                -1.8836856380728049,
                -2.023049817373578,
                -0.3489876795746901,
                -3.073723796620209
            ]
        },
        {
            "positions": [
                -0.05100583917554517,
                -1.680062959566899,
                -1.9599700901467096,
                -2.0976949676561163,
                -0.33008576780082327,
                -3.116781395814102
            ]
        },
        {
            "positions": [
                0.007904664693660773,
                -1.6237330026931829,
                -2.0362545422206146,
                -2.1723401179386546,
                -0.3111838560269564,
                -3.1598389950079953
            ]
        },
        {
            "positions": [
                0.0668151685628667,
                -1.567403045819467,
                -2.1125389942945194,
                -2.246985268221193,
                -0.2922819442530896,
                -3.202896594201888
            ]
        },
        {
            "positions": [
                0.12572567243207267,
                -1.5110730889457509,
                -2.188823446368424,
                -2.321630418503731,
                -0.27338003247922277,
                -3.2459541933957814
            ]
        },
        {
            "positions": [
                0.1846361763012786,
                -1.454743132072035,
                -2.265107898442329,
                -2.3962755687862693,
                -0.2544781207053559,
                -3.2890117925896742
            ]
        },
        {
            "positions": [
                0.06130864337554512,
                -1.5515736716238502,
                -2.2960075981721433,
                -2.3367156257371473,
                -0.23260614911403854,
                -3.2265567094013323
            ]
        },
        {
            "positions": [
                -0.06201888955018836,
                -1.6484042111756654,
                -2.3269072979019576,
                -2.2771556826880253,
                -0.2107341775227212,
                -3.1641016262129904
            ]
        },
        {
            "positions": [
                -0.18534642247592187,
                -1.7452347507274806,
                -2.357806997631772,
                -2.217595739638903,
                -0.18886220593140382,
                -3.1016465430246485
            ]
        }
    ]
}