{
    "goal": {
        "global_pose": {
            "orientation": {
                "w": 0.5084816262002911,
                "x": -0.4908360881923452,
                "y": 0.5182115481033761,
                "z": -0.48164630358495003
            },
            "position": {
                "x": 0.5540239810943604,
                "y": -0.46912469901144505,
                "z": 0.16403168439865112
            }
        },
        "name": "move_to_storage_B"
    },
    "id": "KPIECE_move_to_storage_B_6",
    "joint_names": [
        "shoulder_pan_joint",
        "shoulder_lift_joint",
        "elbow_joint",
        "wrist_1_joint",
        "wrist_2_joint",
        "wrist_3_joint"
    ],
    "metrics": {
        "cart_traj_len": 1.0265487311638763,
        "distance_elbow_joint": 0.8383560913855546,
        "distance_shoulder_lift_joint": 0.459987030989083,
        "distance_shoulder_pan_joint": 0.8494673532933031,
        "distance_wrist_1_joint": 2.986131584903343,
        "distance_wrist_2_joint": 2.708796953173603,
        "distance_wrist_3_joint": 3.1347942177527934,
        "smoothness": 0.12952742330527167,
        "time": 0.081568978,
        "traj_len": 3.3132360663704117,
        "weighted_distance": 4.7897860291541425
    },
    "planner": "KPIECE",
    "start": {
        "state": {
            "elbow_joint": 1.6649325706314817,
            "shoulder_lift_joint": -0.6616388048112454,
            "shoulder_pan_joint": -0.9139837860083814,
            "wrist_1_joint": 2.146757197745094,
            "wrist_2_joint": -2.234196043158733,
            "wrist_3_joint": 0.005471033829999897
        }
    },
    "waypoints": [
        {
            "positions": [
                -0.9139837860083814,
                -0.6616388048112454,
                1.6649325706314817,
                2.146757197745094,
                -2.234196043158733,
                0.005471033829999897
            ]
        },
        {
            "positions": [
                -0.8026844990600942,
                -0.7161459029115,
                1.5838695650644987,
                2.1106915332463445,
                -2.173519312617828,
                -0.029540021336365276
            ]
        },
        {
            "positions": [
                -0.691385212111807,
                -0.7706530010117548,
                1.502806559497516,
                2.0746258687475954,
                -2.112842582076923,
                -0.06455107650273044
            ]
        },
        {
            "positions": [
                -0.5800859251635199,
                -0.8251600991120095,
                1.421743553930533,
                2.0385602042488458,
                -2.052165851536018,
                -0.09956213166909562
            ]
        },
        {
            "positions": [
                -0.6007087048614576,
                -0.8370187285795423,
                1.4455502369179172,
                1.923442820592562,
                -1.9510951810739827,
                -0.2207525737592435
            ]
        },
        {
            "positions": [
                -0.6213314845593952,
                -0.848877358047075,
                1.4693569199053014,
                1.8083254369362782,
                -1.850024510611947,
                -0.3419430158493914
            ]
        },
        {
            "positions": [
                -0.6419542642573328,
                -0.8607359875146078,
                1.4931636028926856,
                1.6932080532799945,
                -1.7489538401499116,
                -0.4631334579395393
            ]
        },
        {
            "positions": [
                -0.6625770439552705,
                -0.8725946169821405,
                1.51697028588007,
                1.5780906696237107,
                -1.647883169687876,
                -0.5843239000296873
            ]
        },
        {
            "positions": [
                -0.6831998236532082,
                -0.8844532464496733,
                1.5407769688674542,
                1.462973285967427,
                -1.5468124992258403,
                -0.7055143421198352
            ]
        },
        {
            "positions": [
                -0.7038226033511459,
                -0.8963118759172061,
                1.5645836518548384,
                1.3478559023111432,
                -1.445741828763805,
                -0.8267047842099831
            ]
        },
        {
            "positions": [
                -0.7244453830490836,
                -0.9081705053847388,
                1.5883903348422226,
                1.2327385186548592,
                -1.3446711583017694,
                -0.947895226300131
            ]
        },
        {
            "positions": [
                -0.7450681627470213,
                -0.9200291348522716,
                1.6121970178296068,
                1.1176211349985756,
                -1.2436004878397338,
                -1.0690856683902787
            ]
        },
        {
            "positions": [
                -0.7656909424449588,
                -0.9318877643198042,
                1.636003700816991,
                1.0025037513422916,
                -1.1425298173776983,
                -1.1902761104804267
            ]
        },
        {
            "positions": [
                -0.7863137221428965,
                -0.943746393787337,
                1.6598103838043754,
                0.8873863676860079,
                -1.0414591469156627,
                -1.3114665525705747
            ]
        },
        {
            "positions": [
                -0.8069365018408342,
                -0.9556050232548698,
                1.6836170667917596,
                0.7722689840297241,
                -0.9403884764536272,
                -1.4326569946607224
            ]
        },
        {
            "positions": [
                -0.8275592815387718,
                -0.9674636527224025,
                1.7074237497791438,
                0.6571516003734403,
                -0.8393178059915918,
                -1.5538474367508703
            ]
        },
        {
            "positions": [
                -0.8481820612367095,
                -0.9793222821899353,
                1.731230432766528,
                0.5420342167171566,
                -0.7382471355295561,
                -1.6750378788410183
            ]
        },
        {
            "positions": [
                -0.8688048409346472,
                -0.9911809116574681,
                1.7550371157539124,
                0.4269168330608726,
                -0.6371764650675205,
                -1.7962283209311662
            ]
        },
        {
            "positions": [
                -0.8894276206325848,
                -1.0030395411250008,
                1.7788437987412964,
                0.31179944940458904,
                -0.5361057946054852,
                -1.917418763021314
            ]
        },
        {
            "positions": [
                -0.9100504003305225,
                -1.0148981705925335,
                1.8026504817286808,
                0.19668206574830527,
                -0.4350351241434496,
                -2.038609205111462
            ]
        },
        {
            "positions": [
                -0.9306731800284602,
                -1.0267568000600664,
                1.826457164716065,
                0.08156468209202128,
                -0.3339644536814139,
                -2.15979964720161
            ]
        },
        {
            "positions": [
                -0.9512959597263979,
                -1.038615429527599,
                1.8502638477034492,
                -0.03355270156426249,
                -0.23289378321937848,
                -2.280990089291758
            ]
        },
        {
            "positions": [
                -0.9719187394243355,
                -1.0504740589951318,
                1.8740705306908334,
                -0.14867008522054626,
                -0.13182311275734304,
                -2.402180531381906
            ]
        },
        {
            "positions": [
                -0.9925415191222732,
                -1.0623326884626647,
                1.8978772136782176,
                -0.26378746887683,
                -0.03075244229530716,
                -2.523370973472054
            ]
        },
        {
            "positions": [
                -1.0131642988202108,
                -1.0741913179301974,
                1.9216838966656018,
                -0.3789048525331138,
                0.07031822816672806,
                -2.6445614155622015
            ]
        },
        {
            "positions": [
                -1.0337870785181484,
                -1.08604994739773,
                1.945490579652986,
                -0.49402223618939756,
                0.17138889862876372,
                -2.7657518576523494
            ]
        },
        {
            "positions": [
                -1.0544098582160861,
                -1.097908576865263,
                1.9692972626403704,
                -0.6091396198456813,
                0.2724595690907994,
                -2.886942299742498
            ]
        },
        {
            "positions": [
                -1.0750326379140238,
                -1.1097672063327957,
                1.9931039456277544,
                -0.7242570035019651,
                0.3735302395528346,
                -3.0081327418326453
            ]
        },
        {
            "positions": [
                -1.0956554176119615,
                -1.1216258358003284,
                2.016910628615139,
                -0.8393743871582487,
                0.47460091001487015,
                -3.1293231839227933
            ]
        }
    ]
}