{
    "goal": {
        "global_pose": {
            "orientation": {
                "w": 0.005598929693374612,
                "x": 0.007748599140229565,
                "y": 0.7110244013736278,
                "z": -0.7031023480610252
            },
            "position": {
                "x": -0.8858502320852131,
                "y": -0.7141253447532654,
                "z": 0.3711530566215515
            }
        },
        "name": "move_to_auspresseinheit_C"
    },
    "id": "KPIECE_move_to_auspresseinheit_C_123",
    "joint_names": [
        "shoulder_pan_joint",
        "shoulder_lift_joint",
        "elbow_joint",
        "wrist_1_joint",
        "wrist_2_joint",
        "wrist_3_joint"
    ],
    "metrics": {
        "cart_traj_len": 0.49306476880601396,
        "distance_elbow_joint": 1.0140622691483054,
        "distance_shoulder_lift_joint": 0.3318177084809676,
        "distance_shoulder_pan_joint": 0.25563330069192824,
        "distance_wrist_1_joint": 0.7114649799957855,
        "distance_wrist_2_joint": 1.312913930706399,
        "distance_wrist_3_joint": 0.08536582879984778,
        "smoothness": 8.07434933393631e-16,
        "time": 0.586778444,
        "traj_len": 1.9264625659023935,
        "weighted_distance": 2.4303021594289698
    },
    "planner": "KPIECE",
    "start": {
        "state": {
            "elbow_joint": 1.752795957773711,
            "shoulder_lift_joint": -0.9740617694225064,
            "shoulder_pan_joint": -2.967991417825858,
            "wrist_1_joint": -0.7595177689806859,
            "wrist_2_joint": 1.7443932448377395,
            "wrist_3_joint": 3.199131542505932
        }
    },
    "waypoints": [
        {
            "positions": [
                -2.967991417825858,
                -0.9740617694225064,
                1.752795957773711,
                -0.7595177689806859,
                1.7443932448377395,
                3.199131542505932
            ]
        },
        {
            "positions": [
                -2.942428087756665,
                -0.9408799985744096,
                1.6513897308588805,
                -0.6883712709811074,
                1.6131018517670996,
                3.1905949596259475
            ]
        },
        {
            "positions": [
                -2.916864757687472,
                -0.9076982277263129,
                1.54998350394405,
                -0.6172247729815288,
                1.4818104586964598,
                3.1820583767459625
            ]
        },
        {
            "positions": [
                -2.8913014276182794,
                -0.8745164568782162,
                1.4485772770292196,
                -0.5460782749819503,
                1.3505190656258197,
                3.173521793865978
            ]
        },
        {
            "positions": [
                -2.8657380975490865,
                -0.8413346860301194,
                1.347171050114389,
                -0.4749317769823717,
                1.2192276725551798,
                3.164985210985993
            ]
        },
        {
            "positions": [
                -2.840174767479894,
                -0.8081529151820226,
                1.2457648231995584,
                -0.40378527898279315,
                1.08793627948454,
                3.1564486281060082
            ]
        },
        {
            "positions": [
                -2.814611437410701,
                -0.7749711443339259,
                1.1443585962847278,
                -0.3326387809832146,
                0.9566448864139001,
                3.1479120452260236
            ]
        },
        {
            "positions": [
                -2.7890481073415083,
                -0.7417893734858292,
                1.0429523693698974,
                -0.2614922829836361,
                0.8253534933432602,
                3.1393754623460386
            ]
        },
        {
            "positions": [
                -2.7634847772723155,
                -0.7086076026377324,
                0.9415461424550667,
                -0.19034578498405752,
                0.6940621002726202,
                3.130838879466054
            ]
        },
        {
            "positions": [
                -2.7379214472031226,
                -0.6754258317896356,
                0.8401399155402361,
                -0.1191992869844789,
                0.5627707072019803,
                3.122302296586069
            ]
        },
        {
            "positions": [
                -2.7123581171339297,
                -0.6422440609415389,
                0.7387336886254056,
                -0.048052788984900376,
                0.43147931413134055,
                3.1137657137060843
            ]
        }
    ]
}