{
    "goal": {
        "global_pose": {
            "orientation": {
                "w": 0.7031023480610252,
                "x": -0.7110244013736278,
                "y": 0.0077485991402295624,
                "z": 0.005598929693374583
            },
            "position": {
                "x": -0.8841497679147869,
                "y": 0.44412534475326537,
                "z": 0.3711530566215515
            }
        },
        "name": "move_to_auspresseinheit_D"
    },
    "id": "KPIECE_move_to_auspresseinheit_D_74",
    "joint_names": [
        "shoulder_pan_joint",
        "shoulder_lift_joint",
        "elbow_joint",
        "wrist_1_joint",
        "wrist_2_joint",
        "wrist_3_joint"
    ],
    "metrics": {
        "cart_traj_len": 3.8984031768522813,
        "distance_elbow_joint": 3.166025739650462,
        "distance_shoulder_lift_joint": 1.5276053032125279,
        "distance_shoulder_pan_joint": 2.796550084350199,
        "distance_wrist_1_joint": 2.6899727242112,
        "distance_wrist_2_joint": 1.2332779719545515,
        "distance_wrist_3_joint": 2.018483699989922,
        "smoothness": 0.21661352425765423,
        "time": 0.048588610000000004,
        "traj_len": 3.664957779206857,
        "weighted_distance": 4.625163091126026
    },
    "planner": "KPIECE",
    "start": {
        "state": {
            "elbow_joint": 1.8268400409724999,
            "shoulder_lift_joint": -1.0144045787793008,
            "shoulder_pan_joint": 2.6280239544362485,
            "wrist_1_joint": -0.790705565816056,
            "wrist_2_joint": 1.0573557467365533,
            "wrist_3_joint": 3.1851377467193758
        }
    },
    "waypoints": [
        {
            "positions": [
                2.6280239544362485,
                -1.0144045787793008,
                1.8268400409724999,
                -0.790705565816056,
                1.0573557467365533,
                3.1851377467193758
            ]
        },
        {
            "positions": [
                2.622675548824762,
                -0.9777590183832945,
                1.6482520394503763,
                -0.713974868342683,
                1.0597066228168102,
                3.090376659526407
            ]
        },
        {
            "positions": [
                2.617327143213276,
                -0.9411134579872882,
                1.4696640379282528,
                -0.6372441708693101,
                1.062057498897067,
                2.9956155723334383
            ]
        },
        {
            "positions": [
                2.6119787376017896,
                -0.9044678975912819,
                1.2910760364061291,
                -0.5605134733959372,
                1.0644083749773239,
                2.9008544851404694
            ]
        },
        {
            "positions": [
                2.6066303319903033,
                -0.8678223371952756,
                1.1124880348840056,
                -0.48378277592256413,
                1.0667592510575807,
                2.8060933979475005
            ]
        },
        {
            "positions": [
                2.525720537490814,
                -0.884913478141974,
                0.9427014155484861,
                -0.5059785378052009,
                1.0334454224539358,
                2.761224392330686
            ]
        },
        {
            "positions": [
                2.4448107429913244,
                -0.9020046190886722,
                0.7729147962129664,
                -0.5281742996878375,
                1.000131593850291,
                2.7163553867138717
            ]
        },
        {
            "positions": [
                2.363900948491835,
                -0.9190957600353706,
                0.6031281768774469,
                -0.5503700615704742,
                0.9668177652466462,
                2.6714863810970573
            ]
        },
        {
            "positions": [
                2.2829911539923455,
                -0.9361869009820689,
                0.43334155754192727,
                -0.5725658234531109,
                0.9335039366430014,
                2.626617375480243
            ]
        },
        {
            "positions": [
                2.2020813594928557,
                -0.9532780419287673,
                0.26355493820640763,
                -0.5947615853357476,
                0.9001901080393565,
                2.5817483698634285
            ]
        },
        {
            "positions": [
                2.1211715649933662,
                -0.9703691828754656,
                0.09376831887088821,
                -0.6169573472183842,
                0.8668762794357117,
                2.536879364246614
            ]
        },
        {
            "positions": [
                2.040261770493877,
                -0.987460323822164,
                -0.07601830046463154,
                -0.639153109101021,
                0.8335624508320668,
                2.4920103586297997
            ]
        },
        {
            "positions": [
                1.9593519759943874,
                -1.0045514647688623,
                -0.24580491980015107,
                -0.6613488709836577,
                0.800248622228422,
                2.4471413530129853
            ]
        },
        {
            "positions": [
                1.878442181494898,
                -1.0216426057155608,
                -0.4155915391356708,
                -0.6835446328662944,
                0.7669347936247771,
                2.402272347396171
            ]
        },
        {
            "positions": [
                1.7975323869954085,
                -1.038733746662259,
                -0.5853781584711903,
                -0.705740394748931,
                0.7336209650211323,
                2.3574033417793565
            ]
        },
        {
            "positions": [
                1.716622592495919,
                -1.0558248876089573,
                -0.7551647778067099,
                -0.7279361566315677,
                0.7003071364174874,
                2.312534336162542
            ]
        },
        {
            "positions": [
                1.6357127979964297,
                -1.0729160285556556,
                -0.9249513971422292,
                -0.7501319185142044,
                0.6669933078138426,
                2.2676653305457277
            ]
        },
        {
            "positions": [
                1.55480300349694,
                -1.090007169502354,
                -1.0947380164777492,
                -0.7723276803968411,
                0.6336794792101977,
                2.2227963249289133
            ]
        },
        {
            "positions": [
                1.4738932089974506,
                -1.1070983104490524,
                -1.264524635813269,
                -0.7945234422794778,
                0.6003656506065529,
                2.177927319312099
            ]
        },
        {
            "positions": [
                1.3772803067085446,
                -1.1742599038828598,
                -1.260132808585934,
                -0.9164239874536422,
                0.5558079525369943,
                2.2374139824051955
            ]
        },
        {
            "positions": [
                1.2806674044196389,
                -1.2414214973166673,
                -1.2557409813585991,
                -1.0383245326278066,
                0.5112502544674357,
                2.2969006454982925
            ]
        },
        {
            "positions": [
                1.1840545021307327,
                -1.3085830907504745,
                -1.251349154131264,
                -1.160225077801971,
                0.46669255639787705,
                2.356387308591389
            ]
        },
        {
            "positions": [
                1.087441599841827,
                -1.375744684184282,
                -1.2469573269039291,
                -1.2821256229761353,
                0.42213485832831843,
                2.415873971684486
            ]
        },
        {
            "positions": [
                0.990828697552921,
                -1.4429062776180894,
                -1.2425654996765942,
                -1.4040261681502997,
                0.3775771602587598,
                2.4753606347775827
            ]
        },
        {
            "positions": [
                0.8942157952640151,
                -1.5100678710518969,
                -1.2381736724492594,
                -1.525926713324464,
                0.3330194621892012,
                2.5348472978706793
            ]
        },
        {
            "positions": [
                0.7976028929751093,
                -1.5772294644857041,
                -1.2337818452219242,
                -1.6478272584986282,
                0.28846176411964264,
                2.5943339609637763
            ]
        },
        {
            "positions": [
                0.7009899906862034,
                -1.6443910579195116,
                -1.2293900179945894,
                -1.7697278036727928,
                0.24390406605008402,
                2.653820624056873
            ]
        },
        {
            "positions": [
                0.6043770883972974,
                -1.711552651353319,
                -1.2249981907672545,
                -1.8916283488469572,
                0.19934636798052535,
                2.71330728714997
            ]
        },
        {
            "positions": [
                0.5077641861083915,
                -1.7787142447871265,
                -1.2206063635399196,
                -2.0135288940211216,
                0.15478866991096674,
                2.7727939502430665
            ]
        },
        {
            "positions": [
                0.4111512838194855,
                -1.845875838220934,
                -1.2162145363125845,
                -2.1354294391952857,
                0.11023097184140812,
                2.832280613336163
            ]
        },
        {
            "positions": [
                0.31453838153057956,
                -1.9130374316547414,
                -1.2118227090852496,
                -2.2573299843694503,
                0.0656732737718495,
                2.89176727642926
            ]
        },
        {
            "positions": [
                0.21792547924167383,
                -1.9801990250885484,
                -1.2074308818579147,
                -2.3792305295436145,
                0.021115575702290945,
                2.9512539395223567
            ]
        },
        {
            "positions": [
                0.12131257695276809,
                -2.047360618522356,
                -1.2030390546305798,
                -2.5011310747177786,
                -0.023442122367267615,
                3.0107406026154537
            ]
        },
        {
            "positions": [
                0.024699674663862137,
                -2.1145222119561633,
                -1.198647227403245,
                -2.6230316198919432,
                -0.06799982043682629,
                3.0702272657085503
            ]
        },
        {
            "positions": [
                -0.07191322762504382,
                -2.1816838053899708,
                -1.1942554001759098,
                -2.744932165066108,
                -0.11255751850638485,
                3.129713928801647
            ]
        },
        {
            "positions": [
                -0.16852612991394972,
                -2.248845398823778,
                -1.189863572948575,
                -2.866832710240272,
                -0.15711521657594354,
                3.189200591894744
            ]
        }
    ]
}