{
    "goal": {
        "global_pose": {
            "orientation": {
                "w": 0.7047431493862688,
                "x": -0.7094548369677653,
                "y": 0.0024358444001904,
                "z": -0.0022348060817251984
            },
            "position": {
                "x": -0.39052492380142206,
                "y": 0.3671506643295288,
                "z": 0.19426114857196808
            }
        },
        "name": "move_to_magneteinheit_D"
    },
    "id": "KPIECE_move_to_magneteinheit_D_83",
    "joint_names": [
        "shoulder_pan_joint",
        "shoulder_lift_joint",
        "elbow_joint",
        "wrist_1_joint",
        "wrist_2_joint",
        "wrist_3_joint"
    ],
    "metrics": {
        "cart_traj_len": 3.754593607660414,
        "distance_elbow_joint": 3.3040836444459267,
        "distance_shoulder_lift_joint": 1.6326332672454917,
        "distance_shoulder_pan_joint": 3.126950621172448,
        "distance_wrist_1_joint": 1.9151562966177844,
        "distance_wrist_2_joint": 2.311727815831989,
        "distance_wrist_3_joint": 3.1372529123319635,
        "smoothness": 0.3059791252755805,
        "time": 0.185460719,
        "traj_len": 3.9278244051440994,
        "weighted_distance": 5.092071729145152
    },
    "planner": "KPIECE",
    "start": {
        "state": {
            "elbow_joint": 0.7495348899011973,
            "shoulder_lift_joint": -0.6476975780737697,
            "shoulder_pan_joint": -2.711696901376276,
            "wrist_1_joint": -0.07506478080974305,
            "wrist_2_joint": 0.4329665971545858,
            "wrist_3_joint": 3.1361499051832524
        }
    },
    "waypoints": [
        {
            "positions": [
                -2.711696901376276,
                -0.6476975780737697,
                0.7495348899011973,
                -0.07506478080974305,
                0.4329665971545858,
                3.1361499051832524
            ]
        },
        {
            "positions": [
                -2.7361791784159486,
                -0.8168865038549284,
                0.793883017392675,
                -0.013409764086702698,
                0.4595967095024475,
                3.0883346260462483
            ]
        },
        {
            "positions": [
                -2.7606614554556215,
                -0.9860754296360873,
                0.8382311448841526,
                0.04824525263633765,
                0.48622682185030924,
                3.040519346909244
            ]
        },
        {
            "positions": [
                -2.6696663646314542,
                -1.005543278490381,
                0.748107116295315,
                0.10082101393928034,
                0.44498645392389913,
                2.9499576055958725
            ]
        },
        {
            "positions": [
                -2.5786712738072874,
                -1.025011127344675,
                0.6579830877064773,
                0.153396775242223,
                0.403746085997489,
                2.859395864282501
            ]
        },
        {
            "positions": [
                -2.48767618298312,
                -1.0444789761989686,
                0.5678590591176396,
                0.20597253654516567,
                0.3625057180710789,
                2.768834122969129
            ]
        },
        {
            "positions": [
                -2.396681092158953,
                -1.0639468250532624,
                0.477735030528802,
                0.25854829784810834,
                0.3212653501446688,
                2.6782723816557574
            ]
        },
        {
            "positions": [
                -2.305686001334786,
                -1.083414673907556,
                0.38761100193996434,
                0.311124059151051,
                0.28002498221825867,
                2.5877106403423857
            ]
        },
        {
            "positions": [
                -2.214690910510619,
                -1.10288252276185,
                0.2974869733511266,
                0.3636998204539937,
                0.23878461429184858,
                2.497148899029014
            ]
        },
        {
            "positions": [
                -2.1236958196864517,
                -1.1223503716161436,
                0.207362944762289,
                0.41627558175693635,
                0.19754424636543844,
                2.406587157715642
            ]
        },
        {
            "positions": [
                -2.0327007288622845,
                -1.1418182204704375,
                0.11723891617345139,
                0.4688513430598791,
                0.15630387843902832,
                2.31602541640227
            ]
        },
        {
            "positions": [
                -1.9417056380381175,
                -1.1612860693247313,
                0.027114887584613556,
                0.5214271043628217,
                0.1150635105126182,
                2.2254636750888985
            ]
        },
        {
            "positions": [
                -1.8507105472139505,
                -1.180753918179025,
                -0.06300914100422395,
                0.5740028656657643,
                0.07382314258620815,
                2.134901933775527
            ]
        },
        {
            "positions": [
                -1.7597154563897832,
                -1.2002217670333188,
                -0.15313316959306167,
                0.626578626968707,
                0.032582774659797975,
                2.044340192462155
            ]
        },
        {
            "positions": [
                -1.6687203655656162,
                -1.2196896158876125,
                -0.2432571981818994,
                0.6791543882716496,
                -0.008657593266612085,
                1.9537784511487835
            ]
        },
        {
            "positions": [
                -1.577725274741449,
                -1.2391574647419064,
                -0.333381226770737,
                0.7317301495745924,
                -0.0498979611930222,
                1.8632167098354115
            ]
        },
        {
            "positions": [
                -1.486730183917282,
                -1.2586253135962,
                -0.4235052553595746,
                0.784305910877535,
                -0.09113832911943237,
                1.7726549685220399
            ]
        },
        {
            "positions": [
                -1.395735093093115,
                -1.2780931624504939,
                -0.5136292839484125,
                0.8368816721804777,
                -0.13237869704584243,
                1.6820932272086682
            ]
        },
        {
            "positions": [
                -1.3047400022689477,
                -1.2975610113047877,
                -0.6037533125372498,
                0.8894574334834204,
                -0.1736190649722526,
                1.5915314858952965
            ]
        },
        {
            "positions": [
                -1.2137449114447807,
                -1.3170288601590814,
                -0.6938773411260875,
                0.942033194786363,
                -0.21485943289866266,
                1.5009697445819248
            ]
        },
        {
            "positions": [
                -1.1227498206206135,
                -1.3364967090133753,
                -0.7840013697149255,
                0.9946089560893058,
                -0.25609980082507283,
                1.4104080032685529
            ]
        },
        {
            "positions": [
                -1.0317547297964464,
                -1.355964557867669,
                -0.8741253983037629,
                1.0471847173922486,
                -0.2973401687514829,
                1.3198462619551812
            ]
        },
        {
            "positions": [
                -0.9407596389722794,
                -1.3754324067219628,
                -0.9642494268926005,
                1.0997604786951911,
                -0.33858053667789295,
                1.2292845206418095
            ]
        },
        {
            "positions": [
                -0.8497645481481124,
                -1.3949002555762564,
                -1.0543734554814381,
                1.1523362399981338,
                -0.3798209046043031,
                1.138722779328438
            ]
        },
        {
            "positions": [
                -0.758769457323945,
                -1.4143681044305503,
                -1.144497484070276,
                1.2049120013010766,
                -0.4210612725307133,
                1.0481610380150659
            ]
        },
        {
            "positions": [
                -0.6677743664997782,
                -1.4338359532848441,
                -1.2346215126591136,
                1.2574877626040193,
                -0.46230164045712335,
                0.9575992967016944
            ]
        },
        {
            "positions": [
                -0.5767792756756109,
                -1.4533038021391378,
                -1.3247455412479514,
                1.3100635239069618,
                -0.5035420083835334,
                0.8670375553883227
            ]
        },
        {
            "positions": [
                -0.48578418485144415,
                -1.4727716509934314,
                -1.4148695698367888,
                1.3626392852099045,
                -0.5447823763099435,
                0.776475814074951
            ]
        },
        {
            "positions": [
                -0.39478909402727647,
                -1.4922394998477255,
                -1.5049935984256266,
                1.4152150465128472,
                -0.5860227442363537,
                0.6859140727615789
            ]
        },
        {
            "positions": [
                -0.3037940032031097,
                -1.5117073487020192,
                -1.5951176270144645,
                1.46779080781579,
                -0.6272631121627639,
                0.5953523314482072
            ]
        },
        {
            "positions": [
                -0.21279891237894244,
                -1.5311751975563128,
                -1.6852416556033019,
                1.5203665691187325,
                -0.668503480089174,
                0.5047905901348355
            ]
        },
        {
            "positions": [
                -0.12180382155477565,
                -1.5506430464106065,
                -1.7753656841921392,
                1.5729423304216752,
                -0.709743848015584,
                0.41422884882146427
            ]
        },
        {
            "positions": [
                -0.030808730730608413,
                -1.5701108952649006,
                -1.8654897127809775,
                1.625518091724618,
                -0.7509842159419942,
                0.32366710750809213
            ]
        },
        {
            "positions": [
                0.06018636009355893,
                -1.5895787441191942,
                -1.955613741369815,
                1.6780938530275606,
                -0.7922245838684043,
                0.23310536619472044
            ]
        },
        {
            "positions": [
                0.06215352520431761,
                -1.6694292771330534,
                -2.021921924830824,
                1.679288253861512,
                -0.6947022184732647,
                0.195296140862464
            ]
        },
        {
            "positions": [
                0.06412069031507629,
                -1.749279810146913,
                -2.088230108291832,
                1.6804826546954634,
                -0.5971798530781252,
                0.15748691553020752
            ]
        },
        {
            "positions": [
                0.06608785542583498,
                -1.8291303431607722,
                -2.154538291752841,
                1.6816770555294147,
                -0.4996574876829856,
                0.11967769019795105
            ]
        },
        {
            "positions": [
                0.015840504183505848,
                -1.91937044359247,
                -2.199061882318037,
                1.6499941634736894,
                -0.3621676698365589,
                0.09552155072861868
            ]
        },
        {
            "positions": [
                -0.034406847058823284,
                -2.009610544024168,
                -2.243585472883232,
                1.6183112714179642,
                -0.22467785199013224,
                0.0713654112592863
            ]
        },
        {
            "positions": [
                -0.0846541983011524,
                -2.0998506444558656,
                -2.288109063448428,
                1.5866283793622387,
                -0.08718803414370557,
                0.04720927178995395
            ]
        },
        {
            "positions": [
                -0.13490154954348155,
                -2.1900907448875637,
                -2.332632654013623,
                1.5549454873065134,
                0.05030178370272115,
                0.023053132320621575
            ]
        },
        {
            "positions": [
                -0.18514890078581064,
                -2.2803308453192614,
                -2.377156244578819,
                1.523262595250788,
                0.18779160154914776,
                -0.0011030071487107866
            ]
        }
    ]
}