{
    "goal": {
        "global_pose": {
            "orientation": {
                "w": 0.7031023480610252,
                "x": -0.7110244013736278,
                "y": 0.0077485991402295624,
                "z": 0.005598929693374583
            },
            "position": {
                "x": -0.8841497679147869,
                "y": 0.44412534475326537,
                "z": 0.3711530566215515
            }
        },
        "name": "move_to_auspresseinheit_D"
    },
    "id": "KPIECE_move_to_auspresseinheit_D_83",
    "joint_names": [
        "shoulder_pan_joint",
        "shoulder_lift_joint",
        "elbow_joint",
        "wrist_1_joint",
        "wrist_2_joint",
        "wrist_3_joint"
    ],
    "metrics": {
        "cart_traj_len": 3.6167851635873904,
        "distance_elbow_joint": 3.0109068362016407,
        "distance_shoulder_lift_joint": 1.2357672316270545,
        "distance_shoulder_pan_joint": 2.796969892661987,
        "distance_wrist_1_joint": 2.6689558613818436,
        "distance_wrist_2_joint": 1.4270220489313186,
        "distance_wrist_3_joint": 0.39967355167535334,
        "smoothness": 0.30562789004488183,
        "time": 0.156223481,
        "traj_len": 3.396953844620088,
        "weighted_distance": 4.053963546474372
    },
    "planner": "KPIECE",
    "start": {
        "state": {
            "elbow_joint": 1.8268400409724999,
            "shoulder_lift_joint": -1.0144045787793008,
            "shoulder_pan_joint": 2.6280239544362485,
            "wrist_1_joint": -0.790705565816056,
            "wrist_2_joint": 1.0573557467365533,
            "wrist_3_joint": 3.1851377467193758
        }
    },
    "waypoints": [
        {
            "positions": [
                2.6280239544362485,
                -1.0144045787793008,
                1.8268400409724999,
                -0.790705565816056,
                1.0573557467365533,
                3.1851377467193758
            ]
        },
        {
            "positions": [
                2.560731490896435,
                -1.1299029081624636,
                1.7854347235143608,
                -0.7186744779672856,
                1.084042159851072,
                3.137054781196522
            ]
        },
        {
            "positions": [
                2.4934390273566214,
                -1.2454012375456265,
                1.7440294060562216,
                -0.6466433901185151,
                1.1107285729655911,
                3.0889718156736685
            ]
        },
        {
            "positions": [
                2.4261465638168076,
                -1.3608995669287893,
                1.7026240885980823,
                -0.5746123022697447,
                1.1374149860801102,
                3.040888850150815
            ]
        },
        {
            "positions": [
                2.3588541002769943,
                -1.4763978963119522,
                1.6612187711399433,
                -0.5025812144209743,
                1.164101399194629,
                2.9928058846279613
            ]
        },
        {
            "positions": [
                2.261631021873043,
                -1.5061584314694292,
                1.5517847108949785,
                -0.5941516571127727,
                1.113321537791812,
                3.000780564996574
            ]
        },
        {
            "positions": [
                2.164407943469092,
                -1.5359189666269062,
                1.4423506506500137,
                -0.6857220998045713,
                1.062541676388995,
                3.008755245365187
            ]
        },
        {
            "positions": [
                2.0671848650651405,
                -1.5656795017843832,
                1.332916590405049,
                -0.7772925424963699,
                1.0117618149861778,
                3.0167299257338005
            ]
        },
        {
            "positions": [
                1.9699617866611892,
                -1.5954400369418604,
                1.2234825301600842,
                -0.8688629851881684,
                0.9609819535833608,
                3.0247046061024134
            ]
        },
        {
            "positions": [
                1.8727387082572378,
                -1.6252005720993374,
                1.1140484699151196,
                -0.9604334278799669,
                0.9102020921805438,
                3.0326792864710264
            ]
        },
        {
            "positions": [
                1.7755156298532866,
                -1.6549611072568144,
                1.0046144096701548,
                -1.0520038705717654,
                0.8594222307777267,
                3.0406539668396393
            ]
        },
        {
            "positions": [
                1.6782925514493354,
                -1.6847216424142915,
                0.8951803494251901,
                -1.143574313263564,
                0.8086423693749097,
                3.0486286472082527
            ]
        },
        {
            "positions": [
                1.581069473045384,
                -1.7144821775717685,
                0.7857462891802252,
                -1.2351447559553625,
                0.7578625079720926,
                3.0566033275768656
            ]
        },
        {
            "positions": [
                1.4838463946414329,
                -1.7442427127292455,
                0.6763122289352606,
                -1.326715198647161,
                0.7070826465692757,
                3.0645780079454785
            ]
        },
        {
            "positions": [
                1.3866233162374815,
                -1.7740032478867227,
                0.5668781686902957,
                -1.4182856413389597,
                0.6563027851664586,
                3.0725526883140915
            ]
        },
        {
            "positions": [
                1.2894002378335303,
                -1.8037637830441997,
                0.4574441084453309,
                -1.509856084030758,
                0.6055229237636416,
                3.080527368682705
            ]
        },
        {
            "positions": [
                1.192177159429579,
                -1.8335243182016767,
                0.3480100482003661,
                -1.6014265267225567,
                0.5547430623608245,
                3.0885020490513178
            ]
        },
        {
            "positions": [
                1.0949540810256277,
                -1.8632848533591537,
                0.23857598795540147,
                -1.6929969694143552,
                0.5039632009580075,
                3.0964767294199307
            ]
        },
        {
            "positions": [
                0.9977310026216766,
                -1.8930453885166307,
                0.12914192771043687,
                -1.7845674121061537,
                0.4531833395551905,
                3.1044514097885436
            ]
        },
        {
            "positions": [
                0.9005079242177254,
                -1.9228059236741077,
                0.01970786746547204,
                -1.8761378547979521,
                0.40240347815237354,
                3.1124260901571565
            ]
        },
        {
            "positions": [
                0.8032848458137738,
                -1.9525664588315848,
                -0.08972619277949301,
                -1.9677082974897508,
                0.35162361674955633,
                3.12040077052577
            ]
        },
        {
            "positions": [
                0.7060617674098226,
                -1.9823269939890618,
                -0.1991602530244576,
                -2.0592787401815493,
                0.30084375534673935,
                3.128375450894383
            ]
        },
        {
            "positions": [
                0.6088386890058715,
                -2.0120875291465388,
                -0.3085943132694222,
                -2.1508491828733476,
                0.25006389394392237,
                3.1363501312629958
            ]
        },
        {
            "positions": [
                0.5116156106019203,
                -2.041848064304016,
                -0.41802837351438704,
                -2.2424196255651463,
                0.19928403254110538,
                3.1443248116316087
            ]
        },
        {
            "positions": [
                0.4143925321979687,
                -2.0716085994614932,
                -0.5274624337593519,
                -2.333990068256945,
                0.14850417113828818,
                3.152299492000222
            ]
        },
        {
            "positions": [
                0.31716945379401773,
                -2.1013691346189702,
                -0.6368964940043167,
                -2.4255605109487437,
                0.0977243097354712,
                3.160274172368835
            ]
        },
        {
            "positions": [
                0.21994637539006634,
                -2.1311296697764472,
                -0.7463305542492815,
                -2.5171309536405415,
                0.04694444833265421,
                3.168248852737448
            ]
        },
        {
            "positions": [
                0.12272329698611495,
                -2.1608902049339243,
                -0.8557646144942459,
                -2.60870139633234,
                -0.0038354130701627742,
                3.176223533106061
            ]
        },
        {
            "positions": [
                0.02550021858216356,
                -2.1906507400914013,
                -0.9651986747392112,
                -2.700271839024139,
                -0.05461527447297998,
                3.1841982134746742
            ]
        },
        {
            "positions": [
                -0.07172285982178739,
                -2.2204112752488783,
                -1.0746327349841756,
                -2.7918422817159376,
                -0.10539513587579696,
                3.192172893843287
            ]
        },
        {
            "positions": [
                -0.16894593822573883,
                -2.2501718104063553,
                -1.1840667952291406,
                -2.8834127244077363,
                -0.15617499727861403,
                3.2001475742119
            ]
        }
    ]
}