{
    "goal": {
        "global_pose": {
            "orientation": {
                "w": 0.005598929693374612,
                "x": 0.007748599140229565,
                "y": 0.7110244013736278,
                "z": -0.7031023480610252
            },
            "position": {
                "x": 0.1141497679147869,
                "y": -0.7141253447532654,
                "z": 0.3711530566215515
            }
        },
        "name": "move_to_auspresseinheit_B"
    },
    "id": "KPIECE_move_to_auspresseinheit_B_121",
    "joint_names": [
        "shoulder_pan_joint",
        "shoulder_lift_joint",
        "elbow_joint",
        "wrist_1_joint",
        "wrist_2_joint",
        "wrist_3_joint"
    ],
    "metrics": {
        "cart_traj_len": 0.565101819102899,
        "distance_elbow_joint": 0.0665118824914408,
        "distance_shoulder_lift_joint": 0.293699988340248,
        "distance_shoulder_pan_joint": 0.576995775697982,
        "distance_wrist_1_joint": 0.33822240265013925,
        "distance_wrist_2_joint": 0.9939936394770841,
        "distance_wrist_3_joint": 0.00449988589377881,
        "smoothness": 2.5376526478085547e-16,
        "time": 0.304490908,
        "traj_len": 1.5079534391189513,
        "weighted_distance": 1.9013519896288151
    },
    "planner": "KPIECE",
    "start": {
        "state": {
            "elbow_joint": 2.019306165916698,
            "shoulder_lift_joint": -1.1220205098164344,
            "shoulder_pan_joint": -1.095207207618794,
            "wrist_1_joint": -0.8559671824921639,
            "wrist_2_joint": 0.47596387242952726,
            "wrist_3_joint": 3.159081874673826
        }
    },
    "waypoints": [
        {
            "positions": [
                -1.095207207618794,
                -1.1220205098164344,
                2.019306165916698,
                -0.8559671824921639,
                0.47596387242952726,
                3.159081874673826
            ]
        },
        {
            "positions": [
                -1.1913731702351242,
                -1.1709705078731425,
                2.0082208521681246,
                -0.799596782050474,
                0.6416294790090413,
                3.1583318936915292
            ]
        },
        {
            "positions": [
                -1.2875391328514547,
                -1.2199205059298504,
                1.997135538419551,
                -0.7432263816087841,
                0.8072950855885552,
                3.157581912709233
            ]
        },
        {
            "positions": [
                -1.383705095467785,
                -1.2688705039865584,
                1.9860502246709775,
                -0.6868559811670942,
                0.9729606921680694,
                3.1568319317269364
            ]
        },
        {
            "positions": [
                -1.4798710580841152,
                -1.3178205020432665,
                1.9749649109224041,
                -0.6304855807254044,
                1.1386262987475833,
                3.15608195074464
            ]
        },
        {
            "positions": [
                -1.5760370207004457,
                -1.3667705000999744,
                1.9638795971738308,
                -0.5741151802837144,
                1.3042919053270974,
                3.1553319697623436
            ]
        },
        {
            "positions": [
                -1.672202983316776,
                -1.4157204981566824,
                1.9527942834252572,
                -0.5177447798420246,
                1.4699575119066113,
                3.154581988780047
            ]
        }
    ]
}