{
    "goal": {
        "global_pose": {
            "orientation": {
                "w": 0.005598929693374612,
                "x": 0.007748599140229565,
                "y": 0.7110244013736278,
                "z": -0.7031023480610252
            },
            "position": {
                "x": 0.1141497679147869,
                "y": -0.7141253447532654,
                "z": 0.3711530566215515
            }
        },
        "name": "move_to_auspresseinheit_B"
    },
    "id": "KPIECE_move_to_auspresseinheit_B_114",
    "joint_names": [
        "shoulder_pan_joint",
        "shoulder_lift_joint",
        "elbow_joint",
        "wrist_1_joint",
        "wrist_2_joint",
        "wrist_3_joint"
    ],
    "metrics": {
        "cart_traj_len": 0.5644419363079182,
        "distance_elbow_joint": 0.06515220133647959,
        "distance_shoulder_lift_joint": 0.29311085541265736,
        "distance_shoulder_pan_joint": 0.5754282044796202,
        "distance_wrist_1_joint": 0.3379183839183715,
        "distance_wrist_2_joint": 1.0035917772872627,
        "distance_wrist_3_joint": 0.001987842578673682,
        "smoothness": 6.344131583732827e-16,
        "time": 1.2002005629999999,
        "traj_len": 1.5090358726727027,
        "weighted_distance": 1.9033326328774083
    },
    "planner": "KPIECE",
    "start": {
        "state": {
            "elbow_joint": 2.019306165916698,
            "shoulder_lift_joint": -1.1220205098164344,
            "shoulder_pan_joint": -1.095207207618794,
            "wrist_1_joint": -0.8559671824921639,
            "wrist_2_joint": 0.47596387242952726,
            "wrist_3_joint": 3.159081874673826
        }
    },
    "waypoints": [
        {
            "positions": [
                -1.095207207618794,
                -1.1220205098164344,
                2.019306165916698,
                -0.8559671824921639,
                0.47596387242952726,
                3.159081874673826
            ]
        },
        {
            "positions": [
                -1.1911119083653974,
                -1.1708723190518773,
                2.0084474656939513,
                -0.7996474518391019,
                0.643229168644071,
                3.15875056757738
            ]
        },
        {
            "positions": [
                -1.2870166091120008,
                -1.2197241282873201,
                1.9975887654712048,
                -0.7433277211860401,
                0.8104944648586148,
                3.1584192604809345
            ]
        },
        {
            "positions": [
                -1.3829213098586042,
                -1.2685759375227632,
                1.9867300652484583,
                -0.6870079905329781,
                0.9777597610731585,
                3.1580879533844888
            ]
        },
        {
            "positions": [
                -1.4788260106052074,
                -1.317427746758206,
                1.9758713650257116,
                -0.6306882598799162,
                1.1450250572877023,
                3.1577566462880435
            ]
        },
        {
            "positions": [
                -1.5747307113518108,
                -1.366279555993649,
                1.9650126648029649,
                -0.5743685292268543,
                1.312290353502246,
                3.157425339191598
            ]
        },
        {
            "positions": [
                -1.6706354120984142,
                -1.4151313652290918,
                1.9541539645802184,
                -0.5180487985737924,
                1.4795556497167899,
                3.157094032095152
            ]
        }
    ]
}