{
    "goal": {
        "global_pose": {
            "orientation": {
                "w": -0.4816463035849501,
                "x": 0.5182115481033762,
                "y": 0.4908360881923453,
                "z": -0.5084816262002911
            },
            "position": {
                "x": -0.8240239810943604,
                "y": -0.300875300988555,
                "z": 0.16403168439865112
            }
        },
        "name": "move_to_storage_C"
    },
    "id": "KPIECE_move_to_storage_C_100",
    "joint_names": [
        "shoulder_pan_joint",
        "shoulder_lift_joint",
        "elbow_joint",
        "wrist_1_joint",
        "wrist_2_joint",
        "wrist_3_joint"
    ],
    "metrics": {
        "cart_traj_len": 0.575870305818808,
        "distance_elbow_joint": 0.2547304125668075,
        "distance_shoulder_lift_joint": 0.1892788892296451,
        "distance_shoulder_pan_joint": 0.4923465918722383,
        "distance_wrist_1_joint": 0.06529014971744995,
        "distance_wrist_2_joint": 1.0811656573880009,
        "distance_wrist_3_joint": 0.06513715672187814,
        "smoothness": 2.5376526478085547e-16,
        "time": 0.013272012,
        "traj_len": 1.4655882291749003,
        "weighted_distance": 1.8505888192802926
    },
    "planner": "KPIECE",
    "start": {
        "state": {
            "elbow_joint": 2.010868315001653,
            "shoulder_lift_joint": -1.1634956873357014,
            "shoulder_pan_joint": -2.4736205022346103,
            "wrist_1_joint": -0.8367026794713948,
            "wrist_2_joint": 0.6746043897044093,
            "wrist_3_joint": 3.1335220948105738
        }
    },
    "waypoints": [
        {
            "positions": [
                -2.4736205022346103,
                -1.1634956873357014,
                2.010868315001653,
                -0.8367026794713948,
                0.6746043897044093,
                3.1335220948105738
            ]
        },
        {
            "positions": [
                -2.55567826754665,
                -1.1319492057974272,
                1.9684132462405186,
                -0.8258209878518198,
                0.8547986659357427,
                3.1443782875975534
            ]
        },
        {
            "positions": [
                -2.63773603285869,
                -1.100402724259153,
                1.925958177479384,
                -0.8149392962322448,
                1.0349929421670763,
                3.155234480384533
            ]
        },
        {
            "positions": [
                -2.7197937981707296,
                -1.0688562427208788,
                1.8835031087182492,
                -0.8040576046126697,
                1.2151872183984098,
                3.166090673171513
            ]
        },
        {
            "positions": [
                -2.801851563482769,
                -1.0373097611826048,
                1.8410480399571147,
                -0.7931759129930948,
                1.3953814946297431,
                3.1769468659584925
            ]
        },
        {
            "positions": [
                -2.8839093287948088,
                -1.0057632796443305,
                1.7985929711959803,
                -0.7822942213735198,
                1.5755757708610767,
                3.187803058745472
            ]
        },
        {
            "positions": [
                -2.9659670941068486,
                -0.9742167981060563,
                1.7561379024348456,
                -0.7714125297539448,
                1.7557700470924102,
                3.198659251532452
            ]
        }
    ]
}