{
    "goal": {
        "global_pose": {
            "orientation": {
                "w": 0.7031023480610252,
                "x": -0.7110244013736278,
                "y": 0.0077485991402295624,
                "z": 0.005598929693374583
            },
            "position": {
                "x": -0.8841497679147869,
                "y": 0.44412534475326537,
                "z": 0.3711530566215515
            }
        },
        "name": "move_to_auspresseinheit_D"
    },
    "id": "KPIECE_move_to_auspresseinheit_D_63",
    "joint_names": [
        "shoulder_pan_joint",
        "shoulder_lift_joint",
        "elbow_joint",
        "wrist_1_joint",
        "wrist_2_joint",
        "wrist_3_joint"
    ],
    "metrics": {
        "cart_traj_len": 3.665910814301258,
        "distance_elbow_joint": 3.205537618625706,
        "distance_shoulder_lift_joint": 1.385734752792641,
        "distance_shoulder_pan_joint": 2.7962773400173577,
        "distance_wrist_1_joint": 1.3049277578324765,
        "distance_wrist_2_joint": 1.1515325710796278,
        "distance_wrist_3_joint": 3.0395243116850503,
        "smoothness": 0.08216563148560377,
        "time": 0.050141374,
        "traj_len": 3.5893640595560736,
        "weighted_distance": 4.628071229390821
    },
    "planner": "KPIECE",
    "start": {
        "state": {
            "elbow_joint": 1.8268400409724999,
            "shoulder_lift_joint": -1.0144045787793008,
            "shoulder_pan_joint": 2.6280239544362485,
            "wrist_1_joint": -0.790705565816056,
            "wrist_2_joint": 1.0573557467365533,
            "wrist_3_joint": 3.1851377467193758
        }
    },
    "waypoints": [
        {
            "positions": [
                2.6280239544362485,
                -1.0144045787793008,
                1.8268400409724999,
                -0.790705565816056,
                1.0573557467365533,
                3.1851377467193758
            ]
        },
        {
            "positions": [
                2.6216205442310336,
                -1.0720619461571623,
                1.7218673970553775,
                -0.680094664287457,
                1.1236038879718673,
                3.157962773989566
            ]
        },
        {
            "positions": [
                2.6152171340258192,
                -1.1297193135350239,
                1.616894753138255,
                -0.5694837627588579,
                1.1898520292071812,
                3.130787801259756
            ]
        },
        {
            "positions": [
                2.5254277624255956,
                -1.1707006044394406,
                1.5202627424675625,
                -0.5345255061532038,
                1.1569798908649553,
                3.0344918539621615
            ]
        },
        {
            "positions": [
                2.435638390825372,
                -1.2116818953438573,
                1.4236307317968704,
                -0.49956724954754966,
                1.1241077525227297,
                2.938195906664567
            ]
        },
        {
            "positions": [
                2.345849019225149,
                -1.252663186248274,
                1.326998721126178,
                -0.4646089929418955,
                1.0912356141805037,
                2.8418999593669723
            ]
        },
        {
            "positions": [
                2.2560596476249253,
                -1.2936444771526907,
                1.2303667104554856,
                -0.4296507363362414,
                1.058363475838278,
                2.7456040120693777
            ]
        },
        {
            "positions": [
                2.1662702760247017,
                -1.3346257680571074,
                1.1337346997847935,
                -0.3946924797305873,
                1.0254913374960521,
                2.6493080647717835
            ]
        },
        {
            "positions": [
                2.0764809044244785,
                -1.3756070589615241,
                1.0371026891141013,
                -0.35973422312493314,
                0.9926191991538265,
                2.553012117474189
            ]
        },
        {
            "positions": [
                1.9866915328242547,
                -1.4165883498659408,
                0.9404706784434089,
                -0.324775966519279,
                0.9597470608116007,
                2.4567161701765943
            ]
        },
        {
            "positions": [
                1.8969021612240313,
                -1.4575696407703576,
                0.8438386677727165,
                -0.2898177099136249,
                0.9268749224693749,
                2.3604202228789997
            ]
        },
        {
            "positions": [
                1.8071127896238077,
                -1.4985509316747743,
                0.7472066571020242,
                -0.2548594533079707,
                0.894002784127149,
                2.264124275581405
            ]
        },
        {
            "positions": [
                1.7173234180235841,
                -1.539532222579191,
                0.650574646431332,
                -0.21990119670231661,
                0.8611306457849233,
                2.1678283282838104
            ]
        },
        {
            "positions": [
                1.6275340464233605,
                -1.5805135134836077,
                0.5539426357606396,
                -0.18494294009666246,
                0.8282585074426974,
                2.0715323809862163
            ]
        },
        {
            "positions": [
                1.5377446748231374,
                -1.6214948043880244,
                0.45731062508994746,
                -0.14998468349100835,
                0.7953863691004717,
                1.9752364336886215
            ]
        },
        {
            "positions": [
                1.4479553032229138,
                -1.662476095292441,
                0.3606786144192551,
                -0.1150264268853542,
                0.7625142307582458,
                1.8789404863910268
            ]
        },
        {
            "positions": [
                1.3581659316226902,
                -1.7034573861968578,
                0.2640466037485629,
                -0.08006817027970009,
                0.7296420924160201,
                1.7826445390934325
            ]
        },
        {
            "positions": [
                1.2683765600224668,
                -1.7444386771012743,
                0.16741459307787054,
                -0.04510991367404593,
                0.6967699540737942,
                1.6863485917958378
            ]
        },
        {
            "positions": [
                1.1785871884222432,
                -1.7854199680056912,
                0.07078258240717816,
                -0.010151657068391828,
                0.6638978157315685,
                1.5900526444982432
            ]
        },
        {
            "positions": [
                1.0887978168220198,
                -1.8264012589101077,
                -0.025849428263513996,
                0.024806599537262275,
                0.6310256773893427,
                1.4937566972006489
            ]
        },
        {
            "positions": [
                0.9990084452217962,
                -1.8673825498145247,
                -0.1224814389342066,
                0.05976485614291649,
                0.5981535390471168,
                1.397460749903054
            ]
        },
        {
            "positions": [
                0.9092190736215726,
                -1.9083638407189412,
                -0.21911344960489876,
                0.09472311274857059,
                0.565281400704891,
                1.3011648026054596
            ]
        },
        {
            "positions": [
                0.8194297020213492,
                -1.949345131623358,
                -0.3157454602755909,
                0.1296813693542247,
                0.5324092623626653,
                1.204868855307865
            ]
        },
        {
            "positions": [
                0.7296403304211259,
                -1.9903264225277746,
                -0.4123774709462833,
                0.1646396259598788,
                0.4995371240204395,
                1.1085729080102706
            ]
        },
        {
            "positions": [
                0.639850958820902,
                -2.0313077134321915,
                -0.5090094816169757,
                0.199597882565533,
                0.4666649856782136,
                1.012276960712676
            ]
        },
        {
            "positions": [
                0.5500615872206787,
                -2.072289004336608,
                -0.6056414922876681,
                0.23455613917118712,
                0.4337928473359878,
                0.9159810134150814
            ]
        },
        {
            "positions": [
                0.4602722156204555,
                -2.1132702952410245,
                -0.70227350295836,
                0.2695143957768412,
                0.400920708993762,
                0.8196850661174868
            ]
        },
        {
            "positions": [
                0.3704828440202319,
                -2.1542515861454414,
                -0.7989055136290524,
                0.3044726523824953,
                0.3680485706515363,
                0.7233891188198927
            ]
        },
        {
            "positions": [
                0.2806934724200083,
                -2.1952328770498584,
                -0.8955375242997448,
                0.33943090898814954,
                0.3351764323093104,
                0.6270931715222976
            ]
        },
        {
            "positions": [
                0.1909041008197847,
                -2.236214167954275,
                -0.9921695349704371,
                0.37438916559380364,
                0.3023042939670846,
                0.530797224224703
            ]
        },
        {
            "positions": [
                0.1011147292195611,
                -2.2771954588586913,
                -1.088801545641129,
                0.40934742219945774,
                0.2694321556248588,
                0.4345012769271088
            ]
        },
        {
            "positions": [
                0.01132535761933795,
                -2.3181767497631083,
                -1.1854335563118215,
                0.44430567880511174,
                0.2365600172826331,
                0.3382053296295142
            ]
        },
        {
            "positions": [
                -0.07846401398088565,
                -2.359158040667525,
                -1.2820655669825138,
                0.47926393541076606,
                0.20368787894040719,
                0.2419093823319196
            ]
        },
        {
            "positions": [
                -0.1682533855811092,
                -2.4001393315719417,
                -1.378697577653206,
                0.5142221920164203,
                0.1708157405981813,
                0.14561343503432522
            ]
        }
    ]
}