{
    "goal": {
        "global_pose": {
            "orientation": {
                "w": -0.4816463035849501,
                "x": 0.5182115481033762,
                "y": 0.4908360881923453,
                "z": -0.5084816262002911
            },
            "position": {
                "x": -0.8240239810943604,
                "y": -0.300875300988555,
                "z": 0.16403168439865112
            }
        },
        "name": "move_to_storage_C"
    },
    "id": "LBKPIECE_move_to_storage_C_134",
    "joint_names": [
        "shoulder_pan_joint",
        "shoulder_lift_joint",
        "elbow_joint",
        "wrist_1_joint",
        "wrist_2_joint",
        "wrist_3_joint"
    ],
    "metrics": {
        "cart_traj_len": 0.5770069316198166,
        "distance_elbow_joint": 0.2611634224257018,
        "distance_shoulder_lift_joint": 0.18935715216791327,
        "distance_shoulder_pan_joint": 0.4957830342138334,
        "distance_wrist_1_joint": 0.08989827948435158,
        "distance_wrist_2_joint": 1.0606700740631436,
        "distance_wrist_3_joint": 0.05950996254530638,
        "smoothness": 5.075305295617109e-16,
        "time": 2.394714877,
        "traj_len": 1.4684624356449334,
        "weighted_distance": 1.8509376552273062
    },
    "planner": "LBKPIECE",
    "start": {
        "state": {
            "elbow_joint": 2.010868315001653,
            "shoulder_lift_joint": -1.1634956873357014,
            "shoulder_pan_joint": -2.4736205022346103,
            "wrist_1_joint": -0.8367026794713948,
            "wrist_2_joint": 0.6746043897044093,
            "wrist_3_joint": 3.1335220948105738
        }
    },
    "waypoints": [
        {
            "positions": [
                -2.4736205022346103,
                -1.1634956873357014,
                2.010868315001653,
                -0.8367026794713948,
                0.6746043897044093,
                3.1335220948105738
            ]
        },
        {
            "positions": [
                -2.5562510079369156,
                -1.1319361619743826,
                1.9673410779307028,
                -0.8217196328906695,
                0.8513827353815999,
                3.1434404219014582
            ]
        },
        {
            "positions": [
                -2.6388815136392214,
                -1.1003766366130636,
                1.9238138408597525,
                -0.8067365863099443,
                1.0281610810587904,
                3.1533587489923427
            ]
        },
        {
            "positions": [
                -2.721512019341527,
                -1.0688171112517448,
                1.8802866037888022,
                -0.791753539729219,
                1.2049394267359812,
                3.1632770760832267
            ]
        },
        {
            "positions": [
                -2.8041425250438325,
                -1.0372575858904258,
                1.836759366717852,
                -0.7767704931484937,
                1.3817177724131717,
                3.173195403174111
            ]
        },
        {
            "positions": [
                -2.886773030746138,
                -1.005698060529107,
                1.7932321296469016,
                -0.7617874465677684,
                1.5584961180903623,
                3.1831137302649957
            ]
        },
        {
            "positions": [
                -2.9694035364484437,
                -0.9741385351677881,
                1.7497048925759513,
                -0.7468043999870432,
                1.735274463767553,
                3.19303205735588
            ]
        }
    ]
}