{
    "goal": {
        "global_pose": {
            "orientation": {
                "w": 0.7031023480610252,
                "x": -0.7110244013736278,
                "y": 0.0077485991402295624,
                "z": 0.005598929693374583
            },
            "position": {
                "x": -0.8841497679147869,
                "y": 0.44412534475326537,
                "z": 0.3711530566215515
            }
        },
        "name": "move_to_auspresseinheit_D"
    },
    "id": "LBKPIECE_move_to_auspresseinheit_D_36",
    "joint_names": [
        "shoulder_pan_joint",
        "shoulder_lift_joint",
        "elbow_joint",
        "wrist_1_joint",
        "wrist_2_joint",
        "wrist_3_joint"
    ],
    "metrics": {
        "cart_traj_len": 3.603135046741677,
        "distance_elbow_joint": 3.02047784510147,
        "distance_shoulder_lift_joint": 1.2318200411061402,
        "distance_shoulder_pan_joint": 2.7969888459662124,
        "distance_wrist_1_joint": 2.201151810966093,
        "distance_wrist_2_joint": 1.217074664374047,
        "distance_wrist_3_joint": 2.2039040382353403,
        "smoothness": 0.1316230995422363,
        "time": 2.231367298,
        "traj_len": 3.559693420190748,
        "weighted_distance": 4.5274111584392385
    },
    "planner": "LBKPIECE",
    "start": {
        "state": {
            "elbow_joint": 1.8268400409724999,
            "shoulder_lift_joint": -1.0144045787793008,
            "shoulder_pan_joint": 2.6280239544362485,
            "wrist_1_joint": -0.790705565816056,
            "wrist_2_joint": 1.0573557467365533,
            "wrist_3_joint": 3.1851377467193758
        }
    },
    "waypoints": [
        {
            "positions": [
                2.6280239544362485,
                -1.0144045787793008,
                1.8268400409724999,
                -0.790705565816056,
                1.0573557467365533,
                3.1851377467193758
            ]
        },
        {
            "positions": [
                2.570204915056652,
                -1.0933289472175527,
                1.7622735148143849,
                -0.7826853561658519,
                1.0336330085399572,
                3.0466373791101473
            ]
        },
        {
            "positions": [
                2.5123858756770554,
                -1.1722533156558046,
                1.6977069886562697,
                -0.7746651465156478,
                1.0099102703433611,
                2.908137011500919
            ]
        },
        {
            "positions": [
                2.4545668362974586,
                -1.2511776840940563,
                1.6331404624981545,
                -0.7666449368654435,
                0.9861875321467649,
                2.7696366438916904
            ]
        },
        {
            "positions": [
                2.3967477969178623,
                -1.3301020525323082,
                1.5685739363400395,
                -0.7586247272152394,
                0.9624647939501688,
                2.631136276282462
            ]
        },
        {
            "positions": [
                2.338928757538266,
                -1.40902642097056,
                1.5040074101819245,
                -0.7506045175650353,
                0.9387420557535727,
                2.4926359086732335
            ]
        },
        {
            "positions": [
                2.2811097181586693,
                -1.4879507894088118,
                1.4394408840238093,
                -0.7425843079148311,
                0.9150193175569765,
                2.354135541064005
            ]
        },
        {
            "positions": [
                2.2232906787790725,
                -1.5668751578470637,
                1.3748743578656941,
                -0.734564098264627,
                0.8912965793603804,
                2.2156351734547766
            ]
        },
        {
            "positions": [
                2.165471639399476,
                -1.6457995262853156,
                1.3103078317075791,
                -0.7265438886144229,
                0.8675738411637843,
                2.077134805845548
            ]
        },
        {
            "positions": [
                2.0720941781622986,
                -1.6698165300293206,
                1.210150006274117,
                -0.8120234939650013,
                0.8264821308117333,
                2.120970849740009
            ]
        },
        {
            "positions": [
                1.978716716925121,
                -1.6938335337733257,
                1.1099921808406552,
                -0.8975030993155797,
                0.7853904204596821,
                2.164806893634469
            ]
        },
        {
            "positions": [
                1.8853392556879434,
                -1.7178505375173305,
                1.0098343554071931,
                -0.982982704666158,
                0.744298710107631,
                2.20864293752893
            ]
        },
        {
            "positions": [
                1.7919617944507658,
                -1.7418675412613356,
                0.9096765299737313,
                -1.0684623100167365,
                0.7032069997555799,
                2.25247898142339
            ]
        },
        {
            "positions": [
                1.6985843332135881,
                -1.7658845450053406,
                0.8095187045402692,
                -1.1539419153673147,
                0.6621152894035288,
                2.296315025317851
            ]
        },
        {
            "positions": [
                1.6052068719764105,
                -1.7899015487493457,
                0.7093608791068072,
                -1.2394215207178931,
                0.6210235790514778,
                2.340151069212311
            ]
        },
        {
            "positions": [
                1.511829410739233,
                -1.8139185524933508,
                0.6092030536733453,
                -1.3249011260684715,
                0.5799318686994266,
                2.383987113106772
            ]
        },
        {
            "positions": [
                1.4184519495020553,
                -1.8379355562373556,
                0.5090452282398833,
                -1.41038073141905,
                0.5388401583473754,
                2.427823157001232
            ]
        },
        {
            "positions": [
                1.3250744882648777,
                -1.8619525599813607,
                0.40888740280642133,
                -1.4958603367696282,
                0.49774844799532436,
                2.471659200895693
            ]
        },
        {
            "positions": [
                1.2316970270277001,
                -1.8859695637253657,
                0.30872957737295925,
                -1.5813399421202066,
                0.45665673764327325,
                2.515495244790153
            ]
        },
        {
            "positions": [
                1.1383195657905225,
                -1.9099865674693708,
                0.2085717519394974,
                -1.666819547470785,
                0.41556502729122213,
                2.559331288684614
            ]
        },
        {
            "positions": [
                1.044942104553345,
                -1.9340035712133758,
                0.10841392650603532,
                -1.7522991528213634,
                0.3744733169391711,
                2.603167332579074
            ]
        },
        {
            "positions": [
                0.9515646433161673,
                -1.9580205749573807,
                0.008256101072573463,
                -1.8377787581719418,
                0.3333816065871199,
                2.647003376473535
            ]
        },
        {
            "positions": [
                0.8581871820789895,
                -1.9820375787013857,
                -0.09190172436088861,
                -1.9232583635225202,
                0.29228989623506874,
                2.690839420367995
            ]
        },
        {
            "positions": [
                0.7648097208418121,
                -2.006054582445391,
                -0.19205954979435047,
                -2.008737968873098,
                0.2511981858830178,
                2.734675464262456
            ]
        },
        {
            "positions": [
                0.6714322596046345,
                -2.0300715861893956,
                -0.29221737522781255,
                -2.094217574223677,
                0.21010647553096662,
                2.778511508156916
            ]
        },
        {
            "positions": [
                0.5780547983674567,
                -2.054088589933401,
                -0.3923752006612746,
                -2.1796971795742555,
                0.16901476517891545,
                2.8223475520513768
            ]
        },
        {
            "positions": [
                0.4846773371302793,
                -2.0781055936774058,
                -0.4925330260947365,
                -2.265176784924834,
                0.1279230548268644,
                2.866183595945837
            ]
        },
        {
            "positions": [
                0.39129987589310167,
                -2.102122597421411,
                -0.5926908515281986,
                -2.350656390275412,
                0.08683134447481333,
                2.9100196398402978
            ]
        },
        {
            "positions": [
                0.29792241465592406,
                -2.126139601165416,
                -0.6928486769616606,
                -2.4361359956259907,
                0.04573963412276216,
                2.9538556837347585
            ]
        },
        {
            "positions": [
                0.20454495341874646,
                -2.1501566049094207,
                -0.7930065023951225,
                -2.5216156009765687,
                0.004647923770711104,
                2.9976917276292188
            ]
        },
        {
            "positions": [
                0.11116749218156885,
                -2.174173608653426,
                -0.8931643278285843,
                -2.6070952063271475,
                -0.036443786581340065,
                3.041527771523679
            ]
        },
        {
            "positions": [
                0.017790030944391244,
                -2.198190612397431,
                -0.9933221532620466,
                -2.6925748116777255,
                -0.07753549693339112,
                3.0853638154181398
            ]
        },
        {
            "positions": [
                -0.07558743029278636,
                -2.2222076161414357,
                -1.0934799786955085,
                -2.778054417028304,
                -0.11862720728544218,
                3.1291998593126005
            ]
        },
        {
            "positions": [
                -0.16896489152996405,
                -2.246224619885441,
                -1.1936378041289704,
                -2.8635340223788823,
                -0.15971891763749343,
                3.1730359032070607
            ]
        }
    ]
}