{
    "goal": {
        "global_pose": {
            "orientation": {
                "w": 0.7031023502349854,
                "x": -0.7110244035720825,
                "y": 0.007748599164187908,
                "z": 0.005598929710686207
            },
            "position": {
                "x": 0.11585023208521307,
                "y": 0.44412534475326537,
                "z": 0.3711530566215515
            }
        },
        "name": "move_to_auspresseinheit_A"
    },
    "id": "LBKPIECE_move_to_auspresseinheit_A_125",
    "joint_names": [
        "shoulder_pan_joint",
        "shoulder_lift_joint",
        "elbow_joint",
        "wrist_1_joint",
        "wrist_2_joint",
        "wrist_3_joint"
    ],
    "metrics": {
        "cart_traj_len": 1.1601398468086679,
        "distance_elbow_joint": 0.2953354060046842,
        "distance_shoulder_lift_joint": 2.1908487979022597,
        "distance_shoulder_pan_joint": 2.533813075941533,
        "distance_wrist_1_joint": 5.458199260566402,
        "distance_wrist_2_joint": 1.7183097676480008,
        "distance_wrist_3_joint": 1.7524139807829249,
        "smoothness": 0.8392198772298379,
        "time": 4.065241102,
        "traj_len": 3.7348253357882486,
        "weighted_distance": 4.9628879977918166
    },
    "planner": "LBKPIECE",
    "start": {
        "state": {
            "elbow_joint": 2.4225747245308327,
            "shoulder_lift_joint": -1.373653427065438,
            "shoulder_pan_joint": -0.33786330853087027,
            "wrist_1_joint": -1.0288602302712604,
            "wrist_2_joint": 1.23302299562683,
            "wrist_3_joint": -3.094021725338297
        }
    },
    "waypoints": [
        {
            "positions": [
                -0.33786330853087027,
                -1.373653427065438,
                2.4225747245308327,
                -1.0288602302712604,
                1.23302299562683,
                -3.094021725338297
            ]
        },
        {
            "positions": [
                -0.377122116161371,
                -1.4453077184670469,
                2.4139139531071185,
                -0.8700460791032049,
                1.1738435218655447,
                -3.049254903847839
            ]
        },
        {
            "positions": [
                -0.4163809237918717,
                -1.5169620098686558,
                2.405253181683404,
                -0.7112319279351493,
                1.1146640481042596,
                -3.0044880823573807
            ]
        },
        {
            "positions": [
                -0.45563973142237246,
                -1.5886163012702648,
                2.39659241025969,
                -0.5524177767670937,
                1.0554845743429746,
                -2.9597212608669228
            ]
        },
        {
            "positions": [
                -0.4948985390528732,
                -1.6602705926718737,
                2.3879316388359757,
                -0.39360362559903816,
                0.9963051005816894,
                -2.914954439376465
            ]
        },
        {
            "positions": [
                -0.5341573466833739,
                -1.7319248840734827,
                2.379270867412261,
                -0.23478947443098264,
                0.9371256268204042,
                -2.870187617886007
            ]
        },
        {
            "positions": [
                -0.5734161543138746,
                -1.8035791754750916,
                2.370610095988547,
                -0.07597532326292711,
                0.877946153059119,
                -2.825420796395549
            ]
        },
        {
            "positions": [
                -0.6126749619443753,
                -1.8752334668767006,
                2.361949324564833,
                0.08283882790512842,
                0.818766679297834,
                -2.7806539749050905
            ]
        },
        {
            "positions": [
                -0.651933769574876,
                -1.9468877582783095,
                2.3532885531411183,
                0.24165297907318406,
                0.7595872055365489,
                -2.7358871534146325
            ]
        },
        {
            "positions": [
                -0.6911925772053769,
                -2.0185420496799185,
                2.344627781717404,
                0.4004671302412395,
                0.7004077317752637,
                -2.6911203319241745
            ]
        },
        {
            "positions": [
                -0.7304513848358776,
                -2.090196341081527,
                2.33596701029369,
                0.5592812814092951,
                0.6412282580139786,
                -2.646353510433716
            ]
        },
        {
            "positions": [
                -0.7697101924663783,
                -2.1618506324831364,
                2.327306238869976,
                0.7180954325773508,
                0.5820487842526934,
                -2.601586688943258
            ]
        },
        {
            "positions": [
                -0.808969000096879,
                -2.2335049238847455,
                2.3186454674462613,
                0.8769095837454062,
                0.5228693104914083,
                -2.5568198674528
            ]
        },
        {
            "positions": [
                -0.8482278077273797,
                -2.3051592152863543,
                2.309984696022547,
                1.0357237349134618,
                0.4636898367301231,
                -2.5120530459623422
            ]
        },
        {
            "positions": [
                -0.8874866153578804,
                -2.376813506687963,
                2.301323924598833,
                1.1945378860815172,
                0.404510362968838,
                -2.4672862244718843
            ]
        },
        {
            "positions": [
                -0.9267454229883811,
                -2.448467798089572,
                2.2926631531751185,
                1.353352037249573,
                0.34533088920755284,
                -2.422519402981426
            ]
        },
        {
            "positions": [
                -0.9660042306188819,
                -2.5201220894911813,
                2.2840023817514044,
                1.5121661884176285,
                0.28615141544626777,
                -2.377752581490968
            ]
        },
        {
            "positions": [
                -1.0052630382493826,
                -2.59177638089279,
                2.2753416103276902,
                1.670980339585684,
                0.2269719416849827,
                -2.3329857600005095
            ]
        },
        {
            "positions": [
                -1.0445218458798833,
                -2.663430672294399,
                2.2666808389039756,
                1.8297944907537393,
                0.1677924679236975,
                -2.2882189385100515
            ]
        },
        {
            "positions": [
                -1.083780653510384,
                -2.735084963696008,
                2.2580200674802615,
                1.9886086419217954,
                0.10861299416241232,
                -2.2434521170195936
            ]
        },
        {
            "positions": [
                -0.9786103163949711,
                -2.686295713032967,
                2.2657130527128566,
                1.8450362661351278,
                0.1435482745261526,
                -2.296501785988077
            ]
        },
        {
            "positions": [
                -0.8734399792795582,
                -2.637506462369927,
                2.2734060379454513,
                1.7014638903484605,
                0.17848355488989287,
                -2.349551454956561
            ]
        },
        {
            "positions": [
                -0.7682696421641453,
                -2.588717211706886,
                2.2810990231780464,
                1.5578915145617929,
                0.21341883525363314,
                -2.402601123925044
            ]
        },
        {
            "positions": [
                -0.6630993050487324,
                -2.5399279610438454,
                2.288792008410641,
                1.4143191387751255,
                0.24835411561737342,
                -2.455650792893528
            ]
        },
        {
            "positions": [
                -0.5579289679333195,
                -2.491138710380805,
                2.296484993643236,
                1.270746762988458,
                0.2832893959811137,
                -2.5087004618620115
            ]
        },
        {
            "positions": [
                -0.45275863081790657,
                -2.4423494597177644,
                2.3041779788758308,
                1.1271743872017903,
                0.31822467634485396,
                -2.5617501308304953
            ]
        },
        {
            "positions": [
                -0.3475882937024938,
                -2.3935602090547237,
                2.311870964108426,
                0.9836020114151229,
                0.35315995670859424,
                -2.6147997997989787
            ]
        },
        {
            "positions": [
                -0.24241795658708087,
                -2.3447709583916834,
                2.3195639493410205,
                0.8400296356284553,
                0.3880952370723345,
                -2.6678494687674625
            ]
        },
        {
            "positions": [
                -0.13724761947166797,
                -2.2959817077286426,
                2.3272569345736156,
                0.696457259841788,
                0.4230305174360748,
                -2.720899137735946
            ]
        },
        {
            "positions": [
                -0.032077282356254955,
                -2.247192457065602,
                2.3349499198062103,
                0.5528848840551204,
                0.45796579779981506,
                -2.77394880670443
            ]
        },
        {
            "positions": [
                0.07309305475915795,
                -2.1984032064025616,
                2.3426429050388053,
                0.4093125082684528,
                0.49290107816355533,
                -2.826998475672913
            ]
        },
        {
            "positions": [
                0.17826339187457085,
                -2.149613955739521,
                2.3503358902714,
                0.2657401324817852,
                0.5278363585272956,
                -2.880048144641397
            ]
        },
        {
            "positions": [
                0.28343372898998354,
                -2.10082470507648,
                2.358028875503995,
                0.12216775669511803,
                0.5627716388910358,
                -2.9330978136098804
            ]
        },
        {
            "positions": [
                0.38860406610539644,
                -2.0520354544134394,
                2.3657218607365897,
                -0.02140461909154956,
                0.5977069192547761,
                -2.986147482578364
            ]
        },
        {
            "positions": [
                0.49377440322080934,
                -2.003246203750399,
                2.373414845969185,
                -0.16497699487821693,
                0.6326421996185164,
                -3.0391971515468477
            ]
        },
        {
            "positions": [
                0.5989447403362222,
                -1.9544569530873583,
                2.3811078312017795,
                -0.30854937066488475,
                0.6675774799822567,
                -3.0922468205153315
            ]
        },
        {
            "positions": [
                0.704115077451635,
                -1.9056677024243178,
                2.3888008164343746,
                -0.45212174645155223,
                0.702512760345997,
                -3.145296489483815
            ]
        }
    ]
}