{
    "goal": {
        "global_pose": {
            "orientation": {
                "w": 0.005598929693374612,
                "x": 0.007748599140229565,
                "y": 0.7110244013736278,
                "z": -0.7031023480610252
            },
            "position": {
                "x": 0.1141497679147869,
                "y": -0.7141253447532654,
                "z": 0.3711530566215515
            }
        },
        "name": "move_to_auspresseinheit_B"
    },
    "id": "LBKPIECE_move_to_auspresseinheit_B_12",
    "joint_names": [
        "shoulder_pan_joint",
        "shoulder_lift_joint",
        "elbow_joint",
        "wrist_1_joint",
        "wrist_2_joint",
        "wrist_3_joint"
    ],
    "metrics": {
        "cart_traj_len": 0.5646228707791333,
        "distance_elbow_joint": 0.06193948078824185,
        "distance_shoulder_lift_joint": 0.29431913961954814,
        "distance_shoulder_pan_joint": 0.5771112037023647,
        "distance_wrist_1_joint": 0.3246282298441159,
        "distance_wrist_2_joint": 0.9941375950937312,
        "distance_wrist_3_joint": 0.004088248379799708,
        "smoothness": 0.0,
        "time": 1.946203121,
        "traj_len": 1.5020731997568566,
        "weighted_distance": 1.8929253073286456
    },
    "planner": "LBKPIECE",
    "start": {
        "state": {
            "elbow_joint": 2.019306165916698,
            "shoulder_lift_joint": -1.1220205098164344,
            "shoulder_pan_joint": -1.095207207618794,
            "wrist_1_joint": -0.8559671824921639,
            "wrist_2_joint": 0.47596387242952726,
            "wrist_3_joint": 3.159081874673826
        }
    },
    "waypoints": [
        {
            "positions": [
                -1.095207207618794,
                -1.1220205098164344,
                2.019306165916698,
                -0.8559671824921639,
                0.47596387242952726,
                3.159081874673826
            ]
        },
        {
            "positions": [
                -1.1913924082358547,
                -1.1710736997530258,
                2.0089829191186577,
                -0.8018624775181445,
                0.6416534716118159,
                3.158400499943859
            ]
        },
        {
            "positions": [
                -1.2875776088529156,
                -1.2201268896896171,
                1.9986596723206174,
                -0.7477577725441252,
                0.8073430707941043,
                3.1577191252138928
            ]
        },
        {
            "positions": [
                -1.3837628094699763,
                -1.2691800796262085,
                1.988336425522577,
                -0.6936530675701059,
                0.9730326699763929,
                3.157037750483926
            ]
        },
        {
            "positions": [
                -1.479948010087037,
                -1.3182332695627998,
                1.9780131787245367,
                -0.6395483625960866,
                1.1387222691586814,
                3.156356375753959
            ]
        },
        {
            "positions": [
                -1.576133210704098,
                -1.3672864594993912,
                1.9676899319264964,
                -0.5854436576220673,
                1.30441186834097,
                3.155675001023993
            ]
        },
        {
            "positions": [
                -1.6723184113211587,
                -1.4163396494359826,
                1.9573666851284561,
                -0.531338952648048,
                1.4701014675232584,
                3.154993626294026
            ]
        }
    ]
}