{
    "goal": {
        "global_pose": {
            "orientation": {
                "w": 0.5084816262002911,
                "x": -0.4908360881923452,
                "y": 0.5182115481033761,
                "z": -0.48164630358495003
            },
            "position": {
                "x": 0.5540239810943604,
                "y": -0.46912469901144505,
                "z": 0.16403168439865112
            }
        },
        "name": "move_to_storage_B"
    },
    "id": "LBKPIECE_move_to_storage_B_57",
    "joint_names": [
        "shoulder_pan_joint",
        "shoulder_lift_joint",
        "elbow_joint",
        "wrist_1_joint",
        "wrist_2_joint",
        "wrist_3_joint"
    ],
    "metrics": {
        "cart_traj_len": 0.7491416654789995,
        "distance_elbow_joint": 0.3530818305533219,
        "distance_shoulder_lift_joint": 0.460222095420878,
        "distance_shoulder_pan_joint": 0.4226445022497357,
        "distance_wrist_1_joint": 3.001486626534236,
        "distance_wrist_2_joint": 2.7000168964119307,
        "distance_wrist_3_joint": 3.1246944346623367,
        "smoothness": 0.04407599211310831,
        "time": 1.670703314,
        "traj_len": 3.1720886472216443,
        "weighted_distance": 4.691805492356145
    },
    "planner": "LBKPIECE",
    "start": {
        "state": {
            "elbow_joint": 1.6649325706314817,
            "shoulder_lift_joint": -0.6616388048112454,
            "shoulder_pan_joint": -0.9139837860083814,
            "wrist_1_joint": 2.146757197745094,
            "wrist_2_joint": -2.234196043158733,
            "wrist_3_joint": 0.005471033829999897
        }
    },
    "waypoints": [
        {
            "positions": [
                -0.9139837860083814,
                -0.6616388048112454,
                1.6649325706314817,
                2.146757197745094,
                -2.234196043158733,
                0.005471033829999897
            ]
        },
        {
            "positions": [
                -0.8538270189397228,
                -0.7439074713362349,
                1.6660552845412044,
                2.0583716685717564,
                -2.217149333611437,
                -0.01521110904446084
            ]
        },
        {
            "positions": [
                -0.7936702518710643,
                -0.8261761378612245,
                1.667177998450927,
                1.969986139398419,
                -2.200102624064142,
                -0.03589325191892158
            ]
        },
        {
            "positions": [
                -0.8057634905955611,
                -0.8380035283560604,
                1.681211454560282,
                1.8569975166709165,
                -2.093465684971448,
                -0.1592264578754582
            ]
        },
        {
            "positions": [
                -0.8178567293200578,
                -0.8498309188508963,
                1.695244910669637,
                1.7440088939434142,
                -1.9868287458787548,
                -0.28255966383199477
            ]
        },
        {
            "positions": [
                -0.8299499680445546,
                -0.8616583093457323,
                1.7092783667789921,
                1.6310202712159119,
                -1.8801918067860612,
                -0.40589286978853134
            ]
        },
        {
            "positions": [
                -0.8420432067690513,
                -0.8734856998405682,
                1.7233118228883473,
                1.5180316484884093,
                -1.7735548676933677,
                -0.529226075745068
            ]
        },
        {
            "positions": [
                -0.8541364454935481,
                -0.8853130903354043,
                1.7373452789977022,
                1.4050430257609068,
                -1.666917928600674,
                -0.6525592817016046
            ]
        },
        {
            "positions": [
                -0.8662296842180448,
                -0.8971404808302402,
                1.7513787351070573,
                1.2920544030334045,
                -1.5602809895079806,
                -0.7758924876581411
            ]
        },
        {
            "positions": [
                -0.8783229229425416,
                -0.9089678713250762,
                1.7654121912164125,
                1.179065780305902,
                -1.4536440504152868,
                -0.8992256936146779
            ]
        },
        {
            "positions": [
                -0.8904161616670383,
                -0.9207952618199121,
                1.7794456473257674,
                1.0660771575783996,
                -1.3470071113225932,
                -1.0225588995712145
            ]
        },
        {
            "positions": [
                -0.902509400391535,
                -0.9326226523147481,
                1.7934791034351225,
                0.9530885348508971,
                -1.2403701722298996,
                -1.1458921055277511
            ]
        },
        {
            "positions": [
                -0.9146026391160318,
                -0.944450042809584,
                1.8075125595444776,
                0.8400999121233947,
                -1.133733233137206,
                -1.2692253114842877
            ]
        },
        {
            "positions": [
                -0.9266958778405285,
                -0.9562774333044199,
                1.8215460156538326,
                0.7271112893958922,
                -1.0270962940445125,
                -1.3925585174408244
            ]
        },
        {
            "positions": [
                -0.9387891165650253,
                -0.968104823799256,
                1.8355794717631877,
                0.6141226666683899,
                -0.920459354951819,
                -1.5158917233973608
            ]
        },
        {
            "positions": [
                -0.950882355289522,
                -0.9799322142940918,
                1.8496129278725428,
                0.5011340439408873,
                -0.8138224158591252,
                -1.6392249293538976
            ]
        },
        {
            "positions": [
                -0.9629755940140188,
                -0.9917596047889279,
                1.863646383981898,
                0.3881454212133848,
                -0.7071854767664316,
                -1.7625581353104343
            ]
        },
        {
            "positions": [
                -0.9750688327385155,
                -1.0035869952837637,
                1.8776798400912529,
                0.2751567984858825,
                -0.6005485376737381,
                -1.8858913412669707
            ]
        },
        {
            "positions": [
                -0.9871620714630123,
                -1.0154143857785998,
                1.891713296200608,
                0.16216817575838016,
                -0.4939115985810445,
                -2.009224547223507
            ]
        },
        {
            "positions": [
                -0.999255310187509,
                -1.0272417762734358,
                1.9057467523099632,
                0.04917955303087762,
                -0.3872746594883507,
                -2.132557753180044
            ]
        },
        {
            "positions": [
                -1.0113485489120058,
                -1.0390691667682717,
                1.919780208419318,
                -0.06380906969662492,
                -0.2806377203956574,
                -2.2558909591365803
            ]
        },
        {
            "positions": [
                -1.0234417876365025,
                -1.0508965572631077,
                1.9338136645286732,
                -0.17679769242412702,
                -0.1740007813029636,
                -2.3792241650931167
            ]
        },
        {
            "positions": [
                -1.0355350263609993,
                -1.0627239477579435,
                1.9478471206380283,
                -0.28978631515162956,
                -0.06736384221027025,
                -2.5025573710496536
            ]
        },
        {
            "positions": [
                -1.047628265085496,
                -1.0745513382527796,
                1.9618805767473833,
                -0.4027749378791321,
                0.03927309688242353,
                -2.62589057700619
            ]
        },
        {
            "positions": [
                -1.0597215038099927,
                -1.0863787287476154,
                1.9759140328567384,
                -0.5157635606066346,
                0.14591003597511687,
                -2.749223782962727
            ]
        },
        {
            "positions": [
                -1.0718147425344895,
                -1.0982061192424515,
                1.9899474889660935,
                -0.6287521833341372,
                0.25254697506781065,
                -2.8725569889192633
            ]
        },
        {
            "positions": [
                -1.0839079812589862,
                -1.1100335097372875,
                2.0039809450754484,
                -0.7417408060616393,
                0.359183914160504,
                -2.9958901948757997
            ]
        },
        {
            "positions": [
                -1.096001219983483,
                -1.1218609002321234,
                2.0180144011848036,
                -0.8547294287891418,
                0.46582085325319794,
                -3.1192234008323365
            ]
        }
    ]
}