{
    "goal": {
        "global_pose": {
            "orientation": {
                "w": -0.4816463035849501,
                "x": 0.5182115481033762,
                "y": 0.4908360881923453,
                "z": -0.5084816262002911
            },
            "position": {
                "x": -0.8240239810943604,
                "y": 0.19912469901144506,
                "z": 0.16403168439865112
            }
        },
        "name": "move_to_storage_D"
    },
    "id": "LBKPIECE_move_to_storage_D_57",
    "joint_names": [
        "shoulder_pan_joint",
        "shoulder_lift_joint",
        "elbow_joint",
        "wrist_1_joint",
        "wrist_2_joint",
        "wrist_3_joint"
    ],
    "metrics": {
        "cart_traj_len": 3.8161779386491337,
        "distance_elbow_joint": 4.207184663766508,
        "distance_shoulder_lift_joint": 1.2651494140669444,
        "distance_shoulder_pan_joint": 2.8138153282930816,
        "distance_wrist_1_joint": 2.261056725786448,
        "distance_wrist_2_joint": 0.8799854700815952,
        "distance_wrist_3_joint": 3.1419536091716616,
        "smoothness": 0.016411584808016317,
        "time": 0.6810801049999999,
        "traj_len": 3.8169549658289443,
        "weighted_distance": 4.898376733712669
    },
    "planner": "LBKPIECE",
    "start": {
        "state": {
            "elbow_joint": -2.384821997420982,
            "shoulder_lift_joint": -2.2788054674887404,
            "shoulder_pan_joint": -0.18546946417610016,
            "wrist_1_joint": 1.4845937964226739,
            "wrist_2_joint": 0.1789877726866377,
            "wrist_3_joint": 0.03710572555276528
        }
    },
    "waypoints": [
        {
            "positions": [
                -0.18546946417610016,
                -2.2788054674887404,
                -2.384821997420982,
                1.4845937964226739,
                0.1789877726866377,
                0.03710572555276528
            ]
        },
        {
            "positions": [
                -0.17788224464503988,
                -2.276313919403923,
                -2.374060894410226,
                1.4755095841724395,
                0.17869168939987978,
                0.036234428760283904
            ]
        },
        {
            "positions": [
                -0.09891359418582923,
                -2.2402548897246963,
                -2.2594440010562256,
                1.4144267149628358,
                0.19615372126785402,
                0.11226224195786501
            ]
        },
        {
            "positions": [
                -0.01994494372661859,
                -2.20419586004547,
                -2.144827107702225,
                1.353343845753232,
                0.21361575313582823,
                0.1882900551554461
            ]
        },
        {
            "positions": [
                0.05902370673259205,
                -2.168136830366244,
                -2.030210214348225,
                1.2922609765436284,
                0.23107778500380247,
                0.2643178683530272
            ]
        },
        {
            "positions": [
                0.1379923571918027,
                -2.1320778006870174,
                -1.9155933209942242,
                1.2311781073340247,
                0.24853981687177668,
                0.3403456815506083
            ]
        },
        {
            "positions": [
                0.21696100765101334,
                -2.096018771007791,
                -1.8009764276402238,
                1.170095238124421,
                0.2660018487397509,
                0.4163734947481894
            ]
        },
        {
            "positions": [
                0.295929658110224,
                -2.0599597413285644,
                -1.6863595342862232,
                1.1090123689148172,
                0.28346388060772515,
                0.49240130794577053
            ]
        },
        {
            "positions": [
                0.3748983085694346,
                -2.023900711649338,
                -1.5717426409322228,
                1.0479294997052135,
                0.3009259124756994,
                0.5684291211433516
            ]
        },
        {
            "positions": [
                0.45386695902864527,
                -1.9878416819701117,
                -1.4571257475782224,
                0.9868466304956098,
                0.31838794434367357,
                0.6444569343409328
            ]
        },
        {
            "positions": [
                0.5328356094878559,
                -1.9517826522908854,
                -1.342508854224222,
                0.9257637612860062,
                0.3358499762116478,
                0.7204847475385139
            ]
        },
        {
            "positions": [
                0.6118042599470666,
                -1.915723622611659,
                -1.2278919608702217,
                0.8646808920764025,
                0.35331200807962204,
                0.796512560736095
            ]
        },
        {
            "positions": [
                0.6907729104062772,
                -1.8796645929324325,
                -1.113275067516221,
                0.8035980228667988,
                0.3707740399475963,
                0.8725403739336761
            ]
        },
        {
            "positions": [
                0.7697415608654878,
                -1.8436055632532062,
                -0.9986581741622207,
                0.7425151536571951,
                0.3882360718155705,
                0.9485681871312571
            ]
        },
        {
            "positions": [
                0.8487102113246985,
                -1.8075465335739798,
                -0.8840412808082203,
                0.6814322844475914,
                0.40569810368354475,
                1.0245960003288381
            ]
        },
        {
            "positions": [
                0.9276788617839091,
                -1.7714875038947535,
                -0.7694243874542197,
                0.6203494152379877,
                0.423160135551519,
                1.1006238135264192
            ]
        },
        {
            "positions": [
                1.0066475122431198,
                -1.735428474215527,
                -0.6548074941002193,
                0.559266546028384,
                0.44062216741949317,
                1.1766516267240004
            ]
        },
        {
            "positions": [
                1.0856161627023304,
                -1.6993694445363006,
                -0.5401906007462189,
                0.4981836768187803,
                0.4580841992874674,
                1.2526794399215815
            ]
        },
        {
            "positions": [
                1.164584813161541,
                -1.6633104148570743,
                -0.42557370739221856,
                0.4371008076091767,
                0.47554623115544165,
                1.3287072531191626
            ]
        },
        {
            "positions": [
                1.2435534636207517,
                -1.627251385177848,
                -0.3109568140382182,
                0.376017938399573,
                0.4930082630234159,
                1.4047350663167437
            ]
        },
        {
            "positions": [
                1.3225221140799623,
                -1.5911923554986216,
                -0.1963399206842178,
                0.3149350691899693,
                0.5104702948913901,
                1.4807628795143248
            ]
        },
        {
            "positions": [
                1.401490764539173,
                -1.5551333258193951,
                -0.08172302733021741,
                0.25385219998036557,
                0.5279323267593643,
                1.556790692711906
            ]
        },
        {
            "positions": [
                1.4804594149983836,
                -1.5190742961401686,
                0.032893866023783414,
                0.19276933077076186,
                0.5453943586273385,
                1.632818505909487
            ]
        },
        {
            "positions": [
                1.5594280654575943,
                -1.4830152664609424,
                0.1475107593777838,
                0.13168646156115815,
                0.5628563904953128,
                1.7088463191070682
            ]
        },
        {
            "positions": [
                1.638396715916805,
                -1.4469562367817161,
                0.2621276527317842,
                0.07060359235155445,
                0.580318422363287,
                1.7848741323046493
            ]
        },
        {
            "positions": [
                1.7173653663760156,
                -1.4108972071024897,
                0.37674454608578456,
                0.009520723141950738,
                0.5977804542312612,
                1.8609019455022302
            ]
        },
        {
            "positions": [
                1.7963340168352262,
                -1.3748381774232632,
                0.49136143943978494,
                -0.05156214606765297,
                0.6152424860992354,
                1.9369297586998113
            ]
        },
        {
            "positions": [
                1.8753026672944368,
                -1.3387791477440367,
                0.6059783327937853,
                -0.11264501527725668,
                0.6327045179672097,
                2.0129575718973927
            ]
        },
        {
            "positions": [
                1.9542713177536475,
                -1.3027201180648105,
                0.7205952261477857,
                -0.17372788448686038,
                0.6501665498351838,
                2.088985385094974
            ]
        },
        {
            "positions": [
                2.0332399682128584,
                -1.266661088385584,
                0.8352121195017865,
                -0.2348107536964641,
                0.6676285817031582,
                2.165013198292555
            ]
        },
        {
            "positions": [
                2.112208618672069,
                -1.2306020587063577,
                0.9498290128557869,
                -0.2958936229060678,
                0.6850906135711323,
                2.241041011490136
            ]
        },
        {
            "positions": [
                2.1911772691312796,
                -1.1945430290271313,
                1.0644459062097873,
                -0.3569764921156715,
                0.7025526454391066,
                2.317068824687717
            ]
        },
        {
            "positions": [
                2.2701459195904903,
                -1.158483999347905,
                1.1790627995637877,
                -0.4180593613252752,
                0.7200146773070808,
                2.3930966378852983
            ]
        },
        {
            "positions": [
                2.349114570049701,
                -1.1224249696686786,
                1.2936796929177878,
                -0.47914223053487887,
                0.737476709175055,
                2.4691244510828794
            ]
        },
        {
            "positions": [
                2.3956531190609143,
                -1.104296816960865,
                1.3817935218224107,
                -0.5286956803396946,
                0.7909607703449987,
                2.5871564994256433
            ]
        },
        {
            "positions": [
                2.442191668072128,
                -1.086168664253051,
                1.4699073507270337,
                -0.5782491301445104,
                0.8444448315149423,
                2.7051885477684077
            ]
        },
        {
            "positions": [
                2.4887302170833414,
                -1.0680405115452372,
                1.5580211796316568,
                -0.6278025799493262,
                0.8979288926848861,
                2.8232205961111716
            ]
        },
        {
            "positions": [
                2.5352687660945548,
                -1.0499123588374235,
                1.6461350085362796,
                -0.6773560297541419,
                0.9514129538548297,
                2.9412526444539355
            ]
        },
        {
            "positions": [
                2.5818073151057686,
                -1.0317842061296099,
                1.7342488374409024,
                -0.7269094795589577,
                1.0048970150247734,
                3.0592846927967
            ]
        },
        {
            "positions": [
                2.628345864116982,
                -1.013656053421796,
                1.8223626663455255,
                -0.7764629293637735,
                1.058381076194717,
                3.177316741139464
            ]
        }
    ]
}