{
    "goal": {
        "global_pose": {
            "orientation": {
                "w": 0.005598929693374612,
                "x": 0.007748599140229565,
                "y": 0.7110244013736278,
                "z": -0.7031023480610252
            },
            "position": {
                "x": 0.1141497679147869,
                "y": -0.7141253447532654,
                "z": 0.3711530566215515
            }
        },
        "name": "move_to_auspresseinheit_B"
    },
    "id": "LBKPIECE_move_to_auspresseinheit_B_150",
    "joint_names": [
        "shoulder_pan_joint",
        "shoulder_lift_joint",
        "elbow_joint",
        "wrist_1_joint",
        "wrist_2_joint",
        "wrist_3_joint"
    ],
    "metrics": {
        "cart_traj_len": 0.5655863025284545,
        "distance_elbow_joint": 0.06179403920573345,
        "distance_shoulder_lift_joint": 0.2946700694089155,
        "distance_shoulder_pan_joint": 0.5769098357623459,
        "distance_wrist_1_joint": 0.31802037593020993,
        "distance_wrist_2_joint": 0.9974109407065228,
        "distance_wrist_3_joint": 0.006919910713140798,
        "smoothness": 2.5376526478085547e-16,
        "time": 4.603273383,
        "traj_len": 1.5019071781328126,
        "weighted_distance": 1.8934086483878438
    },
    "planner": "LBKPIECE",
    "start": {
        "state": {
            "elbow_joint": 2.019306165916698,
            "shoulder_lift_joint": -1.1220205098164344,
            "shoulder_pan_joint": -1.095207207618794,
            "wrist_1_joint": -0.8559671824921639,
            "wrist_2_joint": 0.47596387242952726,
            "wrist_3_joint": 3.159081874673826
        }
    },
    "waypoints": [
        {
            "positions": [
                -1.095207207618794,
                -1.1220205098164344,
                2.019306165916698,
                -0.8559671824921639,
                0.47596387242952726,
                3.159081874673826
            ]
        },
        {
            "positions": [
                -1.1913588469125183,
                -1.1711321880512537,
                2.009007159382409,
                -0.8029637865037955,
                0.6421990292139477,
                3.157928556221636
            ]
        },
        {
            "positions": [
                -1.2875104862062425,
                -1.2202438662860728,
                1.99870815284812,
                -0.7499603905154272,
                0.8084341859983681,
                3.1567752377694456
            ]
        },
        {
            "positions": [
                -1.383662125499967,
                -1.2693555445208922,
                1.9884091463138311,
                -0.6969569945270588,
                0.9746693427827886,
                3.155621919317255
            ]
        },
        {
            "positions": [
                -1.479813764793691,
                -1.3184672227557115,
                1.9781101397795424,
                -0.6439535985386906,
                1.140904499567209,
                3.1544686008650653
            ]
        },
        {
            "positions": [
                -1.5759654040874156,
                -1.3675789009905306,
                1.9678111332452535,
                -0.5909502025503222,
                1.3071396563516295,
                3.1533152824128754
            ]
        },
        {
            "positions": [
                -1.6721170433811399,
                -1.41669057922535,
                1.9575121267109645,
                -0.5379468065619539,
                1.47337481313605,
                3.152161963960685
            ]
        }
    ]
}