{
    "goal": {
        "global_pose": {
            "orientation": {
                "w": -0.4816463035849501,
                "x": 0.5182115481033762,
                "y": 0.4908360881923453,
                "z": -0.5084816262002911
            },
            "position": {
                "x": -0.8240239810943604,
                "y": -0.300875300988555,
                "z": 0.16403168439865112
            }
        },
        "name": "move_to_storage_C"
    },
    "id": "LBKPIECE_move_to_storage_C_98",
    "joint_names": [
        "shoulder_pan_joint",
        "shoulder_lift_joint",
        "elbow_joint",
        "wrist_1_joint",
        "wrist_2_joint",
        "wrist_3_joint"
    ],
    "metrics": {
        "cart_traj_len": 0.5765156355827828,
        "distance_elbow_joint": 0.2563643350762379,
        "distance_shoulder_lift_joint": 0.18824986512082165,
        "distance_shoulder_pan_joint": 0.49526008350436035,
        "distance_wrist_1_joint": 0.07168313373012403,
        "distance_wrist_2_joint": 1.0624467639681883,
        "distance_wrist_3_joint": 0.06479228891486999,
        "smoothness": 0.0,
        "time": 2.698922954,
        "traj_len": 1.4624624680020348,
        "weighted_distance": 1.8445896415849934
    },
    "planner": "LBKPIECE",
    "start": {
        "state": {
            "elbow_joint": 2.010868315001653,
            "shoulder_lift_joint": -1.1634956873357014,
            "shoulder_pan_joint": -2.4736205022346103,
            "wrist_1_joint": -0.8367026794713948,
            "wrist_2_joint": 0.6746043897044093,
            "wrist_3_joint": 3.1335220948105738
        }
    },
    "waypoints": [
        {
            "positions": [
                -2.4736205022346103,
                -1.1634956873357014,
                2.010868315001653,
                -0.8367026794713948,
                0.6746043897044093,
                3.1335220948105738
            ]
        },
        {
            "positions": [
                -2.556163849485337,
                -1.1321207098155646,
                1.9681409258222802,
                -0.8247554905163741,
                0.851678850365774,
                3.144320809629719
            ]
        },
        {
            "positions": [
                -2.6387071967360636,
                -1.1007457322954275,
                1.925413536642907,
                -0.8128083015613534,
                1.0287533110271387,
                3.155119524448864
            ]
        },
        {
            "positions": [
                -2.7212505439867902,
                -1.0693707547752906,
                1.8826861474635341,
                -0.8008611126063327,
                1.2058277716885035,
                3.1659182392680085
            ]
        },
        {
            "positions": [
                -2.8037938912375173,
                -1.0379957772551536,
                1.8399587582841612,
                -0.7889139236513121,
                1.382902232349868,
                3.1767169540871536
            ]
        },
        {
            "positions": [
                -2.886337238488244,
                -1.0066207997350167,
                1.797231369104788,
                -0.7769667346962914,
                1.5599766930112329,
                3.1875156689062987
            ]
        },
        {
            "positions": [
                -2.9688805857389706,
                -0.9752458222148798,
                1.7545039799254152,
                -0.7650195457412707,
                1.7370511536725977,
                3.1983143837254437
            ]
        }
    ]
}