{
    "goal": {
        "global_pose": {
            "orientation": {
                "w": 0.7031023480610252,
                "x": -0.7110244013736278,
                "y": 0.0077485991402295624,
                "z": 0.005598929693374583
            },
            "position": {
                "x": -0.8841497679147869,
                "y": 0.44412534475326537,
                "z": 0.3711530566215515
            }
        },
        "name": "move_to_auspresseinheit_D"
    },
    "id": "LBKPIECE_move_to_auspresseinheit_D_39",
    "joint_names": [
        "shoulder_pan_joint",
        "shoulder_lift_joint",
        "elbow_joint",
        "wrist_1_joint",
        "wrist_2_joint",
        "wrist_3_joint"
    ],
    "metrics": {
        "cart_traj_len": 3.5874103637611854,
        "distance_elbow_joint": 3.016075605896158,
        "distance_shoulder_lift_joint": 1.2329314661548598,
        "distance_shoulder_pan_joint": 2.7967136510067907,
        "distance_wrist_1_joint": 2.0821814083353076,
        "distance_wrist_2_joint": 1.2156239360116254,
        "distance_wrist_3_joint": 6.272162634267458,
        "smoothness": 8.478066778729213e-16,
        "time": 2.911362402,
        "traj_len": 4.076234622991198,
        "weighted_distance": 5.697176433511081
    },
    "planner": "LBKPIECE",
    "start": {
        "state": {
            "elbow_joint": 1.8268400409724999,
            "shoulder_lift_joint": -1.0144045787793008,
            "shoulder_pan_joint": 2.6280239544362485,
            "wrist_1_joint": -0.790705565816056,
            "wrist_2_joint": 1.0573557467365533,
            "wrist_3_joint": 3.1851377467193758
        }
    },
    "waypoints": [
        {
            "positions": [
                2.6280239544362485,
                -1.0144045787793008,
                1.8268400409724999,
                -0.790705565816056,
                1.0573557467365533,
                3.1851377467193758
            ]
        },
        {
            "positions": [
                2.5914435169719727,
                -1.062997774801905,
                1.7958827039688248,
                -0.8101999096236774,
                1.0027156299145221,
                3.022796521222485
            ]
        },
        {
            "positions": [
                2.5548630795076974,
                -1.1115909708245095,
                1.7649253669651495,
                -0.8296942534312988,
                0.9480755130924909,
                2.8604552957255946
            ]
        },
        {
            "positions": [
                2.518282642043422,
                -1.160184166847114,
                1.7339680299614744,
                -0.84918859723892,
                0.8934353962704598,
                2.698114070228704
            ]
        },
        {
            "positions": [
                2.4817022045791464,
                -1.2087773628697183,
                1.703010692957799,
                -0.8686829410465414,
                0.8387952794484286,
                2.5357728447318135
            ]
        },
        {
            "positions": [
                2.4451217671148706,
                -1.2573705588923225,
                1.672053355954124,
                -0.8881772848541628,
                0.7841551626263974,
                2.373431619234923
            ]
        },
        {
            "positions": [
                2.4085413296505953,
                -1.305963754914927,
                1.6410960189504489,
                -0.9076716286617841,
                0.7295150458043662,
                2.2110903937380324
            ]
        },
        {
            "positions": [
                2.37196089218632,
                -1.3545569509375315,
                1.6101386819467736,
                -0.9271659724694055,
                0.674874928982335,
                2.048749168241142
            ]
        },
        {
            "positions": [
                2.3353804547220443,
                -1.4031501469601357,
                1.5791813449430985,
                -0.9466603162770268,
                0.6202348121603038,
                1.8864079427442513
            ]
        },
        {
            "positions": [
                2.263835593256542,
                -1.4272697440451079,
                1.5000837189469054,
                -1.0016953636448651,
                0.5979918692621503,
                1.744309861878756
            ]
        },
        {
            "positions": [
                2.192290731791039,
                -1.45138934113008,
                1.4209860929507123,
                -1.0567304110127032,
                0.5757489263639967,
                1.6022117810132608
            ]
        },
        {
            "positions": [
                2.120745870325537,
                -1.4755089382150521,
                1.3418884669545195,
                -1.1117654583805414,
                0.5535059834658431,
                1.4601137001477658
            ]
        },
        {
            "positions": [
                2.0492010088600345,
                -1.4996285353000243,
                1.2627908409583264,
                -1.1668005057483797,
                0.5312630405676896,
                1.3180156192822705
            ]
        },
        {
            "positions": [
                1.977656147394532,
                -1.5237481323849964,
                1.1836932149621333,
                -1.2218355531162177,
                0.5090200976695359,
                1.1759175384167753
            ]
        },
        {
            "positions": [
                1.9061112859290295,
                -1.5478677294699685,
                1.1045955889659402,
                -1.276870600484056,
                0.4867771547713824,
                1.0338194575512802
            ]
        },
        {
            "positions": [
                1.834566424463527,
                -1.5719873265549407,
                1.0254979629697472,
                -1.3319056478518942,
                0.4645342118732288,
                0.8917213766857849
            ]
        },
        {
            "positions": [
                1.7630215629980244,
                -1.5961069236399128,
                0.9464003369735542,
                -1.3869406952197325,
                0.4422912689750752,
                0.7496232958202897
            ]
        },
        {
            "positions": [
                1.691476701532522,
                -1.620226520724885,
                0.8673027109773612,
                -1.4419757425875706,
                0.42004832607692166,
                0.6075252149547947
            ]
        },
        {
            "positions": [
                1.6199318400670197,
                -1.644346117809857,
                0.7882050849811681,
                -1.4970107899554088,
                0.3978053831787681,
                0.4654271340892995
            ]
        },
        {
            "positions": [
                1.548386978601517,
                -1.6684657148948292,
                0.7091074589849751,
                -1.552045837323247,
                0.3755624402806145,
                0.32332905322380423
            ]
        },
        {
            "positions": [
                1.4768421171360147,
                -1.6925853119798013,
                0.630009832988782,
                -1.6070808846910851,
                0.35331949738246093,
                0.18123097235830898
            ]
        },
        {
            "positions": [
                1.4052972556705121,
                -1.7167049090647737,
                0.5509122069925889,
                -1.6621159320589234,
                0.33107655448430734,
                0.03913289149281374
            ]
        },
        {
            "positions": [
                1.3337523942050096,
                -1.7408245061497456,
                0.47181458099639584,
                -1.7171509794267616,
                0.30883361158615374,
                -0.10296518937268151
            ]
        },
        {
            "positions": [
                1.2622075327395073,
                -1.7649441032347177,
                0.392716955000203,
                -1.7721860267946,
                0.2865906686880002,
                -0.2450632702381763
            ]
        },
        {
            "positions": [
                1.1906626712740047,
                -1.7890637003196899,
                0.3136193290040099,
                -1.8272210741624382,
                0.2643477257898466,
                -0.3871613511036718
            ]
        },
        {
            "positions": [
                1.1191178098085022,
                -1.8131832974046622,
                0.23452170300781683,
                -1.8822561215302762,
                0.24210478289169302,
                -0.5292594319691668
            ]
        },
        {
            "positions": [
                1.0475729483429999,
                -1.8373028944896341,
                0.15542407701162397,
                -1.9372911688981143,
                0.21986183999353948,
                -0.6713575128346618
            ]
        },
        {
            "positions": [
                0.9760280868774973,
                -1.8614224915746065,
                0.0763264510154309,
                -1.9923262162659525,
                0.19761889709538594,
                -0.8134555937001573
            ]
        },
        {
            "positions": [
                0.904483225411995,
                -1.8855420886595784,
                -0.002771174980762181,
                -2.047361263633791,
                0.17537595419723234,
                -0.9555536745656523
            ]
        },
        {
            "positions": [
                0.8329383639464925,
                -1.9096616857445508,
                -0.08186880097695526,
                -2.102396311001629,
                0.15313301129907875,
                -1.0976517554311478
            ]
        },
        {
            "positions": [
                0.7613935024809899,
                -1.9337812828295227,
                -0.16096642697314834,
                -2.1574313583694673,
                0.13089006840092515,
                -1.2397498362966428
            ]
        },
        {
            "positions": [
                0.6898486410154874,
                -1.957900879914495,
                -0.2400640529693414,
                -2.212466405737305,
                0.10864712550277156,
                -1.3818479171621383
            ]
        },
        {
            "positions": [
                0.6183037795499848,
                -1.982020476999467,
                -0.3191616789655345,
                -2.267501453105144,
                0.08640418260461802,
                -1.5239459980276333
            ]
        },
        {
            "positions": [
                0.5467589180844825,
                -2.0061400740844393,
                -0.39825930496172757,
                -2.3225365004729817,
                0.06416123970646437,
                -1.6660440788931283
            ]
        },
        {
            "positions": [
                0.47521405661898,
                -2.0302596711694116,
                -0.47735693095792064,
                -2.3775715478408204,
                0.04191829680831083,
                -1.8081421597586238
            ]
        },
        {
            "positions": [
                0.40366919515347743,
                -2.0543792682543836,
                -0.5564545569541137,
                -2.432606595208658,
                0.01967535391015718,
                -1.9502402406241188
            ]
        },
        {
            "positions": [
                0.3321243336879749,
                -2.0784988653393555,
                -0.6355521829503068,
                -2.4876416425764964,
                -0.002567588987996361,
                -2.0923383214896143
            ]
        },
        {
            "positions": [
                0.2605794722224726,
                -2.102618462424328,
                -0.7146498089464999,
                -2.5426766899443347,
                -0.0248105318861499,
                -2.2344364023551093
            ]
        },
        {
            "positions": [
                0.18903461075697026,
                -2.1267380595092997,
                -0.7937474349426925,
                -2.5977117373121725,
                -0.04705347478430344,
                -2.376534483220604
            ]
        },
        {
            "positions": [
                0.11748974929146794,
                -2.150857656594272,
                -0.8728450609388856,
                -2.6527467846800112,
                -0.06929641768245698,
                -2.5186325640860994
            ]
        },
        {
            "positions": [
                0.045944887825965175,
                -2.174977253679244,
                -0.9519426869350787,
                -2.707781832047849,
                -0.09153936058061063,
                -2.660730644951595
            ]
        },
        {
            "positions": [
                -0.025599973639537144,
                -2.1990968507642163,
                -1.0310403129312717,
                -2.7628168794156873,
                -0.11378230347876417,
                -2.8028287258170903
            ]
        },
        {
            "positions": [
                -0.0971448351050399,
                -2.2232164478491887,
                -1.1101379389274648,
                -2.8178519267835256,
                -0.13602524637691782,
                -2.944926806682585
            ]
        },
        {
            "positions": [
                -0.16868969657054242,
                -2.2473360449341606,
                -1.1892355649236581,
                -2.872886974151364,
                -0.15826818927507139,
                -3.08702488754808
            ]
        }
    ]
}