{
    "goal": {
        "global_pose": {
            "orientation": {
                "w": -0.00223480608172531,
                "x": 0.0024358444001904467,
                "y": 0.7094548369677653,
                "z": -0.704743149386269
            },
            "position": {
                "x": -0.37947507619857795,
                "y": -0.6371506643295288,
                "z": 0.19426114857196808
            }
        },
        "name": "move_to_magneteinheit_C"
    },
    "id": "LBKPIECE_move_to_magneteinheit_C_72",
    "joint_names": [
        "shoulder_pan_joint",
        "shoulder_lift_joint",
        "elbow_joint",
        "wrist_1_joint",
        "wrist_2_joint",
        "wrist_3_joint"
    ],
    "metrics": {
        "cart_traj_len": 1.7224483431052338,
        "distance_elbow_joint": 1.443421314387194,
        "distance_shoulder_lift_joint": 0.6639088068116326,
        "distance_shoulder_pan_joint": 1.4776701805529484,
        "distance_wrist_1_joint": 0.7921742585363166,
        "distance_wrist_2_joint": 1.333204100068601,
        "distance_wrist_3_joint": 2.1222846527535446,
        "smoothness": 1.4336647861331275,
        "time": 0.96325695,
        "traj_len": 2.7986895706937984,
        "weighted_distance": 3.7686351610659057
    },
    "planner": "LBKPIECE",
    "start": {
        "state": {
            "elbow_joint": 1.9565354006590394,
            "shoulder_lift_joint": -1.4165861576513559,
            "shoulder_pan_joint": -1.6717766223277177,
            "wrist_1_joint": -0.5286633288215096,
            "wrist_2_joint": 1.4727565892594296,
            "wrist_3_joint": 3.1593482883155493
        }
    },
    "waypoints": [
        {
            "positions": [
                -1.6717766223277177,
                -1.4165861576513559,
                1.9565354006590394,
                -0.5286633288215096,
                1.4727565892594296,
                3.1593482883155493
            ]
        },
        {
            "positions": [
                -1.5655773213230746,
                -1.4468242526323198,
                1.9677664717186314,
                -0.49103644961638176,
                1.4052129855220066,
                3.143593483132247
            ]
        },
        {
            "positions": [
                -1.5539049573639425,
                -1.4380858805116348,
                1.8800844853088052,
                -0.5027932520100481,
                1.3347279945258248,
                3.0097396878056735
            ]
        },
        {
            "positions": [
                -1.5680198705128299,
                -1.4324281123781706,
                1.8056751670840923,
                -0.5122377316143062,
                1.26703367094522,
                2.8928237571723465
            ]
        },
        {
            "positions": [
                -1.5821347836617172,
                -1.4267703442447064,
                1.7312658488593793,
                -0.5216822112185642,
                1.199339347364615,
                2.775907826539019
            ]
        },
        {
            "positions": [
                -1.5962496968106046,
                -1.4211125761112422,
                1.6568565306346663,
                -0.5311266908228223,
                1.13164502378401,
                2.658991895905692
            ]
        },
        {
            "positions": [
                -1.6284284010331993,
                -1.4162351129913038,
                1.566788474211432,
                -0.5410509757222183,
                1.0412368581098916,
                2.514320318972439
            ]
        },
        {
            "positions": [
                -1.6606071052557938,
                -1.4113576498713654,
                1.4767204177881978,
                -0.5509752606216142,
                0.9508286924357734,
                2.369648742039186
            ]
        },
        {
            "positions": [
                -1.6927858094783885,
                -1.406480186751427,
                1.3866523613649635,
                -0.5608995455210102,
                0.8604205267616549,
                2.2249771651059325
            ]
        },
        {
            "positions": [
                -1.7248116177644195,
                -1.4079024286309543,
                1.352196578407481,
                -0.5617441399599299,
                0.8118143277783482,
                2.164640568481679
            ]
        },
        {
            "positions": [
                -1.8209965901570921,
                -1.426003167857642,
                1.361193021061767,
                -0.5444436218655795,
                0.7458640353592485,
                2.1526524158243165
            ]
        },
        {
            "positions": [
                -1.9171815625497646,
                -1.4441039070843296,
                1.370189463716053,
                -0.5271431037712292,
                0.6799137429401487,
                2.140664263166954
            ]
        },
        {
            "positions": [
                -2.0243187450345292,
                -1.4713466087120484,
                1.4413236556408258,
                -0.49319252930135715,
                0.6327049058061665,
                2.2192829526717794
            ]
        },
        {
            "positions": [
                -2.131455927519294,
                -1.4985893103397674,
                1.5124578475655988,
                -0.4592419548314851,
                0.5854960686721843,
                2.2979016421766048
            ]
        },
        {
            "positions": [
                -2.2385931100040586,
                -1.5258320119674864,
                1.5835920394903718,
                -0.425291380361613,
                0.5382872315382021,
                2.3765203316814305
            ]
        },
        {
            "positions": [
                -2.3457302924888235,
                -1.5530747135952052,
                1.6547262314151445,
                -0.391340805891741,
                0.49107839440421985,
                2.455139021186256
            ]
        },
        {
            "positions": [
                -2.452601984742553,
                -1.580789868387427,
                1.7368108283726265,
                -0.3550389293529147,
                0.4482015346259881,
                2.551039457682628
            ]
        },
        {
            "positions": [
                -2.567903128301654,
                -1.5535489102960751,
                1.913492629667453,
                -0.36324679398100956,
                0.44722148532882455,
                2.4971309964637145
            ]
        },
        {
            "positions": [
                -2.599486515247721,
                -1.5100867358879206,
                1.8932587244665,
                -0.42052288735646143,
                0.4850803627685829,
                2.6133281966143547
            ]
        },
        {
            "positions": [
                -2.6310699021937882,
                -1.4666245614797664,
                1.8730248192655472,
                -0.4777989807319133,
                0.5229392402083413,
                2.729525396764995
            ]
        },
        {
            "positions": [
                -2.6626532891398553,
                -1.4231623870716121,
                1.8527909140645944,
                -0.5350750741073651,
                0.5607981176480996,
                2.845722596915635
            ]
        },
        {
            "positions": [
                -2.6942366760859224,
                -1.3797002126634577,
                1.8325570088636414,
                -0.592351167482817,
                0.598656995087858,
                2.961919797066275
            ]
        },
        {
            "positions": [
                -2.5329486247212745,
                -1.3546481119791882,
                1.9514031503225406,
                -0.6115756960184243,
                0.553066680202348,
                2.9548634702342005
            ]
        },
        {
            "positions": [
                -2.5135557095537595,
                -1.290356376010676,
                1.9699173291537968,
                -0.6851082665901296,
                0.5899477373668321,
                3.0106874183794425
            ]
        },
        {
            "positions": [
                -2.494162794386244,
                -1.2260646400421638,
                1.988431507985053,
                -0.758640837161835,
                0.6268287945313162,
                3.066511366524685
            ]
        },
        {
            "positions": [
                -2.474769879218729,
                -1.1617729040736515,
                2.006945686816309,
                -0.8321734077335402,
                0.6637098516958004,
                3.122335314669927
            ]
        }
    ]
}