{
    "goal": {
        "global_pose": {
            "orientation": {
                "w": 0.7031023480610252,
                "x": -0.7110244013736278,
                "y": 0.0077485991402295624,
                "z": 0.005598929693374583
            },
            "position": {
                "x": -0.8841497679147869,
                "y": 0.44412534475326537,
                "z": 0.3711530566215515
            }
        },
        "name": "move_to_auspresseinheit_D"
    },
    "id": "LBKPIECE_move_to_auspresseinheit_D_13",
    "joint_names": [
        "shoulder_pan_joint",
        "shoulder_lift_joint",
        "elbow_joint",
        "wrist_1_joint",
        "wrist_2_joint",
        "wrist_3_joint"
    ],
    "metrics": {
        "cart_traj_len": 3.689126313759301,
        "distance_elbow_joint": 3.0091720473924175,
        "distance_shoulder_lift_joint": 1.2366833696100081,
        "distance_shoulder_pan_joint": 2.8711167354928016,
        "distance_wrist_1_joint": 3.572613588237711,
        "distance_wrist_2_joint": 1.2135225420493543,
        "distance_wrist_3_joint": 6.261357474659645,
        "smoothness": 0.14213623111765747,
        "time": 3.313215374,
        "traj_len": 4.261979089277883,
        "weighted_distance": 5.955948021687925
    },
    "planner": "LBKPIECE",
    "start": {
        "state": {
            "elbow_joint": 1.8268400409724999,
            "shoulder_lift_joint": -1.0144045787793008,
            "shoulder_pan_joint": 2.6280239544362485,
            "wrist_1_joint": -0.790705565816056,
            "wrist_2_joint": 1.0573557467365533,
            "wrist_3_joint": 3.1851377467193758
        }
    },
    "waypoints": [
        {
            "positions": [
                2.6280239544362485,
                -1.0144045787793008,
                1.8268400409724999,
                -0.790705565816056,
                1.0573557467365533,
                3.1851377467193758
            ]
        },
        {
            "positions": [
                2.6326659873257485,
                -1.0629686980300113,
                1.7682505274005336,
                -0.6985484126404712,
                1.0361568364798555,
                3.0197674301539896
            ]
        },
        {
            "positions": [
                2.6373080202152486,
                -1.1115328172807215,
                1.7096610138285673,
                -0.6063912594648863,
                1.0149579262231574,
                2.8543971135886035
            ]
        },
        {
            "positions": [
                2.6419500531047486,
                -1.1600969365314318,
                1.651071500256601,
                -0.5142341062893014,
                0.9937590159664595,
                2.6890267970232173
            ]
        },
        {
            "positions": [
                2.6465920859942482,
                -1.2086610557821422,
                1.5924819866846347,
                -0.42207695311371657,
                0.9725601057097617,
                2.523656480457831
            ]
        },
        {
            "positions": [
                2.6512341188837483,
                -1.2572251750328527,
                1.5338924731126684,
                -0.3299197999381317,
                0.9513611954530637,
                2.358286163892445
            ]
        },
        {
            "positions": [
                2.6558761517732483,
                -1.305789294283563,
                1.4753029595407023,
                -0.23776264676254688,
                0.9301622851963658,
                2.1929158473270585
            ]
        },
        {
            "positions": [
                2.6605181846627484,
                -1.3543534135342732,
                1.416713445968736,
                -0.14560549358696195,
                0.908963374939668,
                2.0275455307616728
            ]
        },
        {
            "positions": [
                2.6651602175522484,
                -1.4029175327849837,
                1.3581239323967698,
                -0.05344834041137714,
                0.88776446468297,
                1.8621752141962864
            ]
        },
        {
            "positions": [
                2.5905817840686485,
                -1.4252378068798344,
                1.291269828743699,
                -0.1280629815385622,
                0.8602925894199234,
                1.7322174525611138
            ]
        },
        {
            "positions": [
                2.5160033505850485,
                -1.447558080974685,
                1.2244157250906285,
                -0.20267762266574724,
                0.8328207141568768,
                1.6022596909259414
            ]
        },
        {
            "positions": [
                2.441424917101448,
                -1.4698783550695356,
                1.1575616214375577,
                -0.27729226379293226,
                0.8053488388938301,
                1.4723019292907686
            ]
        },
        {
            "positions": [
                2.366846483617848,
                -1.4921986291643863,
                1.090707517784487,
                -0.35190690492011734,
                0.7778769636307836,
                1.3423441676555963
            ]
        },
        {
            "positions": [
                2.2922680501342483,
                -1.514518903259237,
                1.0238534141314162,
                -0.4265215460473024,
                0.7504050883677369,
                1.2123864060204237
            ]
        },
        {
            "positions": [
                2.2176896166506483,
                -1.5368391773540877,
                0.9569993104783454,
                -0.5011361871744875,
                0.7229332131046904,
                1.082428644385251
            ]
        },
        {
            "positions": [
                2.143111183167048,
                -1.5591594514489384,
                0.8901452068252748,
                -0.5757508283016725,
                0.6954613378416438,
                0.9524708827500786
            ]
        },
        {
            "positions": [
                2.068532749683448,
                -1.581479725543789,
                0.8232911031722041,
                -0.6503654694288575,
                0.6679894625785971,
                0.8225131211149062
            ]
        },
        {
            "positions": [
                1.993954316199848,
                -1.6037999996386396,
                0.7564369995191333,
                -0.7249801105560426,
                0.6405175873155505,
                0.6925553594797336
            ]
        },
        {
            "positions": [
                1.9193758827162481,
                -1.6261202737334903,
                0.6895828958660627,
                -0.7995947516832277,
                0.6130457120525039,
                0.562597597844561
            ]
        },
        {
            "positions": [
                1.8447974492326478,
                -1.648440547828341,
                0.6227287922129918,
                -0.8742093928104128,
                0.5855738367894573,
                0.4326398362093882
            ]
        },
        {
            "positions": [
                1.7702190157490478,
                -1.6707608219231918,
                0.5558746885599212,
                -0.9488240339375977,
                0.5581019615264107,
                0.3026820745742158
            ]
        },
        {
            "positions": [
                1.695640582265448,
                -1.6930810960180422,
                0.4890205849068504,
                -1.0234386750647828,
                0.5306300862633642,
                0.17272431293904322
            ]
        },
        {
            "positions": [
                1.621062148781848,
                -1.715401370112893,
                0.42216648125377976,
                -1.0980533161919679,
                0.5031582110003174,
                0.04276655130387086
            ]
        },
        {
            "positions": [
                1.5464837152982478,
                -1.7377216442077437,
                0.355312377600709,
                -1.172667957319153,
                0.47568633573727087,
                -0.08719121033130195
            ]
        },
        {
            "positions": [
                1.4719052818146479,
                -1.7600419183025942,
                0.28845827394763845,
                -1.247282598446338,
                0.4482144604742243,
                -0.2171489719664741
            ]
        },
        {
            "positions": [
                1.3973268483310477,
                -1.782362192397445,
                0.2216041702945677,
                -1.3218972395735231,
                0.4207425852111777,
                -0.3471067336016469
            ]
        },
        {
            "positions": [
                1.3227484148474478,
                -1.8046824664922956,
                0.15475006664149693,
                -1.3965118807007082,
                0.39327070994813107,
                -0.47706449523681926
            ]
        },
        {
            "positions": [
                1.2481699813638476,
                -1.8270027405871463,
                0.08789596298842617,
                -1.4711265218278933,
                0.36579883468508445,
                -0.6070222568719921
            ]
        },
        {
            "positions": [
                1.1735915478802477,
                -1.849323014681997,
                0.021041859335355628,
                -1.5457411629550784,
                0.33832695942203783,
                -0.7369800185071644
            ]
        },
        {
            "positions": [
                1.0990131143966473,
                -1.8716432887768477,
                -0.045812244317715356,
                -1.6203558040822634,
                0.3108550841589912,
                -0.8669377801423372
            ]
        },
        {
            "positions": [
                1.0244346809130473,
                -1.8939635628716984,
                -0.11266634797078612,
                -1.6949704452094485,
                0.2833832088959446,
                -0.99689554177751
            ]
        },
        {
            "positions": [
                0.9498562474294474,
                -1.916283836966549,
                -0.17952045162385666,
                -1.7695850863366336,
                0.255911333632898,
                -1.1268533034126824
            ]
        },
        {
            "positions": [
                0.8752778139458475,
                -1.9386041110613996,
                -0.24637455527692742,
                -1.8441997274638182,
                0.22843945836985147,
                -1.2568110650478548
            ]
        },
        {
            "positions": [
                0.8006993804622473,
                -1.9609243851562503,
                -0.3132286589299982,
                -1.9188143685910037,
                0.20096758310680474,
                -1.3867688266830276
            ]
        },
        {
            "positions": [
                0.7261209469786472,
                -1.9832446592511008,
                -0.38008276258306894,
                -1.9934290097181884,
                0.17349570784375823,
                -1.5167265883182
            ]
        },
        {
            "positions": [
                0.6515425134950474,
                -2.0055649333459518,
                -0.4469368662361395,
                -2.068043650845374,
                0.1460238325807116,
                -1.6466843499533723
            ]
        },
        {
            "positions": [
                0.5769640800114475,
                -2.0278852074408023,
                -0.5137909698892102,
                -2.1426582919725585,
                0.11855195731766499,
                -1.7766421115885447
            ]
        },
        {
            "positions": [
                0.5023856465278471,
                -2.050205481535653,
                -0.580645073542281,
                -2.217272933099744,
                0.09108008205461837,
                -1.906599873223718
            ]
        },
        {
            "positions": [
                0.4278072130442472,
                -2.0725257556305037,
                -0.6474991771953518,
                -2.2918875742269287,
                0.06360820679157175,
                -2.03655763485889
            ]
        },
        {
            "positions": [
                0.35322877956064724,
                -2.094846029725354,
                -0.7143532808484225,
                -2.3665022153541138,
                0.036136331528525134,
                -2.166515396494063
            ]
        },
        {
            "positions": [
                0.2786503460770473,
                -2.1171663038202047,
                -0.7812073845014929,
                -2.441116856481299,
                0.008664456265478626,
                -2.296473158129235
            ]
        },
        {
            "positions": [
                0.20407191259344692,
                -2.1394865779150556,
                -0.8480614881545641,
                -2.515731497608484,
                -0.018807418997568104,
                -2.4264309197644085
            ]
        },
        {
            "positions": [
                0.129493479109847,
                -2.1618068520099065,
                -0.9149155918076344,
                -2.590346138735669,
                -0.04627929426061461,
                -2.5563886813995804
            ]
        },
        {
            "positions": [
                0.05491504562624705,
                -2.184127126104757,
                -0.9817696954607051,
                -2.664960779862854,
                -0.07375116952366123,
                -2.6863464430347532
            ]
        },
        {
            "positions": [
                -0.019663387857352888,
                -2.2064474001996075,
                -1.048623799113776,
                -2.739575420990039,
                -0.10122304478670785,
                -2.816304204669925
            ]
        },
        {
            "positions": [
                -0.09424182134095327,
                -2.2287676742944584,
                -1.1154779027668467,
                -2.8141900621172242,
                -0.12869492004975458,
                -2.946261966305098
            ]
        },
        {
            "positions": [
                -0.1688202548245533,
                -2.251087948389309,
                -1.1823320064199172,
                -2.8888047032444093,
                -0.15616679531280117,
                -3.0762197279402703
            ]
        }
    ]
}