{
    "goal": {
        "global_pose": {
            "orientation": {
                "w": 0.7047431468963623,
                "x": -0.7094548344612122,
                "y": 0.0024358443915843964,
                "z": -0.0022348060738295317
            },
            "position": {
                "x": 0.6094750761985779,
                "y": 0.3671506643295288,
                "z": 0.19426114857196808
            }
        },
        "name": "move_to_magneteinheit_A"
    },
    "id": "LBKPIECE_move_to_magneteinheit_A_100",
    "joint_names": [
        "shoulder_pan_joint",
        "shoulder_lift_joint",
        "elbow_joint",
        "wrist_1_joint",
        "wrist_2_joint",
        "wrist_3_joint"
    ],
    "metrics": {
        "cart_traj_len": 1.0531659874432748,
        "distance_elbow_joint": 0.37841360989543693,
        "distance_shoulder_lift_joint": 0.3685518142999422,
        "distance_shoulder_pan_joint": 1.241066988334137,
        "distance_wrist_1_joint": 2.1920766955743676,
        "distance_wrist_2_joint": 1.6919151549691653,
        "distance_wrist_3_joint": 1.2341913260465245,
        "smoothness": 2.8047739791568236e-16,
        "time": 2.325168919,
        "traj_len": 2.6657485982589533,
        "weighted_distance": 3.668595111450179
    },
    "planner": "LBKPIECE",
    "start": {
        "state": {
            "elbow_joint": 1.5739458966750683,
            "shoulder_lift_joint": -1.4977259741207325,
            "shoulder_pan_joint": -1.1188672016454206,
            "wrist_1_joint": 1.494575848278785,
            "wrist_2_joint": -1.5706037134824402,
            "wrist_3_joint": -2.0226957942261072
        }
    },
    "waypoints": [
        {
            "positions": [
                -1.1188672016454206,
                -1.4977259741207325,
                1.5739458966750683,
                1.494575848278785,
                -1.5706037134824402,
                -2.0226957942261072
            ]
        },
        {
            "positions": [
                -1.0499190356268575,
                -1.4772508733262912,
                1.5949688750025925,
                1.3727938096357646,
                -1.4766084270952644,
                -2.09126197900647
            ]
        },
        {
            "positions": [
                -0.9809708696082944,
                -1.45677577253185,
                1.615991853330117,
                1.2510117709927442,
                -1.3826131407080886,
                -2.159828163786832
            ]
        },
        {
            "positions": [
                -0.9120227035897311,
                -1.4363006717374087,
                1.6370148316576412,
                1.1292297323497238,
                -1.2886178543209126,
                -2.2283943485671944
            ]
        },
        {
            "positions": [
                -0.843074537571168,
                -1.4158255709429675,
                1.6580378099851654,
                1.0074476937067034,
                -1.1946225679337368,
                -2.296960533347557
            ]
        },
        {
            "positions": [
                -0.7741263715526048,
                -1.3953504701485264,
                1.6790607883126898,
                0.8856656550636829,
                -1.100627281546561,
                -2.36552671812792
            ]
        },
        {
            "positions": [
                -0.7051782055340416,
                -1.3748753693540852,
                1.700083766640214,
                0.7638836164206625,
                -1.0066319951593852,
                -2.434092902908282
            ]
        },
        {
            "positions": [
                -0.6362300395154785,
                -1.354400268559644,
                1.7211067449677382,
                0.642101577777642,
                -0.9126367087722093,
                -2.5026590876886443
            ]
        },
        {
            "positions": [
                -0.5672818734969154,
                -1.3339251677652026,
                1.7421297232952626,
                0.5203195391346217,
                -0.8186414223850335,
                -2.571225272469007
            ]
        },
        {
            "positions": [
                -0.49833370747835215,
                -1.3134500669707614,
                1.7631527016227868,
                0.3985375004916012,
                -0.7246461359978575,
                -2.6397914572493697
            ]
        },
        {
            "positions": [
                -0.4293855414597889,
                -1.2929749661763201,
                1.784175679950311,
                0.2767554618485808,
                -0.6306508496106816,
                -2.708357642029732
            ]
        },
        {
            "positions": [
                -0.3604373754412258,
                -1.2724998653818789,
                1.8051986582778354,
                0.15497342320556018,
                -0.5366555632235057,
                -2.7769238268100946
            ]
        },
        {
            "positions": [
                -0.29148920942266265,
                -1.2520247645874376,
                1.8262216366053596,
                0.033191384562540005,
                -0.44266027683633014,
                -2.845490011590457
            ]
        },
        {
            "positions": [
                -0.22254104340409953,
                -1.2315496637929964,
                1.8472446149328838,
                -0.08859065408048039,
                -0.3486649904491541,
                -2.9140561963708196
            ]
        },
        {
            "positions": [
                -0.15359287738553629,
                -1.2110745629985553,
                1.8682675932604083,
                -0.210372692723501,
                -0.2546697040619783,
                -2.982622381151182
            ]
        },
        {
            "positions": [
                -0.08464471136697305,
                -1.1905994622041138,
                1.8892905715879325,
                -0.3321547313665214,
                -0.16067441767480228,
                -3.051188565931544
            ]
        },
        {
            "positions": [
                -0.01569654534841014,
                -1.1701243614096728,
                1.9103135499154567,
                -0.4539367700095416,
                -0.0666791312876267,
                -3.1197547507119068
            ]
        },
        {
            "positions": [
                0.05325162067015321,
                -1.1496492606152315,
                1.9313365282429809,
                -0.5757188086525622,
                0.027316155099549322,
                -3.1883209354922695
            ]
        },
        {
            "positions": [
                0.12219978668871626,
                -1.1291741598207903,
                1.9523595065705053,
                -0.6975008472955826,
                0.12131144148672517,
                -3.2568871202726317
            ]
        }
    ]
}