{
    "goal": {
        "global_pose": {
            "orientation": {
                "w": 0.005598929693374612,
                "x": 0.007748599140229565,
                "y": 0.7110244013736278,
                "z": -0.7031023480610252
            },
            "position": {
                "x": -0.8858502320852131,
                "y": -0.7141253447532654,
                "z": 0.3711530566215515
            }
        },
        "name": "move_to_auspresseinheit_C"
    },
    "id": "LBKPIECE_move_to_auspresseinheit_C_45",
    "joint_names": [
        "shoulder_pan_joint",
        "shoulder_lift_joint",
        "elbow_joint",
        "wrist_1_joint",
        "wrist_2_joint",
        "wrist_3_joint"
    ],
    "metrics": {
        "cart_traj_len": 0.49404961321789903,
        "distance_elbow_joint": 1.012147649892248,
        "distance_shoulder_lift_joint": 0.3303782863490595,
        "distance_shoulder_pan_joint": 0.2561979675338457,
        "distance_wrist_1_joint": 0.7006183854505106,
        "distance_wrist_2_joint": 1.3086999916450832,
        "distance_wrist_3_joint": 0.07851229440546836,
        "smoothness": 0.0,
        "time": 4.195851926,
        "traj_len": 1.9200402535562153,
        "weighted_distance": 2.4192762432559753
    },
    "planner": "LBKPIECE",
    "start": {
        "state": {
            "elbow_joint": 1.752795957773711,
            "shoulder_lift_joint": -0.9740617694225064,
            "shoulder_pan_joint": -2.967991417825858,
            "wrist_1_joint": -0.7595177689806859,
            "wrist_2_joint": 1.7443932448377395,
            "wrist_3_joint": 3.199131542505932
        }
    },
    "waypoints": [
        {
            "positions": [
                -2.967991417825858,
                -0.9740617694225064,
                1.752795957773711,
                -0.7595177689806859,
                1.7443932448377395,
                3.199131542505932
            ]
        },
        {
            "positions": [
                -2.9423716210724735,
                -0.9410239407876004,
                1.6515811927844863,
                -0.6894559304356348,
                1.6135232456732311,
                3.191280313065385
            ]
        },
        {
            "positions": [
                -2.9167518243190886,
                -0.9079861121526945,
                1.5503664277952616,
                -0.6193940918905838,
                1.4826532465087228,
                3.1834290836248385
            ]
        },
        {
            "positions": [
                -2.891132027565704,
                -0.8749482835177886,
                1.4491516628060368,
                -0.5493322533455327,
                1.3517832473442146,
                3.175577854184292
            ]
        },
        {
            "positions": [
                -2.8655122308123198,
                -0.8419104548828826,
                1.3479368978168118,
                -0.47927041480048166,
                1.220913248179706,
                3.167726624743745
            ]
        },
        {
            "positions": [
                -2.8398924340589353,
                -0.8088726262479766,
                1.2467221328275873,
                -0.4092085762554306,
                1.090043249015198,
                3.1598753953031977
            ]
        },
        {
            "positions": [
                -2.8142726373055504,
                -0.7758347976130707,
                1.1455073678383623,
                -0.33914673771037956,
                0.9591732498506896,
                3.152024165862651
            ]
        },
        {
            "positions": [
                -2.788652840552166,
                -0.7427969689781648,
                1.0442926028491377,
                -0.2690848991653285,
                0.8283032506861813,
                3.1441729364221045
            ]
        },
        {
            "positions": [
                -2.7630330437987816,
                -0.7097591403432588,
                0.9430778378599127,
                -0.19902306062027741,
                0.6974332515216728,
                3.1363217069815574
            ]
        },
        {
            "positions": [
                -2.7374132470453967,
                -0.6767213117083528,
                0.841863072870688,
                -0.1289612220752263,
                0.5665632523571646,
                3.1284704775410104
            ]
        },
        {
            "positions": [
                -2.7117934502920122,
                -0.6436834830734469,
                0.7406483078814632,
                -0.058899383530175264,
                0.4356932531926562,
                3.1206192481004638
            ]
        }
    ]
}