{
    "goal": {
        "global_pose": {
            "orientation": {
                "w": 0.5084816262002911,
                "x": -0.4908360881923452,
                "y": 0.5182115481033761,
                "z": -0.48164630358495003
            },
            "position": {
                "x": 0.5540239810943604,
                "y": -0.46912469901144505,
                "z": 0.16403168439865112
            }
        },
        "name": "move_to_storage_B"
    },
    "id": "LBKPIECE_move_to_storage_B_66",
    "joint_names": [
        "shoulder_pan_joint",
        "shoulder_lift_joint",
        "elbow_joint",
        "wrist_1_joint",
        "wrist_2_joint",
        "wrist_3_joint"
    ],
    "metrics": {
        "cart_traj_len": 5.378042288713125,
        "distance_elbow_joint": 3.6783317530818698,
        "distance_shoulder_lift_joint": 1.6001812700091862,
        "distance_shoulder_pan_joint": 5.23338117437329,
        "distance_wrist_1_joint": 2.9850570713152274,
        "distance_wrist_2_joint": 6.62461898963433,
        "distance_wrist_3_joint": 5.484348375622149,
        "smoothness": 0.33060490312282254,
        "time": 2.338036441,
        "traj_len": 5.060229108848336,
        "weighted_distance": 6.795902548317621
    },
    "planner": "LBKPIECE",
    "start": {
        "state": {
            "elbow_joint": 1.6649325706314817,
            "shoulder_lift_joint": -0.6616388048112454,
            "shoulder_pan_joint": -0.9139837860083814,
            "wrist_1_joint": 2.146757197745094,
            "wrist_2_joint": -2.234196043158733,
            "wrist_3_joint": 0.005471033829999897
        }
    },
    "waypoints": [
        {
            "positions": [
                -0.9139837860083814,
                -0.6616388048112454,
                1.6649325706314817,
                2.146757197745094,
                -2.234196043158733,
                0.005471033829999897
            ]
        },
        {
            "positions": [
                -0.8374419124861205,
                -0.6928518048995791,
                1.6145043681677982,
                2.0901925872806633,
                -2.092782365638646,
                -0.02987926365391473
            ]
        },
        {
            "positions": [
                -0.7609000389638598,
                -0.7240648049879128,
                1.564076165704115,
                2.0336279768162324,
                -1.9513686881185592,
                -0.06522956113782935
            ]
        },
        {
            "positions": [
                -0.6843581654415989,
                -0.7552778050762466,
                1.5136479632404314,
                1.9770633663518014,
                -1.8099550105984723,
                -0.10057985862174398
            ]
        },
        {
            "positions": [
                -0.6078162919193382,
                -0.7864908051645804,
                1.4632197607767479,
                1.9204987558873705,
                -1.6685413330783856,
                -0.13593015610565862
            ]
        },
        {
            "positions": [
                -0.5312744183970773,
                -0.8177038052529141,
                1.4127915583130644,
                1.8639341454229397,
                -1.5271276555582987,
                -0.17128045358957325
            ]
        },
        {
            "positions": [
                -0.4547325448748165,
                -0.8489168053412479,
                1.3623633558493808,
                1.8073695349585088,
                -1.3857139780382117,
                -0.20663075107348788
            ]
        },
        {
            "positions": [
                -0.3781906713525557,
                -0.8801298054295816,
                1.3119351533856976,
                1.750804924494078,
                -1.244300300518125,
                -0.2419810485574025
            ]
        },
        {
            "positions": [
                -0.30164879783029497,
                -0.9113428055179154,
                1.261506950922014,
                1.694240314029647,
                -1.102886622998038,
                -0.2773313460413171
            ]
        },
        {
            "positions": [
                -0.22510692430803414,
                -0.9425558056062491,
                1.2110787484583305,
                1.637675703565216,
                -0.9614729454779516,
                -0.3126816435252317
            ]
        },
        {
            "positions": [
                -0.1485650507857733,
                -0.9737688056945828,
                1.1606505459946472,
                1.5811110931007852,
                -0.8200592679578644,
                -0.34803194100914636
            ]
        },
        {
            "positions": [
                -0.0720231772635126,
                -1.0049818057829165,
                1.1102223435309637,
                1.5245464826363544,
                -0.6786455904377777,
                -0.38338223849306097
            ]
        },
        {
            "positions": [
                0.004518696258748345,
                -1.0361948058712502,
                1.0597941410672802,
                1.4679818721719236,
                -0.5372319129176908,
                -0.41873253597697563
            ]
        },
        {
            "positions": [
                0.08106056978100906,
                -1.0674078059595842,
                1.009365938603597,
                1.4114172617074927,
                -0.3958182353976041,
                -0.4540828334608902
            ]
        },
        {
            "positions": [
                0.15760244330327,
                -1.098620806047918,
                0.9589377361399133,
                1.3548526512430619,
                -0.25440455787751715,
                -0.48943313094480484
            ]
        },
        {
            "positions": [
                0.23414431682553072,
                -1.1298338061362516,
                0.9085095336762298,
                1.298288040778631,
                -0.11299088035743043,
                -0.5247834284287195
            ]
        },
        {
            "positions": [
                0.31068619034779144,
                -1.1610468062245853,
                0.8580813312125464,
                1.2417234303142,
                0.02842279716265672,
                -0.5601337259126341
            ]
        },
        {
            "positions": [
                0.3872280638700524,
                -1.192259806312919,
                0.8076531287488629,
                1.1851588198497691,
                0.169836474682743,
                -0.5954840233965487
            ]
        },
        {
            "positions": [
                0.4637699373923131,
                -1.2234728064012528,
                0.7572249262851795,
                1.1285942093853383,
                0.3112501522028297,
                -0.6308343208804633
            ]
        },
        {
            "positions": [
                0.540311810914574,
                -1.2546858064895865,
                0.7067967238214959,
                1.0720295989209072,
                0.4526638297229173,
                -0.666184618364378
            ]
        },
        {
            "positions": [
                0.6168536844368347,
                -1.2858988065779204,
                0.6563685213578125,
                1.0154649884564764,
                0.594077507243004,
                -0.7015349158482926
            ]
        },
        {
            "positions": [
                0.6933955579590955,
                -1.317111806666254,
                0.605940318894129,
                0.9589003779920455,
                0.7354911847630907,
                -0.7368852133322072
            ]
        },
        {
            "positions": [
                0.7699374314813562,
                -1.3483248067545879,
                0.5555121164304457,
                0.9023357675276147,
                0.8769048622831774,
                -0.7722355108161219
            ]
        },
        {
            "positions": [
                0.8464793050036173,
                -1.3795378068429216,
                0.505083913966762,
                0.8457711570631836,
                1.0183185398032646,
                -0.8075858083000366
            ]
        },
        {
            "positions": [
                0.9230211785258781,
                -1.4107508069312553,
                0.4546557115030787,
                0.7892065465987528,
                1.1597322173233513,
                -0.8429361057839512
            ]
        },
        {
            "positions": [
                0.9995630520481388,
                -1.441963807019589,
                0.4042275090393952,
                0.7326419361343222,
                1.301145894843438,
                -0.8782864032678657
            ]
        },
        {
            "positions": [
                1.0761049255703994,
                -1.4731768071079228,
                0.3537993065757119,
                0.6760773256698913,
                1.4425595723635247,
                -0.9136367007517803
            ]
        },
        {
            "positions": [
                1.1526467990926603,
                -1.5043898071962567,
                0.30337110411202817,
                0.6195127152054603,
                1.5839732498836119,
                -0.948986998235695
            ]
        },
        {
            "positions": [
                1.2291886726149213,
                -1.5356028072845902,
                0.2529429016483449,
                0.5629481047410294,
                1.7253869274036986,
                -0.9843372957196096
            ]
        },
        {
            "positions": [
                1.3057305461371818,
                -1.5668158073729241,
                0.20251469918466136,
                0.5063834942765986,
                1.8668006049237849,
                -1.0196875932035243
            ]
        },
        {
            "positions": [
                1.3822724196594427,
                -1.5980288074612576,
                0.15208649672097785,
                0.4498188838121677,
                2.008214282443872,
                -1.055037890687439
            ]
        },
        {
            "positions": [
                1.4588142931817036,
                -1.6292418075495916,
                0.10165829425729433,
                0.39325427334773666,
                2.149627959963959,
                -1.0903881881713535
            ]
        },
        {
            "positions": [
                1.5353561667039641,
                -1.6604548076379253,
                0.05123009179361104,
                0.3366896628833058,
                2.2910416374840463,
                -1.1257384856552681
            ]
        },
        {
            "positions": [
                1.611898040226225,
                -1.691667807726259,
                0.0008018893299275298,
                0.280125052418875,
                2.4324553150041326,
                -1.1610887831391827
            ]
        },
        {
            "positions": [
                1.529852605434144,
                -1.6743904662991629,
                0.06183828544448249,
                0.24623338799496564,
                2.3731229625353003,
                -1.0302467056042444
            ]
        },
        {
            "positions": [
                1.4478071706420625,
                -1.6571131248720667,
                0.12287468155903745,
                0.21234172357105632,
                2.313790610066468,
                -0.8994046280693059
            ]
        },
        {
            "positions": [
                1.3657617358499814,
                -1.6398357834449706,
                0.1839110776735924,
                0.178450059147147,
                2.2544582575976357,
                -0.7685625505343675
            ]
        },
        {
            "positions": [
                1.2837163010579,
                -1.6225584420178745,
                0.24494747378814738,
                0.14455839472323767,
                2.1951259051288035,
                -0.637720472999429
            ]
        },
        {
            "positions": [
                1.2016708662658189,
                -1.6052811005907783,
                0.3059838699027023,
                0.11066673029932833,
                2.135793552659971,
                -0.5068783954644906
            ]
        },
        {
            "positions": [
                1.1196254314737377,
                -1.5880037591636822,
                0.3670202660172573,
                0.07677506587541902,
                2.076461200191139,
                -0.3760363179295523
            ]
        },
        {
            "positions": [
                1.0375799966816563,
                -1.570726417736586,
                0.42805666213181226,
                0.04288340145150968,
                2.017128847722307,
                -0.2451942403946138
            ]
        },
        {
            "positions": [
                0.9555345618895752,
                -1.55344907630949,
                0.48909305824636723,
                0.008991737027600366,
                1.9577964952534745,
                -0.11435216285967531
            ]
        },
        {
            "positions": [
                0.8734891270974939,
                -1.5361717348823938,
                0.5501294543609221,
                -0.02489992739630892,
                1.8984641427846425,
                0.01648991467526284
            ]
        },
        {
            "positions": [
                0.7914436923054127,
                -1.5188943934552976,
                0.6111658504754771,
                -0.058791591820218314,
                1.8391317903158102,
                0.14733199221020143
            ]
        },
        {
            "positions": [
                0.7093982575133315,
                -1.5016170520282015,
                0.672202246590032,
                -0.0926832562441276,
                1.779799437846978,
                0.2781740697451398
            ]
        },
        {
            "positions": [
                0.6273528227212501,
                -1.4843397106011054,
                0.733238642704587,
                -0.12657492066803694,
                1.7204670853781456,
                0.4090161472800782
            ]
        },
        {
            "positions": [
                0.545307387929169,
                -1.4670623691740092,
                0.794275038819142,
                -0.16046658509194628,
                1.6611347329093133,
                0.5398582248150166
            ]
        },
        {
            "positions": [
                0.4632619531370876,
                -1.449785027746913,
                0.855311434933697,
                -0.19435824951585562,
                1.601802380440481,
                0.6707003023499551
            ]
        },
        {
            "positions": [
                0.38121651834500647,
                -1.432507686319817,
                0.9163478310482519,
                -0.2282499139397649,
                1.5424700279716488,
                0.8015423798848933
            ]
        },
        {
            "positions": [
                0.2991710835529253,
                -1.4152303448927208,
                0.9773842271628069,
                -0.26214157836367424,
                1.4831376755028165,
                0.9323844574198321
            ]
        },
        {
            "positions": [
                0.21712564876084395,
                -1.3979530034656247,
                1.0384206232773618,
                -0.2960332427875836,
                1.4238053230339844,
                1.06322653495477
            ]
        },
        {
            "positions": [
                0.1350802139687628,
                -1.3806756620385285,
                1.0994570193919166,
                -0.3299249072114928,
                1.3644729705651522,
                1.1940686124897084
            ]
        },
        {
            "positions": [
                0.053034779176681424,
                -1.3633983206114324,
                1.160493415506472,
                -0.36381657163540226,
                1.3051406180963196,
                1.3249106900246472
            ]
        },
        {
            "positions": [
                -0.029010655615399727,
                -1.3461209791843363,
                1.2215298116210267,
                -0.3977082360593116,
                1.2458082656274876,
                1.4557527675595856
            ]
        },
        {
            "positions": [
                -0.11105609040748088,
                -1.3288436377572401,
                1.2825662077355817,
                -0.43159990048322083,
                1.1864759131586553,
                1.586594845094524
            ]
        },
        {
            "positions": [
                -0.19310152519956203,
                -1.311566296330144,
                1.3436026038501365,
                -0.4654915649071302,
                1.1271435606898232,
                1.7174369226294623
            ]
        },
        {
            "positions": [
                -0.2751469599916436,
                -1.2942889549030479,
                1.4046389999646915,
                -0.4993832293310396,
                1.0678112082209907,
                1.8482790001644012
            ]
        },
        {
            "positions": [
                -0.3571923947837248,
                -1.2770116134759517,
                1.4656753960792466,
                -0.5332748937549489,
                1.0084788557521585,
                1.979121077699339
            ]
        },
        {
            "positions": [
                -0.4392378295758057,
                -1.2597342720488556,
                1.5267117921938014,
                -0.5671665581788582,
                0.9491465032833264,
                2.1099631552342775
            ]
        },
        {
            "positions": [
                -0.5212832643678871,
                -1.2424569306217594,
                1.5877481883083564,
                -0.6010582226027675,
                0.8898141508144941,
                2.240805232769216
            ]
        },
        {
            "positions": [
                -0.6033286991599685,
                -1.2251795891946633,
                1.6487845844229114,
                -0.6349498870266769,
                0.8304817983456618,
                2.3716473103041547
            ]
        },
        {
            "positions": [
                -0.6853741339520498,
                -1.2079022477675672,
                1.7098209805374665,
                -0.6688415514505862,
                0.7711494458768295,
                2.502489387839093
            ]
        },
        {
            "positions": [
                -0.7674195687441308,
                -1.190624906340471,
                1.7708573766520213,
                -0.7027332158744954,
                0.7118170934079973,
                2.6333314653740314
            ]
        },
        {
            "positions": [
                -0.8494650035362121,
                -1.1733475649133749,
                1.8318937727665763,
                -0.7366248802984048,
                0.6524847409391652,
                2.7641735429089693
            ]
        },
        {
            "positions": [
                -0.9315104383282935,
                -1.1560702234862787,
                1.8929301688811313,
                -0.7705165447223141,
                0.5931523884703327,
                2.895015620443908
            ]
        },
        {
            "positions": [
                -1.0135558731203744,
                -1.1387928820591826,
                1.9539665649956863,
                -0.8044082091462235,
                0.5338200360015006,
                3.025857697978847
            ]
        },
        {
            "positions": [
                -1.0956013079124558,
                -1.1215155406320865,
                2.015002961110241,
                -0.8382998735701327,
                0.4744876835326684,
                3.156699775513785
            ]
        }
    ]
}