{
    "goal": {
        "global_pose": {
            "orientation": {
                "w": -0.00223480608172531,
                "x": 0.0024358444001904467,
                "y": 0.7094548369677653,
                "z": -0.704743149386269
            },
            "position": {
                "x": -0.37947507619857795,
                "y": -0.6371506643295288,
                "z": 0.19426114857196808
            }
        },
        "name": "move_to_magneteinheit_C"
    },
    "id": "LBKPIECE_move_to_magneteinheit_C_52",
    "joint_names": [
        "shoulder_pan_joint",
        "shoulder_lift_joint",
        "elbow_joint",
        "wrist_1_joint",
        "wrist_2_joint",
        "wrist_3_joint"
    ],
    "metrics": {
        "cart_traj_len": 2.347235154375896,
        "distance_elbow_joint": 0.3662592653791208,
        "distance_shoulder_lift_joint": 3.0140615242953013,
        "distance_shoulder_pan_joint": 1.876418744862053,
        "distance_wrist_1_joint": 7.327209890750932,
        "distance_wrist_2_joint": 2.323493635810304,
        "distance_wrist_3_joint": 3.090063660574876,
        "smoothness": 0.7599001419278509,
        "time": 2.0615891950000003,
        "traj_len": 4.242346841274601,
        "weighted_distance": 5.816213335958678
    },
    "planner": "LBKPIECE",
    "start": {
        "state": {
            "elbow_joint": 1.9565354006590394,
            "shoulder_lift_joint": -1.4165861576513559,
            "shoulder_pan_joint": -1.6717766223277177,
            "wrist_1_joint": -0.5286633288215096,
            "wrist_2_joint": 1.4727565892594296,
            "wrist_3_joint": 3.1593482883155493
        }
    },
    "waypoints": [
        {
            "positions": [
                -1.6717766223277177,
                -1.4165861576513559,
                1.9565354006590394,
                -0.5286633288215096,
                1.4727565892594296,
                3.1593482883155493
            ]
        },
        {
            "positions": [
                -1.6185534765557956,
                -1.4089453183376737,
                1.9343220078641674,
                -0.5184826875837101,
                1.3965317743199384,
                2.9366129344048573
            ]
        },
        {
            "positions": [
                -1.5653303307838735,
                -1.4013044790239915,
                1.9121086150692952,
                -0.5083020463459105,
                1.320306959380447,
                2.7138775804941653
            ]
        },
        {
            "positions": [
                -1.5121071850119514,
                -1.3936636397103093,
                1.8898952222744232,
                -0.498121405108111,
                1.2440821444409556,
                2.4911422265834733
            ]
        },
        {
            "positions": [
                -1.4588840392400295,
                -1.3860228003966273,
                1.8676818294795512,
                -0.4879407638703115,
                1.1678573295014643,
                2.268406872672781
            ]
        },
        {
            "positions": [
                -1.4056608934681074,
                -1.378381961082945,
                1.8454684366846792,
                -0.47776012263251194,
                1.0916325145619727,
                2.045671518762089
            ]
        },
        {
            "positions": [
                -1.3524377476961853,
                -1.3707411217692629,
                1.823255043889807,
                -0.46757948139471245,
                1.0154076996224815,
                1.822936164851397
            ]
        },
        {
            "positions": [
                -1.2992146019242632,
                -1.3631002824555807,
                1.801041651094935,
                -0.4573988401569129,
                0.9391828846829902,
                1.6002008109407049
            ]
        },
        {
            "positions": [
                -1.3630323472274086,
                -1.4288293633911089,
                1.8103657034471081,
                -0.2938188548053008,
                0.8899793657613282,
                1.6387871948063044
            ]
        },
        {
            "positions": [
                -1.426850092530554,
                -1.4945584443266373,
                1.8196897557992813,
                -0.13023886945368862,
                0.8407758468396661,
                1.677373578671904
            ]
        },
        {
            "positions": [
                -1.4906678378336995,
                -1.5602875252621655,
                1.8290138081514544,
                0.03334111589792349,
                0.7915723279180041,
                1.7159599625375035
            ]
        },
        {
            "positions": [
                -1.554485583136845,
                -1.626016606197694,
                1.8383378605036276,
                0.19692110124953566,
                0.7423688089963421,
                1.7545463464031028
            ]
        },
        {
            "positions": [
                -1.6183033284399904,
                -1.6917456871332222,
                1.8476619128558007,
                0.36050108660114777,
                0.6931652900746801,
                1.7931327302687023
            ]
        },
        {
            "positions": [
                -1.6821210737431358,
                -1.7574747680687506,
                1.8569859652079737,
                0.5240810719527599,
                0.6439617711530181,
                1.8317191141343019
            ]
        },
        {
            "positions": [
                -1.7459388190462812,
                -1.8232038490042788,
                1.8663100175601468,
                0.687661057304372,
                0.5947582522313561,
                1.8703054979999014
            ]
        },
        {
            "positions": [
                -1.8097565643494267,
                -1.888932929939807,
                1.87563406991232,
                0.8512410426559842,
                0.5455547333096941,
                1.908891881865501
            ]
        },
        {
            "positions": [
                -1.873574309652572,
                -1.9546620108753352,
                1.884958122264493,
                1.0148210280075962,
                0.4963512143880321,
                1.9474782657311005
            ]
        },
        {
            "positions": [
                -1.9373920549557175,
                -2.020391091810864,
                1.8942821746166663,
                1.1784010133592084,
                0.44714769546637007,
                1.9860646495966998
            ]
        },
        {
            "positions": [
                -2.001209800258863,
                -2.086120172746392,
                1.9036062269688394,
                1.3419809987108207,
                0.39794417654470804,
                2.0246510334622996
            ]
        },
        {
            "positions": [
                -2.0650275455620086,
                -2.1518492536819203,
                1.9129302793210126,
                1.5055609840624327,
                0.34874065762304607,
                2.063237417327899
            ]
        },
        {
            "positions": [
                -2.128845290865154,
                -2.2175783346174485,
                1.9222543316731857,
                1.669140969414045,
                0.299537138701384,
                2.1018238011934987
            ]
        },
        {
            "positions": [
                -2.192663036168299,
                -2.2833074155529767,
                1.9315783840253589,
                1.8327209547656569,
                0.250333619779722,
                2.140410185059098
            ]
        },
        {
            "positions": [
                -2.2564807814714447,
                -2.3490364964885053,
                1.940902436377532,
                1.996300940117269,
                0.20113010085805993,
                2.1789965689246973
            ]
        },
        {
            "positions": [
                -2.3202985267745904,
                -2.4147655774240335,
                1.950226488729705,
                2.1598809254688813,
                0.15192658193639796,
                2.217582952790297
            ]
        },
        {
            "positions": [
                -2.3841162720777356,
                -2.4804946583595617,
                1.959550541081878,
                2.3234609108204936,
                0.10272306301473588,
                2.2561693366558964
            ]
        },
        {
            "positions": [
                -2.447934017380881,
                -2.54622373929509,
                1.9688745934340512,
                2.4870408961721053,
                0.05351954409307402,
                2.294755720521496
            ]
        },
        {
            "positions": [
                -2.5117517626840264,
                -2.611952820230618,
                1.9781986457862244,
                2.6506208815237176,
                0.004316025171411941,
                2.3333421043870954
            ]
        },
        {
            "positions": [
                -2.575569507987172,
                -2.677681901166147,
                1.9875226981383975,
                2.8142008668753298,
                -0.04488749375025003,
                2.3719284882526948
            ]
        },
        {
            "positions": [
                -2.6393872532903173,
                -2.743410982101675,
                1.9968467504905707,
                2.977780852226942,
                -0.09409101267191211,
                2.4105148721182945
            ]
        },
        {
            "positions": [
                -2.630293693674065,
                -2.6556184849098177,
                1.9976778847360919,
                2.7655160905768046,
                -0.052055121900858654,
                2.4505483233417635
            ]
        },
        {
            "positions": [
                -2.6212001340578124,
                -2.5678259877179603,
                1.998509018981613,
                2.5532513289266667,
                -0.010019231129805198,
                2.4905817745652326
            ]
        },
        {
            "positions": [
                -2.61210657444156,
                -2.480033490526103,
                1.9993401532271342,
                2.340986567276529,
                0.03201665964124825,
                2.5306152257887016
            ]
        },
        {
            "positions": [
                -2.6030130148253074,
                -2.3922409933342457,
                2.0001712874726554,
                2.1287218056263915,
                0.07405255041230172,
                2.5706486770121706
            ]
        },
        {
            "positions": [
                -2.593919455209055,
                -2.3044484961423883,
                2.0010024217181765,
                1.9164570439762538,
                0.11608844118335518,
                2.6106821282356396
            ]
        },
        {
            "positions": [
                -2.5848258955928025,
                -2.2166559989505314,
                2.0018335559636977,
                1.7041922823261162,
                0.15812433195440861,
                2.6507155794591086
            ]
        },
        {
            "positions": [
                -2.57573233597655,
                -2.1288635017586737,
                2.002664690209219,
                1.4919275206759786,
                0.20016022272546208,
                2.6907490306825776
            ]
        },
        {
            "positions": [
                -2.5666387763602976,
                -2.041071004566817,
                2.00349582445474,
                1.279662759025841,
                0.24219611349651554,
                2.7307824819060462
            ]
        },
        {
            "positions": [
                -2.557545216744045,
                -1.9532785073749592,
                2.0043269587002612,
                1.0673979973757033,
                0.284232004267569,
                2.7708159331295157
            ]
        },
        {
            "positions": [
                -2.5484516571277926,
                -1.865486010183102,
                2.005158092945782,
                0.8551332357255657,
                0.32626789503862247,
                2.8108493843529843
            ]
        },
        {
            "positions": [
                -2.53935809751154,
                -1.7776935129912446,
                2.005989227191303,
                0.6428684740754278,
                0.36830378580967593,
                2.8508828355764537
            ]
        },
        {
            "positions": [
                -2.5302645378952877,
                -1.6899010157993875,
                2.0068203614368243,
                0.4306037124252904,
                0.41033967658072934,
                2.8909162867999223
            ]
        },
        {
            "positions": [
                -2.5211709782790352,
                -1.6021085186075301,
                2.0076514956823455,
                0.21833895077515297,
                0.45237556735178286,
                2.9309497380233913
            ]
        },
        {
            "positions": [
                -2.512077418662783,
                -1.5143160214156726,
                2.0084826299278666,
                0.006074189125015117,
                0.49441145812283627,
                2.9709831892468603
            ]
        },
        {
            "positions": [
                -2.5029838590465303,
                -1.4265235242238152,
                2.009313764173388,
                -0.20619057252512274,
                0.5364473488938898,
                3.0110166404703294
            ]
        },
        {
            "positions": [
                -2.493890299430278,
                -1.3387310270319581,
                2.010144898418909,
                -0.41845533417526015,
                0.5784832396649432,
                3.0510500916937984
            ]
        },
        {
            "positions": [
                -2.4847967398140254,
                -1.2509385298401008,
                2.01097603266443,
                -0.6307200958253976,
                0.6205191304359966,
                3.0910835429172674
            ]
        },
        {
            "positions": [
                -2.475703180197773,
                -1.1631460326482435,
                2.0118071669099513,
                -0.8429848574755355,
                0.6625550212070501,
                3.1311169941407364
            ]
        }
    ]
}