{
    "goal": {
        "global_pose": {
            "orientation": {
                "w": -0.00223480608172531,
                "x": 0.0024358444001904467,
                "y": 0.7094548369677653,
                "z": -0.704743149386269
            },
            "position": {
                "x": 0.6205249238014221,
                "y": -0.6371506643295288,
                "z": 0.19426114857196808
            }
        },
        "name": "move_to_magneteinheit_B"
    },
    "id": "LBKPIECE_move_to_magneteinheit_B_94",
    "joint_names": [
        "shoulder_pan_joint",
        "shoulder_lift_joint",
        "elbow_joint",
        "wrist_1_joint",
        "wrist_2_joint",
        "wrist_3_joint"
    ],
    "metrics": {
        "cart_traj_len": 4.654407712490704,
        "distance_elbow_joint": 6.40667436052159,
        "distance_shoulder_lift_joint": 0.711171229839948,
        "distance_shoulder_pan_joint": 3.4396391628952516,
        "distance_wrist_1_joint": 6.334912086220022,
        "distance_wrist_2_joint": 1.9937931890298193,
        "distance_wrist_3_joint": 8.075717543213926,
        "smoothness": 0.5489547960730897,
        "time": 1.731262611,
        "traj_len": 5.19248568334286,
        "weighted_distance": 7.172311198867369
    },
    "planner": "LBKPIECE",
    "start": {
        "state": {
            "elbow_joint": 2.3935871308073637,
            "shoulder_lift_joint": -1.9085141043777403,
            "shoulder_pan_joint": 0.7066247067284167,
            "wrist_1_joint": -0.46782909355067076,
            "wrist_2_joint": 0.7096259085804283,
            "wrist_3_joint": -3.1358149275257428
        }
    },
    "waypoints": [
        {
            "positions": [
                0.7066247067284167,
                -1.9085141043777403,
                2.3935871308073637,
                -0.46782909355067076,
                0.7096259085804283,
                -3.1358149275257428
            ]
        },
        {
            "positions": [
                0.6211296297097522,
                -1.8567008835254752,
                2.3791685367674233,
                -0.3979291041741932,
                0.6590112704791027,
                -3.0824064561535853
            ]
        },
        {
            "positions": [
                0.5750663065574773,
                -1.825174777873117,
                2.3092817520446527,
                -0.3715075535502993,
                0.6253413170844936,
                -3.0007119875524166
            ]
        },
        {
            "positions": [
                0.5290029834052024,
                -1.7936486722207587,
                2.2393949673218825,
                -0.34508600292640546,
                0.5916713636898845,
                -2.9190175189512475
            ]
        },
        {
            "positions": [
                0.5605663707520089,
                -1.7886240141237795,
                2.0963383842374643,
                -0.3957000464548116,
                0.577745363803697,
                -2.8405005556874974
            ]
        },
        {
            "positions": [
                0.6237579808616397,
                -1.7886067251885271,
                1.9323360207570255,
                -0.4745300105885373,
                0.5644269507126718,
                -2.7837798118019417
            ]
        },
        {
            "positions": [
                0.6869495909712706,
                -1.7885894362532748,
                1.7683336572765866,
                -0.5533599747222628,
                0.5511085376216467,
                -2.727059067916386
            ]
        },
        {
            "positions": [
                0.7501412010809014,
                -1.7885721473180225,
                1.6043312937961476,
                -0.6321899388559885,
                0.5377901245306215,
                -2.6703383240308307
            ]
        },
        {
            "positions": [
                0.8133328111905322,
                -1.7885548583827702,
                1.4403289303157087,
                -0.7110199029897142,
                0.5244717114395963,
                -2.613617580145275
            ]
        },
        {
            "positions": [
                0.8765244213001631,
                -1.7885375694475178,
                1.27632656683527,
                -0.7898498671234399,
                0.511153298348571,
                -2.5568968362597193
            ]
        },
        {
            "positions": [
                0.9397160314097939,
                -1.7885202805122655,
                1.1123242033548308,
                -0.8686798312571655,
                0.4978348852575459,
                -2.500176092374164
            ]
        },
        {
            "positions": [
                1.0029076415194247,
                -1.7885029915770132,
                0.948321839874392,
                -0.9475097953908911,
                0.4845164721665207,
                -2.4434553484886083
            ]
        },
        {
            "positions": [
                1.0660992516290557,
                -1.7884857026417609,
                0.7843194763939532,
                -1.0263397595246166,
                0.4711980590754955,
                -2.3867346046030526
            ]
        },
        {
            "positions": [
                1.1292908617386863,
                -1.7884684137065086,
                0.6203171129135143,
                -1.1051697236583424,
                0.4578796459844703,
                -2.330013860717497
            ]
        },
        {
            "positions": [
                1.1924824718483173,
                -1.7884511247712562,
                0.4563147494330755,
                -1.1839996877920682,
                0.4445612328934451,
                -2.2732931168319412
            ]
        },
        {
            "positions": [
                1.2556740819579482,
                -1.788433835836004,
                0.2923123859526364,
                -1.2628296519257938,
                0.43124281980241996,
                -2.216572372946386
            ]
        },
        {
            "positions": [
                1.318865692067579,
                -1.7884165469007516,
                0.12831002247219758,
                -1.3416596160595193,
                0.41792440671139475,
                -2.1598516290608303
            ]
        },
        {
            "positions": [
                1.3820573021772098,
                -1.7883992579654993,
                -0.03569234100824126,
                -1.420489580193245,
                0.40460599362036953,
                -2.1031308851752746
            ]
        },
        {
            "positions": [
                1.4452489122868406,
                -1.788381969030247,
                -0.19969470448868032,
                -1.4993195443269705,
                0.39128758052934437,
                -2.0464101412897193
            ]
        },
        {
            "positions": [
                1.5084405223964716,
                -1.7883646800949946,
                -0.36369706796911894,
                -1.5781495084606965,
                0.3779691674383192,
                -1.9896893974041636
            ]
        },
        {
            "positions": [
                1.5716321325061022,
                -1.7883473911597423,
                -0.5276994314495581,
                -1.6569794725944218,
                0.364650754347294,
                -1.932968653518608
            ]
        },
        {
            "positions": [
                1.6352348608436138,
                -1.7846866416057856,
                -0.6161854076768691,
                -1.578547740315167,
                0.3168056887081874,
                -1.8234714033807837
            ]
        },
        {
            "positions": [
                1.6988375891811254,
                -1.781025892051829,
                -0.7046713839041802,
                -1.5001160080359122,
                0.26896062306908086,
                -1.7139741532429595
            ]
        },
        {
            "positions": [
                1.762440317518637,
                -1.777365142497872,
                -0.7931573601314912,
                -1.4216842757566575,
                0.22111555742997424,
                -1.6044769031051354
            ]
        },
        {
            "positions": [
                1.8260430458561487,
                -1.7737043929439154,
                -0.8816433363588022,
                -1.3432525434774027,
                0.17327049179086768,
                -1.4949796529673112
            ]
        },
        {
            "positions": [
                1.8896457741936603,
                -1.7700436433899587,
                -0.9701293125861132,
                -1.2648208111981478,
                0.12542542615176108,
                -1.385482402829487
            ]
        },
        {
            "positions": [
                1.9532485025311719,
                -1.766382893836002,
                -1.0586152888134244,
                -1.1863890789188931,
                0.07758036051265449,
                -1.2759851526916628
            ]
        },
        {
            "positions": [
                2.0168512308686832,
                -1.762722144282045,
                -1.1471012650407353,
                -1.1079573466396384,
                0.02973529487354798,
                -1.1664879025538386
            ]
        },
        {
            "positions": [
                2.0804539592061952,
                -1.7590613947280884,
                -1.2355872412680462,
                -1.0295256143603835,
                -0.01810977076555864,
                -1.0569906524160144
            ]
        },
        {
            "positions": [
                2.144056687543707,
                -1.7554006451741317,
                -1.3240732174953571,
                -0.9510938820811289,
                -0.0659548364046652,
                -0.9474934022781902
            ]
        },
        {
            "positions": [
                2.2076594158812184,
                -1.751739895620175,
                -1.4125591937226685,
                -0.872662149801874,
                -0.11379990204377183,
                -0.837996152140366
            ]
        },
        {
            "positions": [
                2.27126214421873,
                -1.7480791460662182,
                -1.5010451699499794,
                -0.7942304175226192,
                -0.1616449676828784,
                -0.7284989020025419
            ]
        },
        {
            "positions": [
                2.3348648725562415,
                -1.7444183965122615,
                -1.5895311461772903,
                -0.7157986852433644,
                -0.20949003332198501,
                -0.6190016518647177
            ]
        },
        {
            "positions": [
                2.398467600893753,
                -1.7407576469583048,
                -1.6780171224046012,
                -0.6373669529641097,
                -0.2573350989610915,
                -0.5095044017268935
            ]
        },
        {
            "positions": [
                2.4620703292312647,
                -1.7370968974043481,
                -1.7665030986319121,
                -0.558935220684855,
                -0.30518016460019803,
                -0.4000071515890693
            ]
        },
        {
            "positions": [
                2.5256730575687762,
                -1.7334361478503915,
                -1.854989074859223,
                -0.4805034884056003,
                -0.35302523023930465,
                -0.29050990145124533
            ]
        },
        {
            "positions": [
                2.5892757859062883,
                -1.7297753982964346,
                -1.9434750510865344,
                -0.4020717561263454,
                -0.4008702958784113,
                -0.18101265131342092
            ]
        },
        {
            "positions": [
                2.6528785142438,
                -1.7261146487424779,
                -2.0319610273138453,
                -0.3236400238470907,
                -0.4487153615175179,
                -0.07151540117559674
            ]
        },
        {
            "positions": [
                2.7164812425813114,
                -1.7224538991885212,
                -2.1204470035411562,
                -0.24520829156783597,
                -0.4965604271566244,
                0.03798184896222745
            ]
        },
        {
            "positions": [
                2.780083970918823,
                -1.7187931496345645,
                -2.208932979768467,
                -0.16677655928858126,
                -0.5444054927957309,
                0.14747909910005141
            ]
        },
        {
            "positions": [
                2.8436866992563345,
                -1.7151324000806076,
                -2.2974189559957785,
                -0.08834482700932611,
                -0.5922505584348376,
                0.2569763492378758
            ]
        },
        {
            "positions": [
                2.907289427593846,
                -1.711471650526651,
                -2.3859049322230894,
                -0.009913094730071403,
                -0.6400956240739443,
                0.36647359937570023
            ]
        },
        {
            "positions": [
                2.9708921559313577,
                -1.7078109009726943,
                -2.4743909084504003,
                0.0685186375491833,
                -0.6879406897130508,
                0.4759708495135242
            ]
        },
        {
            "positions": [
                3.0344948842688693,
                -1.7041501514187376,
                -2.5628768846777112,
                0.146950369828438,
                -0.7357857553521573,
                0.5854680996513482
            ]
        },
        {
            "positions": [
                3.098097612606381,
                -1.7004894018647807,
                -2.6513628609050226,
                0.22538210210769294,
                -0.783630820991264,
                0.6949653497891726
            ]
        },
        {
            "positions": [
                3.1617003409438924,
                -1.696828652310824,
                -2.7398488371323335,
                0.30381383438694765,
                -0.8314758866303705,
                0.804462599926997
            ]
        },
        {
            "positions": [
                3.225303069281404,
                -1.6931679027568673,
                -2.8283348133596444,
                0.38224556666620213,
                -0.8793209522694769,
                0.9139598500648209
            ]
        },
        {
            "positions": [
                3.2026743751335705,
                -1.7130009038856304,
                -2.780944716705461,
                0.2678035471995174,
                -0.8631270991422804,
                0.7529221394398864
            ]
        },
        {
            "positions": [
                3.180045680985737,
                -1.7328339050143933,
                -2.7335546200512777,
                0.15336152773283257,
                -0.8469332460150839,
                0.5918844288149518
            ]
        },
        {
            "positions": [
                3.157416986837904,
                -1.7526669061431563,
                -2.6861645233970943,
                0.03891950826614782,
                -0.8307393928878873,
                0.43084671819001724
            ]
        },
        {
            "positions": [
                3.1347882926900703,
                -1.7724999072719194,
                -2.6387744267429105,
                -0.07552251120053699,
                -0.8145455397606909,
                0.26980900756508264
            ]
        },
        {
            "positions": [
                3.112159598542237,
                -1.7923329084006823,
                -2.591384330088727,
                -0.18996453066722185,
                -0.7983516866334943,
                0.10877129694014798
            ]
        },
        {
            "positions": [
                3.0895309043944033,
                -1.8121659095294453,
                -2.543994233434544,
                -0.3044065501339065,
                -0.7821578335062978,
                -0.05226641368478646
            ]
        },
        {
            "positions": [
                3.0669022102465697,
                -1.8319989106582084,
                -2.4966041367803604,
                -0.41884856960059147,
                -0.7659639803791013,
                -0.21330412430972112
            ]
        },
        {
            "positions": [
                3.0442735160987366,
                -1.8518319117869715,
                -2.449214040126177,
                -0.5332905890672761,
                -0.7497701272519047,
                -0.37434183493465567
            ]
        },
        {
            "positions": [
                3.021644821950903,
                -1.8716649129157343,
                -2.4018239434719937,
                -0.647732608533961,
                -0.7335762741247083,
                -0.5353795455595902
            ]
        },
        {
            "positions": [
                2.9990161278030696,
                -1.8914979140444974,
                -2.35443384681781,
                -0.7621746280006458,
                -0.7173824209975117,
                -0.696417256184525
            ]
        },
        {
            "positions": [
                2.976387433655236,
                -1.9113309151732603,
                -2.3070437501636265,
                -0.8766166474673305,
                -0.7011885678703151,
                -0.8574549668094593
            ]
        },
        {
            "positions": [
                2.9537587395074025,
                -1.9311639163020233,
                -2.259653653509443,
                -0.9910586669340151,
                -0.6849947147431187,
                -1.0184926774343939
            ]
        },
        {
            "positions": [
                2.9311300453595694,
                -1.9509969174307864,
                -2.2122635568552598,
                -1.1055006864007002,
                -0.6688008616159221,
                -1.1795303880593284
            ]
        },
        {
            "positions": [
                2.908501351211736,
                -1.9708299185595495,
                -2.1648734602010764,
                -1.219942705867385,
                -0.6526070084887257,
                -1.3405680986842632
            ]
        },
        {
            "positions": [
                2.8858726570639024,
                -1.9906629196883123,
                -2.117483363546893,
                -1.3343847253340695,
                -0.6364131553615291,
                -1.5016058093091975
            ]
        },
        {
            "positions": [
                2.863243962916069,
                -2.0104959208170756,
                -2.0700932668927097,
                -1.4488267448007544,
                -0.6202193022343325,
                -1.6626435199341323
            ]
        },
        {
            "positions": [
                2.8406152687682353,
                -2.0303289219458382,
                -2.022703170238526,
                -1.5632687642674394,
                -0.604025449107136,
                -1.823681230559067
            ]
        },
        {
            "positions": [
                2.8179865746204023,
                -2.0501619230746013,
                -1.9753130735843425,
                -1.677710783734124,
                -0.5878315959799396,
                -1.9847189411840014
            ]
        },
        {
            "positions": [
                2.7953578804725687,
                -2.0699949242033644,
                -1.9279229769301591,
                -1.7921528032008087,
                -0.571637742852743,
                -2.145756651808936
            ]
        },
        {
            "positions": [
                2.772729186324735,
                -2.0898279253321275,
                -1.8805328802759758,
                -1.9065948226674938,
                -0.5554438897255465,
                -2.306794362433871
            ]
        },
        {
            "positions": [
                2.7501004921769017,
                -2.1096609264608905,
                -1.8331427836217924,
                -2.0210368421341784,
                -0.5392500365983499,
                -2.467832073058805
            ]
        },
        {
            "positions": [
                2.727471798029068,
                -2.129493927589653,
                -1.7857526869676088,
                -2.135478861600863,
                -0.5230561834711535,
                -2.6288697836837396
            ]
        },
        {
            "positions": [
                2.7048431038812346,
                -2.1493269287184162,
                -1.7383625903134252,
                -2.249920881067548,
                -0.5068623303439569,
                -2.7899074943086744
            ]
        },
        {
            "positions": [
                2.6822144097334015,
                -2.1691599298471793,
                -1.690972493659242,
                -2.3643629005342324,
                -0.4906684772167604,
                -2.9509452049336087
            ]
        },
        {
            "positions": [
                2.659585715585568,
                -2.1889929309759424,
                -1.6435823970050585,
                -2.4788049200009175,
                -0.47447462408956387,
                -3.111982915558543
            ]
        }
    ]
}