{
    "goal": {
        "global_pose": {
            "orientation": {
                "w": 0.005598929693374612,
                "x": 0.007748599140229565,
                "y": 0.7110244013736278,
                "z": -0.7031023480610252
            },
            "position": {
                "x": 0.1141497679147869,
                "y": -0.7141253447532654,
                "z": 0.3711530566215515
            }
        },
        "name": "move_to_auspresseinheit_B"
    },
    "id": "LBKPIECE_move_to_auspresseinheit_B_45",
    "joint_names": [
        "shoulder_pan_joint",
        "shoulder_lift_joint",
        "elbow_joint",
        "wrist_1_joint",
        "wrist_2_joint",
        "wrist_3_joint"
    ],
    "metrics": {
        "cart_traj_len": 0.5641928943179226,
        "distance_elbow_joint": 0.06033667344493354,
        "distance_shoulder_lift_joint": 0.2940059627617879,
        "distance_shoulder_pan_joint": 0.5774008449665873,
        "distance_wrist_1_joint": 0.31861260587006934,
        "distance_wrist_2_joint": 0.9901780050894811,
        "distance_wrist_3_joint": 0.0019607771430405485,
        "smoothness": 0.0,
        "time": 4.891824562,
        "traj_len": 1.497496200087299,
        "weighted_distance": 1.8855256653043815
    },
    "planner": "LBKPIECE",
    "start": {
        "state": {
            "elbow_joint": 2.019306165916698,
            "shoulder_lift_joint": -1.1220205098164344,
            "shoulder_pan_joint": -1.095207207618794,
            "wrist_1_joint": -0.8559671824921639,
            "wrist_2_joint": 0.47596387242952726,
            "wrist_3_joint": 3.159081874673826
        }
    },
    "waypoints": [
        {
            "positions": [
                -1.095207207618794,
                -1.1220205098164344,
                2.019306165916698,
                -0.8559671824921639,
                0.47596387242952726,
                3.159081874673826
            ]
        },
        {
            "positions": [
                -1.191440681779892,
                -1.1710215036100657,
                2.009250053675876,
                -0.802865081513819,
                0.6409935399444407,
                3.1594086708643325
            ]
        },
        {
            "positions": [
                -1.2876741559409897,
                -1.220022497403697,
                1.9991939414350535,
                -0.7497629805354741,
                0.8060232074593543,
                3.159735467054839
            ]
        },
        {
            "positions": [
                -1.3839076301020876,
                -1.2690234911973284,
                1.9891378291942312,
                -0.6966608795571292,
                0.9710528749742677,
                3.1600622632453463
            ]
        },
        {
            "positions": [
                -1.4801411042631853,
                -1.3180244849909597,
                1.979081716953409,
                -0.6435587785787843,
                1.1360825424891812,
                3.160389059435853
            ]
        },
        {
            "positions": [
                -1.5763745784242835,
                -1.367025478784591,
                1.9690256047125867,
                -0.5904566776004394,
                1.3011122100040948,
                3.1607158556263597
            ]
        },
        {
            "positions": [
                -1.6726080525853813,
                -1.4160264725782223,
                1.9589694924717644,
                -0.5373545766220945,
                1.4661418775190083,
                3.1610426518168664
            ]
        }
    ]
}