{
    "goal": {
        "global_pose": {
            "orientation": {
                "w": -0.00223480608172531,
                "x": 0.0024358444001904467,
                "y": 0.7094548369677653,
                "z": -0.704743149386269
            },
            "position": {
                "x": 0.6205249238014221,
                "y": -0.6371506643295288,
                "z": 0.19426114857196808
            }
        },
        "name": "move_to_magneteinheit_B"
    },
    "id": "LBKPIECE_move_to_magneteinheit_B_138",
    "joint_names": [
        "shoulder_pan_joint",
        "shoulder_lift_joint",
        "elbow_joint",
        "wrist_1_joint",
        "wrist_2_joint",
        "wrist_3_joint"
    ],
    "metrics": {
        "cart_traj_len": 4.683268344313836,
        "distance_elbow_joint": 4.047768834664506,
        "distance_shoulder_lift_joint": 1.4423156290814603,
        "distance_shoulder_pan_joint": 3.5162197008952076,
        "distance_wrist_1_joint": 3.7999395385288195,
        "distance_wrist_2_joint": 6.941969272349773,
        "distance_wrist_3_joint": 6.277448855605637,
        "smoothness": 0.48996879204662974,
        "time": 2.8619322119999997,
        "traj_len": 5.101535242564282,
        "weighted_distance": 7.022995682272294
    },
    "planner": "LBKPIECE",
    "start": {
        "state": {
            "elbow_joint": 2.3935871308073637,
            "shoulder_lift_joint": -1.9085141043777403,
            "shoulder_pan_joint": 0.7066247067284167,
            "wrist_1_joint": -0.46782909355067076,
            "wrist_2_joint": 0.7096259085804283,
            "wrist_3_joint": -3.1358149275257428
        }
    },
    "waypoints": [
        {
            "positions": [
                0.7066247067284167,
                -1.9085141043777403,
                2.3935871308073637,
                -0.46782909355067076,
                0.7096259085804283,
                -3.1358149275257428
            ]
        },
        {
            "positions": [
                0.6028945066035054,
                -1.8820848801772871,
                2.3508743637004437,
                -0.38780501712757764,
                0.5930626689408807,
                -3.116755166683853
            ]
        },
        {
            "positions": [
                0.499164306478594,
                -1.855655655976834,
                2.3081615965935236,
                -0.3077809407044846,
                0.47649942930133315,
                -3.0976954058419626
            ]
        },
        {
            "positions": [
                0.4768845062299092,
                -1.8029525045926054,
                2.232703103110385,
                -0.35505071907606184,
                0.42183570637860507,
                -3.062692266857413
            ]
        },
        {
            "positions": [
                0.4546047059812243,
                -1.7502493532083765,
                2.157244609627247,
                -0.4023204974476391,
                0.367171983455877,
                -3.027689127872863
            ]
        },
        {
            "positions": [
                0.4323249057325395,
                -1.6975462018241478,
                2.0817861161441082,
                -0.44959027581921635,
                0.3125082605331489,
                -2.9926859888883133
            ]
        },
        {
            "positions": [
                0.4676256317720511,
                -1.7561788084106578,
                2.0286750260957573,
                -0.43907605778964165,
                0.3739061347799144,
                -2.878683592566848
            ]
        },
        {
            "positions": [
                0.5029263578115626,
                -1.814811414997168,
                1.9755639360474062,
                -0.42856183976006695,
                0.43530400902668,
                -2.764681196245383
            ]
        },
        {
            "positions": [
                0.581297456313228,
                -1.836632711281406,
                1.9024650052225773,
                -0.5093886695073626,
                0.5162704157375279,
                -2.713123290268657
            ]
        },
        {
            "positions": [
                0.6596685548148935,
                -1.8584540075656442,
                1.8293660743977487,
                -0.5902154992546582,
                0.5972368224483757,
                -2.661565384291931
            ]
        },
        {
            "positions": [
                0.738039653316559,
                -1.8802753038498823,
                1.7562671435729198,
                -0.6710423290019539,
                0.6782032291592236,
                -2.6100074783152047
            ]
        },
        {
            "positions": [
                0.8164107518182244,
                -1.9020966001341204,
                1.6831682127480911,
                -0.7518691587492496,
                0.7591696358700715,
                -2.558449572338479
            ]
        },
        {
            "positions": [
                0.8947818503198899,
                -1.9239178964183585,
                1.6100692819232623,
                -0.8326959884965452,
                0.8401360425809193,
                -2.506891666361753
            ]
        },
        {
            "positions": [
                0.9731529488215553,
                -1.9457391927025967,
                1.5369703510984334,
                -0.9135228182438409,
                0.9211024492917672,
                -2.455333760385027
            ]
        },
        {
            "positions": [
                1.0515240473232208,
                -1.9675604889868348,
                1.4638714202736047,
                -0.9943496479911365,
                1.002068856002615,
                -2.403775854408301
            ]
        },
        {
            "positions": [
                1.1298951458248863,
                -1.989381785271073,
                1.3907724894487759,
                -1.0751764777384323,
                1.0830352627134627,
                -2.352217948431575
            ]
        },
        {
            "positions": [
                1.2082662443265517,
                -2.011203081555311,
                1.3176735586239472,
                -1.1560033074857279,
                1.164001669424311,
                -2.3006600424548487
            ]
        },
        {
            "positions": [
                1.2866373428282172,
                -2.033024377839549,
                1.2445746277991183,
                -1.2368301372330235,
                1.2449680761351587,
                -2.2491021364781227
            ]
        },
        {
            "positions": [
                1.3650084413298826,
                -2.0548456741237873,
                1.1714756969742894,
                -1.3176569669803193,
                1.3259344828460065,
                -2.197544230501397
            ]
        },
        {
            "positions": [
                1.443379539831548,
                -2.0766669704080254,
                1.0983767661494608,
                -1.398483796727615,
                1.4069008895568544,
                -2.145986324524671
            ]
        },
        {
            "positions": [
                1.5217506383332136,
                -2.0984882666922635,
                1.0252778353246321,
                -1.4793106264749105,
                1.4878672962677022,
                -2.094428418547945
            ]
        },
        {
            "positions": [
                1.600121736834879,
                -2.1203095629765016,
                0.9521789044998032,
                -1.5601374562222061,
                1.56883370297855,
                -2.042870512571219
            ]
        },
        {
            "positions": [
                1.6784928353365445,
                -2.1421308592607398,
                0.8790799736749744,
                -1.6409642859695017,
                1.649800109689398,
                -1.9913126065944928
            ]
        },
        {
            "positions": [
                1.75686393383821,
                -2.163952155544978,
                0.8059810428501457,
                -1.7217911157167975,
                1.7307665164002457,
                -1.9397547006177667
            ]
        },
        {
            "positions": [
                1.8352350323398754,
                -2.185773451829216,
                0.7328821120253168,
                -1.8026179454640932,
                1.8117329231110937,
                -1.8881967946410407
            ]
        },
        {
            "positions": [
                1.9136061308415409,
                -2.207594748113454,
                0.659783181200488,
                -1.8834447752113888,
                1.8926993298219417,
                -1.8366388886643148
            ]
        },
        {
            "positions": [
                1.9919772293432063,
                -2.2294160443976927,
                0.5866842503756593,
                -1.9642716049586846,
                1.9736657365327894,
                -1.7850809826875886
            ]
        },
        {
            "positions": [
                2.0703483278448718,
                -2.251237340681931,
                0.5135853195508304,
                -2.04509843470598,
                2.054632143243637,
                -1.7335230767108627
            ]
        },
        {
            "positions": [
                2.1487194263465375,
                -2.273058636966169,
                0.44048638872600154,
                -2.125925264453276,
                2.1355985499544854,
                -1.6819651707341365
            ]
        },
        {
            "positions": [
                2.2270905248482027,
                -2.294879933250407,
                0.3673874579011729,
                -2.2067520942005716,
                2.216564956665333,
                -1.6304072647574106
            ]
        },
        {
            "positions": [
                2.305461623349868,
                -2.316701229534645,
                0.294288527076344,
                -2.287578923947867,
                2.297531363376181,
                -1.5788493587806847
            ]
        },
        {
            "positions": [
                2.383832721851534,
                -2.3385225258188833,
                0.22118959625151513,
                -2.368405753695163,
                2.378497770087029,
                -1.5272914528039585
            ]
        },
        {
            "positions": [
                2.4622038203531993,
                -2.3603438221031214,
                0.14809066542668647,
                -2.4492325834424586,
                2.4594641767978764,
                -1.4757335468272326
            ]
        },
        {
            "positions": [
                2.5405749188548645,
                -2.3821651183873596,
                0.07499173460185782,
                -2.530059413189754,
                2.5404305835087246,
                -1.4241756408505066
            ]
        },
        {
            "positions": [
                2.6189460173565298,
                -2.4039864146715977,
                0.0018928037770291617,
                -2.6108862429370494,
                2.621396990219572,
                -1.3726177348737807
            ]
        },
        {
            "positions": [
                2.6973171158581954,
                -2.425807710955836,
                -0.07120612704779972,
                -2.6917130726843452,
                2.70236339693042,
                -1.3210598288970545
            ]
        },
        {
            "positions": [
                2.7756882143598607,
                -2.447629007240074,
                -0.14430505787262837,
                -2.772539902431641,
                2.7833298036412684,
                -1.2695019229203286
            ]
        },
        {
            "positions": [
                2.8540593128615264,
                -2.469450303524312,
                -0.21740398869745747,
                -2.8533667321789364,
                2.8642962103521157,
                -1.2179440169436027
            ]
        },
        {
            "positions": [
                2.9324304113631916,
                -2.49127159980855,
                -0.29050291952228613,
                -2.9341935619262323,
                2.945262617062964,
                -1.1663861109668765
            ]
        },
        {
            "positions": [
                3.0108015098648573,
                -2.5130928960927883,
                -0.3636018503471148,
                -3.015020391673528,
                3.026229023773811,
                -1.1148282049901506
            ]
        },
        {
            "positions": [
                3.0891726083665225,
                -2.5349141923770264,
                -0.4367007811719439,
                -3.0958472214208235,
                3.1071954304846594,
                -1.0632702990134244
            ]
        },
        {
            "positions": [
                3.167543706868188,
                -2.5567354886612645,
                -0.5097997119967728,
                -3.1766740511681193,
                3.188161837195507,
                -1.0117123930366985
            ]
        },
        {
            "positions": [
                3.14877699950657,
                -2.5429518427467923,
                -0.5521842302138233,
                -3.149676221423649,
                3.0522656132088355,
                -0.8578847515138617
            ]
        },
        {
            "positions": [
                3.1300102921449526,
                -2.52916819683232,
                -0.5945687484308739,
                -3.1226783916791785,
                2.916369389222164,
                -0.7040571099910249
            ]
        },
        {
            "positions": [
                3.1112435847833346,
                -2.515384550917848,
                -0.6369532666479245,
                -3.0956805619347083,
                2.780473165235492,
                -0.550229468468188
            ]
        },
        {
            "positions": [
                3.092476877421717,
                -2.5016009050033756,
                -0.6793377848649751,
                -3.0686827321902377,
                2.64457694124882,
                -0.3964018269453512
            ]
        },
        {
            "positions": [
                3.073710170060099,
                -2.4878172590889034,
                -0.7217223030820257,
                -3.0416849024457675,
                2.5086807172621484,
                -0.2425741854225143
            ]
        },
        {
            "positions": [
                3.054943462698481,
                -2.474033613174431,
                -0.7641068212990763,
                -3.014687072701297,
                2.3727844932754767,
                -0.08874654389967751
            ]
        },
        {
            "positions": [
                3.0361767553368635,
                -2.4602499672599585,
                -0.8064913395161268,
                -2.9876892429568267,
                2.236888269288805,
                0.06508109762315928
            ]
        },
        {
            "positions": [
                3.0174100479752455,
                -2.4464663213454863,
                -0.8488758577331773,
                -2.9606914132123565,
                2.1009920453021333,
                0.21890873914599607
            ]
        },
        {
            "positions": [
                2.9986433406136275,
                -2.432682675431014,
                -0.8912603759502279,
                -2.933693583467886,
                1.9650958213154617,
                0.3727363806688331
            ]
        },
        {
            "positions": [
                2.97987663325201,
                -2.418899029516542,
                -0.9336448941672785,
                -2.9066957537234157,
                1.8291995973287898,
                0.5265640221916699
            ]
        },
        {
            "positions": [
                2.961109925890392,
                -2.4051153836020696,
                -0.976029412384329,
                -2.879697923978945,
                1.6933033733421181,
                0.6803916637145067
            ]
        },
        {
            "positions": [
                2.942343218528774,
                -2.3913317376875973,
                -1.0184139306013797,
                -2.852700094234475,
                1.5574071493554464,
                0.8342193052373434
            ]
        },
        {
            "positions": [
                2.9235765111671563,
                -2.377548091773125,
                -1.06079844881843,
                -2.8257022644900043,
                1.4215109253687748,
                0.9880469467601802
            ]
        },
        {
            "positions": [
                2.9048098038055383,
                -2.363764445858653,
                -1.103182967035481,
                -2.798704434745534,
                1.2856147013821029,
                1.141874588283017
            ]
        },
        {
            "positions": [
                2.8860430964439203,
                -2.3499807999441806,
                -1.1455674852525313,
                -2.7717066050010635,
                1.1497184773954312,
                1.2957022298058543
            ]
        },
        {
            "positions": [
                2.8672763890823028,
                -2.3361971540297084,
                -1.1879520034695819,
                -2.7447087752565933,
                1.0138222534087595,
                1.4495298713286906
            ]
        },
        {
            "positions": [
                2.8485096817206847,
                -2.322413508115236,
                -1.2303365216866324,
                -2.7177109455121227,
                0.8779260294220874,
                1.6033575128515278
            ]
        },
        {
            "positions": [
                2.829742974359067,
                -2.308629862200764,
                -1.272721039903683,
                -2.6907131157676525,
                0.7420298054354162,
                1.7571851543743646
            ]
        },
        {
            "positions": [
                2.810976266997449,
                -2.2948462162862917,
                -1.3151055581207336,
                -2.663715286023182,
                0.6061335814487441,
                1.9110127958972014
            ]
        },
        {
            "positions": [
                2.7922095596358316,
                -2.2810625703718195,
                -1.3574900763377842,
                -2.6367174562787117,
                0.4702373574620724,
                2.064840437420038
            ]
        },
        {
            "positions": [
                2.7734428522742136,
                -2.267278924457347,
                -1.3998745945548348,
                -2.6097196265342415,
                0.33434113347540073,
                2.218668078942875
            ]
        },
        {
            "positions": [
                2.7546761449125956,
                -2.2534952785428746,
                -1.4422591127718853,
                -2.582721796789771,
                0.19844490948872906,
                2.3724957204657118
            ]
        },
        {
            "positions": [
                2.735909437550978,
                -2.2397116326284023,
                -1.484643630988936,
                -2.5557239670453007,
                0.06254868550205739,
                2.526323361988549
            ]
        },
        {
            "positions": [
                2.71714273018936,
                -2.22592798671393,
                -1.5270281492059865,
                -2.52872613730083,
                -0.07334753848461428,
                2.6801510035113854
            ]
        },
        {
            "positions": [
                2.698376022827742,
                -2.212144340799458,
                -1.569412667423037,
                -2.50172830755636,
                -0.2092437624712864,
                2.8339786450342226
            ]
        },
        {
            "positions": [
                2.6796093154661245,
                -2.1983606948849856,
                -1.6117971856400877,
                -2.4747304778118897,
                -0.3451399864579576,
                2.987806286557059
            ]
        },
        {
            "positions": [
                2.6608426081045065,
                -2.1845770489705134,
                -1.6541817038571383,
                -2.447732648067419,
                -0.4810362104446295,
                3.141633928079896
            ]
        }
    ]
}