{
    "goal": {
        "global_pose": {
            "orientation": {
                "w": 0.5084816217422485,
                "x": -0.49083608388900757,
                "y": 0.5182115435600281,
                "z": -0.4816462993621826
            },
            "position": {
                "x": 0.5540239810943604,
                "y": 0.030875300988554955,
                "z": 0.16403168439865112
            }
        },
        "name": "move_to_storage_A"
    },
    "id": "LBKPIECE_move_to_storage_A_2",
    "joint_names": [
        "shoulder_pan_joint",
        "shoulder_lift_joint",
        "elbow_joint",
        "wrist_1_joint",
        "wrist_2_joint",
        "wrist_3_joint"
    ],
    "metrics": {
        "cart_traj_len": 0.35334558984674747,
        "distance_elbow_joint": 0.44736782524257057,
        "distance_shoulder_lift_joint": 0.23570767842598017,
        "distance_shoulder_pan_joint": 0.46368671337784895,
        "distance_wrist_1_joint": 0.23331277722416954,
        "distance_wrist_2_joint": 1.0922621197442894,
        "distance_wrist_3_joint": 0.09526271243279183,
        "smoothness": 2.2204460668324854e-16,
        "time": 3.017711817,
        "traj_len": 1.60237318576156,
        "weighted_distance": 2.020816703286494
    },
    "planner": "LBKPIECE",
    "start": {
        "state": {
            "elbow_joint": 1.9715474177455299,
            "shoulder_lift_joint": -1.139484666580328,
            "shoulder_pan_joint": 0.12281154398918248,
            "wrist_1_joint": -0.7804687475355282,
            "wrist_2_joint": 0.12958649657246987,
            "wrist_3_joint": -3.1924925159053466
        }
    },
    "waypoints": [
        {
            "positions": [
                0.12281154398918248,
                -1.139484666580328,
                1.9715474177455299,
                -0.7804687475355282,
                0.12958649657246987,
                -3.1924925159053466
            ]
        },
        {
            "positions": [
                0.05657058493520406,
                -1.1731571920697537,
                2.035457107065897,
                -0.8137991442818381,
                0.28562394225022547,
                -3.1788835569863765
            ]
        },
        {
            "positions": [
                -0.00967037411877436,
                -1.2068297175591796,
                2.0993667963862643,
                -0.8471295410281481,
                0.44166138792798115,
                -3.165274598067406
            ]
        },
        {
            "positions": [
                -0.07591133317275278,
                -1.2405022430486052,
                2.1632764857066316,
                -0.880459937774458,
                0.5976988336057367,
                -3.151665639148436
            ]
        },
        {
            "positions": [
                -0.1421522922267312,
                -1.274174768538031,
                2.227186175026999,
                -0.913790334520768,
                0.7537362792834924,
                -3.1380566802294654
            ]
        },
        {
            "positions": [
                -0.20839325128070962,
                -1.3078472940274568,
                2.291095864347366,
                -0.9471207312670779,
                0.9097737249612481,
                -3.1244477213104953
            ]
        },
        {
            "positions": [
                -0.27463421033468804,
                -1.3415198195168825,
                2.3550055536677332,
                -0.9804511280133879,
                1.0658111706390037,
                -3.110838762391525
            ]
        },
        {
            "positions": [
                -0.34087516938866647,
                -1.3751923450063082,
                2.4189152429881005,
                -1.0137815247596977,
                1.2218486163167592,
                -3.0972298034725547
            ]
        }
    ]
}