{
    "goal": {
        "global_pose": {
            "orientation": {
                "w": 0.7031023480610252,
                "x": -0.7110244013736278,
                "y": 0.0077485991402295624,
                "z": 0.005598929693374583
            },
            "position": {
                "x": -0.8841497679147869,
                "y": 0.44412534475326537,
                "z": 0.3711530566215515
            }
        },
        "name": "move_to_auspresseinheit_D"
    },
    "id": "LBKPIECE_move_to_auspresseinheit_D_38",
    "joint_names": [
        "shoulder_pan_joint",
        "shoulder_lift_joint",
        "elbow_joint",
        "wrist_1_joint",
        "wrist_2_joint",
        "wrist_3_joint"
    ],
    "metrics": {
        "cart_traj_len": 3.664972934723461,
        "distance_elbow_joint": 3.0087730959159513,
        "distance_shoulder_lift_joint": 1.2385581163669315,
        "distance_shoulder_pan_joint": 2.796518163414217,
        "distance_wrist_1_joint": 3.7171564182818573,
        "distance_wrist_2_joint": 1.224519372029606,
        "distance_wrist_3_joint": 3.090582602780184,
        "smoothness": 0.2977028630402942,
        "time": 4.668663228000001,
        "traj_len": 3.8827963851828167,
        "weighted_distance": 5.118490867888753
    },
    "planner": "LBKPIECE",
    "start": {
        "state": {
            "elbow_joint": 1.8268400409724999,
            "shoulder_lift_joint": -1.0144045787793008,
            "shoulder_pan_joint": 2.6280239544362485,
            "wrist_1_joint": -0.790705565816056,
            "wrist_2_joint": 1.0573557467365533,
            "wrist_3_joint": 3.1851377467193758
        }
    },
    "waypoints": [
        {
            "positions": [
                2.6280239544362485,
                -1.0144045787793008,
                1.8268400409724999,
                -0.790705565816056,
                1.0573557467365533,
                3.1851377467193758
            ]
        },
        {
            "positions": [
                2.5993814361379917,
                -1.037364352518058,
                1.7885361321540334,
                -0.7104542912453433,
                1.0042508451012577,
                3.03181619035521
            ]
        },
        {
            "positions": [
                2.5707389178397353,
                -1.060324126256815,
                1.7502322233355667,
                -0.6302030166746305,
                0.9511459434659624,
                2.878494633991044
            ]
        },
        {
            "positions": [
                2.542096399541479,
                -1.083283899995572,
                1.7119283145171003,
                -0.5499517421039178,
                0.8980410418306669,
                2.725173077626878
            ]
        },
        {
            "positions": [
                2.513453881243222,
                -1.1062436737343293,
                1.6736244056986336,
                -0.46970046753320505,
                0.8449361401953714,
                2.571851521262712
            ]
        },
        {
            "positions": [
                2.4848113629449653,
                -1.1292034474730865,
                1.6353204968801671,
                -0.38944919296249236,
                0.791831238560076,
                2.4185299648985463
            ]
        },
        {
            "positions": [
                2.456168844646709,
                -1.1521632212118436,
                1.5970165880617007,
                -0.3091979183917797,
                0.7387263369247805,
                2.2652084085343804
            ]
        },
        {
            "positions": [
                2.4275263263484526,
                -1.1751229949506006,
                1.558712679243234,
                -0.228946643821067,
                0.685621435289485,
                2.1118868521702145
            ]
        },
        {
            "positions": [
                2.3988838080501957,
                -1.1980827686893578,
                1.5204087704247675,
                -0.1486953692503541,
                0.6325165336541896,
                1.9585652958060487
            ]
        },
        {
            "positions": [
                2.370241289751939,
                -1.221042542428115,
                1.4821048616063008,
                -0.06844409467964141,
                0.5794116320188941,
                1.8052437394418828
            ]
        },
        {
            "positions": [
                2.3415987714536826,
                -1.244002316166872,
                1.4438009527878344,
                0.011807179891071246,
                0.5263067303835987,
                1.6519221830777169
            ]
        },
        {
            "positions": [
                2.2550438410939706,
                -1.2787940533730568,
                1.3532584007971005,
                -0.08869777433564356,
                0.5023939594981969,
                1.7056244947721488
            ]
        },
        {
            "positions": [
                2.168488910734258,
                -1.3135857905792419,
                1.2627158488063663,
                -0.18920272856235837,
                0.47848118861279515,
                1.7593268064665806
            ]
        },
        {
            "positions": [
                2.0819339803745462,
                -1.3483775277854266,
                1.1721732968156324,
                -0.2897076827890732,
                0.45456841772739337,
                1.8130291181610125
            ]
        },
        {
            "positions": [
                1.995379050014834,
                -1.3831692649916114,
                1.0816307448248983,
                -0.390212637015788,
                0.4306556468419916,
                1.8667314298554445
            ]
        },
        {
            "positions": [
                1.9088241196551219,
                -1.4179610021977962,
                0.9910881928341643,
                -0.4907175912425028,
                0.4067428759565898,
                1.9204337415498764
            ]
        },
        {
            "positions": [
                1.82226918929541,
                -1.452752739403981,
                0.9005456408434304,
                -0.5912225454692176,
                0.3828301050711881,
                1.9741360532443082
            ]
        },
        {
            "positions": [
                1.7357142589356975,
                -1.487544476610166,
                0.8100030888526962,
                -0.6917274996959324,
                0.3589173341857863,
                2.02783836493874
            ]
        },
        {
            "positions": [
                1.6491593285759856,
                -1.5223362138163508,
                0.7194605368619623,
                -0.7922324539226472,
                0.33500456330038453,
                2.081540676633172
            ]
        },
        {
            "positions": [
                1.5626043982162734,
                -1.5571279510225355,
                0.6289179848712283,
                -0.8927374081493621,
                0.31109179241498275,
                2.135242988327604
            ]
        },
        {
            "positions": [
                1.4760494678565612,
                -1.5919196882287205,
                0.5383754328804942,
                -0.9932423623760769,
                0.28717902152958097,
                2.188945300022036
            ]
        },
        {
            "positions": [
                1.3894945374968493,
                -1.6267114254349053,
                0.44783288088976037,
                -1.0937473166027916,
                0.26326625064417924,
                2.2426476117164675
            ]
        },
        {
            "positions": [
                1.302939607137137,
                -1.66150316264109,
                0.35729032889902634,
                -1.1942522708295065,
                0.23935347975877747,
                2.2963499234108995
            ]
        },
        {
            "positions": [
                1.216384676777425,
                -1.6962948998472749,
                0.2667477769082922,
                -1.2947572250562214,
                0.21544070887337569,
                2.3500522351053315
            ]
        },
        {
            "positions": [
                1.1298297464177127,
                -1.7310866370534597,
                0.17620522491755808,
                -1.395262179282936,
                0.19152793798797396,
                2.4037545467997634
            ]
        },
        {
            "positions": [
                1.0432748160580005,
                -1.7658783742596447,
                0.08566267292682417,
                -1.495767133509651,
                0.16761516710257218,
                2.4574568584941954
            ]
        },
        {
            "positions": [
                0.9567198856982886,
                -1.8006701114658294,
                -0.004879879063909742,
                -1.5962720877363656,
                0.14370239621717046,
                2.5111591701886273
            ]
        },
        {
            "positions": [
                0.8701649553385766,
                -1.8354618486720142,
                -0.09542243105464365,
                -1.6967770419630803,
                0.11978962533176868,
                2.5648614818830593
            ]
        },
        {
            "positions": [
                0.7836100249788642,
                -1.8702535858781992,
                -0.18596498304537779,
                -1.7972819961897954,
                0.0958768544463669,
                2.618563793577491
            ]
        },
        {
            "positions": [
                0.6970550946191523,
                -1.905045323084384,
                -0.2765075350361117,
                -1.8977869504165101,
                0.07196408356096518,
                2.672266105271923
            ]
        },
        {
            "positions": [
                0.6105001642594399,
                -1.9398370602905688,
                -0.36705008702684605,
                -1.998291904643225,
                0.04805131267556334,
                2.7259684169663547
            ]
        },
        {
            "positions": [
                0.5239452338997279,
                -1.9746287974967536,
                -0.45759263901757974,
                -2.09879685886994,
                0.024138541790161616,
                2.7796707286607867
            ]
        },
        {
            "positions": [
                0.43739030354001596,
                -2.0094205347029384,
                -0.5481351910083136,
                -2.1993018130966546,
                0.00022577090475983663,
                2.8333730403552186
            ]
        },
        {
            "positions": [
                0.35083537318030356,
                -2.044212271909123,
                -0.638677742999048,
                -2.2998067673233695,
                -0.023686999980641943,
                2.8870753520496506
            ]
        },
        {
            "positions": [
                0.2642804428205916,
                -2.079004009115308,
                -0.7292202949897817,
                -2.4003117215500844,
                -0.04759977086604372,
                2.9407776637440826
            ]
        },
        {
            "positions": [
                0.17772551246087964,
                -2.113795746321493,
                -0.8197628469805158,
                -2.500816675776799,
                -0.07151254175144539,
                2.994479975438514
            ]
        },
        {
            "positions": [
                0.09117058210116724,
                -2.148587483527678,
                -0.91030539897125,
                -2.6013216300035142,
                -0.09542531263684728,
                3.0481822871329465
            ]
        },
        {
            "positions": [
                0.0046156517414552845,
                -2.1833792207338627,
                -1.0008479509619836,
                -2.7018265842302287,
                -0.11933808352224895,
                3.101884598827378
            ]
        },
        {
            "positions": [
                -0.08193927861825712,
                -2.2181709579400475,
                -1.0913905029527182,
                -2.8023315384569436,
                -0.14325085440765073,
                3.1555869105218104
            ]
        },
        {
            "positions": [
                -0.16849420897796885,
                -2.2529626951462323,
                -1.181933054943452,
                -2.9028364926836585,
                -0.16716362529305248,
                3.209289222216242
            ]
        }
    ]
}