{
    "goal": {
        "global_pose": {
            "orientation": {
                "w": 0.5084816217422485,
                "x": -0.49083608388900757,
                "y": 0.5182115435600281,
                "z": -0.4816462993621826
            },
            "position": {
                "x": 0.5540239810943604,
                "y": 0.030875300988554955,
                "z": 0.16403168439865112
            }
        },
        "name": "move_to_storage_A"
    },
    "id": "LBKPIECE_move_to_storage_A_70",
    "joint_names": [
        "shoulder_pan_joint",
        "shoulder_lift_joint",
        "elbow_joint",
        "wrist_1_joint",
        "wrist_2_joint",
        "wrist_3_joint"
    ],
    "metrics": {
        "cart_traj_len": 0.3531524116143423,
        "distance_elbow_joint": 0.4500894382289977,
        "distance_shoulder_lift_joint": 0.23563483175092803,
        "distance_shoulder_pan_joint": 0.4600721143354353,
        "distance_wrist_1_joint": 0.2397640343777071,
        "distance_wrist_2_joint": 1.1071924314068249,
        "distance_wrist_3_joint": 0.09484413246456747,
        "smoothness": 7.771561204992932e-16,
        "time": 2.67226077,
        "traj_len": 1.6086009395012986,
        "weighted_distance": 2.0308229152927457
    },
    "planner": "LBKPIECE",
    "start": {
        "state": {
            "elbow_joint": 1.9715474177455299,
            "shoulder_lift_joint": -1.139484666580328,
            "shoulder_pan_joint": 0.12281154398918248,
            "wrist_1_joint": -0.7804687475355282,
            "wrist_2_joint": 0.12958649657246987,
            "wrist_3_joint": -3.1924925159053466
        }
    },
    "waypoints": [
        {
            "positions": [
                0.12281154398918248,
                -1.139484666580328,
                1.9715474177455299,
                -0.7804687475355282,
                0.12958649657246987,
                -3.1924925159053466
            ]
        },
        {
            "positions": [
                0.057086956226977445,
                -1.173146785401889,
                2.035845908921101,
                -0.8147207524466292,
                0.28775684391630196,
                -3.178943354124694
            ]
        },
        {
            "positions": [
                -0.008637631535227591,
                -1.2068089042234502,
                2.100144400096672,
                -0.8489727573577303,
                0.44592719126013414,
                -3.1653941923440416
            ]
        },
        {
            "positions": [
                -0.07436221929743264,
                -1.2404710230450113,
                2.1644428912722433,
                -0.8832247622688312,
                0.6040975386039662,
                -3.151845030563389
            ]
        },
        {
            "positions": [
                -0.14008680705963766,
                -1.2741331418665727,
                2.228741382447814,
                -0.9174767671799322,
                0.7622678859477984,
                -3.1382958687827367
            ]
        },
        {
            "positions": [
                -0.20581139482184274,
                -1.3077952606881338,
                2.2930398736233855,
                -0.9517287720910332,
                0.9204382332916305,
                -3.124746707002084
            ]
        },
        {
            "positions": [
                -0.27153598258404776,
                -1.341457379509695,
                2.3573383647989563,
                -0.9859807770021343,
                1.0786085806354626,
                -3.1111975452214318
            ]
        },
        {
            "positions": [
                -0.33726057034625284,
                -1.375119498331256,
                2.4216368559745276,
                -1.0202327819132353,
                1.2367789279792947,
                -3.097648383440779
            ]
        }
    ]
}