{
    "goal": {
        "global_pose": {
            "orientation": {
                "w": 0.005598929693374612,
                "x": 0.007748599140229565,
                "y": 0.7110244013736278,
                "z": -0.7031023480610252
            },
            "position": {
                "x": 0.1141497679147869,
                "y": -0.7141253447532654,
                "z": 0.3711530566215515
            }
        },
        "name": "move_to_auspresseinheit_B"
    },
    "id": "LBKPIECE_move_to_auspresseinheit_B_127",
    "joint_names": [
        "shoulder_pan_joint",
        "shoulder_lift_joint",
        "elbow_joint",
        "wrist_1_joint",
        "wrist_2_joint",
        "wrist_3_joint"
    ],
    "metrics": {
        "cart_traj_len": 0.5642627782695628,
        "distance_elbow_joint": 0.05953537581469348,
        "distance_shoulder_lift_joint": 0.29575176936404235,
        "distance_shoulder_pan_joint": 0.5785420698447514,
        "distance_wrist_1_joint": 0.319614381666416,
        "distance_wrist_2_joint": 0.9856369034049073,
        "distance_wrist_3_joint": 0.007916042886713992,
        "smoothness": 0.0,
        "time": 4.878735004,
        "traj_len": 1.4989985133353283,
        "weighted_distance": 1.88893618574749
    },
    "planner": "LBKPIECE",
    "start": {
        "state": {
            "elbow_joint": 2.019306165916698,
            "shoulder_lift_joint": -1.1220205098164344,
            "shoulder_pan_joint": -1.095207207618794,
            "wrist_1_joint": -0.8559671824921639,
            "wrist_2_joint": 0.47596387242952726,
            "wrist_3_joint": 3.159081874673826
        }
    },
    "waypoints": [
        {
            "positions": [
                -1.095207207618794,
                -1.1220205098164344,
                2.019306165916698,
                -0.8559671824921639,
                0.47596387242952726,
                3.159081874673826
            ]
        },
        {
            "positions": [
                -1.1916308859262525,
                -1.1713124713771081,
                2.0093836032809156,
                -0.8026981188810945,
                0.6402366896636784,
                3.1604012151549448
            ]
        },
        {
            "positions": [
                -1.2880545642337111,
                -1.2206044329377819,
                1.9994610406451334,
                -0.7494290552700252,
                0.8045095068978296,
                3.1617205556360637
            ]
        },
        {
            "positions": [
                -1.3844782425411697,
                -1.2698963944984556,
                1.9895384780093512,
                -0.6961599916589558,
                0.9687823241319808,
                3.1630398961171826
            ]
        },
        {
            "positions": [
                -1.4809019208486283,
                -1.3191883560591293,
                1.979615915373569,
                -0.6428909280478865,
                1.133055141366132,
                3.164359236598302
            ]
        },
        {
            "positions": [
                -1.5773255991560868,
                -1.368480317619803,
                1.9696933527377867,
                -0.5896218644368172,
                1.2973279586002833,
                3.165678577079421
            ]
        },
        {
            "positions": [
                -1.6737492774635454,
                -1.4177722791804768,
                1.9597707901020045,
                -0.5363528008257479,
                1.4616007758344345,
                3.16699791756054
            ]
        }
    ]
}