{
    "goal": {
        "global_pose": {
            "orientation": {
                "w": -0.00223480608172531,
                "x": 0.0024358444001904467,
                "y": 0.7094548369677653,
                "z": -0.704743149386269
            },
            "position": {
                "x": 0.6205249238014221,
                "y": -0.6371506643295288,
                "z": 0.19426114857196808
            }
        },
        "name": "move_to_magneteinheit_B"
    },
    "id": "LBKPIECE_move_to_magneteinheit_B_140",
    "joint_names": [
        "shoulder_pan_joint",
        "shoulder_lift_joint",
        "elbow_joint",
        "wrist_1_joint",
        "wrist_2_joint",
        "wrist_3_joint"
    ],
    "metrics": {
        "cart_traj_len": 1.4524420382257524,
        "distance_elbow_joint": 0.7283294035183341,
        "distance_shoulder_lift_joint": 1.247815250505139,
        "distance_shoulder_pan_joint": 1.621969776787132,
        "distance_wrist_1_joint": 2.6056595113573295,
        "distance_wrist_2_joint": 2.9373996133268525,
        "distance_wrist_3_joint": 3.139531413564806,
        "smoothness": 5.273559385240909e-16,
        "time": 2.320631284,
        "traj_len": 3.504383678916964,
        "weighted_distance": 4.909462997199733
    },
    "planner": "LBKPIECE",
    "start": {
        "state": {
            "elbow_joint": 2.3935871308073637,
            "shoulder_lift_joint": -1.9085141043777403,
            "shoulder_pan_joint": 0.7066247067284167,
            "wrist_1_joint": -0.46782909355067076,
            "wrist_2_joint": 0.7096259085804283,
            "wrist_3_joint": -3.1358149275257428
        }
    },
    "waypoints": [
        {
            "positions": [
                0.7066247067284167,
                -1.9085141043777403,
                2.3935871308073637,
                -0.46782909355067076,
                0.7096259085804283,
                -3.1358149275257428
            ]
        },
        {
            "positions": [
                0.654303101025606,
                -1.8682619995227359,
                2.3700926339196755,
                -0.38377556092624077,
                0.6148710823440782,
                -3.0345397206365554
            ]
        },
        {
            "positions": [
                0.6019814953227953,
                -1.8280098946677312,
                2.3465981370319873,
                -0.29972202830181083,
                0.5201162561077282,
                -2.933264513747368
            ]
        },
        {
            "positions": [
                0.5496598896199846,
                -1.7877577898127268,
                2.323103640144299,
                -0.21566849567738083,
                0.42536142987137804,
                -2.8319893068581807
            ]
        },
        {
            "positions": [
                0.4973382839171739,
                -1.7475056849577224,
                2.299609143256611,
                -0.13161496305295084,
                0.330606603635028,
                -2.730714099968994
            ]
        },
        {
            "positions": [
                0.4450166782143632,
                -1.7072535801027178,
                2.2761146463689226,
                -0.047561430428520846,
                0.2358517773986779,
                -2.6294388930798065
            ]
        },
        {
            "positions": [
                0.39269507251155245,
                -1.6670014752477134,
                2.252620149481235,
                0.03649210219590909,
                0.1410969511623278,
                -2.528163686190619
            ]
        },
        {
            "positions": [
                0.34037346680874175,
                -1.626749370392709,
                2.2291256525935466,
                0.12054563482033914,
                0.04634212492597778,
                -2.426888479301432
            ]
        },
        {
            "positions": [
                0.28805186110593106,
                -1.5864972655377043,
                2.2056311557058583,
                0.20459916744476908,
                -0.04841270131037234,
                -2.3256132724122445
            ]
        },
        {
            "positions": [
                0.23573025540312031,
                -1.5462451606827,
                2.18213665881817,
                0.28865270006919913,
                -0.14316752754672246,
                -2.224338065523057
            ]
        },
        {
            "positions": [
                0.18340864970030968,
                -1.5059930558276955,
                2.158642161930482,
                0.37270623269362907,
                -0.23792235378307247,
                -2.12306285863387
            ]
        },
        {
            "positions": [
                0.13108704399749893,
                -1.4657409509726909,
                2.1351476650427936,
                0.4567597653180591,
                -0.3326771800194227,
                -2.021787651744683
            ]
        },
        {
            "positions": [
                0.07876543829468818,
                -1.4254888461176864,
                2.1116531681551054,
                0.5408132979424889,
                -0.4274320062557727,
                -1.9205124448554953
            ]
        },
        {
            "positions": [
                0.026443832591877436,
                -1.3852367412626818,
                2.088158671267417,
                0.6248668305669189,
                -0.5221868324921227,
                -1.819237237966308
            ]
        },
        {
            "positions": [
                -0.0258777731109332,
                -1.3449846364076774,
                2.064664174379729,
                0.708920363191349,
                -0.6169416587284727,
                -1.7179620310771209
            ]
        },
        {
            "positions": [
                -0.07819937881374395,
                -1.304732531552673,
                2.0411696774920407,
                0.792973895815779,
                -0.711696484964823,
                -1.6166868241879335
            ]
        },
        {
            "positions": [
                -0.13052098451655458,
                -1.2644804266976686,
                2.0176751806043525,
                0.8770274284402089,
                -0.806451311201173,
                -1.5154116172987462
            ]
        },
        {
            "positions": [
                -0.18284259021936522,
                -1.2242283218426642,
                1.9941806837166645,
                0.9610809610646389,
                -0.901206137437523,
                -1.414136410409559
            ]
        },
        {
            "positions": [
                -0.23516419592217608,
                -1.1839762169876595,
                1.9706861868289762,
                1.045134493689069,
                -0.9959609636738732,
                -1.3128612035203715
            ]
        },
        {
            "positions": [
                -0.2874858016249867,
                -1.1437241121326551,
                1.947191689941288,
                1.129188026313499,
                -1.0907157899102233,
                -1.2115859966311844
            ]
        },
        {
            "positions": [
                -0.33980740732779735,
                -1.1034720072776505,
                1.9236971930535998,
                1.2132415589379288,
                -1.1854706161465733,
                -1.1103107897419973
            ]
        },
        {
            "positions": [
                -0.392129013030608,
                -1.063219902422646,
                1.9002026961659118,
                1.2972950915623587,
                -1.2802254423829234,
                -1.00903558285281
            ]
        },
        {
            "positions": [
                -0.44445061873341885,
                -1.0229677975676417,
                1.8767081992782235,
                1.381348624186789,
                -1.3749802686192738,
                -0.9077603759636226
            ]
        },
        {
            "positions": [
                -0.4967722244362295,
                -0.9827156927126371,
                1.8532137023905353,
                1.4654021568112188,
                -1.4697350948556238,
                -0.8064851690744352
            ]
        },
        {
            "positions": [
                -0.5490938301390403,
                -0.9424635878576327,
                1.829719205502847,
                1.5494556894356486,
                -1.5644899210919738,
                -0.7052099621852479
            ]
        },
        {
            "positions": [
                -0.601415435841851,
                -0.9022114830026282,
                1.8062247086151588,
                1.6335092220600789,
                -1.6592447473283238,
                -0.603934755296061
            ]
        },
        {
            "positions": [
                -0.6537370415446618,
                -0.8619593781476236,
                1.7827302117274706,
                1.7175627546845087,
                -1.7539995735646738,
                -0.5026595484068732
            ]
        },
        {
            "positions": [
                -0.7060586472474725,
                -0.8217072732926192,
                1.7592357148397824,
                1.801616287308939,
                -1.8487543998010239,
                -0.40138434151768587
            ]
        },
        {
            "positions": [
                -0.7583802529502831,
                -0.7814551684376148,
                1.7357412179520941,
                1.8856698199333688,
                -1.9435092260373739,
                -0.300109134628499
            ]
        },
        {
            "positions": [
                -0.8107018586530937,
                -0.7412030635826103,
                1.7122467210644061,
                1.9697233525577986,
                -2.038264052273724,
                -0.19883392773931163
            ]
        },
        {
            "positions": [
                -0.8630234643559046,
                -0.7009509587276057,
                1.6887522241767177,
                2.053776885182229,
                -2.1330188785100743,
                -0.09755872085012429
            ]
        },
        {
            "positions": [
                -0.9153450700587152,
                -0.6606988538726012,
                1.6652577272890297,
                2.1378304178066587,
                -2.2277737047464243,
                0.003716486039062909
            ]
        }
    ]
}