{
    "goal": {
        "global_pose": {
            "orientation": {
                "w": -0.4816463035849501,
                "x": 0.5182115481033762,
                "y": 0.4908360881923453,
                "z": -0.5084816262002911
            },
            "position": {
                "x": -0.8240239810943604,
                "y": -0.300875300988555,
                "z": 0.16403168439865112
            }
        },
        "name": "move_to_storage_C"
    },
    "id": "LBKPIECE_move_to_storage_C_119",
    "joint_names": [
        "shoulder_pan_joint",
        "shoulder_lift_joint",
        "elbow_joint",
        "wrist_1_joint",
        "wrist_2_joint",
        "wrist_3_joint"
    ],
    "metrics": {
        "cart_traj_len": 0.5774561526906177,
        "distance_elbow_joint": 0.2567508335733766,
        "distance_shoulder_lift_joint": 0.18957978786145246,
        "distance_shoulder_pan_joint": 0.49621097587144325,
        "distance_wrist_1_joint": 0.06835130178446525,
        "distance_wrist_2_joint": 1.0595571159446298,
        "distance_wrist_3_joint": 0.060192243278415436,
        "smoothness": 0.0,
        "time": 3.143033246,
        "traj_len": 1.4596719694211377,
        "weighted_distance": 1.8381880106778274
    },
    "planner": "LBKPIECE",
    "start": {
        "state": {
            "elbow_joint": 2.010868315001653,
            "shoulder_lift_joint": -1.1634956873357014,
            "shoulder_pan_joint": -2.4736205022346103,
            "wrist_1_joint": -0.8367026794713948,
            "wrist_2_joint": 0.6746043897044093,
            "wrist_3_joint": 3.1335220948105738
        }
    },
    "waypoints": [
        {
            "positions": [
                -2.4736205022346103,
                -1.1634956873357014,
                2.010868315001653,
                -0.8367026794713948,
                0.6746043897044093,
                3.1335220948105738
            ]
        },
        {
            "positions": [
                -2.5563223315465176,
                -1.1318990560254594,
                1.9680765094060904,
                -0.8253107958406506,
                0.8511972423618476,
                3.1435541353569763
            ]
        },
        {
            "positions": [
                -2.639024160858425,
                -1.1003024247152173,
                1.9252847038105276,
                -0.8139189122099063,
                1.0277900950192858,
                3.1535861759033788
            ]
        },
        {
            "positions": [
                -2.7217259901703317,
                -1.068705793404975,
                1.8824928982149647,
                -0.8025270285791621,
                1.204382947676724,
                3.1636182164497813
            ]
        },
        {
            "positions": [
                -2.804427819482239,
                -1.037109162094733,
                1.839701092619402,
                -0.791135144948418,
                1.3809758003341623,
                3.173650256996184
            ]
        },
        {
            "positions": [
                -2.8871296487941462,
                -1.005512530784491,
                1.7969092870238392,
                -0.7797432613176737,
                1.5575686529916006,
                3.1836822975425867
            ]
        },
        {
            "positions": [
                -2.9698314781060535,
                -0.973915899474249,
                1.7541174814282765,
                -0.7683513776869295,
                1.7341615056490391,
                3.193714338088989
            ]
        }
    ]
}