{
    "goal": {
        "global_pose": {
            "orientation": {
                "w": 0.005598929693374612,
                "x": 0.007748599140229565,
                "y": 0.7110244013736278,
                "z": -0.7031023480610252
            },
            "position": {
                "x": -0.8858502320852131,
                "y": -0.7141253447532654,
                "z": 0.3711530566215515
            }
        },
        "name": "move_to_auspresseinheit_C"
    },
    "id": "LBKPIECE_move_to_auspresseinheit_C_9",
    "joint_names": [
        "shoulder_pan_joint",
        "shoulder_lift_joint",
        "elbow_joint",
        "wrist_1_joint",
        "wrist_2_joint",
        "wrist_3_joint"
    ],
    "metrics": {
        "cart_traj_len": 0.49257297379412135,
        "distance_elbow_joint": 0.991524714521815,
        "distance_shoulder_lift_joint": 0.3213485476185719,
        "distance_shoulder_pan_joint": 0.2568023375459325,
        "distance_wrist_1_joint": 0.6628900468323206,
        "distance_wrist_2_joint": 1.3038473644422426,
        "distance_wrist_3_joint": 0.05556173652290619,
        "smoothness": 8.074349308362242e-16,
        "time": 3.438945622,
        "traj_len": 1.8952505764367384,
        "weighted_distance": 2.38114166563104
    },
    "planner": "LBKPIECE",
    "start": {
        "state": {
            "elbow_joint": 1.752795957773711,
            "shoulder_lift_joint": -0.9740617694225064,
            "shoulder_pan_joint": -2.967991417825858,
            "wrist_1_joint": -0.7595177689806859,
            "wrist_2_joint": 1.7443932448377395,
            "wrist_3_joint": 3.199131542505932
        }
    },
    "waypoints": [
        {
            "positions": [
                -2.967991417825858,
                -0.9740617694225064,
                1.752795957773711,
                -0.7595177689806859,
                1.7443932448377395,
                3.199131542505932
            ]
        },
        {
            "positions": [
                -2.9423111840712646,
                -0.9419269146606493,
                1.6536434863215297,
                -0.6932287642974538,
                1.6140085083935152,
                3.1935753688536415
            ]
        },
        {
            "positions": [
                -2.9166309503166716,
                -0.9097920598987921,
                1.554491014869348,
                -0.6269397596142218,
                1.4836237719492908,
                3.188019195201351
            ]
        },
        {
            "positions": [
                -2.8909507165620782,
                -0.8776572051369349,
                1.4553385434171666,
                -0.5606507549309897,
                1.3532390355050667,
                3.18246302154906
            ]
        },
        {
            "positions": [
                -2.865270482807485,
                -0.8455223503750777,
                1.3561860719649852,
                -0.4943617502477577,
                1.2228542990608424,
                3.1769068478967695
            ]
        },
        {
            "positions": [
                -2.8395902490528915,
                -0.8133874956132205,
                1.2570336005128036,
                -0.4280727455645256,
                1.092469562616618,
                3.1713506742444793
            ]
        },
        {
            "positions": [
                -2.8139100152982985,
                -0.7812526408513634,
                1.1578811290606221,
                -0.36178374088129356,
                0.962084826172394,
                3.1657945005921886
            ]
        },
        {
            "positions": [
                -2.788229781543705,
                -0.7491177860895062,
                1.0587286576084405,
                -0.29549473619806155,
                0.8317000897281698,
                3.160238326939898
            ]
        },
        {
            "positions": [
                -2.7625495477891118,
                -0.7169829313276489,
                0.9595761861562591,
                -0.22920573151482948,
                0.7013153532839453,
                3.1546821532876073
            ]
        },
        {
            "positions": [
                -2.736869314034519,
                -0.6848480765657917,
                0.8604237147040776,
                -0.1629167268315974,
                0.5709306168397212,
                3.1491259796353166
            ]
        },
        {
            "positions": [
                -2.7111890802799254,
                -0.6527132218039345,
                0.7612712432518961,
                -0.09662772214836536,
                0.44054588039549697,
                3.143569805983026
            ]
        }
    ]
}