{
    "goal": {
        "global_pose": {
            "orientation": {
                "w": 0.7031023502349854,
                "x": -0.7110244035720825,
                "y": 0.007748599164187908,
                "z": 0.005598929710686207
            },
            "position": {
                "x": 0.11585023208521307,
                "y": 0.44412534475326537,
                "z": 0.3711530566215515
            }
        },
        "name": "move_to_auspresseinheit_A"
    },
    "id": "LBKPIECE_move_to_auspresseinheit_A_135",
    "joint_names": [
        "shoulder_pan_joint",
        "shoulder_lift_joint",
        "elbow_joint",
        "wrist_1_joint",
        "wrist_2_joint",
        "wrist_3_joint"
    ],
    "metrics": {
        "cart_traj_len": 2.262759359805971,
        "distance_elbow_joint": 0.8737435010722421,
        "distance_shoulder_lift_joint": 2.457841623811336,
        "distance_shoulder_pan_joint": 1.1561817889648074,
        "distance_wrist_1_joint": 7.676245860214317,
        "distance_wrist_2_joint": 0.522923039924823,
        "distance_wrist_3_joint": 11.416138445760744,
        "smoothness": 0.5395035582400761,
        "time": 3.8018786369999997,
        "traj_len": 4.9094881871482565,
        "weighted_distance": 7.425262288391494
    },
    "planner": "LBKPIECE",
    "start": {
        "state": {
            "elbow_joint": 2.4225747245308327,
            "shoulder_lift_joint": -1.373653427065438,
            "shoulder_pan_joint": -0.33786330853087027,
            "wrist_1_joint": -1.0288602302712604,
            "wrist_2_joint": 1.23302299562683,
            "wrist_3_joint": -3.094021725338297
        }
    },
    "waypoints": [
        {
            "positions": [
                -0.33786330853087027,
                -1.373653427065438,
                2.4225747245308327,
                -1.0288602302712604,
                1.23302299562683,
                -3.094021725338297
            ]
        },
        {
            "positions": [
                -0.3045496252721027,
                -1.4190453035468427,
                2.4089422622374306,
                -0.9042422034711953,
                1.2287555595075936,
                -2.9214342081186744
            ]
        },
        {
            "positions": [
                -0.2712359420133351,
                -1.4644371800282474,
                2.395309799944028,
                -0.7796241766711304,
                1.2244881233883573,
                -2.748846690899051
            ]
        },
        {
            "positions": [
                -0.23792225875456757,
                -1.5098290565096522,
                2.381677337650626,
                -0.6550061498710653,
                1.2202206872691213,
                -2.5762591736794285
            ]
        },
        {
            "positions": [
                -0.20460857549580003,
                -1.555220932991057,
                2.368044875357224,
                -0.5303881230710004,
                1.215953251149885,
                -2.4036716564598057
            ]
        },
        {
            "positions": [
                -0.17129489223703248,
                -1.6006128094724619,
                2.3544124130638213,
                -0.4057700962709353,
                1.2116858150306486,
                -2.2310841392401826
            ]
        },
        {
            "positions": [
                -0.1379812089782649,
                -1.6460046859538666,
                2.3407799507704192,
                -0.28115206947087035,
                1.2074183789114123,
                -2.05849662202056
            ]
        },
        {
            "positions": [
                -0.10466752571949736,
                -1.6913965624352714,
                2.327147488477017,
                -0.15653404267080528,
                1.203150942792176,
                -1.8859091048009369
            ]
        },
        {
            "positions": [
                -0.07135384246072979,
                -1.7367884389166761,
                2.313515026183615,
                -0.03191601587074022,
                1.1988835066729397,
                -1.713321587581314
            ]
        },
        {
            "positions": [
                -0.03804015920196224,
                -1.7821803153980809,
                2.2998825638902125,
                0.09270201092932462,
                1.1946160705537037,
                -1.5407340703616912
            ]
        },
        {
            "positions": [
                -0.004726475943194697,
                -1.8275721918794856,
                2.2862501015968104,
                0.2173200377293898,
                1.1903486344344674,
                -1.3681465531420682
            ]
        },
        {
            "positions": [
                0.02858720731557285,
                -1.8729640683608904,
                2.2726176393034083,
                0.34193806452945474,
                1.186081198315231,
                -1.1955590359224453
            ]
        },
        {
            "positions": [
                0.06190089057434045,
                -1.918355944842295,
                2.258985177010006,
                0.4665560913295197,
                1.1818137621959948,
                -1.0229715187028225
            ]
        },
        {
            "positions": [
                0.09521457383310794,
                -1.9637478213236998,
                2.2453527147166037,
                0.5911741181295846,
                1.1775463260767585,
                -0.8503840014831994
            ]
        },
        {
            "positions": [
                0.12852825709187554,
                -2.0091396978051046,
                2.2317202524232016,
                0.7157921449296498,
                1.1732788899575224,
                -0.6777964842635766
            ]
        },
        {
            "positions": [
                0.1618419403506431,
                -2.0545315742865093,
                2.2180877901297995,
                0.8404101717297148,
                1.169011453838286,
                -0.5052089670439539
            ]
        },
        {
            "positions": [
                0.1951556236094107,
                -2.099923450767914,
                2.204455327836397,
                0.96502819852978,
                1.1647440177190498,
                -0.33262144982433073
            ]
        },
        {
            "positions": [
                0.22846930686817818,
                -2.145315327249319,
                2.190822865542995,
                1.089646225329845,
                1.1604765815998135,
                -0.160033932604708
            ]
        },
        {
            "positions": [
                0.2617829901269458,
                -2.1907072037307236,
                2.177190403249593,
                1.2142642521299096,
                1.1562091454805772,
                0.012553584614914737
            ]
        },
        {
            "positions": [
                0.2950966733857134,
                -2.2360990802121288,
                2.1635579409561903,
                1.3388822789299748,
                1.1519417093613409,
                0.1851411018345379
            ]
        },
        {
            "positions": [
                0.32841035664448087,
                -2.281490956693533,
                2.149925478662788,
                1.46350030573004,
                1.1476742732421048,
                0.35772861905416065
            ]
        },
        {
            "positions": [
                0.3617240399032485,
                -2.3268828331749383,
                2.136293016369386,
                1.5881183325301047,
                1.1434068371228685,
                0.5303161362737838
            ]
        },
        {
            "positions": [
                0.39503772316201596,
                -2.3722747096563426,
                2.1226605540759835,
                1.7127363593301699,
                1.1391394010036322,
                0.7029036534934066
            ]
        },
        {
            "positions": [
                0.42835140642078356,
                -2.4176665861377478,
                2.1090280917825814,
                1.837354386130235,
                1.134871964884396,
                0.8754911707130297
            ]
        },
        {
            "positions": [
                0.46166508967955117,
                -2.463058462619152,
                2.0953956294891793,
                1.9619724129302998,
                1.1306045287651596,
                1.048078687932652
            ]
        },
        {
            "positions": [
                0.49497877293831866,
                -2.5084503391005573,
                2.081763167195777,
                2.086590439730365,
                1.1263370926459235,
                1.2206662051522756
            ]
        },
        {
            "positions": [
                0.5282924561970861,
                -2.5538422155819616,
                2.0681307049023747,
                2.2112084665304295,
                1.1220696565266872,
                1.3932537223718984
            ]
        },
        {
            "positions": [
                0.5616061394558538,
                -2.5992340920633668,
                2.0544982426089726,
                2.3358264933304955,
                1.117802220407451,
                1.565841239591521
            ]
        },
        {
            "positions": [
                0.5949198227146213,
                -2.6446259685447715,
                2.0408657803155705,
                2.46044452013056,
                1.1135347842882146,
                1.7384287568111438
            ]
        },
        {
            "positions": [
                0.628233505973389,
                -2.6900178450261762,
                2.027233318022168,
                2.585062546930625,
                1.1092673481689783,
                1.9110162740307666
            ]
        },
        {
            "positions": [
                0.6615471892321565,
                -2.735409721507581,
                2.013600855728766,
                2.70968057373069,
                1.1049999120497422,
                2.0836037912503893
            ]
        },
        {
            "positions": [
                0.6948608724909242,
                -2.7808015979889857,
                1.9999683934353636,
                2.8342986005307553,
                1.100732475930506,
                2.256191308470013
            ]
        },
        {
            "positions": [
                0.7281745557496917,
                -2.8261934744703905,
                1.9863359311419613,
                2.9589166273308205,
                1.0964650398112696,
                2.4287788256896357
            ]
        },
        {
            "positions": [
                0.7614882390084592,
                -2.8715853509517952,
                1.9727034688485592,
                3.0835346541308852,
                1.0921976036920333,
                2.6013663429092584
            ]
        },
        {
            "positions": [
                0.7595285755110289,
                -2.8384850164716235,
                1.9873197531723512,
                2.960643241171845,
                1.07902182272686,
                2.404099088512252
            ]
        },
        {
            "positions": [
                0.7575689120135985,
                -2.805384681991452,
                2.0019360374961432,
                2.837751828212804,
                1.0658460417616866,
                2.206831834115246
            ]
        },
        {
            "positions": [
                0.7556092485161683,
                -2.77228434751128,
                2.016552321819935,
                2.7148604152537636,
                1.0526702607965133,
                2.0095645797182398
            ]
        },
        {
            "positions": [
                0.753649585018738,
                -2.7391840130311085,
                2.0311686061437273,
                2.5919690022947233,
                1.0394944798313401,
                1.812297325321233
            ]
        },
        {
            "positions": [
                0.7516899215213078,
                -2.706083678550937,
                2.045784890467519,
                2.469077589335683,
                1.0263186988661668,
                1.615030070924227
            ]
        },
        {
            "positions": [
                0.7497302580238774,
                -2.672983344070765,
                2.0604011747913114,
                2.3461861763766425,
                1.0131429179009934,
                1.4177628165272207
            ]
        },
        {
            "positions": [
                0.7477705945264471,
                -2.6398830095905934,
                2.075017459115103,
                2.2232947634176017,
                0.9999671369358201,
                1.2204955621302143
            ]
        },
        {
            "positions": [
                0.7458109310290169,
                -2.6067826751104217,
                2.0896337434388954,
                2.1004033504585613,
                0.9867913559706467,
                1.023228307733208
            ]
        },
        {
            "positions": [
                0.7438512675315865,
                -2.57368234063025,
                2.104250027762687,
                1.977511937499521,
                0.9736155750054734,
                0.8259610533362018
            ]
        },
        {
            "positions": [
                0.7418916040341562,
                -2.5405820061500783,
                2.1188663120864795,
                1.8546205245404803,
                0.9604397940403001,
                0.6286937989391954
            ]
        },
        {
            "positions": [
                0.739931940536726,
                -2.507481671669907,
                2.1334825964102713,
                1.73172911158144,
                0.9472640130751268,
                0.4314265445421892
            ]
        },
        {
            "positions": [
                0.7379722770392957,
                -2.4743813371897354,
                2.1480988807340635,
                1.6088376986223993,
                0.9340882321099534,
                0.234159290145183
            ]
        },
        {
            "positions": [
                0.7360126135418653,
                -2.4412810027095637,
                2.1627151650578553,
                1.485946285663359,
                0.9209124511447802,
                0.03689203574817679
            ]
        },
        {
            "positions": [
                0.734052950044435,
                -2.408180668229392,
                2.1773314493816476,
                1.3630548727043184,
                0.9077366701796068,
                -0.16037521864882986
            ]
        },
        {
            "positions": [
                0.7320932865470048,
                -2.3750803337492203,
                2.1919477337054394,
                1.2401634597452778,
                0.8945608892144334,
                -0.3576424730458361
            ]
        },
        {
            "positions": [
                0.7301336230495745,
                -2.3419799992690487,
                2.2065640180292316,
                1.1172720467862374,
                0.8813851082492601,
                -0.5549097274428423
            ]
        },
        {
            "positions": [
                0.7281739595521441,
                -2.308879664788877,
                2.2211803023530234,
                0.994380633827197,
                0.8682093272840868,
                -0.752176981839848
            ]
        },
        {
            "positions": [
                0.7262142960547139,
                -2.2757793303087053,
                2.2357965866768157,
                0.8714892208681566,
                0.8550335463189135,
                -0.9494442362368547
            ]
        },
        {
            "positions": [
                0.7242546325572836,
                -2.2426789958285336,
                2.2504128710006075,
                0.7485978079091162,
                0.8418577653537402,
                -1.146711490633861
            ]
        },
        {
            "positions": [
                0.7222949690598532,
                -2.209578661348362,
                2.2650291553243997,
                0.6257063949500754,
                0.8286819843885669,
                -1.3439787450308676
            ]
        },
        {
            "positions": [
                0.720335305562423,
                -2.17647832686819,
                2.2796454396481916,
                0.502814981991035,
                0.8155062034233935,
                -1.5412459994278733
            ]
        },
        {
            "positions": [
                0.7183756420649927,
                -2.1433779923880185,
                2.294261723971984,
                0.37992356903199465,
                0.8023304224582202,
                -1.73851325382488
            ]
        },
        {
            "positions": [
                0.7164159785675625,
                -2.110277657907847,
                2.3088780082957756,
                0.2570321560729538,
                0.7891546414930468,
                -1.9357805082218866
            ]
        },
        {
            "positions": [
                0.7144563150701321,
                -2.077177323427675,
                2.323494292619568,
                0.13414074311391344,
                0.7759788605278735,
                -2.1330477626188924
            ]
        },
        {
            "positions": [
                0.7124966515727018,
                -2.044076988947504,
                2.3381105769433597,
                0.01124933015487306,
                0.7628030795627002,
                -2.330315017015898
            ]
        },
        {
            "positions": [
                0.7105369880752715,
                -2.0109766544673318,
                2.352726861267152,
                -0.11164208280416732,
                0.7496272985975269,
                -2.527582271412905
            ]
        },
        {
            "positions": [
                0.7085773245778413,
                -1.9778763199871603,
                2.3673431455909437,
                -0.2345334957632077,
                0.7364515176323536,
                -2.7248495258099115
            ]
        },
        {
            "positions": [
                0.7066176610804109,
                -1.9447759855069884,
                2.381959429914736,
                -0.3574249087222485,
                0.7232757366671803,
                -2.922116780206918
            ]
        },
        {
            "positions": [
                0.7046579975829806,
                -1.911675651026817,
                2.3965757142385278,
                -0.480316321681289,
                0.7100999557020069,
                -3.119384034603924
            ]
        }
    ]
}