{
    "goal": {
        "global_pose": {
            "orientation": {
                "w": -0.4816463035849501,
                "x": 0.5182115481033762,
                "y": 0.4908360881923453,
                "z": -0.5084816262002911
            },
            "position": {
                "x": -0.8240239810943604,
                "y": -0.300875300988555,
                "z": 0.16403168439865112
            }
        },
        "name": "move_to_storage_C"
    },
    "id": "LBKPIECE_move_to_storage_C_93",
    "joint_names": [
        "shoulder_pan_joint",
        "shoulder_lift_joint",
        "elbow_joint",
        "wrist_1_joint",
        "wrist_2_joint",
        "wrist_3_joint"
    ],
    "metrics": {
        "cart_traj_len": 0.5772528031518656,
        "distance_elbow_joint": 0.2545004260449324,
        "distance_shoulder_lift_joint": 0.18918175108567614,
        "distance_shoulder_pan_joint": 0.49543516640083096,
        "distance_wrist_1_joint": 0.06484629204920922,
        "distance_wrist_2_joint": 1.0698088038195315,
        "distance_wrist_3_joint": 0.054143354151809486,
        "smoothness": 0.0,
        "time": 4.629576287,
        "traj_len": 1.4587377398120576,
        "weighted_distance": 1.8359895418341439
    },
    "planner": "LBKPIECE",
    "start": {
        "state": {
            "elbow_joint": 2.010868315001653,
            "shoulder_lift_joint": -1.1634956873357014,
            "shoulder_pan_joint": -2.4736205022346103,
            "wrist_1_joint": -0.8367026794713948,
            "wrist_2_joint": 0.6746043897044093,
            "wrist_3_joint": 3.1335220948105738
        }
    },
    "waypoints": [
        {
            "positions": [
                -2.4736205022346103,
                -1.1634956873357014,
                2.010868315001653,
                -0.8367026794713948,
                0.6746043897044093,
                3.1335220948105738
            ]
        },
        {
            "positions": [
                -2.556193029968082,
                -1.1319653954880886,
                1.9684515773274978,
                -0.8258949641298599,
                0.8529058570076645,
                3.1425459871692087
            ]
        },
        {
            "positions": [
                -2.638765557701554,
                -1.100435103640476,
                1.9260348396533422,
                -0.8150872487883251,
                1.0312073243109197,
                3.1515698795278437
            ]
        },
        {
            "positions": [
                -2.7213380854350255,
                -1.0689048117928635,
                1.8836181019791869,
                -0.8042795334467902,
                1.2095087916141751,
                3.1605937718864787
            ]
        },
        {
            "positions": [
                -2.8039106131684974,
                -1.0373745199452507,
                1.8412013643050316,
                -0.7934718181052552,
                1.3878102589174302,
                3.1696176642451133
            ]
        },
        {
            "positions": [
                -2.8864831409019693,
                -1.0058442280976378,
                1.798784626630876,
                -0.7826641027637204,
                1.5661117262206856,
                3.1786415566037483
            ]
        },
        {
            "positions": [
                -2.9690556686354412,
                -0.9743139362500253,
                1.7563678889567207,
                -0.7718563874221855,
                1.7444131935239409,
                3.1876654489623832
            ]
        }
    ]
}