{
    "goal": {
        "global_pose": {
            "orientation": {
                "w": 0.5084816262002911,
                "x": -0.4908360881923452,
                "y": 0.5182115481033761,
                "z": -0.48164630358495003
            },
            "position": {
                "x": 0.5540239810943604,
                "y": -0.46912469901144505,
                "z": 0.16403168439865112
            }
        },
        "name": "move_to_storage_B"
    },
    "id": "LBKPIECE_move_to_storage_B_67",
    "joint_names": [
        "shoulder_pan_joint",
        "shoulder_lift_joint",
        "elbow_joint",
        "wrist_1_joint",
        "wrist_2_joint",
        "wrist_3_joint"
    ],
    "metrics": {
        "cart_traj_len": 3.4865422650452977,
        "distance_elbow_joint": 0.4508763003327234,
        "distance_shoulder_lift_joint": 2.275898410237346,
        "distance_shoulder_pan_joint": 4.23620784067502,
        "distance_wrist_1_joint": 2.9770183102826477,
        "distance_wrist_2_joint": 2.7027698595537974,
        "distance_wrist_3_joint": 3.1490626309589063,
        "smoothness": 0.24240548727753888,
        "time": 0.70586926,
        "traj_len": 3.973893978459974,
        "weighted_distance": 5.269700824885099
    },
    "planner": "LBKPIECE",
    "start": {
        "state": {
            "elbow_joint": 1.6649325706314817,
            "shoulder_lift_joint": -0.6616388048112454,
            "shoulder_pan_joint": -0.9139837860083814,
            "wrist_1_joint": 2.146757197745094,
            "wrist_2_joint": -2.234196043158733,
            "wrist_3_joint": 0.005471033829999897
        }
    },
    "waypoints": [
        {
            "positions": [
                -0.9139837860083814,
                -0.6616388048112454,
                1.6649325706314817,
                2.146757197745094,
                -2.234196043158733,
                0.005471033829999897
            ]
        },
        {
            "positions": [
                -0.7580183561970104,
                -0.7667952979986014,
                1.6609562231227661,
                2.1233206446281465,
                -2.231804158161694,
                -0.0787025857557511
            ]
        },
        {
            "positions": [
                -0.6020529263856393,
                -0.8719517911859573,
                1.6569798756140506,
                2.099884091511199,
                -2.229412273164655,
                -0.16287620534150213
            ]
        },
        {
            "positions": [
                -0.4460874965742683,
                -0.9771082843733134,
                1.653003528105335,
                2.0764475383942513,
                -2.227020388167616,
                -0.2470498249272531
            ]
        },
        {
            "positions": [
                -0.2901220667628973,
                -1.0822647775606693,
                1.6490271805966195,
                2.053010985277304,
                -2.2246285031705773,
                -0.3312234445130041
            ]
        },
        {
            "positions": [
                -0.13415663695152635,
                -1.1874212707480254,
                1.645050833087904,
                2.0295744321603566,
                -2.2222366181735382,
                -0.4153970640987551
            ]
        },
        {
            "positions": [
                0.021808792859844717,
                -1.2925777639353813,
                1.6410744855791883,
                2.006137879043409,
                -2.219844733176499,
                -0.4995706836845061
            ]
        },
        {
            "positions": [
                0.17777422267121568,
                -1.3977342571227371,
                1.6370981380704728,
                1.9827013259264614,
                -2.21745284817946,
                -0.5837443032702571
            ]
        },
        {
            "positions": [
                0.33373965248258675,
                -1.5028907503100934,
                1.6331217905617572,
                1.9592647728095138,
                -2.215060963182421,
                -0.6679179228560082
            ]
        },
        {
            "positions": [
                0.4897050822939576,
                -1.6080472434974493,
                1.6291454430530417,
                1.9358282196925665,
                -2.212669078185382,
                -0.752091542441759
            ]
        },
        {
            "positions": [
                0.6456705121053287,
                -1.7132037366848054,
                1.625169095544326,
                1.9123916665756189,
                -2.2102771931883436,
                -0.8362651620275101
            ]
        },
        {
            "positions": [
                0.8016359419166997,
                -1.8183602298721613,
                1.6211927480356105,
                1.8889551134586715,
                -2.2078853081913046,
                -0.9204387816132611
            ]
        },
        {
            "positions": [
                0.9576013717280708,
                -1.9235167230595174,
                1.617216400526895,
                1.865518560341724,
                -2.2054934231942656,
                -1.004612401199012
            ]
        },
        {
            "positions": [
                1.1135668015394415,
                -2.0286732162468732,
                1.6132400530181794,
                1.8420820072247763,
                -2.2031015381972265,
                -1.088786020784763
            ]
        },
        {
            "positions": [
                1.0346861853563274,
                -1.9962137877182404,
                1.6274966166867302,
                1.7466411815189788,
                -2.1076845612475017,
                -1.1621719342256254
            ]
        },
        {
            "positions": [
                0.9558055691732132,
                -1.9637543591896076,
                1.641753180355281,
                1.6512003558131814,
                -2.0122675842977773,
                -1.2355578476664875
            ]
        },
        {
            "positions": [
                0.8769249529900991,
                -1.9312949306609748,
                1.6560097440238317,
                1.5557595301073839,
                -1.9168506073480525,
                -1.3089437611073498
            ]
        },
        {
            "positions": [
                0.7980443368069849,
                -1.898835502132342,
                1.6702663076923825,
                1.4603187044015864,
                -1.8214336303983278,
                -1.382329674548212
            ]
        },
        {
            "positions": [
                0.7191637206238708,
                -1.8663760736037092,
                1.6845228713609333,
                1.364877878695789,
                -1.7260166534486032,
                -1.4557155879890744
            ]
        },
        {
            "positions": [
                0.6402831044407566,
                -1.8339166450750763,
                1.698779435029484,
                1.2694370529899914,
                -1.6305996764988784,
                -1.5291015014299365
            ]
        },
        {
            "positions": [
                0.5614024882576425,
                -1.8014572165464435,
                1.7130359986980346,
                1.173996227284194,
                -1.5351826995491538,
                -1.6024874148707988
            ]
        },
        {
            "positions": [
                0.48252187207452835,
                -1.7689977880178107,
                1.7272925623665853,
                1.0785554015783965,
                -1.4397657225994291,
                -1.6758733283116611
            ]
        },
        {
            "positions": [
                0.4036412558914142,
                -1.736538359489178,
                1.7415491260351361,
                0.9831145758725988,
                -1.3443487456497043,
                -1.7492592417525232
            ]
        },
        {
            "positions": [
                0.32476063970830005,
                -1.704078930960545,
                1.755805689703687,
                0.8876737501668013,
                -1.2489317686999797,
                -1.8226451551933855
            ]
        },
        {
            "positions": [
                0.2458800235251859,
                -1.6716195024319123,
                1.7700622533722377,
                0.7922329244610038,
                -1.153514791750255,
                -1.8960310686342479
            ]
        },
        {
            "positions": [
                0.16699940734207175,
                -1.6391600739032794,
                1.7843188170407884,
                0.6967920987552063,
                -1.0580978148005304,
                -1.96941698207511
            ]
        },
        {
            "positions": [
                0.0881187911589576,
                -1.6067006453746466,
                1.7985753807093392,
                0.6013512730494088,
                -0.9626808378508056,
                -2.0428028955159725
            ]
        },
        {
            "positions": [
                0.00923817497584345,
                -1.5742412168460138,
                1.81283194437789,
                0.5059104473436113,
                -0.867263860901081,
                -2.1161888089568346
            ]
        },
        {
            "positions": [
                -0.0696424412072707,
                -1.541781788317381,
                1.8270885080464407,
                0.41046962163781386,
                -0.7718468839513564,
                -2.1895747223976967
            ]
        },
        {
            "positions": [
                -0.14852305739038485,
                -1.5093223597887482,
                1.8413450717149915,
                0.3150287959320164,
                -0.6764299070016317,
                -2.262960635838559
            ]
        },
        {
            "positions": [
                -0.227403673573499,
                -1.4768629312601156,
                1.8556016353835423,
                0.2195879702262189,
                -0.5810129300519071,
                -2.3363465492794213
            ]
        },
        {
            "positions": [
                -0.30628428975661315,
                -1.4444035027314825,
                1.869858199052093,
                0.1241471445204212,
                -0.48559595310218207,
                -2.4097324627202834
            ]
        },
        {
            "positions": [
                -0.3851649059397273,
                -1.4119440742028497,
                1.8841147627206438,
                0.02870631881462371,
                -0.39017897615245745,
                -2.483118376161146
            ]
        },
        {
            "positions": [
                -0.46404552212284145,
                -1.379484645674217,
                1.8983713263891944,
                -0.06673450689117377,
                -0.2947619992027328,
                -2.556504289602008
            ]
        },
        {
            "positions": [
                -0.5429261383059556,
                -1.3470252171455843,
                1.9126278900577454,
                -0.16217533259697126,
                -0.19934502225300843,
                -2.62989020304287
            ]
        },
        {
            "positions": [
                -0.6218067544890697,
                -1.3145657886169515,
                1.926884453726296,
                -0.25761615830276874,
                -0.10392804530328359,
                -2.7032761164837327
            ]
        },
        {
            "positions": [
                -0.7006873706721839,
                -1.2821063600883187,
                1.9411410173948467,
                -0.3530569840085662,
                -0.008511068353558748,
                -2.7766620299245948
            ]
        },
        {
            "positions": [
                -0.779567986855298,
                -1.2496469315596859,
                1.9553975810633974,
                -0.4484978097143637,
                0.08690590859616565,
                -2.850047943365457
            ]
        },
        {
            "positions": [
                -0.8584486030384122,
                -1.2171875030310528,
                1.9696541447319482,
                -0.5439386354201612,
                0.1823228855458905,
                -2.9234338568063194
            ]
        },
        {
            "positions": [
                -0.9373292192215263,
                -1.1847280745024202,
                1.983910708400499,
                -0.6393794611259587,
                0.27773986249561533,
                -2.996819770247182
            ]
        },
        {
            "positions": [
                -1.0162098354046405,
                -1.1522686459737874,
                1.9981672720690498,
                -0.7348202868317562,
                0.3731568394453397,
                -3.0702056836880436
            ]
        },
        {
            "positions": [
                -1.0950904515877546,
                -1.1198092174451546,
                2.0124238357376005,
                -0.8302611125375535,
                0.46857381639506474,
                -3.143591597128906
            ]
        }
    ]
}