{
    "goal": {
        "global_pose": {
            "orientation": {
                "w": -0.4816463035849501,
                "x": 0.5182115481033762,
                "y": 0.4908360881923453,
                "z": -0.5084816262002911
            },
            "position": {
                "x": -0.8240239810943604,
                "y": -0.300875300988555,
                "z": 0.16403168439865112
            }
        },
        "name": "move_to_storage_C"
    },
    "id": "LBKPIECE_move_to_storage_C_97",
    "joint_names": [
        "shoulder_pan_joint",
        "shoulder_lift_joint",
        "elbow_joint",
        "wrist_1_joint",
        "wrist_2_joint",
        "wrist_3_joint"
    ],
    "metrics": {
        "cart_traj_len": 0.5764091309606147,
        "distance_elbow_joint": 0.2540285797422792,
        "distance_shoulder_lift_joint": 0.18848981321196345,
        "distance_shoulder_pan_joint": 0.4945363504892306,
        "distance_wrist_1_joint": 0.0648711010377705,
        "distance_wrist_2_joint": 1.070461969441109,
        "distance_wrist_3_joint": 0.07007871439257274,
        "smoothness": 2.5376526478085547e-16,
        "time": 4.583401355,
        "traj_len": 1.463716683075972,
        "weighted_distance": 1.8487717618946233
    },
    "planner": "LBKPIECE",
    "start": {
        "state": {
            "elbow_joint": 2.010868315001653,
            "shoulder_lift_joint": -1.1634956873357014,
            "shoulder_pan_joint": -2.4736205022346103,
            "wrist_1_joint": -0.8367026794713948,
            "wrist_2_joint": 0.6746043897044093,
            "wrist_3_joint": 3.1335220948105738
        }
    },
    "waypoints": [
        {
            "positions": [
                -2.4736205022346103,
                -1.1634956873357014,
                2.010868315001653,
                -0.8367026794713948,
                0.6746043897044093,
                3.1335220948105738
            ]
        },
        {
            "positions": [
                -2.556043227316149,
                -1.1320807184670407,
                1.9685302183779398,
                -0.825890829298433,
                0.8530147179445942,
                3.145201880542669
            ]
        },
        {
            "positions": [
                -2.638465952397687,
                -1.1006657495983803,
                1.9261921217542266,
                -0.8150789791254712,
                1.031425046184779,
                3.1568816662747645
            ]
        },
        {
            "positions": [
                -2.7208886774792256,
                -1.0692507807297198,
                1.8838540251305136,
                -0.8042671289525095,
                1.209835374424964,
                3.16856145200686
            ]
        },
        {
            "positions": [
                -2.803311402560764,
                -1.037835811861059,
                1.8415159285068003,
                -0.7934552787795478,
                1.3882457026651487,
                3.1802412377389557
            ]
        },
        {
            "positions": [
                -2.8857341276423023,
                -1.0064208429923984,
                1.799177831883087,
                -0.782643428606586,
                1.5666560309053335,
                3.191921023471051
            ]
        },
        {
            "positions": [
                -2.968156852723841,
                -0.975005874123738,
                1.7568397352593739,
                -0.7718315784336243,
                1.7450663591455182,
                3.2036008092031465
            ]
        }
    ]
}