{
    "goal": {
        "global_pose": {
            "orientation": {
                "w": -0.00223480608172531,
                "x": 0.0024358444001904467,
                "y": 0.7094548369677653,
                "z": -0.704743149386269
            },
            "position": {
                "x": -0.37947507619857795,
                "y": -0.6371506643295288,
                "z": 0.19426114857196808
            }
        },
        "name": "move_to_magneteinheit_C"
    },
    "id": "LBKPIECE_move_to_magneteinheit_C_57",
    "joint_names": [
        "shoulder_pan_joint",
        "shoulder_lift_joint",
        "elbow_joint",
        "wrist_1_joint",
        "wrist_2_joint",
        "wrist_3_joint"
    ],
    "metrics": {
        "cart_traj_len": 1.9349806665849392,
        "distance_elbow_joint": 0.6950764351683341,
        "distance_shoulder_lift_joint": 2.0061774753615165,
        "distance_shoulder_pan_joint": 1.8513109022375467,
        "distance_wrist_1_joint": 5.752338815051544,
        "distance_wrist_2_joint": 2.098715953936266,
        "distance_wrist_3_joint": 0.24116009868554578,
        "smoothness": 0.8683922514080274,
        "time": 1.948200443,
        "traj_len": 3.55594989847168,
        "weighted_distance": 4.580191551321807
    },
    "planner": "LBKPIECE",
    "start": {
        "state": {
            "elbow_joint": 1.9565354006590394,
            "shoulder_lift_joint": -1.4165861576513559,
            "shoulder_pan_joint": -1.6717766223277177,
            "wrist_1_joint": -0.5286633288215096,
            "wrist_2_joint": 1.4727565892594296,
            "wrist_3_joint": 3.1593482883155493
        }
    },
    "waypoints": [
        {
            "positions": [
                -1.6717766223277177,
                -1.4165861576513559,
                1.9565354006590394,
                -0.5286633288215096,
                1.4727565892594296,
                3.1593482883155493
            ]
        },
        {
            "positions": [
                -1.745543744353971,
                -1.4652445403784382,
                1.9386523365357686,
                -0.37715831754522144,
                1.3919638424533538,
                3.1515041139499957
            ]
        },
        {
            "positions": [
                -1.8193108663802242,
                -1.5139029231055208,
                1.9207692724124978,
                -0.22565330626893326,
                1.311171095647278,
                3.143659939584442
            ]
        },
        {
            "positions": [
                -1.8930779884064772,
                -1.562561305832603,
                1.9028862082892268,
                -0.07414829499264514,
                1.2303783488412023,
                3.1358157652188883
            ]
        },
        {
            "positions": [
                -1.9668451104327305,
                -1.6112196885596854,
                1.885003144165956,
                0.07735671628364305,
                1.1495856020351265,
                3.1279715908533348
            ]
        },
        {
            "positions": [
                -2.040612232458984,
                -1.659878071286768,
                1.8671200800426853,
                0.22886172755993117,
                1.0687928552290507,
                3.120127416487781
            ]
        },
        {
            "positions": [
                -2.1143793544852367,
                -1.7085364540138501,
                1.8492370159194145,
                0.3803667388362193,
                0.9880001084229749,
                3.1122832421222273
            ]
        },
        {
            "positions": [
                -2.18814647651149,
                -1.7571948367409327,
                1.8313539517961435,
                0.5318717501125075,
                0.9072073616168991,
                3.1044390677566738
            ]
        },
        {
            "positions": [
                -2.261913598537743,
                -1.805853219468015,
                1.8134708876728727,
                0.6833767613887957,
                0.8264146148108233,
                3.09659489339112
            ]
        },
        {
            "positions": [
                -2.3356807205639964,
                -1.8545116021950974,
                1.795587823549602,
                0.8348817726650838,
                0.7456218680047475,
                3.0887507190255663
            ]
        },
        {
            "positions": [
                -2.4094478425902497,
                -1.90316998492218,
                1.777704759426331,
                0.9863867839413719,
                0.6648291211986717,
                3.080906544660013
            ]
        },
        {
            "positions": [
                -2.483214964616503,
                -1.9518283676492625,
                1.75982169530306,
                1.1378917952176604,
                0.5840363743925958,
                3.073062370294459
            ]
        },
        {
            "positions": [
                -2.5569820866427557,
                -2.0004867503763446,
                1.7419386311797893,
                1.289396806493948,
                0.5032436275865202,
                3.0652181959289053
            ]
        },
        {
            "positions": [
                -2.630749208669009,
                -2.049145133103427,
                1.7240555670565185,
                1.4409018177702362,
                0.42245088078044435,
                3.057374021563352
            ]
        },
        {
            "positions": [
                -2.704516330695262,
                -2.0978035158305097,
                1.7061725029332477,
                1.5924068290465248,
                0.3416581339743685,
                3.049529847197798
            ]
        },
        {
            "positions": [
                -2.7782834527215154,
                -2.146461898557592,
                1.688289438809977,
                1.7439118403228129,
                0.26086538716829266,
                3.0416856728322443
            ]
        },
        {
            "positions": [
                -2.8520505747477687,
                -2.195120281284674,
                1.670406374686706,
                1.895416851599101,
                0.18007264036221704,
                3.033841498466691
            ]
        },
        {
            "positions": [
                -2.925817696774022,
                -2.2437786640117565,
                1.6525233105634352,
                2.046921862875389,
                0.0992798935561412,
                3.025997324101137
            ]
        },
        {
            "positions": [
                -2.999584818800275,
                -2.292437046738839,
                1.6346402464401644,
                2.1984268741516773,
                0.018487146750065353,
                3.0181531497355834
            ]
        },
        {
            "positions": [
                -2.9646846384159424,
                -2.217081940987237,
                1.6595189985034617,
                1.9967436333464534,
                0.061450247511858805,
                3.024817480409289
            ]
        },
        {
            "positions": [
                -2.92978445803161,
                -2.1417268352356347,
                1.6843977505667589,
                1.7950603925412296,
                0.10441334827365226,
                3.031481811082994
            ]
        },
        {
            "positions": [
                -2.8948842776472774,
                -2.0663717294840325,
                1.7092765026300563,
                1.5933771517360056,
                0.14737644903544572,
                3.0381461417566995
            ]
        },
        {
            "positions": [
                -2.8599840972629447,
                -1.9910166237324303,
                1.7341552546933534,
                1.3916939109307818,
                0.19033954979723916,
                3.0448104724304046
            ]
        },
        {
            "positions": [
                -2.825083916878612,
                -1.915661517980828,
                1.7590340067566508,
                1.190010670125558,
                0.2333026505590326,
                3.05147480310411
            ]
        },
        {
            "positions": [
                -2.7901837364942796,
                -1.8403064122292259,
                1.783912758819948,
                0.9883274293203339,
                0.2762657513208261,
                3.058139133777815
            ]
        },
        {
            "positions": [
                -2.755283556109947,
                -1.7649513064776237,
                1.8087915108832453,
                0.7866441885151101,
                0.31922885208261953,
                3.0648034644515207
            ]
        },
        {
            "positions": [
                -2.720383375725614,
                -1.6895962007260215,
                1.8336702629465425,
                0.5849609477098863,
                0.36219195284441297,
                3.071467795125226
            ]
        },
        {
            "positions": [
                -2.6854831953412814,
                -1.6142410949744193,
                1.8585490150098398,
                0.38327770690466245,
                0.4051550536062064,
                3.0781321257989314
            ]
        },
        {
            "positions": [
                -2.650583014956949,
                -1.538885989222817,
                1.883427767073137,
                0.18159446609943863,
                0.44811815436799984,
                3.0847964564726365
            ]
        },
        {
            "positions": [
                -2.6156828345726164,
                -1.4635308834712148,
                1.9083065191364343,
                -0.020088774705785184,
                0.4910812551297933,
                3.091460787146342
            ]
        },
        {
            "positions": [
                -2.5807826541882837,
                -1.3881757777196126,
                1.9331852711997315,
                -0.22177201551100945,
                0.5340443558915868,
                3.098125117820047
            ]
        },
        {
            "positions": [
                -2.545882473803951,
                -1.3128206719680104,
                1.9580640232630289,
                -0.42345525631623326,
                0.5770074566533803,
                3.1047894484937526
            ]
        },
        {
            "positions": [
                -2.5109822934196186,
                -1.2374655662164082,
                1.9829427753263262,
                -0.6251384971214571,
                0.6199705574151737,
                3.1114537791674577
            ]
        },
        {
            "positions": [
                -2.476082113035286,
                -1.162110460464806,
                2.0078215273896234,
                -0.8268217379266809,
                0.6629336581769671,
                3.118118109841163
            ]
        }
    ]
}