{
    "goal": {
        "global_pose": {
            "orientation": {
                "w": -0.4816463035849501,
                "x": 0.5182115481033762,
                "y": 0.4908360881923453,
                "z": -0.5084816262002911
            },
            "position": {
                "x": -0.8240239810943604,
                "y": -0.300875300988555,
                "z": 0.16403168439865112
            }
        },
        "name": "move_to_storage_C"
    },
    "id": "LBKPIECE_move_to_storage_C_87",
    "joint_names": [
        "shoulder_pan_joint",
        "shoulder_lift_joint",
        "elbow_joint",
        "wrist_1_joint",
        "wrist_2_joint",
        "wrist_3_joint"
    ],
    "metrics": {
        "cart_traj_len": 0.576950261136008,
        "distance_elbow_joint": 0.25710812753030843,
        "distance_shoulder_lift_joint": 0.189318058954144,
        "distance_shoulder_pan_joint": 0.495532472997505,
        "distance_wrist_1_joint": 0.07228767232723754,
        "distance_wrist_2_joint": 1.0621173968797422,
        "distance_wrist_3_joint": 0.05872735638575044,
        "smoothness": 0.0,
        "time": 3.993451847,
        "traj_len": 1.4611950879587186,
        "weighted_distance": 1.840367046828748
    },
    "planner": "LBKPIECE",
    "start": {
        "state": {
            "elbow_joint": 2.010868315001653,
            "shoulder_lift_joint": -1.1634956873357014,
            "shoulder_pan_joint": -2.4736205022346103,
            "wrist_1_joint": -0.8367026794713948,
            "wrist_2_joint": 0.6746043897044093,
            "wrist_3_joint": 3.1335220948105738
        }
    },
    "waypoints": [
        {
            "positions": [
                -2.4736205022346103,
                -1.1634956873357014,
                2.010868315001653,
                -0.8367026794713948,
                0.6746043897044093,
                3.1335220948105738
            ]
        },
        {
            "positions": [
                -2.5562092477341944,
                -1.1319426775100108,
                1.9680169604132685,
                -0.8246547340835219,
                0.851623955851033,
                3.143309987541532
            ]
        },
        {
            "positions": [
                -2.6387979932337786,
                -1.1003896676843201,
                1.9251656058248836,
                -0.812606788695649,
                1.0286435219976566,
                3.1530978802724907
            ]
        },
        {
            "positions": [
                -2.721386738733363,
                -1.0688366578586295,
                1.8823142512364988,
                -0.8005588433077759,
                1.2056630881442802,
                3.162885773003449
            ]
        },
        {
            "positions": [
                -2.803975484232947,
                -1.0372836480329388,
                1.8394628966481141,
                -0.788510897919903,
                1.382682654290904,
                3.1726736657344072
            ]
        },
        {
            "positions": [
                -2.886564229732531,
                -1.0057306382072482,
                1.7966115420597295,
                -0.7764629525320301,
                1.559702220437528,
                3.182461558465366
            ]
        },
        {
            "positions": [
                -2.9691529752321153,
                -0.9741776283815574,
                1.7537601874713447,
                -0.7644150071441572,
                1.7367217865841513,
                3.192249451196324
            ]
        }
    ]
}