{
    "goal": {
        "global_pose": {
            "orientation": {
                "w": 0.7047431468963623,
                "x": -0.7094548344612122,
                "y": 0.0024358443915843964,
                "z": -0.0022348060738295317
            },
            "position": {
                "x": 0.6094750761985779,
                "y": 0.3671506643295288,
                "z": 0.19426114857196808
            }
        },
        "name": "move_to_magneteinheit_A"
    },
    "id": "LBKPIECE_move_to_magneteinheit_A_54",
    "joint_names": [
        "shoulder_pan_joint",
        "shoulder_lift_joint",
        "elbow_joint",
        "wrist_1_joint",
        "wrist_2_joint",
        "wrist_3_joint"
    ],
    "metrics": {
        "cart_traj_len": 1.0534665227692455,
        "distance_elbow_joint": 0.38147544078208995,
        "distance_shoulder_lift_joint": 0.36647980021257176,
        "distance_shoulder_pan_joint": 1.2421074515308148,
        "distance_wrist_1_joint": 2.2105864037627496,
        "distance_wrist_2_joint": 1.6913398418699055,
        "distance_wrist_3_joint": 1.2171876514284574,
        "smoothness": 0.0,
        "time": 3.918731446,
        "traj_len": 2.666303919208497,
        "weighted_distance": 3.6668076221798382
    },
    "planner": "LBKPIECE",
    "start": {
        "state": {
            "elbow_joint": 1.5739458966750683,
            "shoulder_lift_joint": -1.4977259741207325,
            "shoulder_pan_joint": -1.1188672016454206,
            "wrist_1_joint": 1.494575848278785,
            "wrist_2_joint": -1.5706037134824402,
            "wrist_3_joint": -2.0226957942261072
        }
    },
    "waypoints": [
        {
            "positions": [
                -1.1188672016454206,
                -1.4977259741207325,
                1.5739458966750683,
                1.494575848278785,
                -1.5706037134824402,
                -2.0226957942261072
            ]
        },
        {
            "positions": [
                -1.0498612321159309,
                -1.477365985220034,
                1.5951389767185178,
                1.3717654925141878,
                -1.4766403889341122,
                -2.090317330416577
            ]
        },
        {
            "positions": [
                -0.9808552625864413,
                -1.4570059963193356,
                1.6163320567619672,
                1.2489551367495906,
                -1.382677064385784,
                -2.157938866607047
            ]
        },
        {
            "positions": [
                -0.9118492930569515,
                -1.4366460074186371,
                1.6375251368054167,
                1.1261447809849934,
                -1.288713739837456,
                -2.225560402797517
            ]
        },
        {
            "positions": [
                -0.8428433235274618,
                -1.4162860185179387,
                1.6587182168488661,
                1.0033344252203962,
                -1.194750415289128,
                -2.2931819389879866
            ]
        },
        {
            "positions": [
                -0.773837353997972,
                -1.3959260296172404,
                1.6799112968923156,
                0.880524069455799,
                -1.1007870907407997,
                -2.3608034751784563
            ]
        },
        {
            "positions": [
                -0.7048313844684824,
                -1.375566040716542,
                1.701104376935765,
                0.7577137136912018,
                -1.0068237661924717,
                -2.4284250113689265
            ]
        },
        {
            "positions": [
                -0.6358254149389926,
                -1.3552060518158435,
                1.7222974569792144,
                0.6349033579266046,
                -0.9128604416441436,
                -2.4960465475593963
            ]
        },
        {
            "positions": [
                -0.566819445409503,
                -1.334846062915145,
                1.7434905370226639,
                0.5120930021620074,
                -0.8188971170958156,
                -2.563668083749866
            ]
        },
        {
            "positions": [
                -0.49781347588001323,
                -1.3144860740144466,
                1.7646836170661133,
                0.38928264639741017,
                -0.7249337925474875,
                -2.631289619940336
            ]
        },
        {
            "positions": [
                -0.42880750635052345,
                -1.2941260851137482,
                1.7858766971095628,
                0.26647229063281297,
                -0.6309704679991593,
                -2.698911156130806
            ]
        },
        {
            "positions": [
                -0.3598015368210338,
                -1.2737660962130497,
                1.8070697771530122,
                0.14366193486821577,
                -0.5370071434508312,
                -2.7665326923212756
            ]
        },
        {
            "positions": [
                -0.2907955672915441,
                -1.2534061073123512,
                1.8282628571964616,
                0.020851579103618567,
                -0.4430438189025032,
                -2.8341542285117454
            ]
        },
        {
            "positions": [
                -0.22178959776205442,
                -1.2330461184116528,
                1.849455937239911,
                -0.10195877666097863,
                -0.3490804943541752,
                -2.901775764702215
            ]
        },
        {
            "positions": [
                -0.15278362823256464,
                -1.2126861295109546,
                1.8706490172833605,
                -0.22476913242557583,
                -0.255117169805847,
                -2.9693973008926853
            ]
        },
        {
            "positions": [
                -0.08377765870307496,
                -1.1923261406102559,
                1.89184209732681,
                -0.34757948819017304,
                -0.16115384525751897,
                -3.0370188370831555
            ]
        },
        {
            "positions": [
                -0.0147716891735854,
                -1.1719661517095576,
                1.9130351773702594,
                -0.47038984395477024,
                -0.06719052070919096,
                -3.104640373273625
            ]
        },
        {
            "positions": [
                0.054234280355904385,
                -1.1516061628088592,
                1.9342282574137089,
                -0.5932001997193674,
                0.02677280383913705,
                -3.172261909464095
            ]
        },
        {
            "positions": [
                0.12324024988539421,
                -1.1312461739081607,
                1.9554213374571583,
                -0.7160105554839649,
                0.1207361283874653,
                -3.2398834456545647
            ]
        }
    ]
}