{
    "goal": {
        "global_pose": {
            "orientation": {
                "w": 0.005598929693374612,
                "x": 0.007748599140229565,
                "y": 0.7110244013736278,
                "z": -0.7031023480610252
            },
            "position": {
                "x": 0.1141497679147869,
                "y": -0.7141253447532654,
                "z": 0.3711530566215515
            }
        },
        "name": "move_to_auspresseinheit_B"
    },
    "id": "LBKPIECE_move_to_auspresseinheit_B_146",
    "joint_names": [
        "shoulder_pan_joint",
        "shoulder_lift_joint",
        "elbow_joint",
        "wrist_1_joint",
        "wrist_2_joint",
        "wrist_3_joint"
    ],
    "metrics": {
        "cart_traj_len": 0.5646594949069442,
        "distance_elbow_joint": 0.0636931284814688,
        "distance_shoulder_lift_joint": 0.29426835263033024,
        "distance_shoulder_pan_joint": 0.5769550742824865,
        "distance_wrist_1_joint": 0.3298241596437499,
        "distance_wrist_2_joint": 0.9931768172234814,
        "distance_wrist_3_joint": 0.009608668390448383,
        "smoothness": 0.0,
        "time": 0.801582947,
        "traj_len": 1.5058307343961224,
        "weighted_distance": 1.8999327657314857
    },
    "planner": "LBKPIECE",
    "start": {
        "state": {
            "elbow_joint": 2.019306165916698,
            "shoulder_lift_joint": -1.1220205098164344,
            "shoulder_pan_joint": -1.095207207618794,
            "wrist_1_joint": -0.8559671824921639,
            "wrist_2_joint": 0.47596387242952726,
            "wrist_3_joint": 3.159081874673826
        }
    },
    "waypoints": [
        {
            "positions": [
                -1.095207207618794,
                -1.1220205098164344,
                2.019306165916698,
                -0.8559671824921639,
                0.47596387242952726,
                3.159081874673826
            ]
        },
        {
            "positions": [
                -1.191366386665875,
                -1.1710652352548228,
                2.00869064450312,
                -0.8009964892182055,
                0.6414933419667741,
                3.157480429942084
            ]
        },
        {
            "positions": [
                -1.287525565712956,
                -1.220109960693211,
                1.9980751230895417,
                -0.7460257959442472,
                0.807022811504021,
                3.155878985210343
            ]
        },
        {
            "positions": [
                -1.3836847447600373,
                -1.2691546861315994,
                1.9874596016759636,
                -0.6910551026702889,
                0.9725522810412679,
                3.154277540478602
            ]
        },
        {
            "positions": [
                -1.4798439238071182,
                -1.318199411569988,
                1.9768440802623855,
                -0.6360844093963306,
                1.1380817505785148,
                3.1526760957468603
            ]
        },
        {
            "positions": [
                -1.5760031028541994,
                -1.3672441370083763,
                1.9662285588488073,
                -0.5811137161223723,
                1.3036112201157617,
                3.1510746510151186
            ]
        },
        {
            "positions": [
                -1.6721622819012805,
                -1.4162888624467647,
                1.9556130374352292,
                -0.526143022848414,
                1.4691406896530086,
                3.1494732062833775
            ]
        }
    ]
}