{
    "goal": {
        "global_pose": {
            "orientation": {
                "w": -0.00223480608172531,
                "x": 0.0024358444001904467,
                "y": 0.7094548369677653,
                "z": -0.704743149386269
            },
            "position": {
                "x": -0.37947507619857795,
                "y": -0.6371506643295288,
                "z": 0.19426114857196808
            }
        },
        "name": "move_to_magneteinheit_C"
    },
    "id": "LBKPIECE_move_to_magneteinheit_C_63",
    "joint_names": [
        "shoulder_pan_joint",
        "shoulder_lift_joint",
        "elbow_joint",
        "wrist_1_joint",
        "wrist_2_joint",
        "wrist_3_joint"
    ],
    "metrics": {
        "cart_traj_len": 3.113218263183025,
        "distance_elbow_joint": 1.8965676033032013,
        "distance_shoulder_lift_joint": 2.3597457232297483,
        "distance_shoulder_pan_joint": 0.8644099765775719,
        "distance_wrist_1_joint": 8.047041138408426,
        "distance_wrist_2_joint": 0.8114796929756254,
        "distance_wrist_3_joint": 1.9805607096008657,
        "smoothness": 1.0551236715814716,
        "time": 3.325000671,
        "traj_len": 3.994972445974495,
        "weighted_distance": 5.364647900345484
    },
    "planner": "LBKPIECE",
    "start": {
        "state": {
            "elbow_joint": 1.9565354006590394,
            "shoulder_lift_joint": -1.4165861576513559,
            "shoulder_pan_joint": -1.6717766223277177,
            "wrist_1_joint": -0.5286633288215096,
            "wrist_2_joint": 1.4727565892594296,
            "wrist_3_joint": 3.1593482883155493
        }
    },
    "waypoints": [
        {
            "positions": [
                -1.6717766223277177,
                -1.4165861576513559,
                1.9565354006590394,
                -0.5286633288215096,
                1.4727565892594296,
                3.1593482883155493
            ]
        },
        {
            "positions": [
                -1.6400802024806747,
                -1.4275212576341894,
                1.9764211586773273,
                -0.584166326094186,
                1.4284011652210808,
                3.0515524714318842
            ]
        },
        {
            "positions": [
                -1.6801093901759045,
                -1.4796203503289802,
                1.9302960222496441,
                -0.39043794167600343,
                1.4286261757901877,
                3.006442191906422
            ]
        },
        {
            "positions": [
                -1.7201385778711344,
                -1.5317194430237708,
                1.884170885821961,
                -0.1967095572578209,
                1.4288511863592948,
                2.9613319123809605
            ]
        },
        {
            "positions": [
                -1.7601677655663643,
                -1.5838185357185617,
                1.838045749394278,
                -0.0029811728396385018,
                1.4290761969284016,
                2.916221632855499
            ]
        },
        {
            "positions": [
                -1.8001969532615942,
                -1.6359176284133525,
                1.7919206129665948,
                0.19074721157854413,
                1.4293012074975087,
                2.8711113533300368
            ]
        },
        {
            "positions": [
                -1.8402261409568244,
                -1.6880167211081434,
                1.7457954765389117,
                0.38447559599672654,
                1.4295262180666155,
                2.8260010738045747
            ]
        },
        {
            "positions": [
                -1.880255328652054,
                -1.7401158138029342,
                1.6996703401112285,
                0.578203980414909,
                1.4297512286357223,
                2.780890794279113
            ]
        },
        {
            "positions": [
                -1.9202845163472841,
                -1.7922149064977249,
                1.6535452036835454,
                0.7719323648330915,
                1.4299762392048294,
                2.7357805147536514
            ]
        },
        {
            "positions": [
                -1.960313704042514,
                -1.8443139991925157,
                1.6074200672558623,
                0.9656607492512742,
                1.4302012497739363,
                2.6906702352281893
            ]
        },
        {
            "positions": [
                -2.000342891737744,
                -1.8964130918873066,
                1.5612949308281792,
                1.1593891336694564,
                1.4304262603430433,
                2.645559955702727
            ]
        },
        {
            "positions": [
                -2.0403720794329736,
                -1.9485121845820972,
                1.5151697944004963,
                1.3531175180876391,
                1.4306512709121502,
                2.6004496761772655
            ]
        },
        {
            "positions": [
                -2.0804012671282037,
                -2.0006112772768883,
                1.469044657972813,
                1.5468459025058214,
                1.430876281481257,
                2.5553393966518034
            ]
        },
        {
            "positions": [
                -2.120430454823434,
                -2.052710369971679,
                1.42291952154513,
                1.7405742869240037,
                1.431101292050364,
                2.510229117126342
            ]
        },
        {
            "positions": [
                -2.1604596425186635,
                -2.10480946266647,
                1.3767943851174467,
                1.9343026713421865,
                1.431326302619471,
                2.4651188376008797
            ]
        },
        {
            "positions": [
                -2.200488830213893,
                -2.1569085553612606,
                1.3306692486897638,
                2.1280310557603688,
                1.431551313188578,
                2.420008558075418
            ]
        },
        {
            "positions": [
                -2.2405180179091233,
                -2.209007648056051,
                1.2845441122620807,
                2.3217594401785515,
                1.4317763237576848,
                2.3748982785499564
            ]
        },
        {
            "positions": [
                -2.2805472056043534,
                -2.261106740750842,
                1.2384189758343975,
                2.5154878245967343,
                1.4320013343267917,
                2.3297879990244943
            ]
        },
        {
            "positions": [
                -2.320576393299583,
                -2.313205833445633,
                1.1922938394067144,
                2.709216209014916,
                1.4322263448958987,
                2.284677719499032
            ]
        },
        {
            "positions": [
                -2.360605580994813,
                -2.3653049261404235,
                1.1461687029790313,
                2.902944593433099,
                1.4324513554650056,
                2.2395674399735706
            ]
        },
        {
            "positions": [
                -2.400634768690043,
                -2.4174040188352146,
                1.1000435665513482,
                3.096672977851281,
                1.4326763660341126,
                2.194457160448109
            ]
        },
        {
            "positions": [
                -2.440663956385273,
                -2.4695031115300052,
                1.053918430123665,
                3.290401362269464,
                1.4329013766032195,
                2.149346880922647
            ]
        },
        {
            "positions": [
                -2.4421939469960314,
                -2.407273170132334,
                1.0993555309203913,
                3.094355150232697,
                1.39658594529107,
                2.1955639905515976
            ]
        },
        {
            "positions": [
                -2.4437239376067903,
                -2.3450432287346623,
                1.1447926317171175,
                2.898308938195931,
                1.3602705139789206,
                2.241781100180548
            ]
        },
        {
            "positions": [
                -2.4452539282175487,
                -2.282813287336991,
                1.1902297325138438,
                2.702262726159164,
                1.3239550826667712,
                2.2879982098094986
            ]
        },
        {
            "positions": [
                -2.4467839188283076,
                -2.22058334593932,
                1.23566683331057,
                2.5062165141223973,
                1.2876396513546218,
                2.3342153194384494
            ]
        },
        {
            "positions": [
                -2.448313909439066,
                -2.158353404541648,
                1.2811039341072963,
                2.3101703020856306,
                1.2513242200424723,
                2.3804324290674
            ]
        },
        {
            "positions": [
                -2.4498439000498244,
                -2.096123463143977,
                1.3265410349040225,
                2.1141240900488643,
                1.215008788730323,
                2.4266495386963505
            ]
        },
        {
            "positions": [
                -2.4513738906605833,
                -2.0338935217463057,
                1.3719781357007488,
                1.9180778780120975,
                1.1786933574181735,
                2.4728666483253012
            ]
        },
        {
            "positions": [
                -2.4529038812713417,
                -1.971663580348634,
                1.417415236497475,
                1.722031665975331,
                1.142377926106024,
                2.519083757954252
            ]
        },
        {
            "positions": [
                -2.4544338718821,
                -1.9094336389509627,
                1.4628523372942013,
                1.5259854539385644,
                1.1060624947938746,
                2.5653008675832023
            ]
        },
        {
            "positions": [
                -2.455963862492859,
                -1.8472036975532913,
                1.5082894380909275,
                1.3299392419017977,
                1.0697470634817252,
                2.611517977212153
            ]
        },
        {
            "positions": [
                -2.4574938531036175,
                -1.7849737561556198,
                1.5537265388876538,
                1.133893029865031,
                1.0334316321695758,
                2.657735086841104
            ]
        },
        {
            "positions": [
                -2.4590238437143763,
                -1.7227438147579486,
                1.59916363968438,
                0.9378468178282646,
                0.9971162008574264,
                2.7039521964700546
            ]
        },
        {
            "positions": [
                -2.4605538343251347,
                -1.660513873360277,
                1.6446007404811063,
                0.7418006057914979,
                0.9608007695452769,
                2.750169306099005
            ]
        },
        {
            "positions": [
                -2.462083824935893,
                -1.5982839319626057,
                1.6900378412778325,
                0.5457543937547311,
                0.9244853382331275,
                2.7963864157279557
            ]
        },
        {
            "positions": [
                -2.463613815546652,
                -1.5360539905649342,
                1.7354749420745588,
                0.34970818171796436,
                0.8881699069209781,
                2.8426035253569064
            ]
        },
        {
            "positions": [
                -2.4651438061574105,
                -1.473824049167263,
                1.780912042871285,
                0.15366196968119805,
                0.8518544756088287,
                2.8888206349858567
            ]
        },
        {
            "positions": [
                -2.466673796768169,
                -1.4115941077695915,
                1.8263491436680113,
                -0.0423842423555687,
                0.8155390442966792,
                2.9350377446148075
            ]
        },
        {
            "positions": [
                -2.4682037873789278,
                -1.34936416637192,
                1.8717862444647375,
                -0.238430454392335,
                0.7792236129845298,
                2.9812548542437582
            ]
        },
        {
            "positions": [
                -2.469733777989686,
                -1.2871342249742486,
                1.9172233452614638,
                -0.4344766664291022,
                0.7429081816723804,
                3.027471963872709
            ]
        },
        {
            "positions": [
                -2.471263768600445,
                -1.2249042835765773,
                1.96266044605819,
                -0.6305228784658685,
                0.706592750360231,
                3.0736890735016593
            ]
        },
        {
            "positions": [
                -2.4727937592112035,
                -1.1626743421789059,
                2.0080975468549163,
                -0.8265690905026352,
                0.6702773190480815,
                3.11990618313061
            ]
        }
    ]
}