{
    "goal": {
        "global_pose": {
            "orientation": {
                "w": 0.5084816262002911,
                "x": -0.4908360881923452,
                "y": 0.5182115481033761,
                "z": -0.48164630358495003
            },
            "position": {
                "x": 0.5540239810943604,
                "y": -0.46912469901144505,
                "z": 0.16403168439865112
            }
        },
        "name": "move_to_storage_B"
    },
    "id": "LBKPIECE_move_to_storage_B_59",
    "joint_names": [
        "shoulder_pan_joint",
        "shoulder_lift_joint",
        "elbow_joint",
        "wrist_1_joint",
        "wrist_2_joint",
        "wrist_3_joint"
    ],
    "metrics": {
        "cart_traj_len": 0.7519633408636712,
        "distance_elbow_joint": 0.49665361768393645,
        "distance_shoulder_lift_joint": 0.5576864154999315,
        "distance_shoulder_pan_joint": 0.6486565132497367,
        "distance_wrist_1_joint": 3.0077045386604473,
        "distance_wrist_2_joint": 2.7040665043724017,
        "distance_wrist_3_joint": 3.1213691678890387,
        "smoothness": 0.17268125987731744,
        "time": 4.852152006,
        "traj_len": 3.2459415825543583,
        "weighted_distance": 4.742430403934929
    },
    "planner": "LBKPIECE",
    "start": {
        "state": {
            "elbow_joint": 1.6649325706314817,
            "shoulder_lift_joint": -0.6616388048112454,
            "shoulder_pan_joint": -0.9139837860083814,
            "wrist_1_joint": 2.146757197745094,
            "wrist_2_joint": -2.234196043158733,
            "wrist_3_joint": 0.005471033829999897
        }
    },
    "waypoints": [
        {
            "positions": [
                -0.9139837860083814,
                -0.6616388048112454,
                1.6649325706314817,
                2.146757197745094,
                -2.234196043158733,
                0.005471033829999897
            ]
        },
        {
            "positions": [
                -0.9082399927858769,
                -0.6840709114294382,
                1.6661430572994416,
                2.068979125793822,
                -2.170776691399353,
                -0.04579824105662432
            ]
        },
        {
            "positions": [
                -0.9024961995633725,
                -0.706503018047631,
                1.6673535439674012,
                1.9912010538425506,
                -2.1073573396399725,
                -0.09706751594324853
            ]
        },
        {
            "positions": [
                -0.8581082092404793,
                -0.6966013162888056,
                1.6531422903536759,
                1.8885120170183542,
                -2.016439460384658,
                -0.2132465637770421
            ]
        },
        {
            "positions": [
                -0.8137202189175861,
                -0.6866996145299801,
                1.6389310367399506,
                1.7858229801941579,
                -1.9255215811293434,
                -0.3294256116108357
            ]
        },
        {
            "positions": [
                -0.7693322285946929,
                -0.6767979127711546,
                1.6247197831262252,
                1.6831339433699615,
                -1.8346037018740289,
                -0.44560465944462924
            ]
        },
        {
            "positions": [
                -0.7249442382717997,
                -0.6668962110123291,
                1.6105085295125,
                1.5804449065457649,
                -1.7436858226187142,
                -0.5617837072784229
            ]
        },
        {
            "positions": [
                -0.6805562479489065,
                -0.6569945092535037,
                1.5962972758987746,
                1.4777558697215685,
                -1.6527679433633997,
                -0.6779627551122165
            ]
        },
        {
            "positions": [
                -0.7003290562912998,
                -0.6790570660853807,
                1.616448531912079,
                1.3663890501674294,
                -1.551689924097825,
                -0.7940549160144461
            ]
        },
        {
            "positions": [
                -0.7201018646336933,
                -0.7011196229172578,
                1.636599787925383,
                1.25502223061329,
                -1.4506119048322503,
                -0.9101470769166757
            ]
        },
        {
            "positions": [
                -0.7398746729760867,
                -0.7231821797491349,
                1.6567510439386874,
                1.143655411059151,
                -1.3495338855666756,
                -1.0262392378189054
            ]
        },
        {
            "positions": [
                -0.7596474813184801,
                -0.745244736581012,
                1.6769022999519918,
                1.032288591505012,
                -1.248455866301101,
                -1.142331398721135
            ]
        },
        {
            "positions": [
                -0.7794202896608735,
                -0.7673072934128891,
                1.6970535559652962,
                0.9209217719508728,
                -1.1473778470355263,
                -1.2584235596233646
            ]
        },
        {
            "positions": [
                -0.799193098003267,
                -0.789369850244766,
                1.7172048119786003,
                0.8095549523967337,
                -1.0462998277699516,
                -1.374515720525594
            ]
        },
        {
            "positions": [
                -0.8189659063456604,
                -0.8114324070766431,
                1.7373560679919047,
                0.6981881328425945,
                -0.9452218085043768,
                -1.4906078814278239
            ]
        },
        {
            "positions": [
                -0.8387387146880538,
                -0.8334949639085202,
                1.757507324005209,
                0.5868213132884554,
                -0.8441437892388021,
                -1.6067000423300533
            ]
        },
        {
            "positions": [
                -0.8585115230304472,
                -0.8555575207403973,
                1.7776585800185132,
                0.47545449373431636,
                -0.7430657699732274,
                -1.7227922032322829
            ]
        },
        {
            "positions": [
                -0.8782843313728407,
                -0.8776200775722743,
                1.7978098360318175,
                0.36408767418017707,
                -0.6419877507076526,
                -1.8388843641345125
            ]
        },
        {
            "positions": [
                -0.898057139715234,
                -0.8996826344041514,
                1.817961092045122,
                0.252720854626038,
                -0.5409097314420779,
                -1.9549765250367424
            ]
        },
        {
            "positions": [
                -0.9178299480576275,
                -0.9217451912360284,
                1.8381123480584263,
                0.14135403507189892,
                -0.4398317121765032,
                -2.0710686859389718
            ]
        },
        {
            "positions": [
                -0.9376027564000209,
                -0.9438077480679056,
                1.8582636040717304,
                0.029987215517759624,
                -0.3387536929109285,
                -2.1871608468412016
            ]
        },
        {
            "positions": [
                -0.9573755647424143,
                -0.9658703048997825,
                1.8784148600850348,
                -0.08137960403637945,
                -0.2376756736453538,
                -2.303253007743431
            ]
        },
        {
            "positions": [
                -0.9771483730848077,
                -0.9879328617316596,
                1.8985661160983391,
                -0.19274642359051852,
                -0.1365976543797789,
                -2.419345168645661
            ]
        },
        {
            "positions": [
                -0.9969211814272012,
                -1.0099954185635367,
                1.9187173721116433,
                -0.3041132431446576,
                -0.03551963511420442,
                -2.5354373295478903
            ]
        },
        {
            "positions": [
                -1.0166939897695946,
                -1.0320579753954138,
                1.9388686281249476,
                -0.4154800626987969,
                0.0655583841513705,
                -2.6515294904501197
            ]
        },
        {
            "positions": [
                -1.036466798111988,
                -1.0541205322272909,
                1.959019884138252,
                -0.5268468822529357,
                0.16663640341694497,
                -2.767621651352349
            ]
        },
        {
            "positions": [
                -1.0562396064543815,
                -1.076183089059168,
                1.9791711401515562,
                -0.6382137018070753,
                0.2677144226825199,
                -2.8837138122545793
            ]
        },
        {
            "positions": [
                -1.076012414796775,
                -1.098245645891045,
                1.9993223961648605,
                -0.7495805213612143,
                0.3687924419480946,
                -2.9998059731568087
            ]
        },
        {
            "positions": [
                -1.0957852231391683,
                -1.120308202722922,
                2.019473652178165,
                -0.8609473409153534,
                0.46987046121366915,
                -3.1158981340590386
            ]
        }
    ]
}