{
    "goal": {
        "global_pose": {
            "orientation": {
                "w": 0.5084816217422485,
                "x": -0.49083608388900757,
                "y": 0.5182115435600281,
                "z": -0.4816462993621826
            },
            "position": {
                "x": 0.5540239810943604,
                "y": 0.030875300988554955,
                "z": 0.16403168439865112
            }
        },
        "name": "move_to_storage_A"
    },
    "id": "LBKPIECE_move_to_storage_A_60",
    "joint_names": [
        "shoulder_pan_joint",
        "shoulder_lift_joint",
        "elbow_joint",
        "wrist_1_joint",
        "wrist_2_joint",
        "wrist_3_joint"
    ],
    "metrics": {
        "cart_traj_len": 0.35336434666064354,
        "distance_elbow_joint": 0.4490539497226025,
        "distance_shoulder_lift_joint": 0.23353585087136208,
        "distance_shoulder_pan_joint": 0.46354409184086737,
        "distance_wrist_1_joint": 0.23780271569385703,
        "distance_wrist_2_joint": 1.092723916375931,
        "distance_wrist_3_joint": 0.093988830348402,
        "smoothness": 2.2204460668324854e-16,
        "time": 1.648685541,
        "traj_len": 1.6033244696108837,
        "weighted_distance": 2.0221655836304837
    },
    "planner": "LBKPIECE",
    "start": {
        "state": {
            "elbow_joint": 1.9715474177455299,
            "shoulder_lift_joint": -1.139484666580328,
            "shoulder_pan_joint": 0.12281154398918248,
            "wrist_1_joint": -0.7804687475355282,
            "wrist_2_joint": 0.12958649657246987,
            "wrist_3_joint": -3.1924925159053466
        }
    },
    "waypoints": [
        {
            "positions": [
                0.12281154398918248,
                -1.139484666580328,
                1.9715474177455299,
                -0.7804687475355282,
                0.12958649657246987,
                -3.1924925159053466
            ]
        },
        {
            "positions": [
                0.05659095944048714,
                -1.1728469309905225,
                2.035697981991616,
                -0.8144405640632221,
                0.28568991319760284,
                -3.179065540141289
            ]
        },
        {
            "positions": [
                -0.009629625108208195,
                -1.2062091954007172,
                2.099848546237702,
                -0.848412380590916,
                0.4417933298227359,
                -3.1656385643772316
            ]
        },
        {
            "positions": [
                -0.07585020965690353,
                -1.2395714598109118,
                2.163999110483788,
                -0.8823841971186097,
                0.5978967464478688,
                -3.152211588613174
            ]
        },
        {
            "positions": [
                -0.14207079420559887,
                -1.2729337242211063,
                2.228149674729874,
                -0.9163560136463036,
                0.7540001630730019,
                -3.138784612849117
            ]
        },
        {
            "positions": [
                -0.2082913787542942,
                -1.3062959886313008,
                2.2923002389759604,
                -0.9503278301739975,
                0.9101035796981349,
                -3.1253576370850595
            ]
        },
        {
            "positions": [
                -0.27451196330298955,
                -1.3396582530414956,
                2.3564508032220464,
                -0.9842996467016913,
                1.0662069963232679,
                -3.111930661321002
            ]
        },
        {
            "positions": [
                -0.3407325478516849,
                -1.37302051745169,
                2.4206013674681324,
                -1.0182714632293852,
                1.2223104129484008,
                -3.0985036855569446
            ]
        }
    ]
}