{
    "goal": {
        "global_pose": {
            "orientation": {
                "w": 0.5084816217422485,
                "x": -0.49083608388900757,
                "y": 0.5182115435600281,
                "z": -0.4816462993621826
            },
            "position": {
                "x": 0.5540239810943604,
                "y": 0.030875300988554955,
                "z": 0.16403168439865112
            }
        },
        "name": "move_to_storage_A"
    },
    "id": "LBKPIECE_move_to_storage_A_100",
    "joint_names": [
        "shoulder_pan_joint",
        "shoulder_lift_joint",
        "elbow_joint",
        "wrist_1_joint",
        "wrist_2_joint",
        "wrist_3_joint"
    ],
    "metrics": {
        "cart_traj_len": 0.35236741320312714,
        "distance_elbow_joint": 0.44800158390087796,
        "distance_shoulder_lift_joint": 0.23587966644526648,
        "distance_shoulder_pan_joint": 0.45648896591675514,
        "distance_wrist_1_joint": 0.23359592846544242,
        "distance_wrist_2_joint": 1.1163561616856228,
        "distance_wrist_3_joint": 0.09310827670945487,
        "smoothness": 1.3322676330666221e-15,
        "time": 2.0487206159999998,
        "traj_len": 1.6073053795478378,
        "weighted_distance": 2.029679587199269
    },
    "planner": "LBKPIECE",
    "start": {
        "state": {
            "elbow_joint": 1.9715474177455299,
            "shoulder_lift_joint": -1.139484666580328,
            "shoulder_pan_joint": 0.12281154398918248,
            "wrist_1_joint": -0.7804687475355282,
            "wrist_2_joint": 0.12958649657246987,
            "wrist_3_joint": -3.1924925159053466
        }
    },
    "waypoints": [
        {
            "positions": [
                0.12281154398918248,
                -1.139484666580328,
                1.9715474177455299,
                -0.7804687475355282,
                0.12958649657246987,
                -3.1924925159053466
            ]
        },
        {
            "positions": [
                0.057598834572503185,
                -1.1731817617867946,
                2.035547644017084,
                -0.8138395944591629,
                0.28906594824184456,
                -3.1791913335182818
            ]
        },
        {
            "positions": [
                -0.007613874844176111,
                -1.2068788569932614,
                2.099547870288638,
                -0.8472104413827974,
                0.4485453999112192,
                -3.1658901511312165
            ]
        },
        {
            "positions": [
                -0.07282658426085542,
                -1.240575952199728,
                2.163548096560192,
                -0.8805812883064321,
                0.6080248515805939,
                -3.1525889687441517
            ]
        },
        {
            "positions": [
                -0.1380392936775347,
                -1.2742730474061945,
                2.227548322831746,
                -0.9139521352300667,
                0.7675043032499687,
                -3.1392877863570865
            ]
        },
        {
            "positions": [
                -0.20325200309421404,
                -1.3079701426126613,
                2.2915485491033,
                -0.9473229821537014,
                0.9269837549193434,
                -3.1259866039700217
            ]
        },
        {
            "positions": [
                -0.2684647125108933,
                -1.3416672378191279,
                2.355548775374854,
                -0.9806938290773359,
                1.0864632065887179,
                -3.1126854215829565
            ]
        },
        {
            "positions": [
                -0.33367742192757266,
                -1.3753643330255945,
                2.419549001646408,
                -1.0140646760009706,
                1.2459426582580926,
                -3.0993842391958917
            ]
        }
    ]
}