{
    "goal": {
        "global_pose": {
            "orientation": {
                "w": 0.7047431468963623,
                "x": -0.7094548344612122,
                "y": 0.0024358443915843964,
                "z": -0.0022348060738295317
            },
            "position": {
                "x": 0.6094750761985779,
                "y": 0.3671506643295288,
                "z": 0.19426114857196808
            }
        },
        "name": "move_to_magneteinheit_A"
    },
    "id": "LBKPIECE_move_to_magneteinheit_A_53",
    "joint_names": [
        "shoulder_pan_joint",
        "shoulder_lift_joint",
        "elbow_joint",
        "wrist_1_joint",
        "wrist_2_joint",
        "wrist_3_joint"
    ],
    "metrics": {
        "cart_traj_len": 1.0533497466704878,
        "distance_elbow_joint": 0.38967808380034796,
        "distance_shoulder_lift_joint": 0.36226708554982157,
        "distance_shoulder_pan_joint": 1.242108074182713,
        "distance_wrist_1_joint": 2.24123941795734,
        "distance_wrist_2_joint": 1.695071019389963,
        "distance_wrist_3_joint": 1.2031982389221234,
        "smoothness": 2.6645352801989826e-16,
        "time": 3.030715648,
        "traj_len": 2.670872876009322,
        "weighted_distance": 3.6710037911985136
    },
    "planner": "LBKPIECE",
    "start": {
        "state": {
            "elbow_joint": 1.5739458966750683,
            "shoulder_lift_joint": -1.4977259741207325,
            "shoulder_pan_joint": -1.1188672016454206,
            "wrist_1_joint": 1.494575848278785,
            "wrist_2_joint": -1.5706037134824402,
            "wrist_3_joint": -2.0226957942261072
        }
    },
    "waypoints": [
        {
            "positions": [
                -1.1188672016454206,
                -1.4977259741207325,
                1.5739458966750683,
                1.494575848278785,
                -1.5706037134824402,
                -2.0226957942261072
            ]
        },
        {
            "positions": [
                -1.0534930924779093,
                -1.478659285407584,
                1.5944552695066656,
                1.3766158789126093,
                -1.4813894493040212,
                -2.0860220173272714
            ]
        },
        {
            "positions": [
                -0.9881189833103983,
                -1.4595925966944354,
                1.6149646423382629,
                1.2586559095464334,
                -1.392175185125602,
                -2.149348240428436
            ]
        },
        {
            "positions": [
                -0.922744874142887,
                -1.440525907981287,
                1.6354740151698601,
                1.1406959401802577,
                -1.3029609209471829,
                -2.2126744635296003
            ]
        },
        {
            "positions": [
                -0.8573707649753758,
                -1.4214592192681386,
                1.6559833880014574,
                1.022735970814082,
                -1.2137466567687638,
                -2.276000686630765
            ]
        },
        {
            "positions": [
                -0.7919966558078646,
                -1.40239253055499,
                1.6764927608330547,
                0.904776001447906,
                -1.1245323925903448,
                -2.339326909731929
            ]
        },
        {
            "positions": [
                -0.7266225466403533,
                -1.3833258418418415,
                1.697002133664652,
                0.7868160320817302,
                -1.0353181284119257,
                -2.402653132833094
            ]
        },
        {
            "positions": [
                -0.6612484374728422,
                -1.364259153128693,
                1.7175115064962492,
                0.6688560627155545,
                -0.9461038642335066,
                -2.465979355934258
            ]
        },
        {
            "positions": [
                -0.5958743283053309,
                -1.3451924644155444,
                1.7380208793278464,
                0.5508960933493787,
                -0.8568896000550874,
                -2.529305579035422
            ]
        },
        {
            "positions": [
                -0.5305002191378198,
                -1.3261257757023959,
                1.7585302521594437,
                0.4329361239832028,
                -0.7676753358766684,
                -2.592631802136587
            ]
        },
        {
            "positions": [
                -0.46512610997030857,
                -1.3070590869892476,
                1.779039624991041,
                0.3149761546170271,
                -0.6784610716982492,
                -2.655958025237751
            ]
        },
        {
            "positions": [
                -0.39975200080279727,
                -1.287992398276099,
                1.7995489978226382,
                0.19701618525085118,
                -0.58924680751983,
                -2.7192842483389157
            ]
        },
        {
            "positions": [
                -0.3343778916352861,
                -1.2689257095629505,
                1.8200583706542355,
                0.07905621588467548,
                -0.500032543341411,
                -2.78261047144008
            ]
        },
        {
            "positions": [
                -0.2690037824677748,
                -1.249859020849802,
                1.8405677434858327,
                -0.038903753481500436,
                -0.41081827916299174,
                -2.845936694541244
            ]
        },
        {
            "positions": [
                -0.2036296733002637,
                -1.2307923321366534,
                1.86107711631743,
                -0.1568637228476759,
                -0.3216040149845729,
                -2.9092629176424087
            ]
        },
        {
            "positions": [
                -0.13825556413275242,
                -1.2117256434235049,
                1.8815864891490273,
                -0.27482369221385183,
                -0.23238975080615365,
                -2.972589140743573
            ]
        },
        {
            "positions": [
                -0.07288145496524123,
                -1.1926589547103563,
                1.9020958619806245,
                -0.39278366158002753,
                -0.1431754866277346,
                -3.0359153638447376
            ]
        },
        {
            "positions": [
                -0.007507345797729936,
                -1.173592265997208,
                1.9226052348122218,
                -0.5107436309462037,
                -0.05396122244931534,
                -3.099241586945902
            ]
        },
        {
            "positions": [
                0.05786676336978114,
                -1.1545255772840595,
                1.943114607643819,
                -0.6287036003123794,
                0.035253041729103485,
                -3.162567810047066
            ]
        },
        {
            "positions": [
                0.12324087253729252,
                -1.135458888570911,
                1.9636239804754163,
                -0.746663569678555,
                0.1244673059075228,
                -3.2258940331482306
            ]
        }
    ]
}