{
    "goal": {
        "global_pose": {
            "orientation": {
                "w": 0.5084816262002911,
                "x": -0.4908360881923452,
                "y": 0.5182115481033761,
                "z": -0.48164630358495003
            },
            "position": {
                "x": 0.5540239810943604,
                "y": -0.46912469901144505,
                "z": 0.16403168439865112
            }
        },
        "name": "move_to_storage_B"
    },
    "id": "LBKPIECE_move_to_storage_B_141",
    "joint_names": [
        "shoulder_pan_joint",
        "shoulder_lift_joint",
        "elbow_joint",
        "wrist_1_joint",
        "wrist_2_joint",
        "wrist_3_joint"
    ],
    "metrics": {
        "cart_traj_len": 1.2459840722308777,
        "distance_elbow_joint": 2.0721444283817627,
        "distance_shoulder_lift_joint": 1.2440228833704823,
        "distance_shoulder_pan_joint": 0.9715916063604316,
        "distance_wrist_1_joint": 3.182166877645826,
        "distance_wrist_2_joint": 2.7037220678061438,
        "distance_wrist_3_joint": 3.7321386833007026,
        "smoothness": 0.7757176838369633,
        "time": 4.832293335999999,
        "traj_len": 3.729046332088856,
        "weighted_distance": 5.220723403793647
    },
    "planner": "LBKPIECE",
    "start": {
        "state": {
            "elbow_joint": 1.6649325706314817,
            "shoulder_lift_joint": -0.6616388048112454,
            "shoulder_pan_joint": -0.9139837860083814,
            "wrist_1_joint": 2.146757197745094,
            "wrist_2_joint": -2.234196043158733,
            "wrist_3_joint": 0.005471033829999897
        }
    },
    "waypoints": [
        {
            "positions": [
                -0.9139837860083814,
                -0.6616388048112454,
                1.6649325706314817,
                2.146757197745094,
                -2.234196043158733,
                0.005471033829999897
            ]
        },
        {
            "positions": [
                -0.8349120001051675,
                -0.7237144775660568,
                1.7678586796907818,
                2.1674530260974683,
                -2.208934385820489,
                -0.05515026417908521
            ]
        },
        {
            "positions": [
                -0.7558402142019538,
                -0.7857901503208683,
                1.8707847887500821,
                2.188148854449843,
                -2.1836727284822457,
                -0.11577156218817031
            ]
        },
        {
            "positions": [
                -0.67676842829874,
                -0.8478658230756797,
                1.9737108978093822,
                2.208844682802217,
                -2.158411071144002,
                -0.17639286019725542
            ]
        },
        {
            "positions": [
                -0.5976966423955261,
                -0.9099414958304912,
                2.0766370068686824,
                2.2295405111545916,
                -2.1331494138057585,
                -0.23701415820634053
            ]
        },
        {
            "positions": [
                -0.5186248564923124,
                -0.9720171685853026,
                2.1795631159279827,
                2.2502363395069658,
                -2.1078877564675147,
                -0.2976354562154256
            ]
        },
        {
            "positions": [
                -0.5479362630746768,
                -0.9159336230477791,
                2.0563381683222746,
                2.192638625582968,
                -2.021744247670907,
                -0.2597788430587117
            ]
        },
        {
            "positions": [
                -0.5772476696570412,
                -0.8598500775102556,
                1.9331132207165662,
                2.13504091165897,
                -1.9356007388742993,
                -0.22192222990199784
            ]
        },
        {
            "positions": [
                -0.6065590762394055,
                -0.8037665319727321,
                1.8098882731108579,
                2.0774431977349725,
                -1.8494572300776917,
                -0.18406561674528396
            ]
        },
        {
            "positions": [
                -0.6358704828217699,
                -0.7476829864352086,
                1.6866633255051495,
                2.0198454838109745,
                -1.7633137212810839,
                -0.14620900358857009
            ]
        },
        {
            "positions": [
                -0.6651818894041344,
                -0.6915994408976851,
                1.5634383778994412,
                1.962247769886977,
                -1.6771702124844763,
                -0.10835239043185618
            ]
        },
        {
            "positions": [
                -0.6944932959864988,
                -0.6355158953601616,
                1.440213430293733,
                1.904650055962979,
                -1.5910267036878687,
                -0.07049577727514234
            ]
        },
        {
            "positions": [
                -0.7238047025688632,
                -0.579432349822638,
                1.3169884826880247,
                1.8470523420389813,
                -1.5048831948912609,
                -0.03263916411842843
            ]
        },
        {
            "positions": [
                -0.7392652371841887,
                -0.6019765040240447,
                1.3459442847649123,
                1.7355730196049826,
                -1.4226161440771496,
                0.09919566509649985
            ]
        },
        {
            "positions": [
                -0.7547257717995142,
                -0.6245206582254514,
                1.3749000868418,
                1.6240936971709838,
                -1.3403490932630382,
                0.23103049431142814
            ]
        },
        {
            "positions": [
                -0.7701863064148396,
                -0.6470648124268581,
                1.4038558889186878,
                1.5126143747369851,
                -1.258082042448927,
                0.3628653235263565
            ]
        },
        {
            "positions": [
                -0.7856468410301651,
                -0.6696089666282647,
                1.4328116909955755,
                1.4011350523029864,
                -1.1758149916348155,
                0.4947001527412847
            ]
        },
        {
            "positions": [
                -0.8011073756454907,
                -0.6921531208296714,
                1.4617674930724631,
                1.2896557298689875,
                -1.0935479408207043,
                0.6265349819562132
            ]
        },
        {
            "positions": [
                -0.8165679102608161,
                -0.7146972750310782,
                1.4907232951493508,
                1.1781764074349887,
                -1.011280890006593,
                0.7583698111711414
            ]
        },
        {
            "positions": [
                -0.8320284448761417,
                -0.7372414292324848,
                1.5196790972262386,
                1.0666970850009898,
                -0.9290138391924816,
                0.8902046403860697
            ]
        },
        {
            "positions": [
                -0.8474889794914672,
                -0.7597855834338915,
                1.5486348993031263,
                0.9552177625669913,
                -0.8467467883783704,
                1.0220394696009978
            ]
        },
        {
            "positions": [
                -0.8629495141067927,
                -0.7823297376352982,
                1.577590701380014,
                0.8437384401329924,
                -0.7644797375642589,
                1.1538742988159263
            ]
        },
        {
            "positions": [
                -0.8784100487221181,
                -0.8048738918367049,
                1.6065465034569015,
                0.7322591176989937,
                -0.6822126867501476,
                1.2857091280308546
            ]
        },
        {
            "positions": [
                -0.8938705833374436,
                -0.8274180460381115,
                1.6355023055337892,
                0.6207797952649949,
                -0.5999456359360363,
                1.4175439572457829
            ]
        },
        {
            "positions": [
                -0.9093311179527691,
                -0.8499622002395182,
                1.664458107610677,
                0.5093004728309962,
                -0.517678585121925,
                1.5493787864607111
            ]
        },
        {
            "positions": [
                -0.9247916525680946,
                -0.8725063544409248,
                1.6934139096875644,
                0.3978211503969975,
                -0.43541153430781376,
                1.6812136156756394
            ]
        },
        {
            "positions": [
                -0.9402521871834201,
                -0.8950505086423317,
                1.7223697117644523,
                0.28634182796299856,
                -0.3531444834937023,
                1.813048444890568
            ]
        },
        {
            "positions": [
                -0.9557127217987456,
                -0.9175946628437384,
                1.75132551384134,
                0.17486250552900007,
                -0.2708774326795911,
                1.944883274105496
            ]
        },
        {
            "positions": [
                -0.971173256414071,
                -0.940138817045145,
                1.7802813159182276,
                0.06338318309500135,
                -0.18861038186547985,
                2.0767181033204243
            ]
        },
        {
            "positions": [
                -0.9866337910293965,
                -0.9626829712465517,
                1.8092371179951154,
                -0.04809613933899759,
                -0.1063433310513684,
                2.208552932535353
            ]
        },
        {
            "positions": [
                -1.0020943256447221,
                -0.9852271254479583,
                1.838192920072003,
                -0.15957546177299653,
                -0.024076280237256942,
                2.3403877617502813
            ]
        },
        {
            "positions": [
                -1.0175548602600475,
                -1.007771279649365,
                1.8671487221488907,
                -0.2710547842069948,
                0.05819077057685429,
                2.4722225909652096
            ]
        },
        {
            "positions": [
                -1.033015394875373,
                -1.0303154338507716,
                1.8961045242257786,
                -0.38253410664099396,
                0.14045782139096574,
                2.604057420180138
            ]
        },
        {
            "positions": [
                -1.0484759294906985,
                -1.0528595880521783,
                1.925060326302666,
                -0.4940134290749927,
                0.22272487220507697,
                2.735892249395066
            ]
        },
        {
            "positions": [
                -1.063936464106024,
                -1.075403742253585,
                1.9540161283795539,
                -0.6054927515089914,
                0.3049919230191882,
                2.8677270786099944
            ]
        },
        {
            "positions": [
                -1.0793969987213496,
                -1.0979478964549918,
                1.9829719304564415,
                -0.7169720739429901,
                0.38725897383329966,
                2.9995619078249227
            ]
        },
        {
            "positions": [
                -1.094857533336675,
                -1.1204920506563985,
                2.011927732533329,
                -0.828451396376989,
                0.4695260246474109,
                3.131396737039851
            ]
        }
    ]
}