{
    "goal": {
        "global_pose": {
            "orientation": {
                "w": -0.00223480608172531,
                "x": 0.0024358444001904467,
                "y": 0.7094548369677653,
                "z": -0.704743149386269
            },
            "position": {
                "x": 0.6205249238014221,
                "y": -0.6371506643295288,
                "z": 0.19426114857196808
            }
        },
        "name": "move_to_magneteinheit_B"
    },
    "id": "LBKPIECE_move_to_magneteinheit_B_114",
    "joint_names": [
        "shoulder_pan_joint",
        "shoulder_lift_joint",
        "elbow_joint",
        "wrist_1_joint",
        "wrist_2_joint",
        "wrist_3_joint"
    ],
    "metrics": {
        "cart_traj_len": 4.602163913618022,
        "distance_elbow_joint": 6.103107961382248,
        "distance_shoulder_lift_joint": 1.2805117723350319,
        "distance_shoulder_pan_joint": 2.9551135336278875,
        "distance_wrist_1_joint": 2.602828436265618,
        "distance_wrist_2_joint": 4.147359936388812,
        "distance_wrist_3_joint": 6.026364389595149,
        "smoothness": 0.6487784070308578,
        "time": 3.808609315,
        "traj_len": 4.807835898779692,
        "weighted_distance": 6.474426861231769
    },
    "planner": "LBKPIECE",
    "start": {
        "state": {
            "elbow_joint": 2.3935871308073637,
            "shoulder_lift_joint": -1.9085141043777403,
            "shoulder_pan_joint": 0.7066247067284167,
            "wrist_1_joint": -0.46782909355067076,
            "wrist_2_joint": 0.7096259085804283,
            "wrist_3_joint": -3.1358149275257428
        }
    },
    "waypoints": [
        {
            "positions": [
                0.7066247067284167,
                -1.9085141043777403,
                2.3935871308073637,
                -0.46782909355067076,
                0.7096259085804283,
                -3.1358149275257428
            ]
        },
        {
            "positions": [
                0.7560233166272998,
                -1.9083308731156257,
                2.4005982219750113,
                -0.45198847597688463,
                0.6186384745503509,
                -3.081981169099982
            ]
        },
        {
            "positions": [
                0.805421926526183,
                -1.908147641853511,
                2.4076093131426592,
                -0.43614785840309844,
                0.5276510405202736,
                -3.0281474106742214
            ]
        },
        {
            "positions": [
                0.8356998573329595,
                -1.906125300297635,
                2.3433662444556527,
                -0.4181561016898613,
                0.4904909147026291,
                -2.9636447971004993
            ]
        },
        {
            "positions": [
                0.8659777881397359,
                -1.9041029587417593,
                2.2791231757686465,
                -0.4001643449766241,
                0.4533307888849847,
                -2.899142183526777
            ]
        },
        {
            "positions": [
                0.911780602800594,
                -1.902665466307539,
                2.1054267802113404,
                -0.37635515386017737,
                0.4270331630822648,
                -2.7833393301663665
            ]
        },
        {
            "positions": [
                0.9575834174614521,
                -1.9012279738733189,
                1.9317303846540343,
                -0.3525459627437306,
                0.400735537279545,
                -2.6675364768059553
            ]
        },
        {
            "positions": [
                1.0033862321223102,
                -1.8997904814390987,
                1.7580339890967283,
                -0.32873677162728393,
                0.3744379114768251,
                -2.5517336234455446
            ]
        },
        {
            "positions": [
                1.0491890467831682,
                -1.8983529890048783,
                1.584337593539422,
                -0.3049275805108372,
                0.34814028567410527,
                -2.4359307700851334
            ]
        },
        {
            "positions": [
                1.0949918614440264,
                -1.896915496570658,
                1.4106411979821158,
                -0.28111838939439043,
                0.3218426598713854,
                -2.3201279167247226
            ]
        },
        {
            "positions": [
                1.1407946761048844,
                -1.8954780041364379,
                1.2369448024248098,
                -0.25730919827794374,
                0.2955450340686655,
                -2.204325063364312
            ]
        },
        {
            "positions": [
                1.1865974907657426,
                -1.8940405117022177,
                1.0632484068675034,
                -0.233500007161497,
                0.2692474082659457,
                -2.0885222100039007
            ]
        },
        {
            "positions": [
                1.2324003054266006,
                -1.8926030192679975,
                0.8895520113101973,
                -0.20969081604505024,
                0.24294978246322582,
                -1.97271935664349
            ]
        },
        {
            "positions": [
                1.2782031200874586,
                -1.8911655268337773,
                0.7158556157528913,
                -0.18588162492860352,
                0.21665215666050594,
                -1.856916503283079
            ]
        },
        {
            "positions": [
                1.3240059347483168,
                -1.889728034399557,
                0.5421592201955852,
                -0.16207243381215677,
                0.1903545308577861,
                -1.741113649922668
            ]
        },
        {
            "positions": [
                1.369808749409175,
                -1.8882905419653366,
                0.3684628246382786,
                -0.13826324269571,
                0.1640569050550662,
                -1.6253107965622569
            ]
        },
        {
            "positions": [
                1.415611564070033,
                -1.8868530495311164,
                0.19476642908097297,
                -0.1144540515792633,
                0.13775927925234638,
                -1.5095079432018461
            ]
        },
        {
            "positions": [
                1.461414378730891,
                -1.8854155570968962,
                0.02107003352366643,
                -0.09064486046281656,
                0.1114616534496265,
                -1.3937050898414352
            ]
        },
        {
            "positions": [
                1.507217193391749,
                -1.883978064662676,
                -0.15262636203363966,
                -0.06683566934636986,
                0.08516402764690667,
                -1.2779022364810242
            ]
        },
        {
            "positions": [
                1.5530200080526073,
                -1.8825405722284558,
                -0.32632275759094576,
                -0.04302647822992306,
                0.05886640184418679,
                -1.1620993831206132
            ]
        },
        {
            "positions": [
                1.5988228227134653,
                -1.8811030797942356,
                -0.5000191531482518,
                -0.019217287113476367,
                0.03256877604146696,
                -1.0462965297602025
            ]
        },
        {
            "positions": [
                1.6446256373743235,
                -1.8796655873600154,
                -0.6737155487055584,
                0.004591904002970382,
                0.006271150238747025,
                -0.9304936763997913
            ]
        },
        {
            "positions": [
                1.6904284520351816,
                -1.878228094925795,
                -0.847411944262864,
                0.028401095119417075,
                -0.0200264755639728,
                -0.8146908230393808
            ]
        },
        {
            "positions": [
                1.7362312666960396,
                -1.8767906024915748,
                -1.0211083398201706,
                0.05221028623586388,
                -0.04632410136669268,
                -0.6988879696789696
            ]
        },
        {
            "positions": [
                1.7820340813568976,
                -1.8753531100573546,
                -1.1948047353774762,
                0.07601947735231057,
                -0.07262172716941251,
                -0.5830851163185589
            ]
        },
        {
            "positions": [
                1.8278368960177558,
                -1.8739156176231344,
                -1.3685011309347825,
                0.09982866846875732,
                -0.09891935297213234,
                -0.46728226295814784
            ]
        },
        {
            "positions": [
                1.9019243038275189,
                -1.8560541650393876,
                -1.3126128952943992,
                0.18057242864126477,
                -0.17599266228709548,
                -0.5466530827412407
            ]
        },
        {
            "positions": [
                1.9760117116372817,
                -1.8381927124556408,
                -1.2567246596540156,
                0.26131618881377217,
                -0.2530659716020587,
                -0.6260239025243336
            ]
        },
        {
            "positions": [
                2.0500991194470446,
                -1.820331259871894,
                -1.2008364240136322,
                0.34205994898627967,
                -0.3301392809170218,
                -0.7053947223074265
            ]
        },
        {
            "positions": [
                2.124186527256808,
                -1.802469807288147,
                -1.1449481883732489,
                0.42280370915878707,
                -0.40721259023198497,
                -0.7847655420905194
            ]
        },
        {
            "positions": [
                2.1982739350665708,
                -1.7846083547044003,
                -1.0890599527328653,
                0.5035474693312946,
                -0.4842858995469481,
                -0.8641363618736123
            ]
        },
        {
            "positions": [
                2.2723613428763336,
                -1.7667469021206534,
                -1.0331717170924821,
                0.584291229503802,
                -0.5613592088619113,
                -0.9435071816567051
            ]
        },
        {
            "positions": [
                2.346448750686097,
                -1.7488854495369066,
                -0.9772834814520985,
                0.6650349896763095,
                -0.6384325181768744,
                -1.022878001439798
            ]
        },
        {
            "positions": [
                2.42053615849586,
                -1.73102399695316,
                -0.9213952458117152,
                0.7457787498488169,
                -0.7155058274918376,
                -1.102248821222891
            ]
        },
        {
            "positions": [
                2.4946235663056227,
                -1.7131625443694132,
                -0.8655070101713317,
                0.8265225100213243,
                -0.7925791368068007,
                -1.1816196410059838
            ]
        },
        {
            "positions": [
                2.568710974115386,
                -1.6953010917856663,
                -0.8096187745309482,
                0.9072662701938319,
                -0.8696524461217638,
                -1.2609904607890767
            ]
        },
        {
            "positions": [
                2.642798381925149,
                -1.6774396392019195,
                -0.7537305388905647,
                0.9880100303663393,
                -0.9467257554367272,
                -1.3403612805721696
            ]
        },
        {
            "positions": [
                2.7168857897349117,
                -1.6595781866181727,
                -0.6978423032501815,
                1.0687537905388467,
                -1.0237990647516901,
                -1.4197321003552625
            ]
        },
        {
            "positions": [
                2.790973197544675,
                -1.6417167340344259,
                -0.641954067609798,
                1.149497550711354,
                -1.1008723740666535,
                -1.4991029201383554
            ]
        },
        {
            "positions": [
                2.865060605354438,
                -1.623855281450679,
                -0.5860658319694145,
                1.2302413108838615,
                -1.1779456833816166,
                -1.5784737399214483
            ]
        },
        {
            "positions": [
                2.9391480131642007,
                -1.6059938288669322,
                -0.530177596329031,
                1.310985071056369,
                -1.2550189926965798,
                -1.6578445597045413
            ]
        },
        {
            "positions": [
                3.0132354209739636,
                -1.5881323762831854,
                -0.4742893606886478,
                1.3917288312288763,
                -1.332092302011543,
                -1.7372153794876342
            ]
        },
        {
            "positions": [
                3.0873228287837264,
                -1.5702709236994385,
                -0.4184011250482643,
                1.4724725914013839,
                -1.409165611326506,
                -1.816586199270727
            ]
        },
        {
            "positions": [
                3.1614102365934897,
                -1.5524094711156917,
                -0.36251288940788085,
                1.5532163515738913,
                -1.4862389206414692,
                -1.89595701905382
            ]
        },
        {
            "positions": [
                3.135077183763868,
                -1.6010624784353225,
                -0.43130168379959716,
                1.5225961941454147,
                -1.3835286518432106,
                -1.7944224417416157
            ]
        },
        {
            "positions": [
                3.1087441309342463,
                -1.6497154857549532,
                -0.5000904781913135,
                1.491976036716938,
                -1.280818383044952,
                -1.6928878644294114
            ]
        },
        {
            "positions": [
                3.082411078104624,
                -1.6983684930745837,
                -0.5688792725830298,
                1.4613558792884613,
                -1.1781081142466934,
                -1.5913532871172074
            ]
        },
        {
            "positions": [
                3.0560780252750024,
                -1.7470215003942144,
                -0.6376680669747461,
                1.4307357218599848,
                -1.0753978454484345,
                -1.489818709805003
            ]
        },
        {
            "positions": [
                3.0297449724453807,
                -1.7956745077138452,
                -0.7064568613664624,
                1.4001155644315082,
                -0.9726875766501759,
                -1.3882841324927988
            ]
        },
        {
            "positions": [
                3.003411919615759,
                -1.844327515033476,
                -0.7752456557581787,
                1.3694954070030314,
                -0.8699773078519173,
                -1.2867495551805948
            ]
        },
        {
            "positions": [
                2.977078866786137,
                -1.8929805223531067,
                -0.8440344501498951,
                1.3388752495745548,
                -0.7672670390536586,
                -1.1852149778683905
            ]
        },
        {
            "positions": [
                2.950745813956515,
                -1.9416335296727374,
                -0.9128232445416113,
                1.3082550921460783,
                -0.6645567702553999,
                -1.0836804005561862
            ]
        },
        {
            "positions": [
                2.9244127611268933,
                -1.9902865369923681,
                -0.9816120389333276,
                1.2776349347176015,
                -0.5618465014571413,
                -0.9821458232439819
            ]
        },
        {
            "positions": [
                2.8980797082972716,
                -2.0389395443119986,
                -1.0504008333250439,
                1.247014777289125,
                -0.4591362326588826,
                -0.8806112459317776
            ]
        },
        {
            "positions": [
                2.87174665546765,
                -2.0875925516316296,
                -1.1191896277167603,
                1.2163946198606483,
                -0.35642596386062375,
                -0.7790766686195734
            ]
        },
        {
            "positions": [
                2.845413602638028,
                -2.13624555895126,
                -1.1879784221084766,
                1.1857744624321715,
                -0.25371569506236535,
                -0.6775420913073693
            ]
        },
        {
            "positions": [
                2.819080549808406,
                -2.184898566270891,
                -1.2567672165001929,
                1.155154305003695,
                -0.1510054262641065,
                -0.576007513995165
            ]
        },
        {
            "positions": [
                2.792747496978784,
                -2.2335515735905216,
                -1.3255560108919093,
                1.1245341475752184,
                -0.04829515746584789,
                -0.47447293668296076
            ]
        },
        {
            "positions": [
                2.7664144441491625,
                -2.282204580910152,
                -1.3943448052836256,
                1.0939139901467416,
                0.054415111332410726,
                -0.3729383593707565
            ]
        },
        {
            "positions": [
                2.7400813913195408,
                -2.330857588229783,
                -1.4631335996753418,
                1.063293832718265,
                0.15712538013066935,
                -0.2714037820585524
            ]
        },
        {
            "positions": [
                2.7137483384899186,
                -2.3795105955494136,
                -1.5319223940670583,
                1.0326736752897885,
                0.2598356489289282,
                -0.16986920474634815
            ]
        },
        {
            "positions": [
                2.687415285660297,
                -2.428163602869044,
                -1.6007111884587744,
                1.0020535178613117,
                0.3625459177271866,
                -0.06833462743414387
            ]
        },
        {
            "positions": [
                2.661082232830675,
                -2.476816610188675,
                -1.6694999828504908,
                0.9714333604328351,
                0.46525618652544537,
                0.0331999498780603
            ]
        }
    ]
}