{
    "goal": {
        "global_pose": {
            "orientation": {
                "w": 0.7031023480610252,
                "x": -0.7110244013736278,
                "y": 0.0077485991402295624,
                "z": 0.005598929693374583
            },
            "position": {
                "x": -0.8841497679147869,
                "y": 0.44412534475326537,
                "z": 0.3711530566215515
            }
        },
        "name": "move_to_auspresseinheit_D"
    },
    "id": "LBKPIECE_move_to_auspresseinheit_D_64",
    "joint_names": [
        "shoulder_pan_joint",
        "shoulder_lift_joint",
        "elbow_joint",
        "wrist_1_joint",
        "wrist_2_joint",
        "wrist_3_joint"
    ],
    "metrics": {
        "cart_traj_len": 3.70043919462035,
        "distance_elbow_joint": 3.011381173974696,
        "distance_shoulder_lift_joint": 1.2367041350276633,
        "distance_shoulder_pan_joint": 2.7966000660627888,
        "distance_wrist_1_joint": 2.0994036555668365,
        "distance_wrist_2_joint": 1.2171433267927703,
        "distance_wrist_3_joint": 6.270198548886813,
        "smoothness": 0.013125450061730925,
        "time": 3.31642205,
        "traj_len": 4.078165139656751,
        "weighted_distance": 5.699857453168877
    },
    "planner": "LBKPIECE",
    "start": {
        "state": {
            "elbow_joint": 1.8268400409724999,
            "shoulder_lift_joint": -1.0144045787793008,
            "shoulder_pan_joint": 2.6280239544362485,
            "wrist_1_joint": -0.790705565816056,
            "wrist_2_joint": 1.0573557467365533,
            "wrist_3_joint": 3.1851377467193758
        }
    },
    "waypoints": [
        {
            "positions": [
                2.6280239544362485,
                -1.0144045787793008,
                1.8268400409724999,
                -0.790705565816056,
                1.0573557467365533,
                3.1851377467193758
            ]
        },
        {
            "positions": [
                2.614852370979477,
                -1.0260900378897029,
                1.8093191952818137,
                -0.7956581649061345,
                1.029512255166875,
                3.1865629398079065
            ]
        },
        {
            "positions": [
                2.5151578520424613,
                -1.0940642074266131,
                1.6803705332060548,
                -0.7949966981584757,
                0.9594096884916878,
                3.1592446174450735
            ]
        },
        {
            "positions": [
                2.4154633331054463,
                -1.1620383769635234,
                1.5514218711302956,
                -0.794335231410817,
                0.8893071218165008,
                3.13192629508224
            ]
        },
        {
            "positions": [
                2.3157688141684307,
                -1.2300125465004335,
                1.4224732090545367,
                -0.7936737646631582,
                0.8192045551413137,
                3.104607972719407
            ]
        },
        {
            "positions": [
                2.216074295231415,
                -1.2979867160373437,
                1.2935245469787775,
                -0.7930122979154994,
                0.7491019884661267,
                3.0772896503565734
            ]
        },
        {
            "positions": [
                2.1163797762944,
                -1.365960885574254,
                1.1645758849030186,
                -0.7923508311678407,
                0.6789994217909396,
                3.0499713279937404
            ]
        },
        {
            "positions": [
                2.0546242117559963,
                -1.3898837998508138,
                1.1010862357704452,
                -0.8488682290796911,
                0.6563295028220976,
                2.88423668626444
            ]
        },
        {
            "positions": [
                1.9928686472175925,
                -1.4138067141273734,
                1.0375965866378718,
                -0.9053856269915415,
                0.6336595838532555,
                2.7185020445351396
            ]
        },
        {
            "positions": [
                1.9311130826791887,
                -1.4377296284039331,
                0.9741069375052984,
                -0.9619030249033917,
                0.6109896648844133,
                2.552767402805839
            ]
        },
        {
            "positions": [
                1.8693575181407849,
                -1.461652542680493,
                0.910617288372725,
                -1.0184204228152423,
                0.5883197459155712,
                2.3870327610765383
            ]
        },
        {
            "positions": [
                1.807601953602381,
                -1.4855754569570527,
                0.8471276392401517,
                -1.0749378207270925,
                0.5656498269467292,
                2.221298119347238
            ]
        },
        {
            "positions": [
                1.7458463890639773,
                -1.5094983712336123,
                0.7836379901075783,
                -1.1314552186389428,
                0.5429799079778871,
                2.0555634776179375
            ]
        },
        {
            "positions": [
                1.6840908245255737,
                -1.533421285510172,
                0.7201483409750049,
                -1.1879726165507933,
                0.520309989009045,
                1.889828835888637
            ]
        },
        {
            "positions": [
                1.6223352599871699,
                -1.5573441997867319,
                0.6566586918424315,
                -1.2444900144626436,
                0.49764007004020294,
                1.7240941941593366
            ]
        },
        {
            "positions": [
                1.560579695448766,
                -1.5812671140632917,
                0.5931690427098582,
                -1.3010074123744941,
                0.47497015107136087,
                1.5583595524300362
            ]
        },
        {
            "positions": [
                1.4988241309103623,
                -1.6051900283398512,
                0.5296793935772848,
                -1.3575248102863444,
                0.45230023210251874,
                1.3926249107007356
            ]
        },
        {
            "positions": [
                1.4370685663719585,
                -1.629112942616411,
                0.4661897444447114,
                -1.414042208198195,
                0.42963031313367667,
                1.2268902689714352
            ]
        },
        {
            "positions": [
                1.3753130018335546,
                -1.6530358568929708,
                0.402700095312138,
                -1.4705596061100452,
                0.40696039416483454,
                1.0611556272421347
            ]
        },
        {
            "positions": [
                1.3135574372951508,
                -1.6769587711695304,
                0.33921044617956464,
                -1.5270770040218955,
                0.38429047519599246,
                0.8954209855128341
            ]
        },
        {
            "positions": [
                1.2518018727567473,
                -1.7008816854460902,
                0.27572079704699126,
                -1.583594401933746,
                0.3616205562271504,
                0.7296863437835337
            ]
        },
        {
            "positions": [
                1.1900463082183435,
                -1.72480459972265,
                0.21223114791441788,
                -1.6401117998455965,
                0.3389506372583083,
                0.5639517020542333
            ]
        },
        {
            "positions": [
                1.1282907436799396,
                -1.7487275139992098,
                0.1487414987818445,
                -1.6966291977574466,
                0.3162807182894662,
                0.39821706032493287
            ]
        },
        {
            "positions": [
                1.0665351791415358,
                -1.7726504282757696,
                0.08525184964927113,
                -1.753146595669297,
                0.2936107993206241,
                0.23248241859563246
            ]
        },
        {
            "positions": [
                1.004779614603132,
                -1.7965733425523291,
                0.02176220051669775,
                -1.8096639935811476,
                0.27094088035178204,
                0.06674777686633204
            ]
        },
        {
            "positions": [
                0.9430240500647282,
                -1.820496256828889,
                -0.04172744861587541,
                -1.8661813914929977,
                0.24827096138293997,
                -0.09898686486296837
            ]
        },
        {
            "positions": [
                0.8812684855263244,
                -1.8444191711054487,
                -0.105217097748449,
                -1.9226987894048482,
                0.22560104241409784,
                -0.26472150659226923
            ]
        },
        {
            "positions": [
                0.8195129209879208,
                -1.8683420853820083,
                -0.16870674688102216,
                -1.9792161873166985,
                0.20293112344525582,
                -0.4304561483215692
            ]
        },
        {
            "positions": [
                0.7577573564495168,
                -1.892264999658568,
                -0.23219639601359576,
                -2.0357335852285487,
                0.1802612044764137,
                -0.5961907900508701
            ]
        },
        {
            "positions": [
                0.6960017919111132,
                -1.9161879139351279,
                -0.2956860451461689,
                -2.0922509831403993,
                0.15759128550757162,
                -0.76192543178017
            ]
        },
        {
            "positions": [
                0.6342462273727092,
                -1.9401108282116875,
                -0.3591756942787425,
                -2.1487683810522498,
                0.13492136653872944,
                -0.9276600735094709
            ]
        },
        {
            "positions": [
                0.5724906628343056,
                -1.9640337424882472,
                -0.4226653434113157,
                -2.2052857789641003,
                0.11225144756988747,
                -1.0933947152387709
            ]
        },
        {
            "positions": [
                0.5107350982959016,
                -1.987956656764807,
                -0.4861549925438893,
                -2.261803176875951,
                0.08958152860104529,
                -1.2591293569680722
            ]
        },
        {
            "positions": [
                0.448979533757498,
                -2.0118795710413666,
                -0.5496446416764624,
                -2.318320574787801,
                0.06691160963220322,
                -1.4248639986973717
            ]
        },
        {
            "positions": [
                0.3872239692190942,
                -2.0358024853179266,
                -0.613134290809036,
                -2.3748379726996514,
                0.044241690663361144,
                -1.590598640426673
            ]
        },
        {
            "positions": [
                0.3254684046806904,
                -2.059725399594486,
                -0.6766239399416092,
                -2.4313553706115014,
                0.02157177169451907,
                -1.7563332821559725
            ]
        },
        {
            "positions": [
                0.2637128401422866,
                -2.0836483138710458,
                -0.7401135890741828,
                -2.487872768523352,
                -0.0010981472743230025,
                -1.9220679238852738
            ]
        },
        {
            "positions": [
                0.20195727560388277,
                -2.107571228147606,
                -0.8036032382067559,
                -2.5443901664352024,
                -0.023768066243165076,
                -2.0878025656145742
            ]
        },
        {
            "positions": [
                0.14020171106547896,
                -2.1314941424241654,
                -0.8670928873393295,
                -2.600907564347053,
                -0.04643798521200726,
                -2.2535372073438746
            ]
        },
        {
            "positions": [
                0.07844614652707538,
                -2.155417056700725,
                -0.9305825364719027,
                -2.657424962258903,
                -0.06910790418084922,
                -2.419271849073175
            ]
        },
        {
            "positions": [
                0.01669058198867157,
                -2.179339970977285,
                -0.9940721856044763,
                -2.7139423601707535,
                -0.0917778231496914,
                -2.5850064908024755
            ]
        },
        {
            "positions": [
                -0.045064982549732235,
                -2.2032628852538445,
                -1.0575618347370495,
                -2.7704597580826036,
                -0.11444774211853348,
                -2.750741132531776
            ]
        },
        {
            "positions": [
                -0.10682054708813604,
                -2.2271857995304045,
                -1.121051483869623,
                -2.8269771559944545,
                -0.13711766108737555,
                -2.9164757742610763
            ]
        },
        {
            "positions": [
                -0.1685761116265397,
                -2.251108713806964,
                -1.1845411330021964,
                -2.8834945539063046,
                -0.15978758005621757,
                -3.0822104159903767
            ]
        }
    ]
}