{
    "goal": {
        "global_pose": {
            "orientation": {
                "w": 0.7031023480610252,
                "x": -0.7110244013736278,
                "y": 0.0077485991402295624,
                "z": 0.005598929693374583
            },
            "position": {
                "x": -0.8841497679147869,
                "y": 0.44412534475326537,
                "z": 0.3711530566215515
            }
        },
        "name": "move_to_auspresseinheit_D"
    },
    "id": "LBKPIECE_move_to_auspresseinheit_D_72",
    "joint_names": [
        "shoulder_pan_joint",
        "shoulder_lift_joint",
        "elbow_joint",
        "wrist_1_joint",
        "wrist_2_joint",
        "wrist_3_joint"
    ],
    "metrics": {
        "cart_traj_len": 3.6946394903855233,
        "distance_elbow_joint": 3.019548183641639,
        "distance_shoulder_lift_joint": 1.2318901807375866,
        "distance_shoulder_pan_joint": 2.7964143669919084,
        "distance_wrist_1_joint": 2.0774949574070174,
        "distance_wrist_2_joint": 1.2167952076208677,
        "distance_wrist_3_joint": 6.27658502938079,
        "smoothness": 3.2297397335745234e-16,
        "time": 2.812913434,
        "traj_len": 4.076607403930358,
        "weighted_distance": 5.697910858338281
    },
    "planner": "LBKPIECE",
    "start": {
        "state": {
            "elbow_joint": 1.8268400409724999,
            "shoulder_lift_joint": -1.0144045787793008,
            "shoulder_pan_joint": 2.6280239544362485,
            "wrist_1_joint": -0.790705565816056,
            "wrist_2_joint": 1.0573557467365533,
            "wrist_3_joint": 3.1851377467193758
        }
    },
    "waypoints": [
        {
            "positions": [
                2.6280239544362485,
                -1.0144045787793008,
                1.8268400409724999,
                -0.790705565816056,
                1.0573557467365533,
                3.1851377467193758
            ]
        },
        {
            "positions": [
                2.559229062343858,
                -1.0721285734231822,
                1.7424277168253257,
                -0.8081837282847858,
                1.0443066675079766,
                3.0654858398629163
            ]
        },
        {
            "positions": [
                2.4904341702514676,
                -1.1298525680670637,
                1.6580153926781516,
                -0.8256618907535156,
                1.0312575882793997,
                2.9458339330064574
            ]
        },
        {
            "positions": [
                2.421639278159077,
                -1.1875765627109454,
                1.5736030685309772,
                -0.8431400532222455,
                1.018208509050823,
                2.826182026149998
            ]
        },
        {
            "positions": [
                2.3528443860666863,
                -1.2453005573548268,
                1.4891907443838033,
                -0.8606182156909753,
                1.0051594298222464,
                2.7065301192935385
            ]
        },
        {
            "positions": [
                2.284049493974296,
                -1.3030245519987083,
                1.404778420236629,
                -0.8780963781597051,
                0.9921103505936696,
                2.5868782124370795
            ]
        },
        {
            "positions": [
                2.2152546018819055,
                -1.36074854664259,
                1.3203660960894548,
                -0.895574540628435,
                0.9790612713650928,
                2.46722630558062
            ]
        },
        {
            "positions": [
                2.1464597097895153,
                -1.4184725412864714,
                1.2359537719422806,
                -0.9130527030971648,
                0.9660121921365161,
                2.347574398724161
            ]
        },
        {
            "positions": [
                2.0776648176971246,
                -1.4761965359303528,
                1.1515414477951065,
                -0.9305308655658946,
                0.9529631129079393,
                2.2279224918677016
            ]
        },
        {
            "positions": [
                2.0134918111184734,
                -1.4981993423185396,
                1.0845628880675566,
                -0.9858928557846711,
                0.9211801822281607,
                2.075940498309727
            ]
        },
        {
            "positions": [
                1.9493188045398226,
                -1.5202021487067263,
                1.0175843283400066,
                -1.0412548460034476,
                0.889397251548382,
                1.923958504751752
            ]
        },
        {
            "positions": [
                1.8851457979611717,
                -1.5422049550949128,
                0.9506057686124567,
                -1.0966168362222242,
                0.8576143208686033,
                1.771976511193777
            ]
        },
        {
            "positions": [
                1.8209727913825207,
                -1.5642077614830996,
                0.8836272088849069,
                -1.1519788264410007,
                0.8258313901888246,
                1.6199945176358024
            ]
        },
        {
            "positions": [
                1.7567997848038697,
                -1.5862105678712863,
                0.8166486491573568,
                -1.2073408166597772,
                0.7940484595090459,
                1.4680125240778277
            ]
        },
        {
            "positions": [
                1.6926267782252187,
                -1.608213374259473,
                0.749670089429807,
                -1.2627028068785537,
                0.7622655288292672,
                1.3160305305198527
            ]
        },
        {
            "positions": [
                1.6284537716465675,
                -1.6302161806476598,
                0.682691529702257,
                -1.3180647970973305,
                0.7304825981494886,
                1.164048536961878
            ]
        },
        {
            "positions": [
                1.5642807650679167,
                -1.6522189870358464,
                0.6157129699747071,
                -1.3734267873161068,
                0.6986996674697099,
                1.0120665434039033
            ]
        },
        {
            "positions": [
                1.5001077584892655,
                -1.674221793424033,
                0.5487344102471572,
                -1.4287887775348835,
                0.6669167367899312,
                0.8600845498459284
            ]
        },
        {
            "positions": [
                1.4359347519106147,
                -1.6962245998122198,
                0.48175585051960723,
                -1.4841507677536598,
                0.6351338061101526,
                0.7081025562879537
            ]
        },
        {
            "positions": [
                1.3717617453319635,
                -1.7182274062004066,
                0.4147772907920574,
                -1.5395127579724366,
                0.6033508754303738,
                0.5561205627299788
            ]
        },
        {
            "positions": [
                1.3075887387533125,
                -1.7402302125885933,
                0.3477987310645074,
                -1.594874748191213,
                0.5715679447505952,
                0.40413856917200386
            ]
        },
        {
            "positions": [
                1.2434157321746615,
                -1.7622330189767799,
                0.28082017133695747,
                -1.6502367384099896,
                0.5397850140708165,
                0.25215657561402915
            ]
        },
        {
            "positions": [
                1.1792427255960103,
                -1.7842358253649666,
                0.2138416116094075,
                -1.7055987286287664,
                0.5080020833910378,
                0.10017458205605445
            ]
        },
        {
            "positions": [
                1.1150697190173595,
                -1.8062386317531534,
                0.14686305188185766,
                -1.7609607188475427,
                0.47621915271125914,
                -0.05180741150192025
            ]
        },
        {
            "positions": [
                1.0508967124387085,
                -1.82824143814134,
                0.07988449215430782,
                -1.8163227090663192,
                0.4444362220314805,
                -0.20378940505989496
            ]
        },
        {
            "positions": [
                0.9867237058600575,
                -1.8502442445295268,
                0.012905932426757749,
                -1.8716846992850957,
                0.4126532913517018,
                -0.3557713986178701
            ]
        },
        {
            "positions": [
                0.9225506992814065,
                -1.8722470509177134,
                -0.0540726273007921,
                -1.9270466895038723,
                0.38087036067192315,
                -0.5077533921758448
            ]
        },
        {
            "positions": [
                0.8583776927027555,
                -1.8942498573059001,
                -0.12105118702834194,
                -1.9824086797226488,
                0.3490874299921445,
                -0.6597353857338195
            ]
        },
        {
            "positions": [
                0.7942046861241046,
                -1.9162526636940869,
                -0.188029746755892,
                -2.037770669941425,
                0.3173044993123657,
                -0.8117173792917942
            ]
        },
        {
            "positions": [
                0.7300316795454533,
                -1.9382554700822736,
                -0.25500830648344186,
                -2.093132660160202,
                0.28552156863258704,
                -0.9636993728497694
            ]
        },
        {
            "positions": [
                0.6658586729668023,
                -1.9602582764704604,
                -0.3219868662109917,
                -2.1484946503789786,
                0.2537386379528084,
                -1.115681366407744
            ]
        },
        {
            "positions": [
                0.6016856663881514,
                -1.9822610828586469,
                -0.3889654259385418,
                -2.2038566405977553,
                0.2219557072730297,
                -1.2676633599657188
            ]
        },
        {
            "positions": [
                0.5375126598095004,
                -2.0042638892468334,
                -0.4559439856660916,
                -2.2592186308165316,
                0.19017277659325105,
                -1.419645353523694
            ]
        },
        {
            "positions": [
                0.47333965323084937,
                -2.0262666956350204,
                -0.5229225453936417,
                -2.314580621035308,
                0.15838984591347227,
                -1.5716273470816686
            ]
        },
        {
            "positions": [
                0.4091666466521984,
                -2.0482695020232073,
                -0.5899011051211915,
                -2.3699426112540847,
                0.1266069152336936,
                -1.7236093406396433
            ]
        },
        {
            "positions": [
                0.34499364007354716,
                -2.070272308411394,
                -0.6568796648487416,
                -2.4253046014728614,
                0.09482398455391494,
                -1.875591334197618
            ]
        },
        {
            "positions": [
                0.28082063349489617,
                -2.0922751147995804,
                -0.7238582245762915,
                -2.480666591691638,
                0.06304105387413628,
                -2.0275733277555927
            ]
        },
        {
            "positions": [
                0.21664762691624517,
                -2.1142779211877674,
                -0.7908367843038415,
                -2.5360285819104145,
                0.0312581231943575,
                -2.1795553213135683
            ]
        },
        {
            "positions": [
                0.1524746203375944,
                -2.136280727575954,
                -0.8578153440313911,
                -2.5913905721291908,
                -0.0005248074854210527,
                -2.331537314871542
            ]
        },
        {
            "positions": [
                0.08830161375894341,
                -2.1582835339641404,
                -0.924793903758941,
                -2.6467525623479675,
                -0.03230773816519972,
                -2.483519308429517
            ]
        },
        {
            "positions": [
                0.024128607180292416,
                -2.1802863403523274,
                -0.9917724634864908,
                -2.702114552566744,
                -0.06409066884497838,
                -2.6355013019874916
            ]
        },
        {
            "positions": [
                -0.0400443993983588,
                -2.202289146740514,
                -1.0587510232140411,
                -2.7574765427855206,
                -0.09587359952475716,
                -2.787483295545467
            ]
        },
        {
            "positions": [
                -0.10421740597700957,
                -2.2242919531287004,
                -1.125729582941591,
                -2.812838533004297,
                -0.1276565302045357,
                -2.939465289103442
            ]
        },
        {
            "positions": [
                -0.16839041255566084,
                -2.2462947595168874,
                -1.1927081426691408,
                -2.8682005232230736,
                -0.15943946088431454,
                -3.091447282661416
            ]
        }
    ]
}