{
    "goal": {
        "global_pose": {
            "orientation": {
                "w": 0.7047431468963623,
                "x": -0.7094548344612122,
                "y": 0.0024358443915843964,
                "z": -0.0022348060738295317
            },
            "position": {
                "x": 0.6094750761985779,
                "y": 0.3671506643295288,
                "z": 0.19426114857196808
            }
        },
        "name": "move_to_magneteinheit_A"
    },
    "id": "LBKPIECE_move_to_magneteinheit_A_61",
    "joint_names": [
        "shoulder_pan_joint",
        "shoulder_lift_joint",
        "elbow_joint",
        "wrist_1_joint",
        "wrist_2_joint",
        "wrist_3_joint"
    ],
    "metrics": {
        "cart_traj_len": 1.0538172429824706,
        "distance_elbow_joint": 0.3848867337726314,
        "distance_shoulder_lift_joint": 0.36509181120854417,
        "distance_shoulder_pan_joint": 1.24265974243778,
        "distance_wrist_1_joint": 2.2175708202080164,
        "distance_wrist_2_joint": 1.6972939335216362,
        "distance_wrist_3_joint": 1.212407700969925,
        "smoothness": 0.0,
        "time": 2.867099535,
        "traj_len": 2.668316087370185,
        "weighted_distance": 3.6687315107252036
    },
    "planner": "LBKPIECE",
    "start": {
        "state": {
            "elbow_joint": 1.5739458966750683,
            "shoulder_lift_joint": -1.4977259741207325,
            "shoulder_pan_joint": -1.1188672016454206,
            "wrist_1_joint": 1.494575848278785,
            "wrist_2_joint": -1.5706037134824402,
            "wrist_3_joint": -2.0226957942261072
        }
    },
    "waypoints": [
        {
            "positions": [
                -1.1188672016454206,
                -1.4977259741207325,
                1.5739458966750683,
                1.494575848278785,
                -1.5706037134824402,
                -2.0226957942261072
            ]
        },
        {
            "positions": [
                -1.0498305492877662,
                -1.4774430957202578,
                1.59532849299577,
                1.3713774693783396,
                -1.4763096060645715,
                -2.090051777613325
            ]
        },
        {
            "positions": [
                -0.9807938969301118,
                -1.457160217319783,
                1.6167110893164718,
                1.2481790904778942,
                -1.3820154986467028,
                -2.1574077610005435
            ]
        },
        {
            "positions": [
                -0.9117572445724573,
                -1.4368773389193086,
                1.6380936856371735,
                1.1249807115774488,
                -1.2877213912288341,
                -2.2247637443877615
            ]
        },
        {
            "positions": [
                -0.8427205922148029,
                -1.4165944605188339,
                1.6594762819578752,
                1.0017823326770037,
                -1.1934272838109656,
                -2.2921197277749794
            ]
        },
        {
            "positions": [
                -0.7736839398571485,
                -1.3963115821183592,
                1.6808588782785772,
                0.8785839537765582,
                -1.0991331763930967,
                -2.3594757111621973
            ]
        },
        {
            "positions": [
                -0.704647287499494,
                -1.3760287037178844,
                1.7022414745992789,
                0.7553855748761129,
                -1.0048390689752282,
                -2.4268316945494157
            ]
        },
        {
            "positions": [
                -0.6356106351418395,
                -1.3557458253174097,
                1.7236240709199806,
                0.6321871959756674,
                -0.9105449615573594,
                -2.4941876779366337
            ]
        },
        {
            "positions": [
                -0.566573982784185,
                -1.335462946916935,
                1.7450066672406823,
                0.5089888170752221,
                -0.8162508541394908,
                -2.5615436613238516
            ]
        },
        {
            "positions": [
                -0.4975373304265306,
                -1.3151800685164603,
                1.766389263561384,
                0.38579043817477676,
                -0.7219567467216221,
                -2.62889964471107
            ]
        },
        {
            "positions": [
                -0.42850067806887615,
                -1.2948971901159858,
                1.7877718598820858,
                0.2625920592743314,
                -0.6276626393037534,
                -2.696255628098288
            ]
        },
        {
            "positions": [
                -0.3594640257112216,
                -1.274614311715511,
                1.8091544562027875,
                0.139393680373886,
                -0.5333685318858847,
                -2.763611611485506
            ]
        },
        {
            "positions": [
                -0.2904273733535673,
                -1.2543314333150364,
                1.8305370525234892,
                0.016195301473440837,
                -0.43907442446801626,
                -2.8309675948727238
            ]
        },
        {
            "positions": [
                -0.22139072099591284,
                -1.2340485549145617,
                1.851919648844191,
                -0.10700307742700454,
                -0.34478031705014756,
                -2.8983235782599417
            ]
        },
        {
            "positions": [
                -0.1523540686382583,
                -1.213765676514087,
                1.8733022451648926,
                -0.23020145632745015,
                -0.25048620963227863,
                -2.96567956164716
            ]
        },
        {
            "positions": [
                -0.08331741628060385,
                -1.1934827981136125,
                1.8946848414855946,
                -0.35339983522789553,
                -0.15619210221440993,
                -3.0330355450343784
            ]
        },
        {
            "positions": [
                -0.014280763922949413,
                -1.1731999197131378,
                1.9160674378062963,
                -0.4765982141283407,
                -0.061897994796541456,
                -3.1003915284215964
            ]
        },
        {
            "positions": [
                0.054755888434705025,
                -1.152917041312663,
                1.937450034126998,
                -0.5997965930287859,
                0.032396112621327244,
                -3.1677475118088143
            ]
        },
        {
            "positions": [
                0.12379254079235953,
                -1.1326341629121883,
                1.9588326304476997,
                -0.7229949719292317,
                0.1266902200391959,
                -3.2351034951960322
            ]
        }
    ]
}