{
    "goal": {
        "global_pose": {
            "orientation": {
                "w": 0.005598929693374612,
                "x": 0.007748599140229565,
                "y": 0.7110244013736278,
                "z": -0.7031023480610252
            },
            "position": {
                "x": -0.8858502320852131,
                "y": -0.7141253447532654,
                "z": 0.3711530566215515
            }
        },
        "name": "move_to_auspresseinheit_C"
    },
    "id": "LBKPIECE_move_to_auspresseinheit_C_70",
    "joint_names": [
        "shoulder_pan_joint",
        "shoulder_lift_joint",
        "elbow_joint",
        "wrist_1_joint",
        "wrist_2_joint",
        "wrist_3_joint"
    ],
    "metrics": {
        "cart_traj_len": 0.4923417523151917,
        "distance_elbow_joint": 0.9939095392193168,
        "distance_shoulder_lift_joint": 0.3220133980960508,
        "distance_shoulder_pan_joint": 0.2562583721835172,
        "distance_wrist_1_joint": 0.6705193325240176,
        "distance_wrist_2_joint": 1.3091499757237404,
        "distance_wrist_3_joint": 0.06254546525922011,
        "smoothness": 8.074349282788172e-16,
        "time": 3.85520153,
        "traj_len": 1.9011565119699805,
        "weighted_distance": 2.3914757623216802
    },
    "planner": "LBKPIECE",
    "start": {
        "state": {
            "elbow_joint": 1.752795957773711,
            "shoulder_lift_joint": -0.9740617694225064,
            "shoulder_pan_joint": -2.967991417825858,
            "wrist_1_joint": -0.7595177689806859,
            "wrist_2_joint": 1.7443932448377395,
            "wrist_3_joint": 3.199131542505932
        }
    },
    "waypoints": [
        {
            "positions": [
                -2.967991417825858,
                -0.9740617694225064,
                1.752795957773711,
                -0.7595177689806859,
                1.7443932448377395,
                3.199131542505932
            ]
        },
        {
            "positions": [
                -2.942365580607506,
                -0.9418604296129014,
                1.6534050038517794,
                -0.6924658357282841,
                1.6134782472653655,
                3.19287699598001
            ]
        },
        {
            "positions": [
                -2.9167397433891544,
                -0.9096590898032962,
                1.5540140499298478,
                -0.6254139024758824,
                1.4825632496929915,
                3.186622449454088
            ]
        },
        {
            "positions": [
                -2.8911139061708027,
                -0.8774577499936912,
                1.454623096007916,
                -0.5583619692234806,
                1.3516482521206175,
                3.180367902928166
            ]
        },
        {
            "positions": [
                -2.865488068952451,
                -0.8452564101840861,
                1.3552321420859843,
                -0.49131003597107886,
                1.2207332545482434,
                3.174113356402244
            ]
        },
        {
            "positions": [
                -2.8398622317340996,
                -0.813055070374481,
                1.2558411881640528,
                -0.4242581027186771,
                1.0898182569758692,
                3.1678588098763223
            ]
        },
        {
            "positions": [
                -2.814236394515748,
                -0.780853730564876,
                1.156450234242121,
                -0.3572061694662753,
                0.9589032594034953,
                3.1616042633504002
            ]
        },
        {
            "positions": [
                -2.788610557297396,
                -0.7486523907552709,
                1.0570592803201895,
                -0.2901542362138736,
                0.8279882618311213,
                3.155349716824478
            ]
        },
        {
            "positions": [
                -2.7629847200790443,
                -0.7164510509456659,
                0.9576683263982576,
                -0.22310230296147182,
                0.6970732642587472,
                3.149095170298556
            ]
        },
        {
            "positions": [
                -2.7373588828606925,
                -0.6842497111360607,
                0.858277372476326,
                -0.15605036970907005,
                0.5661582666863731,
                3.142840623772634
            ]
        },
        {
            "positions": [
                -2.7117330456423407,
                -0.6520483713264557,
                0.7588864185543943,
                -0.08899843645666823,
                0.4352432691139992,
                3.136586077246712
            ]
        }
    ]
}