{
    "goal": {
        "global_pose": {
            "orientation": {
                "w": -0.00223480608172531,
                "x": 0.0024358444001904467,
                "y": 0.7094548369677653,
                "z": -0.704743149386269
            },
            "position": {
                "x": 0.6205249238014221,
                "y": -0.6371506643295288,
                "z": 0.19426114857196808
            }
        },
        "name": "move_to_magneteinheit_B"
    },
    "id": "LBKPIECE_move_to_magneteinheit_B_54",
    "joint_names": [
        "shoulder_pan_joint",
        "shoulder_lift_joint",
        "elbow_joint",
        "wrist_1_joint",
        "wrist_2_joint",
        "wrist_3_joint"
    ],
    "metrics": {
        "cart_traj_len": 3.611566535574588,
        "distance_elbow_joint": 4.262061425929664,
        "distance_shoulder_lift_joint": 0.9563282013618404,
        "distance_shoulder_pan_joint": 2.075477185251876,
        "distance_wrist_1_joint": 2.005742120542087,
        "distance_wrist_2_joint": 1.3131435112161256,
        "distance_wrist_3_joint": 0.6053177585560885,
        "smoothness": 0.32854391598361143,
        "time": 3.2388448380000003,
        "traj_len": 3.349338770990131,
        "weighted_distance": 3.968323493835662
    },
    "planner": "LBKPIECE",
    "start": {
        "state": {
            "elbow_joint": 2.3935871308073637,
            "shoulder_lift_joint": -1.9085141043777403,
            "shoulder_pan_joint": 0.7066247067284167,
            "wrist_1_joint": -0.46782909355067076,
            "wrist_2_joint": 0.7096259085804283,
            "wrist_3_joint": -3.1358149275257428
        }
    },
    "waypoints": [
        {
            "positions": [
                0.7066247067284167,
                -1.9085141043777403,
                2.3935871308073637,
                -0.46782909355067076,
                0.7096259085804283,
                -3.1358149275257428
            ]
        },
        {
            "positions": [
                0.7335232699989378,
                -1.9421684086396238,
                2.413507674569841,
                -0.4652843841645448,
                0.5924937293889863,
                -3.0509895079413187
            ]
        },
        {
            "positions": [
                0.7604218332694589,
                -1.9758227129015076,
                2.433428218332318,
                -0.4627396747784188,
                0.4753615501975442,
                -2.9661640883568947
            ]
        },
        {
            "positions": [
                0.78732039653998,
                -2.009477017163391,
                2.4533487620947954,
                -0.4601949653922929,
                0.35822937100610214,
                -2.8813386687724707
            ]
        },
        {
            "positions": [
                0.8714047068757178,
                -1.994747967858101,
                2.2760495072782736,
                -0.5349418866181944,
                0.32840372537794627,
                -2.8790432583982666
            ]
        },
        {
            "positions": [
                0.9554890172114556,
                -1.9800189185528108,
                2.0987502524617514,
                -0.6096888078440961,
                0.29857807974979034,
                -2.8767478480240625
            ]
        },
        {
            "positions": [
                1.0395733275471934,
                -1.9652898692475207,
                1.9214509976452296,
                -0.6844357290699976,
                0.26875243412163446,
                -2.8744524376498584
            ]
        },
        {
            "positions": [
                1.1236576378829313,
                -1.9505608199422306,
                1.7441517428287079,
                -0.7591826502958992,
                0.23892678849347856,
                -2.8721570272756543
            ]
        },
        {
            "positions": [
                1.207741948218669,
                -1.9358317706369406,
                1.566852488012186,
                -0.8339295715218007,
                0.20910114286532266,
                -2.86986161690145
            ]
        },
        {
            "positions": [
                1.2918262585544067,
                -1.9211027213316503,
                1.389553233195664,
                -0.9086764927477023,
                0.17927549723716676,
                -2.8675662065272465
            ]
        },
        {
            "positions": [
                1.3759105688901447,
                -1.9063736720263602,
                1.212253978379142,
                -0.983423413973604,
                0.14944985160901086,
                -2.8652707961530424
            ]
        },
        {
            "positions": [
                1.4599948792258823,
                -1.8916446227210701,
                1.0349547235626202,
                -1.0581703351995055,
                0.11962420598085499,
                -2.8629753857788383
            ]
        },
        {
            "positions": [
                1.5440791895616204,
                -1.87691557341578,
                0.8576554687460982,
                -1.132917256425407,
                0.08979856035269906,
                -2.860679975404634
            ]
        },
        {
            "positions": [
                1.628163499897358,
                -1.8621865241104898,
                0.6803562139295765,
                -1.2076641776513086,
                0.05997291472454319,
                -2.85838456503043
            ]
        },
        {
            "positions": [
                1.7122478102330958,
                -1.8474574748051997,
                0.5030569591130545,
                -1.2824110988772102,
                0.03014726909638732,
                -2.856089154656226
            ]
        },
        {
            "positions": [
                1.7963321205688336,
                -1.8327284254999097,
                0.3257577042965325,
                -1.3571580201031117,
                0.0003216234682313912,
                -2.853793744282022
            ]
        },
        {
            "positions": [
                1.8804164309045714,
                -1.8179993761946196,
                0.14845844948001075,
                -1.4319049413290132,
                -0.02950402215992448,
                -2.8514983339078177
            ]
        },
        {
            "positions": [
                1.9645007412403095,
                -1.8032703268893293,
                -0.028840805336511455,
                -1.5066518625549152,
                -0.05932966778808041,
                -2.8492029235336136
            ]
        },
        {
            "positions": [
                2.048585051576047,
                -1.7885412775840392,
                -0.2061400601530332,
                -1.5813987837808168,
                -0.08915531341623628,
                -2.8469075131594095
            ]
        },
        {
            "positions": [
                2.132669361911785,
                -1.7738122282787492,
                -0.38343931496955497,
                -1.6561457050067183,
                -0.11898095904439215,
                -2.8446121027852054
            ]
        },
        {
            "positions": [
                2.2167536722475227,
                -1.7590831789734591,
                -0.5607385697860767,
                -1.7308926262326199,
                -0.14880660467254808,
                -2.8423166924110013
            ]
        },
        {
            "positions": [
                2.3008379825832606,
                -1.7443541296681688,
                -0.7380378246025989,
                -1.8056395474585214,
                -0.178632250300704,
                -2.8400212820367976
            ]
        },
        {
            "positions": [
                2.3849222929189984,
                -1.7296250803628788,
                -0.9153370794191207,
                -1.880386468684423,
                -0.20845789592885983,
                -2.8377258716625935
            ]
        },
        {
            "positions": [
                2.469006603254736,
                -1.7148960310575887,
                -1.0926363342356424,
                -1.9551333899103245,
                -0.23828354155701575,
                -2.8354304612883894
            ]
        },
        {
            "positions": [
                2.553090913590474,
                -1.7001669817522984,
                -1.2699355890521642,
                -2.029880311136226,
                -0.26810918718517157,
                -2.8331350509141853
            ]
        },
        {
            "positions": [
                2.637175223926212,
                -1.6854379324470083,
                -1.4472348438686864,
                -2.1046272323621276,
                -0.2979348328133275,
                -2.830839640539981
            ]
        },
        {
            "positions": [
                2.7212595342619497,
                -1.6707088831417183,
                -1.6245340986852084,
                -2.179374153588029,
                -0.32776047844148337,
                -2.828544230165777
            ]
        },
        {
            "positions": [
                2.704379328766609,
                -1.7410781724832143,
                -1.6620700310500962,
                -2.2977580633792467,
                -0.435135417781176,
                -2.8393170888649664
            ]
        },
        {
            "positions": [
                2.6874991232712677,
                -1.8114474618247105,
                -1.6996059634149843,
                -2.416141973170464,
                -0.5425103571208686,
                -2.8500899475641557
            ]
        },
        {
            "positions": [
                2.678471807695381,
                -1.9367336537818853,
                -1.6831576070374996,
                -2.430195634705643,
                -0.5221746086159257,
                -2.942257062163404
            ]
        },
        {
            "positions": [
                2.6694444921194935,
                -2.0620198457390604,
                -1.6667092506600147,
                -2.4442492962408227,
                -0.5018388601109828,
                -3.0344241767626516
            ]
        },
        {
            "positions": [
                2.6604171765436067,
                -2.187306037696235,
                -1.65026089428253,
                -2.458302957776002,
                -0.4815031116060399,
                -3.1265912913619
            ]
        }
    ]
}