{
    "goal": {
        "global_pose": {
            "orientation": {
                "w": 0.7031023480610252,
                "x": -0.7110244013736278,
                "y": 0.0077485991402295624,
                "z": 0.005598929693374583
            },
            "position": {
                "x": -0.8841497679147869,
                "y": 0.44412534475326537,
                "z": 0.3711530566215515
            }
        },
        "name": "move_to_auspresseinheit_D"
    },
    "id": "LBKPIECE_move_to_auspresseinheit_D_65",
    "joint_names": [
        "shoulder_pan_joint",
        "shoulder_lift_joint",
        "elbow_joint",
        "wrist_1_joint",
        "wrist_2_joint",
        "wrist_3_joint"
    ],
    "metrics": {
        "cart_traj_len": 3.591268763301899,
        "distance_elbow_joint": 2.9927099044850003,
        "distance_shoulder_lift_joint": 1.2466509859398656,
        "distance_shoulder_pan_joint": 2.7965386589180428,
        "distance_wrist_1_joint": 2.1459933278274494,
        "distance_wrist_2_joint": 1.2134902678183992,
        "distance_wrist_3_joint": 6.221832403375037,
        "smoothness": 5.0464683166292895e-16,
        "time": 4.518437996,
        "traj_len": 4.076421905098122,
        "weighted_distance": 5.693888298057813
    },
    "planner": "LBKPIECE",
    "start": {
        "state": {
            "elbow_joint": 1.8268400409724999,
            "shoulder_lift_joint": -1.0144045787793008,
            "shoulder_pan_joint": 2.6280239544362485,
            "wrist_1_joint": -0.790705565816056,
            "wrist_2_joint": 1.0573557467365533,
            "wrist_3_joint": 3.1851377467193758
        }
    },
    "waypoints": [
        {
            "positions": [
                2.6280239544362485,
                -1.0144045787793008,
                1.8268400409724999,
                -0.790705565816056,
                1.0573557467365533,
                3.1851377467193758
            ]
        },
        {
            "positions": [
                2.5981760565267957,
                -1.0702949253430554,
                1.762343444939362,
                -0.7917821434865338,
                0.9829839566039824,
                3.0310690506635725
            ]
        },
        {
            "positions": [
                2.568328158617343,
                -1.12618527190681,
                1.6978468489062242,
                -0.7928587211570115,
                0.9086121664714114,
                2.877000354607769
            ]
        },
        {
            "positions": [
                2.53848026070789,
                -1.1820756184705645,
                1.6333502528730863,
                -0.7939352988274891,
                0.8342403763388404,
                2.7229316585519654
            ]
        },
        {
            "positions": [
                2.508632362798437,
                -1.237965965034319,
                1.5688536568399485,
                -0.7950118764979669,
                0.7598685862062695,
                2.568862962496162
            ]
        },
        {
            "positions": [
                2.4787844648889843,
                -1.2938563115980735,
                1.5043570608068109,
                -0.7960884541684446,
                0.6854967960736985,
                2.4147942664403588
            ]
        },
        {
            "positions": [
                2.4489365669795315,
                -1.349746658161828,
                1.439860464773673,
                -0.7971650318389224,
                0.6111250059411276,
                2.2607255703845555
            ]
        },
        {
            "positions": [
                2.4190886690700784,
                -1.4056370047255826,
                1.3753638687405352,
                -0.7982416095094,
                0.5367532158085566,
                2.1066568743287517
            ]
        },
        {
            "positions": [
                2.3892407711606256,
                -1.4615273512893372,
                1.3108672727073973,
                -0.7993181871798778,
                0.4623814256759857,
                1.9525881782729486
            ]
        },
        {
            "positions": [
                2.359392873251173,
                -1.5174176978530918,
                1.2463706766742595,
                -0.8003947648503555,
                0.3880096355434147,
                1.798519482217145
            ]
        },
        {
            "positions": [
                2.2850426503766736,
                -1.539289399819741,
                1.175422425492296,
                -0.8632272392266247,
                0.37200539564267177,
                1.6563073016620626
            ]
        },
        {
            "positions": [
                2.210692427502175,
                -1.5611611017863902,
                1.1044741743103326,
                -0.9260597136028939,
                0.3560011557419288,
                1.5140951211069802
            ]
        },
        {
            "positions": [
                2.1363422046276757,
                -1.5830328037530395,
                1.0335259231283689,
                -0.988892187979163,
                0.33999691584118585,
                1.3718829405518975
            ]
        },
        {
            "positions": [
                2.061991981753177,
                -1.6049045057196887,
                0.9625776719464054,
                -1.051724662355432,
                0.3239926759404429,
                1.229670759996815
            ]
        },
        {
            "positions": [
                1.9876417588786777,
                -1.6267762076863381,
                0.891629420764442,
                -1.114557136731701,
                0.30798843603969994,
                1.0874585794417326
            ]
        },
        {
            "positions": [
                1.9132915360041787,
                -1.6486479096529874,
                0.8206811695824785,
                -1.1773896111079702,
                0.291984196138957,
                0.94524639888665
            ]
        },
        {
            "positions": [
                1.8389413131296797,
                -1.6705196116196366,
                0.749732918400515,
                -1.2402220854842394,
                0.27597995623821403,
                0.8030342183315675
            ]
        },
        {
            "positions": [
                1.7645910902551805,
                -1.6923913135862858,
                0.6787846672185515,
                -1.3030545598605086,
                0.2599757163374711,
                0.6608220377764851
            ]
        },
        {
            "positions": [
                1.6902408673806817,
                -1.714263015552935,
                0.607836416036588,
                -1.3658870342367777,
                0.2439714764367281,
                0.5186098572214024
            ]
        },
        {
            "positions": [
                1.6158906445061825,
                -1.7361347175195843,
                0.5368881648546244,
                -1.4287195086130469,
                0.22796723653598513,
                0.37639767666631996
            ]
        },
        {
            "positions": [
                1.5415404216316835,
                -1.7580064194862335,
                0.46593991367266097,
                -1.491551982989316,
                0.21196299663524215,
                0.2341854961112373
            ]
        },
        {
            "positions": [
                1.4671901987571845,
                -1.779878121452883,
                0.3949916624906974,
                -1.5543844573655852,
                0.1959587567344992,
                0.09197331555615484
            ]
        },
        {
            "positions": [
                1.3928399758826855,
                -1.8017498234195322,
                0.32404341130873404,
                -1.617216931741854,
                0.17995451683375627,
                -0.05023886499892738
            ]
        },
        {
            "positions": [
                1.3184897530081865,
                -1.8236215253861814,
                0.25309516012677047,
                -1.6800494061181233,
                0.1639502769330133,
                -0.19245104555401005
            ]
        },
        {
            "positions": [
                1.2441395301336875,
                -1.8454932273528306,
                0.1821469089448069,
                -1.7428818804943924,
                0.14794603703227033,
                -0.3346632261090927
            ]
        },
        {
            "positions": [
                1.1697893072591883,
                -1.8673649293194798,
                0.11119865776284343,
                -1.8057143548706616,
                0.13194179713152737,
                -0.47687540666417494
            ]
        },
        {
            "positions": [
                1.0954390843846893,
                -1.889236631286129,
                0.04025040658087997,
                -1.8685468292469307,
                0.11593755723078442,
                -0.6190875872192576
            ]
        },
        {
            "positions": [
                1.0210888615101903,
                -1.9111083332527783,
                -0.03069784460108349,
                -1.9313793036231999,
                0.09993331733004146,
                -0.7612997677743403
            ]
        },
        {
            "positions": [
                0.9467386386356911,
                -1.9329800352194275,
                -0.10164609578304695,
                -1.994211777999469,
                0.0839290774292985,
                -0.9035119483294225
            ]
        },
        {
            "positions": [
                0.8723884157611921,
                -1.9548517371860767,
                -0.17259434696501064,
                -2.0570442523757384,
                0.06792483752855555,
                -1.0457241288845052
            ]
        },
        {
            "positions": [
                0.7980381928866931,
                -1.976723439152726,
                -0.2435425981469741,
                -2.1198767267520076,
                0.05192059762781259,
                -1.1879363094395878
            ]
        },
        {
            "positions": [
                0.7236879700121941,
                -1.9985951411193754,
                -0.31449084932893756,
                -2.1827092011282767,
                0.03591635772706958,
                -1.3301484899946705
            ]
        },
        {
            "positions": [
                0.6493377471376949,
                -2.020466843086025,
                -0.385439100510901,
                -2.245541675504546,
                0.019912117826326625,
                -1.4723606705497527
            ]
        },
        {
            "positions": [
                0.5749875242631959,
                -2.042338545052674,
                -0.4563873516928647,
                -2.308374149880815,
                0.003907877925583669,
                -1.6145728511048354
            ]
        },
        {
            "positions": [
                0.5006373013886969,
                -2.0642102470193233,
                -0.5273356028748282,
                -2.371206624257084,
                -0.012096361975159287,
                -1.756785031659918
            ]
        },
        {
            "positions": [
                0.4262870785141981,
                -2.0860819489859725,
                -0.5982838540567914,
                -2.4340390986333524,
                -0.028100601875902187,
                -1.8989972122149998
            ]
        },
        {
            "positions": [
                0.3519368556396989,
                -2.1079536509526218,
                -0.6692321052387549,
                -2.4968715730096216,
                -0.04410484177664514,
                -2.0412093927700825
            ]
        },
        {
            "positions": [
                0.2775866327652001,
                -2.129825352919271,
                -0.7401803564207186,
                -2.5597040473858907,
                -0.0601090816773881,
                -2.183421573325165
            ]
        },
        {
            "positions": [
                0.2032364098907009,
                -2.1516970548859202,
                -0.811128607602682,
                -2.62253652176216,
                -0.07611332157813105,
                -2.325633753880248
            ]
        },
        {
            "positions": [
                0.12888618701620214,
                -2.1735687568525695,
                -0.8820768587846457,
                -2.685368996138429,
                -0.09211756147887407,
                -2.4678459344353305
            ]
        },
        {
            "positions": [
                0.05453596414170292,
                -2.1954404588192187,
                -0.9530251099666089,
                -2.748201470514698,
                -0.10812180137961702,
                -2.6100581149904123
            ]
        },
        {
            "positions": [
                -0.019814258732796297,
                -2.217312160785868,
                -1.0239733611485726,
                -2.8110339448909674,
                -0.12412604128035998,
                -2.752270295545495
            ]
        },
        {
            "positions": [
                -0.09416448160729507,
                -2.239183862752517,
                -1.0949216123305359,
                -2.8738664192672365,
                -0.14013028118110293,
                -2.8944824761005776
            ]
        },
        {
            "positions": [
                -0.16851470448179426,
                -2.2610555647191664,
                -1.1658698635124998,
                -2.9366988936435057,
                -0.15613452108184586,
                -3.0366946566556603
            ]
        }
    ]
}