{
    "goal": {
        "global_pose": {
            "orientation": {
                "w": -0.4816463035849501,
                "x": 0.5182115481033762,
                "y": 0.4908360881923453,
                "z": -0.5084816262002911
            },
            "position": {
                "x": -0.8240239810943604,
                "y": 0.19912469901144506,
                "z": 0.16403168439865112
            }
        },
        "name": "move_to_storage_D"
    },
    "id": "LBKPIECE_move_to_storage_D_73",
    "joint_names": [
        "shoulder_pan_joint",
        "shoulder_lift_joint",
        "elbow_joint",
        "wrist_1_joint",
        "wrist_2_joint",
        "wrist_3_joint"
    ],
    "metrics": {
        "cart_traj_len": 0.6353906922202464,
        "distance_elbow_joint": 0.6481302262770869,
        "distance_shoulder_lift_joint": 0.37336924656409387,
        "distance_shoulder_pan_joint": 0.40656553238622045,
        "distance_wrist_1_joint": 3.8335063265663765,
        "distance_wrist_2_joint": 1.7801056223253453,
        "distance_wrist_3_joint": 3.6683783745955614,
        "smoothness": 0.3350687657754275,
        "time": 2.9048503219999997,
        "traj_len": 3.2726220876713956,
        "weighted_distance": 4.8641981895064195
    },
    "planner": "LBKPIECE",
    "start": {
        "state": {
            "elbow_joint": -2.384821997420982,
            "shoulder_lift_joint": -2.2788054674887404,
            "shoulder_pan_joint": -0.18546946417610016,
            "wrist_1_joint": 1.4845937964226739,
            "wrist_2_joint": 0.1789877726866377,
            "wrist_3_joint": 0.03710572555276528
        }
    },
    "waypoints": [
        {
            "positions": [
                -0.18546946417610016,
                -2.2788054674887404,
                -2.384821997420982,
                1.4845937964226739,
                0.1789877726866377,
                0.03710572555276528
            ]
        },
        {
            "positions": [
                -0.14747644551968137,
                -2.2662903100134484,
                -2.3816928650887426,
                1.4106300753200554,
                0.13546184854871687,
                0.008332118552215995
            ]
        },
        {
            "positions": [
                -0.1094834268632626,
                -2.2537751525381564,
                -2.3785637327565032,
                1.3366663542174368,
                0.09193592441079605,
                -0.02044148844833329
            ]
        },
        {
            "positions": [
                -0.041772568318143716,
                -2.1745816893277445,
                -2.393522935161223,
                1.2994342940876122,
                0.09170576011369001,
                -0.0879163979134504
            ]
        },
        {
            "positions": [
                0.025938290226975164,
                -2.0953882261173327,
                -2.408482137565943,
                1.2622022339577879,
                0.09147559581658399,
                -0.15539130737856752
            ]
        },
        {
            "positions": [
                0.09364914877209407,
                -2.016194762906921,
                -2.4234413399706627,
                1.2249701738279632,
                0.09124543151947795,
                -0.22286621684368466
            ]
        },
        {
            "positions": [
                0.08855127199457302,
                -2.0206251045862116,
                -2.3995615657947247,
                1.0820148656690967,
                0.023550900273150516,
                -0.08652995955572021
            ]
        },
        {
            "positions": [
                0.08345339521705196,
                -2.025055446265503,
                -2.3756817916187867,
                0.93905955751023,
                -0.04414363097317692,
                0.04980629773224424
            ]
        },
        {
            "positions": [
                0.07835551843953091,
                -2.0294857879447936,
                -2.3518020174428487,
                0.7961042493513633,
                -0.11183816221950432,
                0.18614255502020863
            ]
        },
        {
            "positions": [
                0.07325764166200986,
                -2.033916129624085,
                -2.3279222432669107,
                0.6531489411924967,
                -0.17953269346583178,
                0.3224788123081731
            ]
        },
        {
            "positions": [
                0.0681597648844888,
                -2.0383464713033757,
                -2.304042469090973,
                0.51019363303363,
                -0.2472272247121592,
                0.4588150695961376
            ]
        },
        {
            "positions": [
                0.06306188810696775,
                -2.0427768129826664,
                -2.280162694915035,
                0.3672383248747634,
                -0.3149217559584866,
                0.5951513268841019
            ]
        },
        {
            "positions": [
                0.057964011329446695,
                -2.0472071546619577,
                -2.256282920739097,
                0.22428301671589668,
                -0.3826162872048141,
                0.7314875841720665
            ]
        },
        {
            "positions": [
                0.052866134551925646,
                -2.0516374963412485,
                -2.232403146563159,
                0.08132770855703009,
                -0.4503108184511415,
                0.8678238414600309
            ]
        },
        {
            "positions": [
                0.04776825777440459,
                -2.0560678380205397,
                -2.208523372387221,
                -0.0616275996018365,
                -0.5180053496974689,
                1.0041600987479953
            ]
        },
        {
            "positions": [
                0.042670380996883535,
                -2.0604981796998305,
                -2.184643598211283,
                -0.20458290776070331,
                -0.5856998809437963,
                1.14049635603596
            ]
        },
        {
            "positions": [
                0.037572504219362486,
                -2.0649285213791213,
                -2.160763824035345,
                -0.3475382159195699,
                -0.6533944121901237,
                1.2768326133239243
            ]
        },
        {
            "positions": [
                0.03247462744184144,
                -2.0693588630584125,
                -2.1368840498594075,
                -0.4904935240784365,
                -0.7210889434364511,
                1.4131688706118886
            ]
        },
        {
            "positions": [
                0.027376750664320382,
                -2.0737892047377033,
                -2.113004275683469,
                -0.6334488322373031,
                -0.7887834746827787,
                1.5495051278998533
            ]
        },
        {
            "positions": [
                0.02227887388679932,
                -2.0782195464169946,
                -2.0891245015075315,
                -0.7764041403961699,
                -0.8564780059291062,
                1.6858413851878178
            ]
        },
        {
            "positions": [
                0.01718099710927827,
                -2.0826498880962854,
                -2.0652447273315935,
                -0.9193594485550365,
                -0.9241725371754335,
                1.8221776424757818
            ]
        },
        {
            "positions": [
                0.012083120331757222,
                -2.087080229775576,
                -2.0413649531556555,
                -1.062314756713903,
                -0.991867068421761,
                1.9585138997637466
            ]
        },
        {
            "positions": [
                0.006985243554236159,
                -2.0915105714548674,
                -2.0174851789797175,
                -1.2052700648727697,
                -1.0595615996680885,
                2.094850157051711
            ]
        },
        {
            "positions": [
                0.0018873667767151103,
                -2.095940913134158,
                -1.9936054048037795,
                -1.3482253730316363,
                -1.1272561309144158,
                2.231186414339675
            ]
        },
        {
            "positions": [
                -0.0032105100008059384,
                -2.1003712548134494,
                -1.9697256306278415,
                -1.4911806811905028,
                -1.194950662160743,
                2.36752267162764
            ]
        },
        {
            "positions": [
                -0.008308386778327001,
                -2.1048015964927402,
                -1.9458458564519037,
                -1.6341359893493699,
                -1.2626451934070706,
                2.5038589289156046
            ]
        },
        {
            "positions": [
                -0.013406263555848036,
                -2.109231938172031,
                -1.9219660822759657,
                -1.777091297508236,
                -1.330339724653398,
                2.6401951862035684
            ]
        },
        {
            "positions": [
                -0.0185041403333691,
                -2.1136622798513223,
                -1.8980863081000279,
                -1.920046605667103,
                -1.3980342558997254,
                2.776531443491533
            ]
        },
        {
            "positions": [
                -0.02360201711089016,
                -2.118092621530613,
                -1.8742065339240899,
                -2.0630019138259694,
                -1.465728787146053,
                2.912867700779498
            ]
        },
        {
            "positions": [
                -0.028699893888411196,
                -2.1225229632099043,
                -1.8503267597481519,
                -2.2059572219848365,
                -1.5334233183923802,
                3.0492039580674617
            ]
        },
        {
            "positions": [
                -0.033797770665932265,
                -2.126953304889195,
                -1.8264469855722139,
                -2.3489125301437026,
                -1.6011178496387077,
                3.1855402153554264
            ]
        }
    ]
}