{
    "goal": {
        "global_pose": {
            "orientation": {
                "w": 0.7047431468963623,
                "x": -0.7094548344612122,
                "y": 0.0024358443915843964,
                "z": -0.0022348060738295317
            },
            "position": {
                "x": 0.6094750761985779,
                "y": 0.3671506643295288,
                "z": 0.19426114857196808
            }
        },
        "name": "move_to_magneteinheit_A"
    },
    "id": "LBKPIECE_move_to_magneteinheit_A_15",
    "joint_names": [
        "shoulder_pan_joint",
        "shoulder_lift_joint",
        "elbow_joint",
        "wrist_1_joint",
        "wrist_2_joint",
        "wrist_3_joint"
    ],
    "metrics": {
        "cart_traj_len": 1.0533575231159802,
        "distance_elbow_joint": 0.3873053166920273,
        "distance_shoulder_lift_joint": 0.3637916263920611,
        "distance_shoulder_pan_joint": 1.2417327938425176,
        "distance_wrist_1_joint": 2.233977590107019,
        "distance_wrist_2_joint": 1.6920472536510995,
        "distance_wrist_3_joint": 1.2132759347049054,
        "smoothness": 0.0,
        "time": 4.798014592,
        "traj_len": 2.67060489690812,
        "weighted_distance": 3.6721529418799483
    },
    "planner": "LBKPIECE",
    "start": {
        "state": {
            "elbow_joint": 1.5739458966750683,
            "shoulder_lift_joint": -1.4977259741207325,
            "shoulder_pan_joint": -1.1188672016454206,
            "wrist_1_joint": 1.494575848278785,
            "wrist_2_joint": -1.5706037134824402,
            "wrist_3_joint": -2.0226957942261072
        }
    },
    "waypoints": [
        {
            "positions": [
                -1.1188672016454206,
                -1.4977259741207325,
                1.5739458966750683,
                1.494575848278785,
                -1.5706037134824402,
                -2.0226957942261072
            ]
        },
        {
            "positions": [
                -1.0535128440747619,
                -1.4785790464158872,
                1.5943303870272802,
                1.3769980803784156,
                -1.4815485948692244,
                -2.0865524223684706
            ]
        },
        {
            "positions": [
                -0.988158486504103,
                -1.459432118711042,
                1.6147148773794924,
                1.259420312478046,
                -1.3924934762560086,
                -2.150409050510834
            ]
        },
        {
            "positions": [
                -0.9228041289334442,
                -1.4402851910061965,
                1.6350993677317043,
                1.1418425445776768,
                -1.303438357642793,
                -2.2142656786531973
            ]
        },
        {
            "positions": [
                -0.8574497713627853,
                -1.4211382633013512,
                1.6554838580839162,
                1.0242647766773074,
                -1.2143832390295772,
                -2.278122306795561
            ]
        },
        {
            "positions": [
                -0.7920954137921266,
                -1.401991335596506,
                1.675868348436128,
                0.9066870087769379,
                -1.1253281204163614,
                -2.3419789349379245
            ]
        },
        {
            "positions": [
                -0.7267410562214678,
                -1.3828444078916606,
                1.6962528387883402,
                0.7891092408765684,
                -1.0362730018031456,
                -2.405835563080288
            ]
        },
        {
            "positions": [
                -0.661386698650809,
                -1.3636974801868154,
                1.7166373291405521,
                0.6715314729761991,
                -0.9472178831899299,
                -2.4696921912226513
            ]
        },
        {
            "positions": [
                -0.5960323410801501,
                -1.3445505524819699,
                1.737021819492764,
                0.5539537050758296,
                -0.8581627645767141,
                -2.5335488193650146
            ]
        },
        {
            "positions": [
                -0.5306779835094914,
                -1.3254036247771246,
                1.757406309844976,
                0.4363759371754601,
                -0.7691076459634983,
                -2.597405447507378
            ]
        },
        {
            "positions": [
                -0.4653236259388325,
                -1.3062566970722793,
                1.777790800197188,
                0.31879816927509075,
                -0.6800525273502827,
                -2.6612620756497414
            ]
        },
        {
            "positions": [
                -0.3999692683681736,
                -1.287109769367434,
                1.7981752905494,
                0.2012204013747212,
                -0.5909974087370667,
                -2.725118703792105
            ]
        },
        {
            "positions": [
                -0.3346149107975148,
                -1.2679628416625888,
                1.8185597809016119,
                0.08364263347435186,
                -0.501942290123851,
                -2.7889753319344686
            ]
        },
        {
            "positions": [
                -0.26926055322685594,
                -1.2488159139577433,
                1.838944271253824,
                -0.0339351344260177,
                -0.41288717151063525,
                -2.852831960076832
            ]
        },
        {
            "positions": [
                -0.20390619565619728,
                -1.229668986252898,
                1.8593287616060357,
                -0.1515129023263868,
                -0.3238320528974197,
                -2.9166885882191953
            ]
        },
        {
            "positions": [
                -0.1385518380855384,
                -1.2105220585480527,
                1.8797132519582478,
                -0.26909067022675637,
                -0.23477693428420365,
                -2.980545216361559
            ]
        },
        {
            "positions": [
                -0.07319748051487962,
                -1.1913751308432075,
                1.9000977423104597,
                -0.3866684381271257,
                -0.14572181567098808,
                -3.0444018445039225
            ]
        },
        {
            "positions": [
                -0.007843122944220626,
                -1.1722282031383622,
                1.9204822326626716,
                -0.5042462060274953,
                -0.056666697057772275,
                -3.108258472646286
            ]
        },
        {
            "positions": [
                0.057511234626437924,
                -1.1530812754335167,
                1.9408667230148837,
                -0.6218239739278648,
                0.032388421555443525,
                -3.1721151007886492
            ]
        },
        {
            "positions": [
                0.12286559219709693,
                -1.1339343477286714,
                1.9612512133670956,
                -0.7394017418282343,
                0.12144354016865937,
                -3.2359717289310126
            ]
        }
    ]
}