{
    "goal": {
        "global_pose": {
            "orientation": {
                "w": -0.00223480608172531,
                "x": 0.0024358444001904467,
                "y": 0.7094548369677653,
                "z": -0.704743149386269
            },
            "position": {
                "x": 0.6205249238014221,
                "y": -0.6371506643295288,
                "z": 0.19426114857196808
            }
        },
        "name": "move_to_magneteinheit_B"
    },
    "id": "LBKPIECE_move_to_magneteinheit_B_93",
    "joint_names": [
        "shoulder_pan_joint",
        "shoulder_lift_joint",
        "elbow_joint",
        "wrist_1_joint",
        "wrist_2_joint",
        "wrist_3_joint"
    ],
    "metrics": {
        "cart_traj_len": 3.6459042634055634,
        "distance_elbow_joint": 4.994863675122842,
        "distance_shoulder_lift_joint": 3.120787246553995,
        "distance_shoulder_pan_joint": 4.29665239066834,
        "distance_wrist_1_joint": 2.999293206993683,
        "distance_wrist_2_joint": 2.1501731646008655,
        "distance_wrist_3_joint": 3.1361376579121614,
        "smoothness": 0.6689209090144915,
        "time": 4.403080611,
        "traj_len": 4.549495284298234,
        "weighted_distance": 5.667419962317135
    },
    "planner": "LBKPIECE",
    "start": {
        "state": {
            "elbow_joint": 2.3935871308073637,
            "shoulder_lift_joint": -1.9085141043777403,
            "shoulder_pan_joint": 0.7066247067284167,
            "wrist_1_joint": -0.46782909355067076,
            "wrist_2_joint": 0.7096259085804283,
            "wrist_3_joint": -3.1358149275257428
        }
    },
    "waypoints": [
        {
            "positions": [
                0.7066247067284167,
                -1.9085141043777403,
                2.3935871308073637,
                -0.46782909355067076,
                0.7096259085804283,
                -3.1358149275257428
            ]
        },
        {
            "positions": [
                0.6806387999801378,
                -1.9364981201415652,
                2.402085735145124,
                -0.5082223794142013,
                0.6656329836285697,
                -2.926528580426667
            ]
        },
        {
            "positions": [
                0.6546528932318589,
                -1.96448213590539,
                2.4105843394828845,
                -0.5486156652777319,
                0.621640058676711,
                -2.7172422333275916
            ]
        },
        {
            "positions": [
                0.62866698648358,
                -1.9924661516692148,
                2.4190829438206447,
                -0.5890089511412625,
                0.5776471337248524,
                -2.507955886228516
            ]
        },
        {
            "positions": [
                0.602681079735301,
                -2.0204501674330397,
                2.427581548158405,
                -0.629402237004793,
                0.5336542087729939,
                -2.29866953912944
            ]
        },
        {
            "positions": [
                0.5232137536793304,
                -2.1369700819947357,
                2.471132755796128,
                -0.6813368422015965,
                0.5700864351311126,
                -2.23439907143135
            ]
        },
        {
            "positions": [
                0.44374642762335975,
                -2.2534899965564317,
                2.5146839634338503,
                -0.7332714473984,
                0.6065186614892313,
                -2.17012860373326
            ]
        },
        {
            "positions": [
                0.36427910156738913,
                -2.370009911118128,
                2.558235171071573,
                -0.7852060525952035,
                0.64295088784735,
                -2.10585813603517
            ]
        },
        {
            "positions": [
                0.28481177551141845,
                -2.486529825679824,
                2.6017863787092956,
                -0.837140657792007,
                0.6793831142054687,
                -2.0415876683370797
            ]
        },
        {
            "positions": [
                0.20534444945544783,
                -2.60304974024152,
                2.6453375863470185,
                -0.8890752629888103,
                0.7158153405635874,
                -1.9773172006389894
            ]
        },
        {
            "positions": [
                0.1258771233994772,
                -2.719569654803216,
                2.6888887939847415,
                -0.9410098681856138,
                0.752247566921706,
                -1.9130467329408993
            ]
        },
        {
            "positions": [
                0.04640979734350659,
                -2.836089569364912,
                2.732440001622464,
                -0.9929444733824173,
                0.7886797932798247,
                -1.8487762652428092
            ]
        },
        {
            "positions": [
                -0.033057528712464146,
                -2.9526094839266084,
                2.775991209260187,
                -1.0448790785792208,
                0.8251120196379436,
                -1.784505797544719
            ]
        },
        {
            "positions": [
                -0.11252485476843477,
                -3.0691293984883043,
                2.8195424168979093,
                -1.0968136837760243,
                0.8615442459960622,
                -1.7202353298466289
            ]
        },
        {
            "positions": [
                -0.19199218082440545,
                -3.1856493130500003,
                2.863093624535632,
                -1.1487482889728278,
                0.8979764723541809,
                -1.6559648621485388
            ]
        },
        {
            "positions": [
                -0.09727884902051988,
                -3.1470524144104495,
                2.727807992344499,
                -1.0811425072404601,
                0.8670637399533684,
                -1.6318913261093655
            ]
        },
        {
            "positions": [
                -0.002565517216634311,
                -3.1084555157708986,
                2.592522360153366,
                -1.0135367255080925,
                0.8361510075525559,
                -1.6078177900701922
            ]
        },
        {
            "positions": [
                0.09214781458725124,
                -3.0698586171313478,
                2.4572367279622327,
                -0.9459309437757246,
                0.8052382751517435,
                -1.583744254031019
            ]
        },
        {
            "positions": [
                0.18686114639113682,
                -3.031261718491797,
                2.3219510957711,
                -0.878325162043357,
                0.774325542750931,
                -1.5596707179918456
            ]
        },
        {
            "positions": [
                0.28157447819502235,
                -2.992664819852246,
                2.1866654635799665,
                -0.8107193803109893,
                0.7434128103501185,
                -1.5355971819526721
            ]
        },
        {
            "positions": [
                0.37628780999890793,
                -2.9540679212126952,
                2.051379831388833,
                -0.7431135985786216,
                0.712500077949306,
                -1.5115236459134989
            ]
        },
        {
            "positions": [
                0.47100114180279345,
                -2.9154710225731444,
                1.9160941991977003,
                -0.6755078168462538,
                0.6815873455484935,
                -1.4874501098743256
            ]
        },
        {
            "positions": [
                0.565714473606679,
                -2.8768741239335935,
                1.780808567006567,
                -0.6079020351138862,
                0.650674613147681,
                -1.4633765738351523
            ]
        },
        {
            "positions": [
                0.6604278054105646,
                -2.8382772252940427,
                1.6455229348154339,
                -0.5402962533815185,
                0.6197618807468687,
                -1.439303037795979
            ]
        },
        {
            "positions": [
                0.7551411372144501,
                -2.7996803266544914,
                1.5102373026243008,
                -0.4726904716491508,
                0.5888491483460561,
                -1.4152295017568057
            ]
        },
        {
            "positions": [
                0.8498544690183356,
                -2.761083428014941,
                1.3749516704331677,
                -0.40508468991678315,
                0.5579364159452437,
                -1.3911559657176324
            ]
        },
        {
            "positions": [
                0.9445678008222214,
                -2.7224865293753897,
                1.2396660382420344,
                -0.3374789081844154,
                0.5270236835444312,
                -1.367082429678459
            ]
        },
        {
            "positions": [
                1.0392811326261069,
                -2.6838896307358393,
                1.1043804060509015,
                -0.26987312645204775,
                0.49611095114361875,
                -1.3430088936392859
            ]
        },
        {
            "positions": [
                1.1339944644299924,
                -2.645292732096288,
                0.9690947738597682,
                -0.20226734471968,
                0.46519821874280626,
                -1.3189353576001124
            ]
        },
        {
            "positions": [
                1.228707796233878,
                -2.606695833456737,
                0.8338091416686351,
                -0.13466156298731247,
                0.4342854863419938,
                -1.294861821560939
            ]
        },
        {
            "positions": [
                1.3234211280377637,
                -2.5680989348171863,
                0.6985235094775017,
                -0.0670557812549446,
                0.40337275394118133,
                -1.2707882855217658
            ]
        },
        {
            "positions": [
                1.418134459841649,
                -2.5295020361776355,
                0.5632378772863689,
                0.0005500004774230405,
                0.37246002154036884,
                -1.2467147494825925
            ]
        },
        {
            "positions": [
                1.5128477916455345,
                -2.4909051375380846,
                0.42795224509523555,
                0.06815578220979068,
                0.34154728913955645,
                -1.2226412134434193
            ]
        },
        {
            "positions": [
                1.6075611234494203,
                -2.4523082388985338,
                0.29266661290410223,
                0.13576156394215855,
                0.31063455673874385,
                -1.1985676774042457
            ]
        },
        {
            "positions": [
                1.7022744552533058,
                -2.413711340258983,
                0.15738098071296935,
                0.2033673456745262,
                0.27972182433793136,
                -1.1744941413650727
            ]
        },
        {
            "positions": [
                1.7969877870571913,
                -2.375114441619432,
                0.022095348521836033,
                0.27097312740689383,
                0.24880909193711898,
                -1.1504206053258992
            ]
        },
        {
            "positions": [
                1.8917011188610766,
                -2.3365175429798812,
                -0.11319028366929684,
                0.3385789091392615,
                0.21789635953630648,
                -1.1263470692867261
            ]
        },
        {
            "positions": [
                1.9864144506649628,
                -2.2979206443403304,
                -0.24847591586043016,
                0.40618469087162934,
                0.186983627135494,
                -1.1022735332475526
            ]
        },
        {
            "positions": [
                2.081127782468848,
                -2.2593237457007795,
                -0.3837615480515635,
                0.473790472603997,
                0.1560708947346815,
                -1.0781999972083793
            ]
        },
        {
            "positions": [
                2.175841114272733,
                -2.2207268470612287,
                -0.5190471802426964,
                0.5413962543363646,
                0.12515816233386912,
                -1.054126461169206
            ]
        },
        {
            "positions": [
                2.270554446076619,
                -2.182129948421678,
                -0.6543328124338292,
                0.6090020360687323,
                0.09424542993305662,
                -1.0300529251300328
            ]
        },
        {
            "positions": [
                2.3652677778805047,
                -2.1435330497821266,
                -0.789618444624963,
                0.6766078178011001,
                0.06333269753224402,
                -1.0059793890908595
            ]
        },
        {
            "positions": [
                2.45998110968439,
                -2.104936151142576,
                -0.9249040768160959,
                0.7442135995334678,
                0.03241996513143164,
                -0.9819058530516861
            ]
        },
        {
            "positions": [
                2.5546944414882757,
                -2.066339252503025,
                -1.0601897090072292,
                0.8118193812658354,
                0.0015072327306191458,
                -0.9578323170125128
            ]
        },
        {
            "positions": [
                2.649407773292161,
                -2.0277423538634745,
                -1.195475341198362,
                0.8794251629982028,
                -0.029405499670193236,
                -0.9337587809733395
            ]
        },
        {
            "positions": [
                2.744121105096047,
                -1.9891454552239234,
                -1.3307609733894958,
                0.9470309447305709,
                -0.06031823207100584,
                -0.9096852449341661
            ]
        },
        {
            "positions": [
                2.8388344368999325,
                -1.9505485565843725,
                -1.4660466055806287,
                1.0146367264629386,
                -0.09123096447181822,
                -0.8856117088949929
            ]
        },
        {
            "positions": [
                2.933547768703818,
                -1.9119516579448217,
                -1.6013322377717611,
                1.0822425081953062,
                -0.1221436968726306,
                -0.8615381728558196
            ]
        },
        {
            "positions": [
                2.8946198324770616,
                -1.9933737126271869,
                -1.6100367119270729,
                1.0697591918519644,
                -0.037892406588997396,
                -0.7384151866783573
            ]
        },
        {
            "positions": [
                2.855691896250305,
                -2.074795767309552,
                -1.6187411860823844,
                1.057275875508623,
                0.04635888369463581,
                -0.615292200500895
            ]
        },
        {
            "positions": [
                2.8167639600235486,
                -2.156217821991917,
                -1.627445660237696,
                1.0447925591652811,
                0.13061017397826902,
                -0.49216921432343264
            ]
        },
        {
            "positions": [
                2.7778360237967923,
                -2.237639876674282,
                -1.6361501343930076,
                1.0323092428219394,
                0.21486146426190222,
                -0.36904622814597027
            ]
        },
        {
            "positions": [
                2.738908087570036,
                -2.3190619313566474,
                -1.6448546085483193,
                1.0198259264785976,
                0.29911275454553543,
                -0.2459232419685079
            ]
        },
        {
            "positions": [
                2.6999801513432793,
                -2.4004839860390126,
                -1.6535590827036308,
                1.007342610135256,
                0.38336404482916864,
                -0.1228002557910457
            ]
        },
        {
            "positions": [
                2.661052215116523,
                -2.4819060407213778,
                -1.6622635568589426,
                0.9948592937919143,
                0.46761533511280184,
                0.0003227303864167623
            ]
        }
    ]
}