{
    "goal": {
        "global_pose": {
            "orientation": {
                "w": -0.00223480608172531,
                "x": 0.0024358444001904467,
                "y": 0.7094548369677653,
                "z": -0.704743149386269
            },
            "position": {
                "x": 0.6205249238014221,
                "y": -0.6371506643295288,
                "z": 0.19426114857196808
            }
        },
        "name": "move_to_magneteinheit_B"
    },
    "id": "LBKPIECE_move_to_magneteinheit_B_25",
    "joint_names": [
        "shoulder_pan_joint",
        "shoulder_lift_joint",
        "elbow_joint",
        "wrist_1_joint",
        "wrist_2_joint",
        "wrist_3_joint"
    ],
    "metrics": {
        "cart_traj_len": 5.815967271231525,
        "distance_elbow_joint": 5.281556955661081,
        "distance_shoulder_lift_joint": 3.779232075706279,
        "distance_shoulder_pan_joint": 6.614165035837299,
        "distance_wrist_1_joint": 9.749027132871175,
        "distance_wrist_2_joint": 1.9272559580484865,
        "distance_wrist_3_joint": 8.842310457710491,
        "smoothness": 0.45865684900896353,
        "time": 1.5576185729999998,
        "traj_len": 6.016107347432792,
        "weighted_distance": 8.09657036171338
    },
    "planner": "LBKPIECE",
    "start": {
        "state": {
            "elbow_joint": 2.3935871308073637,
            "shoulder_lift_joint": -1.9085141043777403,
            "shoulder_pan_joint": 0.7066247067284167,
            "wrist_1_joint": -0.46782909355067076,
            "wrist_2_joint": 0.7096259085804283,
            "wrist_3_joint": -3.1358149275257428
        }
    },
    "waypoints": [
        {
            "positions": [
                0.7066247067284167,
                -1.9085141043777403,
                2.3935871308073637,
                -0.46782909355067076,
                0.7096259085804283,
                -3.1358149275257428
            ]
        },
        {
            "positions": [
                0.6725746722202066,
                -1.9252272548506288,
                2.3690655979006165,
                -0.39101290823299584,
                0.5707184953357894,
                -3.057493601699114
            ]
        },
        {
            "positions": [
                0.6385246377119965,
                -1.9419404053235172,
                2.344544064993869,
                -0.31419672291532097,
                0.4318110820911506,
                -2.979172275872486
            ]
        },
        {
            "positions": [
                0.6044746032037864,
                -1.9586535557964058,
                2.3200225320871217,
                -0.23738053759764607,
                0.29290366884651176,
                -2.9008509500458572
            ]
        },
        {
            "positions": [
                0.5704245686955763,
                -1.9753667062692943,
                2.2955009991803745,
                -0.1605643522799712,
                0.15399625560187297,
                -2.8225296242192286
            ]
        },
        {
            "positions": [
                0.5552237219424887,
                -1.983288827842959,
                2.2693061417877796,
                -0.12152529419799678,
                0.07896219381914829,
                -2.765983037625433
            ]
        },
        {
            "positions": [
                0.6134917794501288,
                -1.9838186334771593,
                2.138078174909063,
                -0.14464674230265978,
                0.05342457524977863,
                -2.6256241981289894
            ]
        },
        {
            "positions": [
                0.6717598369577689,
                -1.9843484391113595,
                2.0068502080303467,
                -0.16776819040732277,
                0.027886956680408977,
                -2.4852653586325464
            ]
        },
        {
            "positions": [
                0.7300278944654088,
                -1.9848782447455595,
                1.8756222411516301,
                -0.19088963851198576,
                0.002349338111039323,
                -2.344906519136103
            ]
        },
        {
            "positions": [
                0.7882959519730489,
                -1.9854080503797598,
                1.7443942742729137,
                -0.21401108661664875,
                -0.023188280458330338,
                -2.20454767963966
            ]
        },
        {
            "positions": [
                0.846564009480689,
                -1.98593785601396,
                1.6131663073941973,
                -0.23713253472131174,
                -0.0487258990277,
                -2.0641888401432165
            ]
        },
        {
            "positions": [
                0.904832066988329,
                -1.9864676616481602,
                1.481938340515481,
                -0.26025398282597473,
                -0.07426351759706964,
                -1.923830000646773
            ]
        },
        {
            "positions": [
                0.9631001244959692,
                -1.9869974672823605,
                1.3507103736367645,
                -0.2833754309306377,
                -0.09980113616643929,
                -1.7834711611503298
            ]
        },
        {
            "positions": [
                1.0213681820036091,
                -1.9875272729165607,
                1.2194824067580479,
                -0.3064968790353007,
                -0.12533875473580897,
                -1.6431123216538865
            ]
        },
        {
            "positions": [
                1.0796362395112493,
                -1.9880570785507607,
                1.0882544398793315,
                -0.3296183271399637,
                -0.15087637330517864,
                -1.502753482157443
            ]
        },
        {
            "positions": [
                1.1379042970188893,
                -1.988586884184961,
                0.957026473000615,
                -0.3527397752446267,
                -0.1764139918745483,
                -1.3623946426609999
            ]
        },
        {
            "positions": [
                1.1961723545265293,
                -1.9891166898191612,
                0.8257985061218986,
                -0.3758612233492897,
                -0.20195161044391793,
                -1.2220358031645566
            ]
        },
        {
            "positions": [
                1.2544404120341692,
                -1.9896464954533615,
                0.6945705392431822,
                -0.39898267145395266,
                -0.22748922901328758,
                -1.0816769636681134
            ]
        },
        {
            "positions": [
                1.3127084695418096,
                -1.9901763010875617,
                0.5633425723644656,
                -0.42210411955861565,
                -0.25302684758265725,
                -0.9413181241716699
            ]
        },
        {
            "positions": [
                1.3709765270494496,
                -1.9907061067217617,
                0.4321146054857494,
                -0.44522556766327864,
                -0.2785644661520269,
                -0.8009592846752267
            ]
        },
        {
            "positions": [
                1.4292445845570896,
                -1.991235912355962,
                0.300886638607033,
                -0.46834701576794163,
                -0.30410208472139655,
                -0.6606004451787837
            ]
        },
        {
            "positions": [
                1.4875126420647296,
                -1.9917657179901622,
                0.16965867172831617,
                -0.4914684638726046,
                -0.3296397032907662,
                -0.5202416056823402
            ]
        },
        {
            "positions": [
                1.5457806995723697,
                -1.9922955236243625,
                0.038430704849599984,
                -0.5145899119772676,
                -0.35517732186013584,
                -0.3798827661858968
            ]
        },
        {
            "positions": [
                1.60404875708001,
                -1.9928253292585627,
                -0.09279726202911665,
                -0.5377113600819305,
                -0.3807149404295056,
                -0.23952392668945333
            ]
        },
        {
            "positions": [
                1.66231681458765,
                -1.993355134892763,
                -0.22402522890783283,
                -0.5608328081865935,
                -0.40625255899887525,
                -0.09916508719301032
            ]
        },
        {
            "positions": [
                1.7205848720952899,
                -1.993884940526963,
                -0.35525319578654946,
                -0.5839542562912565,
                -0.4317901775682449,
                0.04119375230343314
            ]
        },
        {
            "positions": [
                1.77885292960293,
                -1.9944147461611632,
                -0.4864811626652661,
                -0.6070757043959195,
                -0.45732779613761454,
                0.1815525917998766
            ]
        },
        {
            "positions": [
                1.83712098711057,
                -1.9949445517953635,
                -0.6177091295439824,
                -0.6301971525005825,
                -0.4828654147069842,
                0.3219114312963196
            ]
        },
        {
            "positions": [
                1.7690423957666648,
                -1.9401893337612262,
                -0.6694225865576251,
                -0.5194836108987059,
                -0.4943568033636177,
                0.4159933122031432
            ]
        },
        {
            "positions": [
                1.7009638044227593,
                -1.8854341157270889,
                -0.7211360435712679,
                -0.4087700692968293,
                -0.5058481920202512,
                0.5100751931099667
            ]
        },
        {
            "positions": [
                1.632885213078854,
                -1.8306788976929516,
                -0.7728495005849108,
                -0.2980565276949527,
                -0.5173395806768847,
                0.6041570740167903
            ]
        },
        {
            "positions": [
                1.5648066217349488,
                -1.7759236796588143,
                -0.8245629575985535,
                -0.1873429860930761,
                -0.5288309693335183,
                0.6982389549236139
            ]
        },
        {
            "positions": [
                1.4967280303910435,
                -1.7211684616246772,
                -0.8762764146121962,
                -0.07662944449119946,
                -0.5403223579901517,
                0.7923208358304374
            ]
        },
        {
            "positions": [
                1.4286494390471383,
                -1.6664132435905399,
                -0.927989871625839,
                0.03408409711067706,
                -0.5518137466467852,
                0.8864027167372611
            ]
        },
        {
            "positions": [
                1.3605708477032328,
                -1.6116580255564026,
                -0.9797033286394818,
                0.1447976387125537,
                -0.5633051353034187,
                0.9804845976440847
            ]
        },
        {
            "positions": [
                1.2924922563593275,
                -1.5569028075222653,
                -1.0314167856531244,
                0.2555111803144303,
                -0.5747965239600522,
                1.0745664785509081
            ]
        },
        {
            "positions": [
                1.2244136650154223,
                -1.502147589488128,
                -1.0831302426667673,
                0.36622472191630695,
                -0.5862879126166857,
                1.1686483594577317
            ]
        },
        {
            "positions": [
                1.1563350736715168,
                -1.4473923714539907,
                -1.13484369968041,
                0.4769382635181836,
                -0.5977793012733192,
                1.2627302403645553
            ]
        },
        {
            "positions": [
                1.0882564823276115,
                -1.3926371534198534,
                -1.186557156694053,
                0.5876518051200601,
                -0.6092706899299527,
                1.356812121271379
            ]
        },
        {
            "positions": [
                1.0201778909837063,
                -1.3378819353857163,
                -1.2382706137076958,
                0.6983653467219366,
                -0.6207620785865862,
                1.4508940021782026
            ]
        },
        {
            "positions": [
                0.952099299639801,
                -1.2831267173515788,
                -1.2899840707213386,
                0.8090788883238134,
                -0.6322534672432197,
                1.5449758830850262
            ]
        },
        {
            "positions": [
                0.8840207082958956,
                -1.2283714993174417,
                -1.3416975277349812,
                0.9197924299256899,
                -0.6437448558998532,
                1.6390577639918498
            ]
        },
        {
            "positions": [
                0.8159421169519903,
                -1.1736162812833044,
                -1.3934109847486238,
                1.0305059715275666,
                -0.6552362445564868,
                1.7331396448986733
            ]
        },
        {
            "positions": [
                0.747863525608085,
                -1.1188610632491671,
                -1.4451244417622666,
                1.1412195131294431,
                -0.6667276332131202,
                1.827221525805497
            ]
        },
        {
            "positions": [
                0.6797849342641797,
                -1.0641058452150298,
                -1.4968378987759094,
                1.2519330547313197,
                -0.6782190218697537,
                1.9213034067123205
            ]
        },
        {
            "positions": [
                0.6117063429202745,
                -1.0093506271808925,
                -1.5485513557895523,
                1.3626465963331964,
                -0.6897104105263873,
                2.015385287619144
            ]
        },
        {
            "positions": [
                0.543627751576369,
                -0.9545954091467552,
                -1.600264812803195,
                1.473360137935073,
                -0.7012017991830207,
                2.109467168525968
            ]
        },
        {
            "positions": [
                0.47554916023246374,
                -0.8998401911126179,
                -1.651978269816838,
                1.5840736795369497,
                -0.7126931878396543,
                2.203549049432791
            ]
        },
        {
            "positions": [
                0.4074705688885585,
                -0.8450849730784809,
                -1.7036917268304808,
                1.694787221138826,
                -0.7241845764962878,
                2.297630930339615
            ]
        },
        {
            "positions": [
                0.339391977544653,
                -0.7903297550443436,
                -1.7554051838441231,
                1.8055007627407027,
                -0.7356759651529212,
                2.3917128112464385
            ]
        },
        {
            "positions": [
                0.27131338620074774,
                -0.7355745370102063,
                -1.807118640857766,
                1.9162143043425794,
                -0.7471673538095547,
                2.485794692153262
            ]
        },
        {
            "positions": [
                0.20323479485684248,
                -0.680819318976069,
                -1.8588320978714088,
                2.0269278459444555,
                -0.7586587424661883,
                2.5798765730600857
            ]
        },
        {
            "positions": [
                0.13515620351293722,
                -0.6260641009419317,
                -1.9105455548850516,
                2.1376413875463323,
                -0.7701501311228218,
                2.6739584539669092
            ]
        },
        {
            "positions": [
                0.06707761216903196,
                -0.5713088829077944,
                -1.9622590118986944,
                2.248354929148209,
                -0.7816415197794553,
                2.768040334873733
            ]
        },
        {
            "positions": [
                -0.0010009791748735175,
                -0.5165536648736571,
                -2.0139724689123373,
                2.3590684707500857,
                -0.7931329084360887,
                2.8621222157805564
            ]
        },
        {
            "positions": [
                -0.06907957051877878,
                -0.46179844683952,
                -2.06568592592598,
                2.4697820123519625,
                -0.8046242970927222,
                2.95620409668738
            ]
        },
        {
            "positions": [
                -0.13715816186268404,
                -0.4070432288053827,
                -2.117399382939623,
                2.5804955539538392,
                -0.8161156857493558,
                3.0502859775942035
            ]
        },
        {
            "positions": [
                -0.20523675320658952,
                -0.3522880107712454,
                -2.1691128399532653,
                2.691209095555716,
                -0.8276070744059892,
                3.144367858501027
            ]
        },
        {
            "positions": [
                -0.2733153445504948,
                -0.2975327927371081,
                -2.220826296966908,
                2.801922637157592,
                -0.8390984630626228,
                3.2384497394078506
            ]
        },
        {
            "positions": [
                -0.34139393589440026,
                -0.2427775747029708,
                -2.272539753980551,
                2.912636178759469,
                -0.8505898517192563,
                3.332531620314674
            ]
        },
        {
            "positions": [
                -0.23418314345830524,
                -0.3080770146998337,
                -2.2616930988006674,
                2.7621581929174917,
                -0.8445341929955354,
                3.286651305852798
            ]
        },
        {
            "positions": [
                -0.12697235102221022,
                -0.37337645469669656,
                -2.250846443620784,
                2.611680207075514,
                -0.8384785342718145,
                3.240770991390922
            ]
        },
        {
            "positions": [
                -0.019761558586115224,
                -0.43867589469355944,
                -2.2399997884409,
                2.4612022212335365,
                -0.8324228755480937,
                3.194890676929046
            ]
        },
        {
            "positions": [
                0.08744923384997982,
                -0.5039753346904223,
                -2.2291531332610166,
                2.310724235391559,
                -0.8263672168243729,
                3.1490103624671697
            ]
        },
        {
            "positions": [
                0.19466002628607493,
                -0.5692747746872853,
                -2.218306478081133,
                2.1602462495495813,
                -0.8203115581006519,
                3.1031300480052937
            ]
        },
        {
            "positions": [
                0.3018708187221698,
                -0.6345742146841481,
                -2.2074598229012494,
                2.009768263707604,
                -0.8142558993769311,
                3.0572497335434177
            ]
        },
        {
            "positions": [
                0.4090816111582649,
                -0.699873654681011,
                -2.196613167721366,
                1.8592902778656264,
                -0.8082002406532103,
                3.0113694190815417
            ]
        },
        {
            "positions": [
                0.5162924035943599,
                -0.7651730946778739,
                -2.1857665125414822,
                1.708812292023649,
                -0.8021445819294893,
                2.9654891046196656
            ]
        },
        {
            "positions": [
                0.623503196030455,
                -0.8304725346747369,
                -2.1749198573615987,
                1.5583343061816712,
                -0.7960889232057685,
                2.919608790157789
            ]
        },
        {
            "positions": [
                0.7307139884665501,
                -0.8957719746715997,
                -2.1640732021817155,
                1.4078563203396939,
                -0.7900332644820477,
                2.873728475695913
            ]
        },
        {
            "positions": [
                0.8379247809026449,
                -0.9610714146684626,
                -2.153226547001832,
                1.2573783344977163,
                -0.7839776057583268,
                2.827848161234037
            ]
        },
        {
            "positions": [
                0.9451355733387399,
                -1.0263708546653254,
                -2.1423798918219483,
                1.106900348655739,
                -0.7779219470346059,
                2.781967846772161
            ]
        },
        {
            "positions": [
                1.052346365774835,
                -1.0916702946621886,
                -2.1315332366420647,
                0.9564223628137611,
                -0.7718662883108851,
                2.736087532310285
            ]
        },
        {
            "positions": [
                1.15955715821093,
                -1.1569697346590513,
                -2.120686581462181,
                0.8059443769717838,
                -0.7658106295871643,
                2.6902072178484087
            ]
        },
        {
            "positions": [
                1.266767950647025,
                -1.222269174655914,
                -2.1098399262822976,
                0.6554663911298064,
                -0.7597549708634433,
                2.6443269033865326
            ]
        },
        {
            "positions": [
                1.37397874308312,
                -1.287568614652777,
                -2.098993271102414,
                0.5049884052878291,
                -0.7536993121397225,
                2.5984465889246566
            ]
        },
        {
            "positions": [
                1.481189535519215,
                -1.3528680546496399,
                -2.0881466159225304,
                0.35451041944585127,
                -0.7476436534160017,
                2.5525662744627806
            ]
        },
        {
            "positions": [
                1.5884003279553103,
                -1.418167494646503,
                -2.0772999607426468,
                0.20403243360387346,
                -0.7415879946922808,
                2.5066859600009046
            ]
        },
        {
            "positions": [
                1.6956111203914053,
                -1.4834669346433658,
                -2.066453305562763,
                0.05355444776189611,
                -0.7355323359685599,
                2.460805645539028
            ]
        },
        {
            "positions": [
                1.8028219128275005,
                -1.5487663746402287,
                -2.0556066503828796,
                -0.09692353808008125,
                -0.7294766772448391,
                2.4149253310771526
            ]
        },
        {
            "positions": [
                1.9100327052635953,
                -1.6140658146370916,
                -2.044759995202996,
                -0.24740152392205905,
                -0.7234210185211182,
                2.369045016615276
            ]
        },
        {
            "positions": [
                2.01724349769969,
                -1.6793652546339544,
                -2.0339133400231124,
                -0.3978795097640364,
                -0.7173653597973974,
                2.3231647021534
            ]
        },
        {
            "positions": [
                2.1244542901357852,
                -1.7446646946308173,
                -2.023066684843229,
                -0.5483574956060138,
                -0.7113097010736765,
                2.277284387691524
            ]
        },
        {
            "positions": [
                2.23166508257188,
                -1.80996413462768,
                -2.0122200296633452,
                -0.6988354814479911,
                -0.7052540423499556,
                2.231404073229648
            ]
        },
        {
            "positions": [
                2.3388758750079757,
                -1.8752635746245432,
                -2.0013733744834616,
                -0.8493134672899689,
                -0.6991983836262348,
                2.185523758767772
            ]
        },
        {
            "positions": [
                2.4460866674440704,
                -1.9405630146214061,
                -1.9905267193035783,
                -0.9997914531319467,
                -0.6931427249025139,
                2.1396434443058956
            ]
        },
        {
            "positions": [
                2.5532974598801657,
                -2.005862454618269,
                -1.9796800641236947,
                -1.150269438973924,
                -0.687087066178793,
                2.0937631298440196
            ]
        },
        {
            "positions": [
                2.6605082523162604,
                -2.071161894615132,
                -1.968833408943811,
                -1.3007474248159014,
                -0.6810314074550722,
                2.0478828153821436
            ]
        },
        {
            "positions": [
                2.6605644616497184,
                -2.0851931860256445,
                -1.9298679432142574,
                -1.4429767423634638,
                -0.6563461882694946,
                2.1840472034993366
            ]
        },
        {
            "positions": [
                2.6606206709831763,
                -2.0992244774361573,
                -1.8909024774847036,
                -1.5852060599110263,
                -0.631660969083917,
                2.32021159161653
            ]
        },
        {
            "positions": [
                2.660676880316634,
                -2.11325576884667,
                -1.85193701175515,
                -1.7274353774585887,
                -0.6069757498983395,
                2.456375979733723
            ]
        },
        {
            "positions": [
                2.660733089650092,
                -2.1272870602571823,
                -1.8129715460255962,
                -1.869664695006151,
                -0.5822905307127619,
                2.5925403678509165
            ]
        },
        {
            "positions": [
                2.6607892989835498,
                -2.141318351667695,
                -1.7740060802960425,
                -2.0118940125537135,
                -0.5576053115271844,
                2.7287047559681095
            ]
        },
        {
            "positions": [
                2.6608455083170073,
                -2.1553496430782078,
                -1.7350406145664887,
                -2.154123330101276,
                -0.5329200923416069,
                2.8648691440853025
            ]
        },
        {
            "positions": [
                2.6609017176504652,
                -2.1693809344887205,
                -1.696075148836935,
                -2.2963526476488383,
                -0.5082348731560292,
                3.001033532202496
            ]
        },
        {
            "positions": [
                2.660957926983923,
                -2.1834122258992332,
                -1.6571096831073813,
                -2.4385819651964007,
                -0.4835496539704517,
                3.137197920319689
            ]
        }
    ]
}