{
    "goal": {
        "global_pose": {
            "orientation": {
                "w": 0.005598929693374612,
                "x": 0.007748599140229565,
                "y": 0.7110244013736278,
                "z": -0.7031023480610252
            },
            "position": {
                "x": 0.1141497679147869,
                "y": -0.7141253447532654,
                "z": 0.3711530566215515
            }
        },
        "name": "move_to_auspresseinheit_B"
    },
    "id": "LBKPIECE_move_to_auspresseinheit_B_65",
    "joint_names": [
        "shoulder_pan_joint",
        "shoulder_lift_joint",
        "elbow_joint",
        "wrist_1_joint",
        "wrist_2_joint",
        "wrist_3_joint"
    ],
    "metrics": {
        "cart_traj_len": 0.5653507469240786,
        "distance_elbow_joint": 0.05973906936836282,
        "distance_shoulder_lift_joint": 0.29581597415367145,
        "distance_shoulder_pan_joint": 0.579705252330666,
        "distance_wrist_1_joint": 0.3162589005168921,
        "distance_wrist_2_joint": 0.98410802367683,
        "distance_wrist_3_joint": 0.005159505651176399,
        "smoothness": 2.5376526478085547e-16,
        "time": 1.066877532,
        "traj_len": 1.496925758245077,
        "weighted_distance": 1.8845351313238163
    },
    "planner": "LBKPIECE",
    "start": {
        "state": {
            "elbow_joint": 2.019306165916698,
            "shoulder_lift_joint": -1.1220205098164344,
            "shoulder_pan_joint": -1.095207207618794,
            "wrist_1_joint": -0.8559671824921639,
            "wrist_2_joint": 0.47596387242952726,
            "wrist_3_joint": 3.159081874673826
        }
    },
    "waypoints": [
        {
            "positions": [
                -1.095207207618794,
                -1.1220205098164344,
                2.019306165916698,
                -0.8559671824921639,
                0.47596387242952726,
                3.159081874673826
            ]
        },
        {
            "positions": [
                -1.191824749673905,
                -1.1713231721753796,
                2.009349654355304,
                -0.8032573657393485,
                0.6399818763756656,
                3.1582219570652965
            ]
        },
        {
            "positions": [
                -1.288442291729016,
                -1.2206258345343248,
                1.9993931427939104,
                -0.7505475489865332,
                0.8039998803218039,
                3.157362039456767
            ]
        },
        {
            "positions": [
                -1.3850598337841271,
                -1.2699284968932703,
                1.9894366312325165,
                -0.6978377322337178,
                0.9680178842679423,
                3.156502121848238
            ]
        },
        {
            "positions": [
                -1.4816773758392379,
                -1.3192311592522155,
                1.9794801196711227,
                -0.6451279154809024,
                1.1320358882140806,
                3.155642204239708
            ]
        },
        {
            "positions": [
                -1.578294917894349,
                -1.3685338216111607,
                1.969523608109729,
                -0.5924180987280872,
                1.296053892160219,
                3.1547822866311788
            ]
        },
        {
            "positions": [
                -1.67491245994946,
                -1.4178364839701059,
                1.9595670965483352,
                -0.5397082819752718,
                1.4600718961063572,
                3.1539223690226494
            ]
        }
    ]
}