{
    "goal": {
        "global_pose": {
            "orientation": {
                "w": 0.7047431493862688,
                "x": -0.7094548369677653,
                "y": 0.0024358444001904,
                "z": -0.0022348060817251984
            },
            "position": {
                "x": -0.39052492380142206,
                "y": 0.3671506643295288,
                "z": 0.19426114857196808
            }
        },
        "name": "move_to_magneteinheit_D"
    },
    "id": "LBKPIECE_move_to_magneteinheit_D_28",
    "joint_names": [
        "shoulder_pan_joint",
        "shoulder_lift_joint",
        "elbow_joint",
        "wrist_1_joint",
        "wrist_2_joint",
        "wrist_3_joint"
    ],
    "metrics": {
        "cart_traj_len": 4.022861642975236,
        "distance_elbow_joint": 4.1956296093388055,
        "distance_shoulder_lift_joint": 1.6289000926031592,
        "distance_shoulder_pan_joint": 4.783857050550394,
        "distance_wrist_1_joint": 1.9262607005134629,
        "distance_wrist_2_joint": 1.3990537667390512,
        "distance_wrist_3_joint": 5.235062036012598,
        "smoothness": 0.6930656200269042,
        "time": 3.3311799189999998,
        "traj_len": 4.378214619654623,
        "weighted_distance": 5.741445967266014
    },
    "planner": "LBKPIECE",
    "start": {
        "state": {
            "elbow_joint": 0.7495348899011973,
            "shoulder_lift_joint": -0.6476975780737697,
            "shoulder_pan_joint": -2.711696901376276,
            "wrist_1_joint": -0.07506478080974305,
            "wrist_2_joint": 0.4329665971545858,
            "wrist_3_joint": 3.1361499051832524
        }
    },
    "waypoints": [
        {
            "positions": [
                -2.711696901376276,
                -0.6476975780737697,
                0.7495348899011973,
                -0.07506478080974305,
                0.4329665971545858,
                3.1361499051832524
            ]
        },
        {
            "positions": [
                -2.7132878947694197,
                -0.7012842340781886,
                0.8131587587510183,
                -0.11825457285956727,
                0.4714063401533141,
                2.9897241108628014
            ]
        },
        {
            "positions": [
                -2.7148788881625636,
                -0.7548708900826077,
                0.8767826276008394,
                -0.16144436490939149,
                0.5098460831520424,
                2.8432983165423504
            ]
        },
        {
            "positions": [
                -2.716469881555707,
                -0.8084575460870267,
                0.9404064964506604,
                -0.20463415695921572,
                0.5482858261507707,
                2.6968725222218994
            ]
        },
        {
            "positions": [
                -2.7180608749488506,
                -0.8620442020914456,
                1.0040303653004814,
                -0.24782394900903992,
                0.586725569149499,
                2.5504467279014484
            ]
        },
        {
            "positions": [
                -2.622411507458624,
                -0.9120186392947669,
                0.9061210312389227,
                -0.20115585704632627,
                0.5757388597156539,
                2.457408370101712
            ]
        },
        {
            "positions": [
                -2.526762139968398,
                -0.9619930764980882,
                0.8082116971773641,
                -0.15448776508361262,
                0.5647521502818088,
                2.3643700123019755
            ]
        },
        {
            "positions": [
                -2.4311127724781714,
                -1.0119675137014095,
                0.7103023631158054,
                -0.10781967312089893,
                0.5537654408479636,
                2.271331654502239
            ]
        },
        {
            "positions": [
                -2.3354634049879452,
                -1.0619419509047308,
                0.6123930290542469,
                -0.06115158115818528,
                0.5427787314141185,
                2.1782932967025026
            ]
        },
        {
            "positions": [
                -2.2398140374977187,
                -1.111916388108052,
                0.5144836949926881,
                -0.0144834891954716,
                0.5317920219802733,
                2.085254938902766
            ]
        },
        {
            "positions": [
                -2.1441646700074926,
                -1.1618908253113733,
                0.41657436093112954,
                0.032184602767242054,
                0.5208053125464283,
                1.9922165811030297
            ]
        },
        {
            "positions": [
                -2.048515302517266,
                -1.2118652625146946,
                0.3186650268695709,
                0.07885269472995574,
                0.5098186031125831,
                1.899178223303293
            ]
        },
        {
            "positions": [
                -1.9455654196248093,
                -1.2150751813667329,
                0.21579235850256923,
                0.12717745362340843,
                0.48393617968749303,
                1.7988622558025966
            ]
        },
        {
            "positions": [
                -1.842615536732353,
                -1.2182851002187711,
                0.11291969013556757,
                0.17550221251686116,
                0.45805375626240297,
                1.6985462883019002
            ]
        },
        {
            "positions": [
                -1.7396656538398962,
                -1.2214950190708094,
                0.010047021768565922,
                0.22382697141031385,
                0.4321713328373129,
                1.5982303208012039
            ]
        },
        {
            "positions": [
                -1.6367157709474398,
                -1.2247049379228476,
                -0.09282564659843573,
                0.27215173030376655,
                0.40628890941222284,
                1.4979143533005077
            ]
        },
        {
            "positions": [
                -1.5337658880549832,
                -1.2279148567748857,
                -0.19569831496543744,
                0.32047648919721927,
                0.3804064859871328,
                1.397598385799811
            ]
        },
        {
            "positions": [
                -1.4308160051625265,
                -1.231124775626924,
                -0.29857098333243903,
                0.36880124809067194,
                0.3545240625620427,
                1.297282418299115
            ]
        },
        {
            "positions": [
                -1.32786612227007,
                -1.2343346944789622,
                -0.40144365169944074,
                0.4171260069841247,
                0.32864163913695266,
                1.1969664507984183
            ]
        },
        {
            "positions": [
                -1.2249162393776136,
                -1.2375446133310004,
                -0.5043163200664423,
                0.4654507658775774,
                0.3027592157118626,
                1.0966504832977222
            ]
        },
        {
            "positions": [
                -1.121966356485157,
                -1.2407545321830387,
                -0.607188988433444,
                0.5137755247710301,
                0.27687679228677253,
                0.9963345157970258
            ]
        },
        {
            "positions": [
                -1.0190164735927003,
                -1.243964451035077,
                -0.7100616568004458,
                0.5621002836644828,
                0.25099436886168247,
                0.8960185482963294
            ]
        },
        {
            "positions": [
                -0.9160665907002439,
                -1.2471743698871152,
                -0.8129343251674471,
                0.6104250425579354,
                0.22511194543659246,
                0.795702580795633
            ]
        },
        {
            "positions": [
                -0.8131167078077872,
                -1.2503842887391534,
                -0.9158069935344489,
                0.6587498014513882,
                0.1992295220115024,
                0.6953866132949367
            ]
        },
        {
            "positions": [
                -0.7101668249153306,
                -1.2535942075911917,
                -1.0186796619014507,
                0.7070745603448408,
                0.17334709858641234,
                0.5950706457942403
            ]
        },
        {
            "positions": [
                -0.6072169420228741,
                -1.25680412644323,
                -1.1215523302684525,
                0.7553993192382936,
                0.14746467516132228,
                0.4947546782935439
            ]
        },
        {
            "positions": [
                -0.5042670591304175,
                -1.260014045295268,
                -1.2244249986354538,
                0.8037240781317463,
                0.12158225173623222,
                0.39443871079284754
            ]
        },
        {
            "positions": [
                -0.40131717623796104,
                -1.2632239641473062,
                -1.3272976670024557,
                0.852048837025199,
                0.09569982831114215,
                0.2941227432921514
            ]
        },
        {
            "positions": [
                -0.2983672933455046,
                -1.2664338829993445,
                -1.430170335369457,
                0.9003735959186516,
                0.06981740488605215,
                0.193806775791455
            ]
        },
        {
            "positions": [
                -0.19541741045304772,
                -1.2696438018513827,
                -1.5330430037364589,
                0.9486983548121044,
                0.04393498146096203,
                0.09349080829075862
            ]
        },
        {
            "positions": [
                -0.09246752756059129,
                -1.272853720703421,
                -1.6359156721034602,
                0.9970231137055571,
                0.018052558035872024,
                -0.006825159209937759
            ]
        },
        {
            "positions": [
                0.010482355331865367,
                -1.2760636395554592,
                -1.7387883404704625,
                1.04534787259901,
                -0.007829865389218149,
                -0.10714112671063414
            ]
        },
        {
            "positions": [
                0.11343223822432202,
                -1.2792735584074975,
                -1.8416610088374639,
                1.0936726314924625,
                -0.0337122888143081,
                -0.2074570942113303
            ]
        },
        {
            "positions": [
                0.21638212111677824,
                -1.2824834772595357,
                -1.9445336772044652,
                1.141997390385915,
                -0.05959471223939816,
                -0.3077730617120269
            ]
        },
        {
            "positions": [
                0.3193320040092349,
                -1.285693396111574,
                -2.047406345571467,
                1.1903221492793679,
                -0.08547713566448822,
                -0.4080890292127235
            ]
        },
        {
            "positions": [
                0.42228188690169155,
                -1.288903314963612,
                -2.150279013938469,
                1.2386469081728206,
                -0.11135955908957829,
                -0.5084049967134197
            ]
        },
        {
            "positions": [
                0.5252317697941478,
                -1.2921132338156502,
                -2.2531516823054702,
                1.2869716670662732,
                -0.13724198251466835,
                -0.6087209642141158
            ]
        },
        {
            "positions": [
                0.6281816526866049,
                -1.2953231526676885,
                -2.356024350672472,
                1.335296425959726,
                -0.1631244059397584,
                -0.7090369317148124
            ]
        },
        {
            "positions": [
                0.7311315355790611,
                -1.2985330715197267,
                -2.458897019039474,
                1.3836211848531788,
                -0.18900682936484847,
                -0.8093528992155086
            ]
        },
        {
            "positions": [
                0.8340814184715177,
                -1.301742990371765,
                -2.5617696874064757,
                1.4319459437466315,
                -0.21488925278993853,
                -0.9096688667162052
            ]
        },
        {
            "positions": [
                0.9370313013639744,
                -1.3049529092238032,
                -2.664642355773477,
                1.480270702640084,
                -0.2407716762150286,
                -1.0099848342169013
            ]
        },
        {
            "positions": [
                0.824791211297475,
                -1.4021173853691158,
                -2.6373962144869205,
                1.4777300145735799,
                -0.1989919212770676,
                -0.9010921045556569
            ]
        },
        {
            "positions": [
                0.7125511212309756,
                -1.4992818615144283,
                -2.6101500732003644,
                1.4751893265070757,
                -0.15721216633910662,
                -0.7921993748944125
            ]
        },
        {
            "positions": [
                0.6003110311644761,
                -1.5964463376597409,
                -2.5829039319138083,
                1.4726486384405715,
                -0.11543241140114566,
                -0.6833066452331682
            ]
        },
        {
            "positions": [
                0.4880709410979768,
                -1.6936108138050536,
                -2.5556577906272517,
                1.4701079503740673,
                -0.07365265646318467,
                -0.5744139155719237
            ]
        },
        {
            "positions": [
                0.3758308510314774,
                -1.790775289950366,
                -2.528411649340695,
                1.467567262307563,
                -0.03187290152522371,
                -0.46552118591067937
            ]
        },
        {
            "positions": [
                0.263590760964978,
                -1.8879397660956787,
                -2.501165508054139,
                1.465026574241059,
                0.009906853412737282,
                -0.35662845624943496
            ]
        },
        {
            "positions": [
                0.15135067089847865,
                -1.985104242240991,
                -2.473919366767583,
                1.4624858861745549,
                0.051686608350698215,
                -0.24773572658819065
            ]
        },
        {
            "positions": [
                0.03911058083197916,
                -2.082268718386304,
                -2.4466732254810264,
                1.4599451981080507,
                0.09346636328865926,
                -0.13884299692694613
            ]
        },
        {
            "positions": [
                -0.07312950923452033,
                -2.179433194531616,
                -2.41942708419447,
                1.4574045100415465,
                0.1352461182266202,
                -0.029950267265701824
            ]
        },
        {
            "positions": [
                -0.18536959930101968,
                -2.276597670676929,
                -2.3921809429079137,
                1.4548638219750423,
                0.1770258731645812,
                0.0789424623955425
            ]
        }
    ]
}