{
    "goal": {
        "global_pose": {
            "orientation": {
                "w": 0.005598929693374612,
                "x": 0.007748599140229565,
                "y": 0.7110244013736278,
                "z": -0.7031023480610252
            },
            "position": {
                "x": -0.8858502320852131,
                "y": -0.7141253447532654,
                "z": 0.3711530566215515
            }
        },
        "name": "move_to_auspresseinheit_C"
    },
    "id": "LBKPIECE_move_to_auspresseinheit_C_24",
    "joint_names": [
        "shoulder_pan_joint",
        "shoulder_lift_joint",
        "elbow_joint",
        "wrist_1_joint",
        "wrist_2_joint",
        "wrist_3_joint"
    ],
    "metrics": {
        "cart_traj_len": 0.4941754219277045,
        "distance_elbow_joint": 1.016346632000285,
        "distance_shoulder_lift_joint": 0.3322572109185742,
        "distance_shoulder_pan_joint": 0.2563193203572367,
        "distance_wrist_1_joint": 0.7134595083992105,
        "distance_wrist_2_joint": 1.3120800543808604,
        "distance_wrist_3_joint": 0.08621834987370836,
        "smoothness": 3.2297397335745243e-16,
        "time": 2.68969236,
        "traj_len": 1.9278695692213919,
        "weighted_distance": 2.4320068541139768
    },
    "planner": "LBKPIECE",
    "start": {
        "state": {
            "elbow_joint": 1.752795957773711,
            "shoulder_lift_joint": -0.9740617694225064,
            "shoulder_pan_joint": -2.967991417825858,
            "wrist_1_joint": -0.7595177689806859,
            "wrist_2_joint": 1.7443932448377395,
            "wrist_3_joint": 3.199131542505932
        }
    },
    "waypoints": [
        {
            "positions": [
                -2.967991417825858,
                -0.9740617694225064,
                1.752795957773711,
                -0.7595177689806859,
                1.7443932448377395,
                3.199131542505932
            ]
        },
        {
            "positions": [
                -2.942359485790134,
                -0.940836048330649,
                1.6511612945736827,
                -0.6881718181407649,
                1.6131852393996535,
                3.190509707518561
            ]
        },
        {
            "positions": [
                -2.9167275537544106,
                -0.9076103272387916,
                1.549526631373654,
                -0.6168258673008438,
                1.4819772339615673,
                3.1818878725311905
            ]
        },
        {
            "positions": [
                -2.891095621718687,
                -0.8743846061469341,
                1.4478919681736255,
                -0.5454799164609228,
                1.3507692285234814,
                3.1732660375438195
            ]
        },
        {
            "positions": [
                -2.8654636896829633,
                -0.8411588850550767,
                1.346257304973597,
                -0.4741339656210017,
                1.2195612230853952,
                3.164644202556449
            ]
        },
        {
            "positions": [
                -2.8398317576472394,
                -0.8079331639632193,
                1.2446226417735686,
                -0.40278801478108067,
                1.0883532176473092,
                3.156022367569078
            ]
        },
        {
            "positions": [
                -2.814199825611516,
                -0.774707442871362,
                1.1429879785735402,
                -0.33144206394115966,
                0.9571452122092233,
                3.147400532581707
            ]
        },
        {
            "positions": [
                -2.7885678935757925,
                -0.7414817217795046,
                1.0413533153735117,
                -0.2600961131012386,
                0.8259372067711372,
                3.1387786975943364
            ]
        },
        {
            "positions": [
                -2.7629359615400686,
                -0.708256000687647,
                0.939718652173483,
                -0.18875016226131747,
                0.694729201333051,
                3.1301568626069654
            ]
        },
        {
            "positions": [
                -2.7373040295043447,
                -0.6750302795957897,
                0.8380839889734546,
                -0.11740421142139645,
                0.5635211958949651,
                3.121535027619595
            ]
        },
        {
            "positions": [
                -2.7116720974686213,
                -0.6418045585039323,
                0.736449325773426,
                -0.0460582605814754,
                0.4323131904568791,
                3.1129131926322238
            ]
        }
    ]
}