{
    "goal": {
        "global_pose": {
            "orientation": {
                "w": 0.005598929693374612,
                "x": 0.007748599140229565,
                "y": 0.7110244013736278,
                "z": -0.7031023480610252
            },
            "position": {
                "x": -0.8858502320852131,
                "y": -0.7141253447532654,
                "z": 0.3711530566215515
            }
        },
        "name": "move_to_auspresseinheit_C"
    },
    "id": "LBKPIECE_move_to_auspresseinheit_C_1",
    "joint_names": [
        "shoulder_pan_joint",
        "shoulder_lift_joint",
        "elbow_joint",
        "wrist_1_joint",
        "wrist_2_joint",
        "wrist_3_joint"
    ],
    "metrics": {
        "cart_traj_len": 0.4933425220111573,
        "distance_elbow_joint": 1.01239319914998,
        "distance_shoulder_lift_joint": 0.33101654272279213,
        "distance_shoulder_pan_joint": 0.25564594790612416,
        "distance_wrist_1_joint": 0.7025220787227805,
        "distance_wrist_2_joint": 1.3108088230602741,
        "distance_wrist_3_joint": 0.07978939522767314,
        "smoothness": 1.4533828724363153e-15,
        "time": 3.5000636050000002,
        "traj_len": 1.9215035744930646,
        "weighted_distance": 2.4217938968929675
    },
    "planner": "LBKPIECE",
    "start": {
        "state": {
            "elbow_joint": 1.752795957773711,
            "shoulder_lift_joint": -0.9740617694225064,
            "shoulder_pan_joint": -2.967991417825858,
            "wrist_1_joint": -0.7595177689806859,
            "wrist_2_joint": 1.7443932448377395,
            "wrist_3_joint": 3.199131542505932
        }
    },
    "waypoints": [
        {
            "positions": [
                -2.967991417825858,
                -0.9740617694225064,
                1.752795957773711,
                -0.7595177689806859,
                1.7443932448377395,
                3.199131542505932
            ]
        },
        {
            "positions": [
                -2.9424268230352455,
                -0.9409601151502273,
                1.6515566378587132,
                -0.6892655611084079,
                1.613312362531712,
                3.191152602983165
            ]
        },
        {
            "positions": [
                -2.916862228244633,
                -0.907858460877948,
                1.550317317943715,
                -0.6190133532361298,
                1.4822314802256846,
                3.1831736634603973
            ]
        },
        {
            "positions": [
                -2.8912976334540206,
                -0.8747568066056688,
                1.4490779980287172,
                -0.5487611453638518,
                1.3511505979196572,
                3.17519472393763
            ]
        },
        {
            "positions": [
                -2.865733038663408,
                -0.8416551523333896,
                1.347838678113719,
                -0.4785089374915737,
                1.2200697156136298,
                3.167215784414863
            ]
        },
        {
            "positions": [
                -2.8401684438727957,
                -0.8085534980611104,
                1.2465993581987211,
                -0.40825672961929566,
                1.0889888333076025,
                3.1592368448920958
            ]
        },
        {
            "positions": [
                -2.8146038490821836,
                -0.7754518437888311,
                1.145360038283723,
                -0.3380045217470176,
                0.957907951001575,
                3.151257905369328
            ]
        },
        {
            "positions": [
                -2.789039254291571,
                -0.742350189516552,
                1.0441207183687253,
                -0.2677523138747396,
                0.8268270686955477,
                3.143278965846561
            ]
        },
        {
            "positions": [
                -2.7634746595009587,
                -0.7092485352442728,
                0.9428813984537271,
                -0.19750010600246148,
                0.6957461863895202,
                3.135300026323794
            ]
        },
        {
            "positions": [
                -2.7379100647103463,
                -0.6761468809719935,
                0.8416420785387292,
                -0.12724789813018345,
                0.5646653040834928,
                3.127321086801026
            ]
        },
        {
            "positions": [
                -2.712345469919734,
                -0.6430452266997143,
                0.7404027586237312,
                -0.05699569025790537,
                0.4335844217774654,
                3.119342147278259
            ]
        }
    ]
}