{
    "goal": {
        "global_pose": {
            "orientation": {
                "w": 0.7031023502349854,
                "x": -0.7110244035720825,
                "y": 0.007748599164187908,
                "z": 0.005598929710686207
            },
            "position": {
                "x": 0.11585023208521307,
                "y": 0.44412534475326537,
                "z": 0.3711530566215515
            }
        },
        "name": "move_to_auspresseinheit_A"
    },
    "id": "LBKPIECE_move_to_auspresseinheit_A_138",
    "joint_names": [
        "shoulder_pan_joint",
        "shoulder_lift_joint",
        "elbow_joint",
        "wrist_1_joint",
        "wrist_2_joint",
        "wrist_3_joint"
    ],
    "metrics": {
        "cart_traj_len": 2.471109902717643,
        "distance_elbow_joint": 2.1519951886179403,
        "distance_shoulder_lift_joint": 1.9829543856126102,
        "distance_shoulder_pan_joint": 2.9343085647698737,
        "distance_wrist_1_joint": 6.864623712102103,
        "distance_wrist_2_joint": 7.637059800615684,
        "distance_wrist_3_joint": 4.646104926691136,
        "smoothness": 0.5098643994419693,
        "time": 3.993239769,
        "traj_len": 5.120258448399783,
        "weighted_distance": 7.071841340450832
    },
    "planner": "LBKPIECE",
    "start": {
        "state": {
            "elbow_joint": 2.4225747245308327,
            "shoulder_lift_joint": -1.373653427065438,
            "shoulder_pan_joint": -0.33786330853087027,
            "wrist_1_joint": -1.0288602302712604,
            "wrist_2_joint": 1.23302299562683,
            "wrist_3_joint": -3.094021725338297
        }
    },
    "waypoints": [
        {
            "positions": [
                -0.33786330853087027,
                -1.373653427065438,
                2.4225747245308327,
                -1.0288602302712604,
                1.23302299562683,
                -3.094021725338297
            ]
        },
        {
            "positions": [
                -0.36567283064076334,
                -1.4106392011201168,
                2.3904542639820807,
                -0.9194843375931586,
                1.1129091683011048,
                -3.026351532108481
            ]
        },
        {
            "positions": [
                -0.39348235275065646,
                -1.4476249751747954,
                2.3583338034333288,
                -0.8101084449150568,
                0.9927953409753795,
                -2.9586813388786646
            ]
        },
        {
            "positions": [
                -0.42129187486054953,
                -1.4846107492294742,
                2.326213342884577,
                -0.7007325522369551,
                0.8726815136496542,
                -2.8910111456488483
            ]
        },
        {
            "positions": [
                -0.4491013969704426,
                -1.521596523284153,
                2.294092882335825,
                -0.5913566595588533,
                0.752567686323929,
                -2.823340952419032
            ]
        },
        {
            "positions": [
                -0.47691091908033567,
                -1.5585822973388317,
                2.2619724217870734,
                -0.48198076688075153,
                0.6324538589982037,
                -2.755670759189216
            ]
        },
        {
            "positions": [
                -0.5047204411902287,
                -1.5955680713935105,
                2.2298519612383214,
                -0.37260487420264976,
                0.5123400316724785,
                -2.6880005659594
            ]
        },
        {
            "positions": [
                -0.5325299633001218,
                -1.6325538454481892,
                2.1977315006895695,
                -0.2632289815245481,
                0.39222620434675337,
                -2.6203303727295837
            ]
        },
        {
            "positions": [
                -0.560339485410015,
                -1.669539619502868,
                2.1656110401408175,
                -0.15385308884644633,
                0.2721123770210281,
                -2.5526601794997674
            ]
        },
        {
            "positions": [
                -0.5881490075199081,
                -1.7065253935575466,
                2.1334905795920656,
                -0.044477196168344446,
                0.1519985496953029,
                -2.484989986269951
            ]
        },
        {
            "positions": [
                -0.6159585296298011,
                -1.7435111676122255,
                2.1013701190433136,
                0.06489869650975733,
                0.03188472236957751,
                -2.417319793040135
            ]
        },
        {
            "positions": [
                -0.6437680517396942,
                -1.7804969416669043,
                2.0692496584945617,
                0.17427458918785899,
                -0.08822910495614766,
                -2.3496495998103186
            ]
        },
        {
            "positions": [
                -0.6715775738495873,
                -1.817482715721583,
                2.0371291979458097,
                0.28365048186596087,
                -0.20834293228187284,
                -2.2819794065805024
            ]
        },
        {
            "positions": [
                -0.6993870959594803,
                -1.8544684897762618,
                2.005008737397058,
                0.39302637454406253,
                -0.328456759607598,
                -2.214309213350686
            ]
        },
        {
            "positions": [
                -0.7271966180693734,
                -1.8914542638309406,
                1.9728882768483063,
                0.5024022672221642,
                -0.4485705869333232,
                -2.14663902012087
            ]
        },
        {
            "positions": [
                -0.7550061401792665,
                -1.9284400378856192,
                1.9407678162995543,
                0.6117781599002661,
                -0.5686844142590484,
                -2.078968826891054
            ]
        },
        {
            "positions": [
                -0.7828156622891596,
                -1.965425811940298,
                1.9086473557508024,
                0.7211540525783677,
                -0.6887982415847738,
                -2.0112986336612373
            ]
        },
        {
            "positions": [
                -0.8106251843990526,
                -2.002411585994977,
                1.8765268952020504,
                0.8305299452564696,
                -0.8089120689104989,
                -1.9436284404314212
            ]
        },
        {
            "positions": [
                -0.8384347065089457,
                -2.0393973600496555,
                1.8444064346532985,
                0.9399058379345715,
                -0.9290258962362241,
                -1.875958247201605
            ]
        },
        {
            "positions": [
                -0.8662442286188388,
                -2.0763831341043346,
                1.8122859741045465,
                1.0492817306126734,
                -1.0491397235619493,
                -1.8082880539717887
            ]
        },
        {
            "positions": [
                -0.894053750728732,
                -2.1133689081590132,
                1.7801655135557946,
                1.158657623290775,
                -1.169253550887675,
                -1.7406178607419724
            ]
        },
        {
            "positions": [
                -0.9218632728386251,
                -2.150354682213692,
                1.7480450530070428,
                1.2680335159688767,
                -1.2893673782134,
                -1.6729476675121562
            ]
        },
        {
            "positions": [
                -0.9496727949485182,
                -2.1873404562683705,
                1.7159245924582909,
                1.3774094086469784,
                -1.4094812055391253,
                -1.6052774742823401
            ]
        },
        {
            "positions": [
                -0.9774823170584113,
                -2.2243262303230495,
                1.683804131909539,
                1.4867853013250805,
                -1.5295950328648504,
                -1.5376072810525239
            ]
        },
        {
            "positions": [
                -1.0052918391683043,
                -2.261312004377728,
                1.6516836713607872,
                1.5961611940031821,
                -1.6497088601905756,
                -1.4699370878227076
            ]
        },
        {
            "positions": [
                -1.0331013612781974,
                -2.298297778432407,
                1.6195632108120352,
                1.7055370866812838,
                -1.7698226875163008,
                -1.4022668945928913
            ]
        },
        {
            "positions": [
                -1.0609108833880905,
                -2.335283552487086,
                1.5874427502632833,
                1.8149129793593854,
                -1.889936514842026,
                -1.3345967013630753
            ]
        },
        {
            "positions": [
                -1.0887204054979835,
                -2.3722693265417645,
                1.5553222897145313,
                1.924288872037487,
                -2.010050342167751,
                -1.266926508133259
            ]
        },
        {
            "positions": [
                -1.1165299276078766,
                -2.409255100596443,
                1.5232018291657796,
                2.0336647647155885,
                -2.1301641694934763,
                -1.1992563149034428
            ]
        },
        {
            "positions": [
                -1.1443394497177697,
                -2.4462408746511217,
                1.4910813686170277,
                2.1430406573936907,
                -2.2502779968192015,
                -1.1315861216736265
            ]
        },
        {
            "positions": [
                -1.1721489718276628,
                -2.4832266487058003,
                1.4589609080682757,
                2.2524165500717928,
                -2.3703918241449267,
                -1.0639159284438104
            ]
        },
        {
            "positions": [
                -1.1999584939375558,
                -2.5202124227604794,
                1.426840447519524,
                2.361792442749894,
                -2.490505651470652,
                -0.9962457352139942
            ]
        },
        {
            "positions": [
                -1.227768016047449,
                -2.5571981968151585,
                1.394719986970772,
                2.471168335427996,
                -2.6106194787963775,
                -0.9285755419841779
            ]
        },
        {
            "positions": [
                -1.255577538157342,
                -2.594183970869837,
                1.36259952642202,
                2.580544228106098,
                -2.7307333061221026,
                -0.8609053487543616
            ]
        },
        {
            "positions": [
                -1.283387060267235,
                -2.6311697449245157,
                1.3304790658732681,
                2.6899201207842,
                -2.8508471334478283,
                -0.7932351555245454
            ]
        },
        {
            "positions": [
                -1.2231208538116742,
                -2.6091867731744087,
                1.362597233447825,
                2.5945915340858168,
                -2.743174719158706,
                -0.8643054087632539
            ]
        },
        {
            "positions": [
                -1.1628546473561132,
                -2.5872038014243017,
                1.394715401022382,
                2.4992629473874337,
                -2.635502304869584,
                -0.9353756620019625
            ]
        },
        {
            "positions": [
                -1.1025884409005524,
                -2.5652208296741947,
                1.4268335685969387,
                2.40393436068905,
                -2.5278298905804624,
                -1.006445915240671
            ]
        },
        {
            "positions": [
                -1.0423222344449916,
                -2.5432378579240877,
                1.4589517361714954,
                2.308605773990667,
                -2.4201574762913403,
                -1.0775161684793797
            ]
        },
        {
            "positions": [
                -0.9820560279894306,
                -2.5212548861739803,
                1.4910699037460524,
                2.213277187292284,
                -2.312485062002218,
                -1.1485864217180883
            ]
        },
        {
            "positions": [
                -0.9217898215338698,
                -2.4992719144238733,
                1.5231880713206092,
                2.117948600593901,
                -2.204812647713096,
                -1.2196566749567967
            ]
        },
        {
            "positions": [
                -0.8615236150783089,
                -2.4772889426737663,
                1.555306238895166,
                2.0226200138955175,
                -2.097140233423974,
                -1.2907269281955054
            ]
        },
        {
            "positions": [
                -0.801257408622748,
                -2.4553059709236593,
                1.587424406469723,
                1.9272914271971344,
                -1.9894678191348523,
                -1.361797181434214
            ]
        },
        {
            "positions": [
                -0.7409912021671872,
                -2.4333229991735523,
                1.6195425740442797,
                1.8319628404987514,
                -1.8817954048457302,
                -1.4328674346729224
            ]
        },
        {
            "positions": [
                -0.6807249957116263,
                -2.4113400274234453,
                1.6516607416188365,
                1.7366342538003683,
                -1.774122990556608,
                -1.503937687911631
            ]
        },
        {
            "positions": [
                -0.6204587892560655,
                -2.3893570556733383,
                1.6837789091933932,
                1.6413056671019852,
                -1.6664505762674862,
                -1.5750079411503395
            ]
        },
        {
            "positions": [
                -0.5601925828005045,
                -2.3673740839232313,
                1.7158970767679502,
                1.545977080403602,
                -1.558778161978364,
                -1.6460781943890481
            ]
        },
        {
            "positions": [
                -0.49992637634494375,
                -2.3453911121731243,
                1.748015244342507,
                1.4506484937052189,
                -1.4511057476892422,
                -1.7171484476277565
            ]
        },
        {
            "positions": [
                -0.4396601698893827,
                -2.323408140423017,
                1.780133411917064,
                1.3553199070068356,
                -1.34343333340012,
                -1.7882187008664654
            ]
        },
        {
            "positions": [
                -0.3793939634338219,
                -2.30142516867291,
                1.8122515794916207,
                1.2599913203084525,
                -1.2357609191109982,
                -1.8592889541051738
            ]
        },
        {
            "positions": [
                -0.319127756978261,
                -2.279442196922803,
                1.8443697470661777,
                1.1646627336100692,
                -1.128088504821876,
                -1.9303592073438824
            ]
        },
        {
            "positions": [
                -0.2588615505227001,
                -2.257459225172696,
                1.8764879146407343,
                1.0693341469116862,
                -1.020416090532754,
                -2.0014294605825906
            ]
        },
        {
            "positions": [
                -0.1985953440671393,
                -2.235476253422589,
                1.9086060822152913,
                0.9740055602133031,
                -0.9127436762436321,
                -2.0724997138212995
            ]
        },
        {
            "positions": [
                -0.13832913761157828,
                -2.213493281672482,
                1.9407242497898483,
                0.8786769735149196,
                -0.80507126195451,
                -2.1435699670600084
            ]
        },
        {
            "positions": [
                -0.07806293115601748,
                -2.191510309922375,
                1.9728424173644048,
                0.7833483868165365,
                -0.6973988476653878,
                -2.2146402202987168
            ]
        },
        {
            "positions": [
                -0.01779672470045668,
                -2.169527338172268,
                2.004960584938962,
                0.6880198001181537,
                -0.5897264333762662,
                -2.285710473537425
            ]
        },
        {
            "positions": [
                0.04246948175510412,
                -2.147544366422161,
                2.0370787525135183,
                0.5926912134197706,
                -0.48205401908714407,
                -2.3567807267761336
            ]
        },
        {
            "positions": [
                0.10273568821066514,
                -2.1255613946720535,
                2.0691969200880758,
                0.4973626267213871,
                -0.37438160479802196,
                -2.4278509800148425
            ]
        },
        {
            "positions": [
                0.16300189466622594,
                -2.103578422921947,
                2.1013150876626323,
                0.402034040023004,
                -0.26670919050889985,
                -2.498921233253551
            ]
        },
        {
            "positions": [
                0.22326810112178674,
                -2.0815954511718395,
                2.1334332552371893,
                0.30670545332462096,
                -0.15903677621977774,
                -2.5699914864922597
            ]
        },
        {
            "positions": [
                0.28353430757734754,
                -2.0596124794217325,
                2.165551422811746,
                0.2113768666262379,
                -0.05136436193065608,
                -2.6410617397309677
            ]
        },
        {
            "positions": [
                0.34380051403290857,
                -2.0376295076716255,
                2.197669590386303,
                0.11604827992785438,
                0.056308052358466476,
                -2.7121319929696766
            ]
        },
        {
            "positions": [
                0.4040667204884696,
                -2.0156465359215185,
                2.22978775796086,
                0.020719693229471314,
                0.16398046664758814,
                -2.7832022462083854
            ]
        },
        {
            "positions": [
                0.4643329269440304,
                -1.9936635641714116,
                2.2619059255354164,
                -0.07460889346891175,
                0.27165288093671025,
                -2.854272499447094
            ]
        },
        {
            "positions": [
                0.5245991333995912,
                -1.9716805924213046,
                2.2940240931099734,
                -0.16993748016729482,
                0.3793252952258319,
                -2.9253427526858022
            ]
        },
        {
            "positions": [
                0.5848653398551522,
                -1.9496976206711973,
                2.3261422606845303,
                -0.26526606686567833,
                0.48699770951495447,
                -2.996413005924511
            ]
        },
        {
            "positions": [
                0.645131546310713,
                -1.9277146489210903,
                2.3582604282590873,
                -0.3605946535640614,
                0.5946701238040761,
                -3.0674832591632195
            ]
        },
        {
            "positions": [
                0.7053977527662739,
                -1.9057316771709834,
                2.390378595833644,
                -0.4559232402624444,
                0.7023425380931984,
                -3.138553512401928
            ]
        }
    ]
}