{
    "goal": {
        "global_pose": {
            "orientation": {
                "w": 0.005598929693374612,
                "x": 0.007748599140229565,
                "y": 0.7110244013736278,
                "z": -0.7031023480610252
            },
            "position": {
                "x": -0.8858502320852131,
                "y": -0.7141253447532654,
                "z": 0.3711530566215515
            }
        },
        "name": "move_to_auspresseinheit_C"
    },
    "id": "LBKPIECE_move_to_auspresseinheit_C_84",
    "joint_names": [
        "shoulder_pan_joint",
        "shoulder_lift_joint",
        "elbow_joint",
        "wrist_1_joint",
        "wrist_2_joint",
        "wrist_3_joint"
    ],
    "metrics": {
        "cart_traj_len": 0.49336128007755287,
        "distance_elbow_joint": 0.9945988487561145,
        "distance_shoulder_lift_joint": 0.32214742774129246,
        "distance_shoulder_pan_joint": 0.2565505208602601,
        "distance_wrist_1_joint": 0.6623484230753548,
        "distance_wrist_2_joint": 1.3103189545061618,
        "distance_wrist_3_joint": 0.052047865514077696,
        "smoothness": 4.844609574787718e-16,
        "time": 1.611848015,
        "traj_len": 1.896842650420235,
        "weighted_distance": 2.3821786559918072
    },
    "planner": "LBKPIECE",
    "start": {
        "state": {
            "elbow_joint": 1.752795957773711,
            "shoulder_lift_joint": -0.9740617694225064,
            "shoulder_pan_joint": -2.967991417825858,
            "wrist_1_joint": -0.7595177689806859,
            "wrist_2_joint": 1.7443932448377395,
            "wrist_3_joint": 3.199131542505932
        }
    },
    "waypoints": [
        {
            "positions": [
                -2.967991417825858,
                -0.9740617694225064,
                1.752795957773711,
                -0.7595177689806859,
                1.7443932448377395,
                3.199131542505932
            ]
        },
        {
            "positions": [
                -2.942336365739832,
                -0.9418470266483772,
                1.6533360728980997,
                -0.6932829266731504,
                1.6133613493871233,
                3.193926755954524
            ]
        },
        {
            "positions": [
                -2.916681313653806,
                -0.909632283874248,
                1.5538761880224883,
                -0.627048084365615,
                1.482329453936507,
                3.1887219694031166
            ]
        },
        {
            "positions": [
                -2.89102626156778,
                -0.8774175411001187,
                1.4544163031468766,
                -0.5608132420580795,
                1.351297558485891,
                3.183517182851709
            ]
        },
        {
            "positions": [
                -2.865371209481754,
                -0.8452027983259894,
                1.3549564182712652,
                -0.49457839975054396,
                1.2202656630352746,
                3.178312396300301
            ]
        },
        {
            "positions": [
                -2.8397161573957277,
                -0.8129880555518603,
                1.2554965333956538,
                -0.4283435574430085,
                1.0892337675846586,
                3.173107609748893
            ]
        },
        {
            "positions": [
                -2.814061105309702,
                -0.780773312777731,
                1.1560366485200424,
                -0.36210871513547305,
                0.9582018721340425,
                3.1679028231974855
            ]
        },
        {
            "positions": [
                -2.788406053223676,
                -0.7485585700036017,
                1.056576763644431,
                -0.2958738728279376,
                0.8271699766834263,
                3.162698036646078
            ]
        },
        {
            "positions": [
                -2.7627510011376497,
                -0.7163438272294724,
                0.9571168787688195,
                -0.22963903052040202,
                0.69613808123281,
                3.15749325009467
            ]
        },
        {
            "positions": [
                -2.737095949051624,
                -0.6841290844553432,
                0.857656993893208,
                -0.16340418821286662,
                0.565106185782194,
                3.152288463543262
            ]
        },
        {
            "positions": [
                -2.711440896965598,
                -0.651914341681214,
                0.7581971090175966,
                -0.09716934590533112,
                0.43407429033157774,
                3.1470836769918544
            ]
        }
    ]
}