{
    "goal": {
        "global_pose": {
            "orientation": {
                "w": -0.00223480608172531,
                "x": 0.0024358444001904467,
                "y": 0.7094548369677653,
                "z": -0.704743149386269
            },
            "position": {
                "x": -0.37947507619857795,
                "y": -0.6371506643295288,
                "z": 0.19426114857196808
            }
        },
        "name": "move_to_magneteinheit_C"
    },
    "id": "LBKPIECE_move_to_magneteinheit_C_9",
    "joint_names": [
        "shoulder_pan_joint",
        "shoulder_lift_joint",
        "elbow_joint",
        "wrist_1_joint",
        "wrist_2_joint",
        "wrist_3_joint"
    ],
    "metrics": {
        "cart_traj_len": 1.1205665824467363,
        "distance_elbow_joint": 0.400792264795506,
        "distance_shoulder_lift_joint": 0.6529533632668929,
        "distance_shoulder_pan_joint": 1.3957953417380673,
        "distance_wrist_1_joint": 0.32069253765241046,
        "distance_wrist_2_joint": 0.7884710875725357,
        "distance_wrist_3_joint": 0.026683100850881214,
        "smoothness": 1.3367213521909145,
        "time": 1.7526356,
        "traj_len": 1.8935120004574286,
        "weighted_distance": 2.1789716663607632
    },
    "planner": "LBKPIECE",
    "start": {
        "state": {
            "elbow_joint": 1.9565354006590394,
            "shoulder_lift_joint": -1.4165861576513559,
            "shoulder_pan_joint": -1.6717766223277177,
            "wrist_1_joint": -0.5286633288215096,
            "wrist_2_joint": 1.4727565892594296,
            "wrist_3_joint": 3.1593482883155493
        }
    },
    "waypoints": [
        {
            "positions": [
                -1.6717766223277177,
                -1.4165861576513559,
                1.9565354006590394,
                -0.5286633288215096,
                1.4727565892594296,
                3.1593482883155493
            ]
        },
        {
            "positions": [
                -1.5972999705252096,
                -1.46662098190958,
                2.013695507973379,
                -0.6054703555686598,
                1.345386157494187,
                3.1533366404156737
            ]
        },
        {
            "positions": [
                -1.5228233187227014,
                -1.5166558061678042,
                2.070855615287719,
                -0.68227738231581,
                1.2180157257289446,
                3.1473249925157982
            ]
        },
        {
            "positions": [
                -1.4483466669201932,
                -1.5666906304260282,
                2.1280157226020586,
                -0.7590844090629603,
                1.090645293963702,
                3.1413133446159227
            ]
        },
        {
            "positions": [
                -1.373870015117685,
                -1.6167254546842522,
                2.1851758299163984,
                -0.8358914358101105,
                0.9632748621984594,
                3.135301696716047
            ]
        },
        {
            "positions": [
                -1.5568514708723575,
                -1.5412564436452527,
                2.156483857326707,
                -0.8381355075874121,
                0.9167766354465318,
                3.1357411149246106
            ]
        },
        {
            "positions": [
                -1.7398329266270298,
                -1.4657874326062534,
                2.127791884737016,
                -0.8403795793647136,
                0.8702784086946043,
                3.1361805331331736
            ]
        },
        {
            "positions": [
                -1.9228143823817023,
                -1.390318421567254,
                2.0990999121473246,
                -0.8426236511420153,
                0.8237801819426767,
                3.1366199513417365
            ]
        },
        {
            "positions": [
                -2.1057958381363746,
                -1.3148494105282547,
                2.070407939557634,
                -0.8448677229193169,
                0.777281955190749,
                3.1370593695503
            ]
        },
        {
            "positions": [
                -2.288777293891047,
                -1.2393803994892552,
                2.0417159669679426,
                -0.8471117946966185,
                0.7307837284388214,
                3.1374987877588634
            ]
        },
        {
            "positions": [
                -2.4717587496457196,
                -1.1639113884502557,
                2.0130239943782513,
                -0.84935586647392,
                0.684285501686894,
                3.1379382059674263
            ]
        }
    ]
}