{
    "goal": {
        "global_pose": {
            "orientation": {
                "w": 0.005598929693374612,
                "x": 0.007748599140229565,
                "y": 0.7110244013736278,
                "z": -0.7031023480610252
            },
            "position": {
                "x": -0.8858502320852131,
                "y": -0.7141253447532654,
                "z": 0.3711530566215515
            }
        },
        "name": "move_to_auspresseinheit_C"
    },
    "id": "LBKPIECE_move_to_auspresseinheit_C_63",
    "joint_names": [
        "shoulder_pan_joint",
        "shoulder_lift_joint",
        "elbow_joint",
        "wrist_1_joint",
        "wrist_2_joint",
        "wrist_3_joint"
    ],
    "metrics": {
        "cart_traj_len": 0.49372089202628533,
        "distance_elbow_joint": 1.0106056129067402,
        "distance_shoulder_lift_joint": 0.3299752217474582,
        "distance_shoulder_pan_joint": 0.25633465747240924,
        "distance_wrist_1_joint": 0.7006694027510082,
        "distance_wrist_2_joint": 1.3146693507686544,
        "distance_wrist_3_joint": 0.07435890145892277,
        "smoothness": 3.2297397335745243e-16,
        "time": 2.513095297,
        "traj_len": 1.9200555062563145,
        "weighted_distance": 2.4188157646961663
    },
    "planner": "LBKPIECE",
    "start": {
        "state": {
            "elbow_joint": 1.752795957773711,
            "shoulder_lift_joint": -0.9740617694225064,
            "shoulder_pan_joint": -2.967991417825858,
            "wrist_1_joint": -0.7595177689806859,
            "wrist_2_joint": 1.7443932448377395,
            "wrist_3_joint": 3.199131542505932
        }
    },
    "waypoints": [
        {
            "positions": [
                -2.967991417825858,
                -0.9740617694225064,
                1.752795957773711,
                -0.7595177689806859,
                1.7443932448377395,
                3.199131542505932
            ]
        },
        {
            "positions": [
                -2.942357952078617,
                -0.9410642472477606,
                1.651735396483037,
                -0.689450828705585,
                1.6129263097608741,
                3.19169565236004
            ]
        },
        {
            "positions": [
                -2.916724486331376,
                -0.9080667250730148,
                1.5506748351923632,
                -0.6193838884304843,
                1.4814593746840086,
                3.1842597622141477
            ]
        },
        {
            "positions": [
                -2.891091020584135,
                -0.875069202898269,
                1.449614273901689,
                -0.5493169481553835,
                1.3499924396071432,
                3.176823872068255
            ]
        },
        {
            "positions": [
                -2.8654575548368943,
                -0.8420716807235231,
                1.348553712611015,
                -0.4792500078802826,
                1.2185255045302776,
                3.169387981922363
            ]
        },
        {
            "positions": [
                -2.839824089089653,
                -0.8090741585487773,
                1.247493151320341,
                -0.4091830676051818,
                1.0870585694534123,
                3.1619520917764707
            ]
        },
        {
            "positions": [
                -2.8141906233424123,
                -0.7760766363740316,
                1.146432590029667,
                -0.339116127330081,
                0.9555916343765468,
                3.1545162016305786
            ]
        },
        {
            "positions": [
                -2.7885571575951715,
                -0.7430791141992857,
                1.045372028738993,
                -0.2690491870549802,
                0.8241246992996815,
                3.1470803114846864
            ]
        },
        {
            "positions": [
                -2.7629236918479307,
                -0.7100815920245398,
                0.9443114674483188,
                -0.1989822467798793,
                0.692657764222816,
                3.1396444213387937
            ]
        },
        {
            "positions": [
                -2.7372902261006895,
                -0.6770840698497941,
                0.8432509061576449,
                -0.12891530650477856,
                0.5611908291459504,
                3.1322085311929015
            ]
        },
        {
            "positions": [
                -2.7116567603534487,
                -0.6440865476750482,
                0.7421903448669709,
                -0.058848366229677686,
                0.4297238940690851,
                3.1247726410470094
            ]
        }
    ]
}