{
    "goal": {
        "global_pose": {
            "orientation": {
                "w": -0.00223480608172531,
                "x": 0.0024358444001904467,
                "y": 0.7094548369677653,
                "z": -0.704743149386269
            },
            "position": {
                "x": -0.37947507619857795,
                "y": -0.6371506643295288,
                "z": 0.19426114857196808
            }
        },
        "name": "move_to_magneteinheit_C"
    },
    "id": "LBKPIECE_move_to_magneteinheit_C_94",
    "joint_names": [
        "shoulder_pan_joint",
        "shoulder_lift_joint",
        "elbow_joint",
        "wrist_1_joint",
        "wrist_2_joint",
        "wrist_3_joint"
    ],
    "metrics": {
        "cart_traj_len": 4.071431088454832,
        "distance_elbow_joint": 4.3223321119457445,
        "distance_shoulder_lift_joint": 1.289739222439462,
        "distance_shoulder_pan_joint": 2.091744564617152,
        "distance_wrist_1_joint": 4.732910434225917,
        "distance_wrist_2_joint": 2.0432088207293004,
        "distance_wrist_3_joint": 4.663451176772255,
        "smoothness": 0.8673118991932178,
        "time": 3.236820222,
        "traj_len": 4.375315569273814,
        "weighted_distance": 5.936868529724197
    },
    "planner": "LBKPIECE",
    "start": {
        "state": {
            "elbow_joint": 1.9565354006590394,
            "shoulder_lift_joint": -1.4165861576513559,
            "shoulder_pan_joint": -1.6717766223277177,
            "wrist_1_joint": -0.5286633288215096,
            "wrist_2_joint": 1.4727565892594296,
            "wrist_3_joint": 3.1593482883155493
        }
    },
    "waypoints": [
        {
            "positions": [
                -1.6717766223277177,
                -1.4165861576513559,
                1.9565354006590394,
                -0.5286633288215096,
                1.4727565892594296,
                3.1593482883155493
            ]
        },
        {
            "positions": [
                -1.6167793625743536,
                -1.4068786106623428,
                1.9163757040784895,
                -0.4464309930878692,
                1.381837376503795,
                3.055607070154468
            ]
        },
        {
            "positions": [
                -1.5617821028209895,
                -1.3971710636733299,
                1.8762160074979393,
                -0.36419865735422885,
                1.2909181637481604,
                2.9518658519933876
            ]
        },
        {
            "positions": [
                -1.5067848430676256,
                -1.3874635166843168,
                1.8360563109173893,
                -0.28196632162058854,
                1.1999989509925257,
                2.8481246338323065
            ]
        },
        {
            "positions": [
                -1.4517875833142615,
                -1.377755969695304,
                1.7958966143368391,
                -0.19973398588694818,
                1.109079738236891,
                2.744383415671226
            ]
        },
        {
            "positions": [
                -1.3967903235608974,
                -1.3680484227062908,
                1.7557369177562892,
                -0.11750165015330782,
                1.0181605254812565,
                2.640642197510145
            ]
        },
        {
            "positions": [
                -1.3417930638075333,
                -1.358340875717278,
                1.7155772211757392,
                -0.035269314419667464,
                0.9272413127256219,
                2.5369009793490642
            ]
        },
        {
            "positions": [
                -1.2867958040541692,
                -1.3486333287282648,
                1.675417524595189,
                0.0469630213139729,
                0.8363220999699873,
                2.433159761187983
            ]
        },
        {
            "positions": [
                -1.2964082079369232,
                -1.320140588583306,
                1.5873037776022074,
                0.11769519695528757,
                0.7663738567063487,
                2.323336115514417
            ]
        },
        {
            "positions": [
                -1.306020611819677,
                -1.2916478484383473,
                1.4991900306092258,
                0.18842737259660225,
                0.6964256134427103,
                2.213512469840851
            ]
        },
        {
            "positions": [
                -1.3156330157024312,
                -1.2631551082933887,
                1.4110762836162443,
                0.2591595482379169,
                0.6264773701790718,
                2.1036888241672846
            ]
        },
        {
            "positions": [
                -1.3252454195851853,
                -1.23466236814843,
                1.322962536623263,
                0.3298917238792316,
                0.5565291269154332,
                1.9938651784937185
            ]
        },
        {
            "positions": [
                -1.3348578234679391,
                -1.206169628003471,
                1.2348487896302813,
                0.4006238995205463,
                0.4865808836517947,
                1.8840415328201523
            ]
        },
        {
            "positions": [
                -1.3444702273506932,
                -1.1776768878585124,
                1.1467350426372998,
                0.47135607516186095,
                0.4166326403881562,
                1.7742178871465861
            ]
        },
        {
            "positions": [
                -1.4261574235688523,
                -1.1975445942464256,
                1.0687383896718188,
                0.34518322803140405,
                0.3954980665268403,
                1.7171559848696478
            ]
        },
        {
            "positions": [
                -1.5078446197870117,
                -1.2174123006343385,
                0.990741736706338,
                0.21901038090094715,
                0.3743634926655243,
                1.6600940825927097
            ]
        },
        {
            "positions": [
                -1.589531816005171,
                -1.2372800070222516,
                0.912745083740857,
                0.09283753377049025,
                0.3532289188042084,
                1.6030321803157714
            ]
        },
        {
            "positions": [
                -1.6712190122233301,
                -1.2571477134101645,
                0.8347484307753762,
                -0.033335313359966645,
                0.33209434494289247,
                1.5459702780388331
            ]
        },
        {
            "positions": [
                -1.7529062084414893,
                -1.2770154197980776,
                0.7567517778098953,
                -0.1595081604904236,
                0.3109597710815766,
                1.4889083757618948
            ]
        },
        {
            "positions": [
                -1.8345934046596486,
                -1.2968831261859908,
                0.6787551248444144,
                -0.28568100762088044,
                0.2898251972202607,
                1.4318464734849567
            ]
        },
        {
            "positions": [
                -1.9162806008778077,
                -1.3167508325739037,
                0.6007584718789335,
                -0.4118538547513373,
                0.2686906233589448,
                1.3747845712080184
            ]
        },
        {
            "positions": [
                -1.997967797095967,
                -1.3366185389618168,
                0.5227618189134526,
                -0.5380267018817942,
                0.24755604949762883,
                1.3177226689310801
            ]
        },
        {
            "positions": [
                -2.079654993314126,
                -1.3564862453497297,
                0.44476516594797166,
                -0.6641995490122511,
                0.22642147563631293,
                1.260660766654142
            ]
        },
        {
            "positions": [
                -2.1613421895322853,
                -1.3763539517376429,
                0.3667685129824908,
                -0.7903723961427082,
                0.205286901774997,
                1.2035988643772038
            ]
        },
        {
            "positions": [
                -2.243029385750445,
                -1.396221658125556,
                0.28877186001700983,
                -0.916545243273165,
                0.18415232791368108,
                1.1465369621002655
            ]
        },
        {
            "positions": [
                -2.324716581968604,
                -1.416089364513469,
                0.21077520705152897,
                -1.0427180904036217,
                0.16301775405236513,
                1.0894750598233274
            ]
        },
        {
            "positions": [
                -2.406403778186763,
                -1.4359570709013818,
                0.13277855408604822,
                -1.1688909375340786,
                0.14188318019104929,
                1.032413157546389
            ]
        },
        {
            "positions": [
                -2.488090974404922,
                -1.455824777289295,
                0.054781901120567245,
                -1.2950637846645354,
                0.12074860632973333,
                0.9753512552694509
            ]
        },
        {
            "positions": [
                -2.5697781706230813,
                -1.475692483677208,
                -0.023214751844913728,
                -1.4212366317949923,
                0.09961403246841743,
                0.9182893529925126
            ]
        },
        {
            "positions": [
                -2.651465366841241,
                -1.4955601900651212,
                -0.10121140481039448,
                -1.5474094789254496,
                0.07847945860710148,
                0.8612274507155744
            ]
        },
        {
            "positions": [
                -2.7331525630594,
                -1.515427896453034,
                -0.17920805777587556,
                -1.6735823260559062,
                0.057344884745785585,
                0.8041655484386361
            ]
        },
        {
            "positions": [
                -2.71864744797849,
                -1.4798798784801475,
                -0.06237743228339443,
                -1.5922038725307535,
                0.0816356294296886,
                0.9232394039856151
            ]
        },
        {
            "positions": [
                -2.7041423328975798,
                -1.444331860507261,
                0.0544531932090867,
                -1.510825419005601,
                0.10592637411359164,
                1.0423132595325941
            ]
        },
        {
            "positions": [
                -2.68963721781667,
                -1.4087838425343744,
                0.17128381870156784,
                -1.4294469654804483,
                0.13021711879749467,
                1.1613871150795732
            ]
        },
        {
            "positions": [
                -2.67513210273576,
                -1.373235824561488,
                0.28811444419404897,
                -1.3480685119552958,
                0.1545078634813977,
                1.2804609706265522
            ]
        },
        {
            "positions": [
                -2.66062698765485,
                -1.3376878065886013,
                0.4049450696865301,
                -1.266690058430143,
                0.17879860816530072,
                1.3995348261735312
            ]
        },
        {
            "positions": [
                -2.6461218725739397,
                -1.3021397886157149,
                0.5217756951790112,
                -1.1853116049049905,
                0.20308935284920376,
                1.5186086817205102
            ]
        },
        {
            "positions": [
                -2.63161675749303,
                -1.2665917706428282,
                0.6386063206714924,
                -1.1039331513798378,
                0.22738009753310678,
                1.6376825372674895
            ]
        },
        {
            "positions": [
                -2.61711164241212,
                -1.2310437526699418,
                0.7554369461639735,
                -1.0225546978546853,
                0.2516708422170098,
                1.7567563928144683
            ]
        },
        {
            "positions": [
                -2.60260652733121,
                -1.1954957346970552,
                0.8722675716564546,
                -0.9411762443295327,
                0.2759615869009128,
                1.8758302483614473
            ]
        },
        {
            "positions": [
                -2.5881014122502997,
                -1.1599477167241687,
                0.9890981971489358,
                -0.8597977908043801,
                0.30025233158481585,
                1.9949041039084263
            ]
        },
        {
            "positions": [
                -2.5735962971693898,
                -1.124399698751282,
                1.1059288226414168,
                -0.7784193372792275,
                0.32454307626871887,
                2.113977959455405
            ]
        },
        {
            "positions": [
                -2.55909118208848,
                -1.0888516807783954,
                1.222759448133898,
                -0.6970408837540748,
                0.34883382095262194,
                2.2330518150023844
            ]
        },
        {
            "positions": [
                -2.54458606700757,
                -1.053303662805509,
                1.339590073626379,
                -0.6156624302289222,
                0.37312456563652496,
                2.3521256705493636
            ]
        },
        {
            "positions": [
                -2.5300809519266596,
                -1.0177556448326226,
                1.4564206991188602,
                -0.5342839767037695,
                0.397415310320428,
                2.471199526096343
            ]
        },
        {
            "positions": [
                -2.5155758368457497,
                -0.982207626859736,
                1.5732513246113415,
                -0.4529055231786169,
                0.421706055004331,
                2.5902733816433217
            ]
        },
        {
            "positions": [
                -2.5070097846208053,
                -1.0181793617514956,
                1.6600771788360642,
                -0.5263606884081156,
                0.4743932441957528,
                2.694705502381453
            ]
        },
        {
            "positions": [
                -2.498443732395861,
                -1.0541510966432555,
                1.746903033060787,
                -0.5998158536376144,
                0.5270804333871746,
                2.7991376231195835
            ]
        },
        {
            "positions": [
                -2.4898776801709164,
                -1.090122831535015,
                1.8337288872855098,
                -0.673271018867113,
                0.5797676225785964,
                2.9035697438577146
            ]
        },
        {
            "positions": [
                -2.481311627945972,
                -1.126094566426775,
                1.9205547415102324,
                -0.7467261840966117,
                0.6324548117700183,
                3.0080018645958457
            ]
        },
        {
            "positions": [
                -2.4727455757210275,
                -1.1620663013185346,
                2.007380595734955,
                -0.8201813493261105,
                0.6851420009614401,
                3.1124339853339764
            ]
        }
    ]
}