{
    "goal": {
        "global_pose": {
            "orientation": {
                "w": 0.005598929693374612,
                "x": 0.007748599140229565,
                "y": 0.7110244013736278,
                "z": -0.7031023480610252
            },
            "position": {
                "x": 0.1141497679147869,
                "y": -0.7141253447532654,
                "z": 0.3711530566215515
            }
        },
        "name": "move_to_auspresseinheit_B"
    },
    "id": "LBKPIECE_move_to_auspresseinheit_B_103",
    "joint_names": [
        "shoulder_pan_joint",
        "shoulder_lift_joint",
        "elbow_joint",
        "wrist_1_joint",
        "wrist_2_joint",
        "wrist_3_joint"
    ],
    "metrics": {
        "cart_traj_len": 0.5635285051320675,
        "distance_elbow_joint": 0.061992354330739685,
        "distance_shoulder_lift_joint": 0.29497619507168604,
        "distance_shoulder_pan_joint": 0.5770263601221526,
        "distance_wrist_1_joint": 0.32705251608337005,
        "distance_wrist_2_joint": 0.9863594536483467,
        "distance_wrist_3_joint": 0.0029431696873438717,
        "smoothness": 5.075305255429287e-16,
        "time": 1.228521156,
        "traj_len": 1.5001166784432598,
        "weighted_distance": 1.8893513061498233
    },
    "planner": "LBKPIECE",
    "start": {
        "state": {
            "elbow_joint": 2.019306165916698,
            "shoulder_lift_joint": -1.1220205098164344,
            "shoulder_pan_joint": -1.095207207618794,
            "wrist_1_joint": -0.8559671824921639,
            "wrist_2_joint": 0.47596387242952726,
            "wrist_3_joint": 3.159081874673826
        }
    },
    "waypoints": [
        {
            "positions": [
                -1.095207207618794,
                -1.1220205098164344,
                2.019306165916698,
                -0.8559671824921639,
                0.47596387242952726,
                3.159081874673826
            ]
        },
        {
            "positions": [
                -1.1913782676391527,
                -1.1711832089950487,
                2.0089741068615745,
                -0.8014584298116022,
                0.6403571147042517,
                3.158591346392602
            ]
        },
        {
            "positions": [
                -1.2875493276595116,
                -1.2203459081736632,
                1.9986420478064515,
                -0.7469496771310405,
                0.8047503569789761,
                3.158100818111378
            ]
        },
        {
            "positions": [
                -1.3837203876798703,
                -1.2695086073522774,
                1.988309988751328,
                -0.6924409244504788,
                0.9691435992537005,
                3.1576102898301537
            ]
        },
        {
            "positions": [
                -1.479891447700229,
                -1.3186713065308917,
                1.9779779296962048,
                -0.6379321717699171,
                1.133536841528425,
                3.15711976154893
            ]
        },
        {
            "positions": [
                -1.5760625077205879,
                -1.3678340057095062,
                1.9676458706410815,
                -0.5834234190893555,
                1.2979300838031496,
                3.156629233267706
            ]
        },
        {
            "positions": [
                -1.6722335677409466,
                -1.4169967048881205,
                1.9573138115859583,
                -0.5289146664087938,
                1.4623233260778739,
                3.156138704986482
            ]
        }
    ]
}