{
    "goal": {
        "global_pose": {
            "orientation": {
                "w": 0.005598929693374612,
                "x": 0.007748599140229565,
                "y": 0.7110244013736278,
                "z": -0.7031023480610252
            },
            "position": {
                "x": -0.8858502320852131,
                "y": -0.7141253447532654,
                "z": 0.3711530566215515
            }
        },
        "name": "move_to_auspresseinheit_C"
    },
    "id": "LBKPIECE_move_to_auspresseinheit_C_77",
    "joint_names": [
        "shoulder_pan_joint",
        "shoulder_lift_joint",
        "elbow_joint",
        "wrist_1_joint",
        "wrist_2_joint",
        "wrist_3_joint"
    ],
    "metrics": {
        "cart_traj_len": 0.49305624311523755,
        "distance_elbow_joint": 0.9994416445516398,
        "distance_shoulder_lift_joint": 0.32492207636312054,
        "distance_shoulder_pan_joint": 0.2553726697495864,
        "distance_wrist_1_joint": 0.6658287090055391,
        "distance_wrist_2_joint": 1.3218409622910974,
        "distance_wrist_3_joint": 0.05366456606572001,
        "smoothness": 9.689219124001365e-16,
        "time": 0.8012140569999999,
        "traj_len": 1.9029110930431572,
        "weighted_distance": 2.390830280771678
    },
    "planner": "LBKPIECE",
    "start": {
        "state": {
            "elbow_joint": 1.752795957773711,
            "shoulder_lift_joint": -0.9740617694225064,
            "shoulder_pan_joint": -2.967991417825858,
            "wrist_1_joint": -0.7595177689806859,
            "wrist_2_joint": 1.7443932448377395,
            "wrist_3_joint": 3.199131542505932
        }
    },
    "waypoints": [
        {
            "positions": [
                -2.967991417825858,
                -0.9740617694225064,
                1.752795957773711,
                -0.7595177689806859,
                1.7443932448377395,
                3.199131542505932
            ]
        },
        {
            "positions": [
                -2.9424541508508995,
                -0.9415695617861943,
                1.6528517933185471,
                -0.692934898080132,
                1.6122091486086298,
                3.19376508589936
            ]
        },
        {
            "positions": [
                -2.9169168838759405,
                -0.9090773541498823,
                1.5529076288633832,
                -0.626352027179578,
                1.48002505237952,
                3.188398629292788
            ]
        },
        {
            "positions": [
                -2.891379616900982,
                -0.8765851465135703,
                1.4529634644082192,
                -0.5597691562790241,
                1.3478409561504103,
                3.1830321726862163
            ]
        },
        {
            "positions": [
                -2.8658423499260235,
                -0.8440929388772582,
                1.3530192999530553,
                -0.49318628537847026,
                1.2156568599213005,
                3.177665716079644
            ]
        },
        {
            "positions": [
                -2.8403050829510645,
                -0.8116007312409461,
                1.2530751354978913,
                -0.42660341447791633,
                1.0834727636921908,
                3.172299259473072
            ]
        },
        {
            "positions": [
                -2.814767815976106,
                -0.7791085236046341,
                1.1531309710427273,
                -0.3600205435773624,
                0.951288667463081,
                3.1669328028665
            ]
        },
        {
            "positions": [
                -2.7892305490011475,
                -0.7466163159683221,
                1.0531868065875634,
                -0.29343767267680854,
                0.8191045712339714,
                3.161566346259928
            ]
        },
        {
            "positions": [
                -2.763693282026189,
                -0.71412410833201,
                0.9532426421323993,
                -0.2268548017762546,
                0.6869204750048616,
                3.1561998896533563
            ]
        },
        {
            "positions": [
                -2.73815601505123,
                -0.6816319006956979,
                0.8532984776772353,
                -0.16027193087570069,
                0.5547363787757518,
                3.150833433046784
            ]
        },
        {
            "positions": [
                -2.7126187480762716,
                -0.6491396930593859,
                0.7533543132220714,
                -0.09368905997514673,
                0.42255228254664207,
                3.145466976440212
            ]
        }
    ]
}