{
    "goal": {
        "global_pose": {
            "orientation": {
                "w": -0.4816463035849501,
                "x": 0.5182115481033762,
                "y": 0.4908360881923453,
                "z": -0.5084816262002911
            },
            "position": {
                "x": -0.8240239810943604,
                "y": 0.19912469901144506,
                "z": 0.16403168439865112
            }
        },
        "name": "move_to_storage_D"
    },
    "id": "LBKPIECE_move_to_storage_D_134",
    "joint_names": [
        "shoulder_pan_joint",
        "shoulder_lift_joint",
        "elbow_joint",
        "wrist_1_joint",
        "wrist_2_joint",
        "wrist_3_joint"
    ],
    "metrics": {
        "cart_traj_len": 4.535631798775928,
        "distance_elbow_joint": 4.2120208840812765,
        "distance_shoulder_lift_joint": 2.900161748454266,
        "distance_shoulder_pan_joint": 2.81263852210996,
        "distance_wrist_1_joint": 3.4832514756514943,
        "distance_wrist_2_joint": 2.47327182241568,
        "distance_wrist_3_joint": 11.166652635821634,
        "smoothness": 0.4394210826327314,
        "time": 2.547081066,
        "traj_len": 5.200768893974652,
        "weighted_distance": 7.438939820851139
    },
    "planner": "LBKPIECE",
    "start": {
        "state": {
            "elbow_joint": -2.384821997420982,
            "shoulder_lift_joint": -2.2788054674887404,
            "shoulder_pan_joint": -0.18546946417610016,
            "wrist_1_joint": 1.4845937964226739,
            "wrist_2_joint": 0.1789877726866377,
            "wrist_3_joint": 0.03710572555276528
        }
    },
    "waypoints": [
        {
            "positions": [
                -0.18546946417610016,
                -2.2788054674887404,
                -2.384821997420982,
                1.4845937964226739,
                0.1789877726866377,
                0.03710572555276528
            ]
        },
        {
            "positions": [
                -0.14200853443223044,
                -2.193262521130672,
                -2.3381169578849654,
                1.49492595776672,
                0.13027524460591647,
                -0.04675930789362656
            ]
        },
        {
            "positions": [
                -0.054805858357641374,
                -2.0982609990499146,
                -2.2346779476588616,
                1.440446352481798,
                0.10016583723345832,
                -0.0569186516169663
            ]
        },
        {
            "positions": [
                0.017612853827658814,
                -2.0636003644976686,
                -2.142407136880457,
                1.3612384413315612,
                0.11345698395093376,
                0.02188767954568377
            ]
        },
        {
            "positions": [
                0.090031566012959,
                -2.028939729945423,
                -2.0501363261020527,
                1.2820305301813246,
                0.1267481306684092,
                0.10069401070833384
            ]
        },
        {
            "positions": [
                0.16245027819825922,
                -1.9942790953931773,
                -1.957865515323648,
                1.2028226190310878,
                0.14003927738588462,
                0.1795003418709839
            ]
        },
        {
            "positions": [
                0.23486899038355938,
                -1.9596184608409315,
                -1.8655947045452435,
                1.1236147078808512,
                0.15333042410336006,
                0.25830667303363397
            ]
        },
        {
            "positions": [
                0.3072877025688596,
                -1.9249578262886855,
                -1.7733238937668387,
                1.0444067967306143,
                0.1666215708208355,
                0.3371130041962841
            ]
        },
        {
            "positions": [
                0.3797064147541598,
                -1.8902971917364397,
                -1.6810530829884343,
                0.9651988855803775,
                0.17991271753831095,
                0.4159193353589341
            ]
        },
        {
            "positions": [
                0.45212512693945994,
                -1.855636557184194,
                -1.5887822722100298,
                0.8859909744301407,
                0.1932038642557864,
                0.49472566652158423
            ]
        },
        {
            "positions": [
                0.5245438391247601,
                -1.8209759226319482,
                -1.4965114614316253,
                0.806783063279904,
                0.20649501097326184,
                0.5735319976842342
            ]
        },
        {
            "positions": [
                0.5969625513100604,
                -1.7863152880797024,
                -1.4042406506532206,
                0.7275751521296672,
                0.21978615769073728,
                0.6523383288468844
            ]
        },
        {
            "positions": [
                0.6616438279084585,
                -1.8127169069591036,
                -1.3287173067307672,
                0.6594618102935133,
                0.19644975233726347,
                0.5259424356905882
            ]
        },
        {
            "positions": [
                0.7263251045068566,
                -1.8391185258385045,
                -1.2531939628083137,
                0.5913484684573594,
                0.17311334698378966,
                0.39954654253429206
            ]
        },
        {
            "positions": [
                0.7910063811052548,
                -1.8655201447179057,
                -1.1776706188858603,
                0.5232351266212056,
                0.14977694163031588,
                0.27315064937799594
            ]
        },
        {
            "positions": [
                0.855687657703653,
                -1.891921763597307,
                -1.102147274963407,
                0.4551217847850517,
                0.12644053627684207,
                0.14675475622169976
            ]
        },
        {
            "positions": [
                0.920368934302051,
                -1.9183233824767079,
                -1.0266239310409535,
                0.38700844294889786,
                0.10310413092336827,
                0.020358863065403576
            ]
        },
        {
            "positions": [
                0.9850502109004491,
                -1.944725001356109,
                -0.9511005871185001,
                0.318895101112744,
                0.07976772556989448,
                -0.10603703009089249
            ]
        },
        {
            "positions": [
                1.0497314874988473,
                -1.97112662023551,
                -0.8755772431960468,
                0.25078175927659013,
                0.056431320216420666,
                -0.23243292324718867
            ]
        },
        {
            "positions": [
                1.1144127640972454,
                -1.9975282391149112,
                -0.8000538992735934,
                0.18266841744043627,
                0.033094914862946856,
                -0.35882881640348485
            ]
        },
        {
            "positions": [
                1.1790940406956436,
                -2.0239298579943124,
                -0.7245305553511399,
                0.11455507560428235,
                0.009758509509473046,
                -0.48522470955978114
            ]
        },
        {
            "positions": [
                1.2437753172940416,
                -2.0503314768737133,
                -0.6490072114286866,
                0.046441733768128546,
                -0.013577895844000737,
                -0.6116206027160772
            ]
        },
        {
            "positions": [
                1.3084565938924397,
                -2.0767330957531147,
                -0.573483867506233,
                -0.021671608068025372,
                -0.036914301197474575,
                -0.7380164958723735
            ]
        },
        {
            "positions": [
                1.373137870490838,
                -2.1031347146325157,
                -0.49796052358377974,
                -0.08978494990417918,
                -0.06025070655094833,
                -0.8644123890286693
            ]
        },
        {
            "positions": [
                1.437819147089236,
                -2.1295363335119166,
                -0.4224371796613262,
                -0.1578982917403331,
                -0.0835871119044222,
                -0.9908082821849656
            ]
        },
        {
            "positions": [
                1.5025004236876343,
                -2.1559379523913176,
                -0.346913835738873,
                -0.2260116335764869,
                -0.10692351725789595,
                -1.1172041753412616
            ]
        },
        {
            "positions": [
                1.5671817002860324,
                -2.182339571270719,
                -0.2713904918164194,
                -0.2941249754126407,
                -0.13025992261136976,
                -1.243600068497558
            ]
        },
        {
            "positions": [
                1.6318629768844306,
                -2.20874119015012,
                -0.1958671478939662,
                -0.36223831724879463,
                -0.15359632796484357,
                -1.3699959616538542
            ]
        },
        {
            "positions": [
                1.6965442534828283,
                -2.235142809029521,
                -0.12034380397151279,
                -0.4303516590849483,
                -0.17693273331831733,
                -1.4963918548101502
            ]
        },
        {
            "positions": [
                1.761225530081227,
                -2.2615444279089223,
                -0.04482046004905915,
                -0.49846500092110246,
                -0.2002691386717912,
                -1.6227877479664468
            ]
        },
        {
            "positions": [
                1.8259068066796247,
                -2.2879460467883233,
                0.03070288387339426,
                -0.5665783427572562,
                -0.223605544025265,
                -1.7491836411227428
            ]
        },
        {
            "positions": [
                1.8905880832780229,
                -2.314347665667724,
                0.10622622779584745,
                -0.6346916845934101,
                -0.24694194937873876,
                -1.875579534279039
            ]
        },
        {
            "positions": [
                1.955269359876421,
                -2.3407492845471256,
                0.18174957171830086,
                -0.7028050264295638,
                -0.27027835473221257,
                -2.001975427435335
            ]
        },
        {
            "positions": [
                2.019950636474819,
                -2.3671509034265266,
                0.2572729156407545,
                -0.7709183682657179,
                -0.29361476008568643,
                -2.1283713205916315
            ]
        },
        {
            "positions": [
                2.0846319130732174,
                -2.393552522305928,
                0.3327962595632077,
                -0.8390317101018716,
                -0.31695116543916024,
                -2.2547672137479275
            ]
        },
        {
            "positions": [
                2.1493131896716156,
                -2.419954141185329,
                0.4083196034856611,
                -0.9071450519380255,
                -0.34028757079263394,
                -2.381163106904223
            ]
        },
        {
            "positions": [
                2.2139944662700137,
                -2.44635576006473,
                0.4838429474081145,
                -0.9752583937741792,
                -0.36362397614610775,
                -2.5075590000605192
            ]
        },
        {
            "positions": [
                2.278675742868412,
                -2.472757378944131,
                0.5593662913305681,
                -1.0433717356103334,
                -0.3869603814995817,
                -2.6339548932168158
            ]
        },
        {
            "positions": [
                2.34335701946681,
                -2.4991589978235322,
                0.6348896352530213,
                -1.111485077446487,
                -0.4102967868530554,
                -2.760350786373112
            ]
        },
        {
            "positions": [
                2.408038296065208,
                -2.525560616702933,
                0.7104129791754745,
                -1.179598419282641,
                -0.4336331922065292,
                -2.886746679529408
            ]
        },
        {
            "positions": [
                2.472719572663606,
                -2.551962235582334,
                0.7859363230979282,
                -1.2477117611187947,
                -0.456969597560003,
                -3.013142572685704
            ]
        },
        {
            "positions": [
                2.537400849262004,
                -2.5783638544617355,
                0.8614596670203818,
                -1.3158251029549486,
                -0.4803060029134768,
                -3.1395384658420005
            ]
        },
        {
            "positions": [
                2.6020821258604023,
                -2.6047654733411365,
                0.9369830109428348,
                -1.3839384447911025,
                -0.5036424082669506,
                -3.2659343589982965
            ]
        },
        {
            "positions": [
                2.602947192483625,
                -2.5499647359692816,
                0.9676801101055059,
                -1.363453792661805,
                -0.4501458220411736,
                -3.0436895800209562
            ]
        },
        {
            "positions": [
                2.6038122591068475,
                -2.4951639985974268,
                0.9983772092681771,
                -1.342969140532508,
                -0.39664923581539663,
                -2.821444801043616
            ]
        },
        {
            "positions": [
                2.60467732573007,
                -2.440363261225572,
                1.0290743084308482,
                -1.3224844884032105,
                -0.34315264958961966,
                -2.5992000220662757
            ]
        },
        {
            "positions": [
                2.605542392353293,
                -2.385562523853717,
                1.0597714075935194,
                -1.3019998362739134,
                -0.28965606336384264,
                -2.3769552430889354
            ]
        },
        {
            "positions": [
                2.606407458976516,
                -2.3307617864818617,
                1.0904685067561906,
                -1.281515184144616,
                -0.23615947713806562,
                -2.154710464111595
            ]
        },
        {
            "positions": [
                2.6072725255997384,
                -2.275961049110007,
                1.1211656059188617,
                -1.2610305320153188,
                -0.18266289091228866,
                -1.9324656851342552
            ]
        },
        {
            "positions": [
                2.608137592222961,
                -2.221160311738152,
                1.1518627050815329,
                -1.2405458798860214,
                -0.12916630468651163,
                -1.710220906156915
            ]
        },
        {
            "positions": [
                2.6090026588461837,
                -2.166359574366297,
                1.182559804244204,
                -1.2200612277567242,
                -0.07566971846073461,
                -1.4879761271795746
            ]
        },
        {
            "positions": [
                2.6098677254694063,
                -2.1115588369944422,
                1.2132569034068752,
                -1.1995765756274268,
                -0.022173132234957593,
                -1.2657313482022343
            ]
        },
        {
            "positions": [
                2.610732792092629,
                -2.0567580996225874,
                1.2439540025695464,
                -1.1790919234981296,
                0.03132345399081937,
                -1.043486569224894
            ]
        },
        {
            "positions": [
                2.611597858715852,
                -2.0019573622507325,
                1.2746511017322173,
                -1.1586072713688322,
                0.08482004021659628,
                -0.8212417902475542
            ]
        },
        {
            "positions": [
                2.6124629253390745,
                -1.9471566248788776,
                1.3053482008948887,
                -1.138122619239535,
                0.1383166264423733,
                -0.5989970112702139
            ]
        },
        {
            "positions": [
                2.613327991962297,
                -1.8923558875070228,
                1.3360453000575596,
                -1.1176379671102377,
                0.19181321266815032,
                -0.3767522322928736
            ]
        },
        {
            "positions": [
                2.6141930585855198,
                -1.8375551501351677,
                1.366742399220231,
                -1.0971533149809405,
                0.24530979889392734,
                -0.15450745331553328
            ]
        },
        {
            "positions": [
                2.6150581252087424,
                -1.7827544127633126,
                1.397439498382902,
                -1.076668662851643,
                0.29880638511970437,
                0.06773732566180701
            ]
        },
        {
            "positions": [
                2.615923191831965,
                -1.7279536753914577,
                1.4281365975455733,
                -1.0561840107223457,
                0.3523029713454814,
                0.2899821046391473
            ]
        },
        {
            "positions": [
                2.6167882584551876,
                -1.673152938019603,
                1.4588336967082443,
                -1.0356993585930485,
                0.4057995575712583,
                0.5122268836164872
            ]
        },
        {
            "positions": [
                2.61765332507841,
                -1.618352200647748,
                1.4895307958709156,
                -1.0152147064637511,
                0.4592961437970354,
                0.7344716625938279
            ]
        },
        {
            "positions": [
                2.6185183917016333,
                -1.5635514632758931,
                1.5202278950335866,
                -0.9947300543344539,
                0.5127927300228123,
                0.9567164415711682
            ]
        },
        {
            "positions": [
                2.619383458324856,
                -1.5087507259040382,
                1.550924994196258,
                -0.9742454022051565,
                0.5662893162485894,
                1.1789612205485085
            ]
        },
        {
            "positions": [
                2.6202485249480785,
                -1.4539499885321834,
                1.581622093358929,
                -0.9537607500758594,
                0.6197859024743664,
                1.4012059995258488
            ]
        },
        {
            "positions": [
                2.621113591571301,
                -1.3991492511603285,
                1.6123191925216,
                -0.933276097946562,
                0.6732824887001432,
                1.6234507785031882
            ]
        },
        {
            "positions": [
                2.6219786581945237,
                -1.3443485137884734,
                1.6430162916842712,
                -0.9127914458172647,
                0.7267790749259204,
                1.8456955574805294
            ]
        },
        {
            "positions": [
                2.6228437248177463,
                -1.2895477764166186,
                1.6737133908469424,
                -0.8923067936879674,
                0.7802756611516972,
                2.067940336457869
            ]
        },
        {
            "positions": [
                2.623708791440969,
                -1.2347470390447637,
                1.7044104900096135,
                -0.8718221415586702,
                0.8337722473774742,
                2.290185115435209
            ]
        },
        {
            "positions": [
                2.624573858064192,
                -1.1799463016729088,
                1.7351075891722847,
                -0.8513374894293728,
                0.8872688336032513,
                2.5124298944125494
            ]
        },
        {
            "positions": [
                2.6254389246874146,
                -1.125145564301054,
                1.7658046883349559,
                -0.8308528373000755,
                0.9407654198290283,
                2.7346746733898897
            ]
        },
        {
            "positions": [
                2.626303991310637,
                -1.0703448269291989,
                1.796501787497627,
                -0.8103681851707782,
                0.9942620060548053,
                2.95691945236723
            ]
        },
        {
            "positions": [
                2.62716905793386,
                -1.015544089557344,
                1.8271988866602982,
                -0.789883533041481,
                1.0477585922805823,
                3.1791642313445703
            ]
        }
    ]
}