{
    "goal": {
        "global_pose": {
            "orientation": {
                "w": 0.7031023480610252,
                "x": -0.7110244013736278,
                "y": 0.0077485991402295624,
                "z": 0.005598929693374583
            },
            "position": {
                "x": -0.8841497679147869,
                "y": 0.44412534475326537,
                "z": 0.3711530566215515
            }
        },
        "name": "move_to_auspresseinheit_D"
    },
    "id": "LBKPIECE_move_to_auspresseinheit_D_83",
    "joint_names": [
        "shoulder_pan_joint",
        "shoulder_lift_joint",
        "elbow_joint",
        "wrist_1_joint",
        "wrist_2_joint",
        "wrist_3_joint"
    ],
    "metrics": {
        "cart_traj_len": 3.1799188459659598,
        "distance_elbow_joint": 5.2154039970477974,
        "distance_shoulder_lift_joint": 2.3146228695415347,
        "distance_shoulder_pan_joint": 2.797536997874685,
        "distance_wrist_1_joint": 6.069769611670527,
        "distance_wrist_2_joint": 3.418743366365705,
        "distance_wrist_3_joint": 3.0670519564499052,
        "smoothness": 0.3017801649861508,
        "time": 5.0088392719999995,
        "traj_len": 4.783631340200681,
        "weighted_distance": 6.205299806607751
    },
    "planner": "LBKPIECE",
    "start": {
        "state": {
            "elbow_joint": 1.8268400409724999,
            "shoulder_lift_joint": -1.0144045787793008,
            "shoulder_pan_joint": 2.6280239544362485,
            "wrist_1_joint": -0.790705565816056,
            "wrist_2_joint": 1.0573557467365533,
            "wrist_3_joint": 3.1851377467193758
        }
    },
    "waypoints": [
        {
            "positions": [
                2.6280239544362485,
                -1.0144045787793008,
                1.8268400409724999,
                -0.790705565816056,
                1.0573557467365533,
                3.1851377467193758
            ]
        },
        {
            "positions": [
                2.59935663853022,
                -1.0004208702293127,
                1.6994269989021225,
                -0.6786771963200628,
                0.9921236962025993,
                3.1387546619024
            ]
        },
        {
            "positions": [
                2.5706893226241916,
                -0.9864371616793244,
                1.572013956831745,
                -0.5666488268240697,
                0.9268916456686453,
                3.092371577085424
            ]
        },
        {
            "positions": [
                2.542022006718163,
                -0.9724534531293362,
                1.4446009147613679,
                -0.4546204573280765,
                0.8616595951346914,
                3.045988492268448
            ]
        },
        {
            "positions": [
                2.5133546908121347,
                -0.958469744579348,
                1.3171878726909905,
                -0.34259208783208334,
                0.7964275446007374,
                2.9996054074514724
            ]
        },
        {
            "positions": [
                2.4846873749061067,
                -0.9444860360293598,
                1.189774830620613,
                -0.23056371833609024,
                0.7311954940667833,
                2.9532223226344962
            ]
        },
        {
            "positions": [
                2.4560200590000782,
                -0.9305023274793716,
                1.0623617885502359,
                -0.11853534884009698,
                0.6659634435328294,
                2.9068392378175205
            ]
        },
        {
            "positions": [
                2.42735274309405,
                -0.9165186189293834,
                0.9349487464798585,
                -0.006506979344103825,
                0.6007313929988753,
                2.860456153000545
            ]
        },
        {
            "positions": [
                2.3986854271880214,
                -0.9025349103793951,
                0.8075357044094811,
                0.10552139015188933,
                0.5354993424649214,
                2.8140730681835686
            ]
        },
        {
            "positions": [
                2.370018111281993,
                -0.888551201829407,
                0.6801226623391039,
                0.21754975964788237,
                0.4702672919309675,
                2.767689983366593
            ]
        },
        {
            "positions": [
                2.3413507953759645,
                -0.8745674932794187,
                0.5527096202687265,
                0.3295781291438755,
                0.4050352413970134,
                2.721306898549617
            ]
        },
        {
            "positions": [
                2.312683479469936,
                -0.8605837847294306,
                0.4252965781983491,
                0.44160649863986867,
                0.33980319086305943,
                2.674923813732641
            ]
        },
        {
            "positions": [
                2.2840161635639076,
                -0.8466000761794423,
                0.2978835361279717,
                0.553634868135862,
                0.27457114032910546,
                2.6285407289156653
            ]
        },
        {
            "positions": [
                2.2553488476578796,
                -0.8326163676294542,
                0.1704704940575945,
                0.665663237631855,
                0.20933908979515148,
                2.5821576440986895
            ]
        },
        {
            "positions": [
                2.226681531751851,
                -0.8186326590794659,
                0.04305745198721711,
                0.7776916071278483,
                0.1441070392611974,
                2.5357745592817134
            ]
        },
        {
            "positions": [
                2.1980142158458227,
                -0.8046489505294778,
                -0.08435559008316029,
                0.8897199766238413,
                0.07887498872724352,
                2.4893914744647376
            ]
        },
        {
            "positions": [
                2.1693468999397942,
                -0.7906652419794895,
                -0.2117686321535377,
                1.0017483461198347,
                0.013642938193289433,
                2.443008389647762
            ]
        },
        {
            "positions": [
                2.140679584033766,
                -0.7766815334295014,
                -0.3391816742239149,
                1.1137767156158276,
                -0.051589112340664434,
                2.3966253048307857
            ]
        },
        {
            "positions": [
                2.1120122681277373,
                -0.7626978248795131,
                -0.46659471629429206,
                1.2258050851118207,
                -0.1168211628746183,
                2.35024222001381
            ]
        },
        {
            "positions": [
                2.083344952221709,
                -0.748714116329525,
                -0.5940077583646697,
                1.337833454607814,
                -0.1820532134085726,
                2.3038591351968343
            ]
        },
        {
            "positions": [
                2.054677636315681,
                -0.7347304077795367,
                -0.7214208004350469,
                1.449861824103807,
                -0.24728526394252648,
                2.257476050379858
            ]
        },
        {
            "positions": [
                2.026010320409652,
                -0.7207466992295486,
                -0.8488338425054245,
                1.5618901935998004,
                -0.31251731447648035,
                2.2110929655628824
            ]
        },
        {
            "positions": [
                1.997343004503624,
                -0.7067629906795604,
                -0.9762468845758017,
                1.6739185630957933,
                -0.37774936501043443,
                2.1647098807459066
            ]
        },
        {
            "positions": [
                1.9686756885975956,
                -0.6927792821295722,
                -1.1036599266461793,
                1.7859469325917867,
                -0.4429814155443885,
                2.1183267959289305
            ]
        },
        {
            "positions": [
                1.9400083726915671,
                -0.6787955735795839,
                -1.2310729687165565,
                1.89797530208778,
                -0.5082134660783424,
                2.0719437111119547
            ]
        },
        {
            "positions": [
                1.9113410567855387,
                -0.6648118650295958,
                -1.3584860107869337,
                2.010003671583773,
                -0.5734455166122965,
                2.025560626294979
            ]
        },
        {
            "positions": [
                1.8826737408795102,
                -0.6508281564796076,
                -1.4858990528573108,
                2.122032041079766,
                -0.6386775671462503,
                1.979177541478003
            ]
        },
        {
            "positions": [
                1.8540064249734818,
                -0.6368444479296194,
                -1.6133120949276885,
                2.2340604105757595,
                -0.7039096176802044,
                1.9327944566610271
            ]
        },
        {
            "positions": [
                1.8253391090674533,
                -0.6228607393796312,
                -1.7407251369980656,
                2.346088780071753,
                -0.7691416682141585,
                1.8864113718440512
            ]
        },
        {
            "positions": [
                1.7966717931614251,
                -0.608877030829643,
                -1.8681381790684433,
                2.4581171495677454,
                -0.8343737187481124,
                1.8400282870270754
            ]
        },
        {
            "positions": [
                1.7680044772553969,
                -0.5948933222796547,
                -1.9955512211388204,
                2.570145519063739,
                -0.8996057692820663,
                1.7936452022100995
            ]
        },
        {
            "positions": [
                1.7393371613493684,
                -0.5809096137296665,
                -2.122964263209198,
                2.682173888559732,
                -0.9648378198160206,
                1.7472621173931235
            ]
        },
        {
            "positions": [
                1.71066984544334,
                -0.5669259051796783,
                -2.2503773052795752,
                2.7942022580557255,
                -1.0300698703499744,
                1.7008790325761476
            ]
        },
        {
            "positions": [
                1.6820025295373116,
                -0.5529421966296901,
                -2.3777903473499524,
                2.9062306275517185,
                -1.0953019208839283,
                1.6544959477591719
            ]
        },
        {
            "positions": [
                1.6079419066182816,
                -0.6270686161253671,
                -2.337359403000939,
                2.8113172908196082,
                -1.0446584929341194,
                1.5930395414595837
            ]
        },
        {
            "positions": [
                1.5338812836992517,
                -0.7011950356210441,
                -2.2969284586519256,
                2.7164039540874985,
                -0.9940150649843104,
                1.5315831351599958
            ]
        },
        {
            "positions": [
                1.4598206607802218,
                -0.775321455116721,
                -2.2564975143029122,
                2.6214906173553882,
                -0.9433716370345013,
                1.4701267288604076
            ]
        },
        {
            "positions": [
                1.3857600378611918,
                -0.849447874612398,
                -2.2160665699538984,
                2.526577280623278,
                -0.8927282090846924,
                1.4086703225608197
            ]
        },
        {
            "positions": [
                1.311699414942162,
                -0.9235742941080749,
                -2.175635625604885,
                2.4316639438911682,
                -0.8420847811348834,
                1.3472139162612315
            ]
        },
        {
            "positions": [
                1.237638792023132,
                -0.9977007136037519,
                -2.1352046812558716,
                2.336750607159058,
                -0.7914413531850744,
                1.2857575099616436
            ]
        },
        {
            "positions": [
                1.163578169104102,
                -1.071827133099429,
                -2.094773736906858,
                2.241837270426948,
                -0.7407979252352654,
                1.2243011036620555
            ]
        },
        {
            "positions": [
                1.0895175461850721,
                -1.145953552595106,
                -2.054342792557845,
                2.146923933694838,
                -0.6901544972854565,
                1.1628446973624675
            ]
        },
        {
            "positions": [
                1.0154569232660424,
                -1.2200799720907827,
                -2.0139118482088314,
                2.052010596962728,
                -0.6395110693356475,
                1.1013882910628796
            ]
        },
        {
            "positions": [
                0.9413963003470124,
                -1.2942063915864597,
                -1.9734809038598178,
                1.9570972602306176,
                -0.5888676413858385,
                1.0399318847632912
            ]
        },
        {
            "positions": [
                0.8673356774279826,
                -1.3683328110821367,
                -1.9330499595108042,
                1.8621839234985076,
                -0.5382242134360296,
                0.9784754784637034
            ]
        },
        {
            "positions": [
                0.7932750545089526,
                -1.4424592305778137,
                -1.8926190151617908,
                1.7672705867663976,
                -0.4875807854862205,
                0.9170190721641154
            ]
        },
        {
            "positions": [
                0.7192144315899227,
                -1.5165856500734907,
                -1.8521880708127774,
                1.6723572500342874,
                -0.4369373575364116,
                0.8555626658645272
            ]
        },
        {
            "positions": [
                0.6451538086708928,
                -1.5907120695691677,
                -1.811757126463764,
                1.5774439133021771,
                -0.3862939295866026,
                0.7941062595649392
            ]
        },
        {
            "positions": [
                0.5710931857518629,
                -1.6648384890648444,
                -1.7713261821147506,
                1.4825305765700674,
                -0.33565050163679366,
                0.7326498532653513
            ]
        },
        {
            "positions": [
                0.4970325628328329,
                -1.7389649085605217,
                -1.730895237765737,
                1.3876172398379572,
                -0.28500707368698464,
                0.6711934469657631
            ]
        },
        {
            "positions": [
                0.422971939913803,
                -1.8130913280561987,
                -1.6904642934167233,
                1.292703903105847,
                -0.2343636457371756,
                0.6097370406661751
            ]
        },
        {
            "positions": [
                0.3489113169947733,
                -1.8872177475518754,
                -1.65003334906771,
                1.1977905663737372,
                -0.1837202177873667,
                0.5482806343665871
            ]
        },
        {
            "positions": [
                0.27485069407574314,
                -1.9613441670475524,
                -1.6096024047186965,
                1.102877229641627,
                -0.13307678983755766,
                0.486824228066999
            ]
        },
        {
            "positions": [
                0.2007900711567132,
                -2.035470586543229,
                -1.5691714603696831,
                1.0079638929095167,
                -0.08243336188774864,
                0.42536782176741084
            ]
        },
        {
            "positions": [
                0.1267294482376835,
                -2.109597006038906,
                -1.5287405160206697,
                0.9130505561774069,
                -0.03178993393793972,
                0.3639114154678229
            ]
        },
        {
            "positions": [
                0.05266882531865358,
                -2.183723425534583,
                -1.4883095716716561,
                0.8181372194452967,
                0.0188534940118692,
                0.302455009168235
            ]
        },
        {
            "positions": [
                -0.02139179760037635,
                -2.25784984503026,
                -1.4478786273226425,
                0.7232238827131865,
                0.06949692196167834,
                0.24099860286864683
            ]
        },
        {
            "positions": [
                -0.09545242051940628,
                -2.331976264525937,
                -1.407447682973629,
                0.6283105459810767,
                0.12014034991148725,
                0.1795421965690589
            ]
        },
        {
            "positions": [
                -0.1695130434384363,
                -2.406102684021614,
                -1.3670167386246157,
                0.5333972092489666,
                0.17078377786129617,
                0.11808579026947082
            ]
        }
    ]
}