{
    "goal": {
        "global_pose": {
            "orientation": {
                "w": -0.4816463035849501,
                "x": 0.5182115481033762,
                "y": 0.4908360881923453,
                "z": -0.5084816262002911
            },
            "position": {
                "x": -0.8240239810943604,
                "y": 0.19912469901144506,
                "z": 0.16403168439865112
            }
        },
        "name": "move_to_storage_D"
    },
    "id": "LBKPIECE_move_to_storage_D_93",
    "joint_names": [
        "shoulder_pan_joint",
        "shoulder_lift_joint",
        "elbow_joint",
        "wrist_1_joint",
        "wrist_2_joint",
        "wrist_3_joint"
    ],
    "metrics": {
        "cart_traj_len": 4.061533037695292,
        "distance_elbow_joint": 4.211781454564354,
        "distance_shoulder_lift_joint": 1.5490411341156547,
        "distance_shoulder_pan_joint": 2.831921957553748,
        "distance_wrist_1_joint": 2.7837452583340485,
        "distance_wrist_2_joint": 0.9569491066307354,
        "distance_wrist_3_joint": 3.1286682340887144,
        "smoothness": 0.17926631549523103,
        "time": 1.7395664640000001,
        "traj_len": 3.932188594826964,
        "weighted_distance": 5.045803997226752
    },
    "planner": "LBKPIECE",
    "start": {
        "state": {
            "elbow_joint": -2.384821997420982,
            "shoulder_lift_joint": -2.2788054674887404,
            "shoulder_pan_joint": -0.18546946417610016,
            "wrist_1_joint": 1.4845937964226739,
            "wrist_2_joint": 0.1789877726866377,
            "wrist_3_joint": 0.03710572555276528
        }
    },
    "waypoints": [
        {
            "positions": [
                -0.18546946417610016,
                -2.2788054674887404,
                -2.384821997420982,
                1.4845937964226739,
                0.1789877726866377,
                0.03710572555276528
            ]
        },
        {
            "positions": [
                -0.1478299211566762,
                -2.218918377761036,
                -2.3682175354360075,
                1.46110901983734,
                0.17184464279694653,
                0.008516751927971652
            ]
        },
        {
            "positions": [
                -0.06591848028890607,
                -2.1793129029797793,
                -2.274985767171819,
                1.3874934424183667,
                0.1988676445111638,
                -0.06322048858521287
            ]
        },
        {
            "positions": [
                0.01599296057886407,
                -2.139707428198523,
                -2.18175399890763,
                1.3138778649993932,
                0.22589064622538102,
                -0.13495772909839737
            ]
        },
        {
            "positions": [
                0.09790440144663423,
                -2.100101953417266,
                -2.0885222306434414,
                1.24026228758042,
                0.2529136479395983,
                -0.20669496961158193
            ]
        },
        {
            "positions": [
                0.17981584231440434,
                -2.0604964786360096,
                -1.9952904623792527,
                1.1666467101614466,
                0.27993664965381554,
                -0.27843221012476643
            ]
        },
        {
            "positions": [
                0.2617272831821745,
                -2.0208910038547527,
                -1.902058694115064,
                1.0930311327424733,
                0.3069596513680328,
                -0.350169450637951
            ]
        },
        {
            "positions": [
                0.34363872404994467,
                -1.981285529073496,
                -1.8088269258508751,
                1.0194155553235,
                0.33398265308225006,
                -0.42190669115113555
            ]
        },
        {
            "positions": [
                0.42555016491771475,
                -1.9416800542922394,
                -1.7155951575866863,
                0.9457999779045266,
                0.3610056547964673,
                -0.49364393166431997
            ]
        },
        {
            "positions": [
                0.5074616057854848,
                -1.9020745795109828,
                -1.6223633893224978,
                0.8721844004855532,
                0.3880286565106845,
                -0.5653811721775045
            ]
        },
        {
            "positions": [
                0.589373046653255,
                -1.8624691047297262,
                -1.5291316210583088,
                0.79856882306658,
                0.41505165822490186,
                -0.6371184126906891
            ]
        },
        {
            "positions": [
                0.6712844875210251,
                -1.8228636299484695,
                -1.4358998527941202,
                0.7249532456476065,
                0.4420746599391191,
                -0.7088556532038737
            ]
        },
        {
            "positions": [
                0.7531959283887952,
                -1.7832581551672129,
                -1.3426680845299315,
                0.6513376682286331,
                0.46909766165333633,
                -0.7805928937170582
            ]
        },
        {
            "positions": [
                0.8351073692565656,
                -1.7436526803859562,
                -1.2494363162657427,
                0.5777220908096599,
                0.49612066336755356,
                -0.8523301342302427
            ]
        },
        {
            "positions": [
                0.9170188101243355,
                -1.7040472056046996,
                -1.1562045480015541,
                0.5041065133906866,
                0.5231436650817708,
                -0.9240673747434272
            ]
        },
        {
            "positions": [
                0.9989302509921056,
                -1.664441730823443,
                -1.0629727797373654,
                0.4304909359717133,
                0.550166666795988,
                -0.9958046152566116
            ]
        },
        {
            "positions": [
                1.0808416918598758,
                -1.6248362560421863,
                -0.9697410114731766,
                0.35687535855274,
                0.5771896685102054,
                -1.0675418557697962
            ]
        },
        {
            "positions": [
                1.162753132727646,
                -1.5852307812609294,
                -0.8765092432089878,
                0.2832597811337665,
                0.6042126702244226,
                -1.1392790962829806
            ]
        },
        {
            "positions": [
                1.244664573595416,
                -1.545625306479673,
                -0.783277474944799,
                0.2096442037147932,
                0.6312356719386398,
                -1.2110163367961653
            ]
        },
        {
            "positions": [
                1.3265760144631862,
                -1.5060198316984161,
                -0.6900457066806103,
                0.1360286262958199,
                0.6582586736528572,
                -1.28275357730935
            ]
        },
        {
            "positions": [
                1.4084874553309563,
                -1.4664143569171595,
                -0.5968139384164215,
                0.0624130488768464,
                0.6852816753670744,
                -1.3544908178225343
            ]
        },
        {
            "positions": [
                1.4903988961987265,
                -1.4268088821359028,
                -0.5035821701522327,
                -0.011202528542126888,
                0.7123046770812916,
                -1.426228058335719
            ]
        },
        {
            "positions": [
                1.5723103370664966,
                -1.3872034073546462,
                -0.41035040188804395,
                -0.08481810596110018,
                0.739327678795509,
                -1.4979652988489034
            ]
        },
        {
            "positions": [
                1.6542217779342667,
                -1.3475979325733896,
                -0.3171186336238554,
                -0.1584336833800737,
                0.7663506805097262,
                -1.569702539362088
            ]
        },
        {
            "positions": [
                1.7361332188020369,
                -1.3079924577921327,
                -0.2238868653596664,
                -0.23204926079904697,
                0.7933736822239434,
                -1.6414397798752725
            ]
        },
        {
            "positions": [
                1.8180446596698072,
                -1.2683869830108763,
                -0.13065509709547785,
                -0.30566483821802026,
                0.8203966839381607,
                -1.713177020388457
            ]
        },
        {
            "positions": [
                1.8999561005375771,
                -1.2287815082296194,
                -0.03742332883128885,
                -0.37928041563699355,
                0.847419685652378,
                -1.7849142609016415
            ]
        },
        {
            "positions": [
                1.9818675414053473,
                -1.189176033448363,
                0.05580843943289926,
                -0.45289599305596684,
                0.8744426873665951,
                -1.856651501414826
            ]
        },
        {
            "positions": [
                2.0637789822731176,
                -1.1495705586671063,
                0.14904020769708826,
                -0.5265115704749401,
                0.9014656890808124,
                -1.9283887419280104
            ]
        },
        {
            "positions": [
                2.1456904231408878,
                -1.1099650838858497,
                0.2422719759612768,
                -0.6001271478939134,
                0.9284886907950296,
                -2.0001259824411948
            ]
        },
        {
            "positions": [
                2.227601864008658,
                -1.070359609104593,
                0.3355037442254658,
                -0.6737427253128867,
                0.955511692509247,
                -2.0718632229543794
            ]
        },
        {
            "positions": [
                2.309513304876428,
                -1.0307541343233364,
                0.42873551248965436,
                -0.74735830273186,
                0.9825346942234642,
                -2.143600463467564
            ]
        },
        {
            "positions": [
                2.391424745744198,
                -0.9911486595420795,
                0.5219672807538434,
                -0.8209738801508337,
                1.0095576959376813,
                -2.2153377039807487
            ]
        },
        {
            "positions": [
                2.4733361866119683,
                -0.9515431847608229,
                0.6151990490180319,
                -0.894589457569807,
                1.0365806976518985,
                -2.287074944493933
            ]
        },
        {
            "positions": [
                2.5552476274797384,
                -0.9119377099795662,
                0.7084308172822209,
                -0.9682050349887803,
                1.063603699366116,
                -2.3588121850071175
            ]
        },
        {
            "positions": [
                2.6371590683475086,
                -0.8723322351983096,
                0.8016625855464093,
                -1.0418206124077536,
                1.0906267010803332,
                -2.430549425520302
            ]
        },
        {
            "positions": [
                2.6356101641758185,
                -0.8960935521691802,
                0.9725453974792365,
                -0.9989321374904834,
                1.085456048004057,
                -2.5407182726895767
            ]
        },
        {
            "positions": [
                2.634061260004129,
                -0.9198548691400509,
                1.1434282094120638,
                -0.9560436625732133,
                1.0802853949277806,
                -2.6508871198588513
            ]
        },
        {
            "positions": [
                2.632512355832439,
                -0.9436161861109215,
                1.3143110213448908,
                -0.9131551876559432,
                1.0751147418515044,
                -2.761055967028126
            ]
        },
        {
            "positions": [
                2.6309634516607487,
                -0.967377503081792,
                1.4851938332777181,
                -0.870266712738673,
                1.0699440887752283,
                -2.8712248141974
            ]
        },
        {
            "positions": [
                2.629414547489059,
                -0.9911388200526627,
                1.656076645210545,
                -0.8273782378214027,
                1.064773435698952,
                -2.9813936613666745
            ]
        },
        {
            "positions": [
                2.627865643317369,
                -1.0149001370235333,
                1.8269594571433723,
                -0.7844897629041326,
                1.0596027826226757,
                -3.091562508535949
            ]
        }
    ]
}