{
    "goal": {
        "global_pose": {
            "orientation": {
                "w": -0.4816463035849501,
                "x": 0.5182115481033762,
                "y": 0.4908360881923453,
                "z": -0.5084816262002911
            },
            "position": {
                "x": -0.8240239810943604,
                "y": -0.300875300988555,
                "z": 0.16403168439865112
            }
        },
        "name": "move_to_storage_C"
    },
    "id": "LBKPIECE_move_to_storage_C_68",
    "joint_names": [
        "shoulder_pan_joint",
        "shoulder_lift_joint",
        "elbow_joint",
        "wrist_1_joint",
        "wrist_2_joint",
        "wrist_3_joint"
    ],
    "metrics": {
        "cart_traj_len": 0.5766807487341602,
        "distance_elbow_joint": 0.2572792548233329,
        "distance_shoulder_lift_joint": 0.18939982519305654,
        "distance_shoulder_pan_joint": 0.4958332256490374,
        "distance_wrist_1_joint": 0.07972386221100514,
        "distance_wrist_2_joint": 1.0623679648590194,
        "distance_wrist_3_joint": 0.05710860401377005,
        "smoothness": 2.5376526478085547e-16,
        "time": 2.800648948,
        "traj_len": 1.4634591681182025,
        "weighted_distance": 1.8433723909852795
    },
    "planner": "LBKPIECE",
    "start": {
        "state": {
            "elbow_joint": 2.010868315001653,
            "shoulder_lift_joint": -1.1634956873357014,
            "shoulder_pan_joint": -2.4736205022346103,
            "wrist_1_joint": -0.8367026794713948,
            "wrist_2_joint": 0.6746043897044093,
            "wrist_3_joint": 3.1335220948105738
        }
    },
    "waypoints": [
        {
            "positions": [
                -2.4736205022346103,
                -1.1634956873357014,
                2.010868315001653,
                -0.8367026794713948,
                0.6746043897044093,
                3.1335220948105738
            ]
        },
        {
            "positions": [
                -2.5562593731761165,
                -1.1319290498035253,
                1.9679884391977642,
                -0.8234153691028939,
                0.8516657171809126,
                3.1430401954795353
            ]
        },
        {
            "positions": [
                -2.6388982441176227,
                -1.1003624122713491,
                1.9251085633938754,
                -0.8101280587343931,
                1.0287270446574157,
                3.1525582961484973
            ]
        },
        {
            "positions": [
                -2.721537115059129,
                -1.0687957747391732,
                1.8822286875899867,
                -0.7968407483658921,
                1.2057883721339189,
                3.162076396817459
            ]
        },
        {
            "positions": [
                -2.8041759860006352,
                -1.037229137206997,
                1.8393488117860979,
                -0.7835534379973913,
                1.3828496996104223,
                3.1715944974864203
            ]
        },
        {
            "positions": [
                -2.8868148569421415,
                -1.005662499674821,
                1.796468935982209,
                -0.7702661276288905,
                1.5599110270869256,
                3.1811125981553823
            ]
        },
        {
            "positions": [
                -2.9694537278836477,
                -0.9740958621426449,
                1.7535890601783202,
                -0.7569788172603896,
                1.7369723545634286,
                3.190630698824344
            ]
        }
    ]
}