{
    "goal": {
        "global_pose": {
            "orientation": {
                "w": 0.7047431493862688,
                "x": -0.7094548369677653,
                "y": 0.0024358444001904,
                "z": -0.0022348060817251984
            },
            "position": {
                "x": -0.39052492380142206,
                "y": 0.3671506643295288,
                "z": 0.19426114857196808
            }
        },
        "name": "move_to_magneteinheit_D"
    },
    "id": "LBKPIECE_move_to_magneteinheit_D_108",
    "joint_names": [
        "shoulder_pan_joint",
        "shoulder_lift_joint",
        "elbow_joint",
        "wrist_1_joint",
        "wrist_2_joint",
        "wrist_3_joint"
    ],
    "metrics": {
        "cart_traj_len": 4.616240087770613,
        "distance_elbow_joint": 3.1460346308371565,
        "distance_shoulder_lift_joint": 1.6262173792473291,
        "distance_shoulder_pan_joint": 3.81035830561322,
        "distance_wrist_1_joint": 2.1763574450547662,
        "distance_wrist_2_joint": 1.0663469625802395,
        "distance_wrist_3_joint": 3.0580940894571955,
        "smoothness": 0.4155599126887615,
        "time": 1.865525364,
        "traj_len": 3.857902125869694,
        "weighted_distance": 4.92364716438326
    },
    "planner": "LBKPIECE",
    "start": {
        "state": {
            "elbow_joint": 0.7495348899011973,
            "shoulder_lift_joint": -0.6476975780737697,
            "shoulder_pan_joint": -2.711696901376276,
            "wrist_1_joint": -0.07506478080974305,
            "wrist_2_joint": 0.4329665971545858,
            "wrist_3_joint": 3.1361499051832524
        }
    },
    "waypoints": [
        {
            "positions": [
                -2.711696901376276,
                -0.6476975780737697,
                0.7495348899011973,
                -0.07506478080974305,
                0.4329665971545858,
                3.1361499051832524
            ]
        },
        {
            "positions": [
                -2.720624180144113,
                -0.6902636722475655,
                0.7158292427274262,
                -0.07429127902381319,
                0.43944300044525464,
                3.084722573583592
            ]
        },
        {
            "positions": [
                -2.734015098295868,
                -0.7541128135082592,
                0.6652707719667696,
                -0.0731310263449184,
                0.4491576053812579,
                3.007581576184101
            ]
        },
        {
            "positions": [
                -2.7474060164476235,
                -0.817961954768953,
                0.6147123012061131,
                -0.07197077366602361,
                0.4588722103172611,
                2.93044057878461
            ]
        },
        {
            "positions": [
                -2.6451840213905737,
                -0.8614603199584293,
                0.5279559112832092,
                -0.012494783043638984,
                0.47112361501458383,
                2.8435884141182783
            ]
        },
        {
            "positions": [
                -2.542962026333524,
                -0.9049586851479057,
                0.44119952136030527,
                0.046981207578745646,
                0.48337501971190655,
                2.7567362494519467
            ]
        },
        {
            "positions": [
                -2.4407400312764738,
                -0.9484570503373821,
                0.35444313143740136,
                0.10645719820113028,
                0.49562642440922927,
                2.6698840847856156
            ]
        },
        {
            "positions": [
                -2.338518036219424,
                -0.9919554155268584,
                0.26768674151449745,
                0.1659331888235149,
                0.507877829106552,
                2.583031920119284
            ]
        },
        {
            "positions": [
                -2.2362960411623742,
                -1.0354537807163349,
                0.1809303515915936,
                0.22540917944589955,
                0.5201292338038748,
                2.4961797554529523
            ]
        },
        {
            "positions": [
                -2.134074046105324,
                -1.0789521459058111,
                0.09417396166868963,
                0.2848851700682842,
                0.5323806385011974,
                2.4093275907866207
            ]
        },
        {
            "positions": [
                -2.0318520510482743,
                -1.1224505110952876,
                0.007417571745785723,
                0.3443611606906688,
                0.5446320431985202,
                2.322475426120289
            ]
        },
        {
            "positions": [
                -1.9296300559912245,
                -1.165948876284764,
                -0.07933881817711819,
                0.4038371513130534,
                0.5568834478958429,
                2.2356232614539575
            ]
        },
        {
            "positions": [
                -1.8274080609341745,
                -1.2094472414742403,
                -0.1660952081000221,
                0.4633131419354381,
                0.5691348525931657,
                2.148771096787626
            ]
        },
        {
            "positions": [
                -1.7251860658771248,
                -1.2529456066637168,
                -0.2528515980229259,
                0.5227891325578227,
                0.5813862572904884,
                2.0619189321212947
            ]
        },
        {
            "positions": [
                -1.6229640708200748,
                -1.296443971853193,
                -0.3396079879458299,
                0.5822651231802074,
                0.5936376619878111,
                1.9750667674549631
            ]
        },
        {
            "positions": [
                -1.520742075763025,
                -1.3399423370426695,
                -0.4263643778687338,
                0.6417411138025919,
                0.6058890666851338,
                1.8882146027886317
            ]
        },
        {
            "positions": [
                -1.418520080705975,
                -1.383440702232146,
                -0.5131207677916376,
                0.7012171044249766,
                0.6181404713824565,
                1.8013624381223001
            ]
        },
        {
            "positions": [
                -1.3162980856489253,
                -1.4269390674216222,
                -0.5998771577145416,
                0.7606930950473612,
                0.6303918760797793,
                1.7145102734559687
            ]
        },
        {
            "positions": [
                -1.2140760905918753,
                -1.4704374326110987,
                -0.6866335476374454,
                0.8201690856697459,
                0.642643280777102,
                1.6276581087896371
            ]
        },
        {
            "positions": [
                -1.1118540955348255,
                -1.513935797800575,
                -0.7733899375603495,
                0.8796450762921304,
                0.6548946854744248,
                1.5408059441233055
            ]
        },
        {
            "positions": [
                -1.0096321004777757,
                -1.5574341629900514,
                -0.8601463274832533,
                0.9391210669145151,
                0.6671460901717474,
                1.4539537794569741
            ]
        },
        {
            "positions": [
                -0.9074101054207255,
                -1.600932528179528,
                -0.9469027174061573,
                0.9985970575368999,
                0.6793974948690702,
                1.3671016147906423
            ]
        },
        {
            "positions": [
                -0.8051881103636758,
                -1.6444308933690042,
                -1.033659107329061,
                1.0580730481592846,
                0.691648899566393,
                1.280249450124311
            ]
        },
        {
            "positions": [
                -0.702966115306626,
                -1.6879292585584804,
                -1.1204154972519649,
                1.1175490387816691,
                0.7039003042637156,
                1.1933972854579795
            ]
        },
        {
            "positions": [
                -0.6007441202495762,
                -1.731427623747957,
                -1.207171887174869,
                1.1770250294040536,
                0.7161517089610383,
                1.1065451207916481
            ]
        },
        {
            "positions": [
                -0.49852212519252603,
                -1.7749259889374334,
                -1.293928277097773,
                1.2365010200264384,
                0.7284031136583611,
                1.0196929561253163
            ]
        },
        {
            "positions": [
                -0.39630013013547627,
                -1.8184243541269096,
                -1.3806846670206767,
                1.295977010648823,
                0.7406545183556839,
                0.9328407914589849
            ]
        },
        {
            "positions": [
                -0.2940781350784265,
                -1.861922719316386,
                -1.4674410569435807,
                1.3554530012712076,
                0.7529059230530065,
                0.8459886267926535
            ]
        },
        {
            "positions": [
                -0.19185614002137674,
                -1.9054210845058623,
                -1.5541974468664843,
                1.4149289918935921,
                0.7651573277503292,
                0.7591364621263219
            ]
        },
        {
            "positions": [
                -0.08963414496432653,
                -1.9489194496953388,
                -1.6409538367893883,
                1.474404982515977,
                0.777408732447652,
                0.6722842974599903
            ]
        },
        {
            "positions": [
                0.01258785009272323,
                -1.9924178148848153,
                -1.7277102267122924,
                1.5338809731383616,
                0.7896601371449747,
                0.5854321327936587
            ]
        },
        {
            "positions": [
                0.114809845149773,
                -2.0359161800742918,
                -1.8144666166351964,
                1.593356963760746,
                0.8019115418422975,
                0.4985799681273275
            ]
        },
        {
            "positions": [
                0.21703184020682276,
                -2.0794145452637682,
                -1.9012230065581,
                1.6528329543831306,
                0.8141629465396201,
                0.4117278034609959
            ]
        },
        {
            "positions": [
                0.31925383526387296,
                -2.1229129104532447,
                -1.987979396481004,
                1.7123089450055156,
                0.8264143512369428,
                0.3248756387946643
            ]
        },
        {
            "positions": [
                0.42147583032092273,
                -2.1664112756427207,
                -2.0747357864039078,
                1.7717849356279,
                0.8386657559342656,
                0.2380234741283327
            ]
        },
        {
            "positions": [
                0.32051460635870166,
                -2.1843285559224506,
                -2.1283631121592497,
                1.7168669808583796,
                0.7285577886341723,
                0.2113621977279532
            ]
        },
        {
            "positions": [
                0.21955338239648053,
                -2.20224583620218,
                -2.1819904379145916,
                1.661949026088859,
                0.618449821334079,
                0.1847009213275737
            ]
        },
        {
            "positions": [
                0.11859215843425941,
                -2.22016311648191,
                -2.235617763669933,
                1.6070310713193385,
                0.5083418540339857,
                0.15803964492719422
            ]
        },
        {
            "positions": [
                0.01763093447203834,
                -2.2380803967616396,
                -2.289245089425275,
                1.552113116549818,
                0.3982338867338925,
                0.13137836852681473
            ]
        },
        {
            "positions": [
                -0.08333028949018284,
                -2.255997677041369,
                -2.342872415180617,
                1.4971951617802974,
                0.28812591943379917,
                0.10471709212643524
            ]
        },
        {
            "positions": [
                -0.18429151345240385,
                -2.273914957321099,
                -2.3964997409359587,
                1.442277207010777,
                0.1780179521337059,
                0.07805581572605573
            ]
        }
    ]
}