{
    "goal": {
        "global_pose": {
            "orientation": {
                "w": 0.5084816262002911,
                "x": -0.4908360881923452,
                "y": 0.5182115481033761,
                "z": -0.48164630358495003
            },
            "position": {
                "x": 0.5540239810943604,
                "y": -0.46912469901144505,
                "z": 0.16403168439865112
            }
        },
        "name": "move_to_storage_B"
    },
    "id": "LBKPIECE_move_to_storage_B_142",
    "joint_names": [
        "shoulder_pan_joint",
        "shoulder_lift_joint",
        "elbow_joint",
        "wrist_1_joint",
        "wrist_2_joint",
        "wrist_3_joint"
    ],
    "metrics": {
        "cart_traj_len": 9.650581169877382,
        "distance_elbow_joint": 8.31746026586245,
        "distance_shoulder_lift_joint": 1.5073497943732304,
        "distance_shoulder_pan_joint": 8.19354207471948,
        "distance_wrist_1_joint": 5.2145842894446,
        "distance_wrist_2_joint": 4.875301912151224,
        "distance_wrist_3_joint": 5.167189155118046,
        "smoothness": 0.287327088883953,
        "time": 4.971342183,
        "traj_len": 5.768485719118064,
        "weighted_distance": 7.328007369230803
    },
    "planner": "LBKPIECE",
    "start": {
        "state": {
            "elbow_joint": 1.6649325706314817,
            "shoulder_lift_joint": -0.6616388048112454,
            "shoulder_pan_joint": -0.9139837860083814,
            "wrist_1_joint": 2.146757197745094,
            "wrist_2_joint": -2.234196043158733,
            "wrist_3_joint": 0.005471033829999897
        }
    },
    "waypoints": [
        {
            "positions": [
                -0.9139837860083814,
                -0.6616388048112454,
                1.6649325706314817,
                2.146757197745094,
                -2.234196043158733,
                0.005471033829999897
            ]
        },
        {
            "positions": [
                -0.8268954816374652,
                -0.6830114749510499,
                1.5783146274090716,
                2.0576418658798388,
                -2.1517862308547437,
                -0.016458496004369605
            ]
        },
        {
            "positions": [
                -0.7398071772665489,
                -0.7043841450908543,
                1.4916966841866612,
                1.9685265340145834,
                -2.0693764185507546,
                -0.03838802583873911
            ]
        },
        {
            "positions": [
                -0.6527188728956328,
                -0.7257568152306588,
                1.4050787409642511,
                1.879411202149328,
                -1.9869666062467657,
                -0.06031755567310861
            ]
        },
        {
            "positions": [
                -0.5656305685247165,
                -0.7471294853704632,
                1.318460797741841,
                1.7902958702840728,
                -1.9045567939427765,
                -0.08224708550747811
            ]
        },
        {
            "positions": [
                -0.4785422641538003,
                -0.7685021555102677,
                1.2318428545194307,
                1.7011805384188174,
                -1.8221469816387874,
                -0.10417661534184762
            ]
        },
        {
            "positions": [
                -0.3914539597828841,
                -0.7898748256500722,
                1.1452249112970203,
                1.6120652065535621,
                -1.7397371693347985,
                -0.12610614517621713
            ]
        },
        {
            "positions": [
                -0.3043656554119678,
                -0.8112474957898766,
                1.0586069680746102,
                1.5229498746883068,
                -1.6573273570308094,
                -0.14803567501058665
            ]
        },
        {
            "positions": [
                -0.21727735104105161,
                -0.832620165929681,
                0.9719890248522001,
                1.4338345428230517,
                -1.5749175447268202,
                -0.16996520484495614
            ]
        },
        {
            "positions": [
                -0.13018904667013542,
                -0.8539928360694855,
                0.8853710816297898,
                1.3447192109577961,
                -1.492507732422831,
                -0.19189473467932566
            ]
        },
        {
            "positions": [
                -0.04310074229921923,
                -0.87536550620929,
                0.7987531384073796,
                1.255603879092541,
                -1.410097920118842,
                -0.21382426451369516
            ]
        },
        {
            "positions": [
                0.04398756207169707,
                -0.8967381763490945,
                0.7121351951849694,
                1.1664885472272857,
                -1.3276881078148528,
                -0.23575379434806468
            ]
        },
        {
            "positions": [
                0.13107586644261315,
                -0.918110846488899,
                0.6255172519625591,
                1.0773732153620303,
                -1.245278295510864,
                -0.2576833241824341
            ]
        },
        {
            "positions": [
                0.21816417081352946,
                -0.9394835166287034,
                0.538899308740149,
                0.9882578834967752,
                -1.162868483206875,
                -0.27961285401680364
            ]
        },
        {
            "positions": [
                0.30525247518444576,
                -0.9608561867685079,
                0.4522813655177387,
                0.8991425516315197,
                -1.0804586709028856,
                -0.30154238385117316
            ]
        },
        {
            "positions": [
                0.39234077955536184,
                -0.9822288569083124,
                0.36566342229532856,
                0.8100272197662644,
                -0.9980488585988967,
                -0.3234719136855427
            ]
        },
        {
            "positions": [
                0.47942908392627814,
                -1.003601527048117,
                0.27904547907291843,
                0.7209118879010092,
                -0.9156390462949076,
                -0.34540144351991214
            ]
        },
        {
            "positions": [
                0.5665173882971942,
                -1.0249741971879214,
                0.1924275358505083,
                0.6317965560357539,
                -0.8332292339909186,
                -0.3673309733542816
            ]
        },
        {
            "positions": [
                0.6536056926681105,
                -1.0463468673277259,
                0.10580959262809797,
                0.5426812241704984,
                -0.7508194216869293,
                -0.3892605031886512
            ]
        },
        {
            "positions": [
                0.7406939970390268,
                -1.0677195374675301,
                0.01919164940568785,
                0.45356589230524325,
                -0.6684096093829404,
                -0.41119003302302065
            ]
        },
        {
            "positions": [
                0.8277823014099429,
                -1.0890922076073346,
                -0.0674262938167225,
                0.3644505604399879,
                -0.5859997970789512,
                -0.4331195628573902
            ]
        },
        {
            "positions": [
                0.914870605780859,
                -1.110464877747139,
                -0.15404423703913261,
                0.2753352285747326,
                -0.5035899847749623,
                -0.45504909269175964
            ]
        },
        {
            "positions": [
                1.0019589101517754,
                -1.1318375478869436,
                -0.24066218026154296,
                0.18621989670947725,
                -0.42118017247097295,
                -0.4769786225261292
            ]
        },
        {
            "positions": [
                1.0890472145226915,
                -1.153210218026748,
                -0.3272801234839531,
                0.09710456484422192,
                -0.33877036016698403,
                -0.4989081523604987
            ]
        },
        {
            "positions": [
                1.1761355188936076,
                -1.1745828881665525,
                -0.4138980667063634,
                0.007989232978966587,
                -0.2563605478629951,
                -0.5208376821948681
            ]
        },
        {
            "positions": [
                1.2632238232645236,
                -1.1959555583063568,
                -0.5005160099287733,
                -0.08112609888628874,
                -0.1739507355590062,
                -0.5427672120292376
            ]
        },
        {
            "positions": [
                1.3503121276354402,
                -1.2173282284461613,
                -0.5871339531511837,
                -0.17024143075154363,
                -0.09154092325501706,
                -0.5646967418636072
            ]
        },
        {
            "positions": [
                1.4374004320063567,
                -1.238700898585966,
                -0.673751896373594,
                -0.2593567626167994,
                -0.009131110951027477,
                -0.5866262716979768
            ]
        },
        {
            "positions": [
                1.5244887363772728,
                -1.2600735687257703,
                -0.7603698395960043,
                -0.34847209448205474,
                0.07327870135296166,
                -0.6085558015323462
            ]
        },
        {
            "positions": [
                1.6115770407481889,
                -1.2814462388655747,
                -0.8469877828184142,
                -0.43758742634731007,
                0.15568851365695036,
                -0.6304853313667157
            ]
        },
        {
            "positions": [
                1.698665345119105,
                -1.3028189090053792,
                -0.9336057260408246,
                -0.5267027582125654,
                0.2380983259609395,
                -0.6524148612010853
            ]
        },
        {
            "positions": [
                1.785753649490021,
                -1.3241915791451837,
                -1.020223669263235,
                -0.6158180900778207,
                0.32050813826492863,
                -0.6743443910354547
            ]
        },
        {
            "positions": [
                1.8728419538609375,
                -1.3455642492849882,
                -1.1068416124856448,
                -0.7049334219430756,
                0.40291795056891777,
                -0.6962739208698242
            ]
        },
        {
            "positions": [
                1.9599302582318536,
                -1.3669369194247927,
                -1.1934595557080552,
                -0.794048753808331,
                0.48532776287290647,
                -0.7182034507041937
            ]
        },
        {
            "positions": [
                2.0470185626027697,
                -1.3883095895645972,
                -1.280077498930465,
                -0.8831640856735863,
                0.5677375751768956,
                -0.7401329805385631
            ]
        },
        {
            "positions": [
                2.1341068669736862,
                -1.4096822597044016,
                -1.3666954421528759,
                -0.9722794175388421,
                0.6501473874808852,
                -0.7620625103729328
            ]
        },
        {
            "positions": [
                2.2211951713446023,
                -1.4310549298442061,
                -1.4533133853752858,
                -1.0613947494040974,
                0.7325571997848743,
                -0.7839920402073023
            ]
        },
        {
            "positions": [
                2.3082834757155184,
                -1.4524275999840106,
                -1.539931328597696,
                -1.1505100812693527,
                0.814967012088863,
                -0.8059215700416718
            ]
        },
        {
            "positions": [
                2.395371780086435,
                -1.473800270123815,
                -1.626549271820106,
                -1.2396254131346076,
                0.8973768243928522,
                -0.8278510998760412
            ]
        },
        {
            "positions": [
                2.482460084457351,
                -1.4951729402636196,
                -1.7131672150425163,
                -1.328740744999863,
                0.9797866366968413,
                -0.8497806297104107
            ]
        },
        {
            "positions": [
                2.569548388828267,
                -1.516545610403424,
                -1.7997851582649267,
                -1.4178560768651183,
                1.0621964490008304,
                -0.8717101595447803
            ]
        },
        {
            "positions": [
                2.656636693199183,
                -1.5379182805432285,
                -1.8864031014873366,
                -1.5069714087303736,
                1.1446062613048191,
                -0.8936396893791497
            ]
        },
        {
            "positions": [
                2.7437249975700992,
                -1.5592909506830328,
                -1.973021044709747,
                -1.596086740595629,
                1.2270160736088083,
                -0.9155692192135192
            ]
        },
        {
            "positions": [
                2.8308133019410158,
                -1.5806636208228375,
                -2.059638987932157,
                -1.6852020724608847,
                1.3094258859127978,
                -0.9374987490478888
            ]
        },
        {
            "positions": [
                2.9179016063119323,
                -1.602036290962642,
                -2.146256931154568,
                -1.7743174043261396,
                1.391835698216787,
                -0.9594282788822583
            ]
        },
        {
            "positions": [
                3.0049899106828484,
                -1.6234089611024463,
                -2.2328748743769777,
                -1.8634327361913954,
                1.4742455105207757,
                -0.9813578087166278
            ]
        },
        {
            "positions": [
                3.092078215053765,
                -1.6447816312422507,
                -2.319492817599388,
                -1.9525480680566503,
                1.5566553228247648,
                -1.0032873385509973
            ]
        },
        {
            "positions": [
                2.9847069311138332,
                -1.6313404269360399,
                -2.2083893591985784,
                -1.9239511700145255,
                1.528848898564054,
                -0.8966609082244063
            ]
        },
        {
            "positions": [
                2.877335647173902,
                -1.617899222629829,
                -2.097285900797768,
                -1.8953542719724006,
                1.5010424743033433,
                -0.7900344778978152
            ]
        },
        {
            "positions": [
                2.7699643632339703,
                -1.6044580183236181,
                -1.9861824423969585,
                -1.8667573739302759,
                1.4732360500426325,
                -0.6834080475712241
            ]
        },
        {
            "positions": [
                2.662593079294039,
                -1.5910168140174072,
                -1.8750789839961488,
                -1.838160475888151,
                1.4454296257819217,
                -0.5767816172446332
            ]
        },
        {
            "positions": [
                2.5552217953541074,
                -1.5775756097111961,
                -1.763975525595339,
                -1.8095635778460262,
                1.4176232015212111,
                -0.47015518691804215
            ]
        },
        {
            "positions": [
                2.447850511414176,
                -1.5641344054049853,
                -1.6528720671945292,
                -1.7809666798039012,
                1.3898167772605003,
                -0.363528756591451
            ]
        },
        {
            "positions": [
                2.3404792274742445,
                -1.5506932010987744,
                -1.5417686087937192,
                -1.7523697817617765,
                1.3620103529997896,
                -0.25690232626486
            ]
        },
        {
            "positions": [
                2.2331079435343133,
                -1.5372519967925635,
                -1.4306651503929095,
                -1.7237728837196515,
                1.3342039287390788,
                -0.15027589593826907
            ]
        },
        {
            "positions": [
                2.1257366595943816,
                -1.5238107924863526,
                -1.3195616919920996,
                -1.6951759856775268,
                1.306397504478368,
                -0.04364946561167793
            ]
        },
        {
            "positions": [
                2.0183653756544504,
                -1.5103695881801418,
                -1.20845823359129,
                -1.666579087635402,
                1.2785910802176572,
                0.06297696471491299
            ]
        },
        {
            "positions": [
                1.9109940917145187,
                -1.496928383873931,
                -1.09735477519048,
                -1.6379821895932771,
                1.2507846559569464,
                0.16960339504150412
            ]
        },
        {
            "positions": [
                1.8036228077745873,
                -1.48348717956772,
                -0.9862513167896703,
                -1.6093852915511524,
                1.2229782316962357,
                0.27622982536809526
            ]
        },
        {
            "positions": [
                1.6962515238346558,
                -1.4700459752615092,
                -0.8751478583888606,
                -1.5807883935090277,
                1.1951718074355249,
                0.3828562556946862
            ]
        },
        {
            "positions": [
                1.5888802398947244,
                -1.4566047709552983,
                -0.7640443999880506,
                -1.5521914954669027,
                1.1673653831748143,
                0.4894826860212773
            ]
        },
        {
            "positions": [
                1.4815089559547927,
                -1.4431635666490872,
                -0.6529409415872407,
                -1.5235945974247778,
                1.1395589589141033,
                0.5961091163478682
            ]
        },
        {
            "positions": [
                1.3741376720148615,
                -1.4297223623428763,
                -0.541837483186431,
                -1.494997699382653,
                1.1117525346533927,
                0.7027355466744591
            ]
        },
        {
            "positions": [
                1.26676638807493,
                -1.4162811580366654,
                -0.43073402478562106,
                -1.4664008013405283,
                1.083946110392682,
                0.8093619770010503
            ]
        },
        {
            "positions": [
                1.1593951041349984,
                -1.4028399537304546,
                -0.31963056638481113,
                -1.4378039032984034,
                1.0561396861319712,
                0.9159884073276414
            ]
        },
        {
            "positions": [
                1.0520238201950671,
                -1.3893987494242437,
                -0.20852710798400143,
                -1.4092070052562786,
                1.0283332618712604,
                1.0226148376542326
            ]
        },
        {
            "positions": [
                0.9446525362551359,
                -1.3759575451180328,
                -0.09742364958319172,
                -1.380610107214154,
                1.0005268376105496,
                1.1292412679808232
            ]
        },
        {
            "positions": [
                0.8372812523152042,
                -1.362516340811822,
                0.013679808817617989,
                -1.352013209172029,
                0.9727204133498389,
                1.2358676983074144
            ]
        },
        {
            "positions": [
                0.7299099683752726,
                -1.349075136505611,
                0.12478326721842814,
                -1.323416311129904,
                0.9449139890891282,
                1.3424941286340055
            ]
        },
        {
            "positions": [
                0.6225386844353409,
                -1.3356339321994,
                0.23588672561923785,
                -1.2948194130877793,
                0.9171075648284174,
                1.4491205589605967
            ]
        },
        {
            "positions": [
                0.5151674004954097,
                -1.322192727893189,
                0.34699018402004755,
                -1.2662225150456545,
                0.8893011405677066,
                1.5557469892871878
            ]
        },
        {
            "positions": [
                0.407796116555478,
                -1.3087515235869782,
                0.4580936424208577,
                -1.2376256170035296,
                0.8614947163069958,
                1.662373419613779
            ]
        },
        {
            "positions": [
                0.30042483261554676,
                -1.2953103192807673,
                0.569197100821667,
                -1.2090287189614048,
                0.8336882920462851,
                1.7689998499403696
            ]
        },
        {
            "positions": [
                0.19305354867561553,
                -1.2818691149745565,
                0.6803005592224771,
                -1.1804318209192801,
                0.8058818677855744,
                1.8756262802669608
            ]
        },
        {
            "positions": [
                0.08568226473568386,
                -1.2684279106683456,
                0.7914040176232868,
                -1.1518349228771552,
                0.7780754435248636,
                1.982252710593552
            ]
        },
        {
            "positions": [
                -0.021689019204247817,
                -1.2549867063621347,
                0.902507476024097,
                -1.1232380248350302,
                0.7502690192641528,
                2.088879140920143
            ]
        },
        {
            "positions": [
                -0.1290603031441795,
                -1.2415455020559238,
                1.0136109344249067,
                -1.0946411267929053,
                0.722462595003442,
                2.1955055712467337
            ]
        },
        {
            "positions": [
                -0.23643158708411027,
                -1.228104297749713,
                1.124714392825716,
                -1.0660442287507808,
                0.6946561707427313,
                2.3021320015733244
            ]
        },
        {
            "positions": [
                -0.34380287102404194,
                -1.214663093443502,
                1.235817851226526,
                -1.0374473307086558,
                0.6668497464820206,
                2.4087584318999156
            ]
        },
        {
            "positions": [
                -0.4511741549639736,
                -1.2012218891372912,
                1.3469213096273358,
                -1.0088504326665308,
                0.6390433222213098,
                2.5153848622265067
            ]
        },
        {
            "positions": [
                -0.5585454389039048,
                -1.1877806848310803,
                1.458024768028146,
                -0.9802535346244061,
                0.611236897960599,
                2.622011292553098
            ]
        },
        {
            "positions": [
                -0.6659167228438365,
                -1.1743394805248693,
                1.5691282264289557,
                -0.9516566365822814,
                0.5834304736998882,
                2.728637722879689
            ]
        },
        {
            "positions": [
                -0.7732880067837682,
                -1.1608982762186584,
                1.6802316848297658,
                -0.9230597385401564,
                0.5556240494391773,
                2.83526415320628
            ]
        },
        {
            "positions": [
                -0.8806592907236994,
                -1.1474570719124475,
                1.7913351432305755,
                -0.8944628404980317,
                0.5278176251784668,
                2.941890583532871
            ]
        },
        {
            "positions": [
                -0.9880305746636306,
                -1.1340158676062366,
                1.9024386016313852,
                -0.865865942455907,
                0.500011200917756,
                3.0485170138594624
            ]
        },
        {
            "positions": [
                -1.095401858603562,
                -1.1205746633000258,
                2.013542060032195,
                -0.837269044413782,
                0.47220477665704513,
                3.155143444186053
            ]
        }
    ]
}