{
    "goal": {
        "global_pose": {
            "orientation": {
                "w": 0.005598929693374612,
                "x": 0.007748599140229565,
                "y": 0.7110244013736278,
                "z": -0.7031023480610252
            },
            "position": {
                "x": 0.1141497679147869,
                "y": -0.7141253447532654,
                "z": 0.3711530566215515
            }
        },
        "name": "move_to_auspresseinheit_B"
    },
    "id": "LBKPIECE_move_to_auspresseinheit_B_93",
    "joint_names": [
        "shoulder_pan_joint",
        "shoulder_lift_joint",
        "elbow_joint",
        "wrist_1_joint",
        "wrist_2_joint",
        "wrist_3_joint"
    ],
    "metrics": {
        "cart_traj_len": 0.5643304913677036,
        "distance_elbow_joint": 0.06201399199331248,
        "distance_shoulder_lift_joint": 0.2954628802919055,
        "distance_shoulder_pan_joint": 0.5775405048994817,
        "distance_wrist_1_joint": 0.3257018533574959,
        "distance_wrist_2_joint": 0.9880995256904319,
        "distance_wrist_3_joint": 0.0015318892458395794,
        "smoothness": 5.075305255429287e-16,
        "time": 1.3632292110000002,
        "traj_len": 1.5001168772727234,
        "weighted_distance": 1.888707442410834
    },
    "planner": "LBKPIECE",
    "start": {
        "state": {
            "elbow_joint": 2.019306165916698,
            "shoulder_lift_joint": -1.1220205098164344,
            "shoulder_pan_joint": -1.095207207618794,
            "wrist_1_joint": -0.8559671824921639,
            "wrist_2_joint": 0.47596387242952726,
            "wrist_3_joint": 3.159081874673826
        }
    },
    "waypoints": [
        {
            "positions": [
                -1.095207207618794,
                -1.1220205098164344,
                2.019306165916698,
                -0.8559671824921639,
                0.47596387242952726,
                3.159081874673826
            ]
        },
        {
            "positions": [
                -1.1914639584353743,
                -1.1712643231984186,
                2.0089705005844793,
                -0.8016835402659146,
                0.6406471267112659,
                3.1593371895481326
            ]
        },
        {
            "positions": [
                -1.2877207092519545,
                -1.220508136580403,
                1.9986348352522605,
                -0.7473998980396652,
                0.8053303809930046,
                3.159592504422439
            ]
        },
        {
            "positions": [
                -1.3839774600685348,
                -1.2697519499623873,
                1.9882991699200416,
                -0.6931162558134158,
                0.9700136352747433,
                3.1598478192967456
            ]
        },
        {
            "positions": [
                -1.480234210885115,
                -1.3189957633443714,
                1.977963504587823,
                -0.6388326135871666,
                1.1346968895564817,
                3.1601031341710524
            ]
        },
        {
            "positions": [
                -1.5764909617016953,
                -1.3682395767263555,
                1.9676278392556044,
                -0.5845489713609173,
                1.2993801438382206,
                3.1603584490453587
            ]
        },
        {
            "positions": [
                -1.6727477125182757,
                -1.41748339010834,
                1.9572921739233855,
                -0.530265329134668,
                1.4640633981199591,
                3.1606137639196654
            ]
        }
    ]
}