{
    "goal": {
        "global_pose": {
            "orientation": {
                "w": 0.5084816217422485,
                "x": -0.49083608388900757,
                "y": 0.5182115435600281,
                "z": -0.4816462993621826
            },
            "position": {
                "x": 0.5540239810943604,
                "y": 0.030875300988554955,
                "z": 0.16403168439865112
            }
        },
        "name": "move_to_storage_A"
    },
    "id": "LBKPIECE_move_to_storage_A_8",
    "joint_names": [
        "shoulder_pan_joint",
        "shoulder_lift_joint",
        "elbow_joint",
        "wrist_1_joint",
        "wrist_2_joint",
        "wrist_3_joint"
    ],
    "metrics": {
        "cart_traj_len": 0.35301502100195137,
        "distance_elbow_joint": 0.44806037411999267,
        "distance_shoulder_lift_joint": 0.23529081689678133,
        "distance_shoulder_pan_joint": 0.45918594979591276,
        "distance_wrist_1_joint": 0.23906313623037556,
        "distance_wrist_2_joint": 1.10888196861013,
        "distance_wrist_3_joint": 0.10367667685520354,
        "smoothness": 4.440892098500626e-16,
        "time": 2.441197845,
        "traj_len": 1.6106392900051816,
        "weighted_distance": 2.0370216938116563
    },
    "planner": "LBKPIECE",
    "start": {
        "state": {
            "elbow_joint": 1.9715474177455299,
            "shoulder_lift_joint": -1.139484666580328,
            "shoulder_pan_joint": 0.12281154398918248,
            "wrist_1_joint": -0.7804687475355282,
            "wrist_2_joint": 0.12958649657246987,
            "wrist_3_joint": -3.1924925159053466
        }
    },
    "waypoints": [
        {
            "positions": [
                0.12281154398918248,
                -1.139484666580328,
                1.9715474177455299,
                -0.7804687475355282,
                0.12958649657246987,
                -3.1924925159053466
            ]
        },
        {
            "positions": [
                0.05721355116119495,
                -1.1730976404227254,
                2.0355560426198145,
                -0.8146206241398676,
                0.28799820637391704,
                -3.177681562068889
            ]
        },
        {
            "positions": [
                -0.008384441666792586,
                -1.2067106142651227,
                2.099564667494099,
                -0.848772500744207,
                0.4464099161753642,
                -3.1628706082324314
            ]
        },
        {
            "positions": [
                -0.07398243449478012,
                -1.24032358810752,
                2.1635732923683837,
                -0.8829243773485462,
                0.6048216259768113,
                -3.148059654395974
            ]
        },
        {
            "positions": [
                -0.13958042732276765,
                -1.2739365619499172,
                2.2275819172426683,
                -0.9170762539528856,
                0.7632333357782585,
                -3.1332487005595158
            ]
        },
        {
            "positions": [
                -0.20517842015075521,
                -1.3075495357923146,
                2.2915905421169533,
                -0.951228130557225,
                0.9216450455797057,
                -3.118437746723058
            ]
        },
        {
            "positions": [
                -0.2707764129787427,
                -1.341162509634712,
                2.355599166991238,
                -0.9853800071615644,
                1.0800567553811526,
                -3.1036267928866006
            ]
        },
        {
            "positions": [
                -0.3363744058067303,
                -1.3747754834771093,
                2.4196077918655226,
                -1.0195318837659038,
                1.2384684651826,
                -3.088815839050143
            ]
        }
    ]
}