{
    "goal": {
        "global_pose": {
            "orientation": {
                "w": 0.7031023502349854,
                "x": -0.7110244035720825,
                "y": 0.007748599164187908,
                "z": 0.005598929710686207
            },
            "position": {
                "x": 0.11585023208521307,
                "y": 0.44412534475326537,
                "z": 0.3711530566215515
            }
        },
        "name": "move_to_auspresseinheit_A"
    },
    "id": "LBKPIECE_move_to_auspresseinheit_A_73",
    "joint_names": [
        "shoulder_pan_joint",
        "shoulder_lift_joint",
        "elbow_joint",
        "wrist_1_joint",
        "wrist_2_joint",
        "wrist_3_joint"
    ],
    "metrics": {
        "cart_traj_len": 1.9088126270922097,
        "distance_elbow_joint": 0.7988967984808921,
        "distance_shoulder_lift_joint": 1.1640539721055432,
        "distance_shoulder_pan_joint": 3.1036266318905934,
        "distance_wrist_1_joint": 7.383942314699423,
        "distance_wrist_2_joint": 6.33226043343526,
        "distance_wrist_3_joint": 2.4274975328667736,
        "smoothness": 0.6023086166954468,
        "time": 2.986075889,
        "traj_len": 4.605461723158546,
        "weighted_distance": 6.30725578182356
    },
    "planner": "LBKPIECE",
    "start": {
        "state": {
            "elbow_joint": 2.4225747245308327,
            "shoulder_lift_joint": -1.373653427065438,
            "shoulder_pan_joint": -0.33786330853087027,
            "wrist_1_joint": -1.0288602302712604,
            "wrist_2_joint": 1.23302299562683,
            "wrist_3_joint": -3.094021725338297
        }
    },
    "waypoints": [
        {
            "positions": [
                -0.33786330853087027,
                -1.373653427065438,
                2.4225747245308327,
                -1.0288602302712604,
                1.23302299562683,
                -3.094021725338297
            ]
        },
        {
            "positions": [
                -0.3745775469515203,
                -1.4039733788545297,
                2.4078086463954196,
                -0.887130317738289,
                1.1107570912025675,
                -3.0511601049947012
            ]
        },
        {
            "positions": [
                -0.41129178537217037,
                -1.4342933306436216,
                2.393042568260006,
                -0.7454004052053176,
                0.9884911867783049,
                -3.0082984846511054
            ]
        },
        {
            "positions": [
                -0.4480060237928204,
                -1.4646132824327134,
                2.378276490124593,
                -0.6036704926723462,
                0.8662252823540424,
                -2.9654368643075095
            ]
        },
        {
            "positions": [
                -0.4847202622134704,
                -1.4949332342218054,
                2.36351041198918,
                -0.46194058013937467,
                0.74395937792978,
                -2.922575243963913
            ]
        },
        {
            "positions": [
                -0.5214345006341204,
                -1.525253186010897,
                2.3487443338537664,
                -0.32021066760640315,
                0.6216934735055174,
                -2.8797136236203174
            ]
        },
        {
            "positions": [
                -0.5581487390547705,
                -1.5555731377999888,
                2.3339782557183533,
                -0.17848075507343186,
                0.49942756908125496,
                -2.8368520032767215
            ]
        },
        {
            "positions": [
                -0.5948629774754206,
                -1.5858930895890808,
                2.31921217758294,
                -0.03675084254046035,
                0.3771616646569924,
                -2.7939903829331256
            ]
        },
        {
            "positions": [
                -0.6315772158960706,
                -1.6162130413781726,
                2.3044460994475267,
                0.10497906999251105,
                0.25489576023273,
                -2.7511287625895298
            ]
        },
        {
            "positions": [
                -0.6682914543167207,
                -1.6465329931672645,
                2.2896800213121136,
                0.24670898252548268,
                0.1326298558084673,
                -2.708267142245934
            ]
        },
        {
            "positions": [
                -0.7050056927373707,
                -1.6768529449563563,
                2.2749139431767005,
                0.3884388950584541,
                0.010363951384204872,
                -2.665405521902338
            ]
        },
        {
            "positions": [
                -0.7417199311580207,
                -1.707172896745448,
                2.2601478650412874,
                0.5301688075914253,
                -0.11190195304005757,
                -2.6225439015587417
            ]
        },
        {
            "positions": [
                -0.7784341695786707,
                -1.73749284853454,
                2.245381786905874,
                0.6718987201243967,
                -0.23416785746432,
                -2.579682281215146
            ]
        },
        {
            "positions": [
                -0.8151484079993208,
                -1.7678128003236318,
                2.230615708770461,
                0.8136286326573683,
                -0.35643376188858267,
                -2.53682066087155
            ]
        },
        {
            "positions": [
                -0.8518626464199708,
                -1.7981327521127235,
                2.2158496306350477,
                0.9553585451903397,
                -0.4786996663128451,
                -2.493959040527954
            ]
        },
        {
            "positions": [
                -0.8885768848406208,
                -1.8284527039018155,
                2.201083552499634,
                1.0970884577233109,
                -0.6009655707371075,
                -2.4510974201843583
            ]
        },
        {
            "positions": [
                -0.9252911232612708,
                -1.8587726556909072,
                2.186317474364221,
                1.2388183702562825,
                -0.72323147516137,
                -2.4082357998407624
            ]
        },
        {
            "positions": [
                -0.9620053616819209,
                -1.889092607479999,
                2.171551396228808,
                1.3805482827892537,
                -0.8454973795856326,
                -2.3653741794971666
            ]
        },
        {
            "positions": [
                -0.9987196001025711,
                -1.919412559269091,
                2.1567853180933945,
                1.5222781953222257,
                -0.9677632840098953,
                -2.3225125591535702
            ]
        },
        {
            "positions": [
                -1.0354338385232211,
                -1.949732511058183,
                2.1420192399579814,
                1.664008107855197,
                -1.0900291884341575,
                -2.2796509388099744
            ]
        },
        {
            "positions": [
                -1.0721480769438712,
                -1.9800524628472747,
                2.1272531618225683,
                1.8057380203881686,
                -1.2122950928584202,
                -2.2367893184663785
            ]
        },
        {
            "positions": [
                -1.1088623153645212,
                -2.0103724146363664,
                2.1124870836871548,
                1.9474679329211397,
                -1.3345609972826828,
                -2.1939276981227827
            ]
        },
        {
            "positions": [
                -1.1455765537851712,
                -2.0406923664254584,
                2.0977210055517417,
                2.0891978454541107,
                -1.456826901706945,
                -2.151066077779187
            ]
        },
        {
            "positions": [
                -1.1822907922058212,
                -2.0710123182145503,
                2.0829549274163286,
                2.2309277579870823,
                -1.5790928061312077,
                -2.108204457435591
            ]
        },
        {
            "positions": [
                -1.2190050306264713,
                -2.101332270003642,
                2.068188849280915,
                2.372657670520054,
                -1.70135871055547,
                -2.065342837091995
            ]
        },
        {
            "positions": [
                -1.2557192690471213,
                -2.131652221792734,
                2.053422771145502,
                2.5143875830530256,
                -1.8236246149797326,
                -2.0224812167483988
            ]
        },
        {
            "positions": [
                -1.2924335074677713,
                -2.161972173581826,
                2.038656693010089,
                2.656117495585997,
                -1.9458905194039953,
                -1.979619596404803
            ]
        },
        {
            "positions": [
                -1.3291477458884213,
                -2.1922921253709173,
                2.0238906148746754,
                2.797847408118969,
                -2.0681564238282575,
                -1.936757976061207
            ]
        },
        {
            "positions": [
                -1.3658619843090714,
                -2.2226120771600093,
                2.0091245367392623,
                2.93957732065194,
                -2.19042232825252,
                -1.8938963557176112
            ]
        },
        {
            "positions": [
                -1.2889868748234272,
                -2.210941880048492,
                2.023400337135163,
                2.8130771442157836,
                -2.082688435306005,
                -1.9393545839859847
            ]
        },
        {
            "positions": [
                -1.212111765337783,
                -2.1992716829369745,
                2.0376761375310637,
                2.6865769677796276,
                -1.9749545423594899,
                -1.9848128122543585
            ]
        },
        {
            "positions": [
                -1.135236655852139,
                -2.187601485825457,
                2.051951937926965,
                2.560076791343471,
                -1.8672206494129746,
                -2.030271040522732
            ]
        },
        {
            "positions": [
                -1.0583615463664948,
                -2.1759312887139393,
                2.0662277383228655,
                2.433576614907315,
                -1.7594867564664596,
                -2.0757292687911058
            ]
        },
        {
            "positions": [
                -0.9814864368808507,
                -2.164261091602422,
                2.0805035387187663,
                2.3070764384711584,
                -1.6517528635199443,
                -2.1211874970594793
            ]
        },
        {
            "positions": [
                -0.9046113273952066,
                -2.1525908944909045,
                2.094779339114667,
                2.1805762620350024,
                -1.544018970573429,
                -2.166645725327853
            ]
        },
        {
            "positions": [
                -0.8277362179095624,
                -2.140920697379387,
                2.109055139510568,
                2.054076085598846,
                -1.436285077626914,
                -2.2121039535962264
            ]
        },
        {
            "positions": [
                -0.7508611084239183,
                -2.1292505002678697,
                2.123330939906469,
                1.9275759091626898,
                -1.328551184680399,
                -2.2575621818646
            ]
        },
        {
            "positions": [
                -0.6739859989382742,
                -2.117580303156352,
                2.1376067403023695,
                1.8010757327265337,
                -1.2208172917338838,
                -2.303020410132974
            ]
        },
        {
            "positions": [
                -0.59711088945263,
                -2.1059101060448344,
                2.1518825406982702,
                1.6745755562903772,
                -1.1130833987873685,
                -2.3484786384013474
            ]
        },
        {
            "positions": [
                -0.5202357799669859,
                -2.094239908933317,
                2.166158341094171,
                1.548075379854221,
                -1.0053495058408535,
                -2.393936866669721
            ]
        },
        {
            "positions": [
                -0.44336067048134176,
                -2.0825697118217996,
                2.180434141490072,
                1.4215752034180646,
                -0.8976156128943382,
                -2.4393950949380945
            ]
        },
        {
            "positions": [
                -0.3664855609956976,
                -2.070899514710282,
                2.194709941885973,
                1.2950750269819085,
                -0.7898817199478232,
                -2.484853323206468
            ]
        },
        {
            "positions": [
                -0.2896104515100535,
                -2.059229317598765,
                2.2089857422818735,
                1.1685748505457523,
                -0.6821478270013079,
                -2.530311551474842
            ]
        },
        {
            "positions": [
                -0.21273534202440914,
                -2.0475591204872474,
                2.223261542677774,
                1.0420746741095959,
                -0.5744139340547927,
                -2.5757697797432155
            ]
        },
        {
            "positions": [
                -0.13586023253876522,
                -2.0358889233757296,
                2.237537343073675,
                0.9155744976734397,
                -0.46668004110827765,
                -2.621228008011589
            ]
        },
        {
            "positions": [
                -0.05898512305312087,
                -2.024218726264212,
                2.251813143469576,
                0.7890743212372833,
                -0.3589461481617624,
                -2.6666862362799626
            ]
        },
        {
            "positions": [
                0.017889986432523042,
                -2.0125485291526948,
                2.2660889438654768,
                0.6625741448011273,
                -0.25121225521524737,
                -2.712144464548336
            ]
        },
        {
            "positions": [
                0.0947650959181674,
                -2.0008783320411774,
                2.2803647442613775,
                0.5360739683649709,
                -0.1434783622687319,
                -2.75760269281671
            ]
        },
        {
            "positions": [
                0.1716402054038113,
                -1.9892081349296598,
                2.294640544657278,
                0.4095737919288145,
                -0.035744469322216865,
                -2.803060921085083
            ]
        },
        {
            "positions": [
                0.24851531488945566,
                -1.9775379378181424,
                2.3089163450531793,
                0.2830736154926581,
                0.07198942362429817,
                -2.848519149353457
            ]
        },
        {
            "positions": [
                0.3253904243750996,
                -1.965867740706625,
                2.32319214544908,
                0.15657343905650212,
                0.1797233165708132,
                -2.8939773776218307
            ]
        },
        {
            "positions": [
                0.40226553386074393,
                -1.9541975435951073,
                2.3374679458449807,
                0.03007326262034571,
                0.28745720951732867,
                -2.9394356058902043
            ]
        },
        {
            "positions": [
                0.47914064334638784,
                -1.94252734648359,
                2.3517437462408814,
                -0.0964269138158107,
                0.3951911024638437,
                -2.9848938341585782
            ]
        },
        {
            "positions": [
                0.5560157528320322,
                -1.9308571493720725,
                2.3660195466367826,
                -0.2229270902519671,
                0.5029249954103587,
                -3.0303520624269513
            ]
        },
        {
            "positions": [
                0.6328908623176761,
                -1.9191869522605551,
                2.3802953470326833,
                -0.3494272666881231,
                0.6106588883568738,
                -3.0758102906953253
            ]
        },
        {
            "positions": [
                0.7097659718033207,
                -1.9075167551490375,
                2.394571147428584,
                -0.4759274431242796,
                0.7183927813033893,
                -3.121268518963699
            ]
        }
    ]
}