{
    "goal": {
        "global_pose": {
            "orientation": {
                "w": 0.7031023480610252,
                "x": -0.7110244013736278,
                "y": 0.0077485991402295624,
                "z": 0.005598929693374583
            },
            "position": {
                "x": -0.8841497679147869,
                "y": 0.44412534475326537,
                "z": 0.3711530566215515
            }
        },
        "name": "move_to_auspresseinheit_D"
    },
    "id": "LBKPIECE_move_to_auspresseinheit_D_20",
    "joint_names": [
        "shoulder_pan_joint",
        "shoulder_lift_joint",
        "elbow_joint",
        "wrist_1_joint",
        "wrist_2_joint",
        "wrist_3_joint"
    ],
    "metrics": {
        "cart_traj_len": 4.859707181926031,
        "distance_elbow_joint": 3.197720226913672,
        "distance_shoulder_lift_joint": 3.377406650803749,
        "distance_shoulder_pan_joint": 2.797948174550635,
        "distance_wrist_1_joint": 5.187128282336785,
        "distance_wrist_2_joint": 4.737166120920198,
        "distance_wrist_3_joint": 3.592619637743213,
        "smoothness": 0.3747449326740509,
        "time": 3.342125479,
        "traj_len": 4.784348345727793,
        "weighted_distance": 6.3245175920390695
    },
    "planner": "LBKPIECE",
    "start": {
        "state": {
            "elbow_joint": 1.8268400409724999,
            "shoulder_lift_joint": -1.0144045787793008,
            "shoulder_pan_joint": 2.6280239544362485,
            "wrist_1_joint": -0.790705565816056,
            "wrist_2_joint": 1.0573557467365533,
            "wrist_3_joint": 3.1851377467193758
        }
    },
    "waypoints": [
        {
            "positions": [
                2.6280239544362485,
                -1.0144045787793008,
                1.8268400409724999,
                -0.790705565816056,
                1.0573557467365533,
                3.1851377467193758
            ]
        },
        {
            "positions": [
                2.6040457749233674,
                -1.1184579817023084,
                1.8000933051744947,
                -0.8872141159428101,
                0.9264490657982231,
                3.198179826791645
            ]
        },
        {
            "positions": [
                2.5800675954104864,
                -1.222511384625316,
                1.7733465693764896,
                -0.9837226660695643,
                0.7955423848598928,
                3.2112219068639143
            ]
        },
        {
            "positions": [
                2.5560894158976053,
                -1.3265647875483237,
                1.7465998335784845,
                -1.0802312161963183,
                0.6646357039215626,
                3.2242639869361835
            ]
        },
        {
            "positions": [
                2.5321112363847242,
                -1.4306181904713313,
                1.7198530977804791,
                -1.1767397663230725,
                0.5337290229832323,
                3.237306067008453
            ]
        },
        {
            "positions": [
                2.508133056871843,
                -1.534671593394339,
                1.693106361982474,
                -1.2732483164498265,
                0.4028223420449021,
                3.250348147080722
            ]
        },
        {
            "positions": [
                2.484154877358962,
                -1.6387249963173465,
                1.6663596261844689,
                -1.3697568665765807,
                0.27191566110657184,
                3.2633902271529913
            ]
        },
        {
            "positions": [
                2.460176697846081,
                -1.742778399240354,
                1.6396128903864637,
                -1.4662654167033349,
                0.1410089801682417,
                3.2764323072252606
            ]
        },
        {
            "positions": [
                2.4361985183332,
                -1.8468318021633618,
                1.6128661545884586,
                -1.5627739668300888,
                0.010102299229911349,
                3.28947438729753
            ]
        },
        {
            "positions": [
                2.412220338820319,
                -1.9508852050863694,
                1.5861194187904535,
                -1.659282516956843,
                -0.120804381708419,
                3.302516467369799
            ]
        },
        {
            "positions": [
                2.3882421593074383,
                -2.054938608009377,
                1.5593726829924481,
                -1.7557910670835972,
                -0.25171106264674914,
                3.315558547442068
            ]
        },
        {
            "positions": [
                2.364263979794557,
                -2.158992010932385,
                1.532625947194443,
                -1.8522996172103514,
                -0.3826177435850795,
                3.328600627514337
            ]
        },
        {
            "positions": [
                2.340285800281676,
                -2.263045413855392,
                1.5058792113964379,
                -1.9488081673371054,
                -0.5135244245234096,
                3.3416427075866064
            ]
        },
        {
            "positions": [
                2.316307620768795,
                -2.3670988167784,
                1.4791324755984327,
                -2.0453167174638596,
                -0.64443110546174,
                3.3546847876588757
            ]
        },
        {
            "positions": [
                2.292329441255914,
                -2.4711522197014073,
                1.4523857398004276,
                -2.1418252675906135,
                -0.7753377864000699,
                3.367726867731145
            ]
        },
        {
            "positions": [
                2.268351261743033,
                -2.575205622624415,
                1.4256390040024225,
                -2.2383338177173675,
                -0.9062444673384005,
                3.380768947803414
            ]
        },
        {
            "positions": [
                2.244373082230152,
                -2.679259025547423,
                1.3988922682044174,
                -2.334842367844122,
                -1.0371511482767306,
                3.3938110278756835
            ]
        },
        {
            "positions": [
                2.220394902717271,
                -2.7833124284704303,
                1.372145532406412,
                -2.431350917970876,
                -1.1680578292150607,
                3.4068531079479527
            ]
        },
        {
            "positions": [
                2.19641672320439,
                -2.887365831393438,
                1.3453987966084069,
                -2.5278594680976303,
                -1.2989645101533913,
                3.419895188020222
            ]
        },
        {
            "positions": [
                2.172438543691509,
                -2.9914192343164454,
                1.3186520608104018,
                -2.6243680182243843,
                -1.429871191091721,
                3.4329372680924912
            ]
        },
        {
            "positions": [
                2.1484603641786277,
                -3.095472637239453,
                1.2919053250123966,
                -2.7208765683511382,
                -1.5607778720300516,
                3.4459793481647605
            ]
        },
        {
            "positions": [
                2.094483642905185,
                -3.064416223625317,
                1.2282361921274931,
                -2.631014721499233,
                -1.5005424520516477,
                3.354694184194516
            ]
        },
        {
            "positions": [
                2.040506921631742,
                -3.0333598100111803,
                1.1645670592425894,
                -2.5411528746473286,
                -1.4403070320732438,
                3.2634090202242714
            ]
        },
        {
            "positions": [
                1.9865302003582992,
                -3.002303396397044,
                1.100897926357686,
                -2.4512910277954236,
                -1.38007161209484,
                3.172123856254027
            ]
        },
        {
            "positions": [
                1.9325534790848564,
                -2.9712469827829073,
                1.0372287934727824,
                -2.3614291809435186,
                -1.319836192116436,
                3.0808386922837823
            ]
        },
        {
            "positions": [
                1.8785767578114136,
                -2.940190569168771,
                0.9735596605878787,
                -2.271567334091614,
                -1.2596007721380325,
                2.9895535283135377
            ]
        },
        {
            "positions": [
                1.8246000365379706,
                -2.9091341555546344,
                0.9098905277029752,
                -2.181705487239709,
                -1.1993653521596286,
                2.898268364343293
            ]
        },
        {
            "positions": [
                1.7706233152645279,
                -2.878077741940498,
                0.8462213948180716,
                -2.091843640387804,
                -1.1391299321812247,
                2.8069832003730486
            ]
        },
        {
            "positions": [
                1.716646593991085,
                -2.8470213283263615,
                0.782552261933168,
                -2.0019817935358994,
                -1.0788945122028208,
                2.715698036402804
            ]
        },
        {
            "positions": [
                1.6626698727176423,
                -2.815964914712225,
                0.7188831290482643,
                -1.9121199466839944,
                -1.018659092224417,
                2.6244128724325595
            ]
        },
        {
            "positions": [
                1.6086931514441996,
                -2.784908501098089,
                0.6552139961633607,
                -1.8222580998320896,
                -0.9584236722460131,
                2.533127708462315
            ]
        },
        {
            "positions": [
                1.5547164301707566,
                -2.7538520874839523,
                0.5915448632784572,
                -1.7323962529801848,
                -0.8981882522676093,
                2.4418425444920704
            ]
        },
        {
            "positions": [
                1.5007397088973138,
                -2.722795673869816,
                0.5278757303935536,
                -1.6425344061282798,
                -0.8379528322892055,
                2.350557380521826
            ]
        },
        {
            "positions": [
                1.446762987623871,
                -2.6917392602556793,
                0.46420659750865,
                -1.552672559276375,
                -0.7777174123108016,
                2.2592722165515813
            ]
        },
        {
            "positions": [
                1.392786266350428,
                -2.660682846641543,
                0.4005374646237465,
                -1.4628107124244702,
                -0.7174819923323978,
                2.1679870525813367
            ]
        },
        {
            "positions": [
                1.3388095450769852,
                -2.629626433027407,
                0.3368683317388429,
                -1.3729488655725652,
                -0.657246572353994,
                2.076701888611092
            ]
        },
        {
            "positions": [
                1.2848328238035425,
                -2.59857001941327,
                0.2731991988539393,
                -1.2830870187206604,
                -0.5970111523755901,
                1.9854167246408478
            ]
        },
        {
            "positions": [
                1.2308561025300997,
                -2.5675136057991335,
                0.20953006596903578,
                -1.1932251718687557,
                -0.5367757323971862,
                1.8941315606706033
            ]
        },
        {
            "positions": [
                1.176879381256657,
                -2.536457192184997,
                0.14586093308413206,
                -1.1033633250168506,
                -0.47654031241878236,
                1.8028463967003587
            ]
        },
        {
            "positions": [
                1.122902659983214,
                -2.505400778570861,
                0.08219180019922856,
                -1.0135014781649458,
                -0.4163048924403785,
                1.7115612327301142
            ]
        },
        {
            "positions": [
                1.0689259387097712,
                -2.4743443649567243,
                0.018522667314324837,
                -0.923639631313041,
                -0.3560694724619746,
                1.6202760687598696
            ]
        },
        {
            "positions": [
                1.0149492174363284,
                -2.443287951342588,
                -0.045146465570578664,
                -0.833777784461136,
                -0.295834052483571,
                1.528990904789625
            ]
        },
        {
            "positions": [
                0.9609724961628854,
                -2.4122315377284513,
                -0.10881559845548217,
                -0.7439159376092312,
                -0.2355986325051671,
                1.4377057408193807
            ]
        },
        {
            "positions": [
                0.9069957748894426,
                -2.381175124114315,
                -0.1724847313403859,
                -0.6540540907573265,
                -0.17536321252676323,
                1.3464205768491362
            ]
        },
        {
            "positions": [
                0.8530190536159998,
                -2.350118710500179,
                -0.2361538642252894,
                -0.5641922439054214,
                -0.11512779254835936,
                1.2551354128788916
            ]
        },
        {
            "positions": [
                0.7990423323425571,
                -2.319062296886042,
                -0.2998229971101929,
                -0.4743303970535169,
                -0.054892372569955494,
                1.163850248908647
            ]
        },
        {
            "positions": [
                0.7450656110691143,
                -2.2880058832719055,
                -0.3634921299950966,
                -0.38446855020161186,
                0.005343047408448376,
                1.0725650849384025
            ]
        },
        {
            "positions": [
                0.6910888897956713,
                -2.256949469657769,
                -0.4271612628800001,
                -0.29460670334970684,
                0.06557846738685225,
                0.981279920968158
            ]
        },
        {
            "positions": [
                0.6371121685222285,
                -2.225893056043633,
                -0.4908303957649036,
                -0.20474485649780227,
                0.1258138873652559,
                0.8899947569979134
            ]
        },
        {
            "positions": [
                0.5831354472487857,
                -2.1948366424294963,
                -0.5544995286498073,
                -0.11488300964589726,
                0.18604930734365976,
                0.7987095930276689
            ]
        },
        {
            "positions": [
                0.5291587259753427,
                -2.16378022881536,
                -0.6181686615347108,
                -0.025021162793992247,
                0.24628472732206363,
                0.7074244290574243
            ]
        },
        {
            "positions": [
                0.4751820047019,
                -2.1327238152012233,
                -0.6818377944196146,
                0.06484068405791232,
                0.3065201473004675,
                0.6161392650871798
            ]
        },
        {
            "positions": [
                0.4212052834284573,
                -2.101667401587087,
                -0.7455069273045178,
                0.15470253090981717,
                0.36675556727887126,
                0.5248541011169351
            ]
        },
        {
            "positions": [
                0.3367582114937652,
                -2.144886452542977,
                -0.8348459642526115,
                0.2091851281299238,
                0.33939855830106036,
                0.46618941693836347
            ]
        },
        {
            "positions": [
                0.25231113955907314,
                -2.1881055034988672,
                -0.9241850012007051,
                0.2636677253500304,
                0.31204154932324946,
                0.4075247327597918
            ]
        },
        {
            "positions": [
                0.1678640676243811,
                -2.231324554454757,
                -1.0135240381487989,
                0.3181503225701371,
                0.2846845403454385,
                0.3488600485812201
            ]
        },
        {
            "positions": [
                0.08341699568968902,
                -2.2745436054106474,
                -1.1028630750968924,
                0.3726329197902437,
                0.2573275313676276,
                0.2901953644026485
            ]
        },
        {
            "positions": [
                -0.0010300762450030643,
                -2.317762656366537,
                -1.1922021120449862,
                0.42711551701035033,
                0.22997052238981666,
                0.2315306802240768
            ]
        },
        {
            "positions": [
                -0.0854771481796951,
                -2.360981707322427,
                -1.28154114899308,
                0.48159811423045695,
                0.20261351341200576,
                0.17286599604550518
            ]
        },
        {
            "positions": [
                -0.16992422011438718,
                -2.4042007582783174,
                -1.3708801859411734,
                0.5360807114505636,
                0.17525650443419483,
                0.11420131186693348
            ]
        }
    ]
}