{
    "goal": {
        "global_pose": {
            "orientation": {
                "w": 0.7047431493862688,
                "x": -0.7094548369677653,
                "y": 0.0024358444001904,
                "z": -0.0022348060817251984
            },
            "position": {
                "x": -0.39052492380142206,
                "y": 0.3671506643295288,
                "z": 0.19426114857196808
            }
        },
        "name": "move_to_magneteinheit_D"
    },
    "id": "LBKPIECE_move_to_magneteinheit_D_82",
    "joint_names": [
        "shoulder_pan_joint",
        "shoulder_lift_joint",
        "elbow_joint",
        "wrist_1_joint",
        "wrist_2_joint",
        "wrist_3_joint"
    ],
    "metrics": {
        "cart_traj_len": 4.8561109366224535,
        "distance_elbow_joint": 3.123155073413035,
        "distance_shoulder_lift_joint": 2.0773704938537647,
        "distance_shoulder_pan_joint": 4.036236190610764,
        "distance_wrist_1_joint": 4.5789356048448315,
        "distance_wrist_2_joint": 1.3776739572202237,
        "distance_wrist_3_joint": 3.34609128042426,
        "smoothness": 0.7781069441996874,
        "time": 3.029560943,
        "traj_len": 4.305747623858935,
        "weighted_distance": 5.58464454762167
    },
    "planner": "LBKPIECE",
    "start": {
        "state": {
            "elbow_joint": 0.7495348899011973,
            "shoulder_lift_joint": -0.6476975780737697,
            "shoulder_pan_joint": -2.711696901376276,
            "wrist_1_joint": -0.07506478080974305,
            "wrist_2_joint": 0.4329665971545858,
            "wrist_3_joint": 3.1361499051832524
        }
    },
    "waypoints": [
        {
            "positions": [
                -2.711696901376276,
                -0.6476975780737697,
                0.7495348899011973,
                -0.07506478080974305,
                0.4329665971545858,
                3.1361499051832524
            ]
        },
        {
            "positions": [
                -2.782939780098863,
                -0.7523471241106607,
                0.711908385168756,
                0.04741744218365042,
                0.4533205759748322,
                3.14580406059002
            ]
        },
        {
            "positions": [
                -2.85418265882145,
                -0.8569966701475519,
                0.6742818804363147,
                0.16989966517704388,
                0.4736745547950786,
                3.1554582159967883
            ]
        },
        {
            "positions": [
                -2.925425537544037,
                -0.961646216184443,
                0.6366553757038732,
                0.29238188817043737,
                0.494028533615325,
                3.165112371403556
            ]
        },
        {
            "positions": [
                -2.9966684162666244,
                -1.066295762221334,
                0.5990288709714319,
                0.4148641111638308,
                0.5143825124355714,
                3.174766526810324
            ]
        },
        {
            "positions": [
                -3.0679112949892113,
                -1.1709453082582253,
                0.5614023662389904,
                0.5373463341572244,
                0.5347364912558178,
                3.1844206822170915
            ]
        },
        {
            "positions": [
                -3.1391541737117983,
                -1.2755948542951163,
                0.5237758615065491,
                0.6598285571506177,
                0.5550904700760643,
                3.1940748376238597
            ]
        },
        {
            "positions": [
                -3.2103970524343852,
                -1.3802444003320073,
                0.48614935677410775,
                0.7823107801440113,
                0.5754444488963106,
                3.2037289930306274
            ]
        },
        {
            "positions": [
                -3.104546859209911,
                -1.3679707453495409,
                0.45696981424301675,
                0.7008718758331238,
                0.5985959434621063,
                3.078798100055055
            ]
        },
        {
            "positions": [
                -2.998696665985436,
                -1.3556970903670742,
                0.4277902717119258,
                0.6194329715222363,
                0.621747438027902,
                2.9538672070794827
            ]
        },
        {
            "positions": [
                -2.8928464727609615,
                -1.3434234353846077,
                0.39861072918083484,
                0.5379940672113488,
                0.6448989325936978,
                2.82893631410391
            ]
        },
        {
            "positions": [
                -2.7869962795364867,
                -1.3311497804021413,
                0.36943118664974384,
                0.4565551629004612,
                0.6680504271594935,
                2.7040054211283375
            ]
        },
        {
            "positions": [
                -2.6811460863120122,
                -1.3188761254196746,
                0.34025164411865283,
                0.3751162585895737,
                0.6912019217252892,
                2.579074528152765
            ]
        },
        {
            "positions": [
                -2.575295893087538,
                -1.3066024704372081,
                0.3110721015875619,
                0.2936773542786862,
                0.7143534162910848,
                2.454143635177193
            ]
        },
        {
            "positions": [
                -2.469445699863063,
                -1.2943288154547417,
                0.28189255905647087,
                0.21223844996779861,
                0.7375049108568805,
                2.3292127422016202
            ]
        },
        {
            "positions": [
                -2.3635955066385885,
                -1.282055160472275,
                0.2527130165253799,
                0.1307995456569111,
                0.7606564054226763,
                2.2042818492260476
            ]
        },
        {
            "positions": [
                -2.257745313414114,
                -1.2697815054898085,
                0.2235334739942889,
                0.04936064134602358,
                0.783807899988472,
                2.079350956250475
            ]
        },
        {
            "positions": [
                -2.1518951201896392,
                -1.257507850507342,
                0.1943539314631979,
                -0.032078262964863935,
                0.8069593945542677,
                1.9544200632749027
            ]
        },
        {
            "positions": [
                -2.0460449269651644,
                -1.2452341955248754,
                0.1651743889321069,
                -0.11351716727575156,
                0.8301108891200635,
                1.8294891702993303
            ]
        },
        {
            "positions": [
                -1.9401947337406902,
                -1.232960540542409,
                0.135994846401016,
                -0.19495607158663897,
                0.853262383685859,
                1.704558277323758
            ]
        },
        {
            "positions": [
                -1.8343445405162155,
                -1.2206868855599424,
                0.106815303869925,
                -0.2763949758975265,
                0.8764138782516548,
                1.5796273843481854
            ]
        },
        {
            "positions": [
                -1.728494347291741,
                -1.2084132305774757,
                0.07763576133883399,
                -0.3578338802084141,
                0.8995653728174505,
                1.454696491372613
            ]
        },
        {
            "positions": [
                -1.6226441540672663,
                -1.1961395755950093,
                0.04845621880774298,
                -0.43927278451930174,
                0.9227168673832462,
                1.3297655983970404
            ]
        },
        {
            "positions": [
                -1.5167939608427918,
                -1.1838659206125428,
                0.019276676276652083,
                -0.5207116888301891,
                0.945868361949042,
                1.204834705421468
            ]
        },
        {
            "positions": [
                -1.4109437676183172,
                -1.1715922656300761,
                -0.009902866254438925,
                -0.6021505931410766,
                0.9690198565148376,
                1.0799038124458957
            ]
        },
        {
            "positions": [
                -1.3050935743938425,
                -1.1593186106476097,
                -0.03908240878552993,
                -0.6835894974519641,
                0.9921713510806334,
                0.9549729194703231
            ]
        },
        {
            "positions": [
                -1.2395294334277345,
                -1.2045612282399702,
                -0.13929219985343605,
                -0.579186632254992,
                0.9620272199426457,
                0.9079807887507965
            ]
        },
        {
            "positions": [
                -1.1739652924616266,
                -1.2498038458323308,
                -0.23950199092134214,
                -0.47478376705801995,
                0.9318830888046581,
                0.8609886580312698
            ]
        },
        {
            "positions": [
                -1.1084011514955185,
                -1.2950464634246914,
                -0.3397117819892483,
                -0.37038090186104783,
                0.9017389576666704,
                0.8139965273117431
            ]
        },
        {
            "positions": [
                -1.0428370105294107,
                -1.340289081017052,
                -0.43992157305715435,
                -0.26597803666407577,
                0.8715948265286828,
                0.7670043965922164
            ]
        },
        {
            "positions": [
                -0.9772728695633026,
                -1.3855316986094126,
                -0.5401313641250605,
                -0.16157517146710365,
                0.8414506953906951,
                0.7200122658726897
            ]
        },
        {
            "positions": [
                -0.9117087285971948,
                -1.4307743162017732,
                -0.6403411551929666,
                -0.05717230627013159,
                0.8113065642527074,
                0.6730201351531631
            ]
        },
        {
            "positions": [
                -0.8461445876310867,
                -1.4760169337941336,
                -0.7405509462608727,
                0.04723055892684047,
                0.7811624331147198,
                0.6260280044336364
            ]
        },
        {
            "positions": [
                -0.7805804466649787,
                -1.5212595513864944,
                -0.8407607373287788,
                0.15163342412381253,
                0.7510183019767321,
                0.5790358737141097
            ]
        },
        {
            "positions": [
                -0.7150163056988708,
                -1.5665021689788547,
                -0.9409705283966849,
                0.2560362893207847,
                0.7208741708387445,
                0.532043742994583
            ]
        },
        {
            "positions": [
                -0.6494521647327628,
                -1.6117447865712156,
                -1.041180319464591,
                0.36043915451775677,
                0.6907300397007567,
                0.48505161227505633
            ]
        },
        {
            "positions": [
                -0.5838880237666547,
                -1.656987404163576,
                -1.1413901105324973,
                0.46484201971472894,
                0.6605859085627692,
                0.43805948155552965
            ]
        },
        {
            "positions": [
                -0.5183238828005469,
                -1.7022300217559367,
                -1.2415999016004033,
                0.5692448849117009,
                0.6304417774247815,
                0.39106735083600297
            ]
        },
        {
            "positions": [
                -0.4527597418344388,
                -1.747472639348297,
                -1.3418096926683094,
                0.6736477501086731,
                0.6002976462867938,
                0.3440752201164763
            ]
        },
        {
            "positions": [
                -0.3871956008683308,
                -1.7927152569406577,
                -1.4420194837362155,
                0.778050615305645,
                0.5701535151488062,
                0.2970830893969496
            ]
        },
        {
            "positions": [
                -0.32163145990222286,
                -1.8379578745330183,
                -1.5422292748041218,
                0.8824534805026172,
                0.5400093840108185,
                0.2500909586774229
            ]
        },
        {
            "positions": [
                -0.2560673189361149,
                -1.8832004921253789,
                -1.6424390658720276,
                0.9868563456995891,
                0.5098652528728309,
                0.20309882795789624
            ]
        },
        {
            "positions": [
                -0.19050317797000682,
                -1.9284431097177395,
                -1.7426488569399339,
                1.0912592108965615,
                0.47972112173484327,
                0.15610669723836956
            ]
        },
        {
            "positions": [
                -0.12493903700389897,
                -1.9736857273101,
                -1.84285864800784,
                1.1956620760935335,
                0.44957699059685563,
                0.10911456651884288
            ]
        },
        {
            "positions": [
                -0.05937489603779089,
                -2.0189283449024606,
                -1.9430684390757462,
                1.3000649412905056,
                0.4194328594588679,
                0.0621224357993162
            ]
        },
        {
            "positions": [
                0.0061892449283169615,
                -2.0641709624948215,
                -2.043278230143652,
                1.4044678064874776,
                0.38928872832088024,
                0.015130305079789519
            ]
        },
        {
            "positions": [
                0.07175338589442495,
                -2.109413580087182,
                -2.1434880212115583,
                1.5088706716844495,
                0.35914459718289254,
                -0.03186182563973719
            ]
        },
        {
            "positions": [
                -0.004899899301755134,
                -2.1629919185507873,
                -2.2156398372178385,
                1.5225121859186221,
                0.30027449122286076,
                -0.02013247605835716
            ]
        },
        {
            "positions": [
                -0.08155318449793522,
                -2.2165702570143924,
                -2.2877916532241187,
                1.5361537001527947,
                0.24140438526282898,
                -0.008403126476977128
            ]
        },
        {
            "positions": [
                -0.15820646969411534,
                -2.270148595477998,
                -2.359943469230399,
                1.5497952143869673,
                0.1825342793027972,
                0.0033262231044029035
            ]
        },
        {
            "positions": [
                -0.18363221532942312,
                -2.283216492558739,
                -2.373620183511838,
                1.5275201599307988,
                0.17370214778645723,
                -0.004407102057976847
            ]
        }
    ]
}