{
    "goal": {
        "global_pose": {
            "orientation": {
                "w": -0.4816463035849501,
                "x": 0.5182115481033762,
                "y": 0.4908360881923453,
                "z": -0.5084816262002911
            },
            "position": {
                "x": -0.8240239810943604,
                "y": 0.19912469901144506,
                "z": 0.16403168439865112
            }
        },
        "name": "move_to_storage_D"
    },
    "id": "LBKPIECE_move_to_storage_D_52",
    "joint_names": [
        "shoulder_pan_joint",
        "shoulder_lift_joint",
        "elbow_joint",
        "wrist_1_joint",
        "wrist_2_joint",
        "wrist_3_joint"
    ],
    "metrics": {
        "cart_traj_len": 4.003490906290553,
        "distance_elbow_joint": 4.210258983662305,
        "distance_shoulder_lift_joint": 1.2656243921054176,
        "distance_shoulder_pan_joint": 2.814197844406306,
        "distance_wrist_1_joint": 2.3201756081469513,
        "distance_wrist_2_joint": 0.9355224096720561,
        "distance_wrist_3_joint": 3.142658968463333,
        "smoothness": 0.020981445802311947,
        "time": 1.14838563,
        "traj_len": 3.832549830916275,
        "weighted_distance": 4.922342344981913
    },
    "planner": "LBKPIECE",
    "start": {
        "state": {
            "elbow_joint": -2.384821997420982,
            "shoulder_lift_joint": -2.2788054674887404,
            "shoulder_pan_joint": -0.18546946417610016,
            "wrist_1_joint": 1.4845937964226739,
            "wrist_2_joint": 0.1789877726866377,
            "wrist_3_joint": 0.03710572555276528
        }
    },
    "waypoints": [
        {
            "positions": [
                -0.18546946417610016,
                -2.2788054674887404,
                -2.384821997420982,
                1.4845937964226739,
                0.1789877726866377,
                0.03710572555276528
            ]
        },
        {
            "positions": [
                -0.16375508172742115,
                -2.273903524210951,
                -2.3502645226711563,
                1.4569807754796678,
                0.1796848844983206,
                0.04447251108750181
            ]
        },
        {
            "positions": [
                -0.09110955661025548,
                -2.242821677136909,
                -2.243503791755573,
                1.388211673388072,
                0.20726926601099613,
                0.1276913822535342
            ]
        },
        {
            "positions": [
                -0.01846403149308981,
                -2.211739830062867,
                -2.13674306083999,
                1.3194425712964761,
                0.23485364752367166,
                0.2109102534195666
            ]
        },
        {
            "positions": [
                0.05418149362407587,
                -2.1806579829888246,
                -2.029982329924407,
                1.2506734692048802,
                0.26243802903634716,
                0.294129124585599
            ]
        },
        {
            "positions": [
                0.12682701874124153,
                -2.1495761359147827,
                -1.923221599008824,
                1.1819043671132845,
                0.2900224105490227,
                0.3773479957516314
            ]
        },
        {
            "positions": [
                0.19947254385840724,
                -2.1184942888407408,
                -1.8164608680932408,
                1.1131352650216888,
                0.3176067920616983,
                0.4605668669176638
            ]
        },
        {
            "positions": [
                0.2721180689755729,
                -2.087412441766699,
                -1.7097001371776577,
                1.0443661629300929,
                0.3451911735743738,
                0.5437857380836961
            ]
        },
        {
            "positions": [
                0.3447635940927386,
                -2.056330594692657,
                -1.6029394062620745,
                0.9755970608384971,
                0.3727755550870493,
                0.6270046092497286
            ]
        },
        {
            "positions": [
                0.4174091192099042,
                -2.0252487476186145,
                -1.4961786753464916,
                0.9068279587469013,
                0.40035993659972485,
                0.710223480415761
            ]
        },
        {
            "positions": [
                0.4900546443270699,
                -1.9941669005445728,
                -1.3894179444309085,
                0.8380588566553056,
                0.42794431811240036,
                0.7934423515817933
            ]
        },
        {
            "positions": [
                0.5627001694442356,
                -1.9630850534705306,
                -1.2826572135153254,
                0.7692897545637096,
                0.4555286996250759,
                0.8766612227478258
            ]
        },
        {
            "positions": [
                0.6353456945614012,
                -1.9320032063964887,
                -1.1758964825997422,
                0.7005206524721139,
                0.4831130811377514,
                0.9598800939138581
            ]
        },
        {
            "positions": [
                0.7079912196785669,
                -1.9009213593224468,
                -1.069135751684159,
                0.631751550380518,
                0.510697462650427,
                1.0430989650798905
            ]
        },
        {
            "positions": [
                0.7806367447957325,
                -1.8698395122484046,
                -0.9623750207685762,
                0.5629824482889223,
                0.5382818441631025,
                1.1263178362459227
            ]
        },
        {
            "positions": [
                0.8532822699128984,
                -1.8387576651743627,
                -0.8556142898529928,
                0.4942133461973264,
                0.565866225675778,
                1.2095367074119552
            ]
        },
        {
            "positions": [
                0.925927795030064,
                -1.8076758181003205,
                -0.7488535589374099,
                0.4254442441057307,
                0.5934506071884535,
                1.2927555785779876
            ]
        },
        {
            "positions": [
                0.9985733201472295,
                -1.7765939710262786,
                -0.6420928280218268,
                0.35667514201413475,
                0.621034988701129,
                1.37597444974402
            ]
        },
        {
            "positions": [
                1.0712188452643954,
                -1.7455121239522366,
                -0.5353320971062436,
                0.28790603992253905,
                0.6486193702138046,
                1.4591933209100523
            ]
        },
        {
            "positions": [
                1.143864370381561,
                -1.7144302768781947,
                -0.4285713661906607,
                0.21913693783094335,
                0.6762037517264801,
                1.5424121920760847
            ]
        },
        {
            "positions": [
                1.2165098954987268,
                -1.6833484298041526,
                -0.32181063527507714,
                0.1503678357393472,
                0.7037881332391558,
                1.6256310632421174
            ]
        },
        {
            "positions": [
                1.2891554206158924,
                -1.6522665827301104,
                -0.21504990435949445,
                0.0815987336477515,
                0.7313725147518313,
                1.7088499344081496
            ]
        },
        {
            "positions": [
                1.361800945733058,
                -1.6211847356560685,
                -0.10828917344391131,
                0.012829631556155796,
                0.7589568962645068,
                1.7920688055741818
            ]
        },
        {
            "positions": [
                1.4344464708502236,
                -1.5901028885820265,
                -0.0015284425283281777,
                -0.055939470535439906,
                0.7865412777771823,
                1.8752876767402142
            ]
        },
        {
            "positions": [
                1.5070919959673894,
                -1.5590210415079846,
                0.10523228838725496,
                -0.12470857262703605,
                0.8141256592898578,
                1.958506547906247
            ]
        },
        {
            "positions": [
                1.579737521084555,
                -1.5279391944339424,
                0.2119930193028381,
                -0.19347767471863175,
                0.8417100408025333,
                2.041725419072279
            ]
        },
        {
            "positions": [
                1.6523830462017206,
                -1.4968573473599005,
                0.31875375021842123,
                -0.26224677681022746,
                0.8692944223152088,
                2.1249442902383118
            ]
        },
        {
            "positions": [
                1.7250285713188862,
                -1.4657755002858583,
                0.4255144811340039,
                -0.33101587890182316,
                0.8968788038278843,
                2.208163161404344
            ]
        },
        {
            "positions": [
                1.7976740964360522,
                -1.4346936532118164,
                0.5322752120495875,
                -0.3997849809934193,
                0.92446318534056,
                2.2913820325703766
            ]
        },
        {
            "positions": [
                1.8703196215532178,
                -1.4036118061377745,
                0.6390359429651706,
                -0.468554083085015,
                0.9520475668532355,
                2.374600903736409
            ]
        },
        {
            "positions": [
                1.9429651466703832,
                -1.3725299590637325,
                0.7457966738807533,
                -0.5373231851766107,
                0.979631948365911,
                2.457819774902441
            ]
        },
        {
            "positions": [
                2.015610671787549,
                -1.3414481119896904,
                0.8525574047963365,
                -0.6060922872682064,
                1.0072163298785866,
                2.5410386460684737
            ]
        },
        {
            "positions": [
                2.088256196904715,
                -1.3103662649156482,
                0.95931813571192,
                -0.6748613893598026,
                1.034800711391262,
                2.6242575172345064
            ]
        },
        {
            "positions": [
                2.1609017220218805,
                -1.2792844178416063,
                1.0660788666275027,
                -0.7436304914513983,
                1.0623850929039376,
                2.7074763884005386
            ]
        },
        {
            "positions": [
                2.233547247139046,
                -1.2482025707675644,
                1.1728395975430856,
                -0.812399593542994,
                1.089969474416613,
                2.790695259566571
            ]
        },
        {
            "positions": [
                2.312583473757278,
                -1.2011982716907161,
                1.3033590752827329,
                -0.8077631499067373,
                1.0850613328281968,
                2.8685091464564763
            ]
        },
        {
            "positions": [
                2.39161970037551,
                -1.1541939726138677,
                1.4338785530223803,
                -0.8031267062704804,
                1.0801531912397808,
                2.9463230333463817
            ]
        },
        {
            "positions": [
                2.470655926993742,
                -1.1071896735370195,
                1.5643980307620275,
                -0.7984902626342237,
                1.0752450496513646,
                3.0241369202362876
            ]
        },
        {
            "positions": [
                2.549692153611974,
                -1.060185374460171,
                1.6949175085016748,
                -0.7938538189979669,
                1.0703369080629486,
                3.101950807126193
            ]
        },
        {
            "positions": [
                2.628728380230206,
                -1.0131810753833228,
                1.8254369862413222,
                -0.7892173753617102,
                1.0654287664745323,
                3.1797646940160984
            ]
        }
    ]
}