{
    "goal": {
        "global_pose": {
            "orientation": {
                "w": -0.4816463035849501,
                "x": 0.5182115481033762,
                "y": 0.4908360881923453,
                "z": -0.5084816262002911
            },
            "position": {
                "x": -0.8240239810943604,
                "y": 0.19912469901144506,
                "z": 0.16403168439865112
            }
        },
        "name": "move_to_storage_D"
    },
    "id": "LBKPIECE_move_to_storage_D_109",
    "joint_names": [
        "shoulder_pan_joint",
        "shoulder_lift_joint",
        "elbow_joint",
        "wrist_1_joint",
        "wrist_2_joint",
        "wrist_3_joint"
    ],
    "metrics": {
        "cart_traj_len": 0.613593050215985,
        "distance_elbow_joint": 0.5555355979259378,
        "distance_shoulder_lift_joint": 0.24885915345810306,
        "distance_shoulder_pan_joint": 0.1504046339910412,
        "distance_wrist_1_joint": 3.8326445780803033,
        "distance_wrist_2_joint": 1.7827509986953096,
        "distance_wrist_3_joint": 3.1171074085283075,
        "smoothness": 0.00699728293181536,
        "time": 0.583214488,
        "traj_len": 3.1124431513971467,
        "weighted_distance": 4.640787946514172
    },
    "planner": "LBKPIECE",
    "start": {
        "state": {
            "elbow_joint": -2.384821997420982,
            "shoulder_lift_joint": -2.2788054674887404,
            "shoulder_pan_joint": -0.18546946417610016,
            "wrist_1_joint": 1.4845937964226739,
            "wrist_2_joint": 0.1789877726866377,
            "wrist_3_joint": 0.03710572555276528
        }
    },
    "waypoints": [
        {
            "positions": [
                -0.18546946417610016,
                -2.2788054674887404,
                -2.384821997420982,
                1.4845937964226739,
                0.1789877726866377,
                0.03710572555276528
            ]
        },
        {
            "positions": [
                -0.1494790141532889,
                -2.2118372329197724,
                -2.3561587691514867,
                1.3654521362815681,
                0.0797379451965902,
                0.008118147373393544
            ]
        },
        {
            "positions": [
                -0.11348856413047763,
                -2.1448689983508045,
                -2.3274955408819915,
                1.2463104761404622,
                -0.019511882293457322,
                -0.02086943080597819
            ]
        },
        {
            "positions": [
                -0.07749811410766635,
                -2.0779007637818365,
                -2.2988323126124963,
                1.1271688159993565,
                -0.11876170978350487,
                -0.049857008985349935
            ]
        },
        {
            "positions": [
                -0.07556932847482056,
                -2.0800805114978003,
                -2.277489316561703,
                0.9692042888331298,
                -0.18626177870283064,
                -0.18759085780308593
            ]
        },
        {
            "positions": [
                -0.07364054284197477,
                -2.0822602592137636,
                -2.2561463205109096,
                0.8112397616669031,
                -0.2537618476221564,
                -0.32532470662082197
            ]
        },
        {
            "positions": [
                -0.07171175720912899,
                -2.0844400069297273,
                -2.2348033244601164,
                0.6532752345006766,
                -0.3212619165414822,
                -0.46305855543855795
            ]
        },
        {
            "positions": [
                -0.0697829715762832,
                -2.086619754645691,
                -2.2134603284093233,
                0.49531070733444993,
                -0.388761985460808,
                -0.600792404256294
            ]
        },
        {
            "positions": [
                -0.06785418594343741,
                -2.0887995023616543,
                -2.19211733235853,
                0.33734618016822326,
                -0.45626205438013373,
                -0.73852625307403
            ]
        },
        {
            "positions": [
                -0.06592540031059162,
                -2.090979250077618,
                -2.1707743363077365,
                0.1793816530019967,
                -0.5237621232994595,
                -0.876260101891766
            ]
        },
        {
            "positions": [
                -0.06399661467774584,
                -2.093158997793582,
                -2.1494313402569434,
                0.021417125835770046,
                -0.5912621922187853,
                -1.013993950709502
            ]
        },
        {
            "positions": [
                -0.06206782904490005,
                -2.095338745509545,
                -2.1280883442061502,
                -0.13654740133045662,
                -0.6587622611381111,
                -1.151727799527238
            ]
        },
        {
            "positions": [
                -0.060139043412054255,
                -2.097518493225509,
                -2.1067453481553566,
                -0.2945119284966835,
                -0.7262623300574369,
                -1.289461648344974
            ]
        },
        {
            "positions": [
                -0.05821025777920846,
                -2.0996982409414726,
                -2.0854023521045635,
                -0.45247645566290995,
                -0.7937623989767626,
                -1.4271954971627099
            ]
        },
        {
            "positions": [
                -0.05628147214636268,
                -2.101877988657436,
                -2.0640593560537703,
                -0.6104409828291366,
                -0.8612624678960884,
                -1.5649293459804459
            ]
        },
        {
            "positions": [
                -0.05435268651351689,
                -2.1040577363733997,
                -2.042716360002977,
                -0.7684055099953631,
                -0.9287625368154141,
                -1.7026631947981818
            ]
        },
        {
            "positions": [
                -0.0524239008806711,
                -2.1062374840893634,
                -2.0213733639521836,
                -0.9263700371615899,
                -0.99626260573474,
                -1.840397043615918
            ]
        },
        {
            "positions": [
                -0.05049511524782531,
                -2.108417231805327,
                -2.0000303679013904,
                -1.0843345643278164,
                -1.0637626746540656,
                -1.9781308924336538
            ]
        },
        {
            "positions": [
                -0.048566329614979524,
                -2.1105969795212904,
                -1.978687371850597,
                -1.2422990914940428,
                -1.1312627435733913,
                -2.11586474125139
            ]
        },
        {
            "positions": [
                -0.04663754398213373,
                -2.112776727237254,
                -1.9573443757998037,
                -1.4002636186602697,
                -1.1987628124927174,
                -2.253598590069126
            ]
        },
        {
            "positions": [
                -0.04470875834928795,
                -2.114956474953218,
                -1.9360013797490105,
                -1.5582281458264966,
                -1.2662628814120431,
                -2.391332438886862
            ]
        },
        {
            "positions": [
                -0.042779972716442155,
                -2.1171362226691812,
                -1.9146583836982172,
                -1.7161926729927235,
                -1.3337629503313688,
                -2.529066287704598
            ]
        },
        {
            "positions": [
                -0.04085118708359637,
                -2.119315970385145,
                -1.893315387647424,
                -1.87415720015895,
                -1.4012630192506945,
                -2.666800136522334
            ]
        },
        {
            "positions": [
                -0.03892240145075058,
                -2.1214957181011087,
                -1.8719723915966306,
                -2.032121727325176,
                -1.4687630881700202,
                -2.80453398534007
            ]
        },
        {
            "positions": [
                -0.036993615817904786,
                -2.123675465817072,
                -1.8506293955458375,
                -2.190086254491403,
                -1.5362631570893464,
                -2.942267834157806
            ]
        },
        {
            "positions": [
                -0.035064830185059,
                -2.1258552135330357,
                -1.8292863994950441,
                -2.3480507816576295,
                -1.603763226008672,
                -3.080001682975542
            ]
        }
    ]
}