{
    "goal": {
        "global_pose": {
            "orientation": {
                "w": 0.5084816217422485,
                "x": -0.49083608388900757,
                "y": 0.5182115435600281,
                "z": -0.4816462993621826
            },
            "position": {
                "x": 0.5540239810943604,
                "y": 0.030875300988554955,
                "z": 0.16403168439865112
            }
        },
        "name": "move_to_storage_A"
    },
    "id": "LBKPIECE_move_to_storage_A_115",
    "joint_names": [
        "shoulder_pan_joint",
        "shoulder_lift_joint",
        "elbow_joint",
        "wrist_1_joint",
        "wrist_2_joint",
        "wrist_3_joint"
    ],
    "metrics": {
        "cart_traj_len": 0.35349749297560573,
        "distance_elbow_joint": 0.44976645846921093,
        "distance_shoulder_lift_joint": 0.23337559504232464,
        "distance_shoulder_pan_joint": 0.462269429670429,
        "distance_wrist_1_joint": 0.24728841134117008,
        "distance_wrist_2_joint": 1.0986015476458166,
        "distance_wrist_3_joint": 0.1061846473491812,
        "smoothness": 8.881784197001252e-16,
        "time": 1.924118679,
        "traj_len": 1.6116718305902518,
        "weighted_distance": 2.0385645300562554
    },
    "planner": "LBKPIECE",
    "start": {
        "state": {
            "elbow_joint": 1.9715474177455299,
            "shoulder_lift_joint": -1.139484666580328,
            "shoulder_pan_joint": 0.12281154398918248,
            "wrist_1_joint": -0.7804687475355282,
            "wrist_2_joint": 0.12958649657246987,
            "wrist_3_joint": -3.1924925159053466
        }
    },
    "waypoints": [
        {
            "positions": [
                0.12281154398918248,
                -1.139484666580328,
                1.9715474177455299,
                -0.7804687475355282,
                0.12958649657246987,
                -3.1924925159053466
            ]
        },
        {
            "positions": [
                0.05677305403626405,
                -1.17282403730066,
                2.035799768955417,
                -0.8157956634414096,
                0.28652957480758656,
                -3.177323280569749
            ]
        },
        {
            "positions": [
                -0.00926543591665438,
                -1.2061634080209922,
                2.1000521201653046,
                -0.8511225793472911,
                0.4434726530427032,
                -3.162154045234152
            ]
        },
        {
            "positions": [
                -0.0753039258695728,
                -1.2395027787413242,
                2.1643044713751918,
                -0.8864494952531725,
                0.6004157312778199,
                -3.1469848098985547
            ]
        },
        {
            "positions": [
                -0.14134241582249124,
                -1.2728421494616564,
                2.228556822585079,
                -0.921776411159054,
                0.7573588095129367,
                -3.1318155745629572
            ]
        },
        {
            "positions": [
                -0.20738090577540969,
                -1.3061815201819884,
                2.292809173794966,
                -0.9571033270649354,
                0.9143018877480534,
                -3.11664633922736
            ]
        },
        {
            "positions": [
                -0.2734193957283281,
                -1.3395208909023206,
                2.3570615250048537,
                -0.9924302429708168,
                1.07124496598317,
                -3.101477103891763
            ]
        },
        {
            "positions": [
                -0.3394578856812465,
                -1.3728602616226526,
                2.421313876214741,
                -1.0277571588766983,
                1.2281880442182866,
                -3.0863078685561653
            ]
        }
    ]
}