{
    "goal": {
        "global_pose": {
            "orientation": {
                "w": -0.00223480608172531,
                "x": 0.0024358444001904467,
                "y": 0.7094548369677653,
                "z": -0.704743149386269
            },
            "position": {
                "x": 0.6205249238014221,
                "y": -0.6371506643295288,
                "z": 0.19426114857196808
            }
        },
        "name": "move_to_magneteinheit_B"
    },
    "id": "LBKPIECE_move_to_magneteinheit_B_139",
    "joint_names": [
        "shoulder_pan_joint",
        "shoulder_lift_joint",
        "elbow_joint",
        "wrist_1_joint",
        "wrist_2_joint",
        "wrist_3_joint"
    ],
    "metrics": {
        "cart_traj_len": 1.454103447132005,
        "distance_elbow_joint": 0.7308315194301762,
        "distance_shoulder_lift_joint": 1.248515875754177,
        "distance_shoulder_pan_joint": 1.6209677860362532,
        "distance_wrist_1_joint": 2.6109088364481012,
        "distance_wrist_2_joint": 2.9386643361614677,
        "distance_wrist_3_joint": 3.1306147512954254,
        "smoothness": 6.106226652474344e-16,
        "time": 4.3494525710000005,
        "traj_len": 3.504354877167209,
        "weighted_distance": 4.908289496385274
    },
    "planner": "LBKPIECE",
    "start": {
        "state": {
            "elbow_joint": 2.3935871308073637,
            "shoulder_lift_joint": -1.9085141043777403,
            "shoulder_pan_joint": 0.7066247067284167,
            "wrist_1_joint": -0.46782909355067076,
            "wrist_2_joint": 0.7096259085804283,
            "wrist_3_joint": -3.1358149275257428
        }
    },
    "waypoints": [
        {
            "positions": [
                0.7066247067284167,
                -1.9085141043777403,
                2.3935871308073637,
                -0.46782909355067076,
                0.7096259085804283,
                -3.1358149275257428
            ]
        },
        {
            "positions": [
                0.6543354233078924,
                -1.8682393987082506,
                2.3700119205031647,
                -0.3836062278587965,
                0.6148302848332842,
                -3.03482735490331
            ]
        },
        {
            "positions": [
                0.6020461398873681,
                -1.8279646930387612,
                2.346436710198965,
                -0.2993833621669223,
                0.52003466108614,
                -2.9338397822808764
            ]
        },
        {
            "positions": [
                0.5497568564668438,
                -1.7876899873692715,
                2.322861499894766,
                -0.2151604964750481,
                0.42523903733899593,
                -2.8328522096584434
            ]
        },
        {
            "positions": [
                0.4974675730463195,
                -1.7474152816997819,
                2.299286289590567,
                -0.13093763078317383,
                0.3304434135918518,
                -2.7318646370360105
            ]
        },
        {
            "positions": [
                0.4451782896257952,
                -1.7071405760302925,
                2.2757110792863675,
                -0.046714765091299626,
                0.2356477898447077,
                -2.6308770644135775
            ]
        },
        {
            "positions": [
                0.39288900620527095,
                -1.6668658703608028,
                2.2521358689821684,
                0.03750810060057458,
                0.14085216609756357,
                -2.5298894917911445
            ]
        },
        {
            "positions": [
                0.34059972278474665,
                -1.6265911646913132,
                2.228560658677969,
                0.1217309662924489,
                0.04605654235041945,
                -2.428901919168711
            ]
        },
        {
            "positions": [
                0.28831043936422235,
                -1.5863164590218237,
                2.20498544837377,
                0.2059538319843231,
                -0.04873908139672467,
                -2.327914346546278
            ]
        },
        {
            "positions": [
                0.236021155943698,
                -1.546041753352334,
                2.181410238069571,
                0.2901766976761974,
                -0.1435347051438689,
                -2.2269267739238447
            ]
        },
        {
            "positions": [
                0.1837318725231737,
                -1.5057670476828444,
                2.1578350277653713,
                0.3743995633680715,
                -0.2383303288910129,
                -2.125939201301412
            ]
        },
        {
            "positions": [
                0.1314425891026494,
                -1.4654923420133548,
                2.134259817461172,
                0.4586224290599458,
                -0.33312595263815703,
                -2.024951628678979
            ]
        },
        {
            "positions": [
                0.0791533056821252,
                -1.4252176363438653,
                2.110684607156973,
                0.5428452947518199,
                -0.42792157638530115,
                -1.9239640560565459
            ]
        },
        {
            "positions": [
                0.026864022261600784,
                -1.3849429306743757,
                2.0871093968527736,
                0.6270681604436943,
                -0.5227172001324453,
                -1.8229764834341127
            ]
        },
        {
            "positions": [
                -0.025425261158923407,
                -1.3446682250048863,
                2.0635341865485746,
                0.7112910261355685,
                -0.6175128238795894,
                -1.7219889108116797
            ]
        },
        {
            "positions": [
                -0.07771454457944782,
                -1.3043935193353966,
                2.039958976244375,
                0.7955138918274427,
                -0.7123084476267335,
                -1.6210013381892465
            ]
        },
        {
            "positions": [
                -0.130003827999972,
                -1.264118813665907,
                2.016383765940176,
                0.8797367575193169,
                -0.8071040713738776,
                -1.5200137655668136
            ]
        },
        {
            "positions": [
                -0.1822931114204963,
                -1.2238441079964173,
                1.992808555635977,
                0.9639596232111911,
                -0.9018996951210215,
                -1.4190261929443806
            ]
        },
        {
            "positions": [
                -0.23458239484102072,
                -1.1835694023269276,
                1.9692333453317774,
                1.0481824889030655,
                -0.9966953188681661,
                -1.3180386203219472
            ]
        },
        {
            "positions": [
                -0.286871678261545,
                -1.1432946966574382,
                1.9456581350275783,
                1.1324053545949397,
                -1.09149094261531,
                -1.2170510476995142
            ]
        },
        {
            "positions": [
                -0.33916096168206933,
                -1.1030199909879488,
                1.922082924723379,
                1.2166282202868137,
                -1.1862865663624542,
                -1.1160634750770813
            ]
        },
        {
            "positions": [
                -0.3914502451025935,
                -1.0627452853184591,
                1.8985077144191798,
                1.300851085978688,
                -1.281082190109598,
                -1.0150759024546483
            ]
        },
        {
            "positions": [
                -0.44373952852311793,
                -1.0224705796489695,
                1.8749325041149807,
                1.3850739516705624,
                -1.3758778138567425,
                -0.9140883298322149
            ]
        },
        {
            "positions": [
                -0.4960288119436421,
                -0.9821958739794799,
                1.8513572938107814,
                1.4692968173624366,
                -1.4706734376038866,
                -0.8131007572097819
            ]
        },
        {
            "positions": [
                -0.5483180953641663,
                -0.9419211683099904,
                1.8277820835065821,
                1.5535196830543105,
                -1.5654690613510307,
                -0.712113184587349
            ]
        },
        {
            "positions": [
                -0.6006073787846907,
                -0.9016464626405007,
                1.804206873202383,
                1.6377425487461847,
                -1.6602646850981748,
                -0.611125611964916
            ]
        },
        {
            "positions": [
                -0.6528966622052151,
                -0.8613717569710111,
                1.7806316628981835,
                1.7219654144380594,
                -1.755060308845319,
                -0.5101380393424826
            ]
        },
        {
            "positions": [
                -0.7051859456257393,
                -0.8210970513015217,
                1.7570564525939845,
                1.8061882801299336,
                -1.849855932592463,
                -0.4091504667200496
            ]
        },
        {
            "positions": [
                -0.7574752290462635,
                -0.780822345632032,
                1.7334812422897854,
                1.8904111458218078,
                -1.9446515563396072,
                -0.30816289409761666
            ]
        },
        {
            "positions": [
                -0.8097645124667879,
                -0.7405476399625426,
                1.7099060319855859,
                1.974634011513682,
                -2.0394471800867513,
                -0.2071753214751837
            ]
        },
        {
            "positions": [
                -0.8620537958873123,
                -0.7002729342930529,
                1.6863308216813868,
                2.058856877205556,
                -2.1342428038338954,
                -0.10618774885275029
            ]
        },
        {
            "positions": [
                -0.9143430793078366,
                -0.6599982286235632,
                1.6627556113771875,
                2.1430797428974304,
                -2.2290384275810395,
                -0.005200176230317195
            ]
        }
    ]
}