{
    "goal": {
        "global_pose": {
            "orientation": {
                "w": 0.5084816262002911,
                "x": -0.4908360881923452,
                "y": 0.5182115481033761,
                "z": -0.48164630358495003
            },
            "position": {
                "x": 0.5540239810943604,
                "y": -0.46912469901144505,
                "z": 0.16403168439865112
            }
        },
        "name": "move_to_storage_B"
    },
    "id": "LBKPIECE_move_to_storage_B_73",
    "joint_names": [
        "shoulder_pan_joint",
        "shoulder_lift_joint",
        "elbow_joint",
        "wrist_1_joint",
        "wrist_2_joint",
        "wrist_3_joint"
    ],
    "metrics": {
        "cart_traj_len": 2.432779963852365,
        "distance_elbow_joint": 0.7552861421582555,
        "distance_shoulder_lift_joint": 1.0403542651098263,
        "distance_shoulder_pan_joint": 2.5829300230343586,
        "distance_wrist_1_joint": 4.350215039547039,
        "distance_wrist_2_joint": 2.7008678715981818,
        "distance_wrist_3_joint": 3.133297742422688,
        "smoothness": 0.3462685080565118,
        "time": 0.6370153570000001,
        "traj_len": 3.816143483134557,
        "weighted_distance": 5.280211120766001
    },
    "planner": "LBKPIECE",
    "start": {
        "state": {
            "elbow_joint": 1.6649325706314817,
            "shoulder_lift_joint": -0.6616388048112454,
            "shoulder_pan_joint": -0.9139837860083814,
            "wrist_1_joint": 2.146757197745094,
            "wrist_2_joint": -2.234196043158733,
            "wrist_3_joint": 0.005471033829999897
        }
    },
    "waypoints": [
        {
            "positions": [
                -0.9139837860083814,
                -0.6616388048112454,
                1.6649325706314817,
                2.146757197745094,
                -2.234196043158733,
                0.005471033829999897
            ]
        },
        {
            "positions": [
                -0.7939233928992169,
                -0.7366236185168072,
                1.6446682696118464,
                2.2151593041096604,
                -2.2216640599958493,
                0.09933764738664051
            ]
        },
        {
            "positions": [
                -0.6738629997900523,
                -0.8116084322223691,
                1.6244039685922111,
                2.283561410474227,
                -2.209132076832966,
                0.1932042609432811
            ]
        },
        {
            "positions": [
                -0.5538026066808879,
                -0.8865932459279309,
                1.6041396675725759,
                2.3519635168387927,
                -2.1966000936700825,
                0.28707087449992175
            ]
        },
        {
            "positions": [
                -0.43374221357172327,
                -0.9615780596334929,
                1.5838753665529406,
                2.420365623203359,
                -2.184068110507199,
                0.38093748805656236
            ]
        },
        {
            "positions": [
                -0.31368182046255877,
                -1.0365628733390546,
                1.5636110655333053,
                2.4887677295679254,
                -2.1715361273443152,
                0.47480410161320297
            ]
        },
        {
            "positions": [
                -0.19362142735339427,
                -1.1115476870446164,
                1.5433467645136698,
                2.5571698359324917,
                -2.159004144181432,
                0.5686707151698436
            ]
        },
        {
            "positions": [
                -0.07356103424422977,
                -1.1865325007501784,
                1.5230824634940345,
                2.625571942297058,
                -2.1464721610185484,
                0.6625373287264842
            ]
        },
        {
            "positions": [
                0.04649935886493484,
                -1.2615173144557401,
                1.5028181624743993,
                2.693974048661624,
                -2.133940177855665,
                0.7564039422831248
            ]
        },
        {
            "positions": [
                0.16655975197409945,
                -1.3365021281613019,
                1.482553861454764,
                2.7623761550261903,
                -2.1214081946927816,
                0.8502705558397654
            ]
        },
        {
            "positions": [
                0.2866201450832637,
                -1.4114869418668639,
                1.4622895604351287,
                2.8307782613907566,
                -2.108876211529898,
                0.944137169396406
            ]
        },
        {
            "positions": [
                0.23542288241871875,
                -1.400727455642634,
                1.4827578245818658,
                2.6949932993203354,
                -2.013485543382885,
                1.0254198215021941
            ]
        },
        {
            "positions": [
                0.18422561975417379,
                -1.389967969418404,
                1.5032260887286029,
                2.559208337249914,
                -1.9180948752358724,
                1.1067024736079825
            ]
        },
        {
            "positions": [
                0.13302835708962882,
                -1.379208483194174,
                1.5236943528753402,
                2.4234233751794925,
                -1.8227042070888595,
                1.1879851257137706
            ]
        },
        {
            "positions": [
                0.08183109442508385,
                -1.3684489969699443,
                1.5441626170220772,
                2.2876384131090712,
                -1.7273135389418466,
                1.269267777819559
            ]
        },
        {
            "positions": [
                0.030633831760538854,
                -1.3576895107457143,
                1.5646308811688143,
                2.15185345103865,
                -1.631922870794834,
                1.350550429925347
            ]
        },
        {
            "positions": [
                -0.020563430904006086,
                -1.3469300245214844,
                1.5850991453155514,
                2.0160684889682283,
                -1.536532202647821,
                1.4318330820311354
            ]
        },
        {
            "positions": [
                -0.07176069356855108,
                -1.3361705382972544,
                1.6055674094622887,
                1.880283526897807,
                -1.441141534500808,
                1.5131157341369235
            ]
        },
        {
            "positions": [
                -0.12295795623309602,
                -1.3254110520730245,
                1.6260356736090258,
                1.7444985648273859,
                -1.3457508663537951,
                1.5943983862427116
            ]
        },
        {
            "positions": [
                -0.17415521889764102,
                -1.3146515658487945,
                1.6465039377557629,
                1.6087136027569646,
                -1.2503601982067825,
                1.6756810383485
            ]
        },
        {
            "positions": [
                -0.225352481562186,
                -1.3038920796245645,
                1.6669722019025,
                1.4729286406865432,
                -1.1549695300597695,
                1.7569636904542882
            ]
        },
        {
            "positions": [
                -0.27654974422673095,
                -1.2931325934003348,
                1.687440466049237,
                1.337143678616122,
                -1.0595788619127569,
                1.8382463425600764
            ]
        },
        {
            "positions": [
                -0.3277470068912759,
                -1.2823731071761049,
                1.7079087301959743,
                1.2013587165457005,
                -0.9641881937657439,
                1.9195289946658645
            ]
        },
        {
            "positions": [
                -0.37894426955582095,
                -1.271613620951875,
                1.7283769943427114,
                1.0655737544752792,
                -0.868797525618731,
                2.000811646771653
            ]
        },
        {
            "positions": [
                -0.4301415322203659,
                -1.260854134727645,
                1.7488452584894485,
                0.9297887924048578,
                -0.7734068574717181,
                2.0820942988774407
            ]
        },
        {
            "positions": [
                -0.48133879488491094,
                -1.250094648503415,
                1.7693135226361858,
                0.7940038303344363,
                -0.6780161893247052,
                2.1633769509832295
            ]
        },
        {
            "positions": [
                -0.5325360575494558,
                -1.239335162279185,
                1.7897817867829229,
                0.6582188682640151,
                -0.5826255211776925,
                2.2446596030890174
            ]
        },
        {
            "positions": [
                -0.5837333202140008,
                -1.2285756760549553,
                1.81025005092966,
                0.5224339061935934,
                -0.4872348530306796,
                2.3259422551948057
            ]
        },
        {
            "positions": [
                -0.6349305828785458,
                -1.2178161898307254,
                1.830718315076397,
                0.38664894412317263,
                -0.3918441848836669,
                2.407224907300594
            ]
        },
        {
            "positions": [
                -0.6861278455430908,
                -1.2070567036064954,
                1.8511865792231341,
                0.25086398205275096,
                -0.29645351673665377,
                2.488507559406382
            ]
        },
        {
            "positions": [
                -0.7373251082076357,
                -1.1962972173822655,
                1.8716548433698712,
                0.11507901998232972,
                -0.20106284858964107,
                2.5697902115121702
            ]
        },
        {
            "positions": [
                -0.7885223708721807,
                -1.1855377311580355,
                1.8921231075166085,
                -0.020705942088091955,
                -0.10567218044262816,
                2.6510728636179586
            ]
        },
        {
            "positions": [
                -0.8397196335367256,
                -1.1747782449338056,
                1.9125913716633456,
                -0.15649090415851274,
                -0.010281512295615691,
                2.7323555157237465
            ]
        },
        {
            "positions": [
                -0.8909168962012706,
                -1.1640187587095756,
                1.9330596358100827,
                -0.2922758662289344,
                0.08510915585139767,
                2.8136381678295352
            ]
        },
        {
            "positions": [
                -0.9421141588658155,
                -1.1532592724853457,
                1.9535278999568197,
                -0.42806082829935566,
                0.18049982399841014,
                2.894920819935323
            ]
        },
        {
            "positions": [
                -0.9933114215303607,
                -1.142499786261116,
                1.973996164103557,
                -0.5638457903697773,
                0.27589049214542305,
                2.976203472041112
            ]
        },
        {
            "positions": [
                -1.0445086841949056,
                -1.131740300036886,
                1.9944644282502941,
                -0.6996307524401981,
                0.37128116029243596,
                3.0574861241469
            ]
        },
        {
            "positions": [
                -1.0957059468594506,
                -1.120980813812656,
                2.014932692397031,
                -0.8354157145106197,
                0.466671828439449,
                3.138768776252688
            ]
        }
    ]
}