{
    "goal": {
        "global_pose": {
            "orientation": {
                "w": 0.005598929693374612,
                "x": 0.007748599140229565,
                "y": 0.7110244013736278,
                "z": -0.7031023480610252
            },
            "position": {
                "x": 0.1141497679147869,
                "y": -0.7141253447532654,
                "z": 0.3711530566215515
            }
        },
        "name": "move_to_auspresseinheit_B"
    },
    "id": "LBKPIECE_move_to_auspresseinheit_B_129",
    "joint_names": [
        "shoulder_pan_joint",
        "shoulder_lift_joint",
        "elbow_joint",
        "wrist_1_joint",
        "wrist_2_joint",
        "wrist_3_joint"
    ],
    "metrics": {
        "cart_traj_len": 0.5639929891912621,
        "distance_elbow_joint": 0.062499490876868125,
        "distance_shoulder_lift_joint": 0.294254622721855,
        "distance_shoulder_pan_joint": 0.5773544891185676,
        "distance_wrist_1_joint": 0.33080408056069344,
        "distance_wrist_2_joint": 0.9909395905143055,
        "distance_wrist_3_joint": 0.007742855099405421,
        "smoothness": 2.5376526478085547e-16,
        "time": 5.02813759,
        "traj_len": 1.5045248847698383,
        "weighted_distance": 1.8975838611680658
    },
    "planner": "LBKPIECE",
    "start": {
        "state": {
            "elbow_joint": 2.019306165916698,
            "shoulder_lift_joint": -1.1220205098164344,
            "shoulder_pan_joint": -1.095207207618794,
            "wrist_1_joint": -0.8559671824921639,
            "wrist_2_joint": 0.47596387242952726,
            "wrist_3_joint": 3.159081874673826
        }
    },
    "waypoints": [
        {
            "positions": [
                -1.095207207618794,
                -1.1220205098164344,
                2.019306165916698,
                -0.8559671824921639,
                0.47596387242952726,
                3.159081874673826
            ]
        },
        {
            "positions": [
                -1.191432955805222,
                -1.1710629469367435,
                2.0088895841038865,
                -0.8008331690653816,
                0.6411204708485782,
                3.1603723505237267
            ]
        },
        {
            "positions": [
                -1.2876587039916498,
                -1.2201053840570528,
                1.9984730022910753,
                -0.7456991556385993,
                0.8062770692676291,
                3.1616628263736275
            ]
        },
        {
            "positions": [
                -1.3838844521780778,
                -1.269147821177362,
                1.988056420478264,
                -0.6905651422118171,
                0.9714336676866799,
                3.1629533022235288
            ]
        },
        {
            "positions": [
                -1.4801102003645057,
                -1.318190258297671,
                1.9776398386654526,
                -0.6354311287850349,
                1.1365902661057308,
                3.1642437780734296
            ]
        },
        {
            "positions": [
                -1.5763359485509336,
                -1.3672326954179803,
                1.967223256852641,
                -0.5802971153582526,
                1.3017468645247818,
                3.1655342539233304
            ]
        },
        {
            "positions": [
                -1.6725616967373615,
                -1.4162751325382894,
                1.9568066750398299,
                -0.5251631019314704,
                1.4669034629438327,
                3.1668247297732313
            ]
        }
    ]
}