{
    "goal": {
        "global_pose": {
            "orientation": {
                "w": 0.5084816262002911,
                "x": -0.4908360881923452,
                "y": 0.5182115481033761,
                "z": -0.48164630358495003
            },
            "position": {
                "x": 0.5540239810943604,
                "y": -0.46912469901144505,
                "z": 0.16403168439865112
            }
        },
        "name": "move_to_storage_B"
    },
    "id": "LBKPIECE_move_to_storage_B_52",
    "joint_names": [
        "shoulder_pan_joint",
        "shoulder_lift_joint",
        "elbow_joint",
        "wrist_1_joint",
        "wrist_2_joint",
        "wrist_3_joint"
    ],
    "metrics": {
        "cart_traj_len": 0.7681127551072936,
        "distance_elbow_joint": 0.4286003321831384,
        "distance_shoulder_lift_joint": 0.45764360514976943,
        "distance_shoulder_pan_joint": 0.5350530291455368,
        "distance_wrist_1_joint": 2.980014909517303,
        "distance_wrist_2_joint": 2.705789301842993,
        "distance_wrist_3_joint": 3.140778892961128,
        "smoothness": 0.09345030593913332,
        "time": 0.761411697,
        "traj_len": 3.201231024277983,
        "weighted_distance": 4.7133047926144584
    },
    "planner": "LBKPIECE",
    "start": {
        "state": {
            "elbow_joint": 1.6649325706314817,
            "shoulder_lift_joint": -0.6616388048112454,
            "shoulder_pan_joint": -0.9139837860083814,
            "wrist_1_joint": 2.146757197745094,
            "wrist_2_joint": -2.234196043158733,
            "wrist_3_joint": 0.005471033829999897
        }
    },
    "waypoints": [
        {
            "positions": [
                -0.9139837860083814,
                -0.6616388048112454,
                1.6649325706314817,
                2.146757197745094,
                -2.234196043158733,
                0.005471033829999897
            ]
        },
        {
            "positions": [
                -0.8255839732768597,
                -0.7127898297042763,
                1.6445440291487838,
                2.07905475768688,
                -2.1478663324100045,
                -0.04002809556351295
            ]
        },
        {
            "positions": [
                -0.737184160545338,
                -0.7639408545973072,
                1.624155487666086,
                2.011352317628666,
                -2.061536621661276,
                -0.08552722495702579
            ]
        },
        {
            "positions": [
                -0.7515142966926377,
                -0.7781545168118555,
                1.6396684176347958,
                1.8975679164526311,
                -1.9602114264474546,
                -0.2075184503239899
            ]
        },
        {
            "positions": [
                -0.7658444328399374,
                -0.7923681790264038,
                1.6551813476035053,
                1.7837835152765962,
                -1.8588862312336332,
                -0.329509675690954
            ]
        },
        {
            "positions": [
                -0.7801745689872371,
                -0.8065818412409521,
                1.6706942775722151,
                1.669999114100561,
                -1.7575610360198117,
                -0.4515009010579181
            ]
        },
        {
            "positions": [
                -0.7945047051345369,
                -0.8207955034555005,
                1.686207207540925,
                1.556214712924526,
                -1.6562358408059903,
                -0.5734921264248822
            ]
        },
        {
            "positions": [
                -0.8088348412818367,
                -0.8350091656700487,
                1.7017201375096345,
                1.442430311748491,
                -1.5549106455921686,
                -0.6954833517918464
            ]
        },
        {
            "positions": [
                -0.8231649774291364,
                -0.849222827884597,
                1.7172330674783443,
                1.328645910572456,
                -1.4535854503783474,
                -0.8174745771588104
            ]
        },
        {
            "positions": [
                -0.8374951135764361,
                -0.8634364900991454,
                1.7327459974470538,
                1.214861509396421,
                -1.3522602551645257,
                -0.9394658025257746
            ]
        },
        {
            "positions": [
                -0.8518252497237359,
                -0.8776501523136937,
                1.7482589274157636,
                1.101077108220386,
                -1.2509350599507045,
                -1.0614570278927387
            ]
        },
        {
            "positions": [
                -0.8661553858710356,
                -0.8918638145282419,
                1.7637718573844734,
                0.9872927070443511,
                -1.149609864736883,
                -1.1834482532597028
            ]
        },
        {
            "positions": [
                -0.8804855220183353,
                -0.9060774767427903,
                1.7792847873531832,
                0.873508305868316,
                -1.0482846695230614,
                -1.305439478626667
            ]
        },
        {
            "positions": [
                -0.894815658165635,
                -0.9202911389573385,
                1.7947977173218927,
                0.759723904692281,
                -0.9469594743092402,
                -1.427430703993631
            ]
        },
        {
            "positions": [
                -0.9091457943129349,
                -0.9345048011718868,
                1.8103106472906025,
                0.6459395035162461,
                -0.8456342790954188,
                -1.549421929360595
            ]
        },
        {
            "positions": [
                -0.9234759304602345,
                -0.9487184633864352,
                1.825823577259312,
                0.5321551023402111,
                -0.7443090838815971,
                -1.6714131547275592
            ]
        },
        {
            "positions": [
                -0.9378060666075343,
                -0.9629321256009835,
                1.841336507228022,
                0.41837070116417596,
                -0.6429838886677757,
                -1.7934043800945234
            ]
        },
        {
            "positions": [
                -0.952136202754834,
                -0.9771457878155317,
                1.8568494371967317,
                0.30458629998814124,
                -0.5416586934539545,
                -1.9153956054614873
            ]
        },
        {
            "positions": [
                -0.9664663389021337,
                -0.9913594500300801,
                1.8723623671654412,
                0.19080189881210607,
                -0.4403334982401328,
                -2.0373868308284515
            ]
        },
        {
            "positions": [
                -0.9807964750494335,
                -1.0055731122446283,
                1.887875297134151,
                0.07701749763607091,
                -0.33900830302631135,
                -2.1593780561954157
            ]
        },
        {
            "positions": [
                -0.9951266111967332,
                -1.0197867744591766,
                1.9033882271028606,
                -0.03676690353996381,
                -0.23768310781249014,
                -2.28136928156238
            ]
        },
        {
            "positions": [
                -1.009456747344033,
                -1.034000436673725,
                1.9189011570715704,
                -0.15055130471599876,
                -0.13635791259866847,
                -2.403360506929344
            ]
        },
        {
            "positions": [
                -1.0237868834913326,
                -1.0482140988882733,
                1.9344140870402802,
                -0.26433570589203415,
                -0.03503271738484681,
                -2.525351732296308
            ]
        },
        {
            "positions": [
                -1.0381170196386325,
                -1.0624277611028217,
                1.94992701700899,
                -0.37812010706806864,
                0.0662924778289744,
                -2.647342957663272
            ]
        },
        {
            "positions": [
                -1.052447155785932,
                -1.07664142331737,
                1.9654399469776995,
                -0.49190450824410403,
                0.16761767304279562,
                -2.769334183030236
            ]
        },
        {
            "positions": [
                -1.066777291933232,
                -1.0908550855319183,
                1.9809528769464093,
                -0.605688909420139,
                0.2689428682566173,
                -2.8913254083972006
            ]
        },
        {
            "positions": [
                -1.0811074280805317,
                -1.1050687477464665,
                1.9964658069151189,
                -0.7194733105961739,
                0.3702680634704385,
                -3.0133166337641644
            ]
        },
        {
            "positions": [
                -1.0954375642278313,
                -1.1192824099610148,
                2.0119787368838287,
                -0.8332577117722089,
                0.4715932586842602,
                -3.1353078591311285
            ]
        }
    ]
}