{
    "goal": {
        "global_pose": {
            "orientation": {
                "w": 0.5084816217422485,
                "x": -0.49083608388900757,
                "y": 0.5182115435600281,
                "z": -0.4816462993621826
            },
            "position": {
                "x": 0.5540239810943604,
                "y": 0.030875300988554955,
                "z": 0.16403168439865112
            }
        },
        "name": "move_to_storage_A"
    },
    "id": "LBKPIECE_move_to_storage_A_140",
    "joint_names": [
        "shoulder_pan_joint",
        "shoulder_lift_joint",
        "elbow_joint",
        "wrist_1_joint",
        "wrist_2_joint",
        "wrist_3_joint"
    ],
    "metrics": {
        "cart_traj_len": 0.3531754233391266,
        "distance_elbow_joint": 0.4510671301236404,
        "distance_shoulder_lift_joint": 0.23520510791839366,
        "distance_shoulder_pan_joint": 0.46416295646891437,
        "distance_wrist_1_joint": 0.24144630021093938,
        "distance_wrist_2_joint": 1.0898917099958045,
        "distance_wrist_3_joint": 0.09290163021389697,
        "smoothness": 2.2204460668324854e-16,
        "time": 3.956898621,
        "traj_len": 1.6045793327011255,
        "weighted_distance": 2.022823794987128
    },
    "planner": "LBKPIECE",
    "start": {
        "state": {
            "elbow_joint": 1.9715474177455299,
            "shoulder_lift_joint": -1.139484666580328,
            "shoulder_pan_joint": 0.12281154398918248,
            "wrist_1_joint": -0.7804687475355282,
            "wrist_2_joint": 0.12958649657246987,
            "wrist_3_joint": -3.1924925159053466
        }
    },
    "waypoints": [
        {
            "positions": [
                0.12281154398918248,
                -1.139484666580328,
                1.9715474177455299,
                -0.7804687475355282,
                0.12958649657246987,
                -3.1924925159053466
            ]
        },
        {
            "positions": [
                0.05650255020790901,
                -1.1730853962829557,
                2.035985579191764,
                -0.814961076137091,
                0.2852853122861562,
                -3.1792208544462186
            ]
        },
        {
            "positions": [
                -0.009806443573364465,
                -1.2066861259855832,
                2.1004237406379986,
                -0.8494534047386537,
                0.44098412799984255,
                -3.16594919298709
            ]
        },
        {
            "positions": [
                -0.07611543735463794,
                -1.240286855688211,
                2.164861902084233,
                -0.8839457333402165,
                0.5966829437135289,
                -3.1526775315279623
            ]
        },
        {
            "positions": [
                -0.1424244311359114,
                -1.2738875853908387,
                2.2293000635304674,
                -0.9184380619417792,
                0.7523817594272153,
                -3.139405870068834
            ]
        },
        {
            "positions": [
                -0.20873342491718494,
                -1.3074883150934664,
                2.2937382249767015,
                -0.952930390543342,
                0.9080805751409017,
                -3.126134208609706
            ]
        },
        {
            "positions": [
                -0.27504241869845836,
                -1.341089044796094,
                2.3581763864229357,
                -0.9874227191449048,
                1.063779390854588,
                -3.1128625471505775
            ]
        },
        {
            "positions": [
                -0.3413514124797319,
                -1.3746897744987217,
                2.4226145478691703,
                -1.0219150477464676,
                1.2194782065682743,
                -3.0995908856914496
            ]
        }
    ]
}