{
    "goal": {
        "global_pose": {
            "orientation": {
                "w": -0.00223480608172531,
                "x": 0.0024358444001904467,
                "y": 0.7094548369677653,
                "z": -0.704743149386269
            },
            "position": {
                "x": 0.6205249238014221,
                "y": -0.6371506643295288,
                "z": 0.19426114857196808
            }
        },
        "name": "move_to_magneteinheit_B"
    },
    "id": "LBKPIECE_move_to_magneteinheit_B_16",
    "joint_names": [
        "shoulder_pan_joint",
        "shoulder_lift_joint",
        "elbow_joint",
        "wrist_1_joint",
        "wrist_2_joint",
        "wrist_3_joint"
    ],
    "metrics": {
        "cart_traj_len": 4.438002374833524,
        "distance_elbow_joint": 4.886333516191165,
        "distance_shoulder_lift_joint": 0.7172443273819697,
        "distance_shoulder_pan_joint": 3.0092360693074567,
        "distance_wrist_1_joint": 2.267833260844106,
        "distance_wrist_2_joint": 2.3547897528947956,
        "distance_wrist_3_joint": 6.271388442270371,
        "smoothness": 0.6562777985901141,
        "time": 1.7326178520000002,
        "traj_len": 4.416653186394633,
        "weighted_distance": 6.0557596771313085
    },
    "planner": "LBKPIECE",
    "start": {
        "state": {
            "elbow_joint": 2.3935871308073637,
            "shoulder_lift_joint": -1.9085141043777403,
            "shoulder_pan_joint": 0.7066247067284167,
            "wrist_1_joint": -0.46782909355067076,
            "wrist_2_joint": 0.7096259085804283,
            "wrist_3_joint": -3.1358149275257428
        }
    },
    "waypoints": [
        {
            "positions": [
                0.7066247067284167,
                -1.9085141043777403,
                2.3935871308073637,
                -0.46782909355067076,
                0.7096259085804283,
                -3.1358149275257428
            ]
        },
        {
            "positions": [
                0.6471800650667813,
                -1.8797760630129905,
                2.400098004747287,
                -0.4529393422048876,
                0.6300089146101456,
                -2.945141854882786
            ]
        },
        {
            "positions": [
                0.587735423405146,
                -1.8510380216482407,
                2.4066088786872104,
                -0.4380495908591044,
                0.550391920639863,
                -2.754468782239829
            ]
        },
        {
            "positions": [
                0.5282907817435105,
                -1.822299980283491,
                2.413119752627134,
                -0.42315983951332126,
                0.4707749266695803,
                -2.563795709596872
            ]
        },
        {
            "positions": [
                0.4688461400818751,
                -1.7935619389187412,
                2.419630626567057,
                -0.40827008816753807,
                0.3911579326992977,
                -2.3731226369539153
            ]
        },
        {
            "positions": [
                0.40940149842023965,
                -1.7648238975539914,
                2.42614150050698,
                -0.3933803368217549,
                0.31154093872901506,
                -2.1824495643109585
            ]
        },
        {
            "positions": [
                0.3499568567586043,
                -1.7360858561892416,
                2.4326523744469037,
                -0.3784905854759717,
                0.2319239447587324,
                -1.9917764916680016
            ]
        },
        {
            "positions": [
                0.4062132470753504,
                -1.737172050979169,
                2.2969005704801915,
                -0.42600439045812094,
                0.24571737958997164,
                -1.8620338110379535
            ]
        },
        {
            "positions": [
                0.4624696373920965,
                -1.7382582457690967,
                2.161148766513479,
                -0.4735181954402702,
                0.2595108144212109,
                -1.7322911304079052
            ]
        },
        {
            "positions": [
                0.5187260277088427,
                -1.7393444405590242,
                2.025396962546767,
                -0.5210320004224194,
                0.2733042492524501,
                -1.602548449777857
            ]
        },
        {
            "positions": [
                0.5749824180255888,
                -1.7404306353489516,
                1.8896451585800547,
                -0.5685458054045687,
                0.28709768408368935,
                -1.4728057691478087
            ]
        },
        {
            "positions": [
                0.6312388083423349,
                -1.7415168301388793,
                1.7538933546133424,
                -0.6160596103867179,
                0.3008911189149286,
                -1.3430630885177606
            ]
        },
        {
            "positions": [
                0.687495198659081,
                -1.7426030249288067,
                1.6181415506466301,
                -0.663573415368867,
                0.31468455374616783,
                -1.2133204078877124
            ]
        },
        {
            "positions": [
                0.7437515889758272,
                -1.7436892197187341,
                1.4823897466799179,
                -0.7110872203510163,
                0.32847798857740707,
                -1.083577727257664
            ]
        },
        {
            "positions": [
                0.8000079792925733,
                -1.7447754145086616,
                1.3466379427132058,
                -0.7586010253331655,
                0.3422714234086463,
                -0.953835046627616
            ]
        },
        {
            "positions": [
                0.8562643696093195,
                -1.7458616092985892,
                1.2108861387464933,
                -0.8061148303153147,
                0.35606485823988554,
                -0.8240923659975676
            ]
        },
        {
            "positions": [
                0.9125207599260656,
                -1.7469478040885167,
                1.075134334779781,
                -0.853628635297464,
                0.3698582930711248,
                -0.6943496853675193
            ]
        },
        {
            "positions": [
                0.9687771502428115,
                -1.7480339988784441,
                0.939382530813069,
                -0.9011424402796132,
                0.383651727902364,
                -0.5646070047374714
            ]
        },
        {
            "positions": [
                1.0250335405595579,
                -1.7491201936683718,
                0.8036307268463567,
                -0.9486562452617624,
                0.39744516273360325,
                -0.43486432410742304
            ]
        },
        {
            "positions": [
                1.081289930876304,
                -1.7502063884582992,
                0.6678789228796445,
                -0.9961700502439117,
                0.4112385975648425,
                -0.3051216434773747
            ]
        },
        {
            "positions": [
                1.13754632119305,
                -1.7512925832482267,
                0.5321271189129322,
                -1.043683855226061,
                0.4250320323960817,
                -0.17537896284732657
            ]
        },
        {
            "positions": [
                1.1938027115097962,
                -1.7523787780381543,
                0.3963753149462197,
                -1.09119766020821,
                0.43882546722732096,
                -0.04563628221727822
            ]
        },
        {
            "positions": [
                1.2500591018265423,
                -1.7534649728280818,
                0.26062351097950787,
                -1.1387114651903594,
                0.4526189020585602,
                0.08410639841276968
            ]
        },
        {
            "positions": [
                1.3063154921432882,
                -1.7545511676180092,
                0.1248717070127956,
                -1.1862252701725087,
                0.46641233688979944,
                0.2138490790428178
            ]
        },
        {
            "positions": [
                1.3625718824600346,
                -1.7556373624079369,
                -0.010880096953917118,
                -1.233739075154658,
                0.4802057717210387,
                0.34359175967286637
            ]
        },
        {
            "positions": [
                1.4188282727767805,
                -1.7567235571978643,
                -0.14663190092062894,
                -1.281252880136807,
                0.4939992065522779,
                0.4733344403029145
            ]
        },
        {
            "positions": [
                1.4750846630935268,
                -1.7578097519877918,
                -0.28238370488734166,
                -1.3287666851189563,
                0.5077926413835172,
                0.6030771209329631
            ]
        },
        {
            "positions": [
                1.531341053410273,
                -1.7588959467777194,
                -0.4181355088540535,
                -1.3762804901011054,
                0.5215860762147564,
                0.7328198015630107
            ]
        },
        {
            "positions": [
                1.5875974437270188,
                -1.7599821415676469,
                -0.5538873128207658,
                -1.4237942950832547,
                0.5353795110459956,
                0.8625624821930589
            ]
        },
        {
            "positions": [
                1.6438538340437652,
                -1.7610683363575743,
                -0.689639116787478,
                -1.471308100065404,
                0.5491729458772349,
                0.9923051628231074
            ]
        },
        {
            "positions": [
                1.7001102243605113,
                -1.7621545311475018,
                -0.8253909207541903,
                -1.518821905047553,
                0.5629663807084742,
                1.1220478434531556
            ]
        },
        {
            "positions": [
                1.7563666146772572,
                -1.7632407259374294,
                -0.9611427247209026,
                -1.5663357100297024,
                0.5767598155397133,
                1.2517905240832037
            ]
        },
        {
            "positions": [
                1.8126230049940035,
                -1.7643269207273569,
                -1.0968945286876148,
                -1.6138495150118517,
                0.5905532503709525,
                1.3815332047132522
            ]
        },
        {
            "positions": [
                1.8688793953107496,
                -1.7654131155172843,
                -1.232646332654327,
                -1.6613633199940008,
                0.6043466852021918,
                1.5112758853433
            ]
        },
        {
            "positions": [
                1.9251357856274958,
                -1.766499310307212,
                -1.3683981366210394,
                -1.7088771249761503,
                0.6181401200334311,
                1.6410185659733485
            ]
        },
        {
            "positions": [
                1.9813921759442419,
                -1.7675855050971394,
                -1.5041499405877514,
                -1.7563909299582994,
                0.6319335548646703,
                1.7707612466033966
            ]
        },
        {
            "positions": [
                2.0435458745339727,
                -1.7874591322751634,
                -1.5726064402747877,
                -1.8269251536845017,
                0.6140736067902405,
                1.8544983018673369
            ]
        },
        {
            "positions": [
                2.083402065687291,
                -1.8357830126802825,
                -1.6057395433369468,
                -1.8883907610117905,
                0.618690533638037,
                1.9059217035267744
            ]
        },
        {
            "positions": [
                2.1232582568406095,
                -1.8841068930854017,
                -1.6388726463991057,
                -1.9498563683390793,
                0.6233074604858336,
                1.9573451051862116
            ]
        },
        {
            "positions": [
                2.1434699650121445,
                -1.8371836338868648,
                -1.6307719080619383,
                -1.9386124135482423,
                0.5197730457048453,
                2.005813622361816
            ]
        },
        {
            "positions": [
                2.2294816202343695,
                -1.8653565582987957,
                -1.680022976610129,
                -1.9330642133592213,
                0.37363369159240356,
                2.0768084440435803
            ]
        },
        {
            "positions": [
                2.3154932754565944,
                -1.8935294827107265,
                -1.7292740451583195,
                -1.9275160131702,
                0.2274943374799619,
                2.1478032657253445
            ]
        },
        {
            "positions": [
                2.4015049306788194,
                -1.9217024071226572,
                -1.7785251137065103,
                -1.9219678129811788,
                0.08135498336752023,
                2.2187980874071087
            ]
        },
        {
            "positions": [
                2.4875165859010444,
                -1.949875331534588,
                -1.827776182254701,
                -1.9164196127921578,
                -0.0647843707449215,
                2.289792909088873
            ]
        },
        {
            "positions": [
                2.573528241123269,
                -1.978048255946519,
                -1.8770272508028916,
                -1.9108714126031368,
                -0.21092372485736322,
                2.3607877307706375
            ]
        },
        {
            "positions": [
                2.659539896345494,
                -2.0062211803584495,
                -1.9262783193510824,
                -1.9053232124141155,
                -0.3570630789698048,
                2.4317825524524017
            ]
        },
        {
            "positions": [
                2.745551551567719,
                -2.0343941047703806,
                -1.975529387899273,
                -1.8997750122250943,
                -0.5032024330822467,
                2.502777374134166
            ]
        },
        {
            "positions": [
                2.831563206789944,
                -2.0625670291823113,
                -2.0247804564474636,
                -1.8942268120360732,
                -0.6493417871946883,
                2.57377219581593
            ]
        },
        {
            "positions": [
                2.797370832928683,
                -2.087464706742977,
                -1.9500536634508796,
                -2.004526694756732,
                -0.6138747612913646,
                2.68613245960167
            ]
        },
        {
            "positions": [
                2.7631784590674218,
                -2.1123623843036423,
                -1.8753268704542958,
                -2.1148265774773907,
                -0.5784077353880411,
                2.7984927233874095
            ]
        },
        {
            "positions": [
                2.728986085206161,
                -2.137260061864308,
                -1.8006000774577118,
                -2.225126460198049,
                -0.5429407094847176,
                2.9108529871731497
            ]
        },
        {
            "positions": [
                2.6947937113449,
                -2.1621577394249734,
                -1.725873284461128,
                -2.3354263429187077,
                -0.507473683581394,
                3.0232132509588894
            ]
        },
        {
            "positions": [
                2.660601337483639,
                -2.187055416985639,
                -1.651146491464544,
                -2.4457262256393664,
                -0.47200665767807043,
                3.135573514744629
            ]
        }
    ]
}