{
    "goal": {
        "global_pose": {
            "orientation": {
                "w": -0.00223480608172531,
                "x": 0.0024358444001904467,
                "y": 0.7094548369677653,
                "z": -0.704743149386269
            },
            "position": {
                "x": -0.37947507619857795,
                "y": -0.6371506643295288,
                "z": 0.19426114857196808
            }
        },
        "name": "move_to_magneteinheit_C"
    },
    "id": "LBKPIECE_move_to_magneteinheit_C_97",
    "joint_names": [
        "shoulder_pan_joint",
        "shoulder_lift_joint",
        "elbow_joint",
        "wrist_1_joint",
        "wrist_2_joint",
        "wrist_3_joint"
    ],
    "metrics": {
        "cart_traj_len": 1.106250293168178,
        "distance_elbow_joint": 0.3456599005543932,
        "distance_shoulder_lift_joint": 0.7693209174185984,
        "distance_shoulder_pan_joint": 1.2743808104797743,
        "distance_wrist_1_joint": 1.14235671680322,
        "distance_wrist_2_joint": 2.9392218495617044,
        "distance_wrist_3_joint": 2.174549810333996,
        "smoothness": 1.2697272557817176,
        "time": 3.579657372,
        "traj_len": 2.9403214118785868,
        "weighted_distance": 4.132332052507955
    },
    "planner": "LBKPIECE",
    "start": {
        "state": {
            "elbow_joint": 1.9565354006590394,
            "shoulder_lift_joint": -1.4165861576513559,
            "shoulder_pan_joint": -1.6717766223277177,
            "wrist_1_joint": -0.5286633288215096,
            "wrist_2_joint": 1.4727565892594296,
            "wrist_3_joint": 3.1593482883155493
        }
    },
    "waypoints": [
        {
            "positions": [
                -1.6717766223277177,
                -1.4165861576513559,
                1.9565354006590394,
                -0.5286633288215096,
                1.4727565892594296,
                3.1593482883155493
            ]
        },
        {
            "positions": [
                -1.757605103519079,
                -1.434958188650974,
                1.9492394936523967,
                -0.49302670591714226,
                1.316812333101077,
                3.0672700475780315
            ]
        },
        {
            "positions": [
                -1.8434335847104404,
                -1.4533302196505917,
                1.941943586645754,
                -0.4573900830127749,
                1.1608680769427246,
                2.975191806840513
            ]
        },
        {
            "positions": [
                -1.9292620659018016,
                -1.4717022506502098,
                1.9346476796391112,
                -0.42175346010840753,
                1.004923820784372,
                2.8831135661029954
            ]
        },
        {
            "positions": [
                -2.015090547093163,
                -1.4900742816498278,
                1.9273517726324685,
                -0.3861168372040402,
                0.8489795646260195,
                2.7910353253654776
            ]
        },
        {
            "positions": [
                -2.1009190282845243,
                -1.5084463126494458,
                1.9200558656258258,
                -0.3504802142996729,
                0.6930353084676669,
                2.69895708462796
            ]
        },
        {
            "positions": [
                -2.1867475094758855,
                -1.5268183436490639,
                1.912759958619183,
                -0.31484359139530554,
                0.5370910523093144,
                2.606878843890442
            ]
        },
        {
            "positions": [
                -2.2725759906672467,
                -1.5451903746486817,
                1.9054640516125403,
                -0.2792069684909382,
                0.3811467961509618,
                2.5148006031529238
            ]
        },
        {
            "positions": [
                -2.358404471858608,
                -1.5635624056482997,
                1.8981681446058976,
                -0.24357034558657087,
                0.22520253999260942,
                2.422722362415406
            ]
        },
        {
            "positions": [
                -2.444232953049969,
                -1.5819344366479178,
                1.8908722375992548,
                -0.20793372268220356,
                0.0692582838342568,
                2.330644121677888
            ]
        },
        {
            "positions": [
                -2.530061434241331,
                -1.6003064676475356,
                1.883576330592612,
                -0.1722970997778362,
                -0.0866859723240958,
                2.23856588094037
            ]
        },
        {
            "positions": [
                -2.615889915432692,
                -1.6186784986471536,
                1.8762804235859694,
                -0.13666047687346888,
                -0.2426302284824482,
                2.146487640202852
            ]
        },
        {
            "positions": [
                -2.701718396624053,
                -1.6370505296467717,
                1.8689845165793266,
                -0.10102385396910152,
                -0.3985744846408009,
                2.0544093994653343
            ]
        },
        {
            "positions": [
                -2.6722827246558674,
                -1.5731470200781668,
                1.8936810153550765,
                -0.14967671688265938,
                -0.2994230315105654,
                2.135325219191511
            ]
        },
        {
            "positions": [
                -2.6428470526876815,
                -1.5092435105095618,
                1.9183775141308264,
                -0.1983295797962172,
                -0.20027157838032986,
                2.216241038917688
            ]
        },
        {
            "positions": [
                -2.6134113807194956,
                -1.4453400009409572,
                1.943074012906576,
                -0.24698244270977504,
                -0.10112012525009434,
                2.2971568586438647
            ]
        },
        {
            "positions": [
                -2.5839757087513098,
                -1.3814364913723522,
                1.9677705116823259,
                -0.2956353056233329,
                -0.001968672119858794,
                2.3780726783700414
            ]
        },
        {
            "positions": [
                -2.5545400367831235,
                -1.3175329818037473,
                1.9924670104580757,
                -0.34428816853689076,
                0.09718278101037675,
                2.4589884980962187
            ]
        },
        {
            "positions": [
                -2.5251043648149376,
                -1.2536294722351427,
                2.0171635092338254,
                -0.39294103145044856,
                0.19633423414061224,
                2.5399043178223955
            ]
        },
        {
            "positions": [
                -2.4956686928467517,
                -1.1897259626665377,
                2.0418600080095755,
                -0.4415938943640064,
                0.2954856872708478,
                2.6208201375485722
            ]
        },
        {
            "positions": [
                -2.466233020878566,
                -1.1258224530979328,
                2.066556506785325,
                -0.4902467572775643,
                0.39463714040108333,
                2.701735957274749
            ]
        },
        {
            "positions": [
                -2.469217574357883,
                -1.1383652760560474,
                2.0463774980290976,
                -0.5987448701583474,
                0.48619685727427975,
                2.842497411832871
            ]
        },
        {
            "positions": [
                -2.4722021278372,
                -1.150908099014162,
                2.0261984892728706,
                -0.7072429830391305,
                0.5777565741474762,
                2.9832588663909934
            ]
        },
        {
            "positions": [
                -2.4751866813165173,
                -1.1634509219722766,
                2.006019480516643,
                -0.8157410959199136,
                0.6693162910206727,
                3.1240203209491155
            ]
        }
    ]
}