{
    "goal": {
        "global_pose": {
            "orientation": {
                "w": 0.5084816217422485,
                "x": -0.49083608388900757,
                "y": 0.5182115435600281,
                "z": -0.4816462993621826
            },
            "position": {
                "x": 0.5540239810943604,
                "y": 0.030875300988554955,
                "z": 0.16403168439865112
            }
        },
        "name": "move_to_storage_A"
    },
    "id": "LBKPIECE_move_to_storage_A_27",
    "joint_names": [
        "shoulder_pan_joint",
        "shoulder_lift_joint",
        "elbow_joint",
        "wrist_1_joint",
        "wrist_2_joint",
        "wrist_3_joint"
    ],
    "metrics": {
        "cart_traj_len": 0.3534632890711528,
        "distance_elbow_joint": 0.45073433937024543,
        "distance_shoulder_lift_joint": 0.23241051680602265,
        "distance_shoulder_pan_joint": 0.46320307947622463,
        "distance_wrist_1_joint": 0.24815731951702313,
        "distance_wrist_2_joint": 1.0943962416087554,
        "distance_wrist_3_joint": 0.09285101748035451,
        "smoothness": 2.2204460668324854e-16,
        "time": 3.7808844959999997,
        "traj_len": 1.6067832816713727,
        "weighted_distance": 2.027315493539452
    },
    "planner": "LBKPIECE",
    "start": {
        "state": {
            "elbow_joint": 1.9715474177455299,
            "shoulder_lift_joint": -1.139484666580328,
            "shoulder_pan_joint": 0.12281154398918248,
            "wrist_1_joint": -0.7804687475355282,
            "wrist_2_joint": 0.12958649657246987,
            "wrist_3_joint": -3.1924925159053466
        }
    },
    "waypoints": [
        {
            "positions": [
                0.12281154398918248,
                -1.139484666580328,
                1.9715474177455299,
                -0.7804687475355282,
                0.12958649657246987,
                -3.1924925159053466
            ]
        },
        {
            "positions": [
                0.056639675492578964,
                -1.1726861689811883,
                2.035938037655565,
                -0.8159197931808172,
                0.2859288168022921,
                -3.1792280848367245
            ]
        },
        {
            "positions": [
                -0.009532193004024553,
                -1.2058876713820488,
                2.1003286575656,
                -0.8513708388261062,
                0.4422711370321143,
                -3.1659636537681024
            ]
        },
        {
            "positions": [
                -0.07570406150062806,
                -1.239089173782909,
                2.164719277475635,
                -0.8868218844713952,
                0.5986134572619365,
                -3.1526992226994803
            ]
        },
        {
            "positions": [
                -0.1418759299972316,
                -1.2722906761837696,
                2.22910989738567,
                -0.9222729301166843,
                0.7549557774917588,
                -3.1394347916308583
            ]
        },
        {
            "positions": [
                -0.20804779849383515,
                -1.3054921785846298,
                2.2935005172957053,
                -0.9577239757619733,
                0.9112980977215811,
                -3.126170360562236
            ]
        },
        {
            "positions": [
                -0.2742196669904386,
                -1.3386936809854904,
                2.35789113720574,
                -0.9931750214072623,
                1.0676404179514032,
                -3.112905929493614
            ]
        },
        {
            "positions": [
                -0.34039153548704215,
                -1.3718951833863506,
                2.4222817571157753,
                -1.0286260670525513,
                1.2239827381812254,
                -3.099641498424992
            ]
        }
    ]
}