{
    "goal": {
        "global_pose": {
            "orientation": {
                "w": -0.00223480608172531,
                "x": 0.0024358444001904467,
                "y": 0.7094548369677653,
                "z": -0.704743149386269
            },
            "position": {
                "x": -0.37947507619857795,
                "y": -0.6371506643295288,
                "z": 0.19426114857196808
            }
        },
        "name": "move_to_magneteinheit_C"
    },
    "id": "LBKPIECE_move_to_magneteinheit_C_1",
    "joint_names": [
        "shoulder_pan_joint",
        "shoulder_lift_joint",
        "elbow_joint",
        "wrist_1_joint",
        "wrist_2_joint",
        "wrist_3_joint"
    ],
    "metrics": {
        "cart_traj_len": 1.9788134538014122,
        "distance_elbow_joint": 1.540978064119117,
        "distance_shoulder_lift_joint": 0.5218024063734061,
        "distance_shoulder_pan_joint": 1.8579106579221638,
        "distance_wrist_1_joint": 7.883791941667205,
        "distance_wrist_2_joint": 1.462861069785816,
        "distance_wrist_3_joint": 2.395326365125739,
        "smoothness": 0.9930439741007558,
        "time": 4.9281950740000005,
        "traj_len": 3.9576091905332746,
        "weighted_distance": 5.458935449947907
    },
    "planner": "LBKPIECE",
    "start": {
        "state": {
            "elbow_joint": 1.9565354006590394,
            "shoulder_lift_joint": -1.4165861576513559,
            "shoulder_pan_joint": -1.6717766223277177,
            "wrist_1_joint": -0.5286633288215096,
            "wrist_2_joint": 1.4727565892594296,
            "wrist_3_joint": 3.1593482883155493
        }
    },
    "waypoints": [
        {
            "positions": [
                -1.6717766223277177,
                -1.4165861576513559,
                1.9565354006590394,
                -0.5286633288215096,
                1.4727565892594296,
                3.1593482883155493
            ]
        },
        {
            "positions": [
                -1.643914894442108,
                -1.4174556510528484,
                1.9605020935996957,
                -0.5733866115335186,
                1.3528736043322875,
                2.990138536934121
            ]
        },
        {
            "positions": [
                -1.5499107864532875,
                -1.4616855681829741,
                1.8427886888299523,
                -0.6125580814336579,
                1.3006079890221027,
                2.9666876431598634
            ]
        },
        {
            "positions": [
                -1.455906678464467,
                -1.5059154853130998,
                1.7250752840602086,
                -0.6517295513337971,
                1.248342373711918,
                2.943236749385606
            ]
        },
        {
            "positions": [
                -1.3619025704756464,
                -1.5501454024432255,
                1.6073618792904651,
                -0.6909010212339364,
                1.196076758401733,
                2.9197858556113485
            ]
        },
        {
            "positions": [
                -1.4252370388369604,
                -1.5401773243474617,
                1.6450351168423647,
                -0.5101958593937151,
                1.1553364790954428,
                2.8733369385428045
            ]
        },
        {
            "positions": [
                -1.4885715071982744,
                -1.5302092462516976,
                1.682708354394264,
                -0.3294906975534939,
                1.1145961997891523,
                2.826888021474261
            ]
        },
        {
            "positions": [
                -1.5519059755595885,
                -1.5202411681559338,
                1.7203815919461636,
                -0.1487855357132727,
                1.073855920482862,
                2.780439104405717
            ]
        },
        {
            "positions": [
                -1.6152404439209025,
                -1.5102730900601697,
                1.7580548294980631,
                0.03191962612694854,
                1.0331156411765716,
                2.7339901873371732
            ]
        },
        {
            "positions": [
                -1.6785749122822164,
                -1.500305011964406,
                1.7957280670499625,
                0.21262478796716977,
                0.9923753618702812,
                2.687541270268629
            ]
        },
        {
            "positions": [
                -1.7419093806435306,
                -1.4903369338686419,
                1.833401304601862,
                0.393329949807391,
                0.9516350825639908,
                2.6410923532000856
            ]
        },
        {
            "positions": [
                -1.8052438490048446,
                -1.480368855772878,
                1.8710745421537616,
                0.5740351116476121,
                0.9108948032577004,
                2.5946434361315416
            ]
        },
        {
            "positions": [
                -1.8685783173661585,
                -1.470400777677114,
                1.9087477797056611,
                0.7547402734878335,
                0.87015452395141,
                2.5481945190629975
            ]
        },
        {
            "positions": [
                -1.9319127857274725,
                -1.4604326995813501,
                1.9464210172575604,
                0.9354454353280546,
                0.8294142446451196,
                2.501745601994454
            ]
        },
        {
            "positions": [
                -1.9952472540887864,
                -1.450464621485586,
                1.98409425480946,
                1.116150597168276,
                0.7886739653388293,
                2.45529668492591
            ]
        },
        {
            "positions": [
                -2.058581722450101,
                -1.4404965433898222,
                2.0217674923613593,
                1.2968557590084973,
                0.7479336860325387,
                2.4088477678573663
            ]
        },
        {
            "positions": [
                -2.1219161908114144,
                -1.4305284652940582,
                2.059440729913259,
                1.4775609208487184,
                0.7071934067262484,
                2.3623988507888223
            ]
        },
        {
            "positions": [
                -2.1852506591727288,
                -1.4205603871982944,
                2.0971139674651584,
                1.6582660826889397,
                0.666453127419958,
                2.3159499337202787
            ]
        },
        {
            "positions": [
                -2.2485851275340427,
                -1.4105923091025303,
                2.1347872050170578,
                1.8389712445291606,
                0.6257128481136677,
                2.2695010166517346
            ]
        },
        {
            "positions": [
                -2.3119195958953567,
                -1.4006242310067665,
                2.1724604425689575,
                2.019676406369382,
                0.5849725688073772,
                2.2230520995831906
            ]
        },
        {
            "positions": [
                -2.3752540642566706,
                -1.3906561529110024,
                2.210133680120857,
                2.200381568209603,
                0.5442322895010869,
                2.176603182514647
            ]
        },
        {
            "positions": [
                -2.4385885326179846,
                -1.3806880748152386,
                2.247806917672756,
                2.381086730049825,
                0.5034920101947965,
                2.130154265446103
            ]
        },
        {
            "positions": [
                -2.501923000979299,
                -1.3707199967194748,
                2.285480155224656,
                2.5617918918900457,
                0.4627517308885061,
                2.0837053483775594
            ]
        },
        {
            "positions": [
                -2.5652574693406125,
                -1.3607519186237107,
                2.3231533927765553,
                2.7424970537302675,
                0.42201145158221565,
                2.0372564313090153
            ]
        },
        {
            "positions": [
                -2.628591937701927,
                -1.3507838405279466,
                2.3608266303284546,
                2.9232022155704884,
                0.38127117227592533,
                1.9908075142404718
            ]
        },
        {
            "positions": [
                -2.691926406063241,
                -1.3408157624321828,
                2.3984998678803544,
                3.1039073774107098,
                0.3405308929696349,
                1.9443585971719277
            ]
        },
        {
            "positions": [
                -2.678300607908085,
                -1.329633667334027,
                2.3739540448628955,
                2.858485761747576,
                0.3611956038131362,
                2.01812963929581
            ]
        },
        {
            "positions": [
                -2.6646748097529285,
                -1.3184515722358712,
                2.3494082218454366,
                2.613064146084443,
                0.3818603146566375,
                2.0919006814196925
            ]
        },
        {
            "positions": [
                -2.6510490115977725,
                -1.3072694771377151,
                2.324862398827978,
                2.367642530421309,
                0.40252502550013874,
                2.1656717235435745
            ]
        },
        {
            "positions": [
                -2.6374232134426165,
                -1.2960873820395593,
                2.3003165758105193,
                2.1222209147581754,
                0.42318973634364004,
                2.239442765667457
            ]
        },
        {
            "positions": [
                -2.62379741528746,
                -1.2849052869414035,
                2.2757707527930604,
                1.8767992990950422,
                0.44385444718714134,
                2.3132138077913393
            ]
        },
        {
            "positions": [
                -2.610171617132304,
                -1.2737231918432477,
                2.2512249297756015,
                1.6313776834319085,
                0.4645191580306426,
                2.3869848499152218
            ]
        },
        {
            "positions": [
                -2.5965458189771478,
                -1.2625410967450919,
                2.2266791067581426,
                1.385956067768775,
                0.4851838688741439,
                2.460755892039104
            ]
        },
        {
            "positions": [
                -2.582920020821992,
                -1.2513590016469358,
                2.202133283740684,
                1.1405344521056415,
                0.5058485797176452,
                2.5345269341629866
            ]
        },
        {
            "positions": [
                -2.569294222666836,
                -1.24017690654878,
                2.1775874607232253,
                0.8951128364425078,
                0.5265132905611465,
                2.6082979762868685
            ]
        },
        {
            "positions": [
                -2.5556684245116794,
                -1.2289948114506242,
                2.1530416377057664,
                0.6496912207793746,
                0.5471780014046478,
                2.682069018410751
            ]
        },
        {
            "positions": [
                -2.5420426263565234,
                -1.2178127163524683,
                2.1284958146883075,
                0.4042696051162409,
                0.5678427122481491,
                2.7558400605346334
            ]
        },
        {
            "positions": [
                -2.528416828201367,
                -1.2066306212543125,
                2.1039499916708486,
                0.15884798945310719,
                0.5885074230916503,
                2.829611102658516
            ]
        },
        {
            "positions": [
                -2.514791030046211,
                -1.1954485261561567,
                2.07940416865339,
                -0.08657362621002607,
                0.6091721339351517,
                2.903382144782398
            ]
        },
        {
            "positions": [
                -2.501165231891055,
                -1.1842664310580007,
                2.0548583456359313,
                -0.33199524187315976,
                0.6298368447786529,
                2.97715318690628
            ]
        },
        {
            "positions": [
                -2.4875394337358987,
                -1.1730843359598448,
                2.0303125226184724,
                -0.577416857536293,
                0.6505015556221542,
                3.0509242290301626
            ]
        },
        {
            "positions": [
                -2.4739136355807427,
                -1.161902240861689,
                2.0057666996010135,
                -0.8228384731994266,
                0.6711662664656555,
                3.124695271154045
            ]
        }
    ]
}