{
    "goal": {
        "global_pose": {
            "orientation": {
                "w": -0.4816463035849501,
                "x": 0.5182115481033762,
                "y": 0.4908360881923453,
                "z": -0.5084816262002911
            },
            "position": {
                "x": -0.8240239810943604,
                "y": -0.300875300988555,
                "z": 0.16403168439865112
            }
        },
        "name": "move_to_storage_C"
    },
    "id": "LBKPIECE_move_to_storage_C_1",
    "joint_names": [
        "shoulder_pan_joint",
        "shoulder_lift_joint",
        "elbow_joint",
        "wrist_1_joint",
        "wrist_2_joint",
        "wrist_3_joint"
    ],
    "metrics": {
        "cart_traj_len": 0.5761474537914032,
        "distance_elbow_joint": 0.25988155207913,
        "distance_shoulder_lift_joint": 0.18918948404538805,
        "distance_shoulder_pan_joint": 0.49375503187363234,
        "distance_wrist_1_joint": 0.08498290504285977,
        "distance_wrist_2_joint": 1.069549827570575,
        "distance_wrist_3_joint": 0.05862075881934059,
        "smoothness": 2.5376526478085547e-16,
        "time": 1.502856156,
        "traj_len": 1.4683254269510304,
        "weighted_distance": 1.8514194040473495
    },
    "planner": "LBKPIECE",
    "start": {
        "state": {
            "elbow_joint": 2.010868315001653,
            "shoulder_lift_joint": -1.1634956873357014,
            "shoulder_pan_joint": -2.4736205022346103,
            "wrist_1_joint": -0.8367026794713948,
            "wrist_2_joint": 0.6746043897044093,
            "wrist_3_joint": 3.1335220948105738
        }
    },
    "waypoints": [
        {
            "positions": [
                -2.4736205022346103,
                -1.1634956873357014,
                2.010868315001653,
                -0.8367026794713948,
                0.6746043897044093,
                3.1335220948105738
            ]
        },
        {
            "positions": [
                -2.5559130075468826,
                -1.13196410666147,
                1.9675547229884647,
                -0.8225388619642515,
                0.8528626942995051,
                3.143292221280464
            ]
        },
        {
            "positions": [
                -2.6382055128591544,
                -1.1004325259872387,
                1.9242411309752765,
                -0.8083750444571082,
                1.0311209988946008,
                3.153062347750354
            ]
        },
        {
            "positions": [
                -2.7204980181714262,
                -1.0689009453130074,
                1.880927538962088,
                -0.7942112269499648,
                1.2093793034896967,
                3.1628324742202443
            ]
        },
        {
            "positions": [
                -2.8027905234836985,
                -1.037369364638776,
                1.8376139469488997,
                -0.7800474094428216,
                1.3876376080847925,
                3.172602600690134
            ]
        },
        {
            "positions": [
                -2.885083028795971,
                -1.0058377839645447,
                1.7943003549357115,
                -0.7658835919356783,
                1.5658959126798884,
                3.182372727160024
            ]
        },
        {
            "positions": [
                -2.9673755341082426,
                -0.9743062032903134,
                1.750986762922523,
                -0.751719774428535,
                1.7441542172749844,
                3.1921428536299143
            ]
        }
    ]
}