{
    "goal": {
        "global_pose": {
            "orientation": {
                "w": -0.4816463035849501,
                "x": 0.5182115481033762,
                "y": 0.4908360881923453,
                "z": -0.5084816262002911
            },
            "position": {
                "x": -0.8240239810943604,
                "y": -0.300875300988555,
                "z": 0.16403168439865112
            }
        },
        "name": "move_to_storage_C"
    },
    "id": "LBKPIECE_move_to_storage_C_114",
    "joint_names": [
        "shoulder_pan_joint",
        "shoulder_lift_joint",
        "elbow_joint",
        "wrist_1_joint",
        "wrist_2_joint",
        "wrist_3_joint"
    ],
    "metrics": {
        "cart_traj_len": 0.5770635469819485,
        "distance_elbow_joint": 0.26060543209798204,
        "distance_shoulder_lift_joint": 0.19001027170161888,
        "distance_shoulder_pan_joint": 0.49389414722134983,
        "distance_wrist_1_joint": 0.08517366155726414,
        "distance_wrist_2_joint": 1.0755945430355118,
        "distance_wrist_3_joint": 0.058465553722591324,
        "smoothness": 0.0,
        "time": 3.0838297480000003,
        "traj_len": 1.4709668960708524,
        "weighted_distance": 1.8551126438505765
    },
    "planner": "LBKPIECE",
    "start": {
        "state": {
            "elbow_joint": 2.010868315001653,
            "shoulder_lift_joint": -1.1634956873357014,
            "shoulder_pan_joint": -2.4736205022346103,
            "wrist_1_joint": -0.8367026794713948,
            "wrist_2_joint": 0.6746043897044093,
            "wrist_3_joint": 3.1335220948105738
        }
    },
    "waypoints": [
        {
            "positions": [
                -2.4736205022346103,
                -1.1634956873357014,
                2.010868315001653,
                -0.8367026794713948,
                0.6746043897044093,
                3.1335220948105738
            ]
        },
        {
            "positions": [
                -2.5559361934381686,
                -1.131827308718765,
                1.9674340763186562,
                -0.8225070692118508,
                0.8538701468769946,
                3.143266353764339
            ]
        },
        {
            "positions": [
                -2.638251884641727,
                -1.1001589301018284,
                1.923999837635659,
                -0.8083114589523067,
                1.0331359040495798,
                3.1530106127181043
            ]
        },
        {
            "positions": [
                -2.720567575845285,
                -1.068490551484892,
                1.880565598952662,
                -0.7941158486927626,
                1.2124016612221653,
                3.1627548716718694
            ]
        },
        {
            "positions": [
                -2.8028832670488435,
                -1.0368221728679554,
                1.837131360269665,
                -0.7799202384332187,
                1.3916674183947504,
                3.1724991306256345
            ]
        },
        {
            "positions": [
                -2.885198958252402,
                -1.005153794251019,
                1.7936971215866682,
                -0.7657246281736747,
                1.570933175567336,
                3.1822433895794
            ]
        },
        {
            "positions": [
                -2.96751464945596,
                -0.9734854156340825,
                1.750262882903671,
                -0.7515290179141306,
                1.750198932739921,
                3.191987648533165
            ]
        }
    ]
}