{
    "goal": {
        "global_pose": {
            "orientation": {
                "w": 0.5084816262002911,
                "x": -0.4908360881923452,
                "y": 0.5182115481033761,
                "z": -0.48164630358495003
            },
            "position": {
                "x": 0.5540239810943604,
                "y": -0.46912469901144505,
                "z": 0.16403168439865112
            }
        },
        "name": "move_to_storage_B"
    },
    "id": "LBKPIECE_move_to_storage_B_140",
    "joint_names": [
        "shoulder_pan_joint",
        "shoulder_lift_joint",
        "elbow_joint",
        "wrist_1_joint",
        "wrist_2_joint",
        "wrist_3_joint"
    ],
    "metrics": {
        "cart_traj_len": 3.4234087251269294,
        "distance_elbow_joint": 0.4610492208138457,
        "distance_shoulder_lift_joint": 3.899848781224556,
        "distance_shoulder_pan_joint": 1.7670657936047784,
        "distance_wrist_1_joint": 6.507648500811656,
        "distance_wrist_2_joint": 2.699843937019623,
        "distance_wrist_3_joint": 3.13572172734086,
        "smoothness": 0.4573917014508744,
        "time": 4.5187852500000005,
        "traj_len": 4.297810833530872,
        "weighted_distance": 5.826672622803543
    },
    "planner": "LBKPIECE",
    "start": {
        "state": {
            "elbow_joint": 1.6649325706314817,
            "shoulder_lift_joint": -0.6616388048112454,
            "shoulder_pan_joint": -0.9139837860083814,
            "wrist_1_joint": 2.146757197745094,
            "wrist_2_joint": -2.234196043158733,
            "wrist_3_joint": 0.005471033829999897
        }
    },
    "waypoints": [
        {
            "positions": [
                -0.9139837860083814,
                -0.6616388048112454,
                1.6649325706314817,
                2.146757197745094,
                -2.234196043158733,
                0.005471033829999897
            ]
        },
        {
            "positions": [
                -0.8953440042393022,
                -0.6880680317029446,
                1.666340873038544,
                2.1024665650320236,
                -2.167730183515686,
                -0.012061180121915264
            ]
        },
        {
            "positions": [
                -0.925807972354511,
                -0.7553313757784966,
                1.6645920160761323,
                1.9555125274734988,
                -2.0944770874027374,
                -0.07861998212268967
            ]
        },
        {
            "positions": [
                -0.9562719404697198,
                -0.8225947198540486,
                1.6628431591137203,
                1.8085584899149743,
                -2.021223991289789,
                -0.14517878412346408
            ]
        },
        {
            "positions": [
                -0.9867359085849285,
                -0.8898580639296005,
                1.6610943021513085,
                1.6616044523564495,
                -1.9479708951768402,
                -0.21173758612423849
            ]
        },
        {
            "positions": [
                -1.0171998767001373,
                -0.9571214080051526,
                1.6593454451888967,
                1.514650414797925,
                -1.8747177990638917,
                -0.2782963881250129
            ]
        },
        {
            "positions": [
                -1.0476638448153461,
                -1.0243847520807046,
                1.6575965882264847,
                1.3676963772394002,
                -1.801464702950943,
                -0.3448551901257873
            ]
        },
        {
            "positions": [
                -1.078127812930555,
                -1.0916480961562565,
                1.655847731264073,
                1.2207423396808754,
                -1.7282116068379945,
                -0.4114139921265617
            ]
        },
        {
            "positions": [
                -1.1085917810457637,
                -1.1589114402318086,
                1.6540988743016611,
                1.0737883021223509,
                -1.654958510725046,
                -0.4779727941273361
            ]
        },
        {
            "positions": [
                -1.1390557491609727,
                -1.2261747843073605,
                1.6523500173392494,
                0.9268342645638261,
                -1.5817054146120975,
                -0.5445315961281105
            ]
        },
        {
            "positions": [
                -1.1695197172761813,
                -1.2934381283829124,
                1.6506011603768374,
                0.7798802270053014,
                -1.5084523184991487,
                -0.6110903981288849
            ]
        },
        {
            "positions": [
                -1.1999836853913903,
                -1.3607014724584645,
                1.6488523034144256,
                0.6329261894467768,
                -1.4351992223862002,
                -0.6776492001296593
            ]
        },
        {
            "positions": [
                -1.2304476535065991,
                -1.4279648165340164,
                1.6471034464520138,
                0.48597215188825205,
                -1.3619461262732515,
                -0.7442080021304338
            ]
        },
        {
            "positions": [
                -1.260911621621808,
                -1.4952281606095683,
                1.6453545894896018,
                0.3390181143297273,
                -1.288693030160303,
                -0.8107668041312082
            ]
        },
        {
            "positions": [
                -1.2913755897370167,
                -1.5624915046851204,
                1.64360573252719,
                0.19206407677120274,
                -1.2154399340473545,
                -0.8773256061319825
            ]
        },
        {
            "positions": [
                -1.3218395578522255,
                -1.6297548487606723,
                1.6418568755647782,
                0.0451100392126782,
                -1.142186837934406,
                -0.943884408132757
            ]
        },
        {
            "positions": [
                -1.3523035259674343,
                -1.6970181928362245,
                1.6401080186023662,
                -0.10184399834584656,
                -1.0689337418214573,
                -1.0104432101335314
            ]
        },
        {
            "positions": [
                -1.382767494082643,
                -1.7642815369117764,
                1.6383591616399544,
                -0.24879803590437133,
                -0.9956806457085088,
                -1.0770020121343058
            ]
        },
        {
            "positions": [
                -1.413231462197852,
                -1.8315448809873283,
                1.6366103046775426,
                -0.3957520734628961,
                -0.9224275495955603,
                -1.1435608141350802
            ]
        },
        {
            "positions": [
                -1.4436954303130607,
                -1.8988082250628804,
                1.6348614477151306,
                -0.5427061110214209,
                -0.8491744534826116,
                -1.2101196161358545
            ]
        },
        {
            "positions": [
                -1.4741593984282695,
                -1.9660715691384323,
                1.6331125907527189,
                -0.6896601485799452,
                -0.7759213573696631,
                -1.276678418136629
            ]
        },
        {
            "positions": [
                -1.5046233665434783,
                -2.0333349132139844,
                1.631363733790307,
                -0.8366141861384699,
                -0.7026682612567146,
                -1.3432372201374034
            ]
        },
        {
            "positions": [
                -1.5350873346586873,
                -2.100598257289536,
                1.629614876827895,
                -0.9835682236969947,
                -0.6294151651437658,
                -1.4097960221381778
            ]
        },
        {
            "positions": [
                -1.5655513027738959,
                -2.167861601365088,
                1.6278660198654833,
                -1.1305222612555195,
                -0.5561620690308173,
                -1.4763548241389524
            ]
        },
        {
            "positions": [
                -1.5960152708891049,
                -2.2351249454406403,
                1.6261171629030715,
                -1.2774762988140442,
                -0.48290897291786883,
                -1.5429136261397267
            ]
        },
        {
            "positions": [
                -1.6264792390043135,
                -2.302388289516192,
                1.6243683059406595,
                -1.424430336372569,
                -0.4096558768049201,
                -1.609472428140501
            ]
        },
        {
            "positions": [
                -1.6569432071195225,
                -2.369651633591744,
                1.6226194489782477,
                -1.5713843739310933,
                -0.3364027806919716,
                -1.6760312301412754
            ]
        },
        {
            "positions": [
                -1.687407175234731,
                -2.4369149776672963,
                1.620870592015836,
                -1.718338411489618,
                -0.2631496845790231,
                -1.7425900321420498
            ]
        },
        {
            "positions": [
                -1.71787114334994,
                -2.504178321742848,
                1.6191217350534242,
                -1.8652924490481428,
                -0.1898965884660746,
                -1.8091488341428243
            ]
        },
        {
            "positions": [
                -1.7483351114651489,
                -2.5714416658184,
                1.6173728780910122,
                -2.012246486606667,
                -0.1166434923531261,
                -1.8757076361435987
            ]
        },
        {
            "positions": [
                -1.7787990795803577,
                -2.638705009893952,
                1.6156240211286004,
                -2.1592005241651924,
                -0.043390396240177154,
                -1.942266438144373
            ]
        },
        {
            "positions": [
                -1.8092630476955665,
                -2.7059683539695043,
                1.6138751641661886,
                -2.3061545617237167,
                0.029862699872771348,
                -2.0088252401451476
            ]
        },
        {
            "positions": [
                -1.8397270158107752,
                -2.773231698045056,
                1.6121263072037766,
                -2.453108599282242,
                0.10311579598571985,
                -2.075384042145922
            ]
        },
        {
            "positions": [
                -1.870190983925984,
                -2.840495042120608,
                1.6103774502413648,
                -2.600062636840766,
                0.17636889209866835,
                -2.1419428441466963
            ]
        },
        {
            "positions": [
                -1.818619048449383,
                -2.725762205859595,
                1.6372892832820052,
                -2.4826740590923797,
                0.19565415888281662,
                -2.2078300341043073
            ]
        },
        {
            "positions": [
                -1.7670471129727816,
                -2.6110293695985822,
                1.6642011163226453,
                -2.365285481343993,
                0.21493942566696492,
                -2.2737172240619183
            ]
        },
        {
            "positions": [
                -1.7154751774961805,
                -2.4962965333375693,
                1.6911129493632857,
                -2.2478969035956067,
                0.2342246924511132,
                -2.3396044140195293
            ]
        },
        {
            "positions": [
                -1.6639032420195794,
                -2.3815636970765564,
                1.7180247824039259,
                -2.13050832584722,
                0.2535099592352615,
                -2.40549160397714
            ]
        },
        {
            "positions": [
                -1.6123313065429783,
                -2.266830860815544,
                1.7449366154445662,
                -2.013119748098834,
                0.27279522601940975,
                -2.471378793934751
            ]
        },
        {
            "positions": [
                -1.560759371066377,
                -2.1520980245545305,
                1.7718484484852064,
                -1.8957311703504471,
                0.292080492803558,
                -2.537265983892362
            ]
        },
        {
            "positions": [
                -1.5091874355897759,
                -2.037365188293518,
                1.7987602815258468,
                -1.7783425926020608,
                0.3113657595877063,
                -2.603153173849973
            ]
        },
        {
            "positions": [
                -1.4576155001131748,
                -1.922632352032505,
                1.825672114566487,
                -1.6609540148536743,
                0.3306510263718546,
                -2.669040363807584
            ]
        },
        {
            "positions": [
                -1.4060435646365737,
                -1.807899515771492,
                1.8525839476071273,
                -1.5435654371052878,
                0.34993629315600283,
                -2.734927553765195
            ]
        },
        {
            "positions": [
                -1.3544716291599723,
                -1.6931666795104792,
                1.8794957806477675,
                -1.4261768593569015,
                0.36922155994015116,
                -2.800814743722806
            ]
        },
        {
            "positions": [
                -1.3028996936833712,
                -1.5784338432494665,
                1.9064076136884078,
                -1.308788281608515,
                0.3885068267242994,
                -2.8667019336804165
            ]
        },
        {
            "positions": [
                -1.2513277582067701,
                -1.4637010069884533,
                1.933319446729048,
                -1.1913997038601283,
                0.4077920935084477,
                -2.932589123638028
            ]
        },
        {
            "positions": [
                -1.199755822730169,
                -1.3489681707274404,
                1.9602312797696884,
                -1.0740111261117418,
                0.427077360292596,
                -2.9984763135956385
            ]
        },
        {
            "positions": [
                -1.1481838872535677,
                -1.2342353344664276,
                1.9871431128103287,
                -0.9566225483633555,
                0.4463626270767443,
                -3.0643635035532495
            ]
        },
        {
            "positions": [
                -1.0966119517769666,
                -1.1195024982054147,
                2.014054945850969,
                -0.8392339706149688,
                0.46564789386089256,
                -3.1302506935108605
            ]
        }
    ]
}