{
    "goal": {
        "global_pose": {
            "orientation": {
                "w": 0.5084816262002911,
                "x": -0.4908360881923452,
                "y": 0.5182115481033761,
                "z": -0.48164630358495003
            },
            "position": {
                "x": 0.5540239810943604,
                "y": -0.46912469901144505,
                "z": 0.16403168439865112
            }
        },
        "name": "move_to_storage_B"
    },
    "id": "LBKPIECE_move_to_storage_B_149",
    "joint_names": [
        "shoulder_pan_joint",
        "shoulder_lift_joint",
        "elbow_joint",
        "wrist_1_joint",
        "wrist_2_joint",
        "wrist_3_joint"
    ],
    "metrics": {
        "cart_traj_len": 0.9739258398743714,
        "distance_elbow_joint": 1.0093128052237612,
        "distance_shoulder_lift_joint": 0.4580500649131731,
        "distance_shoulder_pan_joint": 0.3840165065841824,
        "distance_wrist_1_joint": 2.985492681454098,
        "distance_wrist_2_joint": 2.704931770905521,
        "distance_wrist_3_joint": 3.26533150084241,
        "smoothness": 0.3154803389913019,
        "time": 1.575669876,
        "traj_len": 3.287420771657189,
        "weighted_distance": 4.798773049850095
    },
    "planner": "LBKPIECE",
    "start": {
        "state": {
            "elbow_joint": 1.6649325706314817,
            "shoulder_lift_joint": -0.6616388048112454,
            "shoulder_pan_joint": -0.9139837860083814,
            "wrist_1_joint": 2.146757197745094,
            "wrist_2_joint": -2.234196043158733,
            "wrist_3_joint": 0.005471033829999897
        }
    },
    "waypoints": [
        {
            "positions": [
                -0.9139837860083814,
                -0.6616388048112454,
                1.6649325706314817,
                2.146757197745094,
                -2.234196043158733,
                0.005471033829999897
            ]
        },
        {
            "positions": [
                -0.812702517113423,
                -0.7166898690652765,
                1.5825651486681473,
                2.140713672326414,
                -2.166522635624828,
                -0.06180958791817457
            ]
        },
        {
            "positions": [
                -0.8258184959399454,
                -0.7491221721930003,
                1.5578368627563928,
                2.0270139756993477,
                -2.0464791140274716,
                0.01015605163446636
            ]
        },
        {
            "positions": [
                -0.8389344747664679,
                -0.7815544753207239,
                1.533108576844638,
                1.913314279072282,
                -1.926435592430115,
                0.0821216911871073
            ]
        },
        {
            "positions": [
                -0.8520504535929903,
                -0.8139867784484476,
                1.5083802909328834,
                1.7996145824452157,
                -1.8063920708327588,
                0.1540873307397482
            ]
        },
        {
            "positions": [
                -0.8651664324195126,
                -0.8464190815761712,
                1.4836520050211288,
                1.6859148858181496,
                -1.6863485492354022,
                0.22605297029238916
            ]
        },
        {
            "positions": [
                -0.878282411246035,
                -0.8788513847038949,
                1.4589237191093742,
                1.5722151891910836,
                -1.566305027638046,
                0.29801860984503004
            ]
        },
        {
            "positions": [
                -0.8913983900725575,
                -0.9112836878316186,
                1.4341954331976194,
                1.4585154925640176,
                -1.4462615060406896,
                0.36998424939767094
            ]
        },
        {
            "positions": [
                -0.9045143688990799,
                -0.9437159909593422,
                1.4094671472858649,
                1.3448157959369516,
                -1.3262179844433333,
                0.44194988895031184
            ]
        },
        {
            "positions": [
                -0.9176303477256023,
                -0.9761482940870659,
                1.3847388613741103,
                1.2311160993098853,
                -1.2061744628459765,
                0.5139155285029529
            ]
        },
        {
            "positions": [
                -0.9307463265521247,
                -1.0085805972147897,
                1.3600105754623555,
                1.1174164026828193,
                -1.0861309412486202,
                0.5858811680555938
            ]
        },
        {
            "positions": [
                -0.9438623053786471,
                -1.0410129003425133,
                1.335282289550601,
                1.0037167060557532,
                -0.9660874196512639,
                0.6578468076082347
            ]
        },
        {
            "positions": [
                -0.9527785082859412,
                -1.045640898541449,
                1.375262438029594,
                0.8953371654813558,
                -0.8815684109807902,
                0.8036347184063422
            ]
        },
        {
            "positions": [
                -0.9616947111932354,
                -1.0502688967403844,
                1.415242586508587,
                0.7869576249069583,
                -0.7970494023103165,
                0.9494226292044495
            ]
        },
        {
            "positions": [
                -0.9706109141005295,
                -1.05489689493932,
                1.4552227349875797,
                0.6785780843325608,
                -0.7125303936398428,
                1.0952105400025571
            ]
        },
        {
            "positions": [
                -0.9795271170078236,
                -1.0595248931382557,
                1.4952028834665727,
                0.5701985437581634,
                -0.6280113849693691,
                1.2409984508006644
            ]
        },
        {
            "positions": [
                -0.9884433199151177,
                -1.0641528913371914,
                1.5351830319455657,
                0.4618190031837659,
                -0.5434923762988955,
                1.3867863615987719
            ]
        },
        {
            "positions": [
                -0.9973595228224118,
                -1.0687808895361268,
                1.5751631804245587,
                0.3534394626093684,
                -0.4589733676284218,
                1.5325742723968794
            ]
        },
        {
            "positions": [
                -1.006275725729706,
                -1.0734088877350625,
                1.6151433289035517,
                0.24505992203497096,
                -0.3744543589579482,
                1.6783621831949866
            ]
        },
        {
            "positions": [
                -1.015191928637,
                -1.0780368859339982,
                1.6551234773825447,
                0.13668038146057349,
                -0.2899353502874745,
                1.8241500939930941
            ]
        },
        {
            "positions": [
                -1.0241081315442941,
                -1.0826648841329336,
                1.6951036258615377,
                0.028300840886176015,
                -0.20541634161700084,
                1.9699380047912016
            ]
        },
        {
            "positions": [
                -1.0330243344515884,
                -1.0872928823318693,
                1.7350837743405305,
                -0.08007869968822146,
                -0.12089733294652716,
                2.115725915589309
            ]
        },
        {
            "positions": [
                -1.0419405373588824,
                -1.091920880530805,
                1.7750639228195235,
                -0.18845824026261893,
                -0.036378324276053475,
                2.2615138263874166
            ]
        },
        {
            "positions": [
                -1.0508567402661764,
                -1.0965488787297404,
                1.8150440712985165,
                -0.2968377808370164,
                0.04814068439442032,
                2.407301737185524
            ]
        },
        {
            "positions": [
                -1.0597729431734706,
                -1.101176876928676,
                1.8550242197775093,
                -0.40521732141141387,
                0.13265969306489378,
                2.553089647983631
            ]
        },
        {
            "positions": [
                -1.0686891460807648,
                -1.1058048751276117,
                1.8950043682565023,
                -0.5135968619858113,
                0.21717870173536746,
                2.6988775587817386
            ]
        },
        {
            "positions": [
                -1.0776053489880588,
                -1.1104328733265474,
                1.9349845167354953,
                -0.6219764025602088,
                0.30169771040584115,
                2.844665469579846
            ]
        },
        {
            "positions": [
                -1.0865215518953528,
                -1.1150608715254828,
                1.9749646652144883,
                -0.7303559431346063,
                0.38621671907631483,
                2.9904533803779536
            ]
        },
        {
            "positions": [
                -1.095437754802647,
                -1.1196888697244185,
                2.0149448136934813,
                -0.8387354837090039,
                0.47073572774678846,
                3.136241291176061
            ]
        }
    ]
}