{
    "goal": {
        "global_pose": {
            "orientation": {
                "w": 0.7047431493862688,
                "x": -0.7094548369677653,
                "y": 0.0024358444001904,
                "z": -0.0022348060817251984
            },
            "position": {
                "x": -0.39052492380142206,
                "y": 0.3671506643295288,
                "z": 0.19426114857196808
            }
        },
        "name": "move_to_magneteinheit_D"
    },
    "id": "LBKPIECE_move_to_magneteinheit_D_90",
    "joint_names": [
        "shoulder_pan_joint",
        "shoulder_lift_joint",
        "elbow_joint",
        "wrist_1_joint",
        "wrist_2_joint",
        "wrist_3_joint"
    ],
    "metrics": {
        "cart_traj_len": 4.304009448322252,
        "distance_elbow_joint": 3.243176411082337,
        "distance_shoulder_lift_joint": 1.6267912525886867,
        "distance_shoulder_pan_joint": 3.0139066373936303,
        "distance_wrist_1_joint": 1.591341789236276,
        "distance_wrist_2_joint": 0.4540864686195769,
        "distance_wrist_3_joint": 3.055551896425187,
        "smoothness": 0.3787888150877727,
        "time": 3.464060878,
        "traj_len": 3.6034503542224217,
        "weighted_distance": 4.59797634900963
    },
    "planner": "LBKPIECE",
    "start": {
        "state": {
            "elbow_joint": 0.7495348899011973,
            "shoulder_lift_joint": -0.6476975780737697,
            "shoulder_pan_joint": -2.711696901376276,
            "wrist_1_joint": -0.07506478080974305,
            "wrist_2_joint": 0.4329665971545858,
            "wrist_3_joint": 3.1361499051832524
        }
    },
    "waypoints": [
        {
            "positions": [
                -2.711696901376276,
                -0.6476975780737697,
                0.7495348899011973,
                -0.07506478080974305,
                0.4329665971545858,
                3.1361499051832524
            ]
        },
        {
            "positions": [
                -2.754815306984143,
                -0.7102212102721351,
                0.6770250881189567,
                -0.09310456630028131,
                0.37744581199844196,
                3.1280047560756388
            ]
        },
        {
            "positions": [
                -2.797933712592009,
                -0.7727448424705006,
                0.604515286336716,
                -0.11114435179081958,
                0.3219250268422981,
                3.119859606968025
            ]
        },
        {
            "positions": [
                -2.6945655388978738,
                -0.8195579871432729,
                0.5134082559453769,
                -0.06540680688806988,
                0.32399175001234,
                3.0169307718851823
            ]
        },
        {
            "positions": [
                -2.5911973652037386,
                -0.8663711318160452,
                0.42230122555403776,
                -0.019669261985320194,
                0.32605847318238185,
                2.91400193680234
            ]
        },
        {
            "positions": [
                -2.487829191509604,
                -0.9131842764888175,
                0.33119419516269866,
                0.02606828291742949,
                0.3281251963524237,
                2.811073101719497
            ]
        },
        {
            "positions": [
                -2.3844610178154686,
                -0.9599974211615898,
                0.2400871647713595,
                0.07180582782017919,
                0.33019191952246557,
                2.708144266636655
            ]
        },
        {
            "positions": [
                -2.2810928441213334,
                -1.0068105658343622,
                0.14898013438002033,
                0.11754337272292889,
                0.33225864269250743,
                2.605215431553812
            ]
        },
        {
            "positions": [
                -2.177724670427198,
                -1.0536237105071344,
                0.057873103988681285,
                0.16328091762567856,
                0.3343253658625493,
                2.5022865964709693
            ]
        },
        {
            "positions": [
                -2.074356496733063,
                -1.1004368551799069,
                -0.03323392640265799,
                0.2090184625284283,
                0.33639208903259116,
                2.399357761388127
            ]
        },
        {
            "positions": [
                -1.970988323038928,
                -1.1472499998526793,
                -0.12434095679399704,
                0.254756007431178,
                0.338458812202633,
                2.296428926305284
            ]
        },
        {
            "positions": [
                -1.867620149344793,
                -1.1940631445254515,
                -0.2154479871853361,
                0.3004935523339276,
                0.3405255353726749,
                2.193500091222442
            ]
        },
        {
            "positions": [
                -1.7642519756506578,
                -1.240876289198224,
                -0.30655501757667536,
                0.34623109723667733,
                0.34259225854271674,
                2.090571256139599
            ]
        },
        {
            "positions": [
                -1.6608838019565226,
                -1.287689433870996,
                -0.3976620479680144,
                0.39196864213942706,
                0.3446589817127586,
                1.9876424210567565
            ]
        },
        {
            "positions": [
                -1.5575156282623877,
                -1.3345025785437685,
                -0.48876907835935346,
                0.4377061870421767,
                0.34672570488280047,
                1.884713585973914
            ]
        },
        {
            "positions": [
                -1.4541474545682525,
                -1.3813157232165407,
                -0.5798761087506927,
                0.4834437319449264,
                0.34879242805284233,
                1.7817847508910711
            ]
        },
        {
            "positions": [
                -1.3507792808741172,
                -1.4281288678893131,
                -0.670983139142032,
                0.5291812768476761,
                0.3508591512228842,
                1.6788559158082286
            ]
        },
        {
            "positions": [
                -1.2474111071799823,
                -1.4749420125620856,
                -0.7620901695333708,
                0.5749188217504257,
                0.35292587439292605,
                1.575927080725386
            ]
        },
        {
            "positions": [
                -1.144042933485847,
                -1.5217551572348578,
                -0.8531971999247101,
                0.6206563666531755,
                0.3549925975629679,
                1.4729982456425434
            ]
        },
        {
            "positions": [
                -1.0406747597917119,
                -1.5685683019076302,
                -0.9443042303160494,
                0.6663939115559252,
                0.3570593207330098,
                1.3700694105597007
            ]
        },
        {
            "positions": [
                -0.9373065860975771,
                -1.6153814465804024,
                -1.0354112607073882,
                0.7121314564586748,
                0.35912604390305164,
                1.2671405754768583
            ]
        },
        {
            "positions": [
                -0.8339384124034417,
                -1.6621945912531748,
                -1.1265182910987275,
                0.7578690013614245,
                0.3611927670730935,
                1.1642117403940155
            ]
        },
        {
            "positions": [
                -0.7305702387093067,
                -1.709007735925947,
                -1.2176253214900667,
                0.8036065462641743,
                0.36325949024313536,
                1.061282905311173
            ]
        },
        {
            "positions": [
                -0.6272020650151715,
                -1.7558208805987192,
                -1.3087323518814056,
                0.8493440911669239,
                0.3653262134131772,
                0.9583540702283306
            ]
        },
        {
            "positions": [
                -0.5238338913210363,
                -1.8026340252714916,
                -1.3998393822727448,
                0.8950816360696737,
                0.3673929365832191,
                0.8554252351454879
            ]
        },
        {
            "positions": [
                -0.4204657176269011,
                -1.849447169944264,
                -1.4909464126640841,
                0.9408191809724235,
                0.36945965975326095,
                0.7524964000626451
            ]
        },
        {
            "positions": [
                -0.31709754393276635,
                -1.8962603146170363,
                -1.582053443055423,
                0.986556725875173,
                0.3715263829233028,
                0.6495675649798027
            ]
        },
        {
            "positions": [
                -0.21372937023863103,
                -1.9430734592898087,
                -1.6731604734467624,
                1.0322942707779228,
                0.3735931060933447,
                0.5466387298969599
            ]
        },
        {
            "positions": [
                -0.16756456711617976,
                -1.988651610128229,
                -1.7863146128108185,
                1.0777501346365583,
                0.35164523949832954,
                0.46477233662661355
            ]
        },
        {
            "positions": [
                -0.12139976399372848,
                -2.0342297609666495,
                -1.8994687521748743,
                1.1232059984951936,
                0.3296973729033144,
                0.3829059433562672
            ]
        },
        {
            "positions": [
                -0.0752349608712772,
                -2.07980791180507,
                -2.01262289153893,
                1.1686618623538292,
                0.3077495063082993,
                0.30103955008592087
            ]
        },
        {
            "positions": [
                -0.029070157748825928,
                -2.12538606264349,
                -2.125777030902986,
                1.2141177262124647,
                0.28580163971328415,
                0.21917315681557448
            ]
        },
        {
            "positions": [
                -0.029992137457356346,
                -2.1486693449808048,
                -2.2320847000794717,
                1.2710520064548154,
                0.23596477287939446,
                0.1919685623999568
            ]
        },
        {
            "positions": [
                -0.030914117165886768,
                -2.1719526273181198,
                -2.3383923692559576,
                1.3279862866971661,
                0.18612790604550478,
                0.16476396798433912
            ]
        },
        {
            "positions": [
                -0.031836096874417186,
                -2.1952359096554344,
                -2.444700038432443,
                1.3849205669395168,
                0.13629103921161506,
                0.13755937356872144
            ]
        },
        {
            "positions": [
                -0.10985626297897892,
                -2.2348623701589454,
                -2.420229297058095,
                1.4145192167019485,
                0.1633284152988716,
                0.10907869116339361
            ]
        },
        {
            "positions": [
                -0.18787642908354066,
                -2.2744888306624564,
                -2.395758555683747,
                1.4441178664643801,
                0.19036579138612816,
                0.08059800875806578
            ]
        }
    ]
}