{
    "goal": {
        "global_pose": {
            "orientation": {
                "w": 0.7031023502349854,
                "x": -0.7110244035720825,
                "y": 0.007748599164187908,
                "z": 0.005598929710686207
            },
            "position": {
                "x": 0.11585023208521307,
                "y": 0.44412534475326537,
                "z": 0.3711530566215515
            }
        },
        "name": "move_to_auspresseinheit_A"
    },
    "id": "LBKPIECE_move_to_auspresseinheit_A_16",
    "joint_names": [
        "shoulder_pan_joint",
        "shoulder_lift_joint",
        "elbow_joint",
        "wrist_1_joint",
        "wrist_2_joint",
        "wrist_3_joint"
    ],
    "metrics": {
        "cart_traj_len": 5.399876962015166,
        "distance_elbow_joint": 7.931218938621638,
        "distance_shoulder_lift_joint": 1.0559459725555802,
        "distance_shoulder_pan_joint": 1.0463756591908404,
        "distance_wrist_1_joint": 6.2577187048581555,
        "distance_wrist_2_joint": 1.2194519396037409,
        "distance_wrist_3_joint": 2.828952000443648,
        "smoothness": 0.612086860386903,
        "time": 5.317120856000001,
        "traj_len": 4.509951575712715,
        "weighted_distance": 5.785735723365077
    },
    "planner": "LBKPIECE",
    "start": {
        "state": {
            "elbow_joint": 2.4225747245308327,
            "shoulder_lift_joint": -1.373653427065438,
            "shoulder_pan_joint": -0.33786330853087027,
            "wrist_1_joint": -1.0288602302712604,
            "wrist_2_joint": 1.23302299562683,
            "wrist_3_joint": -3.094021725338297
        }
    },
    "waypoints": [
        {
            "positions": [
                -0.33786330853087027,
                -1.373653427065438,
                2.4225747245308327,
                -1.0288602302712604,
                1.23302299562683,
                -3.094021725338297
            ]
        },
        {
            "positions": [
                -0.32038832327085454,
                -1.398456261249302,
                2.280391721939124,
                -0.9069433794747453,
                1.2020018393101677,
                -3.0444610067931053
            ]
        },
        {
            "positions": [
                -0.30291333801083886,
                -1.423259095433166,
                2.1382087193474155,
                -0.7850265286782302,
                1.1709806829935052,
                -2.9949002882479134
            ]
        },
        {
            "positions": [
                -0.28543835275082313,
                -1.44806192961703,
                1.9960257167557067,
                -0.6631096778817152,
                1.139959526676843,
                -2.945339569702722
            ]
        },
        {
            "positions": [
                -0.26796336749080746,
                -1.4728647638008943,
                1.8538427141639982,
                -0.5411928270852,
                1.1089383703601807,
                -2.89577885115753
            ]
        },
        {
            "positions": [
                -0.25048838223079173,
                -1.4976675979847582,
                1.7116597115722896,
                -0.41927597628868496,
                1.0779172140435183,
                -2.8462181326123384
            ]
        },
        {
            "positions": [
                -0.23301339697077603,
                -1.5224704321686224,
                1.5694767089805808,
                -0.2973591254921699,
                1.046896057726856,
                -2.7966574140671465
            ]
        },
        {
            "positions": [
                -0.21553841171076032,
                -1.5472732663524864,
                1.4272937063888722,
                -0.17544227469565477,
                1.0158749014101938,
                -2.7470966955219547
            ]
        },
        {
            "positions": [
                -0.19806342645074462,
                -1.5720761005363506,
                1.2851107037971636,
                -0.053525423899139724,
                0.9848537450935313,
                -2.697535976976763
            ]
        },
        {
            "positions": [
                -0.1805884411907289,
                -1.5968789347202146,
                1.1429277012054548,
                0.06839142689737554,
                0.953832588776869,
                -2.647975258431571
            ]
        },
        {
            "positions": [
                -0.1631134559307132,
                -1.6216817689040788,
                1.0007446986137463,
                0.19030827769389047,
                0.9228114324602067,
                -2.5984145398863796
            ]
        },
        {
            "positions": [
                -0.1456384706706975,
                -1.6464846030879428,
                0.8585616960220377,
                0.3122251284904056,
                0.8917902761435443,
                -2.5488538213411878
            ]
        },
        {
            "positions": [
                -0.1281634854106818,
                -1.6712874372718067,
                0.7163786934303291,
                0.43414197928692055,
                0.8607691198268821,
                -2.499293102795996
            ]
        },
        {
            "positions": [
                -0.11068850015066606,
                -1.696090271455671,
                0.5741956908386203,
                0.5560588300834359,
                0.8297479635102196,
                -2.449732384250804
            ]
        },
        {
            "positions": [
                -0.09321351489065036,
                -1.7208931056395351,
                0.43201268824691175,
                0.6779756808799509,
                0.7987268071935574,
                -2.4001716657056127
            ]
        },
        {
            "positions": [
                -0.07573852963063465,
                -1.745695939823399,
                0.28982968565520295,
                0.7998925316764658,
                0.7677056508768951,
                -2.350610947160421
            ]
        },
        {
            "positions": [
                -0.05826354437061898,
                -1.770498774007263,
                0.1476466830634946,
                0.9218093824729809,
                0.7366844945602328,
                -2.301050228615229
            ]
        },
        {
            "positions": [
                -0.04078855911060325,
                -1.7953016081911273,
                0.005463680471785803,
                1.0437262332694959,
                0.7056633382435704,
                -2.251489510070037
            ]
        },
        {
            "positions": [
                -0.02331357385058752,
                -1.8201044423749915,
                -0.136719322119923,
                1.1656430840660115,
                0.6746421819269081,
                -2.2019287915248453
            ]
        },
        {
            "positions": [
                -0.005838588590571792,
                -1.8449072765588554,
                -0.27890232471163134,
                1.2875599348625266,
                0.6436210256102457,
                -2.1523680729796535
            ]
        },
        {
            "positions": [
                0.011636396669443883,
                -1.8697101107427194,
                -0.42108532730334014,
                1.4094767856590413,
                0.6125998692935835,
                -2.1028073544344617
            ]
        },
        {
            "positions": [
                0.029111381929459612,
                -1.8945129449265836,
                -0.5632683298950489,
                1.5313936364555565,
                0.5815787129769211,
                -2.0532466358892703
            ]
        },
        {
            "positions": [
                0.046586367189475286,
                -1.9193157791104476,
                -0.7054513324867573,
                1.6533104872520716,
                0.5505575566602587,
                -2.0036859173440784
            ]
        },
        {
            "positions": [
                0.06406135244949102,
                -1.9441186132943118,
                -0.8476343350784661,
                1.7752273380485863,
                0.5195364003435965,
                -1.9541251987988866
            ]
        },
        {
            "positions": [
                0.08153633770950669,
                -1.9689214474781758,
                -0.9898173376701744,
                1.8971441888451015,
                0.48851524402693414,
                -1.904564480253695
            ]
        },
        {
            "positions": [
                0.09901132296952248,
                -1.99372428166204,
                -1.1320003402618832,
                2.019061039641617,
                0.4574940877102718,
                -1.8550037617085031
            ]
        },
        {
            "positions": [
                0.11648630822953815,
                -2.018527115845904,
                -1.274183342853592,
                2.1409778904381325,
                0.4264729313936094,
                -1.8054430431633113
            ]
        },
        {
            "positions": [
                0.13396129348955388,
                -2.043329950029768,
                -1.4163663454453004,
                2.262894741234647,
                0.3954517750769472,
                -1.7558823246181197
            ]
        },
        {
            "positions": [
                0.15143627874956955,
                -2.068132784213632,
                -1.5585493480370094,
                2.3848115920311623,
                0.3644306187602848,
                -1.7063216060729278
            ]
        },
        {
            "positions": [
                0.16727837434897244,
                -2.0557091254938697,
                -1.3752318297984816,
                2.256467466043665,
                0.37171695597241516,
                -1.7501640588835736
            ]
        },
        {
            "positions": [
                0.18312046994837533,
                -2.0432854667741074,
                -1.191914311559954,
                2.1281233400561677,
                0.3790032931845455,
                -1.7940065116942192
            ]
        },
        {
            "positions": [
                0.19896256554777822,
                -2.030861808054345,
                -1.0085967933214262,
                1.9997792140686705,
                0.38628963039667585,
                -1.837848964504865
            ]
        },
        {
            "positions": [
                0.2148046611471811,
                -2.0184381493345827,
                -0.8252792750828984,
                1.8714350880811734,
                0.3935759676088062,
                -1.8816914173155106
            ]
        },
        {
            "positions": [
                0.23064675674658403,
                -2.0060144906148203,
                -0.6419617568443706,
                1.7430909620936763,
                0.40086230482093654,
                -1.9255338701261564
            ]
        },
        {
            "positions": [
                0.2464888523459869,
                -1.9935908318950577,
                -0.4586442386058429,
                1.614746836106179,
                0.4081486420330669,
                -1.969376322936802
            ]
        },
        {
            "positions": [
                0.2623309479453898,
                -1.9811671731752953,
                -0.2753267203673151,
                1.4864027101186816,
                0.41543497924519723,
                -2.013218775747448
            ]
        },
        {
            "positions": [
                0.27817304354479266,
                -1.9687435144555328,
                -0.09200920212878749,
                1.3580585841311845,
                0.4227213164573276,
                -2.0570612285580934
            ]
        },
        {
            "positions": [
                0.2940151391441956,
                -1.9563198557357704,
                0.09130831610974033,
                1.2297144581436872,
                0.4300076536694579,
                -2.100903681368739
            ]
        },
        {
            "positions": [
                0.3098572347435985,
                -1.943896197016008,
                0.27462583434826815,
                1.10137033215619,
                0.43729399088158827,
                -2.144746134179385
            ]
        },
        {
            "positions": [
                0.32569933034300136,
                -1.9314725382962457,
                0.4579433525867962,
                0.9730262061686925,
                0.4445803280937186,
                -2.1885885869900306
            ]
        },
        {
            "positions": [
                0.3415414259424042,
                -1.9190488795764833,
                0.6412608708253236,
                0.8446820801811956,
                0.45186666530584896,
                -2.232431039800676
            ]
        },
        {
            "positions": [
                0.3573835215418072,
                -1.906625220856721,
                0.8245783890638514,
                0.7163379541936981,
                0.4591530025179793,
                -2.276273492611322
            ]
        },
        {
            "positions": [
                0.37322561714121005,
                -1.8942015621369583,
                1.0078959073023792,
                0.5879938282062009,
                0.46643933973010965,
                -2.3201159454219678
            ]
        },
        {
            "positions": [
                0.3890677127406129,
                -1.881777903417196,
                1.191213425540907,
                0.4596497022187036,
                0.47372567694224,
                -2.3639583982326133
            ]
        },
        {
            "positions": [
                0.40490980834001583,
                -1.8693542446974336,
                1.3745309437794344,
                0.3313055762312067,
                0.48101201415437034,
                -2.407800851043259
            ]
        },
        {
            "positions": [
                0.42075190393941875,
                -1.8569305859776712,
                1.5578484620179627,
                0.20296145024370915,
                0.4882983513665007,
                -2.451643303853905
            ]
        },
        {
            "positions": [
                0.4365939995388216,
                -1.8445069272579089,
                1.74116598025649,
                0.07461732425621204,
                0.495584688578631,
                -2.4954857566645505
            ]
        },
        {
            "positions": [
                0.4524360951382245,
                -1.8320832685381463,
                1.9244834984950179,
                -0.05372680173128508,
                0.5028710257907614,
                -2.5393282094751966
            ]
        },
        {
            "positions": [
                0.4682781907376274,
                -1.819659609818384,
                2.1078010167335455,
                -0.1820709277187822,
                0.5101573630028917,
                -2.583170662285842
            ]
        },
        {
            "positions": [
                0.4841202863370303,
                -1.8072359510986216,
                2.2911185349720737,
                -0.31041505370628,
                0.5174437002150221,
                -2.6270131150964877
            ]
        },
        {
            "positions": [
                0.5402183024177653,
                -1.8323783966717153,
                2.316225280733253,
                -0.3476201129108528,
                0.5669053205356367,
                -2.7571532081351675
            ]
        },
        {
            "positions": [
                0.5963163184985003,
                -1.8575208422448093,
                2.3413320264944315,
                -0.3848251721154257,
                0.6163669408562513,
                -2.8872933011738473
            ]
        },
        {
            "positions": [
                0.6524143345792353,
                -1.8826632878179033,
                2.36643877225561,
                -0.4220302313199986,
                0.665828561176866,
                -3.0174333942125267
            ]
        },
        {
            "positions": [
                0.7085123506599702,
                -1.907805733390997,
                2.3915455180167893,
                -0.45923529052457146,
                0.7152901814974806,
                -3.1475734872512064
            ]
        }
    ]
}