{
    "goal": {
        "global_pose": {
            "orientation": {
                "w": -0.4816463035849501,
                "x": 0.5182115481033762,
                "y": 0.4908360881923453,
                "z": -0.5084816262002911
            },
            "position": {
                "x": -0.8240239810943604,
                "y": 0.19912469901144506,
                "z": 0.16403168439865112
            }
        },
        "name": "move_to_storage_D"
    },
    "id": "LBKPIECE_move_to_storage_D_15",
    "joint_names": [
        "shoulder_pan_joint",
        "shoulder_lift_joint",
        "elbow_joint",
        "wrist_1_joint",
        "wrist_2_joint",
        "wrist_3_joint"
    ],
    "metrics": {
        "cart_traj_len": 5.624238679480876,
        "distance_elbow_joint": 4.211761323445749,
        "distance_shoulder_lift_joint": 3.061058348059485,
        "distance_shoulder_pan_joint": 3.4687284558935207,
        "distance_wrist_1_joint": 5.985434847056371,
        "distance_wrist_2_joint": 2.349831873284293,
        "distance_wrist_3_joint": 8.453298794225235,
        "smoothness": 0.3575186429981969,
        "time": 3.9966768,
        "traj_len": 5.246914678357619,
        "weighted_distance": 7.264432390129034
    },
    "planner": "LBKPIECE",
    "start": {
        "state": {
            "elbow_joint": -2.384821997420982,
            "shoulder_lift_joint": -2.2788054674887404,
            "shoulder_pan_joint": -0.18546946417610016,
            "wrist_1_joint": 1.4845937964226739,
            "wrist_2_joint": 0.1789877726866377,
            "wrist_3_joint": 0.03710572555276528
        }
    },
    "waypoints": [
        {
            "positions": [
                -0.18546946417610016,
                -2.2788054674887404,
                -2.384821997420982,
                1.4845937964226739,
                0.1789877726866377,
                0.03710572555276528
            ]
        },
        {
            "positions": [
                -0.14496823415811244,
                -2.237873664011545,
                -2.380969769806988,
                1.3982850833634193,
                0.11871178131288054,
                0.01960677982039373
            ]
        },
        {
            "positions": [
                -0.05386307343087715,
                -2.254364317496069,
                -2.3287748571828426,
                1.4011128366178287,
                0.11120316099836423,
                -0.012337173942628468
            ]
        },
        {
            "positions": [
                0.03724208729635814,
                -2.2708549709805927,
                -2.2765799445586974,
                1.403940589872238,
                0.10369454068384792,
                -0.044281127705650666
            ]
        },
        {
            "positions": [
                0.034933561330963016,
                -2.2790443134026814,
                -2.1433190831219675,
                1.4964613204934467,
                0.1636377084199766,
                0.054344088290433926
            ]
        },
        {
            "positions": [
                0.03262503536556789,
                -2.28723365582477,
                -2.0100582216852376,
                1.5889820511146557,
                0.2235808761561053,
                0.1529693042865185
            ]
        },
        {
            "positions": [
                0.030316509400172765,
                -2.295422998246859,
                -1.876797360248508,
                1.6815027817358645,
                0.28352404389223396,
                0.25159452028260304
            ]
        },
        {
            "positions": [
                0.028007983434777638,
                -2.3036123406689475,
                -1.7435364988117779,
                1.7740235123570733,
                0.3434672116283627,
                0.3502197362786877
            ]
        },
        {
            "positions": [
                0.025699457469382514,
                -2.311801683091036,
                -1.6102756373750482,
                1.8665442429782824,
                0.40341037936449137,
                0.4488449522747722
            ]
        },
        {
            "positions": [
                0.02339093150398739,
                -2.319991025513125,
                -1.4770147759383185,
                1.9590649735994912,
                0.46335354710062004,
                0.5474701682708568
            ]
        },
        {
            "positions": [
                0.021082405538592263,
                -2.3281803679352135,
                -1.3437539145015887,
                2.0515857042207,
                0.5232967148367487,
                0.6460953842669414
            ]
        },
        {
            "positions": [
                0.01877387957319714,
                -2.3363697103573022,
                -1.2104930530648585,
                2.144106434841909,
                0.5832398825728775,
                0.7447206002630261
            ]
        },
        {
            "positions": [
                0.016465353607802012,
                -2.344559052779391,
                -1.0772321916281289,
                2.236627165463118,
                0.6431830503090061,
                0.8433458162591106
            ]
        },
        {
            "positions": [
                0.014156827642406888,
                -2.3527483952014796,
                -0.943971330191399,
                2.3291478960843266,
                0.7031262180451348,
                0.9419710322551952
            ]
        },
        {
            "positions": [
                0.011848301677011761,
                -2.3609377376235683,
                -0.8107104687546691,
                2.421668626705536,
                0.7630693857812636,
                1.0405962482512798
            ]
        },
        {
            "positions": [
                0.009539775711616637,
                -2.369127080045657,
                -0.6774496073179395,
                2.514189357326744,
                0.8230125535173922,
                1.1392214642473641
            ]
        },
        {
            "positions": [
                0.007231249746221514,
                -2.3773164224677457,
                -0.5441887458812094,
                2.6067100879479534,
                0.8829557212535208,
                1.237846680243449
            ]
        },
        {
            "positions": [
                0.0049227237808263866,
                -2.3855057648898343,
                -0.4109278844444797,
                2.6992308185691622,
                0.9428988889896495,
                1.3364718962395332
            ]
        },
        {
            "positions": [
                0.002614197815431263,
                -2.393695107311923,
                -0.2776670230077498,
                2.791751549190371,
                1.0028420567257783,
                1.435097112235618
            ]
        },
        {
            "positions": [
                0.0003056718500361391,
                -2.4018844497340117,
                -0.1444061615710197,
                2.8842722798115803,
                1.062785224461907,
                1.5337223282317027
            ]
        },
        {
            "positions": [
                -0.0020028541153589846,
                -2.4100737921561004,
                -0.01114530013429027,
                2.9767930104327887,
                1.1227283921980356,
                1.632347544227787
            ]
        },
        {
            "positions": [
                -0.004311380080754115,
                -2.418263134578189,
                0.12211556130243961,
                3.069313741053998,
                1.1826715599341644,
                1.7309727602238718
            ]
        },
        {
            "positions": [
                -0.006619906046149239,
                -2.4264524770002778,
                0.2553764227391695,
                3.1618344716752063,
                1.2426147276702928,
                1.8295979762199561
            ]
        },
        {
            "positions": [
                -0.008928432011544363,
                -2.4346418194223665,
                0.3886372841758994,
                3.2543552022964155,
                1.3025578954064216,
                1.9282231922160409
            ]
        },
        {
            "positions": [
                0.11792143592118859,
                -2.465134472334057,
                0.4211529775429119,
                3.10946893062188,
                1.2736693325712287,
                1.9582461495654289
            ]
        },
        {
            "positions": [
                0.24477130385392154,
                -2.4956271252457483,
                0.45366867090992447,
                2.9645826589473447,
                1.2447807697360358,
                1.9882691069148166
            ]
        },
        {
            "positions": [
                0.3716211717866545,
                -2.526119778157439,
                0.486184364276937,
                2.8196963872728094,
                1.2158922069008427,
                2.0182920642642044
            ]
        },
        {
            "positions": [
                0.49847103971938744,
                -2.55661243106913,
                0.5187000576439496,
                2.674810115598274,
                1.1870036440656497,
                2.0483150216135924
            ]
        },
        {
            "positions": [
                0.6253209076521205,
                -2.5871050839808207,
                0.5512157510109621,
                2.529923843923738,
                1.1581150812304568,
                2.0783379789629803
            ]
        },
        {
            "positions": [
                0.7521707755848533,
                -2.6175977368925114,
                0.5837314443779746,
                2.3850375722492028,
                1.1292265183952637,
                2.1083609363123683
            ]
        },
        {
            "positions": [
                0.8790206435175864,
                -2.6480903898042025,
                0.6162471377449873,
                2.2401513005746674,
                1.1003379555600707,
                2.1383838936617563
            ]
        },
        {
            "positions": [
                1.0058705114503192,
                -2.678583042715893,
                0.6487628311119997,
                2.095265028900132,
                1.0714493927248778,
                2.1684068510111443
            ]
        },
        {
            "positions": [
                1.1327203793830523,
                -2.7090756956275843,
                0.6812785244790124,
                1.9503787572255964,
                1.042560829889685,
                2.1984298083605323
            ]
        },
        {
            "positions": [
                1.2595702473157853,
                -2.739568348539275,
                0.7137942178460249,
                1.8054924855510612,
                1.013672267054492,
                2.22845276570992
            ]
        },
        {
            "positions": [
                1.3864201152485183,
                -2.7700610014509657,
                0.7463099112130375,
                1.6606062138765256,
                0.9847837042192988,
                2.2584757230593078
            ]
        },
        {
            "positions": [
                1.513269983181251,
                -2.800553654362657,
                0.77882560458005,
                1.5157199422019902,
                0.9558951413841059,
                2.2884986804086958
            ]
        },
        {
            "positions": [
                1.640119851113984,
                -2.8310463072743475,
                0.8113412979470626,
                1.3708336705274549,
                0.927006578548913,
                2.3185216377580837
            ]
        },
        {
            "positions": [
                1.766969719046717,
                -2.8615389601860386,
                0.8438569913140752,
                1.2259473988529193,
                0.8981180157137199,
                2.3485445951074717
            ]
        },
        {
            "positions": [
                1.89381958697945,
                -2.8920316130977293,
                0.8763726846810878,
                1.0810611271783839,
                0.8692294528785269,
                2.3785675524568592
            ]
        },
        {
            "positions": [
                2.020669454912183,
                -2.92252426600942,
                0.9088883780481002,
                0.9361748555038485,
                0.840340890043334,
                2.4085905098062472
            ]
        },
        {
            "positions": [
                2.1475193228449156,
                -2.9530169189211106,
                0.9414040714151127,
                0.7912885838293131,
                0.8114523272081411,
                2.438613467155635
            ]
        },
        {
            "positions": [
                2.274369190777649,
                -2.9835095718328017,
                0.9739197647821254,
                0.6464023121547773,
                0.782563764372948,
                2.468636424505023
            ]
        },
        {
            "positions": [
                2.4012190587103817,
                -3.014002224744493,
                1.006435458149138,
                0.5015160404802419,
                0.753675201537755,
                2.498659381854411
            ]
        },
        {
            "positions": [
                2.528068926643115,
                -3.0444948776561835,
                1.0389511515161505,
                0.35662976880570696,
                0.7247866387025621,
                2.528682339203799
            ]
        },
        {
            "positions": [
                2.6549187945758477,
                -3.074987530567874,
                1.071466844883163,
                0.21174349713117158,
                0.6958980758673691,
                2.5587052965531867
            ]
        },
        {
            "positions": [
                2.781768662508581,
                -3.1054801834795653,
                1.1039825382501756,
                0.06685722545663575,
                0.667009513032176,
                2.5887282539025747
            ]
        },
        {
            "positions": [
                2.9086185304413137,
                -3.135972836391256,
                1.136498231617188,
                -0.07802904621789963,
                0.6381209501969831,
                2.6187512112519626
            ]
        },
        {
            "positions": [
                2.8977608603389946,
                -3.0543563989988494,
                1.1630536583251718,
                -0.10536257570058459,
                0.653937809479656,
                2.399178918866993
            ]
        },
        {
            "positions": [
                2.886903190236675,
                -2.9727399616064423,
                1.1896090850331553,
                -0.13269610518326955,
                0.6697546687623288,
                2.1796066264820233
            ]
        },
        {
            "positions": [
                2.8760455201343555,
                -2.8911235242140356,
                1.216164511741139,
                -0.16002963466595452,
                0.6855715280450017,
                1.9600343340970539
            ]
        },
        {
            "positions": [
                2.8651878500320365,
                -2.809507086821629,
                1.2427199384491228,
                -0.18736316414863946,
                0.7013883873276745,
                1.7404620417120844
            ]
        },
        {
            "positions": [
                2.8543301799297174,
                -2.727890649429222,
                1.2692753651571063,
                -0.21469669363132443,
                0.7172052466103473,
                1.5208897493271147
            ]
        },
        {
            "positions": [
                2.843472509827398,
                -2.6462742120368152,
                1.29583079186509,
                -0.2420302231140094,
                0.7330221058930202,
                1.3013174569421453
            ]
        },
        {
            "positions": [
                2.8326148397250783,
                -2.5646577746444086,
                1.3223862185730737,
                -0.2693637525966943,
                0.748838965175693,
                1.0817451645571758
            ]
        },
        {
            "positions": [
                2.8217571696227592,
                -2.4830413372520015,
                1.3489416452810572,
                -0.2966972820793793,
                0.764655824458366,
                0.8621728721722062
            ]
        },
        {
            "positions": [
                2.81089949952044,
                -2.401424899859595,
                1.375497071989041,
                -0.32403081156206426,
                0.7804726837410388,
                0.6426005797872367
            ]
        },
        {
            "positions": [
                2.8000418294181206,
                -2.319808462467188,
                1.4020524986970244,
                -0.35136434104474923,
                0.7962895430237117,
                0.42302828740226683
            ]
        },
        {
            "positions": [
                2.789184159315801,
                -2.238192025074781,
                1.4286079254050081,
                -0.37869787052743414,
                0.8121064023063845,
                0.20345599501729783
            ]
        },
        {
            "positions": [
                2.778326489213482,
                -2.1565755876823745,
                1.4551633521129919,
                -0.40603140001011917,
                0.8279232615890574,
                -0.01611629736767206
            ]
        },
        {
            "positions": [
                2.767468819111163,
                -2.074959150289968,
                1.4817187788209756,
                -0.4333649294928041,
                0.8437401208717302,
                -0.2356885897526415
            ]
        },
        {
            "positions": [
                2.7566111490088434,
                -1.993342712897561,
                1.508274205528959,
                -0.460698458975489,
                0.8595569801544031,
                -0.45526088213761096
            ]
        },
        {
            "positions": [
                2.7457534789065243,
                -1.911726275505154,
                1.5348296322369428,
                -0.48803198845817397,
                0.8753738394370759,
                -0.6748331745225804
            ]
        },
        {
            "positions": [
                2.734895808804205,
                -1.8301098381127472,
                1.5613850589449263,
                -0.5153655179408589,
                0.8911906987197489,
                -0.8944054669075503
            ]
        },
        {
            "positions": [
                2.7240381387018857,
                -1.7484934007203403,
                1.58794048565291,
                -0.5426990474235439,
                0.9070075580024217,
                -1.1139777592925197
            ]
        },
        {
            "positions": [
                2.713180468599566,
                -1.6668769633279337,
                1.6144959123608937,
                -0.5700325769062289,
                0.9228244172850946,
                -1.3335500516774892
            ]
        },
        {
            "positions": [
                2.7023227984972467,
                -1.5852605259355268,
                1.6410513390688775,
                -0.5973661063889139,
                0.9386412765677674,
                -1.5531223440624582
            ]
        },
        {
            "positions": [
                2.6914651283949276,
                -1.50364408854312,
                1.667606765776861,
                -0.6246996358715988,
                0.9544581358504403,
                -1.772694636447429
            ]
        },
        {
            "positions": [
                2.6806074582926085,
                -1.422027651150713,
                1.6941621924848447,
                -0.6520331653542838,
                0.9702749951331131,
                -1.992266928832398
            ]
        },
        {
            "positions": [
                2.669749788190289,
                -1.3404112137583064,
                1.7207176191928282,
                -0.6793666948369687,
                0.986091854415786,
                -2.211839221217367
            ]
        },
        {
            "positions": [
                2.6588921180879694,
                -1.2587947763658995,
                1.747273045900812,
                -0.7067002243196536,
                1.0019087136984588,
                -2.431411513602337
            ]
        },
        {
            "positions": [
                2.6480344479856504,
                -1.1771783389734927,
                1.7738284726087956,
                -0.7340337538023387,
                1.0177255729811316,
                -2.6509838059873068
            ]
        },
        {
            "positions": [
                2.6371767778833313,
                -1.0955619015810858,
                1.8003838993167793,
                -0.7613672832850236,
                1.0335424322638045,
                -2.8705560983722767
            ]
        },
        {
            "positions": [
                2.6263191077810117,
                -1.0139454641886791,
                1.8269393260247628,
                -0.7887008127677085,
                1.0493592915464773,
                -3.090128390757245
            ]
        }
    ]
}