{
    "goal": {
        "global_pose": {
            "orientation": {
                "w": -0.4816463035849501,
                "x": 0.5182115481033762,
                "y": 0.4908360881923453,
                "z": -0.5084816262002911
            },
            "position": {
                "x": -0.8240239810943604,
                "y": 0.19912469901144506,
                "z": 0.16403168439865112
            }
        },
        "name": "move_to_storage_D"
    },
    "id": "LBKPIECE_move_to_storage_D_3",
    "joint_names": [
        "shoulder_pan_joint",
        "shoulder_lift_joint",
        "elbow_joint",
        "wrist_1_joint",
        "wrist_2_joint",
        "wrist_3_joint"
    ],
    "metrics": {
        "cart_traj_len": 5.895368164338054,
        "distance_elbow_joint": 4.213158231840733,
        "distance_shoulder_lift_joint": 3.035622689907586,
        "distance_shoulder_pan_joint": 3.1664489862280756,
        "distance_wrist_1_joint": 4.378208864439687,
        "distance_wrist_2_joint": 1.2701792831422554,
        "distance_wrist_3_joint": 3.1799277089596782,
        "smoothness": 0.5657595997682462,
        "time": 3.75125405,
        "traj_len": 4.386746603636688,
        "weighted_distance": 5.590329984000882
    },
    "planner": "LBKPIECE",
    "start": {
        "state": {
            "elbow_joint": -2.384821997420982,
            "shoulder_lift_joint": -2.2788054674887404,
            "shoulder_pan_joint": -0.18546946417610016,
            "wrist_1_joint": 1.4845937964226739,
            "wrist_2_joint": 0.1789877726866377,
            "wrist_3_joint": 0.03710572555276528
        }
    },
    "waypoints": [
        {
            "positions": [
                -0.18546946417610016,
                -2.2788054674887404,
                -2.384821997420982,
                1.4845937964226739,
                0.1789877726866377,
                0.03710572555276528
            ]
        },
        {
            "positions": [
                -0.168375187349331,
                -2.267608096400714,
                -2.3861469005175646,
                1.4924658019939545,
                0.18726573901361876,
                0.01974241852711629
            ]
        },
        {
            "positions": [
                -0.0739043231811584,
                -2.2124993720397867,
                -2.2854780596363247,
                1.4309481496742054,
                0.19399139536444404,
                0.08711151537894656
            ]
        },
        {
            "positions": [
                0.020566540987014187,
                -2.15739064767886,
                -2.1848092187550847,
                1.3694304973544564,
                0.20071705171526935,
                0.1544806122307768
            ]
        },
        {
            "positions": [
                0.11503740515518673,
                -2.1022819233179324,
                -2.0841403778738448,
                1.3079128450347073,
                0.20744270806609463,
                0.22184970908260707
            ]
        },
        {
            "positions": [
                0.20950826932335936,
                -2.047173198957005,
                -1.9834715369926044,
                1.2463951927149581,
                0.21416836441691994,
                0.28921880593443733
            ]
        },
        {
            "positions": [
                0.30397913349153194,
                -1.9920644745960778,
                -1.8828026961113644,
                1.1848775403952092,
                0.22089402076774522,
                0.3565879027862676
            ]
        },
        {
            "positions": [
                0.39844999765970446,
                -1.9369557502351507,
                -1.7821338552301245,
                1.12335988807546,
                0.2276196771185705,
                0.42395699963809785
            ]
        },
        {
            "positions": [
                0.4929208618278771,
                -1.8818470258742233,
                -1.6814650143488845,
                1.061842235755711,
                0.2343453334693958,
                0.49132609648992814
            ]
        },
        {
            "positions": [
                0.5873917259960497,
                -1.826738301513296,
                -1.5807961734676443,
                1.0003245834359618,
                0.2410709898202211,
                0.5586951933417584
            ]
        },
        {
            "positions": [
                0.6818625901642223,
                -1.771629577152369,
                -1.4801273325864042,
                0.9388069311162127,
                0.2477966461710464,
                0.6260642901935888
            ]
        },
        {
            "positions": [
                0.7763334543323949,
                -1.7165208527914415,
                -1.3794584917051644,
                0.8772892787964638,
                0.2545223025218717,
                0.693433387045419
            ]
        },
        {
            "positions": [
                0.8708043185005675,
                -1.6614121284305143,
                -1.2787896508239243,
                0.8157716264767146,
                0.261247958872697,
                0.7608024838972492
            ]
        },
        {
            "positions": [
                0.9652751826687399,
                -1.6063034040695872,
                -1.1781208099426843,
                0.7542539741569656,
                0.26797361522352225,
                0.8281715807490795
            ]
        },
        {
            "positions": [
                1.0597460468369126,
                -1.5511946797086598,
                -1.0774519690614441,
                0.6927363218372165,
                0.2746992715743476,
                0.8955406776009098
            ]
        },
        {
            "positions": [
                1.154216911005085,
                -1.4960859553477326,
                -0.9767831281802042,
                0.6312186695174674,
                0.2814249279251728,
                0.9629097744527401
            ]
        },
        {
            "positions": [
                1.248687775173258,
                -1.4409772309868054,
                -0.8761142872989642,
                0.5697010171977184,
                0.28815058427599816,
                1.03027887130457
            ]
        },
        {
            "positions": [
                1.3431586393414303,
                -1.385868506625878,
                -0.7754454464177241,
                0.5081833648779692,
                0.29487624062682344,
                1.0976479681564004
            ]
        },
        {
            "positions": [
                1.4376295035096032,
                -1.3307597822649508,
                -0.6747766055364841,
                0.4466657125582203,
                0.3016018969776487,
                1.1650170650082308
            ]
        },
        {
            "positions": [
                1.5321003676777756,
                -1.2756510579040234,
                -0.5741077646552439,
                0.3851480602384709,
                0.30832755332847406,
                1.2323861618600611
            ]
        },
        {
            "positions": [
                1.6265712318459484,
                -1.2205423335430963,
                -0.473438923774004,
                0.323630407918722,
                0.3150532096792993,
                1.2997552587118912
            ]
        },
        {
            "positions": [
                1.7210420960141208,
                -1.165433609182169,
                -0.37277008289276425,
                0.26211275559897307,
                0.3217788660301246,
                1.3671243555637216
            ]
        },
        {
            "positions": [
                1.8155129601822937,
                -1.1103248848212417,
                -0.27210124201152386,
                0.2005951032792237,
                0.3285045223809499,
                1.434493452415552
            ]
        },
        {
            "positions": [
                1.909983824350466,
                -1.0552161604603145,
                -0.17143240113028368,
                0.13907745095947482,
                0.3352301787317752,
                1.501862549267382
            ]
        },
        {
            "positions": [
                1.9658855010931442,
                -1.1105295954062837,
                -0.14273135254171537,
                0.015668775072121277,
                0.3923147755602025,
                1.5613358158011688
            ]
        },
        {
            "positions": [
                2.0217871778358223,
                -1.165843030352253,
                -0.11403030395314703,
                -0.10773990081523227,
                0.4493993723886298,
                1.6208090823349555
            ]
        },
        {
            "positions": [
                2.0776888545785,
                -1.2211564652982223,
                -0.08532925536457871,
                -0.23114857670258582,
                0.5064839692170572,
                1.680282348868742
            ]
        },
        {
            "positions": [
                2.133590531321178,
                -1.2764699002441915,
                -0.05662820677601038,
                -0.35455725258993936,
                0.5635685660454844,
                1.7397556154025287
            ]
        },
        {
            "positions": [
                2.1894922080638564,
                -1.3317833351901607,
                -0.02792715818744207,
                -0.47796592847729297,
                0.6206531628739118,
                1.7992288819363154
            ]
        },
        {
            "positions": [
                2.2453938848065342,
                -1.38709677013613,
                0.0007738904011262704,
                -0.6013746043646464,
                0.6777377597023391,
                1.858702148470102
            ]
        },
        {
            "positions": [
                2.301295561549212,
                -1.4424102050820993,
                0.02947493898969461,
                -0.724783280252,
                0.7348223565307664,
                1.9181754150038888
            ]
        },
        {
            "positions": [
                2.3571972382918904,
                -1.4977236400280685,
                0.05817598757826292,
                -0.8481919561393536,
                0.7919069533591938,
                1.9776486815376755
            ]
        },
        {
            "positions": [
                2.4130989150345683,
                -1.5530370749740376,
                0.08687703616683123,
                -0.9716006320267072,
                0.8489915501876211,
                2.037121948071462
            ]
        },
        {
            "positions": [
                2.469000591777246,
                -1.6083505099200068,
                0.11557808475539955,
                -1.0950093079140608,
                0.9060761470160484,
                2.096595214605249
            ]
        },
        {
            "positions": [
                2.5249022685199245,
                -1.6636639448659762,
                0.1442791333439679,
                -1.2184179838014142,
                0.9631607438444757,
                2.1560684811390356
            ]
        },
        {
            "positions": [
                2.5808039452626024,
                -1.7189773798119454,
                0.17298018193253623,
                -1.3418266596887678,
                1.020245340672903,
                2.2155417476728223
            ]
        },
        {
            "positions": [
                2.6367056220052802,
                -1.7742908147579146,
                0.20168123052110454,
                -1.4652353355761214,
                1.0773299375013303,
                2.2750150142066086
            ]
        },
        {
            "positions": [
                2.6926072987479586,
                -1.829604249703884,
                0.2303822791096729,
                -1.5886440114634748,
                1.1344145343297578,
                2.3344882807403953
            ]
        },
        {
            "positions": [
                2.7485089754906364,
                -1.8849176846498532,
                0.2590833276982412,
                -1.7120526873508284,
                1.191499131158185,
                2.393961547274182
            ]
        },
        {
            "positions": [
                2.8044106522333143,
                -1.9402311195958224,
                0.28778437628680953,
                -1.835461363238182,
                1.2485837279866123,
                2.4534348138079687
            ]
        },
        {
            "positions": [
                2.789696579748426,
                -1.8629795842838515,
                0.4159428806151243,
                -1.7485938887684929,
                1.2318684506664224,
                2.5141741476957336
            ]
        },
        {
            "positions": [
                2.7749825072635375,
                -1.7857280489718805,
                0.5441013849434391,
                -1.661726414298804,
                1.2151531733462322,
                2.574913481583498
            ]
        },
        {
            "positions": [
                2.760268434778649,
                -1.7084765136599096,
                0.672259889271754,
                -1.5748589398291148,
                1.1984378960260422,
                2.635652815471263
            ]
        },
        {
            "positions": [
                2.7455543622937606,
                -1.6312249783479387,
                0.8004183936000686,
                -1.487991465359426,
                1.181722618705852,
                2.6963921493590277
            ]
        },
        {
            "positions": [
                2.730840289808872,
                -1.5539734430359675,
                0.9285768979283835,
                -1.4011239908897368,
                1.165007341385662,
                2.757131483246792
            ]
        },
        {
            "positions": [
                2.7161262173239837,
                -1.4767219077239968,
                1.0567354022566984,
                -1.314256516420048,
                1.1482920640654721,
                2.817870817134557
            ]
        },
        {
            "positions": [
                2.7014121448390958,
                -1.3994703724120257,
                1.184893906585013,
                -1.2273890419503588,
                1.131576786745282,
                2.878610151022322
            ]
        },
        {
            "positions": [
                2.6866980723542073,
                -1.322218837100055,
                1.3130524109133277,
                -1.1405215674806697,
                1.114861509425092,
                2.9393494849100863
            ]
        },
        {
            "positions": [
                2.671983999869319,
                -1.2449673017880838,
                1.4412109152416426,
                -1.0536540930109808,
                1.0981462321049018,
                3.000088818797851
            ]
        },
        {
            "positions": [
                2.6572699273844305,
                -1.1677157664761129,
                1.5693694195699575,
                -0.9667866185412917,
                1.0814309547847119,
                3.060828152685616
            ]
        },
        {
            "positions": [
                2.642555854899542,
                -1.090464231164142,
                1.6975279238982721,
                -0.8799191440716028,
                1.064715677464522,
                3.1215674865733805
            ]
        },
        {
            "positions": [
                2.6278417824146536,
                -1.013212695852171,
                1.825686428226587,
                -0.7930516696019136,
                1.0480004001443317,
                3.1823068204611453
            ]
        }
    ]
}