{
    "goal": {
        "global_pose": {
            "orientation": {
                "w": 0.7047431493862688,
                "x": -0.7094548369677653,
                "y": 0.0024358444001904,
                "z": -0.0022348060817251984
            },
            "position": {
                "x": -0.39052492380142206,
                "y": 0.3671506643295288,
                "z": 0.19426114857196808
            }
        },
        "name": "move_to_magneteinheit_D"
    },
    "id": "LBKPIECE_move_to_magneteinheit_D_101",
    "joint_names": [
        "shoulder_pan_joint",
        "shoulder_lift_joint",
        "elbow_joint",
        "wrist_1_joint",
        "wrist_2_joint",
        "wrist_3_joint"
    ],
    "metrics": {
        "cart_traj_len": 5.83793746201813,
        "distance_elbow_joint": 3.1388284317088355,
        "distance_shoulder_lift_joint": 2.156745648051996,
        "distance_shoulder_pan_joint": 6.969122299078337,
        "distance_wrist_1_joint": 4.248192889243649,
        "distance_wrist_2_joint": 6.248444233941956,
        "distance_wrist_3_joint": 4.501174684446492,
        "smoothness": 0.5354514448920922,
        "time": 2.551733647,
        "traj_len": 5.2213511839821,
        "weighted_distance": 6.838237688070655
    },
    "planner": "LBKPIECE",
    "start": {
        "state": {
            "elbow_joint": 0.7495348899011973,
            "shoulder_lift_joint": -0.6476975780737697,
            "shoulder_pan_joint": -2.711696901376276,
            "wrist_1_joint": -0.07506478080974305,
            "wrist_2_joint": 0.4329665971545858,
            "wrist_3_joint": 3.1361499051832524
        }
    },
    "waypoints": [
        {
            "positions": [
                -2.711696901376276,
                -0.6476975780737697,
                0.7495348899011973,
                -0.07506478080974305,
                0.4329665971545858,
                3.1361499051832524
            ]
        },
        {
            "positions": [
                -2.7108019370581244,
                -0.6399062079289874,
                0.7120247844849883,
                -0.028632611980373222,
                0.4902231770765846,
                2.9563834004456466
            ]
        },
        {
            "positions": [
                -2.7099069727399727,
                -0.6321148377842052,
                0.6745146790687793,
                0.017799556848996603,
                0.5474797569985834,
                2.776616895708041
            ]
        },
        {
            "positions": [
                -2.709012008421821,
                -0.624323467639423,
                0.6370045736525702,
                0.06423172567836644,
                0.6047363369205823,
                2.5968503909704346
            ]
        },
        {
            "positions": [
                -2.7081170441036693,
                -0.6165320974946408,
                0.5994944682363612,
                0.11066389450773625,
                0.661992916842581,
                2.4170838862328288
            ]
        },
        {
            "positions": [
                -2.7021204421961436,
                -0.6096849599589207,
                0.5537097862306297,
                0.16542658269819374,
                0.7251673680650376,
                2.207694349673293
            ]
        },
        {
            "positions": [
                -2.6961238402886174,
                -0.6028378224232007,
                0.5079251042248982,
                0.22018927088865126,
                0.7883418192874941,
                1.9983048131137569
            ]
        },
        {
            "positions": [
                -2.6901272383810917,
                -0.5959906848874806,
                0.46214042221916674,
                0.27495195907910874,
                0.8515162705099507,
                1.7889152765542211
            ]
        },
        {
            "positions": [
                -2.684130636473566,
                -0.5891435473517606,
                0.4163557402134353,
                0.32971464726956623,
                0.9146907217324073,
                1.5795257399946852
            ]
        },
        {
            "positions": [
                -2.67813403456604,
                -0.5822964098160405,
                0.37057105820770375,
                0.3844773354600237,
                0.977865172954864,
                1.3701362034351492
            ]
        },
        {
            "positions": [
                -2.672137432658514,
                -0.5754492722803204,
                0.3247863762019723,
                0.4392400236504812,
                1.0410396241773205,
                1.1607466668756132
            ]
        },
        {
            "positions": [
                -2.6661408307509884,
                -0.5686021347446004,
                0.2790016941962408,
                0.4940027118409388,
                1.1042140753997771,
                0.9513571303160773
            ]
        },
        {
            "positions": [
                -2.6601442288434622,
                -0.5617549972088803,
                0.2332170121905094,
                0.5487654000313962,
                1.1673885266222337,
                0.7419675937565415
            ]
        },
        {
            "positions": [
                -2.6541476269359365,
                -0.5549078596731603,
                0.1874323301847779,
                0.6035280882218538,
                1.2305629778446903,
                0.5325780571970054
            ]
        },
        {
            "positions": [
                -2.648151025028411,
                -0.5480607221374403,
                0.14164764817904635,
                0.6582907764123113,
                1.2937374290671468,
                0.3231885206374696
            ]
        },
        {
            "positions": [
                -2.6421544231208847,
                -0.5412135846017202,
                0.09586296617331491,
                0.7130534646027687,
                1.3569118802896034,
                0.11379898407793387
            ]
        },
        {
            "positions": [
                -2.636157821213359,
                -0.5343664470660001,
                0.05007828416758339,
                0.7678161527932262,
                1.42008633151206,
                -0.0955905524816022
            ]
        },
        {
            "positions": [
                -2.61084151837435,
                -0.5369233198014496,
                -0.004349393460064195,
                0.8245785573356058,
                1.4666654949472635,
                -0.2952873557504049
            ]
        },
        {
            "positions": [
                -2.5855252155353408,
                -0.5394801925368992,
                -0.05877707108771178,
                0.8813409618779854,
                1.5132446583824672,
                -0.4949841590192076
            ]
        },
        {
            "positions": [
                -2.46676013636028,
                -0.5975856145712288,
                -0.12505888392917403,
                0.9043922080225927,
                1.420632828144947,
                -0.46028004178210324
            ]
        },
        {
            "positions": [
                -2.347995057185219,
                -0.6556910366055586,
                -0.19134069677063625,
                0.9274434541672,
                1.3280209979074264,
                -0.4255759245449989
            ]
        },
        {
            "positions": [
                -2.229229978010158,
                -0.7137964586398884,
                -0.2576225096120985,
                0.9504947003118074,
                1.2354091676699062,
                -0.39087180730789445
            ]
        },
        {
            "positions": [
                -2.1104648988350974,
                -0.771901880674218,
                -0.3239043224535607,
                0.9735459464564147,
                1.1427973374323859,
                -0.3561676900707901
            ]
        },
        {
            "positions": [
                -1.9916998196600362,
                -0.8300073027085477,
                -0.39018613529502294,
                0.996597192601022,
                1.0501855071948654,
                -0.3214635728336857
            ]
        },
        {
            "positions": [
                -1.8729347404849752,
                -0.8881127247428775,
                -0.45646794813648517,
                1.0196484387456293,
                0.957573676957345,
                -0.28675945559658134
            ]
        },
        {
            "positions": [
                -1.7541696613099145,
                -0.9462181467772072,
                -0.5227497609779473,
                1.0426996848902366,
                0.8649618467198247,
                -0.25205533835947697
            ]
        },
        {
            "positions": [
                -1.6354045821348535,
                -1.0043235688115368,
                -0.5890315738194096,
                1.0657509310348439,
                0.7723500164823043,
                -0.2173512211223726
            ]
        },
        {
            "positions": [
                -1.5166395029597926,
                -1.0624289908458666,
                -0.6553133866608718,
                1.0888021771794512,
                0.679738186244784,
                -0.18264710388526817
            ]
        },
        {
            "positions": [
                -1.3978744237847316,
                -1.1205344128801964,
                -0.7215951995023341,
                1.1118534233240585,
                0.5871263560072636,
                -0.1479429866481638
            ]
        },
        {
            "positions": [
                -1.2791093446096706,
                -1.178639834914526,
                -0.7878770123437964,
                1.134904669468666,
                0.4945145257697432,
                -0.11323886941105943
            ]
        },
        {
            "positions": [
                -1.1603442654346097,
                -1.236745256948856,
                -0.8541588251852585,
                1.1579559156132733,
                0.4019026955322227,
                -0.078534752173955
            ]
        },
        {
            "positions": [
                -1.0415791862595492,
                -1.2948506789831855,
                -0.9204406380267207,
                1.1810071617578806,
                0.3092908652947026,
                -0.04383063493685069
            ]
        },
        {
            "positions": [
                -0.9228141070844882,
                -1.352956101017515,
                -0.9867224508681829,
                1.2040584079024879,
                0.2166790350571821,
                -0.009126517699746317
            ]
        },
        {
            "positions": [
                -0.8040490279094272,
                -1.411061523051845,
                -1.053004263709645,
                1.2271096540470952,
                0.12406720481966182,
                0.02557759953735811
            ]
        },
        {
            "positions": [
                -0.6852839487343663,
                -1.4691669450861746,
                -1.1192860765511075,
                1.2501609001917025,
                0.031455374582141316,
                0.060281716774462424
            ]
        },
        {
            "positions": [
                -0.5665188695593054,
                -1.5272723671205044,
                -1.1855678893925696,
                1.2732121463363097,
                -0.06115645565537908,
                0.09498583401156688
            ]
        },
        {
            "positions": [
                -0.4219376879249387,
                -1.5189267123238015,
                -1.2197420913226962,
                1.359168826916694,
                -0.15438375618410516,
                0.08636032813593242
            ]
        },
        {
            "positions": [
                -0.2773565062905719,
                -1.5105810575270986,
                -1.2539162932528227,
                1.4451255074970781,
                -0.24761105671283126,
                0.07773482226029797
            ]
        },
        {
            "positions": [
                -0.13277532465620512,
                -1.5022354027303957,
                -1.2880904951829493,
                1.531082188077462,
                -0.34083835724155737,
                0.06910931638466351
            ]
        },
        {
            "positions": [
                0.01180585697816161,
                -1.4938897479336928,
                -1.3222646971130758,
                1.6170388686578465,
                -0.43406565777028344,
                0.06048381050902906
            ]
        },
        {
            "positions": [
                0.15638703861252856,
                -1.4855440931369899,
                -1.3564388990432024,
                1.7029955492382305,
                -0.5272929582990096,
                0.0518583046333946
            ]
        },
        {
            "positions": [
                0.3009682202468952,
                -1.477198438340287,
                -1.390613100973329,
                1.7889522298186147,
                -0.6205202588277356,
                0.04323279875776015
            ]
        },
        {
            "positions": [
                0.44554940188126213,
                -1.468852783543584,
                -1.4247873029034555,
                1.8749089103989989,
                -0.7137475593564618,
                0.0346072928821257
            ]
        },
        {
            "positions": [
                0.5901305835156286,
                -1.4605071287468812,
                -1.458961504833582,
                1.960865590979383,
                -0.8069748598851878,
                0.025981787006491244
            ]
        },
        {
            "positions": [
                0.7347117651499956,
                -1.452161473950178,
                -1.4931357067637085,
                2.0468222715597673,
                -0.900202160413914,
                0.017356281130856785
            ]
        },
        {
            "positions": [
                0.8792929467843625,
                -1.4438158191534751,
                -1.527309908693835,
                2.1327789521401517,
                -0.9934294609426402,
                0.008730775255222326
            ]
        },
        {
            "positions": [
                1.0238741284187292,
                -1.4354701643567722,
                -1.5614841106239619,
                2.2187356327205356,
                -1.0866567614713665,
                0.0001052693795878662
            ]
        },
        {
            "positions": [
                1.1684553100530959,
                -1.4271245095600693,
                -1.5956583125540882,
                2.3046923133009196,
                -1.179884062000092,
                -0.00852023649604658
            ]
        },
        {
            "positions": [
                1.3130364916874626,
                -1.4187788547633664,
                -1.629832514484215,
                2.390648993881304,
                -1.2731113625288182,
                -0.01714574237168104
            ]
        },
        {
            "positions": [
                1.4576176733218298,
                -1.4104331999666635,
                -1.6640067164143415,
                2.4766056744616884,
                -1.3663386630575447,
                -0.025771248247315484
            ]
        },
        {
            "positions": [
                1.6021988549561965,
                -1.4020875451699606,
                -1.698180918344468,
                2.5625623550420724,
                -1.4595659635862708,
                -0.03439675412294996
            ]
        },
        {
            "positions": [
                1.7467800365905628,
                -1.3937418903732577,
                -1.7323551202745946,
                2.6485190356224564,
                -1.5527932641149964,
                -0.04302225999858439
            ]
        },
        {
            "positions": [
                1.89136121822493,
                -1.3853962355765548,
                -1.7665293222047211,
                2.734475716202841,
                -1.646020564643723,
                -0.05164776587421885
            ]
        },
        {
            "positions": [
                2.0359423998592967,
                -1.3770505807798519,
                -1.8007035241348477,
                2.8204323967832248,
                -1.739247865172449,
                -0.06027327174985331
            ]
        },
        {
            "positions": [
                1.9125266777569205,
                -1.4270665147048003,
                -1.8334029695611138,
                2.7452826350248536,
                -1.6328215513302733,
                -0.05333929833586222
            ]
        },
        {
            "positions": [
                1.7891109556545444,
                -1.4770824486297485,
                -1.86610241498738,
                2.6701328732664824,
                -1.5263952374880978,
                -0.04640532492187113
            ]
        },
        {
            "positions": [
                1.6656952335521682,
                -1.5270983825546969,
                -1.898801860413646,
                2.5949831115081112,
                -1.4199689236459223,
                -0.039471351507880045
            ]
        },
        {
            "positions": [
                1.542279511449792,
                -1.577114316479645,
                -1.9315013058399122,
                2.5198333497497405,
                -1.3135426098037466,
                -0.03253737809388896
            ]
        },
        {
            "positions": [
                1.4188637893474159,
                -1.6271302504045935,
                -1.9642007512661783,
                2.444683587991369,
                -1.2071162959615709,
                -0.02560340467989787
            ]
        },
        {
            "positions": [
                1.2954480672450397,
                -1.6771461843295417,
                -1.9969001966924445,
                2.369533826232998,
                -1.1006899821193954,
                -0.01866943126590679
            ]
        },
        {
            "positions": [
                1.1720323451426635,
                -1.72716211825449,
                -2.029599642118711,
                2.294384064474627,
                -0.9942636682772198,
                -0.011735457851915702
            ]
        },
        {
            "positions": [
                1.0486166230402874,
                -1.7771780521794383,
                -2.062299087544977,
                2.2192343027162558,
                -0.8878373544350442,
                -0.004801484437924615
            ]
        },
        {
            "positions": [
                0.9252009009379112,
                -1.8271939861043867,
                -2.094998532971243,
                2.1440845409578846,
                -0.7814110405928686,
                0.0021324889760664725
            ]
        },
        {
            "positions": [
                0.801785178835535,
                -1.877209920029335,
                -2.127697978397509,
                2.0689347791995134,
                -0.674984726750693,
                0.009066462390057567
            ]
        },
        {
            "positions": [
                0.6783694567331588,
                -1.9272258539542833,
                -2.1603974238237753,
                1.9937850174411422,
                -0.5685584129085173,
                0.016000435804048654
            ]
        },
        {
            "positions": [
                0.5549537346307827,
                -1.9772417878792314,
                -2.1930968692500414,
                1.9186352556827713,
                -0.4621320990663418,
                0.022934409218039728
            ]
        },
        {
            "positions": [
                0.4315380125284065,
                -2.0272577218041796,
                -2.2257963146763076,
                1.8434854939244,
                -0.3557057852241663,
                0.029868382632030815
            ]
        },
        {
            "positions": [
                0.30812229042603034,
                -2.0772736557291283,
                -2.2584957601025737,
                1.768335732166029,
                -0.24927947138199058,
                0.0368023560460219
            ]
        },
        {
            "positions": [
                0.18470656832365417,
                -2.1272895896540764,
                -2.29119520552884,
                1.6931859704076577,
                -0.14285315753981487,
                0.04373632946001299
            ]
        },
        {
            "positions": [
                0.061290846221278006,
                -2.1773055235790246,
                -2.323894650955106,
                1.6180362086492868,
                -0.03642684369763938,
                0.05067030287400408
            ]
        },
        {
            "positions": [
                -0.06212487588109816,
                -2.2273214575039733,
                -2.356594096381372,
                1.5428864468909156,
                0.06999947014453611,
                0.057604276287995165
            ]
        },
        {
            "positions": [
                -0.18554059798347447,
                -2.2773373914289214,
                -2.389293541807638,
                1.4677366851325444,
                0.1764257839867118,
                0.06453824970198625
            ]
        }
    ]
}