{
    "goal": {
        "global_pose": {
            "orientation": {
                "w": 0.005598929693374612,
                "x": 0.007748599140229565,
                "y": 0.7110244013736278,
                "z": -0.7031023480610252
            },
            "position": {
                "x": 0.1141497679147869,
                "y": -0.7141253447532654,
                "z": 0.3711530566215515
            }
        },
        "name": "move_to_auspresseinheit_B"
    },
    "id": "LBKPIECE_move_to_auspresseinheit_B_7",
    "joint_names": [
        "shoulder_pan_joint",
        "shoulder_lift_joint",
        "elbow_joint",
        "wrist_1_joint",
        "wrist_2_joint",
        "wrist_3_joint"
    ],
    "metrics": {
        "cart_traj_len": 0.5641200372831588,
        "distance_elbow_joint": 0.061185875049023286,
        "distance_shoulder_lift_joint": 0.29493608762011414,
        "distance_shoulder_pan_joint": 0.5767715107369011,
        "distance_wrist_1_joint": 0.32198804455674146,
        "distance_wrist_2_joint": 0.9914774874126848,
        "distance_wrist_3_joint": 0.0019152821858035018,
        "smoothness": 5.075305255429287e-16,
        "time": 5.004977521,
        "traj_len": 1.4994246521787176,
        "weighted_distance": 1.8882717982065775
    },
    "planner": "LBKPIECE",
    "start": {
        "state": {
            "elbow_joint": 2.019306165916698,
            "shoulder_lift_joint": -1.1220205098164344,
            "shoulder_pan_joint": -1.095207207618794,
            "wrist_1_joint": -0.8559671824921639,
            "wrist_2_joint": 0.47596387242952726,
            "wrist_3_joint": 3.159081874673826
        }
    },
    "waypoints": [
        {
            "positions": [
                -1.095207207618794,
                -1.1220205098164344,
                2.019306165916698,
                -0.8559671824921639,
                0.47596387242952726,
                3.159081874673826
            ]
        },
        {
            "positions": [
                -1.1913357927416108,
                -1.1711765244197867,
                2.009108520075194,
                -0.8023025083993736,
                0.6412101203316414,
                3.15940108837146
            ]
        },
        {
            "positions": [
                -1.2874643778644277,
                -1.2203325390231392,
                1.9989108742336903,
                -0.7486378343065834,
                0.8064563682337555,
                3.159720302069094
            ]
        },
        {
            "positions": [
                -1.3835929629872445,
                -1.2694885536264915,
                1.9887132283921862,
                -0.6949731602137932,
                0.9717026161358697,
                3.1600395157667274
            ]
        },
        {
            "positions": [
                -1.4797215481100614,
                -1.3186445682298438,
                1.9785155825506824,
                -0.6413084861210029,
                1.1369488640379837,
                3.1603587294643614
            ]
        },
        {
            "positions": [
                -1.5758501332328783,
                -1.3678005828331963,
                1.9683179367091785,
                -0.5876438120282126,
                1.302195111940098,
                3.1606779431619954
            ]
        },
        {
            "positions": [
                -1.6719787183556951,
                -1.4169565974365486,
                1.9581202908676747,
                -0.5339791379354224,
                1.467441359842212,
                3.1609971568596293
            ]
        }
    ]
}