{
    "goal": {
        "global_pose": {
            "orientation": {
                "w": 0.5084816262002911,
                "x": -0.4908360881923452,
                "y": 0.5182115481033761,
                "z": -0.48164630358495003
            },
            "position": {
                "x": 0.5540239810943604,
                "y": -0.46912469901144505,
                "z": 0.16403168439865112
            }
        },
        "name": "move_to_storage_B"
    },
    "id": "LBKPIECE_move_to_storage_B_12",
    "joint_names": [
        "shoulder_pan_joint",
        "shoulder_lift_joint",
        "elbow_joint",
        "wrist_1_joint",
        "wrist_2_joint",
        "wrist_3_joint"
    ],
    "metrics": {
        "cart_traj_len": 5.698261195475326,
        "distance_elbow_joint": 4.444539893429434,
        "distance_shoulder_lift_joint": 2.175029456679155,
        "distance_shoulder_pan_joint": 3.014655307204182,
        "distance_wrist_1_joint": 4.8833476996858245,
        "distance_wrist_2_joint": 2.7090669582168454,
        "distance_wrist_3_joint": 4.030361895749393,
        "smoothness": 0.4578560011188298,
        "time": 3.1393140010000002,
        "traj_len": 4.61053155405804,
        "weighted_distance": 6.075371565621833
    },
    "planner": "LBKPIECE",
    "start": {
        "state": {
            "elbow_joint": 1.6649325706314817,
            "shoulder_lift_joint": -0.6616388048112454,
            "shoulder_pan_joint": -0.9139837860083814,
            "wrist_1_joint": 2.146757197745094,
            "wrist_2_joint": -2.234196043158733,
            "wrist_3_joint": 0.005471033829999897
        }
    },
    "waypoints": [
        {
            "positions": [
                -0.9139837860083814,
                -0.6616388048112454,
                1.6649325706314817,
                2.146757197745094,
                -2.234196043158733,
                0.005471033829999897
            ]
        },
        {
            "positions": [
                -0.8084271614260536,
                -0.7208314269539831,
                1.5866316414323198,
                2.105913992311754,
                -2.1844937088050336,
                0.0365518557092709
            ]
        },
        {
            "positions": [
                -0.7312832780380156,
                -0.7948336073817461,
                1.4708883630610314,
                2.161555368384982,
                -2.156679456298636,
                0.010549258651451263
            ]
        },
        {
            "positions": [
                -0.6541393946499777,
                -0.8688357878095092,
                1.3551450846897428,
                2.21719674445821,
                -2.1288652037922384,
                -0.015453338406368373
            ]
        },
        {
            "positions": [
                -0.5769955112619397,
                -0.9428379682372724,
                1.2394018063184544,
                2.2728381205314383,
                -2.101050951285841,
                -0.04145593546418802
            ]
        },
        {
            "positions": [
                -0.4998516278739018,
                -1.0168401486650356,
                1.1236585279471658,
                2.328479496604666,
                -2.0732366987794437,
                -0.06745853252200765
            ]
        },
        {
            "positions": [
                -0.4227077444858638,
                -1.0908423290927987,
                1.0079152495758774,
                2.384120872677894,
                -2.0454224462730464,
                -0.09346112957982729
            ]
        },
        {
            "positions": [
                -0.34556386109782583,
                -1.1648445095205617,
                0.8921719712045889,
                2.4397622487511224,
                -2.0176081937666486,
                -0.11946372663764694
            ]
        },
        {
            "positions": [
                -0.268419977709788,
                -1.2388466899483248,
                0.7764286928333005,
                2.4954036248243505,
                -1.9897939412602512,
                -0.14546632369546658
            ]
        },
        {
            "positions": [
                -0.19127609432174997,
                -1.3128488703760879,
                0.660685414462012,
                2.5510450008975787,
                -1.9619796887538539,
                -0.17146892075328618
            ]
        },
        {
            "positions": [
                -0.11413221093371195,
                -1.386851050803851,
                0.5449421360907236,
                2.6066863769708064,
                -1.9341654362474563,
                -0.19747151781110583
            ]
        },
        {
            "positions": [
                -0.03698832754567394,
                -1.460853231231614,
                0.429198857719435,
                2.6623277530440346,
                -1.906351183741059,
                -0.2234741148689255
            ]
        },
        {
            "positions": [
                0.040155555842363966,
                -1.5348554116593771,
                0.3134555793481466,
                2.7179691291172627,
                -1.8785369312346614,
                -0.24947671192674514
            ]
        },
        {
            "positions": [
                0.11729943923040198,
                -1.6088575920871402,
                0.197712300976858,
                2.773610505190491,
                -1.850722678728264,
                -0.2754793089845648
            ]
        },
        {
            "positions": [
                0.19444332261843988,
                -1.6828597725149033,
                0.08196902260556982,
                2.829251881263719,
                -1.8229084262218664,
                -0.3014819060423844
            ]
        },
        {
            "positions": [
                0.2715872060064777,
                -1.7568619529426663,
                -0.0337742557657188,
                2.8848932573369472,
                -1.795094173715469,
                -0.32748450310020405
            ]
        },
        {
            "positions": [
                0.3487310893945157,
                -1.8308641333704296,
                -0.1495175341370072,
                2.940534633410175,
                -1.7672799212090715,
                -0.35348710015802365
            ]
        },
        {
            "positions": [
                0.4258749727825537,
                -1.9048663137981927,
                -0.2652608125082958,
                2.996176009483403,
                -1.7394656687026742,
                -0.3794896972158433
            ]
        },
        {
            "positions": [
                0.5030188561705917,
                -1.9788684942259558,
                -0.3810040908795842,
                3.0518173855566313,
                -1.7116514161962766,
                -0.40549229427366296
            ]
        },
        {
            "positions": [
                0.45983905441315365,
                -1.9556847167323221,
                -0.3161769765034121,
                2.9465038422861554,
                -1.6525562180542661,
                -0.3093507557902254
            ]
        },
        {
            "positions": [
                0.4166592526557155,
                -1.9325009392386885,
                -0.25134986212724,
                2.8411902990156794,
                -1.5934610199122556,
                -0.21320921730678793
            ]
        },
        {
            "positions": [
                0.37347945089827744,
                -1.9093171617450548,
                -0.18652274775106786,
                2.735876755745204,
                -1.534365821770245,
                -0.1170676788233504
            ]
        },
        {
            "positions": [
                0.3302996491408393,
                -1.8861333842514212,
                -0.12169563337489575,
                2.630563212474728,
                -1.4752706236282345,
                -0.020926140339912913
            ]
        },
        {
            "positions": [
                0.28711984738340124,
                -1.8629496067577875,
                -0.05686851899872364,
                2.525249669204252,
                -1.416175425486224,
                0.07521539814352463
            ]
        },
        {
            "positions": [
                0.24394004562596316,
                -1.8397658292641539,
                0.007958595377448474,
                2.419936125933776,
                -1.3570802273442135,
                0.17135693662696216
            ]
        },
        {
            "positions": [
                0.20076024386852503,
                -1.8165820517705202,
                0.07278570975362059,
                2.3146225826633007,
                -1.297985029202203,
                0.2674984751103996
            ]
        },
        {
            "positions": [
                0.15758044211108696,
                -1.7933982742768866,
                0.1376128241297927,
                2.2093090393928247,
                -1.2388898310601923,
                0.36364001359383713
            ]
        },
        {
            "positions": [
                0.11440064035364889,
                -1.770214496783253,
                0.20243993850596487,
                2.103995496122349,
                -1.1797946329181819,
                0.45978155207727467
            ]
        },
        {
            "positions": [
                0.07122083859621076,
                -1.7470307192896195,
                0.2672670528821369,
                1.9986819528518731,
                -1.1206994347761712,
                0.5559230905607122
            ]
        },
        {
            "positions": [
                0.02804103683877268,
                -1.7238469417959856,
                0.3320941672583091,
                1.8933684095813972,
                -1.0616042366341607,
                0.6520646290441496
            ]
        },
        {
            "positions": [
                -0.015138764918665393,
                -1.7006631643023522,
                0.39692128163448115,
                1.7880548663109215,
                -1.0025090384921502,
                0.7482061675275873
            ]
        },
        {
            "positions": [
                -0.05831856667610347,
                -1.6774793868087186,
                0.4617483960106533,
                1.6827413230404455,
                -0.9434138403501398,
                0.8443477060110247
            ]
        },
        {
            "positions": [
                -0.10149836843354165,
                -1.654295609315085,
                0.5265755103868254,
                1.5774277797699696,
                -0.8843186422081293,
                0.9404892444944621
            ]
        },
        {
            "positions": [
                -0.14467817019097973,
                -1.6311118318214513,
                0.5914026247629975,
                1.472114236499494,
                -0.8252234440661187,
                1.0366307829778998
            ]
        },
        {
            "positions": [
                -0.1878579719484178,
                -1.6079280543278176,
                0.6562297391391696,
                1.366800693229018,
                -0.7661282459241082,
                1.1327723214613372
            ]
        },
        {
            "positions": [
                -0.23103777370585588,
                -1.584744276834184,
                0.7210568535153417,
                1.2614871499585423,
                -0.7070330477820976,
                1.2289138599447746
            ]
        },
        {
            "positions": [
                -0.27421757546329395,
                -1.5615604993405503,
                0.7858839678915139,
                1.1561736066880663,
                -0.6479378496400872,
                1.3250553984282123
            ]
        },
        {
            "positions": [
                -0.317397377220732,
                -1.5383767218469167,
                0.8507110822676858,
                1.0508600634175909,
                -0.5888426514980767,
                1.4211969369116495
            ]
        },
        {
            "positions": [
                -0.3605771789781702,
                -1.515192944353283,
                0.915538196643858,
                0.9455465201471149,
                -0.529747453356066,
                1.5173384753950874
            ]
        },
        {
            "positions": [
                -0.4037569807356082,
                -1.4920091668596493,
                0.9803653110200301,
                0.840232976876639,
                -0.47065225521405574,
                1.6134800138785246
            ]
        },
        {
            "positions": [
                -0.44693678249304636,
                -1.4688253893660157,
                1.0451924253962024,
                0.7349194336061631,
                -0.41155705707204504,
                1.7096215523619622
            ]
        },
        {
            "positions": [
                -0.4901165842504843,
                -1.4456416118723823,
                1.1100195397723742,
                0.6296058903356876,
                -0.35246185893003457,
                1.8057630908453994
            ]
        },
        {
            "positions": [
                -0.5332963860079225,
                -1.4224578343787484,
                1.1748466541485465,
                0.5242923470652117,
                -0.29336666078802387,
                1.9019046293288375
            ]
        },
        {
            "positions": [
                -0.5764761877653606,
                -1.399274056885115,
                1.2396737685247186,
                0.41897880379473573,
                -0.23427146264601362,
                1.9980461678122747
            ]
        },
        {
            "positions": [
                -0.6196559895227987,
                -1.376090279391481,
                1.3045008829008908,
                0.3136652605242598,
                -0.17517626450400292,
                2.0941877062957124
            ]
        },
        {
            "positions": [
                -0.6628357912802367,
                -1.3529065018978477,
                1.3693279972770627,
                0.20835171725378432,
                -0.11608106636199245,
                2.1903292447791496
            ]
        },
        {
            "positions": [
                -0.706015593037675,
                -1.3297227244042138,
                1.434155111653235,
                0.10303817398330795,
                -0.05698586821998197,
                2.2864707832625872
            ]
        },
        {
            "positions": [
                -0.7491953947951129,
                -1.3065389469105804,
                1.498982226029407,
                -0.002275369287167539,
                0.0021093299220285022,
                2.3826123217460244
            ]
        },
        {
            "positions": [
                -0.7923751965525512,
                -1.2833551694169465,
                1.5638093404055793,
                -0.10758891255764347,
                0.0612045280640392,
                2.4787538602294625
            ]
        },
        {
            "positions": [
                -0.835554998309989,
                -1.260171391923313,
                1.6286364547817511,
                -0.21290245582811895,
                0.12029972620604967,
                2.5748953987128997
            ]
        },
        {
            "positions": [
                -0.8787348000674273,
                -1.2369876144296792,
                1.6934635691579234,
                -0.3182159990985953,
                0.17939492434806015,
                2.6710369371963374
            ]
        },
        {
            "positions": [
                -0.9219146018248654,
                -1.2138038369360458,
                1.7582906835340952,
                -0.4235295423690708,
                0.23849012249007062,
                2.7671784756797746
            ]
        },
        {
            "positions": [
                -0.9650944035823035,
                -1.190620059442412,
                1.8231177979102675,
                -0.5288430856395467,
                0.2975853206320813,
                2.8633200141632122
            ]
        },
        {
            "positions": [
                -1.0082742053397415,
                -1.1674362819487785,
                1.8879449122864398,
                -0.6341566289100222,
                0.3566805187740918,
                2.95946155264665
            ]
        },
        {
            "positions": [
                -1.0514540070971796,
                -1.1442525044551446,
                1.952772026662612,
                -0.7394701721804986,
                0.41577571691610227,
                3.0556030911300875
            ]
        },
        {
            "positions": [
                -1.0946338088546177,
                -1.1210687269615112,
                2.017599141038784,
                -0.844783715450974,
                0.47487091505811274,
                3.1517446296135248
            ]
        }
    ]
}