{
    "goal": {
        "global_pose": {
            "orientation": {
                "w": 0.5084816262002911,
                "x": -0.4908360881923452,
                "y": 0.5182115481033761,
                "z": -0.48164630358495003
            },
            "position": {
                "x": 0.5540239810943604,
                "y": -0.46912469901144505,
                "z": 0.16403168439865112
            }
        },
        "name": "move_to_storage_B"
    },
    "id": "LBKPIECE_move_to_storage_B_106",
    "joint_names": [
        "shoulder_pan_joint",
        "shoulder_lift_joint",
        "elbow_joint",
        "wrist_1_joint",
        "wrist_2_joint",
        "wrist_3_joint"
    ],
    "metrics": {
        "cart_traj_len": 1.0792492093706023,
        "distance_elbow_joint": 1.00664747943533,
        "distance_shoulder_lift_joint": 0.812359113625861,
        "distance_shoulder_pan_joint": 0.7421133747848979,
        "distance_wrist_1_joint": 2.986159785465106,
        "distance_wrist_2_joint": 2.748684743220767,
        "distance_wrist_3_joint": 3.188683574532875,
        "smoothness": 0.6445260582544338,
        "time": 4.630964735,
        "traj_len": 3.3889007172038603,
        "weighted_distance": 4.857659904605968
    },
    "planner": "LBKPIECE",
    "start": {
        "state": {
            "elbow_joint": 1.6649325706314817,
            "shoulder_lift_joint": -0.6616388048112454,
            "shoulder_pan_joint": -0.9139837860083814,
            "wrist_1_joint": 2.146757197745094,
            "wrist_2_joint": -2.234196043158733,
            "wrist_3_joint": 0.005471033829999897
        }
    },
    "waypoints": [
        {
            "positions": [
                -0.9139837860083814,
                -0.6616388048112454,
                1.6649325706314817,
                2.146757197745094,
                -2.234196043158733,
                0.005471033829999897
            ]
        },
        {
            "positions": [
                -0.9002946512226612,
                -0.7646202434118747,
                1.6824508074806113,
                2.1456594022156636,
                -2.252556708741946,
                -0.021723982244010134
            ]
        },
        {
            "positions": [
                -0.8336848819277438,
                -0.7726513318199879,
                1.6003887702342963,
                2.065104575246735,
                -2.1872859135072327,
                0.0034130145521868056
            ]
        },
        {
            "positions": [
                -0.7670751126328264,
                -0.7806824202281012,
                1.5183267329879815,
                1.9845497482778058,
                -2.12201511827252,
                0.028550011348383746
            ]
        },
        {
            "positions": [
                -0.7004653433379089,
                -0.7887135086362145,
                1.4362646957416665,
                1.9039949213088772,
                -2.0567443230378073,
                0.05368700814458069
            ]
        },
        {
            "positions": [
                -0.6338555740429915,
                -0.7967445970443277,
                1.3542026584953515,
                1.8234400943399482,
                -1.9914735278030942,
                0.07882400494077763
            ]
        },
        {
            "positions": [
                -0.6944980020982603,
                -0.7672689652750599,
                1.3878127469832608,
                1.748529405843267,
                -1.8481344022663833,
                0.13151985945060007
            ]
        },
        {
            "positions": [
                -0.7551404301535289,
                -0.7377933335057923,
                1.4214228354711704,
                1.6736187173465855,
                -1.7047952767296726,
                0.1842157139604225
            ]
        },
        {
            "positions": [
                -0.8157828582087977,
                -0.7083177017365246,
                1.45503292395908,
                1.5987080288499043,
                -1.5614561511929619,
                0.23691156847024494
            ]
        },
        {
            "positions": [
                -0.8764252862640665,
                -0.6788420699672569,
                1.4886430124469894,
                1.523797340353223,
                -1.418117025656251,
                0.28960742298006736
            ]
        },
        {
            "positions": [
                -0.9370677143193351,
                -0.6493664381979893,
                1.5222531009348987,
                1.4488866518565415,
                -1.27477790011954,
                0.3423032774898898
            ]
        },
        {
            "positions": [
                -0.9977101423746039,
                -0.6198908064287216,
                1.5558631894228083,
                1.3739759633598603,
                -1.1314387745828294,
                0.39499913199971226
            ]
        },
        {
            "positions": [
                -1.0026166720989986,
                -0.6449107829675803,
                1.5788242175564826,
                1.2633070358058667,
                -1.0509784674089075,
                0.5322374042104694
            ]
        },
        {
            "positions": [
                -1.0075232018233935,
                -0.6699307595064389,
                1.6017852456901567,
                1.152638108251873,
                -0.9705181602349856,
                0.6694756764212265
            ]
        },
        {
            "positions": [
                -1.0124297315477881,
                -0.6949507360452976,
                1.624746273823831,
                1.0419691806978795,
                -0.8900578530610638,
                0.8067139486319836
            ]
        },
        {
            "positions": [
                -1.017336261272183,
                -0.7199707125841561,
                1.647707301957505,
                0.9313002531438859,
                -0.8095975458871418,
                0.9439522208427408
            ]
        },
        {
            "positions": [
                -1.0222427909965779,
                -0.7449906891230148,
                1.6706683300911793,
                0.8206313255898923,
                -0.72913723871322,
                1.081190493053498
            ]
        },
        {
            "positions": [
                -1.0271493207209725,
                -0.7700106656618735,
                1.6936293582248534,
                0.7099623980358987,
                -0.6486769315392982,
                1.218428765264255
            ]
        },
        {
            "positions": [
                -1.0320558504453674,
                -0.795030642200732,
                1.7165903863585277,
                0.5992934704819051,
                -0.5682166243653763,
                1.355667037475012
            ]
        },
        {
            "positions": [
                -1.0369623801697623,
                -0.8200506187395907,
                1.739551414492202,
                0.48862454292791146,
                -0.4877563171914543,
                1.4929053096857694
            ]
        },
        {
            "positions": [
                -1.041868909894157,
                -0.8450705952784494,
                1.762512442625876,
                0.37795561537391786,
                -0.40729601001753246,
                1.6301435818965264
            ]
        },
        {
            "positions": [
                -1.0467754396185518,
                -0.870090571817308,
                1.78547347075955,
                0.26728668781992426,
                -0.32683570284361063,
                1.7673818541072834
            ]
        },
        {
            "positions": [
                -1.0516819693429464,
                -0.8951105483561667,
                1.8084344988932244,
                0.15661776026593066,
                -0.2463753956696887,
                1.904620126318041
            ]
        },
        {
            "positions": [
                -1.0565884990673413,
                -0.9201305248950252,
                1.8313955270268987,
                0.04594883271193706,
                -0.16591508849576697,
                2.041858398528798
            ]
        },
        {
            "positions": [
                -1.0614950287917362,
                -0.9451505014338839,
                1.8543565551605727,
                -0.06472009484205654,
                -0.08545478132184492,
                2.179096670739555
            ]
        },
        {
            "positions": [
                -1.0664015585161308,
                -0.9701704779727425,
                1.8773175832942468,
                -0.17538902239605014,
                -0.004994474147923311,
                2.316334942950312
            ]
        },
        {
            "positions": [
                -1.0713080882405257,
                -0.9951904545116012,
                1.900278611427921,
                -0.28605794995004374,
                0.07546583302599874,
                2.4535732151610694
            ]
        },
        {
            "positions": [
                -1.0762146179649204,
                -1.0202104310504598,
                1.9232396395615954,
                -0.39672687750403735,
                0.1559261401999208,
                2.5908114873718264
            ]
        },
        {
            "positions": [
                -1.0811211476893152,
                -1.0452304075893184,
                1.9462006676952694,
                -0.507395805058031,
                0.2363864473738424,
                2.7280497595825834
            ]
        },
        {
            "positions": [
                -1.08602767741371,
                -1.070250384128177,
                1.9691616958289437,
                -0.6180647326120245,
                0.31684675454776445,
                2.865288031793341
            ]
        },
        {
            "positions": [
                -1.0909342071381047,
                -1.0952703606670355,
                1.9921227239626178,
                -0.7287336601660181,
                0.39730706172168606,
                3.0025263040040975
            ]
        },
        {
            "positions": [
                -1.0958407368624996,
                -1.1202903372058943,
                2.015083752096292,
                -0.8394025877200115,
                0.47776736889560806,
                3.139764576214855
            ]
        }
    ]
}