{
    "goal": {
        "global_pose": {
            "orientation": {
                "w": 0.005598929693374612,
                "x": 0.007748599140229565,
                "y": 0.7110244013736278,
                "z": -0.7031023480610252
            },
            "position": {
                "x": 0.1141497679147869,
                "y": -0.7141253447532654,
                "z": 0.3711530566215515
            }
        },
        "name": "move_to_auspresseinheit_B"
    },
    "id": "LBKPIECE_move_to_auspresseinheit_B_39",
    "joint_names": [
        "shoulder_pan_joint",
        "shoulder_lift_joint",
        "elbow_joint",
        "wrist_1_joint",
        "wrist_2_joint",
        "wrist_3_joint"
    ],
    "metrics": {
        "cart_traj_len": 0.5643623648230044,
        "distance_elbow_joint": 0.06423930814955892,
        "distance_shoulder_lift_joint": 0.2948884628566282,
        "distance_shoulder_pan_joint": 0.5766108058930748,
        "distance_wrist_1_joint": 0.33832804697837005,
        "distance_wrist_2_joint": 0.9973631852261473,
        "distance_wrist_3_joint": 0.006479804837077996,
        "smoothness": 3.806478935924272e-16,
        "time": 3.533912411,
        "traj_len": 1.5092745323303038,
        "weighted_distance": 1.9043530281488068
    },
    "planner": "LBKPIECE",
    "start": {
        "state": {
            "elbow_joint": 2.019306165916698,
            "shoulder_lift_joint": -1.1220205098164344,
            "shoulder_pan_joint": -1.095207207618794,
            "wrist_1_joint": -0.8559671824921639,
            "wrist_2_joint": 0.47596387242952726,
            "wrist_3_joint": 3.159081874673826
        }
    },
    "waypoints": [
        {
            "positions": [
                -1.095207207618794,
                -1.1220205098164344,
                2.019306165916698,
                -0.8559671824921639,
                0.47596387242952726,
                3.159081874673826
            ]
        },
        {
            "positions": [
                -1.1913090086009732,
                -1.171168586959206,
                2.008599614558438,
                -0.7995791746624356,
                0.6421910699672184,
                3.1580019072009797
            ]
        },
        {
            "positions": [
                -1.2874108095831522,
                -1.2203166641019771,
                1.9978930632001783,
                -0.7431911668327071,
                0.8084182675049096,
                3.156921939728133
            ]
        },
        {
            "positions": [
                -1.3835126105653313,
                -1.2694647412447484,
                1.9871865118419185,
                -0.6868031590029788,
                0.9746454650426009,
                3.1558419722552866
            ]
        },
        {
            "positions": [
                -1.4796144115475105,
                -1.3186128183875199,
                1.9764799604836587,
                -0.6304151511732505,
                1.140872662580292,
                3.1547620047824405
            ]
        },
        {
            "positions": [
                -1.5757162125296897,
                -1.3677608955302913,
                1.9657734091253989,
                -0.5740271433435221,
                1.3070998601179833,
                3.1536820373095944
            ]
        },
        {
            "positions": [
                -1.6718180135118688,
                -1.4169089726730626,
                1.955066857767139,
                -0.5176391355137938,
                1.4733270576556745,
                3.152602069836748
            ]
        }
    ]
}