{
    "goal": {
        "global_pose": {
            "orientation": {
                "w": -0.4816463035849501,
                "x": 0.5182115481033762,
                "y": 0.4908360881923453,
                "z": -0.5084816262002911
            },
            "position": {
                "x": -0.8240239810943604,
                "y": -0.300875300988555,
                "z": 0.16403168439865112
            }
        },
        "name": "move_to_storage_C"
    },
    "id": "LBKPIECE_move_to_storage_C_52",
    "joint_names": [
        "shoulder_pan_joint",
        "shoulder_lift_joint",
        "elbow_joint",
        "wrist_1_joint",
        "wrist_2_joint",
        "wrist_3_joint"
    ],
    "metrics": {
        "cart_traj_len": 0.5768719552615313,
        "distance_elbow_joint": 0.2604518806354561,
        "distance_shoulder_lift_joint": 0.1884682416689898,
        "distance_shoulder_pan_joint": 0.4948692758435209,
        "distance_wrist_1_joint": 0.09053245192171577,
        "distance_wrist_2_joint": 1.0708733562072124,
        "distance_wrist_3_joint": 0.06053902237942488,
        "smoothness": 2.5376526478085547e-16,
        "time": 2.483764611,
        "traj_len": 1.4716433768601414,
        "weighted_distance": 1.856937823822892
    },
    "planner": "LBKPIECE",
    "start": {
        "state": {
            "elbow_joint": 2.010868315001653,
            "shoulder_lift_joint": -1.1634956873357014,
            "shoulder_pan_joint": -2.4736205022346103,
            "wrist_1_joint": -0.8367026794713948,
            "wrist_2_joint": 0.6746043897044093,
            "wrist_3_joint": 3.1335220948105738
        }
    },
    "waypoints": [
        {
            "positions": [
                -2.4736205022346103,
                -1.1634956873357014,
                2.010868315001653,
                -0.8367026794713948,
                0.6746043897044093,
                3.1335220948105738
            ]
        },
        {
            "positions": [
                -2.5560987148751972,
                -1.1320843137242032,
                1.967459668229077,
                -0.8216139374844421,
                0.8530832824056114,
                3.1436119318738114
            ]
        },
        {
            "positions": [
                -2.6385769275157838,
                -1.100672940112705,
                1.924051021456501,
                -0.8065251954974895,
                1.0315621751068134,
                3.1537017689370486
            ]
        },
        {
            "positions": [
                -2.7210551401563707,
                -1.0692615665012064,
                1.8806423746839251,
                -0.7914364535105369,
                1.2100410678080156,
                3.163791606000286
            ]
        },
        {
            "positions": [
                -2.8035333527969577,
                -1.0378501928897081,
                1.837233727911349,
                -0.7763477115235843,
                1.3885199605092176,
                3.173881443063524
            ]
        },
        {
            "positions": [
                -2.8860115654375442,
                -1.0064388192782099,
                1.793825081138773,
                -0.7612589695366316,
                1.5669988532104195,
                3.183971280126761
            ]
        },
        {
            "positions": [
                -2.968489778078131,
                -0.9750274456667116,
                1.750416434366197,
                -0.746170227549679,
                1.7454777459116217,
                3.1940611171899986
            ]
        }
    ]
}