{
    "goal": {
        "global_pose": {
            "orientation": {
                "w": 0.7031023502349854,
                "x": -0.7110244035720825,
                "y": 0.007748599164187908,
                "z": 0.005598929710686207
            },
            "position": {
                "x": 0.11585023208521307,
                "y": 0.44412534475326537,
                "z": 0.3711530566215515
            }
        },
        "name": "move_to_auspresseinheit_A"
    },
    "id": "LBKPIECE_move_to_auspresseinheit_A_77",
    "joint_names": [
        "shoulder_pan_joint",
        "shoulder_lift_joint",
        "elbow_joint",
        "wrist_1_joint",
        "wrist_2_joint",
        "wrist_3_joint"
    ],
    "metrics": {
        "cart_traj_len": 3.056418787553032,
        "distance_elbow_joint": 2.0795925027907516,
        "distance_shoulder_lift_joint": 2.395242931328716,
        "distance_shoulder_pan_joint": 3.0423931268097935,
        "distance_wrist_1_joint": 7.854453807451208,
        "distance_wrist_2_joint": 5.633068047052133,
        "distance_wrist_3_joint": 3.9074156152839192,
        "smoothness": 0.5098402948473223,
        "time": 1.616028621,
        "traj_len": 4.9912088746832195,
        "weighted_distance": 6.798126147387065
    },
    "planner": "LBKPIECE",
    "start": {
        "state": {
            "elbow_joint": 2.4225747245308327,
            "shoulder_lift_joint": -1.373653427065438,
            "shoulder_pan_joint": -0.33786330853087027,
            "wrist_1_joint": -1.0288602302712604,
            "wrist_2_joint": 1.23302299562683,
            "wrist_3_joint": -3.094021725338297
        }
    },
    "waypoints": [
        {
            "positions": [
                -0.33786330853087027,
                -1.373653427065438,
                2.4225747245308327,
                -1.0288602302712604,
                1.23302299562683,
                -3.094021725338297
            ]
        },
        {
            "positions": [
                -0.298660301607132,
                -1.4392731773518737,
                2.3639156287789946,
                -0.9602239013938438,
                1.279556237323348,
                -2.986703713965302
            ]
        },
        {
            "positions": [
                -0.2594572946833936,
                -1.5048929276383096,
                2.305256533027157,
                -0.8915875725164273,
                1.3260894790198663,
                -2.8793857025923066
            ]
        },
        {
            "positions": [
                -0.2202542877596553,
                -1.5705126779247454,
                2.246597437275319,
                -0.8229512436390108,
                1.3726227207163844,
                -2.7720676912193114
            ]
        },
        {
            "positions": [
                -0.18105128083591698,
                -1.636132428211181,
                2.1879383415234814,
                -0.7543149147615943,
                1.4191559624129024,
                -2.664749679846316
            ]
        },
        {
            "positions": [
                -0.14184827391217864,
                -1.701752178497617,
                2.1292792457716434,
                -0.6856785858841777,
                1.4656892041094207,
                -2.557431668473321
            ]
        },
        {
            "positions": [
                -0.10264526698844034,
                -1.7673719287840528,
                2.0706201500198054,
                -0.6170422570067613,
                1.5122224458059388,
                -2.450113657100326
            ]
        },
        {
            "positions": [
                -0.063442260064702,
                -1.8329916790704888,
                2.011961054267968,
                -0.5484059281293447,
                1.5587556875024569,
                -2.3427956457273305
            ]
        },
        {
            "positions": [
                -0.0242392531409637,
                -1.8986114293569245,
                1.9533019585161298,
                -0.4797695992519282,
                1.605288929198975,
                -2.2354776343543357
            ]
        },
        {
            "positions": [
                0.014963753782774647,
                -1.9642311796433605,
                1.894642862764292,
                -0.41113327037451164,
                1.6518221708954932,
                -2.1281596229813404
            ]
        },
        {
            "positions": [
                0.054166760706512995,
                -2.029850929929796,
                1.8359837670124541,
                -0.3424969414970951,
                1.6983554125920115,
                -2.020841611608345
            ]
        },
        {
            "positions": [
                0.09336976763025134,
                -2.095470680216232,
                1.777324671260616,
                -0.27386061261967853,
                1.7448886542885296,
                -1.9135236002353497
            ]
        },
        {
            "positions": [
                0.13257277455398958,
                -2.161090430502668,
                1.7186655755087785,
                -0.2052242837422621,
                1.7914218959850476,
                -1.8062055888623547
            ]
        },
        {
            "positions": [
                0.17177578147772793,
                -2.2267101807891034,
                1.6600064797569405,
                -0.13658795486484554,
                1.8379551376815657,
                -1.6988875774893595
            ]
        },
        {
            "positions": [
                0.21097878840146628,
                -2.2923299310755394,
                1.6013473840051027,
                -0.06795162598742899,
                1.8844883793780838,
                -1.591569566116364
            ]
        },
        {
            "positions": [
                0.2501817953252046,
                -2.3579496813619754,
                1.5426882882532649,
                0.0006847028899876761,
                1.931021621074602,
                -1.4842515547433688
            ]
        },
        {
            "positions": [
                0.28938480224894286,
                -2.423569431648411,
                1.4840291925014268,
                0.069321031767404,
                1.9775548627711201,
                -1.3769335433703738
            ]
        },
        {
            "positions": [
                0.3285878091726812,
                -2.489189181934847,
                1.4253700967495893,
                0.13795736064482056,
                2.0240881044676384,
                -1.2696155319973785
            ]
        },
        {
            "positions": [
                0.3677908160964196,
                -2.554808932221283,
                1.3667110009977512,
                0.2065936895222371,
                2.0706213461641565,
                -1.1622975206243833
            ]
        },
        {
            "positions": [
                0.42599248017518465,
                -2.5143476180163473,
                1.3710250866613658,
                0.33610539053468064,
                1.9369848546796486,
                -1.1786978495583211
            ]
        },
        {
            "positions": [
                0.4841941442539497,
                -2.473886303811412,
                1.3753391723249806,
                0.46561709154712416,
                1.8033483631951408,
                -1.195098178492259
            ]
        },
        {
            "positions": [
                0.5423958083327147,
                -2.4334249896064764,
                1.3796532579885952,
                0.5951287925595677,
                1.669711871710633,
                -1.2114985074261968
            ]
        },
        {
            "positions": [
                0.6005974724114798,
                -2.392963675401541,
                1.38396734365221,
                0.7246404935720112,
                1.536075380226125,
                -1.2278988363601346
            ]
        },
        {
            "positions": [
                0.6587991364902448,
                -2.3525023611966054,
                1.3882814293158245,
                0.8541521945844548,
                1.402438888741617,
                -1.2442991652940725
            ]
        },
        {
            "positions": [
                0.7170008005690098,
                -2.31204104699167,
                1.3925955149794391,
                0.9836638955968984,
                1.2688023972571092,
                -1.2606994942280103
            ]
        },
        {
            "positions": [
                0.7752024646477749,
                -2.2715797327867344,
                1.396909600643054,
                1.113175596609342,
                1.1351659057726011,
                -1.2770998231619481
            ]
        },
        {
            "positions": [
                0.8334041287265398,
                -2.231118418581799,
                1.4012236863066685,
                1.2426872976217853,
                1.0015294142880935,
                -1.293500152095886
            ]
        },
        {
            "positions": [
                0.8916057928053048,
                -2.1906571043768635,
                1.4055377719702833,
                1.3721989986342291,
                0.8678929228035854,
                -1.3099004810298238
            ]
        },
        {
            "positions": [
                0.9498074568840699,
                -2.150195790171928,
                1.4098518576338979,
                1.5017106996466725,
                0.7342564313190776,
                -1.3263008099637617
            ]
        },
        {
            "positions": [
                1.0080091209628348,
                -2.1097344759669925,
                1.4141659432975124,
                1.631222400659116,
                0.6006199398345697,
                -1.3427011388976995
            ]
        },
        {
            "positions": [
                1.0662107850416,
                -2.069273161762057,
                1.4184800289611272,
                1.7607341016715596,
                0.4669834483500619,
                -1.3591014678316373
            ]
        },
        {
            "positions": [
                1.1244124491203649,
                -2.0288118475571215,
                1.4227941146247418,
                1.890245802684003,
                0.33334695686555404,
                -1.375501796765575
            ]
        },
        {
            "positions": [
                1.1826141131991301,
                -1.988350533352186,
                1.4271082002883566,
                2.0197575036964466,
                0.19971046538104598,
                -1.391902125699513
            ]
        },
        {
            "positions": [
                1.240815777277895,
                -1.9478892191472506,
                1.4314222859519712,
                2.14926920470889,
                0.06607397389653835,
                -1.4083024546334506
            ]
        },
        {
            "positions": [
                1.29901744135666,
                -1.907427904942315,
                1.4357363716155858,
                2.2787809057213337,
                -0.0675625175879695,
                -1.4247027835673884
            ]
        },
        {
            "positions": [
                1.357219105435425,
                -1.8669665907373796,
                1.4400504572792006,
                2.4082926067337773,
                -0.20119900907247734,
                -1.4411031125013263
            ]
        },
        {
            "positions": [
                1.41542076951419,
                -1.826505276532444,
                1.4443645429428151,
                2.537804307746221,
                -0.33483550055698563,
                -1.4575034414352641
            ]
        },
        {
            "positions": [
                1.473622433592955,
                -1.7860439623275086,
                1.4486786286064297,
                2.6673160087586645,
                -0.4684719920414935,
                -1.473903770369202
            ]
        },
        {
            "positions": [
                1.5318240976717201,
                -1.7455826481225731,
                1.4529927142700445,
                2.796827709771108,
                -0.6021084835260013,
                -1.4903040993031398
            ]
        },
        {
            "positions": [
                1.5900257617504852,
                -1.7051213339176376,
                1.457306799933659,
                2.9263394107835516,
                -0.7357449750105087,
                -1.5067044282370776
            ]
        },
        {
            "positions": [
                1.6482274258292502,
                -1.6646600197127022,
                1.4616208855972739,
                3.0558511117959952,
                -0.869381466495017,
                -1.5231047571710155
            ]
        },
        {
            "positions": [
                1.7064290899080152,
                -1.6241987055077667,
                1.4659349712608885,
                3.1853628128084384,
                -1.0030179579795249,
                -1.5395050861049533
            ]
        },
        {
            "positions": [
                1.6648415595592274,
                -1.6360102554852398,
                1.504456004968994,
                3.0336865309596255,
                -0.9312750249640611,
                -1.6061085796503465
            ]
        },
        {
            "positions": [
                1.6232540292104394,
                -1.6478218054627132,
                1.5429770386770996,
                2.882010249110812,
                -0.8595320919485974,
                -1.6727120731957394
            ]
        },
        {
            "positions": [
                1.5816664988616516,
                -1.6596333554401863,
                1.581498072385205,
                2.7303339672619993,
                -0.7877891589331336,
                -1.7393155667411326
            ]
        },
        {
            "positions": [
                1.5400789685128635,
                -1.6714449054176597,
                1.6200191060933107,
                2.5786576854131864,
                -0.7160462259176699,
                -1.8059190602865258
            ]
        },
        {
            "positions": [
                1.4984914381640757,
                -1.6832564553951328,
                1.6585401398014161,
                2.426981403564373,
                -0.6443032929022061,
                -1.872522553831919
            ]
        },
        {
            "positions": [
                1.4569039078152877,
                -1.695068005372606,
                1.6970611735095216,
                2.2753051217155598,
                -0.5725603598867424,
                -1.939126047377312
            ]
        },
        {
            "positions": [
                1.4153163774664999,
                -1.7068795553500793,
                1.7355822072176272,
                2.123628839866747,
                -0.5008174268712786,
                -2.0057295409227054
            ]
        },
        {
            "positions": [
                1.3737288471177118,
                -1.7186911053275524,
                1.7741032409257327,
                1.971952558017934,
                -0.42907449385581486,
                -2.072333034468098
            ]
        },
        {
            "positions": [
                1.332141316768924,
                -1.7305026553050258,
                1.8126242746338384,
                1.8202762761691207,
                -0.3573315608403511,
                -2.1389365280134913
            ]
        },
        {
            "positions": [
                1.2905537864201362,
                -1.742314205282499,
                1.8511453083419438,
                1.6685999943203076,
                -0.28558862782488736,
                -2.2055400215588845
            ]
        },
        {
            "positions": [
                1.2489662560713481,
                -1.754125755259972,
                1.8896663420500492,
                1.5169237124714947,
                -0.21384569480942361,
                -2.2721435151042777
            ]
        },
        {
            "positions": [
                1.2073787257225603,
                -1.7659373052374454,
                1.928187375758155,
                1.3652474306226816,
                -0.14210276179395986,
                -2.338747008649671
            ]
        },
        {
            "positions": [
                1.1657911953737723,
                -1.7777488552149185,
                1.9667084094662606,
                1.2135711487738687,
                -0.07035982877849623,
                -2.4053505021950636
            ]
        },
        {
            "positions": [
                1.1242036650249845,
                -1.789560405192392,
                2.005229443174366,
                1.0618948669250554,
                0.001383104236967636,
                -2.4719539957404573
            ]
        },
        {
            "positions": [
                1.0826161346761967,
                -1.801371955169865,
                2.0437504768824715,
                0.9102185850762425,
                0.07312603725243139,
                -2.53855748928585
            ]
        },
        {
            "positions": [
                1.0410286043274086,
                -1.8131835051473384,
                2.082271510590577,
                0.7585423032274297,
                0.14486897026789514,
                -2.605160982831243
            ]
        },
        {
            "positions": [
                0.9994410739786207,
                -1.8249950551248115,
                2.1207925442986824,
                0.6068660213786163,
                0.2166119032833589,
                -2.6717644763766364
            ]
        },
        {
            "positions": [
                0.9578535436298328,
                -1.8368066051022849,
                2.1593135780067882,
                0.455189739529803,
                0.28835483629882264,
                -2.7383679699220296
            ]
        },
        {
            "positions": [
                0.916266013281045,
                -1.848618155079758,
                2.1978346117148937,
                0.30351345768099014,
                0.3600977693142864,
                -2.8049714634674228
            ]
        },
        {
            "positions": [
                0.8746784829322569,
                -1.8604297050572312,
                2.236355645422999,
                0.15183717583217682,
                0.43184070232975014,
                -2.8715749570128155
            ]
        },
        {
            "positions": [
                0.8330909525834691,
                -1.8722412550347045,
                2.274876679131105,
                0.00016089398336394112,
                0.5035836353452139,
                -2.938178450558209
            ]
        },
        {
            "positions": [
                0.7915034222346812,
                -1.8840528050121776,
                2.31339771283921,
                -0.15151538786544894,
                0.5753265683606776,
                -3.004781944103602
            ]
        },
        {
            "positions": [
                0.7499158918858932,
                -1.895864354989651,
                2.351918746547316,
                -0.30319166971426226,
                0.6470695013761414,
                -3.0713854376489955
            ]
        },
        {
            "positions": [
                0.7083283615371053,
                -1.9076759049671241,
                2.3904397802554214,
                -0.45486795156307536,
                0.718812434391605,
                -3.1379889311943883
            ]
        }
    ]
}