{
    "goal": {
        "global_pose": {
            "orientation": {
                "w": -0.00223480608172531,
                "x": 0.0024358444001904467,
                "y": 0.7094548369677653,
                "z": -0.704743149386269
            },
            "position": {
                "x": -0.37947507619857795,
                "y": -0.6371506643295288,
                "z": 0.19426114857196808
            }
        },
        "name": "move_to_magneteinheit_C"
    },
    "id": "LBKPIECE_move_to_magneteinheit_C_121",
    "joint_names": [
        "shoulder_pan_joint",
        "shoulder_lift_joint",
        "elbow_joint",
        "wrist_1_joint",
        "wrist_2_joint",
        "wrist_3_joint"
    ],
    "metrics": {
        "cart_traj_len": 6.163488583202034,
        "distance_elbow_joint": 7.500048495082344,
        "distance_shoulder_lift_joint": 1.6455260516332733,
        "distance_shoulder_pan_joint": 1.0308975609369049,
        "distance_wrist_1_joint": 4.488392769092338,
        "distance_wrist_2_joint": 1.224867527540166,
        "distance_wrist_3_joint": 8.739013498953092,
        "smoothness": 0.6232885096981865,
        "time": 1.39549754,
        "traj_len": 4.962735727724994,
        "weighted_distance": 6.915203048195826
    },
    "planner": "LBKPIECE",
    "start": {
        "state": {
            "elbow_joint": 1.9565354006590394,
            "shoulder_lift_joint": -1.4165861576513559,
            "shoulder_pan_joint": -1.6717766223277177,
            "wrist_1_joint": -0.5286633288215096,
            "wrist_2_joint": 1.4727565892594296,
            "wrist_3_joint": 3.1593482883155493
        }
    },
    "waypoints": [
        {
            "positions": [
                -1.6717766223277177,
                -1.4165861576513559,
                1.9565354006590394,
                -0.5286633288215096,
                1.4727565892594296,
                3.1593482883155493
            ]
        },
        {
            "positions": [
                -1.6940101435472124,
                -1.4540160957421429,
                1.9011689726852234,
                -0.5573955688616187,
                1.3993279493394921,
                3.0365146629416797
            ]
        },
        {
            "positions": [
                -1.716243664766707,
                -1.49144603383293,
                1.8458025447114075,
                -0.5861278089017278,
                1.3258993094195546,
                2.9136810375678106
            ]
        },
        {
            "positions": [
                -1.7384771859862016,
                -1.528875971923717,
                1.7904361167375917,
                -0.6148600489418368,
                1.2524706694996173,
                2.790847412193941
            ]
        },
        {
            "positions": [
                -1.7607107072056962,
                -1.5663059100145043,
                1.7350696887637758,
                -0.6435922889819459,
                1.1790420295796797,
                2.6680137868200715
            ]
        },
        {
            "positions": [
                -1.7829442284251908,
                -1.6037358481052912,
                1.6797032607899598,
                -0.672324529022055,
                1.1056133896597422,
                2.5451801614462024
            ]
        },
        {
            "positions": [
                -1.8139208425298758,
                -1.6177416987556776,
                1.547193477917892,
                -0.6136441048872128,
                1.0986969921077265,
                2.4003295863516207
            ]
        },
        {
            "positions": [
                -1.8448974566345606,
                -1.631747549406064,
                1.414683695045824,
                -0.5549636807523705,
                1.0917805945557106,
                2.255479011257039
            ]
        },
        {
            "positions": [
                -1.8758740707392456,
                -1.6457534000564504,
                1.282173912173756,
                -0.49628325661752826,
                1.084864197003695,
                2.110628436162458
            ]
        },
        {
            "positions": [
                -1.9068506848439304,
                -1.6597592507068368,
                1.149664129301688,
                -0.43760283248268594,
                1.077947799451679,
                1.9657778610678762
            ]
        },
        {
            "positions": [
                -1.9378272989486154,
                -1.6737651013572232,
                1.0171543464296202,
                -0.37892240834784374,
                1.0710314018996634,
                1.8209272859732946
            ]
        },
        {
            "positions": [
                -1.9688039130533002,
                -1.6877709520076096,
                0.8846445635575524,
                -0.3202419842130015,
                1.0641150043476475,
                1.6760767108787131
            ]
        },
        {
            "positions": [
                -1.9997805271579852,
                -1.701776802657996,
                0.7521347806854846,
                -0.2615615600781593,
                1.0571986067956318,
                1.5312261357841317
            ]
        },
        {
            "positions": [
                -2.03075714126267,
                -1.7157826533083824,
                0.6196249978134165,
                -0.20288113594331697,
                1.050282209243616,
                1.38637556068955
            ]
        },
        {
            "positions": [
                -2.0617337553673547,
                -1.7297885039587688,
                0.4871152149413487,
                -0.14420071180847482,
                1.0433658116916003,
                1.2415249855949686
            ]
        },
        {
            "positions": [
                -2.09271036947204,
                -1.7437943546091552,
                0.35460543206928086,
                -0.08552028767363251,
                1.0364494141395844,
                1.096674410500387
            ]
        },
        {
            "positions": [
                -2.1236869835767247,
                -1.7578002052595416,
                0.22209564919721303,
                -0.02683986353879031,
                1.0295330165875687,
                0.9518238354058055
            ]
        },
        {
            "positions": [
                -2.1546635976814095,
                -1.771806055909928,
                0.08958586632514498,
                0.031840560596052,
                1.0226166190355528,
                0.8069732603112239
            ]
        },
        {
            "positions": [
                -2.1856402117860947,
                -1.7858119065603146,
                -0.04292391654692285,
                0.0905209847308942,
                1.0157002214835371,
                0.6621226852166424
            ]
        },
        {
            "positions": [
                -2.2166168258907795,
                -1.7998177572107008,
                -0.17543369941899067,
                0.1492014088657364,
                1.0087838239315214,
                0.517272110122061
            ]
        },
        {
            "positions": [
                -2.2475934399954642,
                -1.8138236078610874,
                -0.3079434822910585,
                0.2078818330005786,
                1.0018674263795055,
                0.3724215350274793
            ]
        },
        {
            "positions": [
                -2.278570054100149,
                -1.8278294585114738,
                -0.4404532651631268,
                0.26656225713542103,
                0.9949510288274898,
                0.22757095993289767
            ]
        },
        {
            "positions": [
                -2.309546668204834,
                -1.8418353091618602,
                -0.5729630480351946,
                0.32524268127026323,
                0.988034631275474,
                0.08272038483831645
            ]
        },
        {
            "positions": [
                -2.340523282309519,
                -1.8558411598122466,
                -0.7054728309072624,
                0.3839231054051053,
                0.9811182337234582,
                -0.062130190256265205
            ]
        },
        {
            "positions": [
                -2.371499896414204,
                -1.869847010462633,
                -0.8379826137793303,
                0.4426035295399475,
                0.9742018361714424,
                -0.20698076535084686
            ]
        },
        {
            "positions": [
                -2.4024765105188886,
                -1.8838528611130194,
                -0.9704923966513981,
                0.50128395367479,
                0.9672854386194267,
                -0.3518313404454285
            ]
        },
        {
            "positions": [
                -2.4334531246235738,
                -1.8978587117634058,
                -1.103002179523466,
                0.5599643778096322,
                0.9603690410674108,
                -0.49668191554000973
            ]
        },
        {
            "positions": [
                -2.4644297387282585,
                -1.9118645624137922,
                -1.2355119623955337,
                0.6186448019444744,
                0.9534526435153952,
                -0.6415324906345914
            ]
        },
        {
            "positions": [
                -2.4954063528329433,
                -1.9258704130641786,
                -1.3680217452676016,
                0.6773252260793166,
                0.9465362459633794,
                -0.786383065729173
            ]
        },
        {
            "positions": [
                -2.5263829669376285,
                -1.939876263714565,
                -1.5005315281396698,
                0.736005650214159,
                0.9396198484113636,
                -0.9312336408237547
            ]
        },
        {
            "positions": [
                -2.5573595810423133,
                -1.9538821143649514,
                -1.6330413110117377,
                0.7946860743490012,
                0.9327034508593478,
                -1.076084215918336
            ]
        },
        {
            "positions": [
                -2.588336195146998,
                -1.9678879650153378,
                -1.7655510938838057,
                0.8533664984838434,
                0.925787053307332,
                -1.2209347910129176
            ]
        },
        {
            "positions": [
                -2.5883242983565675,
                -1.92992001020394,
                -1.630071337962845,
                0.7628584096020784,
                0.9070093620296964,
                -1.1185138941652608
            ]
        },
        {
            "positions": [
                -2.5883124015661374,
                -1.8919520553925422,
                -1.4945915820418847,
                0.6723503207203134,
                0.8882316707520608,
                -1.0160929973176038
            ]
        },
        {
            "positions": [
                -2.588300504775707,
                -1.8539841005811442,
                -1.359111826120924,
                0.5818422318385483,
                0.8694539794744252,
                -0.9136721004699471
            ]
        },
        {
            "positions": [
                -2.5882886079852763,
                -1.8160161457697463,
                -1.2236320701999635,
                0.4913341429567834,
                0.8506762881967895,
                -0.8112512036222902
            ]
        },
        {
            "positions": [
                -2.5882767111948457,
                -1.7780481909583485,
                -1.0881523142790028,
                0.40082605407501837,
                0.8318985969191539,
                -0.7088303067746333
            ]
        },
        {
            "positions": [
                -2.5882648144044156,
                -1.7400802361469507,
                -0.9526725583580424,
                0.3103179651932534,
                0.8131209056415183,
                -0.6064094099269766
            ]
        },
        {
            "positions": [
                -2.588252917613985,
                -1.7021122813355527,
                -0.8171928024370818,
                0.2198098763114884,
                0.7943432143638827,
                -0.5039885130793196
            ]
        },
        {
            "positions": [
                -2.5882410208235545,
                -1.664144326524155,
                -0.6817130465161212,
                0.12930178742972342,
                0.775565523086247,
                -0.4015676162316628
            ]
        },
        {
            "positions": [
                -2.5882291240331243,
                -1.626176371712757,
                -0.5462332905951608,
                0.038793698547958444,
                0.7567878318086114,
                -0.29914671938400605
            ]
        },
        {
            "positions": [
                -2.5882172272426938,
                -1.5882084169013593,
                -0.41075353467420017,
                -0.05171439033380665,
                0.7380101405309758,
                -0.19672582253634907
            ]
        },
        {
            "positions": [
                -2.588205330452263,
                -1.5502404620899615,
                -0.27527377875323955,
                -0.14222247921557152,
                0.7192324492533402,
                -0.09430492568869231
            ]
        },
        {
            "positions": [
                -2.5881934336618326,
                -1.5122725072785637,
                -0.13979402283227915,
                -0.2327305680973366,
                0.7004547579757046,
                0.008115971158964452
            ]
        },
        {
            "positions": [
                -2.5881815368714025,
                -1.4743045524671656,
                -0.004314266911318532,
                -0.3232386569791015,
                0.6816770666980689,
                0.11053686800662144
            ]
        },
        {
            "positions": [
                -2.588169640080972,
                -1.4363365976557678,
                0.1311654890096421,
                -0.41374674586086657,
                0.6628993754204333,
                0.21295776485427842
            ]
        },
        {
            "positions": [
                -2.5881577432905414,
                -1.39836864284437,
                0.26664524493060227,
                -0.5042548347426314,
                0.6441216841427977,
                0.31537866170193496
            ]
        },
        {
            "positions": [
                -2.588145846500111,
                -1.3604006880329722,
                0.40212500085156333,
                -0.5947629236243965,
                0.6253439928651621,
                0.41779955854959194
            ]
        },
        {
            "positions": [
                -2.5881339497096807,
                -1.3224327332215742,
                0.537604756772524,
                -0.6852710125061616,
                0.6065663015875264,
                0.5202204553972489
            ]
        },
        {
            "positions": [
                -2.58812205291925,
                -1.2844647784101766,
                0.6730845126934841,
                -0.7757791013879265,
                0.5877886103098908,
                0.6226413522449055
            ]
        },
        {
            "positions": [
                -2.5881101561288196,
                -1.2464968235987786,
                0.8085642686144447,
                -0.8662871902696916,
                0.5690109190322552,
                0.7250622490925624
            ]
        },
        {
            "positions": [
                -2.5880982593383894,
                -1.2085288687873808,
                0.9440440245354054,
                -0.9567952791514567,
                0.5502332277546196,
                0.8274831459402194
            ]
        },
        {
            "positions": [
                -2.588086362547959,
                -1.170560913975983,
                1.0795237804563655,
                -1.0473033680332213,
                0.531455536476984,
                0.929904042787876
            ]
        },
        {
            "positions": [
                -2.5880744657575283,
                -1.132592959164585,
                1.2150035363773266,
                -1.1378114569149864,
                0.5126778451993483,
                1.032324939635533
            ]
        },
        {
            "positions": [
                -2.5880625689670977,
                -1.094625004353187,
                1.3504832922982872,
                -1.2283195457967517,
                0.4939001539217127,
                1.13474583648319
            ]
        },
        {
            "positions": [
                -2.5880506721766676,
                -1.0566570495417893,
                1.4859630482192474,
                -1.3188276346785166,
                0.4751224626440771,
                1.2371667333308465
            ]
        },
        {
            "positions": [
                -2.588038775386237,
                -1.0186890947303915,
                1.6214428041402082,
                -1.4093357235602815,
                0.45634477136644147,
                1.3395876301785035
            ]
        },
        {
            "positions": [
                -2.575367601124363,
                -1.0348030251730964,
                1.6648837044197065,
                -1.347520354744529,
                0.47950651688279466,
                1.5393885188933039
            ]
        },
        {
            "positions": [
                -2.5626964268624897,
                -1.0509169556158016,
                1.7083246046992044,
                -1.2857049859287764,
                0.5026682623991479,
                1.739189407608104
            ]
        },
        {
            "positions": [
                -2.5500252526006157,
                -1.0670308860585065,
                1.7517655049787026,
                -1.2238896171130238,
                0.525830007915501,
                1.9389902963229044
            ]
        },
        {
            "positions": [
                -2.5373540783387423,
                -1.0831448165012114,
                1.7952064052582009,
                -1.1620742482972712,
                0.5489917534318542,
                2.1387911850377046
            ]
        },
        {
            "positions": [
                -2.5246829040768684,
                -1.0992587469439166,
                1.8386473055376988,
                -1.1002588794815187,
                0.5721534989482074,
                2.338592073752505
            ]
        },
        {
            "positions": [
                -2.512011729814995,
                -1.1153726773866215,
                1.882088205817197,
                -1.0384435106657661,
                0.5953152444645606,
                2.5383929624673054
            ]
        },
        {
            "positions": [
                -2.499340555553121,
                -1.1314866078293264,
                1.9255291060966953,
                -0.9766281418500136,
                0.6184769899809138,
                2.738193851182106
            ]
        },
        {
            "positions": [
                -2.4866693812912475,
                -1.1476005382720316,
                1.9689700063761932,
                -0.9148127730342611,
                0.641638735497267,
                2.937994739896906
            ]
        },
        {
            "positions": [
                -2.4739982070293736,
                -1.1637144687147365,
                2.0124109066556914,
                -0.8529974042185086,
                0.6648004810136202,
                3.1377956286117064
            ]
        }
    ]
}