{
    "goal": {
        "global_pose": {
            "orientation": {
                "w": 0.5084816217422485,
                "x": -0.49083608388900757,
                "y": 0.5182115435600281,
                "z": -0.4816462993621826
            },
            "position": {
                "x": 0.5540239810943604,
                "y": 0.030875300988554955,
                "z": 0.16403168439865112
            }
        },
        "name": "move_to_storage_A"
    },
    "id": "LBKPIECE_move_to_storage_A_78",
    "joint_names": [
        "shoulder_pan_joint",
        "shoulder_lift_joint",
        "elbow_joint",
        "wrist_1_joint",
        "wrist_2_joint",
        "wrist_3_joint"
    ],
    "metrics": {
        "cart_traj_len": 0.35317436050979617,
        "distance_elbow_joint": 0.4500380895450733,
        "distance_shoulder_lift_joint": 0.23578545500858672,
        "distance_shoulder_pan_joint": 0.46125694524367283,
        "distance_wrist_1_joint": 0.23657785767885586,
        "distance_wrist_2_joint": 1.1025863837872767,
        "distance_wrist_3_joint": 0.09907243197637516,
        "smoothness": 0.0,
        "time": 1.443484859,
        "traj_len": 1.6078921491318503,
        "weighted_distance": 2.030425144805571
    },
    "planner": "LBKPIECE",
    "start": {
        "state": {
            "elbow_joint": 1.9715474177455299,
            "shoulder_lift_joint": -1.139484666580328,
            "shoulder_pan_joint": 0.12281154398918248,
            "wrist_1_joint": -0.7804687475355282,
            "wrist_2_joint": 0.12958649657246987,
            "wrist_3_joint": -3.1924925159053466
        }
    },
    "waypoints": [
        {
            "positions": [
                0.12281154398918248,
                -1.139484666580328,
                1.9715474177455299,
                -0.7804687475355282,
                0.12958649657246987,
                -3.1924925159053466
            ]
        },
        {
            "positions": [
                0.0569176946686578,
                -1.173168303010126,
                2.035838573394826,
                -0.8142655843467933,
                0.28709883711350936,
                -3.178339311337293
            ]
        },
        {
            "positions": [
                -0.00897615465186688,
                -1.2068519394399242,
                2.1001297290441223,
                -0.8480624211580584,
                0.44461117765454894,
                -3.164186106769239
            ]
        },
        {
            "positions": [
                -0.07487000397239157,
                -1.2405355758697223,
                2.1644208846934183,
                -0.8818592579693235,
                0.6021235181955884,
                -3.1500329022011857
            ]
        },
        {
            "positions": [
                -0.14076385329291624,
                -1.2742192122995204,
                2.2287120403427148,
                -0.9156560947805887,
                0.759635858736628,
                -3.1358796976331322
            ]
        },
        {
            "positions": [
                -0.20665770261344096,
                -1.3079028487293185,
                2.2930031959920107,
                -0.9494529315918538,
                0.9171481992776676,
                -3.1217264930650788
            ]
        },
        {
            "positions": [
                -0.27255155193396563,
                -1.3415864851591166,
                2.3572943516413067,
                -0.983249768403119,
                1.074660539818707,
                -3.107573288497025
            ]
        },
        {
            "positions": [
                -0.33844540125449035,
                -1.3752701215889147,
                2.421585507290603,
                -1.017046605214384,
                1.2321728803597465,
                -3.0934200839289714
            ]
        }
    ]
}