{
    "goal": {
        "global_pose": {
            "orientation": {
                "w": 0.005598929693374612,
                "x": 0.007748599140229565,
                "y": 0.7110244013736278,
                "z": -0.7031023480610252
            },
            "position": {
                "x": -0.8858502320852131,
                "y": -0.7141253447532654,
                "z": 0.3711530566215515
            }
        },
        "name": "move_to_auspresseinheit_C"
    },
    "id": "LBKPIECE_move_to_auspresseinheit_C_61",
    "joint_names": [
        "shoulder_pan_joint",
        "shoulder_lift_joint",
        "elbow_joint",
        "wrist_1_joint",
        "wrist_2_joint",
        "wrist_3_joint"
    ],
    "metrics": {
        "cart_traj_len": 0.4948248764821645,
        "distance_elbow_joint": 1.0180056286737982,
        "distance_shoulder_lift_joint": 0.3333993072206004,
        "distance_shoulder_pan_joint": 0.25644926515344935,
        "distance_wrist_1_joint": 0.708555687125688,
        "distance_wrist_2_joint": 1.3193097391427395,
        "distance_wrist_3_joint": 0.08560577629050048,
        "smoothness": 1.1304089016362695e-15,
        "time": 4.405597479,
        "traj_len": 1.929073716478138,
        "weighted_distance": 2.433187699799628
    },
    "planner": "LBKPIECE",
    "start": {
        "state": {
            "elbow_joint": 1.752795957773711,
            "shoulder_lift_joint": -0.9740617694225064,
            "shoulder_pan_joint": -2.967991417825858,
            "wrist_1_joint": -0.7595177689806859,
            "wrist_2_joint": 1.7443932448377395,
            "wrist_3_joint": 3.199131542505932
        }
    },
    "waypoints": [
        {
            "positions": [
                -2.967991417825858,
                -0.9740617694225064,
                1.752795957773711,
                -0.7595177689806859,
                1.7443932448377395,
                3.199131542505932
            ]
        },
        {
            "positions": [
                -2.942346491310513,
                -0.9407218387004463,
                1.6509953949063312,
                -0.6886622002681171,
                1.6124622709234655,
                3.190570964876882
            ]
        },
        {
            "positions": [
                -2.916701564795168,
                -0.9073819079783864,
                1.5491948320389515,
                -0.6178066315555483,
                1.4805312970091915,
                3.182010387247832
            ]
        },
        {
            "positions": [
                -2.891056638279823,
                -0.8740419772563264,
                1.4473942691715718,
                -0.5469510628429796,
                1.3486003230949177,
                3.173449809618782
            ]
        },
        {
            "positions": [
                -2.8654117117644784,
                -0.8407020465342663,
                1.3455937063041918,
                -0.4760954941304107,
                1.2166693491806435,
                3.164889231989732
            ]
        },
        {
            "positions": [
                -2.8397667852491333,
                -0.8073621158122062,
                1.243793143436812,
                -0.40523992541784193,
                1.0847383752663697,
                3.156328654360682
            ]
        },
        {
            "positions": [
                -2.814121858733788,
                -0.7740221850901462,
                1.1419925805694322,
                -0.33438435670527317,
                0.9528074013520959,
                3.147768076731632
            ]
        },
        {
            "positions": [
                -2.7884769322184435,
                -0.7406822543680862,
                1.0401920177020525,
                -0.26352878799270435,
                0.8208764274378219,
                3.139207499102582
            ]
        },
        {
            "positions": [
                -2.7628320057030984,
                -0.7073423236460261,
                0.9383914548346726,
                -0.19267321928013548,
                0.6889454535235477,
                3.1306469214735317
            ]
        },
        {
            "positions": [
                -2.7371870791877537,
                -0.674002392923966,
                0.8365908919672927,
                -0.12181765056756677,
                0.557014479609274,
                3.1220863438444817
            ]
        },
        {
            "positions": [
                -2.7115421526724086,
                -0.640662462201906,
                0.7347903290999129,
                -0.05096208185499796,
                0.42508350569499986,
                3.1135257662154316
            ]
        }
    ]
}