{
    "goal": {
        "global_pose": {
            "orientation": {
                "w": 0.005598929693374612,
                "x": 0.007748599140229565,
                "y": 0.7110244013736278,
                "z": -0.7031023480610252
            },
            "position": {
                "x": -0.8858502320852131,
                "y": -0.7141253447532654,
                "z": 0.3711530566215515
            }
        },
        "name": "move_to_auspresseinheit_C"
    },
    "id": "LBKPIECE_move_to_auspresseinheit_C_59",
    "joint_names": [
        "shoulder_pan_joint",
        "shoulder_lift_joint",
        "elbow_joint",
        "wrist_1_joint",
        "wrist_2_joint",
        "wrist_3_joint"
    ],
    "metrics": {
        "cart_traj_len": 0.4930092345180262,
        "distance_elbow_joint": 1.0119107929093563,
        "distance_shoulder_lift_joint": 0.3308451695202198,
        "distance_shoulder_pan_joint": 0.2558289366291757,
        "distance_wrist_1_joint": 0.7073185009890939,
        "distance_wrist_2_joint": 1.3077479258532934,
        "distance_wrist_3_joint": 0.08983040991395796,
        "smoothness": 0.0,
        "time": 2.495438635,
        "traj_len": 1.9244432274855752,
        "weighted_distance": 2.428622857194052
    },
    "planner": "LBKPIECE",
    "start": {
        "state": {
            "elbow_joint": 1.752795957773711,
            "shoulder_lift_joint": -0.9740617694225064,
            "shoulder_pan_joint": -2.967991417825858,
            "wrist_1_joint": -0.7595177689806859,
            "wrist_2_joint": 1.7443932448377395,
            "wrist_3_joint": 3.199131542505932
        }
    },
    "waypoints": [
        {
            "positions": [
                -2.967991417825858,
                -0.9740617694225064,
                1.752795957773711,
                -0.7595177689806859,
                1.7443932448377395,
                3.199131542505932
            ]
        },
        {
            "positions": [
                -2.9424085241629405,
                -0.9409772524704845,
                1.6516048784827755,
                -0.6887859188817765,
                1.6136184522524102,
                3.1901485015145363
            ]
        },
        {
            "positions": [
                -2.9168256305000226,
                -0.9078927355184625,
                1.5504137991918399,
                -0.6180540687828671,
                1.4828436596670809,
                3.1811654605231405
            ]
        },
        {
            "positions": [
                -2.891242736837105,
                -0.8748082185664405,
                1.4492227199009042,
                -0.5473222186839577,
                1.3520688670817516,
                3.1721824195317447
            ]
        },
        {
            "positions": [
                -2.8656598431741878,
                -0.8417237016144186,
                1.3480316406099686,
                -0.47659036858504833,
                1.2212940744964222,
                3.163199378540349
            ]
        },
        {
            "positions": [
                -2.8400769495112703,
                -0.8086391846623966,
                1.246840561319033,
                -0.40585851848613896,
                1.0905192819110927,
                3.154216337548953
            ]
        },
        {
            "positions": [
                -2.8144940558483524,
                -0.7755546677103746,
                1.1456494820280974,
                -0.3351266683872296,
                0.9597444893257635,
                3.1452332965575573
            ]
        },
        {
            "positions": [
                -2.788911162185435,
                -0.7424701507583527,
                1.0444584027371617,
                -0.26439481828832023,
                0.8289696967404342,
                3.1362502555661615
            ]
        },
        {
            "positions": [
                -2.7633282685225176,
                -0.7093856338063306,
                0.9432673234462261,
                -0.19366296818941076,
                0.6981949041551048,
                3.1272672145747658
            ]
        },
        {
            "positions": [
                -2.7377453748595997,
                -0.6763011168543086,
                0.8420762441552905,
                -0.12293111809050139,
                0.5674201115697755,
                3.11828417358337
            ]
        },
        {
            "positions": [
                -2.7121624811966822,
                -0.6432165999022866,
                0.740885164864355,
                -0.05219926799159199,
                0.4366453189844461,
                3.109301132591974
            ]
        }
    ]
}