{
    "goal": {
        "global_pose": {
            "orientation": {
                "w": -0.4816463035849501,
                "x": 0.5182115481033762,
                "y": 0.4908360881923453,
                "z": -0.5084816262002911
            },
            "position": {
                "x": -0.8240239810943604,
                "y": -0.300875300988555,
                "z": 0.16403168439865112
            }
        },
        "name": "move_to_storage_C"
    },
    "id": "LBKPIECE_move_to_storage_C_82",
    "joint_names": [
        "shoulder_pan_joint",
        "shoulder_lift_joint",
        "elbow_joint",
        "wrist_1_joint",
        "wrist_2_joint",
        "wrist_3_joint"
    ],
    "metrics": {
        "cart_traj_len": 0.5763623933873525,
        "distance_elbow_joint": 0.2572807607255523,
        "distance_shoulder_lift_joint": 0.19011065714063946,
        "distance_shoulder_pan_joint": 0.4947979129568494,
        "distance_wrist_1_joint": 0.07131043945645155,
        "distance_wrist_2_joint": 1.0601915193424438,
        "distance_wrist_3_joint": 0.0734236006149267,
        "smoothness": 2.5376526478085547e-16,
        "time": 2.447322044,
        "traj_len": 1.4653036853283565,
        "weighted_distance": 1.8508009212947816
    },
    "planner": "LBKPIECE",
    "start": {
        "state": {
            "elbow_joint": 2.010868315001653,
            "shoulder_lift_joint": -1.1634956873357014,
            "shoulder_pan_joint": -2.4736205022346103,
            "wrist_1_joint": -0.8367026794713948,
            "wrist_2_joint": 0.6746043897044093,
            "wrist_3_joint": 3.1335220948105738
        }
    },
    "waypoints": [
        {
            "positions": [
                -2.4736205022346103,
                -1.1634956873357014,
                2.010868315001653,
                -0.8367026794713948,
                0.6746043897044093,
                3.1335220948105738
            ]
        },
        {
            "positions": [
                -2.556086821060752,
                -1.1318105778122616,
                1.967988188214061,
                -0.8248176062286529,
                0.8513029762614832,
                3.1457593615797284
            ]
        },
        {
            "positions": [
                -2.6385531398868936,
                -1.1001254682888215,
                1.925108061426469,
                -0.812932532985911,
                1.0280015628185573,
                3.1579966283488825
            ]
        },
        {
            "positions": [
                -2.7210194587130347,
                -1.0684403587653817,
                1.8822279346388768,
                -0.8010474597431689,
                1.2047001493756313,
                3.170233895118037
            ]
        },
        {
            "positions": [
                -2.8034857775391764,
                -1.0367552492419418,
                1.8393478078512848,
                -0.789162386500427,
                1.3813987359327051,
                3.1824711618871917
            ]
        },
        {
            "positions": [
                -2.885952096365318,
                -1.0050701397185018,
                1.7964676810636928,
                -0.7772773132576851,
                1.5580973224897792,
                3.194708428656346
            ]
        },
        {
            "positions": [
                -2.9684184151914597,
                -0.973385030195062,
                1.7535875542761008,
                -0.7653922400149432,
                1.7347959090468532,
                3.2069456954255005
            ]
        }
    ]
}