{
    "goal": {
        "global_pose": {
            "orientation": {
                "w": 0.5084816217422485,
                "x": -0.49083608388900757,
                "y": 0.5182115435600281,
                "z": -0.4816462993621826
            },
            "position": {
                "x": 0.5540239810943604,
                "y": 0.030875300988554955,
                "z": 0.16403168439865112
            }
        },
        "name": "move_to_storage_A"
    },
    "id": "LBKPIECE_move_to_storage_A_102",
    "joint_names": [
        "shoulder_pan_joint",
        "shoulder_lift_joint",
        "elbow_joint",
        "wrist_1_joint",
        "wrist_2_joint",
        "wrist_3_joint"
    ],
    "metrics": {
        "cart_traj_len": 0.3537876587541781,
        "distance_elbow_joint": 0.4487889488204462,
        "distance_shoulder_lift_joint": 0.2338042094263606,
        "distance_shoulder_pan_joint": 0.4627568959816904,
        "distance_wrist_1_joint": 0.23648194320015692,
        "distance_wrist_2_joint": 1.0994048278619748,
        "distance_wrist_3_joint": 0.09047257732976055,
        "smoothness": 4.440892098500626e-16,
        "time": 3.017231964,
        "traj_len": 1.603655013592509,
        "weighted_distance": 2.02201417609819
    },
    "planner": "LBKPIECE",
    "start": {
        "state": {
            "elbow_joint": 1.9715474177455299,
            "shoulder_lift_joint": -1.139484666580328,
            "shoulder_pan_joint": 0.12281154398918248,
            "wrist_1_joint": -0.7804687475355282,
            "wrist_2_joint": 0.12958649657246987,
            "wrist_3_joint": -3.1924925159053466
        }
    },
    "waypoints": [
        {
            "positions": [
                0.12281154398918248,
                -1.139484666580328,
                1.9715474177455299,
                -0.7804687475355282,
                0.12958649657246987,
                -3.1924925159053466
            ]
        },
        {
            "positions": [
                0.05670341599179814,
                -1.172885267926951,
                2.0356601247198793,
                -0.8142518822784077,
                0.2866443291241806,
                -3.179567862001095
            ]
        },
        {
            "positions": [
                -0.009404712005586208,
                -1.2062858692735738,
                2.099772831694229,
                -0.8480350170212874,
                0.44370216167589127,
                -3.1666432080968434
            ]
        },
        {
            "positions": [
                -0.07551284000297054,
                -1.2396864706201969,
                2.1638855386685782,
                -0.8818181517641669,
                0.600759994227602,
                -3.153718554192592
            ]
        },
        {
            "positions": [
                -0.1416209680003549,
                -1.2730870719668197,
                2.2279982456429277,
                -0.9156012865070464,
                0.7578178267793126,
                -3.1407939002883407
            ]
        },
        {
            "positions": [
                -0.20772909599773925,
                -1.3064876733134427,
                2.292110952617277,
                -0.9493844212499261,
                0.9148756593310233,
                -3.127869246384089
            ]
        },
        {
            "positions": [
                -0.27383722399512356,
                -1.3398882746600655,
                2.3562236595916266,
                -0.9831675559928055,
                1.071933491882734,
                -3.1149445924798376
            ]
        },
        {
            "positions": [
                -0.3399453519925079,
                -1.3732888760066886,
                2.420336366565976,
                -1.0169506907356851,
                1.2289913244344446,
                -3.102019938575586
            ]
        }
    ]
}