{
    "goal": {
        "global_pose": {
            "orientation": {
                "w": -0.00223480608172531,
                "x": 0.0024358444001904467,
                "y": 0.7094548369677653,
                "z": -0.704743149386269
            },
            "position": {
                "x": 0.6205249238014221,
                "y": -0.6371506643295288,
                "z": 0.19426114857196808
            }
        },
        "name": "move_to_magneteinheit_B"
    },
    "id": "LBKPIECE_move_to_magneteinheit_B_41",
    "joint_names": [
        "shoulder_pan_joint",
        "shoulder_lift_joint",
        "elbow_joint",
        "wrist_1_joint",
        "wrist_2_joint",
        "wrist_3_joint"
    ],
    "metrics": {
        "cart_traj_len": 1.4524939015843468,
        "distance_elbow_joint": 0.7287397034250715,
        "distance_shoulder_lift_joint": 1.2476182802656595,
        "distance_shoulder_pan_joint": 1.622285558743458,
        "distance_wrist_1_joint": 2.6047137504327247,
        "distance_wrist_2_joint": 2.9322268494432926,
        "distance_wrist_3_joint": 3.1262094598521433,
        "smoothness": 6.661338169182465e-16,
        "time": 1.327347942,
        "traj_len": 3.501684394996549,
        "weighted_distance": 4.904197500278985
    },
    "planner": "LBKPIECE",
    "start": {
        "state": {
            "elbow_joint": 2.3935871308073637,
            "shoulder_lift_joint": -1.9085141043777403,
            "shoulder_pan_joint": 0.7066247067284167,
            "wrist_1_joint": -0.46782909355067076,
            "wrist_2_joint": 0.7096259085804283,
            "wrist_3_joint": -3.1358149275257428
        }
    },
    "waypoints": [
        {
            "positions": [
                0.7066247067284167,
                -1.9085141043777403,
                2.3935871308073637,
                -0.46782909355067076,
                0.7096259085804283,
                -3.1358149275257428
            ]
        },
        {
            "positions": [
                0.6542929145108858,
                -1.8682683534014286,
                2.370079398438813,
                -0.3838060693431635,
                0.6150379456951608,
                -3.0349694610788993
            ]
        },
        {
            "positions": [
                0.601961122293355,
                -1.8280226024251172,
                2.3465716660702625,
                -0.29978304513565623,
                0.5204499828098933,
                -2.9341239946320563
            ]
        },
        {
            "positions": [
                0.549629330075824,
                -1.7877768514488055,
                2.323063933701712,
                -0.215760020928149,
                0.4258620199246258,
                -2.833278528185213
            ]
        },
        {
            "positions": [
                0.4972975378582931,
                -1.7475311004724938,
                2.2995562013331607,
                -0.13173699672064176,
                0.3312740570393583,
                -2.7324330617383694
            ]
        },
        {
            "positions": [
                0.4449657456407622,
                -1.7072853494961824,
                2.27604846896461,
                -0.04771397251313453,
                0.2366860941540908,
                -2.631587595291526
            ]
        },
        {
            "positions": [
                0.3926339534232313,
                -1.6670395985198707,
                2.2525407365960595,
                0.03630905169437276,
                0.1420981312688233,
                -2.5307421288446825
            ]
        },
        {
            "positions": [
                0.3403021612057004,
                -1.626793847543559,
                2.229033004227509,
                0.12033207590187994,
                0.04751016838355582,
                -2.4298966623978395
            ]
        },
        {
            "positions": [
                0.2879703689881695,
                -1.5865480965672476,
                2.205525271858958,
                0.20435510010938723,
                -0.04707779450171168,
                -2.329051195950996
            ]
        },
        {
            "positions": [
                0.23563857677063854,
                -1.546302345590936,
                2.1820175394904076,
                0.2883781243168945,
                -0.14166575738697929,
                -2.2282057295041526
            ]
        },
        {
            "positions": [
                0.18330678455310767,
                -1.5060565946146243,
                2.158509807121857,
                0.3724011485244017,
                -0.23625372027224667,
                -2.1273602630573096
            ]
        },
        {
            "positions": [
                0.13097499233557675,
                -1.4658108436383128,
                2.135002074753306,
                0.456424172731909,
                -0.3308416831575144,
                -2.026514796610466
            ]
        },
        {
            "positions": [
                0.07864320011804593,
                -1.4255650926620012,
                2.1114943423847556,
                0.5404471969394162,
                -0.42542964604278166,
                -1.9256693301636227
            ]
        },
        {
            "positions": [
                0.026311407900515005,
                -1.3853193416856895,
                2.0879866100162046,
                0.6244702211469235,
                -0.5200176089280494,
                -1.8248238637167793
            ]
        },
        {
            "positions": [
                -0.02602038431701592,
                -1.345073590709378,
                2.064478877647654,
                0.7084932453544306,
                -0.6146055718133167,
                -1.723978397269936
            ]
        },
        {
            "positions": [
                -0.07835217653454685,
                -1.3048278397330664,
                2.0409711452791033,
                0.7925162695619379,
                -0.7091935346985844,
                -1.6231329308230928
            ]
        },
        {
            "positions": [
                -0.13068396875207766,
                -1.2645820887567547,
                2.0174634129105526,
                0.8765392937694452,
                -0.8037814975838516,
                -1.5222874643762494
            ]
        },
        {
            "positions": [
                -0.1830157609696086,
                -1.2243363377804433,
                1.993955680542002,
                0.9605623179769522,
                -0.8983694604691191,
                -1.4214419979294062
            ]
        },
        {
            "positions": [
                -0.23534755318713962,
                -1.1840905868041314,
                1.9704479481734511,
                1.0445853421844598,
                -0.9929574233543869,
                -1.3205965314825627
            ]
        },
        {
            "positions": [
                -0.28767934540467044,
                -1.14384483582782,
                1.9469402158049005,
                1.1286083663919668,
                -1.0875453862396545,
                -1.2197510650357195
            ]
        },
        {
            "positions": [
                -0.34001113762220136,
                -1.1035990848515085,
                1.9234324834363499,
                1.2126313905994741,
                -1.1821333491249217,
                -1.118905598588876
            ]
        },
        {
            "positions": [
                -0.3923429298397322,
                -1.0633533338751968,
                1.8999247510677992,
                1.2966544148069812,
                -1.276721312010189,
                -1.018060132142033
            ]
        },
        {
            "positions": [
                -0.4446747220572632,
                -1.0231075828988851,
                1.8764170186992484,
                1.3806774390144887,
                -1.3713092748954572,
                -0.9172146656951892
            ]
        },
        {
            "positions": [
                -0.49700651427479403,
                -0.9828618319225736,
                1.8529092863306977,
                1.464700463221996,
                -1.4658972377807244,
                -0.8163691992483462
            ]
        },
        {
            "positions": [
                -0.5493383064923248,
                -0.942616080946262,
                1.829401553962147,
                1.5487234874295033,
                -1.5604852006659917,
                -0.7155237328015027
            ]
        },
        {
            "positions": [
                -0.6016700987098557,
                -0.9023703299699504,
                1.8058938215935965,
                1.6327465116370101,
                -1.6550731635512594,
                -0.6146782663546597
            ]
        },
        {
            "positions": [
                -0.6540018909273867,
                -0.8621245789936387,
                1.7823860892250456,
                1.7167695358445179,
                -1.7496611264365272,
                -0.5138327999078158
            ]
        },
        {
            "positions": [
                -0.7063336831449175,
                -0.8218788280173273,
                1.758878356856495,
                1.8007925600520247,
                -1.8442490893217944,
                -0.4129873334609728
            ]
        },
        {
            "positions": [
                -0.7586654753624485,
                -0.7816330770410156,
                1.7353706244879443,
                1.884815584259532,
                -1.9388370522070617,
                -0.3121418670141294
            ]
        },
        {
            "positions": [
                -0.8109972675799794,
                -0.7413873260647041,
                1.7118628921193935,
                1.9688386084670393,
                -2.0334250150923294,
                -0.21129640056728638
            ]
        },
        {
            "positions": [
                -0.8633290597975104,
                -0.7011415750883925,
                1.6883551597508428,
                2.0528616326745466,
                -2.128012977977597,
                -0.11045093412044293
            ]
        },
        {
            "positions": [
                -0.9156608520150413,
                -0.6608958241120808,
                1.6648474273822922,
                2.136884656882054,
                -2.2226009408628644,
                -0.009605467673599525
            ]
        }
    ]
}