{
    "goal": {
        "global_pose": {
            "orientation": {
                "w": 0.005598929693374612,
                "x": 0.007748599140229565,
                "y": 0.7110244013736278,
                "z": -0.7031023480610252
            },
            "position": {
                "x": -0.8858502320852131,
                "y": -0.7141253447532654,
                "z": 0.3711530566215515
            }
        },
        "name": "move_to_auspresseinheit_C"
    },
    "id": "LBKPIECE_move_to_auspresseinheit_C_80",
    "joint_names": [
        "shoulder_pan_joint",
        "shoulder_lift_joint",
        "elbow_joint",
        "wrist_1_joint",
        "wrist_2_joint",
        "wrist_3_joint"
    ],
    "metrics": {
        "cart_traj_len": 0.494323676648198,
        "distance_elbow_joint": 1.0236078572282834,
        "distance_shoulder_lift_joint": 0.33660922344485045,
        "distance_shoulder_pan_joint": 0.25546072197357095,
        "distance_wrist_1_joint": 0.7183646330948931,
        "distance_wrist_2_joint": 1.3210855422468877,
        "distance_wrist_3_joint": 0.09205112854416564,
        "smoothness": 4.844609600361787e-16,
        "time": 1.31465707,
        "traj_len": 1.935763184517324,
        "weighted_distance": 2.443508039471686
    },
    "planner": "LBKPIECE",
    "start": {
        "state": {
            "elbow_joint": 1.752795957773711,
            "shoulder_lift_joint": -0.9740617694225064,
            "shoulder_pan_joint": -2.967991417825858,
            "wrist_1_joint": -0.7595177689806859,
            "wrist_2_joint": 1.7443932448377395,
            "wrist_3_joint": 3.199131542505932
        }
    },
    "waypoints": [
        {
            "positions": [
                -2.967991417825858,
                -0.9740617694225064,
                1.752795957773711,
                -0.7595177689806859,
                1.7443932448377395,
                3.199131542505932
            ]
        },
        {
            "positions": [
                -2.9424453456285007,
                -0.9404008470780214,
                1.6504351720508827,
                -0.6876813056711966,
                1.6122846906130508,
                3.1899264296515155
            ]
        },
        {
            "positions": [
                -2.916899273431144,
                -0.9067399247335364,
                1.5480743863280544,
                -0.6158448423617073,
                1.4801761363883619,
                3.180721316797099
            ]
        },
        {
            "positions": [
                -2.8913532012337866,
                -0.8730790023890513,
                1.445713600605226,
                -0.544008379052218,
                1.3480675821636732,
                3.1715162039426823
            ]
        },
        {
            "positions": [
                -2.8658071290364298,
                -0.8394180800445663,
                1.3433528148823977,
                -0.47217191574272865,
                1.2159590279389842,
                3.1623110910882657
            ]
        },
        {
            "positions": [
                -2.8402610568390725,
                -0.8057571577000813,
                1.2409920291595693,
                -0.40033545243323937,
                1.0838504737142958,
                3.1531059782338495
            ]
        },
        {
            "positions": [
                -2.814714984641715,
                -0.7720962353555962,
                1.1386312434367412,
                -0.3284989891237501,
                0.951741919489607,
                3.143900865379433
            ]
        },
        {
            "positions": [
                -2.7891689124443584,
                -0.7384353130111112,
                1.0362704577139128,
                -0.25666252581426074,
                0.8196333652649181,
                3.1346957525250163
            ]
        },
        {
            "positions": [
                -2.763622840247001,
                -0.7047743906666261,
                0.9339096719910843,
                -0.1848260625047714,
                0.6875248110402292,
                3.1254906396705997
            ]
        },
        {
            "positions": [
                -2.7380767680496443,
                -0.671113468322141,
                0.8315488862682561,
                -0.11298959919528218,
                0.5554162568155405,
                3.116285526816183
            ]
        },
        {
            "positions": [
                -2.712530695852287,
                -0.637452545977656,
                0.7291881005454277,
                -0.041153135885792856,
                0.42330770259085176,
                3.1070804139617665
            ]
        }
    ]
}