{
    "goal": {
        "global_pose": {
            "orientation": {
                "w": 0.5084816262002911,
                "x": -0.4908360881923452,
                "y": 0.5182115481033761,
                "z": -0.48164630358495003
            },
            "position": {
                "x": 0.5540239810943604,
                "y": -0.46912469901144505,
                "z": 0.16403168439865112
            }
        },
        "name": "move_to_storage_B"
    },
    "id": "LBKPIECE_move_to_storage_B_116",
    "joint_names": [
        "shoulder_pan_joint",
        "shoulder_lift_joint",
        "elbow_joint",
        "wrist_1_joint",
        "wrist_2_joint",
        "wrist_3_joint"
    ],
    "metrics": {
        "cart_traj_len": 4.810901520348642,
        "distance_elbow_joint": 0.4086509858874241,
        "distance_shoulder_lift_joint": 2.9597371790644393,
        "distance_shoulder_pan_joint": 6.730175593470124,
        "distance_wrist_1_joint": 2.996458101945508,
        "distance_wrist_2_joint": 2.7053785004300916,
        "distance_wrist_3_joint": 3.12893038343153,
        "smoothness": 0.26632114780606764,
        "time": 2.161920177,
        "traj_len": 4.350785072171357,
        "weighted_distance": 5.5577898586999295
    },
    "planner": "LBKPIECE",
    "start": {
        "state": {
            "elbow_joint": 1.6649325706314817,
            "shoulder_lift_joint": -0.6616388048112454,
            "shoulder_pan_joint": -0.9139837860083814,
            "wrist_1_joint": 2.146757197745094,
            "wrist_2_joint": -2.234196043158733,
            "wrist_3_joint": 0.005471033829999897
        }
    },
    "waypoints": [
        {
            "positions": [
                -0.9139837860083814,
                -0.6616388048112454,
                1.6649325706314817,
                2.146757197745094,
                -2.234196043158733,
                0.005471033829999897
            ]
        },
        {
            "positions": [
                -0.7214064215960676,
                -0.7622388033823552,
                1.6632960026233898,
                2.130275041823191,
                -2.2282313816501187,
                -0.051480486635411785
            ]
        },
        {
            "positions": [
                -0.528829057183754,
                -0.8628388019534649,
                1.661659434615298,
                2.1137928859012876,
                -2.222266720141504,
                -0.10843200710082346
            ]
        },
        {
            "positions": [
                -0.3362516927714402,
                -0.9634388005245746,
                1.6600228666072059,
                2.097310729979384,
                -2.21630205863289,
                -0.16538352756623517
            ]
        },
        {
            "positions": [
                -0.1436743283591264,
                -1.0640387990956843,
                1.658386298599114,
                2.0808285740574806,
                -2.2103373971242757,
                -0.22233504803164683
            ]
        },
        {
            "positions": [
                0.048903036053187354,
                -1.164638797666794,
                1.6567497305910222,
                2.0643464181355773,
                -2.204372735615661,
                -0.2792865684970585
            ]
        },
        {
            "positions": [
                0.241480400465501,
                -1.265238796237904,
                1.6551131625829303,
                2.047864262213674,
                -2.198408074107047,
                -0.3362380889624702
            ]
        },
        {
            "positions": [
                0.43405776487781467,
                -1.3658387948090136,
                1.6534765945748382,
                2.0313821062917703,
                -2.1924434125984327,
                -0.39318960942788184
            ]
        },
        {
            "positions": [
                0.6266351292901285,
                -1.4664387933801235,
                1.6518400265667463,
                2.014899950369867,
                -2.186478751089818,
                -0.4501411298932935
            ]
        },
        {
            "positions": [
                0.8192124937024422,
                -1.5670387919512332,
                1.6502034585586545,
                1.9984177944479637,
                -2.180514089581204,
                -0.5070926503587052
            ]
        },
        {
            "positions": [
                1.011789858114756,
                -1.6676387905223429,
                1.6485668905505626,
                1.9819356385260603,
                -2.174549428072589,
                -0.564044170824117
            ]
        },
        {
            "positions": [
                1.2043672225270696,
                -1.7682387890934526,
                1.6469303225424705,
                1.965453482604157,
                -2.168584766563975,
                -0.6209956912895286
            ]
        },
        {
            "positions": [
                1.3969445869393833,
                -1.8688387876645625,
                1.6452937545343786,
                1.9489713266822535,
                -2.162620105055361,
                -0.6779472117549403
            ]
        },
        {
            "positions": [
                1.589521951351697,
                -1.969438786235672,
                1.6436571865262868,
                1.9324891707603502,
                -2.156655443546746,
                -0.734898732220352
            ]
        },
        {
            "positions": [
                1.7820993157640106,
                -2.0700387848067816,
                1.642020618518195,
                1.916007014838447,
                -2.150690782038132,
                -0.7918502526857636
            ]
        },
        {
            "positions": [
                1.9746766801763243,
                -2.1706387833778917,
                1.6403840505101028,
                1.8995248589165434,
                -2.144726120529518,
                -0.8488017731511753
            ]
        },
        {
            "positions": [
                2.1672540445886384,
                -2.2712387819490014,
                1.638747482502011,
                1.88304270299464,
                -2.138761459020903,
                -0.905753293616587
            ]
        },
        {
            "positions": [
                2.359831409000952,
                -2.371838780520111,
                1.637110914493919,
                1.8665605470727367,
                -2.132796797512289,
                -0.9627048140819987
            ]
        },
        {
            "positions": [
                2.251820146549052,
                -2.3327907429152495,
                1.6490118310486022,
                1.7816773767204508,
                -2.0514224458003,
                -1.030228393316984
            ]
        },
        {
            "positions": [
                2.1438088840971523,
                -2.293742705310388,
                1.6609127476032854,
                1.6967942063681647,
                -1.970048094088311,
                -1.0977519725519693
            ]
        },
        {
            "positions": [
                2.0357976216452522,
                -2.254694667705526,
                1.6728136641579687,
                1.6119110360158788,
                -1.888673742376322,
                -1.1652755517869546
            ]
        },
        {
            "positions": [
                1.9277863591933524,
                -2.215646630100664,
                1.6847145807126518,
                1.5270278656635927,
                -1.807299390664333,
                -1.2327991310219402
            ]
        },
        {
            "positions": [
                1.8197750967414525,
                -2.1765985924958025,
                1.6966154972673348,
                1.4421446953113068,
                -1.7259250389523442,
                -1.3003227102569255
            ]
        },
        {
            "positions": [
                1.7117638342895525,
                -2.137550554890941,
                1.7085164138220181,
                1.357261524959021,
                -1.644550687240355,
                -1.3678462894919108
            ]
        },
        {
            "positions": [
                1.6037525718376526,
                -2.098502517286079,
                1.7204173303767014,
                1.2723783546067349,
                -1.563176335528366,
                -1.435369868726896
            ]
        },
        {
            "positions": [
                1.4957413093857528,
                -2.0594544796812175,
                1.7323182469313845,
                1.187495184254449,
                -1.4818019838163772,
                -1.5028934479618816
            ]
        },
        {
            "positions": [
                1.3877300469338527,
                -2.0204064420763554,
                1.7442191634860675,
                1.1026120139021631,
                -1.400427632104388,
                -1.570417027196867
            ]
        },
        {
            "positions": [
                1.2797187844819529,
                -1.9813584044714938,
                1.7561200800407508,
                1.017728843549877,
                -1.319053280392399,
                -1.6379406064318522
            ]
        },
        {
            "positions": [
                1.171707522030053,
                -1.9423103668666322,
                1.768020996595434,
                0.9328456731975912,
                -1.2376789286804102,
                -1.7054641856668376
            ]
        },
        {
            "positions": [
                1.063696259578153,
                -1.9032623292617705,
                1.7799219131501172,
                0.8479625028453053,
                -1.156304576968421,
                -1.7729877649018229
            ]
        },
        {
            "positions": [
                0.9556849971262531,
                -1.8642142916569089,
                1.7918228297048002,
                0.7630793324930192,
                -1.0749302252564321,
                -1.8405113441368082
            ]
        },
        {
            "positions": [
                0.8476737346743533,
                -1.825166254052047,
                1.8037237462594835,
                0.6781961621407333,
                -0.9935558735444432,
                -1.9080349233717935
            ]
        },
        {
            "positions": [
                0.7396624722224532,
                -1.7861182164471854,
                1.8156246628141668,
                0.5933129917884472,
                -0.912181521832454,
                -1.975558502606779
            ]
        },
        {
            "positions": [
                0.6316512097705533,
                -1.7470701788423235,
                1.8275255793688499,
                0.5084298214361613,
                -0.8308071701204651,
                -2.0430820818417645
            ]
        },
        {
            "positions": [
                0.5236399473186535,
                -1.7080221412374619,
                1.839426495923533,
                0.42354665108387546,
                -0.7494328184084762,
                -2.1106056610767494
            ]
        },
        {
            "positions": [
                0.4156286848667534,
                -1.6689741036326002,
                1.8513274124782162,
                0.33866348073158936,
                -0.668058466696487,
                -2.178129240311735
            ]
        },
        {
            "positions": [
                0.3076174224148538,
                -1.6299260660277386,
                1.8632283290328995,
                0.2537803103793035,
                -0.5866841149844981,
                -2.2456528195467205
            ]
        },
        {
            "positions": [
                0.19960615996295372,
                -1.5908780284228767,
                1.8751292455875825,
                0.1688971400270174,
                -0.5053097632725092,
                -2.3131763987817058
            ]
        },
        {
            "positions": [
                0.09159489751105365,
                -1.551829990818015,
                1.8870301621422656,
                0.08401396967473151,
                -0.42393541156052006,
                -2.380699978016691
            ]
        },
        {
            "positions": [
                -0.016416364940845973,
                -1.5127819532131532,
                1.8989310786969489,
                -0.0008692006775543604,
                -0.34256105984853114,
                -2.4482235572516764
            ]
        },
        {
            "positions": [
                -0.12442762739274604,
                -1.4737339156082916,
                1.9108319952516322,
                -0.08575237102984046,
                -0.2611867081365422,
                -2.5157471364866617
            ]
        },
        {
            "positions": [
                -0.2324388898446461,
                -1.43468587800343,
                1.9227329118063152,
                -0.1706355413821261,
                -0.17981235642455307,
                -2.583270715721647
            ]
        },
        {
            "positions": [
                -0.34045015229654574,
                -1.3956378403985683,
                1.9346338283609983,
                -0.2555187117344122,
                -0.09843800471256436,
                -2.6507942949566328
            ]
        },
        {
            "positions": [
                -0.4484614147484458,
                -1.3565898027937064,
                1.9465347449156816,
                -0.3404018820866983,
                -0.01706365300057522,
                -2.7183178741916176
            ]
        },
        {
            "positions": [
                -0.5564726772003459,
                -1.3175417651888448,
                1.9584356614703649,
                -0.4252850524389844,
                0.06431069871141393,
                -2.7858414534266034
            ]
        },
        {
            "positions": [
                -0.6644839396522455,
                -1.278493727583983,
                1.970336578025048,
                -0.51016822279127,
                0.14568505042340263,
                -2.8533650326615883
            ]
        },
        {
            "positions": [
                -0.7724952021041456,
                -1.2394456899791213,
                1.982237494579731,
                -0.5950513931435562,
                0.22705940213539177,
                -2.920888611896574
            ]
        },
        {
            "positions": [
                -0.8805064645560456,
                -1.2003976523742597,
                1.9941384111344143,
                -0.6799345634958422,
                0.3084337538473809,
                -2.9884121911315593
            ]
        },
        {
            "positions": [
                -0.9885177270079453,
                -1.1613496147693978,
                2.0060393276890975,
                -0.7648177338481279,
                0.3898081055593696,
                -3.0559357703665446
            ]
        },
        {
            "positions": [
                -1.0965289894598453,
                -1.1223015771645362,
                2.0179402442437806,
                -0.8497009042004139,
                0.47118245727135893,
                -3.12345934960153
            ]
        }
    ]
}