{
    "goal": {
        "global_pose": {
            "orientation": {
                "w": -0.4816463035849501,
                "x": 0.5182115481033762,
                "y": 0.4908360881923453,
                "z": -0.5084816262002911
            },
            "position": {
                "x": -0.8240239810943604,
                "y": 0.19912469901144506,
                "z": 0.16403168439865112
            }
        },
        "name": "move_to_storage_D"
    },
    "id": "LBKPIECE_move_to_storage_D_117",
    "joint_names": [
        "shoulder_pan_joint",
        "shoulder_lift_joint",
        "elbow_joint",
        "wrist_1_joint",
        "wrist_2_joint",
        "wrist_3_joint"
    ],
    "metrics": {
        "cart_traj_len": 2.100111301227809,
        "distance_elbow_joint": 0.5558873806879794,
        "distance_shoulder_lift_joint": 2.9437845157525113,
        "distance_shoulder_pan_joint": 3.306208631121693,
        "distance_wrist_1_joint": 4.531421415654459,
        "distance_wrist_2_joint": 2.817501590269965,
        "distance_wrist_3_joint": 3.1487434044452445,
        "smoothness": 0.3096987597679558,
        "time": 1.655629669,
        "traj_len": 4.159753230413055,
        "weighted_distance": 5.563268531425279
    },
    "planner": "LBKPIECE",
    "start": {
        "state": {
            "elbow_joint": -2.384821997420982,
            "shoulder_lift_joint": -2.2788054674887404,
            "shoulder_pan_joint": -0.18546946417610016,
            "wrist_1_joint": 1.4845937964226739,
            "wrist_2_joint": 0.1789877726866377,
            "wrist_3_joint": 0.03710572555276528
        }
    },
    "waypoints": [
        {
            "positions": [
                -0.18546946417610016,
                -2.2788054674887404,
                -2.384821997420982,
                1.4845937964226739,
                0.1789877726866377,
                0.03710572555276528
            ]
        },
        {
            "positions": [
                -0.070181833780021,
                -2.175606263660428,
                -2.3667618426569597,
                1.5080493490824791,
                0.21376667478846048,
                0.11344884569113567
            ]
        },
        {
            "positions": [
                0.04510579661605815,
                -2.072407059832116,
                -2.3487016878929374,
                1.5315049017422842,
                0.24854557689028323,
                0.18979196582950605
            ]
        },
        {
            "positions": [
                0.16039342701213738,
                -1.9692078560038035,
                -2.330641533128915,
                1.5549604544020894,
                0.283324478992106,
                0.26613508596787644
            ]
        },
        {
            "positions": [
                0.27568105740821647,
                -1.8660086521754913,
                -2.312581378364893,
                1.5784160070618947,
                0.31810338109392877,
                0.3424782061062468
            ]
        },
        {
            "positions": [
                0.39096868780429567,
                -1.762809448347179,
                -2.2945212236008707,
                1.6018715597216997,
                0.35288228319575154,
                0.41882132624461715
            ]
        },
        {
            "positions": [
                0.506256318200375,
                -1.6596102445188667,
                -2.2764610688368485,
                1.625327112381505,
                0.3876611852975743,
                0.49516444638298757
            ]
        },
        {
            "positions": [
                0.621543948596454,
                -1.5564110406905542,
                -2.2584009140728263,
                1.6487826650413102,
                0.4224400873993971,
                0.5715075665213579
            ]
        },
        {
            "positions": [
                0.736831578992533,
                -1.4532118368622422,
                -2.240340759308804,
                1.6722382177011152,
                0.45721898950121986,
                0.6478506866597283
            ]
        },
        {
            "positions": [
                0.8521192093886123,
                -1.3500126330339297,
                -2.2222806045447814,
                1.6956937703609205,
                0.49199789160304264,
                0.7241938067980986
            ]
        },
        {
            "positions": [
                0.9674068397846916,
                -1.2468134292056177,
                -2.204220449780759,
                1.7191493230207258,
                0.5267767937048653,
                0.800536926936469
            ]
        },
        {
            "positions": [
                1.0826944701807706,
                -1.1436142253773054,
                -2.186160295016737,
                1.7426048756805308,
                0.5615556958066881,
                0.8768800470748395
            ]
        },
        {
            "positions": [
                1.19798210057685,
                -1.040415021548993,
                -2.1681001402527147,
                1.766060428340336,
                0.596334597908511,
                0.9532231672132099
            ]
        },
        {
            "positions": [
                1.313269730972929,
                -0.9372158177206806,
                -2.1500399854886925,
                1.7895159810001413,
                0.6311135000103337,
                1.0295662873515803
            ]
        },
        {
            "positions": [
                1.4285573613690083,
                -0.8340166138923684,
                -2.1319798307246702,
                1.8129715336599463,
                0.6658924021121564,
                1.1059094074899507
            ]
        },
        {
            "positions": [
                1.5438449917650874,
                -0.7308174100640561,
                -2.113919675960648,
                1.8364270863197516,
                0.7006713042139792,
                1.1822525276283211
            ]
        },
        {
            "positions": [
                1.4912818525924039,
                -0.7773439586749837,
                -2.104420173986393,
                1.697107482127839,
                0.6241440355892249,
                1.249039081040644
            ]
        },
        {
            "positions": [
                1.4387187134197204,
                -0.8238705072859114,
                -2.0949206720121385,
                1.5577878779359262,
                0.5476167669644708,
                1.315825634452967
            ]
        },
        {
            "positions": [
                1.3861555742470366,
                -0.870397055896839,
                -2.0854211700378835,
                1.4184682737440135,
                0.47108949833971664,
                1.38261218786529
            ]
        },
        {
            "positions": [
                1.333592435074353,
                -0.9169236045077667,
                -2.0759216680636285,
                1.2791486695521008,
                0.39456222971496246,
                1.449398741277613
            ]
        },
        {
            "positions": [
                1.2810292959016696,
                -0.9634501531186943,
                -2.0664221660893736,
                1.1398290653601881,
                0.31803496109020835,
                1.516185294689936
            ]
        },
        {
            "positions": [
                1.228466156728986,
                -1.009976701729622,
                -2.056922664115119,
                1.0005094611682752,
                0.24150769246545412,
                1.5829718481022588
            ]
        },
        {
            "positions": [
                1.1759030175563026,
                -1.0565032503405498,
                -2.047423162140864,
                0.8611898569763626,
                0.1649804238407,
                1.6497584015145819
            ]
        },
        {
            "positions": [
                1.123339878383619,
                -1.1030297989514772,
                -2.037923660166609,
                0.72187025278445,
                0.08845315521594577,
                1.7165449549269047
            ]
        },
        {
            "positions": [
                1.0707767392109355,
                -1.149556347562405,
                -2.0284241581923546,
                0.5825506485925374,
                0.011925886591191648,
                1.7833315083392276
            ]
        },
        {
            "positions": [
                1.0182136000382518,
                -1.1960828961733325,
                -2.0189246562180996,
                0.44323104440062466,
                -0.06460138203356247,
                1.8501180617515507
            ]
        },
        {
            "positions": [
                0.9656504608655684,
                -1.2426094447842604,
                -2.0094251542438446,
                0.30391144020871197,
                -0.1411286506583167,
                1.9169046151638736
            ]
        },
        {
            "positions": [
                0.9130873216928848,
                -1.289135993395188,
                -1.9999256522695898,
                0.16459183601679905,
                -0.21765591928307093,
                1.9836911685761967
            ]
        },
        {
            "positions": [
                0.8605241825202011,
                -1.3356625420061157,
                -1.9904261502953349,
                0.02527223182488636,
                -0.29418318790782505,
                2.0504777219885195
            ]
        },
        {
            "positions": [
                0.8079610433475176,
                -1.3821890906170433,
                -1.9809266483210801,
                -0.11404737236702633,
                -0.37071045653257917,
                2.1172642754008426
            ]
        },
        {
            "positions": [
                0.7553979041748341,
                -1.428715639227971,
                -1.9714271463468251,
                -0.253366976558939,
                -0.4472377251573334,
                2.1840508288131657
            ]
        },
        {
            "positions": [
                0.7028347650021506,
                -1.4752421878388986,
                -1.9619276443725704,
                -0.3926865807508515,
                -0.5237649937820876,
                2.2508373822254883
            ]
        },
        {
            "positions": [
                0.6502716258294671,
                -1.5217687364498262,
                -1.9524281423983156,
                -0.5320061849427644,
                -0.6002922624068416,
                2.3176239356378114
            ]
        },
        {
            "positions": [
                0.5977084866567834,
                -1.5682952850607539,
                -1.9429286404240607,
                -0.6713257891346769,
                -0.6768195310315959,
                2.3844104890501345
            ]
        },
        {
            "positions": [
                0.5451453474840999,
                -1.6148218336716815,
                -1.933429138449806,
                -0.8106453933265898,
                -0.7533467996563501,
                2.451197042462457
            ]
        },
        {
            "positions": [
                0.4925822083114164,
                -1.6613483822826092,
                -1.923929636475551,
                -0.9499649975185023,
                -0.8298740682811041,
                2.5179835958747803
            ]
        },
        {
            "positions": [
                0.4400190691387329,
                -1.7078749308935368,
                -1.9144301345012962,
                -1.0892846017104152,
                -0.9064013369058583,
                2.5847701492871034
            ]
        },
        {
            "positions": [
                0.3874559299660494,
                -1.7544014795044645,
                -1.9049306325270412,
                -1.2286042059023277,
                -0.9829286055306126,
                2.651556702699426
            ]
        },
        {
            "positions": [
                0.33489279079336565,
                -1.8009280281153923,
                -1.8954311305527864,
                -1.367923810094241,
                -1.0594558741553668,
                2.7183432561117495
            ]
        },
        {
            "positions": [
                0.28232965162068213,
                -1.84745457672632,
                -1.8859316285785317,
                -1.5072434142861535,
                -1.135983142780121,
                2.785129809524072
            ]
        },
        {
            "positions": [
                0.22976651244799862,
                -1.8939811253372476,
                -1.8764321266042767,
                -1.6465630184780664,
                -1.2125104114048753,
                2.851916362936395
            ]
        },
        {
            "positions": [
                0.17720337327531488,
                -1.9405076739481752,
                -1.866932624630022,
                -1.7858826226699789,
                -1.2890376800296293,
                2.9187029163487184
            ]
        },
        {
            "positions": [
                0.12464023410263136,
                -1.987034222559103,
                -1.857433122655767,
                -1.9252022268618918,
                -1.3655649486543835,
                2.985489469761041
            ]
        },
        {
            "positions": [
                0.07207709492994785,
                -2.0335607711700305,
                -1.8479336206815122,
                -2.0645218310538045,
                -1.4420922172791375,
                3.0522760231733637
            ]
        },
        {
            "positions": [
                0.019513955757264334,
                -2.080087319780958,
                -1.8384341187072573,
                -2.2038414352457165,
                -1.518619485903892,
                3.119062576585687
            ]
        },
        {
            "positions": [
                -0.0330491834154192,
                -2.126613868391886,
                -1.8289346167330025,
                -2.3431610394376294,
                -1.595146754528646,
                3.18584912999801
            ]
        }
    ]
}