{
    "goal": {
        "global_pose": {
            "orientation": {
                "w": -0.4816463035849501,
                "x": 0.5182115481033762,
                "y": 0.4908360881923453,
                "z": -0.5084816262002911
            },
            "position": {
                "x": -0.8240239810943604,
                "y": -0.300875300988555,
                "z": 0.16403168439865112
            }
        },
        "name": "move_to_storage_C"
    },
    "id": "LBKPIECE_move_to_storage_C_76",
    "joint_names": [
        "shoulder_pan_joint",
        "shoulder_lift_joint",
        "elbow_joint",
        "wrist_1_joint",
        "wrist_2_joint",
        "wrist_3_joint"
    ],
    "metrics": {
        "cart_traj_len": 0.577227401983233,
        "distance_elbow_joint": 0.2617099587155469,
        "distance_shoulder_lift_joint": 0.18959144481863954,
        "distance_shoulder_pan_joint": 0.4945996935693131,
        "distance_wrist_1_joint": 0.09060285188913764,
        "distance_wrist_2_joint": 1.0719840582376388,
        "distance_wrist_3_joint": 0.06431178268340254,
        "smoothness": 0.0,
        "time": 1.952401378,
        "traj_len": 1.4740419905530773,
        "weighted_distance": 1.8611851776239945
    },
    "planner": "LBKPIECE",
    "start": {
        "state": {
            "elbow_joint": 2.010868315001653,
            "shoulder_lift_joint": -1.1634956873357014,
            "shoulder_pan_joint": -2.4736205022346103,
            "wrist_1_joint": -0.8367026794713948,
            "wrist_2_joint": 0.6746043897044093,
            "wrist_3_joint": 3.1335220948105738
        }
    },
    "waypoints": [
        {
            "positions": [
                -2.4736205022346103,
                -1.1634956873357014,
                2.010868315001653,
                -0.8367026794713948,
                0.6746043897044093,
                3.1335220948105738
            ]
        },
        {
            "positions": [
                -2.5560537844961626,
                -1.1318971131992615,
                1.967249988549062,
                -0.8216022041565385,
                0.8532683994106824,
                3.1442407252578075
            ]
        },
        {
            "positions": [
                -2.6384870667577145,
                -1.1002985390628215,
                1.9236316620964709,
                -0.8065017288416823,
                1.0319324091169555,
                3.1549593557050413
            ]
        },
        {
            "positions": [
                -2.720920349019267,
                -1.0686999649263815,
                1.8800133356438797,
                -0.791401253526826,
                1.2105964188232288,
                3.165677986152275
            ]
        },
        {
            "positions": [
                -2.803353631280819,
                -1.0371013907899418,
                1.8363950091912884,
                -0.7763007782119696,
                1.3892604285295018,
                3.176396616599509
            ]
        },
        {
            "positions": [
                -2.885786913542371,
                -1.0055028166535018,
                1.7927766827386973,
                -0.7612003028971134,
                1.5679244382357749,
                3.1871152470467425
            ]
        },
        {
            "positions": [
                -2.9682201958039234,
                -0.9739042425170619,
                1.7491583562861062,
                -0.7460998275822571,
                1.746588447942048,
                3.1978338774939763
            ]
        }
    ]
}