{
    "goal": {
        "global_pose": {
            "orientation": {
                "w": 0.005598929693374612,
                "x": 0.007748599140229565,
                "y": 0.7110244013736278,
                "z": -0.7031023480610252
            },
            "position": {
                "x": 0.1141497679147869,
                "y": -0.7141253447532654,
                "z": 0.3711530566215515
            }
        },
        "name": "move_to_auspresseinheit_B"
    },
    "id": "LBKPIECE_move_to_auspresseinheit_B_60",
    "joint_names": [
        "shoulder_pan_joint",
        "shoulder_lift_joint",
        "elbow_joint",
        "wrist_1_joint",
        "wrist_2_joint",
        "wrist_3_joint"
    ],
    "metrics": {
        "cart_traj_len": 0.5650297629321509,
        "distance_elbow_joint": 0.059055950434393045,
        "distance_shoulder_lift_joint": 0.29562986991487117,
        "distance_shoulder_pan_joint": 0.578452638211362,
        "distance_wrist_1_joint": 0.31720461780950227,
        "distance_wrist_2_joint": 0.99254689489311,
        "distance_wrist_3_joint": 0.00031010439939871404,
        "smoothness": 5.075305295617109e-16,
        "time": 2.4500001510000002,
        "traj_len": 1.4977316434070014,
        "weighted_distance": 1.8850919863932494
    },
    "planner": "LBKPIECE",
    "start": {
        "state": {
            "elbow_joint": 2.019306165916698,
            "shoulder_lift_joint": -1.1220205098164344,
            "shoulder_pan_joint": -1.095207207618794,
            "wrist_1_joint": -0.8559671824921639,
            "wrist_2_joint": 0.47596387242952726,
            "wrist_3_joint": 3.159081874673826
        }
    },
    "waypoints": [
        {
            "positions": [
                -1.095207207618794,
                -1.1220205098164344,
                2.019306165916698,
                -0.8559671824921639,
                0.47596387242952726,
                3.159081874673826
            ]
        },
        {
            "positions": [
                -1.191615980654021,
                -1.1712921548022464,
                2.009463507510966,
                -0.8030997461905801,
                0.6413883549117123,
                3.1591335587403924
            ]
        },
        {
            "positions": [
                -1.288024753689248,
                -1.220563799788058,
                1.9996208491052336,
                -0.7502323098889965,
                0.8068128373938972,
                3.159185242806959
            ]
        },
        {
            "positions": [
                -1.384433526724475,
                -1.26983544477387,
                1.9897781906995013,
                -0.6973648735874127,
                0.9722373198760823,
                3.1592369268735254
            ]
        },
        {
            "positions": [
                -1.480842299759702,
                -1.319107089759682,
                1.9799355322937693,
                -0.644497437285829,
                1.1376618023582672,
                3.1592886109400915
            ]
        },
        {
            "positions": [
                -1.577251072794929,
                -1.3683787347454937,
                1.9700928738880372,
                -0.5916300009842452,
                1.3030862848404523,
                3.159340295006658
            ]
        },
        {
            "positions": [
                -1.673659845830156,
                -1.4176503797313056,
                1.960250215482305,
                -0.5387625646826616,
                1.4685107673226372,
                3.1593919790732246
            ]
        }
    ]
}