{
    "goal": {
        "global_pose": {
            "orientation": {
                "w": 0.5084816217422485,
                "x": -0.49083608388900757,
                "y": 0.5182115435600281,
                "z": -0.4816462993621826
            },
            "position": {
                "x": 0.5540239810943604,
                "y": 0.030875300988554955,
                "z": 0.16403168439865112
            }
        },
        "name": "move_to_storage_A"
    },
    "id": "LBKPIECE_move_to_storage_A_110",
    "joint_names": [
        "shoulder_pan_joint",
        "shoulder_lift_joint",
        "elbow_joint",
        "wrist_1_joint",
        "wrist_2_joint",
        "wrist_3_joint"
    ],
    "metrics": {
        "cart_traj_len": 0.35226350537495227,
        "distance_elbow_joint": 0.4490729421108415,
        "distance_shoulder_lift_joint": 0.23562010174239578,
        "distance_shoulder_pan_joint": 0.4606934541237027,
        "distance_wrist_1_joint": 0.23780811219760045,
        "distance_wrist_2_joint": 1.0974835155208584,
        "distance_wrist_3_joint": 0.10489445349329474,
        "smoothness": 6.661338165333112e-16,
        "time": 1.629409738,
        "traj_len": 1.6079715728795374,
        "weighted_distance": 2.032400825106539
    },
    "planner": "LBKPIECE",
    "start": {
        "state": {
            "elbow_joint": 1.9715474177455299,
            "shoulder_lift_joint": -1.139484666580328,
            "shoulder_pan_joint": 0.12281154398918248,
            "wrist_1_joint": -0.7804687475355282,
            "wrist_2_joint": 0.12958649657246987,
            "wrist_3_joint": -3.1924925159053466
        }
    },
    "waypoints": [
        {
            "positions": [
                0.12281154398918248,
                -1.139484666580328,
                1.9715474177455299,
                -0.7804687475355282,
                0.12958649657246987,
                -3.1924925159053466
            ]
        },
        {
            "positions": [
                0.056998193400082095,
                -1.173144681114956,
                2.0357006951899357,
                -0.8144413349923283,
                0.2863698559325925,
                -3.177507593977733
            ]
        },
        {
            "positions": [
                -0.008815157189018291,
                -1.206804695649584,
                2.099853972634342,
                -0.8484139224491283,
                0.4431532152927151,
                -3.1625226720501196
            ]
        },
        {
            "positions": [
                -0.07462850777811866,
                -1.240464710184212,
                2.1640072500787477,
                -0.8823865099059284,
                0.5999365746528378,
                -3.147537750122506
            ]
        },
        {
            "positions": [
                -0.14044185836721906,
                -1.2741247247188399,
                2.2281605275231535,
                -0.9163590973627285,
                0.7567199340129604,
                -3.1325528281948922
            ]
        },
        {
            "positions": [
                -0.2062552089563195,
                -1.3077847392534678,
                2.2923138049675593,
                -0.9503316848195285,
                0.9135032933730831,
                -3.1175679062672788
            ]
        },
        {
            "positions": [
                -0.2720685595454198,
                -1.3414447537880958,
                2.3564670824119656,
                -0.9843042722763286,
                1.0702866527332056,
                -3.1025829843396653
            ]
        },
        {
            "positions": [
                -0.33788191013452024,
                -1.3751047683227238,
                2.4206203598563714,
                -1.0182768597331286,
                1.2270700120933282,
                -3.087598062412052
            ]
        }
    ]
}