{
    "goal": {
        "global_pose": {
            "orientation": {
                "w": 0.7047431493862688,
                "x": -0.7094548369677653,
                "y": 0.0024358444001904,
                "z": -0.0022348060817251984
            },
            "position": {
                "x": -0.39052492380142206,
                "y": 0.3671506643295288,
                "z": 0.19426114857196808
            }
        },
        "name": "move_to_magneteinheit_D"
    },
    "id": "LBKPIECE_move_to_magneteinheit_D_46",
    "joint_names": [
        "shoulder_pan_joint",
        "shoulder_lift_joint",
        "elbow_joint",
        "wrist_1_joint",
        "wrist_2_joint",
        "wrist_3_joint"
    ],
    "metrics": {
        "cart_traj_len": 4.148374804353467,
        "distance_elbow_joint": 3.3645433459082774,
        "distance_shoulder_lift_joint": 1.6280805293625762,
        "distance_shoulder_pan_joint": 2.8453830062848313,
        "distance_wrist_1_joint": 1.5373290336475798,
        "distance_wrist_2_joint": 1.2864670470278934,
        "distance_wrist_3_joint": 3.074401072016301,
        "smoothness": 0.3181250093613776,
        "time": 2.248378153,
        "traj_len": 3.7062385290544184,
        "weighted_distance": 4.76537535341714
    },
    "planner": "LBKPIECE",
    "start": {
        "state": {
            "elbow_joint": 0.7495348899011973,
            "shoulder_lift_joint": -0.6476975780737697,
            "shoulder_pan_joint": -2.711696901376276,
            "wrist_1_joint": -0.07506478080974305,
            "wrist_2_joint": 0.4329665971545858,
            "wrist_3_joint": 3.1361499051832524
        }
    },
    "waypoints": [
        {
            "positions": [
                -2.711696901376276,
                -0.6476975780737697,
                0.7495348899011973,
                -0.07506478080974305,
                0.4329665971545858,
                3.1361499051832524
            ]
        },
        {
            "positions": [
                -2.6978753775095825,
                -0.6997010515866788,
                0.7860937414591439,
                0.03288015103890331,
                0.5502031987827999,
                3.070636841305185
            ]
        },
        {
            "positions": [
                -2.6840538536428884,
                -0.751704525099588,
                0.8226525930170905,
                0.14082508288754966,
                0.667439800411014,
                3.0051237774271176
            ]
        },
        {
            "positions": [
                -2.6702323297761947,
                -0.8037079986124971,
                0.8592114445750371,
                0.24877001473619606,
                0.7846764020392282,
                2.93961071354905
            ]
        },
        {
            "positions": [
                -2.661536213690262,
                -0.9490660422871848,
                0.8603854422971691,
                0.24633189981257564,
                0.6980945788244339,
                2.9326776590897374
            ]
        },
        {
            "positions": [
                -2.6528400976043285,
                -1.0944240859618726,
                0.8615594400193012,
                0.24389378488895522,
                0.6115127556096396,
                2.9257446046304243
            ]
        },
        {
            "positions": [
                -2.5432298382540632,
                -1.128924612033511,
                0.7622991357936285,
                0.26933128860236416,
                0.5911226968479523,
                2.8241718037479306
            ]
        },
        {
            "positions": [
                -2.433619578903798,
                -1.1634251381051492,
                0.663038831567956,
                0.2947687923157731,
                0.570732638086265,
                2.7225990028654374
            ]
        },
        {
            "positions": [
                -2.3240093195535323,
                -1.1979256641767877,
                0.5637785273422833,
                0.320206296029182,
                0.5503425793245778,
                2.621026201982944
            ]
        },
        {
            "positions": [
                -2.214399060203267,
                -1.2324261902484261,
                0.4645182231166107,
                0.34564379974259096,
                0.5299525205628904,
                2.5194534011004506
            ]
        },
        {
            "positions": [
                -2.104788800853002,
                -1.2669267163200644,
                0.36525791889093806,
                0.3710813034559999,
                0.5095624618012031,
                2.417880600217957
            ]
        },
        {
            "positions": [
                -1.9951785415027365,
                -1.3014272423917028,
                0.2659976146652654,
                0.3965188071694088,
                0.48917240303951587,
                2.3163077993354633
            ]
        },
        {
            "positions": [
                -1.885568282152471,
                -1.3359277684633413,
                0.16673731043959283,
                0.4219563108828177,
                0.4687823442778286,
                2.21473499845297
            ]
        },
        {
            "positions": [
                -1.7759580228022056,
                -1.3704282945349797,
                0.06747700621392017,
                0.4473938145962266,
                0.4483922855161413,
                2.1131621975704764
            ]
        },
        {
            "positions": [
                -1.6663477634519404,
                -1.404928820606618,
                -0.0317832980117525,
                0.4728313183096356,
                0.428002226754454,
                2.0115893966879828
            ]
        },
        {
            "positions": [
                -1.556737504101675,
                -1.4394293466782564,
                -0.13104360223742506,
                0.49826882202304457,
                0.4076121679927667,
                1.9100165958054895
            ]
        },
        {
            "positions": [
                -1.4471272447514094,
                -1.4739298727498948,
                -0.23030390646309784,
                0.5237063257364535,
                0.3872221092310794,
                1.808443794922996
            ]
        },
        {
            "positions": [
                -1.3375169854011444,
                -1.5084303988215333,
                -0.3295642106887704,
                0.5491438294498624,
                0.36683205046939216,
                1.7068709940405025
            ]
        },
        {
            "positions": [
                -1.227906726050879,
                -1.5429309248931715,
                -0.4288245149144432,
                0.5745813331632713,
                0.34644199170770484,
                1.605298193158009
            ]
        },
        {
            "positions": [
                -1.1182964667006137,
                -1.57743145096481,
                -0.5280848191401155,
                0.6000188368766802,
                0.3260519329460176,
                1.5037253922755156
            ]
        },
        {
            "positions": [
                -1.0086862073503482,
                -1.6119319770364484,
                -0.6273451233657883,
                0.6254563405900891,
                0.3056618741843303,
                1.402152591393022
            ]
        },
        {
            "positions": [
                -0.899075948000083,
                -1.6464325031080866,
                -0.7266054275914609,
                0.6508938443034981,
                0.285271815422643,
                1.3005797905105287
            ]
        },
        {
            "positions": [
                -0.7894656886498175,
                -1.680933029179725,
                -0.8258657318171336,
                0.6763313480169071,
                0.2648817566609557,
                1.199006989628035
            ]
        },
        {
            "positions": [
                -0.6798554292995522,
                -1.7154335552513635,
                -0.9251260360428062,
                0.701768851730316,
                0.24449169789926845,
                1.0974341887455417
            ]
        },
        {
            "positions": [
                -0.5702451699492865,
                -1.7499340813230018,
                -1.0243863402684787,
                0.7272063554437249,
                0.22410163913758113,
                0.995861387863048
            ]
        },
        {
            "positions": [
                -0.46063491059902173,
                -1.7844346073946402,
                -1.1236466444941513,
                0.7526438591571338,
                0.20371158037589387,
                0.8942885869805548
            ]
        },
        {
            "positions": [
                -0.3510246512487561,
                -1.8189351334662787,
                -1.222906948719824,
                0.7780813628705427,
                0.1833215216142066,
                0.7927157860980609
            ]
        },
        {
            "positions": [
                -0.310416550856812,
                -1.8599819624906018,
                -1.3435348825172082,
                0.8423247152224599,
                0.20367889841493114,
                0.7071526077870518
            ]
        },
        {
            "positions": [
                -0.269808450464868,
                -1.901028791514925,
                -1.4641628163145923,
                0.906568067574377,
                0.22403627521565567,
                0.6215894294760427
            ]
        },
        {
            "positions": [
                -0.22920035007292394,
                -1.9420756205392484,
                -1.5847907501119767,
                0.9708114199262942,
                0.24439365201638022,
                0.5360262511650336
            ]
        },
        {
            "positions": [
                -0.18859224968097987,
                -1.9831224495635715,
                -1.7054186839093608,
                1.0350547722782113,
                0.26475102881710477,
                0.4504630728540244
            ]
        },
        {
            "positions": [
                -0.1479841492890358,
                -2.0241692785878946,
                -1.826046617706745,
                1.0992981246301285,
                0.2851084056178293,
                0.3648998945430153
            ]
        },
        {
            "positions": [
                -0.10737604889709176,
                -2.065216107612218,
                -1.9466745515041293,
                1.1635414769820456,
                0.3054657824185538,
                0.2793367162320062
            ]
        },
        {
            "positions": [
                -0.06676794850514772,
                -2.1062629366365413,
                -2.0673024853015134,
                1.2277848293339626,
                0.3258231592192784,
                0.19377353792099705
            ]
        },
        {
            "positions": [
                -0.026159848113203668,
                -2.1473097656608644,
                -2.1879304190988975,
                1.2920281816858799,
                0.3461805360200029,
                0.1082103596099879
            ]
        },
        {
            "positions": [
                -0.025389978096688158,
                -2.1551210549575566,
                -2.222145918266637,
                1.3107033446936427,
                0.3457373656703361,
                0.09615756821810681
            ]
        },
        {
            "positions": [
                -0.05231211726966632,
                -2.1835072700040827,
                -2.28339898983267,
                1.354387028195871,
                0.31481946239439923,
                0.07928154290648262
            ]
        },
        {
            "positions": [
                -0.07923425644264448,
                -2.2118934850506085,
                -2.344652061398703,
                1.3980707116980993,
                0.2839015591184624,
                0.062405517594858434
            ]
        },
        {
            "positions": [
                -0.18446606110193176,
                -2.275778107436346,
                -2.390959355770873,
                1.452511793143355,
                0.17563718870756997,
                0.06306220202276497
            ]
        }
    ]
}