{
    "goal": {
        "global_pose": {
            "orientation": {
                "w": 0.5084816217422485,
                "x": -0.49083608388900757,
                "y": 0.5182115435600281,
                "z": -0.4816462993621826
            },
            "position": {
                "x": 0.5540239810943604,
                "y": 0.030875300988554955,
                "z": 0.16403168439865112
            }
        },
        "name": "move_to_storage_A"
    },
    "id": "LBKPIECE_move_to_storage_A_63",
    "joint_names": [
        "shoulder_pan_joint",
        "shoulder_lift_joint",
        "elbow_joint",
        "wrist_1_joint",
        "wrist_2_joint",
        "wrist_3_joint"
    ],
    "metrics": {
        "cart_traj_len": 0.3525011881333656,
        "distance_elbow_joint": 0.4502872029057836,
        "distance_shoulder_lift_joint": 0.2355645317704853,
        "distance_shoulder_pan_joint": 0.46186417541160535,
        "distance_wrist_1_joint": 0.23875267474920248,
        "distance_wrist_2_joint": 1.0947306393937022,
        "distance_wrist_3_joint": 0.0866264494752107,
        "smoothness": 2.2204460668324854e-16,
        "time": 4.1416899780000005,
        "traj_len": 1.6024436569520908,
        "weighted_distance": 2.0185544052116393
    },
    "planner": "LBKPIECE",
    "start": {
        "state": {
            "elbow_joint": 1.9715474177455299,
            "shoulder_lift_joint": -1.139484666580328,
            "shoulder_pan_joint": 0.12281154398918248,
            "wrist_1_joint": -0.7804687475355282,
            "wrist_2_joint": 0.12958649657246987,
            "wrist_3_joint": -3.1924925159053466
        }
    },
    "waypoints": [
        {
            "positions": [
                0.12281154398918248,
                -1.139484666580328,
                1.9715474177455299,
                -0.7804687475355282,
                0.12958649657246987,
                -3.1924925159053466
            ]
        },
        {
            "positions": [
                0.056830947501810294,
                -1.17313674254754,
                2.0358741610177846,
                -0.8145762724997,
                0.28597658791442737,
                -3.1801173088374592
            ]
        },
        {
            "positions": [
                -0.009149648985561892,
                -1.2067888185147524,
                2.1002009042900394,
                -0.8486837974638718,
                0.44236667925638484,
                -3.167742101769572
            ]
        },
        {
            "positions": [
                -0.07513024547293409,
                -1.2404408944819645,
                2.164527647562294,
                -0.8827913224280435,
                0.5987567705983423,
                -3.1553668947016846
            ]
        },
        {
            "positions": [
                -0.14111084196030627,
                -1.2740929704491768,
                2.228854390834549,
                -0.9168988473922153,
                0.7551468619402998,
                -3.1429916876337978
            ]
        },
        {
            "positions": [
                -0.20709143844767847,
                -1.307745046416389,
                2.293181134106804,
                -0.9510063723563871,
                0.9115369532822574,
                -3.1306164805659105
            ]
        },
        {
            "positions": [
                -0.27307203493505067,
                -1.3413971223836012,
                2.3575078773790588,
                -0.9851138973205589,
                1.0679270446242146,
                -3.118241273498023
            ]
        },
        {
            "positions": [
                -0.33905263142242287,
                -1.3750491983508133,
                2.4218346206513135,
                -1.0192214222847307,
                1.2243171359661722,
                -3.105866066430136
            ]
        }
    ]
}