{
    "goal": {
        "global_pose": {
            "orientation": {
                "w": 0.5084816262002911,
                "x": -0.4908360881923452,
                "y": 0.5182115481033761,
                "z": -0.48164630358495003
            },
            "position": {
                "x": 0.5540239810943604,
                "y": -0.46912469901144505,
                "z": 0.16403168439865112
            }
        },
        "name": "move_to_storage_B"
    },
    "id": "LBKPIECE_move_to_storage_B_134",
    "joint_names": [
        "shoulder_pan_joint",
        "shoulder_lift_joint",
        "elbow_joint",
        "wrist_1_joint",
        "wrist_2_joint",
        "wrist_3_joint"
    ],
    "metrics": {
        "cart_traj_len": 0.6694745702438577,
        "distance_elbow_joint": 0.44672718650616994,
        "distance_shoulder_lift_joint": 0.45918125384541897,
        "distance_shoulder_pan_joint": 0.35581726620072873,
        "distance_wrist_1_joint": 2.9937768668427767,
        "distance_wrist_2_joint": 2.702645323635658,
        "distance_wrist_3_joint": 3.133929664149752,
        "smoothness": 0.08377551095723451,
        "time": 1.027590239,
        "traj_len": 3.176803040980115,
        "weighted_distance": 4.696419815131356
    },
    "planner": "LBKPIECE",
    "start": {
        "state": {
            "elbow_joint": 1.6649325706314817,
            "shoulder_lift_joint": -0.6616388048112454,
            "shoulder_pan_joint": -0.9139837860083814,
            "wrist_1_joint": 2.146757197745094,
            "wrist_2_joint": -2.234196043158733,
            "wrist_3_joint": 0.005471033829999897
        }
    },
    "waypoints": [
        {
            "positions": [
                -0.9139837860083814,
                -0.6616388048112454,
                1.6649325706314817,
                2.146757197745094,
                -2.234196043158733,
                0.005471033829999897
            ]
        },
        {
            "positions": [
                -0.8265592104810442,
                -0.6972808289454626,
                1.617600568367909,
                2.0788138526914546,
                -2.1339057308569647,
                -0.032223028422183504
            ]
        },
        {
            "positions": [
                -0.8372949181079798,
                -0.7142223981339106,
                1.633576375737613,
                1.961780511819889,
                -2.029811530403609,
                -0.15607245249808624
            ]
        },
        {
            "positions": [
                -0.8480306257349155,
                -0.7311639673223588,
                1.649552183107317,
                1.8447471709483236,
                -1.9257173299502535,
                -0.279921876573989
            ]
        },
        {
            "positions": [
                -0.8587663333618512,
                -0.7481055365108068,
                1.6655279904770208,
                1.727713830076758,
                -1.8216231294968979,
                -0.4037713006498917
            ]
        },
        {
            "positions": [
                -0.8695020409887868,
                -0.7650471056992549,
                1.6815037978467247,
                1.6106804892051927,
                -1.7175289290435423,
                -0.5276207247257945
            ]
        },
        {
            "positions": [
                -0.8802377486157225,
                -0.781988674887703,
                1.6974796052164285,
                1.493647148333627,
                -1.6134347285901867,
                -0.6514701488016972
            ]
        },
        {
            "positions": [
                -0.8909734562426581,
                -0.798930244076151,
                1.7134554125861325,
                1.3766138074620617,
                -1.509340528136831,
                -0.7753195728775999
            ]
        },
        {
            "positions": [
                -0.9017091638695939,
                -0.8158718132645991,
                1.7294312199558364,
                1.2595804665904962,
                -1.4052463276834755,
                -0.8991689969535027
            ]
        },
        {
            "positions": [
                -0.9124448714965295,
                -0.8328133824530471,
                1.7454070273255402,
                1.1425471257189308,
                -1.3011521272301199,
                -1.0230184210294053
            ]
        },
        {
            "positions": [
                -0.9231805791234652,
                -0.8497549516414953,
                1.7613828346952443,
                1.0255137848473652,
                -1.1970579267767645,
                -1.1468678451053083
            ]
        },
        {
            "positions": [
                -0.9339162867504008,
                -0.8666965208299433,
                1.777358642064948,
                0.9084804439757996,
                -1.0929637263234089,
                -1.270717269181211
            ]
        },
        {
            "positions": [
                -0.9446519943773365,
                -0.8836380900183913,
                1.793334449434652,
                0.7914471031042343,
                -0.9888695258700533,
                -1.3945666932571137
            ]
        },
        {
            "positions": [
                -0.9553877020042721,
                -0.9005796592068395,
                1.8093102568043558,
                0.6744137622326689,
                -0.8847753254166977,
                -1.5184161173330164
            ]
        },
        {
            "positions": [
                -0.9661234096312078,
                -0.9175212283952875,
                1.8252860641740598,
                0.5573804213611031,
                -0.7806811249633421,
                -1.6422655414089191
            ]
        },
        {
            "positions": [
                -0.9768591172581435,
                -0.9344627975837356,
                1.8412618715437636,
                0.4403470804895375,
                -0.6765869245099863,
                -1.766114965484822
            ]
        },
        {
            "positions": [
                -0.9875948248850791,
                -0.9514043667721837,
                1.8572376789134675,
                0.3233137396179724,
                -0.5724927240566309,
                -1.8899643895607245
            ]
        },
        {
            "positions": [
                -0.9983305325120148,
                -0.9683459359606317,
                1.8732134862831713,
                0.2062803987464068,
                -0.4683985236032753,
                -2.0138138136366273
            ]
        },
        {
            "positions": [
                -1.0090662401389505,
                -0.9852875051490798,
                1.8891892936528754,
                0.08924705787484122,
                -0.3643043231499197,
                -2.13766323771253
            ]
        },
        {
            "positions": [
                -1.0198019477658862,
                -1.002229074337528,
                1.9051651010225792,
                -0.027786282996724143,
                -0.2602101226965643,
                -2.2615126617884327
            ]
        },
        {
            "positions": [
                -1.0305376553928218,
                -1.019170643525976,
                1.921140908392283,
                -0.1448196238682895,
                -0.15611592224320847,
                -2.3853620858643354
            ]
        },
        {
            "positions": [
                -1.0412733630197575,
                -1.036112212714424,
                1.937116715761987,
                -0.2618529647398553,
                -0.05202172178985309,
                -2.509211509940238
            ]
        },
        {
            "positions": [
                -1.0520090706466931,
                -1.053053781902872,
                1.953092523131691,
                -0.37888630561142067,
                0.05207247866350251,
                -2.633060934016141
            ]
        },
        {
            "positions": [
                -1.0627447782736288,
                -1.06999535109132,
                1.9690683305013947,
                -0.49591964648298603,
                0.1561666791168581,
                -2.7569103580920435
            ]
        },
        {
            "positions": [
                -1.0734804859005644,
                -1.0869369202797683,
                1.9850441378710988,
                -0.6129529873545518,
                0.2602608795702137,
                -2.8807597821679463
            ]
        },
        {
            "positions": [
                -1.0842161935275,
                -1.1038784894682163,
                2.0010199452408024,
                -0.7299863282261168,
                0.3643550800235693,
                -3.004609206243849
            ]
        },
        {
            "positions": [
                -1.0949519011544357,
                -1.1208200586566643,
                2.0169957526105065,
                -0.8470196690976823,
                0.46844928047692475,
                -3.1284586303197517
            ]
        }
    ]
}