{
    "goal": {
        "global_pose": {
            "orientation": {
                "w": 0.005598929693374612,
                "x": 0.007748599140229565,
                "y": 0.7110244013736278,
                "z": -0.7031023480610252
            },
            "position": {
                "x": -0.8858502320852131,
                "y": -0.7141253447532654,
                "z": 0.3711530566215515
            }
        },
        "name": "move_to_auspresseinheit_C"
    },
    "id": "LBKPIECE_move_to_auspresseinheit_C_36",
    "joint_names": [
        "shoulder_pan_joint",
        "shoulder_lift_joint",
        "elbow_joint",
        "wrist_1_joint",
        "wrist_2_joint",
        "wrist_3_joint"
    ],
    "metrics": {
        "cart_traj_len": 0.49265355291373114,
        "distance_elbow_joint": 1.0060677700667955,
        "distance_shoulder_lift_joint": 0.32725395534188384,
        "distance_shoulder_pan_joint": 0.25621573132366127,
        "distance_wrist_1_joint": 0.704026759111463,
        "distance_wrist_2_joint": 1.3016977902965814,
        "distance_wrist_3_joint": 0.08612218363896096,
        "smoothness": 3.2297397335745243e-16,
        "time": 1.944643338,
        "traj_len": 1.9186933548066887,
        "weighted_distance": 2.420610069066332
    },
    "planner": "LBKPIECE",
    "start": {
        "state": {
            "elbow_joint": 1.752795957773711,
            "shoulder_lift_joint": -0.9740617694225064,
            "shoulder_pan_joint": -2.967991417825858,
            "wrist_1_joint": -0.7595177689806859,
            "wrist_2_joint": 1.7443932448377395,
            "wrist_3_joint": 3.199131542505932
        }
    },
    "waypoints": [
        {
            "positions": [
                -2.967991417825858,
                -0.9740617694225064,
                1.752795957773711,
                -0.7595177689806859,
                1.7443932448377395,
                3.199131542505932
            ]
        },
        {
            "positions": [
                -2.942369844693492,
                -0.941336373888318,
                1.6521891807670315,
                -0.6891150930695396,
                1.6142234658080814,
                3.190519324142036
            ]
        },
        {
            "positions": [
                -2.9167482715611257,
                -0.9086109783541296,
                1.551582403760352,
                -0.6187124171583933,
                1.4840536867784233,
                3.18190710577814
            ]
        },
        {
            "positions": [
                -2.8911266984287596,
                -0.8758855828199413,
                1.4509756267536724,
                -0.5483097412472471,
                1.3538839077487652,
                3.1732948874142437
            ]
        },
        {
            "positions": [
                -2.8655051252963935,
                -0.8431601872857529,
                1.3503688497469928,
                -0.4779070653361007,
                1.223714128719107,
                3.1646826690503476
            ]
        },
        {
            "positions": [
                -2.8398835521640273,
                -0.8104347917515645,
                1.2497620727403134,
                -0.4075043894249544,
                1.0935443496894488,
                3.1560704506864514
            ]
        },
        {
            "positions": [
                -2.814261979031661,
                -0.7777093962173761,
                1.149155295733634,
                -0.33710171351380813,
                0.9633745706597907,
                3.1474582323225557
            ]
        },
        {
            "positions": [
                -2.788640405899295,
                -0.7449840006831878,
                1.0485485187269543,
                -0.2666990376026619,
                0.8332047916301326,
                3.1388460139586596
            ]
        },
        {
            "positions": [
                -2.763018832766929,
                -0.7122586051489994,
                0.9479417417202747,
                -0.19629636169151554,
                0.7030350126004743,
                3.1302337955947634
            ]
        },
        {
            "positions": [
                -2.737397259634563,
                -0.679533209614811,
                0.8473349647135952,
                -0.1258936857803692,
                0.5728652335708162,
                3.1216215772308673
            ]
        },
        {
            "positions": [
                -2.7117756865021967,
                -0.6468078140806226,
                0.7467281877069155,
                -0.05549100986922296,
                0.4426954545411581,
                3.113009358866971
            ]
        }
    ]
}