{
    "goal": {
        "global_pose": {
            "orientation": {
                "w": 0.5084816217422485,
                "x": -0.49083608388900757,
                "y": 0.5182115435600281,
                "z": -0.4816462993621826
            },
            "position": {
                "x": 0.5540239810943604,
                "y": 0.030875300988554955,
                "z": 0.16403168439865112
            }
        },
        "name": "move_to_storage_A"
    },
    "id": "LBKPIECE_move_to_storage_A_88",
    "joint_names": [
        "shoulder_pan_joint",
        "shoulder_lift_joint",
        "elbow_joint",
        "wrist_1_joint",
        "wrist_2_joint",
        "wrist_3_joint"
    ],
    "metrics": {
        "cart_traj_len": 0.3525364962917638,
        "distance_elbow_joint": 0.44814245042399214,
        "distance_shoulder_lift_joint": 0.23393461492275258,
        "distance_shoulder_pan_joint": 0.4609811404389746,
        "distance_wrist_1_joint": 0.24115073932272713,
        "distance_wrist_2_joint": 1.0968944414135855,
        "distance_wrist_3_joint": 0.09469210158138708,
        "smoothness": 4.440892098500626e-16,
        "time": 4.331800499,
        "traj_len": 1.6049284993741681,
        "weighted_distance": 2.025641841985524
    },
    "planner": "LBKPIECE",
    "start": {
        "state": {
            "elbow_joint": 1.9715474177455299,
            "shoulder_lift_joint": -1.139484666580328,
            "shoulder_pan_joint": 0.12281154398918248,
            "wrist_1_joint": -0.7804687475355282,
            "wrist_2_joint": 0.12958649657246987,
            "wrist_3_joint": -3.1924925159053466
        }
    },
    "waypoints": [
        {
            "positions": [
                0.12281154398918248,
                -1.139484666580328,
                1.9715474177455299,
                -0.7804687475355282,
                0.12958649657246987,
                -3.1924925159053466
            ]
        },
        {
            "positions": [
                0.05695709535504326,
                -1.1729038972835784,
                2.0355677678061004,
                -0.8149188531530607,
                0.28628570248869634,
                -3.178965072822291
            ]
        },
        {
            "positions": [
                -0.008897353279095965,
                -1.2063231279868287,
                2.0995881178666704,
                -0.849368958770593,
                0.4429849084049229,
                -3.165437629739236
            ]
        },
        {
            "positions": [
                -0.07475180191323519,
                -1.239742358690079,
                2.163608467927241,
                -0.8838190643881255,
                0.5996841143211493,
                -3.1519101866561807
            ]
        },
        {
            "positions": [
                -0.1406062505473744,
                -1.2731615893933295,
                2.227628817987811,
                -0.918269170005658,
                0.7563833202373759,
                -3.1383827435731253
            ]
        },
        {
            "positions": [
                -0.20646069918151366,
                -1.3065808200965798,
                2.2916491680483815,
                -0.9527192756231904,
                0.9130825261536024,
                -3.12485530049007
            ]
        },
        {
            "positions": [
                -0.27231514781565286,
                -1.3400000507998302,
                2.3556695181089515,
                -0.9871693812407228,
                1.0697817320698289,
                -3.111327857407015
            ]
        },
        {
            "positions": [
                -0.3381695964497921,
                -1.3734192815030806,
                2.419689868169522,
                -1.0216194868582553,
                1.2264809379860553,
                -3.0978004143239595
            ]
        }
    ]
}