{
    "goal": {
        "global_pose": {
            "orientation": {
                "w": 0.005598929693374612,
                "x": 0.007748599140229565,
                "y": 0.7110244013736278,
                "z": -0.7031023480610252
            },
            "position": {
                "x": 0.1141497679147869,
                "y": -0.7141253447532654,
                "z": 0.3711530566215515
            }
        },
        "name": "move_to_auspresseinheit_B"
    },
    "id": "LBKPIECE_move_to_auspresseinheit_B_53",
    "joint_names": [
        "shoulder_pan_joint",
        "shoulder_lift_joint",
        "elbow_joint",
        "wrist_1_joint",
        "wrist_2_joint",
        "wrist_3_joint"
    ],
    "metrics": {
        "cart_traj_len": 0.5648554374834744,
        "distance_elbow_joint": 0.06054675613699856,
        "distance_shoulder_lift_joint": 0.2957359538253681,
        "distance_shoulder_pan_joint": 0.5774735127748811,
        "distance_wrist_1_joint": 0.31881815427149274,
        "distance_wrist_2_joint": 0.9920605470581432,
        "distance_wrist_3_joint": 0.0013249218937669838,
        "smoothness": 7.612957903237841e-16,
        "time": 4.973600664,
        "traj_len": 1.4986526768936994,
        "weighted_distance": 1.8866606454468224
    },
    "planner": "LBKPIECE",
    "start": {
        "state": {
            "elbow_joint": 2.019306165916698,
            "shoulder_lift_joint": -1.1220205098164344,
            "shoulder_pan_joint": -1.095207207618794,
            "wrist_1_joint": -0.8559671824921639,
            "wrist_2_joint": 0.47596387242952726,
            "wrist_3_joint": 3.159081874673826
        }
    },
    "waypoints": [
        {
            "positions": [
                -1.095207207618794,
                -1.1220205098164344,
                2.019306165916698,
                -0.8559671824921639,
                0.47596387242952726,
                3.159081874673826
            ]
        },
        {
            "positions": [
                -1.1914527930812742,
                -1.1713098354539957,
                2.009215039893865,
                -0.802830823446915,
                0.6413072969392177,
                3.158861054358198
            ]
        },
        {
            "positions": [
                -1.2876983785437544,
                -1.2205991610915572,
                1.9991239138710317,
                -0.7496944644016663,
                0.8066507214489083,
                3.1586402340425703
            ]
        },
        {
            "positions": [
                -1.3839439640062345,
                -1.2698884867291185,
                1.9890327878481986,
                -0.6965581053564175,
                0.9719941459585988,
                3.1584194137269423
            ]
        },
        {
            "positions": [
                -1.4801895494687147,
                -1.3191778123666797,
                1.9789416618253657,
                -0.6434217463111687,
                1.1373375704682893,
                3.1581985934113144
            ]
        },
        {
            "positions": [
                -1.576435134931195,
                -1.3684671380042412,
                1.9688505358025326,
                -0.59028538726592,
                1.3026809949779798,
                3.157977773095687
            ]
        },
        {
            "positions": [
                -1.672680720393675,
                -1.4177564636418025,
                1.9587594097796994,
                -0.5371490282206711,
                1.4680244194876704,
                3.157756952780059
            ]
        }
    ]
}