{
    "goal": {
        "global_pose": {
            "orientation": {
                "w": -0.00223480608172531,
                "x": 0.0024358444001904467,
                "y": 0.7094548369677653,
                "z": -0.704743149386269
            },
            "position": {
                "x": -0.37947507619857795,
                "y": -0.6371506643295288,
                "z": 0.19426114857196808
            }
        },
        "name": "move_to_magneteinheit_C"
    },
    "id": "LBKPIECE_move_to_magneteinheit_C_127",
    "joint_names": [
        "shoulder_pan_joint",
        "shoulder_lift_joint",
        "elbow_joint",
        "wrist_1_joint",
        "wrist_2_joint",
        "wrist_3_joint"
    ],
    "metrics": {
        "cart_traj_len": 0.8289381192004222,
        "distance_elbow_joint": 0.5695311641116678,
        "distance_shoulder_lift_joint": 0.7622047323449366,
        "distance_shoulder_pan_joint": 1.1102009357016271,
        "distance_wrist_1_joint": 0.40410504215192167,
        "distance_wrist_2_joint": 0.7960172840523859,
        "distance_wrist_3_joint": 2.0558940787431275,
        "smoothness": 1.3632200922607807,
        "time": 0.6155016670000001,
        "traj_len": 2.3870385914571353,
        "weighted_distance": 3.3181114690130933
    },
    "planner": "LBKPIECE",
    "start": {
        "state": {
            "elbow_joint": 1.9565354006590394,
            "shoulder_lift_joint": -1.4165861576513559,
            "shoulder_pan_joint": -1.6717766223277177,
            "wrist_1_joint": -0.5286633288215096,
            "wrist_2_joint": 1.4727565892594296,
            "wrist_3_joint": 3.1593482883155493
        }
    },
    "waypoints": [
        {
            "positions": [
                -1.6717766223277177,
                -1.4165861576513559,
                1.9565354006590394,
                -0.5286633288215096,
                1.4727565892594296,
                3.1593482883155493
            ]
        },
        {
            "positions": [
                -1.6517342763180594,
                -1.4411481153185606,
                1.9704067487013748,
                -0.5015434239321973,
                1.3418734752310137,
                3.129484297662785
            ]
        },
        {
            "positions": [
                -1.631691930308401,
                -1.4657100729857655,
                1.9842780967437101,
                -0.474423519042885,
                1.2109903612025978,
                3.099620307010021
            ]
        },
        {
            "positions": [
                -1.7512031019014336,
                -1.491451905032441,
                2.0197502482897707,
                -0.4882826427447995,
                1.1509115921205455,
                2.976454563697992
            ]
        },
        {
            "positions": [
                -1.8707142734944662,
                -1.5171937370791166,
                2.0552223998358317,
                -0.5021417664467139,
                1.0908328230384932,
                2.8532888203859637
            ]
        },
        {
            "positions": [
                -1.9902254450874988,
                -1.5429355691257922,
                2.090694551381892,
                -0.5160008901486284,
                1.0307540539564408,
                2.730123077073935
            ]
        },
        {
            "positions": [
                -2.1097366166805314,
                -1.5686774011724678,
                2.1261667029279527,
                -0.5298600138505429,
                0.9706752848743885,
                2.6069573337619065
            ]
        },
        {
            "positions": [
                -2.2292477882735637,
                -1.5944192332191434,
                2.1616388544740137,
                -0.5437191375524574,
                0.9105965157923361,
                2.4837915904498784
            ]
        },
        {
            "positions": [
                -2.3487589598665966,
                -1.620161065265819,
                2.1971110060200743,
                -0.5575782612543718,
                0.8505177467102837,
                2.36062584713785
            ]
        },
        {
            "positions": [
                -2.4682701314596294,
                -1.6459028973124945,
                2.2325831575661352,
                -0.5714373849562864,
                0.7904389776282313,
                2.2374601038258213
            ]
        },
        {
            "positions": [
                -2.5877813030526617,
                -1.67164472935917,
                2.2680553091121958,
                -0.5852965086582008,
                0.730360208546179,
                2.1142943605137927
            ]
        },
        {
            "positions": [
                -2.568776824562987,
                -1.587120369252983,
                2.2250534331691103,
                -0.6251285491178644,
                0.7214233913229898,
                2.2827677190040214
            ]
        },
        {
            "positions": [
                -2.5497723460733117,
                -1.502596009146796,
                2.1820515572260253,
                -0.6649605895775279,
                0.7124865740998005,
                2.4512410774942497
            ]
        },
        {
            "positions": [
                -2.530767867583637,
                -1.418071649040609,
                2.1390496812829403,
                -0.7047926300371914,
                0.7035497568766114,
                2.619714435984478
            ]
        },
        {
            "positions": [
                -2.511763389093962,
                -1.333547288934422,
                2.096047805339855,
                -0.744624670496855,
                0.6946129396534222,
                2.7881877944747067
            ]
        },
        {
            "positions": [
                -2.492758910604287,
                -1.2490229288282348,
                2.0530459293967693,
                -0.7844567109565186,
                0.6856761224302329,
                2.9566611529649354
            ]
        },
        {
            "positions": [
                -2.473754432114612,
                -1.1644985687220477,
                2.0100440534536843,
                -0.8242887514161821,
                0.6767393052070437,
                3.1251345114551636
            ]
        }
    ]
}