{
    "goal": {
        "global_pose": {
            "orientation": {
                "w": 0.5084816262002911,
                "x": -0.4908360881923452,
                "y": 0.5182115481033761,
                "z": -0.48164630358495003
            },
            "position": {
                "x": 0.5540239810943604,
                "y": -0.46912469901144505,
                "z": 0.16403168439865112
            }
        },
        "name": "move_to_storage_B"
    },
    "id": "LBKPIECE_move_to_storage_B_60",
    "joint_names": [
        "shoulder_pan_joint",
        "shoulder_lift_joint",
        "elbow_joint",
        "wrist_1_joint",
        "wrist_2_joint",
        "wrist_3_joint"
    ],
    "metrics": {
        "cart_traj_len": 0.6074831230716907,
        "distance_elbow_joint": 0.3534802165225843,
        "distance_shoulder_lift_joint": 0.45953480822141235,
        "distance_shoulder_pan_joint": 0.22127747670692954,
        "distance_wrist_1_joint": 3.0046596974973268,
        "distance_wrist_2_joint": 2.700047047307777,
        "distance_wrist_3_joint": 3.1202233003364057,
        "smoothness": 0.042597808431295243,
        "time": 3.505945463,
        "traj_len": 3.1399398953789603,
        "weighted_distance": 4.669515595013079
    },
    "planner": "LBKPIECE",
    "start": {
        "state": {
            "elbow_joint": 1.6649325706314817,
            "shoulder_lift_joint": -0.6616388048112454,
            "shoulder_pan_joint": -0.9139837860083814,
            "wrist_1_joint": 2.146757197745094,
            "wrist_2_joint": -2.234196043158733,
            "wrist_3_joint": 0.005471033829999897
        }
    },
    "waypoints": [
        {
            "positions": [
                -0.9139837860083814,
                -0.6616388048112454,
                1.6649325706314817,
                2.146757197745094,
                -2.234196043158733,
                0.005471033829999897
            ]
        },
        {
            "positions": [
                -0.8948137199503021,
                -0.6887617644096977,
                1.6688008248668842,
                2.0908249157821595,
                -2.200144624193558,
                -0.014820398252286144
            ]
        },
        {
            "positions": [
                -0.9028980163762561,
                -0.7060582383546161,
                1.6827853033583715,
                1.9728758191607838,
                -2.093504799059854,
                -0.13881767298245093
            ]
        },
        {
            "positions": [
                -0.9109823128022101,
                -0.7233547122995345,
                1.6967697818498588,
                1.8549267225394082,
                -1.98686497392615,
                -0.2628149477126157
            ]
        },
        {
            "positions": [
                -0.9190666092281642,
                -0.7406511862444529,
                1.710754260341346,
                1.7369776259180325,
                -1.8802251487924457,
                -0.3868122224427805
            ]
        },
        {
            "positions": [
                -0.9271509056541182,
                -0.7579476601893713,
                1.7247387388328332,
                1.6190285292966566,
                -1.7735853236587418,
                -0.5108094971729453
            ]
        },
        {
            "positions": [
                -0.9352352020800722,
                -0.7752441341342897,
                1.7387232173243206,
                1.501079432675281,
                -1.6669454985250378,
                -0.6348067719031101
            ]
        },
        {
            "positions": [
                -0.9433194985060261,
                -0.7925406080792081,
                1.7527076958158079,
                1.3831303360539053,
                -1.5603056733913336,
                -0.7588040466332748
            ]
        },
        {
            "positions": [
                -0.9514037949319802,
                -0.8098370820241265,
                1.7666921743072952,
                1.2651812394325295,
                -1.4536658482576295,
                -0.8828013213634398
            ]
        },
        {
            "positions": [
                -0.9594880913579342,
                -0.8271335559690449,
                1.7806766527987823,
                1.1472321428111538,
                -1.3470260231239255,
                -1.0067985960936046
            ]
        },
        {
            "positions": [
                -0.9675723877838882,
                -0.8444300299139633,
                1.7946611312902696,
                1.0292830461897784,
                -1.2403861979902215,
                -1.1307958708237693
            ]
        },
        {
            "positions": [
                -0.9756566842098422,
                -0.8617265038588817,
                1.808645609781757,
                0.9113339495684025,
                -1.1337463728565174,
                -1.254793145553934
            ]
        },
        {
            "positions": [
                -0.9837409806357963,
                -0.8790229778038001,
                1.8226300882732442,
                0.7933848529470269,
                -1.0271065477228134,
                -1.3787904202840988
            ]
        },
        {
            "positions": [
                -0.9918252770617503,
                -0.8963194517487185,
                1.8366145667647316,
                0.6754357563256512,
                -0.9204667225891092,
                -1.5027876950142636
            ]
        },
        {
            "positions": [
                -0.9999095734877043,
                -0.9136159256936369,
                1.8505990452562187,
                0.5574866597042756,
                -0.8138268974554053,
                -1.6267849697444285
            ]
        },
        {
            "positions": [
                -1.0079938699136584,
                -0.9309123996385553,
                1.864583523747706,
                0.4395375630828997,
                -0.7071870723217011,
                -1.7507822444745935
            ]
        },
        {
            "positions": [
                -1.0160781663396123,
                -0.9482088735834737,
                1.8785680022391933,
                0.3215884664615243,
                -0.6005472471879971,
                -1.874779519204758
            ]
        },
        {
            "positions": [
                -1.0241624627655663,
                -0.9655053475283921,
                1.8925524807306806,
                0.2036393698401484,
                -0.49390742205429294,
                -1.9987767939349228
            ]
        },
        {
            "positions": [
                -1.0322467591915203,
                -0.9828018214733105,
                1.906536959222168,
                0.08569027321877254,
                -0.38726759692058876,
                -2.122774068665088
            ]
        },
        {
            "positions": [
                -1.0403310556174743,
                -1.000098295418229,
                1.920521437713655,
                -0.032258823402602665,
                -0.280627771786885,
                -2.2467713433952525
            ]
        },
        {
            "positions": [
                -1.0484153520434283,
                -1.0173947693631473,
                1.9345059162051423,
                -0.15020792002397876,
                -0.17398794665318063,
                -2.370768618125417
            ]
        },
        {
            "positions": [
                -1.0564996484693823,
                -1.0346912433080657,
                1.9484903946966297,
                -0.2681570166453544,
                -0.06734812151947667,
                -2.494765892855582
            ]
        },
        {
            "positions": [
                -1.0645839448953365,
                -1.0519877172529841,
                1.962474873188117,
                -0.3861061132667296,
                0.03929170361422729,
                -2.6187631675857466
            ]
        },
        {
            "positions": [
                -1.0726682413212905,
                -1.0692841911979025,
                1.9764593516796043,
                -0.5040552098881057,
                0.14593152874793125,
                -2.7427604423159115
            ]
        },
        {
            "positions": [
                -1.0807525377472444,
                -1.086580665142821,
                1.9904438301710914,
                -0.6220043065094814,
                0.25257135388163565,
                -2.8667577170460765
            ]
        },
        {
            "positions": [
                -1.0888368341731984,
                -1.1038771390877393,
                2.004428308662579,
                -0.739953403130857,
                0.3592111790153396,
                -2.990754991776241
            ]
        },
        {
            "positions": [
                -1.0969211305991524,
                -1.1211736130326577,
                2.018412787154066,
                -0.8579024997522325,
                0.4658510041490438,
                -3.114752266506406
            ]
        }
    ]
}