{
    "goal": {
        "global_pose": {
            "orientation": {
                "w": -0.4816463035849501,
                "x": 0.5182115481033762,
                "y": 0.4908360881923453,
                "z": -0.5084816262002911
            },
            "position": {
                "x": -0.8240239810943604,
                "y": -0.300875300988555,
                "z": 0.16403168439865112
            }
        },
        "name": "move_to_storage_C"
    },
    "id": "LBKPIECE_move_to_storage_C_70",
    "joint_names": [
        "shoulder_pan_joint",
        "shoulder_lift_joint",
        "elbow_joint",
        "wrist_1_joint",
        "wrist_2_joint",
        "wrist_3_joint"
    ],
    "metrics": {
        "cart_traj_len": 0.5759374087148554,
        "distance_elbow_joint": 0.2597388941235439,
        "distance_shoulder_lift_joint": 0.1894618773350346,
        "distance_shoulder_pan_joint": 0.4949795130393806,
        "distance_wrist_1_joint": 0.08767130527796352,
        "distance_wrist_2_joint": 1.0592750037897103,
        "distance_wrist_3_joint": 0.06583390400482836,
        "smoothness": 2.5376526478085547e-16,
        "time": 1.542025054,
        "traj_len": 1.468659421911854,
        "weighted_distance": 1.853530311229841
    },
    "planner": "LBKPIECE",
    "start": {
        "state": {
            "elbow_joint": 2.010868315001653,
            "shoulder_lift_joint": -1.1634956873357014,
            "shoulder_pan_joint": -2.4736205022346103,
            "wrist_1_joint": -0.8367026794713948,
            "wrist_2_joint": 0.6746043897044093,
            "wrist_3_joint": 3.1335220948105738
        }
    },
    "waypoints": [
        {
            "positions": [
                -2.4736205022346103,
                -1.1634956873357014,
                2.010868315001653,
                -0.8367026794713948,
                0.6746043897044093,
                3.1335220948105738
            ]
        },
        {
            "positions": [
                -2.556117087741174,
                -1.1319187077798623,
                1.9675784993143957,
                -0.8220907952584009,
                0.851150223669361,
                3.144494412144712
            ]
        },
        {
            "positions": [
                -2.638613673247737,
                -1.100341728224023,
                1.9242886836271385,
                -0.8074789110454069,
                1.0276960576343126,
                3.15546672947885
            ]
        },
        {
            "positions": [
                -2.7211102587543006,
                -1.0687647486681842,
                1.8809988679398812,
                -0.792867026832413,
                1.2042418915992643,
                3.1664390468129877
            ]
        },
        {
            "positions": [
                -2.803606844260864,
                -1.037187769112345,
                1.8377090522526238,
                -0.7782551426194191,
                1.380787725564216,
                3.177411364147126
            ]
        },
        {
            "positions": [
                -2.8861034297674273,
                -1.0056107895565058,
                1.7944192365653664,
                -0.7636432584064252,
                1.5573335595291677,
                3.1883836814812643
            ]
        },
        {
            "positions": [
                -2.968600015273991,
                -0.9740338100006668,
                1.7511294208781092,
                -0.7490313741934312,
                1.7338793934941195,
                3.199355998815402
            ]
        }
    ]
}