{
    "goal": {
        "global_pose": {
            "orientation": {
                "w": -0.00223480608172531,
                "x": 0.0024358444001904467,
                "y": 0.7094548369677653,
                "z": -0.704743149386269
            },
            "position": {
                "x": 0.6205249238014221,
                "y": -0.6371506643295288,
                "z": 0.19426114857196808
            }
        },
        "name": "move_to_magneteinheit_B"
    },
    "id": "LBKPIECE_move_to_magneteinheit_B_123",
    "joint_names": [
        "shoulder_pan_joint",
        "shoulder_lift_joint",
        "elbow_joint",
        "wrist_1_joint",
        "wrist_2_joint",
        "wrist_3_joint"
    ],
    "metrics": {
        "cart_traj_len": 1.452046493792535,
        "distance_elbow_joint": 0.7264590176549319,
        "distance_shoulder_lift_joint": 1.2462202533982374,
        "distance_shoulder_pan_joint": 1.62046032689226,
        "distance_wrist_1_joint": 2.6126639366427766,
        "distance_wrist_2_joint": 2.9400405509561973,
        "distance_wrist_3_joint": 3.1329715781357304,
        "smoothness": 6.106226668131838e-16,
        "time": 1.7099669800000001,
        "traj_len": 3.5041141054024094,
        "weighted_distance": 4.908916714260955
    },
    "planner": "LBKPIECE",
    "start": {
        "state": {
            "elbow_joint": 2.3935871308073637,
            "shoulder_lift_joint": -1.9085141043777403,
            "shoulder_pan_joint": 0.7066247067284167,
            "wrist_1_joint": -0.46782909355067076,
            "wrist_2_joint": 0.7096259085804283,
            "wrist_3_joint": -3.1358149275257428
        }
    },
    "waypoints": [
        {
            "positions": [
                0.7066247067284167,
                -1.9085141043777403,
                2.3935871308073637,
                -0.46782909355067076,
                0.7096259085804283,
                -3.1358149275257428
            ]
        },
        {
            "positions": [
                0.6543517929576986,
                -1.8683134510423132,
                2.370152968947527,
                -0.38354961172348445,
                0.6147858908076478,
                -3.034751328231042
            ]
        },
        {
            "positions": [
                0.6020788791869806,
                -1.8281127977068863,
                2.3467188070876905,
                -0.2992701298962981,
                0.5199458730348672,
                -2.933687728936341
            ]
        },
        {
            "positions": [
                0.5498059654162626,
                -1.7879121443714592,
                2.3232846452278544,
                -0.21499064806911172,
                0.4251058552620866,
                -2.8326241296416397
            ]
        },
        {
            "positions": [
                0.49753305164554446,
                -1.7477114910360323,
                2.299850483368018,
                -0.13071116624192541,
                0.33026583748930605,
                -2.731560530346939
            ]
        },
        {
            "positions": [
                0.4452601378748264,
                -1.7075108377006052,
                2.276416321508181,
                -0.04643168441473905,
                0.2354258197165255,
                -2.630496931052238
            ]
        },
        {
            "positions": [
                0.39298722410410836,
                -1.6673101843651783,
                2.2529821596483446,
                0.037847797412447315,
                0.14058580194374493,
                -2.529433331757537
            ]
        },
        {
            "positions": [
                0.3407143103333903,
                -1.6271095310297512,
                2.229547997788508,
                0.12212727923963357,
                0.04574578417096442,
                -2.428369732462836
            ]
        },
        {
            "positions": [
                0.2884413965626722,
                -1.586908877694324,
                2.206113835928672,
                0.20640676106681993,
                -0.049094233601816195,
                -2.327306133168135
            ]
        },
        {
            "positions": [
                0.23616848279195413,
                -1.5467082243588972,
                2.1826796740688352,
                0.2906862428940064,
                -0.1439342513745968,
                -2.226242533873434
            ]
        },
        {
            "positions": [
                0.18389556902123605,
                -1.50650757102347,
                2.1592455122089986,
                0.37496572472119266,
                -0.23877426914737732,
                -2.125178934578733
            ]
        },
        {
            "positions": [
                0.13162265525051797,
                -1.4663069176880432,
                2.135811350349162,
                0.459245206548379,
                -0.3336142869201578,
                -2.0241153352840318
            ]
        },
        {
            "positions": [
                0.0793497414798,
                -1.4261062643526161,
                2.1123771884893254,
                0.5435246883755653,
                -0.42845430469293844,
                -1.923051735989331
            ]
        },
        {
            "positions": [
                0.02707682770908182,
                -1.385905611017189,
                2.0889430266294893,
                0.6278041702027517,
                -0.523294322465719,
                -1.82198813669463
            ]
        },
        {
            "positions": [
                -0.025196086061636147,
                -1.3457049576817621,
                2.0655088647696527,
                0.7120836520299378,
                -0.6181343402384994,
                -1.7209245373999291
            ]
        },
        {
            "positions": [
                -0.07746899983235422,
                -1.305504304346335,
                2.042074702909816,
                0.7963631338571244,
                -0.7129743580112801,
                -1.619860938105228
            ]
        },
        {
            "positions": [
                -0.1297419136030723,
                -1.2653036510109081,
                2.0186405410499795,
                0.8806426156843106,
                -0.8078143757840607,
                -1.5187973388105271
            ]
        },
        {
            "positions": [
                -0.18201482737379027,
                -1.225102997675481,
                1.995206379190143,
                0.9649220975114969,
                -0.9026543935568411,
                -1.4177337395158263
            ]
        },
        {
            "positions": [
                -0.23428774114450845,
                -1.184902344340054,
                1.9717722173303065,
                1.0492015793386835,
                -0.9974944113296219,
                -1.316670140221125
            ]
        },
        {
            "positions": [
                -0.28656065491522653,
                -1.144701691004627,
                1.94833805547047,
                1.1334810611658697,
                -1.0923344291024022,
                -1.215606540926424
            ]
        },
        {
            "positions": [
                -0.3388335686859446,
                -1.1045010376692002,
                1.9249038936106335,
                1.217760542993056,
                -1.1871744468751828,
                -1.1145429416317234
            ]
        },
        {
            "positions": [
                -0.39110648245666246,
                -1.064300384333773,
                1.901469731750797,
                1.3020400248202422,
                -1.2820144646479634,
                -1.0134793423370225
            ]
        },
        {
            "positions": [
                -0.44337939622738076,
                -1.024099730998346,
                1.8780355698909603,
                1.3863195066474288,
                -1.376854482420744,
                -0.9124157430423212
            ]
        },
        {
            "positions": [
                -0.49565230999809884,
                -0.983899077662919,
                1.854601408031124,
                1.4705989884746151,
                -1.4716945001935247,
                -0.8113521437476203
            ]
        },
        {
            "positions": [
                -0.5479252237688167,
                -0.943698424327492,
                1.8311672461712876,
                1.5548784703018015,
                -1.5665345179663053,
                -0.7102885444529194
            ]
        },
        {
            "positions": [
                -0.6001981375395348,
                -0.9034977709920651,
                1.807733084311451,
                1.6391579521289876,
                -1.6613745357390854,
                -0.6092249451582186
            ]
        },
        {
            "positions": [
                -0.6524710513102531,
                -0.863297117656638,
                1.7842989224516144,
                1.7234374339561742,
                -1.7562145535118665,
                -0.5081613458635172
            ]
        },
        {
            "positions": [
                -0.7047439650809709,
                -0.8230964643212109,
                1.7608647605917778,
                1.8077169157833604,
                -1.8510545712846471,
                -0.40709774656881637
            ]
        },
        {
            "positions": [
                -0.757016878851689,
                -0.782895810985784,
                1.7374305987319414,
                1.8919963976105465,
                -1.9458945890574273,
                -0.3060341472741155
            ]
        },
        {
            "positions": [
                -0.8092897926224071,
                -0.7426951576503569,
                1.713996436872105,
                1.976275879437733,
                -2.040734606830208,
                -0.2049705479794146
            ]
        },
        {
            "positions": [
                -0.8615627063931252,
                -0.7024945043149298,
                1.6905622750122684,
                2.0605553612649197,
                -2.1355746246029885,
                -0.10390694868471329
            ]
        },
        {
            "positions": [
                -0.9138356201638431,
                -0.6622938509795029,
                1.6671281131524318,
                2.144834843092106,
                -2.230414642375769,
                -0.0028433493900124817
            ]
        }
    ]
}