{
    "goal": {
        "global_pose": {
            "orientation": {
                "w": 0.005598929693374612,
                "x": 0.007748599140229565,
                "y": 0.7110244013736278,
                "z": -0.7031023480610252
            },
            "position": {
                "x": -0.8858502320852131,
                "y": -0.7141253447532654,
                "z": 0.3711530566215515
            }
        },
        "name": "move_to_auspresseinheit_C"
    },
    "id": "LBKPIECE_move_to_auspresseinheit_C_47",
    "joint_names": [
        "shoulder_pan_joint",
        "shoulder_lift_joint",
        "elbow_joint",
        "wrist_1_joint",
        "wrist_2_joint",
        "wrist_3_joint"
    ],
    "metrics": {
        "cart_traj_len": 0.4925513269109595,
        "distance_elbow_joint": 0.988898238489305,
        "distance_shoulder_lift_joint": 0.3201908531357619,
        "distance_shoulder_pan_joint": 0.2569785085075105,
        "distance_wrist_1_joint": 0.6570073777802221,
        "distance_wrist_2_joint": 1.3067345871961145,
        "distance_wrist_3_joint": 0.053878971226773764,
        "smoothness": 8.074349282788172e-16,
        "time": 1.943970747,
        "traj_len": 1.8930632679167612,
        "weighted_distance": 2.3780640117048097
    },
    "planner": "LBKPIECE",
    "start": {
        "state": {
            "elbow_joint": 1.752795957773711,
            "shoulder_lift_joint": -0.9740617694225064,
            "shoulder_pan_joint": -2.967991417825858,
            "wrist_1_joint": -0.7595177689806859,
            "wrist_2_joint": 1.7443932448377395,
            "wrist_3_joint": 3.199131542505932
        }
    },
    "waypoints": [
        {
            "positions": [
                -2.967991417825858,
                -0.9740617694225064,
                1.752795957773711,
                -0.7595177689806859,
                1.7443932448377395,
                3.199131542505932
            ]
        },
        {
            "positions": [
                -2.942293566975107,
                -0.9420426841089302,
                1.6539061339247807,
                -0.6938170312026637,
                1.613719786118128,
                3.193743645383255
            ]
        },
        {
            "positions": [
                -2.916595716124356,
                -0.9100235987953541,
                1.55501631007585,
                -0.6281162934246415,
                1.4830463273985166,
                3.1883557482605775
            ]
        },
        {
            "positions": [
                -2.8908978652736046,
                -0.8780045134817779,
                1.4561264862269196,
                -0.5624155556466193,
                1.3523728686789052,
                3.1829678511379
            ]
        },
        {
            "positions": [
                -2.8652000144228538,
                -0.8459854281682017,
                1.357236662377989,
                -0.49671481786859706,
                1.2216994099592937,
                3.1775799540152225
            ]
        },
        {
            "positions": [
                -2.839502163572103,
                -0.8139663428546255,
                1.2583468385290586,
                -0.43101408009057485,
                1.0910259512396823,
                3.1721920568925452
            ]
        },
        {
            "positions": [
                -2.8138043127213517,
                -0.7819472575410493,
                1.159457014680128,
                -0.36531334231255264,
                0.9603524925200708,
                3.166804159769868
            ]
        },
        {
            "positions": [
                -2.7881064618706004,
                -0.7499281722274731,
                1.0605671908311978,
                -0.2996126045345305,
                0.8296790338004595,
                3.1614162626471907
            ]
        },
        {
            "positions": [
                -2.7624086110198496,
                -0.7179090869138969,
                0.961677366982267,
                -0.2339118667565082,
                0.6990055750808479,
                3.156028365524513
            ]
        },
        {
            "positions": [
                -2.7367107601690988,
                -0.6858900016003207,
                0.8627875431333366,
                -0.168211128978486,
                0.5683321163612365,
                3.1506404684018356
            ]
        },
        {
            "positions": [
                -2.7110129093183475,
                -0.6538709162867445,
                0.7638977192844061,
                -0.10251039120046382,
                0.4376586576416249,
                3.1452525712791584
            ]
        }
    ]
}