{
    "goal": {
        "global_pose": {
            "orientation": {
                "w": 0.5084816217422485,
                "x": -0.49083608388900757,
                "y": 0.5182115435600281,
                "z": -0.4816462993621826
            },
            "position": {
                "x": 0.5540239810943604,
                "y": 0.030875300988554955,
                "z": 0.16403168439865112
            }
        },
        "name": "move_to_storage_A"
    },
    "id": "LBKPIECE_move_to_storage_A_24",
    "joint_names": [
        "shoulder_pan_joint",
        "shoulder_lift_joint",
        "elbow_joint",
        "wrist_1_joint",
        "wrist_2_joint",
        "wrist_3_joint"
    ],
    "metrics": {
        "cart_traj_len": 0.35253270658669605,
        "distance_elbow_joint": 0.44709997581201577,
        "distance_shoulder_lift_joint": 0.23339683929455424,
        "distance_shoulder_pan_joint": 0.46199619075109627,
        "distance_wrist_1_joint": 0.23580954369429874,
        "distance_wrist_2_joint": 1.0922720479750252,
        "distance_wrist_3_joint": 0.08995567494611789,
        "smoothness": 4.440892133664971e-16,
        "time": 4.891680182,
        "traj_len": 1.6001657015675308,
        "weighted_distance": 2.0170580591630642
    },
    "planner": "LBKPIECE",
    "start": {
        "state": {
            "elbow_joint": 1.9715474177455299,
            "shoulder_lift_joint": -1.139484666580328,
            "shoulder_pan_joint": 0.12281154398918248,
            "wrist_1_joint": -0.7804687475355282,
            "wrist_2_joint": 0.12958649657246987,
            "wrist_3_joint": -3.1924925159053466
        }
    },
    "waypoints": [
        {
            "positions": [
                0.12281154398918248,
                -1.139484666580328,
                1.9715474177455299,
                -0.7804687475355282,
                0.12958649657246987,
                -3.1924925159053466
            ]
        },
        {
            "positions": [
                0.05681208816759731,
                -1.1728270721938356,
                2.035418842861532,
                -0.8141558252061423,
                0.2856253605689021,
                -3.179641705198758
            ]
        },
        {
            "positions": [
                -0.009187367653987866,
                -1.2061694778073435,
                2.0992902679775343,
                -0.8478429028767565,
                0.4416642245653343,
                -3.16679089449217
            ]
        },
        {
            "positions": [
                -0.07518682347557304,
                -1.2395118834208512,
                2.1631616930935365,
                -0.8815299805473705,
                0.5977030885617665,
                -3.1539400837855815
            ]
        },
        {
            "positions": [
                -0.1411862792971582,
                -1.272854289034359,
                2.2270331182095386,
                -0.9152170582179846,
                0.7537419525581986,
                -3.1410892730789937
            ]
        },
        {
            "positions": [
                -0.20718573511874344,
                -1.3061966946478667,
                2.2909045433255413,
                -0.9489041358885988,
                0.9097808165546309,
                -3.1282384623724053
            ]
        },
        {
            "positions": [
                -0.27318519094032856,
                -1.3395391002613746,
                2.3547759684415435,
                -0.9825912135592128,
                1.065819680551063,
                -3.115387651665817
            ]
        },
        {
            "positions": [
                -0.3391846467619138,
                -1.3728815058748822,
                2.4186473935575457,
                -1.016278291229827,
                1.2218585445474952,
                -3.1025368409592287
            ]
        }
    ]
}