{
    "goal": {
        "global_pose": {
            "orientation": {
                "w": -0.00223480608172531,
                "x": 0.0024358444001904467,
                "y": 0.7094548369677653,
                "z": -0.704743149386269
            },
            "position": {
                "x": -0.37947507619857795,
                "y": -0.6371506643295288,
                "z": 0.19426114857196808
            }
        },
        "name": "move_to_magneteinheit_C"
    },
    "id": "LBKPIECE_move_to_magneteinheit_C_4",
    "joint_names": [
        "shoulder_pan_joint",
        "shoulder_lift_joint",
        "elbow_joint",
        "wrist_1_joint",
        "wrist_2_joint",
        "wrist_3_joint"
    ],
    "metrics": {
        "cart_traj_len": 5.17252859851284,
        "distance_elbow_joint": 0.7451269602304627,
        "distance_shoulder_lift_joint": 2.503764197982985,
        "distance_shoulder_pan_joint": 7.376717666384973,
        "distance_wrist_1_joint": 3.0618098447619904,
        "distance_wrist_2_joint": 1.3825044972218579,
        "distance_wrist_3_joint": 3.581166239149748,
        "smoothness": 0.7061480247729993,
        "time": 3.485596742,
        "traj_len": 4.318690705032257,
        "weighted_distance": 5.500703248314287
    },
    "planner": "LBKPIECE",
    "start": {
        "state": {
            "elbow_joint": 1.9565354006590394,
            "shoulder_lift_joint": -1.4165861576513559,
            "shoulder_pan_joint": -1.6717766223277177,
            "wrist_1_joint": -0.5286633288215096,
            "wrist_2_joint": 1.4727565892594296,
            "wrist_3_joint": 3.1593482883155493
        }
    },
    "waypoints": [
        {
            "positions": [
                -1.6717766223277177,
                -1.4165861576513559,
                1.9565354006590394,
                -0.5286633288215096,
                1.4727565892594296,
                3.1593482883155493
            ]
        },
        {
            "positions": [
                -1.5288667360166923,
                -1.4655102672662024,
                1.9414483002669602,
                -0.46852138228373574,
                1.4253095455009155,
                3.080702253411977
            ]
        },
        {
            "positions": [
                -1.3859568497056667,
                -1.5144343768810486,
                1.9263611998748809,
                -0.4083794357459619,
                1.3778625017424013,
                3.002056218508404
            ]
        },
        {
            "positions": [
                -1.2430469633946413,
                -1.5633584864958951,
                1.9112740994828017,
                -0.3482374892081881,
                1.3304154579838872,
                2.9234101836048314
            ]
        },
        {
            "positions": [
                -1.1001370770836156,
                -1.6122825961107414,
                1.8961869990907223,
                -0.28809554267041426,
                1.2829684142253732,
                2.8447641487012585
            ]
        },
        {
            "positions": [
                -0.9572271907725902,
                -1.661206705725588,
                1.8810998986986431,
                -0.22795359613264043,
                1.235521370466859,
                2.766118113797686
            ]
        },
        {
            "positions": [
                -0.8143173044615647,
                -1.7101308153404342,
                1.8660127983065637,
                -0.1678116495948666,
                1.188074326708345,
                2.687472078894113
            ]
        },
        {
            "positions": [
                -0.6714074181505392,
                -1.7590549249552807,
                1.8509256979144846,
                -0.10766970305709272,
                1.1406272829498307,
                2.6088260439905406
            ]
        },
        {
            "positions": [
                -0.5284975318395138,
                -1.8079790345701272,
                1.8358385975224052,
                -0.04752775651931895,
                1.0931802391913168,
                2.530180009086968
            ]
        },
        {
            "positions": [
                -0.3855876455284881,
                -1.8569031441849737,
                1.820751497130326,
                0.012614190018454985,
                1.0457331954328026,
                2.4515339741833952
            ]
        },
        {
            "positions": [
                -0.2426777592174627,
                -1.90582725379982,
                1.8056643967382466,
                0.0727561365562287,
                0.9982861516742885,
                2.3728879392798228
            ]
        },
        {
            "positions": [
                -0.09976787290643707,
                -1.9547513634146665,
                1.7905772963461675,
                0.13289808309400264,
                0.9508391079157743,
                2.29424190437625
            ]
        },
        {
            "positions": [
                0.04314201340458834,
                -2.0036754730295128,
                1.775490195954088,
                0.19304002963177636,
                0.9033920641572601,
                2.2155958694726774
            ]
        },
        {
            "positions": [
                0.18605189971561376,
                -2.0525995826443593,
                1.760403095562009,
                0.2531819761695502,
                0.8559450203987461,
                2.136949834569105
            ]
        },
        {
            "positions": [
                0.3289617860266394,
                -2.1015236922592058,
                1.7453159951699295,
                0.3133239227073241,
                0.8084979766402318,
                2.058303799665532
            ]
        },
        {
            "positions": [
                0.4718716723376648,
                -2.1504478018740523,
                1.7302288947778504,
                0.37346586924509795,
                0.7610509328817178,
                1.9796577647619593
            ]
        },
        {
            "positions": [
                0.6147815586486902,
                -2.1993719114888983,
                1.715141794385771,
                0.43360781578287166,
                0.7136038891232037,
                1.9010117298583866
            ]
        },
        {
            "positions": [
                0.7576914449597156,
                -2.248296021103745,
                1.7000546939936918,
                0.4937497623206456,
                0.6661568453646896,
                1.8223656949548142
            ]
        },
        {
            "positions": [
                0.9006013312707415,
                -2.2972201307185913,
                1.6849675936016124,
                0.5538917088584195,
                0.6187098016061754,
                1.7437196600512412
            ]
        },
        {
            "positions": [
                1.043511217581767,
                -2.346144240333438,
                1.6698804932095332,
                0.6140336553961933,
                0.5712627578476613,
                1.6650736251476685
            ]
        },
        {
            "positions": [
                1.1864211038927923,
                -2.395068349948284,
                1.6547933928174539,
                0.674175601933967,
                0.5238157140891472,
                1.586427590244096
            ]
        },
        {
            "positions": [
                1.3293309902038177,
                -2.4439924595631304,
                1.6397062924253747,
                0.7343175484717409,
                0.4763686703306331,
                1.5077815553405234
            ]
        },
        {
            "positions": [
                1.4722408765148436,
                -2.492916569177977,
                1.6246191920332955,
                0.7944594950095148,
                0.42892162657211896,
                1.4291355204369507
            ]
        },
        {
            "positions": [
                1.615150762825869,
                -2.5418406787928234,
                1.6095320916412161,
                0.8546014415472887,
                0.3814745828136048,
                1.350489485533378
            ]
        },
        {
            "positions": [
                1.4515591515766135,
                -2.486700291719163,
                1.6254570376897217,
                0.787459638571561,
                0.39312348244464607,
                1.421381782988081
            ]
        },
        {
            "positions": [
                1.287967540327358,
                -2.431559904645502,
                1.6413819837382273,
                0.7203178355958333,
                0.40477238207568733,
                1.492274080442784
            ]
        },
        {
            "positions": [
                1.1243759290781028,
                -2.3764195175718417,
                1.6573069297867329,
                0.6531760326201057,
                0.4164212817067286,
                1.5631663778974871
            ]
        },
        {
            "positions": [
                0.9607843178288473,
                -2.321279130498181,
                1.6732318758352385,
                0.5860342296443779,
                0.42807018133776986,
                1.6340586753521902
            ]
        },
        {
            "positions": [
                0.7971927065795918,
                -2.2661387434245204,
                1.689156821883744,
                0.5188924266686503,
                0.4397190809688111,
                1.7049509728068932
            ]
        },
        {
            "positions": [
                0.6336010953303365,
                -2.2109983563508595,
                1.7050817679322496,
                0.4517506236929227,
                0.4513679805998524,
                1.7758432702615963
            ]
        },
        {
            "positions": [
                0.4700094840810809,
                -2.155857969277199,
                1.7210067139807552,
                0.38460882071719493,
                0.4630168802308937,
                1.8467355677162993
            ]
        },
        {
            "positions": [
                0.30641787283182564,
                -2.100717582203538,
                1.7369316600292608,
                0.31746701774146724,
                0.4746657798619349,
                1.9176278651710024
            ]
        },
        {
            "positions": [
                0.14282626158257017,
                -2.045577195129878,
                1.7528566060777664,
                0.25032521476573966,
                0.4863146794929762,
                1.9885201626257052
            ]
        },
        {
            "positions": [
                -0.020765349666685307,
                -1.990436808056217,
                1.768781552126272,
                0.18318341179001196,
                0.49796357912401745,
                2.0594124600804085
            ]
        },
        {
            "positions": [
                -0.18435696091594056,
                -1.9352964209825565,
                1.7847064981747776,
                0.11604160881428427,
                0.5096124787550588,
                2.1303047575351113
            ]
        },
        {
            "positions": [
                -0.34794857216519604,
                -1.8801560339088956,
                1.8006314442232831,
                0.04889980583855669,
                0.5212613783861,
                2.2011970549898145
            ]
        },
        {
            "positions": [
                -0.5115401834144517,
                -1.8250156468352352,
                1.8165563902717885,
                -0.018241997137171118,
                0.5329102780171413,
                2.2720893524445174
            ]
        },
        {
            "positions": [
                -0.6751317946637072,
                -1.7698752597615743,
                1.8324813363202943,
                -0.08538380011289881,
                0.5445591776481826,
                2.3429816498992206
            ]
        },
        {
            "positions": [
                -0.8387234059129622,
                -1.714734872687914,
                1.8484062823687997,
                -0.1525256030886264,
                0.5562080772792238,
                2.4138739473539235
            ]
        },
        {
            "positions": [
                -1.0023150171622177,
                -1.659594485614253,
                1.8643312284173055,
                -0.2196674060643542,
                0.567856976910265,
                2.4847662448086263
            ]
        },
        {
            "positions": [
                -1.1659066284114732,
                -1.6044540985405926,
                1.8802561744658108,
                -0.2868092090400818,
                0.5795058765413064,
                2.5556585422633296
            ]
        },
        {
            "positions": [
                -1.3294982396607287,
                -1.549313711466932,
                1.8961811205143164,
                -0.35395101201580936,
                0.5911547761723476,
                2.626550839718033
            ]
        },
        {
            "positions": [
                -1.4930898509099841,
                -1.4941733243932713,
                1.912106066562822,
                -0.42109281499153717,
                0.6028036758033889,
                2.6974431371727356
            ]
        },
        {
            "positions": [
                -1.6566814621592396,
                -1.4390329373196107,
                1.9280310126113276,
                -0.48823461796726475,
                0.6144525754344301,
                2.768335434627439
            ]
        },
        {
            "positions": [
                -1.8202730734084946,
                -1.38389255024595,
                1.9439559586598332,
                -0.5553764209429923,
                0.6261014750654714,
                2.8392277320821417
            ]
        },
        {
            "positions": [
                -1.9838646846577501,
                -1.3287521631722894,
                1.9598809047083388,
                -0.6225182239187201,
                0.6377503746965127,
                2.910120029536845
            ]
        },
        {
            "positions": [
                -2.147456295907006,
                -1.2736117760986287,
                1.9758058507568443,
                -0.6896600268944479,
                0.649399274327554,
                2.981012326991548
            ]
        },
        {
            "positions": [
                -2.311047907156261,
                -1.218471389024968,
                1.99173079680535,
                -0.7568018298701753,
                0.6610481739585952,
                3.0519046244462507
            ]
        },
        {
            "positions": [
                -2.474639518405516,
                -1.1633310019513075,
                2.0076557428538555,
                -0.8239436328459031,
                0.6726970735896365,
                3.122796921900954
            ]
        }
    ]
}