{
    "goal": {
        "global_pose": {
            "orientation": {
                "w": 0.5084816262002911,
                "x": -0.4908360881923452,
                "y": 0.5182115481033761,
                "z": -0.48164630358495003
            },
            "position": {
                "x": 0.5540239810943604,
                "y": -0.46912469901144505,
                "z": 0.16403168439865112
            }
        },
        "name": "move_to_storage_B"
    },
    "id": "LBKPIECE_move_to_storage_B_27",
    "joint_names": [
        "shoulder_pan_joint",
        "shoulder_lift_joint",
        "elbow_joint",
        "wrist_1_joint",
        "wrist_2_joint",
        "wrist_3_joint"
    ],
    "metrics": {
        "cart_traj_len": 0.6456917516955848,
        "distance_elbow_joint": 0.35722346704564045,
        "distance_shoulder_lift_joint": 0.46146328634707445,
        "distance_shoulder_pan_joint": 0.34659769084899705,
        "distance_wrist_1_joint": 3.021524247354704,
        "distance_wrist_2_joint": 2.702530590643449,
        "distance_wrist_3_joint": 3.113284311621475,
        "smoothness": 0.013228157720295095,
        "time": 4.0210975,
        "traj_len": 3.1626924595763874,
        "weighted_distance": 4.685429228480826
    },
    "planner": "LBKPIECE",
    "start": {
        "state": {
            "elbow_joint": 1.6649325706314817,
            "shoulder_lift_joint": -0.6616388048112454,
            "shoulder_pan_joint": -0.9139837860083814,
            "wrist_1_joint": 2.146757197745094,
            "wrist_2_joint": -2.234196043158733,
            "wrist_3_joint": 0.005471033829999897
        }
    },
    "waypoints": [
        {
            "positions": [
                -0.9139837860083814,
                -0.6616388048112454,
                1.6649325706314817,
                2.146757197745094,
                -2.234196043158733,
                0.005471033829999897
            ]
        },
        {
            "positions": [
                -0.9517622355253791,
                -0.6938418605321038,
                1.6795805995009567,
                1.975707289866115,
                -2.1178537412172744,
                -0.018412229461321386
            ]
        },
        {
            "positions": [
                -0.9895406850423768,
                -0.7260449162529623,
                1.6942286283704315,
                1.8046573819871359,
                -2.0015114392758155,
                -0.04229549275264267
            ]
        },
        {
            "positions": [
                -1.0273191345593746,
                -0.7582479719738208,
                1.7088766572399066,
                1.6336074741081568,
                -1.8851691373343569,
                -0.06617875604396395
            ]
        },
        {
            "positions": [
                -1.0650975840763723,
                -0.7904510276946792,
                1.7235246861093816,
                1.4625575662291777,
                -1.7688268353928982,
                -0.09006201933528522
            ]
        },
        {
            "positions": [
                -1.10287603359337,
                -0.8226540834155377,
                1.7381727149788566,
                1.2915076583501985,
                -1.6524845334514395,
                -0.11394528262660653
            ]
        },
        {
            "positions": [
                -1.1406544831103678,
                -0.8548571391363962,
                1.7528207438483314,
                1.1204577504712194,
                -1.5361422315099809,
                -0.1378285459179278
            ]
        },
        {
            "positions": [
                -1.1784329326273655,
                -0.8870601948572546,
                1.7674687727178064,
                0.9494078425922404,
                -1.4197999295685222,
                -0.1617118092092491
            ]
        },
        {
            "positions": [
                -1.1741093250363122,
                -0.8994834525573107,
                1.780873365610402,
                0.8533986377395115,
                -1.3204244307762465,
                -0.3167697812398926
            ]
        },
        {
            "positions": [
                -1.1697857174452588,
                -0.9119067102573668,
                1.7942779585029975,
                0.7573894328867827,
                -1.2210489319839708,
                -0.47182775327053605
            ]
        },
        {
            "positions": [
                -1.1654621098542055,
                -0.9243299679574228,
                1.8076825513955932,
                0.6613802280340538,
                -1.121673433191695,
                -0.6268857253011795
            ]
        },
        {
            "positions": [
                -1.1611385022631522,
                -0.9367532256574789,
                1.8210871442881886,
                0.5653710231813249,
                -1.0222979343994194,
                -0.781943697331823
            ]
        },
        {
            "positions": [
                -1.1568148946720989,
                -0.9491764833575349,
                1.8344917371807843,
                0.4693618183285961,
                -0.9229224356071437,
                -0.9370016693624664
            ]
        },
        {
            "positions": [
                -1.1524912870810455,
                -0.9615997410575909,
                1.8478963300733797,
                0.37335261347586723,
                -0.823546936814868,
                -1.0920596413931098
            ]
        },
        {
            "positions": [
                -1.1481676794899922,
                -0.9740229987576471,
                1.8613009229659754,
                0.27734340862313833,
                -0.7241714380225923,
                -1.2471176134237534
            ]
        },
        {
            "positions": [
                -1.1438440718989389,
                -0.9864462564577031,
                1.874705515858571,
                0.18133420377040943,
                -0.6247959392303166,
                -1.402175585454397
            ]
        },
        {
            "positions": [
                -1.1395204643078856,
                -0.9988695141577592,
                1.8881101087511665,
                0.08532499891768064,
                -0.5254204404380408,
                -1.5572335574850402
            ]
        },
        {
            "positions": [
                -1.1351968567168325,
                -1.0112927718578153,
                1.9015147016437621,
                -0.010684205935048263,
                -0.4260449416457651,
                -1.7122915295156838
            ]
        },
        {
            "positions": [
                -1.1308732491257791,
                -1.0237160295578713,
                1.9149192945363576,
                -0.10669341078777717,
                -0.3266694428534893,
                -1.8673495015463273
            ]
        },
        {
            "positions": [
                -1.1265496415347258,
                -1.0361392872579274,
                1.9283238874289532,
                -0.20270261564050596,
                -0.22729394406121384,
                -2.022407473576971
            ]
        },
        {
            "positions": [
                -1.1222260339436725,
                -1.0485625449579834,
                1.9417284803215487,
                -0.29871182049323497,
                -0.12791844526893792,
                -2.1774654456076146
            ]
        },
        {
            "positions": [
                -1.1179024263526192,
                -1.0609858026580394,
                1.9551330732141443,
                -0.39472102534596376,
                -0.028542946476662445,
                -2.3325234176382574
            ]
        },
        {
            "positions": [
                -1.1135788187615658,
                -1.0734090603580957,
                1.96853766610674,
                -0.4907302301986928,
                0.07083255231561347,
                -2.487581389668901
            ]
        },
        {
            "positions": [
                -1.1092552111705125,
                -1.0858323180581517,
                1.9819422589993354,
                -0.5867394350514216,
                0.17020805110788895,
                -2.642639361699545
            ]
        },
        {
            "positions": [
                -1.1049316035794592,
                -1.0982555757582078,
                1.995346851891931,
                -0.6827486399041504,
                0.26958354990016486,
                -2.797697333730188
            ]
        },
        {
            "positions": [
                -1.1006079959884059,
                -1.1106788334582638,
                2.0087514447845267,
                -0.7787578447568791,
                0.36895904869244056,
                -2.9527553057608316
            ]
        },
        {
            "positions": [
                -1.0962843883973525,
                -1.1231020911583198,
                2.022156037677122,
                -0.874767049609608,
                0.4683345474847163,
                -3.107813277791475
            ]
        }
    ]
}