{
    "goal": {
        "global_pose": {
            "orientation": {
                "w": -0.4816463035849501,
                "x": 0.5182115481033762,
                "y": 0.4908360881923453,
                "z": -0.5084816262002911
            },
            "position": {
                "x": -0.8240239810943604,
                "y": 0.19912469901144506,
                "z": 0.16403168439865112
            }
        },
        "name": "move_to_storage_D"
    },
    "id": "LBKPIECE_move_to_storage_D_36",
    "joint_names": [
        "shoulder_pan_joint",
        "shoulder_lift_joint",
        "elbow_joint",
        "wrist_1_joint",
        "wrist_2_joint",
        "wrist_3_joint"
    ],
    "metrics": {
        "cart_traj_len": 2.9130201409220713,
        "distance_elbow_joint": 4.209562319373956,
        "distance_shoulder_lift_joint": 3.075720577242816,
        "distance_shoulder_pan_joint": 2.872901311848652,
        "distance_wrist_1_joint": 3.9952392154095255,
        "distance_wrist_2_joint": 3.751735990051017,
        "distance_wrist_3_joint": 3.1367370375410513,
        "smoothness": 0.33059996699281324,
        "time": 5.3252551100000005,
        "traj_len": 4.5871446948474395,
        "weighted_distance": 5.921346614749863
    },
    "planner": "LBKPIECE",
    "start": {
        "state": {
            "elbow_joint": -2.384821997420982,
            "shoulder_lift_joint": -2.2788054674887404,
            "shoulder_pan_joint": -0.18546946417610016,
            "wrist_1_joint": 1.4845937964226739,
            "wrist_2_joint": 0.1789877726866377,
            "wrist_3_joint": 0.03710572555276528
        }
    },
    "waypoints": [
        {
            "positions": [
                -0.18546946417610016,
                -2.2788054674887404,
                -2.384821997420982,
                1.4845937964226739,
                0.1789877726866377,
                0.03710572555276528
            ]
        },
        {
            "positions": [
                -0.1544224345353938,
                -2.1869898657616793,
                -2.3013548994621043,
                1.5247482921016469,
                0.06881558929855561,
                0.06823049648326664
            ]
        },
        {
            "positions": [
                -0.12337540489468746,
                -2.0951742640346187,
                -2.2178878015032266,
                1.5649027877806196,
                -0.041356594089526494,
                0.09935526741376799
            ]
        },
        {
            "positions": [
                -0.0923283752539811,
                -2.0033586623075577,
                -2.1344207035443494,
                1.6050572834595926,
                -0.1515287774776086,
                0.13048003834426936
            ]
        },
        {
            "positions": [
                -0.06128134561327475,
                -1.911543060580497,
                -2.050953605585472,
                1.6452117791385654,
                -0.2617009608656907,
                0.16160480927477072
            ]
        },
        {
            "positions": [
                -0.0302343159725684,
                -1.819727458853436,
                -1.9674865076265942,
                1.6853662748175384,
                -0.3718731442537728,
                0.1927295802052721
            ]
        },
        {
            "positions": [
                0.0008127136681379543,
                -1.7279118571263754,
                -1.8840194096677165,
                1.7255207704965114,
                -0.4820453276418549,
                0.22385435113577346
            ]
        },
        {
            "positions": [
                0.03185974330884428,
                -1.6360962553993144,
                -1.8005523117088393,
                1.7656752661754842,
                -0.5922175110299369,
                0.25497912206627477
            ]
        },
        {
            "positions": [
                0.06290677294955066,
                -1.5442806536722535,
                -1.7170852137499617,
                1.8058297618544572,
                -0.7023896944180191,
                0.28610389299677613
            ]
        },
        {
            "positions": [
                0.09395380259025699,
                -1.4524650519451927,
                -1.633618115791084,
                1.8459842575334302,
                -0.8125618778061011,
                0.31722866392727744
            ]
        },
        {
            "positions": [
                0.12500083223096337,
                -1.3606494502181319,
                -1.5501510178322064,
                1.886138753212403,
                -0.9227340611941833,
                0.34835343485777887
            ]
        },
        {
            "positions": [
                0.1560478618716697,
                -1.268833848491071,
                -1.466683919873329,
                1.926293248891376,
                -1.0329062445822652,
                0.3794782057882802
            ]
        },
        {
            "positions": [
                0.18709489151237607,
                -1.1770182467640102,
                -1.3832168219144514,
                1.966447744570349,
                -1.1430784279703474,
                0.4106029767187816
            ]
        },
        {
            "positions": [
                0.2181419211530824,
                -1.0852026450369494,
                -1.299749723955574,
                2.0066022402493218,
                -1.2532506113584294,
                0.4417277476492829
            ]
        },
        {
            "positions": [
                0.2878699632496022,
                -1.1110784432678507,
                -1.2263334367829488,
                1.9171377524253612,
                -1.189968621412657,
                0.5087787366176204
            ]
        },
        {
            "positions": [
                0.35759800534612196,
                -1.1369542414987517,
                -1.1529171496103237,
                1.8276732646014007,
                -1.1266866314668849,
                0.575829725585958
            ]
        },
        {
            "positions": [
                0.4273260474426417,
                -1.162830039729653,
                -1.0795008624376985,
                1.73820877677744,
                -1.0634046415211125,
                0.6428807145542956
            ]
        },
        {
            "positions": [
                0.49705408953916147,
                -1.1887058379605542,
                -1.0060845752650733,
                1.6487442889534794,
                -1.0001226515753403,
                0.7099317035226331
            ]
        },
        {
            "positions": [
                0.5667821316356811,
                -1.2145816361914552,
                -0.9326682880924481,
                1.5592798011295188,
                -0.9368406616295679,
                0.7769826924909706
            ]
        },
        {
            "positions": [
                0.636510173732201,
                -1.2404574344223565,
                -0.8592520009198228,
                1.469815313305558,
                -0.8735586716837958,
                0.8440336814593082
            ]
        },
        {
            "positions": [
                0.7062382158287208,
                -1.2663332326532577,
                -0.7858357137471976,
                1.3803508254815975,
                -0.8102766817380234,
                0.9110846704276458
            ]
        },
        {
            "positions": [
                0.7759662579252405,
                -1.292209030884159,
                -0.7124194265745725,
                1.290886337657637,
                -0.7469946917922511,
                0.9781356593959833
            ]
        },
        {
            "positions": [
                0.8456943000217603,
                -1.31808482911506,
                -0.6390031394019474,
                1.2014218498336764,
                -0.6837127018464789,
                1.0451866483643208
            ]
        },
        {
            "positions": [
                0.91542234211828,
                -1.3439606273459612,
                -0.5655868522293221,
                1.1119573620097158,
                -0.6204307119007065,
                1.1122376373326583
            ]
        },
        {
            "positions": [
                0.9851503842147998,
                -1.3698364255768625,
                -0.492170565056697,
                1.022492874185755,
                -0.5571487219549343,
                1.179288626300996
            ]
        },
        {
            "positions": [
                1.0548784263113196,
                -1.3957122238077635,
                -0.4187542778840717,
                0.9330283863617945,
                -0.493866732009162,
                1.2463396152693336
            ]
        },
        {
            "positions": [
                1.1246064684078394,
                -1.4215880220386647,
                -0.34533799071144655,
                0.8435638985378338,
                -0.4305847420633897,
                1.313390604237671
            ]
        },
        {
            "positions": [
                1.1943345105043592,
                -1.447463820269566,
                -0.2719217035388213,
                0.7540994107138732,
                -0.3673027521176173,
                1.3804415932060086
            ]
        },
        {
            "positions": [
                1.2640625526008789,
                -1.473339618500467,
                -0.19850541636619634,
                0.6646349228899127,
                -0.30402076217184515,
                1.447492582174346
            ]
        },
        {
            "positions": [
                1.3337905946973987,
                -1.4992154167313683,
                -0.12508912919357096,
                0.5751704350659521,
                -0.24073877222607276,
                1.5145435711426838
            ]
        },
        {
            "positions": [
                1.4035186367939185,
                -1.5250912149622695,
                -0.0516728420209458,
                0.48570594724199156,
                -0.1774567822803006,
                1.5815945601110213
            ]
        },
        {
            "positions": [
                1.4732466788904381,
                -1.5509670131931705,
                0.02174344515167914,
                0.396241459418031,
                -0.11417479233452843,
                1.6486455490793588
            ]
        },
        {
            "positions": [
                1.542974720986958,
                -1.5768428114240718,
                0.09515973232430452,
                0.30677697159407047,
                -0.05089280238875604,
                1.7156965380476963
            ]
        },
        {
            "positions": [
                1.6127027630834776,
                -1.602718609654973,
                0.16857601949692969,
                0.2173124837701097,
                0.012389187557016346,
                1.7827475270160338
            ]
        },
        {
            "positions": [
                1.6824308051799974,
                -1.628594407885874,
                0.24199230666955485,
                0.12784799594614915,
                0.07567117750278851,
                1.8497985159843715
            ]
        },
        {
            "positions": [
                1.7521588472765173,
                -1.6544702061167753,
                0.31540859384218,
                0.0383835081221886,
                0.1389531674485609,
                1.916849504952709
            ]
        },
        {
            "positions": [
                1.821886889373037,
                -1.6803460043476766,
                0.3888248810148054,
                -0.051080979701771945,
                0.20223515739433306,
                1.9839004939210465
            ]
        },
        {
            "positions": [
                1.891614931469557,
                -1.7062218025785776,
                0.46224116818743055,
                -0.14054546752573271,
                0.26551714734010545,
                2.050951482889384
            ]
        },
        {
            "positions": [
                1.9613429735660766,
                -1.7320976008094788,
                0.5356574553600557,
                -0.23000995534969348,
                0.32879913728587784,
                2.1180024718577215
            ]
        },
        {
            "positions": [
                2.0310710156625964,
                -1.75797339904038,
                0.6090737425326809,
                -0.31947444317365425,
                0.39208112723165,
                2.185053460826059
            ]
        },
        {
            "positions": [
                2.100799057759116,
                -1.783849197271281,
                0.682490029705306,
                -0.4089389309976146,
                0.4553631171774224,
                2.252104449794397
            ]
        },
        {
            "positions": [
                2.170527099855636,
                -1.8097249955021826,
                0.7559063168779314,
                -0.49840341882157535,
                0.5186451071231948,
                2.3191554387627344
            ]
        },
        {
            "positions": [
                2.2402551419521557,
                -1.8356007937330836,
                0.8293226040505566,
                -0.5878679066455361,
                0.581927097068967,
                2.386206427731072
            ]
        },
        {
            "positions": [
                2.3099831840486753,
                -1.8614765919639846,
                0.9027388912231813,
                -0.6773323944694964,
                0.6452090870147391,
                2.453257416699409
            ]
        },
        {
            "positions": [
                2.379711226145195,
                -1.8873523901948859,
                0.9761551783958069,
                -0.7667968822934568,
                0.7084910769605113,
                2.5203084056677465
            ]
        },
        {
            "positions": [
                2.449439268241715,
                -1.9132281884257871,
                1.049571465568432,
                -0.8562613701174175,
                0.7717730669062839,
                2.587359394636085
            ]
        },
        {
            "positions": [
                2.5191673103382346,
                -1.9391039866566881,
                1.1229877527410572,
                -0.9457258579413783,
                0.8350550568520558,
                2.6544103836044224
            ]
        },
        {
            "positions": [
                2.5888953524347547,
                -1.9649797848875896,
                1.1964040399136824,
                -1.0351903457653386,
                0.8983370467978282,
                2.72146137257276
            ]
        },
        {
            "positions": [
                2.6586233945312743,
                -1.9908555831184906,
                1.2698203270863078,
                -1.1246548335892994,
                0.9616190367436004,
                2.788512361541097
            ]
        },
        {
            "positions": [
                2.6545079012253776,
                -1.85136060930285,
                1.3490946120672602,
                -1.0758014481972629,
                0.9765658878727316,
                2.843559561762914
            ]
        },
        {
            "positions": [
                2.6503924079194805,
                -1.7118656354872097,
                1.4283688970482127,
                -1.026948062805226,
                0.9915127390018628,
                2.898606761984731
            ]
        },
        {
            "positions": [
                2.646276914613584,
                -1.5723706616715691,
                1.507643182029165,
                -0.9780946774131896,
                1.0064595901309938,
                2.953653962206548
            ]
        },
        {
            "positions": [
                2.6421614213076867,
                -1.4328756878559288,
                1.5869174670101174,
                -0.9292412920211529,
                1.0214064412601251,
                3.0087011624283653
            ]
        },
        {
            "positions": [
                2.63804592800179,
                -1.2933807140402882,
                1.6661917519910698,
                -0.8803879066291163,
                1.0363532923892562,
                3.0637483626501822
            ]
        },
        {
            "positions": [
                2.633930434695893,
                -1.1538857402246476,
                1.7454660369720223,
                -0.8315345212370796,
                1.0513001435183875,
                3.118795562871999
            ]
        },
        {
            "positions": [
                2.6298149413899963,
                -1.014390766409007,
                1.8247403219529748,
                -0.782681135845043,
                1.0662469946475186,
                3.173842763093816
            ]
        }
    ]
}