{
    "goal": {
        "global_pose": {
            "orientation": {
                "w": -0.4816463035849501,
                "x": 0.5182115481033762,
                "y": 0.4908360881923453,
                "z": -0.5084816262002911
            },
            "position": {
                "x": -0.8240239810943604,
                "y": -0.300875300988555,
                "z": 0.16403168439865112
            }
        },
        "name": "move_to_storage_C"
    },
    "id": "LBKPIECE_move_to_storage_C_56",
    "joint_names": [
        "shoulder_pan_joint",
        "shoulder_lift_joint",
        "elbow_joint",
        "wrist_1_joint",
        "wrist_2_joint",
        "wrist_3_joint"
    ],
    "metrics": {
        "cart_traj_len": 0.5765975968408311,
        "distance_elbow_joint": 0.2555370365862477,
        "distance_shoulder_lift_joint": 0.18890988764670935,
        "distance_shoulder_pan_joint": 0.49520566981322167,
        "distance_wrist_1_joint": 0.06518505948235853,
        "distance_wrist_2_joint": 1.0610008342809825,
        "distance_wrist_3_joint": 0.07229946794319053,
        "smoothness": 0.0,
        "time": 4.948193836000001,
        "traj_len": 1.4622373117085716,
        "weighted_distance": 1.846326836018594
    },
    "planner": "LBKPIECE",
    "start": {
        "state": {
            "elbow_joint": 2.010868315001653,
            "shoulder_lift_joint": -1.1634956873357014,
            "shoulder_pan_joint": -2.4736205022346103,
            "wrist_1_joint": -0.8367026794713948,
            "wrist_2_joint": 0.6746043897044093,
            "wrist_3_joint": 3.1335220948105738
        }
    },
    "waypoints": [
        {
            "positions": [
                -2.4736205022346103,
                -1.1634956873357014,
                2.010868315001653,
                -0.8367026794713948,
                0.6746043897044093,
                3.1335220948105738
            ]
        },
        {
            "positions": [
                -2.556154780536814,
                -1.1320107060612499,
                1.9682788089039451,
                -0.8258385028910017,
                0.8514378620845731,
                3.1455720061344388
            ]
        },
        {
            "positions": [
                -2.6386890588390175,
                -1.1005257247867983,
                1.9256893028062372,
                -0.8149743263106086,
                1.0282713344647367,
                3.157621917458304
            ]
        },
        {
            "positions": [
                -2.721223337141221,
                -1.0690407435123468,
                1.8830997967085292,
                -0.8041101497302154,
                1.2051048068449006,
                3.1696718287821692
            ]
        },
        {
            "positions": [
                -2.8037576154434247,
                -1.0375557622378953,
                1.8405102906108213,
                -0.7932459731498224,
                1.3819382792250643,
                3.1817217401060343
            ]
        },
        {
            "positions": [
                -2.8862918937456286,
                -1.0060707809634435,
                1.7979207845131133,
                -0.7823817965694293,
                1.558771751605228,
                3.1937716514298993
            ]
        },
        {
            "positions": [
                -2.968826172047832,
                -0.9745857996889921,
                1.7553312784154054,
                -0.7715176199890362,
                1.7356052239853919,
                3.2058215627537643
            ]
        }
    ]
}