{
    "goal": {
        "global_pose": {
            "orientation": {
                "w": 0.5084816262002911,
                "x": -0.4908360881923452,
                "y": 0.5182115481033761,
                "z": -0.48164630358495003
            },
            "position": {
                "x": 0.5540239810943604,
                "y": -0.46912469901144505,
                "z": 0.16403168439865112
            }
        },
        "name": "move_to_storage_B"
    },
    "id": "LBKPIECE_move_to_storage_B_128",
    "joint_names": [
        "shoulder_pan_joint",
        "shoulder_lift_joint",
        "elbow_joint",
        "wrist_1_joint",
        "wrist_2_joint",
        "wrist_3_joint"
    ],
    "metrics": {
        "cart_traj_len": 9.26530731462326,
        "distance_elbow_joint": 7.02792792807559,
        "distance_shoulder_lift_joint": 1.736234314092774,
        "distance_shoulder_pan_joint": 8.278198875610837,
        "distance_wrist_1_joint": 2.979972625337559,
        "distance_wrist_2_joint": 3.0672742586065946,
        "distance_wrist_3_joint": 3.1374144577270617,
        "smoothness": 0.27616991281102565,
        "time": 1.567518965,
        "traj_len": 5.121232513707069,
        "weighted_distance": 6.208792012851511
    },
    "planner": "LBKPIECE",
    "start": {
        "state": {
            "elbow_joint": 1.6649325706314817,
            "shoulder_lift_joint": -0.6616388048112454,
            "shoulder_pan_joint": -0.9139837860083814,
            "wrist_1_joint": 2.146757197745094,
            "wrist_2_joint": -2.234196043158733,
            "wrist_3_joint": 0.005471033829999897
        }
    },
    "waypoints": [
        {
            "positions": [
                -0.9139837860083814,
                -0.6616388048112454,
                1.6649325706314817,
                2.146757197745094,
                -2.234196043158733,
                0.005471033829999897
            ]
        },
        {
            "positions": [
                -0.8175805396330885,
                -0.6877756550911136,
                1.5854199966188665,
                2.076436818552429,
                -2.16539583212466,
                -0.04166907135704659
            ]
        },
        {
            "positions": [
                -0.7211772932577956,
                -0.7139125053709819,
                1.505907422606251,
                2.0061164393597637,
                -2.0965956210905867,
                -0.08880917654409307
            ]
        },
        {
            "positions": [
                -0.6247740468825027,
                -0.7400493556508502,
                1.4263948485936355,
                1.9357960601670985,
                -2.027795410056514,
                -0.13594928173113957
            ]
        },
        {
            "positions": [
                -0.5283708005072099,
                -0.7661862059307184,
                1.3468822745810203,
                1.8654756809744333,
                -1.9589951990224408,
                -0.18308938691818605
            ]
        },
        {
            "positions": [
                -0.4319675541319169,
                -0.7923230562105866,
                1.267369700568405,
                1.7951553017817683,
                -1.8901949879883677,
                -0.23022949210523252
            ]
        },
        {
            "positions": [
                -0.33556430775662394,
                -0.818459906490455,
                1.1878571265557896,
                1.724834922589103,
                -1.8213947769542946,
                -0.277369597292279
            ]
        },
        {
            "positions": [
                -0.23916106138133109,
                -0.8445967567703232,
                1.108344552543174,
                1.6545145433964379,
                -1.7525945659202216,
                -0.3245097024793255
            ]
        },
        {
            "positions": [
                -0.14275781500603824,
                -0.8707336070501914,
                1.0288319785305589,
                1.5841941642037727,
                -1.6837943548861487,
                -0.37164980766637196
            ]
        },
        {
            "positions": [
                -0.046354568630745274,
                -0.8968704573300597,
                0.9493194045179435,
                1.5138737850111075,
                -1.6149941438520756,
                -0.41878991285341843
            ]
        },
        {
            "positions": [
                0.050048677744547576,
                -0.9230073076099279,
                0.8698068305053281,
                1.4435534058184423,
                -1.5461939328180025,
                -0.4659300180404649
            ]
        },
        {
            "positions": [
                0.14645192411984065,
                -0.9491441578897963,
                0.7902942564927127,
                1.373233026625777,
                -1.4773937217839295,
                -0.5130701232275114
            ]
        },
        {
            "positions": [
                0.2428551704951335,
                -0.9752810081696646,
                0.7107816824800974,
                1.302912647433112,
                -1.4085935107498564,
                -0.5602102284145579
            ]
        },
        {
            "positions": [
                0.33925841687042635,
                -1.0014178584495328,
                0.631269108467482,
                1.2325922682404467,
                -1.3397932997157835,
                -0.6073503336016044
            ]
        },
        {
            "positions": [
                0.4356616632457192,
                -1.027554708729401,
                0.5517565344548667,
                1.1622718890477817,
                -1.2709930886817105,
                -0.6544904387886509
            ]
        },
        {
            "positions": [
                0.5320649096210123,
                -1.0536915590092693,
                0.47224396044225125,
                1.0919515098551162,
                -1.2021928776476374,
                -0.7016305439756975
            ]
        },
        {
            "positions": [
                0.6284681559963049,
                -1.0798284092891375,
                0.392731386429636,
                1.0216311306624513,
                -1.1333926666135643,
                -0.7487706491627438
            ]
        },
        {
            "positions": [
                0.724871402371598,
                -1.1059652595690057,
                0.31321881241702054,
                0.951310751469786,
                -1.0645924555794912,
                -0.7959107543497904
            ]
        },
        {
            "positions": [
                0.8212746487468908,
                -1.1321021098488742,
                0.2337062384044053,
                0.8809903722771208,
                -0.9957922445454184,
                -0.8430508595368368
            ]
        },
        {
            "positions": [
                0.9176778951221839,
                -1.1582389601287424,
                0.15419366439178983,
                0.8106699930844556,
                -0.9269920335113453,
                -0.8901909647238834
            ]
        },
        {
            "positions": [
                1.0140811414974764,
                -1.1843758104086106,
                0.07468109037917459,
                0.7403496138917904,
                -0.8581918224772722,
                -0.9373310699109297
            ]
        },
        {
            "positions": [
                1.1104843878727695,
                -1.2105126606884788,
                -0.004831483633440881,
                0.6700292346991252,
                -0.7893916114431991,
                -0.9844711750979763
            ]
        },
        {
            "positions": [
                1.2068876342480626,
                -1.236649510968347,
                -0.08434405764605635,
                0.59970885550646,
                -0.7205914004091261,
                -1.0316112802850228
            ]
        },
        {
            "positions": [
                1.3032908806233556,
                -1.2627863612482155,
                -0.16385663165867181,
                0.5293884763137946,
                -0.651791189375053,
                -1.0787513854720694
            ]
        },
        {
            "positions": [
                1.3996941269986483,
                -1.2889232115280835,
                -0.24336920567128684,
                0.45906809712112984,
                -0.5829909783409801,
                -1.1258914906591158
            ]
        },
        {
            "positions": [
                1.4960973733739409,
                -1.315060061807952,
                -0.3228817796839023,
                0.3887477179284644,
                -0.514190767306907,
                -1.1730315958461623
            ]
        },
        {
            "positions": [
                1.592500619749234,
                -1.3411969120878202,
                -0.40239435369651777,
                0.3184273387357992,
                -0.44539055627283397,
                -1.2201717010332087
            ]
        },
        {
            "positions": [
                1.688903866124527,
                -1.3673337623676884,
                -0.48190692770913324,
                0.248106959543134,
                -0.3765903452387609,
                -1.2673118062202553
            ]
        },
        {
            "positions": [
                1.7853071124998197,
                -1.3934706126475567,
                -0.5614195017217483,
                0.17778658035046901,
                -0.30779013420468804,
                -1.3144519114073017
            ]
        },
        {
            "positions": [
                1.8817103588751127,
                -1.419607462927425,
                -0.6409320757343637,
                0.10746620115780381,
                -0.23898992317061496,
                -1.3615920165943483
            ]
        },
        {
            "positions": [
                1.9781136052504058,
                -1.4457443132072934,
                -0.7204446497469792,
                0.03714582196513838,
                -0.17018971213654188,
                -1.4087321217813948
            ]
        },
        {
            "positions": [
                2.074516851625699,
                -1.4718811634871614,
                -0.7999572237595947,
                -0.0331745572275266,
                -0.10138950110246858,
                -1.4558722269684412
            ]
        },
        {
            "positions": [
                2.170920098000991,
                -1.4980180137670298,
                -0.8794697977722097,
                -0.10349493642019159,
                -0.032589290068395727,
                -1.5030123321554876
            ]
        },
        {
            "positions": [
                2.267323344376284,
                -1.5241548640468978,
                -0.9589823717848251,
                -0.173815315612857,
                0.03621092096567713,
                -1.5501524373425342
            ]
        },
        {
            "positions": [
                2.363726590751577,
                -1.5502917143267663,
                -1.0384949457974406,
                -0.244135694805522,
                0.10501113199975043,
                -1.5972925425295807
            ]
        },
        {
            "positions": [
                2.4601298371268703,
                -1.5764285646066345,
                -1.118007519810056,
                -0.3144560739981874,
                0.17381134303382328,
                -1.6444326477166271
            ]
        },
        {
            "positions": [
                2.556533083502163,
                -1.6025654148865027,
                -1.197520093822671,
                -0.3847764531908524,
                0.24261155406789614,
                -1.6915727529036735
            ]
        },
        {
            "positions": [
                2.652936329877456,
                -1.628702265166371,
                -1.2770326678352866,
                -0.45509683238351784,
                0.31141176510196944,
                -1.73871285809072
            ]
        },
        {
            "positions": [
                2.749339576252749,
                -1.6548391154462392,
                -1.356545241847902,
                -0.5254172115761828,
                0.3802119761360423,
                -1.7858529632777667
            ]
        },
        {
            "positions": [
                2.8457428226280417,
                -1.6809759657261076,
                -1.4360578158605175,
                -0.5957375907688482,
                0.4490121871701156,
                -1.8329930684648132
            ]
        },
        {
            "positions": [
                2.9421460690033343,
                -1.7071128160059756,
                -1.5155703898731325,
                -0.6660579699615132,
                0.5178123982041885,
                -1.8801331736518594
            ]
        },
        {
            "positions": [
                3.0385493153786274,
                -1.733249666285844,
                -1.595082963885748,
                -0.7363783491541782,
                0.5866126092382613,
                -1.927273278838906
            ]
        },
        {
            "positions": [
                3.134952561753921,
                -1.7593865165657123,
                -1.6745955378983637,
                -0.8066987283468436,
                0.6554128202723346,
                -1.9744133840259526
            ]
        },
        {
            "positions": [
                2.972288618375131,
                -1.7348293395527006,
                -1.5327340063773736,
                -0.8077186013947522,
                0.6485795358425067,
                -2.0189337701748413
            ]
        },
        {
            "positions": [
                2.809624674996341,
                -1.7102721625396886,
                -1.3908724748563834,
                -0.8087384744426607,
                0.6417462514126789,
                -2.06345415632373
            ]
        },
        {
            "positions": [
                2.6469607316175514,
                -1.6857149855266769,
                -1.2490109433353933,
                -0.8097583474905692,
                0.634912966982851,
                -2.1079745424726193
            ]
        },
        {
            "positions": [
                2.4842967882387614,
                -1.6611578085136651,
                -1.1071494118144032,
                -0.8107782205384777,
                0.6280796825530232,
                -2.152494928621508
            ]
        },
        {
            "positions": [
                2.3216328448599715,
                -1.6366006315006532,
                -0.9652878802934131,
                -0.8117980935863862,
                0.6212463981231953,
                -2.197015314770397
            ]
        },
        {
            "positions": [
                2.1589689014811815,
                -1.6120434544876414,
                -0.8234263487724229,
                -0.8128179666342947,
                0.6144131136933675,
                -2.2415357009192856
            ]
        },
        {
            "positions": [
                1.9963049581023917,
                -1.5874862774746297,
                -0.6815648172514328,
                -0.8138378396822031,
                0.6075798292635396,
                -2.2860560870681743
            ]
        },
        {
            "positions": [
                1.8336410147236017,
                -1.5629291004616177,
                -0.5397032857304427,
                -0.8148577127301116,
                0.6007465448337117,
                -2.330576473217063
            ]
        },
        {
            "positions": [
                1.670977071344812,
                -1.538371923448606,
                -0.39784175420945256,
                -0.8158775857780202,
                0.5939132604038838,
                -2.375096859365952
            ]
        },
        {
            "positions": [
                1.508313127966022,
                -1.5138147464355942,
                -0.25598022268846243,
                -0.8168974588259287,
                0.587079975974056,
                -2.419617245514841
            ]
        },
        {
            "positions": [
                1.3456491845872323,
                -1.4892575694225825,
                -0.11411869116747231,
                -0.8179173318738372,
                0.5802466915442281,
                -2.46413763166373
            ]
        },
        {
            "positions": [
                1.1829852412084423,
                -1.4647003924095705,
                0.027742840353517817,
                -0.8189372049217457,
                0.5734134071144003,
                -2.5086580178126185
            ]
        },
        {
            "positions": [
                1.0203212978296525,
                -1.4401432153965588,
                0.16960437187450794,
                -0.8199570779696542,
                0.5665801226845724,
                -2.5531784039615073
            ]
        },
        {
            "positions": [
                0.8576573544508626,
                -1.415586038383547,
                0.31146590339549807,
                -0.8209769510175627,
                0.5597468382547446,
                -2.597698790110396
            ]
        },
        {
            "positions": [
                0.694993411072073,
                -1.3910288613705353,
                0.45332743491648797,
                -0.8219968240654713,
                0.5529135538249167,
                -2.642219176259285
            ]
        },
        {
            "positions": [
                0.5323294676932826,
                -1.3664716843575233,
                0.5951889664374783,
                -0.8230166971133798,
                0.5460802693950888,
                -2.6867395624081736
            ]
        },
        {
            "positions": [
                0.36966552431449307,
                -1.3419145073445116,
                0.7370504979584687,
                -0.8240365701612883,
                0.539246984965261,
                -2.7312599485570628
            ]
        },
        {
            "positions": [
                0.2070015809357031,
                -1.3173573303314998,
                0.8789120294794586,
                -0.8250564432091968,
                0.5324137005354331,
                -2.7757803347059515
            ]
        },
        {
            "positions": [
                0.044337637556913556,
                -1.2928001533184879,
                1.0207735610004485,
                -0.8260763162571053,
                0.5255804161056052,
                -2.8203007208548403
            ]
        },
        {
            "positions": [
                -0.11832630582187686,
                -1.268242976305476,
                1.1626350925214388,
                -0.8270961893050137,
                0.5187471316757774,
                -2.864821107003729
            ]
        },
        {
            "positions": [
                -0.2809902492006664,
                -1.2436857992924644,
                1.3044966240424292,
                -0.8281160623529222,
                0.5119138472459496,
                -2.909341493152618
            ]
        },
        {
            "positions": [
                -0.4436541925794564,
                -1.2191286222794524,
                1.446358155563419,
                -0.8291359354008307,
                0.5050805628161217,
                -2.9538618793015066
            ]
        },
        {
            "positions": [
                -0.6063181359582459,
                -1.1945714452664407,
                1.588219687084409,
                -0.8301558084487393,
                0.4982472783862938,
                -2.9983822654503953
            ]
        },
        {
            "positions": [
                -0.7689820793370363,
                -1.170014268253429,
                1.7300812186053993,
                -0.8311756814966478,
                0.49141399395646596,
                -3.0429026515992845
            ]
        },
        {
            "positions": [
                -0.9316460227158263,
                -1.145457091240417,
                1.8719427501263897,
                -0.8321955545445563,
                0.4845807095266381,
                -3.0874230377481733
            ]
        },
        {
            "positions": [
                -1.0943099660946156,
                -1.1208999142274052,
                2.0138042816473796,
                -0.8332154275924648,
                0.47774742509681023,
                -3.131943423897062
            ]
        }
    ]
}