{
    "goal": {
        "global_pose": {
            "orientation": {
                "w": 0.5084816262002911,
                "x": -0.4908360881923452,
                "y": 0.5182115481033761,
                "z": -0.48164630358495003
            },
            "position": {
                "x": 0.5540239810943604,
                "y": -0.46912469901144505,
                "z": 0.16403168439865112
            }
        },
        "name": "move_to_storage_B"
    },
    "id": "LBKPIECE_move_to_storage_B_97",
    "joint_names": [
        "shoulder_pan_joint",
        "shoulder_lift_joint",
        "elbow_joint",
        "wrist_1_joint",
        "wrist_2_joint",
        "wrist_3_joint"
    ],
    "metrics": {
        "cart_traj_len": 2.5652470630694375,
        "distance_elbow_joint": 1.6519951194924445,
        "distance_shoulder_lift_joint": 1.17752598642935,
        "distance_shoulder_pan_joint": 2.4393594349597523,
        "distance_wrist_1_joint": 2.9830034910967678,
        "distance_wrist_2_joint": 6.878008315552707,
        "distance_wrist_3_joint": 5.4266735835490145,
        "smoothness": 0.5862327960704404,
        "time": 2.52444836,
        "traj_len": 4.5339349279715115,
        "weighted_distance": 6.424245084430353
    },
    "planner": "LBKPIECE",
    "start": {
        "state": {
            "elbow_joint": 1.6649325706314817,
            "shoulder_lift_joint": -0.6616388048112454,
            "shoulder_pan_joint": -0.9139837860083814,
            "wrist_1_joint": 2.146757197745094,
            "wrist_2_joint": -2.234196043158733,
            "wrist_3_joint": 0.005471033829999897
        }
    },
    "waypoints": [
        {
            "positions": [
                -0.9139837860083814,
                -0.6616388048112454,
                1.6649325706314817,
                2.146757197745094,
                -2.234196043158733,
                0.005471033829999897
            ]
        },
        {
            "positions": [
                -0.843437911364584,
                -0.6907518637560319,
                1.6941415299462852,
                2.1283314803453504,
                -2.0266015534266315,
                0.04165441311820075
            ]
        },
        {
            "positions": [
                -0.7728920367207865,
                -0.7198649227008185,
                1.7233504892610887,
                2.109905762945606,
                -1.8190070636945297,
                0.07783779240640161
            ]
        },
        {
            "positions": [
                -0.7023461620769892,
                -0.748977981645605,
                1.7525594485758922,
                2.0914800455458624,
                -1.6114125739624283,
                0.11402117169460246
            ]
        },
        {
            "positions": [
                -0.6318002874331918,
                -0.7780910405903916,
                1.7817684078906957,
                2.0730543281461182,
                -1.4038180842303267,
                0.1502045509828033
            ]
        },
        {
            "positions": [
                -0.5612544127893945,
                -0.8072040995351781,
                1.8109773672054992,
                2.0546286107463745,
                -1.1962235944982251,
                0.18638793027100417
            ]
        },
        {
            "positions": [
                -0.49070853814559706,
                -0.8363171584799646,
                1.8401863265203027,
                2.0362028933466303,
                -0.9886291047661238,
                0.222571309559205
            ]
        },
        {
            "positions": [
                -0.42016266350179965,
                -0.8654302174247511,
                1.8693952858351062,
                2.0177771759468865,
                -0.7810346150340222,
                0.2587546888474059
            ]
        },
        {
            "positions": [
                -0.3496167888580023,
                -0.8945432763695377,
                1.8986042451499099,
                1.9993514585471426,
                -0.5734401253019206,
                0.29493806813560675
            ]
        },
        {
            "positions": [
                -0.27907091421420493,
                -0.9236563353143242,
                1.9278132044647132,
                1.9809257411473986,
                -0.36584563556981897,
                0.3311214474238076
            ]
        },
        {
            "positions": [
                -0.20852503957040758,
                -0.9527693942591108,
                1.9570221637795169,
                1.9625000237476546,
                -0.15825114583771738,
                0.3673048267120085
            ]
        },
        {
            "positions": [
                -0.1379791649266101,
                -0.9818824532038972,
                1.9862311230943204,
                1.9440743063479107,
                0.049343343894383995,
                0.4034882060002093
            ]
        },
        {
            "positions": [
                -0.06743329028281275,
                -1.0109955121486838,
                2.015440082409124,
                1.925648588948167,
                0.25693783362648537,
                0.43967158528841016
            ]
        },
        {
            "positions": [
                0.003112584360984605,
                -1.0401085710934703,
                2.044649041723927,
                1.907222871548423,
                0.4645323233585872,
                0.47585496457661103
            ]
        },
        {
            "positions": [
                0.07365845900478207,
                -1.0692216300382569,
                2.073858001038731,
                1.888797154148679,
                0.6721268130906886,
                0.5120383438648118
            ]
        },
        {
            "positions": [
                0.14420433364857932,
                -1.0983346889830434,
                2.1030669603535346,
                1.870371436748935,
                0.8797213028227904,
                0.5482217231530128
            ]
        },
        {
            "positions": [
                0.21475020829237668,
                -1.12744774792783,
                2.132275919668338,
                1.851945719349191,
                1.0873157925548917,
                0.5844051024412136
            ]
        },
        {
            "positions": [
                0.16090663067640984,
                -1.1469834054566774,
                2.0960670784158757,
                1.7138679951156466,
                0.9713908734395283,
                0.6157528619524189
            ]
        },
        {
            "positions": [
                0.10706305306044299,
                -1.1665190629855247,
                2.059858237163414,
                1.575790270882102,
                0.855465954324165,
                0.6471006214636241
            ]
        },
        {
            "positions": [
                0.05321947544447614,
                -1.186054720514372,
                2.023649395910952,
                1.4377125466485579,
                0.7395410352088014,
                0.6784483809748294
            ]
        },
        {
            "positions": [
                -0.000624102171490698,
                -1.2055903780432193,
                1.98744055465849,
                1.2996348224150134,
                0.623616116093438,
                0.7097961404860347
            ]
        },
        {
            "positions": [
                -0.05446767978745759,
                -1.2251260355720668,
                1.9512317134060277,
                1.161557098181469,
                0.5076911969780745,
                0.74114389999724
            ]
        },
        {
            "positions": [
                -0.1083112574034244,
                -1.244661693100914,
                1.9150228721535658,
                1.0234793739479247,
                0.3917662778627111,
                0.7724916595084452
            ]
        },
        {
            "positions": [
                -0.16215483501939126,
                -1.2641973506297615,
                1.8788140309011039,
                0.8854016497143801,
                0.2758413587473477,
                0.8038394190196505
            ]
        },
        {
            "positions": [
                -0.21599841263535807,
                -1.2837330081586087,
                1.842605189648642,
                0.7473239254808357,
                0.15991643963198432,
                0.8351871785308558
            ]
        },
        {
            "positions": [
                -0.26984199025132494,
                -1.3032686656874561,
                1.8063963483961798,
                0.6092462012472912,
                0.04399152051662081,
                0.866534938042061
            ]
        },
        {
            "positions": [
                -0.32368556786729186,
                -1.3228043232163036,
                1.7701875071437176,
                0.47116847701374676,
                -0.0719333985987427,
                0.8978826975532663
            ]
        },
        {
            "positions": [
                -0.37752914548325867,
                -1.3423399807451508,
                1.7339786658912557,
                0.3330907527802023,
                -0.18785831771410622,
                0.9292304570644716
            ]
        },
        {
            "positions": [
                -0.4313727230992255,
                -1.3618756382739983,
                1.6977698246387938,
                0.19501302854665803,
                -0.3037832368294695,
                0.9605782165756769
            ]
        },
        {
            "positions": [
                -0.4852163007151923,
                -1.3814112958028455,
                1.6615609833863318,
                0.056935304313113555,
                -0.419708155944833,
                0.9919259760868822
            ]
        },
        {
            "positions": [
                -0.5390598783311592,
                -1.400946953331693,
                1.62535214213387,
                -0.08114241992043092,
                -0.5356330750601963,
                1.0232737355980874
            ]
        },
        {
            "positions": [
                -0.592903455947126,
                -1.4204826108605402,
                1.5891433008814078,
                -0.2192201441539754,
                -0.6515579941755598,
                1.0546214951092927
            ]
        },
        {
            "positions": [
                -0.6467470335630928,
                -1.4400182683893876,
                1.5529344596289458,
                -0.35729786838751965,
                -0.7674829132909231,
                1.085969254620498
            ]
        },
        {
            "positions": [
                -0.7005906111790596,
                -1.459553925918235,
                1.516725618376484,
                -0.4953755926210639,
                -0.8834078324062866,
                1.1173170141317033
            ]
        },
        {
            "positions": [
                -0.7544341887950266,
                -1.4790895834470823,
                1.4805167771240217,
                -0.6334533168546086,
                -0.9993327515216501,
                1.1486647736429085
            ]
        },
        {
            "positions": [
                -0.7724047700356366,
                -1.4601382567211079,
                1.5085637575404045,
                -0.6441266314070859,
                -0.9219723338499376,
                0.9232184660778503
            ]
        },
        {
            "positions": [
                -0.7903753512762467,
                -1.4411869299951336,
                1.5366107379567873,
                -0.6547999459595631,
                -0.8446119161782251,
                0.6977721585127921
            ]
        },
        {
            "positions": [
                -0.8083459325168567,
                -1.4222356032691592,
                1.56465771837317,
                -0.6654732605120405,
                -0.7672514985065124,
                0.4723258509477338
            ]
        },
        {
            "positions": [
                -0.8263165137574668,
                -1.4032842765431848,
                1.5927046987895528,
                -0.6761465750645178,
                -0.6898910808347999,
                0.2468795433826756
            ]
        },
        {
            "positions": [
                -0.8442870949980769,
                -1.3843329498172106,
                1.6207516792059355,
                -0.6868198896169951,
                -0.6125306631630874,
                0.02143323581761747
            ]
        },
        {
            "positions": [
                -0.8622576762386869,
                -1.3653816230912361,
                1.6487986596223183,
                -0.6974932041694724,
                -0.5351702454913747,
                -0.20401307174744088
            ]
        },
        {
            "positions": [
                -0.880228257479297,
                -1.3464302963652617,
                1.676845640038701,
                -0.7081665187219497,
                -0.4578098278196622,
                -0.429459379312499
            ]
        },
        {
            "positions": [
                -0.898198838719907,
                -1.3274789696392875,
                1.7048926204550838,
                -0.718839833274427,
                -0.38044941014794964,
                -0.6549056868775573
            ]
        },
        {
            "positions": [
                -0.916169419960517,
                -1.308527642913313,
                1.7329396008714664,
                -0.7295131478269044,
                -0.3030889924762371,
                -0.8803519944426155
            ]
        },
        {
            "positions": [
                -0.9341400012011272,
                -1.2895763161873386,
                1.7609865812878494,
                -0.7401864623793816,
                -0.22572857480452457,
                -1.1057983020076736
            ]
        },
        {
            "positions": [
                -0.9521105824417372,
                -1.2706249894613642,
                1.789033561704232,
                -0.7508597769318589,
                -0.14836815713281193,
                -1.3312446095727322
            ]
        },
        {
            "positions": [
                -0.9700811636823472,
                -1.25167366273539,
                1.8170805421206147,
                -0.7615330914843362,
                -0.0710077394610994,
                -1.5566909171377903
            ]
        },
        {
            "positions": [
                -0.9880517449229573,
                -1.2327223360094155,
                1.8451275225369974,
                -0.7722064060368135,
                0.0063526782106131385,
                -1.7821372247028489
            ]
        },
        {
            "positions": [
                -1.0060223261635675,
                -1.213771009283441,
                1.8731745029533802,
                -0.7828797205892908,
                0.08371309588232578,
                -2.0075835322679065
            ]
        },
        {
            "positions": [
                -1.0239929074041774,
                -1.1948196825574668,
                1.901221483369763,
                -0.7935530351417681,
                0.16107351355403843,
                -2.233029839832965
            ]
        },
        {
            "positions": [
                -1.0419634886447875,
                -1.1758683558314924,
                1.9292684637861457,
                -0.8042263496942454,
                0.23843393122575085,
                -2.4584761473980232
            ]
        },
        {
            "positions": [
                -1.0599340698853976,
                -1.156917029105518,
                1.9573154442025285,
                -0.8148996642467228,
                0.3157943488974635,
                -2.683922454963082
            ]
        },
        {
            "positions": [
                -1.0779046511260075,
                -1.1379657023795438,
                1.9853624246189112,
                -0.8255729787992,
                0.3931547665691759,
                -2.9093687625281395
            ]
        },
        {
            "positions": [
                -1.0958752323666177,
                -1.1190143756535693,
                2.013409405035294,
                -0.8362462933516773,
                0.47051518424088845,
                -3.1348150700931985
            ]
        }
    ]
}