{
    "goal": {
        "global_pose": {
            "orientation": {
                "w": 0.005598929693374612,
                "x": 0.007748599140229565,
                "y": 0.7110244013736278,
                "z": -0.7031023480610252
            },
            "position": {
                "x": -0.8858502320852131,
                "y": -0.7141253447532654,
                "z": 0.3711530566215515
            }
        },
        "name": "move_to_auspresseinheit_C"
    },
    "id": "LBKPIECE_move_to_auspresseinheit_C_119",
    "joint_names": [
        "shoulder_pan_joint",
        "shoulder_lift_joint",
        "elbow_joint",
        "wrist_1_joint",
        "wrist_2_joint",
        "wrist_3_joint"
    ],
    "metrics": {
        "cart_traj_len": 0.4940449814696758,
        "distance_elbow_joint": 1.0138676914872917,
        "distance_shoulder_lift_joint": 0.3310253972703935,
        "distance_shoulder_pan_joint": 0.2557098641371547,
        "distance_wrist_1_joint": 0.7020653679961291,
        "distance_wrist_2_joint": 1.3162719452532468,
        "distance_wrist_3_joint": 0.07240082885174859,
        "smoothness": 8.074349308362242e-16,
        "time": 2.492035403,
        "traj_len": 1.9212863126030864,
        "weighted_distance": 2.4196032868941213
    },
    "planner": "LBKPIECE",
    "start": {
        "state": {
            "elbow_joint": 1.752795957773711,
            "shoulder_lift_joint": -0.9740617694225064,
            "shoulder_pan_joint": -2.967991417825858,
            "wrist_1_joint": -0.7595177689806859,
            "wrist_2_joint": 1.7443932448377395,
            "wrist_3_joint": 3.199131542505932
        }
    },
    "waypoints": [
        {
            "positions": [
                -2.967991417825858,
                -0.9740617694225064,
                1.752795957773711,
                -0.7595177689806859,
                1.7443932448377395,
                3.199131542505932
            ]
        },
        {
            "positions": [
                -2.9424204314121427,
                -0.9409592296954671,
                1.651409188624982,
                -0.689311232181073,
                1.6127660503124148,
                3.1918914596207575
            ]
        },
        {
            "positions": [
                -2.916849444998427,
                -0.9078566899684277,
                1.5500224194762526,
                -0.6191046953814601,
                1.4811388557870901,
                3.1846513767355824
            ]
        },
        {
            "positions": [
                -2.8912784585847113,
                -0.8747541502413884,
                1.4486356503275237,
                -0.5488981585818472,
                1.3495116612617655,
                3.1774112938504073
            ]
        },
        {
            "positions": [
                -2.865707472170996,
                -0.841651610514349,
                1.3472488811787944,
                -0.4786916217822343,
                1.2178844667364408,
                3.1701712109652327
            ]
        },
        {
            "positions": [
                -2.840136485757281,
                -0.8085490707873098,
                1.2458621120300652,
                -0.40848508498262137,
                1.0862572722111161,
                3.162931128080058
            ]
        },
        {
            "positions": [
                -2.814565499343565,
                -0.7754465310602704,
                1.1444753428813361,
                -0.33827854818300845,
                0.9546300776857914,
                3.155691045194883
            ]
        },
        {
            "positions": [
                -2.7889945129298495,
                -0.742343991333231,
                1.043088573732607,
                -0.2680720113833956,
                0.8230028831604669,
                3.148450962309708
            ]
        },
        {
            "positions": [
                -2.763423526516134,
                -0.7092414516061916,
                0.9417018045838776,
                -0.19786547458378267,
                0.6913756886351421,
                3.1412108794245333
            ]
        },
        {
            "positions": [
                -2.737852540102419,
                -0.6761389118791523,
                0.8403150354351485,
                -0.1276589377841697,
                0.5597484941098174,
                3.1339707965393586
            ]
        },
        {
            "positions": [
                -2.7122815536887033,
                -0.643036372152113,
                0.7389282662864195,
                -0.05745240098455681,
                0.4281212995844928,
                3.1267307136541835
            ]
        }
    ]
}