{
    "goal": {
        "global_pose": {
            "orientation": {
                "w": 0.5084816217422485,
                "x": -0.49083608388900757,
                "y": 0.5182115435600281,
                "z": -0.4816462993621826
            },
            "position": {
                "x": 0.5540239810943604,
                "y": 0.030875300988554955,
                "z": 0.16403168439865112
            }
        },
        "name": "move_to_storage_A"
    },
    "id": "LBKPIECE_move_to_storage_A_130",
    "joint_names": [
        "shoulder_pan_joint",
        "shoulder_lift_joint",
        "elbow_joint",
        "wrist_1_joint",
        "wrist_2_joint",
        "wrist_3_joint"
    ],
    "metrics": {
        "cart_traj_len": 0.35234415966443383,
        "distance_elbow_joint": 0.44816531322883124,
        "distance_shoulder_lift_joint": 0.23375134719558743,
        "distance_shoulder_pan_joint": 0.46146397909521886,
        "distance_wrist_1_joint": 0.23791086021177887,
        "distance_wrist_2_joint": 1.0936313740220758,
        "distance_wrist_3_joint": 0.0963439378553046,
        "smoothness": 1.1102230244806396e-15,
        "time": 2.903935624,
        "traj_len": 1.6035170131959302,
        "weighted_distance": 2.023733411680812
    },
    "planner": "LBKPIECE",
    "start": {
        "state": {
            "elbow_joint": 1.9715474177455299,
            "shoulder_lift_joint": -1.139484666580328,
            "shoulder_pan_joint": 0.12281154398918248,
            "wrist_1_joint": -0.7804687475355282,
            "wrist_2_joint": 0.12958649657246987,
            "wrist_3_joint": -3.1924925159053466
        }
    },
    "waypoints": [
        {
            "positions": [
                0.12281154398918248,
                -1.139484666580328,
                1.9715474177455299,
                -0.7804687475355282,
                0.12958649657246987,
                -3.1924925159053466
            ]
        },
        {
            "positions": [
                0.056888118404151214,
                -1.1728777161796977,
                2.035571033921077,
                -0.814456013280068,
                0.285819550004195,
                -3.1787290962117316
            ]
        },
        {
            "positions": [
                -0.009035307180880053,
                -1.2062707657790672,
                2.0995946500966247,
                -0.8484432790246079,
                0.4420526034359201,
                -3.1649656765181167
            ]
        },
        {
            "positions": [
                -0.0749587327659113,
                -1.239663815378437,
                2.163618266272172,
                -0.8824305447691477,
                0.5982856568676452,
                -3.1512022568245017
            ]
        },
        {
            "positions": [
                -0.1408821583509426,
                -1.2730568649778065,
                2.227641882447719,
                -0.9164178105136875,
                0.7545187102993705,
                -3.137438837130887
            ]
        },
        {
            "positions": [
                -0.20680558393597387,
                -1.3064499145771762,
                2.2916654986232663,
                -0.9504050762582275,
                0.9107517637310957,
                -3.123675417437272
            ]
        },
        {
            "positions": [
                -0.2727290095210051,
                -1.3398429641765457,
                2.355689114798814,
                -0.9843923420027672,
                1.0669848171628207,
                -3.109911997743657
            ]
        },
        {
            "positions": [
                -0.3386524351060364,
                -1.3732360137759154,
                2.419712730974361,
                -1.018379607747307,
                1.2232178705945458,
                -3.096148578050042
            ]
        }
    ]
}