{
    "goal": {
        "global_pose": {
            "orientation": {
                "w": 0.7047431468963623,
                "x": -0.7094548344612122,
                "y": 0.0024358443915843964,
                "z": -0.0022348060738295317
            },
            "position": {
                "x": 0.6094750761985779,
                "y": 0.3671506643295288,
                "z": 0.19426114857196808
            }
        },
        "name": "move_to_magneteinheit_A"
    },
    "id": "LBKPIECE_move_to_magneteinheit_A_82",
    "joint_names": [
        "shoulder_pan_joint",
        "shoulder_lift_joint",
        "elbow_joint",
        "wrist_1_joint",
        "wrist_2_joint",
        "wrist_3_joint"
    ],
    "metrics": {
        "cart_traj_len": 1.0529319772597834,
        "distance_elbow_joint": 0.38449994658718123,
        "distance_shoulder_lift_joint": 0.36532311279321594,
        "distance_shoulder_pan_joint": 1.240465445268468,
        "distance_wrist_1_joint": 2.225168254843344,
        "distance_wrist_2_joint": 1.6918056259758227,
        "distance_wrist_3_joint": 1.2040945293105159,
        "smoothness": 0.0,
        "time": 3.15494847,
        "traj_len": 2.666712754456045,
        "weighted_distance": 3.665585881440885
    },
    "planner": "LBKPIECE",
    "start": {
        "state": {
            "elbow_joint": 1.5739458966750683,
            "shoulder_lift_joint": -1.4977259741207325,
            "shoulder_pan_joint": -1.1188672016454206,
            "wrist_1_joint": 1.494575848278785,
            "wrist_2_joint": -1.5706037134824402,
            "wrist_3_joint": -2.0226957942261072
        }
    },
    "waypoints": [
        {
            "positions": [
                -1.1188672016454206,
                -1.4977259741207325,
                1.5739458966750683,
                1.494575848278785,
                -1.5706037134824402,
                -2.0226957942261072
            ]
        },
        {
            "positions": [
                -1.0499524546860612,
                -1.4774302456322206,
                1.5953070048188007,
                1.370955389676377,
                -1.476614512039339,
                -2.089589934743358
            ]
        },
        {
            "positions": [
                -0.981037707726702,
                -1.4571345171437085,
                1.6166681129625329,
                1.247334931073969,
                -1.3826253105962376,
                -2.156484075260609
            ]
        },
        {
            "positions": [
                -0.9121229607673427,
                -1.4368387886551965,
                1.6380292211062653,
                1.123714472471561,
                -1.2886361091531364,
                -2.22337821577786
            ]
        },
        {
            "positions": [
                -0.8432082138079833,
                -1.4165430601666844,
                1.6593903292499974,
                1.000094013869153,
                -1.1946469077100352,
                -2.2902723562951106
            ]
        },
        {
            "positions": [
                -0.7742934668486239,
                -1.3962473316781725,
                1.6807514373937298,
                0.876473555266745,
                -1.1006577062669338,
                -2.357166496812362
            ]
        },
        {
            "positions": [
                -0.7053787198892647,
                -1.3759516031896606,
                1.7021125455374622,
                0.7528530966643371,
                -1.0066685048238326,
                -2.4240606373296125
            ]
        },
        {
            "positions": [
                -0.6364639729299053,
                -1.3556558747011485,
                1.7234736536811943,
                0.6292326380619291,
                -0.9126793033807313,
                -2.4909547778468633
            ]
        },
        {
            "positions": [
                -0.567549225970546,
                -1.3353601462126365,
                1.7448347618249267,
                0.5056121794595211,
                -0.8186901019376301,
                -2.5578489183641144
            ]
        },
        {
            "positions": [
                -0.4986344790111866,
                -1.3150644177241246,
                1.766195869968659,
                0.3819917208571131,
                -0.7247009004945288,
                -2.624743058881365
            ]
        },
        {
            "positions": [
                -0.42971973205182723,
                -1.2947686892356125,
                1.7875569781123912,
                0.25837126225470497,
                -0.6307116990514275,
                -2.691637199398616
            ]
        },
        {
            "positions": [
                -0.36080498509246794,
                -1.2744729607471006,
                1.8089180862561236,
                0.13475080365229708,
                -0.5367224976083262,
                -2.758531339915867
            ]
        },
        {
            "positions": [
                -0.29189023813310866,
                -1.2541772322585885,
                1.8302791943998558,
                0.01113034504988919,
                -0.44273329616522505,
                -2.825425480433118
            ]
        },
        {
            "positions": [
                -0.22297549117374926,
                -1.2338815037700765,
                1.8516403025435881,
                -0.11249011355251892,
                -0.34874409472212387,
                -2.8923196209503685
            ]
        },
        {
            "positions": [
                -0.15406074421438998,
                -1.2135857752815644,
                1.8730014106873205,
                -0.2361105721549268,
                -0.25475489327902245,
                -2.9592137614676197
            ]
        },
        {
            "positions": [
                -0.08514599725503058,
                -1.1932900467930525,
                1.8943625188310527,
                -0.3597310307573349,
                -0.16076569183592126,
                -3.0261079019848705
            ]
        },
        {
            "positions": [
                -0.016231250295671407,
                -1.1729943183045406,
                1.915723626974785,
                -0.4833514893597428,
                -0.06677649039282008,
                -3.093002042502121
            ]
        },
        {
            "positions": [
                0.05268349666368799,
                -1.1526985898160285,
                1.9370847351185172,
                -0.6069719479621509,
                0.027212711050281113,
                -3.159896183019372
            ]
        },
        {
            "positions": [
                0.12159824362304747,
                -1.1324028613275166,
                1.9584458432622496,
                -0.7305924065645588,
                0.1212019124933825,
                -3.226790323536623
            ]
        }
    ]
}