{
    "goal": {
        "global_pose": {
            "orientation": {
                "w": -0.00223480608172531,
                "x": 0.0024358444001904467,
                "y": 0.7094548369677653,
                "z": -0.704743149386269
            },
            "position": {
                "x": -0.37947507619857795,
                "y": -0.6371506643295288,
                "z": 0.19426114857196808
            }
        },
        "name": "move_to_magneteinheit_C"
    },
    "id": "LBKPIECE_move_to_magneteinheit_C_125",
    "joint_names": [
        "shoulder_pan_joint",
        "shoulder_lift_joint",
        "elbow_joint",
        "wrist_1_joint",
        "wrist_2_joint",
        "wrist_3_joint"
    ],
    "metrics": {
        "cart_traj_len": 6.352873413487626,
        "distance_elbow_joint": 2.8390440202213014,
        "distance_shoulder_lift_joint": 3.099560799051851,
        "distance_shoulder_pan_joint": 7.437180025017565,
        "distance_wrist_1_joint": 4.896410470203361,
        "distance_wrist_2_joint": 1.6292527367237826,
        "distance_wrist_3_joint": 5.095730423116851,
        "smoothness": 0.5990597525705226,
        "time": 2.778396628,
        "traj_len": 4.999717839472015,
        "weighted_distance": 6.458661047577556
    },
    "planner": "LBKPIECE",
    "start": {
        "state": {
            "elbow_joint": 1.9565354006590394,
            "shoulder_lift_joint": -1.4165861576513559,
            "shoulder_pan_joint": -1.6717766223277177,
            "wrist_1_joint": -0.5286633288215096,
            "wrist_2_joint": 1.4727565892594296,
            "wrist_3_joint": 3.1593482883155493
        }
    },
    "waypoints": [
        {
            "positions": [
                -1.6717766223277177,
                -1.4165861576513559,
                1.9565354006590394,
                -0.5286633288215096,
                1.4727565892594296,
                3.1593482883155493
            ]
        },
        {
            "positions": [
                -1.6254682142998698,
                -1.3934817482298674,
                1.920206111420357,
                -0.4378882918794665,
                1.3951247537522002,
                3.117904104791223
            ]
        },
        {
            "positions": [
                -1.5791598062720218,
                -1.3703773388083789,
                1.8838768221816746,
                -0.3471132549374234,
                1.3174929182449706,
                3.0764599212668964
            ]
        },
        {
            "positions": [
                -1.5328513982441738,
                -1.3472729293868904,
                1.847547532942992,
                -0.25633821799538037,
                1.239861082737741,
                3.03501573774257
            ]
        },
        {
            "positions": [
                -1.4865429902163259,
                -1.3241685199654019,
                1.8112182437043096,
                -0.16556318105333728,
                1.1622292472305116,
                2.993571554218244
            ]
        },
        {
            "positions": [
                -1.3784132985010178,
                -1.376901475000113,
                1.7649779364697462,
                -0.09368509014561593,
                1.177736339760971,
                2.9047647944520745
            ]
        },
        {
            "positions": [
                -1.2702836067857097,
                -1.429634430034824,
                1.7187376292351826,
                -0.021806999237894586,
                1.1932434322914305,
                2.815958034685905
            ]
        },
        {
            "positions": [
                -1.1621539150704017,
                -1.4823673850695354,
                1.672497322000619,
                0.05007109166982676,
                1.20875052482189,
                2.727151274919736
            ]
        },
        {
            "positions": [
                -1.0540242233550936,
                -1.5351003401042465,
                1.6262570147660556,
                0.12194918257754811,
                1.2242576173523494,
                2.6383445151535665
            ]
        },
        {
            "positions": [
                -0.9458945316397855,
                -1.5878332951389575,
                1.5800167075314921,
                0.19382727348526946,
                1.2397647098828088,
                2.549537755387397
            ]
        },
        {
            "positions": [
                -0.8377648399244775,
                -1.6405662501736686,
                1.5337764002969285,
                0.2657053643929908,
                1.2552718024132683,
                2.4607309956212275
            ]
        },
        {
            "positions": [
                -0.7296351482091694,
                -1.6932992052083797,
                1.487536093062365,
                0.33758345530071215,
                1.2707788949437278,
                2.371924235855058
            ]
        },
        {
            "positions": [
                -0.6215054564938614,
                -1.7460321602430908,
                1.4412957858278015,
                0.4094615462084335,
                1.2862859874741872,
                2.2831174760888886
            ]
        },
        {
            "positions": [
                -0.5133757647785533,
                -1.798765115277802,
                1.395055478593238,
                0.48133963711615485,
                1.3017930800046467,
                2.194310716322719
            ]
        },
        {
            "positions": [
                -0.4052460730632452,
                -1.851498070312513,
                1.3488151713586745,
                0.5532177280238761,
                1.3173001725351061,
                2.10550395655655
            ]
        },
        {
            "positions": [
                -0.29711638134793716,
                -1.9042310253472243,
                1.3025748641241108,
                0.6250958189315976,
                1.3328072650655653,
                2.0166971967903806
            ]
        },
        {
            "positions": [
                -0.1889866896326291,
                -1.9569639803819354,
                1.2563345568895474,
                0.6969739098393188,
                1.348314357596025,
                1.9278904370242111
            ]
        },
        {
            "positions": [
                -0.08085699791732104,
                -2.0096969354166463,
                1.210094249654984,
                0.7688520007470403,
                1.3638214501264843,
                1.8390836772580417
            ]
        },
        {
            "positions": [
                0.027272693797987024,
                -2.062429890451358,
                1.1638539424204204,
                0.8407300916547615,
                1.3793285426569437,
                1.7502769174918722
            ]
        },
        {
            "positions": [
                0.1354023855132951,
                -2.115162845486069,
                1.1176136351858568,
                0.912608182562483,
                1.3948356351874032,
                1.6614701577257027
            ]
        },
        {
            "positions": [
                0.24353207722860315,
                -2.16789580052078,
                1.0713733279512934,
                0.9844862734702042,
                1.4103427277178626,
                1.5726633979595335
            ]
        },
        {
            "positions": [
                0.3516617689439112,
                -2.220628755555491,
                1.0251330207167297,
                1.0563643643779257,
                1.425849820248322,
                1.483856638193364
            ]
        },
        {
            "positions": [
                0.4597914606592193,
                -2.273361710590202,
                0.9788927134821663,
                1.128242455285647,
                1.4413569127787815,
                1.3950498784271947
            ]
        },
        {
            "positions": [
                0.5679211523745273,
                -2.3260946656249137,
                0.9326524062476027,
                1.2001205461933684,
                1.456864005309241,
                1.306243118661025
            ]
        },
        {
            "positions": [
                0.6760508440898354,
                -2.3788276206596244,
                0.8864120990130393,
                1.2719986371010896,
                1.4723710978397004,
                1.2174363588948558
            ]
        },
        {
            "positions": [
                0.7841805358051435,
                -2.431560575694336,
                0.8401717917784757,
                1.343876728008811,
                1.48787819037016,
                1.1286295991286863
            ]
        },
        {
            "positions": [
                0.8923102275204515,
                -2.4842935307290466,
                0.7939314845439123,
                1.4157548189165323,
                1.5033852829006193,
                1.039822839362517
            ]
        },
        {
            "positions": [
                1.0004399192357596,
                -2.537026485763758,
                0.7476911773093486,
                1.4876329098242538,
                1.5188923754310788,
                0.9510160795963474
            ]
        },
        {
            "positions": [
                1.1085696109510677,
                -2.5897594407984688,
                0.7014508700747852,
                1.559511000731975,
                1.5343994679615383,
                0.8622093198301783
            ]
        },
        {
            "positions": [
                1.2166993026663757,
                -2.6424923958331803,
                0.6552105628402216,
                1.6313890916396965,
                1.5499065604919977,
                0.7734025600640089
            ]
        },
        {
            "positions": [
                1.3248289943816838,
                -2.695225350867891,
                0.6089702556056582,
                1.7032671825474177,
                1.5654136530224572,
                0.6845958002978394
            ]
        },
        {
            "positions": [
                1.4329586860969918,
                -2.7479583059026025,
                0.5627299483710946,
                1.7751452734551392,
                1.5809207455529166,
                0.5957890405316699
            ]
        },
        {
            "positions": [
                1.2858655939758727,
                -2.7032229388456295,
                0.606701260996217,
                1.715739612491985,
                1.5580732419969838,
                0.6606828971673717
            ]
        },
        {
            "positions": [
                1.1387725018547536,
                -2.6584875717886565,
                0.6506725736213393,
                1.656333951528831,
                1.535225738441051,
                0.7255767538030735
            ]
        },
        {
            "positions": [
                0.9916794097336346,
                -2.613752204731684,
                0.6946438862464618,
                1.5969282905656765,
                1.5123782348851182,
                0.7904706104387752
            ]
        },
        {
            "positions": [
                0.8445863176125155,
                -2.569016837674711,
                0.7386151988715841,
                1.5375226296025224,
                1.4895307313291855,
                0.855364467074477
            ]
        },
        {
            "positions": [
                0.6974932254913964,
                -2.524281470617738,
                0.7825865114967065,
                1.4781169686393683,
                1.4666832277732527,
                0.9202583237101787
            ]
        },
        {
            "positions": [
                0.5504001333702773,
                -2.479546103560765,
                0.826557824121829,
                1.4187113076762141,
                1.4438357242173199,
                0.9851521803458805
            ]
        },
        {
            "positions": [
                0.4033070412491584,
                -2.434810736503792,
                0.8705291367469512,
                1.35930564671306,
                1.4209882206613873,
                1.0500460369815823
            ]
        },
        {
            "positions": [
                0.2562139491280391,
                -2.3900753694468193,
                0.9145004493720736,
                1.2998999857499058,
                1.3981407171054545,
                1.114939893617284
            ]
        },
        {
            "positions": [
                0.1091208570069202,
                -2.3453400023898463,
                0.9584717619971961,
                1.2404943247867517,
                1.3752932135495217,
                1.1798337502529859
            ]
        },
        {
            "positions": [
                -0.037972235114199115,
                -2.3006046353328733,
                1.0024430746223185,
                1.1810886638235973,
                1.352445709993589,
                1.2447276068886874
            ]
        },
        {
            "positions": [
                -0.185065327235318,
                -2.2558692682759003,
                1.0464143872474407,
                1.1216830028604434,
                1.3295982064376561,
                1.3096214635243895
            ]
        },
        {
            "positions": [
                -0.3321584193564373,
                -2.2111339012189273,
                1.0903856998725634,
                1.062277341897289,
                1.3067507028817233,
                1.374515320160091
            ]
        },
        {
            "positions": [
                -0.4792515114775562,
                -2.1663985341619547,
                1.1343570124976856,
                1.002871680934135,
                1.2839031993257906,
                1.4394091767957928
            ]
        },
        {
            "positions": [
                -0.626344603598675,
                -2.1216631671049817,
                1.1783283251228078,
                0.9434660199709808,
                1.2610556957698578,
                1.5043030334314946
            ]
        },
        {
            "positions": [
                -0.7734376957197941,
                -2.0769278000480087,
                1.2222996377479305,
                0.8840603590078266,
                1.238208192213925,
                1.5691968900671962
            ]
        },
        {
            "positions": [
                -0.9205307878409137,
                -2.0321924329910357,
                1.2662709503730527,
                0.8246546980446724,
                1.2153606886579922,
                1.6340907467028982
            ]
        },
        {
            "positions": [
                -1.0676238799620323,
                -1.9874570659340627,
                1.3102422629981751,
                0.7652490370815181,
                1.1925131851020594,
                1.6989846033385998
            ]
        },
        {
            "positions": [
                -1.2147169720831514,
                -1.94272169887709,
                1.3542135756232976,
                0.705843376118364,
                1.1696656815461268,
                1.7638784599743016
            ]
        },
        {
            "positions": [
                -1.3618100642042705,
                -1.8979863318201171,
                1.3981848882484198,
                0.6464377151552099,
                1.1468181779901938,
                1.8287723166100034
            ]
        },
        {
            "positions": [
                -1.50890315632539,
                -1.853250964763144,
                1.4421562008735425,
                0.5870320541920557,
                1.1239706744342612,
                1.8936661732457052
            ]
        },
        {
            "positions": [
                -1.6559962484465087,
                -1.808515597706171,
                1.4861275134986647,
                0.5276263932289016,
                1.1011231708783282,
                1.958560029881407
            ]
        },
        {
            "positions": [
                -1.8030893405676278,
                -1.763780230649198,
                1.5300988261237871,
                0.46822073226574745,
                1.0782756673223957,
                2.0234538865171086
            ]
        },
        {
            "positions": [
                -1.950182432688747,
                -1.7190448635922253,
                1.5740701387489096,
                0.4088150713025933,
                1.0554281637664629,
                2.08834774315281
            ]
        },
        {
            "positions": [
                -2.0972755248098665,
                -1.6743094965352523,
                1.618041451374032,
                0.34940941033943895,
                1.03258066021053,
                2.1532415997885126
            ]
        },
        {
            "positions": [
                -2.244368616930985,
                -1.6295741294782793,
                1.6620127639991542,
                0.2900037493762848,
                1.0097331566545973,
                2.218135456424214
            ]
        },
        {
            "positions": [
                -2.391461709052104,
                -1.5848387624213065,
                1.7059840766242766,
                0.2305980884131308,
                0.9868856530986645,
                2.2830293130599157
            ]
        },
        {
            "positions": [
                -2.4255433940374473,
                -1.5546967162841583,
                1.747709299738105,
                0.124877222372172,
                0.9638553470396715,
                2.374226108243225
            ]
        },
        {
            "positions": [
                -2.45962507902279,
                -1.5245546701470098,
                1.7894345228519333,
                0.01915635633121321,
                0.9408250409806783,
                2.4654229034265347
            ]
        },
        {
            "positions": [
                -2.493706764008133,
                -1.4944126240098616,
                1.8311597459657616,
                -0.08656450970974564,
                0.9177947349216853,
                2.556619698609844
            ]
        },
        {
            "positions": [
                -2.532274719719787,
                -1.444758474655648,
                1.8648343025519658,
                -0.21236596031009575,
                0.9106160125281577,
                2.6363943292496033
            ]
        },
        {
            "positions": [
                -2.5708426754314413,
                -1.3951043253014346,
                1.89850885913817,
                -0.3381674109104459,
                0.9034372901346303,
                2.7161689598893624
            ]
        },
        {
            "positions": [
                -2.609410631143095,
                -1.3454501759472213,
                1.9321834157243742,
                -0.46396886151079597,
                0.8962585677411027,
                2.795943590529121
            ]
        },
        {
            "positions": [
                -2.6479785868547494,
                -1.2957960265930077,
                1.9658579723105785,
                -0.5897703121111461,
                0.8890798453475752,
                2.87571822116888
            ]
        },
        {
            "positions": [
                -2.6865465425664032,
                -1.2461418772387942,
                1.9995325288967827,
                -0.7155717627114961,
                0.8819011229540477,
                2.955492851808639
            ]
        },
        {
            "positions": [
                -2.5800767986016737,
                -1.2053734038563504,
                2.003750522600617,
                -0.766514178591533,
                0.7813939860672526,
                3.0417265338366413
            ]
        },
        {
            "positions": [
                -2.4736070546369437,
                -1.1646049304739063,
                2.0079685163044516,
                -0.8174565944715698,
                0.6808868491804576,
                3.127960215864644
            ]
        }
    ]
}