{
    "goal": {
        "global_pose": {
            "orientation": {
                "w": -0.4816463035849501,
                "x": 0.5182115481033762,
                "y": 0.4908360881923453,
                "z": -0.5084816262002911
            },
            "position": {
                "x": -0.8240239810943604,
                "y": -0.300875300988555,
                "z": 0.16403168439865112
            }
        },
        "name": "move_to_storage_C"
    },
    "id": "LBKPIECE_move_to_storage_C_131",
    "joint_names": [
        "shoulder_pan_joint",
        "shoulder_lift_joint",
        "elbow_joint",
        "wrist_1_joint",
        "wrist_2_joint",
        "wrist_3_joint"
    ],
    "metrics": {
        "cart_traj_len": 0.5758438403793708,
        "distance_elbow_joint": 0.2545913685899073,
        "distance_shoulder_lift_joint": 0.18850973921006087,
        "distance_shoulder_pan_joint": 0.49422175276991087,
        "distance_wrist_1_joint": 0.06542963772256194,
        "distance_wrist_2_joint": 1.0652761511566675,
        "distance_wrist_3_joint": 0.06525341501306459,
        "smoothness": 2.5376526478085547e-16,
        "time": 3.460769999,
        "traj_len": 1.4605759358767259,
        "weighted_distance": 1.8424154480918606
    },
    "planner": "LBKPIECE",
    "start": {
        "state": {
            "elbow_joint": 2.010868315001653,
            "shoulder_lift_joint": -1.1634956873357014,
            "shoulder_pan_joint": -2.4736205022346103,
            "wrist_1_joint": -0.8367026794713948,
            "wrist_2_joint": 0.6746043897044093,
            "wrist_3_joint": 3.1335220948105738
        }
    },
    "waypoints": [
        {
            "positions": [
                -2.4736205022346103,
                -1.1634956873357014,
                2.010868315001653,
                -0.8367026794713948,
                0.6746043897044093,
                3.1335220948105738
            ]
        },
        {
            "positions": [
                -2.5559907943629288,
                -1.132077397467358,
                1.9684364202366686,
                -0.8257977398509677,
                0.8521504148971872,
                3.144397663979418
            ]
        },
        {
            "positions": [
                -2.6383610864912472,
                -1.1006591075990144,
                1.926004525471684,
                -0.8148928002305408,
                1.029696440089965,
                3.155273233148262
            ]
        },
        {
            "positions": [
                -2.7207313786195657,
                -1.069240817730671,
                1.8835726307066993,
                -0.8039878606101138,
                1.207242465282743,
                3.166148802317106
            ]
        },
        {
            "positions": [
                -2.803101670747884,
                -1.0378225278623274,
                1.841140735941715,
                -0.7930829209896868,
                1.384788490475521,
                3.1770243714859503
            ]
        },
        {
            "positions": [
                -2.8854719628762027,
                -1.006404237993984,
                1.7987088411767305,
                -0.7821779813692598,
                1.562334515668299,
                3.1878999406547943
            ]
        },
        {
            "positions": [
                -2.967842255004521,
                -0.9749859481256405,
                1.7562769464117458,
                -0.7712730417488328,
                1.739880540861077,
                3.1987755098236383
            ]
        }
    ]
}