{
    "goal": {
        "global_pose": {
            "orientation": {
                "w": 0.5084816262002911,
                "x": -0.4908360881923452,
                "y": 0.5182115481033761,
                "z": -0.48164630358495003
            },
            "position": {
                "x": 0.5540239810943604,
                "y": -0.46912469901144505,
                "z": 0.16403168439865112
            }
        },
        "name": "move_to_storage_B"
    },
    "id": "LBKPIECE_move_to_storage_B_103",
    "joint_names": [
        "shoulder_pan_joint",
        "shoulder_lift_joint",
        "elbow_joint",
        "wrist_1_joint",
        "wrist_2_joint",
        "wrist_3_joint"
    ],
    "metrics": {
        "cart_traj_len": 0.8088850573988237,
        "distance_elbow_joint": 0.3477664243702685,
        "distance_shoulder_lift_joint": 0.4576146972868065,
        "distance_shoulder_pan_joint": 0.579077797722647,
        "distance_wrist_1_joint": 3.2214821661559534,
        "distance_wrist_2_joint": 2.701816170432054,
        "distance_wrist_3_joint": 3.2390858589188256,
        "smoothness": 0.30933004730260494,
        "time": 3.259759889,
        "traj_len": 3.2475903551535796,
        "weighted_distance": 4.790439767840967
    },
    "planner": "LBKPIECE",
    "start": {
        "state": {
            "elbow_joint": 1.6649325706314817,
            "shoulder_lift_joint": -0.6616388048112454,
            "shoulder_pan_joint": -0.9139837860083814,
            "wrist_1_joint": 2.146757197745094,
            "wrist_2_joint": -2.234196043158733,
            "wrist_3_joint": 0.005471033829999897
        }
    },
    "waypoints": [
        {
            "positions": [
                -0.9139837860083814,
                -0.6616388048112454,
                1.6649325706314817,
                2.146757197745094,
                -2.234196043158733,
                0.005471033829999897
            ]
        },
        {
            "positions": [
                -0.8148770015395174,
                -0.7182207030271246,
                1.7899346258843942,
                2.206782232294498,
                -2.211854368800964,
                0.031013147256190275
            ]
        },
        {
            "positions": [
                -0.7157702170706534,
                -0.7748026012430038,
                1.914936681137307,
                2.266807266843901,
                -2.1895126944431955,
                0.05655526068238065
            ]
        },
        {
            "positions": [
                -0.7310047862220501,
                -0.7885806372772057,
                1.9188471736918846,
                2.1427499829616155,
                -2.083227381574535,
                -0.07096480460027715
            ]
        },
        {
            "positions": [
                -0.7462393553734469,
                -0.8023586733114076,
                1.9227576662464625,
                2.0186926990793297,
                -1.976942068705874,
                -0.19848486988293496
            ]
        },
        {
            "positions": [
                -0.7614739245248436,
                -0.8161367093456096,
                1.9266681588010401,
                1.8946354151970437,
                -1.8706567558372136,
                -0.3260049351655927
            ]
        },
        {
            "positions": [
                -0.7767084936762404,
                -0.8299147453798115,
                1.9305786513556178,
                1.770578131314758,
                -1.7643714429685529,
                -0.45352500044825056
            ]
        },
        {
            "positions": [
                -0.7919430628276372,
                -0.8436927814140134,
                1.9344891439101957,
                1.646520847432472,
                -1.6580861300998921,
                -0.5810450657309083
            ]
        },
        {
            "positions": [
                -0.8071776319790339,
                -0.8574708174482153,
                1.9383996364647733,
                1.5224635635501862,
                -1.5518008172312316,
                -0.7085651310135661
            ]
        },
        {
            "positions": [
                -0.8224122011304307,
                -0.8712488534824173,
                1.9423101290193512,
                1.3984062796679004,
                -1.4455155043625707,
                -0.8360851962962239
            ]
        },
        {
            "positions": [
                -0.8376467702818274,
                -0.8850268895166192,
                1.9462206215739288,
                1.2743489957856147,
                -1.3392301914939102,
                -0.9636052615788817
            ]
        },
        {
            "positions": [
                -0.8528813394332242,
                -0.8988049255508211,
                1.9501311141285065,
                1.1502917119033287,
                -1.2329448786252497,
                -1.0911253268615393
            ]
        },
        {
            "positions": [
                -0.868115908584621,
                -0.9125829615850231,
                1.9540416066830844,
                1.0262344280210427,
                -1.126659565756589,
                -1.2186453921441973
            ]
        },
        {
            "positions": [
                -0.8833504777360177,
                -0.926360997619225,
                1.957952099237662,
                0.9021771441387569,
                -1.0203742528879283,
                -1.3461654574268551
            ]
        },
        {
            "positions": [
                -0.8985850468874145,
                -0.9401390336534269,
                1.9618625917922397,
                0.7781198602564712,
                -0.9140889400192678,
                -1.4736855227095127
            ]
        },
        {
            "positions": [
                -0.9138196160388112,
                -0.9539170696876288,
                1.9657730843468175,
                0.6540625763741854,
                -0.8078036271506068,
                -1.6012055879921707
            ]
        },
        {
            "positions": [
                -0.929054185190208,
                -0.9676951057218307,
                1.9696835769013952,
                0.5300052924918994,
                -0.7015183142819461,
                -1.7287256532748285
            ]
        },
        {
            "positions": [
                -0.9442887543416048,
                -0.9814731417560326,
                1.9735940694559728,
                0.4059480086096139,
                -0.5952330014132856,
                -1.856245718557486
            ]
        },
        {
            "positions": [
                -0.9595233234930015,
                -0.9952511777902345,
                1.9775045620105507,
                0.2818907247273279,
                -0.4889476885446249,
                -1.9837657838401441
            ]
        },
        {
            "positions": [
                -0.9747578926443983,
                -1.0090292138244366,
                1.9814150545651283,
                0.15783344084504192,
                -0.3826623756759642,
                -2.1112858491228024
            ]
        },
        {
            "positions": [
                -0.989992461795795,
                -1.0228072498586385,
                1.985325547119706,
                0.033776156962756154,
                -0.2763770628073037,
                -2.2388059144054595
            ]
        },
        {
            "positions": [
                -1.0052270309471918,
                -1.0365852858928404,
                1.9892360396742839,
                -0.09028112691952961,
                -0.17009174993864296,
                -2.3663259796881175
            ]
        },
        {
            "positions": [
                -1.0204616000985887,
                -1.0503633219270423,
                1.9931465322288615,
                -0.21433841080181582,
                -0.06380643706998246,
                -2.4938460449707756
            ]
        },
        {
            "positions": [
                -1.0356961692499853,
                -1.0641413579612442,
                1.9970570247834394,
                -0.33839569468410113,
                0.04247887579867804,
                -2.621366110253433
            ]
        },
        {
            "positions": [
                -1.050930738401382,
                -1.0779193939954461,
                2.000967517338017,
                -0.46245297856638734,
                0.14876418866733898,
                -2.748886175536091
            ]
        },
        {
            "positions": [
                -1.0661653075527788,
                -1.091697430029648,
                2.004878009892595,
                -0.5865102624486731,
                0.2550495015359999,
                -2.8764062408187487
            ]
        },
        {
            "positions": [
                -1.0813998767041757,
                -1.10547546606385,
                2.0087885024471723,
                -0.7105675463309589,
                0.36133481440466,
                -3.0039263061014063
            ]
        },
        {
            "positions": [
                -1.0966344458555723,
                -1.1192535020980519,
                2.01269899500175,
                -0.8346248302132446,
                0.46762012727332103,
                -3.1314463713840643
            ]
        }
    ]
}