{
    "goal": {
        "global_pose": {
            "orientation": {
                "w": 0.5084816217422485,
                "x": -0.49083608388900757,
                "y": 0.5182115435600281,
                "z": -0.4816462993621826
            },
            "position": {
                "x": 0.5540239810943604,
                "y": 0.030875300988554955,
                "z": 0.16403168439865112
            }
        },
        "name": "move_to_storage_A"
    },
    "id": "LBKPIECE_move_to_storage_A_49",
    "joint_names": [
        "shoulder_pan_joint",
        "shoulder_lift_joint",
        "elbow_joint",
        "wrist_1_joint",
        "wrist_2_joint",
        "wrist_3_joint"
    ],
    "metrics": {
        "cart_traj_len": 0.3535298996557954,
        "distance_elbow_joint": 0.4506960040237331,
        "distance_shoulder_lift_joint": 0.23301048111379896,
        "distance_shoulder_pan_joint": 0.4615770890928531,
        "distance_wrist_1_joint": 0.24501702807439651,
        "distance_wrist_2_joint": 1.1024297448577491,
        "distance_wrist_3_joint": 0.08737582820186063,
        "smoothness": 8.881784197001252e-16,
        "time": 4.959119935,
        "traj_len": 1.6062708910281578,
        "weighted_distance": 2.025414674751879
    },
    "planner": "LBKPIECE",
    "start": {
        "state": {
            "elbow_joint": 1.9715474177455299,
            "shoulder_lift_joint": -1.139484666580328,
            "shoulder_pan_joint": 0.12281154398918248,
            "wrist_1_joint": -0.7804687475355282,
            "wrist_2_joint": 0.12958649657246987,
            "wrist_3_joint": -3.1924925159053466
        }
    },
    "waypoints": [
        {
            "positions": [
                0.12281154398918248,
                -1.139484666580328,
                1.9715474177455299,
                -0.7804687475355282,
                0.12958649657246987,
                -3.1924925159053466
            ]
        },
        {
            "positions": [
                0.056871959833060606,
                -1.1727718781680136,
                2.035932561177492,
                -0.8154711801175848,
                0.2870764601235769,
                -3.180010254733652
            ]
        },
        {
            "positions": [
                -0.009067624323061269,
                -1.206059089755699,
                2.1003177046094534,
                -0.8504736126996415,
                0.4445664236746839,
                -3.167527993561958
            ]
        },
        {
            "positions": [
                -0.07500720847918313,
                -1.2393463013433847,
                2.1647028480414154,
                -0.8854760452816981,
                0.602056387225791,
                -3.1550457323902634
            ]
        },
        {
            "positions": [
                -0.14094679263530502,
                -1.2726335129310702,
                2.2290879914733774,
                -0.9204784778637548,
                0.759546350776898,
                -3.142563471218569
            ]
        },
        {
            "positions": [
                -0.2068863767914269,
                -1.3059207245187558,
                2.2934731349053394,
                -0.9554809104458114,
                0.9170363143280051,
                -3.1300812100468747
            ]
        },
        {
            "positions": [
                -0.27282596094754874,
                -1.3392079361064413,
                2.357858278337301,
                -0.9904833430278681,
                1.074526277879112,
                -3.1175989488751803
            ]
        },
        {
            "positions": [
                -0.33876554510367063,
                -1.372495147694127,
                2.422243421769263,
                -1.0254857756099247,
                1.2320162414302192,
                -3.105116687703486
            ]
        }
    ]
}