{
    "goal": {
        "global_pose": {
            "orientation": {
                "w": -0.4816463035849501,
                "x": 0.5182115481033762,
                "y": 0.4908360881923453,
                "z": -0.5084816262002911
            },
            "position": {
                "x": -0.8240239810943604,
                "y": 0.19912469901144506,
                "z": 0.16403168439865112
            }
        },
        "name": "move_to_storage_D"
    },
    "id": "LBKPIECE_move_to_storage_D_86",
    "joint_names": [
        "shoulder_pan_joint",
        "shoulder_lift_joint",
        "elbow_joint",
        "wrist_1_joint",
        "wrist_2_joint",
        "wrist_3_joint"
    ],
    "metrics": {
        "cart_traj_len": 0.5534905474988772,
        "distance_elbow_joint": 0.557024633893022,
        "distance_shoulder_lift_joint": 0.15188125861607427,
        "distance_shoulder_pan_joint": 0.2461324686633245,
        "distance_wrist_1_joint": 3.828213493399399,
        "distance_wrist_2_joint": 2.104367110451988,
        "distance_wrist_3_joint": 3.116586019701687,
        "smoothness": 0.29142902961997774,
        "time": 3.470740585,
        "traj_len": 3.1629424567521767,
        "weighted_distance": 4.7084984472738505
    },
    "planner": "LBKPIECE",
    "start": {
        "state": {
            "elbow_joint": -2.384821997420982,
            "shoulder_lift_joint": -2.2788054674887404,
            "shoulder_pan_joint": -0.18546946417610016,
            "wrist_1_joint": 1.4845937964226739,
            "wrist_2_joint": 0.1789877726866377,
            "wrist_3_joint": 0.03710572555276528
        }
    },
    "waypoints": [
        {
            "positions": [
                -0.18546946417610016,
                -2.2788054674887404,
                -2.384821997420982,
                1.4845937964226739,
                0.1789877726866377,
                0.03710572555276528
            ]
        },
        {
            "positions": [
                -0.08626731489459383,
                -2.2497974120965827,
                -2.336331036587881,
                1.4372434331342063,
                0.2598643670221626,
                0.021927816004404643
            ]
        },
        {
            "positions": [
                0.012934834386912508,
                -2.2207893567044255,
                -2.2878400757547803,
                1.389893069845739,
                0.34074096135768744,
                0.006749906456044008
            ]
        },
        {
            "positions": [
                0.010946160632732845,
                -2.216878308878102,
                -2.268671629411996,
                1.234330037894803,
                0.25979871461681503,
                -0.12184301856916288
            ]
        },
        {
            "positions": [
                0.008957486878553182,
                -2.2129672610517788,
                -2.249503183069212,
                1.078767005943867,
                0.1788564678759426,
                -0.25043594359436977
            ]
        },
        {
            "positions": [
                0.0069688131243735175,
                -2.2090562132254554,
                -2.230334736726428,
                0.923203973992931,
                0.09791422113507015,
                -0.3790288686195767
            ]
        },
        {
            "positions": [
                0.0049801393701938545,
                -2.205145165399132,
                -2.2111662903836438,
                0.767640942041995,
                0.01697197439419773,
                -0.5076217936447835
            ]
        },
        {
            "positions": [
                0.0029914656160141898,
                -2.2012341175728087,
                -2.191997844040859,
                0.6120779100910589,
                -0.06397027234667474,
                -0.6362147186699905
            ]
        },
        {
            "positions": [
                0.0010027918618345268,
                -2.197323069746486,
                -2.172829397698075,
                0.4565148781401229,
                -0.14491251908754715,
                -0.7648076436951974
            ]
        },
        {
            "positions": [
                -0.000985881892345138,
                -2.1934120219201625,
                -2.153660951355291,
                0.3009518461891869,
                -0.22585476582841962,
                -0.8934005687204043
            ]
        },
        {
            "positions": [
                -0.0029745556465247992,
                -2.189500974093839,
                -2.1344925050125068,
                0.1453888142382509,
                -0.306797012569292,
                -1.0219934937456112
            ]
        },
        {
            "positions": [
                -0.004963229400704462,
                -2.185589926267516,
                -2.1153240586697226,
                -0.010174217712685119,
                -0.38773925931016445,
                -1.1505864187708181
            ]
        },
        {
            "positions": [
                -0.006951903154884129,
                -2.1816788784411925,
                -2.0961556123269385,
                -0.16573724966362113,
                -0.4686815060510369,
                -1.279179343796025
            ]
        },
        {
            "positions": [
                -0.008940576909063792,
                -2.177767830614869,
                -2.0769871659841543,
                -0.32130028161455715,
                -0.5496237527919092,
                -1.407772268821232
            ]
        },
        {
            "positions": [
                -0.010929250663243455,
                -2.1738567827885458,
                -2.05781871964137,
                -0.47686331356549316,
                -0.6305659995327817,
                -1.5363651938464389
            ]
        },
        {
            "positions": [
                -0.012917924417423118,
                -2.1699457349622224,
                -2.038650273298586,
                -0.6324263455164292,
                -0.7115082462736542,
                -1.6649581188716454
            ]
        },
        {
            "positions": [
                -0.014906598171602784,
                -2.166034687135899,
                -2.0194818269558015,
                -0.7879893774673652,
                -0.7924504930145266,
                -1.7935510438968527
            ]
        },
        {
            "positions": [
                -0.016895271925782447,
                -2.1621236393095757,
                -2.0003133806130178,
                -0.9435524094183012,
                -0.8733927397553991,
                -1.9221439689220596
            ]
        },
        {
            "positions": [
                -0.018883945679962107,
                -2.1582125914832524,
                -1.9811449342702334,
                -1.0991154413692372,
                -0.9543349864962714,
                -2.050736893947266
            ]
        },
        {
            "positions": [
                -0.020872619434141773,
                -2.154301543656929,
                -1.961976487927449,
                -1.2546784733201732,
                -1.0352772332371438,
                -2.1793298189724735
            ]
        },
        {
            "positions": [
                -0.022861293188321433,
                -2.1503904958306057,
                -1.942808041584665,
                -1.4102415052711093,
                -1.1162194799780163,
                -2.30792274399768
            ]
        },
        {
            "positions": [
                -0.0248499669425011,
                -2.146479448004283,
                -1.9236395952418808,
                -1.5658045372220453,
                -1.1971617267188888,
                -2.436515669022887
            ]
        },
        {
            "positions": [
                -0.026838640696680766,
                -2.1425684001779595,
                -1.9044711488990966,
                -1.7213675691729813,
                -1.2781039734597612,
                -2.5651085940480938
            ]
        },
        {
            "positions": [
                -0.028827314450860425,
                -2.138657352351636,
                -1.8853027025563125,
                -1.8769306011239173,
                -1.3590462202006335,
                -2.6937015190733007
            ]
        },
        {
            "positions": [
                -0.03081598820504009,
                -2.1347463045253128,
                -1.8661342562135284,
                -2.0324936330748535,
                -1.439988466941506,
                -2.8222944440985076
            ]
        },
        {
            "positions": [
                -0.03280466195921976,
                -2.1308352566989894,
                -1.846965809870744,
                -2.1880566650257895,
                -1.5209307136823784,
                -2.9508873691237145
            ]
        },
        {
            "positions": [
                -0.03479333571339942,
                -2.126924208872666,
                -1.8277973635279599,
                -2.343619696976725,
                -1.601872960423251,
                -3.0794802941489214
            ]
        }
    ]
}