{
    "goal": {
        "global_pose": {
            "orientation": {
                "w": 0.7047431493862688,
                "x": -0.7094548369677653,
                "y": 0.0024358444001904,
                "z": -0.0022348060817251984
            },
            "position": {
                "x": -0.39052492380142206,
                "y": 0.3671506643295288,
                "z": 0.19426114857196808
            }
        },
        "name": "move_to_magneteinheit_D"
    },
    "id": "LBKPIECE_move_to_magneteinheit_D_104",
    "joint_names": [
        "shoulder_pan_joint",
        "shoulder_lift_joint",
        "elbow_joint",
        "wrist_1_joint",
        "wrist_2_joint",
        "wrist_3_joint"
    ],
    "metrics": {
        "cart_traj_len": 4.0988931241930775,
        "distance_elbow_joint": 5.141485247384061,
        "distance_shoulder_lift_joint": 1.6351007475075745,
        "distance_shoulder_pan_joint": 3.675918160455854,
        "distance_wrist_1_joint": 2.3454585544438222,
        "distance_wrist_2_joint": 1.2463039405401277,
        "distance_wrist_3_joint": 4.9188515700172415,
        "smoothness": 0.45284373137466943,
        "time": 0.926101474,
        "traj_len": 4.354666258204948,
        "weighted_distance": 5.691448309118437
    },
    "planner": "LBKPIECE",
    "start": {
        "state": {
            "elbow_joint": 0.7495348899011973,
            "shoulder_lift_joint": -0.6476975780737697,
            "shoulder_pan_joint": -2.711696901376276,
            "wrist_1_joint": -0.07506478080974305,
            "wrist_2_joint": 0.4329665971545858,
            "wrist_3_joint": 3.1361499051832524
        }
    },
    "waypoints": [
        {
            "positions": [
                -2.711696901376276,
                -0.6476975780737697,
                0.7495348899011973,
                -0.07506478080974305,
                0.4329665971545858,
                3.1361499051832524
            ]
        },
        {
            "positions": [
                -2.704390137177931,
                -0.6796040582901993,
                0.836912182884999,
                0.006915260445440441,
                0.3814963446847115,
                3.0520707555042574
            ]
        },
        {
            "positions": [
                -2.6970833729795856,
                -0.7115105385066288,
                0.9242894758688008,
                0.08889530170062393,
                0.3300260922148372,
                2.9679916058252624
            ]
        },
        {
            "positions": [
                -2.6897766087812403,
                -0.7434170187230584,
                1.0116667688526026,
                0.17087534295580742,
                0.2785558397449629,
                2.8839124561462675
            ]
        },
        {
            "positions": [
                -2.682469844582895,
                -0.7753234989394879,
                1.0990440618364044,
                0.2528553842109909,
                0.22708558727508857,
                2.7998333064672725
            ]
        },
        {
            "positions": [
                -2.6751630803845496,
                -0.8072299791559175,
                1.1864213548202063,
                0.33483542546617445,
                0.17561533480521424,
                2.715754156788277
            ]
        },
        {
            "positions": [
                -2.6678563161862043,
                -0.839136459372347,
                1.273798647804008,
                0.4168154667213579,
                0.12414508233533994,
                2.631675007109282
            ]
        },
        {
            "positions": [
                -2.660549551987859,
                -0.8710429395887767,
                1.3611759407878097,
                0.4987955079765414,
                0.07267482986546567,
                2.547595857430287
            ]
        },
        {
            "positions": [
                -2.6470886170654517,
                -0.9066537386639892,
                1.4500918517461678,
                0.5852443871201145,
                0.025517372718246514,
                2.4771020961528114
            ]
        },
        {
            "positions": [
                -2.633627682143045,
                -0.9422645377392017,
                1.5390077627045258,
                0.6716932662636877,
                -0.02164008442897264,
                2.406608334875336
            ]
        },
        {
            "positions": [
                -2.6201667472206376,
                -0.9778753368144142,
                1.6279236736628837,
                0.758142145407261,
                -0.0687975415761918,
                2.336114573597861
            ]
        },
        {
            "positions": [
                -2.6067058122982303,
                -1.0134861358896268,
                1.7168395846212419,
                0.8445910245508341,
                -0.11595499872341096,
                2.2656208123203854
            ]
        },
        {
            "positions": [
                -2.5261907784036675,
                -1.0710996488332591,
                1.737011355325659,
                0.9271472686338624,
                -0.1493412813468604,
                2.1584529721332233
            ]
        },
        {
            "positions": [
                -2.4456757445091046,
                -1.1287131617768915,
                1.7571831260300763,
                1.0097035127168907,
                -0.18272756397030984,
                2.0512851319460608
            ]
        },
        {
            "positions": [
                -2.341387095025379,
                -1.1709692518051378,
                1.6433349319928556,
                1.027237827653106,
                -0.18030116329855256,
                1.9652462230740888
            ]
        },
        {
            "positions": [
                -2.237098445541653,
                -1.2132253418333838,
                1.529486737955635,
                1.0447721425893213,
                -0.17787476262679527,
                1.879207314202117
            ]
        },
        {
            "positions": [
                -2.132809796057927,
                -1.25548143186163,
                1.4156385439184143,
                1.0623064575255365,
                -0.175448361955038,
                1.793168405330145
            ]
        },
        {
            "positions": [
                -2.0319316473665276,
                -1.267301685330644,
                1.2905399331356286,
                1.0955497736280368,
                -0.16537152020005674,
                1.686340170363267
            ]
        },
        {
            "positions": [
                -1.9310534986751282,
                -1.2791219387996577,
                1.1654413223528428,
                1.1287930897305372,
                -0.1552946784450755,
                1.579511935396389
            ]
        },
        {
            "positions": [
                -1.8301753499837288,
                -1.2909421922686717,
                1.040342711570057,
                1.1620364058330372,
                -0.14521783669009425,
                1.4726837004295108
            ]
        },
        {
            "positions": [
                -1.7292972012923293,
                -1.3027624457376854,
                0.9152441007872714,
                1.1952797219355376,
                -0.135140994935113,
                1.3658554654626327
            ]
        },
        {
            "positions": [
                -1.62841905260093,
                -1.3145826992066993,
                0.7901454900044856,
                1.2285230380380379,
                -0.12506415318013178,
                1.2590272304957546
            ]
        },
        {
            "positions": [
                -1.5275409039095305,
                -1.3264029526757133,
                0.6650468792216999,
                1.261766354140538,
                -0.11498731142515053,
                1.1521989955288765
            ]
        },
        {
            "positions": [
                -1.426662755218131,
                -1.338223206144727,
                0.5399482684389142,
                1.2950096702430383,
                -0.10491046967016929,
                1.0453707605619984
            ]
        },
        {
            "positions": [
                -1.3257846065267316,
                -1.350043459613741,
                0.41484965765612847,
                1.3282529863455386,
                -0.09483362791518804,
                0.9385425255951204
            ]
        },
        {
            "positions": [
                -1.2249064578353321,
                -1.3618637130827547,
                0.28975104687334285,
                1.3614963024480389,
                -0.0847567861602068,
                0.8317142906282424
            ]
        },
        {
            "positions": [
                -1.1240283091439327,
                -1.3736839665517686,
                0.16465243609055702,
                1.3947396185505392,
                -0.07467994440522556,
                0.7248860556613643
            ]
        },
        {
            "positions": [
                -1.0231501604525333,
                -1.3855042200207826,
                0.039553825307771406,
                1.4279829346530393,
                -0.06460310265024431,
                0.6180578206944862
            ]
        },
        {
            "positions": [
                -0.9222720117611338,
                -1.3973244734897963,
                -0.08554478547501443,
                1.4612262507555396,
                -0.05452626089526308,
                0.5112295857276081
            ]
        },
        {
            "positions": [
                -0.8213938630697344,
                -1.4091447269588102,
                -0.21064339625780004,
                1.4944695668580399,
                -0.04444941914028183,
                0.40440135076073
            ]
        },
        {
            "positions": [
                -0.7205157143783347,
                -1.420964980427824,
                -0.3357420070405859,
                1.5277128829605402,
                -0.034372577385300584,
                0.2975731157938517
            ]
        },
        {
            "positions": [
                -0.6196375656869355,
                -1.4327852338968379,
                -0.4608406178233715,
                1.5609561990630403,
                -0.024295735630319365,
                0.19074488082697383
            ]
        },
        {
            "positions": [
                -0.5187594169955361,
                -1.4446054873658518,
                -0.5859392286061573,
                1.5941995151655406,
                -0.01421889387533809,
                0.08391664586009573
            ]
        },
        {
            "positions": [
                -0.4178812683041364,
                -1.4564257408348655,
                -0.7110378393889429,
                1.627442831268041,
                -0.004142052120356843,
                -0.02291158910678237
            ]
        },
        {
            "positions": [
                -0.3170031196127372,
                -1.4682459943038795,
                -0.8361364501717286,
                1.6606861473705412,
                0.005934789634624377,
                -0.12973982407366025
            ]
        },
        {
            "positions": [
                -0.21612497092133776,
                -1.4800662477728932,
                -0.9612350609545146,
                1.6939294634730415,
                0.016011631389605624,
                -0.23656805904053835
            ]
        },
        {
            "positions": [
                -0.11524682222993832,
                -1.4918865012419071,
                -1.0863336717373002,
                1.7271727795755418,
                0.02608847314458687,
                -0.34339629400741645
            ]
        },
        {
            "positions": [
                -0.014368673538538879,
                -1.503706754710921,
                -1.2114322825200858,
                1.760416095678042,
                0.03616531489956809,
                -0.45022452897429455
            ]
        },
        {
            "positions": [
                0.08650947515286056,
                -1.5155270081799348,
                -1.3365308933028714,
                1.793659411780542,
                0.046242156654549366,
                -0.5570527639411726
            ]
        },
        {
            "positions": [
                0.18738762384426,
                -1.5273472616489487,
                -1.4616295040856575,
                1.8269027278830423,
                0.05631899840953061,
                -0.6638809989080507
            ]
        },
        {
            "positions": [
                0.28826577253565944,
                -1.5391675151179625,
                -1.5867281148684431,
                1.8601460439855426,
                0.06639584016451183,
                -0.7707092338749288
            ]
        },
        {
            "positions": [
                0.38914392122705865,
                -1.5509877685869764,
                -1.7118267256512287,
                1.893389360088043,
                0.07647268191949308,
                -0.877537468841807
            ]
        },
        {
            "positions": [
                0.32938051014286496,
                -1.6350964229997378,
                -1.7754404458525874,
                1.8549115302782178,
                0.05950281282223333,
                -0.765598321640081
            ]
        },
        {
            "positions": [
                0.2696170990586712,
                -1.7192050774124994,
                -1.839054166053946,
                1.8164337004683926,
                0.042532943724973585,
                -0.6536591744383551
            ]
        },
        {
            "positions": [
                0.20985368797447748,
                -1.803313731825261,
                -1.9026678862553044,
                1.7779558706585674,
                0.025563074627713837,
                -0.5417200272366293
            ]
        },
        {
            "positions": [
                0.15009027689028376,
                -1.8874223862380224,
                -1.966281606456663,
                1.7394780408487422,
                0.00859320553045409,
                -0.42978088003490333
            ]
        },
        {
            "positions": [
                0.09032686580609006,
                -1.9715310406507838,
                -2.0298953266580217,
                1.701000211038917,
                -0.008376663566805664,
                -0.3178417328331774
            ]
        },
        {
            "positions": [
                0.03056345472189631,
                -2.0556396950635456,
                -2.0935090468593804,
                1.662522381229092,
                -0.025346532664065405,
                -0.20590258563145158
            ]
        },
        {
            "positions": [
                -0.02919995636229744,
                -2.139748349476307,
                -2.1571227670607387,
                1.6240445514192667,
                -0.042316401761325145,
                -0.09396343842972565
            ]
        },
        {
            "positions": [
                -0.08896336744649112,
                -2.2238570038890684,
                -2.2207364872620974,
                1.5855667216094416,
                -0.059286270858584886,
                0.017975708772000294
            ]
        },
        {
            "positions": [
                -0.137448392035976,
                -2.253327664735206,
                -2.2986951862436036,
                1.5509758340757243,
                0.058539019515090676,
                0.013150199582813021
            ]
        },
        {
            "positions": [
                -0.18593341662546087,
                -2.282798325581344,
                -2.37665388522511,
                1.5163849465420067,
                0.17636430988876622,
                0.00832469039362575
            ]
        }
    ]
}