{
    "goal": {
        "global_pose": {
            "orientation": {
                "w": 0.7047431493862688,
                "x": -0.7094548369677653,
                "y": 0.0024358444001904,
                "z": -0.0022348060817251984
            },
            "position": {
                "x": -0.39052492380142206,
                "y": 0.3671506643295288,
                "z": 0.19426114857196808
            }
        },
        "name": "move_to_magneteinheit_D"
    },
    "id": "LBKPIECE_move_to_magneteinheit_D_37",
    "joint_names": [
        "shoulder_pan_joint",
        "shoulder_lift_joint",
        "elbow_joint",
        "wrist_1_joint",
        "wrist_2_joint",
        "wrist_3_joint"
    ],
    "metrics": {
        "cart_traj_len": 3.891883078777434,
        "distance_elbow_joint": 5.449248612400558,
        "distance_shoulder_lift_joint": 1.625840932565875,
        "distance_shoulder_pan_joint": 3.200130785987621,
        "distance_wrist_1_joint": 1.51532554037375,
        "distance_wrist_2_joint": 2.2321652711632427,
        "distance_wrist_3_joint": 3.050693574243059,
        "smoothness": 0.3558431261303027,
        "time": 4.129794015,
        "traj_len": 4.131997666593496,
        "weighted_distance": 5.188668680572813
    },
    "planner": "LBKPIECE",
    "start": {
        "state": {
            "elbow_joint": 0.7495348899011973,
            "shoulder_lift_joint": -0.6476975780737697,
            "shoulder_pan_joint": -2.711696901376276,
            "wrist_1_joint": -0.07506478080974305,
            "wrist_2_joint": 0.4329665971545858,
            "wrist_3_joint": 3.1361499051832524
        }
    },
    "waypoints": [
        {
            "positions": [
                -2.711696901376276,
                -0.6476975780737697,
                0.7495348899011973,
                -0.07506478080974305,
                0.4329665971545858,
                3.1361499051832524
            ]
        },
        {
            "positions": [
                -2.7055222123192344,
                -0.6790913075090556,
                0.8125441821959565,
                -0.025282960181569655,
                0.3789415116589259,
                2.956893887981837
            ]
        },
        {
            "positions": [
                -2.6993475232621926,
                -0.7104850369443414,
                0.8755534744907156,
                0.024498860446603737,
                0.3249164261632661,
                2.777637870780422
            ]
        },
        {
            "positions": [
                -2.6931728342051504,
                -0.7418787663796272,
                0.9385627667854748,
                0.07428068107477712,
                0.27089134066760623,
                2.5983818535790064
            ]
        },
        {
            "positions": [
                -2.6869981451481086,
                -0.7732724958149131,
                1.001572059080234,
                0.12406250170295052,
                0.21686625517194638,
                2.4191258363775914
            ]
        },
        {
            "positions": [
                -2.680823456091067,
                -0.804666225250199,
                1.064581351374993,
                0.1738443223311239,
                0.16284116967628653,
                2.239869819176176
            ]
        },
        {
            "positions": [
                -2.674648767034025,
                -0.8360599546854848,
                1.1275906436697523,
                0.22362614295929728,
                0.10881608418062672,
                2.0606138019747604
            ]
        },
        {
            "positions": [
                -2.6684740779769833,
                -0.8674536841207707,
                1.1905999359645114,
                0.27340796358747066,
                0.05479099868496684,
                1.8813577847733451
            ]
        },
        {
            "positions": [
                -2.6622993889199416,
                -0.8988474135560566,
                1.2536092282592706,
                0.3231897842156441,
                0.000765913189306966,
                1.7021017675719299
            ]
        },
        {
            "positions": [
                -2.6561246998628993,
                -0.9302411429913424,
                1.3166185205540297,
                0.3729716048438175,
                -0.05325917230635291,
                1.5228457503705144
            ]
        },
        {
            "positions": [
                -2.6499500108058576,
                -0.9616348724266283,
                1.3796278128487889,
                0.42275342547199085,
                -0.10728425780201273,
                1.3435897331690994
            ]
        },
        {
            "positions": [
                -2.643775321748816,
                -0.9930286018619141,
                1.442637105143548,
                0.4725352461001642,
                -0.16130934329767255,
                1.1643337159676839
            ]
        },
        {
            "positions": [
                -2.5962498870226054,
                -1.0261707889943747,
                1.4742777377556404,
                0.49360233086833294,
                -0.19750808071674392,
                0.995034309982957
            ]
        },
        {
            "positions": [
                -2.5487244522963954,
                -1.0593129761268352,
                1.5059183703677328,
                0.5146694156365017,
                -0.23370681813581531,
                0.8257349039982302
            ]
        },
        {
            "positions": [
                -2.501199017570185,
                -1.0924551632592958,
                1.5375590029798252,
                0.5357365004046705,
                -0.2699055555548867,
                0.6564354980135034
            ]
        },
        {
            "positions": [
                -2.3858828295867442,
                -1.1267951760707757,
                1.3507131059274096,
                0.5428710657769296,
                -0.29343050553449035,
                0.6331231348872352
            ]
        },
        {
            "positions": [
                -2.270566641603304,
                -1.1611351888822559,
                1.1638672088749937,
                0.5500056311491887,
                -0.316955455514094,
                0.6098107717609669
            ]
        },
        {
            "positions": [
                -2.155250453619863,
                -1.1954752016937358,
                0.9770213118225781,
                0.5571401965214476,
                -0.3404804054936976,
                0.5864984086346986
            ]
        },
        {
            "positions": [
                -2.0399342656364228,
                -1.2298152145052157,
                0.7901754147701624,
                0.5642747618937067,
                -0.36400535547330126,
                0.5631860455084303
            ]
        },
        {
            "positions": [
                -1.924618077652982,
                -1.2641552273166958,
                0.6033295177177467,
                0.5714093272659658,
                -0.3875303054529049,
                0.539873682382162
            ]
        },
        {
            "positions": [
                -1.8093018896695414,
                -1.2984952401281757,
                0.41648362066533107,
                0.5785438926382249,
                -0.41105525543250854,
                0.5165613192558938
            ]
        },
        {
            "positions": [
                -1.6939857016861006,
                -1.3328352529396557,
                0.22963772361291523,
                0.585678458010484,
                -0.4345802054121122,
                0.49324895612962544
            ]
        },
        {
            "positions": [
                -1.57866951370266,
                -1.3671752657511358,
                0.042791826560499624,
                0.5928130233827431,
                -0.45810515539171576,
                0.4699365930033572
            ]
        },
        {
            "positions": [
                -1.4633533257192195,
                -1.4015152785626157,
                -0.1440540704919162,
                0.5999475887550021,
                -0.48163010537131945,
                0.4466242298770889
            ]
        },
        {
            "positions": [
                -1.348037137735779,
                -1.4358552913740956,
                -0.3308999675443318,
                0.6070821541272612,
                -0.505155055350923,
                0.4233118667508206
            ]
        },
        {
            "positions": [
                -1.2327209497523381,
                -1.4701953041855758,
                -0.5177458645967477,
                0.6142167194995203,
                -0.5286800053305267,
                0.39999950362455233
            ]
        },
        {
            "positions": [
                -1.1174047617688978,
                -1.5045353169970554,
                -0.704591761649163,
                0.6213512848717794,
                -0.5522049553101303,
                0.37668714049828406
            ]
        },
        {
            "positions": [
                -1.0020885737854572,
                -1.5388753298085356,
                -0.8914376587015789,
                0.6284858502440385,
                -0.5757299052897339,
                0.3533747773720158
            ]
        },
        {
            "positions": [
                -0.8867723858020162,
                -1.5732153426200157,
                -1.0782835557539947,
                0.6356204156162976,
                -0.5992548552693375,
                0.33006241424574745
            ]
        },
        {
            "positions": [
                -0.7714561978185759,
                -1.6075553554314954,
                -1.2651294528064105,
                0.6427549809885565,
                -0.6227798052489413,
                0.30675005111947923
            ]
        },
        {
            "positions": [
                -0.6561400098351353,
                -1.6418953682429756,
                -1.451975349858826,
                0.6498895463608156,
                -0.6463047552285448,
                0.28343768799321095
            ]
        },
        {
            "positions": [
                -0.5408238218516948,
                -1.6762353810544555,
                -1.6388212469112413,
                0.6570241117330747,
                -0.6698297052081484,
                0.2601253248669427
            ]
        },
        {
            "positions": [
                -0.42550763386825396,
                -1.7105753938659354,
                -1.8256671439636576,
                0.6641586771053338,
                -0.6933546551877521,
                0.23681296174067434
            ]
        },
        {
            "positions": [
                -0.3101914458848132,
                -1.7449154066774155,
                -2.012513041016073,
                0.6712932424775929,
                -0.7168796051673557,
                0.21350059861440607
            ]
        },
        {
            "positions": [
                -0.19487525790137283,
                -1.7792554194888954,
                -2.199358938068489,
                0.678427807849852,
                -0.7404045551469594,
                0.1901882354881378
            ]
        },
        {
            "positions": [
                -0.07955906991793249,
                -1.8135954323003753,
                -2.386204835120904,
                0.685562373222111,
                -0.763929505126563,
                0.16687587236186957
            ]
        },
        {
            "positions": [
                0.03575711806550874,
                -1.8479354451118555,
                -2.5730507321733205,
                0.6926969385943701,
                -0.7874544551061666,
                0.14356350923560124
            ]
        },
        {
            "positions": [
                0.15107330604894925,
                -1.8822754579233354,
                -2.759896629225736,
                0.6998315039666292,
                -0.8109794050857703,
                0.12025114610933302
            ]
        },
        {
            "positions": [
                0.0889940576841323,
                -1.9416203142769393,
                -2.7046137947002764,
                0.73308821593577,
                -0.7075225412924984,
                0.11603108834336319
            ]
        },
        {
            "positions": [
                0.026914809319315336,
                -2.000965170630543,
                -2.6493309601748174,
                0.7663449279049109,
                -0.6040656774992266,
                0.11181103057739335
            ]
        },
        {
            "positions": [
                -0.035164439045501594,
                -2.060310026984147,
                -2.594048125649358,
                0.7996016398740518,
                -0.5006088137059548,
                0.10759097281142352
            ]
        },
        {
            "positions": [
                -0.09724368741031858,
                -2.1196548833377507,
                -2.538765291123899,
                0.8328583518431927,
                -0.3971519499126828,
                0.10337091504545368
            ]
        },
        {
            "positions": [
                -0.1593229357751355,
                -2.1789997396913545,
                -2.4834824565984395,
                0.8661150638123335,
                -0.293695086119411,
                0.09915085727948385
            ]
        },
        {
            "positions": [
                -0.1660640199597133,
                -2.202634432428427,
                -2.461643782976172,
                1.0096514877502518,
                -0.17596134863027907,
                0.0957272256946618
            ]
        },
        {
            "positions": [
                -0.17280510414429107,
                -2.2262691251654996,
                -2.4398051093539044,
                1.1531879116881703,
                -0.05822761114114719,
                0.09230359410983976
            ]
        },
        {
            "positions": [
                -0.17954618832886887,
                -2.249903817902572,
                -2.417966435731637,
                1.2967243356260885,
                0.05950612634798469,
                0.08887996252501772
            ]
        },
        {
            "positions": [
                -0.18628727251344665,
                -2.2735385106396446,
                -2.3961277621093693,
                1.440260759564007,
                0.1772398638371166,
                0.08545633094019567
            ]
        }
    ]
}