{
    "goal": {
        "global_pose": {
            "orientation": {
                "w": -0.4816463035849501,
                "x": 0.5182115481033762,
                "y": 0.4908360881923453,
                "z": -0.5084816262002911
            },
            "position": {
                "x": -0.8240239810943604,
                "y": -0.300875300988555,
                "z": 0.16403168439865112
            }
        },
        "name": "move_to_storage_C"
    },
    "id": "LBKPIECE_move_to_storage_C_125",
    "joint_names": [
        "shoulder_pan_joint",
        "shoulder_lift_joint",
        "elbow_joint",
        "wrist_1_joint",
        "wrist_2_joint",
        "wrist_3_joint"
    ],
    "metrics": {
        "cart_traj_len": 0.5767687994869809,
        "distance_elbow_joint": 0.2549946309352942,
        "distance_shoulder_lift_joint": 0.18958616486816948,
        "distance_shoulder_pan_joint": 0.4951375219717855,
        "distance_wrist_1_joint": 0.06514228593193305,
        "distance_wrist_2_joint": 1.0652445329930353,
        "distance_wrist_3_joint": 0.0541341712734118,
        "smoothness": 0.0,
        "time": 3.974225451,
        "traj_len": 1.4574770351445094,
        "weighted_distance": 1.8338196392899226
    },
    "planner": "LBKPIECE",
    "start": {
        "state": {
            "elbow_joint": 2.010868315001653,
            "shoulder_lift_joint": -1.1634956873357014,
            "shoulder_pan_joint": -2.4736205022346103,
            "wrist_1_joint": -0.8367026794713948,
            "wrist_2_joint": 0.6746043897044093,
            "wrist_3_joint": 3.1335220948105738
        }
    },
    "waypoints": [
        {
            "positions": [
                -2.4736205022346103,
                -1.1634956873357014,
                2.010868315001653,
                -0.8367026794713948,
                0.6746043897044093,
                3.1335220948105738
            ]
        },
        {
            "positions": [
                -2.5561434225632413,
                -1.1318979931910065,
                1.9683692098457708,
                -0.8258456318160726,
                0.8521451452032485,
                3.1425444566894756
            ]
        },
        {
            "positions": [
                -2.638666342891872,
                -1.1003002990463115,
                1.9258701046898883,
                -0.8149885841607504,
                1.0296859007020878,
                3.151566818568378
            ]
        },
        {
            "positions": [
                -2.721189263220503,
                -1.0687026049016166,
                1.883370999534006,
                -0.8041315365054282,
                1.2072266562009268,
                3.1605891804472797
            ]
        },
        {
            "positions": [
                -2.803712183549134,
                -1.0371049107569217,
                1.8408718943781237,
                -0.7932744888501061,
                1.3847674116997661,
                3.1696115423261815
            ]
        },
        {
            "positions": [
                -2.8862351038777647,
                -1.0055072166122268,
                1.7983727892222412,
                -0.7824174411947838,
                1.5623081671986054,
                3.1786339042050837
            ]
        },
        {
            "positions": [
                -2.968758024206396,
                -0.9739095224675319,
                1.755873684066359,
                -0.7715603935394617,
                1.7398489226974447,
                3.1876562660839856
            ]
        }
    ]
}