{
    "goal": {
        "global_pose": {
            "orientation": {
                "w": 0.005598929693374612,
                "x": 0.007748599140229565,
                "y": 0.7110244013736278,
                "z": -0.7031023480610252
            },
            "position": {
                "x": -0.8858502320852131,
                "y": -0.7141253447532654,
                "z": 0.3711530566215515
            }
        },
        "name": "move_to_auspresseinheit_C"
    },
    "id": "LBKPIECE_move_to_auspresseinheit_C_101",
    "joint_names": [
        "shoulder_pan_joint",
        "shoulder_lift_joint",
        "elbow_joint",
        "wrist_1_joint",
        "wrist_2_joint",
        "wrist_3_joint"
    ],
    "metrics": {
        "cart_traj_len": 0.4927635527072368,
        "distance_elbow_joint": 0.9946625647047254,
        "distance_shoulder_lift_joint": 0.3222609637462728,
        "distance_shoulder_pan_joint": 0.25607670585133446,
        "distance_wrist_1_joint": 0.6652892270863786,
        "distance_wrist_2_joint": 1.3055347585410144,
        "distance_wrist_3_joint": 0.05008413339288609,
        "smoothness": 0.0,
        "time": 4.077637759,
        "traj_len": 1.895760626588339,
        "weighted_distance": 2.3801051669486744
    },
    "planner": "LBKPIECE",
    "start": {
        "state": {
            "elbow_joint": 1.752795957773711,
            "shoulder_lift_joint": -0.9740617694225064,
            "shoulder_pan_joint": -2.967991417825858,
            "wrist_1_joint": -0.7595177689806859,
            "wrist_2_joint": 1.7443932448377395,
            "wrist_3_joint": 3.199131542505932
        }
    },
    "waypoints": [
        {
            "positions": [
                -2.967991417825858,
                -0.9740617694225064,
                1.752795957773711,
                -0.7595177689806859,
                1.7443932448377395,
                3.199131542505932
            ]
        },
        {
            "positions": [
                -2.9423837472407244,
                -0.9418356730478792,
                1.6533297013032386,
                -0.692988846272048,
                1.6138397689836381,
                3.1941231291666434
            ]
        },
        {
            "positions": [
                -2.9167760766555912,
                -0.9096095766732519,
                1.553863444832766,
                -0.6264599235634102,
                1.4832862931295365,
                3.1891147158273547
            ]
        },
        {
            "positions": [
                -2.8911684060704577,
                -0.8773834802986246,
                1.4543971883622935,
                -0.5599310008547723,
                1.3527328172754352,
                3.1841063024880665
            ]
        },
        {
            "positions": [
                -2.865560735485324,
                -0.8451573839239973,
                1.354930931891821,
                -0.49340207814613446,
                1.2221793414213336,
                3.1790978891487778
            ]
        },
        {
            "positions": [
                -2.8399530649001905,
                -0.81293128754937,
                1.2554646754213485,
                -0.4268731554374966,
                1.0916258655672322,
                3.174089475809489
            ]
        },
        {
            "positions": [
                -2.8143453943150574,
                -0.7807051911747428,
                1.155998418950876,
                -0.36034423272885874,
                0.9610723897131309,
                3.1690810624702004
            ]
        },
        {
            "positions": [
                -2.788737723729924,
                -0.7484790948001155,
                1.0565321624804034,
                -0.29381531002022093,
                0.8305189138590294,
                3.1640726491309117
            ]
        },
        {
            "positions": [
                -2.76313005314479,
                -0.7162529984254882,
                0.9570659060099308,
                -0.22728638731158302,
                0.6999654380049278,
                3.1590642357916234
            ]
        },
        {
            "positions": [
                -2.737522382559657,
                -0.6840269020508609,
                0.8575996495394582,
                -0.16075746460294515,
                0.5694119621508265,
                3.1540558224523347
            ]
        },
        {
            "positions": [
                -2.7119147119745235,
                -0.6518008056762337,
                0.7581333930689858,
                -0.09422854189430734,
                0.438858486296725,
                3.149047409113046
            ]
        }
    ]
}