{
    "goal": {
        "global_pose": {
            "orientation": {
                "w": -0.00223480608172531,
                "x": 0.0024358444001904467,
                "y": 0.7094548369677653,
                "z": -0.704743149386269
            },
            "position": {
                "x": 0.6205249238014221,
                "y": -0.6371506643295288,
                "z": 0.19426114857196808
            }
        },
        "name": "move_to_magneteinheit_B"
    },
    "id": "LBKPIECE_move_to_magneteinheit_B_113",
    "joint_names": [
        "shoulder_pan_joint",
        "shoulder_lift_joint",
        "elbow_joint",
        "wrist_1_joint",
        "wrist_2_joint",
        "wrist_3_joint"
    ],
    "metrics": {
        "cart_traj_len": 1.4523374086725263,
        "distance_elbow_joint": 0.7296931427013582,
        "distance_shoulder_lift_joint": 1.2483295652743531,
        "distance_shoulder_pan_joint": 1.621524263532315,
        "distance_wrist_1_joint": 2.6035575077813924,
        "distance_wrist_2_joint": 2.940848436122914,
        "distance_wrist_3_joint": 3.1272133848477006,
        "smoothness": 6.106226652474344e-16,
        "time": 2.4057617479999998,
        "traj_len": 3.5030224521490054,
        "weighted_distance": 4.906118528313369
    },
    "planner": "LBKPIECE",
    "start": {
        "state": {
            "elbow_joint": 2.3935871308073637,
            "shoulder_lift_joint": -1.9085141043777403,
            "shoulder_pan_joint": 0.7066247067284167,
            "wrist_1_joint": -0.46782909355067076,
            "wrist_2_joint": 0.7096259085804283,
            "wrist_3_joint": -3.1358149275257428
        }
    },
    "waypoints": [
        {
            "positions": [
                0.7066247067284167,
                -1.9085141043777403,
                2.3935871308073637,
                -0.46782909355067076,
                0.7096259085804283,
                -3.1358149275257428
            ]
        },
        {
            "positions": [
                0.6543174724209226,
                -1.8682454087237288,
                2.3700486423331264,
                -0.38384336749320647,
                0.6147598299958181,
                -3.0349370764016235
            ]
        },
        {
            "positions": [
                0.6020102381134287,
                -1.8279767130697175,
                2.346510153858889,
                -0.29985764143574223,
                0.5198937514112081,
                -2.934059225277504
            ]
        },
        {
            "positions": [
                0.5497030038059346,
                -1.787708017415706,
                2.3229716653846517,
                -0.21587191537827793,
                0.42502767282659787,
                -2.8331813741533844
            ]
        },
        {
            "positions": [
                0.49739576949844055,
                -1.7474393217616948,
                2.2994331769104144,
                -0.1318861893208137,
                0.33016159424198777,
                -2.732303523029265
            ]
        },
        {
            "positions": [
                0.44508853519094654,
                -1.7071706261076833,
                2.275894688436177,
                -0.0479004632633494,
                0.2352955156573776,
                -2.631425671905146
            ]
        },
        {
            "positions": [
                0.39278130088345253,
                -1.6669019304536719,
                2.2523561999619397,
                0.03608526279411489,
                0.14042943707276745,
                -2.5305478207810266
            ]
        },
        {
            "positions": [
                0.34047406657595847,
                -1.6266332347996606,
                2.2288177114877024,
                0.12007098885157913,
                0.0455633584881574,
                -2.4296699696569073
            ]
        },
        {
            "positions": [
                0.28816683226846446,
                -1.5863645391456491,
                2.205279223013465,
                0.20405671490904337,
                -0.04930272009645276,
                -2.328792118532788
            ]
        },
        {
            "positions": [
                0.2358595979609704,
                -1.5460958434916376,
                2.1817407345392277,
                0.2880424409665077,
                -0.14416879868106292,
                -2.2279142674086683
            ]
        },
        {
            "positions": [
                0.18355236365347638,
                -1.5058271478376264,
                2.15820224606499,
                0.37202816702397196,
                -0.23903487726567307,
                -2.127036416284549
            ]
        },
        {
            "positions": [
                0.13124512934598231,
                -1.465558452183615,
                2.1346637575907526,
                0.4560138930814363,
                -0.3339009558502831,
                -2.0261585651604292
            ]
        },
        {
            "positions": [
                0.07893789503848836,
                -1.4252897565296037,
                2.111125269116515,
                0.5399996191389005,
                -0.4287670344348934,
                -1.9252807140363104
            ]
        },
        {
            "positions": [
                0.026630660730994293,
                -1.3850210608755922,
                2.087586780642278,
                0.6239853451963648,
                -0.5236331130195034,
                -1.824402862912191
            ]
        },
        {
            "positions": [
                -0.025676573576499773,
                -1.3447523652215807,
                2.0640482921680405,
                0.707971071253829,
                -0.6184991916041135,
                -1.7235250117880716
            ]
        },
        {
            "positions": [
                -0.07798380788399384,
                -1.3044836695675692,
                2.040509803693803,
                0.7919567973112933,
                -0.7133652701887238,
                -1.622647160663952
            ]
        },
        {
            "positions": [
                -0.1302910421914878,
                -1.2642149739135582,
                2.016971315219566,
                0.8759425233687574,
                -0.8082313487733338,
                -1.5217693095398328
            ]
        },
        {
            "positions": [
                -0.18259827649898175,
                -1.2239462782595467,
                1.9934328267453285,
                0.9599282494262216,
                -0.9030974273579438,
                -1.4208914584157135
            ]
        },
        {
            "positions": [
                -0.23490551080647593,
                -1.1836775826055352,
                1.9698943382710912,
                1.0439139754836861,
                -0.9979635059425541,
                -1.3200136072915938
            ]
        },
        {
            "positions": [
                -0.28721274511397,
                -1.1434088869515238,
                1.9463558497968538,
                1.1278997015411503,
                -1.092829584527164,
                -1.2191357561674745
            ]
        },
        {
            "positions": [
                -0.33951997942146395,
                -1.1031401912975125,
                1.9228173613226165,
                1.2118854275986146,
                -1.1876956631117745,
                -1.1182579050433552
            ]
        },
        {
            "positions": [
                -0.3918272137289579,
                -1.0628714956435013,
                1.8992788728483792,
                1.2958711536560787,
                -1.2825617416963846,
                -1.017380053919236
            ]
        },
        {
            "positions": [
                -0.4441344480364521,
                -1.0226027999894898,
                1.8757403843741418,
                1.3798568797135433,
                -1.3774278202809946,
                -0.9165022027951162
            ]
        },
        {
            "positions": [
                -0.49644168234394603,
                -0.9823341043354783,
                1.8522018958999045,
                1.4638426057710074,
                -1.4722938988656047,
                -0.8156243516709969
            ]
        },
        {
            "positions": [
                -0.54874891665144,
                -0.9420654086814669,
                1.8286634074256671,
                1.5478283318284718,
                -1.5671599774502152,
                -0.714746500546878
            ]
        },
        {
            "positions": [
                -0.6010561509589342,
                -0.9017967130274556,
                1.8051249189514298,
                1.631814057885936,
                -1.6620260560348252,
                -0.6138686494227588
            ]
        },
        {
            "positions": [
                -0.6533633852664281,
                -0.8615280173734441,
                1.7815864304771925,
                1.7157997839434005,
                -1.7568921346194353,
                -0.512990798298639
            ]
        },
        {
            "positions": [
                -0.7056706195739223,
                -0.8212593217194326,
                1.758047942002955,
                1.7997855100008646,
                -1.8517582132040453,
                -0.41211294717451974
            ]
        },
        {
            "positions": [
                -0.7579778538814163,
                -0.7809906260654214,
                1.7345094535287178,
                1.8837712360583287,
                -1.9466242917886554,
                -0.31123509605040045
            ]
        },
        {
            "positions": [
                -0.8102850881889102,
                -0.7407219304114101,
                1.7109709650544804,
                1.9677569621157929,
                -2.0414903703732654,
                -0.21035724492628116
            ]
        },
        {
            "positions": [
                -0.8625923224964044,
                -0.7004532347573984,
                1.6874324765802429,
                2.0517426881732574,
                -2.136356448957876,
                -0.10947939380216143
            ]
        },
        {
            "positions": [
                -0.9148995568038983,
                -0.660184539103387,
                1.6638939881060055,
                2.1357284142307216,
                -2.231222527542486,
                -0.008601542678042154
            ]
        }
    ]
}