{
    "goal": {
        "global_pose": {
            "orientation": {
                "w": 0.5084816262002911,
                "x": -0.4908360881923452,
                "y": 0.5182115481033761,
                "z": -0.48164630358495003
            },
            "position": {
                "x": 0.5540239810943604,
                "y": -0.46912469901144505,
                "z": 0.16403168439865112
            }
        },
        "name": "move_to_storage_B"
    },
    "id": "LBKPIECE_move_to_storage_B_24",
    "joint_names": [
        "shoulder_pan_joint",
        "shoulder_lift_joint",
        "elbow_joint",
        "wrist_1_joint",
        "wrist_2_joint",
        "wrist_3_joint"
    ],
    "metrics": {
        "cart_traj_len": 1.1771454180377443,
        "distance_elbow_joint": 0.9983327673646973,
        "distance_shoulder_lift_joint": 0.46113360159477845,
        "distance_shoulder_pan_joint": 0.9628047381868664,
        "distance_wrist_1_joint": 2.9773812311546646,
        "distance_wrist_2_joint": 2.7196465889653365,
        "distance_wrist_3_joint": 3.132814092541291,
        "smoothness": 0.21656328567716224,
        "time": 1.724818682,
        "traj_len": 3.3544169418555643,
        "weighted_distance": 4.818170713560305
    },
    "planner": "LBKPIECE",
    "start": {
        "state": {
            "elbow_joint": 1.6649325706314817,
            "shoulder_lift_joint": -0.6616388048112454,
            "shoulder_pan_joint": -0.9139837860083814,
            "wrist_1_joint": 2.146757197745094,
            "wrist_2_joint": -2.234196043158733,
            "wrist_3_joint": 0.005471033829999897
        }
    },
    "waypoints": [
        {
            "positions": [
                -0.9139837860083814,
                -0.6616388048112454,
                1.6649325706314817,
                2.146757197745094,
                -2.234196043158733,
                0.005471033829999897
            ]
        },
        {
            "positions": [
                -0.8593723234848702,
                -0.7110603406184712,
                1.6816876109533256,
                2.0880554855566853,
                -2.1556510545257996,
                0.06232702211028064
            ]
        },
        {
            "positions": [
                -0.8047608609613592,
                -0.7604818764256972,
                1.6984426512751698,
                2.029353773368277,
                -2.077106065892866,
                0.1191830103905614
            ]
        },
        {
            "positions": [
                -0.7501493984378481,
                -0.8099034122329232,
                1.7151976915970137,
                1.9706520611798684,
                -1.9985610772599325,
                0.17603899867084213
            ]
        },
        {
            "positions": [
                -0.695537935914337,
                -0.859324948040149,
                1.7319527319188577,
                1.9119503489914598,
                -1.920016088626999,
                0.23289498695112287
            ]
        },
        {
            "positions": [
                -0.6667089757065233,
                -0.8751610873767776,
                1.6780163505164454,
                1.8143360846430663,
                -1.796245066862401,
                0.281176510475439
            ]
        },
        {
            "positions": [
                -0.6378800154987097,
                -0.890997226713406,
                1.624079969114033,
                1.7167218202946728,
                -1.6724740450978033,
                0.32945803399975515
            ]
        },
        {
            "positions": [
                -0.609051055290896,
                -0.9068333660500345,
                1.570143587711621,
                1.6191075559462793,
                -1.5487030233332053,
                0.37773955752407135
            ]
        },
        {
            "positions": [
                -0.5802220950830823,
                -0.922669505386663,
                1.5162072063092087,
                1.5214932915978858,
                -1.4249320015686076,
                0.4260210810483875
            ]
        },
        {
            "positions": [
                -0.5513931348752686,
                -0.9385056447232915,
                1.4622708249067964,
                1.4238790272494921,
                -1.3011609798040094,
                0.4743026045727037
            ]
        },
        {
            "positions": [
                -0.522564174667455,
                -0.95434178405992,
                1.408334443504384,
                1.3262647629010986,
                -1.1773899580394116,
                0.5225841280970198
            ]
        },
        {
            "positions": [
                -0.551133431009752,
                -0.9627633151772251,
                1.4387191593875264,
                1.2184203230855652,
                -1.0942479328471109,
                0.6533691780107334
            ]
        },
        {
            "positions": [
                -0.579702687352049,
                -0.9711848462945304,
                1.4691038752706689,
                1.1105758832700316,
                -1.0111059076548101,
                0.7841542279244469
            ]
        },
        {
            "positions": [
                -0.608271943694346,
                -0.9796063774118355,
                1.4994885911538112,
                1.0027314434544983,
                -0.9279638824625094,
                0.9149392778381604
            ]
        },
        {
            "positions": [
                -0.636841200036643,
                -0.9880279085291408,
                1.5298733070369537,
                0.8948870036389647,
                -0.8448218572702085,
                1.045724327751874
            ]
        },
        {
            "positions": [
                -0.66541045637894,
                -0.996449439646446,
                1.560258022920096,
                0.7870425638234313,
                -0.7616798320779078,
                1.1765093776655875
            ]
        },
        {
            "positions": [
                -0.6939797127212369,
                -1.004870970763751,
                1.5906427388032385,
                0.6791981240078978,
                -0.678537806885607,
                1.307294427579301
            ]
        },
        {
            "positions": [
                -0.7225489690635339,
                -1.0132925018810564,
                1.6210274546863808,
                0.5713536841923644,
                -0.5953957816933063,
                1.4380794774930146
            ]
        },
        {
            "positions": [
                -0.751118225405831,
                -1.0217140329983616,
                1.6514121705695233,
                0.46350924437683083,
                -0.5122537565010055,
                1.5688645274067283
            ]
        },
        {
            "positions": [
                -0.779687481748128,
                -1.0301355641156666,
                1.6817968864526656,
                0.35566480456129745,
                -0.4291117313087047,
                1.6996495773204419
            ]
        },
        {
            "positions": [
                -0.808256738090425,
                -1.038557095232972,
                1.712181602335808,
                0.24782036474576397,
                -0.345969706116404,
                1.8304346272341554
            ]
        },
        {
            "positions": [
                -0.836825994432722,
                -1.0469786263502772,
                1.7425663182189504,
                0.13997592493023037,
                -0.26282768092410314,
                1.9612196771478692
            ]
        },
        {
            "positions": [
                -0.8653952507750189,
                -1.0554001574675822,
                1.7729510341020926,
                0.03213148511469699,
                -0.1796856557318025,
                2.0920047270615827
            ]
        },
        {
            "positions": [
                -0.893964507117316,
                -1.0638216885848875,
                1.8033357499852352,
                -0.07571295470083639,
                -0.09654363053950177,
                2.2227897769752962
            ]
        },
        {
            "positions": [
                -0.9225337634596129,
                -1.0722432197021927,
                1.8337204658683774,
                -0.18355739451636977,
                -0.013401605347201029,
                2.3535748268890098
            ]
        },
        {
            "positions": [
                -0.9511030198019099,
                -1.0806647508194978,
                1.86410518175152,
                -0.29140183433190336,
                0.06974041984509993,
                2.4843598768027233
            ]
        },
        {
            "positions": [
                -0.9796722761442069,
                -1.089086281936803,
                1.8944898976346622,
                -0.39924627414743696,
                0.15288244503740067,
                2.615144926716437
            ]
        },
        {
            "positions": [
                -1.008241532486504,
                -1.0975078130541083,
                1.9248746135178045,
                -0.5070907139629703,
                0.2360244702297014,
                2.7459299766301504
            ]
        },
        {
            "positions": [
                -1.036810788828801,
                -1.1059293441714135,
                1.955259329400947,
                -0.6149351537785037,
                0.31916649542200215,
                2.876715026543864
            ]
        },
        {
            "positions": [
                -1.065380045171098,
                -1.1143508752887186,
                1.9856440452840896,
                -0.7227795935940373,
                0.4023085206143029,
                3.0075000764575774
            ]
        },
        {
            "positions": [
                -1.093949301513395,
                -1.1227724064060238,
                2.016028761167232,
                -0.8306240334095709,
                0.48545054580660363,
                3.138285126371291
            ]
        }
    ]
}