{
    "goal": {
        "global_pose": {
            "orientation": {
                "w": -0.4816463035849501,
                "x": 0.5182115481033762,
                "y": 0.4908360881923453,
                "z": -0.5084816262002911
            },
            "position": {
                "x": -0.8240239810943604,
                "y": 0.19912469901144506,
                "z": 0.16403168439865112
            }
        },
        "name": "move_to_storage_D"
    },
    "id": "LBKPIECE_move_to_storage_D_30",
    "joint_names": [
        "shoulder_pan_joint",
        "shoulder_lift_joint",
        "elbow_joint",
        "wrist_1_joint",
        "wrist_2_joint",
        "wrist_3_joint"
    ],
    "metrics": {
        "cart_traj_len": 0.6247454243024653,
        "distance_elbow_joint": 0.5552325067405552,
        "distance_shoulder_lift_joint": 0.21748092483832915,
        "distance_shoulder_pan_joint": 0.15407538086019645,
        "distance_wrist_1_joint": 3.8240790765285566,
        "distance_wrist_2_joint": 1.7721203195518225,
        "distance_wrist_3_joint": 3.1161220072737588,
        "smoothness": 0.0051953121846757475,
        "time": 4.249843047000001,
        "traj_len": 3.104691645847171,
        "weighted_distance": 4.633309144274869
    },
    "planner": "LBKPIECE",
    "start": {
        "state": {
            "elbow_joint": -2.384821997420982,
            "shoulder_lift_joint": -2.2788054674887404,
            "shoulder_pan_joint": -0.18546946417610016,
            "wrist_1_joint": 1.4845937964226739,
            "wrist_2_joint": 0.1789877726866377,
            "wrist_3_joint": 0.03710572555276528
        }
    },
    "waypoints": [
        {
            "positions": [
                -0.18546946417610016,
                -2.2788054674887404,
                -2.384821997420982,
                1.4845937964226739,
                0.1789877726866377,
                0.03710572555276528
            ]
        },
        {
            "positions": [
                -0.1470733431598461,
                -2.232575785775693,
                -2.3530572167260715,
                1.4233407761149124,
                0.0972118497132674,
                -0.015032784084029832
            ]
        },
        {
            "positions": [
                -0.10867722214359207,
                -2.1863461040626455,
                -2.321292436031161,
                1.362087755807151,
                0.015435926739897105,
                -0.06717129372082495
            ]
        },
        {
            "positions": [
                -0.07028110112733803,
                -2.140116422349598,
                -2.289527655336251,
                1.3008347354993892,
                -0.0663399962334732,
                -0.11930980335762004
            ]
        },
        {
            "positions": [
                -0.03188498011108397,
                -2.0938867406365507,
                -2.2577628746413407,
                1.2395817151916277,
                -0.14811591920684347,
                -0.17144831299441515
            ]
        },
        {
            "positions": [
                -0.03190729360177398,
                -2.0953668405450117,
                -2.2383004480976627,
                1.0768968517690136,
                -0.21379849319131353,
                -0.3036104933910778
            ]
        },
        {
            "positions": [
                -0.031929607092464,
                -2.0968469404534726,
                -2.218838021553985,
                0.9142119883463995,
                -0.2794810671757836,
                -0.4357726737877405
            ]
        },
        {
            "positions": [
                -0.03195192058315402,
                -2.098327040361933,
                -2.199375595010307,
                0.7515271249237855,
                -0.3451636411602536,
                -0.5679348541844031
            ]
        },
        {
            "positions": [
                -0.03197423407384403,
                -2.099807140270394,
                -2.179913168466629,
                0.5888422615011714,
                -0.4108462151447237,
                -0.7000970345810658
            ]
        },
        {
            "positions": [
                -0.031996547564534045,
                -2.101287240178855,
                -2.160450741922951,
                0.42615739807855724,
                -0.4765287891291937,
                -0.8322592149777284
            ]
        },
        {
            "positions": [
                -0.032018861055224064,
                -2.102767340087316,
                -2.1409883153792735,
                0.2634725346559432,
                -0.5422113631136638,
                -0.964421395374391
            ]
        },
        {
            "positions": [
                -0.03204117454591408,
                -2.1042474399957767,
                -2.1215258888355955,
                0.1007876712333291,
                -0.6078939370981338,
                -1.0965835757710536
            ]
        },
        {
            "positions": [
                -0.032063488036604096,
                -2.1057275399042377,
                -2.1020634622919174,
                -0.06189719218928502,
                -0.673576511082604,
                -1.2287457561677164
            ]
        },
        {
            "positions": [
                -0.03208580152729411,
                -2.1072076398126987,
                -2.0826010357482394,
                -0.22458205561189937,
                -0.7392590850670739,
                -1.360907936564379
            ]
        },
        {
            "positions": [
                -0.03210811501798413,
                -2.1086877397211596,
                -2.063138609204562,
                -0.38726691903451327,
                -0.8049416590515439,
                -1.4930701169610416
            ]
        },
        {
            "positions": [
                -0.03213042850867415,
                -2.1101678396296206,
                -2.043676182660884,
                -0.5499517824571274,
                -0.8706242330360141,
                -1.6252322973577042
            ]
        },
        {
            "positions": [
                -0.03215274199936416,
                -2.111647939538081,
                -2.0242137561172058,
                -0.7126366458797413,
                -0.9363068070204841,
                -1.7573944777543669
            ]
        },
        {
            "positions": [
                -0.03217505549005417,
                -2.113128039446542,
                -2.0047513295735278,
                -0.8753215093023556,
                -1.0019893810049543,
                -1.8895566581510297
            ]
        },
        {
            "positions": [
                -0.03219736898074419,
                -2.114608139355003,
                -1.98528890302985,
                -1.0380063727249695,
                -1.0676719549894242,
                -2.021718838547692
            ]
        },
        {
            "positions": [
                -0.03221968247143421,
                -2.116088239263464,
                -1.9658264764861721,
                -1.2006912361475834,
                -1.1333545289738942,
                -2.1538810189443547
            ]
        },
        {
            "positions": [
                -0.03224199596212422,
                -2.1175683391719247,
                -1.9463640499424941,
                -1.3633760995701978,
                -1.1990371029583644,
                -2.2860431993410177
            ]
        },
        {
            "positions": [
                -0.032264309452814235,
                -2.1190484390803856,
                -1.926901623398816,
                -1.5260609629928121,
                -1.2647196769428344,
                -2.41820537973768
            ]
        },
        {
            "positions": [
                -0.032286622943504255,
                -2.1205285389888466,
                -1.9074391968551383,
                -1.6887458264154265,
                -1.3304022509273046,
                -2.550367560134343
            ]
        },
        {
            "positions": [
                -0.032308936434194274,
                -2.1220086388973076,
                -1.8879767703114605,
                -1.8514306898380404,
                -1.3960848249117745,
                -2.6825297405310056
            ]
        },
        {
            "positions": [
                -0.03233124992488429,
                -2.123488738805768,
                -1.8685143437677825,
                -2.0141155532606545,
                -1.4617673988962445,
                -2.814691920927668
            ]
        },
        {
            "positions": [
                -0.0323535634155743,
                -2.124968838714229,
                -1.8490519172241044,
                -2.1768004166832684,
                -1.5274499728807147,
                -2.946854101324331
            ]
        },
        {
            "positions": [
                -0.03237587690626432,
                -2.12644893862269,
                -1.8295894906804266,
                -2.3394852801058827,
                -1.5931325468651847,
                -3.0790162817209934
            ]
        }
    ]
}