{
    "goal": {
        "global_pose": {
            "orientation": {
                "w": 0.5084816217422485,
                "x": -0.49083608388900757,
                "y": 0.5182115435600281,
                "z": -0.4816462993621826
            },
            "position": {
                "x": 0.5540239810943604,
                "y": 0.030875300988554955,
                "z": 0.16403168439865112
            }
        },
        "name": "move_to_storage_A"
    },
    "id": "LBKPIECE_move_to_storage_A_65",
    "joint_names": [
        "shoulder_pan_joint",
        "shoulder_lift_joint",
        "elbow_joint",
        "wrist_1_joint",
        "wrist_2_joint",
        "wrist_3_joint"
    ],
    "metrics": {
        "cart_traj_len": 0.3534622167653177,
        "distance_elbow_joint": 0.44731161279759846,
        "distance_shoulder_lift_joint": 0.23392704681533183,
        "distance_shoulder_pan_joint": 0.4618961518796639,
        "distance_wrist_1_joint": 0.23649908799720765,
        "distance_wrist_2_joint": 1.0999321860764972,
        "distance_wrist_3_joint": 0.09956959267750554,
        "smoothness": 0.0,
        "time": 3.532128348,
        "traj_len": 1.605968766272808,
        "weighted_distance": 2.0284738444634973
    },
    "planner": "LBKPIECE",
    "start": {
        "state": {
            "elbow_joint": 1.9715474177455299,
            "shoulder_lift_joint": -1.139484666580328,
            "shoulder_pan_joint": 0.12281154398918248,
            "wrist_1_joint": -0.7804687475355282,
            "wrist_2_joint": 0.12958649657246987,
            "wrist_3_joint": -3.1924925159053466
        }
    },
    "waypoints": [
        {
            "positions": [
                0.12281154398918248,
                -1.139484666580328,
                1.9715474177455299,
                -0.7804687475355282,
                0.12958649657246987,
                -3.1924925159053466
            ]
        },
        {
            "positions": [
                0.056826379434944785,
                -1.1729028161253754,
                2.0354490767166156,
                -0.8142543315351293,
                0.2867196660119695,
                -3.1782682883799884
            ]
        },
        {
            "positions": [
                -0.009158785119292912,
                -1.2063209656704228,
                2.099350735687701,
                -0.8480399155347303,
                0.44385283545146914,
                -3.1640440608546307
            ]
        },
        {
            "positions": [
                -0.07514394967353061,
                -1.2397391152154702,
                2.1632523946587865,
                -0.8818254995343314,
                0.6009860048909688,
                -3.1498198333292726
            ]
        },
        {
            "positions": [
                -0.1411291142277683,
                -1.2731572647605176,
                2.2271540536298717,
                -0.9156110835339326,
                0.7581191743304684,
                -3.135595605803915
            ]
        },
        {
            "positions": [
                -0.207114278782006,
                -1.306575414305565,
                2.2910557126009574,
                -0.9493966675335337,
                0.9152523437699681,
                -3.121371378278557
            ]
        },
        {
            "positions": [
                -0.2730994433362437,
                -1.3399935638506124,
                2.3549573715720427,
                -0.9831822515331348,
                1.0723855132094675,
                -3.107147150753199
            ]
        },
        {
            "positions": [
                -0.3390846078904814,
                -1.3734117133956598,
                2.4188590305431283,
                -1.0169678355327358,
                1.2295186826489672,
                -3.092922923227841
            ]
        }
    ]
}