{
    "goal": {
        "global_pose": {
            "orientation": {
                "w": 0.7047431468963623,
                "x": -0.7094548344612122,
                "y": 0.0024358443915843964,
                "z": -0.0022348060738295317
            },
            "position": {
                "x": 0.6094750761985779,
                "y": 0.3671506643295288,
                "z": 0.19426114857196808
            }
        },
        "name": "move_to_magneteinheit_A"
    },
    "id": "LBKPIECE_move_to_magneteinheit_A_22",
    "joint_names": [
        "shoulder_pan_joint",
        "shoulder_lift_joint",
        "elbow_joint",
        "wrist_1_joint",
        "wrist_2_joint",
        "wrist_3_joint"
    ],
    "metrics": {
        "cart_traj_len": 1.054260057708942,
        "distance_elbow_joint": 0.38224048486303364,
        "distance_shoulder_lift_joint": 0.36767767783716554,
        "distance_shoulder_pan_joint": 1.2419740473689291,
        "distance_wrist_1_joint": 2.2100706031464856,
        "distance_wrist_2_joint": 1.6980430818636478,
        "distance_wrist_3_joint": 1.226767380526859,
        "smoothness": 4.2071609555499764e-16,
        "time": 3.289832653,
        "traj_len": 2.669601707297574,
        "weighted_distance": 3.6726586720889234
    },
    "planner": "LBKPIECE",
    "start": {
        "state": {
            "elbow_joint": 1.5739458966750683,
            "shoulder_lift_joint": -1.4977259741207325,
            "shoulder_pan_joint": -1.1188672016454206,
            "wrist_1_joint": 1.494575848278785,
            "wrist_2_joint": -1.5706037134824402,
            "wrist_3_joint": -2.0226957942261072
        }
    },
    "waypoints": [
        {
            "positions": [
                -1.1188672016454206,
                -1.4977259741207325,
                1.5739458966750683,
                1.494575848278785,
                -1.5706037134824402,
                -2.0226957942261072
            ]
        },
        {
            "positions": [
                -1.0498686434582578,
                -1.4772994364631122,
                1.595181479167459,
                1.3717941481039801,
                -1.4762679867122375,
                -2.0908495375887104
            ]
        },
        {
            "positions": [
                -0.9808700852710952,
                -1.456872898805492,
                1.6164170616598499,
                1.2490124479291755,
                -1.381932259942035,
                -2.159003280951314
            ]
        },
        {
            "positions": [
                -0.9118715270839325,
                -1.4364463611478715,
                1.6376526441522405,
                1.1262307477543707,
                -1.2875965331718322,
                -2.227157024313917
            ]
        },
        {
            "positions": [
                -0.8428729688967698,
                -1.4160198234902512,
                1.6588882266446314,
                1.0034490475795659,
                -1.1932608064016297,
                -2.2953107676765203
            ]
        },
        {
            "positions": [
                -0.7738744107096069,
                -1.395593285832631,
                1.680123809137022,
                0.8806673474047612,
                -1.098925079631427,
                -2.3634645110391235
            ]
        },
        {
            "positions": [
                -0.7048758525224443,
                -1.3751667481750107,
                1.701359391629413,
                0.7578856472299564,
                -1.0045893528612244,
                -2.431618254401727
            ]
        },
        {
            "positions": [
                -0.6358772943352815,
                -1.3547402105173902,
                1.7225949741218036,
                0.6351039470551517,
                -0.9102536260910216,
                -2.4997719977643302
            ]
        },
        {
            "positions": [
                -0.5668787361481188,
                -1.33431367285977,
                1.7438305566141943,
                0.512322246880347,
                -0.815917899320819,
                -2.5679257411269334
            ]
        },
        {
            "positions": [
                -0.49788017796095607,
                -1.3138871352021497,
                1.7650661391065852,
                0.38954054670554217,
                -0.7215821725506163,
                -2.636079484489537
            ]
        },
        {
            "positions": [
                -0.42888161977379335,
                -1.2934605975445295,
                1.786301721598976,
                0.26675884653073734,
                -0.6272464457804136,
                -2.70423322785214
            ]
        },
        {
            "positions": [
                -0.3598830615866305,
                -1.2730340598869092,
                1.8075373040913667,
                0.1439771463559325,
                -0.5329107190102109,
                -2.7723869712147433
            ]
        },
        {
            "positions": [
                -0.2908845033994679,
                -1.2526075222292887,
                1.8287728865837574,
                0.021195446181127897,
                -0.4385749922400084,
                -2.8405407145773465
            ]
        },
        {
            "positions": [
                -0.2218859452123052,
                -1.2321809845716685,
                1.8500084690761482,
                -0.10158625399367693,
                -0.34423926546980566,
                -2.9086944579399496
            ]
        },
        {
            "positions": [
                -0.15288738702514237,
                -1.2117544469140482,
                1.871244051568539,
                -0.22436795416848154,
                -0.2499035386996029,
                -2.9768482013025532
            ]
        },
        {
            "positions": [
                -0.08388882883797955,
                -1.1913279092564277,
                1.8924796340609298,
                -0.3471496543432864,
                -0.1555678119294004,
                -3.045001944665157
            ]
        },
        {
            "positions": [
                -0.014890270650816939,
                -1.1709013715988075,
                1.9137152165533204,
                -0.469931354518091,
                -0.06123208515919787,
                -3.11315568802776
            ]
        },
        {
            "positions": [
                0.05410828753634567,
                -1.1504748339411872,
                1.934950799045711,
                -0.592713054692896,
                0.033103641611004875,
                -3.181309431390363
            ]
        },
        {
            "positions": [
                0.12310684572350855,
                -1.130048296283567,
                1.956186381538102,
                -0.7154947548677004,
                0.12743936838120762,
                -3.2494631747529663
            ]
        }
    ]
}