{
    "goal": {
        "global_pose": {
            "orientation": {
                "w": 0.5084816262002911,
                "x": -0.4908360881923452,
                "y": 0.5182115481033761,
                "z": -0.48164630358495003
            },
            "position": {
                "x": 0.5540239810943604,
                "y": -0.46912469901144505,
                "z": 0.16403168439865112
            }
        },
        "name": "move_to_storage_B"
    },
    "id": "LBKPIECE_move_to_storage_B_87",
    "joint_names": [
        "shoulder_pan_joint",
        "shoulder_lift_joint",
        "elbow_joint",
        "wrist_1_joint",
        "wrist_2_joint",
        "wrist_3_joint"
    ],
    "metrics": {
        "cart_traj_len": 2.3218045991992184,
        "distance_elbow_joint": 0.7090538126183403,
        "distance_shoulder_lift_joint": 0.5949661716191077,
        "distance_shoulder_pan_joint": 2.5205824046376173,
        "distance_wrist_1_joint": 3.626388826263619,
        "distance_wrist_2_joint": 2.7006927251275012,
        "distance_wrist_3_joint": 3.6524950480765637,
        "smoothness": 0.3464479990549469,
        "time": 1.931744559,
        "traj_len": 3.7153975545482014,
        "weighted_distance": 5.237962450790096
    },
    "planner": "LBKPIECE",
    "start": {
        "state": {
            "elbow_joint": 1.6649325706314817,
            "shoulder_lift_joint": -0.6616388048112454,
            "shoulder_pan_joint": -0.9139837860083814,
            "wrist_1_joint": 2.146757197745094,
            "wrist_2_joint": -2.234196043158733,
            "wrist_3_joint": 0.005471033829999897
        }
    },
    "waypoints": [
        {
            "positions": [
                -0.9139837860083814,
                -0.6616388048112454,
                1.6649325706314817,
                2.146757197745094,
                -2.234196043158733,
                0.005471033829999897
            ]
        },
        {
            "positions": [
                -0.7840525072604994,
                -0.6540993839939502,
                1.6448978283760656,
                2.182596483472831,
                -2.090909632070323,
                -0.022597783317975788
            ]
        },
        {
            "positions": [
                -0.6541212285126173,
                -0.6465599631766551,
                1.6248630861206497,
                2.2184357692005676,
                -1.9476232209819135,
                -0.05066660046595147
            ]
        },
        {
            "positions": [
                -0.5241899497647353,
                -0.6390205423593599,
                1.6048283438652335,
                2.254275054928304,
                -1.804336809893504,
                -0.07873541761392715
            ]
        },
        {
            "positions": [
                -0.3942586710168533,
                -0.6314811215420648,
                1.5847936016098176,
                2.2901143406560407,
                -1.6610503988050942,
                -0.10680423476190283
            ]
        },
        {
            "positions": [
                -0.2643273922689712,
                -0.6239417007247696,
                1.5647588593544015,
                2.3259536263837775,
                -1.5177639877166844,
                -0.13487305190987856
            ]
        },
        {
            "positions": [
                -0.13439611352108927,
                -0.6164022799074745,
                1.5447241170989856,
                2.361792912111514,
                -1.3744775766282749,
                -0.1629418690578542
            ]
        },
        {
            "positions": [
                -0.004464834773207138,
                -0.6088628590901793,
                1.5246893748435695,
                2.3976321978392505,
                -1.231191165539865,
                -0.19101068620582992
            ]
        },
        {
            "positions": [
                0.12546644397467477,
                -0.6013234382728843,
                1.5046546325881536,
                2.4334714835669873,
                -1.0879047544514555,
                -0.21907950335380558
            ]
        },
        {
            "positions": [
                0.2553977227225568,
                -0.5937840174555891,
                1.4846198903327374,
                2.469310769294724,
                -0.9446183433630457,
                -0.24714832050178126
            ]
        },
        {
            "positions": [
                0.20535324509638347,
                -0.6133066613171984,
                1.5042028952334632,
                2.3469465006016135,
                -0.8923548239063119,
                -0.12122699851123375
            ]
        },
        {
            "positions": [
                0.15530876747021014,
                -0.6328293051788076,
                1.523785900134189,
                2.2245822319085025,
                -0.840091304449578,
                0.004694323479313756
            ]
        },
        {
            "positions": [
                0.1052642898440368,
                -0.652351949040417,
                1.5433689050349149,
                2.102217963215392,
                -0.7878277849928442,
                0.13061564546986126
            ]
        },
        {
            "positions": [
                0.055219812217863484,
                -0.6718745929020263,
                1.5629519099356406,
                1.9798536945222813,
                -0.7355642655361103,
                0.25653696746040877
            ]
        },
        {
            "positions": [
                0.005175334591690173,
                -0.6913972367636356,
                1.5825349148363663,
                1.8574894258291705,
                -0.6833007460793765,
                0.3824582894509563
            ]
        },
        {
            "positions": [
                -0.044869143034483194,
                -0.7109198806252449,
                1.602117919737092,
                1.7351251571360597,
                -0.6310372266226427,
                0.5083796114415038
            ]
        },
        {
            "positions": [
                -0.0949136206606565,
                -0.7304425244868542,
                1.621700924637818,
                1.6127608884429492,
                -0.5787737071659088,
                0.6343009334320513
            ]
        },
        {
            "positions": [
                -0.14495809828682982,
                -0.7499651683484636,
                1.6412839295385437,
                1.4903966197498386,
                -0.5265101877091749,
                0.7602222554225988
            ]
        },
        {
            "positions": [
                -0.19500257591300318,
                -0.7694878122100728,
                1.6608669344392695,
                1.3680323510567278,
                -0.4742466682524411,
                0.8861435774131463
            ]
        },
        {
            "positions": [
                -0.24504705353917644,
                -0.7890104560716822,
                1.6804499393399952,
                1.245668082363617,
                -0.4219831487957073,
                1.0120648994036938
            ]
        },
        {
            "positions": [
                -0.2950915311653498,
                -0.8085330999332915,
                1.700032944240721,
                1.1233038136705065,
                -0.3697196293389734,
                1.1379862213942413
            ]
        },
        {
            "positions": [
                -0.3451360087915232,
                -0.8280557437949008,
                1.7196159491414469,
                1.0009395449773957,
                -0.3174561098822396,
                1.2639075433847888
            ]
        },
        {
            "positions": [
                -0.39518048641769643,
                -0.8475783876565102,
                1.7391989540421726,
                0.8785752762842851,
                -0.2651925904255058,
                1.3898288653753363
            ]
        },
        {
            "positions": [
                -0.4452249640438698,
                -0.8671010315181193,
                1.7587819589428983,
                0.7562110075911743,
                -0.2129290709687719,
                1.5157501873658838
            ]
        },
        {
            "positions": [
                -0.49526944167004316,
                -0.8866236753797287,
                1.7783649638436243,
                0.6338467388980635,
                -0.16066555151203799,
                1.6416715093564314
            ]
        },
        {
            "positions": [
                -0.5453139192962164,
                -0.906146319241338,
                1.7979479687443498,
                0.511482470204953,
                -0.10840203205530419,
                1.7675928313469789
            ]
        },
        {
            "positions": [
                -0.5953583969223899,
                -0.9256689631029473,
                1.8175309736450758,
                0.3891182015118422,
                -0.05613851259857028,
                1.8935141533375264
            ]
        },
        {
            "positions": [
                -0.6454028745485632,
                -0.9451916069645566,
                1.8371139785458015,
                0.2667539328187316,
                -0.0038749931418364802,
                2.019435475328074
            ]
        },
        {
            "positions": [
                -0.6954473521747365,
                -0.9647142508261659,
                1.8566969834465272,
                0.1443896641256206,
                0.04838852631489743,
                2.1453567973186214
            ]
        },
        {
            "positions": [
                -0.7454918298009097,
                -0.9842368946877753,
                1.876279988347253,
                0.02202539543251003,
                0.10065204577163112,
                2.271278119309169
            ]
        },
        {
            "positions": [
                -0.7955363074270831,
                -1.0037595385493847,
                1.895862993247979,
                -0.10033887326060054,
                0.15291556522836514,
                2.3971994412997164
            ]
        },
        {
            "positions": [
                -0.8455807850532564,
                -1.023282182410994,
                1.9154459981487046,
                -0.2227031419537111,
                0.20517908468509893,
                2.523120763290264
            ]
        },
        {
            "positions": [
                -0.8956252626794299,
                -1.0428048262726033,
                1.9350290030494304,
                -0.3450674106468221,
                0.25744260414183273,
                2.6490420852808114
            ]
        },
        {
            "positions": [
                -0.9456697403056031,
                -1.0623274701342125,
                1.954612007950156,
                -0.4674316793399327,
                0.30970612359856653,
                2.774963407271359
            ]
        },
        {
            "positions": [
                -0.9957142179317764,
                -1.0818501139958219,
                1.974195012850882,
                -0.5897959480330432,
                0.36196964305530055,
                2.9008847292619064
            ]
        },
        {
            "positions": [
                -1.0457586955579496,
                -1.101372757857431,
                1.9937780177516076,
                -0.7121602167261538,
                0.4142331625120341,
                3.026806051252454
            ]
        },
        {
            "positions": [
                -1.0958031731841231,
                -1.1208954017190405,
                2.0133610226523335,
                -0.834524485419265,
                0.46649668196876815,
                3.1527273732430015
            ]
        }
    ]
}