{
    "goal": {
        "global_pose": {
            "orientation": {
                "w": 0.7031023480610252,
                "x": -0.7110244013736278,
                "y": 0.0077485991402295624,
                "z": 0.005598929693374583
            },
            "position": {
                "x": -0.8841497679147869,
                "y": 0.44412534475326537,
                "z": 0.3711530566215515
            }
        },
        "name": "move_to_auspresseinheit_D"
    },
    "id": "LBKPIECE_move_to_auspresseinheit_D_101",
    "joint_names": [
        "shoulder_pan_joint",
        "shoulder_lift_joint",
        "elbow_joint",
        "wrist_1_joint",
        "wrist_2_joint",
        "wrist_3_joint"
    ],
    "metrics": {
        "cart_traj_len": 3.8119413409715235,
        "distance_elbow_joint": 3.0137007849737953,
        "distance_shoulder_lift_joint": 1.234893499861915,
        "distance_shoulder_pan_joint": 2.7971029105739325,
        "distance_wrist_1_joint": 2.082988983458582,
        "distance_wrist_2_joint": 1.3476487909183277,
        "distance_wrist_3_joint": 6.281175155805544,
        "smoothness": 0.009017207671390545,
        "time": 0.942523932,
        "traj_len": 4.09359379098514,
        "weighted_distance": 5.7228050999121125
    },
    "planner": "LBKPIECE",
    "start": {
        "state": {
            "elbow_joint": 1.8268400409724999,
            "shoulder_lift_joint": -1.0144045787793008,
            "shoulder_pan_joint": 2.6280239544362485,
            "wrist_1_joint": -0.790705565816056,
            "wrist_2_joint": 1.0573557467365533,
            "wrist_3_joint": 3.1851377467193758
        }
    },
    "waypoints": [
        {
            "positions": [
                2.6280239544362485,
                -1.0144045787793008,
                1.8268400409724999,
                -0.790705565816056,
                1.0573557467365533,
                3.1851377467193758
            ]
        },
        {
            "positions": [
                2.600009967499452,
                -1.035584956636883,
                1.726408785517184,
                -0.8050604605865871,
                1.0790210313620252,
                3.102406350419571
            ]
        },
        {
            "positions": [
                2.5719959805626553,
                -1.0567653344944654,
                1.6259775300618682,
                -0.8194153553571182,
                1.100686315987497,
                3.0196749541197656
            ]
        },
        {
            "positions": [
                2.5098416714085054,
                -1.077460796638102,
                1.5051363155949808,
                -0.8477762521926628,
                1.105429506333938,
                2.895284565197717
            ]
        },
        {
            "positions": [
                2.4476873622543556,
                -1.0981562587817384,
                1.3842951011280935,
                -0.8761371490282074,
                1.1101726966803793,
                2.7708941762756685
            ]
        },
        {
            "positions": [
                2.3855330531002057,
                -1.118851720925375,
                1.2634538866612064,
                -0.904498045863752,
                1.1149158870268203,
                2.6465037873536197
            ]
        },
        {
            "positions": [
                2.323378743946056,
                -1.1395471830690114,
                1.142612672194319,
                -0.9328589426992966,
                1.1196590773732615,
                2.5221133984315713
            ]
        },
        {
            "positions": [
                2.261224434791906,
                -1.160242645212648,
                1.0217714577274317,
                -0.9612198395348412,
                1.1244022677197025,
                2.3977230095095226
            ]
        },
        {
            "positions": [
                2.1955405593613766,
                -1.1896765758458525,
                0.9620786955185472,
                -1.0129083452034844,
                1.0897913955592924,
                2.2492429981961255
            ]
        },
        {
            "positions": [
                2.129856683930847,
                -1.219110506479057,
                0.9023859333096627,
                -1.0645968508721275,
                1.055180523398882,
                2.1007629868827284
            ]
        },
        {
            "positions": [
                2.0641728085003175,
                -1.2485444371122616,
                0.8426931711007781,
                -1.1162853565407707,
                1.0205696512384719,
                1.9522829755693314
            ]
        },
        {
            "positions": [
                1.9984889330697881,
                -1.2779783677454661,
                0.7830004088918937,
                -1.167973862209414,
                0.9859587790780616,
                1.8038029642559343
            ]
        },
        {
            "positions": [
                1.9328050576392586,
                -1.3074122983786707,
                0.7233076466830092,
                -1.219662367878057,
                0.9513479069176514,
                1.6553229529425373
            ]
        },
        {
            "positions": [
                1.8671211822087292,
                -1.3368462290118752,
                0.6636148844741246,
                -1.2713508735467003,
                0.9167370347572412,
                1.5068429416291405
            ]
        },
        {
            "positions": [
                1.8014373067781997,
                -1.3662801596450798,
                0.6039221222652402,
                -1.3230393792153434,
                0.882126162596831,
                1.3583629303157434
            ]
        },
        {
            "positions": [
                1.7357534313476704,
                -1.3957140902782843,
                0.5442293600563557,
                -1.3747278848839866,
                0.8475152904364207,
                1.2098829190023463
            ]
        },
        {
            "positions": [
                1.6700695559171408,
                -1.4251480209114888,
                0.48453659784747116,
                -1.4264163905526297,
                0.8129044182760106,
                1.0614029076889493
            ]
        },
        {
            "positions": [
                1.6043856804866112,
                -1.4545819515446934,
                0.42484383563858663,
                -1.4781048962212728,
                0.7782935461156003,
                0.9129228963755522
            ]
        },
        {
            "positions": [
                1.538701805056082,
                -1.484015882177898,
                0.3651510734297021,
                -1.5297934018899162,
                0.74368267395519,
                0.7644428850621552
            ]
        },
        {
            "positions": [
                1.4730179296255526,
                -1.5134498128111025,
                0.30545831122081757,
                -1.581481907558559,
                0.7090718017947799,
                0.6159628737487584
            ]
        },
        {
            "positions": [
                1.407334054195023,
                -1.542883743444307,
                0.24576554901193304,
                -1.6331704132272025,
                0.6744609296343695,
                0.4674828624353613
            ]
        },
        {
            "positions": [
                1.3416501787644934,
                -1.5723176740775116,
                0.18607278680304862,
                -1.6848589188958454,
                0.6398500574739594,
                0.31900285112196425
            ]
        },
        {
            "positions": [
                1.275966303333964,
                -1.601751604710716,
                0.1263800245941641,
                -1.7365474245644887,
                0.6052391853135491,
                0.1705228398085672
            ]
        },
        {
            "positions": [
                1.2102824279034345,
                -1.6311855353439206,
                0.06668726238527956,
                -1.7882359302331319,
                0.5706283131531389,
                0.02204282849517014
            ]
        },
        {
            "positions": [
                1.1445985524729052,
                -1.660619465977125,
                0.006994500176395135,
                -1.839924435901775,
                0.5360174409927287,
                -0.1264371828182269
            ]
        },
        {
            "positions": [
                1.0789146770423756,
                -1.6900533966103297,
                -0.052698262032489396,
                -1.8916129415704181,
                0.5014065688323185,
                -0.27491719413162397
            ]
        },
        {
            "positions": [
                1.0132308016118463,
                -1.719487327243534,
                -0.11239102424137393,
                -1.9433014472390613,
                0.46679569667190834,
                -0.4233972054450206
            ]
        },
        {
            "positions": [
                0.9475469261813168,
                -1.7489212578767388,
                -0.17208378645025846,
                -1.9949899529077044,
                0.4321848245114981,
                -0.5718772167584181
            ]
        },
        {
            "positions": [
                0.8818630507507874,
                -1.7783551885099431,
                -0.23177654865914277,
                -2.0466784585763476,
                0.39757395235108794,
                -0.7203572280718147
            ]
        },
        {
            "positions": [
                0.8161791753202579,
                -1.8077891191431479,
                -0.2914693108680275,
                -2.098366964244991,
                0.3629630801906776,
                -0.8688372393852122
            ]
        },
        {
            "positions": [
                0.7504952998897285,
                -1.8372230497763522,
                -0.35116207307691183,
                -2.150055469913634,
                0.32835220803026743,
                -1.0173172506986088
            ]
        },
        {
            "positions": [
                0.684811424459199,
                -1.866656980409557,
                -0.4108548352857966,
                -2.201743975582277,
                0.2937413358698572,
                -1.1657972620120058
            ]
        },
        {
            "positions": [
                0.6191275490286696,
                -1.8960909110427613,
                -0.4705475974946809,
                -2.25343248125092,
                0.25913046370944703,
                -1.314277273325403
            ]
        },
        {
            "positions": [
                0.5534436735981401,
                -1.925524841675966,
                -0.5302403597035656,
                -2.3051209869195635,
                0.22451959154903667,
                -1.4627572846388
            ]
        },
        {
            "positions": [
                0.4877597981676107,
                -1.9549587723091704,
                -0.58993312191245,
                -2.356809492588207,
                0.18990871938862652,
                -1.6112372959521966
            ]
        },
        {
            "positions": [
                0.42207592273708094,
                -1.9843927029423751,
                -0.6496258841213345,
                -2.4084979982568497,
                0.15529784722821627,
                -1.759717307265594
            ]
        },
        {
            "positions": [
                0.3563920473065516,
                -2.0138266335755795,
                -0.709318646330219,
                -2.4601865039254927,
                0.12068697506780612,
                -1.9081973185789907
            ]
        },
        {
            "positions": [
                0.29070817187602205,
                -2.043260564208784,
                -0.7690114085391035,
                -2.511875009594136,
                0.08607610290739576,
                -2.056677329892388
            ]
        },
        {
            "positions": [
                0.22502429644549293,
                -2.0726944948419885,
                -0.8287041707479881,
                -2.5635635152627794,
                0.05146523074698561,
                -2.2051573412057848
            ]
        },
        {
            "positions": [
                0.15934042101496315,
                -2.1021284254751933,
                -0.8883969329568726,
                -2.6152520209314227,
                0.016854358586575247,
                -2.3536373525191823
            ]
        },
        {
            "positions": [
                0.09365654558443381,
                -2.1315623561083976,
                -0.9480896951657569,
                -2.6669405266000656,
                -0.017756513573834898,
                -2.502117363832579
            ]
        },
        {
            "positions": [
                0.027972670153904478,
                -2.160996286741602,
                -1.0077824573746414,
                -2.7186290322687086,
                -0.05236738573424504,
                -2.6505973751459764
            ]
        },
        {
            "positions": [
                -0.03771120527662486,
                -2.1904302173748067,
                -1.067475219583526,
                -2.770317537937352,
                -0.08697825789465519,
                -2.799077386459373
            ]
        },
        {
            "positions": [
                -0.10339508070715464,
                -2.2198641480080115,
                -1.1271679817924105,
                -2.8220060436059953,
                -0.12158913005506555,
                -2.9475573977727705
            ]
        },
        {
            "positions": [
                -0.16907895613768378,
                -2.249298078641216,
                -1.1868607440012948,
                -2.873694549274638,
                -0.1562000022154756,
                -3.0960374090861675
            ]
        }
    ]
}