{
    "goal": {
        "global_pose": {
            "orientation": {
                "w": -0.4816463035849501,
                "x": 0.5182115481033762,
                "y": 0.4908360881923453,
                "z": -0.5084816262002911
            },
            "position": {
                "x": -0.8240239810943604,
                "y": 0.19912469901144506,
                "z": 0.16403168439865112
            }
        },
        "name": "move_to_storage_D"
    },
    "id": "LBKPIECE_move_to_storage_D_10",
    "joint_names": [
        "shoulder_pan_joint",
        "shoulder_lift_joint",
        "elbow_joint",
        "wrist_1_joint",
        "wrist_2_joint",
        "wrist_3_joint"
    ],
    "metrics": {
        "cart_traj_len": 0.54499919990267,
        "distance_elbow_joint": 0.5591327186471027,
        "distance_shoulder_lift_joint": 0.19108683519437886,
        "distance_shoulder_pan_joint": 0.3204781627864286,
        "distance_wrist_1_joint": 4.020239766426242,
        "distance_wrist_2_joint": 1.980136474230661,
        "distance_wrist_3_joint": 3.1168801789987923,
        "smoothness": 0.4665270513376146,
        "time": 4.191023047,
        "traj_len": 3.191857474306083,
        "weighted_distance": 4.735197011206408
    },
    "planner": "LBKPIECE",
    "start": {
        "state": {
            "elbow_joint": -2.384821997420982,
            "shoulder_lift_joint": -2.2788054674887404,
            "shoulder_pan_joint": -0.18546946417610016,
            "wrist_1_joint": 1.4845937964226739,
            "wrist_2_joint": 0.1789877726866377,
            "wrist_3_joint": 0.03710572555276528
        }
    },
    "waypoints": [
        {
            "positions": [
                -0.18546946417610016,
                -2.2788054674887404,
                -2.384821997420982,
                1.4845937964226739,
                0.1789877726866377,
                0.03710572555276528
            ]
        },
        {
            "positions": [
                -0.06732982085483848,
                -2.2886919887404042,
                -2.3859122629014164,
                1.5336076493112922,
                0.23031722819165013,
                0.025130369226283155
            ]
        },
        {
            "positions": [
                0.05080982246642321,
                -2.2985785099920677,
                -2.3870025283818506,
                1.5826215021999106,
                0.2816466836966625,
                0.013155012899801033
            ]
        },
        {
            "positions": [
                0.047441867420667014,
                -2.2917259582844256,
                -2.3647244408744013,
                1.4257330197739504,
                0.20654758116783706,
                -0.11056216575403209
            ]
        },
        {
            "positions": [
                0.04407391237491082,
                -2.2848734065767835,
                -2.342446353366952,
                1.2688445373479902,
                0.13144847863901163,
                -0.23427934440786521
            ]
        },
        {
            "positions": [
                0.04070595732915462,
                -2.2780208548691414,
                -2.3201682658595026,
                1.11195605492203,
                0.05634937611018617,
                -0.3579965230616983
            ]
        },
        {
            "positions": [
                0.037338002283398425,
                -2.2711683031614993,
                -2.2978901783520533,
                0.9550675724960698,
                -0.018749726418639256,
                -0.48171370171553146
            ]
        },
        {
            "positions": [
                0.03397004723764223,
                -2.264315751453857,
                -2.2756120908446036,
                0.7981790900701096,
                -0.09384882894746477,
                -0.6054308803693647
            ]
        },
        {
            "positions": [
                0.030602092191886036,
                -2.257463199746215,
                -2.2533340033371543,
                0.6412906076441495,
                -0.16894793147629017,
                -0.7291480590231977
            ]
        },
        {
            "positions": [
                0.027234137146129836,
                -2.2506106480385735,
                -2.231055915829705,
                0.48440212521818915,
                -0.24404703400511568,
                -0.8528652376770309
            ]
        },
        {
            "positions": [
                0.023866182100373643,
                -2.2437580963309314,
                -2.2087778283222557,
                0.32751364279222894,
                -0.319146136533941,
                -0.976582416330864
            ]
        },
        {
            "positions": [
                0.02049822705461745,
                -2.2369055446232893,
                -2.1864997408148064,
                0.17062516036626896,
                -0.3942452390627665,
                -1.100299594984697
            ]
        },
        {
            "positions": [
                0.017130272008861254,
                -2.230052992915647,
                -2.164221653307357,
                0.013736677940308528,
                -0.46934434159159205,
                -1.2240167736385303
            ]
        },
        {
            "positions": [
                0.013762316963105058,
                -2.223200441208005,
                -2.1419435657999077,
                -0.14315180448565168,
                -0.5444434441204173,
                -1.3477339522923633
            ]
        },
        {
            "positions": [
                0.010394361917348861,
                -2.216347889500363,
                -2.1196654782924584,
                -0.30004028691161166,
                -0.6195425466492428,
                -1.4714511309461964
            ]
        },
        {
            "positions": [
                0.007026406871592665,
                -2.209495337792721,
                -2.0973873907850087,
                -0.45692876933757187,
                -0.6946416491780683,
                -1.5951683096000295
            ]
        },
        {
            "positions": [
                0.0036584518258364618,
                -2.202642786085079,
                -2.0751093032775594,
                -0.6138172517635323,
                -0.7697407517068939,
                -1.718885488253863
            ]
        },
        {
            "positions": [
                0.0002904967800802724,
                -2.1957902343774367,
                -2.05283121577011,
                -0.7707057341894923,
                -0.8448398542357192,
                -1.8426026669076956
            ]
        },
        {
            "positions": [
                -0.003077458265675924,
                -2.1889376826697946,
                -2.0305531282626608,
                -0.9275942166154527,
                -0.9199389567645446,
                -1.966319845561529
            ]
        },
        {
            "positions": [
                -0.00644541331143212,
                -2.1820851309621525,
                -2.0082750407552115,
                -1.0844826990414131,
                -0.9950380592933703,
                -2.0900370242153623
            ]
        },
        {
            "positions": [
                -0.00981336835718831,
                -2.1752325792545104,
                -1.9859969532477622,
                -1.2413711814673727,
                -1.0701371618221955,
                -2.213754202869195
            ]
        },
        {
            "positions": [
                -0.013181323402944506,
                -2.1683800275468688,
                -1.9637188657403128,
                -1.3982596638933331,
                -1.145236264351021,
                -2.337471381523028
            ]
        },
        {
            "positions": [
                -0.016549278448700702,
                -2.1615274758392267,
                -1.9414407782328633,
                -1.5551481463192935,
                -1.2203353668798467,
                -2.4611885601768617
            ]
        },
        {
            "positions": [
                -0.0199172334944569,
                -2.1546749241315846,
                -1.919162690725414,
                -1.7120366287452535,
                -1.295434469408672,
                -2.5849057388306944
            ]
        },
        {
            "positions": [
                -0.023285188540213095,
                -2.1478223724239425,
                -1.8968846032179647,
                -1.868925111171214,
                -1.3705335719374974,
                -2.7086229174845275
            ]
        },
        {
            "positions": [
                -0.02665314358596929,
                -2.1409698207163004,
                -1.8746065157105152,
                -2.025813593597174,
                -1.4456326744663228,
                -2.8323400961383607
            ]
        },
        {
            "positions": [
                -0.030021098631725487,
                -2.1341172690086583,
                -1.8523284282030659,
                -2.182702076023134,
                -1.5207317769951483,
                -2.956057274792194
            ]
        },
        {
            "positions": [
                -0.03338905367748168,
                -2.127264717301016,
                -1.8300503406956166,
                -2.3395905584490944,
                -1.5958308795239737,
                -3.079774453446027
            ]
        }
    ]
}