{
    "goal": {
        "global_pose": {
            "orientation": {
                "w": -0.4816463035849501,
                "x": 0.5182115481033762,
                "y": 0.4908360881923453,
                "z": -0.5084816262002911
            },
            "position": {
                "x": -0.8240239810943604,
                "y": -0.300875300988555,
                "z": 0.16403168439865112
            }
        },
        "name": "move_to_storage_C"
    },
    "id": "LBKPIECE_move_to_storage_C_149",
    "joint_names": [
        "shoulder_pan_joint",
        "shoulder_lift_joint",
        "elbow_joint",
        "wrist_1_joint",
        "wrist_2_joint",
        "wrist_3_joint"
    ],
    "metrics": {
        "cart_traj_len": 0.5770356254846819,
        "distance_elbow_joint": 0.2610489383367587,
        "distance_shoulder_lift_joint": 0.1896006445153059,
        "distance_shoulder_pan_joint": 0.4957047375613257,
        "distance_wrist_1_joint": 0.0894101491394168,
        "distance_wrist_2_joint": 1.0615733590291483,
        "distance_wrist_3_joint": 0.06396172120634569,
        "smoothness": 0.0,
        "time": 1.8330954720000001,
        "traj_len": 1.470135895007091,
        "weighted_distance": 1.8547793670325206
    },
    "planner": "LBKPIECE",
    "start": {
        "state": {
            "elbow_joint": 2.010868315001653,
            "shoulder_lift_joint": -1.1634956873357014,
            "shoulder_pan_joint": -2.4736205022346103,
            "wrist_1_joint": -0.8367026794713948,
            "wrist_2_joint": 0.6746043897044093,
            "wrist_3_joint": 3.1335220948105738
        }
    },
    "waypoints": [
        {
            "positions": [
                -2.4736205022346103,
                -1.1634956873357014,
                2.010868315001653,
                -0.8367026794713948,
                0.6746043897044093,
                3.1335220948105738
            ]
        },
        {
            "positions": [
                -2.5562379584948314,
                -1.1318955799164838,
                1.9673601586121934,
                -0.8218009879481586,
                0.851533282875934,
                3.144182381678298
            ]
        },
        {
            "positions": [
                -2.638855414755052,
                -1.1002954724972662,
                1.9238520022227334,
                -0.8068992964249225,
                1.0284621760474586,
                3.1548426685460225
            ]
        },
        {
            "positions": [
                -2.721472871015273,
                -1.0686953650780484,
                1.8803438458332737,
                -0.7919976049016864,
                1.2053910692189835,
                3.1655029554137464
            ]
        },
        {
            "positions": [
                -2.8040903272754942,
                -1.0370952576588308,
                1.836835689443814,
                -0.7770959133784502,
                1.382319962390508,
                3.1761632422814707
            ]
        },
        {
            "positions": [
                -2.886707783535715,
                -1.0054951502396132,
                1.793327533054354,
                -0.7621942218552141,
                1.559248855562033,
                3.186823529149195
            ]
        },
        {
            "positions": [
                -2.969325239795936,
                -0.9738950428203955,
                1.7498193766648944,
                -0.747292530331978,
                1.7361777487335575,
                3.1974838160169194
            ]
        }
    ]
}