{
    "goal": {
        "global_pose": {
            "orientation": {
                "w": 0.005598929693374612,
                "x": 0.007748599140229565,
                "y": 0.7110244013736278,
                "z": -0.7031023480610252
            },
            "position": {
                "x": 0.1141497679147869,
                "y": -0.7141253447532654,
                "z": 0.3711530566215515
            }
        },
        "name": "move_to_auspresseinheit_B"
    },
    "id": "LBKPIECE_move_to_auspresseinheit_B_108",
    "joint_names": [
        "shoulder_pan_joint",
        "shoulder_lift_joint",
        "elbow_joint",
        "wrist_1_joint",
        "wrist_2_joint",
        "wrist_3_joint"
    ],
    "metrics": {
        "cart_traj_len": 0.5648130795947617,
        "distance_elbow_joint": 0.06045167742433466,
        "distance_shoulder_lift_joint": 0.2946576783353809,
        "distance_shoulder_pan_joint": 0.5792063382741919,
        "distance_wrist_1_joint": 0.3198792084636728,
        "distance_wrist_2_joint": 0.9846934511634975,
        "distance_wrist_3_joint": 0.004193288985437693,
        "smoothness": 0.0,
        "time": 4.888628292,
        "traj_len": 1.4976921054230459,
        "weighted_distance": 1.8857467699149217
    },
    "planner": "LBKPIECE",
    "start": {
        "state": {
            "elbow_joint": 2.019306165916698,
            "shoulder_lift_joint": -1.1220205098164344,
            "shoulder_pan_joint": -1.095207207618794,
            "wrist_1_joint": -0.8559671824921639,
            "wrist_2_joint": 0.47596387242952726,
            "wrist_3_joint": 3.159081874673826
        }
    },
    "waypoints": [
        {
            "positions": [
                -1.095207207618794,
                -1.1220205098164344,
                2.019306165916698,
                -0.8559671824921639,
                0.47596387242952726,
                3.159081874673826
            ]
        },
        {
            "positions": [
                -1.1917415973311594,
                -1.1711301228723312,
                2.0092308863459754,
                -0.8026539810815517,
                0.6400794476234435,
                3.159780756171399
            ]
        },
        {
            "positions": [
                -1.2882759870435245,
                -1.220239735928228,
                1.9991556067752532,
                -0.7493407796709396,
                0.8041950228173598,
                3.160479637668972
            ]
        },
        {
            "positions": [
                -1.38481037675589,
                -1.2693493489841248,
                1.9890803272045305,
                -0.6960275782603275,
                0.9683105980112761,
                3.161178519166545
            ]
        },
        {
            "positions": [
                -1.481344766468255,
                -1.3184589620400218,
                1.9790050476338081,
                -0.6427143768497153,
                1.1324261732051921,
                3.1618774006641175
            ]
        },
        {
            "positions": [
                -1.5778791561806207,
                -1.3675685750959186,
                1.9689297680630857,
                -0.5894011754391032,
                1.2965417483991086,
                3.1625762821616905
            ]
        },
        {
            "positions": [
                -1.6744135458929859,
                -1.4166781881518153,
                1.9588544884923633,
                -0.5360879740284911,
                1.4606573235930247,
                3.1632751636592635
            ]
        }
    ]
}