{
    "goal": {
        "global_pose": {
            "orientation": {
                "w": -0.00223480608172531,
                "x": 0.0024358444001904467,
                "y": 0.7094548369677653,
                "z": -0.704743149386269
            },
            "position": {
                "x": 0.6205249238014221,
                "y": -0.6371506643295288,
                "z": 0.19426114857196808
            }
        },
        "name": "move_to_magneteinheit_B"
    },
    "id": "LBKPIECE_move_to_magneteinheit_B_63",
    "joint_names": [
        "shoulder_pan_joint",
        "shoulder_lift_joint",
        "elbow_joint",
        "wrist_1_joint",
        "wrist_2_joint",
        "wrist_3_joint"
    ],
    "metrics": {
        "cart_traj_len": 4.185684074470212,
        "distance_elbow_joint": 5.0721563141884385,
        "distance_shoulder_lift_joint": 1.2338963702512544,
        "distance_shoulder_pan_joint": 3.05788031423774,
        "distance_wrist_1_joint": 3.0150505953966,
        "distance_wrist_2_joint": 2.1273819954327653,
        "distance_wrist_3_joint": 6.404338764076307,
        "smoothness": 0.548288859671814,
        "time": 1.3786798930000002,
        "traj_len": 4.572822361909885,
        "weighted_distance": 6.233924484028106
    },
    "planner": "LBKPIECE",
    "start": {
        "state": {
            "elbow_joint": 2.3935871308073637,
            "shoulder_lift_joint": -1.9085141043777403,
            "shoulder_pan_joint": 0.7066247067284167,
            "wrist_1_joint": -0.46782909355067076,
            "wrist_2_joint": 0.7096259085804283,
            "wrist_3_joint": -3.1358149275257428
        }
    },
    "waypoints": [
        {
            "positions": [
                0.7066247067284167,
                -1.9085141043777403,
                2.3935871308073637,
                -0.46782909355067076,
                0.7096259085804283,
                -3.1358149275257428
            ]
        },
        {
            "positions": [
                0.619695203908488,
                -1.917187310968192,
                2.41841213694417,
                -0.4068828821540121,
                0.7927463509079489,
                -3.035106321221824
            ]
        },
        {
            "positions": [
                0.5327657010885591,
                -1.9258605175586436,
                2.4432371430809754,
                -0.34593667075735346,
                0.8758667932354693,
                -2.9343977149179055
            ]
        },
        {
            "positions": [
                0.4458361982686304,
                -1.9345337241490954,
                2.468062149217781,
                -0.2849904593606948,
                0.9589872355629899,
                -2.833689108613987
            ]
        },
        {
            "positions": [
                0.3589066954487017,
                -1.9432069307395472,
                2.492887155354587,
                -0.2240442479640361,
                1.0421076778905105,
                -2.732980502310068
            ]
        },
        {
            "positions": [
                0.41837682634821133,
                -1.9359338211657549,
                2.372516311484196,
                -0.23600346274552753,
                1.0073491939100832,
                -2.6072719323790854
            ]
        },
        {
            "positions": [
                0.47784695724772097,
                -1.9286607115919625,
                2.2521454676138046,
                -0.24796267752701895,
                0.9725907099296558,
                -2.4815633624481026
            ]
        },
        {
            "positions": [
                0.5373170881472306,
                -1.9213876020181702,
                2.1317746237434134,
                -0.25992189230851037,
                0.9378322259492283,
                -2.35585479251712
            ]
        },
        {
            "positions": [
                0.5967872190467403,
                -1.9141144924443778,
                2.011403779873022,
                -0.2718811070900018,
                0.903073741968801,
                -2.230146222586137
            ]
        },
        {
            "positions": [
                0.6562573499462498,
                -1.9068413828705855,
                1.891032936002631,
                -0.2838403218714932,
                0.8683152579883736,
                -2.1044376526551543
            ]
        },
        {
            "positions": [
                0.7157274808457594,
                -1.8995682732967931,
                1.77066209213224,
                -0.29579953665298464,
                0.8335567740079463,
                -1.9787290827241715
            ]
        },
        {
            "positions": [
                0.7751976117452691,
                -1.8922951637230008,
                1.6502912482618486,
                -0.30775875143447606,
                0.7987982900275188,
                -1.8530205127931887
            ]
        },
        {
            "positions": [
                0.8346677426447788,
                -1.8850220541492084,
                1.5299204043914576,
                -0.3197179662159675,
                0.7640398060470914,
                -1.727311942862206
            ]
        },
        {
            "positions": [
                0.8941378735442884,
                -1.877748944575416,
                1.4095495605210664,
                -0.3316771809974589,
                0.7292813220666641,
                -1.6016033729312231
            ]
        },
        {
            "positions": [
                0.9479700105551526,
                -1.8665967862007484,
                1.2713680779956045,
                -0.3599902535467306,
                0.7037224784325924,
                -1.4716078106902062
            ]
        },
        {
            "positions": [
                1.0018021475660168,
                -1.8554446278260808,
                1.1331865954701428,
                -0.3883033260960023,
                0.6781636347985207,
                -1.3416122484491895
            ]
        },
        {
            "positions": [
                1.0556342845768811,
                -1.8442924694514131,
                0.9950051129446807,
                -0.416616398645274,
                0.6526047911644491,
                -1.2116166862081728
            ]
        },
        {
            "positions": [
                1.1094664215877454,
                -1.8331403110767455,
                0.8568236304192189,
                -0.44492947119454573,
                0.6270459475303775,
                -1.0816211239671558
            ]
        },
        {
            "positions": [
                1.1632985585986098,
                -1.8219881527020778,
                0.7186421478937569,
                -0.4732425437438174,
                0.6014871038963058,
                -0.951625561726139
            ]
        },
        {
            "positions": [
                1.2171306956094738,
                -1.8108359943274102,
                0.5804606653682951,
                -0.5015556162930891,
                0.5759282602622341,
                -0.8216299994851222
            ]
        },
        {
            "positions": [
                1.2709628326203382,
                -1.7996838359527425,
                0.4422791828428332,
                -0.5298686888423608,
                0.5503694166281624,
                -0.6916344372441052
            ]
        },
        {
            "positions": [
                1.3247949696312022,
                -1.7885316775780749,
                0.3040977003173715,
                -0.5581817613916324,
                0.5248105729940908,
                -0.5616388750030885
            ]
        },
        {
            "positions": [
                1.3786271066420666,
                -1.7773795192034072,
                0.16591621779190935,
                -0.5864948339409042,
                0.49925172936001916,
                -0.4316433127620716
            ]
        },
        {
            "positions": [
                1.4324592436529309,
                -1.7662273608287395,
                0.02773473526644743,
                -0.6148079064901759,
                0.4736928857259475,
                -0.30164775052105486
            ]
        },
        {
            "positions": [
                1.4862913806637952,
                -1.755075202454072,
                -0.11044674725901427,
                -0.6431209790394476,
                0.44813404209187585,
                -0.17165218828003814
            ]
        },
        {
            "positions": [
                1.5401235176746595,
                -1.7439230440794042,
                -0.24862822978447618,
                -0.6714340515887194,
                0.42257519845780417,
                -0.041656626039021205
            ]
        },
        {
            "positions": [
                1.5939556546855236,
                -1.7327708857047366,
                -0.3868097123099379,
                -0.699747124137991,
                0.39701635482373254,
                0.08833893620199551
            ]
        },
        {
            "positions": [
                1.647787791696388,
                -1.721618727330069,
                -0.5249911948354,
                -0.7280601966872627,
                0.3714575111896608,
                0.21833449844301267
            ]
        },
        {
            "positions": [
                1.701619928707252,
                -1.7104665689554013,
                -0.6631726773608617,
                -0.7563732692365344,
                0.3458986675555892,
                0.34833006068402916
            ]
        },
        {
            "positions": [
                1.7554520657181163,
                -1.6993144105807336,
                -0.8013541598863234,
                -0.7846863417858061,
                0.32033982392151755,
                0.4783256229250461
            ]
        },
        {
            "positions": [
                1.8092842027289806,
                -1.688162252206066,
                -0.9395356424117856,
                -0.8129994143350778,
                0.29478098028744587,
                0.608321185166063
            ]
        },
        {
            "positions": [
                1.863116339739845,
                -1.6770100938313983,
                -1.0777171249372477,
                -0.8413124868843496,
                0.26922213665337424,
                0.73831674740708
            ]
        },
        {
            "positions": [
                1.916948476750709,
                -1.6658579354567307,
                -1.2158986074627094,
                -0.8696255594336212,
                0.24366329301930256,
                0.8683123096480965
            ]
        },
        {
            "positions": [
                1.9707806137615733,
                -1.654705777082063,
                -1.3540800899881715,
                -0.8979386319828929,
                0.21810444938523088,
                0.9983078718891134
            ]
        },
        {
            "positions": [
                2.0246127507724374,
                -1.6435536187073954,
                -1.4922615725136332,
                -0.9262517045321647,
                0.1925456057511592,
                1.1283034341301303
            ]
        },
        {
            "positions": [
                2.0784448877833017,
                -1.6324014603327277,
                -1.630443055039095,
                -0.9545647770814363,
                0.16698676211708763,
                1.2582989963711468
            ]
        },
        {
            "positions": [
                2.132277024794166,
                -1.62124930195806,
                -1.768624537564557,
                -0.9828778496307081,
                0.14142791848301595,
                1.3882945586121642
            ]
        },
        {
            "positions": [
                2.1861091618050303,
                -1.6100971435833924,
                -1.906806020090019,
                -1.0111909221799797,
                0.11586907484894426,
                1.5182901208531807
            ]
        },
        {
            "positions": [
                2.296507404195039,
                -1.639806584309603,
                -1.9914864602311544,
                -0.9720774839506662,
                0.12521089675331049,
                1.5848691356597204
            ]
        },
        {
            "positions": [
                2.4069056465850474,
                -1.6695160250358134,
                -2.07616690037229,
                -0.9329640457213526,
                0.1345527186576767,
                1.6514481504662601
            ]
        },
        {
            "positions": [
                2.4485910843283163,
                -1.7145503770074206,
                -2.0703438091775808,
                -0.8429846599179387,
                0.1883357706704986,
                1.5191024333469687
            ]
        },
        {
            "positions": [
                2.4902765220715857,
                -1.7595847289790278,
                -2.0645207179828717,
                -0.7530052741145247,
                0.24211882268332047,
                1.3867567162276773
            ]
        },
        {
            "positions": [
                2.5319619598148546,
                -1.804619080950635,
                -2.0586976267881623,
                -0.6630258883111108,
                0.2959018746961424,
                1.2544109991083858
            ]
        },
        {
            "positions": [
                2.5736473975581236,
                -1.8496534329222423,
                -2.0528745355934532,
                -0.5730465025076967,
                0.3496849267089642,
                1.1220652819890944
            ]
        },
        {
            "positions": [
                2.6153328353013925,
                -1.8946877848938495,
                -2.047051444398744,
                -0.4830671167042829,
                0.40346797872178614,
                0.9897195648698031
            ]
        },
        {
            "positions": [
                2.657018273044662,
                -1.939722136865457,
                -2.041228353204035,
                -0.3930877309008689,
                0.457251030734608,
                0.8573738477505117
            ]
        },
        {
            "positions": [
                2.698703710787931,
                -1.9847564888370641,
                -2.035405262009326,
                -0.303108345097455,
                0.5110340827474299,
                0.7250281306312202
            ]
        },
        {
            "positions": [
                2.7403891485311997,
                -2.0297908408086713,
                -2.029582170814617,
                -0.21312895929404096,
                0.5648171347602517,
                0.5926824135119289
            ]
        },
        {
            "positions": [
                2.7820745862744687,
                -2.0748251927802785,
                -2.0237590796199076,
                -0.12314957349062694,
                0.6186001867730737,
                0.4603366963926372
            ]
        },
        {
            "positions": [
                2.823760024017738,
                -2.1198595447518858,
                -2.0179359884251986,
                -0.03317018768721314,
                0.6723832387858956,
                0.327990979273346
            ]
        },
        {
            "positions": [
                2.865445461761007,
                -2.164893896723493,
                -2.0121128972304896,
                0.05680919811620083,
                0.7261662907987174,
                0.1956452621540546
            ]
        },
        {
            "positions": [
                2.831508205653387,
                -2.216776730655692,
                -1.955488192101733,
                0.209495690665841,
                0.6831055562768269,
                0.16876646252537178
            ]
        },
        {
            "positions": [
                2.7975709495457672,
                -2.26865956458789,
                -1.8988634869729768,
                0.3621821832154812,
                0.6400448217549364,
                0.141887662896689
            ]
        },
        {
            "positions": [
                2.7636336934381474,
                -2.320542398520089,
                -1.8422387818442205,
                0.5148686757651213,
                0.5969840872330457,
                0.11500886326800619
            ]
        },
        {
            "positions": [
                2.729696437330527,
                -2.372425232452288,
                -1.785614076715464,
                0.6675551683147616,
                0.5539233527111552,
                0.0881300636393234
            ]
        },
        {
            "positions": [
                2.695759181222907,
                -2.4243080663844863,
                -1.7289893715867075,
                0.8202416608644016,
                0.5108626181892647,
                0.06125126401064057
            ]
        },
        {
            "positions": [
                2.6618219251152873,
                -2.476190900316685,
                -1.6723646664579512,
                0.9729281534140418,
                0.46780188366737413,
                0.034372464381957776
            ]
        }
    ]
}