{
    "goal": {
        "global_pose": {
            "orientation": {
                "w": 0.7031023502349854,
                "x": -0.7110244035720825,
                "y": 0.007748599164187908,
                "z": 0.005598929710686207
            },
            "position": {
                "x": 0.11585023208521307,
                "y": 0.44412534475326537,
                "z": 0.3711530566215515
            }
        },
        "name": "move_to_auspresseinheit_A"
    },
    "id": "LBKPIECE_move_to_auspresseinheit_A_99",
    "joint_names": [
        "shoulder_pan_joint",
        "shoulder_lift_joint",
        "elbow_joint",
        "wrist_1_joint",
        "wrist_2_joint",
        "wrist_3_joint"
    ],
    "metrics": {
        "cart_traj_len": 5.255051187993535,
        "distance_elbow_joint": 9.33498308176539,
        "distance_shoulder_lift_joint": 2.9821087104756563,
        "distance_shoulder_pan_joint": 4.173413894977561,
        "distance_wrist_1_joint": 7.141213864968731,
        "distance_wrist_2_joint": 5.2250615528784286,
        "distance_wrist_3_joint": 10.265240894307938,
        "smoothness": 0.38201712172404545,
        "time": 4.967793999,
        "traj_len": 6.254759947381966,
        "weighted_distance": 8.486387877409134
    },
    "planner": "LBKPIECE",
    "start": {
        "state": {
            "elbow_joint": 2.4225747245308327,
            "shoulder_lift_joint": -1.373653427065438,
            "shoulder_pan_joint": -0.33786330853087027,
            "wrist_1_joint": -1.0288602302712604,
            "wrist_2_joint": 1.23302299562683,
            "wrist_3_joint": -3.094021725338297
        }
    },
    "waypoints": [
        {
            "positions": [
                -0.33786330853087027,
                -1.373653427065438,
                2.4225747245308327,
                -1.0288602302712604,
                1.23302299562683,
                -3.094021725338297
            ]
        },
        {
            "positions": [
                -0.35080106102358716,
                -1.3376106862132024,
                2.284814542118848,
                -1.0306231665307772,
                1.2898700028511176,
                -2.9439047023576626
            ]
        },
        {
            "positions": [
                -0.363738813516304,
                -1.301567945360967,
                2.1470543597068636,
                -1.0323861027902939,
                1.3467170100754053,
                -2.7937876793770284
            ]
        },
        {
            "positions": [
                -0.3766765660090209,
                -1.2655252045087317,
                2.009294177294879,
                -1.0341490390498107,
                1.403564017299693,
                -2.643670656396394
            ]
        },
        {
            "positions": [
                -0.3896143185017378,
                -1.2294824636564963,
                1.8715339948828942,
                -1.0359119753093275,
                1.4604110245239807,
                -2.4935536334157593
            ]
        },
        {
            "positions": [
                -0.4025520709944546,
                -1.1934397228042608,
                1.7337738124709097,
                -1.0376749115688444,
                1.5172580317482685,
                -2.343436610435125
            ]
        },
        {
            "positions": [
                -0.4154898234871715,
                -1.1573969819520253,
                1.5960136300589252,
                -1.039437847828361,
                1.5741050389725562,
                -2.1933195874544906
            ]
        },
        {
            "positions": [
                -0.42842757597988834,
                -1.12135424109979,
                1.4582534476469404,
                -1.0412007840878779,
                1.6309520461968439,
                -2.043202564473856
            ]
        },
        {
            "positions": [
                -0.44136532847260523,
                -1.0853115002475546,
                1.320493265234956,
                -1.0429637203473947,
                1.6877990534211316,
                -1.8930855414932217
            ]
        },
        {
            "positions": [
                -0.4543030809653221,
                -1.0492687593953192,
                1.1827330828229712,
                -1.0447266566069116,
                1.7446460606454193,
                -1.7429685185125872
            ]
        },
        {
            "positions": [
                -0.467240833458039,
                -1.0132260185430837,
                1.0449729004109867,
                -1.0464895928664282,
                1.801493067869707,
                -1.5928514955319528
            ]
        },
        {
            "positions": [
                -0.48017858595075585,
                -0.9771832776908482,
                0.9072127179990019,
                -1.048252529125945,
                1.858340075093995,
                -1.4427344725513183
            ]
        },
        {
            "positions": [
                -0.4931163384434727,
                -0.9411405368386128,
                0.7694525355870174,
                -1.0500154653854619,
                1.9151870823182826,
                -1.292617449570684
            ]
        },
        {
            "positions": [
                -0.5060540909361896,
                -0.9050977959863775,
                0.6316923531750329,
                -1.0517784016449787,
                1.97203408954257,
                -1.1425004265900496
            ]
        },
        {
            "positions": [
                -0.5189918434289065,
                -0.869055055134142,
                0.4939321707630484,
                -1.0535413379044953,
                2.028881096766858,
                -0.992383403609415
            ]
        },
        {
            "positions": [
                -0.5319295959216233,
                -0.8330123142819066,
                0.3561719883510639,
                -1.0553042741640122,
                2.085728103991146,
                -0.8422663806287809
            ]
        },
        {
            "positions": [
                -0.5448673484143403,
                -0.7969695734296712,
                0.21841180593907916,
                -1.057067210423529,
                2.142575111215433,
                -0.6921493576481463
            ]
        },
        {
            "positions": [
                -0.557805100907057,
                -0.7609268325774358,
                0.08065162352709443,
                -1.0588301466830456,
                2.1994221184397214,
                -0.5420323346675118
            ]
        },
        {
            "positions": [
                -0.5707428533997739,
                -0.7248840917252003,
                -0.057108558884890304,
                -1.0605930829425625,
                2.2562691256640086,
                -0.3919153116868772
            ]
        },
        {
            "positions": [
                -0.5836806058924908,
                -0.6888413508729649,
                -0.19486874129687504,
                -1.0623560192020793,
                2.3131161328882968,
                -0.24179828870624265
            ]
        },
        {
            "positions": [
                -0.5966183583852077,
                -0.6527986100207295,
                -0.3326289237088593,
                -1.0641189554615962,
                2.369963140112584,
                -0.09168126572560853
            ]
        },
        {
            "positions": [
                -0.6095561108779246,
                -0.616755869168494,
                -0.47038910612084406,
                -1.0658818917211128,
                2.426810147336872,
                0.05843575725502603
            ]
        },
        {
            "positions": [
                -0.6224938633706414,
                -0.5807131283162587,
                -0.6081492885328288,
                -1.0676448279806297,
                2.48365715456116,
                0.2085527802356606
            ]
        },
        {
            "positions": [
                -0.6354316158633584,
                -0.5446703874640232,
                -0.7459094709448135,
                -1.0694077642401465,
                2.5405041617854476,
                0.35866980321629516
            ]
        },
        {
            "positions": [
                -0.6483693683560752,
                -0.5086276466117877,
                -0.8836696533567978,
                -1.0711707004996633,
                2.5973511690097353,
                0.5087868261969293
            ]
        },
        {
            "positions": [
                -0.6613071208487921,
                -0.47258490575955237,
                -1.0214298357687825,
                -1.07293363675918,
                2.654198176234023,
                0.6589038491775638
            ]
        },
        {
            "positions": [
                -0.674244873341509,
                -0.436542164907317,
                -1.1591900181807668,
                -1.0746965730186968,
                2.7110451834583102,
                0.809020872158198
            ]
        },
        {
            "positions": [
                -0.6871826258342257,
                -0.40049942405508165,
                -1.2969502005927516,
                -1.0764595092782137,
                2.7678921906825984,
                0.9591378951388321
            ]
        },
        {
            "positions": [
                -0.7001203783269426,
                -0.3644566832028462,
                -1.4347103830047359,
                -1.0782224455377305,
                2.8247391979068857,
                1.109254918119467
            ]
        },
        {
            "positions": [
                -0.7130581308196595,
                -0.3284139423506107,
                -1.5724705654167206,
                -1.0799853817972471,
                2.881586205131174,
                1.2593719411001012
            ]
        },
        {
            "positions": [
                -0.7259958833123763,
                -0.29237120149837525,
                -1.7102307478287049,
                -1.081748318056764,
                2.9384332123554615,
                1.4094889640807353
            ]
        },
        {
            "positions": [
                -0.7389336358050933,
                -0.2563284606461398,
                -1.84799093024069,
                -1.0835112543162808,
                2.995280219579749,
                1.5596059870613703
            ]
        },
        {
            "positions": [
                -0.7518713882978101,
                -0.22028571979390454,
                -1.9857511126526743,
                -1.0852741905757977,
                3.052127226804037,
                1.7097230100420044
            ]
        },
        {
            "positions": [
                -0.764809140790527,
                -0.18424297894166908,
                -2.1235112950646595,
                -1.0870371268353143,
                3.1089742340283246,
                1.8598400330226394
            ]
        },
        {
            "positions": [
                -0.7777468932832439,
                -0.1482002380894336,
                -2.2612714774766434,
                -1.0888000630948311,
                3.1658212412526123,
                2.0099570560032736
            ]
        },
        {
            "positions": [
                -0.7222001521281766,
                -0.17982914561821864,
                -2.179209715809396,
                -1.0067449524235181,
                3.1047685725600256,
                1.9319915441974047
            ]
        },
        {
            "positions": [
                -0.6666534109731093,
                -0.21145805314700367,
                -2.097147954142149,
                -0.9246898417522054,
                3.0437159038674384,
                1.8540260323915358
            ]
        },
        {
            "positions": [
                -0.6111066698180421,
                -0.24308696067578872,
                -2.0150861924749015,
                -0.8426347310808925,
                2.9826632351748517,
                1.7760605205856672
            ]
        },
        {
            "positions": [
                -0.5555599286629748,
                -0.2747158682045737,
                -1.9330244308076545,
                -0.7605796204095796,
                2.921610566482265,
                1.6980950087797984
            ]
        },
        {
            "positions": [
                -0.5000131875079075,
                -0.3063447757333588,
                -1.8509626691404073,
                -0.6785245097382666,
                2.8605578977896777,
                1.6201294969739295
            ]
        },
        {
            "positions": [
                -0.44446644635284016,
                -0.33797368326214383,
                -1.76890090747316,
                -0.5964693990669538,
                2.799505229097091,
                1.5421639851680609
            ]
        },
        {
            "positions": [
                -0.38891970519777286,
                -0.36960259079092883,
                -1.6868391458059127,
                -0.514414288395641,
                2.7384525604045042,
                1.464198473362192
            ]
        },
        {
            "positions": [
                -0.3333729640427056,
                -0.4012314983197139,
                -1.6047773841386657,
                -0.4323591777243281,
                2.677399891711917,
                1.3862329615563231
            ]
        },
        {
            "positions": [
                -0.2778262228876383,
                -0.4328604058484989,
                -1.5227156224714182,
                -0.3503040670530151,
                2.6163472230193303,
                1.3082674497504543
            ]
        },
        {
            "positions": [
                -0.22227948173257095,
                -0.46448931337728394,
                -1.4406538608041712,
                -0.2682489563817022,
                2.5552945543267436,
                1.2303019379445854
            ]
        },
        {
            "positions": [
                -0.16673274057750376,
                -0.496118220906069,
                -1.3585920991369238,
                -0.18619384571038933,
                2.4942418856341564,
                1.1523364261387168
            ]
        },
        {
            "positions": [
                -0.11118599942243645,
                -0.527747128434854,
                -1.2765303374696768,
                -0.10413873503907656,
                2.4331892169415696,
                1.074370914332848
            ]
        },
        {
            "positions": [
                -0.05563925826736915,
                -0.559376035963639,
                -1.1944685758024294,
                -0.022083624367763566,
                2.3721365482489825,
                0.9964054025269791
            ]
        },
        {
            "positions": [
                -9.251711230184867e-05,
                -0.591004943492424,
                -1.1124068141351822,
                0.059971486303549204,
                2.3110838795563957,
                0.9184398907211104
            ]
        },
        {
            "positions": [
                0.055454224042765454,
                -0.622633851021209,
                -1.030345052467935,
                0.1420265969748622,
                2.250031210863809,
                0.8404743789152413
            ]
        },
        {
            "positions": [
                0.11100096519783265,
                -0.6542627585499942,
                -0.9482832908006877,
                0.22408170764617497,
                2.1889785421712222,
                0.7625088671093727
            ]
        },
        {
            "positions": [
                0.16654770635290006,
                -0.6858916660787792,
                -0.8662215291334405,
                0.30613681831748796,
                2.127925873478635,
                0.6845433553035039
            ]
        },
        {
            "positions": [
                0.22209444750796725,
                -0.7175205736075642,
                -0.7841597674661933,
                0.38819192898880095,
                2.0668732047860483,
                0.606577843497635
            ]
        },
        {
            "positions": [
                0.27764118866303455,
                -0.7491494811363492,
                -0.7020980057989461,
                0.4702470396601137,
                2.005820536093461,
                0.5286123316917664
            ]
        },
        {
            "positions": [
                0.33318792981810197,
                -0.7807783886651343,
                -0.6200362441316989,
                0.5523021503314267,
                1.9447678674008744,
                0.4506468198858975
            ]
        },
        {
            "positions": [
                0.38873467097316916,
                -0.8124072961939193,
                -0.5379744824644517,
                0.6343572610027395,
                1.8837151987082876,
                0.37268130808002864
            ]
        },
        {
            "positions": [
                0.44428141212823635,
                -0.8440362037227044,
                -0.45591272079720424,
                0.7164123716740525,
                1.8226625300157007,
                0.2947157962741598
            ]
        },
        {
            "positions": [
                0.49982815328330377,
                -0.8756651112514894,
                -0.37385095912995725,
                0.7984674823453652,
                1.761609861323114,
                0.21675028446829114
            ]
        },
        {
            "positions": [
                0.555374894438371,
                -0.9072940187802744,
                -0.29178919746271004,
                0.880522593016678,
                1.700557192630527,
                0.13878477266242228
            ]
        },
        {
            "positions": [
                0.6109216355934384,
                -0.9389229263090594,
                -0.20972743579546282,
                0.962577703687991,
                1.63950452393794,
                0.060819260856553425
            ]
        },
        {
            "positions": [
                0.6664683767485056,
                -0.9705518338378445,
                -0.1276656741282154,
                1.044632814359304,
                1.578451855245353,
                -0.017146250949315434
            ]
        },
        {
            "positions": [
                0.722015117903573,
                -1.0021807413666295,
                -0.045603912460967955,
                1.126687925030617,
                1.517399186552766,
                -0.09511176275518451
            ]
        },
        {
            "positions": [
                0.7775618590586402,
                -1.0338096488954145,
                0.036457849206279036,
                1.2087430357019295,
                1.4563465178601793,
                -0.1730772745610527
            ]
        },
        {
            "positions": [
                0.8331086002137074,
                -1.0654385564241995,
                0.11851961087352603,
                1.2907981463732425,
                1.3952938491675924,
                -0.2510427863669218
            ]
        },
        {
            "positions": [
                0.8886553413687748,
                -1.0970674639529845,
                0.20058137254077346,
                1.3728532570445555,
                1.3342411804750054,
                -0.32900829817279087
            ]
        },
        {
            "positions": [
                0.944202082523842,
                -1.1286963714817695,
                0.28264313420802045,
                1.454908367715868,
                1.2731885117824189,
                -0.40697380997865906
            ]
        },
        {
            "positions": [
                0.9997488236789092,
                -1.1603252790105547,
                0.3647048958752679,
                1.536963478387181,
                1.2121358430898317,
                -0.48493932178452814
            ]
        },
        {
            "positions": [
                1.0552955648339766,
                -1.1919541865393397,
                0.4467666575425153,
                1.619018589058494,
                1.151083174397245,
                -0.5629048335903972
            ]
        },
        {
            "positions": [
                1.110842305989044,
                -1.2235830940681247,
                0.5288284192097623,
                1.701073699729807,
                1.0900305057046578,
                -0.6408703453962659
            ]
        },
        {
            "positions": [
                1.166389047144111,
                -1.2552120015969097,
                0.6108901808770093,
                1.78312881040112,
                1.028977837012071,
                -0.7188358572021345
            ]
        },
        {
            "positions": [
                1.2219357882991784,
                -1.2868409091256947,
                0.6929519425442567,
                1.865183921072433,
                0.9679251683194843,
                -0.7968013690080036
            ]
        },
        {
            "positions": [
                1.2774825294542458,
                -1.31846981665448,
                0.7750137042115042,
                1.947239031743746,
                0.9068724996268971,
                -0.8747668808138722
            ]
        },
        {
            "positions": [
                1.333029270609313,
                -1.3500987241832647,
                0.8570754658787512,
                2.0292941424150586,
                0.8458198309343103,
                -0.9527323926197409
            ]
        },
        {
            "positions": [
                1.3885760117643802,
                -1.38172763171205,
                0.9391372275459986,
                2.1113492530863716,
                0.7847671622417236,
                -1.03069790442561
            ]
        },
        {
            "positions": [
                1.4441227529194478,
                -1.413356539240835,
                1.0211989892132456,
                2.1934043637576845,
                0.7237144935491364,
                -1.1086634162314786
            ]
        },
        {
            "positions": [
                1.499669494074515,
                -1.44498544676962,
                1.103260750880493,
                2.2754594744289975,
                0.6626618248565497,
                -1.1866289280373477
            ]
        },
        {
            "positions": [
                1.5552162352295822,
                -1.476614354298405,
                1.18532251254774,
                2.35751458510031,
                0.6016091561639629,
                -1.2645944398432163
            ]
        },
        {
            "positions": [
                1.6107629763846494,
                -1.50824326182719,
                1.2673842742149874,
                2.439569695771623,
                0.5405564874713757,
                -1.342559951649085
            ]
        },
        {
            "positions": [
                1.6663097175397166,
                -1.5398721693559752,
                1.3494460358822349,
                2.521624806442936,
                0.479503818778789,
                -1.420525463454954
            ]
        },
        {
            "positions": [
                1.7218564586947842,
                -1.5715010768847602,
                1.4315077975494819,
                2.603679917114249,
                0.4184511500862018,
                -1.498490975260823
            ]
        },
        {
            "positions": [
                1.7774031998498514,
                -1.6031299844135452,
                1.5135695592167289,
                2.6857350277855616,
                0.3573984813936155,
                -1.5764564870666913
            ]
        },
        {
            "positions": [
                1.8329499410049186,
                -1.6347588919423302,
                1.5956313208839763,
                2.7677901384568746,
                0.29634581270102833,
                -1.6544219988725601
            ]
        },
        {
            "positions": [
                1.773853442271391,
                -1.6489745165553173,
                1.6374331146417294,
                2.5980699368466924,
                0.3185978063168736,
                -1.7332053177194306
            ]
        },
        {
            "positions": [
                1.7147569435378636,
                -1.6631901411683045,
                1.6792349083994824,
                2.4283497352365107,
                0.3408497999327189,
                -1.8119886365663012
            ]
        },
        {
            "positions": [
                1.655660444804336,
                -1.6774057657812917,
                1.7210367021572355,
                2.2586295336263285,
                0.3631017935485642,
                -1.890771955413172
            ]
        },
        {
            "positions": [
                1.5965639460708083,
                -1.6916213903942792,
                1.7628384959149885,
                2.0889093320161467,
                0.3853537871644095,
                -1.9695552742600424
            ]
        },
        {
            "positions": [
                1.537467447337281,
                -1.7058370150072664,
                1.8046402896727416,
                1.9191891304059645,
                0.4076057807802547,
                -2.048338593106913
            ]
        },
        {
            "positions": [
                1.4783709486037533,
                -1.7200526396202536,
                1.8464420834304947,
                1.7494689287957825,
                0.4298577743961,
                -2.1271219119537834
            ]
        },
        {
            "positions": [
                1.4192744498702257,
                -1.7342682642332408,
                1.8882438771882475,
                1.5797487271856006,
                0.4521097680119453,
                -2.205905230800654
            ]
        },
        {
            "positions": [
                1.3601779511366983,
                -1.748483888846228,
                1.9300456709460008,
                1.4100285255754186,
                0.4743617616277906,
                -2.2846885496475244
            ]
        },
        {
            "positions": [
                1.3010814524031706,
                -1.7626995134592152,
                1.9718474647037536,
                1.2403083239652366,
                0.4966137552436359,
                -2.363471868494395
            ]
        },
        {
            "positions": [
                1.2419849536696432,
                -1.7769151380722024,
                2.013649258461507,
                1.0705881223550546,
                0.5188657488594811,
                -2.4422551873412655
            ]
        },
        {
            "positions": [
                1.1828884549361156,
                -1.7911307626851898,
                2.0554510522192597,
                0.9008679207448724,
                0.5411177424753264,
                -2.521038506188136
            ]
        },
        {
            "positions": [
                1.123791956202588,
                -1.805346387298177,
                2.097252845977013,
                0.7311477191346905,
                0.5633697360911717,
                -2.599821825035007
            ]
        },
        {
            "positions": [
                1.0646954574690604,
                -1.8195620119111642,
                2.139054639734766,
                0.5614275175245083,
                0.585621729707017,
                -2.678605143881877
            ]
        },
        {
            "positions": [
                1.0055989587355327,
                -1.8337776365241514,
                2.1808564334925187,
                0.3917073159143265,
                0.6078737233228623,
                -2.757388462728748
            ]
        },
        {
            "positions": [
                0.9465024600020052,
                -1.8479932611371386,
                2.222658227250272,
                0.2219871143041443,
                0.6301257169387076,
                -2.8361717815756187
            ]
        },
        {
            "positions": [
                0.8874059612684778,
                -1.862208885750126,
                2.2644600210080252,
                0.05226691269396255,
                0.6523777105545528,
                -2.914955100422489
            ]
        },
        {
            "positions": [
                0.8283094625349501,
                -1.8764245103631132,
                2.306261814765778,
                -0.11745328891621964,
                0.6746297041703981,
                -2.9937384192693597
            ]
        },
        {
            "positions": [
                0.7692129638014227,
                -1.8906401349761004,
                2.348063608523531,
                -0.2871734905264014,
                0.6968816977862434,
                -3.07252173811623
            ]
        },
        {
            "positions": [
                0.7101164650678952,
                -1.9048557595890876,
                2.389865402281284,
                -0.4568936921365837,
                0.7191336914020887,
                -3.1513050569631007
            ]
        }
    ]
}