{
    "goal": {
        "global_pose": {
            "orientation": {
                "w": 0.7031023480610252,
                "x": -0.7110244013736278,
                "y": 0.0077485991402295624,
                "z": 0.005598929693374583
            },
            "position": {
                "x": -0.8841497679147869,
                "y": 0.44412534475326537,
                "z": 0.3711530566215515
            }
        },
        "name": "move_to_auspresseinheit_D"
    },
    "id": "LBKPIECE_move_to_auspresseinheit_D_70",
    "joint_names": [
        "shoulder_pan_joint",
        "shoulder_lift_joint",
        "elbow_joint",
        "wrist_1_joint",
        "wrist_2_joint",
        "wrist_3_joint"
    ],
    "metrics": {
        "cart_traj_len": 4.067610025218131,
        "distance_elbow_joint": 3.2061054602370644,
        "distance_shoulder_lift_joint": 1.385107451412344,
        "distance_shoulder_pan_joint": 2.797064827344993,
        "distance_wrist_1_joint": 1.8695750548281813,
        "distance_wrist_2_joint": 0.8854454537414513,
        "distance_wrist_3_joint": 3.0403750817706126,
        "smoothness": 0.044773592705133064,
        "time": 4.047942572,
        "traj_len": 3.630932845610705,
        "weighted_distance": 4.692488039563393
    },
    "planner": "LBKPIECE",
    "start": {
        "state": {
            "elbow_joint": 1.8268400409724999,
            "shoulder_lift_joint": -1.0144045787793008,
            "shoulder_pan_joint": 2.6280239544362485,
            "wrist_1_joint": -0.790705565816056,
            "wrist_2_joint": 1.0573557467365533,
            "wrist_3_joint": 3.1851377467193758
        }
    },
    "waypoints": [
        {
            "positions": [
                2.6280239544362485,
                -1.0144045787793008,
                1.8268400409724999,
                -0.790705565816056,
                1.0573557467365533,
                3.1851377467193758
            ]
        },
        {
            "positions": [
                2.593849317628445,
                -1.051649451573695,
                1.703664037680747,
                -0.7113266081466461,
                1.0248897780754316,
                3.1131865462440476
            ]
        },
        {
            "positions": [
                2.559674680820641,
                -1.088894324368089,
                1.5804880343889942,
                -0.631947650477236,
                0.9924238094143097,
                3.0412353457687193
            ]
        },
        {
            "positions": [
                2.5255000440128375,
                -1.1261391971624835,
                1.4573120310972412,
                -0.552568692807826,
                0.9599578407531879,
                2.9692841452933916
            ]
        },
        {
            "positions": [
                2.4913254072050335,
                -1.1633840699568776,
                1.3341360278054883,
                -0.473189735138416,
                0.9274918720920662,
                2.8973329448180634
            ]
        },
        {
            "positions": [
                2.45715077039723,
                -1.2006289427512717,
                1.2109600245137355,
                -0.393810777469006,
                0.8950259034309443,
                2.825381744342735
            ]
        },
        {
            "positions": [
                2.422976133589426,
                -1.2378738155456661,
                1.0877840212219827,
                -0.314431819799596,
                0.8625599347698225,
                2.753430543867407
            ]
        },
        {
            "positions": [
                2.3888014967816225,
                -1.2751186883400603,
                0.9646080179302299,
                -0.23505286213018606,
                0.8300939661087008,
                2.6814793433920787
            ]
        },
        {
            "positions": [
                2.3546268599738185,
                -1.3123635611344544,
                0.8414320146384768,
                -0.155673904460776,
                0.797627997447579,
                2.6095281429167505
            ]
        },
        {
            "positions": [
                2.320452223166015,
                -1.3496084339288485,
                0.718256011346724,
                -0.07629494679136595,
                0.7651620287864571,
                2.5375769424414227
            ]
        },
        {
            "positions": [
                2.286277586358211,
                -1.3868533067232427,
                0.5950800080549712,
                0.0030840108780439968,
                0.7326960601253354,
                2.4656257419660945
            ]
        },
        {
            "positions": [
                2.2521029495504075,
                -1.424098179517637,
                0.47190400476321814,
                0.08246296854745405,
                0.7002300914642136,
                2.3936745414907663
            ]
        },
        {
            "positions": [
                2.217928312742604,
                -1.4613430523120312,
                0.34872800147146554,
                0.161841926216864,
                0.6677641228030918,
                2.3217233410154385
            ]
        },
        {
            "positions": [
                2.1837536759348,
                -1.4985879251064254,
                0.2255519981797125,
                0.24122088388627394,
                0.63529815414197,
                2.2497721405401103
            ]
        },
        {
            "positions": [
                2.1495790391269964,
                -1.5358327979008197,
                0.1023759948879599,
                0.3205998415556839,
                0.6028321854808483,
                2.177820940064782
            ]
        },
        {
            "positions": [
                2.1154044023191925,
                -1.5730776706952139,
                -0.020800008403793147,
                0.39997879922509405,
                0.5703662168197264,
                2.105869739589454
            ]
        },
        {
            "positions": [
                2.081229765511389,
                -1.610322543489608,
                -0.1439760116955462,
                0.479357756894504,
                0.5379002481586046,
                2.0339185391141257
            ]
        },
        {
            "positions": [
                2.047055128703585,
                -1.6475674162840022,
                -0.2671520149872988,
                0.5587367145639139,
                0.5054342794974829,
                1.9619673386387977
            ]
        },
        {
            "positions": [
                2.0128804918957814,
                -1.6848122890783963,
                -0.39032801827905184,
                0.6381156722333241,
                0.47296831083636104,
                1.8900161381634695
            ]
        },
        {
            "positions": [
                1.9787058550879777,
                -1.7220571618727907,
                -0.5135040215708044,
                0.7174946299027338,
                0.4405023421752393,
                1.8180649376881415
            ]
        },
        {
            "positions": [
                1.944531218280174,
                -1.7593020346671848,
                -0.6366800248625577,
                0.796873587572144,
                0.4080363735141175,
                1.7461137372128133
            ]
        },
        {
            "positions": [
                1.8036264122009127,
                -1.801982701035482,
                -0.6861857178226916,
                0.7780738608094785,
                0.3922946348128498,
                1.6393569990618766
            ]
        },
        {
            "positions": [
                1.6627216061216514,
                -1.8446633674037796,
                -0.7356914107828254,
                0.7592741340468131,
                0.37655289611158216,
                1.53260026091094
            ]
        },
        {
            "positions": [
                1.5218168000423902,
                -1.8873440337720768,
                -0.7851971037429593,
                0.7404744072841476,
                0.36081115741031444,
                1.4258435227600033
            ]
        },
        {
            "positions": [
                1.380911993963129,
                -1.930024700140374,
                -0.8347027967030931,
                0.7216746805214822,
                0.3450694187090468,
                1.3190867846090666
            ]
        },
        {
            "positions": [
                1.2400071878838677,
                -1.9727053665086716,
                -0.884208489663227,
                0.7028749537588167,
                0.3293276800077791,
                1.21233004645813
            ]
        },
        {
            "positions": [
                1.0991023818046064,
                -2.015386032876969,
                -0.9337141826233609,
                0.6840752269961512,
                0.3135859413065114,
                1.105573308307193
            ]
        },
        {
            "positions": [
                0.958197575725345,
                -2.0580666992452663,
                -0.9832198755834948,
                0.6652755002334858,
                0.29784420260524375,
                0.9988165701562564
            ]
        },
        {
            "positions": [
                0.8172927696460839,
                -2.1007473656135636,
                -1.0327255685436287,
                0.6464757734708203,
                0.2821024639039761,
                0.8920598320053197
            ]
        },
        {
            "positions": [
                0.6763879635668226,
                -2.143428031981861,
                -1.0822312615037624,
                0.6276760467081549,
                0.26636072520270837,
                0.785303093854383
            ]
        },
        {
            "positions": [
                0.5354831574875614,
                -2.186108698350158,
                -1.1317369544638964,
                0.6088763199454894,
                0.25061898650144077,
                0.6785463557034463
            ]
        },
        {
            "positions": [
                0.3945783514083001,
                -2.2287893647184553,
                -1.18124264742403,
                0.590076593182824,
                0.23487724780017308,
                0.5717896175525097
            ]
        },
        {
            "positions": [
                0.25367354532903863,
                -2.2714700310867526,
                -1.2307483403841641,
                0.5712768664201585,
                0.21913550909890536,
                0.4650328794015728
            ]
        },
        {
            "positions": [
                0.11276873924977737,
                -2.3141506974550503,
                -1.280254033344298,
                0.552477139657493,
                0.2033937703976377,
                0.3582761412506361
            ]
        },
        {
            "positions": [
                -0.028136066829483886,
                -2.3568313638233476,
                -1.3297597263044318,
                0.5336774128948276,
                0.18765203169637001,
                0.25151940309969945
            ]
        },
        {
            "positions": [
                -0.169040872908745,
                -2.399512030191645,
                -1.3792654192645657,
                0.5148776861321621,
                0.17191029299510235,
                0.14476266494876275
            ]
        }
    ]
}