{
    "goal": {
        "global_pose": {
            "orientation": {
                "w": -0.00223480608172531,
                "x": 0.0024358444001904467,
                "y": 0.7094548369677653,
                "z": -0.704743149386269
            },
            "position": {
                "x": -0.37947507619857795,
                "y": -0.6371506643295288,
                "z": 0.19426114857196808
            }
        },
        "name": "move_to_magneteinheit_C"
    },
    "id": "LBKPIECE_move_to_magneteinheit_C_33",
    "joint_names": [
        "shoulder_pan_joint",
        "shoulder_lift_joint",
        "elbow_joint",
        "wrist_1_joint",
        "wrist_2_joint",
        "wrist_3_joint"
    ],
    "metrics": {
        "cart_traj_len": 1.5498367597684484,
        "distance_elbow_joint": 1.5670789421265958,
        "distance_shoulder_lift_joint": 3.6791421289232833,
        "distance_shoulder_pan_joint": 1.622605710279443,
        "distance_wrist_1_joint": 6.306291568799683,
        "distance_wrist_2_joint": 3.269394910534844,
        "distance_wrist_3_joint": 4.744418503707099,
        "smoothness": 0.5955171439337683,
        "time": 1.700216951,
        "traj_len": 4.603143682785815,
        "weighted_distance": 6.344561076317233
    },
    "planner": "LBKPIECE",
    "start": {
        "state": {
            "elbow_joint": 1.9565354006590394,
            "shoulder_lift_joint": -1.4165861576513559,
            "shoulder_pan_joint": -1.6717766223277177,
            "wrist_1_joint": -0.5286633288215096,
            "wrist_2_joint": 1.4727565892594296,
            "wrist_3_joint": 3.1593482883155493
        }
    },
    "waypoints": [
        {
            "positions": [
                -1.6717766223277177,
                -1.4165861576513559,
                1.9565354006590394,
                -0.5286633288215096,
                1.4727565892594296,
                3.1593482883155493
            ]
        },
        {
            "positions": [
                -1.7135849175813516,
                -1.4756459900874668,
                1.9844551793855327,
                -0.42506525224460606,
                1.4027205589921004,
                3.0768872210986573
            ]
        },
        {
            "positions": [
                -1.7553932128349852,
                -1.5347058225235777,
                2.012374958112026,
                -0.32146717566770255,
                1.3326845287247713,
                2.994426153881765
            ]
        },
        {
            "positions": [
                -1.797201508088619,
                -1.5937656549596886,
                2.04029473683852,
                -0.2178690990907991,
                1.262648498457442,
                2.911965086664873
            ]
        },
        {
            "positions": [
                -1.8390098033422528,
                -1.6528254873957995,
                2.068214515565013,
                -0.11427102251389559,
                1.192612468190113,
                2.8295040194479806
            ]
        },
        {
            "positions": [
                -1.8808180985958867,
                -1.7118853198319104,
                2.0961342942915064,
                -0.010672945936992084,
                1.1225764379227836,
                2.747042952231088
            ]
        },
        {
            "positions": [
                -1.9226263938495203,
                -1.7709451522680213,
                2.1240540730179998,
                0.09292513063991137,
                1.0525404076554545,
                2.6645818850141962
            ]
        },
        {
            "positions": [
                -1.964434689103154,
                -1.8300049847041322,
                2.151973851744493,
                0.19652320721681493,
                0.9825043773881252,
                2.5821208177973043
            ]
        },
        {
            "positions": [
                -2.006242984356788,
                -1.889064817140243,
                2.179893630470987,
                0.3001212837937184,
                0.912468347120796,
                2.499659750580412
            ]
        },
        {
            "positions": [
                -2.0480512796104215,
                -1.948124649576354,
                2.20781340919748,
                0.40371936037062195,
                0.8424323168534669,
                2.4171986833635195
            ]
        },
        {
            "positions": [
                -2.0898595748640556,
                -2.007184482012465,
                2.2357331879239735,
                0.5073174369475254,
                0.7723962865861377,
                2.3347376161466276
            ]
        },
        {
            "positions": [
                -2.131667870117689,
                -2.066244314448576,
                2.263652966650467,
                0.6109155135244287,
                0.7023602563188085,
                2.2522765489297356
            ]
        },
        {
            "positions": [
                -2.173476165371323,
                -2.1253041468846865,
                2.2915727453769605,
                0.7145135901013323,
                0.6323242260514793,
                2.169815481712843
            ]
        },
        {
            "positions": [
                -2.2152844606249564,
                -2.1843639793207976,
                2.319492524103454,
                0.8181116666782359,
                0.5622881957841501,
                2.087354414495951
            ]
        },
        {
            "positions": [
                -2.2570927558785905,
                -2.2434238117569087,
                2.347412302829947,
                0.9217097432551394,
                0.4922521655168208,
                2.004893347279059
            ]
        },
        {
            "positions": [
                -2.298901051132224,
                -2.3024836441930194,
                2.3753320815564405,
                1.0253078198320429,
                0.42221613524949153,
                1.9224322800621667
            ]
        },
        {
            "positions": [
                -2.340709346385858,
                -2.36154347662913,
                2.403251860282934,
                1.1289058964089462,
                0.35218010498216246,
                1.8399712128452748
            ]
        },
        {
            "positions": [
                -2.3825176416394918,
                -2.4206033090652412,
                2.431171639009427,
                1.2325039729858496,
                0.2821440747148334,
                1.7575101456283826
            ]
        },
        {
            "positions": [
                -2.4243259368931254,
                -2.4796631415013524,
                2.459091417735921,
                1.3361020495627534,
                0.21210804444750408,
                1.6750490784114902
            ]
        },
        {
            "positions": [
                -2.466134232146759,
                -2.538722973937463,
                2.487011196462414,
                1.4397001261396567,
                0.142072014180175,
                1.5925880111945983
            ]
        },
        {
            "positions": [
                -2.507942527400393,
                -2.5977828063735737,
                2.5149309751889075,
                1.5432982027165605,
                0.07203598391284571,
                1.5101269439777059
            ]
        },
        {
            "positions": [
                -2.5497508226540266,
                -2.656842638809685,
                2.542850753915401,
                1.6468962792934638,
                0.001999953645516417,
                1.427665876760814
            ]
        },
        {
            "positions": [
                -2.5915591179076607,
                -2.715902471245796,
                2.5707705326418946,
                1.7504943558703672,
                -0.06803607662181266,
                1.3452048095439217
            ]
        },
        {
            "positions": [
                -2.6333674131612943,
                -2.7749623036819067,
                2.598690311368388,
                1.854092432447271,
                -0.13807210688914195,
                1.2627437423270294
            ]
        },
        {
            "positions": [
                -2.675175708414928,
                -2.8340221361180173,
                2.6266100900948812,
                1.9576905090241743,
                -0.20810813715647103,
                1.1802826751101374
            ]
        },
        {
            "positions": [
                -2.7169840036685615,
                -2.8930819685541285,
                2.6545298688213745,
                2.0612885856010776,
                -0.2781441674238001,
                1.0978216078932452
            ]
        },
        {
            "positions": [
                -2.7587922989221956,
                -2.9521418009902396,
                2.682449647547868,
                2.1648866621779814,
                -0.3481801976911294,
                1.0153605406763528
            ]
        },
        {
            "positions": [
                -2.800600594175829,
                -3.0112016334263503,
                2.7103694262743616,
                2.2684847387548848,
                -0.4182162279584587,
                0.9328994734594609
            ]
        },
        {
            "positions": [
                -2.8424088894294632,
                -3.070261465862461,
                2.738289205000855,
                2.3720828153317886,
                -0.488252258225788,
                0.8504384062425685
            ]
        },
        {
            "positions": [
                -2.884217184683097,
                -3.129321298298572,
                2.7662089837273482,
                2.475680891908692,
                -0.5582882884931171,
                0.7679773390256766
            ]
        },
        {
            "positions": [
                -2.8684416020706327,
                -3.0536902602879543,
                2.7370780083789525,
                2.3486829169829426,
                -0.5106594410784133,
                0.8584791680417238
            ]
        },
        {
            "positions": [
                -2.852666019458169,
                -2.978059222277336,
                2.707947033030557,
                2.2216849420571934,
                -0.4630305936637095,
                0.9489809970577708
            ]
        },
        {
            "positions": [
                -2.836890436845705,
                -2.9024281842667183,
                2.678816057682161,
                2.094686967131444,
                -0.4154017462490058,
                1.039482826073818
            ]
        },
        {
            "positions": [
                -2.8211148542332407,
                -2.8267971462561,
                2.6496850823337654,
                1.9676889922056948,
                -0.367772898834302,
                1.1299846550898651
            ]
        },
        {
            "positions": [
                -2.805339271620777,
                -2.7511661082454824,
                2.62055410698537,
                1.8406910172799453,
                -0.32014405141959823,
                1.2204864841059124
            ]
        },
        {
            "positions": [
                -2.789563689008313,
                -2.675535070234864,
                2.5914231316369745,
                1.713693042354196,
                -0.2725152040048945,
                1.3109883131219595
            ]
        },
        {
            "positions": [
                -2.7737881063958487,
                -2.5999040322242464,
                2.5622921562885788,
                1.5866950674284468,
                -0.22488635659019074,
                1.4014901421380066
            ]
        },
        {
            "positions": [
                -2.758012523783385,
                -2.524272994213628,
                2.533161180940183,
                1.4596970925026975,
                -0.17725750917548694,
                1.4919919711540537
            ]
        },
        {
            "positions": [
                -2.742236941170921,
                -2.4486419562030104,
                2.5040302055917874,
                1.3326991175769483,
                -0.1296286617607832,
                1.5824938001701008
            ]
        },
        {
            "positions": [
                -2.7264613585584567,
                -2.373010918192392,
                2.4748992302433916,
                1.2057011426511988,
                -0.08199981434607939,
                1.6729956291861483
            ]
        },
        {
            "positions": [
                -2.710685775945993,
                -2.2973798801817744,
                2.445768254894996,
                1.0787031677254495,
                -0.034370966931375646,
                1.7634974582021954
            ]
        },
        {
            "positions": [
                -2.694910193333529,
                -2.221748842171156,
                2.4166372795466002,
                0.9517051927997002,
                0.0132578804833281,
                1.8539992872182425
            ]
        },
        {
            "positions": [
                -2.679134610721065,
                -2.1461178041605384,
                2.3875063041982045,
                0.824707217873951,
                0.060886727898031845,
                1.9445011162342896
            ]
        },
        {
            "positions": [
                -2.663359028108601,
                -2.07048676614992,
                2.3583753288498093,
                0.6977092429482017,
                0.10851557531273559,
                2.0350029452503366
            ]
        },
        {
            "positions": [
                -2.647583445496137,
                -1.9948557281393027,
                2.3292443535014136,
                0.5707112680224524,
                0.15614442272743934,
                2.1255047742663837
            ]
        },
        {
            "positions": [
                -2.631807862883673,
                -1.9192246901286845,
                2.300113378153018,
                0.44371329309670315,
                0.2037732701421432,
                2.2160066032824313
            ]
        },
        {
            "positions": [
                -2.616032280271209,
                -1.8435936521180665,
                2.270982402804622,
                0.3167153181709539,
                0.25140211755684694,
                2.306508432298478
            ]
        },
        {
            "positions": [
                -2.600256697658745,
                -1.7679626141074487,
                2.2418514274562265,
                0.18971734324520462,
                0.2990309649715507,
                2.3970102613145254
            ]
        },
        {
            "positions": [
                -2.584481115046281,
                -1.6923315760968307,
                2.2127204521078307,
                0.06271936831945535,
                0.3466598123862543,
                2.487512090330572
            ]
        },
        {
            "positions": [
                -2.568705532433817,
                -1.6167005380862125,
                2.183589476759435,
                -0.06427860660629436,
                0.3942886598009583,
                2.5780139193466196
            ]
        },
        {
            "positions": [
                -2.552929949821353,
                -1.5410695000755945,
                2.15445850141104,
                -0.19127658153204363,
                0.44191750721566203,
                2.668515748362667
            ]
        },
        {
            "positions": [
                -2.537154367208889,
                -1.4654384620649767,
                2.1253275260626436,
                -0.3182745564577929,
                0.4895463546303658,
                2.759017577378714
            ]
        },
        {
            "positions": [
                -2.521378784596425,
                -1.3898074240543588,
                2.0961965507142484,
                -0.44527253138354217,
                0.5371752020450695,
                2.849519406394761
            ]
        },
        {
            "positions": [
                -2.505603201983961,
                -1.3141763860437405,
                2.0670655753658527,
                -0.5722705063092914,
                0.5848040494597733,
                2.9400212354108084
            ]
        },
        {
            "positions": [
                -2.489827619371497,
                -1.2385453480331228,
                2.037934600017457,
                -0.6992684812350407,
                0.632432896874477,
                3.0305230644268555
            ]
        },
        {
            "positions": [
                -2.474052036759033,
                -1.1629143100225048,
                2.0088036246690613,
                -0.8262664561607902,
                0.6800617442891808,
                3.1210248934429026
            ]
        }
    ]
}