{
    "goal": {
        "global_pose": {
            "orientation": {
                "w": -0.4816463035849501,
                "x": 0.5182115481033762,
                "y": 0.4908360881923453,
                "z": -0.5084816262002911
            },
            "position": {
                "x": -0.8240239810943604,
                "y": -0.300875300988555,
                "z": 0.16403168439865112
            }
        },
        "name": "move_to_storage_C"
    },
    "id": "LBKPIECE_move_to_storage_C_89",
    "joint_names": [
        "shoulder_pan_joint",
        "shoulder_lift_joint",
        "elbow_joint",
        "wrist_1_joint",
        "wrist_2_joint",
        "wrist_3_joint"
    ],
    "metrics": {
        "cart_traj_len": 0.57679093092475,
        "distance_elbow_joint": 0.25514829764863856,
        "distance_shoulder_lift_joint": 0.18900234535213956,
        "distance_shoulder_pan_joint": 0.49647732106699216,
        "distance_wrist_1_joint": 0.07055209222837777,
        "distance_wrist_2_joint": 1.0581499861770873,
        "distance_wrist_3_joint": 0.06211642677314044,
        "smoothness": 2.5376526478085547e-16,
        "time": 3.399919716,
        "traj_len": 1.459947420027987,
        "weighted_distance": 1.8396688292184877
    },
    "planner": "LBKPIECE",
    "start": {
        "state": {
            "elbow_joint": 2.010868315001653,
            "shoulder_lift_joint": -1.1634956873357014,
            "shoulder_pan_joint": -2.4736205022346103,
            "wrist_1_joint": -0.8367026794713948,
            "wrist_2_joint": 0.6746043897044093,
            "wrist_3_joint": 3.1335220948105738
        }
    },
    "waypoints": [
        {
            "positions": [
                -2.4736205022346103,
                -1.1634956873357014,
                2.010868315001653,
                -0.8367026794713948,
                0.6746043897044093,
                3.1335220948105738
            ]
        },
        {
            "positions": [
                -2.5563667224124424,
                -1.1319952964436781,
                1.96834359872688,
                -0.8249439974333318,
                0.8509627207339239,
                3.1438748326060972
            ]
        },
        {
            "positions": [
                -2.639112942590274,
                -1.1004949055516549,
                1.925818882452107,
                -0.8131853153952688,
                1.0273210517634384,
                3.1542275704016207
            ]
        },
        {
            "positions": [
                -2.7218591627681064,
                -1.0689945146596316,
                1.883294166177334,
                -0.8014266333572059,
                1.203679382792953,
                3.164580308197144
            ]
        },
        {
            "positions": [
                -2.8046053829459385,
                -1.0374941237676083,
                1.8407694499025606,
                -0.7896679513191429,
                1.3800377138224675,
                3.1749330459926672
            ]
        },
        {
            "positions": [
                -2.8873516031237703,
                -1.005993732875585,
                1.7982447336277876,
                -0.77790926928108,
                1.556396044851982,
                3.1852857837881907
            ]
        },
        {
            "positions": [
                -2.9700978233016024,
                -0.9744933419835619,
                1.7557200173530145,
                -0.766150587243017,
                1.7327543758814965,
                3.195638521583714
            ]
        }
    ]
}