{
    "goal": {
        "global_pose": {
            "orientation": {
                "w": 0.7047431468963623,
                "x": -0.7094548344612122,
                "y": 0.0024358443915843964,
                "z": -0.0022348060738295317
            },
            "position": {
                "x": 0.6094750761985779,
                "y": 0.3671506643295288,
                "z": 0.19426114857196808
            }
        },
        "name": "move_to_magneteinheit_A"
    },
    "id": "LBKPIECE_move_to_magneteinheit_A_92",
    "joint_names": [
        "shoulder_pan_joint",
        "shoulder_lift_joint",
        "elbow_joint",
        "wrist_1_joint",
        "wrist_2_joint",
        "wrist_3_joint"
    ],
    "metrics": {
        "cart_traj_len": 1.0537838844923468,
        "distance_elbow_joint": 0.38320503948394324,
        "distance_shoulder_lift_joint": 0.36694843206194827,
        "distance_shoulder_pan_joint": 1.2418009226089524,
        "distance_wrist_1_joint": 2.208706393487611,
        "distance_wrist_2_joint": 1.6930442435602333,
        "distance_wrist_3_joint": 1.2255746940701062,
        "smoothness": 9.349246597189412e-17,
        "time": 2.212751648,
        "traj_len": 2.6681978422284947,
        "weighted_distance": 3.67044680528963
    },
    "planner": "LBKPIECE",
    "start": {
        "state": {
            "elbow_joint": 1.5739458966750683,
            "shoulder_lift_joint": -1.4977259741207325,
            "shoulder_pan_joint": -1.1188672016454206,
            "wrist_1_joint": 1.494575848278785,
            "wrist_2_joint": -1.5706037134824402,
            "wrist_3_joint": -2.0226957942261072
        }
    },
    "waypoints": [
        {
            "positions": [
                -1.1188672016454206,
                -1.4977259741207325,
                1.5739458966750683,
                1.494575848278785,
                -1.5706037134824402,
                -2.0226957942261072
            ]
        },
        {
            "positions": [
                -1.049878261500479,
                -1.477339950117291,
                1.5952350655352874,
                1.3718699375294732,
                -1.4765456999513162,
                -2.090783277230002
            ]
        },
        {
            "positions": [
                -0.9808893213555371,
                -1.4569539261138493,
                1.6165242343955064,
                1.2491640267801616,
                -1.382487686420192,
                -2.158870760233897
            ]
        },
        {
            "positions": [
                -0.9119003812105952,
                -1.4365679021104079,
                1.6378134032557257,
                1.1264581160308498,
                -1.288429672889068,
                -2.2269582432377915
            ]
        },
        {
            "positions": [
                -0.8429114410656535,
                -1.4161818781069662,
                1.6591025721159447,
                1.003752205281538,
                -1.1943716593579439,
                -2.2950457262416863
            ]
        },
        {
            "positions": [
                -0.7739225009207116,
                -1.3957958541035247,
                1.6803917409761637,
                0.8810462945322263,
                -1.10031364582682,
                -2.3631332092455812
            ]
        },
        {
            "positions": [
                -0.7049335607757699,
                -1.375409830100083,
                1.7016809098363828,
                0.7583403837829146,
                -1.0062556322956957,
                -2.431220692249476
            ]
        },
        {
            "positions": [
                -0.6359446206308281,
                -1.3550238060966415,
                1.7229700786966018,
                0.6356344730336029,
                -0.9121976187645717,
                -2.499308175253371
            ]
        },
        {
            "positions": [
                -0.5669556804858863,
                -1.3346377820931998,
                1.7442592475568208,
                0.5129285622842912,
                -0.8181396052334476,
                -2.5673956582572655
            ]
        },
        {
            "positions": [
                -0.49796674034094446,
                -1.3142517580897584,
                1.7655484164170399,
                0.39022265153497937,
                -0.7240815917023236,
                -2.6354831412611603
            ]
        },
        {
            "positions": [
                -0.4289778001960026,
                -1.2938657340863169,
                1.786837585277259,
                0.26751674078566756,
                -0.6300235781711995,
                -2.7035706242650552
            ]
        },
        {
            "positions": [
                -0.3599888600510608,
                -1.2734797100828752,
                1.8081267541374781,
                0.14481083003635575,
                -0.5359655646400754,
                -2.77165810726895
            ]
        },
        {
            "positions": [
                -0.29099991990611906,
                -1.2530936860794337,
                1.8294159229976972,
                0.022104919287044167,
                -0.4419075511089514,
                -2.8397455902728446
            ]
        },
        {
            "positions": [
                -0.22201097976117723,
                -1.232707662075992,
                1.8507050918579162,
                -0.10060099146226764,
                -0.3478495375778272,
                -2.9078330732767395
            ]
        },
        {
            "positions": [
                -0.1530220396162355,
                -1.2123216380725506,
                1.8719942607181352,
                -0.22330690221157923,
                -0.25379152404670324,
                -2.9759205562806343
            ]
        },
        {
            "positions": [
                -0.08403309947129367,
                -1.1919356140691089,
                1.8932834295783545,
                -0.34601281296089104,
                -0.15973351051557905,
                -3.0440080392845292
            ]
        },
        {
            "positions": [
                -0.015044159326351947,
                -1.1715495900656674,
                1.9145725984385735,
                -0.4687187237102026,
                -0.06567549698445507,
                -3.112095522288424
            ]
        },
        {
            "positions": [
                0.05394478081859,
                -1.151163566062226,
                1.9358617672987926,
                -0.5914246344595144,
                0.0283825165466689,
                -3.1801830052923186
            ]
        },
        {
            "positions": [
                0.12293372096353178,
                -1.1307775420587842,
                1.9571509361590116,
                -0.7141305452088262,
                0.12244053007779317,
                -3.2482704882962135
            ]
        }
    ]
}