{
    "goal": {
        "global_pose": {
            "orientation": {
                "w": 0.7031023480610252,
                "x": -0.7110244013736278,
                "y": 0.0077485991402295624,
                "z": 0.005598929693374583
            },
            "position": {
                "x": -0.8841497679147869,
                "y": 0.44412534475326537,
                "z": 0.3711530566215515
            }
        },
        "name": "move_to_auspresseinheit_D"
    },
    "id": "LBKPIECE_move_to_auspresseinheit_D_24",
    "joint_names": [
        "shoulder_pan_joint",
        "shoulder_lift_joint",
        "elbow_joint",
        "wrist_1_joint",
        "wrist_2_joint",
        "wrist_3_joint"
    ],
    "metrics": {
        "cart_traj_len": 0.8928259898346103,
        "distance_elbow_joint": 0.48479085124591914,
        "distance_shoulder_lift_joint": 0.29454702980378045,
        "distance_shoulder_pan_joint": 0.22502732449548857,
        "distance_wrist_1_joint": 3.3175845061388305,
        "distance_wrist_2_joint": 3.6534134242384986,
        "distance_wrist_3_joint": 4.858980424415622,
        "smoothness": 0.3945394189623321,
        "time": 2.993501184,
        "traj_len": 3.58250520730091,
        "weighted_distance": 5.433534976380176
    },
    "planner": "LBKPIECE",
    "start": {
        "state": {
            "elbow_joint": 1.8268400409724999,
            "shoulder_lift_joint": -1.0144045787793008,
            "shoulder_pan_joint": 2.6280239544362485,
            "wrist_1_joint": -0.790705565816056,
            "wrist_2_joint": 1.0573557467365533,
            "wrist_3_joint": 3.1851377467193758
        }
    },
    "waypoints": [
        {
            "positions": [
                2.6280239544362485,
                -1.0144045787793008,
                1.8268400409724999,
                -0.790705565816056,
                1.0573557467365533,
                3.1851377467193758
            ]
        },
        {
            "positions": [
                2.6235189027867616,
                -1.0143102200362146,
                1.822110039830467,
                -0.6736771320313764,
                0.9428441889717485,
                3.0419595899107064
            ]
        },
        {
            "positions": [
                2.6190138511372747,
                -1.0142158612931285,
                1.8173800386884342,
                -0.5566486982466968,
                0.8283326312069437,
                2.8987814331020374
            ]
        },
        {
            "positions": [
                2.614508799487788,
                -1.014121502550042,
                1.8126500375464012,
                -0.4396202644620172,
                0.7138210734421389,
                2.755603276293368
            ]
        },
        {
            "positions": [
                2.610003747838301,
                -1.014027143806956,
                1.8079200364043684,
                -0.3225918306773376,
                0.599309515677334,
                2.6124251194846986
            ]
        },
        {
            "positions": [
                2.6054986961888145,
                -1.0139327850638697,
                1.8031900352623356,
                -0.2055633968926579,
                0.4847979579125291,
                2.4692469626760296
            ]
        },
        {
            "positions": [
                2.6009936445393276,
                -1.0138384263207836,
                1.7984600341203028,
                -0.08853496310797837,
                0.3702864001477243,
                2.32606880586736
            ]
        },
        {
            "positions": [
                2.5964885928898407,
                -1.0137440675776972,
                1.79373003297827,
                0.02849347067670127,
                0.2557748423829195,
                2.182890649058691
            ]
        },
        {
            "positions": [
                2.591983541240354,
                -1.013649708834611,
                1.7890000318362371,
                0.1455219044613808,
                0.14126328461811466,
                2.039712492250022
            ]
        },
        {
            "positions": [
                2.587478489590867,
                -1.0135553500915249,
                1.784270030694204,
                0.26255033824606056,
                0.026751726853309732,
                1.8965343354413522
            ]
        },
        {
            "positions": [
                2.58297343794138,
                -1.0134609913484387,
                1.7795400295521713,
                0.3795787720307402,
                -0.08775983091149508,
                1.753356178632683
            ]
        },
        {
            "positions": [
                2.578468386291893,
                -1.0133666326053525,
                1.7748100284101385,
                0.4966072058154196,
                -0.2022713886762999,
                1.6101780218240136
            ]
        },
        {
            "positions": [
                2.5739633346424062,
                -1.0132722738622661,
                1.7700800272681056,
                0.6136356396000993,
                -0.3167829464411047,
                1.4669998650153444
            ]
        },
        {
            "positions": [
                2.5694582829929193,
                -1.01317791511918,
                1.7653500261260728,
                0.7306640733847789,
                -0.43129450420590953,
                1.323821708206675
            ]
        },
        {
            "positions": [
                2.5649532313434324,
                -1.0130835563760938,
                1.76062002498404,
                0.8476925071694585,
                -0.5458060619707144,
                1.1806435513980058
            ]
        },
        {
            "positions": [
                2.560448179693946,
                -1.0129891976330077,
                1.755890023842007,
                0.9647209409541382,
                -0.6603176197355192,
                1.0374653945893364
            ]
        },
        {
            "positions": [
                2.555943128044459,
                -1.0128948388899215,
                1.7511600226999742,
                1.0817493747388176,
                -0.774829177500324,
                0.8942872377806674
            ]
        },
        {
            "positions": [
                2.551438076394972,
                -1.012800480146835,
                1.7464300215579414,
                1.1987778085234972,
                -0.8893407352651288,
                0.751109080971998
            ]
        },
        {
            "positions": [
                2.5469330247454853,
                -1.012706121403749,
                1.7417000204159085,
                1.315806242308177,
                -1.0038522930299338,
                0.6079309241633286
            ]
        },
        {
            "positions": [
                2.5424279730959984,
                -1.0126117626606628,
                1.7369700192738757,
                1.4328346760928568,
                -1.1183638507947387,
                0.4647527673546592
            ]
        },
        {
            "positions": [
                2.5379229214465115,
                -1.0125174039175766,
                1.7322400181318427,
                1.5498631098775364,
                -1.2328754085595435,
                0.32157461054599024
            ]
        },
        {
            "positions": [
                2.5334178697970247,
                -1.0124230451744904,
                1.7275100169898099,
                1.6668915436622156,
                -1.3473869663243483,
                0.17839645373732083
            ]
        },
        {
            "positions": [
                2.5289128181475378,
                -1.012328686431404,
                1.722780015847777,
                1.7839199774468952,
                -1.461898524089153,
                0.035218296928651416
            ]
        },
        {
            "positions": [
                2.524407766498051,
                -1.012234327688318,
                1.7180500147057443,
                1.9009484112315749,
                -1.576410081853958,
                -0.10795985988001755
            ]
        },
        {
            "positions": [
                2.5199027148485644,
                -1.0121399689452317,
                1.7133200135637114,
                2.0179768450162543,
                -1.6909216396187627,
                -0.25113801668868696
            ]
        },
        {
            "positions": [
                2.5153976631990775,
                -1.0120456102021456,
                1.7085900124216784,
                2.135005278800935,
                -1.8054331973835676,
                -0.39431617349735637
            ]
        },
        {
            "positions": [
                2.5108926115495906,
                -1.0119512514590592,
                1.7038600112796456,
                2.2520337125856136,
                -1.9199447551483724,
                -0.5374943303060258
            ]
        },
        {
            "positions": [
                2.5063875599001038,
                -1.011856892715973,
                1.6991300101376128,
                2.369062146370293,
                -2.034456312913177,
                -0.6806724871146947
            ]
        },
        {
            "positions": [
                2.501882508250617,
                -1.0117625339728868,
                1.69440000899558,
                2.4860905801549733,
                -2.148967870677982,
                -0.8238506439233639
            ]
        },
        {
            "positions": [
                2.5183634879689265,
                -0.9631117031399924,
                1.6356748724507468,
                2.49288864018294,
                -2.223482838481976,
                -0.6821853049612167
            ]
        },
        {
            "positions": [
                2.5348444676872357,
                -0.914460872307098,
                1.5769497359059135,
                2.499686700210907,
                -2.2979978062859696,
                -0.5405199659990694
            ]
        },
        {
            "positions": [
                2.5513254474055453,
                -0.8658100414742036,
                1.5182245993610803,
                2.506484760238874,
                -2.3725127740899636,
                -0.39885462703692204
            ]
        },
        {
            "positions": [
                2.567806427123855,
                -0.8171592106413093,
                1.4594994628162472,
                2.5132828202668405,
                -2.4470277418939577,
                -0.2571892880747748
            ]
        },
        {
            "positions": [
                2.584287406842164,
                -0.7685083798084147,
                1.4007743262714138,
                2.5200808802948074,
                -2.5215427096979512,
                -0.11552394911262742
            ]
        },
        {
            "positions": [
                2.600768386560474,
                -0.7198575489755203,
                1.3420491897265807,
                2.5268789403227743,
                -2.5960576775019453,
                0.026141389849519813
            ]
        }
    ]
}