{
    "goal": {
        "global_pose": {
            "orientation": {
                "w": 0.005598929693374612,
                "x": 0.007748599140229565,
                "y": 0.7110244013736278,
                "z": -0.7031023480610252
            },
            "position": {
                "x": 0.1141497679147869,
                "y": -0.7141253447532654,
                "z": 0.3711530566215515
            }
        },
        "name": "move_to_auspresseinheit_B"
    },
    "id": "LBKPIECE_move_to_auspresseinheit_B_61",
    "joint_names": [
        "shoulder_pan_joint",
        "shoulder_lift_joint",
        "elbow_joint",
        "wrist_1_joint",
        "wrist_2_joint",
        "wrist_3_joint"
    ],
    "metrics": {
        "cart_traj_len": 0.56478479355502,
        "distance_elbow_joint": 0.06158710460482175,
        "distance_shoulder_lift_joint": 0.29391133167320915,
        "distance_shoulder_pan_joint": 0.5787764189651963,
        "distance_wrist_1_joint": 0.3213554334175517,
        "distance_wrist_2_joint": 0.9848798204536475,
        "distance_wrist_3_joint": 0.004768343384033091,
        "smoothness": 7.612957943425664e-16,
        "time": 0.707337241,
        "traj_len": 1.498425324298298,
        "weighted_distance": 1.8870745595067846
    },
    "planner": "LBKPIECE",
    "start": {
        "state": {
            "elbow_joint": 2.019306165916698,
            "shoulder_lift_joint": -1.1220205098164344,
            "shoulder_pan_joint": -1.095207207618794,
            "wrist_1_joint": -0.8559671824921639,
            "wrist_2_joint": 0.47596387242952726,
            "wrist_3_joint": 3.159081874673826
        }
    },
    "waypoints": [
        {
            "positions": [
                -1.095207207618794,
                -1.1220205098164344,
                2.019306165916698,
                -0.8559671824921639,
                0.47596387242952726,
                3.159081874673826
            ]
        },
        {
            "positions": [
                -1.1916699441129934,
                -1.1710057317619693,
                2.009041648482561,
                -0.8024079435892386,
                0.6401105091718018,
                3.158287150776487
            ]
        },
        {
            "positions": [
                -1.2881326806071927,
                -1.2199909537075042,
                1.9987771310484241,
                -0.7488487046863133,
                0.8042571459140764,
                3.157492426879148
            ]
        },
        {
            "positions": [
                -1.3845954171013921,
                -1.268976175653039,
                1.988512613614287,
                -0.695289465783388,
                0.968403782656351,
                3.156697702981809
            ]
        },
        {
            "positions": [
                -1.4810581535955913,
                -1.3179613975985738,
                1.97824809618015,
                -0.6417302268804628,
                1.1325504193986256,
                3.1559029790844706
            ]
        },
        {
            "positions": [
                -1.577520890089791,
                -1.3669466195441087,
                1.9679835787460132,
                -0.5881709879775374,
                1.2966970561409001,
                3.1551082551871317
            ]
        },
        {
            "positions": [
                -1.6739836265839902,
                -1.4159318414896436,
                1.9577190613118762,
                -0.5346117490746122,
                1.4608436928831747,
                3.1543135312897927
            ]
        }
    ]
}