{
    "goal": {
        "global_pose": {
            "orientation": {
                "w": 0.7047431493862688,
                "x": -0.7094548369677653,
                "y": 0.0024358444001904,
                "z": -0.0022348060817251984
            },
            "position": {
                "x": -0.39052492380142206,
                "y": 0.3671506643295288,
                "z": 0.19426114857196808
            }
        },
        "name": "move_to_magneteinheit_D"
    },
    "id": "LBKPIECE_move_to_magneteinheit_D_25",
    "joint_names": [
        "shoulder_pan_joint",
        "shoulder_lift_joint",
        "elbow_joint",
        "wrist_1_joint",
        "wrist_2_joint",
        "wrist_3_joint"
    ],
    "metrics": {
        "cart_traj_len": 6.137763361901539,
        "distance_elbow_joint": 3.129466274578685,
        "distance_shoulder_lift_joint": 1.6332021064862445,
        "distance_shoulder_pan_joint": 6.795519917187687,
        "distance_wrist_1_joint": 3.868833588572715,
        "distance_wrist_2_joint": 1.0018254020976924,
        "distance_wrist_3_joint": 10.106745721268691,
        "smoothness": 0.4440288958664069,
        "time": 2.4704754429999998,
        "traj_len": 5.15127100919683,
        "weighted_distance": 7.184688124295971
    },
    "planner": "LBKPIECE",
    "start": {
        "state": {
            "elbow_joint": 0.7495348899011973,
            "shoulder_lift_joint": -0.6476975780737697,
            "shoulder_pan_joint": -2.711696901376276,
            "wrist_1_joint": -0.07506478080974305,
            "wrist_2_joint": 0.4329665971545858,
            "wrist_3_joint": 3.1361499051832524
        }
    },
    "waypoints": [
        {
            "positions": [
                -2.711696901376276,
                -0.6476975780737697,
                0.7495348899011973,
                -0.07506478080974305,
                0.4329665971545858,
                3.1361499051832524
            ]
        },
        {
            "positions": [
                -2.769024777241767,
                -0.7395153501510249,
                0.6957731424760916,
                -0.15583610396121378,
                0.4947037005843883,
                3.1029836359998124
            ]
        },
        {
            "positions": [
                -2.8263526531072576,
                -0.83133312222828,
                0.6420113950509858,
                -0.2366074271126845,
                0.5564408040141908,
                3.069817366816372
            ]
        },
        {
            "positions": [
                -2.8836805289727483,
                -0.9231508943055353,
                0.5882496476258801,
                -0.3173787502641553,
                0.6181779074439933,
                3.036651097632932
            ]
        },
        {
            "positions": [
                -2.9410084048382394,
                -1.0149686663827904,
                0.5344879002007743,
                -0.39815007341562597,
                0.6799150108737958,
                3.003484828449492
            ]
        },
        {
            "positions": [
                -2.99833628070373,
                -1.1067864384600457,
                0.48072615277566844,
                -0.47892139656709676,
                0.7416521143035983,
                2.9703185592660515
            ]
        },
        {
            "positions": [
                -3.055664156569221,
                -1.198604210537301,
                0.4269644053505627,
                -0.5596927197185675,
                0.8033892177334008,
                2.9371522900826115
            ]
        },
        {
            "positions": [
                -2.929662630702893,
                -1.207044776629523,
                0.35918487106102587,
                -0.5769215749342241,
                0.8019942549081204,
                2.7645692876773853
            ]
        },
        {
            "positions": [
                -2.803661104836565,
                -1.2154853427217447,
                0.29140533677148905,
                -0.5941504301498808,
                0.8005992920828399,
                2.591986285272159
            ]
        },
        {
            "positions": [
                -2.677659578970237,
                -1.2239259088139667,
                0.2236258024819522,
                -0.6113792853655375,
                0.7992043292575595,
                2.419403282866933
            ]
        },
        {
            "positions": [
                -2.551658053103909,
                -1.2323664749061884,
                0.15584626819241537,
                -0.6286081405811942,
                0.7978093664322791,
                2.246820280461707
            ]
        },
        {
            "positions": [
                -2.425656527237581,
                -1.2408070409984104,
                0.08806673390287856,
                -0.6458369957968508,
                0.7964144036069987,
                2.07423727805648
            ]
        },
        {
            "positions": [
                -2.299655001371253,
                -1.2492476070906324,
                0.020287199613341744,
                -0.6630658510125076,
                0.7950194407817182,
                1.9016542756512542
            ]
        },
        {
            "positions": [
                -2.173653475504925,
                -1.2576881731828542,
                -0.04749233467619507,
                -0.6802947062281642,
                0.7936244779564378,
                1.729071273246028
            ]
        },
        {
            "positions": [
                -2.047651949638597,
                -1.2661287392750762,
                -0.11527186896573194,
                -0.6975235614438209,
                0.7922295151311574,
                1.5564882708408017
            ]
        },
        {
            "positions": [
                -1.9216504237722694,
                -1.274569305367298,
                -0.1830514032552687,
                -0.7147524166594775,
                0.7908345523058768,
                1.3839052684355755
            ]
        },
        {
            "positions": [
                -1.7956488979059413,
                -1.28300987145952,
                -0.25083093754480557,
                -0.7319812718751342,
                0.7894395894805964,
                1.2113222660303493
            ]
        },
        {
            "positions": [
                -1.6696473720396134,
                -1.291450437551742,
                -0.31861047183434243,
                -0.7492101270907909,
                0.788044626655316,
                1.0387392636251231
            ]
        },
        {
            "positions": [
                -1.5436458461732854,
                -1.2998910036439637,
                -0.3863900061238792,
                -0.7664389823064476,
                0.7866496638300355,
                0.866156261219897
            ]
        },
        {
            "positions": [
                -1.4176443203069575,
                -1.3083315697361857,
                -0.45416954041341606,
                -0.7836678375221042,
                0.7852547010047551,
                0.6935732588146708
            ]
        },
        {
            "positions": [
                -1.2916427944406297,
                -1.3167721358284075,
                -0.5219490747029528,
                -0.800896692737761,
                0.7838597381794747,
                0.5209902564094446
            ]
        },
        {
            "positions": [
                -1.1656412685743016,
                -1.3252127019206295,
                -0.5897286089924897,
                -0.8181255479534176,
                0.7824647753541943,
                0.348407254004218
            ]
        },
        {
            "positions": [
                -1.0396397427079735,
                -1.3336532680128514,
                -0.6575081432820266,
                -0.8353544031690743,
                0.7810698125289138,
                0.17582425159899184
            ]
        },
        {
            "positions": [
                -0.9136382168416457,
                -1.3420938341050732,
                -0.7252876775715634,
                -0.852583258384731,
                0.7796748497036334,
                0.0032412491937656718
            ]
        },
        {
            "positions": [
                -0.7876366909753179,
                -1.3505344001972952,
                -0.7930672118611001,
                -0.8698121136003876,
                0.778279886878353,
                -0.1693417532114605
            ]
        },
        {
            "positions": [
                -0.66163516510899,
                -1.358974966289517,
                -0.8608467461506369,
                -0.8870409688160443,
                0.7768849240530725,
                -0.3419247556166862
            ]
        },
        {
            "positions": [
                -0.5356336392426617,
                -1.367415532381739,
                -0.9286262804401738,
                -0.904269824031701,
                0.7754899612277921,
                -0.5145077580219128
            ]
        },
        {
            "positions": [
                -0.4096321133763343,
                -1.3758560984739607,
                -0.9964058147297105,
                -0.9214986792473576,
                0.7740949984025117,
                -0.6870907604271386
            ]
        },
        {
            "positions": [
                -0.283630587510006,
                -1.3842966645661827,
                -1.0641853490192474,
                -0.9387275344630144,
                0.7727000355772312,
                -0.8596737628323652
            ]
        },
        {
            "positions": [
                -0.15762906164367818,
                -1.3927372306584047,
                -1.1319648833087843,
                -0.9559563896786709,
                0.7713050727519508,
                -1.0322567652375914
            ]
        },
        {
            "positions": [
                -0.03162753577734989,
                -1.4011777967506265,
                -1.1997444175983212,
                -0.9731852448943277,
                0.7699101099266704,
                -1.2048397676428175
            ]
        },
        {
            "positions": [
                0.09437399008897751,
                -1.4096183628428485,
                -1.2675239518878576,
                -0.9904141001099843,
                0.76851514710139,
                -1.3774227700480433
            ]
        },
        {
            "positions": [
                0.2203755159553058,
                -1.4180589289350705,
                -1.335303486177395,
                -1.007642955325641,
                0.7671201842761095,
                -1.5500057724532699
            ]
        },
        {
            "positions": [
                0.34637704182163365,
                -1.4264994950272922,
                -1.4030830204669313,
                -1.0248718105412977,
                0.7657252214508291,
                -1.7225887748584956
            ]
        },
        {
            "positions": [
                0.4723785676879615,
                -1.4349400611195142,
                -1.4708625547564682,
                -1.0421006657569545,
                0.7643302586255487,
                -1.8951717772637222
            ]
        },
        {
            "positions": [
                0.5983800935542893,
                -1.443380627211736,
                -1.538642089046005,
                -1.059329520972611,
                0.7629352958002682,
                -2.067754779668949
            ]
        },
        {
            "positions": [
                0.7243816194206176,
                -1.451821193303958,
                -1.606421623335542,
                -1.0765583761882678,
                0.7615403329749878,
                -2.2403377820741754
            ]
        },
        {
            "positions": [
                0.8503831452869455,
                -1.4602617593961797,
                -1.6742011576250788,
                -1.0937872314039243,
                0.7601453701497074,
                -2.412920784479401
            ]
        },
        {
            "positions": [
                0.9763846711532738,
                -1.4687023254884017,
                -1.7419806919146157,
                -1.111016086619581,
                0.7587504073244269,
                -2.585503786884628
            ]
        },
        {
            "positions": [
                1.1023861970196016,
                -1.4771428915806237,
                -1.8097602262041521,
                -1.1282449418352378,
                0.7573554444991465,
                -2.7580867892898535
            ]
        },
        {
            "positions": [
                1.2283877228859295,
                -1.4855834576728455,
                -1.8775397604936894,
                -1.1454737970508946,
                0.7559604816738661,
                -2.93066979169508
            ]
        },
        {
            "positions": [
                1.3543892487522573,
                -1.4940240237650675,
                -1.9453192947832258,
                -1.162702652266551,
                0.7545655188485857,
                -3.103252794100306
            ]
        },
        {
            "positions": [
                1.4803907746185851,
                -1.5024645898572895,
                -2.0130988290727627,
                -1.1799315074822077,
                0.7531705560233052,
                -3.2758357965055325
            ]
        },
        {
            "positions": [
                1.606392300484913,
                -1.5109051559495112,
                -2.0808783633622996,
                -1.1971603626978644,
                0.7517755931980248,
                -3.4484187989107578
            ]
        },
        {
            "positions": [
                1.5366321927975712,
                -1.5371833529438996,
                -2.090195974388307,
                -1.0837147118140078,
                0.7277123385491874,
                -3.3027903585954035
            ]
        },
        {
            "positions": [
                1.4668720851102295,
                -1.563461549938288,
                -2.0995135854143143,
                -0.970269060930151,
                0.7036490839003501,
                -3.157161918280049
            ]
        },
        {
            "positions": [
                1.3971119774228877,
                -1.5897397469326766,
                -2.108831196440322,
                -0.8568234100462943,
                0.6795858292515127,
                -3.011533477964695
            ]
        },
        {
            "positions": [
                1.327351869735546,
                -1.616017943927065,
                -2.1181488074663295,
                -0.7433777591624375,
                0.6555225746026754,
                -2.8659050376493407
            ]
        },
        {
            "positions": [
                1.257591762048204,
                -1.6422961409214534,
                -2.127466418492337,
                -0.6299321082785808,
                0.631459319953838,
                -2.7202765973339864
            ]
        },
        {
            "positions": [
                1.1878316543608622,
                -1.668574337915842,
                -2.1367840295183447,
                -0.5164864573947241,
                0.6073960653050007,
                -2.574648157018632
            ]
        },
        {
            "positions": [
                1.1180715466735205,
                -1.6948525349102304,
                -2.146101640544352,
                -0.4030408065108674,
                0.5833328106561633,
                -2.4290197167032774
            ]
        },
        {
            "positions": [
                1.0483114389861787,
                -1.7211307319046187,
                -2.1554192515703594,
                -0.28959515562701066,
                0.559269556007326,
                -2.2833912763879236
            ]
        },
        {
            "positions": [
                0.978551331298837,
                -1.7474089288990071,
                -2.1647368625963668,
                -0.17614950474315405,
                0.5352063013584886,
                -2.137762836072569
            ]
        },
        {
            "positions": [
                0.9087912236114951,
                -1.7736871258933955,
                -2.174054473622374,
                -0.06270385385929722,
                0.5111430467096512,
                -1.9921343957572148
            ]
        },
        {
            "positions": [
                0.8390311159241535,
                -1.799965322887784,
                -2.183372084648382,
                0.05074179702455939,
                0.48707979206081387,
                -1.8465059554418606
            ]
        },
        {
            "positions": [
                0.7692710082368116,
                -1.8262435198821725,
                -2.1926896956743893,
                0.16418744790841622,
                0.4630165374119765,
                -1.7008775151265063
            ]
        },
        {
            "positions": [
                0.6995109005494698,
                -1.8525217168765609,
                -2.2020073067003967,
                0.2776330987922728,
                0.43895328276313916,
                -1.555249074811152
            ]
        },
        {
            "positions": [
                0.629750792862128,
                -1.8787999138709495,
                -2.2113249177264045,
                0.39107874967612966,
                0.41489002811430176,
                -1.4096206344957976
            ]
        },
        {
            "positions": [
                0.5599906851747862,
                -1.9050781108653378,
                -2.220642528752412,
                0.5045244005599865,
                0.39082677346546446,
                -1.2639921941804433
            ]
        },
        {
            "positions": [
                0.4902305774874445,
                -1.9313563078597262,
                -2.2299601397784192,
                0.6179700514438431,
                0.3667635188166271,
                -1.1183637538650895
            ]
        },
        {
            "positions": [
                0.4204704698001027,
                -1.9576345048541146,
                -2.2392777508044266,
                0.7314157023276999,
                0.3427002641677897,
                -0.9727353135497347
            ]
        },
        {
            "positions": [
                0.35071036211276096,
                -1.983912701848503,
                -2.248595361830434,
                0.8448613532115563,
                0.31863700951895235,
                -0.8271068732343805
            ]
        },
        {
            "positions": [
                0.2809502544254192,
                -2.0101908988428914,
                -2.2579129728564418,
                0.9583070040954134,
                0.29457375487011506,
                -0.6814784329190262
            ]
        },
        {
            "positions": [
                0.21119014673807723,
                -2.0364690958372798,
                -2.267230583882449,
                1.07175265497927,
                0.27051050022127765,
                -0.5358499926036719
            ]
        },
        {
            "positions": [
                0.14143003905073548,
                -2.062747292831668,
                -2.2765481949084565,
                1.1851983058631266,
                0.24644724557244035,
                -0.3902215522883177
            ]
        },
        {
            "positions": [
                0.07166993136339395,
                -2.089025489826057,
                -2.2858658059344643,
                1.2986439567469832,
                0.22238399092360295,
                -0.2445931119729634
            ]
        },
        {
            "positions": [
                0.0019098236760519693,
                -2.1153036868204453,
                -2.2951834169604717,
                1.4120896076308402,
                0.19832073627476554,
                -0.09896467165760914
            ]
        },
        {
            "positions": [
                -0.06785028401128987,
                -2.1415818838148337,
                -2.304501027986479,
                1.5255352585146966,
                0.17425748162592827,
                0.04666376865774501
            ]
        },
        {
            "positions": [
                -0.1831039044556905,
                -2.2808996845600142,
                -2.379931384677487,
                1.5014928730426627,
                0.17198643621452342,
                0.01956931905156482
            ]
        }
    ]
}