{
    "goal": {
        "global_pose": {
            "orientation": {
                "w": 0.5084816262002911,
                "x": -0.4908360881923452,
                "y": 0.5182115481033761,
                "z": -0.48164630358495003
            },
            "position": {
                "x": 0.5540239810943604,
                "y": -0.46912469901144505,
                "z": 0.16403168439865112
            }
        },
        "name": "move_to_storage_B"
    },
    "id": "LBKPIECE_move_to_storage_B_83",
    "joint_names": [
        "shoulder_pan_joint",
        "shoulder_lift_joint",
        "elbow_joint",
        "wrist_1_joint",
        "wrist_2_joint",
        "wrist_3_joint"
    ],
    "metrics": {
        "cart_traj_len": 1.0585294328946513,
        "distance_elbow_joint": 0.7384454314588285,
        "distance_shoulder_lift_joint": 0.458792131182612,
        "distance_shoulder_pan_joint": 0.8730041323875645,
        "distance_wrist_1_joint": 2.97821563123343,
        "distance_wrist_2_joint": 2.6982069115672687,
        "distance_wrist_3_joint": 3.414625683475323,
        "smoothness": 0.4027979942519512,
        "time": 4.145543833,
        "traj_len": 3.340851676040861,
        "weighted_distance": 4.86487038173232
    },
    "planner": "LBKPIECE",
    "start": {
        "state": {
            "elbow_joint": 1.6649325706314817,
            "shoulder_lift_joint": -0.6616388048112454,
            "shoulder_pan_joint": -0.9139837860083814,
            "wrist_1_joint": 2.146757197745094,
            "wrist_2_joint": -2.234196043158733,
            "wrist_3_joint": 0.005471033829999897
        }
    },
    "waypoints": [
        {
            "positions": [
                -0.9139837860083814,
                -0.6616388048112454,
                1.6649325706314817,
                2.146757197745094,
                -2.234196043158733,
                0.005471033829999897
            ]
        },
        {
            "positions": [
                -0.9088343719221957,
                -0.6769121809995002,
                1.6660050012668086,
                2.064179821475675,
                -2.1715670647567684,
                -0.06520150294615679
            ]
        },
        {
            "positions": [
                -0.9036849578360101,
                -0.692185557187755,
                1.6670774319021355,
                1.9816024452062555,
                -2.108938086354804,
                -0.1358740397223135
            ]
        },
        {
            "positions": [
                -0.861856668383497,
                -0.719428458913536,
                1.6426767845191939,
                1.8921856903921612,
                -1.9894669948352441,
                -0.04444546915274866
            ]
        },
        {
            "positions": [
                -0.8200283789309838,
                -0.746671360639317,
                1.6182761371362522,
                1.8027689355780667,
                -1.8699959033156845,
                0.046983101416816164
            ]
        },
        {
            "positions": [
                -0.7782000894784706,
                -0.7739142623650981,
                1.5938754897533105,
                1.7133521807639722,
                -1.7505248117961247,
                0.138411671986381
            ]
        },
        {
            "positions": [
                -0.7363718000259575,
                -0.8011571640908791,
                1.5694748423703688,
                1.623935425949878,
                -1.6310537202765651,
                0.22984024255594582
            ]
        },
        {
            "positions": [
                -0.6945435105734443,
                -0.8284000658166601,
                1.5450741949874272,
                1.5345186711357837,
                -1.5115826287570053,
                0.32126881312551064
            ]
        },
        {
            "positions": [
                -0.6527152211209312,
                -0.8556429675424412,
                1.5206735476044855,
                1.4451019163216892,
                -1.3921115372374455,
                0.41269738369507547
            ]
        },
        {
            "positions": [
                -0.610886931668418,
                -0.8828858692682222,
                1.4962729002215438,
                1.3556851615075947,
                -1.2726404457178857,
                0.5041259542646404
            ]
        },
        {
            "positions": [
                -0.5690586422159049,
                -0.9101287709940032,
                1.4718722528386021,
                1.2662684066935004,
                -1.1531693541983261,
                0.5955545248342051
            ]
        },
        {
            "positions": [
                -0.5954625916456593,
                -0.9206438792439959,
                1.498927022394834,
                1.1613820646844086,
                -1.072310343067983,
                0.7226471271025297
            ]
        },
        {
            "positions": [
                -0.6218665410754136,
                -0.9311589874939886,
                1.5259817919510663,
                1.0564957226753167,
                -0.99145133193764,
                0.8497397293708543
            ]
        },
        {
            "positions": [
                -0.648270490505168,
                -0.9416740957439813,
                1.5530365615072983,
                0.9516093806662249,
                -0.9105923208072969,
                0.9768323316391788
            ]
        },
        {
            "positions": [
                -0.6746744399349225,
                -0.9521892039939741,
                1.5800913310635303,
                0.8467230386571332,
                -0.8297333096769539,
                1.1039249339075035
            ]
        },
        {
            "positions": [
                -0.7010783893646768,
                -0.9627043122439668,
                1.6071461006197625,
                0.7418366966480413,
                -0.7488742985466108,
                1.231017536175828
            ]
        },
        {
            "positions": [
                -0.7274823387944312,
                -0.9732194204939595,
                1.6342008701759945,
                0.6369503546389496,
                -0.6680152874162677,
                1.3581101384441525
            ]
        },
        {
            "positions": [
                -0.7538862882241857,
                -0.9837345287439522,
                1.6612556397322265,
                0.5320640126298577,
                -0.5871562762859247,
                1.485202740712477
            ]
        },
        {
            "positions": [
                -0.78029023765394,
                -0.9942496369939449,
                1.6883104092884587,
                0.42717767062076584,
                -0.5062972651555816,
                1.6122953429808018
            ]
        },
        {
            "positions": [
                -0.8066941870836944,
                -1.0047647452439377,
                1.7153651788446906,
                0.322291328611674,
                -0.4254382540252385,
                1.7393879452491263
            ]
        },
        {
            "positions": [
                -0.8330981365134489,
                -1.0152798534939302,
                1.7424199484009226,
                0.21740498660258223,
                -0.3445792428948955,
                1.8664805475174508
            ]
        },
        {
            "positions": [
                -0.8595020859432032,
                -1.025794961743923,
                1.7694747179571548,
                0.11251864459349026,
                -0.2637202317645524,
                1.9935731497857756
            ]
        },
        {
            "positions": [
                -0.8859060353729575,
                -1.0363100699939156,
                1.7965294875133868,
                0.007632302584398731,
                -0.1828612206342094,
                2.1206657520540997
            ]
        },
        {
            "positions": [
                -0.9123099848027121,
                -1.0468251782439084,
                1.8235842570696188,
                -0.09725403942469324,
                -0.10200220950386618,
                2.247758354322425
            ]
        },
        {
            "positions": [
                -0.9387139342324664,
                -1.057340286493901,
                1.850639026625851,
                -0.202140381433785,
                -0.021143198373523298,
                2.374850956590749
            ]
        },
        {
            "positions": [
                -0.9651178836622208,
                -1.0678553947438938,
                1.877693796182083,
                -0.30702672344287674,
                0.05971581275681981,
                2.5019435588590735
            ]
        },
        {
            "positions": [
                -0.9915218330919753,
                -1.0783705029938866,
                1.9047485657383152,
                -0.4119130654519687,
                0.14057482388716291,
                2.6290361611273987
            ]
        },
        {
            "positions": [
                -1.0179257825217296,
                -1.0888856112438792,
                1.9318033352945472,
                -0.5167994074610605,
                0.2214338350175058,
                2.756128763395723
            ]
        },
        {
            "positions": [
                -1.0443297319514842,
                -1.099400719493872,
                1.9588581048507792,
                -0.6216857494701524,
                0.3022928461478491,
                2.8832213656640473
            ]
        },
        {
            "positions": [
                -1.0707336813812383,
                -1.1099158277438645,
                1.9859128744070111,
                -0.726572091479244,
                0.383151857278192,
                3.0103139679323716
            ]
        },
        {
            "positions": [
                -1.0971376308109928,
                -1.1204309359938573,
                2.0129676439632433,
                -0.831458433488336,
                0.46401086840853517,
                3.1374065702006964
            ]
        }
    ]
}