{
    "goal": {
        "global_pose": {
            "orientation": {
                "w": 0.7047431468963623,
                "x": -0.7094548344612122,
                "y": 0.0024358443915843964,
                "z": -0.0022348060738295317
            },
            "position": {
                "x": 0.6094750761985779,
                "y": 0.3671506643295288,
                "z": 0.19426114857196808
            }
        },
        "name": "move_to_magneteinheit_A"
    },
    "id": "LBKPIECE_move_to_magneteinheit_A_81",
    "joint_names": [
        "shoulder_pan_joint",
        "shoulder_lift_joint",
        "elbow_joint",
        "wrist_1_joint",
        "wrist_2_joint",
        "wrist_3_joint"
    ],
    "metrics": {
        "cart_traj_len": 1.0539990541045932,
        "distance_elbow_joint": 0.3823900047199329,
        "distance_shoulder_lift_joint": 0.368325085378445,
        "distance_shoulder_pan_joint": 1.2409254762897945,
        "distance_wrist_1_joint": 2.2133807365122475,
        "distance_wrist_2_joint": 1.6905053788451883,
        "distance_wrist_3_joint": 1.2178731853078109,
        "smoothness": 1.8698493194378823e-16,
        "time": 1.9935591019999999,
        "traj_len": 2.6670957738809116,
        "weighted_distance": 3.667837558156914
    },
    "planner": "LBKPIECE",
    "start": {
        "state": {
            "elbow_joint": 1.5739458966750683,
            "shoulder_lift_joint": -1.4977259741207325,
            "shoulder_pan_joint": -1.1188672016454206,
            "wrist_1_joint": 1.494575848278785,
            "wrist_2_joint": -1.5706037134824402,
            "wrist_3_joint": -2.0226957942261072
        }
    },
    "waypoints": [
        {
            "positions": [
                -1.1188672016454206,
                -1.4977259741207325,
                1.5739458966750683,
                1.494575848278785,
                -1.5706037134824402,
                -2.0226957942261072
            ]
        },
        {
            "positions": [
                -1.0499268974070988,
                -1.4772634693774855,
                1.5951897858261757,
                1.3716102518058824,
                -1.4766867479910408,
                -2.090355415632097
            ]
        },
        {
            "positions": [
                -0.9809865931687768,
                -1.4568009646342386,
                1.6164336749772832,
                1.2486446553329797,
                -1.3827697824996414,
                -2.158015037038086
            ]
        },
        {
            "positions": [
                -0.9120462889304549,
                -1.4363384598909916,
                1.6376775641283905,
                1.1256790588600771,
                -1.2888528170082423,
                -2.225674658444076
            ]
        },
        {
            "positions": [
                -0.8431059846921329,
                -1.4158759551477447,
                1.6589214532794978,
                1.0027134623871745,
                -1.194935851516843,
                -2.293334279850065
            ]
        },
        {
            "positions": [
                -0.7741656804538111,
                -1.3954134504044977,
                1.6801653424306053,
                0.8797478659142718,
                -1.1010188860254435,
                -2.360993901256055
            ]
        },
        {
            "positions": [
                -0.7052253762154892,
                -1.3749509456612508,
                1.7014092315817126,
                0.7567822694413692,
                -1.0071019205340441,
                -2.428653522662044
            ]
        },
        {
            "positions": [
                -0.6362850719771672,
                -1.3544884409180038,
                1.72265312073282,
                0.6338166729684664,
                -0.9131849550426447,
                -2.4963131440680337
            ]
        },
        {
            "positions": [
                -0.5673447677388453,
                -1.3340259361747568,
                1.7438970098839275,
                0.5108510764955639,
                -0.8192679895512455,
                -2.5639727654740234
            ]
        },
        {
            "positions": [
                -0.49840446350052336,
                -1.3135634314315099,
                1.7651408990350348,
                0.3878854800226612,
                -0.7253510240598461,
                -2.6316323868800127
            ]
        },
        {
            "positions": [
                -0.4294641592622014,
                -1.293100926688263,
                1.786384788186142,
                0.2649198835497586,
                -0.6314340585684467,
                -2.699292008286002
            ]
        },
        {
            "positions": [
                -0.3605238550238795,
                -1.272638421945016,
                1.8076286773372496,
                0.14195428707685576,
                -0.5375170930770472,
                -2.7669516296919916
            ]
        },
        {
            "positions": [
                -0.29158355078555764,
                -1.2521759172017692,
                1.828872566488357,
                0.018988690603953362,
                -0.44360012758564804,
                -2.8346112510979813
            ]
        },
        {
            "positions": [
                -0.22264324654723566,
                -1.2317134124585223,
                1.8501164556394643,
                -0.10397690586894925,
                -0.34968316209424866,
                -2.9022708725039705
            ]
        },
        {
            "positions": [
                -0.1537029423089138,
                -1.2112509077152753,
                1.8713603447905718,
                -0.2269425023418521,
                -0.25576619660284927,
                -2.9699304939099602
            ]
        },
        {
            "positions": [
                -0.0847626380705917,
                -1.1907884029720284,
                1.892604233941679,
                -0.3499080988147547,
                -0.1618492311114499,
                -3.0375901153159495
            ]
        },
        {
            "positions": [
                -0.015822333832270052,
                -1.1703258982287814,
                1.9138481230927864,
                -0.4728736952876571,
                -0.06793226562005072,
                -3.105249736721939
            ]
        },
        {
            "positions": [
                0.05311797040605204,
                -1.1498633934855345,
                1.935092012243894,
                -0.5958392917605597,
                0.02598469987134866,
                -3.172909358127929
            ]
        },
        {
            "positions": [
                0.12205827464437381,
                -1.1294008887422875,
                1.9563359013950012,
                -0.7188048882334624,
                0.11990166536274807,
                -3.240568979533918
            ]
        }
    ]
}