{
    "goal": {
        "global_pose": {
            "orientation": {
                "w": -0.4816463035849501,
                "x": 0.5182115481033762,
                "y": 0.4908360881923453,
                "z": -0.5084816262002911
            },
            "position": {
                "x": -0.8240239810943604,
                "y": 0.19912469901144506,
                "z": 0.16403168439865112
            }
        },
        "name": "move_to_storage_D"
    },
    "id": "LBKPIECE_move_to_storage_D_51",
    "joint_names": [
        "shoulder_pan_joint",
        "shoulder_lift_joint",
        "elbow_joint",
        "wrist_1_joint",
        "wrist_2_joint",
        "wrist_3_joint"
    ],
    "metrics": {
        "cart_traj_len": 0.7443239336726494,
        "distance_elbow_joint": 0.5567521901308452,
        "distance_shoulder_lift_joint": 0.40003422436165126,
        "distance_shoulder_pan_joint": 0.4121977144662191,
        "distance_wrist_1_joint": 3.8265771133432493,
        "distance_wrist_2_joint": 2.108231345344417,
        "distance_wrist_3_joint": 3.1532774989583783,
        "smoothness": 0.3503615159411112,
        "time": 3.84708498,
        "traj_len": 3.2337393349812165,
        "weighted_distance": 4.76428730695465
    },
    "planner": "LBKPIECE",
    "start": {
        "state": {
            "elbow_joint": -2.384821997420982,
            "shoulder_lift_joint": -2.2788054674887404,
            "shoulder_pan_joint": -0.18546946417610016,
            "wrist_1_joint": 1.4845937964226739,
            "wrist_2_joint": 0.1789877726866377,
            "wrist_3_joint": 0.03710572555276528
        }
    },
    "waypoints": [
        {
            "positions": [
                -0.18546946417610016,
                -2.2788054674887404,
                -2.384821997420982,
                1.4845937964226739,
                0.1789877726866377,
                0.03710572555276528
            ]
        },
        {
            "positions": [
                -0.13768374243984777,
                -2.217760245063155,
                -2.369177456124024,
                1.4510158261639976,
                0.13857339238560398,
                0.09957915607703766
            ]
        },
        {
            "positions": [
                -0.05994788758448015,
                -2.1462881675382564,
                -2.276764031243766,
                1.3981203941952893,
                0.19253102469993782,
                0.13272563659574738
            ]
        },
        {
            "positions": [
                0.017787967270887467,
                -2.0748160900133583,
                -2.184350606363507,
                1.3452249622265813,
                0.24648865701427167,
                0.16587211711445707
            ]
        },
        {
            "positions": [
                0.0955238221262551,
                -2.00334401248846,
                -2.091937181483249,
                1.292329530257873,
                0.3004462893286055,
                0.1990185976331668
            ]
        },
        {
            "positions": [
                0.08981928177130451,
                -2.0087602198519976,
                -2.0804646869531136,
                1.1343159282066362,
                0.21757915593293675,
                0.3290779292365571
            ]
        },
        {
            "positions": [
                0.0841147414163539,
                -2.0141764272155354,
                -2.0689921924229786,
                0.9763023261553991,
                0.134712022537268,
                0.45913726083994744
            ]
        },
        {
            "positions": [
                0.07841020106140331,
                -2.0195926345790736,
                -2.057519697892843,
                0.8182887241041623,
                0.05184488914159924,
                0.5891965924433377
            ]
        },
        {
            "positions": [
                0.07270566070645272,
                -2.0250088419426113,
                -2.0460472033627077,
                0.6602751220529254,
                -0.03102224425406952,
                0.719255924046728
            ]
        },
        {
            "positions": [
                0.06700112035150213,
                -2.030425049306149,
                -2.0345747088325723,
                0.5022615200016886,
                -0.11388937764973828,
                0.8493152556501182
            ]
        },
        {
            "positions": [
                0.061296579996551526,
                -2.035841256669687,
                -2.0231022143024373,
                0.3442479179504516,
                -0.19675651104540703,
                0.9793745872535086
            ]
        },
        {
            "positions": [
                0.05559203964160093,
                -2.041257464033225,
                -2.011629719772302,
                0.18623431589921458,
                -0.2796236444410758,
                1.109433918856899
            ]
        },
        {
            "positions": [
                0.04988749928665034,
                -2.046673671396763,
                -2.0001572252421664,
                0.028220713847977752,
                -0.36249077783674455,
                1.2394932504602894
            ]
        },
        {
            "positions": [
                0.04418295893169974,
                -2.0520898787603006,
                -1.9886847307120312,
                -0.12979288820325907,
                -0.4453579112324133,
                1.3695525820636796
            ]
        },
        {
            "positions": [
                0.03847841857674915,
                -2.0575060861238383,
                -1.9772122361818958,
                -0.2878064902544959,
                -0.5282250446280821,
                1.4996119136670698
            ]
        },
        {
            "positions": [
                0.03277387822179856,
                -2.062922293487376,
                -1.9657397416517606,
                -0.44582009230573294,
                -0.6110921780237508,
                1.6296712452704603
            ]
        },
        {
            "positions": [
                0.027069337866847953,
                -2.0683385008509143,
                -1.9542672471216251,
                -0.6038336943569698,
                -0.6939593114194196,
                1.7597305768738505
            ]
        },
        {
            "positions": [
                0.021364797511897363,
                -2.073754708214452,
                -1.94279475259149,
                -0.7618472964082066,
                -0.7768264448150883,
                1.8897899084772407
            ]
        },
        {
            "positions": [
                0.015660257156946758,
                -2.07917091557799,
                -1.9313222580613545,
                -0.9198608984594439,
                -0.8596935782107571,
                2.019849240080631
            ]
        },
        {
            "positions": [
                0.009955716801996167,
                -2.0845871229415276,
                -1.9198497635312193,
                -1.0778745005106807,
                -0.9425607116064258,
                2.1499085716840214
            ]
        },
        {
            "positions": [
                0.0042511764470455765,
                -2.0900033303050654,
                -1.9083772690010838,
                -1.2358881025619175,
                -1.0254278450020946,
                2.2799679032874116
            ]
        },
        {
            "positions": [
                -0.0014533639079050142,
                -2.0954195376686036,
                -1.8969047744709486,
                -1.3939017046131543,
                -1.1082949783977634,
                2.410027234890802
            ]
        },
        {
            "positions": [
                -0.007157904262855619,
                -2.1008357450321413,
                -1.8854322799408132,
                -1.5519153066643911,
                -1.1911621117934321,
                2.540086566494192
            ]
        },
        {
            "positions": [
                -0.01286244461780621,
                -2.106251952395679,
                -1.873959785410678,
                -1.709928908715628,
                -1.2740292451891009,
                2.6701458980975823
            ]
        },
        {
            "positions": [
                -0.0185669849727568,
                -2.111668159759217,
                -1.8624872908805425,
                -1.8679425107668648,
                -1.3568963785847696,
                2.8002052297009725
            ]
        },
        {
            "positions": [
                -0.02427152532770739,
                -2.117084367122755,
                -1.8510147963504073,
                -2.0259561128181014,
                -1.4397635119804384,
                2.9302645613043627
            ]
        },
        {
            "positions": [
                -0.029976065682657982,
                -2.122500574486293,
                -1.8395423018202721,
                -2.183969714869339,
                -1.5226306453761072,
                3.0603238929077534
            ]
        },
        {
            "positions": [
                -0.0356806060376086,
                -2.1279167818498306,
                -1.8280698072901367,
                -2.3419833169205755,
                -1.605497778771776,
                3.1903832245111436
            ]
        }
    ]
}