{
    "goal": {
        "global_pose": {
            "orientation": {
                "w": 0.7031023480610252,
                "x": -0.7110244013736278,
                "y": 0.0077485991402295624,
                "z": 0.005598929693374583
            },
            "position": {
                "x": -0.8841497679147869,
                "y": 0.44412534475326537,
                "z": 0.3711530566215515
            }
        },
        "name": "move_to_auspresseinheit_D"
    },
    "id": "LBKPIECE_move_to_auspresseinheit_D_60",
    "joint_names": [
        "shoulder_pan_joint",
        "shoulder_lift_joint",
        "elbow_joint",
        "wrist_1_joint",
        "wrist_2_joint",
        "wrist_3_joint"
    ],
    "metrics": {
        "cart_traj_len": 5.582881588704061,
        "distance_elbow_joint": 8.790287234212464,
        "distance_shoulder_lift_joint": 0.9390387783616482,
        "distance_shoulder_pan_joint": 3.208012870799198,
        "distance_wrist_1_joint": 3.322061590396042,
        "distance_wrist_2_joint": 3.6526725443599686,
        "distance_wrist_3_joint": 7.8710933375750765,
        "smoothness": 0.3377330165394793,
        "time": 2.866749766,
        "traj_len": 5.270973947545598,
        "weighted_distance": 7.106341334724264
    },
    "planner": "LBKPIECE",
    "start": {
        "state": {
            "elbow_joint": 1.8268400409724999,
            "shoulder_lift_joint": -1.0144045787793008,
            "shoulder_pan_joint": 2.6280239544362485,
            "wrist_1_joint": -0.790705565816056,
            "wrist_2_joint": 1.0573557467365533,
            "wrist_3_joint": 3.1851377467193758
        }
    },
    "waypoints": [
        {
            "positions": [
                2.6280239544362485,
                -1.0144045787793008,
                1.8268400409724999,
                -0.790705565816056,
                1.0573557467365533,
                3.1851377467193758
            ]
        },
        {
            "positions": [
                2.5818040076608098,
                -1.0236346053458005,
                1.6943691551079232,
                -0.7530728640885226,
                1.0474034564605785,
                3.0291824983966595
            ]
        },
        {
            "positions": [
                2.5355840608853706,
                -1.0328646319123003,
                1.5618982692433465,
                -0.7154401623609892,
                1.0374511661846035,
                2.8732272500739433
            ]
        },
        {
            "positions": [
                2.489364114109932,
                -1.0420946584787998,
                1.42942738337877,
                -0.6778074606334558,
                1.0274988759086288,
                2.7172720017512275
            ]
        },
        {
            "positions": [
                2.443144167334493,
                -1.0513246850452995,
                1.2969564975141932,
                -0.6401747589059223,
                1.0175465856326538,
                2.5613167534285113
            ]
        },
        {
            "positions": [
                2.3969242205590544,
                -1.0605547116117993,
                1.1644856116496167,
                -0.6025420571783889,
                1.007594295356679,
                2.405361505105795
            ]
        },
        {
            "positions": [
                2.3507042737836152,
                -1.069784738178299,
                1.03201472578504,
                -0.5649093554508555,
                0.9976420050807041,
                2.249406256783079
            ]
        },
        {
            "positions": [
                2.3044843270081765,
                -1.0790147647447985,
                0.8995438399204634,
                -0.5272766537233221,
                0.9876897148047292,
                2.093451008460363
            ]
        },
        {
            "positions": [
                2.258264380232738,
                -1.0882447913112983,
                0.7670729540558867,
                -0.48964395199578875,
                0.9777374245287543,
                1.9374957601376466
            ]
        },
        {
            "positions": [
                2.212044433457299,
                -1.097474817877798,
                0.6346020681913103,
                -0.45201125026825534,
                0.9677851342527795,
                1.7815405118149306
            ]
        },
        {
            "positions": [
                2.16582448668186,
                -1.1067048444442977,
                0.5021311823267336,
                -0.4143785485407219,
                0.9578328439768047,
                1.6255852634922143
            ]
        },
        {
            "positions": [
                2.119604539906421,
                -1.1159348710107975,
                0.3696602964621569,
                -0.3767458468131885,
                0.9478805537008298,
                1.4696300151694983
            ]
        },
        {
            "positions": [
                2.0733845931309824,
                -1.125164897577297,
                0.23718941059758025,
                -0.3391131450856551,
                0.9379282634248549,
                1.313674766846782
            ]
        },
        {
            "positions": [
                2.0271646463555433,
                -1.1343949241437967,
                0.10471852473300358,
                -0.30148044335812163,
                0.92797597314888,
                1.1577195185240656
            ]
        },
        {
            "positions": [
                1.9809446995801046,
                -1.1436249507102965,
                -0.02775236113157309,
                -0.2638477416305882,
                0.9180236828729051,
                1.0017642702013498
            ]
        },
        {
            "positions": [
                1.9347247528046658,
                -1.152854977276796,
                -0.16022324699614954,
                -0.22621503990305492,
                0.9080713925969303,
                0.8458090218786336
            ]
        },
        {
            "positions": [
                1.8885048060292269,
                -1.1620850038432957,
                -0.29269413286072643,
                -0.1885823381755215,
                0.8981191023209554,
                0.6898537735559174
            ]
        },
        {
            "positions": [
                1.842284859253788,
                -1.1713150304097955,
                -0.4251650187253029,
                -0.1509496364479881,
                0.8881668120449806,
                0.5338985252332011
            ]
        },
        {
            "positions": [
                1.7960649124783492,
                -1.1805450569762952,
                -0.5576359045898793,
                -0.11331693472045468,
                0.8782145217690057,
                0.37794327691048535
            ]
        },
        {
            "positions": [
                1.7498449657029105,
                -1.189775083542795,
                -0.6901067904544562,
                -0.07568423299292126,
                0.8682622314930308,
                0.22198802858776912
            ]
        },
        {
            "positions": [
                1.7036250189274715,
                -1.1990051101092944,
                -0.8225776763190327,
                -0.03805153126538785,
                0.858309941217056,
                0.06603278026505288
            ]
        },
        {
            "positions": [
                1.6574050721520326,
                -1.2082351366757942,
                -0.9550485621836096,
                -0.0004188295378544371,
                0.8483576509410811,
                -0.08992246805766335
            ]
        },
        {
            "positions": [
                1.6111851253765939,
                -1.217465163242294,
                -1.087519448048186,
                0.037213872189678976,
                0.8384053606651062,
                -0.24587771638037914
            ]
        },
        {
            "positions": [
                1.564965178601155,
                -1.2266951898087937,
                -1.219990333912763,
                0.07484657391721239,
                0.8284530703891313,
                -0.4018329647030954
            ]
        },
        {
            "positions": [
                1.518745231825716,
                -1.2359252163752932,
                -1.3524612197773394,
                0.1124792756447458,
                0.8185007801131565,
                -0.5577882130258116
            ]
        },
        {
            "positions": [
                1.4725252850502772,
                -1.245155242941793,
                -1.4849321056419162,
                0.15011197737227922,
                0.8085484898371815,
                -0.7137434613485278
            ]
        },
        {
            "positions": [
                1.4263053382748383,
                -1.2543852695082927,
                -1.6174029915064927,
                0.18774467909981274,
                0.7985961995612068,
                -0.8696987096712445
            ]
        },
        {
            "positions": [
                1.3800853914993993,
                -1.2636152960747924,
                -1.7498738773710696,
                0.22537738082734604,
                0.7886439092852318,
                -1.0256539579939603
            ]
        },
        {
            "positions": [
                1.3338654447239606,
                -1.2728453226412921,
                -1.882344763235646,
                0.26301008255487957,
                0.778691619009257,
                -1.181609206316676
            ]
        },
        {
            "positions": [
                1.2876454979485217,
                -1.2820753492077919,
                -2.014815649100223,
                0.30064278428241287,
                0.7687393287332821,
                -1.3375644546393928
            ]
        },
        {
            "positions": [
                1.241425551173083,
                -1.2913053757742914,
                -2.147286534964799,
                0.33827548600994617,
                0.7587870384573072,
                -1.4935197029621086
            ]
        },
        {
            "positions": [
                1.1952056043976442,
                -1.3005354023407911,
                -2.279757420829376,
                0.3759081877374797,
                0.7488347481813324,
                -1.6494749512848244
            ]
        },
        {
            "positions": [
                1.1489856576222053,
                -1.3097654289072909,
                -2.4122283066939527,
                0.413540889465013,
                0.7388824579053574,
                -1.805430199607541
            ]
        },
        {
            "positions": [
                1.1027657108467663,
                -1.3189954554737904,
                -2.5446991925585287,
                0.4511735911925465,
                0.7289301676293827,
                -1.9613854479302568
            ]
        },
        {
            "positions": [
                1.0565457640713276,
                -1.3282254820402901,
                -2.6771700784231056,
                0.4888062929200798,
                0.7189778773534078,
                -2.1173406962529735
            ]
        },
        {
            "positions": [
                1.0103258172958887,
                -1.3374555086067899,
                -2.8096409642876825,
                0.5264389946476133,
                0.7090255870774329,
                -2.273295944575689
            ]
        },
        {
            "positions": [
                1.0562078049135035,
                -1.3219502662795959,
                -2.693711054267632,
                0.5804305737690627,
                0.6169284070431965,
                -2.203898448686737
            ]
        },
        {
            "positions": [
                1.1020897925311184,
                -1.3064450239524021,
                -2.5777811442475813,
                0.6344221528905121,
                0.5248312270089601,
                -2.134500952797785
            ]
        },
        {
            "positions": [
                1.147971780148733,
                -1.2909397816252082,
                -2.461851234227531,
                0.6884137320119614,
                0.4327340469747237,
                -2.065103456908833
            ]
        },
        {
            "positions": [
                1.1938537677663479,
                -1.2754345392980142,
                -2.3459213242074806,
                0.7424053111334108,
                0.34063686694048734,
                -1.9957059610198813
            ]
        },
        {
            "positions": [
                1.2397357553839627,
                -1.2599292969708205,
                -2.22999141418743,
                0.7963968902548602,
                0.2485396869062509,
                -1.9263084651309295
            ]
        },
        {
            "positions": [
                1.2856177430015776,
                -1.2444240546436265,
                -2.1140615041673794,
                0.8503884693763096,
                0.15644250687201444,
                -1.8569109692419774
            ]
        },
        {
            "positions": [
                1.3314997306191922,
                -1.2289188123164325,
                -1.998131594147329,
                0.9043800484977589,
                0.06434532683777816,
                -1.7875134733530256
            ]
        },
        {
            "positions": [
                1.377381718236807,
                -1.2134135699892388,
                -1.8822016841272786,
                0.9583716276192084,
                -0.02775185319645823,
                -1.7181159774640737
            ]
        },
        {
            "positions": [
                1.423263705854422,
                -1.1979083276620448,
                -1.766271774107228,
                1.0123632067406576,
                -0.11984903323069473,
                -1.6487184815751217
            ]
        },
        {
            "positions": [
                1.4691456934720368,
                -1.182403085334851,
                -1.6503418640871774,
                1.066354785862107,
                -0.21194621326493113,
                -1.5793209856861699
            ]
        },
        {
            "positions": [
                1.5150276810896517,
                -1.166897843007657,
                -1.5344119540671268,
                1.1203463649835566,
                -0.3040433932991675,
                -1.509923489797218
            ]
        },
        {
            "positions": [
                1.5609096687072666,
                -1.1513926006804631,
                -1.4184820440470765,
                1.174337944105006,
                -0.396140573333404,
                -1.440525993908266
            ]
        },
        {
            "positions": [
                1.6067916563248812,
                -1.1358873583532694,
                -1.302552134027026,
                1.228329523226455,
                -0.4882377533676403,
                -1.3711284980193144
            ]
        },
        {
            "positions": [
                1.6526736439424958,
                -1.1203821160260754,
                -1.1866222240069755,
                1.2823211023479044,
                -0.5803349334018766,
                -1.3017310021303623
            ]
        },
        {
            "positions": [
                1.6985556315601107,
                -1.1048768736988814,
                -1.0706923139869249,
                1.336312681469354,
                -0.6724321134361131,
                -1.2323335062414105
            ]
        },
        {
            "positions": [
                1.7444376191777256,
                -1.0893716313716877,
                -0.9547624039668745,
                1.3903042605908034,
                -0.7645292934703494,
                -1.1629360103524584
            ]
        },
        {
            "positions": [
                1.7903196067953404,
                -1.0738663890444937,
                -0.8388324939468239,
                1.4442958397122527,
                -0.8566264735045859,
                -1.0935385144635066
            ]
        },
        {
            "positions": [
                1.8362015944129553,
                -1.0583611467172998,
                -0.7229025839267735,
                1.498287418833702,
                -0.9487236535388224,
                -1.0241410185745548
            ]
        },
        {
            "positions": [
                1.8820835820305701,
                -1.042855904390106,
                -0.6069726739067227,
                1.5522789979551515,
                -1.0408208335730587,
                -0.9547435226856027
            ]
        },
        {
            "positions": [
                1.927965569648185,
                -1.027350662062912,
                -0.49104276388667234,
                1.6062705770766008,
                -1.1329180136072952,
                -0.8853460267966509
            ]
        },
        {
            "positions": [
                1.9738475572657996,
                -1.011845419735718,
                -0.37511285386662196,
                1.6602621561980502,
                -1.2250151936415314,
                -0.815948530907699
            ]
        },
        {
            "positions": [
                2.0197295448834147,
                -0.9963401774085243,
                -0.25918294384657115,
                1.7142537353194998,
                -1.317112373675768,
                -0.746551035018747
            ]
        },
        {
            "positions": [
                2.0656115325010296,
                -0.9808349350813304,
                -0.14325303382652077,
                1.7682453144409491,
                -1.4092095537100042,
                -0.6771535391297951
            ]
        },
        {
            "positions": [
                2.1114935201186444,
                -0.9653296927541364,
                -0.027323123806470395,
                1.8222368935623985,
                -1.501306733744241,
                -0.6077560432408431
            ]
        },
        {
            "positions": [
                2.157375507736259,
                -0.9498244504269426,
                0.08860678621358042,
                1.8762284726838478,
                -1.5934039137784772,
                -0.5383585473518913
            ]
        },
        {
            "positions": [
                2.2032574953538737,
                -0.9343192080997487,
                0.20453669623363036,
                1.930220051805297,
                -1.6855010938127135,
                -0.46896105146293965
            ]
        },
        {
            "positions": [
                2.249139482971488,
                -0.9188139657725549,
                0.3204666062536812,
                1.9842116309267464,
                -1.7775982738469498,
                -0.3995635555739878
            ]
        },
        {
            "positions": [
                2.295021470589103,
                -0.903308723445361,
                0.43639651627373155,
                2.038203210048196,
                -1.869695453881186,
                -0.33016605968503576
            ]
        },
        {
            "positions": [
                2.340903458206718,
                -0.887803481118167,
                0.5523264262937819,
                2.0921947891696453,
                -1.9617926339154224,
                -0.2607685637960837
            ]
        },
        {
            "positions": [
                2.3867854458243327,
                -0.8722982387909732,
                0.6682563363138327,
                2.1461863682910947,
                -2.053889813949659,
                -0.1913710679071321
            ]
        },
        {
            "positions": [
                2.4326674334419476,
                -0.8567929964637793,
                0.7841862463338831,
                2.200177947412544,
                -2.1459869939838954,
                -0.12197357201818004
            ]
        },
        {
            "positions": [
                2.4785494210595624,
                -0.8412877541365853,
                0.9001161563539335,
                2.2541695265339934,
                -2.2380841740181316,
                -0.05257607612922799
            ]
        },
        {
            "positions": [
                2.5244314086771773,
                -0.8257825118093914,
                1.0160460663739843,
                2.3081611056554427,
                -2.3301813540523684,
                0.01682141975972362
            ]
        },
        {
            "positions": [
                2.570313396294792,
                -0.8102772694821976,
                1.131975976394035,
                2.362152684776892,
                -2.4222785340866047,
                0.08621891564867579
            ]
        },
        {
            "positions": [
                2.5854769736247594,
                -0.7658724647774142,
                1.2380706205293166,
                2.446754354678439,
                -2.5087976658550097,
                0.059646522620847645
            ]
        },
        {
            "positions": [
                2.6006405509547266,
                -0.7214676600726307,
                1.3441652646645983,
                2.5313560245799858,
                -2.5953167976234153,
                0.033074129593019495
            ]
        }
    ]
}