{
    "goal": {
        "global_pose": {
            "orientation": {
                "w": 0.5084816262002911,
                "x": -0.4908360881923452,
                "y": 0.5182115481033761,
                "z": -0.48164630358495003
            },
            "position": {
                "x": 0.5540239810943604,
                "y": -0.46912469901144505,
                "z": 0.16403168439865112
            }
        },
        "name": "move_to_storage_B"
    },
    "id": "LBKPIECE_move_to_storage_B_132",
    "joint_names": [
        "shoulder_pan_joint",
        "shoulder_lift_joint",
        "elbow_joint",
        "wrist_1_joint",
        "wrist_2_joint",
        "wrist_3_joint"
    ],
    "metrics": {
        "cart_traj_len": 0.9317386804944704,
        "distance_elbow_joint": 0.7270782057755534,
        "distance_shoulder_lift_joint": 0.46022610333307323,
        "distance_shoulder_pan_joint": 0.5783032730065935,
        "distance_wrist_1_joint": 3.299938477557493,
        "distance_wrist_2_joint": 2.7080224942626794,
        "distance_wrist_3_joint": 3.1357918762652774,
        "smoothness": 0.16979474879266335,
        "time": 2.12291168,
        "traj_len": 3.3029320959112476,
        "weighted_distance": 4.8154859728330015
    },
    "planner": "LBKPIECE",
    "start": {
        "state": {
            "elbow_joint": 1.6649325706314817,
            "shoulder_lift_joint": -0.6616388048112454,
            "shoulder_pan_joint": -0.9139837860083814,
            "wrist_1_joint": 2.146757197745094,
            "wrist_2_joint": -2.234196043158733,
            "wrist_3_joint": 0.005471033829999897
        }
    },
    "waypoints": [
        {
            "positions": [
                -0.9139837860083814,
                -0.6616388048112454,
                1.6649325706314817,
                2.146757197745094,
                -2.234196043158733,
                0.005471033829999897
            ]
        },
        {
            "positions": [
                -0.874307250212311,
                -0.7477043840433076,
                1.7726382517800032,
                2.1781242942451584,
                -2.1876231672877418,
                0.023374360312058355
            ]
        },
        {
            "positions": [
                -0.8346307144162406,
                -0.8337699632753699,
                1.8803439329285245,
                2.209491390745223,
                -2.1410502914167506,
                0.041277686794116815
            ]
        },
        {
            "positions": [
                -0.7949541786201703,
                -0.9198355425074323,
                1.988049614077046,
                2.2408584872452875,
                -2.09447741554576,
                0.059181013276175275
            ]
        },
        {
            "positions": [
                -0.7552776428240998,
                -1.0059011217394946,
                2.0957552952255676,
                2.272225583745352,
                -2.047904539674769,
                0.07708433975823374
            ]
        },
        {
            "positions": [
                -0.7156011070280295,
                -1.0919667009715568,
                2.203460976374089,
                2.3035926802454165,
                -2.0013316638037777,
                0.0949876662402922
            ]
        },
        {
            "positions": [
                -0.7314311317791229,
                -1.0932124596037551,
                2.1956047347060497,
                2.172630055451368,
                -1.8982000756826225,
                0.2219158014009166
            ]
        },
        {
            "positions": [
                -0.7472611565302163,
                -1.0944582182359537,
                2.18774849303801,
                2.041667430657319,
                -1.7950684875614673,
                0.348843936561541
            ]
        },
        {
            "positions": [
                -0.7630911812813097,
                -1.095703976868152,
                2.179892251369971,
                1.9107048058632703,
                -1.6919368994403121,
                0.4757720717221654
            ]
        },
        {
            "positions": [
                -0.7789212060324031,
                -1.0969497355003504,
                2.172036009701931,
                1.7797421810692216,
                -1.588805311319157,
                0.6027002068827898
            ]
        },
        {
            "positions": [
                -0.7947512307834965,
                -1.098195494132549,
                2.164179768033892,
                1.6487795562751726,
                -1.4856737231980017,
                0.7296283420434142
            ]
        },
        {
            "positions": [
                -0.8105812555345899,
                -1.0994412527647472,
                2.1563235263658522,
                1.5178169314811238,
                -1.3825421350768465,
                0.8565564772040386
            ]
        },
        {
            "positions": [
                -0.8264112802856833,
                -1.1006870113969456,
                2.148467284697813,
                1.3868543066870749,
                -1.2794105469556913,
                0.9834846123646631
            ]
        },
        {
            "positions": [
                -0.8422413050367766,
                -1.1019327700291441,
                2.1406110430297733,
                1.2558916818930264,
                -1.1762789588345364,
                1.1104127475252874
            ]
        },
        {
            "positions": [
                -0.85807132978787,
                -1.1031785286613425,
                2.132754801361734,
                1.1249290570989774,
                -1.0731473707133812,
                1.2373408826859118
            ]
        },
        {
            "positions": [
                -0.8739013545389634,
                -1.1044242872935408,
                2.1248985596936945,
                0.9939664323049286,
                -0.970015782592226,
                1.3642690178465362
            ]
        },
        {
            "positions": [
                -0.8897313792900569,
                -1.1056700459257394,
                2.1170423180256552,
                0.8630038075108799,
                -0.8668841944710708,
                1.4911971530071606
            ]
        },
        {
            "positions": [
                -0.9055614040411503,
                -1.1069158045579377,
                2.1091860763576156,
                0.7320411827168312,
                -0.7637526063499156,
                1.618125288167785
            ]
        },
        {
            "positions": [
                -0.9213914287922437,
                -1.108161563190136,
                2.1013298346895763,
                0.6010785579227824,
                -0.6606210182287604,
                1.7450534233284092
            ]
        },
        {
            "positions": [
                -0.9372214535433371,
                -1.1094073218223346,
                2.093473593021537,
                0.47011593312873345,
                -0.5574894301076052,
                1.871981558489034
            ]
        },
        {
            "positions": [
                -0.9530514782944305,
                -1.110653080454533,
                2.0856173513534975,
                0.33915330833468493,
                -0.45435784198645,
                1.9989096936496582
            ]
        },
        {
            "positions": [
                -0.9688815030455238,
                -1.1118988390867313,
                2.0777611096854582,
                0.2081906835406362,
                -0.35122625386529505,
                2.1258378288102824
            ]
        },
        {
            "positions": [
                -0.9847115277966172,
                -1.1131445977189298,
                2.0699048680174186,
                0.077228058746587,
                -0.24809466574413963,
                2.252765963970907
            ]
        },
        {
            "positions": [
                -1.0005415525477106,
                -1.1143903563511282,
                2.0620486263493794,
                -0.05373456604746174,
                -0.14496307762298466,
                2.379694099131531
            ]
        },
        {
            "positions": [
                -1.016371577298804,
                -1.1156361149833265,
                2.0541923846813397,
                -0.18469719084151004,
                -0.041831489501829466,
                2.5066222342921556
            ]
        },
        {
            "positions": [
                -1.0322016020498974,
                -1.116881873615525,
                2.0463361430133005,
                -0.3156598156355592,
                0.06130009861932573,
                2.63355036945278
            ]
        },
        {
            "positions": [
                -1.0480316268009908,
                -1.1181276322477234,
                2.038479901345261,
                -0.44662244042960797,
                0.16443168674048092,
                2.7604785046134044
            ]
        },
        {
            "positions": [
                -1.0638616515520842,
                -1.1193733908799217,
                2.0306236596772216,
                -0.5775850652236567,
                0.2675632748616361,
                2.887406639774029
            ]
        },
        {
            "positions": [
                -1.0796916763031776,
                -1.1206191495121203,
                2.022767418009182,
                -0.7085476900177055,
                0.3706948629827913,
                3.014334774934653
            ]
        },
        {
            "positions": [
                -1.095521701054271,
                -1.1218649081443186,
                2.0149111763411427,
                -0.8395103148117541,
                0.47382645110394644,
                3.1412629100952776
            ]
        }
    ]
}