{
    "goal": {
        "global_pose": {
            "orientation": {
                "w": 0.7031023480610252,
                "x": -0.7110244013736278,
                "y": 0.0077485991402295624,
                "z": 0.005598929693374583
            },
            "position": {
                "x": -0.8841497679147869,
                "y": 0.44412534475326537,
                "z": 0.3711530566215515
            }
        },
        "name": "move_to_auspresseinheit_D"
    },
    "id": "LBKPIECE_move_to_auspresseinheit_D_26",
    "joint_names": [
        "shoulder_pan_joint",
        "shoulder_lift_joint",
        "elbow_joint",
        "wrist_1_joint",
        "wrist_2_joint",
        "wrist_3_joint"
    ],
    "metrics": {
        "cart_traj_len": 2.7397826554823905,
        "distance_elbow_joint": 0.484675697776189,
        "distance_shoulder_lift_joint": 3.8082704431726837,
        "distance_shoulder_pan_joint": 1.0144389162310299,
        "distance_wrist_1_joint": 3.3273945841975023,
        "distance_wrist_2_joint": 3.66391754833218,
        "distance_wrist_3_joint": 6.669813730686955,
        "smoothness": 0.29100897410138027,
        "time": 5.450582572,
        "traj_len": 4.355285400567515,
        "weighted_distance": 6.268927381482428
    },
    "planner": "LBKPIECE",
    "start": {
        "state": {
            "elbow_joint": 1.8268400409724999,
            "shoulder_lift_joint": -1.0144045787793008,
            "shoulder_pan_joint": 2.6280239544362485,
            "wrist_1_joint": -0.790705565816056,
            "wrist_2_joint": 1.0573557467365533,
            "wrist_3_joint": 3.1851377467193758
        }
    },
    "waypoints": [
        {
            "positions": [
                2.6280239544362485,
                -1.0144045787793008,
                1.8268400409724999,
                -0.790705565816056,
                1.0573557467365533,
                3.1851377467193758
            ]
        },
        {
            "positions": [
                2.6053788306884487,
                -1.090823889901481,
                1.8211640300721337,
                -0.720708451891556,
                1.0527689731194856,
                2.9717551914293963
            ]
        },
        {
            "positions": [
                2.582733706940649,
                -1.1672432010236615,
                1.8154880191717673,
                -0.6507113379670559,
                1.0481821995024176,
                2.7583726361394167
            ]
        },
        {
            "positions": [
                2.560088583192849,
                -1.2436625121458418,
                1.809812008271401,
                -0.5807142240425559,
                1.04359542588535,
                2.5449900808494372
            ]
        },
        {
            "positions": [
                2.5374434594450492,
                -1.320081823268022,
                1.804135997371035,
                -0.5107171101180559,
                1.039008652268282,
                2.331607525559458
            ]
        },
        {
            "positions": [
                2.5147983356972494,
                -1.3965011343902023,
                1.7984599864706685,
                -0.4407199961935558,
                1.0344218786512143,
                2.1182249702694786
            ]
        },
        {
            "positions": [
                2.492153211949449,
                -1.4729204455123828,
                1.7927839755703023,
                -0.37072288226905575,
                1.0298351050341463,
                1.904842414979499
            ]
        },
        {
            "positions": [
                2.4695080882016494,
                -1.5493397566345632,
                1.7871079646699362,
                -0.30072576834455567,
                1.0252483314170786,
                1.6914598596895194
            ]
        },
        {
            "positions": [
                2.4468629644538495,
                -1.6257590677567433,
                1.7814319537695698,
                -0.23072865442005563,
                1.0206615578000107,
                1.47807730439954
            ]
        },
        {
            "positions": [
                2.4242178407060497,
                -1.7021783788789238,
                1.7757559428692036,
                -0.1607315404955556,
                1.016074784182943,
                1.2646947491095604
            ]
        },
        {
            "positions": [
                2.40157271695825,
                -1.778597690001104,
                1.7700799319688374,
                -0.09073442657105557,
                1.011488010565875,
                1.051312193819581
            ]
        },
        {
            "positions": [
                2.37892759321045,
                -1.8550170011232843,
                1.764403921068471,
                -0.020737312646555428,
                1.0069012369488073,
                0.8379296385296016
            ]
        },
        {
            "positions": [
                2.3562824694626503,
                -1.9314363122454647,
                1.7587279101681048,
                0.04925980127794449,
                1.0023144633317393,
                0.624547083239622
            ]
        },
        {
            "positions": [
                2.3336373457148505,
                -2.007855623367645,
                1.7530518992677386,
                0.11925691520244452,
                0.9977276897146716,
                0.411164527949643
            ]
        },
        {
            "positions": [
                2.3109922219670507,
                -2.0842749344898257,
                1.7473758883673722,
                0.18925402912694467,
                0.9931409160976038,
                0.19778197265966302
            ]
        },
        {
            "positions": [
                2.288347098219251,
                -2.1606942456120057,
                1.741699877467006,
                0.2592511430514448,
                0.988554142480536,
                -0.015600582630316495
            ]
        },
        {
            "positions": [
                2.265701974471451,
                -2.2371135567341858,
                1.7360238665666397,
                0.32924825697594473,
                0.9839673688634681,
                -0.22898313792029557
            ]
        },
        {
            "positions": [
                2.2430568507236512,
                -2.3135328678563662,
                1.7303478556662735,
                0.39924537090044465,
                0.9793805952464003,
                -0.4423656932102751
            ]
        },
        {
            "positions": [
                2.220411726975851,
                -2.3899521789785467,
                1.7246718447659073,
                0.4692424848249448,
                0.9747938216293325,
                -0.655748248500255
            ]
        },
        {
            "positions": [
                2.197766603228051,
                -2.4663714901007268,
                1.718995833865541,
                0.5392395987494449,
                0.9702070480122647,
                -0.8691308037902341
            ]
        },
        {
            "positions": [
                2.1751214794802514,
                -2.5427908012229072,
                1.7133198229651747,
                0.6092367126739449,
                0.9656202743951968,
                -1.0825133590802136
            ]
        },
        {
            "positions": [
                2.1524763557324516,
                -2.6192101123450877,
                1.7076438120648085,
                0.6792338265984448,
                0.961033500778129,
                -1.2958959143701931
            ]
        },
        {
            "positions": [
                2.1298312319846517,
                -2.6956294234672677,
                1.7019678011644421,
                0.7492309405229451,
                0.9564467271610612,
                -1.5092784696601727
            ]
        },
        {
            "positions": [
                2.107186108236852,
                -2.7720487345894482,
                1.696291790264076,
                0.8192280544474451,
                0.9518599535439933,
                -1.7226610249501517
            ]
        },
        {
            "positions": [
                2.12617076477653,
                -2.693178492767812,
                1.6826715038383926,
                0.8852842453679834,
                0.8149975783463156,
                -1.654891218834097
            ]
        },
        {
            "positions": [
                2.1451554213162085,
                -2.614308250946176,
                1.6690512174127095,
                0.9513404362885219,
                0.6781352031486378,
                -1.5871214127180422
            ]
        },
        {
            "positions": [
                2.1641400778558864,
                -2.53543800912454,
                1.655430930987026,
                1.0173966272090604,
                0.5412728279509602,
                -1.5193516066019874
            ]
        },
        {
            "positions": [
                2.1831247343955646,
                -2.456567767302904,
                1.641810644561343,
                1.0834528181295988,
                0.40441045275328247,
                -1.4515818004859327
            ]
        },
        {
            "positions": [
                2.202109390935243,
                -2.377697525481268,
                1.6281903581356596,
                1.1495090090501372,
                0.26754807755560484,
                -1.3838119943698781
            ]
        },
        {
            "positions": [
                2.2210940474749212,
                -2.298827283659632,
                1.6145700717099762,
                1.2155651999706758,
                0.1306857023579271,
                -1.3160421882538234
            ]
        },
        {
            "positions": [
                2.2400787040145995,
                -2.2199570418379957,
                1.600949785284293,
                1.281621390891214,
                -0.006176672839750541,
                -1.2482723821377686
            ]
        },
        {
            "positions": [
                2.2590633605542774,
                -2.1410868000163594,
                1.5873294988586097,
                1.3476775818117526,
                -0.1430390480374284,
                -1.1805025760217138
            ]
        },
        {
            "positions": [
                2.2780480170939557,
                -2.0622165581947236,
                1.5737092124329264,
                1.413733772732291,
                -0.27990142323510603,
                -1.112732769905659
            ]
        },
        {
            "positions": [
                2.297032673633634,
                -1.9833463163730873,
                1.5600889260072432,
                1.4797899636528293,
                -0.41676379843278366,
                -1.0449629637896045
            ]
        },
        {
            "positions": [
                2.3160173301733122,
                -1.9044760745514515,
                1.54646863958156,
                1.545846154573368,
                -0.5536261736304613,
                -0.9771931576735496
            ]
        },
        {
            "positions": [
                2.3350019867129905,
                -1.8256058327298152,
                1.5328483531558768,
                1.6119023454939063,
                -0.6904885488281391,
                -0.9094233515574949
            ]
        },
        {
            "positions": [
                2.353986643252669,
                -1.7467355909081792,
                1.5192280667301934,
                1.6779585364144447,
                -0.8273509240258168,
                -0.8416535454414402
            ]
        },
        {
            "positions": [
                2.3729712997923467,
                -1.6678653490865432,
                1.50560778030451,
                1.744014727334983,
                -0.9642132992234944,
                -0.7738837393253856
            ]
        },
        {
            "positions": [
                2.391955956332025,
                -1.5889951072649071,
                1.491987493878827,
                1.8100709182555215,
                -1.101075674421172,
                -0.7061139332093309
            ]
        },
        {
            "positions": [
                2.4109406128717032,
                -1.5101248654432708,
                1.4783672074531435,
                1.87612710917606,
                -1.2379380496188501,
                -0.6383441270932759
            ]
        },
        {
            "positions": [
                2.4299252694113815,
                -1.4312546236216348,
                1.4647469210274604,
                1.9421833000965985,
                -1.3748004248165278,
                -0.5705743209772214
            ]
        },
        {
            "positions": [
                2.4489099259510594,
                -1.3523843817999988,
                1.451126634601777,
                2.008239491017137,
                -1.5116628000142054,
                -0.5028045148611666
            ]
        },
        {
            "positions": [
                2.4678945824907377,
                -1.2735141399783627,
                1.4375063481760937,
                2.0742956819376754,
                -1.648525175211883,
                -0.43503470874511185
            ]
        },
        {
            "positions": [
                2.486879239030416,
                -1.1946438981567267,
                1.4238860617504105,
                2.140351872858214,
                -1.7853875504095607,
                -0.3672649026290571
            ]
        },
        {
            "positions": [
                2.5058638955700943,
                -1.1157736563350906,
                1.4102657753247272,
                2.206408063778752,
                -1.9222499256072383,
                -0.2994950965130023
            ]
        },
        {
            "positions": [
                2.5248485521097725,
                -1.0369034145134546,
                1.3966454888990438,
                2.2724642546992904,
                -2.059112300804916,
                -0.23172529039694756
            ]
        },
        {
            "positions": [
                2.543833208649451,
                -0.9580331726918185,
                1.3830252024733607,
                2.338520445619829,
                -2.1959746760025936,
                -0.16395548428089302
            ]
        },
        {
            "positions": [
                2.562817865189129,
                -0.8791629308701823,
                1.3694049160476773,
                2.4045766365403676,
                -2.3328370512002716,
                -0.09618567816483803
            ]
        },
        {
            "positions": [
                2.581802521728807,
                -0.8002926890485462,
                1.355784629621994,
                2.470632827460906,
                -2.4696994263979493,
                -0.028415872048783486
            ]
        },
        {
            "positions": [
                2.6007871782684853,
                -0.7214224472269103,
                1.3421643431963108,
                2.5366890183814443,
                -2.606561801595627,
                0.03935393406727133
            ]
        }
    ]
}