{
    "goal": {
        "global_pose": {
            "orientation": {
                "w": -0.00223480608172531,
                "x": 0.0024358444001904467,
                "y": 0.7094548369677653,
                "z": -0.704743149386269
            },
            "position": {
                "x": 0.6205249238014221,
                "y": -0.6371506643295288,
                "z": 0.19426114857196808
            }
        },
        "name": "move_to_magneteinheit_B"
    },
    "id": "LBKPIECE_move_to_magneteinheit_B_133",
    "joint_names": [
        "shoulder_pan_joint",
        "shoulder_lift_joint",
        "elbow_joint",
        "wrist_1_joint",
        "wrist_2_joint",
        "wrist_3_joint"
    ],
    "metrics": {
        "cart_traj_len": 3.723665195821341,
        "distance_elbow_joint": 5.593147780158105,
        "distance_shoulder_lift_joint": 1.5368429922336022,
        "distance_shoulder_pan_joint": 2.3652820308107727,
        "distance_wrist_1_joint": 1.7718145602132862,
        "distance_wrist_2_joint": 0.2562509599503047,
        "distance_wrist_3_joint": 3.7613600464554273,
        "smoothness": 0.6703837891353628,
        "time": 0.8744035459999999,
        "traj_len": 3.9095649847293115,
        "weighted_distance": 4.9835212433475125
    },
    "planner": "LBKPIECE",
    "start": {
        "state": {
            "elbow_joint": 2.3935871308073637,
            "shoulder_lift_joint": -1.9085141043777403,
            "shoulder_pan_joint": 0.7066247067284167,
            "wrist_1_joint": -0.46782909355067076,
            "wrist_2_joint": 0.7096259085804283,
            "wrist_3_joint": -3.1358149275257428
        }
    },
    "waypoints": [
        {
            "positions": [
                0.7066247067284167,
                -1.9085141043777403,
                2.3935871308073637,
                -0.46782909355067076,
                0.7096259085804283,
                -3.1358149275257428
            ]
        },
        {
            "positions": [
                0.6166807623133848,
                -1.905978129504727,
                2.390925889032899,
                -0.5079046146116172,
                0.7080240294917712,
                -2.914320265395183
            ]
        },
        {
            "positions": [
                0.5267368178983529,
                -1.9034421546317135,
                2.388264647258435,
                -0.5479801356725635,
                0.7064221504031143,
                -2.692825603264623
            ]
        },
        {
            "positions": [
                0.5494549404060572,
                -1.8965115868956968,
                2.253972912004693,
                -0.49647752161194914,
                0.7121335355885108,
                -2.547912153764959
            ]
        },
        {
            "positions": [
                0.5721730629137616,
                -1.88958101915968,
                2.1196811767509516,
                -0.4449749075513347,
                0.7178449207739072,
                -2.402998704265295
            ]
        },
        {
            "positions": [
                0.6107508050842535,
                -1.883857975613806,
                1.9772098712250463,
                -0.3853052505285552,
                0.7172730125477895,
                -2.2769290871297097
            ]
        },
        {
            "positions": [
                0.6493285472547453,
                -1.8781349320679321,
                1.8347385656991408,
                -0.3256355935057757,
                0.716701104321672,
                -2.1508594699941237
            ]
        },
        {
            "positions": [
                0.6879062894252372,
                -1.8724118885220582,
                1.6922672601732356,
                -0.2659659364829962,
                0.7161291960955544,
                -2.024789852858538
            ]
        },
        {
            "positions": [
                0.726484031595729,
                -1.8666888449761843,
                1.54979595464733,
                -0.20629627946021672,
                0.7155572878694367,
                -1.8987202357229522
            ]
        },
        {
            "positions": [
                0.765061773766221,
                -1.8609658014303103,
                1.4073246491214249,
                -0.14662662243743724,
                0.7149853796433192,
                -1.7726506185873667
            ]
        },
        {
            "positions": [
                0.8036395159367128,
                -1.8552427578844364,
                1.2648533435955196,
                -0.08695696541465775,
                0.7144134714172016,
                -1.646581001451781
            ]
        },
        {
            "positions": [
                0.8422172581072047,
                -1.8495197143385624,
                1.1223820380696141,
                -0.027287308391878262,
                0.7138415631910839,
                -1.5205113843161953
            ]
        },
        {
            "positions": [
                0.8807950002776965,
                -1.8437966707926887,
                0.9799107325437089,
                0.032382348630901225,
                0.7132696549649664,
                -1.3944417671806095
            ]
        },
        {
            "positions": [
                0.9193727424481886,
                -1.8380736272468148,
                0.8374394270178034,
                0.09205200565368071,
                0.7126977467388488,
                -1.2683721500450238
            ]
        },
        {
            "positions": [
                0.9579504846186804,
                -1.8323505837009408,
                0.6949681214918981,
                0.1517216626764602,
                0.7121258385127313,
                -1.142302532909438
            ]
        },
        {
            "positions": [
                0.9965282267891722,
                -1.826627540155067,
                0.5524968159659926,
                0.2113913196992397,
                0.7115539302866136,
                -1.0162329157738526
            ]
        },
        {
            "positions": [
                1.035105968959664,
                -1.820904496609193,
                0.4100255104400874,
                0.2710609767220192,
                0.710982022060496,
                -0.8901632986382668
            ]
        },
        {
            "positions": [
                1.073683711130156,
                -1.815181453063319,
                0.2675542049141819,
                0.33073063374479866,
                0.7104101138343785,
                -0.7640936815026811
            ]
        },
        {
            "positions": [
                1.1122614533006479,
                -1.809458409517445,
                0.12508289938827677,
                0.3904002907675781,
                0.7098382056082608,
                -0.6380240643670955
            ]
        },
        {
            "positions": [
                1.217155837627908,
                -1.7800115020971317,
                -0.06795410627626541,
                0.41403012853978477,
                0.7090186722883274,
                -0.6620137681903674
            ]
        },
        {
            "positions": [
                1.3220502219551677,
                -1.7505645946768182,
                -0.2609911119408076,
                0.43765996631199144,
                0.7081991389683939,
                -0.6860034720136393
            ]
        },
        {
            "positions": [
                1.4269446062824278,
                -1.7211176872565048,
                -0.4540281176053498,
                0.4612898040841982,
                0.7073796056484605,
                -0.7099931758369112
            ]
        },
        {
            "positions": [
                1.5318389906096876,
                -1.6916707798361914,
                -0.647065123269892,
                0.48491964185640485,
                0.706560072328527,
                -0.733982879660183
            ]
        },
        {
            "positions": [
                1.6367333749369477,
                -1.662223872415878,
                -0.8401021289344341,
                0.5085494796286115,
                0.7057405390085936,
                -0.757972583483455
            ]
        },
        {
            "positions": [
                1.7416277592642078,
                -1.6327769649955646,
                -1.0331391345989762,
                0.5321793174008183,
                0.7049210056886601,
                -0.7819622873067269
            ]
        },
        {
            "positions": [
                1.8465221435914674,
                -1.6033300575752512,
                -1.2261761402635183,
                0.5558091551730249,
                0.7041014723687268,
                -0.8059519911299988
            ]
        },
        {
            "positions": [
                1.9514165279187274,
                -1.5738831501549377,
                -1.4192131459280608,
                0.5794389929452316,
                0.7032819390487933,
                -0.8299416949532707
            ]
        },
        {
            "positions": [
                2.0563109122459875,
                -1.5444362427346243,
                -1.6122501515926029,
                0.6030688307174383,
                0.7024624057288599,
                -0.8539313987765427
            ]
        },
        {
            "positions": [
                2.1612052965732476,
                -1.514989335314311,
                -1.805287157257145,
                0.626698668489645,
                0.7016428724089264,
                -0.8779211025998146
            ]
        },
        {
            "positions": [
                2.266099680900507,
                -1.4855424278939975,
                -1.998324162921687,
                0.6503285062618516,
                0.700823339088993,
                -0.9019108064230865
            ]
        },
        {
            "positions": [
                2.3709940652277677,
                -1.456095520473684,
                -2.1913611685862295,
                0.6739583440340584,
                0.7000038057690595,
                -0.9259005102463584
            ]
        },
        {
            "positions": [
                2.4758884495550273,
                -1.4266486130533707,
                -2.3843981742507716,
                0.697588181806265,
                0.6991842724491261,
                -0.9498902140696303
            ]
        },
        {
            "positions": [
                2.4992574791502546,
                -1.5033215976915564,
                -2.299089255116221,
                0.7394958517252304,
                0.67477359061299,
                -0.8466352603248031
            ]
        },
        {
            "positions": [
                2.5226265087454824,
                -1.5799945823297419,
                -2.2137803359816703,
                0.7814035216441957,
                0.650362908776854,
                -0.7433803065799759
            ]
        },
        {
            "positions": [
                2.54599553834071,
                -1.6566675669679276,
                -2.1284714168471197,
                0.8233111915631609,
                0.6259522269407178,
                -0.6401253528351487
            ]
        },
        {
            "positions": [
                2.5693645679359376,
                -1.7333405516061131,
                -2.043162497712569,
                0.8652188614821262,
                0.6015415451045818,
                -0.5368703990903215
            ]
        },
        {
            "positions": [
                2.592733597531165,
                -1.8100135362442988,
                -1.9578535785780182,
                0.9071265314010916,
                0.5771308632684458,
                -0.43361544534549423
            ]
        },
        {
            "positions": [
                2.6161026271263927,
                -1.8866865208824843,
                -1.8725446594434676,
                0.9490342013200568,
                0.5527201814323097,
                -0.33036049160066716
            ]
        },
        {
            "positions": [
                2.63947165672162,
                -1.96335950552067,
                -1.7872357403089167,
                0.9909418712390221,
                0.5283094995961737,
                -0.22710553785583987
            ]
        },
        {
            "positions": [
                2.662840686316848,
                -2.040032490158856,
                -1.7019268211743661,
                1.0328495411579874,
                0.5038988177600375,
                -0.1238505841110128
            ]
        },
        {
            "positions": [
                2.6862097159120752,
                -2.1167054747970413,
                -1.6166179020398155,
                1.0747572110769528,
                0.4794881359239015,
                -0.020595630366185537
            ]
        },
        {
            "positions": [
                2.6732490939285816,
                -2.2991657943798223,
                -1.640309003484321,
                1.0402941254060143,
                0.4778543126478054,
                -0.009391405420785532
            ]
        },
        {
            "positions": [
                2.6602884719450883,
                -2.4816261139626032,
                -1.6640001049288267,
                1.0058310397350756,
                0.4762204893717093,
                0.0018128195246144728
            ]
        }
    ]
}