{
    "goal": {
        "global_pose": {
            "orientation": {
                "w": 0.005598929693374612,
                "x": 0.007748599140229565,
                "y": 0.7110244013736278,
                "z": -0.7031023480610252
            },
            "position": {
                "x": 0.1141497679147869,
                "y": -0.7141253447532654,
                "z": 0.3711530566215515
            }
        },
        "name": "move_to_auspresseinheit_B"
    },
    "id": "LBKPIECE_move_to_auspresseinheit_B_88",
    "joint_names": [
        "shoulder_pan_joint",
        "shoulder_lift_joint",
        "elbow_joint",
        "wrist_1_joint",
        "wrist_2_joint",
        "wrist_3_joint"
    ],
    "metrics": {
        "cart_traj_len": 0.564882524086789,
        "distance_elbow_joint": 0.06329993200029627,
        "distance_shoulder_lift_joint": 0.29371100018010377,
        "distance_shoulder_pan_joint": 0.5762155466070149,
        "distance_wrist_1_joint": 0.32439630385043317,
        "distance_wrist_2_joint": 0.996776726367236,
        "distance_wrist_3_joint": 0.007346295354976551,
        "smoothness": 5.075305295617109e-16,
        "time": 3.00603009,
        "traj_len": 1.5039101716392707,
        "weighted_distance": 1.8967370469539742
    },
    "planner": "LBKPIECE",
    "start": {
        "state": {
            "elbow_joint": 2.019306165916698,
            "shoulder_lift_joint": -1.1220205098164344,
            "shoulder_pan_joint": -1.095207207618794,
            "wrist_1_joint": -0.8559671824921639,
            "wrist_2_joint": 0.47596387242952726,
            "wrist_3_joint": 3.159081874673826
        }
    },
    "waypoints": [
        {
            "positions": [
                -1.095207207618794,
                -1.1220205098164344,
                2.019306165916698,
                -0.8559671824921639,
                0.47596387242952726,
                3.159081874673826
            ]
        },
        {
            "positions": [
                -1.1912431320532963,
                -1.170972343179785,
                2.008756177249982,
                -0.801901131850425,
                0.6420933268240666,
                3.157857492114663
            ]
        },
        {
            "positions": [
                -1.287279056487799,
                -1.2199241765431357,
                1.9982061885832658,
                -0.7478350812086861,
                0.8082227812186059,
                3.1566331095555005
            ]
        },
        {
            "positions": [
                -1.3833149809223015,
                -1.2688760099064864,
                1.9876561999165498,
                -0.6937690305669473,
                0.9743522356131453,
                3.1554087269963373
            ]
        },
        {
            "positions": [
                -1.479350905356804,
                -1.317827843269837,
                1.9771062112498339,
                -0.6397029799252084,
                1.1404816900076846,
                3.1541843444371747
            ]
        },
        {
            "positions": [
                -1.5753868297913063,
                -1.3667796766331874,
                1.9665562225831177,
                -0.5856369292834696,
                1.306611144402224,
                3.152959961878012
            ]
        },
        {
            "positions": [
                -1.6714227542258089,
                -1.4157315099965382,
                1.9560062339164017,
                -0.5315708786417307,
                1.4727405987967632,
                3.1517355793188493
            ]
        }
    ]
}