{
    "goal": {
        "global_pose": {
            "orientation": {
                "w": -0.00223480608172531,
                "x": 0.0024358444001904467,
                "y": 0.7094548369677653,
                "z": -0.704743149386269
            },
            "position": {
                "x": -0.37947507619857795,
                "y": -0.6371506643295288,
                "z": 0.19426114857196808
            }
        },
        "name": "move_to_magneteinheit_C"
    },
    "id": "LBKPIECE_move_to_magneteinheit_C_111",
    "joint_names": [
        "shoulder_pan_joint",
        "shoulder_lift_joint",
        "elbow_joint",
        "wrist_1_joint",
        "wrist_2_joint",
        "wrist_3_joint"
    ],
    "metrics": {
        "cart_traj_len": 4.914689885822211,
        "distance_elbow_joint": 4.716010977522586,
        "distance_shoulder_lift_joint": 1.2818517534729463,
        "distance_shoulder_pan_joint": 4.69893053748447,
        "distance_wrist_1_joint": 7.504015923759724,
        "distance_wrist_2_joint": 4.5283214699389465,
        "distance_wrist_3_joint": 8.27370403110869,
        "smoothness": 0.29473951043596136,
        "time": 2.056834931,
        "traj_len": 5.568018919982886,
        "weighted_distance": 7.718975330262648
    },
    "planner": "LBKPIECE",
    "start": {
        "state": {
            "elbow_joint": 1.9565354006590394,
            "shoulder_lift_joint": -1.4165861576513559,
            "shoulder_pan_joint": -1.6717766223277177,
            "wrist_1_joint": -0.5286633288215096,
            "wrist_2_joint": 1.4727565892594296,
            "wrist_3_joint": 3.1593482883155493
        }
    },
    "waypoints": [
        {
            "positions": [
                -1.6717766223277177,
                -1.4165861576513559,
                1.9565354006590394,
                -0.5286633288215096,
                1.4727565892594296,
                3.1593482883155493
            ]
        },
        {
            "positions": [
                -1.599914441936392,
                -1.405095035945901,
                1.9379140103761165,
                -0.4429518958765522,
                1.490127133058309,
                2.978841081092475
            ]
        },
        {
            "positions": [
                -1.5280522615450662,
                -1.393603914240446,
                1.919292620093194,
                -0.35724046293159484,
                1.5074976768571882,
                2.798333873869401
            ]
        },
        {
            "positions": [
                -1.4561900811537405,
                -1.382112792534991,
                1.900671229810271,
                -0.2715290299866374,
                1.5248682206560675,
                2.6178266666463266
            ]
        },
        {
            "positions": [
                -1.3843279007624147,
                -1.3706216708295358,
                1.8820498395273484,
                -0.18581759704168005,
                1.542238764454947,
                2.437319459423252
            ]
        },
        {
            "positions": [
                -1.312465720371089,
                -1.3591305491240808,
                1.8634284492444255,
                -0.10010616409672268,
                1.559609308253826,
                2.256812252200178
            ]
        },
        {
            "positions": [
                -1.2406035399797632,
                -1.3476394274186259,
                1.8448070589615029,
                -0.014394731151765261,
                1.5769798520527054,
                2.0763050449771034
            ]
        },
        {
            "positions": [
                -1.1687413595884375,
                -1.336148305713171,
                1.82618566867858,
                0.07131670179319216,
                1.5943503958515848,
                1.8957978377540292
            ]
        },
        {
            "positions": [
                -1.096879179197112,
                -1.324657184007716,
                1.8075642783956574,
                0.15702813473814947,
                1.611720939650464,
                1.715290630530955
            ]
        },
        {
            "positions": [
                -1.025016998805786,
                -1.313166062302261,
                1.7889428881127345,
                0.2427395676831069,
                1.6290914834493433,
                1.5347834233078805
            ]
        },
        {
            "positions": [
                -0.9531548184144605,
                -1.301674940596806,
                1.7703214978298116,
                0.3284510006280642,
                1.6464620272482224,
                1.3542762160848065
            ]
        },
        {
            "positions": [
                -0.8812926380231347,
                -1.290183818891351,
                1.751700107546889,
                0.4141624335730216,
                1.6638325710471018,
                1.173769008861732
            ]
        },
        {
            "positions": [
                -0.809430457631809,
                -1.278692697185896,
                1.7330787172639661,
                0.49987386651797905,
                1.6812031148459812,
                0.9932618016386581
            ]
        },
        {
            "positions": [
                -0.7375682772404833,
                -1.2672015754804409,
                1.7144573269810435,
                0.5855852994629364,
                1.6985736586448603,
                0.8127545944155838
            ]
        },
        {
            "positions": [
                -0.6657060968491575,
                -1.255710453774986,
                1.6958359366981206,
                0.6712967324078939,
                1.7159442024437397,
                0.6322473871925092
            ]
        },
        {
            "positions": [
                -0.5938439164578317,
                -1.244219332069531,
                1.6772145464151977,
                0.7570081653528512,
                1.733314746242619,
                0.45174017996943494
            ]
        },
        {
            "positions": [
                -0.5219817360665062,
                -1.232728210364076,
                1.658593156132275,
                0.8427195982978085,
                1.7506852900414982,
                0.2712329727463607
            ]
        },
        {
            "positions": [
                -0.45011955567518047,
                -1.221237088658621,
                1.6399717658493524,
                0.9284310312427658,
                1.7680558338403776,
                0.09072576552328648
            ]
        },
        {
            "positions": [
                -0.3782573752838545,
                -1.209745966953166,
                1.6213503755664296,
                1.0141424641877235,
                1.785426377639257,
                -0.08978144169978819
            ]
        },
        {
            "positions": [
                -0.306395194892529,
                -1.1982548452477109,
                1.6027289852835067,
                1.0998538971326806,
                1.8027969214381363,
                -0.2702886489228624
            ]
        },
        {
            "positions": [
                -0.23453301450120323,
                -1.186763723542256,
                1.584107595000584,
                1.185565330077638,
                1.8201674652370154,
                -0.4507958561459362
            ]
        },
        {
            "positions": [
                -0.16267083410987748,
                -1.175272601836801,
                1.5654862047176612,
                1.2712767630225952,
                1.8375380090358946,
                -0.6313030633690104
            ]
        },
        {
            "positions": [
                -0.09080865371855174,
                -1.163781480131346,
                1.5468648144347386,
                1.3569881959675527,
                1.854908552834774,
                -0.8118102705920851
            ]
        },
        {
            "positions": [
                -0.018946473327225988,
                -1.152290358425891,
                1.5282434241518157,
                1.4426996289125102,
                1.8722790966336533,
                -0.9923174778151589
            ]
        },
        {
            "positions": [
                -0.12670812418868854,
                -1.1728924690974791,
                1.454158473177511,
                1.5076439911146176,
                1.7657636077737304,
                -0.9829656888734366
            ]
        },
        {
            "positions": [
                -0.23446977505015107,
                -1.1934945797690675,
                1.3800735222032063,
                1.5725883533167246,
                1.6592481189138077,
                -0.9736138999317144
            ]
        },
        {
            "positions": [
                -0.3422314259116136,
                -1.2140966904406556,
                1.3059885712289017,
                1.637532715518832,
                1.5527326300538848,
                -0.9642621109899921
            ]
        },
        {
            "positions": [
                -0.44999307677307615,
                -1.2346988011122437,
                1.231903620254597,
                1.702477077720939,
                1.4462171411939622,
                -0.95491032204827
            ]
        },
        {
            "positions": [
                -0.5577547276345387,
                -1.2553009117838319,
                1.1578186692802923,
                1.7674214399230463,
                1.339701652334039,
                -0.9455585331065477
            ]
        },
        {
            "positions": [
                -0.6655163784960012,
                -1.2759030224554202,
                1.0837337183059876,
                1.8323658021251537,
                1.2331861634741164,
                -0.9362067441648255
            ]
        },
        {
            "positions": [
                -0.7732780293574638,
                -1.2965051331270083,
                1.009648767331683,
                1.897310164327261,
                1.1266706746141935,
                -0.9268549552231032
            ]
        },
        {
            "positions": [
                -0.8810396802189263,
                -1.3171072437985964,
                0.9355638163573784,
                1.962254526529368,
                1.0201551857542708,
                -0.9175031662813811
            ]
        },
        {
            "positions": [
                -0.9888013310803888,
                -1.3377093544701846,
                0.8614788653830738,
                2.0271988887314754,
                0.913639696894348,
                -0.9081513773396588
            ]
        },
        {
            "positions": [
                -1.0965629819418514,
                -1.358311465141773,
                0.787393914408769,
                2.0921432509335824,
                0.807124208034425,
                -0.8987995883979366
            ]
        },
        {
            "positions": [
                -1.204324632803314,
                -1.378913575813361,
                0.7133089634344645,
                2.1570876131356895,
                0.7006087191745023,
                -0.8894477994562143
            ]
        },
        {
            "positions": [
                -1.3120862836647764,
                -1.3995156864849492,
                0.6392240124601598,
                2.222031975337797,
                0.5940932303145796,
                -0.8800960105144922
            ]
        },
        {
            "positions": [
                -1.419847934526239,
                -1.4201177971565375,
                0.5651390614858551,
                2.286976337539904,
                0.4875777414546565,
                -0.8707442215727699
            ]
        },
        {
            "positions": [
                -1.5276095853877016,
                -1.4407199078281256,
                0.49105411051155046,
                2.3519206997420117,
                0.3810622525947336,
                -0.8613924326310476
            ]
        },
        {
            "positions": [
                -1.635371236249164,
                -1.4613220184997138,
                0.4169691595372458,
                2.4168650619441188,
                0.27454676373481113,
                -0.8520406436893254
            ]
        },
        {
            "positions": [
                -1.7431328871106266,
                -1.481924129171302,
                0.3428842085629411,
                2.481809424146226,
                0.16803127487488823,
                -0.8426888547476032
            ]
        },
        {
            "positions": [
                -1.8508945379720891,
                -1.5025262398428902,
                0.26879925758863643,
                2.546753786348333,
                0.061515786014965324,
                -0.833337065805881
            ]
        },
        {
            "positions": [
                -1.9586561888335516,
                -1.5231283505144784,
                0.19471430661433198,
                2.61169814855044,
                -0.04499970284495736,
                -0.8239852768641588
            ]
        },
        {
            "positions": [
                -2.0664178396950144,
                -1.5437304611860665,
                0.12062935564002708,
                2.6766425107525476,
                -0.15151519170488026,
                -0.8146334879224365
            ]
        },
        {
            "positions": [
                -2.174179490556477,
                -1.5643325718576548,
                0.046544404665722405,
                2.741586872954655,
                -0.2580306805648034,
                -0.8052816989807143
            ]
        },
        {
            "positions": [
                -2.281941141417939,
                -1.584934682529243,
                -0.027540546308582048,
                2.806531235156762,
                -0.36454616942472606,
                -0.795929910038992
            ]
        },
        {
            "positions": [
                -2.389702792279402,
                -1.605536793200831,
                -0.10162549728288672,
                2.8714755973588693,
                -0.47106165828464874,
                -0.7865781210972698
            ]
        },
        {
            "positions": [
                -2.4974644431408644,
                -1.6261389038724192,
                -0.1757104482571914,
                2.9364199595609763,
                -0.5775771471445719,
                -0.7772263321555476
            ]
        },
        {
            "positions": [
                -2.605226094002327,
                -1.6467410145440076,
                -0.24979539923149607,
                3.0013643217630834,
                -0.6840926360044941,
                -0.7678745432138254
            ]
        },
        {
            "positions": [
                -2.7129877448637894,
                -1.6673431252155957,
                -0.32388035020580075,
                3.066308683965191,
                -0.7906081248644172,
                -0.7585227542721031
            ]
        },
        {
            "positions": [
                -2.716308496326953,
                -1.6529768635605795,
                -0.18353083927777003,
                3.053059574582607,
                -0.7371513642587505,
                -0.6026220379198479
            ]
        },
        {
            "positions": [
                -2.7196292477901167,
                -1.6386106019055635,
                -0.04318132834973931,
                3.039810465200023,
                -0.6836946036530838,
                -0.44672132156759276
            ]
        },
        {
            "positions": [
                -2.7229499992532804,
                -1.6242443402505473,
                0.0971681825782914,
                3.026561355817439,
                -0.6302378430474169,
                -0.29082060521533754
            ]
        },
        {
            "positions": [
                -2.726270750716444,
                -1.6098780785955313,
                0.23751769350632213,
                3.013312246434855,
                -0.5767810824417502,
                -0.13491988886308237
            ]
        },
        {
            "positions": [
                -2.729591502179608,
                -1.5955118169405151,
                0.37786720443435284,
                3.0000631370522712,
                -0.5233243218360835,
                0.02098082748917285
            ]
        },
        {
            "positions": [
                -2.732912253642772,
                -1.5811455552854992,
                0.5182167153623836,
                2.9868140276696873,
                -0.46986756123041673,
                0.17688154384142807
            ]
        },
        {
            "positions": [
                -2.7362330051059356,
                -1.566779293630483,
                0.6585662262904142,
                2.9735649182871033,
                -0.41641080062475,
                0.3327822601936832
            ]
        },
        {
            "positions": [
                -2.7395537565690993,
                -1.552413031975467,
                0.798915737218445,
                2.9603158089045194,
                -0.3629540400190832,
                0.4886829765459384
            ]
        },
        {
            "positions": [
                -2.742874508032263,
                -1.5380467703204508,
                0.9392652481464756,
                2.9470666995219355,
                -0.3094972794134165,
                0.6445836928981936
            ]
        },
        {
            "positions": [
                -2.7461952594954266,
                -1.5236805086654348,
                1.0796147590745064,
                2.9338175901393515,
                -0.2560405188077497,
                0.8004844092504488
            ]
        },
        {
            "positions": [
                -2.7495160109585903,
                -1.5093142470104186,
                1.2199642700025373,
                2.9205684807567676,
                -0.20258375820208296,
                0.9563851256027041
            ]
        },
        {
            "positions": [
                -2.752836762421754,
                -1.4949479853554026,
                1.3603137809305679,
                2.9073193713741836,
                -0.14912699759641623,
                1.1122858419549593
            ]
        },
        {
            "positions": [
                -2.756157513884918,
                -1.4805817237003864,
                1.5006632918585985,
                2.8940702619915997,
                -0.0956702369907495,
                1.2681865583072143
            ]
        },
        {
            "positions": [
                -2.759478265348082,
                -1.4662154620453705,
                1.641012802786629,
                2.8808211526090157,
                -0.04221347638508277,
                1.4240872746594695
            ]
        },
        {
            "positions": [
                -2.7627990168112455,
                -1.4518492003903543,
                1.7813623137146597,
                2.8675720432264318,
                0.01124328422058396,
                1.5799879910117247
            ]
        },
        {
            "positions": [
                -2.766119768274409,
                -1.437482938735338,
                1.9217118246426907,
                2.854322933843848,
                0.0647000448262508,
                1.73588870736398
            ]
        },
        {
            "positions": [
                -2.769440519737573,
                -1.423116677080322,
                2.0620613355707214,
                2.841073824461264,
                0.11815680543191753,
                1.8917894237162352
            ]
        },
        {
            "positions": [
                -2.750965123357971,
                -1.4069743808726656,
                2.058957989265645,
                2.6108357587444453,
                0.15297848110506213,
                1.9691601339316471
            ]
        },
        {
            "positions": [
                -2.7324897269783692,
                -1.3908320846650093,
                2.055854642960568,
                2.380597693027627,
                0.1878001567782067,
                2.0465308441470595
            ]
        },
        {
            "positions": [
                -2.7140143305987676,
                -1.3746897884573528,
                2.0527512966554915,
                2.1503596273108085,
                0.22262183245135125,
                2.1239015543624715
            ]
        },
        {
            "positions": [
                -2.6955389342191656,
                -1.3585474922496963,
                2.0496479503504146,
                1.9201215615939902,
                0.25744350812449585,
                2.2012722645778835
            ]
        },
        {
            "positions": [
                -2.6770635378395635,
                -1.3424051960420398,
                2.046544604045338,
                1.6898834958771718,
                0.29226518379764044,
                2.2786429747932955
            ]
        },
        {
            "positions": [
                -2.658588141459962,
                -1.3262628998343833,
                2.0434412577402616,
                1.4596454301603532,
                0.327086859470785,
                2.3560136850087074
            ]
        },
        {
            "positions": [
                -2.6401127450803603,
                -1.310120603626727,
                2.0403379114351847,
                1.2294073644435348,
                0.36190853514392957,
                2.43338439522412
            ]
        },
        {
            "positions": [
                -2.6216373487007583,
                -1.2939783074190705,
                2.0372345651301083,
                0.9991692987267164,
                0.39673021081707416,
                2.510755105439532
            ]
        },
        {
            "positions": [
                -2.603161952321156,
                -1.277836011211414,
                2.034131218825032,
                0.7689312330098979,
                0.43155188649021875,
                2.588125815654944
            ]
        },
        {
            "positions": [
                -2.5846865559415546,
                -1.2616937150037577,
                2.031027872519955,
                0.5386931672930797,
                0.46637356216336334,
                2.6654965258703562
            ]
        },
        {
            "positions": [
                -2.566211159561953,
                -1.2455514187961012,
                2.0279245262148784,
                0.3084551015762611,
                0.5011952378365079,
                2.742867236085768
            ]
        },
        {
            "positions": [
                -2.547735763182351,
                -1.2294091225884447,
                2.024821179909802,
                0.07821703585944251,
                0.5360169135096524,
                2.82023794630118
            ]
        },
        {
            "positions": [
                -2.529260366802749,
                -1.2132668263807882,
                2.021717833604725,
                -0.15202102985737564,
                0.5708385891827971,
                2.897608656516592
            ]
        },
        {
            "positions": [
                -2.5107849704231473,
                -1.1971245301731317,
                2.0186144872996485,
                -0.38225909557419424,
                0.6056602648559416,
                2.974979366732004
            ]
        },
        {
            "positions": [
                -2.4923095740435457,
                -1.1809822339654754,
                2.0155111409945716,
                -0.6124971612910124,
                0.6404819405290862,
                3.0523500769474166
            ]
        },
        {
            "positions": [
                -2.4738341776639436,
                -1.164839937757819,
                2.012407794689495,
                -0.8427352270078309,
                0.6753036162022308,
                3.1297207871628285
            ]
        }
    ]
}