{
    "goal": {
        "global_pose": {
            "orientation": {
                "w": 0.005598929693374612,
                "x": 0.007748599140229565,
                "y": 0.7110244013736278,
                "z": -0.7031023480610252
            },
            "position": {
                "x": -0.8858502320852131,
                "y": -0.7141253447532654,
                "z": 0.3711530566215515
            }
        },
        "name": "move_to_auspresseinheit_C"
    },
    "id": "LBKPIECE_move_to_auspresseinheit_C_146",
    "joint_names": [
        "shoulder_pan_joint",
        "shoulder_lift_joint",
        "elbow_joint",
        "wrist_1_joint",
        "wrist_2_joint",
        "wrist_3_joint"
    ],
    "metrics": {
        "cart_traj_len": 0.4933419478887416,
        "distance_elbow_joint": 0.9988671856100324,
        "distance_shoulder_lift_joint": 0.3239535311990942,
        "distance_shoulder_pan_joint": 0.25611258541364723,
        "distance_wrist_1_joint": 0.6717768802447469,
        "distance_wrist_2_joint": 1.3098188151387262,
        "distance_wrist_3_joint": 0.05887705592916381,
        "smoothness": 4.844609574787718e-16,
        "time": 4.118607261,
        "traj_len": 1.902473666975554,
        "weighted_distance": 2.3913920341042396
    },
    "planner": "LBKPIECE",
    "start": {
        "state": {
            "elbow_joint": 1.752795957773711,
            "shoulder_lift_joint": -0.9740617694225064,
            "shoulder_pan_joint": -2.967991417825858,
            "wrist_1_joint": -0.7595177689806859,
            "wrist_2_joint": 1.7443932448377395,
            "wrist_3_joint": 3.199131542505932
        }
    },
    "waypoints": [
        {
            "positions": [
                -2.967991417825858,
                -0.9740617694225064,
                1.752795957773711,
                -0.7595177689806859,
                1.7443932448377395,
                3.199131542505932
            ]
        },
        {
            "positions": [
                -2.942380159284493,
                -0.9416664163025971,
                1.6529092392127078,
                -0.6923400809562112,
                1.613411363323867,
                3.1932438369130156
            ]
        },
        {
            "positions": [
                -2.9167689007431283,
                -0.9092710631826876,
                1.5530225206517045,
                -0.6251623929317365,
                1.4824294818099943,
                3.1873561313200995
            ]
        },
        {
            "positions": [
                -2.891157642201764,
                -0.8768757100627782,
                1.4531358020907015,
                -0.5579847049072618,
                1.3514476002961215,
                3.181468425727183
            ]
        },
        {
            "positions": [
                -2.865546383660399,
                -0.8444803569428687,
                1.3532490835296982,
                -0.4908070168827871,
                1.220465718782249,
                3.1755807201342665
            ]
        },
        {
            "positions": [
                -2.8399351251190343,
                -0.8120850038229593,
                1.253362364968695,
                -0.42362932885831245,
                1.0894838372683764,
                3.16969301454135
            ]
        },
        {
            "positions": [
                -2.8143238665776695,
                -0.77968965070305,
                1.1534756464076916,
                -0.3564516408338378,
                0.9585019557545038,
                3.163805308948434
            ]
        },
        {
            "positions": [
                -2.7887126080363047,
                -0.7472942975831405,
                1.0535889278466883,
                -0.2892739528093631,
                0.8275200742406312,
                3.1579176033555174
            ]
        },
        {
            "positions": [
                -2.7631013494949404,
                -0.714898944463231,
                0.9537022092856852,
                -0.2220962647848883,
                0.6965381927267584,
                3.152029897762601
            ]
        },
        {
            "positions": [
                -2.7374900909535755,
                -0.6825035913433217,
                0.8538154907246819,
                -0.15491857676041365,
                0.5655563112128859,
                3.146142192169685
            ]
        },
        {
            "positions": [
                -2.7118788324122107,
                -0.6501082382234122,
                0.7539287721636787,
                -0.08774088873593895,
                0.4345744296990132,
                3.1402544865767683
            ]
        }
    ]
}