{
    "goal": {
        "global_pose": {
            "orientation": {
                "w": 0.7047431493862688,
                "x": -0.7094548369677653,
                "y": 0.0024358444001904,
                "z": -0.0022348060817251984
            },
            "position": {
                "x": -0.39052492380142206,
                "y": 0.3671506643295288,
                "z": 0.19426114857196808
            }
        },
        "name": "move_to_magneteinheit_D"
    },
    "id": "LBKPIECE_move_to_magneteinheit_D_22",
    "joint_names": [
        "shoulder_pan_joint",
        "shoulder_lift_joint",
        "elbow_joint",
        "wrist_1_joint",
        "wrist_2_joint",
        "wrist_3_joint"
    ],
    "metrics": {
        "cart_traj_len": 5.431729202549107,
        "distance_elbow_joint": 3.292353877258396,
        "distance_shoulder_lift_joint": 1.6280196832067122,
        "distance_shoulder_pan_joint": 5.69987444987134,
        "distance_wrist_1_joint": 1.516658672331895,
        "distance_wrist_2_joint": 0.26360026053535557,
        "distance_wrist_3_joint": 3.0490954758689144,
        "smoothness": 0.33027222323011113,
        "time": 3.1723351959999997,
        "traj_len": 3.9305982266154618,
        "weighted_distance": 4.829912245960344
    },
    "planner": "LBKPIECE",
    "start": {
        "state": {
            "elbow_joint": 0.7495348899011973,
            "shoulder_lift_joint": -0.6476975780737697,
            "shoulder_pan_joint": -2.711696901376276,
            "wrist_1_joint": -0.07506478080974305,
            "wrist_2_joint": 0.4329665971545858,
            "wrist_3_joint": 3.1361499051832524
        }
    },
    "waypoints": [
        {
            "positions": [
                -2.711696901376276,
                -0.6476975780737697,
                0.7495348899011973,
                -0.07506478080974305,
                0.4329665971545858,
                3.1361499051832524
            ]
        },
        {
            "positions": [
                -2.726896946009017,
                -0.6672030826000561,
                0.7539018445296457,
                -0.07146359682327874,
                0.42576546399446413,
                2.8238887675277904
            ]
        },
        {
            "positions": [
                -2.742096990641758,
                -0.6867085871263425,
                0.7582687991580941,
                -0.06786241283681443,
                0.4185643308343424,
                2.5116276298723283
            ]
        },
        {
            "positions": [
                -2.748389587167166,
                -0.7067634411551337,
                0.7566828049723846,
                -0.0640713473636461,
                0.411498232698974,
                2.2294423686598486
            ]
        },
        {
            "positions": [
                -2.754682183692574,
                -0.7268182951839248,
                0.7550968107866751,
                -0.060280281890477766,
                0.40443213456360555,
                1.9472571074473688
            ]
        },
        {
            "positions": [
                -2.590122351300135,
                -0.773128319223824,
                0.6264723253877393,
                -0.03126085172178875,
                0.40131415784170377,
                1.9261171540229236
            ]
        },
        {
            "positions": [
                -2.425562518907696,
                -0.8194383432637232,
                0.49784783998880344,
                -0.00224142155309974,
                0.39819618111980193,
                1.9049772005984784
            ]
        },
        {
            "positions": [
                -2.261002686515257,
                -0.8657483673036224,
                0.36922335458986766,
                0.026778008615589266,
                0.39507820439790015,
                1.8838372471740332
            ]
        },
        {
            "positions": [
                -2.0964428541228184,
                -0.9120583913435216,
                0.24059886919093176,
                0.055797438784278286,
                0.3919602276759983,
                1.862697293749588
            ]
        },
        {
            "positions": [
                -1.9318830217303793,
                -0.9583684153834208,
                0.11197438379199598,
                0.0848168689529673,
                0.3888422509540965,
                1.8415573403251428
            ]
        },
        {
            "positions": [
                -1.7673231893379404,
                -1.00467843942332,
                -0.016650101606939804,
                0.1138362991216563,
                0.38572427423219474,
                1.8204173869006977
            ]
        },
        {
            "positions": [
                -1.6027633569455013,
                -1.0509884634632192,
                -0.1452745870058758,
                0.14285572929034532,
                0.3826062975102929,
                1.7992774334762525
            ]
        },
        {
            "positions": [
                -1.4382035245530624,
                -1.0972984875031182,
                -0.2738990724048116,
                0.17187515945903434,
                0.3794883207883911,
                1.7781374800518073
            ]
        },
        {
            "positions": [
                -1.2736436921606236,
                -1.1436085115430175,
                -0.4025235578037474,
                0.2008945896277233,
                0.3763703440664893,
                1.756997526627362
            ]
        },
        {
            "positions": [
                -1.1090838597681847,
                -1.1899185355829167,
                -0.5311480432026832,
                0.22991401979641238,
                0.3732523673445875,
                1.735857573202917
            ]
        },
        {
            "positions": [
                -0.9445240273757458,
                -1.2362285596228157,
                -0.659772528601619,
                0.25893344996510137,
                0.3701343906226857,
                1.7147176197784715
            ]
        },
        {
            "positions": [
                -0.7799641949833069,
                -1.282538583662715,
                -0.7883970140005547,
                0.2879528801337904,
                0.3670164139007839,
                1.6935776663540265
            ]
        },
        {
            "positions": [
                -0.6154043625908678,
                -1.3288486077026143,
                -0.9170214993994907,
                0.3169723103024794,
                0.3638984371788821,
                1.672437712929581
            ]
        },
        {
            "positions": [
                -0.45084453019842874,
                -1.3751586317425135,
                -1.0456459847984267,
                0.34599174047116843,
                0.36078046045698026,
                1.651297759505136
            ]
        },
        {
            "positions": [
                -0.2862846978059901,
                -1.4214686557824125,
                -1.1742704701973623,
                0.37501117063985734,
                0.3576624837350785,
                1.6301578060806907
            ]
        },
        {
            "positions": [
                -0.12172486541355099,
                -1.4677786798223118,
                -1.3028949555962983,
                0.40403060080854647,
                0.3545445070131767,
                1.6090178526562455
            ]
        },
        {
            "positions": [
                0.04283496697888811,
                -1.514088703862211,
                -1.4315194409952343,
                0.4330500309772355,
                0.35142653029127485,
                1.5878778992318003
            ]
        },
        {
            "positions": [
                0.20739479937132677,
                -1.56039872790211,
                -1.5601439263941699,
                0.4620694611459244,
                0.34830855356937307,
                1.5667379458073551
            ]
        },
        {
            "positions": [
                0.3719546317637654,
                -1.6067087519420093,
                -1.6887684117931054,
                0.49108889131461353,
                0.34519057684747123,
                1.54559799238291
            ]
        },
        {
            "positions": [
                0.5365144641562045,
                -1.6530187759819086,
                -1.8173928971920414,
                0.5201083214833025,
                0.34207260012556945,
                1.5244580389584648
            ]
        },
        {
            "positions": [
                0.7010742965486432,
                -1.6993288000218076,
                -1.946017382590977,
                0.5491277516519915,
                0.33895462340366767,
                1.5033180855340196
            ]
        },
        {
            "positions": [
                0.8656341289410823,
                -1.745638824061707,
                -2.074641867989913,
                0.5781471818206805,
                0.3358366466817658,
                1.4821781321095744
            ]
        },
        {
            "positions": [
                1.0301939613335214,
                -1.7919488481016062,
                -2.203266353388849,
                0.6071666119893695,
                0.33271866995986404,
                1.4610381786851292
            ]
        },
        {
            "positions": [
                1.19475379372596,
                -1.8382588721415052,
                -2.3318908387877846,
                0.6361860421580585,
                0.32960069323796226,
                1.439898225260684
            ]
        },
        {
            "positions": [
                1.3593136261183996,
                -1.8845688961814044,
                -2.4605153241867206,
                0.6652054723267475,
                0.3264827165160604,
                1.4187582718362388
            ]
        },
        {
            "positions": [
                1.2190505935962115,
                -1.9201278384631388,
                -2.454621156490658,
                0.735786237708148,
                0.3121994092527122,
                1.2976942861524297
            ]
        },
        {
            "positions": [
                1.0787875610740234,
                -1.955686780744873,
                -2.448726988794596,
                0.8063670030895485,
                0.297916101989364,
                1.1766303004686205
            ]
        },
        {
            "positions": [
                0.9385245285518355,
                -1.9912457230266074,
                -2.4428328210985337,
                0.8769477684709488,
                0.2836327947260158,
                1.0555663147848113
            ]
        },
        {
            "positions": [
                0.7982614960296475,
                -2.0268046653083416,
                -2.4369386534024717,
                0.9475285338523493,
                0.2693494874626676,
                0.9345023291010022
            ]
        },
        {
            "positions": [
                0.6579984635074595,
                -2.062363607590076,
                -2.4310444857064093,
                1.0181092992337497,
                0.2550661801993194,
                0.8134383434171931
            ]
        },
        {
            "positions": [
                0.5177354309852715,
                -2.0979225498718104,
                -2.4251503180103473,
                1.08869006461515,
                0.24078287293597125,
                0.6923743577333841
            ]
        },
        {
            "positions": [
                0.37747239846308345,
                -2.1334814921535448,
                -2.419256150314285,
                1.1592708299965504,
                0.22649956567262303,
                0.5713103720495748
            ]
        },
        {
            "positions": [
                0.23720936594089537,
                -2.169040434435279,
                -2.413361982618223,
                1.229851595377951,
                0.21221625840927483,
                0.45024638636576564
            ]
        },
        {
            "positions": [
                0.09694633341870729,
                -2.204599376717013,
                -2.4074678149221604,
                1.3004323607593515,
                0.19793295114592666,
                0.3291824006819566
            ]
        },
        {
            "positions": [
                -0.04331669910348057,
                -2.2401583189987475,
                -2.4015736472260985,
                1.3710131261407517,
                0.18364964388257846,
                0.20811841499814743
            ]
        },
        {
            "positions": [
                -0.18357973162566862,
                -2.275717261280482,
                -2.395679479530036,
                1.4415938915221522,
                0.16936633661923026,
                0.08705442931433821
            ]
        }
    ]
}