{
    "goal": {
        "global_pose": {
            "orientation": {
                "w": 0.5084816217422485,
                "x": -0.49083608388900757,
                "y": 0.5182115435600281,
                "z": -0.4816462993621826
            },
            "position": {
                "x": 0.5540239810943604,
                "y": 0.030875300988554955,
                "z": 0.16403168439865112
            }
        },
        "name": "move_to_storage_A"
    },
    "id": "LBKPIECE_move_to_storage_A_59",
    "joint_names": [
        "shoulder_pan_joint",
        "shoulder_lift_joint",
        "elbow_joint",
        "wrist_1_joint",
        "wrist_2_joint",
        "wrist_3_joint"
    ],
    "metrics": {
        "cart_traj_len": 0.35333768801802606,
        "distance_elbow_joint": 0.4505367401187024,
        "distance_shoulder_lift_joint": 0.23618910297270257,
        "distance_shoulder_pan_joint": 0.460130482386434,
        "distance_wrist_1_joint": 0.24009753489865193,
        "distance_wrist_2_joint": 1.1087165487872164,
        "distance_wrist_3_joint": 0.10634495629059293,
        "smoothness": 0.0,
        "time": 1.576802528,
        "traj_len": 1.6130763669009287,
        "weighted_distance": 2.0404703775652697
    },
    "planner": "LBKPIECE",
    "start": {
        "state": {
            "elbow_joint": 1.9715474177455299,
            "shoulder_lift_joint": -1.139484666580328,
            "shoulder_pan_joint": 0.12281154398918248,
            "wrist_1_joint": -0.7804687475355282,
            "wrist_2_joint": 0.12958649657246987,
            "wrist_3_joint": -3.1924925159053466
        }
    },
    "waypoints": [
        {
            "positions": [
                0.12281154398918248,
                -1.139484666580328,
                1.9715474177455299,
                -0.7804687475355282,
                0.12958649657246987,
                -3.1924925159053466
            ]
        },
        {
            "positions": [
                0.05707861793397763,
                -1.1732259670049998,
                2.035909809191059,
                -0.8147683953781928,
                0.2879745749706436,
                -3.177300379292405
            ]
        },
        {
            "positions": [
                -0.008654308121227222,
                -1.2069672674296716,
                2.1002722006365877,
                -0.8490680432208573,
                0.4463626533688174,
                -3.1621082426794627
            ]
        },
        {
            "positions": [
                -0.07438723417643209,
                -1.2407085678543435,
                2.1646345920821166,
                -0.8833676910635219,
                0.6047507317669911,
                -3.146916106066521
            ]
        },
        {
            "positions": [
                -0.14012016023163693,
                -1.274449868279015,
                2.2289969835276455,
                -0.9176673389061865,
                0.7631388101651649,
                -3.1317239694535792
            ]
        },
        {
            "positions": [
                -0.2058530862868418,
                -1.308191168703687,
                2.2933593749731744,
                -0.9519669867488509,
                0.9215268885633388,
                -3.1165318328406375
            ]
        },
        {
            "positions": [
                -0.27158601234204666,
                -1.3419324691283587,
                2.3577217664187033,
                -0.9862666345915155,
                1.0799149669615125,
                -3.1013396962276953
            ]
        },
        {
            "positions": [
                -0.3373189383972515,
                -1.3756737695530306,
                2.4220841578642323,
                -1.0205662824341801,
                1.2383030453596862,
                -3.0861475596147536
            ]
        }
    ]
}