{
    "goal": {
        "global_pose": {
            "orientation": {
                "w": -0.4816463035849501,
                "x": 0.5182115481033762,
                "y": 0.4908360881923453,
                "z": -0.5084816262002911
            },
            "position": {
                "x": -0.8240239810943604,
                "y": -0.300875300988555,
                "z": 0.16403168439865112
            }
        },
        "name": "move_to_storage_C"
    },
    "id": "LBKPIECE_move_to_storage_C_24",
    "joint_names": [
        "shoulder_pan_joint",
        "shoulder_lift_joint",
        "elbow_joint",
        "wrist_1_joint",
        "wrist_2_joint",
        "wrist_3_joint"
    ],
    "metrics": {
        "cart_traj_len": 0.5757718372554659,
        "distance_elbow_joint": 0.2603662101489679,
        "distance_shoulder_lift_joint": 0.18860737396009608,
        "distance_shoulder_pan_joint": 0.49373920539273586,
        "distance_wrist_1_joint": 0.09014084037722858,
        "distance_wrist_2_joint": 1.0685057461979488,
        "distance_wrist_3_joint": 0.061732602780322665,
        "smoothness": 2.5376526478085547e-16,
        "time": 2.4817825940000002,
        "traj_len": 1.4707453820622045,
        "weighted_distance": 1.8561260116148155
    },
    "planner": "LBKPIECE",
    "start": {
        "state": {
            "elbow_joint": 2.010868315001653,
            "shoulder_lift_joint": -1.1634956873357014,
            "shoulder_pan_joint": -2.4736205022346103,
            "wrist_1_joint": -0.8367026794713948,
            "wrist_2_joint": 0.6746043897044093,
            "wrist_3_joint": 3.1335220948105738
        }
    },
    "waypoints": [
        {
            "positions": [
                -2.4736205022346103,
                -1.1634956873357014,
                2.010868315001653,
                -0.8367026794713948,
                0.6746043897044093,
                3.1335220948105738
            ]
        },
        {
            "positions": [
                -2.555910369800066,
                -1.1320611250090187,
                1.9674739466434918,
                -0.82167920607519,
                0.8526886807374008,
                3.1438108619406275
            ]
        },
        {
            "positions": [
                -2.6382002373655222,
                -1.100626562682336,
                1.9240795782853304,
                -0.8066557326789853,
                1.0307729717703922,
                3.1540996290706813
            ]
        },
        {
            "positions": [
                -2.7204901049309784,
                -1.0691920003556534,
                1.8806852099271691,
                -0.7916322592827805,
                1.2088572628033836,
                3.164388396200735
            ]
        },
        {
            "positions": [
                -2.802779972496434,
                -1.0377574380289707,
                1.837290841569008,
                -0.7766087858865757,
                1.3869415538363752,
                3.174677163330789
            ]
        },
        {
            "positions": [
                -2.88506984006189,
                -1.006322875702288,
                1.7938964732108464,
                -0.761585312490371,
                1.5650258448693668,
                3.1849659304608426
            ]
        },
        {
            "positions": [
                -2.967359707627346,
                -0.9748883133756053,
                1.7505021048526852,
                -0.7465618390941662,
                1.7431101359023582,
                3.1952546975908964
            ]
        }
    ]
}