{
    "goal": {
        "global_pose": {
            "orientation": {
                "w": 0.5084816262002911,
                "x": -0.4908360881923452,
                "y": 0.5182115481033761,
                "z": -0.48164630358495003
            },
            "position": {
                "x": 0.5540239810943604,
                "y": -0.46912469901144505,
                "z": 0.16403168439865112
            }
        },
        "name": "move_to_storage_B"
    },
    "id": "LBKPIECE_move_to_storage_B_58",
    "joint_names": [
        "shoulder_pan_joint",
        "shoulder_lift_joint",
        "elbow_joint",
        "wrist_1_joint",
        "wrist_2_joint",
        "wrist_3_joint"
    ],
    "metrics": {
        "cart_traj_len": 7.032265691392644,
        "distance_elbow_joint": 8.133433634076724,
        "distance_shoulder_lift_joint": 0.6945325300319527,
        "distance_shoulder_pan_joint": 6.472044380310033,
        "distance_wrist_1_joint": 3.3850209226203702,
        "distance_wrist_2_joint": 5.507361788557244,
        "distance_wrist_3_joint": 4.0234372201726245,
        "smoothness": 0.49050474777145237,
        "time": 3.745474602,
        "traj_len": 5.311857535341938,
        "weighted_distance": 6.719753539177743
    },
    "planner": "LBKPIECE",
    "start": {
        "state": {
            "elbow_joint": 1.6649325706314817,
            "shoulder_lift_joint": -0.6616388048112454,
            "shoulder_pan_joint": -0.9139837860083814,
            "wrist_1_joint": 2.146757197745094,
            "wrist_2_joint": -2.234196043158733,
            "wrist_3_joint": 0.005471033829999897
        }
    },
    "waypoints": [
        {
            "positions": [
                -0.9139837860083814,
                -0.6616388048112454,
                1.6649325706314817,
                2.146757197745094,
                -2.234196043158733,
                0.005471033829999897
            ]
        },
        {
            "positions": [
                -0.9314707019784404,
                -0.7057945670683574,
                1.7168720215384714,
                2.193292882395046,
                -2.1530143111812228,
                -0.0813673855667398
            ]
        },
        {
            "positions": [
                -0.9489576179484993,
                -0.7499503293254696,
                1.7688114724454613,
                2.2398285670449978,
                -2.0718325792037127,
                -0.1682058049634795
            ]
        },
        {
            "positions": [
                -0.9664445339185583,
                -0.7941060915825817,
                1.820750923352451,
                2.28636425169495,
                -1.9906508472262026,
                -0.2550442243602192
            ]
        },
        {
            "positions": [
                -0.9839314498886174,
                -0.8382618538396938,
                1.8726903742594407,
                2.332899936344902,
                -1.9094691152486925,
                -0.34188264375695887
            ]
        },
        {
            "positions": [
                -0.8965531765717792,
                -0.835008155506907,
                1.7646472844905288,
                2.261667829481702,
                -1.8044133800092776,
                -0.32923695478797255
            ]
        },
        {
            "positions": [
                -0.8091749032549411,
                -0.8317544571741201,
                1.656604194721617,
                2.1904357226185023,
                -1.6993576447698628,
                -0.3165912658189862
            ]
        },
        {
            "positions": [
                -0.721796629938103,
                -0.8285007588413333,
                1.548561104952705,
                2.119203615755303,
                -1.594301909530448,
                -0.30394557684999995
            ]
        },
        {
            "positions": [
                -0.6344183566212649,
                -0.8252470605085465,
                1.4405180151837933,
                2.047971508892103,
                -1.4892461742910332,
                -0.29129988788101363
            ]
        },
        {
            "positions": [
                -0.5470400833044267,
                -0.8219933621757597,
                1.332474925414881,
                1.9767394020289033,
                -1.3841904390516184,
                -0.2786541989120273
            ]
        },
        {
            "positions": [
                -0.45966180998758865,
                -0.8187396638429728,
                1.2244318356459694,
                1.9055072951657037,
                -1.2791347038122036,
                -0.26600850994304104
            ]
        },
        {
            "positions": [
                -0.3722835366707504,
                -0.815485965510186,
                1.1163887458770576,
                1.834275188302504,
                -1.1740789685727886,
                -0.2533628209740547
            ]
        },
        {
            "positions": [
                -0.2849052633539123,
                -0.8122322671773992,
                1.0083456561081456,
                1.7630430814393043,
                -1.069023233333374,
                -0.2407171320050684
            ]
        },
        {
            "positions": [
                -0.1975269900370742,
                -0.8089785688446124,
                0.9003025663392337,
                1.6918109745761045,
                -0.963967498093959,
                -0.22807144303608207
            ]
        },
        {
            "positions": [
                -0.11014871672023607,
                -0.8057248705118256,
                0.7922594765703217,
                1.6205788677129047,
                -0.8589117628545442,
                -0.21542575406709574
            ]
        },
        {
            "positions": [
                -0.022770443403397844,
                -0.8024711721790387,
                0.6842163868014097,
                1.549346760849705,
                -0.7538560276151292,
                -0.20278006509810942
            ]
        },
        {
            "positions": [
                0.06460782991344005,
                -0.799217473846252,
                0.576173297032498,
                1.4781146539865055,
                -0.6488002923757146,
                -0.19013437612912315
            ]
        },
        {
            "positions": [
                0.15198610323027828,
                -0.7959637755134651,
                0.468130207263586,
                1.4068825471233057,
                -0.5437445571362998,
                -0.17748868716013683
            ]
        },
        {
            "positions": [
                0.2393643765471165,
                -0.7927100771806783,
                0.36008711749467426,
                1.335650440260106,
                -0.43868882189688474,
                -0.1648429981911505
            ]
        },
        {
            "positions": [
                0.32674264986395474,
                -0.7894563788478914,
                0.2520440277257623,
                1.2644183333969061,
                -0.33363308665746993,
                -0.15219730922216418
            ]
        },
        {
            "positions": [
                0.41412092318079274,
                -0.7862026805151047,
                0.14400093795685054,
                1.1931862265337065,
                -0.22857735141805535,
                -0.1395516202531779
            ]
        },
        {
            "positions": [
                0.5014991964976308,
                -0.7829489821823178,
                0.03595784818793857,
                1.121954119670507,
                -0.12352161617864033,
                -0.1269059312841916
            ]
        },
        {
            "positions": [
                0.588877469814469,
                -0.779695283849531,
                -0.0720852415809734,
                1.0507220128073071,
                -0.01846588093922552,
                -0.11426024231520526
            ]
        },
        {
            "positions": [
                0.6762557431313072,
                -0.7764415855167442,
                -0.18012833134988515,
                0.9794899059441073,
                0.08658985430018928,
                -0.10161455334621894
            ]
        },
        {
            "positions": [
                0.7636340164481452,
                -0.7731878871839574,
                -0.28817142111879734,
                0.9082577990809078,
                0.1916455895396041,
                -0.08896886437723261
            ]
        },
        {
            "positions": [
                0.8510122897649834,
                -0.7699341888511706,
                -0.3962145108877091,
                0.837025692217708,
                0.2967013247790189,
                -0.07632317540824629
            ]
        },
        {
            "positions": [
                0.9383905630818217,
                -0.7666804905183837,
                -0.5042576006566213,
                0.7657935853545081,
                0.40175706001843414,
                -0.06367748643925997
            ]
        },
        {
            "positions": [
                1.0257688363986597,
                -0.763426792185597,
                -0.6123006904255326,
                0.6945614784913088,
                0.5068127952578485,
                -0.051031797470273754
            ]
        },
        {
            "positions": [
                1.1131471097154975,
                -0.7601730938528101,
                -0.7203437801944448,
                0.623329371628109,
                0.6118685304972633,
                -0.03838610850128743
            ]
        },
        {
            "positions": [
                1.2005253830323357,
                -0.7569193955200233,
                -0.8283868699633565,
                0.5520972647649092,
                0.7169242657366781,
                -0.025740419532301106
            ]
        },
        {
            "positions": [
                1.287903656349174,
                -0.7536656971872364,
                -0.9364299597322687,
                0.4808651579017096,
                0.8219800009760929,
                -0.013094730563314783
            ]
        },
        {
            "positions": [
                1.3752819296660121,
                -0.7504119988544496,
                -1.0444730495011805,
                0.4096330510385098,
                0.9270357362155077,
                -0.0004490415943284587
            ]
        },
        {
            "positions": [
                1.4626602029828504,
                -0.7471583005216629,
                -1.1525161392700922,
                0.33840094417530997,
                1.032091471454923,
                0.012196647374657865
            ]
        },
        {
            "positions": [
                1.5500384762996886,
                -0.743904602188876,
                -1.2605592290390044,
                0.26716883731211016,
                1.1371472066943378,
                0.02484233634364419
            ]
        },
        {
            "positions": [
                1.6374167496165268,
                -0.7406509038560892,
                -1.3686023188079162,
                0.19593673044891036,
                1.2422029419337526,
                0.03748802531263051
            ]
        },
        {
            "positions": [
                1.7247950229333646,
                -0.7373972055233023,
                -1.4766454085768284,
                0.124704623585711,
                1.3472586771731674,
                0.05013371428161684
            ]
        },
        {
            "positions": [
                1.8121732962502028,
                -0.7341435071905156,
                -1.5846884983457397,
                0.05347251672251119,
                1.4523144124125817,
                0.06277940325060305
            ]
        },
        {
            "positions": [
                1.8995515695670406,
                -0.7308898088577287,
                -1.6927315881146519,
                -0.017759590140688175,
                1.557370147651997,
                0.07542509221958937
            ]
        },
        {
            "positions": [
                1.9869298428838789,
                -0.7276361105249419,
                -1.8007746778835636,
                -0.08899169700388798,
                1.6624258828914118,
                0.0880707811885757
            ]
        },
        {
            "positions": [
                2.074308116200717,
                -0.7243824121921552,
                -1.9088177676524758,
                -0.1602238038670878,
                1.7674816181308266,
                0.10071647015756202
            ]
        },
        {
            "positions": [
                2.1616863895175555,
                -0.7211287138593683,
                -2.0168608574213875,
                -0.2314559107302876,
                1.8725373533702414,
                0.11336215912654835
            ]
        },
        {
            "positions": [
                2.0630052114259305,
                -0.7332734514661313,
                -1.8945540513981167,
                -0.2506838603346929,
                1.830094068763324,
                0.01576098519617991
            ]
        },
        {
            "positions": [
                1.9643240333343057,
                -0.7454181890728943,
                -1.772247245374846,
                -0.2699118099390982,
                1.7876507841564067,
                -0.08184018873418852
            ]
        },
        {
            "positions": [
                1.865642855242681,
                -0.7575629266796573,
                -1.649940439351575,
                -0.2891397595435035,
                1.745207499549489,
                -0.17944136266455696
            ]
        },
        {
            "positions": [
                1.766961677151056,
                -0.7697076642864202,
                -1.5276336333283045,
                -0.30836770914790884,
                1.7027642149425717,
                -0.2770425365949254
            ]
        },
        {
            "positions": [
                1.668280499059431,
                -0.7818524018931833,
                -1.4053268273050337,
                -0.3275956587523141,
                1.6603209303356543,
                -0.3746437105252938
            ]
        },
        {
            "positions": [
                1.5695993209678063,
                -0.7939971394999462,
                -1.2830200212817628,
                -0.34682360835671944,
                1.617877645728737,
                -0.47224488445566226
            ]
        },
        {
            "positions": [
                1.4709181428761813,
                -0.8061418771067093,
                -1.160713215258492,
                -0.36605155796112476,
                1.5754343611218196,
                -0.5698460583860308
            ]
        },
        {
            "positions": [
                1.3722369647845565,
                -0.8182866147134722,
                -1.0384064092352214,
                -0.3852795075655301,
                1.532991076514902,
                -0.6674472323163991
            ]
        },
        {
            "positions": [
                1.2735557866929317,
                -0.8304313523202352,
                -0.9160996032119506,
                -0.40450745716993536,
                1.4905477919079848,
                -0.7650484062467675
            ]
        },
        {
            "positions": [
                1.1748746086013067,
                -0.8425760899269983,
                -0.7937927971886798,
                -0.4237354067743407,
                1.4481045073010672,
                -0.862649580177136
            ]
        },
        {
            "positions": [
                1.076193430509682,
                -0.8547208275337612,
                -0.671485991165409,
                -0.44296335637874595,
                1.4056612226941498,
                -0.9602507541075043
            ]
        },
        {
            "positions": [
                0.9775122524180571,
                -0.8668655651405242,
                -0.5491791851421381,
                -0.4621913059831513,
                1.3632179380872325,
                -1.0578519280378729
            ]
        },
        {
            "positions": [
                0.8788310743264323,
                -0.8790103027472872,
                -0.42687237911886755,
                -0.4814192555875566,
                1.3207746534803149,
                -1.1554531019682412
            ]
        },
        {
            "positions": [
                0.7801498962348072,
                -0.8911550403540502,
                -0.3045655730955965,
                -0.5006472051919619,
                1.2783313688733977,
                -1.2530542758986098
            ]
        },
        {
            "positions": [
                0.6814687181431824,
                -0.9032997779608132,
                -0.1822587670723259,
                -0.5198751547963671,
                1.2358880842664801,
                -1.350655449828978
            ]
        },
        {
            "positions": [
                0.5827875400515574,
                -0.9154445155675762,
                -0.05995196104905509,
                -0.5391031044007726,
                1.1934447996595627,
                -1.4482566237593466
            ]
        },
        {
            "positions": [
                0.48410636195993284,
                -0.9275892531743392,
                0.062354844974215506,
                -0.5583310540051778,
                1.1510015150526454,
                -1.545857797689715
            ]
        },
        {
            "positions": [
                0.38542518386830804,
                -0.9397339907811022,
                0.18466165099748633,
                -0.5775590036095831,
                1.108558230445728,
                -1.6434589716200834
            ]
        },
        {
            "positions": [
                0.2867440057766828,
                -0.9518787283878651,
                0.3069684570207576,
                -0.5967869532139884,
                1.0661149458388106,
                -1.741060145550452
            ]
        },
        {
            "positions": [
                0.188062827685058,
                -0.9640234659946282,
                0.42927526304402797,
                -0.6160149028183938,
                1.023671661231893,
                -1.8386613194808203
            ]
        },
        {
            "positions": [
                0.0893816495934332,
                -0.9761682036013912,
                0.5515820690672988,
                -0.6352428524227991,
                0.9812283766249756,
                -1.9362624934111885
            ]
        },
        {
            "positions": [
                -0.009299528498191378,
                -0.9883129412081542,
                0.6738888750905696,
                -0.6544708020272043,
                0.9387850920180583,
                -2.033863667341557
            ]
        },
        {
            "positions": [
                -0.10798070658981684,
                -1.000457678814917,
                0.7961956811138404,
                -0.6736987516316097,
                0.8963418074111408,
                -2.1314648412719257
            ]
        },
        {
            "positions": [
                -0.20666188468144142,
                -1.01260241642168,
                0.9185024871371112,
                -0.692926701236015,
                0.8538985228042235,
                -2.229066015202294
            ]
        },
        {
            "positions": [
                -0.30534306277306644,
                -1.0247471540284432,
                1.040809293160382,
                -0.7121546508404203,
                0.8114552381973059,
                -2.3266671891326625
            ]
        },
        {
            "positions": [
                -0.404024240864691,
                -1.0368918916352061,
                1.1631160991836524,
                -0.7313826004448256,
                0.7690119535903885,
                -2.424268363063031
            ]
        },
        {
            "positions": [
                -0.502705418956316,
                -1.0490366292419693,
                1.2854229052069237,
                -0.7506105500492309,
                0.7265686689834712,
                -2.5218695369933997
            ]
        },
        {
            "positions": [
                -0.6013865970479411,
                -1.0611813668487322,
                1.4077297112301945,
                -0.7698384996536363,
                0.6841253843765538,
                -2.619470710923768
            ]
        },
        {
            "positions": [
                -0.7000677751395656,
                -1.0733261044554951,
                1.530036517253465,
                -0.7890664492580416,
                0.6416820997696364,
                -2.717071884854136
            ]
        },
        {
            "positions": [
                -0.7987489532311907,
                -1.085470842062258,
                1.6523433232767357,
                -0.8082943988624468,
                0.599238815162719,
                -2.8146730587845044
            ]
        },
        {
            "positions": [
                -0.8974301313228157,
                -1.097615579669021,
                1.774650129300007,
                -0.8275223484668522,
                0.5567955305558014,
                -2.912274232714873
            ]
        },
        {
            "positions": [
                -0.9961113094144407,
                -1.1097603172757842,
                1.8969569353232774,
                -0.8467502980712575,
                0.5143522459488841,
                -3.0098754066452416
            ]
        },
        {
            "positions": [
                -1.0947924875060653,
                -1.121905054882547,
                2.0192637413465477,
                -0.8659782476756628,
                0.47190896134196675,
                -3.10747658057561
            ]
        }
    ]
}