{
    "goal": {
        "global_pose": {
            "orientation": {
                "w": 0.7047431493862688,
                "x": -0.7094548369677653,
                "y": 0.0024358444001904,
                "z": -0.0022348060817251984
            },
            "position": {
                "x": -0.39052492380142206,
                "y": 0.3671506643295288,
                "z": 0.19426114857196808
            }
        },
        "name": "move_to_magneteinheit_D"
    },
    "id": "LBKPIECE_move_to_magneteinheit_D_79",
    "joint_names": [
        "shoulder_pan_joint",
        "shoulder_lift_joint",
        "elbow_joint",
        "wrist_1_joint",
        "wrist_2_joint",
        "wrist_3_joint"
    ],
    "metrics": {
        "cart_traj_len": 4.383837537842411,
        "distance_elbow_joint": 3.3952863964668962,
        "distance_shoulder_lift_joint": 1.8678648253354215,
        "distance_shoulder_pan_joint": 3.8101358283566937,
        "distance_wrist_1_joint": 3.108975473732614,
        "distance_wrist_2_joint": 2.401349551299354,
        "distance_wrist_3_joint": 8.051652122096112,
        "smoothness": 1.185049650960473,
        "time": 4.406130906,
        "traj_len": 4.757653223731957,
        "weighted_distance": 6.651984175154905
    },
    "planner": "LBKPIECE",
    "start": {
        "state": {
            "elbow_joint": 0.7495348899011973,
            "shoulder_lift_joint": -0.6476975780737697,
            "shoulder_pan_joint": -2.711696901376276,
            "wrist_1_joint": -0.07506478080974305,
            "wrist_2_joint": 0.4329665971545858,
            "wrist_3_joint": 3.1361499051832524
        }
    },
    "waypoints": [
        {
            "positions": [
                -2.711696901376276,
                -0.6476975780737697,
                0.7495348899011973,
                -0.07506478080974305,
                0.4329665971545858,
                3.1361499051832524
            ]
        },
        {
            "positions": [
                -2.720436333603257,
                -0.6327122808958968,
                0.7211952336204015,
                -0.06909073816998995,
                0.27617779329895364,
                3.029851135160544
            ]
        },
        {
            "positions": [
                -2.7291757658302376,
                -0.6177269837180239,
                0.6928555773396057,
                -0.06311669553023685,
                0.11938898944332144,
                2.923552365137836
            ]
        },
        {
            "positions": [
                -2.7379151980572183,
                -0.602741686540151,
                0.6645159210588099,
                -0.05714265289048375,
                -0.03739981441231077,
                2.8172535951151274
            ]
        },
        {
            "positions": [
                -2.6810955896188067,
                -0.6603945457474824,
                0.6034817857706125,
                0.012314629115589303,
                -0.03810634358489917,
                2.6924852904228165
            ]
        },
        {
            "positions": [
                -2.6242759811803946,
                -0.7180474049548136,
                0.5424476504824151,
                0.08177191112166235,
                -0.03881287275748757,
                2.5677169857305056
            ]
        },
        {
            "positions": [
                -2.567456372741983,
                -0.7757002641621449,
                0.4814135151942177,
                0.15122919312773542,
                -0.03951940193007597,
                2.4429486810381946
            ]
        },
        {
            "positions": [
                -2.572037729091549,
                -0.7395803924508104,
                0.3167259877680075,
                0.21622251893501987,
                -0.08592357470771486,
                2.3749656589267247
            ]
        },
        {
            "positions": [
                -2.576619085441115,
                -0.703460520739476,
                0.15203846034179722,
                0.2812158447423043,
                -0.13232774748535375,
                2.306982636815255
            ]
        },
        {
            "positions": [
                -2.4879241547178728,
                -0.7869885954014602,
                0.1634619730081862,
                0.3490954325708332,
                -0.14595193218838576,
                2.1863839108170717
            ]
        },
        {
            "positions": [
                -2.399229223994631,
                -0.8705166700634444,
                0.1748854856745752,
                0.41697502039936213,
                -0.15957611689141776,
                2.0657851848188886
            ]
        },
        {
            "positions": [
                -2.3105342932713886,
                -0.9540447447254286,
                0.1863089983409642,
                0.484854608227891,
                -0.17320030159444977,
                1.9451864588207057
            ]
        },
        {
            "positions": [
                -2.2218393625481463,
                -1.0375728193874127,
                0.1977325110073532,
                0.5527341960564199,
                -0.18682448629748177,
                1.8245877328225228
            ]
        },
        {
            "positions": [
                -2.1331444318249044,
                -1.121100894049397,
                0.2091560236737422,
                0.6206137838849488,
                -0.20044867100051378,
                1.7039890068243397
            ]
        },
        {
            "positions": [
                -1.940761841617339,
                -1.1439674281265437,
                0.1949844361775975,
                0.5847339230378952,
                -0.22612829230658774,
                1.8035329189874634
            ]
        },
        {
            "positions": [
                -1.7483792514097733,
                -1.1668339622036907,
                0.18081284868145278,
                0.5488540621908415,
                -0.2518079136126617,
                1.9030768311505868
            ]
        },
        {
            "positions": [
                -1.555996661202208,
                -1.1897004962808375,
                0.1666412611853081,
                0.5129742013437879,
                -0.2774875349187356,
                2.0026207433137104
            ]
        },
        {
            "positions": [
                -1.3636140709946425,
                -1.2125670303579845,
                0.1524696736891634,
                0.4770943404967344,
                -0.30316715622480955,
                2.102164655476834
            ]
        },
        {
            "positions": [
                -1.171231480787077,
                -1.2354335644351313,
                0.13829808619301867,
                0.44121447964968075,
                -0.32884677753088354,
                2.2017085676399577
            ]
        },
        {
            "positions": [
                -0.9788488905795114,
                -1.258300098512278,
                0.12412649869687398,
                0.4053346188026271,
                -0.35452639883695747,
                2.301252479803081
            ]
        },
        {
            "positions": [
                -0.7864663003719459,
                -1.281166632589425,
                0.10995491120072927,
                0.3694547579555735,
                -0.3802060201430314,
                2.400796391966205
            ]
        },
        {
            "positions": [
                -0.5940837101643806,
                -1.3040331666665719,
                0.09578332370458457,
                0.3335748971085199,
                -0.40588564144910533,
                2.5003403041293284
            ]
        },
        {
            "positions": [
                -0.4017011199568148,
                -1.3268997007437189,
                0.08161173620843987,
                0.29769503626146626,
                -0.4315652627551793,
                2.599884216292452
            ]
        },
        {
            "positions": [
                -0.20931852974924925,
                -1.3497662348208657,
                0.06744014871229514,
                0.2618151754144126,
                -0.4572448840612533,
                2.6994281284555752
            ]
        },
        {
            "positions": [
                -0.016935939541684153,
                -1.3726327688980127,
                0.05326856121615048,
                0.22593531456735905,
                -0.4829245053673272,
                2.7989720406186986
            ]
        },
        {
            "positions": [
                0.1754466506658816,
                -1.3954993029751595,
                0.03909697372000576,
                0.1900554537203054,
                -0.5086041266734012,
                2.8985159527818225
            ]
        },
        {
            "positions": [
                0.1567495701759071,
                -1.4056230697267138,
                -0.03897094767083535,
                0.2637555609247007,
                -0.5254592528934922,
                2.710260488081455
            ]
        },
        {
            "positions": [
                0.13805248968593262,
                -1.4157468364782682,
                -0.11703886906167646,
                0.337455668129096,
                -0.542314379113583,
                2.522005023381088
            ]
        },
        {
            "positions": [
                0.1193554091959581,
                -1.4258706032298225,
                -0.19510679045251758,
                0.4111557753334913,
                -0.559169505333674,
                2.333749558680721
            ]
        },
        {
            "positions": [
                0.10065832870598361,
                -1.435994369981377,
                -0.2731747118433587,
                0.4848558825378866,
                -0.576024631553765,
                2.1454940939803535
            ]
        },
        {
            "positions": [
                0.08196124821600911,
                -1.4461181367329314,
                -0.3512426332341998,
                0.5585559897422818,
                -0.592879757773856,
                1.9572386292799862
            ]
        },
        {
            "positions": [
                0.0632641677260346,
                -1.4562419034844858,
                -0.4293105546250409,
                0.6322560969466772,
                -0.6097348839939469,
                1.768983164579619
            ]
        },
        {
            "positions": [
                0.04456708723606012,
                -1.4663656702360401,
                -0.507378476015882,
                0.7059562041510725,
                -0.6265900102140379,
                1.5807276998792517
            ]
        },
        {
            "positions": [
                0.02587000674608561,
                -1.4764894369875945,
                -0.5854463974067231,
                0.7796563113554678,
                -0.6434451364341289,
                1.3924722351788843
            ]
        },
        {
            "positions": [
                0.007172926256111101,
                -1.4866132037391488,
                -0.6635143187975643,
                0.8533564185598631,
                -0.6603002626542198,
                1.2042167704785172
            ]
        },
        {
            "positions": [
                -0.011524154233863382,
                -1.4967369704907032,
                -0.7415822401884054,
                0.9270565257642583,
                -0.6771553888743108,
                1.0159613057781498
            ]
        },
        {
            "positions": [
                -0.03022123472383792,
                -1.5068607372422578,
                -0.8196501615792466,
                1.000756632968654,
                -0.6940105150944018,
                0.8277058410777824
            ]
        },
        {
            "positions": [
                -0.0489183152138124,
                -1.5169845039938121,
                -0.8977180829700876,
                1.074456740173049,
                -0.7108656413144927,
                0.6394503763774155
            ]
        },
        {
            "positions": [
                -0.06761539570378691,
                -1.5271082707453665,
                -0.9757860043609288,
                1.1481568473774444,
                -0.7277207675345837,
                0.4511949116770477
            ]
        },
        {
            "positions": [
                -0.08631247619376137,
                -1.5372320374969208,
                -1.0538539257517698,
                1.2218569545818396,
                -0.7445758937546747,
                0.2629394469766808
            ]
        },
        {
            "positions": [
                -0.1050095566837359,
                -1.5473558042484752,
                -1.1319218471426111,
                1.2955570617862349,
                -0.7614310199747657,
                0.07468398227631345
            ]
        },
        {
            "positions": [
                -0.12370663717371039,
                -1.5574795710000295,
                -1.209989768533452,
                1.36925716899063,
                -0.7782861461948567,
                -0.1135714824240539
            ]
        },
        {
            "positions": [
                -0.14240371766368493,
                -1.5676033377515841,
                -1.2880576899242933,
                1.4429572761950256,
                -0.7951412724149476,
                -0.30182694712442126
            ]
        },
        {
            "positions": [
                -0.1611007981536594,
                -1.5777271045031385,
                -1.3661256113151343,
                1.5166573833994208,
                -0.8119963986350385,
                -0.4900824118247882
            ]
        },
        {
            "positions": [
                -0.1797978786436339,
                -1.5878508712546928,
                -1.4441935327059756,
                1.590357490603816,
                -0.8288515248551296,
                -0.6783378765251555
            ]
        },
        {
            "positions": [
                -0.19849495913360837,
                -1.5979746380062472,
                -1.5222614540968165,
                1.6640575978082113,
                -0.8457066510752205,
                -0.8665933412255229
            ]
        },
        {
            "positions": [
                -0.2171920396235829,
                -1.6080984047578015,
                -1.6003293754876577,
                1.7377577050126067,
                -0.8625617772953115,
                -1.0548488059258903
            ]
        },
        {
            "positions": [
                -0.22357186535919688,
                -1.6963666920464386,
                -1.676835204803743,
                1.7034428862248863,
                -0.8986351068452018,
                -1.0224803182628053
            ]
        },
        {
            "positions": [
                -0.2271692619216814,
                -1.7958873437806668,
                -1.774550882590509,
                1.6629888341970904,
                -0.8479700316155989,
                -0.9216867325641291
            ]
        },
        {
            "positions": [
                -0.23076665848416597,
                -1.895407995514895,
                -1.872266560377275,
                1.6225347821692946,
                -0.7973049563859962,
                -0.820893146865453
            ]
        },
        {
            "positions": [
                -0.2709871833016346,
                -1.938064399127315,
                -1.9617441243073213,
                1.5807267478408786,
                -0.7923279936696496,
                -0.6761149824146928
            ]
        },
        {
            "positions": [
                -0.31120770811910325,
                -1.980720802739735,
                -2.0512216882373675,
                1.538918713512463,
                -0.7873510309533029,
                -0.5313368179639326
            ]
        },
        {
            "positions": [
                -0.3514282329365719,
                -2.023377206352155,
                -2.1406992521674137,
                1.497110679184047,
                -0.7823740682369564,
                -0.3865586535131724
            ]
        },
        {
            "positions": [
                -0.3916487577540405,
                -2.066033609964575,
                -2.23017681609746,
                1.4553026448556312,
                -0.7773971055206098,
                -0.24178048906241223
            ]
        },
        {
            "positions": [
                -0.43186928257150914,
                -2.108690013576995,
                -2.3196543800275062,
                1.4134946105272153,
                -0.7724201428042632,
                -0.09700232461165204
            ]
        },
        {
            "positions": [
                -0.3589968191894043,
                -2.144756358467,
                -2.2930400816836873,
                1.4456030763206675,
                -0.6195183415395491,
                -0.1694445841632931
            ]
        },
        {
            "positions": [
                -0.2861243558072995,
                -2.180822703357005,
                -2.266425783339868,
                1.4777115421141196,
                -0.4666165402748349,
                -0.24188684371493419
            ]
        },
        {
            "positions": [
                -0.21325189242519466,
                -2.2168890482470105,
                -2.239811484996049,
                1.5098200079075719,
                -0.31371473901012076,
                -0.31432910326657526
            ]
        },
        {
            "positions": [
                -0.20448624770163534,
                -2.238316409996879,
                -2.2838178532769975,
                1.5146359531459819,
                -0.15210557918862533,
                -0.21552035023229385
            ]
        },
        {
            "positions": [
                -0.195720602978076,
                -2.2597437717467477,
                -2.327824221557946,
                1.519451898384392,
                0.009503580632870101,
                -0.11671159719801244
            ]
        },
        {
            "positions": [
                -0.1869549582545167,
                -2.281171133496616,
                -2.3718305898388943,
                1.524267843622802,
                0.17111274045436561,
                -0.01790284416373101
            ]
        }
    ]
}