{
    "goal": {
        "global_pose": {
            "orientation": {
                "w": 0.5084816217422485,
                "x": -0.49083608388900757,
                "y": 0.5182115435600281,
                "z": -0.4816462993621826
            },
            "position": {
                "x": 0.5540239810943604,
                "y": 0.030875300988554955,
                "z": 0.16403168439865112
            }
        },
        "name": "move_to_storage_A"
    },
    "id": "LBKPIECE_move_to_storage_A_9",
    "joint_names": [
        "shoulder_pan_joint",
        "shoulder_lift_joint",
        "elbow_joint",
        "wrist_1_joint",
        "wrist_2_joint",
        "wrist_3_joint"
    ],
    "metrics": {
        "cart_traj_len": 0.35377380920624535,
        "distance_elbow_joint": 0.4527869526108983,
        "distance_shoulder_lift_joint": 0.2324090681553037,
        "distance_shoulder_pan_joint": 0.4648422695319942,
        "distance_wrist_1_joint": 0.2562852637728771,
        "distance_wrist_2_joint": 1.0899075832770264,
        "distance_wrist_3_joint": 0.10983898335459585,
        "smoothness": 8.881784197001252e-16,
        "time": 1.979506271,
        "traj_len": 1.614332716853219,
        "weighted_distance": 2.0425329702263784
    },
    "planner": "LBKPIECE",
    "start": {
        "state": {
            "elbow_joint": 1.9715474177455299,
            "shoulder_lift_joint": -1.139484666580328,
            "shoulder_pan_joint": 0.12281154398918248,
            "wrist_1_joint": -0.7804687475355282,
            "wrist_2_joint": 0.12958649657246987,
            "wrist_3_joint": -3.1924925159053466
        }
    },
    "waypoints": [
        {
            "positions": [
                0.12281154398918248,
                -1.139484666580328,
                1.9715474177455299,
                -0.7804687475355282,
                0.12958649657246987,
                -3.1924925159053466
            ]
        },
        {
            "positions": [
                0.05640550548461189,
                -1.1726859620310857,
                2.0362312681185153,
                -0.8170809280745106,
                0.2852875798977594,
                -3.176801232568976
            ]
        },
        {
            "positions": [
                -0.010000533019958707,
                -1.2058872574818433,
                2.1009151184915007,
                -0.8536931086134931,
                0.44098866322304886,
                -3.1611099492326047
            ]
        },
        {
            "positions": [
                -0.07640657152452932,
                -1.239088552932601,
                2.165598968864486,
                -0.8903052891524755,
                0.5966897465483384,
                -3.145418665896234
            ]
        },
        {
            "positions": [
                -0.1428126100290999,
                -1.2722898483833587,
                2.2302828192374715,
                -0.9269174696914579,
                0.7523908298736279,
                -3.1297273825598633
            ]
        },
        {
            "positions": [
                -0.2092186485336705,
                -1.3054911438341164,
                2.2949666696104574,
                -0.9635296502304405,
                0.9080919131989175,
                -3.1140360992234926
            ]
        },
        {
            "positions": [
                -0.2756246870382411,
                -1.338692439284874,
                2.3596505199834428,
                -1.0001418307694228,
                1.063792996524207,
                -3.0983448158871214
            ]
        },
        {
            "positions": [
                -0.3420307255428117,
                -1.3718937347356317,
                2.424334370356428,
                -1.0367540113084053,
                1.2194940798494964,
                -3.0826535325507507
            ]
        }
    ]
}