{
    "goal": {
        "global_pose": {
            "orientation": {
                "w": 0.7047431468963623,
                "x": -0.7094548344612122,
                "y": 0.0024358443915843964,
                "z": -0.0022348060738295317
            },
            "position": {
                "x": 0.6094750761985779,
                "y": 0.3671506643295288,
                "z": 0.19426114857196808
            }
        },
        "name": "move_to_magneteinheit_A"
    },
    "id": "LBKPIECE_move_to_magneteinheit_A_7",
    "joint_names": [
        "shoulder_pan_joint",
        "shoulder_lift_joint",
        "elbow_joint",
        "wrist_1_joint",
        "wrist_2_joint",
        "wrist_3_joint"
    ],
    "metrics": {
        "cart_traj_len": 1.053884694301957,
        "distance_elbow_joint": 0.3803425311604154,
        "distance_shoulder_lift_joint": 0.36784035481985056,
        "distance_shoulder_pan_joint": 1.24182397485348,
        "distance_wrist_1_joint": 2.211447912372087,
        "distance_wrist_2_joint": 1.6916908883969997,
        "distance_wrist_3_joint": 1.23293277543153,
        "smoothness": 2.3373116361120943e-16,
        "time": 3.362223074,
        "traj_len": 2.6694715651293914,
        "weighted_distance": 3.673565405524517
    },
    "planner": "LBKPIECE",
    "start": {
        "state": {
            "elbow_joint": 1.5739458966750683,
            "shoulder_lift_joint": -1.4977259741207325,
            "shoulder_pan_joint": -1.1188672016454206,
            "wrist_1_joint": 1.494575848278785,
            "wrist_2_joint": -1.5706037134824402,
            "wrist_3_joint": -2.0226957942261072
        }
    },
    "waypoints": [
        {
            "positions": [
                -1.1188672016454206,
                -1.4977259741207325,
                1.5739458966750683,
                1.494575848278785,
                -1.5706037134824402,
                -2.0226957942261072
            ]
        },
        {
            "positions": [
                -1.0498769808202273,
                -1.477290398852963,
                1.5950760372950914,
                1.3717176309247803,
                -1.4766208863492736,
                -2.091192059527859
            ]
        },
        {
            "positions": [
                -0.9808867599950339,
                -1.4568548235851935,
                1.6162061779151145,
                1.2488594135707753,
                -1.382638059216107,
                -2.1596883248296104
            ]
        },
        {
            "positions": [
                -0.9118965391698406,
                -1.436419248317424,
                1.6373363185351375,
                1.1260011962167704,
                -1.2886552320829403,
                -2.228184590131362
            ]
        },
        {
            "positions": [
                -0.8429063183446472,
                -1.4159836730496547,
                1.6584664591551606,
                1.0031429788627657,
                -1.1946724049497737,
                -2.296680855433114
            ]
        },
        {
            "positions": [
                -0.7739160975194539,
                -1.395548097781885,
                1.6795965997751838,
                0.8802847615087608,
                -1.100689577816607,
                -2.3651771207348657
            ]
        },
        {
            "positions": [
                -0.7049258766942607,
                -1.3751125225141156,
                1.7007267403952069,
                0.7574265441547561,
                -1.0067067506834404,
                -2.433673386036617
            ]
        },
        {
            "positions": [
                -0.6359356558690672,
                -1.3546769472463462,
                1.72185688101523,
                0.6345683268007511,
                -0.9127239235502737,
                -2.502169651338369
            ]
        },
        {
            "positions": [
                -0.566945435043874,
                -1.3342413719785766,
                1.742987021635253,
                0.5117101094467464,
                -0.818741096417107,
                -2.5706659166401207
            ]
        },
        {
            "positions": [
                -0.4979552142186806,
                -1.3138057967108072,
                1.764117162255276,
                0.3888518920927415,
                -0.7247582692839404,
                -2.639162181941872
            ]
        },
        {
            "positions": [
                -0.42896499339348726,
                -1.2933702214430378,
                1.785247302875299,
                0.2659936747387366,
                -0.6307754421507737,
                -2.707658447243624
            ]
        },
        {
            "positions": [
                -0.3599747725682939,
                -1.2729346461752682,
                1.8063774434953221,
                0.14313545738473166,
                -0.536792615017607,
                -2.7761547125453756
            ]
        },
        {
            "positions": [
                -0.29098455174310067,
                -1.2524990709074988,
                1.8275075841153452,
                0.020277240030727173,
                -0.4428097878844406,
                -2.8446509778471274
            ]
        },
        {
            "positions": [
                -0.22199433091790732,
                -1.2320634956397294,
                1.8486377247353682,
                -0.10258097732327776,
                -0.34882696075127373,
                -2.9131472431488787
            ]
        },
        {
            "positions": [
                -0.15300411009271386,
                -1.2116279203719598,
                1.8697678653553913,
                -0.22543919467728268,
                -0.2548441336181071,
                -2.9816435084506305
            ]
        },
        {
            "positions": [
                -0.08401388926752063,
                -1.1911923451041904,
                1.8908980059754146,
                -0.3482974120312876,
                -0.16086130648494046,
                -3.0501397737523823
            ]
        },
        {
            "positions": [
                -0.015023668442327276,
                -1.170756769836421,
                1.9120281465954376,
                -0.4711556293852921,
                -0.06687847935177382,
                -3.1186360390541337
            ]
        },
        {
            "positions": [
                0.05396655238286607,
                -1.1503211945686513,
                1.9331582872154607,
                -0.594013846739297,
                0.027104347781392812,
                -3.1871323043558855
            ]
        },
        {
            "positions": [
                0.12295677320805938,
                -1.129885619300882,
                1.9542884278354837,
                -0.7168720640933018,
                0.12108717491455943,
                -3.2556285696576373
            ]
        }
    ]
}