{
    "goal": {
        "global_pose": {
            "orientation": {
                "w": 0.7047431493862688,
                "x": -0.7094548369677653,
                "y": 0.0024358444001904,
                "z": -0.0022348060817251984
            },
            "position": {
                "x": -0.39052492380142206,
                "y": 0.3671506643295288,
                "z": 0.19426114857196808
            }
        },
        "name": "move_to_magneteinheit_D"
    },
    "id": "LBKPIECE_move_to_magneteinheit_D_29",
    "joint_names": [
        "shoulder_pan_joint",
        "shoulder_lift_joint",
        "elbow_joint",
        "wrist_1_joint",
        "wrist_2_joint",
        "wrist_3_joint"
    ],
    "metrics": {
        "cart_traj_len": 5.4160828438600035,
        "distance_elbow_joint": 7.192487091301157,
        "distance_shoulder_lift_joint": 3.5557274202990454,
        "distance_shoulder_pan_joint": 5.154471598188479,
        "distance_wrist_1_joint": 6.066663342975205,
        "distance_wrist_2_joint": 8.330705567352798,
        "distance_wrist_3_joint": 6.009631898637701,
        "smoothness": 0.5285668873712428,
        "time": 3.263240205,
        "traj_len": 6.025751979525409,
        "weighted_distance": 7.9199949259048
    },
    "planner": "LBKPIECE",
    "start": {
        "state": {
            "elbow_joint": 0.7495348899011973,
            "shoulder_lift_joint": -0.6476975780737697,
            "shoulder_pan_joint": -2.711696901376276,
            "wrist_1_joint": -0.07506478080974305,
            "wrist_2_joint": 0.4329665971545858,
            "wrist_3_joint": 3.1361499051832524
        }
    },
    "waypoints": [
        {
            "positions": [
                -2.711696901376276,
                -0.6476975780737697,
                0.7495348899011973,
                -0.07506478080974305,
                0.4329665971545858,
                3.1361499051832524
            ]
        },
        {
            "positions": [
                -2.724078712564915,
                -0.5859006514194945,
                0.6214514513937216,
                -0.06500527351829238,
                0.3630321409332016,
                3.083879993165053
            ]
        },
        {
            "positions": [
                -2.736460523753554,
                -0.5241037247652194,
                0.4933680128862459,
                -0.054945766226841726,
                0.2930976847118174,
                3.031610081146853
            ]
        },
        {
            "positions": [
                -2.748842334942193,
                -0.46230679811094433,
                0.36528457437877015,
                -0.04488625893539107,
                0.22316322849043319,
                2.979340169128653
            ]
        },
        {
            "positions": [
                -2.761224146130832,
                -0.40050987145666916,
                0.23720113587129438,
                -0.034826751643940404,
                0.15322877226904896,
                2.9270702571104534
            ]
        },
        {
            "positions": [
                -2.7759300996311054,
                -0.4488997593569574,
                0.2668678892193043,
                -0.11790516386182487,
                0.08890268121913766,
                2.7742160237239357
            ]
        },
        {
            "positions": [
                -2.7906360531313785,
                -0.49728964725724567,
                0.2965346425673142,
                -0.20098357607970935,
                0.024576590169226364,
                2.6213617903374185
            ]
        },
        {
            "positions": [
                -2.805342006631652,
                -0.5456795351575339,
                0.32620139591532415,
                -0.2840619882975938,
                -0.03974950088068491,
                2.4685075569509007
            ]
        },
        {
            "positions": [
                -2.8200479601319253,
                -0.5940694230578222,
                0.3558681492633341,
                -0.36714040051547825,
                -0.10407559193059623,
                2.3156533235643835
            ]
        },
        {
            "positions": [
                -2.834753913632199,
                -0.6424593109581104,
                0.38553490261134404,
                -0.4502188127333627,
                -0.1684016829805075,
                2.1627990901778658
            ]
        },
        {
            "positions": [
                -2.849459867132472,
                -0.6908491988583987,
                0.41520165595935393,
                -0.5332972249512472,
                -0.23272777403041878,
                2.009944856791348
            ]
        },
        {
            "positions": [
                -2.8641658206327456,
                -0.7392390867586869,
                0.4448684093073638,
                -0.6163756371691317,
                -0.2970538650803301,
                1.8570906234048306
            ]
        },
        {
            "positions": [
                -2.8788717741330188,
                -0.7876289746589751,
                0.47453516265537377,
                -0.6994540493870162,
                -0.36137995613024143,
                1.704236390018313
            ]
        },
        {
            "positions": [
                -2.8935777276332924,
                -0.8360188625592634,
                0.5042019160033837,
                -0.7825324616049006,
                -0.4257060471801527,
                1.5513821566317956
            ]
        },
        {
            "positions": [
                -2.9082836811335655,
                -0.8844087504595516,
                0.5338686693513937,
                -0.8656108738227851,
                -0.490032138230064,
                1.398527923245278
            ]
        },
        {
            "positions": [
                -2.922989634633839,
                -0.9327986383598399,
                0.5635354226994036,
                -0.9486892860406696,
                -0.5543582292799752,
                1.2456736898587606
            ]
        },
        {
            "positions": [
                -2.9376955881341122,
                -0.9811885262601281,
                0.5932021760474135,
                -1.031767698258554,
                -0.6186843203298865,
                1.0928194564722429
            ]
        },
        {
            "positions": [
                -2.952401541634386,
                -1.0295784141604163,
                0.6228689293954235,
                -1.1148461104764384,
                -0.6830104113797978,
                0.9399652230857254
            ]
        },
        {
            "positions": [
                -2.967107495134659,
                -1.0779683020607047,
                0.6525356827434333,
                -1.197924522694323,
                -0.7473365024297092,
                0.7871109896992077
            ]
        },
        {
            "positions": [
                -2.9818134486349326,
                -1.126358189960993,
                0.6822024360914434,
                -1.2810029349122076,
                -0.8116625934796206,
                0.63425675631269
            ]
        },
        {
            "positions": [
                -2.9965194021352057,
                -1.174748077861281,
                0.7118691894394532,
                -1.3640813471300919,
                -0.8759886845295318,
                0.4814025229261727
            ]
        },
        {
            "positions": [
                -3.0112253556354793,
                -1.2231379657615693,
                0.7415359427874633,
                -1.4471597593479766,
                -0.9403147755794431,
                0.328548289539655
            ]
        },
        {
            "positions": [
                -3.0259313091357525,
                -1.2715278536618575,
                0.771202696135473,
                -1.5302381715658608,
                -1.0046408666293543,
                0.1756940561531377
            ]
        },
        {
            "positions": [
                -3.040637262636026,
                -1.319917741562146,
                0.8008694494834829,
                -1.6133165837837453,
                -1.0689669576792658,
                0.02283982276662
            ]
        },
        {
            "positions": [
                -3.0553432161362992,
                -1.368307629462434,
                0.8305362028314929,
                -1.6963949960016298,
                -1.1332930487291768,
                -0.13001441061989727
            ]
        },
        {
            "positions": [
                -3.070049169636573,
                -1.4166975173627225,
                0.8602029561795028,
                -1.7794734082195143,
                -1.1976191397790883,
                -0.282868644006415
            ]
        },
        {
            "positions": [
                -3.084755123136846,
                -1.4650874052630107,
                0.8898697095275128,
                -1.8625518204373988,
                -1.2619452308289993,
                -0.43572287739293225
            ]
        },
        {
            "positions": [
                -3.0994610766371196,
                -1.513477293163299,
                0.9195364628755227,
                -1.9456302326552832,
                -1.3262713218789108,
                -0.5885771107794504
            ]
        },
        {
            "positions": [
                -3.1141670301373927,
                -1.5618671810635871,
                0.9492032162235327,
                -2.0287086448731677,
                -1.3905974129288219,
                -0.7414313441659677
            ]
        },
        {
            "positions": [
                -3.1288729836376663,
                -1.6102570689638753,
                0.9788699695715426,
                -2.111787057091052,
                -1.4549235039787334,
                -0.8942855775524854
            ]
        },
        {
            "positions": [
                -3.1435789371379395,
                -1.6586469568641635,
                1.0085367229195525,
                -2.1948654693089362,
                -1.5192495950286444,
                -1.0471398109390027
            ]
        },
        {
            "positions": [
                -3.158284890638213,
                -1.7070368447644517,
                1.0382034762675625,
                -2.277943881526821,
                -1.583575686078556,
                -1.1999940443255208
            ]
        },
        {
            "positions": [
                -3.0598042962348533,
                -1.7391164099378598,
                1.0696490457381285,
                -2.1926150457465723,
                -1.4801073320216498,
                -1.1630159412236032
            ]
        },
        {
            "positions": [
                -2.9613237018314935,
                -1.7711959751112678,
                1.1010946152086942,
                -2.1072862099663237,
                -1.3766389779647437,
                -1.1260378381216853
            ]
        },
        {
            "positions": [
                -2.8628431074281337,
                -1.8032755402846758,
                1.1325401846792602,
                -2.0219573741860746,
                -1.2731706239078373,
                -1.0890597350197677
            ]
        },
        {
            "positions": [
                -2.7643625130247744,
                -1.835355105458084,
                1.163985754149826,
                -1.936628538405826,
                -1.1697022698509314,
                -1.0520816319178499
            ]
        },
        {
            "positions": [
                -2.6658819186214147,
                -1.867434670631492,
                1.195431323620392,
                -1.8512997026255773,
                -1.066233915794025,
                -1.0151035288159322
            ]
        },
        {
            "positions": [
                -2.567401324218055,
                -1.8995142358049002,
                1.2268768930909577,
                -1.7659708668453284,
                -0.9627655617371189,
                -0.9781254257140144
            ]
        },
        {
            "positions": [
                -2.468920729814695,
                -1.9315938009783082,
                1.2583224625615237,
                -1.6806420310650796,
                -0.8592972076802128,
                -0.9411473226120968
            ]
        },
        {
            "positions": [
                -2.370440135411336,
                -1.9636733661517163,
                1.2897680320320895,
                -1.595313195284831,
                -0.7558288536233067,
                -0.9041692195101789
            ]
        },
        {
            "positions": [
                -2.271959541007976,
                -1.9957529313251243,
                1.3212136015026554,
                -1.509984359504582,
                -0.6523604995664004,
                -0.8671911164082613
            ]
        },
        {
            "positions": [
                -2.1734789466046163,
                -2.027832496498532,
                1.3526591709732212,
                -1.4246555237243335,
                -0.5488921455094944,
                -0.8302130133063436
            ]
        },
        {
            "positions": [
                -2.0749983522012565,
                -2.05991206167194,
                1.3841047404437872,
                -1.3393266879440846,
                -0.44542379145258826,
                -0.7932349102044258
            ]
        },
        {
            "positions": [
                -1.9765177577978967,
                -2.0919916268453487,
                1.415550309914353,
                -1.253997852163836,
                -0.3419554373956819,
                -0.756256807102508
            ]
        },
        {
            "positions": [
                -1.8780371633945372,
                -2.1240711920187567,
                1.446995879384919,
                -1.1686690163835873,
                -0.238487083338776,
                -0.7192787040005904
            ]
        },
        {
            "positions": [
                -1.7795565689911774,
                -2.1561507571921648,
                1.478441448855485,
                -1.0833401806033385,
                -0.13501872928186964,
                -0.6823006008986726
            ]
        },
        {
            "positions": [
                -1.6810759745878177,
                -2.188230322365573,
                1.5098870183260507,
                -0.9980113448230896,
                -0.03155037522496351,
                -0.6453224977967549
            ]
        },
        {
            "positions": [
                -1.5825953801844581,
                -2.220309887538981,
                1.5413325877966164,
                -0.912682509042841,
                0.07191797883194262,
                -0.6083443946948371
            ]
        },
        {
            "positions": [
                -1.4841147857810983,
                -2.252389452712389,
                1.5727781572671824,
                -0.8273536732625921,
                0.17538633288884875,
                -0.5713662915929194
            ]
        },
        {
            "positions": [
                -1.3856341913777386,
                -2.284469017885797,
                1.6042237267377484,
                -0.7420248374823433,
                0.2788546869457551,
                -0.5343881884910017
            ]
        },
        {
            "positions": [
                -1.287153596974379,
                -2.316548583059205,
                1.6356692962083141,
                -0.6566960017020946,
                0.382323041002661,
                -0.49741008538908404
            ]
        },
        {
            "positions": [
                -1.1886730025710195,
                -2.348628148232613,
                1.66711486567888,
                -0.571367165921846,
                0.48579139505956714,
                -0.4604319822871663
            ]
        },
        {
            "positions": [
                -1.0901924081676597,
                -2.380707713406021,
                1.6985604351494459,
                -0.48603833014159736,
                0.5892597491164735,
                -0.42345387918524857
            ]
        },
        {
            "positions": [
                -0.9917118137643,
                -2.412787278579429,
                1.7300060046200119,
                -0.4007094943613485,
                0.6927281031733794,
                -0.38647577608333084
            ]
        },
        {
            "positions": [
                -0.8932312193609402,
                -2.444866843752837,
                1.7614515740905778,
                -0.31538065858109965,
                0.7961964572302858,
                -0.3494976729814131
            ]
        },
        {
            "positions": [
                -0.7947506249575804,
                -2.476946408926245,
                1.7928971435611436,
                -0.230051822800851,
                0.8996648112871921,
                -0.31251956987949525
            ]
        },
        {
            "positions": [
                -0.6962700305542207,
                -2.5090259740996537,
                1.8243427130317096,
                -0.14472298702060193,
                1.0031331653440985,
                -0.2755414667775775
            ]
        },
        {
            "positions": [
                -0.5977894361508613,
                -2.5411055392730613,
                1.8557882825022753,
                -0.05939415124035374,
                1.106601519401004,
                -0.2385633636756599
            ]
        },
        {
            "positions": [
                -0.49930884174750156,
                -2.5731851044464693,
                1.8872338519728413,
                0.025934684539895336,
                1.2100698734579103,
                -0.20158526057374215
            ]
        },
        {
            "positions": [
                -0.4008282473441418,
                -2.605264669619878,
                1.918679421443407,
                0.11126352032014397,
                1.3135382275148166,
                -0.16460715747182442
            ]
        },
        {
            "positions": [
                -0.30234765294078203,
                -2.637344234793286,
                1.9501249909139728,
                0.19659235610039305,
                1.417006581571723,
                -0.12762905436990657
            ]
        },
        {
            "positions": [
                -0.20386705853742226,
                -2.669423799966694,
                1.9815705603845388,
                0.2819211918806417,
                1.520474935628629,
                -0.09065095126798894
            ]
        },
        {
            "positions": [
                -0.10538646413406294,
                -2.701503365140102,
                2.013016129855105,
                0.3672500276608903,
                1.6239432896855348,
                -0.05367284816607132
            ]
        },
        {
            "positions": [
                -0.0069058697307031736,
                -2.73358293031351,
                2.0444616993256703,
                0.45257886344113896,
                1.7274116437424412,
                -0.01669474506415347
            ]
        },
        {
            "positions": [
                0.0915747246726566,
                -2.765662495486918,
                2.0759072687962368,
                0.5379076992213876,
                1.8308799977993475,
                0.020283358037764154
            ]
        },
        {
            "positions": [
                0.19005531907601636,
                -2.797742060660326,
                2.1073528382668023,
                0.6232365350016367,
                1.9343483518562534,
                0.057261461139682
            ]
        },
        {
            "positions": [
                0.2885359134793761,
                -2.829821625833734,
                2.1387984077373683,
                0.7085653707818853,
                2.0378167059131598,
                0.09423956424159963
            ]
        },
        {
            "positions": [
                0.3870165078827359,
                -2.861901191007142,
                2.1702439772079343,
                0.7938942065621344,
                2.141285059970066,
                0.13121766734351747
            ]
        },
        {
            "positions": [
                0.4854971022860952,
                -2.89398075618055,
                2.2016895466785,
                0.8792230423423826,
                2.244753414026972,
                0.1681957704454351
            ]
        },
        {
            "positions": [
                0.583977696689455,
                -2.926060321353958,
                2.233135116149066,
                0.9645518781226317,
                2.348221768083878,
                0.20517387354735273
            ]
        },
        {
            "positions": [
                0.6824582910928148,
                -2.9581398865273663,
                2.2645806856196318,
                1.0498807139028803,
                2.4516901221407843,
                0.24215197664927057
            ]
        },
        {
            "positions": [
                0.6476049499196445,
                -2.92837731996617,
                2.0709354503611275,
                1.068769997412943,
                2.3574590027262827,
                0.2338091578208969
            ]
        },
        {
            "positions": [
                0.6127516087464742,
                -2.8986147534049733,
                1.8772902151026234,
                1.0876592809230055,
                2.2632278833117816,
                0.22546633899252322
            ]
        },
        {
            "positions": [
                0.5778982675733038,
                -2.8688521868437764,
                1.6836449798441193,
                1.1065485644330681,
                2.16899676389728,
                0.21712352016414954
            ]
        },
        {
            "positions": [
                0.5430449264001335,
                -2.83908962028258,
                1.489999744585615,
                1.1254378479431308,
                2.0747656444827784,
                0.20878070133577586
            ]
        },
        {
            "positions": [
                0.5081915852269632,
                -2.8093270537213835,
                1.2963545093271107,
                1.1443271314531933,
                1.9805345250682769,
                0.2004378825074022
            ]
        },
        {
            "positions": [
                0.4733382440537929,
                -2.779564487160187,
                1.1027092740686066,
                1.163216414963256,
                1.8863034056537755,
                0.1920950636790285
            ]
        },
        {
            "positions": [
                0.43848490288062253,
                -2.7498019205989905,
                0.9090640388101023,
                1.1821056984733187,
                1.7920722862392742,
                0.18375224485065483
            ]
        },
        {
            "positions": [
                0.40363156170745224,
                -2.720039354037794,
                0.7154188035515983,
                1.2009949819833812,
                1.6978411668247726,
                0.17540942602228118
            ]
        },
        {
            "positions": [
                0.3687782205342819,
                -2.6902767874765976,
                0.521773568293094,
                1.2198842654934439,
                1.603610047410271,
                0.1670666071939075
            ]
        },
        {
            "positions": [
                0.3339248793611116,
                -2.6605142209154007,
                0.3281283330345899,
                1.2387735490035066,
                1.5093789279957697,
                0.1587237883655338
            ]
        },
        {
            "positions": [
                0.2990715381879413,
                -2.630751654354204,
                0.1344830977760858,
                1.257662832513569,
                1.4151478085812683,
                0.15038096953716015
            ]
        },
        {
            "positions": [
                0.26421819701477095,
                -2.6009890877930077,
                -0.0591621374824185,
                1.2765521160236317,
                1.3209166891667667,
                0.14203815070878648
            ]
        },
        {
            "positions": [
                0.22936485584160066,
                -2.5712265212318113,
                -0.25280737274092235,
                1.2954413995336944,
                1.2266855697522654,
                0.13369533188041283
            ]
        },
        {
            "positions": [
                0.1945115146684303,
                -2.541463954670615,
                -0.4464526079994271,
                1.314330683043757,
                1.1324544503377638,
                0.12535251305203912
            ]
        },
        {
            "positions": [
                0.15965817349526001,
                -2.511701388109418,
                -0.640097843257931,
                1.3332199665538196,
                1.0382233309232625,
                0.11700969422366544
            ]
        },
        {
            "positions": [
                0.12480483232208972,
                -2.4819388215482214,
                -0.8337430785164353,
                1.352109250063882,
                0.9439922115087609,
                0.1086668753952918
            ]
        },
        {
            "positions": [
                0.08995149114891932,
                -2.452176254987025,
                -1.0273883137749396,
                1.3709985335739447,
                0.8497610920942593,
                0.10032405656691809
            ]
        },
        {
            "positions": [
                0.05509814997574902,
                -2.4224136884258285,
                -1.2210335490334439,
                1.3898878170840074,
                0.755529972679758,
                0.09198123773854444
            ]
        },
        {
            "positions": [
                0.02024480880257873,
                -2.392651121864632,
                -1.4146787842919477,
                1.4087771005940701,
                0.6612988532652566,
                0.08363841891017076
            ]
        },
        {
            "positions": [
                -0.014608532370591565,
                -2.362888555303435,
                -1.608324019550452,
                1.4276663841041328,
                0.567067733850755,
                0.07529560008179706
            ]
        },
        {
            "positions": [
                -0.04946187354376186,
                -2.333125988742239,
                -1.8019692548089559,
                1.4465556676141953,
                0.47283661443625347,
                0.06695278125342341
            ]
        },
        {
            "positions": [
                -0.08431521471693215,
                -2.303363422181042,
                -1.9956144900674602,
                1.4654449511242578,
                0.37860549502175234,
                0.05860996242504973
            ]
        },
        {
            "positions": [
                -0.11916855589010256,
                -2.2736008556198457,
                -2.1892597253259645,
                1.4843342346343205,
                0.28437437560725076,
                0.050267143596676056
            ]
        },
        {
            "positions": [
                -0.15402189706327285,
                -2.2438382890586492,
                -2.3829049605844688,
                1.5032235181443832,
                0.19014325619274935,
                0.04192432476830239
            ]
        },
        {
            "positions": [
                -0.18468213610269138,
                -2.28044639020118,
                -2.3776168192656564,
                1.5053643023996959,
                0.17279264624046442,
                0.010810048495135095
            ]
        }
    ]
}