{
    "goal": {
        "global_pose": {
            "orientation": {
                "w": 0.005598929693374612,
                "x": 0.007748599140229565,
                "y": 0.7110244013736278,
                "z": -0.7031023480610252
            },
            "position": {
                "x": 0.1141497679147869,
                "y": -0.7141253447532654,
                "z": 0.3711530566215515
            }
        },
        "name": "move_to_auspresseinheit_B"
    },
    "id": "LBKPIECE_move_to_auspresseinheit_B_131",
    "joint_names": [
        "shoulder_pan_joint",
        "shoulder_lift_joint",
        "elbow_joint",
        "wrist_1_joint",
        "wrist_2_joint",
        "wrist_3_joint"
    ],
    "metrics": {
        "cart_traj_len": 0.5651216241467092,
        "distance_elbow_joint": 0.06555149215430434,
        "distance_shoulder_lift_joint": 0.2931455220987258,
        "distance_shoulder_pan_joint": 0.5772516390674867,
        "distance_wrist_1_joint": 0.3365222103380472,
        "distance_wrist_2_joint": 0.9958298289931622,
        "distance_wrist_3_joint": 0.004090534313099248,
        "smoothness": 8.881784231541381e-16,
        "time": 1.731990169,
        "traj_len": 1.5074452649979784,
        "weighted_distance": 1.9007694060359435
    },
    "planner": "LBKPIECE",
    "start": {
        "state": {
            "elbow_joint": 2.019306165916698,
            "shoulder_lift_joint": -1.1220205098164344,
            "shoulder_pan_joint": -1.095207207618794,
            "wrist_1_joint": -0.8559671824921639,
            "wrist_2_joint": 0.47596387242952726,
            "wrist_3_joint": 3.159081874673826
        }
    },
    "waypoints": [
        {
            "positions": [
                -1.095207207618794,
                -1.1220205098164344,
                2.019306165916698,
                -0.8559671824921639,
                0.47596387242952726,
                3.159081874673826
            ]
        },
        {
            "positions": [
                -1.1914158141300417,
                -1.1708780968328887,
                2.008380917224314,
                -0.7998801474358227,
                0.6419355105950543,
                3.158400118954976
            ]
        },
        {
            "positions": [
                -1.2876244206412895,
                -1.219735683849343,
                1.9974556685319298,
                -0.7437931123794814,
                0.8079071487605813,
                3.157718363236126
            ]
        },
        {
            "positions": [
                -1.3838330271525372,
                -1.2685932708657974,
                1.986530419839546,
                -0.6877060773231403,
                0.9738787869261083,
                3.157036607517276
            ]
        },
        {
            "positions": [
                -1.480041633663785,
                -1.3174508578822517,
                1.9756051711471618,
                -0.6316190422667991,
                1.1398504250916353,
                3.1563548517984263
            ]
        },
        {
            "positions": [
                -1.576250240175033,
                -1.366308444898706,
                1.9646799224547777,
                -0.5755320072104578,
                1.3058220632571624,
                3.1556730960795765
            ]
        },
        {
            "positions": [
                -1.6724588466862806,
                -1.4151660319151602,
                1.9537546737623936,
                -0.5194449721541167,
                1.4717937014226894,
                3.1549913403607266
            ]
        }
    ]
}