{
    "goal": {
        "global_pose": {
            "orientation": {
                "w": 0.7031023480610252,
                "x": -0.7110244013736278,
                "y": 0.0077485991402295624,
                "z": 0.005598929693374583
            },
            "position": {
                "x": -0.8841497679147869,
                "y": 0.44412534475326537,
                "z": 0.3711530566215515
            }
        },
        "name": "move_to_auspresseinheit_D"
    },
    "id": "LBKPIECE_move_to_auspresseinheit_D_114",
    "joint_names": [
        "shoulder_pan_joint",
        "shoulder_lift_joint",
        "elbow_joint",
        "wrist_1_joint",
        "wrist_2_joint",
        "wrist_3_joint"
    ],
    "metrics": {
        "cart_traj_len": 3.76842139394039,
        "distance_elbow_joint": 3.0195782187213087,
        "distance_shoulder_lift_joint": 1.2320774986300376,
        "distance_shoulder_pan_joint": 2.796936641703054,
        "distance_wrist_1_joint": 2.0742148294465452,
        "distance_wrist_2_joint": 1.2176378547394815,
        "distance_wrist_3_joint": 6.28963875312031,
        "smoothness": 8.074349333936311e-17,
        "time": 1.3412798719999999,
        "traj_len": 4.077999975031969,
        "weighted_distance": 5.7009835981861405
    },
    "planner": "LBKPIECE",
    "start": {
        "state": {
            "elbow_joint": 1.8268400409724999,
            "shoulder_lift_joint": -1.0144045787793008,
            "shoulder_pan_joint": 2.6280239544362485,
            "wrist_1_joint": -0.790705565816056,
            "wrist_2_joint": 1.0573557467365533,
            "wrist_3_joint": 3.1851377467193758
        }
    },
    "waypoints": [
        {
            "positions": [
                2.6280239544362485,
                -1.0144045787793008,
                1.8268400409724999,
                -0.790705565816056,
                1.0573557467365533,
                3.1851377467193758
            ]
        },
        {
            "positions": [
                2.5723491500331024,
                -1.0296354090009179,
                1.697101787887829,
                -0.8478220595775908,
                0.9660639047434886,
                3.153374048588202
            ]
        },
        {
            "positions": [
                2.5166743456299563,
                -1.0448662392225352,
                1.5673635348031583,
                -0.9049385533391255,
                0.8747720627504239,
                3.1216103504570283
            ]
        },
        {
            "positions": [
                2.46099954122681,
                -1.0600970694441523,
                1.4376252817184874,
                -0.9620550471006604,
                0.7834802207573591,
                3.0898466523258543
            ]
        },
        {
            "positions": [
                2.4053247368236645,
                -1.0753278996657694,
                1.3078870286338167,
                -1.019171540862195,
                0.6921883787642944,
                3.0580829541946803
            ]
        },
        {
            "positions": [
                2.3496499324205185,
                -1.0905587298873867,
                1.1781487755491455,
                -1.07628803462373,
                0.6008965367712297,
                3.026319256063507
            ]
        },
        {
            "positions": [
                2.2939751280173724,
                -1.1057895601090038,
                1.0484105224644749,
                -1.1334045283852647,
                0.509604694778165,
                2.994555557932333
            ]
        },
        {
            "positions": [
                2.2274105924691514,
                -1.1366190876036073,
                0.9878389359722239,
                -1.1802022545170847,
                0.4914996460543516,
                2.829716191328731
            ]
        },
        {
            "positions": [
                2.1608460569209305,
                -1.167448615098211,
                0.927267349479973,
                -1.2269999806489045,
                0.47339459733053824,
                2.664876824725129
            ]
        },
        {
            "positions": [
                2.094281521372709,
                -1.1982781425928146,
                0.8666957629877221,
                -1.2737977067807245,
                0.4552895486067249,
                2.5000374581215272
            ]
        },
        {
            "positions": [
                2.027716985824488,
                -1.2291076700874184,
                0.8061241764954711,
                -1.3205954329125444,
                0.4371844998829115,
                2.335198091517926
            ]
        },
        {
            "positions": [
                1.9611524502762672,
                -1.259937197582022,
                0.7455525900032202,
                -1.3673931590443642,
                0.41907945115909817,
                2.1703587249143235
            ]
        },
        {
            "positions": [
                1.8945879147280462,
                -1.2907667250766255,
                0.6849810035109692,
                -1.4141908851761842,
                0.4009744024352848,
                2.005519358310722
            ]
        },
        {
            "positions": [
                1.828023379179825,
                -1.3215962525712293,
                0.6244094170187182,
                -1.4609886113080042,
                0.38286935371147146,
                1.8406799917071202
            ]
        },
        {
            "positions": [
                1.761458843631604,
                -1.3524257800658328,
                0.5638378305264673,
                -1.507786337439824,
                0.3647643049876581,
                1.6758406251035183
            ]
        },
        {
            "positions": [
                1.694894308083383,
                -1.3832553075604366,
                0.5032662440342164,
                -1.554584063571644,
                0.34665925626384475,
                1.5110012584999164
            ]
        },
        {
            "positions": [
                1.628329772535162,
                -1.4140848350550401,
                0.44269465754196546,
                -1.601381789703464,
                0.3285542075400314,
                1.3461618918963145
            ]
        },
        {
            "positions": [
                1.561765236986941,
                -1.444914362549644,
                0.38212307104971455,
                -1.6481795158352837,
                0.31044915881621804,
                1.1813225252927129
            ]
        },
        {
            "positions": [
                1.49520070143872,
                -1.4757438900442474,
                0.32155148455746363,
                -1.6949772419671036,
                0.2923441100924047,
                1.016483158689111
            ]
        },
        {
            "positions": [
                1.428636165890499,
                -1.506573417538851,
                0.2609798980652126,
                -1.7417749680989236,
                0.27423906136859133,
                0.8516437920855089
            ]
        },
        {
            "positions": [
                1.3620716303422777,
                -1.5374029450334548,
                0.20040831157296168,
                -1.7885726942307434,
                0.25613401264477803,
                0.6868044254819075
            ]
        },
        {
            "positions": [
                1.2955070947940568,
                -1.5682324725280583,
                0.13983672508071077,
                -1.8353704203625636,
                0.23802896392096468,
                0.5219650588783056
            ]
        },
        {
            "positions": [
                1.2289425592458358,
                -1.5990620000226619,
                0.07926513858845985,
                -1.8821681464943834,
                0.21992391519715132,
                0.3571256922747037
            ]
        },
        {
            "positions": [
                1.1623780236976147,
                -1.6298915275172656,
                0.01869355209620882,
                -1.9289658726262031,
                0.20181886647333797,
                0.19228632567110182
            ]
        },
        {
            "positions": [
                1.0958134881493937,
                -1.6607210550118694,
                -0.041878034396042096,
                -1.9757635987580233,
                0.1837138177495246,
                0.027446959067499943
            ]
        },
        {
            "positions": [
                1.0292489526011728,
                -1.6915505825064727,
                -0.10244962088829279,
                -2.022561324889843,
                0.16560876902571126,
                -0.1373924075361015
            ]
        },
        {
            "positions": [
                0.9626844170529516,
                -1.7223801100010765,
                -0.16302120738054393,
                -2.069359051021663,
                0.1475037203018979,
                -0.3022317741397038
            ]
        },
        {
            "positions": [
                0.8961198815047307,
                -1.7532096374956803,
                -0.22359279387279463,
                -2.116156777153483,
                0.12939867157808455,
                -0.46707114074330525
            ]
        },
        {
            "positions": [
                0.8295553459565095,
                -1.7840391649902838,
                -0.28416438036504577,
                -2.162954503285303,
                0.11129362285427119,
                -0.6319105073469071
            ]
        },
        {
            "positions": [
                0.7629908104082888,
                -1.8148686924848874,
                -0.3447359668572967,
                -2.2097522294171226,
                0.09318857413045784,
                -0.796749873950509
            ]
        },
        {
            "positions": [
                0.6964262748600676,
                -1.8456982199794911,
                -0.4053075533495476,
                -2.2565499555489428,
                0.07508352540664448,
                -0.9615892405541109
            ]
        },
        {
            "positions": [
                0.6298617393118466,
                -1.8765277474740947,
                -0.4658791398417985,
                -2.3033476816807625,
                0.05697847668283118,
                -1.1264286071577128
            ]
        },
        {
            "positions": [
                0.5632972037636255,
                -1.9073572749686982,
                -0.5264507263340497,
                -2.3501454078125823,
                0.03887342795901777,
                -1.291267973761315
            ]
        },
        {
            "positions": [
                0.4967326682154045,
                -1.938186802463302,
                -0.5870223128263004,
                -2.3969431339444025,
                0.02076837923520447,
                -1.4561073403649165
            ]
        },
        {
            "positions": [
                0.43016813266718334,
                -1.9690163299579058,
                -0.6475938993185515,
                -2.4437408600762223,
                0.0026633305113911154,
                -1.620946706968518
            ]
        },
        {
            "positions": [
                0.3636035971189624,
                -1.999845857452509,
                -0.7081654858108022,
                -2.490538586208042,
                -0.01544171821242224,
                -1.7857860735721194
            ]
        },
        {
            "positions": [
                0.2970390615707412,
                -2.030675384947113,
                -0.7687370723030533,
                -2.5373363123398622,
                -0.033546766936235595,
                -1.9506254401757217
            ]
        },
        {
            "positions": [
                0.23047452602252028,
                -2.0615049124417166,
                -0.829308658795304,
                -2.584134038471682,
                -0.05165181566004895,
                -2.115464806779323
            ]
        },
        {
            "positions": [
                0.16390999047429933,
                -2.0923344399363204,
                -0.8898802452875552,
                -2.6309317646035018,
                -0.0697568643838623,
                -2.2803041733829255
            ]
        },
        {
            "positions": [
                0.09734545492607838,
                -2.1231639674309237,
                -0.9504518317798061,
                -2.677729490735322,
                -0.08786191310767566,
                -2.445143539986527
            ]
        },
        {
            "positions": [
                0.030780919377856986,
                -2.1539934949255275,
                -1.0110234182720572,
                -2.7245272168671417,
                -0.10596696183148901,
                -2.609982906590129
            ]
        },
        {
            "positions": [
                -0.03578361617036396,
                -2.1848230224201313,
                -1.071595004764308,
                -2.7713249429989615,
                -0.12407201055530237,
                -2.7748222731937306
            ]
        },
        {
            "positions": [
                -0.10234815171858491,
                -2.2156525499147346,
                -1.132166591256559,
                -2.8181226691307817,
                -0.14217705927911573,
                -2.939661639797333
            ]
        },
        {
            "positions": [
                -0.168912687266806,
                -2.2464820774093384,
                -1.19273817774881,
                -2.8649203952626014,
                -0.1602821080029291,
                -3.1045010064009344
            ]
        }
    ]
}