{
    "goal": {
        "global_pose": {
            "orientation": {
                "w": 0.005598929693374612,
                "x": 0.007748599140229565,
                "y": 0.7110244013736278,
                "z": -0.7031023480610252
            },
            "position": {
                "x": -0.8858502320852131,
                "y": -0.7141253447532654,
                "z": 0.3711530566215515
            }
        },
        "name": "move_to_auspresseinheit_C"
    },
    "id": "LBKPIECE_move_to_auspresseinheit_C_11",
    "joint_names": [
        "shoulder_pan_joint",
        "shoulder_lift_joint",
        "elbow_joint",
        "wrist_1_joint",
        "wrist_2_joint",
        "wrist_3_joint"
    ],
    "metrics": {
        "cart_traj_len": 0.5062293767314898,
        "distance_elbow_joint": 0.9875166984110111,
        "distance_shoulder_lift_joint": 0.3196260486070095,
        "distance_shoulder_pan_joint": 0.25663116368960104,
        "distance_wrist_1_joint": 0.6564215044259554,
        "distance_wrist_2_joint": 1.3012428170233328,
        "distance_wrist_3_joint": 0.0905503398499965,
        "smoothness": 0.04036513520372555,
        "time": 3.632550376,
        "traj_len": 1.900523236376474,
        "weighted_distance": 2.398072887373565
    },
    "planner": "LBKPIECE",
    "start": {
        "state": {
            "elbow_joint": 1.752795957773711,
            "shoulder_lift_joint": -0.9740617694225064,
            "shoulder_pan_joint": -2.967991417825858,
            "wrist_1_joint": -0.7595177689806859,
            "wrist_2_joint": 1.7443932448377395,
            "wrist_3_joint": 3.199131542505932
        }
    },
    "waypoints": [
        {
            "positions": [
                -2.967991417825858,
                -0.9740617694225064,
                1.752795957773711,
                -0.7595177689806859,
                1.7443932448377395,
                3.199131542505932
            ]
        },
        {
            "positions": [
                -2.9418911678909208,
                -0.9518226261238396,
                1.6426785577647858,
                -0.6829280974686649,
                1.6152861410000656,
                3.186011742702107
            ]
        },
        {
            "positions": [
                -2.9157909179559836,
                -0.9295834828251728,
                1.5325611577558604,
                -0.6063384259566438,
                1.486179037162392,
                3.172891942898282
            ]
        },
        {
            "positions": [
                -2.889690668021046,
                -0.907344339526506,
                1.4224437577469353,
                -0.5297487544446229,
                1.357071933324718,
                3.1597721430944565
            ]
        },
        {
            "positions": [
                -2.8635904180861087,
                -0.8851051962278391,
                1.31232635773801,
                -0.45315908293260176,
                1.2279648294870444,
                3.1466523432906315
            ]
        },
        {
            "positions": [
                -2.8374901681511715,
                -0.8628660529291723,
                1.2022089577290846,
                -0.37656941142058076,
                1.0988577256493706,
                3.1335325434868064
            ]
        },
        {
            "positions": [
                -2.8122641853481887,
                -0.8211799865064372,
                1.1148230180558076,
                -0.3218747820474107,
                0.9677162660823778,
                3.1385228116529804
            ]
        },
        {
            "positions": [
                -2.787038202545206,
                -0.7794939200837021,
                1.0274370783825308,
                -0.26718015267424067,
                0.8365748065153851,
                3.143513079819155
            ]
        },
        {
            "positions": [
                -2.7618122197422226,
                -0.7378078536609671,
                0.9400511387092538,
                -0.21248552330107065,
                0.7054333469483924,
                3.148503347985329
            ]
        },
        {
            "positions": [
                -2.7365862369392397,
                -0.696121787238232,
                0.8526651990359769,
                -0.1577908939279006,
                0.5742918873813997,
                3.1534936161515033
            ]
        },
        {
            "positions": [
                -2.711360254136257,
                -0.654435720815497,
                0.7652792593627,
                -0.10309626455473059,
                0.44315042781440694,
                3.1584838843176772
            ]
        }
    ]
}