{
    "goal": {
        "global_pose": {
            "orientation": {
                "w": -0.4816463035849501,
                "x": 0.5182115481033762,
                "y": 0.4908360881923453,
                "z": -0.5084816262002911
            },
            "position": {
                "x": -0.8240239810943604,
                "y": 0.19912469901144506,
                "z": 0.16403168439865112
            }
        },
        "name": "move_to_storage_D"
    },
    "id": "LBKPIECE_move_to_storage_D_92",
    "joint_names": [
        "shoulder_pan_joint",
        "shoulder_lift_joint",
        "elbow_joint",
        "wrist_1_joint",
        "wrist_2_joint",
        "wrist_3_joint"
    ],
    "metrics": {
        "cart_traj_len": 0.5704622278728299,
        "distance_elbow_joint": 0.5542133849126643,
        "distance_shoulder_lift_joint": 0.15264091664170287,
        "distance_shoulder_pan_joint": 0.1843265894268874,
        "distance_wrist_1_joint": 3.824252065329416,
        "distance_wrist_2_joint": 1.7725779957283265,
        "distance_wrist_3_joint": 3.1593043776982817,
        "smoothness": 0.0025687426129804994,
        "time": 1.031019392,
        "traj_len": 3.1060127703757563,
        "weighted_distance": 4.643571270713047
    },
    "planner": "LBKPIECE",
    "start": {
        "state": {
            "elbow_joint": -2.384821997420982,
            "shoulder_lift_joint": -2.2788054674887404,
            "shoulder_pan_joint": -0.18546946417610016,
            "wrist_1_joint": 1.4845937964226739,
            "wrist_2_joint": 0.1789877726866377,
            "wrist_3_joint": 0.03710572555276528
        }
    },
    "waypoints": [
        {
            "positions": [
                -0.18546946417610016,
                -2.2788054674887404,
                -2.384821997420982,
                1.4845937964226739,
                0.1789877726866377,
                0.03710572555276528
            ]
        },
        {
            "positions": [
                -0.12927573518396723,
                -2.2424400518194094,
                -2.367879899139204,
                1.4272821111001128,
                0.08302673494819734,
                0.04254041529035566
            ]
        },
        {
            "positions": [
                -0.0730820061918343,
                -2.206074636150079,
                -2.3509378008574253,
                1.3699704257775516,
                -0.012934302790243019,
                0.04797510502794604
            ]
        },
        {
            "positions": [
                -0.016888277199701374,
                -2.169709220480748,
                -2.3339957025756473,
                1.3126587404549905,
                -0.10889534052868342,
                0.05340979476553642
            ]
        },
        {
            "positions": [
                -0.017572859914940012,
                -2.1678159739749345,
                -2.3121093073553287,
                1.1538623487436108,
                -0.17344729194229236,
                0.1900619820909934
            ]
        },
        {
            "positions": [
                -0.01825744263017865,
                -2.165922727469121,
                -2.2902229121350097,
                0.9950659570322311,
                -0.23799924335590128,
                0.3267141694164504
            ]
        },
        {
            "positions": [
                -0.01894202534541729,
                -2.1640294809633076,
                -2.268336516914691,
                0.8362695653208515,
                -0.3025511947695102,
                0.46336635674190735
            ]
        },
        {
            "positions": [
                -0.01962660806065593,
                -2.162136234457494,
                -2.2464501216943726,
                0.6774731736094718,
                -0.3671031461831191,
                0.6000185440673643
            ]
        },
        {
            "positions": [
                -0.020311190775894567,
                -2.1602429879516807,
                -2.224563726474054,
                0.5186767818980922,
                -0.43165509759672804,
                0.7366707313928214
            ]
        },
        {
            "positions": [
                -0.020995773491133206,
                -2.1583497414458668,
                -2.202677331253735,
                0.3598803901867125,
                -0.49620704901033696,
                0.8733229187182783
            ]
        },
        {
            "positions": [
                -0.021680356206371848,
                -2.1564564949400533,
                -2.1807909360334166,
                0.20108399847533276,
                -0.5607590004239459,
                1.0099751060437354
            ]
        },
        {
            "positions": [
                -0.022364938921610483,
                -2.15456324843424,
                -2.158904540813098,
                0.042287606763953045,
                -0.6253109518375548,
                1.1466272933691921
            ]
        },
        {
            "positions": [
                -0.023049521636849125,
                -2.1526700019284264,
                -2.137018145592779,
                -0.11650878494742667,
                -0.6898629032511638,
                1.2832794806946493
            ]
        },
        {
            "positions": [
                -0.02373410435208776,
                -2.150776755422613,
                -2.1151317503724605,
                -0.27530517665880616,
                -0.7544148546647726,
                1.4199316680201064
            ]
        },
        {
            "positions": [
                -0.024418687067326403,
                -2.1488835089167995,
                -2.093245355152142,
                -0.4341015683701861,
                -0.8189668060783817,
                1.5565838553455635
            ]
        },
        {
            "positions": [
                -0.025103269782565038,
                -2.146990262410986,
                -2.071358959931823,
                -0.5928979600815656,
                -0.8835187574919905,
                1.6932360426710202
            ]
        },
        {
            "positions": [
                -0.02578785249780368,
                -2.1450970159051725,
                -2.0494725647115044,
                -0.7516943517929451,
                -0.9480707089055994,
                1.829888229996477
            ]
        },
        {
            "positions": [
                -0.02647243521304232,
                -2.143203769399359,
                -2.027586169491186,
                -0.910490743504325,
                -1.0126226603192083,
                1.9665404173219345
            ]
        },
        {
            "positions": [
                -0.027157017928280958,
                -2.1413105228935456,
                -2.005699774270867,
                -1.069287135215705,
                -1.0771746117328174,
                2.103192604647391
            ]
        },
        {
            "positions": [
                -0.027841600643519593,
                -2.139417276387732,
                -1.9838133790505483,
                -1.2280835269270844,
                -1.1417265631464262,
                2.239844791972848
            ]
        },
        {
            "positions": [
                -0.028526183358758235,
                -2.1375240298819187,
                -1.9619269838302298,
                -1.386879918638464,
                -1.2062785145600352,
                2.376496979298305
            ]
        },
        {
            "positions": [
                -0.029210766073996874,
                -2.135630783376105,
                -1.940040588609911,
                -1.5456763103498439,
                -1.2708304659736442,
                2.513149166623762
            ]
        },
        {
            "positions": [
                -0.029895348789235512,
                -2.1337375368702913,
                -1.9181541933895923,
                -1.7044727020612234,
                -1.335382417387253,
                2.649801353949219
            ]
        },
        {
            "positions": [
                -0.03057993150447415,
                -2.131844290364478,
                -1.8962677981692737,
                -1.8632690937726029,
                -1.3999343688008619,
                2.786453541274676
            ]
        },
        {
            "positions": [
                -0.03126451421971279,
                -2.1299510438586644,
                -1.874381402948955,
                -2.022065485483983,
                -1.464486320214471,
                2.9231057286001327
            ]
        },
        {
            "positions": [
                -0.03194909693495143,
                -2.128057797352851,
                -1.8524950077286362,
                -2.1808618771953627,
                -1.52903827162808,
                3.0597579159255903
            ]
        },
        {
            "positions": [
                -0.03263367965019007,
                -2.1261645508470375,
                -1.8306086125083176,
                -2.3396582689067422,
                -1.5935902230416887,
                3.196410103251047
            ]
        }
    ]
}