{
    "goal": {
        "global_pose": {
            "orientation": {
                "w": 0.7031023502349854,
                "x": -0.7110244035720825,
                "y": 0.007748599164187908,
                "z": 0.005598929710686207
            },
            "position": {
                "x": 0.11585023208521307,
                "y": 0.44412534475326537,
                "z": 0.3711530566215515
            }
        },
        "name": "move_to_auspresseinheit_A"
    },
    "id": "LBKPIECE_move_to_auspresseinheit_A_6",
    "joint_names": [
        "shoulder_pan_joint",
        "shoulder_lift_joint",
        "elbow_joint",
        "wrist_1_joint",
        "wrist_2_joint",
        "wrist_3_joint"
    ],
    "metrics": {
        "cart_traj_len": 0.7203483708752523,
        "distance_elbow_joint": 0.4833160853730538,
        "distance_shoulder_lift_joint": 0.5309461230413943,
        "distance_shoulder_pan_joint": 1.0431214468704673,
        "distance_wrist_1_joint": 1.453457171648249,
        "distance_wrist_2_joint": 1.6552669955467079,
        "distance_wrist_3_joint": 0.05987010026427164,
        "smoothness": 1.270991916824984,
        "time": 2.8578722269999997,
        "traj_len": 2.2860397902801566,
        "weighted_distance": 2.907652367541148
    },
    "planner": "LBKPIECE",
    "start": {
        "state": {
            "elbow_joint": 2.4225747245308327,
            "shoulder_lift_joint": -1.373653427065438,
            "shoulder_pan_joint": -0.33786330853087027,
            "wrist_1_joint": -1.0288602302712604,
            "wrist_2_joint": 1.23302299562683,
            "wrist_3_joint": -3.094021725338297
        }
    },
    "waypoints": [
        {
            "positions": [
                -0.33786330853087027,
                -1.373653427065438,
                2.4225747245308327,
                -1.0288602302712604,
                1.23302299562683,
                -3.094021725338297
            ]
        },
        {
            "positions": [
                -0.2750219726787112,
                -1.400915256415452,
                2.3902325863147316,
                -0.9020327626675263,
                1.0961809438927304,
                -3.0935102107206083
            ]
        },
        {
            "positions": [
                -0.21218063682655214,
                -1.4281770857654659,
                2.3578904480986305,
                -0.7752052950637922,
                0.9593388921586307,
                -3.0929986961029194
            ]
        },
        {
            "positions": [
                -0.14933930097439307,
                -1.4554389151154798,
                2.3255483098825294,
                -0.6483778274600582,
                0.822496840424531,
                -3.0924871814852306
            ]
        },
        {
            "positions": [
                -0.08649796512223401,
                -1.4827007444654938,
                2.2932061716664283,
                -0.5215503598563241,
                0.6856547886904314,
                -3.0919756668675413
            ]
        },
        {
            "positions": [
                -0.023656629270074947,
                -1.5099625738155078,
                2.260864033450327,
                -0.39472289225259005,
                0.5488127369563318,
                -3.0914641522498525
            ]
        },
        {
            "positions": [
                0.03918470658208412,
                -1.5372244031655218,
                2.228521895234226,
                -0.2678954246488561,
                0.4119706852222321,
                -3.0909526376321637
            ]
        },
        {
            "positions": [
                0.10202604243424318,
                -1.5644862325155358,
                2.196179757018125,
                -0.14106795704512198,
                0.27512863348813243,
                -3.090441123014475
            ]
        },
        {
            "positions": [
                0.16486737828640222,
                -1.5917480618655497,
                2.163837618802024,
                -0.014240489441387956,
                0.13828658175403294,
                -3.089929608396786
            ]
        },
        {
            "positions": [
                0.25493250496193465,
                -1.6438899765724302,
                2.2012674487427315,
                -0.08738006124445066,
                0.23170834536635143,
                -3.099225938950579
            ]
        },
        {
            "positions": [
                0.3449976316374671,
                -1.6960318912793106,
                2.2386972786834387,
                -0.16051963304751335,
                0.3251301089786699,
                -3.108522269504373
            ]
        },
        {
            "positions": [
                0.43506275831299956,
                -1.748173805986191,
                2.2761271086241464,
                -0.23365920485057606,
                0.41855187259098836,
                -3.1178186000581665
            ]
        },
        {
            "positions": [
                0.525127884988532,
                -1.8003157206930713,
                2.313556938564854,
                -0.30679877665363875,
                0.5119736362033068,
                -3.1271149306119597
            ]
        },
        {
            "positions": [
                0.6151930116640645,
                -1.8524576353999518,
                2.350986768505561,
                -0.3799383484567015,
                0.6053953998156254,
                -3.136411261165753
            ]
        },
        {
            "positions": [
                0.7052581383395969,
                -1.9045995501068322,
                2.388416598446269,
                -0.4530779202597642,
                0.6988171634279439,
                -3.1457075917195465
            ]
        }
    ]
}