{
    "goal": {
        "global_pose": {
            "orientation": {
                "w": 0.005598929693374612,
                "x": 0.007748599140229565,
                "y": 0.7110244013736278,
                "z": -0.7031023480610252
            },
            "position": {
                "x": 0.1141497679147869,
                "y": -0.7141253447532654,
                "z": 0.3711530566215515
            }
        },
        "name": "move_to_auspresseinheit_B"
    },
    "id": "LBKPIECE_move_to_auspresseinheit_B_23",
    "joint_names": [
        "shoulder_pan_joint",
        "shoulder_lift_joint",
        "elbow_joint",
        "wrist_1_joint",
        "wrist_2_joint",
        "wrist_3_joint"
    ],
    "metrics": {
        "cart_traj_len": 0.5647533717832823,
        "distance_elbow_joint": 0.06578474955397873,
        "distance_shoulder_lift_joint": 0.29503662032994904,
        "distance_shoulder_pan_joint": 0.575543585832901,
        "distance_wrist_1_joint": 0.34048201999736416,
        "distance_wrist_2_joint": 1.0024124965169583,
        "distance_wrist_3_joint": 0.009919471515071887,
        "smoothness": 2.5376526478085547e-16,
        "time": 1.291130875,
        "traj_len": 1.5130032860989506,
        "weighted_distance": 1.910997750728841
    },
    "planner": "LBKPIECE",
    "start": {
        "state": {
            "elbow_joint": 2.019306165916698,
            "shoulder_lift_joint": -1.1220205098164344,
            "shoulder_pan_joint": -1.095207207618794,
            "wrist_1_joint": -0.8559671824921639,
            "wrist_2_joint": 0.47596387242952726,
            "wrist_3_joint": 3.159081874673826
        }
    },
    "waypoints": [
        {
            "positions": [
                -1.095207207618794,
                -1.1220205098164344,
                2.019306165916698,
                -0.8559671824921639,
                0.47596387242952726,
                3.159081874673826
            ]
        },
        {
            "positions": [
                -1.1911311385909442,
                -1.171193279871426,
                2.008342040991035,
                -0.7992201791592698,
                0.6430326218490203,
                3.1574286294213136
            ]
        },
        {
            "positions": [
                -1.2870550695630942,
                -1.2203660499264175,
                1.9973779160653717,
                -0.7424731758263758,
                0.8101013712685133,
                3.155775384168802
            ]
        },
        {
            "positions": [
                -1.3829790005352445,
                -1.2695388199814088,
                1.9864137911397086,
                -0.6857261724934818,
                0.9771701206880063,
                3.15412213891629
            ]
        },
        {
            "positions": [
                -1.4789029315073945,
                -1.3187115900364004,
                1.9754496662140455,
                -0.6289791691605877,
                1.1442388701074995,
                3.152468893663778
            ]
        },
        {
            "positions": [
                -1.574826862479545,
                -1.367884360091392,
                1.9644855412883824,
                -0.5722321658276937,
                1.3113076195269926,
                3.1508156484112657
            ]
        },
        {
            "positions": [
                -1.670750793451695,
                -1.4170571301463835,
                1.9535214163627193,
                -0.5154851624947997,
                1.4783763689464855,
                3.149162403158754
            ]
        }
    ]
}