{
    "goal": {
        "global_pose": {
            "orientation": {
                "w": 0.7047431493862688,
                "x": -0.7094548369677653,
                "y": 0.0024358444001904,
                "z": -0.0022348060817251984
            },
            "position": {
                "x": -0.39052492380142206,
                "y": 0.3671506643295288,
                "z": 0.19426114857196808
            }
        },
        "name": "move_to_magneteinheit_D"
    },
    "id": "LBKPIECE_move_to_magneteinheit_D_99",
    "joint_names": [
        "shoulder_pan_joint",
        "shoulder_lift_joint",
        "elbow_joint",
        "wrist_1_joint",
        "wrist_2_joint",
        "wrist_3_joint"
    ],
    "metrics": {
        "cart_traj_len": 4.302286137440177,
        "distance_elbow_joint": 3.6561906815387064,
        "distance_shoulder_lift_joint": 1.7649409594706573,
        "distance_shoulder_pan_joint": 3.0267326730816775,
        "distance_wrist_1_joint": 1.7723056497955012,
        "distance_wrist_2_joint": 0.3987340382271718,
        "distance_wrist_3_joint": 3.4137218492596464,
        "smoothness": 0.6424084578641674,
        "time": 3.548035542,
        "traj_len": 3.746014662461074,
        "weighted_distance": 4.7990737895885
    },
    "planner": "LBKPIECE",
    "start": {
        "state": {
            "elbow_joint": 0.7495348899011973,
            "shoulder_lift_joint": -0.6476975780737697,
            "shoulder_pan_joint": -2.711696901376276,
            "wrist_1_joint": -0.07506478080974305,
            "wrist_2_joint": 0.4329665971545858,
            "wrist_3_joint": 3.1361499051832524
        }
    },
    "waypoints": [
        {
            "positions": [
                -2.711696901376276,
                -0.6476975780737697,
                0.7495348899011973,
                -0.07506478080974305,
                0.4329665971545858,
                3.1361499051832524
            ]
        },
        {
            "positions": [
                -2.7121959356679604,
                -0.6722693614989452,
                0.7101230261396404,
                -0.08255985793367807,
                0.45065887796251947,
                3.1125843946269205
            ]
        },
        {
            "positions": [
                -2.7042728696864162,
                -0.7504260018654796,
                0.5829389271616225,
                -0.10084489640077378,
                0.5034898868853552,
                3.0326788861175116
            ]
        },
        {
            "positions": [
                -2.6030496979007363,
                -0.7944189087757204,
                0.4880378833639797,
                -0.05197869911768412,
                0.5018796769699757,
                2.9389678178534098
            ]
        },
        {
            "positions": [
                -2.5018265261150567,
                -0.8384118156859613,
                0.3931368395663369,
                -0.0031125018345944666,
                0.5002694670545961,
                2.845256749589308
            ]
        },
        {
            "positions": [
                -2.4006033543293768,
                -0.8824047225962022,
                0.2982357957686941,
                0.04575369544849518,
                0.4986592571392165,
                2.751545681325206
            ]
        },
        {
            "positions": [
                -2.2993801825436972,
                -0.9263976295064431,
                0.20333475197105122,
                0.09461989273158485,
                0.4970490472238369,
                2.6578346130611044
            ]
        },
        {
            "positions": [
                -2.1981570107580173,
                -0.9703905364166839,
                0.10843370817340836,
                0.1434860900146745,
                0.49543883730845734,
                2.5641235447970026
            ]
        },
        {
            "positions": [
                -2.0969338389723378,
                -1.0143834433269248,
                0.013532664375765613,
                0.19235228729776416,
                0.49382862739307776,
                2.4704124765329007
            ]
        },
        {
            "positions": [
                -1.9957106671866578,
                -1.0583763502371657,
                -0.08136837942187736,
                0.24121848458085388,
                0.49221841747769823,
                2.376701408268799
            ]
        },
        {
            "positions": [
                -1.894487495400978,
                -1.1023692571474066,
                -0.1762694232195201,
                0.2900846818639435,
                0.49060820756231865,
                2.282990340004697
            ]
        },
        {
            "positions": [
                -1.7932643236152983,
                -1.1463621640576473,
                -0.27117046701716285,
                0.33895087914703315,
                0.4889979976469391,
                2.1892792717405953
            ]
        },
        {
            "positions": [
                -1.6920411518296186,
                -1.1903550709678883,
                -0.3660715108148058,
                0.3878170764301228,
                0.4873877877315595,
                2.0955682034764935
            ]
        },
        {
            "positions": [
                -1.5908179800439388,
                -1.2343479778781292,
                -0.46097255461244857,
                0.43668327371321247,
                0.4857775778161799,
                2.0018571352123917
            ]
        },
        {
            "positions": [
                -1.489594808258259,
                -1.2783408847883702,
                -0.5558735984100913,
                0.4855494709963021,
                0.48416736790080034,
                1.9081460669482901
            ]
        },
        {
            "positions": [
                -1.388371636472579,
                -1.322333791698611,
                -0.6507746422077343,
                0.5344156682793918,
                0.48255715798542076,
                1.8144349986841883
            ]
        },
        {
            "positions": [
                -1.2871484646868994,
                -1.366326698608852,
                -0.7456756860053773,
                0.5832818655624815,
                0.4809469480700412,
                1.7207239304200865
            ]
        },
        {
            "positions": [
                -1.1859252929012196,
                -1.4103196055190925,
                -0.8405767298030198,
                0.632148062845571,
                0.4793367381546616,
                1.6270128621559847
            ]
        },
        {
            "positions": [
                -1.0847021211155399,
                -1.4543125124293335,
                -0.9354777736006628,
                0.6810142601286607,
                0.477726528239282,
                1.533301793891883
            ]
        },
        {
            "positions": [
                -0.9834789493298599,
                -1.4983054193395744,
                -1.0303788173983057,
                0.7298804574117504,
                0.47611631832390244,
                1.4395907256277811
            ]
        },
        {
            "positions": [
                -0.8822557775441804,
                -1.5422983262498153,
                -1.1252798611959482,
                0.7787466546948401,
                0.47450610840852286,
                1.3458796573636795
            ]
        },
        {
            "positions": [
                -0.7810326057585006,
                -1.5862912331600563,
                -1.2201809049935912,
                0.8276128519779297,
                0.4728958984931433,
                1.2521685890995775
            ]
        },
        {
            "positions": [
                -0.6798094339728209,
                -1.6302841400702972,
                -1.3150819487912342,
                0.8764790492610194,
                0.47128568857776376,
                1.1584575208354757
            ]
        },
        {
            "positions": [
                -0.5785862621871409,
                -1.674277046980538,
                -1.4099829925888767,
                0.925345246544109,
                0.4696754786623842,
                1.0647464525713741
            ]
        },
        {
            "positions": [
                -0.4773630904014614,
                -1.7182699538907789,
                -1.5048840363865197,
                0.9742114438271987,
                0.4680652687470046,
                0.9710353843072723
            ]
        },
        {
            "positions": [
                -0.37613991861578144,
                -1.7622628608010198,
                -1.5997850801841627,
                1.0230776411102884,
                0.466455058831625,
                0.8773243160431705
            ]
        },
        {
            "positions": [
                -0.2749167468301019,
                -1.8062557677112605,
                -1.6946861239818052,
                1.071943838393378,
                0.46484484891624545,
                0.7836132477790687
            ]
        },
        {
            "positions": [
                -0.1736935750444218,
                -1.8502486746215014,
                -1.7895871677794482,
                1.1208100356764676,
                0.46323463900086587,
                0.6899021795149668
            ]
        },
        {
            "positions": [
                -0.13965549732024135,
                -1.917188325602199,
                -1.915568376367002,
                1.1467243353665166,
                0.45981645882466493,
                0.6179557181523493
            ]
        },
        {
            "positions": [
                -0.10561741959606089,
                -1.9841279765828967,
                -2.0415495849545557,
                1.1726386350565656,
                0.456398278648464,
                0.5460092567897318
            ]
        },
        {
            "positions": [
                -0.07157934187188043,
                -2.0510676275635946,
                -2.16753079354211,
                1.1985529347466148,
                0.45298009847226306,
                0.47406279542711427
            ]
        },
        {
            "positions": [
                -0.03754126414769998,
                -2.118007278544292,
                -2.2935120021296638,
                1.2244672344366638,
                0.4495619182960621,
                0.40211633406449676
            ]
        },
        {
            "positions": [
                -0.011897311143861278,
                -2.174611191064914,
                -2.382987315025969,
                1.1992863895954122,
                0.38719480615015067,
                0.2779669748787575
            ]
        },
        {
            "positions": [
                0.013746641859977426,
                -2.2312151035855363,
                -2.4724626279222743,
                1.1741055447541604,
                0.3248276940042393,
                0.15381761569301822
            ]
        },
        {
            "positions": [
                0.03939059486381613,
                -2.2878190161061585,
                -2.5619379408185794,
                1.1489246999129086,
                0.2624605818583279,
                0.029668256507278945
            ]
        },
        {
            "positions": [
                0.06503454786765483,
                -2.3444229286267806,
                -2.6514132537148845,
                1.123743855071657,
                0.20009346971241643,
                -0.09448110267846034
            ]
        },
        {
            "positions": [
                -0.01796650388380447,
                -2.3216843923208983,
                -2.5663324077406764,
                1.2305738630723322,
                0.1918220259379286,
                -0.033450822212482856
            ]
        },
        {
            "positions": [
                -0.10096755563526377,
                -2.2989458560150164,
                -2.481251561766468,
                1.3374038710730074,
                0.18355058216344078,
                0.02757945825349463
            ]
        },
        {
            "positions": [
                -0.1839686073867231,
                -2.276207319709134,
                -2.39617071579226,
                1.4442338790736826,
                0.17527913838895295,
                0.08860973871947211
            ]
        }
    ]
}