{
    "goal": {
        "global_pose": {
            "orientation": {
                "w": 0.7047431493862688,
                "x": -0.7094548369677653,
                "y": 0.0024358444001904,
                "z": -0.0022348060817251984
            },
            "position": {
                "x": -0.39052492380142206,
                "y": 0.3671506643295288,
                "z": 0.19426114857196808
            }
        },
        "name": "move_to_magneteinheit_D"
    },
    "id": "LBKPIECE_move_to_magneteinheit_D_18",
    "joint_names": [
        "shoulder_pan_joint",
        "shoulder_lift_joint",
        "elbow_joint",
        "wrist_1_joint",
        "wrist_2_joint",
        "wrist_3_joint"
    ],
    "metrics": {
        "cart_traj_len": 4.315829555203696,
        "distance_elbow_joint": 3.5740134274193998,
        "distance_shoulder_lift_joint": 1.105071567449477,
        "distance_shoulder_pan_joint": 3.0887942402644275,
        "distance_wrist_1_joint": 2.22008837491879,
        "distance_wrist_2_joint": 1.0876851668670922,
        "distance_wrist_3_joint": 6.185269738897677,
        "smoothness": 0.27260038613038545,
        "time": 1.993050932,
        "traj_len": 4.154626639761613,
        "weighted_distance": 5.739271341851516
    },
    "planner": "LBKPIECE",
    "start": {
        "state": {
            "elbow_joint": 0.7495348899011973,
            "shoulder_lift_joint": -0.6476975780737697,
            "shoulder_pan_joint": -2.711696901376276,
            "wrist_1_joint": -0.07506478080974305,
            "wrist_2_joint": 0.4329665971545858,
            "wrist_3_joint": 3.1361499051832524
        }
    },
    "waypoints": [
        {
            "positions": [
                -2.711696901376276,
                -0.6476975780737697,
                0.7495348899011973,
                -0.07506478080974305,
                0.4329665971545858,
                3.1361499051832524
            ]
        },
        {
            "positions": [
                -2.717066637135416,
                -0.6882254014412929,
                0.8045160009554324,
                -0.08280049780343969,
                0.46801794415236886,
                2.9077204945763144
            ]
        },
        {
            "positions": [
                -2.7224363728945553,
                -0.7287532248088159,
                0.8594971120096676,
                -0.09053621479713635,
                0.503069291150152,
                2.679291083969376
            ]
        },
        {
            "positions": [
                -2.727806108653695,
                -0.769281048176339,
                0.9144782230639027,
                -0.09827193179083299,
                0.538120638147935,
                2.450861673362438
            ]
        },
        {
            "positions": [
                -2.7240756066838885,
                -0.8002774844446061,
                0.9507471893117037,
                -0.10440772651549987,
                0.558447226216582,
                2.2869028086358054
            ]
        },
        {
            "positions": [
                -2.720345104714082,
                -0.8312739207128732,
                0.9870161555595045,
                -0.11054352124016675,
                0.5787738142852292,
                2.122943943909173
            ]
        },
        {
            "positions": [
                -2.6425809873917285,
                -0.8487195284635984,
                0.9006503511199195,
                -0.16757181581054453,
                0.5550789708245502,
                1.9944135295690657
            ]
        },
        {
            "positions": [
                -2.5648168700693756,
                -0.8661651362143238,
                0.8142845466803346,
                -0.2246001103809223,
                0.5313841273638711,
                1.8658831152289586
            ]
        },
        {
            "positions": [
                -2.4870527527470223,
                -0.883610743965049,
                0.7279187422407496,
                -0.28162840495130004,
                0.507689283903192,
                1.7373527008888514
            ]
        },
        {
            "positions": [
                -2.4092886354246694,
                -0.9010563517157743,
                0.6415529378011646,
                -0.3386566995216779,
                0.48399444044251294,
                1.6088222865487443
            ]
        },
        {
            "positions": [
                -2.331524518102316,
                -0.9185019594664995,
                0.5551871333615794,
                -0.39568499409205565,
                0.46029959698183387,
                1.4802918722086371
            ]
        },
        {
            "positions": [
                -2.253760400779963,
                -0.9359475672172248,
                0.4688213289219946,
                -0.4527132886624334,
                0.4366047535211548,
                1.35176145786853
            ]
        },
        {
            "positions": [
                -2.17599628345761,
                -0.9533931749679501,
                0.3824555244824095,
                -0.5097415832328112,
                0.4129099100604757,
                1.2232310435284228
            ]
        },
        {
            "positions": [
                -2.098232166135257,
                -0.9708387827186753,
                0.29608972004282463,
                -0.5667698778031889,
                0.38921506659979666,
                1.0947006291883157
            ]
        },
        {
            "positions": [
                -2.0204680488129036,
                -0.9882843904694005,
                0.20972391560323955,
                -0.6237981723735667,
                0.3655202231391176,
                0.9661702148482085
            ]
        },
        {
            "positions": [
                -1.9427039314905508,
                -1.0057299982201258,
                0.12335811116365447,
                -0.6808264669439446,
                0.3418253796784385,
                0.8376398005081014
            ]
        },
        {
            "positions": [
                -1.8649398141681974,
                -1.0231756059708512,
                0.0369923067240695,
                -0.7378547615143223,
                0.31813053621775944,
                0.709109386167994
            ]
        },
        {
            "positions": [
                -1.7871756968458445,
                -1.0406212137215765,
                -0.04937349771551536,
                -0.7948830560847,
                0.29443569275708037,
                0.5805789718278871
            ]
        },
        {
            "positions": [
                -1.7094115795234912,
                -1.0580668214723017,
                -0.13573930215510033,
                -0.8519113506550778,
                0.2707408492964013,
                0.45204855748777995
            ]
        },
        {
            "positions": [
                -1.631647462201138,
                -1.075512429223027,
                -0.22210510659468552,
                -0.9089396452254556,
                0.24704600583572223,
                0.3235181431476728
            ]
        },
        {
            "positions": [
                -1.553883344878785,
                -1.0929580369737522,
                -0.3084709110342705,
                -0.9659679397958334,
                0.22335116237504316,
                0.19498772880756565
            ]
        },
        {
            "positions": [
                -1.4761192275564319,
                -1.1104036447244774,
                -0.39483671547385524,
                -1.0229962343662111,
                0.19965631891436408,
                0.0664573144674585
            ]
        },
        {
            "positions": [
                -1.3983551102340788,
                -1.1278492524752026,
                -0.48120251991344043,
                -1.0800245289365888,
                0.175961475453685,
                -0.06207309987264864
            ]
        },
        {
            "positions": [
                -1.3205909929117257,
                -1.145294860225928,
                -0.5675683243530254,
                -1.1370528235069668,
                0.15226663199300594,
                -0.1906035142127558
            ]
        },
        {
            "positions": [
                -1.2428268755893725,
                -1.1627404679766533,
                -0.6539341287926104,
                -1.1940811180773445,
                0.12857178853232687,
                -0.31913392855286293
            ]
        },
        {
            "positions": [
                -1.1650627582670194,
                -1.1801860757273785,
                -0.7402999332321956,
                -1.2511094126477222,
                0.1048769450716478,
                -0.4476643428929701
            ]
        },
        {
            "positions": [
                -1.087298640944666,
                -1.1976316834781038,
                -0.8266657376717805,
                -1.3081377072181,
                0.08118210161096867,
                -0.5761947572330772
            ]
        },
        {
            "positions": [
                -1.009534523622313,
                -1.215077291228829,
                -0.9130315421113655,
                -1.3651660017884777,
                0.057487258150289655,
                -0.7047251715731848
            ]
        },
        {
            "positions": [
                -0.9317704062999601,
                -1.2325228989795542,
                -0.9993973465509502,
                -1.4221942963588554,
                0.033792414689610584,
                -0.8332555859132911
            ]
        },
        {
            "positions": [
                -0.854006288977607,
                -1.2499685067302795,
                -1.0857631509905352,
                -1.4792225909292331,
                0.010097571228931512,
                -0.9617860002533987
            ]
        },
        {
            "positions": [
                -0.7762421716552539,
                -1.2674141144810047,
                -1.1721289554301202,
                -1.5362508854996109,
                -0.01359727223174756,
                -1.0903164145935058
            ]
        },
        {
            "positions": [
                -0.6984780543329006,
                -1.28485972223173,
                -1.2584947598697052,
                -1.593279180069989,
                -0.03729211569242663,
                -1.218846828933613
            ]
        },
        {
            "positions": [
                -0.6207139370105477,
                -1.3023053299824554,
                -1.3448605643092906,
                -1.6503074746403668,
                -0.0609869591531057,
                -1.34737724327372
            ]
        },
        {
            "positions": [
                -0.5429498196881943,
                -1.3197509377331806,
                -1.4312263687488755,
                -1.7073357692107445,
                -0.08468180261378477,
                -1.4759076576138273
            ]
        },
        {
            "positions": [
                -0.46518570236584145,
                -1.3371965454839059,
                -1.5175921731884605,
                -1.7643640637811222,
                -0.10837664607446384,
                -1.6044380719539344
            ]
        },
        {
            "positions": [
                -0.3874215850434881,
                -1.3546421532346313,
                -1.6039579776280455,
                -1.8213923583515,
                -0.13207148953514292,
                -1.7329684862940415
            ]
        },
        {
            "positions": [
                -0.3096574677211348,
                -1.3720877609853566,
                -1.6903237820676305,
                -1.8784206529218777,
                -0.155766332995822,
                -1.8614989006341491
            ]
        },
        {
            "positions": [
                -0.2318933503987819,
                -1.3895333687360818,
                -1.776689586507215,
                -1.9354489474922554,
                -0.17946117645650106,
                -1.9900293149742558
            ]
        },
        {
            "positions": [
                -0.154129233076429,
                -1.406978976486807,
                -1.8630553909468004,
                -1.992477242062633,
                -0.20315601991718013,
                -2.1185597293143625
            ]
        },
        {
            "positions": [
                -0.07636511575407567,
                -1.4244245842375323,
                -1.9494211953863854,
                -2.049505536633011,
                -0.2268508633778592,
                -2.24709014365447
            ]
        },
        {
            "positions": [
                0.0013990015682772139,
                -1.4418701919882575,
                -2.0357869998259703,
                -2.106533831203389,
                -0.2505457068385383,
                -2.375620557994577
            ]
        },
        {
            "positions": [
                0.07916311889063045,
                -1.4593157997389827,
                -2.1221528042655553,
                -2.1635621257737667,
                -0.27424055029921734,
                -2.504150972334684
            ]
        },
        {
            "positions": [
                0.04010807152079616,
                -1.5207187473663804,
                -2.1967534216017452,
                -2.203169856379906,
                -0.2538411576789175,
                -2.6328113736587637
            ]
        },
        {
            "positions": [
                0.0010530241509618676,
                -1.5821216949937777,
                -2.2713540389379347,
                -2.2427775869860453,
                -0.2334417650586177,
                -2.7614717749828435
            ]
        },
        {
            "positions": [
                -0.03800202321887244,
                -1.6435246426211754,
                -2.3459546562741247,
                -2.2823853175921847,
                -0.21304237243831783,
                -2.890132176306923
            ]
        },
        {
            "positions": [
                -0.1611957499000766,
                -1.7352805994499816,
                -2.3478083333803923,
                -2.2729235307646043,
                -0.18933873333219534,
                -3.024229711518166
            ]
        },
        {
            "positions": [
                -0.18655268655205287,
                -1.7527691455232468,
                -2.3461006605591965,
                -2.2696174794558366,
                -0.18537696514721513,
                -3.049119833714428
            ]
        }
    ]
}