{
    "goal": {
        "global_pose": {
            "orientation": {
                "w": 0.005598929693374612,
                "x": 0.007748599140229565,
                "y": 0.7110244013736278,
                "z": -0.7031023480610252
            },
            "position": {
                "x": 0.1141497679147869,
                "y": -0.7141253447532654,
                "z": 0.3711530566215515
            }
        },
        "name": "move_to_auspresseinheit_B"
    },
    "id": "LBKPIECE_move_to_auspresseinheit_B_69",
    "joint_names": [
        "shoulder_pan_joint",
        "shoulder_lift_joint",
        "elbow_joint",
        "wrist_1_joint",
        "wrist_2_joint",
        "wrist_3_joint"
    ],
    "metrics": {
        "cart_traj_len": 0.5654395981506529,
        "distance_elbow_joint": 0.06133690270758607,
        "distance_shoulder_lift_joint": 0.29570699591823013,
        "distance_shoulder_pan_joint": 0.579161461375195,
        "distance_wrist_1_joint": 0.3207114080877236,
        "distance_wrist_2_joint": 0.9858577879213728,
        "distance_wrist_3_joint": 0.006003896986864099,
        "smoothness": 5.075305295617109e-16,
        "time": 1.286405246,
        "traj_len": 1.4995927623848322,
        "weighted_distance": 1.8887444091194012
    },
    "planner": "LBKPIECE",
    "start": {
        "state": {
            "elbow_joint": 2.019306165916698,
            "shoulder_lift_joint": -1.1220205098164344,
            "shoulder_pan_joint": -1.095207207618794,
            "wrist_1_joint": -0.8559671824921639,
            "wrist_2_joint": 0.47596387242952726,
            "wrist_3_joint": 3.159081874673826
        }
    },
    "waypoints": [
        {
            "positions": [
                -1.095207207618794,
                -1.1220205098164344,
                2.019306165916698,
                -0.8559671824921639,
                0.47596387242952726,
                3.159081874673826
            ]
        },
        {
            "positions": [
                -1.1917341178479932,
                -1.1713050091361394,
                2.009083348798767,
                -0.8025152811442099,
                0.640273503749756,
                3.1580812251760153
            ]
        },
        {
            "positions": [
                -1.2882610280771922,
                -1.2205895084558445,
                1.9988605316808359,
                -0.749063379796256,
                0.8045831350699848,
                3.1570805756782043
            ]
        },
        {
            "positions": [
                -1.3847879383063915,
                -1.2698740077755495,
                1.988637714562905,
                -0.6956114784483021,
                0.9688927663902136,
                3.156079926180394
            ]
        },
        {
            "positions": [
                -1.4813148485355905,
                -1.3191585070952545,
                1.978414897444974,
                -0.6421595771003481,
                1.1332023977104424,
                3.1550792766825833
            ]
        },
        {
            "positions": [
                -1.57784175876479,
                -1.3684430064149595,
                1.968192080327043,
                -0.5887076757523941,
                1.2975120290306712,
                3.1540786271847723
            ]
        },
        {
            "positions": [
                -1.674368668993989,
                -1.4177275057346646,
                1.957969263209112,
                -0.5352557744044403,
                1.4618216603509,
                3.1530779776869617
            ]
        }
    ]
}