{
    "goal": {
        "global_pose": {
            "orientation": {
                "w": -0.00223480608172531,
                "x": 0.0024358444001904467,
                "y": 0.7094548369677653,
                "z": -0.704743149386269
            },
            "position": {
                "x": 0.6205249238014221,
                "y": -0.6371506643295288,
                "z": 0.19426114857196808
            }
        },
        "name": "move_to_magneteinheit_B"
    },
    "id": "LBKPIECE_move_to_magneteinheit_B_127",
    "joint_names": [
        "shoulder_pan_joint",
        "shoulder_lift_joint",
        "elbow_joint",
        "wrist_1_joint",
        "wrist_2_joint",
        "wrist_3_joint"
    ],
    "metrics": {
        "cart_traj_len": 3.5864691365314982,
        "distance_elbow_joint": 5.236576006515498,
        "distance_shoulder_lift_joint": 2.068974826801525,
        "distance_shoulder_pan_joint": 2.3361421952845016,
        "distance_wrist_1_joint": 1.9700678648823855,
        "distance_wrist_2_joint": 4.827023682973416,
        "distance_wrist_3_joint": 6.824299613736015,
        "smoothness": 0.479591134673566,
        "time": 2.532848799,
        "traj_len": 4.823181956985796,
        "weighted_distance": 6.611261223512589
    },
    "planner": "LBKPIECE",
    "start": {
        "state": {
            "elbow_joint": 2.3935871308073637,
            "shoulder_lift_joint": -1.9085141043777403,
            "shoulder_pan_joint": 0.7066247067284167,
            "wrist_1_joint": -0.46782909355067076,
            "wrist_2_joint": 0.7096259085804283,
            "wrist_3_joint": -3.1358149275257428
        }
    },
    "waypoints": [
        {
            "positions": [
                0.7066247067284167,
                -1.9085141043777403,
                2.3935871308073637,
                -0.46782909355067076,
                0.7096259085804283,
                -3.1358149275257428
            ]
        },
        {
            "positions": [
                0.6608260347269722,
                -1.93554841500957,
                2.4455229408271686,
                -0.5156620830401688,
                0.7687583171795913,
                -3.024786325553549
            ]
        },
        {
            "positions": [
                0.6150273627255276,
                -1.9625827256413997,
                2.4974587508469734,
                -0.5634950725296668,
                0.8278907257787542,
                -2.913757723581356
            ]
        },
        {
            "positions": [
                0.5692286907240831,
                -1.9896170362732295,
                2.5493945608667783,
                -0.6113280620191648,
                0.8870231343779172,
                -2.802729121609163
            ]
        },
        {
            "positions": [
                0.5234300187226386,
                -2.0166513469050593,
                2.601330370886583,
                -0.6591610515086628,
                0.9461555429770803,
                -2.6917005196369694
            ]
        },
        {
            "positions": [
                0.5807027220197569,
                -2.107524982849112,
                2.5894254379354624,
                -0.7467136956683684,
                0.8684793803191968,
                -2.719763513691068
            ]
        },
        {
            "positions": [
                0.6379754253168752,
                -2.198398618793165,
                2.5775205049843417,
                -0.8342663398280742,
                0.7908032176613133,
                -2.7478265077451662
            ]
        },
        {
            "positions": [
                0.6952481286139935,
                -2.289272254737218,
                2.565615572033221,
                -0.9218189839877798,
                0.7131270550034299,
                -2.7758895017992646
            ]
        },
        {
            "positions": [
                0.7525208319111119,
                -2.3801458906812707,
                2.5537106390821003,
                -1.0093716281474856,
                0.6354508923455464,
                -2.803952495853363
            ]
        },
        {
            "positions": [
                0.8097935352082302,
                -2.4710195266253234,
                2.5418057061309796,
                -1.0969242723071913,
                0.5577747296876627,
                -2.832015489907461
            ]
        },
        {
            "positions": [
                0.8670662385053485,
                -2.561893162569376,
                2.529900773179859,
                -1.184476916466897,
                0.4800985670297794,
                -2.8600784839615594
            ]
        },
        {
            "positions": [
                0.9243389418024668,
                -2.6527667985134293,
                2.517995840228738,
                -1.2720295606266028,
                0.4024224043718958,
                -2.888141478015658
            ]
        },
        {
            "positions": [
                0.9816116450995851,
                -2.743640434457482,
                2.5060909072776174,
                -1.3595822047863084,
                0.32474624171401245,
                -2.916204472069756
            ]
        },
        {
            "positions": [
                1.0388843483967034,
                -2.834514070401535,
                2.4941859743264967,
                -1.447134848946014,
                0.24707007905612893,
                -2.9442674661238546
            ]
        },
        {
            "positions": [
                1.069757784306496,
                -2.8089635152366825,
                2.3799964186631355,
                -1.4489459613781284,
                0.18489467611751945,
                -2.793181066056715
            ]
        },
        {
            "positions": [
                1.1006312202162887,
                -2.7834129600718303,
                2.265806862999774,
                -1.4507570738102427,
                0.12271927317890995,
                -2.6420946659895748
            ]
        },
        {
            "positions": [
                1.1315046561260813,
                -2.757862404906978,
                2.1516173073364127,
                -1.4525681862423567,
                0.060543870240300446,
                -2.491008265922435
            ]
        },
        {
            "positions": [
                1.1623780920358737,
                -2.732311849742126,
                2.037427751673051,
                -1.454379298674471,
                -0.0016315326983090406,
                -2.3399218658552954
            ]
        },
        {
            "positions": [
                1.1932515279456664,
                -2.706761294577274,
                1.9232381960096898,
                -1.4561904111065853,
                -0.06380693563691853,
                -2.1888354657881557
            ]
        },
        {
            "positions": [
                1.224124963855459,
                -2.6812107394124216,
                1.8090486403463284,
                -1.4580015235386996,
                -0.12598233857552804,
                -2.0377490657210156
            ]
        },
        {
            "positions": [
                1.2549983997652516,
                -2.6556601842475693,
                1.694859084682967,
                -1.4598126359708137,
                -0.18815774151413756,
                -1.8866626656538756
            ]
        },
        {
            "positions": [
                1.2858718356750443,
                -2.630109629082717,
                1.5806695290196058,
                -1.461623748402928,
                -0.250333144452747,
                -1.735576265586736
            ]
        },
        {
            "positions": [
                1.316745271584837,
                -2.604559073917865,
                1.4664799733562444,
                -1.4634348608350423,
                -0.31250854739135653,
                -1.584489865519596
            ]
        },
        {
            "positions": [
                1.3476187074946293,
                -2.5790085187530125,
                1.352290417692883,
                -1.4652459732671566,
                -0.374683950329966,
                -1.4334034654524563
            ]
        },
        {
            "positions": [
                1.3784921434044222,
                -2.5534579635881602,
                1.2381008620295215,
                -1.4670570856992706,
                -0.43685935326857556,
                -1.2823170653853164
            ]
        },
        {
            "positions": [
                1.4093655793142146,
                -2.5279074084233084,
                1.12391130636616,
                -1.468868198131385,
                -0.499034756207185,
                -1.1312306653181765
            ]
        },
        {
            "positions": [
                1.4402390152240072,
                -2.502356853258456,
                1.0097217507027987,
                -1.4706793105634992,
                -0.5612101591457945,
                -0.9801442652510366
            ]
        },
        {
            "positions": [
                1.4711124511337998,
                -2.476806298093604,
                0.8955321950394373,
                -1.4724904229956135,
                -0.623385562084404,
                -0.8290578651838967
            ]
        },
        {
            "positions": [
                1.5019858870435925,
                -2.4512557429287516,
                0.7813426393760761,
                -1.4743015354277278,
                -0.6855609650230134,
                -0.677971465116757
            ]
        },
        {
            "positions": [
                1.5328593229533851,
                -2.4257051877638993,
                0.6671530837127146,
                -1.4761126478598419,
                -0.7477363679616229,
                -0.5268850650496173
            ]
        },
        {
            "positions": [
                1.5637327588631775,
                -2.400154632599047,
                0.5529635280493532,
                -1.4779237602919562,
                -0.8099117709002326,
                -0.37579866498247716
            ]
        },
        {
            "positions": [
                1.5946061947729702,
                -2.3746040774341948,
                0.43877397238599203,
                -1.4797348727240704,
                -0.872087173838842,
                -0.22471226491533747
            ]
        },
        {
            "positions": [
                1.6254796306827628,
                -2.349053522269343,
                0.3245844167226304,
                -1.4815459851561847,
                -0.9342625767774515,
                -0.07362586484819778
            ]
        },
        {
            "positions": [
                1.6563530665925554,
                -2.3235029671044907,
                0.2103948610592692,
                -1.4833570975882988,
                -0.996437979716061,
                0.07746053521894192
            ]
        },
        {
            "positions": [
                1.687226502502348,
                -2.2979524119396384,
                0.09620530539590755,
                -1.485168210020413,
                -1.0586133826546704,
                0.22854693528608205
            ]
        },
        {
            "positions": [
                1.7180999384121407,
                -2.272401856774786,
                -0.01798425026745365,
                -1.4869793224525274,
                -1.12078878559328,
                0.37963333535322175
            ]
        },
        {
            "positions": [
                1.7489733743219333,
                -2.246851301609934,
                -0.1321738059308153,
                -1.4887904348846417,
                -1.1829641885318896,
                0.5307197354203619
            ]
        },
        {
            "positions": [
                1.7798468102317258,
                -2.2213007464450816,
                -0.2463633615941765,
                -1.490601547316756,
                -1.245139591470499,
                0.6818061354875016
            ]
        },
        {
            "positions": [
                1.8107202461415186,
                -2.1957501912802293,
                -0.36055291725753813,
                -1.49241265974887,
                -1.3073149944091085,
                0.8328925355546417
            ]
        },
        {
            "positions": [
                1.841593682051311,
                -2.170199636115377,
                -0.4747424729208993,
                -1.4942237721809843,
                -1.3694903973477182,
                0.9839789356217814
            ]
        },
        {
            "positions": [
                1.8724671179611039,
                -2.1446490809505248,
                -0.588932028584261,
                -1.4960348846130986,
                -1.4316658002863276,
                1.1350653356889215
            ]
        },
        {
            "positions": [
                1.9033405538708963,
                -2.119098525785673,
                -0.7031215842476222,
                -1.497845997045213,
                -1.493841203224937,
                1.2861517357560612
            ]
        },
        {
            "positions": [
                1.934213989780689,
                -2.09354797062082,
                -0.8173111399109838,
                -1.499657109477327,
                -1.5560166061635465,
                1.437238135823201
            ]
        },
        {
            "positions": [
                1.9650874256904816,
                -2.0679974154559684,
                -0.9315006955743446,
                -1.5014682219094413,
                -1.618192009102156,
                1.5883245358903406
            ]
        },
        {
            "positions": [
                1.995960861600274,
                -2.042446860291116,
                -1.0456902512377062,
                -1.5032793343415556,
                -1.6803674120407655,
                1.7394109359574803
            ]
        },
        {
            "positions": [
                2.026834297510067,
                -2.016896305126264,
                -1.1598798069010674,
                -1.5050904467736699,
                -1.742542814979375,
                1.89049733602462
            ]
        },
        {
            "positions": [
                2.0577077334198592,
                -1.9913457499614116,
                -1.274069362564429,
                -1.506901559205784,
                -1.8047182179179846,
                2.0415837360917606
            ]
        },
        {
            "positions": [
                2.088581169329652,
                -1.9657951947965595,
                -1.3882589182277902,
                -1.5087126716378982,
                -1.866893620856594,
                2.1926701361589003
            ]
        },
        {
            "positions": [
                2.1194546052394445,
                -1.9402446396317072,
                -1.5024484738911519,
                -1.5105237840700125,
                -1.9290690237952033,
                2.3437565362260404
            ]
        },
        {
            "positions": [
                2.164013814867697,
                -1.9394400168448547,
                -1.601395042027715,
                -1.5375277638178797,
                -1.9921382148388127,
                2.4545015161393735
            ]
        },
        {
            "positions": [
                2.2085730244959496,
                -1.9386353940580023,
                -1.700341610164278,
                -1.5645317435657469,
                -2.055207405882422,
                2.5652464960527066
            ]
        },
        {
            "positions": [
                2.2009099582430003,
                -1.9570896290832582,
                -1.9305272570751266,
                -1.6116044949727202,
                -2.026245747388098,
                2.540540122849616
            ]
        },
        {
            "positions": [
                2.265982464196805,
                -1.9724761248413065,
                -1.958177515384003,
                -1.7179603866488125,
                -1.9477235357288547,
                2.5728580801395773
            ]
        },
        {
            "positions": [
                2.3310549701506105,
                -1.9878626205993548,
                -1.9858277736928798,
                -1.8243162783249045,
                -1.8692013240696115,
                2.6051760374295387
            ]
        },
        {
            "positions": [
                2.3961274761044153,
                -2.003249116357403,
                -2.0134780320017565,
                -1.9306721700009968,
                -1.7906791124103683,
                2.6374939947195
            ]
        },
        {
            "positions": [
                2.46119998205822,
                -2.0186356121154514,
                -2.041128290310633,
                -2.037028061677089,
                -1.712156900751125,
                2.6698119520094616
            ]
        },
        {
            "positions": [
                2.4880168280469563,
                -2.0367981718770256,
                -2.016033431583179,
                -2.090125692048976,
                -1.5850566302617053,
                2.7168308536820343
            ]
        },
        {
            "positions": [
                2.514833674035693,
                -2.0549607316386,
                -1.9909385728557258,
                -2.1432233224208628,
                -1.4579563597722855,
                2.7638497553546064
            ]
        },
        {
            "positions": [
                2.5392032939456546,
                -2.0767558727808666,
                -1.9349078415583667,
                -2.1923355950895616,
                -1.2926430175044314,
                2.8255311372672254
            ]
        },
        {
            "positions": [
                2.5635729138556163,
                -2.0985510139231334,
                -1.8788771102610076,
                -2.2414478677582608,
                -1.1273296752365773,
                2.8872125191798443
            ]
        },
        {
            "positions": [
                2.5879425337655784,
                -2.1203461550654,
                -1.8228463789636487,
                -2.2905601404269595,
                -0.9620163329687232,
                2.9488939010924633
            ]
        },
        {
            "positions": [
                2.61231215367554,
                -2.142141296207667,
                -1.7668156476662895,
                -2.3396724130956583,
                -0.7967029907008693,
                3.0105752830050823
            ]
        },
        {
            "positions": [
                2.6366817735855017,
                -2.1639364373499337,
                -1.7107849163689304,
                -2.3887846857643575,
                -0.6313896484330151,
                3.072256664917701
            ]
        },
        {
            "positions": [
                2.6610513934954634,
                -2.1857315784922005,
                -1.6547541850715712,
                -2.4378969584330563,
                -0.46607630616516105,
                3.13393804683032
            ]
        }
    ]
}