{
    "goal": {
        "global_pose": {
            "orientation": {
                "w": 0.7047431468963623,
                "x": -0.7094548344612122,
                "y": 0.0024358443915843964,
                "z": -0.0022348060738295317
            },
            "position": {
                "x": 0.6094750761985779,
                "y": 0.3671506643295288,
                "z": 0.19426114857196808
            }
        },
        "name": "move_to_magneteinheit_A"
    },
    "id": "LBKPIECE_move_to_magneteinheit_A_112",
    "joint_names": [
        "shoulder_pan_joint",
        "shoulder_lift_joint",
        "elbow_joint",
        "wrist_1_joint",
        "wrist_2_joint",
        "wrist_3_joint"
    ],
    "metrics": {
        "cart_traj_len": 1.0532814764459586,
        "distance_elbow_joint": 0.37616855266321925,
        "distance_shoulder_lift_joint": 0.3701274831318808,
        "distance_shoulder_pan_joint": 1.2406705775983458,
        "distance_wrist_1_joint": 2.1844931498078095,
        "distance_wrist_2_joint": 1.6922029198358333,
        "distance_wrist_3_joint": 1.2501833717303437,
        "smoothness": 4.2071609555499764e-16,
        "time": 3.81299672,
        "traj_len": 2.667179419305614,
        "weighted_distance": 3.672997259442452
    },
    "planner": "LBKPIECE",
    "start": {
        "state": {
            "elbow_joint": 1.5739458966750683,
            "shoulder_lift_joint": -1.4977259741207325,
            "shoulder_pan_joint": -1.1188672016454206,
            "wrist_1_joint": 1.494575848278785,
            "wrist_2_joint": -1.5706037134824402,
            "wrist_3_joint": -2.0226957942261072
        }
    },
    "waypoints": [
        {
            "positions": [
                -1.1188672016454206,
                -1.4977259741207325,
                1.5739458966750683,
                1.494575848278785,
                -1.5706037134824402,
                -2.0226957942261072
            ]
        },
        {
            "positions": [
                -1.0499410584455124,
                -1.4771633361689613,
                1.5948441496008028,
                1.3732151177339067,
                -1.4765924401582273,
                -2.092150425988904
            ]
        },
        {
            "positions": [
                -0.9810149152456045,
                -1.4566006982171902,
                1.6157424025265372,
                1.2518543871890284,
                -1.3825811668340142,
                -2.161605057751701
            ]
        },
        {
            "positions": [
                -0.9120887720456964,
                -1.436038060265419,
                1.6366406554522714,
                1.1304936566441501,
                -1.2885698935098013,
                -2.231059689514498
            ]
        },
        {
            "positions": [
                -0.8431626288457883,
                -1.4154754223136479,
                1.6575389083780059,
                1.0091329260992719,
                -1.1945586201855884,
                -2.3005143212772947
            ]
        },
        {
            "positions": [
                -0.7742364856458801,
                -1.3949127843618767,
                1.6784371613037403,
                0.8877721955543935,
                -1.1005473468613753,
                -2.3699689530400914
            ]
        },
        {
            "positions": [
                -0.7053103424459721,
                -1.3743501464101056,
                1.6993354142294748,
                0.7664114650095152,
                -1.0065360735371625,
                -2.4394235848028885
            ]
        },
        {
            "positions": [
                -0.6363841992460639,
                -1.3537875084583344,
                1.7202336671552092,
                0.6450507344646368,
                -0.9125248002129495,
                -2.5088782165656855
            ]
        },
        {
            "positions": [
                -0.5674580560461558,
                -1.3332248705065632,
                1.7411319200809436,
                0.5236900039197586,
                -0.8185135268887366,
                -2.578332848328482
            ]
        },
        {
            "positions": [
                -0.49853191284624776,
                -1.312662232554792,
                1.762030173006678,
                0.4023292733748802,
                -0.7245022535645236,
                -2.647787480091279
            ]
        },
        {
            "positions": [
                -0.4296057696463397,
                -1.292099594603021,
                1.7829284259324123,
                0.28096854283000194,
                -0.6304909802403106,
                -2.717242111854076
            ]
        },
        {
            "positions": [
                -0.3606796264464315,
                -1.2715369566512498,
                1.8038266788581467,
                0.15960781228512344,
                -0.5364797069160976,
                -2.786696743616873
            ]
        },
        {
            "positions": [
                -0.2917534832465235,
                -1.2509743186994786,
                1.8247249317838812,
                0.03824708174024538,
                -0.4424684335918847,
                -2.8561513753796697
            ]
        },
        {
            "positions": [
                -0.22282734004661542,
                -1.2304116807477075,
                1.8456231847096156,
                -0.0831136488046329,
                -0.3484571602676718,
                -2.9256060071424663
            ]
        },
        {
            "positions": [
                -0.15390119684670722,
                -1.2098490427959363,
                1.86652143763535,
                -0.2044743793495114,
                -0.2544458869434587,
                -2.9950606389052634
            ]
        },
        {
            "positions": [
                -0.08497505364679903,
                -1.1892864048441651,
                1.8874196905610843,
                -0.3258351098943897,
                -0.16043461361924582,
                -3.0645152706680605
            ]
        },
        {
            "positions": [
                -0.01604891044689105,
                -1.168723766892394,
                1.9083179434868187,
                -0.44719584043926774,
                -0.06642334029503294,
                -3.133969902430857
            ]
        },
        {
            "positions": [
                0.05287723275301692,
                -1.1481611289406228,
                1.9292161964125532,
                -0.568556570984146,
                0.027587933029179945,
                -3.203424534193654
            ]
        },
        {
            "positions": [
                0.12180337595292512,
                -1.1275984909888517,
                1.9501144493382876,
                -0.6899173015290248,
                0.12159920635339311,
                -3.272879165956451
            ]
        }
    ]
}