{
    "goal": {
        "global_pose": {
            "orientation": {
                "w": 0.005598929693374612,
                "x": 0.007748599140229565,
                "y": 0.7110244013736278,
                "z": -0.7031023480610252
            },
            "position": {
                "x": -0.8858502320852131,
                "y": -0.7141253447532654,
                "z": 0.3711530566215515
            }
        },
        "name": "move_to_auspresseinheit_C"
    },
    "id": "LBKPIECE_move_to_auspresseinheit_C_49",
    "joint_names": [
        "shoulder_pan_joint",
        "shoulder_lift_joint",
        "elbow_joint",
        "wrist_1_joint",
        "wrist_2_joint",
        "wrist_3_joint"
    ],
    "metrics": {
        "cart_traj_len": 0.4934999037428402,
        "distance_elbow_joint": 0.9983486977769762,
        "distance_shoulder_lift_joint": 0.32414034796322944,
        "distance_shoulder_pan_joint": 0.25619285270537917,
        "distance_wrist_1_joint": 0.6666186044298926,
        "distance_wrist_2_joint": 1.3209265456354093,
        "distance_wrist_3_joint": 0.05769759194390911,
        "smoothness": 6.459479416000911e-16,
        "time": 4.927250768,
        "traj_len": 1.9036608522672298,
        "weighted_distance": 2.3930869132582537
    },
    "planner": "LBKPIECE",
    "start": {
        "state": {
            "elbow_joint": 1.752795957773711,
            "shoulder_lift_joint": -0.9740617694225064,
            "shoulder_pan_joint": -2.967991417825858,
            "wrist_1_joint": -0.7595177689806859,
            "wrist_2_joint": 1.7443932448377395,
            "wrist_3_joint": 3.199131542505932
        }
    },
    "waypoints": [
        {
            "positions": [
                -2.967991417825858,
                -0.9740617694225064,
                1.752795957773711,
                -0.7595177689806859,
                1.7443932448377395,
                3.199131542505932
            ]
        },
        {
            "positions": [
                -2.9423721325553203,
                -0.9416477346261835,
                1.6529610879960135,
                -0.6928559085376966,
                1.6123005902741985,
                3.1933617833115413
            ]
        },
        {
            "positions": [
                -2.916752847284782,
                -0.9092336998298606,
                1.5531262182183159,
                -0.6261940480947074,
                1.4802079357106577,
                3.1875920241171505
            ]
        },
        {
            "positions": [
                -2.891133562014244,
                -0.8768196650335376,
                1.4532913484406182,
                -0.5595321876517181,
                1.3481152811471167,
                3.181822264922759
            ]
        },
        {
            "positions": [
                -2.8655142767437063,
                -0.8444056302372147,
                1.3534564786629206,
                -0.49287032720872886,
                1.2160226265835758,
                3.1760525057283684
            ]
        },
        {
            "positions": [
                -2.8398949914731686,
                -0.8119915954408917,
                1.253621608885223,
                -0.4262084667657396,
                1.0839299720200348,
                3.1702827465339776
            ]
        },
        {
            "positions": [
                -2.8142757062026305,
                -0.7795775606445687,
                1.1537867391075254,
                -0.3595466063227503,
                0.9518373174564939,
                3.1645129873395867
            ]
        },
        {
            "positions": [
                -2.7886564209320923,
                -0.7471635258482459,
                1.0539518693298278,
                -0.2928847458797611,
                0.819744662892953,
                3.158743228145196
            ]
        },
        {
            "positions": [
                -2.7630371356615546,
                -0.7147494910519229,
                0.9541169995521301,
                -0.22622288543677183,
                0.687652008329412,
                3.1529734689508047
            ]
        },
        {
            "positions": [
                -2.737417850391017,
                -0.6823354562555999,
                0.8542821297744325,
                -0.15956102499378255,
                0.555559353765871,
                3.147203709756414
            ]
        },
        {
            "positions": [
                -2.711798565120479,
                -0.649921421459277,
                0.7544472599967349,
                -0.0928991645507933,
                0.42346669920233027,
                3.141433950562023
            ]
        }
    ]
}