{
    "goal": {
        "global_pose": {
            "orientation": {
                "w": 0.005598929693374612,
                "x": 0.007748599140229565,
                "y": 0.7110244013736278,
                "z": -0.7031023480610252
            },
            "position": {
                "x": 0.1141497679147869,
                "y": -0.7141253447532654,
                "z": 0.3711530566215515
            }
        },
        "name": "move_to_auspresseinheit_B"
    },
    "id": "LBKPIECE_move_to_auspresseinheit_B_82",
    "joint_names": [
        "shoulder_pan_joint",
        "shoulder_lift_joint",
        "elbow_joint",
        "wrist_1_joint",
        "wrist_2_joint",
        "wrist_3_joint"
    ],
    "metrics": {
        "cart_traj_len": 0.5651894850635923,
        "distance_elbow_joint": 0.06450753662474917,
        "distance_shoulder_lift_joint": 0.2935377926777003,
        "distance_shoulder_pan_joint": 0.5784266118401014,
        "distance_wrist_1_joint": 0.32914237200856167,
        "distance_wrist_2_joint": 0.986356978527875,
        "distance_wrist_3_joint": 0.008573232945937814,
        "smoothness": 0.0,
        "time": 2.505185067,
        "traj_len": 1.5035107331259479,
        "weighted_distance": 1.895571243993018
    },
    "planner": "LBKPIECE",
    "start": {
        "state": {
            "elbow_joint": 2.019306165916698,
            "shoulder_lift_joint": -1.1220205098164344,
            "shoulder_pan_joint": -1.095207207618794,
            "wrist_1_joint": -0.8559671824921639,
            "wrist_2_joint": 0.47596387242952726,
            "wrist_3_joint": 3.159081874673826
        }
    },
    "waypoints": [
        {
            "positions": [
                -1.095207207618794,
                -1.1220205098164344,
                2.019306165916698,
                -0.8559671824921639,
                0.47596387242952726,
                3.159081874673826
            ]
        },
        {
            "positions": [
                -1.1916116429254775,
                -1.170943475262718,
                2.008554909812573,
                -0.8011101204907369,
                0.6403567021841731,
                3.1576530025161693
            ]
        },
        {
            "positions": [
                -1.288016078232161,
                -1.2198664407090012,
                1.9978036537084483,
                -0.74625305848931,
                0.8047495319388189,
                3.1562241303585132
            ]
        },
        {
            "positions": [
                -1.3844205135388448,
                -1.2687894061552845,
                1.9870523976043235,
                -0.6913959964878831,
                0.9691423616934647,
                3.154795258200857
            ]
        },
        {
            "positions": [
                -1.480824948845528,
                -1.317712371601568,
                1.9763011415001985,
                -0.636538934486456,
                1.1335351914481104,
                3.1533663860432006
            ]
        },
        {
            "positions": [
                -1.5772293841522118,
                -1.3666353370478515,
                1.9655498853960736,
                -0.5816818724850291,
                1.2979280212027564,
                3.151937513885544
            ]
        },
        {
            "positions": [
                -1.6736338194588953,
                -1.4155583024941347,
                1.9547986292919488,
                -0.5268248104836022,
                1.4623208509574022,
                3.150508641727888
            ]
        }
    ]
}