{
    "goal": {
        "global_pose": {
            "orientation": {
                "w": -0.00223480608172531,
                "x": 0.0024358444001904467,
                "y": 0.7094548369677653,
                "z": -0.704743149386269
            },
            "position": {
                "x": 0.6205249238014221,
                "y": -0.6371506643295288,
                "z": 0.19426114857196808
            }
        },
        "name": "move_to_magneteinheit_B"
    },
    "id": "LBKPIECE_move_to_magneteinheit_B_19",
    "joint_names": [
        "shoulder_pan_joint",
        "shoulder_lift_joint",
        "elbow_joint",
        "wrist_1_joint",
        "wrist_2_joint",
        "wrist_3_joint"
    ],
    "metrics": {
        "cart_traj_len": 1.452924966060542,
        "distance_elbow_joint": 0.7272141531240868,
        "distance_shoulder_lift_joint": 1.2461069979177932,
        "distance_shoulder_pan_joint": 1.622531419605326,
        "distance_wrist_1_joint": 2.6104800994502884,
        "distance_wrist_2_joint": 2.932072482383001,
        "distance_wrist_3_joint": 3.1335201961405255,
        "smoothness": 3.608224850774041e-16,
        "time": 1.527045273,
        "traj_len": 3.5031307923942863,
        "weighted_distance": 4.907292361652743
    },
    "planner": "LBKPIECE",
    "start": {
        "state": {
            "elbow_joint": 2.3935871308073637,
            "shoulder_lift_joint": -1.9085141043777403,
            "shoulder_pan_joint": 0.7066247067284167,
            "wrist_1_joint": -0.46782909355067076,
            "wrist_2_joint": 0.7096259085804283,
            "wrist_3_joint": -3.1358149275257428
        }
    },
    "waypoints": [
        {
            "positions": [
                0.7066247067284167,
                -1.9085141043777403,
                2.3935871308073637,
                -0.46782909355067076,
                0.7096259085804283,
                -3.1358149275257428
            ]
        },
        {
            "positions": [
                0.6542849835153417,
                -1.8683171044449083,
                2.370128609738845,
                -0.3836200580845324,
                0.6150429252777508,
                -3.0347336308760484
            ]
        },
        {
            "positions": [
                0.6019452603022667,
                -1.8281201045120763,
                2.346670088670326,
                -0.2994110226183941,
                0.5204599419750734,
                -2.933652334226354
            ]
        },
        {
            "positions": [
                0.5496055370891916,
                -1.787923104579244,
                2.323211567601807,
                -0.21520198715225575,
                0.42587695867239594,
                -2.8325710375766597
            ]
        },
        {
            "positions": [
                0.49726581387611657,
                -1.747726104646412,
                2.299753046533288,
                -0.1309929516861174,
                0.3312939753697185,
                -2.7314897409269654
            ]
        },
        {
            "positions": [
                0.44492609066304156,
                -1.70752910471358,
                2.276294525464769,
                -0.04678391621997913,
                0.23671099206704105,
                -2.630408444277271
            ]
        },
        {
            "positions": [
                0.3925863674499665,
                -1.6673321047807481,
                2.2528360043962503,
                0.037425119246159266,
                0.1421280087643636,
                -2.5293271476275767
            ]
        },
        {
            "positions": [
                0.3402466442368915,
                -1.6271351048479161,
                2.229377483327731,
                0.1216341547122976,
                0.04754502546168615,
                -2.4282458509778824
            ]
        },
        {
            "positions": [
                0.2879069210238165,
                -1.586938104915084,
                2.2059189622592124,
                0.20584319017843594,
                -0.047037957840991296,
                -2.3271645543281876
            ]
        },
        {
            "positions": [
                0.23556719781074137,
                -1.546741104982252,
                2.1824604411906936,
                0.2900522256445743,
                -0.14162094114366885,
                -2.2260832576784932
            ]
        },
        {
            "positions": [
                0.18322747459766642,
                -1.50654410504942,
                2.1590019201221744,
                0.3742612611107125,
                -0.2362039244463462,
                -2.125001961028799
            ]
        },
        {
            "positions": [
                0.1308877513845913,
                -1.4663471051165877,
                2.1355433990536556,
                0.45847029657685096,
                -0.33078690774902364,
                -2.0239206643791046
            ]
        },
        {
            "positions": [
                0.0785480281715163,
                -1.4261501051837557,
                2.1120848779851364,
                0.5426793320429892,
                -0.4253698910517011,
                -1.9228393677294104
            ]
        },
        {
            "positions": [
                0.026208304958441286,
                -1.3859531052509237,
                2.0886263569166177,
                0.6268883675091275,
                -0.5199528743543785,
                -1.8217580710797159
            ]
        },
        {
            "positions": [
                -0.02613141825463372,
                -1.3457561053180918,
                2.065167835848099,
                0.7110974029752659,
                -0.614535857657056,
                -1.7206767744300215
            ]
        },
        {
            "positions": [
                -0.07847114146770884,
                -1.3055591053852598,
                2.0417093147795797,
                0.7953064384414041,
                -0.7091188409597334,
                -1.6195954777803272
            ]
        },
        {
            "positions": [
                -0.13081086468078373,
                -1.2653621054524278,
                2.018250793711061,
                0.8795154739075426,
                -0.8037018242624109,
                -1.5185141811306329
            ]
        },
        {
            "positions": [
                -0.18315058789385874,
                -1.2251651055195958,
                1.994792272642542,
                0.9637245093736808,
                -0.8982848075650881,
                -1.4174328844809385
            ]
        },
        {
            "positions": [
                -0.23549031110693397,
                -1.1849681055867634,
                1.971333751574023,
                1.0479335448398193,
                -0.992867790867766,
                -1.316351587831244
            ]
        },
        {
            "positions": [
                -0.28783003432000887,
                -1.1447711056539314,
                1.947875230505504,
                1.1321425803059575,
                -1.0874507741704433,
                -1.2152702911815496
            ]
        },
        {
            "positions": [
                -0.34016975753308387,
                -1.1045741057210994,
                1.924416709436985,
                1.2163516157720957,
                -1.1820337574731208,
                -1.1141889945318555
            ]
        },
        {
            "positions": [
                -0.392509480746159,
                -1.0643771057882674,
                1.9009581883684663,
                1.3005606512382342,
                -1.2766167407757978,
                -1.0131076978821612
            ]
        },
        {
            "positions": [
                -0.4448492039592341,
                -1.0241801058554354,
                1.8774996672999473,
                1.3847696867043726,
                -1.3711997240784757,
                -0.9120264012324664
            ]
        },
        {
            "positions": [
                -0.497188927172309,
                -0.9839831059226034,
                1.8540411462314283,
                1.4689787221705108,
                -1.4657827073811531,
                -0.810945104582772
            ]
        },
        {
            "positions": [
                -0.5495286503853841,
                -0.9437861059897713,
                1.8305826251629096,
                1.5531877576366493,
                -1.5603656906838306,
                -0.7098638079330781
            ]
        },
        {
            "positions": [
                -0.601868373598459,
                -0.9035891060569394,
                1.8071241040943906,
                1.6373967931027873,
                -1.654948673986508,
                -0.6087825112833838
            ]
        },
        {
            "positions": [
                -0.6542080968115341,
                -0.8633921061241072,
                1.7836655830258716,
                1.7216058285689257,
                -1.7495316572891855,
                -0.507701214633689
            ]
        },
        {
            "positions": [
                -0.7065478200246093,
                -0.8231951061912752,
                1.7602070619573527,
                1.8058148640350642,
                -1.844114640591863,
                -0.40661991798399466
            ]
        },
        {
            "positions": [
                -0.7588875432376841,
                -0.7829981062584432,
                1.7367485408888337,
                1.8900238995012026,
                -1.9386976238945404,
                -0.3055386213343003
            ]
        },
        {
            "positions": [
                -0.811227266450759,
                -0.7428011063256112,
                1.713290019820315,
                1.9742329349673406,
                -2.033280607197218,
                -0.20445732468460642
            ]
        },
        {
            "positions": [
                -0.8635669896638344,
                -0.702604106392779,
                1.6898314987517957,
                2.058441970433479,
                -2.1278635904998953,
                -0.10337602803491164
            ]
        },
        {
            "positions": [
                -0.9159067128769093,
                -0.662407106459947,
                1.666372977683277,
                2.1426510058996175,
                -2.2224465738025727,
                -0.0022947313852172795
            ]
        }
    ]
}