{
    "goal": {
        "global_pose": {
            "orientation": {
                "w": -0.00223480608172531,
                "x": 0.0024358444001904467,
                "y": 0.7094548369677653,
                "z": -0.704743149386269
            },
            "position": {
                "x": -0.37947507619857795,
                "y": -0.6371506643295288,
                "z": 0.19426114857196808
            }
        },
        "name": "move_to_magneteinheit_C"
    },
    "id": "LBKPIECE_move_to_magneteinheit_C_22",
    "joint_names": [
        "shoulder_pan_joint",
        "shoulder_lift_joint",
        "elbow_joint",
        "wrist_1_joint",
        "wrist_2_joint",
        "wrist_3_joint"
    ],
    "metrics": {
        "cart_traj_len": 7.732995831067952,
        "distance_elbow_joint": 3.6983440897755497,
        "distance_shoulder_lift_joint": 1.437538014281156,
        "distance_shoulder_pan_joint": 10.307804607655896,
        "distance_wrist_1_joint": 6.380016251535307,
        "distance_wrist_2_joint": 1.5116837659996343,
        "distance_wrist_3_joint": 0.8303821839709657,
        "smoothness": 0.6023355042155953,
        "time": 3.61952161,
        "traj_len": 4.915869090325588,
        "weighted_distance": 5.8067403333277605
    },
    "planner": "LBKPIECE",
    "start": {
        "state": {
            "elbow_joint": 1.9565354006590394,
            "shoulder_lift_joint": -1.4165861576513559,
            "shoulder_pan_joint": -1.6717766223277177,
            "wrist_1_joint": -0.5286633288215096,
            "wrist_2_joint": 1.4727565892594296,
            "wrist_3_joint": 3.1593482883155493
        }
    },
    "waypoints": [
        {
            "positions": [
                -1.6717766223277177,
                -1.4165861576513559,
                1.9565354006590394,
                -0.5286633288215096,
                1.4727565892594296,
                3.1593482883155493
            ]
        },
        {
            "positions": [
                -1.5133441000842334,
                -1.4363488972802392,
                1.8959953411132815,
                -0.4272528194723222,
                1.4354465302901571,
                3.144935798735598
            ]
        },
        {
            "positions": [
                -1.354911577840749,
                -1.4561116369091223,
                1.8354552815675238,
                -0.3258423101231348,
                1.3981364713208846,
                3.1305233091556466
            ]
        },
        {
            "positions": [
                -1.1964790555972646,
                -1.4758743765380054,
                1.7749152220217659,
                -0.2244318007739473,
                1.360826412351612,
                3.116110819575695
            ]
        },
        {
            "positions": [
                -1.0380465333537803,
                -1.4956371161668887,
                1.714375162476008,
                -0.12302129142475998,
                1.3235163533823395,
                3.1016983299957435
            ]
        },
        {
            "positions": [
                -0.8796140111102961,
                -1.515399855795772,
                1.6538351029302503,
                -0.021610782075572543,
                1.286206294413067,
                3.087285840415792
            ]
        },
        {
            "positions": [
                -0.7211814888668117,
                -1.535162595424655,
                1.5932950433844923,
                0.07979972727361495,
                1.2488962354437945,
                3.072873350835841
            ]
        },
        {
            "positions": [
                -0.5627489666233274,
                -1.5549253350535381,
                1.5327549838387344,
                0.18121023662280233,
                1.2115861764745222,
                3.0584608612558895
            ]
        },
        {
            "positions": [
                -0.40431644437984304,
                -1.5746880746824214,
                1.4722149242929767,
                0.2826207459719896,
                1.1742761175052494,
                3.0440483716759377
            ]
        },
        {
            "positions": [
                -0.24588392213635868,
                -1.5944508143113048,
                1.4116748647472188,
                0.384031255321177,
                1.136966058535977,
                3.0296358820959863
            ]
        },
        {
            "positions": [
                -0.08745139989287454,
                -1.6142135539401878,
                1.3511348052014611,
                0.4854417646703645,
                1.0996559995667046,
                3.015223392516035
            ]
        },
        {
            "positions": [
                0.07098112235060983,
                -1.633976293569071,
                1.2905947456557032,
                0.5868522740195518,
                1.062345940597432,
                3.0008109029360837
            ]
        },
        {
            "positions": [
                0.2294136445940944,
                -1.6537390331979542,
                1.2300546861099453,
                0.6882627833687395,
                1.0250358816281595,
                2.9863984133561323
            ]
        },
        {
            "positions": [
                0.38784616683757855,
                -1.6735017728268375,
                1.1695146265641874,
                0.7896732927179267,
                0.987725822658887,
                2.9719859237761805
            ]
        },
        {
            "positions": [
                0.5462786890810629,
                -1.6932645124557206,
                1.1089745670184294,
                0.8910838020671142,
                0.9504157636896144,
                2.957573434196229
            ]
        },
        {
            "positions": [
                0.7047112113245473,
                -1.7130272520846037,
                1.0484345074726718,
                0.9924943114163015,
                0.9131057047203419,
                2.943160944616278
            ]
        },
        {
            "positions": [
                0.8631437335680316,
                -1.732789991713487,
                0.9878944479269139,
                1.0939048207654887,
                0.8757956457510694,
                2.9287484550363265
            ]
        },
        {
            "positions": [
                1.021576255811516,
                -1.7525527313423703,
                0.9273543883811561,
                1.1953153301146764,
                0.8384855867817969,
                2.914335965456375
            ]
        },
        {
            "positions": [
                1.1800087780550004,
                -1.7723154709712534,
                0.8668143288353982,
                1.2967258394638637,
                0.8011755278125244,
                2.8999234758764234
            ]
        },
        {
            "positions": [
                1.3384413002984843,
                -1.7920782106001365,
                0.8062742692896405,
                1.398136348813051,
                0.7638654688432519,
                2.885510986296472
            ]
        },
        {
            "positions": [
                1.4968738225419687,
                -1.8118409502290198,
                0.7457342097438826,
                1.4995468581622386,
                0.7265554098739794,
                2.8710984967165207
            ]
        },
        {
            "positions": [
                1.655306344785453,
                -1.8316036898579031,
                0.6851941501981247,
                1.600957367511426,
                0.6892453509047068,
                2.8566860071365694
            ]
        },
        {
            "positions": [
                1.8137388670289374,
                -1.8513664294867862,
                0.624654090652367,
                1.7023678768606132,
                0.6519352919354343,
                2.842273517556618
            ]
        },
        {
            "positions": [
                1.9721713892724222,
                -1.8711291691156695,
                0.5641140311066088,
                1.803778386209801,
                0.6146252329661618,
                2.8278610279766663
            ]
        },
        {
            "positions": [
                2.1306039115159066,
                -1.8908919087445526,
                0.5035739715608512,
                1.9051888955589886,
                0.5773151739968893,
                2.813448538396715
            ]
        },
        {
            "positions": [
                2.289036433759391,
                -1.910654648373436,
                0.44303391201509323,
                2.006599404908176,
                0.5400051150276167,
                2.7990360488167636
            ]
        },
        {
            "positions": [
                2.447468956002875,
                -1.930417388002319,
                0.3824938524693353,
                2.108009914257363,
                0.5026950560583442,
                2.7846235592368123
            ]
        },
        {
            "positions": [
                2.605901478246359,
                -1.950180127631202,
                0.3219537929235776,
                2.2094204236065504,
                0.4653849970890718,
                2.770211069656861
            ]
        },
        {
            "positions": [
                2.7643340004898436,
                -1.9699428672600854,
                0.2614137333778197,
                2.310830932955738,
                0.42807493811979924,
                2.755798580076909
            ]
        },
        {
            "positions": [
                2.922766522733328,
                -1.9897056068889687,
                0.200873673832062,
                2.4122414423049254,
                0.3907648791505267,
                2.741386090496958
            ]
        },
        {
            "positions": [
                3.0811990449768123,
                -2.0094683465178518,
                0.1403336142863041,
                2.5136519516541127,
                0.3534548201812542,
                2.7269736009170065
            ]
        },
        {
            "positions": [
                2.902268879398379,
                -1.9830728414935292,
                0.20084569370196337,
                2.4079247822249448,
                0.3650456990093898,
                2.7379489464541997
            ]
        },
        {
            "positions": [
                2.723338713819946,
                -1.956677336469207,
                0.26135777311762265,
                2.3021976127957764,
                0.37663657783752547,
                2.7489242919913934
            ]
        },
        {
            "positions": [
                2.5444085482415124,
                -1.9302818314448844,
                0.32186985253328193,
                2.1964704433666085,
                0.38822745666566116,
                2.7598996375285867
            ]
        },
        {
            "positions": [
                2.3654783826630794,
                -1.9038863264205619,
                0.3823819319489412,
                2.0907432739374405,
                0.3998183354937968,
                2.7708749830657804
            ]
        },
        {
            "positions": [
                2.186548217084646,
                -1.8774908213962396,
                0.4428940113646005,
                1.9850161045082724,
                0.41140921432193245,
                2.7818503286029737
            ]
        },
        {
            "positions": [
                2.0076180515062125,
                -1.851095316371917,
                0.5034060907802598,
                1.8792889350791042,
                0.4230000931500681,
                2.7928256741401674
            ]
        },
        {
            "positions": [
                1.8286878859277793,
                -1.8246998113475945,
                0.563918170195919,
                1.7735617656499363,
                0.43459097197820373,
                2.8038010196773606
            ]
        },
        {
            "positions": [
                1.649757720349346,
                -1.7983043063232722,
                0.6244302496115783,
                1.6678345962207684,
                0.4461818508063394,
                2.814776365214554
            ]
        },
        {
            "positions": [
                1.4708275547709126,
                -1.7719088012989497,
                0.6849423290272377,
                1.5621074267916,
                0.457772729634475,
                2.8257517107517476
            ]
        },
        {
            "positions": [
                1.2918973891924794,
                -1.7455132962746271,
                0.7454544084428969,
                1.456380257362432,
                0.4693636084626107,
                2.836727056288941
            ]
        },
        {
            "positions": [
                1.112967223614046,
                -1.7191177912503046,
                0.8059664878585563,
                1.3506530879332639,
                0.48095448729074636,
                2.8477024018261345
            ]
        },
        {
            "positions": [
                0.9340370580356128,
                -1.6927222862259823,
                0.8664785672742156,
                1.244925918504096,
                0.492545366118882,
                2.858677747363328
            ]
        },
        {
            "positions": [
                0.7551068924571793,
                -1.6663267812016598,
                0.9269906466898749,
                1.1391987490749278,
                0.5041362449470177,
                2.869653092900521
            ]
        },
        {
            "positions": [
                0.5761767268787463,
                -1.6399312761773372,
                0.9875027261055341,
                1.0334715796457599,
                0.5157271237751533,
                2.8806284384377148
            ]
        },
        {
            "positions": [
                0.3972465613003129,
                -1.613535771153015,
                1.0480148055211935,
                0.9277444102165917,
                0.527318002603289,
                2.891603783974908
            ]
        },
        {
            "positions": [
                0.21831639572187989,
                -1.5871402661286924,
                1.1085268849368526,
                0.8220172407874238,
                0.5389088814314246,
                2.9025791295121017
            ]
        },
        {
            "positions": [
                0.03938623014344689,
                -1.56074476110437,
                1.1690389643525119,
                0.7162900713582558,
                0.5504997602595603,
                2.913554475049295
            ]
        },
        {
            "positions": [
                -0.139543935434987,
                -1.5343492560800476,
                1.2295510437681714,
                0.6105629019290875,
                0.5620906390876959,
                2.9245298205864887
            ]
        },
        {
            "positions": [
                -0.31847410101342,
                -1.507953751055725,
                1.2900631231838307,
                0.5048357324999193,
                0.5736815179158316,
                2.935505166123682
            ]
        },
        {
            "positions": [
                -0.49740426659185344,
                -1.4815582460314025,
                1.3505752025994897,
                0.3991085630707514,
                0.5852723967439672,
                2.946480511660875
            ]
        },
        {
            "positions": [
                -0.6763344321702864,
                -1.4551627410070802,
                1.411087282015149,
                0.29338139364158344,
                0.5968632755721028,
                2.957455857198069
            ]
        },
        {
            "positions": [
                -0.8552645977487203,
                -1.4287672359827577,
                1.4715993614308085,
                0.18765422421241507,
                0.6084541544002385,
                2.968431202735262
            ]
        },
        {
            "positions": [
                -1.0341947633271529,
                -1.4023717309584351,
                1.5321114408464678,
                0.08192705478324713,
                0.6200450332283742,
                2.979406548272456
            ]
        },
        {
            "positions": [
                -1.2131249289055868,
                -1.3759762259341128,
                1.592623520262127,
                -0.0238001146459208,
                0.6316359120565098,
                2.990381893809649
            ]
        },
        {
            "positions": [
                -1.3920550944840198,
                -1.3495807209097903,
                1.6531355996777861,
                -0.12952728407508873,
                0.6432267908846454,
                3.0013572393468424
            ]
        },
        {
            "positions": [
                -1.5709852600624536,
                -1.3231852158854678,
                1.7136476790934456,
                -0.2352544535042571,
                0.6548176697127811,
                3.012332584884036
            ]
        },
        {
            "positions": [
                -1.7499154256408866,
                -1.2967897108611455,
                1.774159758509105,
                -0.34098162293342504,
                0.6664085485409168,
                3.0233079304212294
            ]
        },
        {
            "positions": [
                -1.9288455912193196,
                -1.270394205836823,
                1.8346718379247642,
                -0.446708792362593,
                0.6779994273690524,
                3.034283275958423
            ]
        },
        {
            "positions": [
                -2.1077757567977526,
                -1.2439987008125004,
                1.8951839173404232,
                -0.5524359617917609,
                0.689590306197188,
                3.0452586214956163
            ]
        },
        {
            "positions": [
                -2.2867059223761865,
                -1.217603195788178,
                1.9556959967560827,
                -0.6581631312209293,
                0.7011811850253238,
                3.05623396703281
            ]
        },
        {
            "positions": [
                -2.4656360879546195,
                -1.1912076907638556,
                2.016208076171742,
                -0.7638903006500972,
                0.7127720638534594,
                3.0672093125700033
            ]
        },
        {
            "positions": [
                -2.4736298953745566,
                -1.1648125211031917,
                2.0099402346543647,
                -0.8240490194055702,
                0.679707310604204,
                3.1249810974894294
            ]
        }
    ]
}