{
    "goal": {
        "global_pose": {
            "orientation": {
                "w": -0.4816463035849501,
                "x": 0.5182115481033762,
                "y": 0.4908360881923453,
                "z": -0.5084816262002911
            },
            "position": {
                "x": -0.8240239810943604,
                "y": -0.300875300988555,
                "z": 0.16403168439865112
            }
        },
        "name": "move_to_storage_C"
    },
    "id": "LBKPIECE_move_to_storage_C_84",
    "joint_names": [
        "shoulder_pan_joint",
        "shoulder_lift_joint",
        "elbow_joint",
        "wrist_1_joint",
        "wrist_2_joint",
        "wrist_3_joint"
    ],
    "metrics": {
        "cart_traj_len": 0.5766111901096928,
        "distance_elbow_joint": 0.25821501504639155,
        "distance_shoulder_lift_joint": 0.1886495709033006,
        "distance_shoulder_pan_joint": 0.4954643906980758,
        "distance_wrist_1_joint": 0.07971784061343701,
        "distance_wrist_2_joint": 1.061580432943146,
        "distance_wrist_3_joint": 0.056075075131264196,
        "smoothness": 2.5376526478085547e-16,
        "time": 4.679227921,
        "traj_len": 1.4627721371887061,
        "weighted_distance": 1.8420506912554622
    },
    "planner": "LBKPIECE",
    "start": {
        "state": {
            "elbow_joint": 2.010868315001653,
            "shoulder_lift_joint": -1.1634956873357014,
            "shoulder_pan_joint": -2.4736205022346103,
            "wrist_1_joint": -0.8367026794713948,
            "wrist_2_joint": 0.6746043897044093,
            "wrist_3_joint": 3.1335220948105738
        }
    },
    "waypoints": [
        {
            "positions": [
                -2.4736205022346103,
                -1.1634956873357014,
                2.010868315001653,
                -0.8367026794713948,
                0.6746043897044093,
                3.1335220948105738
            ]
        },
        {
            "positions": [
                -2.5561979006842894,
                -1.1320540921851514,
                1.967832479160588,
                -0.8234163727024886,
                0.8515344618616003,
                3.1428679406657842
            ]
        },
        {
            "positions": [
                -2.638775299133969,
                -1.1006124970346012,
                1.9247966433195225,
                -0.8101300659335824,
                1.0284645340187912,
                3.152213786520995
            ]
        },
        {
            "positions": [
                -2.721352697583648,
                -1.0691709018840512,
                1.8817608074784573,
                -0.7968437591646762,
                1.2053946061759824,
                3.161559632376206
            ]
        },
        {
            "positions": [
                -2.8039300960333273,
                -1.037729306733501,
                1.8387249716373921,
                -0.7835574523957701,
                1.3823246783331733,
                3.1709054782314166
            ]
        },
        {
            "positions": [
                -2.886507494483007,
                -1.006287711582951,
                1.7956891357963267,
                -0.7702711456268639,
                1.5592547504903642,
                3.180251324086627
            ]
        },
        {
            "positions": [
                -2.969084892932686,
                -0.9748461164324008,
                1.7526532999552615,
                -0.7569848388579578,
                1.7361848226475551,
                3.189597169941838
            ]
        }
    ]
}