{
    "goal": {
        "global_pose": {
            "orientation": {
                "w": 0.7031023480610252,
                "x": -0.7110244013736278,
                "y": 0.0077485991402295624,
                "z": 0.005598929693374583
            },
            "position": {
                "x": -0.8841497679147869,
                "y": 0.44412534475326537,
                "z": 0.3711530566215515
            }
        },
        "name": "move_to_auspresseinheit_D"
    },
    "id": "LBKPIECE_move_to_auspresseinheit_D_129",
    "joint_names": [
        "shoulder_pan_joint",
        "shoulder_lift_joint",
        "elbow_joint",
        "wrist_1_joint",
        "wrist_2_joint",
        "wrist_3_joint"
    ],
    "metrics": {
        "cart_traj_len": 3.574464655457867,
        "distance_elbow_joint": 3.200768986166988,
        "distance_shoulder_lift_joint": 1.3877409821668336,
        "distance_shoulder_pan_joint": 2.7964145364518753,
        "distance_wrist_1_joint": 1.3077856956660052,
        "distance_wrist_2_joint": 1.2405191768433128,
        "distance_wrist_3_joint": 3.0570344388746644,
        "smoothness": 0.08926863858142703,
        "time": 3.715720829,
        "traj_len": 3.6042008568016413,
        "weighted_distance": 4.653239470135652
    },
    "planner": "LBKPIECE",
    "start": {
        "state": {
            "elbow_joint": 1.8268400409724999,
            "shoulder_lift_joint": -1.0144045787793008,
            "shoulder_pan_joint": 2.6280239544362485,
            "wrist_1_joint": -0.790705565816056,
            "wrist_2_joint": 1.0573557467365533,
            "wrist_3_joint": 3.1851377467193758
        }
    },
    "waypoints": [
        {
            "positions": [
                2.6280239544362485,
                -1.0144045787793008,
                1.8268400409724999,
                -0.790705565816056,
                1.0573557467365533,
                3.1851377467193758
            ]
        },
        {
            "positions": [
                2.6101579604022067,
                -1.1149835131611863,
                1.742064856580873,
                -0.7055718229074507,
                1.1015032653236596,
                3.125546768503847
            ]
        },
        {
            "positions": [
                2.5922919663681645,
                -1.2155624475430717,
                1.6572896721892458,
                -0.6204380799988454,
                1.145650783910766,
                3.065955790288318
            ]
        },
        {
            "positions": [
                2.5744259723341223,
                -1.3161413819249572,
                1.5725144877976187,
                -0.5353043370902401,
                1.1897983024978724,
                3.0063648120727895
            ]
        },
        {
            "positions": [
                2.5565599783000805,
                -1.4167203163068427,
                1.4877393034059918,
                -0.45017059418163474,
                1.2339458210849787,
                2.946773833857261
            ]
        },
        {
            "positions": [
                2.462596165875401,
                -1.4507004971564734,
                1.3890610879370098,
                -0.41681712093916634,
                1.1972586106541205,
                2.849578298477518
            ]
        },
        {
            "positions": [
                2.3686323534507214,
                -1.4846806780061041,
                1.2903828724680277,
                -0.38346364769669794,
                1.1605714002232623,
                2.7523827630977746
            ]
        },
        {
            "positions": [
                2.274668541026042,
                -1.5186608588557349,
                1.1917046569990455,
                -0.35011017445422954,
                1.1238841897924041,
                2.6551872277180317
            ]
        },
        {
            "positions": [
                2.1807047286013623,
                -1.5526410397053656,
                1.0930264415300635,
                -0.31675670121176114,
                1.0871969793615461,
                2.5579916923382884
            ]
        },
        {
            "positions": [
                2.086740916176683,
                -1.5866212205549965,
                0.9943482260610814,
                -0.2834032279692927,
                1.050509768930688,
                2.4607961569585455
            ]
        },
        {
            "positions": [
                1.992777103752003,
                -1.6206014014046273,
                0.8956700105920994,
                -0.2500497547268243,
                1.0138225584998297,
                2.363600621578802
            ]
        },
        {
            "positions": [
                1.8988132913273235,
                -1.654581582254258,
                0.7969917951231172,
                -0.21669628148435588,
                0.9771353480689715,
                2.2664050861990592
            ]
        },
        {
            "positions": [
                1.804849478902644,
                -1.6885617631038887,
                0.6983135796541352,
                -0.18334280824188748,
                0.9404481376381133,
                2.169209550819316
            ]
        },
        {
            "positions": [
                1.7108856664779641,
                -1.7225419439535194,
                0.5996353641851532,
                -0.14998933499941908,
                0.9037609272072551,
                2.072014015439573
            ]
        },
        {
            "positions": [
                1.6169218540532846,
                -1.7565221248031502,
                0.500957148716171,
                -0.11663586175695062,
                0.8670737167763969,
                1.9748184800598296
            ]
        },
        {
            "positions": [
                1.5229580416286053,
                -1.790502305652781,
                0.402278933247189,
                -0.08328238851448228,
                0.8303865063455388,
                1.8776229446800867
            ]
        },
        {
            "positions": [
                1.4289942292039255,
                -1.8244824865024116,
                0.30360071777820696,
                -0.04992891527201382,
                0.7936992959146807,
                1.7804274093003436
            ]
        },
        {
            "positions": [
                1.335030416779246,
                -1.8584626673520424,
                0.20492250230922493,
                -0.016575442029545417,
                0.7570120854838225,
                1.6832318739206005
            ]
        },
        {
            "positions": [
                1.2410666043545664,
                -1.8924428482016733,
                0.10624428684024267,
                0.016778031212922984,
                0.7203248750529643,
                1.5860363385408573
            ]
        },
        {
            "positions": [
                1.1471027919298868,
                -1.9264230290513038,
                0.007566071371260641,
                0.050131504455391385,
                0.6836376646221061,
                1.4888408031611142
            ]
        },
        {
            "positions": [
                1.0531389795052073,
                -1.9604032099009348,
                -0.09111214409772139,
                0.08348497769785979,
                0.6469504541912479,
                1.3916452677813713
            ]
        },
        {
            "positions": [
                0.9591751670805277,
                -1.9943833907505653,
                -0.1897903595667032,
                0.11683845094032819,
                0.6102632437603898,
                1.2944497324016282
            ]
        },
        {
            "positions": [
                0.865211354655848,
                -2.028363571600196,
                -0.28846857503568546,
                0.1501919241827966,
                0.5735760333295316,
                1.197254197021885
            ]
        },
        {
            "positions": [
                0.7712475422311686,
                -2.062343752449827,
                -0.3871467905046675,
                0.183545397425265,
                0.5368888228986733,
                1.100058661642142
            ]
        },
        {
            "positions": [
                0.6772837298064889,
                -2.0963239332994577,
                -0.48582500597364975,
                0.2168988706677335,
                0.5002016124678151,
                1.0028631262623986
            ]
        },
        {
            "positions": [
                0.5833199173818093,
                -2.130304114149088,
                -0.5845032214426316,
                0.2502523439102018,
                0.46351440203695704,
                0.9056675908826559
            ]
        },
        {
            "positions": [
                0.48935610495713,
                -2.164284294998719,
                -0.6831814369116138,
                0.2836058171526702,
                0.42682719160609883,
                0.8084720555029126
            ]
        },
        {
            "positions": [
                0.39539229253245,
                -2.19826447584835,
                -0.7818596523805961,
                0.3169592903951387,
                0.3901399811752406,
                0.7112765201231692
            ]
        },
        {
            "positions": [
                0.30142848010777046,
                -2.2322446566979806,
                -0.8805378678495779,
                0.3503127636376071,
                0.3534527707443825,
                0.6140809847434263
            ]
        },
        {
            "positions": [
                0.20746466768309135,
                -2.2662248375476115,
                -0.9792160833185597,
                0.3836662368800754,
                0.3167655603135243,
                0.5168854493636834
            ]
        },
        {
            "positions": [
                0.11350085525841136,
                -2.300205018397242,
                -1.077894298787542,
                0.4170197101225439,
                0.2800783498826661,
                0.41968991398394007
            ]
        },
        {
            "positions": [
                0.01953704283373181,
                -2.334185199246873,
                -1.1765725142565242,
                0.4503731833650123,
                0.24339113945180801,
                0.32249437860419716
            ]
        },
        {
            "positions": [
                -0.07442676959094774,
                -2.368165380096504,
                -1.2752507297255065,
                0.4837266566074807,
                0.2067039290209498,
                0.22529884322445382
            ]
        },
        {
            "positions": [
                -0.1683905820156271,
                -2.4021455609461344,
                -1.3739289451944883,
                0.5170801298499491,
                0.17001671859009151,
                0.12810330784471083
            ]
        }
    ]
}