{
    "goal": {
        "global_pose": {
            "orientation": {
                "w": 0.7031023502349854,
                "x": -0.7110244035720825,
                "y": 0.007748599164187908,
                "z": 0.005598929710686207
            },
            "position": {
                "x": 0.11585023208521307,
                "y": 0.44412534475326537,
                "z": 0.3711530566215515
            }
        },
        "name": "move_to_auspresseinheit_A"
    },
    "id": "LBKPIECE_move_to_auspresseinheit_A_146",
    "joint_names": [
        "shoulder_pan_joint",
        "shoulder_lift_joint",
        "elbow_joint",
        "wrist_1_joint",
        "wrist_2_joint",
        "wrist_3_joint"
    ],
    "metrics": {
        "cart_traj_len": 1.620377881663165,
        "distance_elbow_joint": 0.6173514867620935,
        "distance_shoulder_lift_joint": 0.5355203635753163,
        "distance_shoulder_pan_joint": 2.6777797592143697,
        "distance_wrist_1_joint": 4.1969032339038925,
        "distance_wrist_2_joint": 3.241680643822322,
        "distance_wrist_3_joint": 4.2542465178443996,
        "smoothness": 0.7905650388954677,
        "time": 1.133939495,
        "traj_len": 3.939985026002306,
        "weighted_distance": 5.609862647029552
    },
    "planner": "LBKPIECE",
    "start": {
        "state": {
            "elbow_joint": 2.4225747245308327,
            "shoulder_lift_joint": -1.373653427065438,
            "shoulder_pan_joint": -0.33786330853087027,
            "wrist_1_joint": -1.0288602302712604,
            "wrist_2_joint": 1.23302299562683,
            "wrist_3_joint": -3.094021725338297
        }
    },
    "waypoints": [
        {
            "positions": [
                -0.33786330853087027,
                -1.373653427065438,
                2.4225747245308327,
                -1.0288602302712604,
                1.23302299562683,
                -3.094021725338297
            ]
        },
        {
            "positions": [
                -0.3832773557532932,
                -1.3957249056426348,
                2.438943991133548,
                -1.1301584555883246,
                1.3082375659533612,
                -2.9769799588799395
            ]
        },
        {
            "positions": [
                -0.4286914029757162,
                -1.4177963842198316,
                2.4553132577362637,
                -1.2314566809053888,
                1.3834521362798926,
                -2.859938192421582
            ]
        },
        {
            "positions": [
                -0.4741054501981391,
                -1.4398678627970285,
                2.4716825243389793,
                -1.332754906222453,
                1.4586667066064238,
                -2.7428964259632242
            ]
        },
        {
            "positions": [
                -0.519519497420562,
                -1.4619393413742254,
                2.488051790941695,
                -1.4340531315395173,
                1.533881276932955,
                -2.6258546595048666
            ]
        },
        {
            "positions": [
                -0.5649335446429851,
                -1.4840108199514224,
                2.504421057544411,
                -1.5353513568565815,
                1.6090958472594865,
                -2.508812893046509
            ]
        },
        {
            "positions": [
                -0.610347591865408,
                -1.506082298528619,
                2.5207903241471263,
                -1.6366495821736458,
                1.6843104175860177,
                -2.3917711265881514
            ]
        },
        {
            "positions": [
                -0.6557616390878309,
                -1.528153777105816,
                2.537159590749842,
                -1.73794780749071,
                1.759524987912549,
                -2.2747293601297933
            ]
        },
        {
            "positions": [
                -0.7011756863102538,
                -1.550225255683013,
                2.5535288573525574,
                -1.8392460328077742,
                1.8347395582390802,
                -2.157687593671436
            ]
        },
        {
            "positions": [
                -0.7465897335326768,
                -1.5722967342602097,
                2.569898123955273,
                -1.9405442581248384,
                1.9099541285656116,
                -2.040645827213078
            ]
        },
        {
            "positions": [
                -0.7920037807550998,
                -1.5943682128374066,
                2.5862673905579885,
                -2.041842483441903,
                1.985168698892143,
                -1.9236040607547207
            ]
        },
        {
            "positions": [
                -0.8374178279775228,
                -1.6164396914146035,
                2.602636657160704,
                -2.143140708758967,
                2.0603832692186743,
                -1.8065622942963628
            ]
        },
        {
            "positions": [
                -0.8828318751999455,
                -1.6385111699918005,
                2.6190059237634196,
                -2.2444389340760313,
                2.1355978395452055,
                -1.6895205278380054
            ]
        },
        {
            "positions": [
                -0.9282459224223687,
                -1.6605826485689972,
                2.635375190366135,
                -2.345737159393096,
                2.2108124098717368,
                -1.5724787613796478
            ]
        },
        {
            "positions": [
                -0.9736599696447916,
                -1.6826541271461941,
                2.651744456968851,
                -2.44703538471016,
                2.286026980198268,
                -1.45543699492129
            ]
        },
        {
            "positions": [
                -1.0190740168672145,
                -1.704725605723391,
                2.6681137235715666,
                -2.548333610027224,
                2.3612415505247997,
                -1.3383952284629324
            ]
        },
        {
            "positions": [
                -1.0644880640896375,
                -1.7267970843005878,
                2.684482990174282,
                -2.6496318353442883,
                2.4364561208513305,
                -1.221353462004575
            ]
        },
        {
            "positions": [
                -1.1099021113120604,
                -1.7488685628777847,
                2.7008522567769977,
                -2.7509300606613527,
                2.511670691177862,
                -1.104311695546217
            ]
        },
        {
            "positions": [
                -1.1553161585344833,
                -1.7709400414549816,
                2.7172215233797132,
                -2.8522282859784167,
                2.5868852615043934,
                -0.9872699290878595
            ]
        },
        {
            "positions": [
                -1.074432379873146,
                -1.7769502044630587,
                2.703190884774791,
                -2.749031104317689,
                2.504806201593752,
                -1.0806392648093361
            ]
        },
        {
            "positions": [
                -0.9935486012118089,
                -1.7829603674711358,
                2.6891602461698687,
                -2.6458339226569616,
                2.4227271416831098,
                -1.1740086005308128
            ]
        },
        {
            "positions": [
                -0.9126648225504717,
                -1.7889705304792127,
                2.6751296075649464,
                -2.542636740996234,
                2.340648081772468,
                -1.2673779362522894
            ]
        },
        {
            "positions": [
                -0.8317810438891344,
                -1.7949806934872898,
                2.661098968960024,
                -2.439439559335506,
                2.2585690218618266,
                -1.360747271973766
            ]
        },
        {
            "positions": [
                -0.7508972652277971,
                -1.800990856495367,
                2.647068330355102,
                -2.3362423776747785,
                2.176489961951185,
                -1.4541166076952428
            ]
        },
        {
            "positions": [
                -0.6700134865664599,
                -1.807001019503444,
                2.633037691750179,
                -2.233045196014051,
                2.0944109020405435,
                -1.5474859434167194
            ]
        },
        {
            "positions": [
                -0.5891297079051225,
                -1.8130111825115212,
                2.619007053145257,
                -2.1298480143533234,
                2.0123318421299015,
                -1.6408552791381963
            ]
        },
        {
            "positions": [
                -0.5082459292437854,
                -1.8190213455195983,
                2.6049764145403347,
                -2.026650832692596,
                1.9302527822192599,
                -1.7342246148596727
            ]
        },
        {
            "positions": [
                -0.4273621505824481,
                -1.8250315085276752,
                2.5909457759354124,
                -1.9234536510318678,
                1.848173722308618,
                -1.8275939505811496
            ]
        },
        {
            "positions": [
                -0.34647837192111086,
                -1.8310416715357523,
                2.57691513733049,
                -1.8202564693711405,
                1.7660946623979765,
                -1.920963286302626
            ]
        },
        {
            "positions": [
                -0.26559459325977364,
                -1.8370518345438294,
                2.562884498725568,
                -1.7170592877104127,
                1.6840156024873347,
                -2.014332622024103
            ]
        },
        {
            "positions": [
                -0.1847108145984364,
                -1.8430619975519065,
                2.5488538601206456,
                -1.6138621060496852,
                1.6019365425766932,
                -2.1077019577455793
            ]
        },
        {
            "positions": [
                -0.10382703593709919,
                -1.8490721605599836,
                2.5348232215157234,
                -1.5106649243889576,
                1.5198574826660516,
                -2.2010712934670558
            ]
        },
        {
            "positions": [
                -0.02294325727576174,
                -1.8550823235680607,
                2.520792582910801,
                -1.4074677427282298,
                1.4377784227554096,
                -2.294440629188533
            ]
        },
        {
            "positions": [
                0.05794052138557526,
                -1.8610924865761376,
                2.506761944305879,
                -1.3042705610675023,
                1.355699362844768,
                -2.3878099649100095
            ]
        },
        {
            "positions": [
                0.13882430004691249,
                -1.8671026495842147,
                2.4927313057009566,
                -1.2010733794067747,
                1.2736203029341264,
                -2.481179300631486
            ]
        },
        {
            "positions": [
                0.2197080787082497,
                -1.8731128125922918,
                2.4787006670960343,
                -1.0978761977460472,
                1.1915412430234849,
                -2.5745486363529624
            ]
        },
        {
            "positions": [
                0.30059185736958716,
                -1.879122975600369,
                2.4646700284911116,
                -0.9946790160853192,
                1.1094621831128428,
                -2.6679179720744397
            ]
        },
        {
            "positions": [
                0.3814756360309244,
                -1.885133138608446,
                2.4506393898861893,
                -0.8914818344245916,
                1.0273831232022013,
                -2.761287307795916
            ]
        },
        {
            "positions": [
                0.4623594146922616,
                -1.8911433016165229,
                2.436608751281267,
                -0.7882846527638643,
                0.9453040632915597,
                -2.8546566435173926
            ]
        },
        {
            "positions": [
                0.5432431933535986,
                -1.8971534646246,
                2.422578112676345,
                -0.6850874711031367,
                0.8632250033809179,
                -2.948025979238869
            ]
        },
        {
            "positions": [
                0.624126972014936,
                -1.903163627632677,
                2.4085474740714226,
                -0.5818902894424087,
                0.7811459434702761,
                -3.0413953149603463
            ]
        },
        {
            "positions": [
                0.7050107506762733,
                -1.9091737906407542,
                2.3945168354665003,
                -0.4786931077816813,
                0.6990668835596345,
                -3.1347646506818228
            ]
        }
    ]
}