{
    "goal": {
        "global_pose": {
            "orientation": {
                "w": -0.00223480608172531,
                "x": 0.0024358444001904467,
                "y": 0.7094548369677653,
                "z": -0.704743149386269
            },
            "position": {
                "x": 0.6205249238014221,
                "y": -0.6371506643295288,
                "z": 0.19426114857196808
            }
        },
        "name": "move_to_magneteinheit_B"
    },
    "id": "LBKPIECE_move_to_magneteinheit_B_23",
    "joint_names": [
        "shoulder_pan_joint",
        "shoulder_lift_joint",
        "elbow_joint",
        "wrist_1_joint",
        "wrist_2_joint",
        "wrist_3_joint"
    ],
    "metrics": {
        "cart_traj_len": 3.4461698838144503,
        "distance_elbow_joint": 4.167780212290465,
        "distance_shoulder_lift_joint": 1.1320778175799482,
        "distance_shoulder_pan_joint": 2.377081429490536,
        "distance_wrist_1_joint": 4.010327071804775,
        "distance_wrist_2_joint": 1.2709049516203883,
        "distance_wrist_3_joint": 6.281765543900715,
        "smoothness": 0.22988565060282704,
        "time": 3.251053967,
        "traj_len": 4.386335261546572,
        "weighted_distance": 6.089720858784368
    },
    "planner": "LBKPIECE",
    "start": {
        "state": {
            "elbow_joint": 2.3935871308073637,
            "shoulder_lift_joint": -1.9085141043777403,
            "shoulder_pan_joint": 0.7066247067284167,
            "wrist_1_joint": -0.46782909355067076,
            "wrist_2_joint": 0.7096259085804283,
            "wrist_3_joint": -3.1358149275257428
        }
    },
    "waypoints": [
        {
            "positions": [
                0.7066247067284167,
                -1.9085141043777403,
                2.3935871308073637,
                -0.46782909355067076,
                0.7096259085804283,
                -3.1358149275257428
            ]
        },
        {
            "positions": [
                0.6642626013624083,
                -1.9033980166330902,
                2.349042398641357,
                -0.3283790340141299,
                0.6315472340341695,
                -3.0604676544384954
            ]
        },
        {
            "positions": [
                0.6219004959964,
                -1.89828192888844,
                2.3044976664753505,
                -0.188928974477589,
                0.5534685594879105,
                -2.985120381351248
            ]
        },
        {
            "positions": [
                0.5795383906303917,
                -1.89316584114379,
                2.2599529343093434,
                -0.04947891494104811,
                0.4753898849416517,
                -2.909773108264001
            ]
        },
        {
            "positions": [
                0.5371762852643833,
                -1.8880497533991398,
                2.215408202143337,
                0.08997114459549277,
                0.39731121039539274,
                -2.8344258351767535
            ]
        },
        {
            "positions": [
                0.49481417989837495,
                -1.8829336656544897,
                2.17086346997733,
                0.2294212041320336,
                0.3192325358491339,
                -2.759078562089506
            ]
        },
        {
            "positions": [
                0.5214042382334947,
                -1.9316746397829063,
                2.1469419160202503,
                0.26967885002285397,
                0.2824133586800844,
                -2.5827047301085564
            ]
        },
        {
            "positions": [
                0.5479942965686144,
                -1.9804156139113231,
                2.12302036206317,
                0.30993649591367434,
                0.24559418151103485,
                -2.406330898127607
            ]
        },
        {
            "positions": [
                0.5745843549037342,
                -2.02915658803974,
                2.09909880810609,
                0.35019414180449476,
                0.20877500434198532,
                -2.2299570661466577
            ]
        },
        {
            "positions": [
                0.6011744132388539,
                -2.0778975621681566,
                2.0751772541490103,
                0.39045178769531513,
                0.17195582717293578,
                -2.053583234165708
            ]
        },
        {
            "positions": [
                0.6277644715739736,
                -2.126638536296573,
                2.0512557001919305,
                0.4307094335861355,
                0.13513665000388625,
                -1.8772094021847583
            ]
        },
        {
            "positions": [
                0.6543545299090935,
                -2.17537951042499,
                2.0273341462348506,
                0.47096707947695593,
                0.09831747283483672,
                -1.7008355702038087
            ]
        },
        {
            "positions": [
                0.6809445882442132,
                -2.224120484553407,
                2.0034125922777704,
                0.5112247253677763,
                0.061498295665787184,
                -1.5244617382228591
            ]
        },
        {
            "positions": [
                0.707534646579333,
                -2.2728614586818234,
                1.9794910383206905,
                0.5514823712585967,
                0.02467911849673765,
                -1.3480879062419096
            ]
        },
        {
            "positions": [
                0.7626891960287552,
                -2.2589886902337795,
                1.8661213743808927,
                0.46914175190649904,
                0.023418990950212677,
                -1.2222985815057608
            ]
        },
        {
            "positions": [
                0.8178437454781774,
                -2.2451159217857355,
                1.7527517104410948,
                0.3868011325544014,
                0.022158863403687702,
                -1.096509256769612
            ]
        },
        {
            "positions": [
                0.8729982949275996,
                -2.231243153337692,
                1.6393820465012967,
                0.3044605132023037,
                0.020898735857162724,
                -0.9707199320334633
            ]
        },
        {
            "positions": [
                0.9281528443770218,
                -2.217370384889648,
                1.5260123825614988,
                0.22211989385020608,
                0.01963860831063775,
                -0.8449306072973145
            ]
        },
        {
            "positions": [
                0.983307393826444,
                -2.203497616441604,
                1.4126427186217008,
                0.1397792744981084,
                0.018378480764112776,
                -0.7191412825611657
            ]
        },
        {
            "positions": [
                1.0384619432758662,
                -2.18962484799356,
                1.299273054681903,
                0.057438655146010764,
                0.0171183532175878,
                -0.593351957825017
            ]
        },
        {
            "positions": [
                1.0936164927252885,
                -2.175752079545516,
                1.185903390742105,
                -0.024901964206086924,
                0.015858225671062827,
                -0.46756263308886825
            ]
        },
        {
            "positions": [
                1.1487710421747108,
                -2.1618793110974726,
                1.0725337268023072,
                -0.1072425835581845,
                0.01459809812453785,
                -0.34177330835271946
            ]
        },
        {
            "positions": [
                1.203925591624133,
                -2.1480065426494286,
                0.9591640628625091,
                -0.1895832029102822,
                0.013337970578012876,
                -0.21598398361657067
            ]
        },
        {
            "positions": [
                1.2590801410735553,
                -2.1341337742013846,
                0.8457943989227112,
                -0.2719238222623799,
                0.0120778430314879,
                -0.09019465888042189
            ]
        },
        {
            "positions": [
                1.3142346905229774,
                -2.1202610057533406,
                0.7324247349829134,
                -0.35426444161447745,
                0.010817715484962928,
                0.03559466585572668
            ]
        },
        {
            "positions": [
                1.3693892399723997,
                -2.106388237305297,
                0.6190550710431155,
                -0.43660506096657514,
                0.009557587938437952,
                0.16138399059187547
            ]
        },
        {
            "positions": [
                1.424543789421822,
                -2.092515468857253,
                0.5056854071033174,
                -0.5189456803186728,
                0.008297460391912977,
                0.28717331532802426
            ]
        },
        {
            "positions": [
                1.4796983388712441,
                -2.078642700409209,
                0.3923157431635196,
                -0.6012862996707705,
                0.0070373328453879995,
                0.41296264006417305
            ]
        },
        {
            "positions": [
                1.5348528883206662,
                -2.064769931961165,
                0.2789460792237215,
                -0.6836269190228682,
                0.005777205298863025,
                0.5387519648003218
            ]
        },
        {
            "positions": [
                1.5900074377700886,
                -2.0508971635131212,
                0.16557641528392386,
                -0.7659675383749657,
                0.004517077752338051,
                0.6645412895364706
            ]
        },
        {
            "positions": [
                1.6451619872195107,
                -2.0370243950650777,
                0.052206751344126,
                -0.8483081577270634,
                0.00325695020581308,
                0.790330614272619
            ]
        },
        {
            "positions": [
                1.700316536668933,
                -2.0231516266170337,
                -0.0611629125956723,
                -0.930648777079161,
                0.001996822659288102,
                0.9161199390087682
            ]
        },
        {
            "positions": [
                1.7554710861183551,
                -2.0092788581689898,
                -0.17453257653546972,
                -1.0129893964312586,
                0.0007366951127631277,
                1.041909263744917
            ]
        },
        {
            "positions": [
                1.8106256355677774,
                -1.9954060897209458,
                -0.287902240475268,
                -1.0953300157833565,
                -0.0005234324337618501,
                1.1676985884810658
            ]
        },
        {
            "positions": [
                1.8657801850171998,
                -1.981533321272902,
                -0.4012719044150659,
                -1.177670635135454,
                -0.0017835599802868245,
                1.2934879132172146
            ]
        },
        {
            "positions": [
                1.9209347344666217,
                -1.967660552824858,
                -0.5146415683548637,
                -1.2600112544875515,
                -0.0030436875268117954,
                1.419277237953363
            ]
        },
        {
            "positions": [
                1.976089283916044,
                -1.9537877843768143,
                -0.6280112322946616,
                -1.3423518738396494,
                -0.004303815073336773,
                1.5450665626895121
            ]
        },
        {
            "positions": [
                2.0312438333654663,
                -1.9399150159287704,
                -0.7413808962344595,
                -1.4246924931917468,
                -0.0055639426198617475,
                1.6708558874256605
            ]
        },
        {
            "positions": [
                2.0863983828148887,
                -1.9260422474807264,
                -0.8547505601742573,
                -1.5070331125438443,
                -0.006824070166386718,
                1.7966452121618093
            ]
        },
        {
            "positions": [
                2.141552932264311,
                -1.9121694790326826,
                -0.9681202241140556,
                -1.5893737318959422,
                -0.008084197712911696,
                1.922434536897958
            ]
        },
        {
            "positions": [
                2.196707481713733,
                -1.8982967105846387,
                -1.0814898880538535,
                -1.6717143512480397,
                -0.009344325259436674,
                2.048223861634107
            ]
        },
        {
            "positions": [
                2.251862031163155,
                -1.884423942136595,
                -1.1948595519936513,
                -1.7540549706001376,
                -0.010604452805961652,
                2.1740131863702556
            ]
        },
        {
            "positions": [
                2.3070165806125775,
                -1.870551173688551,
                -1.308229215933449,
                -1.8363955899522353,
                -0.011864580352486623,
                2.2998025111064044
            ]
        },
        {
            "positions": [
                2.3550170548195983,
                -1.8921555490192092,
                -1.3914908982399827,
                -1.9131521484979601,
                -0.0006548505785195884,
                2.434615277691324
            ]
        },
        {
            "positions": [
                2.403017529026619,
                -1.9137599243498675,
                -1.4747525805465167,
                -1.9899087070436847,
                0.010554879195447446,
                2.5694280442762434
            ]
        },
        {
            "positions": [
                2.45101800323364,
                -1.935364299680526,
                -1.5580142628530504,
                -2.0666652655894096,
                0.021764608969414484,
                2.7042408108611626
            ]
        },
        {
            "positions": [
                2.4990184774406607,
                -1.9569686750111843,
                -1.6412759451595842,
                -2.1434218241351344,
                0.032974338743381515,
                2.8390535774460823
            ]
        },
        {
            "positions": [
                2.5290165535777525,
                -2.003093482329406,
                -1.6595581368698817,
                -2.2075737185030784,
                -0.045692669441914885,
                2.914944120159082
            ]
        },
        {
            "positions": [
                2.559014629714844,
                -2.049218289647628,
                -1.6778403285801793,
                -2.271725612871022,
                -0.12435967762721128,
                2.9908346628720817
            ]
        },
        {
            "positions": [
                2.5890127058519363,
                -2.0953430969658497,
                -1.696122520290477,
                -2.3358775072389655,
                -0.20302668581250768,
                3.0667252055850813
            ]
        },
        {
            "positions": [
                2.619010781989028,
                -2.1414679042840716,
                -1.7144047120007746,
                -2.4000294016069095,
                -0.2816936939978041,
                3.142615748298081
            ]
        },
        {
            "positions": [
                2.660085082558869,
                -2.1848104745246424,
                -1.654616342518448,
                -2.43953323573691,
                -0.47160120484822426,
                3.139280880221187
            ]
        }
    ]
}