{
    "goal": {
        "global_pose": {
            "orientation": {
                "w": -0.4816463035849501,
                "x": 0.5182115481033762,
                "y": 0.4908360881923453,
                "z": -0.5084816262002911
            },
            "position": {
                "x": -0.8240239810943604,
                "y": -0.300875300988555,
                "z": 0.16403168439865112
            }
        },
        "name": "move_to_storage_C"
    },
    "id": "LBKPIECE_move_to_storage_C_31",
    "joint_names": [
        "shoulder_pan_joint",
        "shoulder_lift_joint",
        "elbow_joint",
        "wrist_1_joint",
        "wrist_2_joint",
        "wrist_3_joint"
    ],
    "metrics": {
        "cart_traj_len": 0.5763559681536695,
        "distance_elbow_joint": 0.2586548522789611,
        "distance_shoulder_lift_joint": 0.18948412433931783,
        "distance_shoulder_pan_joint": 0.4934294266696737,
        "distance_wrist_1_joint": 0.08038825520350279,
        "distance_wrist_2_joint": 1.0752357413864075,
        "distance_wrist_3_joint": 0.06651069660226216,
        "smoothness": 0.0,
        "time": 0.990965544,
        "traj_len": 1.4709531251811272,
        "weighted_distance": 1.8580496458045894
    },
    "planner": "LBKPIECE",
    "start": {
        "state": {
            "elbow_joint": 2.010868315001653,
            "shoulder_lift_joint": -1.1634956873357014,
            "shoulder_pan_joint": -2.4736205022346103,
            "wrist_1_joint": -0.8367026794713948,
            "wrist_2_joint": 0.6746043897044093,
            "wrist_3_joint": 3.1335220948105738
        }
    },
    "waypoints": [
        {
            "positions": [
                -2.4736205022346103,
                -1.1634956873357014,
                2.010868315001653,
                -0.8367026794713948,
                0.6746043897044093,
                3.1335220948105738
            ]
        },
        {
            "positions": [
                -2.5558587400128894,
                -1.1319149999458151,
                1.9677591729551596,
                -0.8233046369374777,
                0.8538103466021438,
                3.1446072109109506
            ]
        },
        {
            "positions": [
                -2.638096977791168,
                -1.1003343125559288,
                1.924650030908666,
                -0.8099065944035605,
                1.0330163034998785,
                3.155692327011328
            ]
        },
        {
            "positions": [
                -2.720335215569447,
                -1.0687536251660426,
                1.8815408888621725,
                -0.7965085518696433,
                1.212222260397613,
                3.166777443111705
            ]
        },
        {
            "positions": [
                -2.8025734533477262,
                -1.0371729377761563,
                1.838431746815679,
                -0.7831105093357262,
                1.3914282172953476,
                3.1778625592120817
            ]
        },
        {
            "positions": [
                -2.884811691126005,
                -1.00559225038627,
                1.7953226047691855,
                -0.7697124668018092,
                1.5706341741930823,
                3.188947675312459
            ]
        },
        {
            "positions": [
                -2.967049928904284,
                -0.9740115629963836,
                1.752213462722692,
                -0.756314424267892,
                1.7498401310908167,
                3.200032791412836
            ]
        }
    ]
}