{
    "goal": {
        "global_pose": {
            "orientation": {
                "w": 0.7047431493862688,
                "x": -0.7094548369677653,
                "y": 0.0024358444001904,
                "z": -0.0022348060817251984
            },
            "position": {
                "x": -0.39052492380142206,
                "y": 0.3671506643295288,
                "z": 0.19426114857196808
            }
        },
        "name": "move_to_magneteinheit_D"
    },
    "id": "LBKPIECE_move_to_magneteinheit_D_50",
    "joint_names": [
        "shoulder_pan_joint",
        "shoulder_lift_joint",
        "elbow_joint",
        "wrist_1_joint",
        "wrist_2_joint",
        "wrist_3_joint"
    ],
    "metrics": {
        "cart_traj_len": 5.374129575214741,
        "distance_elbow_joint": 7.803159600683921,
        "distance_shoulder_lift_joint": 1.9256451726222221,
        "distance_shoulder_pan_joint": 3.647825739543988,
        "distance_wrist_1_joint": 2.899061291121557,
        "distance_wrist_2_joint": 2.2499534633017513,
        "distance_wrist_3_joint": 5.911536056615044,
        "smoothness": 0.7487479685662962,
        "time": 4.805156366,
        "traj_len": 4.943397750928857,
        "weighted_distance": 6.435003355985285
    },
    "planner": "LBKPIECE",
    "start": {
        "state": {
            "elbow_joint": 0.7495348899011973,
            "shoulder_lift_joint": -0.6476975780737697,
            "shoulder_pan_joint": -2.711696901376276,
            "wrist_1_joint": -0.07506478080974305,
            "wrist_2_joint": 0.4329665971545858,
            "wrist_3_joint": 3.1361499051832524
        }
    },
    "waypoints": [
        {
            "positions": [
                -2.711696901376276,
                -0.6476975780737697,
                0.7495348899011973,
                -0.07506478080974305,
                0.4329665971545858,
                3.1361499051832524
            ]
        },
        {
            "positions": [
                -2.7193270470105686,
                -0.7125881034996906,
                0.6333763175287912,
                -0.10076046372981956,
                0.396501225544419,
                3.103825289863938
            ]
        },
        {
            "positions": [
                -2.7042481672475165,
                -0.7250851447246572,
                0.555310986599297,
                -0.17921366833881786,
                0.43348285800284336,
                3.01167403147754
            ]
        },
        {
            "positions": [
                -2.6043965017766393,
                -0.7715803893932159,
                0.47160349907770704,
                -0.1499931837933929,
                0.39635814061039915,
                2.9161035290076747
            ]
        },
        {
            "positions": [
                -2.504544836305762,
                -0.8180756340617746,
                0.3878960115561171,
                -0.12077269924796796,
                0.359233423217955,
                2.820533026537809
            ]
        },
        {
            "positions": [
                -2.404693170834885,
                -0.8645708787303332,
                0.3041885240345271,
                -0.09155221470254303,
                0.32210870582551077,
                2.724962524067944
            ]
        },
        {
            "positions": [
                -2.3048415053640077,
                -0.9110661233988919,
                0.22048103651293716,
                -0.062331730157118084,
                0.2849839884330666,
                2.629392021598078
            ]
        },
        {
            "positions": [
                -2.2049898398931305,
                -0.9575613680674506,
                0.1367735489913472,
                -0.03311124561169315,
                0.2478592710406224,
                2.533821519128213
            ]
        },
        {
            "positions": [
                -2.1051381744222533,
                -1.0040566127360093,
                0.05306606146975723,
                -0.0038907610662682057,
                0.2107345536481782,
                2.4382510166583473
            ]
        },
        {
            "positions": [
                -2.005286508951376,
                -1.050551857404568,
                -0.030641426051832732,
                0.025329723479156713,
                0.173609836255734,
                2.342680514188482
            ]
        },
        {
            "positions": [
                -1.9054348434804989,
                -1.0970471020731267,
                -0.1143489135734227,
                0.05455020802458169,
                0.1364851188632898,
                2.2471100117186165
            ]
        },
        {
            "positions": [
                -1.8055831780096216,
                -1.1435423467416854,
                -0.19805640109501266,
                0.08377069257000663,
                0.09936040147084557,
                2.1515395092487513
            ]
        },
        {
            "positions": [
                -1.7057315125387444,
                -1.1900375914102441,
                -0.2817638886166026,
                0.11299117711543155,
                0.06223568407840141,
                2.055969006778886
            ]
        },
        {
            "positions": [
                -1.605879847067867,
                -1.2365328360788028,
                -0.3654713761381927,
                0.14221166166085653,
                0.025110966685957192,
                1.9603985043090204
            ]
        },
        {
            "positions": [
                -1.50602818159699,
                -1.2830280807473615,
                -0.44917886365978255,
                0.17143214620628144,
                -0.01201375070648697,
                1.864828001839155
            ]
        },
        {
            "positions": [
                -1.4061765161261126,
                -1.32952332541592,
                -0.5328863511813725,
                0.20065263075170636,
                -0.04913846809893119,
                1.7692574993692896
            ]
        },
        {
            "positions": [
                -1.3063248506552356,
                -1.376018570084479,
                -0.6165938387029625,
                0.22987311529713128,
                -0.08626318549137535,
                1.6736869968994244
            ]
        },
        {
            "positions": [
                -1.2064731851843582,
                -1.4225138147530374,
                -0.7003013262245524,
                0.25909359984255625,
                -0.12338790288381962,
                1.5781164944295587
            ]
        },
        {
            "positions": [
                -1.106621519713481,
                -1.4690090594215963,
                -0.7840088137461424,
                0.28831408438798123,
                -0.16051262027626378,
                1.4825459919596933
            ]
        },
        {
            "positions": [
                -1.0067698542426038,
                -1.5155043040901548,
                -0.8677163012677324,
                0.31753456893340615,
                -0.19763733766870795,
                1.386975489489828
            ]
        },
        {
            "positions": [
                -0.9069181887717266,
                -1.5619995487587135,
                -0.9514237887893223,
                0.3467550534788311,
                -0.23476205506115222,
                1.2914049870199626
            ]
        },
        {
            "positions": [
                -0.8070665233008494,
                -1.6084947934272722,
                -1.0351312763109122,
                0.37597553802425604,
                -0.27188677245359627,
                1.1958344845500972
            ]
        },
        {
            "positions": [
                -0.7072148578299722,
                -1.654990038095831,
                -1.1188387638325024,
                0.405196022569681,
                -0.30901148984604054,
                1.1002639820802318
            ]
        },
        {
            "positions": [
                -0.6506209793234691,
                -1.6876903648853367,
                -0.9962363067867992,
                0.3742419223641945,
                -0.33410202404589157,
                0.9738312002255483
            ]
        },
        {
            "positions": [
                -0.594027100816966,
                -1.7203906916748428,
                -0.8736338497410961,
                0.34328782215870807,
                -0.35919255824574253,
                0.8473984183708647
            ]
        },
        {
            "positions": [
                -0.5374332223104629,
                -1.7530910184643487,
                -0.7510313926953931,
                0.31233372195322157,
                -0.38428309244559355,
                0.7209656365161813
            ]
        },
        {
            "positions": [
                -0.48083934380395976,
                -1.7857913452538545,
                -0.6284289356496899,
                0.2813796217477351,
                -0.4093736266454446,
                0.5945328546614977
            ]
        },
        {
            "positions": [
                -0.4242454652974567,
                -1.8184916720433604,
                -0.5058264786039868,
                0.2504255215422486,
                -0.4344641608452956,
                0.4681000728068142
            ]
        },
        {
            "positions": [
                -0.3676515867909536,
                -1.8511919988328662,
                -0.3832240215582837,
                0.21947142133676212,
                -0.45955469504514657,
                0.3416672909521308
            ]
        },
        {
            "positions": [
                -0.3110577082844505,
                -1.8838923256223723,
                -0.26062156451258056,
                0.18851732113127564,
                -0.4846452292449976,
                0.21523450909744724
            ]
        },
        {
            "positions": [
                -0.2544638297779474,
                -1.9165926524118782,
                -0.1380191074668775,
                0.15756322092578917,
                -0.5097357634448486,
                0.0888017272427637
            ]
        },
        {
            "positions": [
                -0.19786995127144436,
                -1.949292979201384,
                -0.01541665042117435,
                0.12660912072030267,
                -0.5348262976446996,
                -0.037631054611919845
            ]
        },
        {
            "positions": [
                -0.14127607276494125,
                -1.98199330599089,
                0.10718580662452881,
                0.09565502051481617,
                -0.5599168318445507,
                -0.16406383646660339
            ]
        },
        {
            "positions": [
                -0.08468219425843804,
                -2.014693632780396,
                0.22978826367023197,
                0.06470092030932967,
                -0.5850073660444016,
                -0.2904966183212869
            ]
        },
        {
            "positions": [
                -0.028088315751935045,
                -2.0473939595699018,
                0.3523907207159349,
                0.03374682010384322,
                -0.6100979002442526,
                -0.41692940017597024
            ]
        },
        {
            "positions": [
                0.02850556275456806,
                -2.0800942863594076,
                0.4749931777616381,
                0.0027927198983567214,
                -0.6351884344441037,
                -0.543362182030654
            ]
        },
        {
            "positions": [
                0.08509944126107116,
                -2.1127946131489135,
                0.5975956348073412,
                -0.028161380307129724,
                -0.6602789686439546,
                -0.6697949638853373
            ]
        },
        {
            "positions": [
                0.14169331976757427,
                -2.1454949399384198,
                0.7201980918530444,
                -0.059115480512616225,
                -0.6853695028438056,
                -0.7962277457400211
            ]
        },
        {
            "positions": [
                0.19828719827407737,
                -2.1781952667279256,
                0.8428005488987473,
                -0.09006958071810267,
                -0.7104600370436567,
                -0.9226605275947044
            ]
        },
        {
            "positions": [
                0.2548810767805805,
                -2.2108955935174315,
                0.9654030059444505,
                -0.12102368092358917,
                -0.7355505712435078,
                -1.049093309449388
            ]
        },
        {
            "positions": [
                0.31147495528708347,
                -2.2435959203069373,
                1.0880054629901537,
                -0.15197778112907567,
                -0.7606411054433586,
                -1.1755260913040715
            ]
        },
        {
            "positions": [
                0.3680688337935867,
                -2.276296247096443,
                1.2106079200358568,
                -0.18293188133456217,
                -0.7857316396432097,
                -1.301958873158755
            ]
        },
        {
            "positions": [
                0.34691800164638287,
                -2.26796200374689,
                1.0214847726844811,
                -0.11639538343000674,
                -0.7721374995034674,
                -1.22250432043812
            ]
        },
        {
            "positions": [
                0.32576716949917905,
                -2.259627760397337,
                0.8323616253331053,
                -0.04985888552545131,
                -0.7585433593637253,
                -1.143049767717485
            ]
        },
        {
            "positions": [
                0.30461633735197524,
                -2.251293517047784,
                0.6432384779817295,
                0.016677612379104145,
                -0.744949219223983,
                -1.06359521499685
            ]
        },
        {
            "positions": [
                0.2834655052047714,
                -2.242959273698231,
                0.4541153306303538,
                0.08321411028365955,
                -0.7313550790842408,
                -0.984140662276215
            ]
        },
        {
            "positions": [
                0.26231467305756756,
                -2.234625030348678,
                0.2649921832789779,
                0.14975060818821506,
                -0.7177609389444987,
                -0.9046861095555798
            ]
        },
        {
            "positions": [
                0.24116384091036375,
                -2.226290786999125,
                0.07586903592760219,
                0.21628710609277046,
                -0.7041667988047564,
                -0.8252315568349449
            ]
        },
        {
            "positions": [
                0.2200130087631599,
                -2.217956543649572,
                -0.11325411142377351,
                0.2828236039973259,
                -0.6905726586650142,
                -0.7457770041143098
            ]
        },
        {
            "positions": [
                0.1988621766159561,
                -2.209622300300019,
                -0.3023772587751492,
                0.34936010190188127,
                -0.676978518525272,
                -0.6663224513936749
            ]
        },
        {
            "positions": [
                0.17771134446875225,
                -2.2012880569504665,
                -0.4915004061265251,
                0.4158965998064368,
                -0.6633843783855298,
                -0.5868678986730398
            ]
        },
        {
            "positions": [
                0.1565605123215484,
                -2.1929538136009135,
                -0.680623553477901,
                0.4824330977109923,
                -0.6497902382457875,
                -0.5074133459524047
            ]
        },
        {
            "positions": [
                0.13540968017434457,
                -2.1846195702513604,
                -0.869746700829277,
                0.5489695956155477,
                -0.6361960981060453,
                -0.42795879323176966
            ]
        },
        {
            "positions": [
                0.11425884802714081,
                -2.1762853269018074,
                -1.0588698481806524,
                0.6155060935201031,
                -0.6226019579663031,
                -0.3485042405111347
            ]
        },
        {
            "positions": [
                0.09310801587993695,
                -2.1679510835522544,
                -1.2479929955320284,
                0.6820425914246585,
                -0.6090078178265609,
                -0.26904968779049976
            ]
        },
        {
            "positions": [
                0.07195718373273313,
                -2.1596168402027014,
                -1.4371161428834038,
                0.748579089329214,
                -0.5954136776868187,
                -0.18959513506986458
            ]
        },
        {
            "positions": [
                0.050806351585529264,
                -2.1512825968531484,
                -1.6262392902347798,
                0.8151155872337694,
                -0.5818195375470765,
                -0.11014058234922963
            ]
        },
        {
            "positions": [
                0.029655519438325506,
                -2.1429483535035954,
                -1.8153624375861552,
                0.8816520851383247,
                -0.5682253974073344,
                -0.03068602962859468
            ]
        },
        {
            "positions": [
                0.008504687291121638,
                -2.1346141101540423,
                -2.004485584937531,
                0.9481885830428802,
                -0.5546312572675921,
                0.048768523092040494
            ]
        },
        {
            "positions": [
                -0.012646144856082203,
                -2.1262798668044893,
                -2.193608732288907,
                1.0147250809474357,
                -0.5410371171278499,
                0.12822307581267556
            ]
        },
        {
            "positions": [
                -0.04706309174725633,
                -2.155685891466008,
                -2.2338332544403263,
                1.0996686502469841,
                -0.39851762931350043,
                0.11957400995235365
            ]
        },
        {
            "positions": [
                -0.08148003863843045,
                -2.185091916127527,
                -2.274057776591745,
                1.1846122195465325,
                -0.25599814149915107,
                0.11092494409203173
            ]
        },
        {
            "positions": [
                -0.11589698552960456,
                -2.2144979407890464,
                -2.3142822987431644,
                1.269555788846081,
                -0.11347865368480164,
                0.10227587823170982
            ]
        },
        {
            "positions": [
                -0.1503139324207787,
                -2.2439039654505653,
                -2.354506820894583,
                1.3544993581456295,
                0.02904083412954772,
                0.0936268123713879
            ]
        },
        {
            "positions": [
                -0.1847308793119528,
                -2.273309990112084,
                -2.3947313430460024,
                1.4394429274451779,
                0.17156032194389711,
                0.08497774651106599
            ]
        }
    ]
}