{
    "goal": {
        "global_pose": {
            "orientation": {
                "w": 0.5084816262002911,
                "x": -0.4908360881923452,
                "y": 0.5182115481033761,
                "z": -0.48164630358495003
            },
            "position": {
                "x": 0.5540239810943604,
                "y": -0.46912469901144505,
                "z": 0.16403168439865112
            }
        },
        "name": "move_to_storage_B"
    },
    "id": "LBKPIECE_move_to_storage_B_84",
    "joint_names": [
        "shoulder_pan_joint",
        "shoulder_lift_joint",
        "elbow_joint",
        "wrist_1_joint",
        "wrist_2_joint",
        "wrist_3_joint"
    ],
    "metrics": {
        "cart_traj_len": 0.7900572610291788,
        "distance_elbow_joint": 0.6146774084800108,
        "distance_shoulder_lift_joint": 0.45769843280924083,
        "distance_shoulder_pan_joint": 0.5379319060174096,
        "distance_wrist_1_joint": 2.9807342431913355,
        "distance_wrist_2_joint": 2.702528104027846,
        "distance_wrist_3_joint": 3.1842222873122967,
        "smoothness": 0.2728722063091706,
        "time": 1.607608248,
        "traj_len": 3.236941825525775,
        "weighted_distance": 4.746524971353455
    },
    "planner": "LBKPIECE",
    "start": {
        "state": {
            "elbow_joint": 1.6649325706314817,
            "shoulder_lift_joint": -0.6616388048112454,
            "shoulder_pan_joint": -0.9139837860083814,
            "wrist_1_joint": 2.146757197745094,
            "wrist_2_joint": -2.234196043158733,
            "wrist_3_joint": 0.005471033829999897
        }
    },
    "waypoints": [
        {
            "positions": [
                -0.9139837860083814,
                -0.6616388048112454,
                1.6649325706314817,
                2.146757197745094,
                -2.234196043158733,
                0.005471033829999897
            ]
        },
        {
            "positions": [
                -0.8785158611741484,
                -0.669363043837608,
                1.6427891361888272,
                2.1433620268699034,
                -2.2283648087001326,
                0.025767253131136494
            ]
        },
        {
            "positions": [
                -0.8500161229563988,
                -0.6929682102492962,
                1.6205132112781604,
                2.042344950729281,
                -2.12467275638663,
                -0.04878808253681946
            ]
        },
        {
            "positions": [
                -0.8215163847386494,
                -0.7165733766609843,
                1.5982372863674936,
                1.9413278745886586,
                -2.020980704073128,
                -0.12334341820477542
            ]
        },
        {
            "positions": [
                -0.7930166465208999,
                -0.7401785430726725,
                1.575961361456827,
                1.8403107984480365,
                -1.9172886517596255,
                -0.19789875387273131
            ]
        },
        {
            "positions": [
                -0.7645169083031504,
                -0.7637837094843607,
                1.5536854365461603,
                1.739293722307414,
                -1.8135965994461232,
                -0.27245408954068734
            ]
        },
        {
            "positions": [
                -0.7360171700854009,
                -0.7873888758960488,
                1.5314095116354935,
                1.6382766461667917,
                -1.7099045471326209,
                -0.34700942520864325
            ]
        },
        {
            "positions": [
                -0.7523792287260568,
                -0.8024774377926142,
                1.5532801638847673,
                1.5259014783661993,
                -1.6108937922234512,
                -0.4738798520118878
            ]
        },
        {
            "positions": [
                -0.7687412873667127,
                -0.8175659996891794,
                1.575150816134041,
                1.4135263105656068,
                -1.5118830373142813,
                -0.6007502788151324
            ]
        },
        {
            "positions": [
                -0.7851033460073685,
                -0.8326545615857448,
                1.5970214683833148,
                1.3011511427650144,
                -1.4128722824051116,
                -0.7276207056183769
            ]
        },
        {
            "positions": [
                -0.8014654046480244,
                -0.8477431234823102,
                1.6188921206325886,
                1.188775974964422,
                -1.3138615274959418,
                -0.8544911324216216
            ]
        },
        {
            "positions": [
                -0.8178274632886803,
                -0.8628316853788754,
                1.6407627728818623,
                1.0764008071638296,
                -1.214850772586772,
                -0.9813615592248661
            ]
        },
        {
            "positions": [
                -0.8341895219293362,
                -0.8779202472754408,
                1.662633425131136,
                0.9640256393632372,
                -1.1158400176776024,
                -1.1082319860281105
            ]
        },
        {
            "positions": [
                -0.850551580569992,
                -0.8930088091720061,
                1.6845040773804099,
                0.8516504715626447,
                -1.0168292627684326,
                -1.2351024128313552
            ]
        },
        {
            "positions": [
                -0.8669136392106479,
                -0.9080973710685715,
                1.7063747296296836,
                0.7392753037620523,
                -0.9178185078592628,
                -1.3619728396345998
            ]
        },
        {
            "positions": [
                -0.8832756978513038,
                -0.9231859329651368,
                1.7282453818789574,
                0.6269001359614599,
                -0.8188077529500929,
                -1.4888432664378444
            ]
        },
        {
            "positions": [
                -0.8996377564919595,
                -0.9382744948617021,
                1.7501160341282311,
                0.5145249681608675,
                -0.7197969980409232,
                -1.615713693241089
            ]
        },
        {
            "positions": [
                -0.9159998151326154,
                -0.9533630567582675,
                1.771986686377505,
                0.40214980036027503,
                -0.6207862431317535,
                -1.7425841200443335
            ]
        },
        {
            "positions": [
                -0.9323618737732713,
                -0.9684516186548329,
                1.7938573386267787,
                0.2897746325596826,
                -0.5217754882225838,
                -1.8694545468475778
            ]
        },
        {
            "positions": [
                -0.9487239324139272,
                -0.9835401805513981,
                1.8157279908760524,
                0.1773994647590902,
                -0.4227647333134139,
                -1.9963249736508226
            ]
        },
        {
            "positions": [
                -0.965085991054583,
                -0.9986287424479635,
                1.8375986431253262,
                0.06502429695849776,
                -0.32375397840424425,
                -2.123195400454067
            ]
        },
        {
            "positions": [
                -0.9814480496952389,
                -1.013717304344529,
                1.8594692953746,
                -0.04735087084209444,
                -0.22474322349507458,
                -2.2500658272573113
            ]
        },
        {
            "positions": [
                -0.9978101083358948,
                -1.0288058662410942,
                1.8813399476238737,
                -0.15972603864268708,
                -0.1257324685859047,
                -2.3769362540605563
            ]
        },
        {
            "positions": [
                -1.0141721669765507,
                -1.0438944281376594,
                1.9032105998731474,
                -0.2721012064432795,
                -0.026721713676734815,
                -2.503806680863801
            ]
        },
        {
            "positions": [
                -1.0305342256172065,
                -1.058982990034225,
                1.9250812521224212,
                -0.38447637424387193,
                0.07228904123243507,
                -2.6306771076670454
            ]
        },
        {
            "positions": [
                -1.0468962842578624,
                -1.0740715519307902,
                1.946951904371695,
                -0.4968515420444646,
                0.17129979614160473,
                -2.75754753447029
            ]
        },
        {
            "positions": [
                -1.0632583428985183,
                -1.0891601138273554,
                1.9688225566209687,
                -0.6092267098450568,
                0.2703105510507744,
                -2.8844179612735346
            ]
        },
        {
            "positions": [
                -1.0796204015391742,
                -1.104248675723921,
                1.9906932088702425,
                -0.7216018776456494,
                0.3693213059599443,
                -3.011288388076779
            ]
        },
        {
            "positions": [
                -1.09598246017983,
                -1.1193372376204862,
                2.0125638611195162,
                -0.8339770454462416,
                0.4683320608691141,
                -3.1381588148800237
            ]
        }
    ]
}