{
    "goal": {
        "global_pose": {
            "orientation": {
                "w": 0.7031023480610252,
                "x": -0.7110244013736278,
                "y": 0.0077485991402295624,
                "z": 0.005598929693374583
            },
            "position": {
                "x": -0.8841497679147869,
                "y": 0.44412534475326537,
                "z": 0.3711530566215515
            }
        },
        "name": "move_to_auspresseinheit_D"
    },
    "id": "LBKPIECE_move_to_auspresseinheit_D_71",
    "joint_names": [
        "shoulder_pan_joint",
        "shoulder_lift_joint",
        "elbow_joint",
        "wrist_1_joint",
        "wrist_2_joint",
        "wrist_3_joint"
    ],
    "metrics": {
        "cart_traj_len": 3.668153333211323,
        "distance_elbow_joint": 2.993179028836456,
        "distance_shoulder_lift_joint": 1.2469438160363997,
        "distance_shoulder_pan_joint": 2.7974497831196055,
        "distance_wrist_1_joint": 2.6791685020086584,
        "distance_wrist_2_joint": 1.2157517180681991,
        "distance_wrist_3_joint": 6.2167174751438665,
        "smoothness": 0.0638742349089424,
        "time": 4.857458711,
        "traj_len": 4.141160504401294,
        "weighted_distance": 5.785980080641288
    },
    "planner": "LBKPIECE",
    "start": {
        "state": {
            "elbow_joint": 1.8268400409724999,
            "shoulder_lift_joint": -1.0144045787793008,
            "shoulder_pan_joint": 2.6280239544362485,
            "wrist_1_joint": -0.790705565816056,
            "wrist_2_joint": 1.0573557467365533,
            "wrist_3_joint": 3.1851377467193758
        }
    },
    "waypoints": [
        {
            "positions": [
                2.6280239544362485,
                -1.0144045787793008,
                1.8268400409724999,
                -0.790705565816056,
                1.0573557467365533,
                3.1851377467193758
            ]
        },
        {
            "positions": [
                2.5828737146946548,
                -1.0587070181267744,
                1.7503166992370744,
                -0.7575190161927057,
                1.007794505648753,
                3.085762035748859
            ]
        },
        {
            "positions": [
                2.537723474953061,
                -1.1030094574742477,
                1.673793357501649,
                -0.7243324665693555,
                0.9582332645609525,
                2.9863863247783424
            ]
        },
        {
            "positions": [
                2.4925732352114673,
                -1.147311896821721,
                1.5972700157662236,
                -0.6911459169460052,
                0.9086720234731521,
                2.8870106138078255
            ]
        },
        {
            "positions": [
                2.447422995469874,
                -1.1916143361691947,
                1.5207466740307982,
                -0.6579593673226549,
                0.8591107823853517,
                2.7876349028373086
            ]
        },
        {
            "positions": [
                2.4022727557282804,
                -1.2359167755166682,
                1.444223332295373,
                -0.6247728176993046,
                0.8095495412975513,
                2.6882591918667917
            ]
        },
        {
            "positions": [
                2.3571225159866867,
                -1.2802192148641416,
                1.3676999905599476,
                -0.5915862680759544,
                0.7599883002097509,
                2.588883480896275
            ]
        },
        {
            "positions": [
                2.311972276245093,
                -1.324521654211615,
                1.2911766488245222,
                -0.5583997184526042,
                0.7104270591219506,
                2.4895077699257584
            ]
        },
        {
            "positions": [
                2.2668220365034992,
                -1.3688240935590885,
                1.2146533070890968,
                -0.5252131688292538,
                0.6608658180341501,
                2.3901320589552415
            ]
        },
        {
            "positions": [
                2.200977499606557,
                -1.3929463719714295,
                1.1503021639822575,
                -0.5904476581541689,
                0.6387236075107503,
                2.2435993079449785
            ]
        },
        {
            "positions": [
                2.135132962709615,
                -1.4170686503837702,
                1.0859510208754184,
                -0.6556821474790839,
                0.6165813969873504,
                2.0970665569347156
            ]
        },
        {
            "positions": [
                2.069288425812673,
                -1.441190928796111,
                1.021599877768579,
                -0.720916636803999,
                0.5944391864639506,
                1.9505338059244524
            ]
        },
        {
            "positions": [
                2.003443888915731,
                -1.465313207208452,
                0.9572487346617398,
                -0.786151126128914,
                0.5722969759405506,
                1.8040010549141894
            ]
        },
        {
            "positions": [
                1.9375993520187889,
                -1.4894354856207928,
                0.8928975915549004,
                -0.851385615453829,
                0.5501547654171508,
                1.6574683039039262
            ]
        },
        {
            "positions": [
                1.871754815121847,
                -1.5135577640331337,
                0.8285464484480611,
                -0.916620104778744,
                0.5280125548937509,
                1.5109355528936632
            ]
        },
        {
            "positions": [
                1.8059102782249048,
                -1.5376800424454746,
                0.7641953053412219,
                -0.9818545941036589,
                0.505870344370351,
                1.3644028018834002
            ]
        },
        {
            "positions": [
                1.7400657413279628,
                -1.5618023208578156,
                0.6998441622343827,
                -1.047089083428574,
                0.4837281338469511,
                1.2178700508731373
            ]
        },
        {
            "positions": [
                1.6742212044310207,
                -1.5859245992701563,
                0.6354930191275434,
                -1.112323572753489,
                0.4615859233235513,
                1.071337299862874
            ]
        },
        {
            "positions": [
                1.6083766675340787,
                -1.6100468776824972,
                0.5711418760207042,
                -1.177558062078404,
                0.4394437128001514,
                0.9248045488526111
            ]
        },
        {
            "positions": [
                1.5425321306371367,
                -1.634169156094838,
                0.5067907329138649,
                -1.2427925514033191,
                0.41730150227675156,
                0.7782717978423481
            ]
        },
        {
            "positions": [
                1.4766875937401946,
                -1.6582914345071789,
                0.4424395898070256,
                -1.3080270407282342,
                0.3951592917533517,
                0.6317390468320849
            ]
        },
        {
            "positions": [
                1.4108430568432526,
                -1.6824137129195198,
                0.3780884467001864,
                -1.3732615300531492,
                0.3730170812299518,
                0.48520629582182195
            ]
        },
        {
            "positions": [
                1.3449985199463104,
                -1.7065359913318607,
                0.31373730359334706,
                -1.4384960193780643,
                0.35087487070655193,
                0.338673544811559
            ]
        },
        {
            "positions": [
                1.2791539830493686,
                -1.7306582697442014,
                0.24938616048650786,
                -1.5037305087029793,
                0.32873266018315206,
                0.192140793801296
            ]
        },
        {
            "positions": [
                1.2133094461524263,
                -1.7547805481565424,
                0.18503501737966865,
                -1.5689649980278944,
                0.3065904496597522,
                0.04560804279103303
            ]
        },
        {
            "positions": [
                1.1474649092554843,
                -1.778902826568883,
                0.12068387427282934,
                -1.6341994873528092,
                0.2844482391363523,
                -0.10092470821923039
            ]
        },
        {
            "positions": [
                1.0816203723585422,
                -1.803025104981224,
                0.056332731165990024,
                -1.6994339766777242,
                0.26230602861295244,
                -0.24745745922949336
            ]
        },
        {
            "positions": [
                1.0157758354616004,
                -1.827147383393565,
                -0.008018411940849068,
                -1.7646684660026393,
                0.24016381808955262,
                -0.3939902102397559
            ]
        },
        {
            "positions": [
                0.9499312985646582,
                -1.851269661805906,
                -0.07236955504768838,
                -1.8299029553275543,
                0.2180216075661527,
                -0.5405229612500193
            ]
        },
        {
            "positions": [
                0.8840867616677164,
                -1.8753919402182466,
                -0.1367206981545277,
                -1.8951374446524691,
                0.19587939704275287,
                -0.6870557122602823
            ]
        },
        {
            "positions": [
                0.8182422247707741,
                -1.8995142186305876,
                -0.201071841261367,
                -1.9603719339773844,
                0.17373718651935294,
                -0.8335884632705453
            ]
        },
        {
            "positions": [
                0.7523976878738321,
                -1.9236364970429283,
                -0.2654229843682061,
                -2.0256064233022992,
                0.15159497599595317,
                -0.9801212142808082
            ]
        },
        {
            "positions": [
                0.6865531509768901,
                -1.9477587754552692,
                -0.32977412747504564,
                -2.0908409126272147,
                0.12945276547255324,
                -1.1266539652910716
            ]
        },
        {
            "positions": [
                0.620708614079948,
                -1.9718810538676101,
                -0.39412527058188473,
                -2.1560754019521293,
                0.10731055494915342,
                -1.2731867163013342
            ]
        },
        {
            "positions": [
                0.5548640771830058,
                -1.996003332279951,
                -0.45847641368872405,
                -2.221309891277045,
                0.0851683444257535,
                -1.4197194673115976
            ]
        },
        {
            "positions": [
                0.489019540286064,
                -2.0201256106922916,
                -0.5228275567955631,
                -2.2865443806019594,
                0.06302613390235368,
                -1.5662522183218601
            ]
        },
        {
            "positions": [
                0.42317500338912173,
                -2.044247889104633,
                -0.5871786999024027,
                -2.3517788699268745,
                0.040883923378953746,
                -1.7127849693321235
            ]
        },
        {
            "positions": [
                0.3573304664921799,
                -2.0683701675169734,
                -0.6515298430092418,
                -2.4170133592517895,
                0.018741712855553927,
                -1.859317720342386
            ]
        },
        {
            "positions": [
                0.29148592959523767,
                -2.0924924459293144,
                -0.7158809861160811,
                -2.4822478485767046,
                -0.003400497667846003,
                -2.0058504713526495
            ]
        },
        {
            "positions": [
                0.22564139269829564,
                -2.1166147243416553,
                -0.7802321292229202,
                -2.547482337901619,
                -0.025542708191245822,
                -2.152383222362913
            ]
        },
        {
            "positions": [
                0.1597968558013534,
                -2.1407370027539963,
                -0.8445832723297595,
                -2.612716827226535,
                -0.04768491871464575,
                -2.2989159733731754
            ]
        },
        {
            "positions": [
                0.09395231890441158,
                -2.164859281166337,
                -0.9089344154365986,
                -2.6779513165514492,
                -0.06982712923804557,
                -2.445448724383439
            ]
        },
        {
            "positions": [
                0.02810778200746933,
                -2.1889815595786777,
                -0.9732855585434381,
                -2.7431858058763643,
                -0.0919693397614455,
                -2.5919814753937023
            ]
        },
        {
            "positions": [
                -0.03773675488947248,
                -2.2131038379910186,
                -1.0376367016502772,
                -2.8084202952012793,
                -0.11411155028484532,
                -2.738514226403965
            ]
        },
        {
            "positions": [
                -0.10358129178641473,
                -2.2372261164033596,
                -1.1019878447571168,
                -2.8736547845261944,
                -0.13625376080824525,
                -2.885046977414228
            ]
        },
        {
            "positions": [
                -0.1694258286833564,
                -2.2613483948157005,
                -1.1663389878639558,
                -2.93888927385111,
                -0.1583959713316451,
                -3.0315797284244907
            ]
        }
    ]
}