{
    "goal": {
        "global_pose": {
            "orientation": {
                "w": 0.005598929693374612,
                "x": 0.007748599140229565,
                "y": 0.7110244013736278,
                "z": -0.7031023480610252
            },
            "position": {
                "x": -0.8858502320852131,
                "y": -0.7141253447532654,
                "z": 0.3711530566215515
            }
        },
        "name": "move_to_auspresseinheit_C"
    },
    "id": "LBKPIECE_move_to_auspresseinheit_C_22",
    "joint_names": [
        "shoulder_pan_joint",
        "shoulder_lift_joint",
        "elbow_joint",
        "wrist_1_joint",
        "wrist_2_joint",
        "wrist_3_joint"
    ],
    "metrics": {
        "cart_traj_len": 0.4943145381700395,
        "distance_elbow_joint": 1.0202004388989931,
        "distance_shoulder_lift_joint": 0.33423083207616244,
        "distance_shoulder_pan_joint": 0.2558213213417888,
        "distance_wrist_1_joint": 0.7166333193959529,
        "distance_wrist_2_joint": 1.313757138322893,
        "distance_wrist_3_joint": 0.07770844352821094,
        "smoothness": 0.0,
        "time": 2.6924992029999997,
        "traj_len": 1.9283027494571492,
        "weighted_distance": 2.429847492814985
    },
    "planner": "LBKPIECE",
    "start": {
        "state": {
            "elbow_joint": 1.752795957773711,
            "shoulder_lift_joint": -0.9740617694225064,
            "shoulder_pan_joint": -2.967991417825858,
            "wrist_1_joint": -0.7595177689806859,
            "wrist_2_joint": 1.7443932448377395,
            "wrist_3_joint": 3.199131542505932
        }
    },
    "waypoints": [
        {
            "positions": [
                -2.967991417825858,
                -0.9740617694225064,
                1.752795957773711,
                -0.7595177689806859,
                1.7443932448377395,
                3.199131542505932
            ]
        },
        {
            "positions": [
                -2.9424092856916793,
                -0.9406386862148902,
                1.6507759138838118,
                -0.6878544370410906,
                1.6130175310054502,
                3.191360698153111
            ]
        },
        {
            "positions": [
                -2.9168271535575,
                -0.907215603007274,
                1.5487558699939123,
                -0.6161911051014953,
                1.481641817173161,
                3.18358985380029
            ]
        },
        {
            "positions": [
                -2.8912450214233214,
                -0.8737925197996577,
                1.446735826104013,
                -0.5445277731619,
                1.3502661033408716,
                3.1758190094474688
            ]
        },
        {
            "positions": [
                -2.8656628892891423,
                -0.8403694365920414,
                1.3447157822141138,
                -0.47286444122230475,
                1.2188903895085823,
                3.168048165094648
            ]
        },
        {
            "positions": [
                -2.8400807571549636,
                -0.8069463533844252,
                1.2426957383242145,
                -0.40120110928270947,
                1.087514675676293,
                3.1602773207418267
            ]
        },
        {
            "positions": [
                -2.814498625020785,
                -0.773523270176809,
                1.1406756944343153,
                -0.3295377773431142,
                0.9561389618440037,
                3.1525064763890054
            ]
        },
        {
            "positions": [
                -2.7889164928866057,
                -0.7401001869691928,
                1.038655650544416,
                -0.2578744454035189,
                0.8247632480117145,
                3.1447356320361846
            ]
        },
        {
            "positions": [
                -2.763334360752427,
                -0.7066771037615764,
                0.9366356066545165,
                -0.1862111134639236,
                0.6933875341794251,
                3.1369647876833633
            ]
        },
        {
            "positions": [
                -2.737752228618248,
                -0.6732540205539602,
                0.8346155627646172,
                -0.11454778152432832,
                0.5620118203471358,
                3.1291939433305425
            ]
        },
        {
            "positions": [
                -2.712170096484069,
                -0.639830937346344,
                0.7325955188747179,
                -0.04288444958473298,
                0.4306361065148465,
                3.121423098977721
            ]
        }
    ]
}