{
    "goal": {
        "global_pose": {
            "orientation": {
                "w": 0.5084816262002911,
                "x": -0.4908360881923452,
                "y": 0.5182115481033761,
                "z": -0.48164630358495003
            },
            "position": {
                "x": 0.5540239810943604,
                "y": -0.46912469901144505,
                "z": 0.16403168439865112
            }
        },
        "name": "move_to_storage_B"
    },
    "id": "LBKPIECE_move_to_storage_B_146",
    "joint_names": [
        "shoulder_pan_joint",
        "shoulder_lift_joint",
        "elbow_joint",
        "wrist_1_joint",
        "wrist_2_joint",
        "wrist_3_joint"
    ],
    "metrics": {
        "cart_traj_len": 0.5836457200420919,
        "distance_elbow_joint": 0.3482323576886277,
        "distance_shoulder_lift_joint": 0.4586030942861923,
        "distance_shoulder_pan_joint": 0.18289821187007782,
        "distance_wrist_1_joint": 2.981201801341138,
        "distance_wrist_2_joint": 2.6990884621157702,
        "distance_wrist_3_joint": 3.146306132398089,
        "smoothness": 1.3158198914562875e-16,
        "time": 2.828725083,
        "traj_len": 3.133102305974048,
        "weighted_distance": 4.667893806413442
    },
    "planner": "LBKPIECE",
    "start": {
        "state": {
            "elbow_joint": 1.6649325706314817,
            "shoulder_lift_joint": -0.6616388048112454,
            "shoulder_pan_joint": -0.9139837860083814,
            "wrist_1_joint": 2.146757197745094,
            "wrist_2_joint": -2.234196043158733,
            "wrist_3_joint": 0.005471033829999897
        }
    },
    "waypoints": [
        {
            "positions": [
                -0.9139837860083814,
                -0.6616388048112454,
                1.6649325706314817,
                2.146757197745094,
                -2.234196043158733,
                0.005471033829999897
            ]
        },
        {
            "positions": [
                -0.9210305383944005,
                -0.6796258487853387,
                1.678549524019154,
                2.0294943214901635,
                -2.1280488611224735,
                -0.11764986531724134
            ]
        },
        {
            "positions": [
                -0.9280772907804197,
                -0.697612892759432,
                1.6921664774068264,
                1.9122314452352327,
                -2.021901679086214,
                -0.2407707644644826
            ]
        },
        {
            "positions": [
                -0.9351240431664387,
                -0.7155999367335253,
                1.7057834307944986,
                1.794968568980302,
                -1.9157544970499547,
                -0.3638916636117238
            ]
        },
        {
            "positions": [
                -0.9421707955524579,
                -0.7335869807076186,
                1.7194003841821708,
                1.6777056927253713,
                -1.8096073150136953,
                -0.48701256275896504
            ]
        },
        {
            "positions": [
                -0.949217547938477,
                -0.7515740246817119,
                1.733017337569843,
                1.5604428164704407,
                -1.703460132977436,
                -0.6101334619062063
            ]
        },
        {
            "positions": [
                -0.9562643003244962,
                -0.7695610686558052,
                1.7466342909575154,
                1.44317994021551,
                -1.5973129509411768,
                -0.7332543610534475
            ]
        },
        {
            "positions": [
                -0.9633110527105153,
                -0.7875481126298984,
                1.7602512443451876,
                1.3259170639605793,
                -1.4911657689049174,
                -0.8563752602006889
            ]
        },
        {
            "positions": [
                -0.9703578050965344,
                -0.8055351566039918,
                1.7738681977328599,
                1.2086541877056485,
                -1.385018586868658,
                -0.97949615934793
            ]
        },
        {
            "positions": [
                -0.9774045574825535,
                -0.8235222005780851,
                1.7874851511205323,
                1.091391311450718,
                -1.2788714048323988,
                -1.1026170584951713
            ]
        },
        {
            "positions": [
                -0.9844513098685727,
                -0.8415092445521783,
                1.8011021045082045,
                0.9741284351957873,
                -1.1727242227961392,
                -1.2257379576424126
            ]
        },
        {
            "positions": [
                -0.9914980622545918,
                -0.8594962885262717,
                1.8147190578958767,
                0.8568655589408567,
                -1.06657704075988,
                -1.3488588567896538
            ]
        },
        {
            "positions": [
                -0.998544814640611,
                -0.877483332500365,
                1.828336011283549,
                0.7396026826859259,
                -0.9604298587236206,
                -1.471979755936895
            ]
        },
        {
            "positions": [
                -1.00559156702663,
                -0.8954703764744583,
                1.8419529646712214,
                0.6223398064309953,
                -0.8542826766873612,
                -1.5951006550841362
            ]
        },
        {
            "positions": [
                -1.0126383194126491,
                -0.9134574204485516,
                1.8555699180588936,
                0.5050769301760645,
                -0.7481354946511019,
                -1.7182215542313777
            ]
        },
        {
            "positions": [
                -1.0196850717986683,
                -0.931444464422645,
                1.8691868714465658,
                0.3878140539211339,
                -0.6419883126148427,
                -1.8413424533786187
            ]
        },
        {
            "positions": [
                -1.0267318241846874,
                -0.9494315083967382,
                1.8828038248342382,
                0.27055117766620307,
                -0.5358411305785831,
                -1.96446335252586
            ]
        },
        {
            "positions": [
                -1.0337785765707066,
                -0.9674185523708315,
                1.8964207782219105,
                0.15328830141127248,
                -0.4296939485423237,
                -2.0875842516731016
            ]
        },
        {
            "positions": [
                -1.0408253289567257,
                -0.9854055963449249,
                1.9100377316095827,
                0.036025425156342106,
                -0.3235467665060645,
                -2.210705150820343
            ]
        },
        {
            "positions": [
                -1.047872081342745,
                -1.003392640319018,
                1.923654684997255,
                -0.08123745109858893,
                -0.2173995844698049,
                -2.333826049967584
            ]
        },
        {
            "positions": [
                -1.054918833728764,
                -1.0213796842931115,
                1.9372716383849273,
                -0.19850032735351952,
                -0.1112524024335455,
                -2.4569469491148253
            ]
        },
        {
            "positions": [
                -1.061965586114783,
                -1.0393667282672048,
                1.9508885917725995,
                -0.3157632036084501,
                -0.005105220397286558,
                -2.5800678482620665
            ]
        },
        {
            "positions": [
                -1.0690123385008021,
                -1.057353772241298,
                1.9645055451602718,
                -0.4330260798633807,
                0.10104196163897283,
                -2.7031887474093077
            ]
        },
        {
            "positions": [
                -1.0760590908868213,
                -1.0753408162153915,
                1.9781224985479442,
                -0.5502889561183117,
                0.20718914367523222,
                -2.826309646556549
            ]
        },
        {
            "positions": [
                -1.0831058432728404,
                -1.0933278601894845,
                1.9917394519356164,
                -0.6675518323732423,
                0.3133363257114916,
                -2.94943054570379
            ]
        },
        {
            "positions": [
                -1.0901525956588596,
                -1.111314904163578,
                2.0053564053232886,
                -0.7848147086281727,
                0.41948350774775095,
                -3.0725514448510314
            ]
        },
        {
            "positions": [
                -1.0968819978784592,
                -1.1202418990974377,
                2.0131649283201094,
                -0.8344446035960433,
                0.46489241895703737,
                -3.140835098568089
            ]
        }
    ]
}