{
    "goal": {
        "global_pose": {
            "orientation": {
                "w": 0.7047431468963623,
                "x": -0.7094548344612122,
                "y": 0.0024358443915843964,
                "z": -0.0022348060738295317
            },
            "position": {
                "x": 0.6094750761985779,
                "y": 0.3671506643295288,
                "z": 0.19426114857196808
            }
        },
        "name": "move_to_magneteinheit_A"
    },
    "id": "LBKPIECE_move_to_magneteinheit_A_104",
    "joint_names": [
        "shoulder_pan_joint",
        "shoulder_lift_joint",
        "elbow_joint",
        "wrist_1_joint",
        "wrist_2_joint",
        "wrist_3_joint"
    ],
    "metrics": {
        "cart_traj_len": 1.0523264996989952,
        "distance_elbow_joint": 0.413938937609047,
        "distance_shoulder_lift_joint": 0.3494837691529771,
        "distance_shoulder_pan_joint": 1.2406852079184774,
        "distance_wrist_1_joint": 2.3582382915888727,
        "distance_wrist_2_joint": 1.6905715377792476,
        "distance_wrist_3_joint": 1.0938528602027393,
        "smoothness": 7.105427413863951e-16,
        "time": 5.133353101,
        "traj_len": 2.673344460456108,
        "weighted_distance": 3.6583173938335314
    },
    "planner": "LBKPIECE",
    "start": {
        "state": {
            "elbow_joint": 1.5739458966750683,
            "shoulder_lift_joint": -1.4977259741207325,
            "shoulder_pan_joint": -1.1188672016454206,
            "wrist_1_joint": 1.494575848278785,
            "wrist_2_joint": -1.5706037134824402,
            "wrist_3_joint": -2.0226957942261072
        }
    },
    "waypoints": [
        {
            "positions": [
                -1.1188672016454206,
                -1.4977259741207325,
                1.5739458966750683,
                1.494575848278785,
                -1.5706037134824402,
                -2.0226957942261072
            ]
        },
        {
            "positions": [
                -1.0535679801760272,
                -1.4793320915337338,
                1.5957321565492286,
                1.370458043458318,
                -1.4816262641256377,
                -2.0802669973946726
            ]
        },
        {
            "positions": [
                -0.9882687587066336,
                -1.4609382089467349,
                1.6175184164233891,
                1.246340238637851,
                -1.3926488147688352,
                -2.1378382005632375
            ]
        },
        {
            "positions": [
                -0.92296953723724,
                -1.4425443263597362,
                1.6393046762975494,
                1.122222433817384,
                -1.3036713654120327,
                -2.195409403731803
            ]
        },
        {
            "positions": [
                -0.8576703157678465,
                -1.4241504437727373,
                1.6610909361717099,
                0.9981046289969171,
                -1.2146939160552301,
                -2.252980606900368
            ]
        },
        {
            "positions": [
                -0.792371094298453,
                -1.4057565611857386,
                1.6828771960458702,
                0.8739868241764501,
                -1.1257164666984276,
                -2.3105518100689335
            ]
        },
        {
            "positions": [
                -0.7270718728290594,
                -1.3873626785987399,
                1.7046634559200307,
                0.7498690193559832,
                -1.0367390173416253,
                -2.3681230132374984
            ]
        },
        {
            "positions": [
                -0.6617726513596658,
                -1.368968796011741,
                1.726449715794191,
                0.6257512145355162,
                -0.9477615679848227,
                -2.4256942164060638
            ]
        },
        {
            "positions": [
                -0.5964734298902723,
                -1.3505749134247422,
                1.7482359756683512,
                0.5016334097150492,
                -0.8587841186280202,
                -2.483265419574629
            ]
        },
        {
            "positions": [
                -0.5311742084208788,
                -1.3321810308377433,
                1.7700222355425117,
                0.37751560489458225,
                -0.7698066692712177,
                -2.5408366227431944
            ]
        },
        {
            "positions": [
                -0.4658749869514852,
                -1.3137871482507446,
                1.791808495416672,
                0.2533978000741153,
                -0.6808292199144151,
                -2.5984078259117593
            ]
        },
        {
            "positions": [
                -0.4005757654820916,
                -1.2953932656637457,
                1.8135947552908325,
                0.12927999525364808,
                -0.5918517705576126,
                -2.6559790290803247
            ]
        },
        {
            "positions": [
                -0.33527654401269813,
                -1.276999383076747,
                1.8353810151649927,
                0.005162190433181335,
                -0.5028743212008102,
                -2.71355023224889
            ]
        },
        {
            "positions": [
                -0.26997732254330453,
                -1.258605500489748,
                1.8571672750391532,
                -0.11895561438728586,
                -0.4138968718440077,
                -2.771121435417455
            ]
        },
        {
            "positions": [
                -0.20467810107391105,
                -1.2402116179027494,
                1.8789535349133135,
                -0.2430734192077526,
                -0.3249194224872052,
                -2.8286926385860203
            ]
        },
        {
            "positions": [
                -0.13937887960451745,
                -1.2218177353157507,
                1.9007397947874738,
                -0.3671912240282198,
                -0.23594197313040266,
                -2.8862638417545856
            ]
        },
        {
            "positions": [
                -0.07407965813512396,
                -1.2034238527287517,
                1.9225260546616343,
                -0.49130902884868655,
                -0.14696452377360014,
                -2.943835044923151
            ]
        },
        {
            "positions": [
                -0.008780436665730251,
                -1.185029970141753,
                1.9443123145357946,
                -0.6154268336691537,
                -0.057987074416797624,
                -3.0014062480917163
            ]
        },
        {
            "positions": [
                0.056518784803663014,
                -1.1666360875547541,
                1.9660985744099548,
                -0.7395446384896205,
                0.030990374940004894,
                -3.058977451260281
            ]
        },
        {
            "positions": [
                0.12181800627305668,
                -1.1482422049677554,
                1.9878848342841153,
                -0.8636624433100877,
                0.11996782429680734,
                -3.1165486544288465
            ]
        }
    ]
}