{
    "goal": {
        "global_pose": {
            "orientation": {
                "w": 0.7047431468963623,
                "x": -0.7094548344612122,
                "y": 0.0024358443915843964,
                "z": -0.0022348060738295317
            },
            "position": {
                "x": 0.6094750761985779,
                "y": 0.3671506643295288,
                "z": 0.19426114857196808
            }
        },
        "name": "move_to_magneteinheit_A"
    },
    "id": "LBKPIECE_move_to_magneteinheit_A_68",
    "joint_names": [
        "shoulder_pan_joint",
        "shoulder_lift_joint",
        "elbow_joint",
        "wrist_1_joint",
        "wrist_2_joint",
        "wrist_3_joint"
    ],
    "metrics": {
        "cart_traj_len": 1.0531849417605177,
        "distance_elbow_joint": 0.3934276248996269,
        "distance_shoulder_lift_joint": 0.35993991557121463,
        "distance_shoulder_pan_joint": 1.2419008040025274,
        "distance_wrist_1_joint": 2.2563309018800948,
        "distance_wrist_2_joint": 1.7033750707890143,
        "distance_wrist_3_joint": 1.1798077795305044,
        "smoothness": 0.0,
        "time": 0.40836888499999996,
        "traj_len": 2.6711012891077313,
        "weighted_distance": 3.6679835916213013
    },
    "planner": "LBKPIECE",
    "start": {
        "state": {
            "elbow_joint": 1.5739458966750683,
            "shoulder_lift_joint": -1.4977259741207325,
            "shoulder_pan_joint": -1.1188672016454206,
            "wrist_1_joint": 1.494575848278785,
            "wrist_2_joint": -1.5706037134824402,
            "wrist_3_joint": -2.0226957942261072
        }
    },
    "waypoints": [
        {
            "positions": [
                -1.1188672016454206,
                -1.4977259741207325,
                1.5739458966750683,
                1.494575848278785,
                -1.5706037134824402,
                -2.0226957942261072
            ]
        },
        {
            "positions": [
                -1.0535040014347614,
                -1.478781768038037,
                1.5946526137750487,
                1.3758215902850959,
                -1.4809523939672289,
                -2.0847909405171863
            ]
        },
        {
            "positions": [
                -0.988140801224102,
                -1.4598375619553414,
                1.6153593308750291,
                1.2570673322914065,
                -1.3913010744520178,
                -2.1468860868082658
            ]
        },
        {
            "positions": [
                -0.9227776010134426,
                -1.440893355872646,
                1.6360660479750093,
                1.1383130742977174,
                -1.3016497549368065,
                -2.208981233099345
            ]
        },
        {
            "positions": [
                -0.8574144008027833,
                -1.4219491497899506,
                1.6567727650749897,
                1.0195588163040283,
                -1.2119984354215951,
                -2.271076379390424
            ]
        },
        {
            "positions": [
                -0.792051200592124,
                -1.403004943707255,
                1.6774794821749701,
                0.900804558310339,
                -1.1223471159063838,
                -2.333171525681503
            ]
        },
        {
            "positions": [
                -0.7266880003814646,
                -1.3840607376245595,
                1.6981861992749505,
                0.7820503003166498,
                -1.0326957963911725,
                -2.3952666719725824
            ]
        },
        {
            "positions": [
                -0.6613248001708053,
                -1.3651165315418639,
                1.718892916374931,
                0.6632960423229607,
                -0.9430444768759613,
                -2.4573618182636614
            ]
        },
        {
            "positions": [
                -0.595961599960146,
                -1.3461723254591684,
                1.7395996334749113,
                0.5445417843292715,
                -0.85339315736075,
                -2.519456964554741
            ]
        },
        {
            "positions": [
                -0.5305983997494866,
                -1.327228119376473,
                1.7603063505748917,
                0.42578752633558214,
                -0.7637418378455387,
                -2.58155211084582
            ]
        },
        {
            "positions": [
                -0.4652351995388273,
                -1.3082839132937774,
                1.7810130676748719,
                0.30703326834189304,
                -0.6740905183303275,
                -2.643647257136899
            ]
        },
        {
            "positions": [
                -0.39987199932816786,
                -1.289339707211082,
                1.8017197847748523,
                0.1882790103482037,
                -0.5844391988151161,
                -2.705742403427978
            ]
        },
        {
            "positions": [
                -0.33450879911750864,
                -1.2703955011283865,
                1.8224265018748327,
                0.06952475235451461,
                -0.494787879299905,
                -2.7678375497190575
            ]
        },
        {
            "positions": [
                -0.2691455989068492,
                -1.2514512950456909,
                1.843133218974813,
                -0.04922950563917472,
                -0.40513655978469365,
                -2.8299326960101365
            ]
        },
        {
            "positions": [
                -0.20378239869618997,
                -1.2325070889629954,
                1.8638399360747935,
                -0.1679837636328636,
                -0.3154852402694823,
                -2.8920278423012156
            ]
        },
        {
            "positions": [
                -0.13841919848553053,
                -1.2135628828803,
                1.8845466531747739,
                -0.28673802162655293,
                -0.225833920754271,
                -2.954122988592295
            ]
        },
        {
            "positions": [
                -0.0730559982748713,
                -1.1946186767976044,
                1.905253370274754,
                -0.40549227962024204,
                -0.1361826012390599,
                -3.016218134883374
            ]
        },
        {
            "positions": [
                -0.007692798064211859,
                -1.175674470714909,
                1.9259600873747345,
                -0.5242465376139316,
                -0.04653128172384857,
                -3.078313281174453
            ]
        },
        {
            "positions": [
                0.057670402146447364,
                -1.1567302646322135,
                1.9466668044747149,
                -0.6430007956076207,
                0.04312003779136275,
                -3.140408427465532
            ]
        },
        {
            "positions": [
                0.12303360235710684,
                -1.1377860585495179,
                1.9673735215746952,
                -0.7617550536013099,
                0.13277135730657416,
                -3.2025035737566117
            ]
        }
    ]
}