{
    "goal": {
        "global_pose": {
            "orientation": {
                "w": 0.7047431468963623,
                "x": -0.7094548344612122,
                "y": 0.0024358443915843964,
                "z": -0.0022348060738295317
            },
            "position": {
                "x": 0.6094750761985779,
                "y": 0.3671506643295288,
                "z": 0.19426114857196808
            }
        },
        "name": "move_to_magneteinheit_A"
    },
    "id": "LBKPIECE_move_to_magneteinheit_A_69",
    "joint_names": [
        "shoulder_pan_joint",
        "shoulder_lift_joint",
        "elbow_joint",
        "wrist_1_joint",
        "wrist_2_joint",
        "wrist_3_joint"
    ],
    "metrics": {
        "cart_traj_len": 1.0534384030753885,
        "distance_elbow_joint": 0.378093672919382,
        "distance_shoulder_lift_joint": 0.36936195733219135,
        "distance_shoulder_pan_joint": 1.2408426179134184,
        "distance_wrist_1_joint": 2.1902106368815044,
        "distance_wrist_2_joint": 1.6942564864709049,
        "distance_wrist_3_joint": 1.2443572475048454,
        "smoothness": 9.349246597189412e-17,
        "time": 1.516332393,
        "traj_len": 2.667793586284787,
        "weighted_distance": 3.672914951014296
    },
    "planner": "LBKPIECE",
    "start": {
        "state": {
            "elbow_joint": 1.5739458966750683,
            "shoulder_lift_joint": -1.4977259741207325,
            "shoulder_pan_joint": -1.1188672016454206,
            "wrist_1_joint": 1.494575848278785,
            "wrist_2_joint": -1.5706037134824402,
            "wrist_3_joint": -2.0226957942261072
        }
    },
    "waypoints": [
        {
            "positions": [
                -1.1188672016454206,
                -1.4977259741207325,
                1.5739458966750683,
                1.494575848278785,
                -1.5706037134824402,
                -2.0226957942261072
            ]
        },
        {
            "positions": [
                -1.0499315006502308,
                -1.4772058653800553,
                1.5949511007261452,
                1.372897479563146,
                -1.4764783531229455,
                -2.091826752420821
            ]
        },
        {
            "positions": [
                -0.9809957996550408,
                -1.4566857566393778,
                1.6159563047772219,
                1.2512191108475068,
                -1.3823529927634508,
                -2.1609577106155347
            ]
        },
        {
            "positions": [
                -0.9120600986598509,
                -1.4361656478987006,
                1.6369615088282987,
                1.1295407421318675,
                -1.288227632403956,
                -2.2300886688102484
            ]
        },
        {
            "positions": [
                -0.843124397664661,
                -1.4156455391580234,
                1.6579667128793754,
                1.0078623734162284,
                -1.1941022720444614,
                -2.2992196270049616
            ]
        },
        {
            "positions": [
                -0.7741886966694711,
                -1.395125430417346,
                1.6789719169304522,
                0.8861840047005893,
                -1.0999769116849667,
                -2.3683505851996753
            ]
        },
        {
            "positions": [
                -0.7052529956742812,
                -1.3746053216766687,
                1.699977120981529,
                0.7645056359849502,
                -1.005851551325472,
                -2.437481543394389
            ]
        },
        {
            "positions": [
                -0.6363172946790913,
                -1.3540852129359915,
                1.7209823250326057,
                0.642827267269311,
                -0.9117261909659772,
                -2.5066125015891028
            ]
        },
        {
            "positions": [
                -0.5673815936839014,
                -1.333565104195314,
                1.7419875290836826,
                0.521148898553672,
                -0.8176008306064825,
                -2.5757434597838165
            ]
        },
        {
            "positions": [
                -0.4984458926887114,
                -1.3130449954546368,
                1.7629927331347592,
                0.3994705298380328,
                -0.7234754702469878,
                -2.6448744179785297
            ]
        },
        {
            "positions": [
                -0.42951019169352145,
                -1.2925248867139596,
                1.783997937185836,
                0.2777921611223937,
                -0.6293501098874931,
                -2.714005376173244
            ]
        },
        {
            "positions": [
                -0.3605744906983316,
                -1.2720047779732822,
                1.805003141236913,
                0.15611379240675438,
                -0.5352247495279983,
                -2.783136334367957
            ]
        },
        {
            "positions": [
                -0.2916387897031417,
                -1.251484669232605,
                1.8260083452879896,
                0.03443542369111552,
                -0.4410993891685038,
                -2.852267292562671
            ]
        },
        {
            "positions": [
                -0.22270308870795175,
                -1.2309645604919277,
                1.8470135493390665,
                -0.08724294502452379,
                -0.34697402880900885,
                -2.9213982507573846
            ]
        },
        {
            "positions": [
                -0.15376738771276188,
                -1.2104444517512503,
                1.8680187533901433,
                -0.20892131374016287,
                -0.25284866844951415,
                -2.9905292089520983
            ]
        },
        {
            "positions": [
                -0.0848316867175718,
                -1.189924343010573,
                1.88902395744122,
                -0.3305996824558022,
                -0.15872330809001944,
                -3.059660167146812
            ]
        },
        {
            "positions": [
                -0.015895985722382155,
                -1.1694042342698958,
                1.9100291614922968,
                -0.45227805117144104,
                -0.06459794773052474,
                -3.1287911253415253
            ]
        },
        {
            "positions": [
                0.05303971527280793,
                -1.1488841255292184,
                1.9310343655433735,
                -0.5739564198870803,
                0.029527412628969962,
                -3.197922083536239
            ]
        },
        {
            "positions": [
                0.1219754162679977,
                -1.1283640167885411,
                1.9520395695944504,
                -0.6956347886027194,
                0.12365277298846457,
                -3.2670530417309527
            ]
        }
    ]
}