{
    "goal": {
        "global_pose": {
            "orientation": {
                "w": 0.5084816217422485,
                "x": -0.49083608388900757,
                "y": 0.5182115435600281,
                "z": -0.4816462993621826
            },
            "position": {
                "x": 0.5540239810943604,
                "y": 0.030875300988554955,
                "z": 0.16403168439865112
            }
        },
        "name": "move_to_storage_A"
    },
    "id": "LBKPIECE_move_to_storage_A_74",
    "joint_names": [
        "shoulder_pan_joint",
        "shoulder_lift_joint",
        "elbow_joint",
        "wrist_1_joint",
        "wrist_2_joint",
        "wrist_3_joint"
    ],
    "metrics": {
        "cart_traj_len": 0.3531985612321572,
        "distance_elbow_joint": 0.44918996497631225,
        "distance_shoulder_lift_joint": 0.23228813673008508,
        "distance_shoulder_pan_joint": 0.45874352516321015,
        "distance_wrist_1_joint": 0.2480929537948603,
        "distance_wrist_2_joint": 1.1108336858219636,
        "distance_wrist_3_joint": 0.09042575503332939,
        "smoothness": 0.0,
        "time": 4.65186395,
        "traj_len": 1.609215343426653,
        "weighted_distance": 2.0320807491837627
    },
    "planner": "LBKPIECE",
    "start": {
        "state": {
            "elbow_joint": 1.9715474177455299,
            "shoulder_lift_joint": -1.139484666580328,
            "shoulder_pan_joint": 0.12281154398918248,
            "wrist_1_joint": -0.7804687475355282,
            "wrist_2_joint": 0.12958649657246987,
            "wrist_3_joint": -3.1924925159053466
        }
    },
    "waypoints": [
        {
            "positions": [
                0.12281154398918248,
                -1.139484666580328,
                1.9715474177455299,
                -0.7804687475355282,
                0.12958649657246987,
                -3.1924925159053466
            ]
        },
        {
            "positions": [
                0.05727675468015246,
                -1.1726686861131972,
                2.035717412742146,
                -0.8159105980776511,
                0.2882770231184647,
                -3.1795745509005853
            ]
        },
        {
            "positions": [
                -0.008258034628877559,
                -1.2058527056460666,
                2.099887407738762,
                -0.851352448619774,
                0.4469675496644595,
                -3.166656585895824
            ]
        },
        {
            "positions": [
                -0.07379282393790756,
                -1.2390367251789358,
                2.164057402735378,
                -0.8867942991618969,
                0.6056580762104543,
                -3.1537386208910627
            ]
        },
        {
            "positions": [
                -0.1393276132469376,
                -1.2722207447118052,
                2.228227397731994,
                -0.9222361497040198,
                0.7643486027564491,
                -3.140820655886301
            ]
        },
        {
            "positions": [
                -0.20486240255596766,
                -1.3054047642446744,
                2.29239739272861,
                -0.9576780002461427,
                0.9230391293024439,
                -3.1279026908815397
            ]
        },
        {
            "positions": [
                -0.2703971918649976,
                -1.3385887837775439,
                2.3565673877252262,
                -0.9931198507882656,
                1.0817296558484386,
                -3.1149847258767784
            ]
        },
        {
            "positions": [
                -0.33593198117402767,
                -1.371772803310413,
                2.420737382721842,
                -1.0285617013303885,
                1.2404201823944334,
                -3.102066760872017
            ]
        }
    ]
}