{
    "goal": {
        "global_pose": {
            "orientation": {
                "w": 0.7031023480610252,
                "x": -0.7110244013736278,
                "y": 0.0077485991402295624,
                "z": 0.005598929693374583
            },
            "position": {
                "x": -0.8841497679147869,
                "y": 0.44412534475326537,
                "z": 0.3711530566215515
            }
        },
        "name": "move_to_auspresseinheit_D"
    },
    "id": "LBKPIECE_move_to_auspresseinheit_D_141",
    "joint_names": [
        "shoulder_pan_joint",
        "shoulder_lift_joint",
        "elbow_joint",
        "wrist_1_joint",
        "wrist_2_joint",
        "wrist_3_joint"
    ],
    "metrics": {
        "cart_traj_len": 3.8145114828796105,
        "distance_elbow_joint": 3.0037886502152964,
        "distance_shoulder_lift_joint": 1.2408902873588192,
        "distance_shoulder_pan_joint": 2.7969923235357017,
        "distance_wrist_1_joint": 2.7269262482988386,
        "distance_wrist_2_joint": 1.5656457639623407,
        "distance_wrist_3_joint": 6.24767552069974,
        "smoothness": 0.3138789478561016,
        "time": 3.541602698,
        "traj_len": 4.1930798697461915,
        "weighted_distance": 5.862579794572642
    },
    "planner": "LBKPIECE",
    "start": {
        "state": {
            "elbow_joint": 1.8268400409724999,
            "shoulder_lift_joint": -1.0144045787793008,
            "shoulder_pan_joint": 2.6280239544362485,
            "wrist_1_joint": -0.790705565816056,
            "wrist_2_joint": 1.0573557467365533,
            "wrist_3_joint": 3.1851377467193758
        }
    },
    "waypoints": [
        {
            "positions": [
                2.6280239544362485,
                -1.0144045787793008,
                1.8268400409724999,
                -0.790705565816056,
                1.0573557467365533,
                3.1851377467193758
            ]
        },
        {
            "positions": [
                2.5744689318125342,
                -1.0367369596298859,
                1.7263863508145758,
                -0.8247083726784771,
                1.0093054181501417,
                3.069179139190833
            ]
        },
        {
            "positions": [
                2.5209139091888204,
                -1.059069340480471,
                1.6259326606566518,
                -0.8587111795408982,
                0.9612550895637302,
                2.953220531662291
            ]
        },
        {
            "positions": [
                2.467358886565106,
                -1.0814017213310563,
                1.525478970498728,
                -0.8927139864033192,
                0.9132047609773187,
                2.8372619241337484
            ]
        },
        {
            "positions": [
                2.413803863941392,
                -1.1037341021816414,
                1.425025280340804,
                -0.9267167932657403,
                0.8651544323909072,
                2.721303316605206
            ]
        },
        {
            "positions": [
                2.34656975722293,
                -1.1493927285816576,
                1.3536531482484317,
                -0.8656914157214437,
                0.900324490641949,
                2.6345531662693187
            ]
        },
        {
            "positions": [
                2.2793356505044677,
                -1.195051354981674,
                1.2822810161560596,
                -0.8046660381771472,
                0.9354945488929909,
                2.5478030159334315
            ]
        },
        {
            "positions": [
                2.212101543786005,
                -1.2407099813816904,
                1.2109088840636875,
                -0.7436406606328506,
                0.9706646071440327,
                2.4610528655975443
            ]
        },
        {
            "positions": [
                2.144867437067543,
                -1.2863686077817067,
                1.1395367519713153,
                -0.6826152830885541,
                1.0058346653950745,
                2.374302715261657
            ]
        },
        {
            "positions": [
                2.077633330349081,
                -1.332027234181723,
                1.0681646198789432,
                -0.6215899055442575,
                1.0410047236461164,
                2.28755256492577
            ]
        },
        {
            "positions": [
                2.015227727586622,
                -1.357673557291623,
                1.0058003635144506,
                -0.6850840203533595,
                1.0077382192471862,
                2.1389389444005995
            ]
        },
        {
            "positions": [
                1.9528221248241626,
                -1.3833198804015228,
                0.9434361071499577,
                -0.7485781351624614,
                0.9744717148482561,
                1.990325323875429
            ]
        },
        {
            "positions": [
                1.8904165220617033,
                -1.4089662035114228,
                0.8810718507854651,
                -0.8120722499715635,
                0.941205210449326,
                1.8417117033502586
            ]
        },
        {
            "positions": [
                1.828010919299244,
                -1.4346125266213225,
                0.8187075944209723,
                -0.8755663647806654,
                0.9079387060503958,
                1.6930980828250881
            ]
        },
        {
            "positions": [
                1.7656053165367847,
                -1.4602588497312226,
                0.7563433380564797,
                -0.9390604795897675,
                0.8746722016514656,
                1.5444844622999176
            ]
        },
        {
            "positions": [
                1.7031997137743256,
                -1.4859051728411226,
                0.693979081691987,
                -1.0025545943988694,
                0.8414056972525356,
                1.3958708417747472
            ]
        },
        {
            "positions": [
                1.6407941110118662,
                -1.5115514959510223,
                0.6316148253274942,
                -1.0660487092079713,
                0.8081391928536055,
                1.2472572212495767
            ]
        },
        {
            "positions": [
                1.578388508249407,
                -1.5371978190609223,
                0.5692505689630015,
                -1.1295428240170733,
                0.7748726884546753,
                1.0986436007244063
            ]
        },
        {
            "positions": [
                1.5159829054869478,
                -1.5628441421708223,
                0.5068863125985088,
                -1.1930369388261752,
                0.7416061840557451,
                0.9500299801992358
            ]
        },
        {
            "positions": [
                1.4535773027244883,
                -1.5884904652807221,
                0.4445220562340161,
                -1.2565310536352774,
                0.708339679656815,
                0.8014163596740653
            ]
        },
        {
            "positions": [
                1.3911716999620292,
                -1.6141367883906221,
                0.38215779986952336,
                -1.3200251684443793,
                0.6750731752578848,
                0.6528027391488946
            ]
        },
        {
            "positions": [
                1.32876609719957,
                -1.639783111500522,
                0.31979354350503075,
                -1.3835192832534813,
                0.6418066708589547,
                0.5041891186237244
            ]
        },
        {
            "positions": [
                1.2663604944371105,
                -1.665429434610422,
                0.25742928714053803,
                -1.4470133980625832,
                0.6085401664600245,
                0.35557549809855393
            ]
        },
        {
            "positions": [
                1.2039548916746514,
                -1.6910757577203217,
                0.1950650307760452,
                -1.5105075128716852,
                0.5752736620610944,
                0.20696187757338347
            ]
        },
        {
            "positions": [
                1.141549288912192,
                -1.7167220808302217,
                0.13270077441155248,
                -1.5740016276807873,
                0.5420071576621643,
                0.058348257048213004
            ]
        },
        {
            "positions": [
                1.0791436861497328,
                -1.7423684039401217,
                0.07033651804705987,
                -1.637495742489889,
                0.5087406532632341,
                -0.09026536347695746
            ]
        },
        {
            "positions": [
                1.0167380833872737,
                -1.7680147270500215,
                0.007972261682567261,
                -1.7009898572989912,
                0.47547414886430406,
                -0.23887898400212793
            ]
        },
        {
            "positions": [
                0.9543324806248143,
                -1.7936610501599215,
                -0.05439199468192557,
                -1.7644839721080932,
                0.44220764446537386,
                -0.3874926045272984
            ]
        },
        {
            "positions": [
                0.891926877862355,
                -1.8193073732698215,
                -0.1167562510464184,
                -1.827978086917195,
                0.40894114006644366,
                -0.5361062250524689
            ]
        },
        {
            "positions": [
                0.8295212750998957,
                -1.8449536963797213,
                -0.179120507410911,
                -1.8914722017262973,
                0.3756746356675136,
                -0.6847198455776393
            ]
        },
        {
            "positions": [
                0.7671156723374364,
                -1.8706000194896213,
                -0.24148476377540384,
                -1.9549663165353992,
                0.3424081312685834,
                -0.8333334661028098
            ]
        },
        {
            "positions": [
                0.7047100695749773,
                -1.8962463425995213,
                -0.30384902013989645,
                -2.018460431344501,
                0.3091416268696532,
                -0.9819470866279807
            ]
        },
        {
            "positions": [
                0.6423044668125182,
                -1.921892665709421,
                -0.36621327650438906,
                -2.081954546153603,
                0.2758751224707232,
                -1.1305607071531503
            ]
        },
        {
            "positions": [
                0.5798988640500589,
                -1.9475389888193209,
                -0.42857753286888167,
                -2.145448660962705,
                0.24260861807179301,
                -1.2791743276783212
            ]
        },
        {
            "positions": [
                0.5174932612875995,
                -1.9731853119292209,
                -0.4909417892333745,
                -2.208942775771807,
                0.20934211367286293,
                -1.4277879482034916
            ]
        },
        {
            "positions": [
                0.4550876585251402,
                -1.9988316350391209,
                -0.5533060455978671,
                -2.272436890580909,
                0.17607560927393273,
                -1.576401568728662
            ]
        },
        {
            "positions": [
                0.3926820557626809,
                -2.0244779581490207,
                -0.61567030196236,
                -2.335931005390011,
                0.14280910487500265,
                -1.725015189253833
            ]
        },
        {
            "positions": [
                0.3302764530002218,
                -2.0501242812589204,
                -0.6780345583268528,
                -2.399425120199113,
                0.10954260047607245,
                -1.873628809779003
            ]
        },
        {
            "positions": [
                0.26787085023776247,
                -2.0757706043688207,
                -0.7403988146913454,
                -2.462919235008215,
                0.07627609607714225,
                -2.022242430304174
            ]
        },
        {
            "positions": [
                0.20546524747530315,
                -2.1014169274787204,
                -0.8027630710558382,
                -2.526413349817317,
                0.04300959167821217,
                -2.170856050829344
            ]
        },
        {
            "positions": [
                0.14305964471284383,
                -2.1270632505886207,
                -0.8651273274203308,
                -2.5899074646264193,
                0.009743087279281859,
                -2.319469671354515
            ]
        },
        {
            "positions": [
                0.08065404195038473,
                -2.1527095736985205,
                -0.9274915837848234,
                -2.6534015794355206,
                -0.023523417119648116,
                -2.468083291879685
            ]
        },
        {
            "positions": [
                0.018248439187925403,
                -2.1783558968084202,
                -0.9898558401493163,
                -2.7168956942446227,
                -0.05678992151857831,
                -2.616696912404855
            ]
        },
        {
            "positions": [
                -0.0441571635745337,
                -2.20400221991832,
                -1.0522200965138087,
                -2.780389809053725,
                -0.09005642591750829,
                -2.765310532930026
            ]
        },
        {
            "positions": [
                -0.10656276633699324,
                -2.2296485430282202,
                -1.1145843528783015,
                -2.8438839238628266,
                -0.12332293031643848,
                -2.913924153455196
            ]
        },
        {
            "positions": [
                -0.1689683690994524,
                -2.25529486613812,
                -1.1769486092427943,
                -2.907378038671929,
                -0.15658943471536863,
                -3.0625377739803663
            ]
        }
    ]
}