{
    "goal": {
        "global_pose": {
            "orientation": {
                "w": -0.00223480608172531,
                "x": 0.0024358444001904467,
                "y": 0.7094548369677653,
                "z": -0.704743149386269
            },
            "position": {
                "x": 0.6205249238014221,
                "y": -0.6371506643295288,
                "z": 0.19426114857196808
            }
        },
        "name": "move_to_magneteinheit_B"
    },
    "id": "LBKPIECE_move_to_magneteinheit_B_18",
    "joint_names": [
        "shoulder_pan_joint",
        "shoulder_lift_joint",
        "elbow_joint",
        "wrist_1_joint",
        "wrist_2_joint",
        "wrist_3_joint"
    ],
    "metrics": {
        "cart_traj_len": 1.452275340772442,
        "distance_elbow_joint": 0.7291832123913158,
        "distance_shoulder_lift_joint": 1.246760659936602,
        "distance_shoulder_pan_joint": 1.6204823840435925,
        "distance_wrist_1_joint": 2.6086679432521587,
        "distance_wrist_2_joint": 2.9408450009741838,
        "distance_wrist_3_joint": 3.138069099261461,
        "smoothness": 5.921189496950685e-16,
        "time": 2.758705757,
        "traj_len": 3.504854961315705,
        "weighted_distance": 4.91015880014166
    },
    "planner": "LBKPIECE",
    "start": {
        "state": {
            "elbow_joint": 2.3935871308073637,
            "shoulder_lift_joint": -1.9085141043777403,
            "shoulder_pan_joint": 0.7066247067284167,
            "wrist_1_joint": -0.46782909355067076,
            "wrist_2_joint": 0.7096259085804283,
            "wrist_3_joint": -3.1358149275257428
        }
    },
    "waypoints": [
        {
            "positions": [
                0.7066247067284167,
                -1.9085141043777403,
                2.3935871308073637,
                -0.46782909355067076,
                0.7096259085804283,
                -3.1358149275257428
            ]
        },
        {
            "positions": [
                0.6559846322270544,
                -1.8695528337547214,
                2.370800155420135,
                -0.3863082203240408,
                0.6177245022999851,
                -3.037750268173822
            ]
        },
        {
            "positions": [
                0.6053445577256922,
                -1.8305915631317027,
                2.3480131800329067,
                -0.30478734709741084,
                0.5258230960195418,
                -2.939685608821901
            ]
        },
        {
            "positions": [
                0.55470448322433,
                -1.7916302925086838,
                2.325226204645678,
                -0.22326647387078088,
                0.43392168973909856,
                -2.8416209494699807
            ]
        },
        {
            "positions": [
                0.5040644087229676,
                -1.752669021885665,
                2.3024392292584492,
                -0.14174560064415093,
                0.3420202834586553,
                -2.74355629011806
            ]
        },
        {
            "positions": [
                0.4534243342216054,
                -1.7137077512626462,
                2.2796522538712205,
                -0.060224727417520996,
                0.2501188771782121,
                -2.6454916307661396
            ]
        },
        {
            "positions": [
                0.4027842597202431,
                -1.6747464806396275,
                2.256865278483992,
                0.02129614580910899,
                0.15821747089776883,
                -2.547426971414219
            ]
        },
        {
            "positions": [
                0.35214418521888086,
                -1.6357852100166086,
                2.2340783030967635,
                0.10281701903573898,
                0.06631606461732564,
                -2.449362312062298
            ]
        },
        {
            "positions": [
                0.3015041107175186,
                -1.5968239393935897,
                2.2112913277095347,
                0.1843378922623689,
                -0.025585341663117656,
                -2.3512976527103775
            ]
        },
        {
            "positions": [
                0.2508640362161563,
                -1.557862668770571,
                2.188504352322306,
                0.26585876548899884,
                -0.11748674794356095,
                -2.253232993358457
            ]
        },
        {
            "positions": [
                0.20022396171479406,
                -1.5189013981475523,
                2.1657173769350777,
                0.34737963871562877,
                -0.20938815422400414,
                -2.155168334006536
            ]
        },
        {
            "positions": [
                0.14958388721343174,
                -1.4799401275245334,
                2.142930401547849,
                0.4289005119422588,
                -0.30128956050444733,
                -2.0571036746546154
            ]
        },
        {
            "positions": [
                0.09894381271206953,
                -1.4409788569015145,
                2.1201434261606202,
                0.5104213851688888,
                -0.3931909667848906,
                -1.9590390153026949
            ]
        },
        {
            "positions": [
                0.048303738210707325,
                -1.4020175862784958,
                2.0973564507733915,
                0.5919422583955187,
                -0.4850923730653339,
                -1.8609743559507743
            ]
        },
        {
            "positions": [
                -0.0023363362906549945,
                -1.363056315655477,
                2.074569475386163,
                0.6734631316221487,
                -0.576993779345777,
                -1.7629096965988535
            ]
        },
        {
            "positions": [
                -0.052976410792017314,
                -1.324095045032458,
                2.0517824999989345,
                0.7549840048487786,
                -0.6688951856262203,
                -1.6648450372469328
            ]
        },
        {
            "positions": [
                -0.10361648529337952,
                -1.2851337744094393,
                2.0289955246117057,
                0.8365048780754085,
                -0.7607965919066636,
                -1.5667803778950122
            ]
        },
        {
            "positions": [
                -0.15425655979474173,
                -1.2461725037864206,
                2.0062085492244774,
                0.9180257513020385,
                -0.8526979981871069,
                -1.4687157185430917
            ]
        },
        {
            "positions": [
                -0.20489663429610405,
                -1.2072112331634017,
                1.9834215738372487,
                0.9995466245286684,
                -0.9445994044675502,
                -1.370651059191171
            ]
        },
        {
            "positions": [
                -0.25553670879746637,
                -1.1682499625403828,
                1.96063459845002,
                1.0810674977552983,
                -1.0365008107479934,
                -1.2725863998392501
            ]
        },
        {
            "positions": [
                -0.3061767832988286,
                -1.1292886919173641,
                1.9378476230627912,
                1.1625883709819282,
                -1.1284022170284365,
                -1.1745217404873296
            ]
        },
        {
            "positions": [
                -0.3568168578001908,
                -1.0903274212943452,
                1.9150606476755627,
                1.2441092442085584,
                -1.22030362330888,
                -1.076457081135409
            ]
        },
        {
            "positions": [
                -0.4074569323015532,
                -1.0513661506713263,
                1.8922736722883342,
                1.3256301174351883,
                -1.312205029589323,
                -0.9783924217834881
            ]
        },
        {
            "positions": [
                -0.45809700680291543,
                -1.0124048800483076,
                1.8694866969011055,
                1.4071509906618183,
                -1.4041064358697666,
                -0.8803277624315675
            ]
        },
        {
            "positions": [
                -0.5087370813042776,
                -0.9734436094252888,
                1.846699721513877,
                1.4886718638884482,
                -1.4960078421502097,
                -0.782263103079647
            ]
        },
        {
            "positions": [
                -0.5593771558056398,
                -0.93448233880227,
                1.8239127461266484,
                1.5701927371150783,
                -1.5879092484306527,
                -0.6841984437277264
            ]
        },
        {
            "positions": [
                -0.6100172303070021,
                -0.8955210681792511,
                1.8011257707394197,
                1.6517136103417083,
                -1.6798106547110963,
                -0.5861337843758059
            ]
        },
        {
            "positions": [
                -0.6606573048083645,
                -0.8565597975562325,
                1.778338795352191,
                1.7332344835683382,
                -1.7717120609915393,
                -0.4880691250238849
            ]
        },
        {
            "positions": [
                -0.7112973793097267,
                -0.8175985269332136,
                1.7555518199649625,
                1.8147553567949681,
                -1.8636134672719824,
                -0.39000446567196434
            ]
        },
        {
            "positions": [
                -0.7619374538110889,
                -0.7786372563101949,
                1.732764844577734,
                1.896276230021598,
                -1.955514873552426,
                -0.2919398063200438
            ]
        },
        {
            "positions": [
                -0.8125775283124513,
                -0.739675985687176,
                1.7099778691905052,
                1.977797103248228,
                -2.047416279832869,
                -0.1938751469681228
            ]
        },
        {
            "positions": [
                -0.8632176028138135,
                -0.7007147150641573,
                1.6871908938032765,
                2.059317976474858,
                -2.1393176861133125,
                -0.09581048761620226
            ]
        },
        {
            "positions": [
                -0.9138576773151758,
                -0.6617534444411383,
                1.664403918416048,
                2.140838849701488,
                -2.2312190923937556,
                0.002254171735718393
            ]
        }
    ]
}