{
    "goal": {
        "global_pose": {
            "orientation": {
                "w": 0.7047431493862688,
                "x": -0.7094548369677653,
                "y": 0.0024358444001904,
                "z": -0.0022348060817251984
            },
            "position": {
                "x": -0.39052492380142206,
                "y": 0.3671506643295288,
                "z": 0.19426114857196808
            }
        },
        "name": "move_to_magneteinheit_D"
    },
    "id": "LBKPIECE_move_to_magneteinheit_D_43",
    "joint_names": [
        "shoulder_pan_joint",
        "shoulder_lift_joint",
        "elbow_joint",
        "wrist_1_joint",
        "wrist_2_joint",
        "wrist_3_joint"
    ],
    "metrics": {
        "cart_traj_len": 6.012670471787708,
        "distance_elbow_joint": 3.899066759846026,
        "distance_shoulder_lift_joint": 1.6263698529863233,
        "distance_shoulder_pan_joint": 8.460803305640821,
        "distance_wrist_1_joint": 2.1209836028573905,
        "distance_wrist_2_joint": 0.2967100319322239,
        "distance_wrist_3_joint": 3.0497749028392027,
        "smoothness": 0.39929034269753855,
        "time": 1.913462667,
        "traj_len": 4.410635833539422,
        "weighted_distance": 5.288757122100616
    },
    "planner": "LBKPIECE",
    "start": {
        "state": {
            "elbow_joint": 0.7495348899011973,
            "shoulder_lift_joint": -0.6476975780737697,
            "shoulder_pan_joint": -2.711696901376276,
            "wrist_1_joint": -0.07506478080974305,
            "wrist_2_joint": 0.4329665971545858,
            "wrist_3_joint": 3.1361499051832524
        }
    },
    "waypoints": [
        {
            "positions": [
                -2.711696901376276,
                -0.6476975780737697,
                0.7495348899011973,
                -0.07506478080974305,
                0.4329665971545858,
                3.1361499051832524
            ]
        },
        {
            "positions": [
                -2.726819523731386,
                -0.7857566584700613,
                0.7185263191633653,
                -0.050536488420002,
                0.45037011418860906,
                3.079358446028694
            ]
        },
        {
            "positions": [
                -2.5822607302670826,
                -0.8144548882815029,
                0.626677039498763,
                -0.0034235579112937634,
                0.44783584790469266,
                3.0032866480612714
            ]
        },
        {
            "positions": [
                -2.4377019368027795,
                -0.8431531180929446,
                0.5348277598341605,
                0.043689372597414476,
                0.44530158162077627,
                2.927214850093849
            ]
        },
        {
            "positions": [
                -2.293143143338476,
                -0.8718513479043863,
                0.44297848016955815,
                0.09080230310612272,
                0.44276731533685987,
                2.851143052126426
            ]
        },
        {
            "positions": [
                -2.1485843498741724,
                -0.900549577715828,
                0.35112920050495583,
                0.13791523361483096,
                0.44023304905294347,
                2.7750712541590032
            ]
        },
        {
            "positions": [
                -2.0040255564098692,
                -0.9292478075272697,
                0.25927992084035345,
                0.18502816412353923,
                0.4376987827690271,
                2.6989994561915807
            ]
        },
        {
            "positions": [
                -1.8594667629455657,
                -0.9579460373387114,
                0.16743064117575102,
                0.23214109463224744,
                0.4351645164851107,
                2.622927658224158
            ]
        },
        {
            "positions": [
                -1.7149079694812623,
                -0.9866442671501531,
                0.07558136151114869,
                0.27925402514095565,
                0.4326302502011943,
                2.546855860256735
            ]
        },
        {
            "positions": [
                -1.5703491760169588,
                -1.0153424969615947,
                -0.01626791815345363,
                0.3263669556496639,
                0.4300959839172779,
                2.4707840622893125
            ]
        },
        {
            "positions": [
                -1.4257903825526554,
                -1.0440407267730363,
                -0.10811719781805607,
                0.3734798861583722,
                0.4275617176333615,
                2.39471226432189
            ]
        },
        {
            "positions": [
                -1.281231589088352,
                -1.072738956584478,
                -0.1999664774826584,
                0.4205928166670804,
                0.4250274513494451,
                2.3186404663544673
            ]
        },
        {
            "positions": [
                -1.1366727956240485,
                -1.1014371863959198,
                -0.2918157571472608,
                0.4677057471757887,
                0.42249318506552863,
                2.2425686683870447
            ]
        },
        {
            "positions": [
                -0.9921140021597452,
                -1.1301354162073616,
                -0.38366503681186326,
                0.5148186776844969,
                0.41995891878161223,
                2.166496870419622
            ]
        },
        {
            "positions": [
                -0.8475552086954417,
                -1.1588336460188031,
                -0.4755143164764657,
                0.5619316081932052,
                0.41742465249769584,
                2.090425072452199
            ]
        },
        {
            "positions": [
                -0.7029964152311385,
                -1.1875318758302449,
                -0.5673635961410679,
                0.6090445387019133,
                0.41489038621377944,
                2.0143532744847765
            ]
        },
        {
            "positions": [
                -0.558437621766835,
                -1.2162301056416864,
                -0.6592128758056703,
                0.6561574692106217,
                0.41235611992986304,
                1.938281476517354
            ]
        },
        {
            "positions": [
                -0.4138788283025314,
                -1.2449283354531282,
                -0.7510621554702726,
                0.7032703997193298,
                0.40982185364594664,
                1.8622096785499314
            ]
        },
        {
            "positions": [
                -0.26932003483822786,
                -1.27362656526457,
                -0.8429114351348752,
                0.7503833302280382,
                0.40728758736203025,
                1.7861378805825086
            ]
        },
        {
            "positions": [
                -0.12476124137392475,
                -1.3023247950760115,
                -0.9347607147994774,
                0.7974962607367464,
                0.40475332107811385,
                1.710066082615086
            ]
        },
        {
            "positions": [
                0.01979755209037881,
                -1.3310230248874533,
                -1.0266099944640799,
                0.8446091912454546,
                0.40221905479419745,
                1.6339942846476632
            ]
        },
        {
            "positions": [
                0.16435634555468193,
                -1.3597212546988948,
                -1.118459274128682,
                0.8917221217541629,
                0.39968478851028105,
                1.5579224866802406
            ]
        },
        {
            "positions": [
                0.30891513901898593,
                -1.3884194845103366,
                -1.2103085537932847,
                0.9388350522628712,
                0.39715052222636466,
                1.4818506887128176
            ]
        },
        {
            "positions": [
                0.45347393248328904,
                -1.4171177143217784,
                -1.302157833457887,
                0.9859479827715795,
                0.39461625594244826,
                1.405778890745395
            ]
        },
        {
            "positions": [
                0.5980327259475926,
                -1.4458159441332201,
                -1.3940071131224894,
                1.0330609132802877,
                0.39208198965853186,
                1.3297070927779724
            ]
        },
        {
            "positions": [
                0.7425915194118957,
                -1.4745141739446617,
                -1.4858563927870918,
                1.0801738437889958,
                0.38954772337461546,
                1.2536352948105498
            ]
        },
        {
            "positions": [
                0.8871503128761997,
                -1.5032124037561034,
                -1.5777056724516942,
                1.1272867742977044,
                0.387013457090699,
                1.177563496843127
            ]
        },
        {
            "positions": [
                1.0317091063405028,
                -1.531910633567545,
                -1.6695549521162967,
                1.1743997048064125,
                0.3844791908067826,
                1.1014916988757044
            ]
        },
        {
            "positions": [
                1.176267899804806,
                -1.5606088633789867,
                -1.7614042317808987,
                1.2215126353151207,
                0.3819449245228662,
                1.0254199009082816
            ]
        },
        {
            "positions": [
                1.320826693269109,
                -1.5893070931904285,
                -1.853253511445501,
                1.2686255658238288,
                0.3794106582389498,
                0.949348102940859
            ]
        },
        {
            "positions": [
                1.465385486733413,
                -1.6180053230018703,
                -1.945102791110104,
                1.3157384963325374,
                0.3768763919550334,
                0.8732763049734364
            ]
        },
        {
            "positions": [
                1.6099442801977162,
                -1.6467035528133118,
                -2.036952070774706,
                1.3628514268412455,
                0.374342125671117,
                0.7972045070060139
            ]
        },
        {
            "positions": [
                1.7545030736620193,
                -1.6754017826247534,
                -2.1288013504393084,
                1.4099643573499536,
                0.3718078593872006,
                0.7211327090385913
            ]
        },
        {
            "positions": [
                1.8990618671263233,
                -1.7041000124361951,
                -2.2206506301039104,
                1.4570772878586618,
                0.3692735931032842,
                0.6450609110711687
            ]
        },
        {
            "positions": [
                2.0436206605906273,
                -1.732798242247637,
                -2.3124999097685133,
                1.5041902183673703,
                0.36673932681936783,
                0.5689891131037457
            ]
        },
        {
            "positions": [
                2.1881794540549304,
                -1.7614964720590787,
                -2.4043491894331157,
                1.5513031488760785,
                0.36420506053545143,
                0.4929173151363231
            ]
        },
        {
            "positions": [
                2.3327382475192335,
                -1.7901947018705202,
                -2.4961984690977177,
                1.5984160793847866,
                0.36167079425153503,
                0.4168455171689005
            ]
        },
        {
            "positions": [
                2.4772970409835366,
                -1.8188929316819618,
                -2.58804774876232,
                1.645529009893495,
                0.35913652796761864,
                0.3407737192014779
            ]
        },
        {
            "positions": [
                2.6218558344478406,
                -1.8475911614934037,
                -2.6798970284269226,
                1.6926419404022033,
                0.35660226168370224,
                0.2647019212340549
            ]
        },
        {
            "positions": [
                2.7664146279121438,
                -1.8762893913048453,
                -2.771746308091525,
                1.7397548709109114,
                0.35406799539978584,
                0.1886301232666323
            ]
        },
        {
            "positions": [
                2.4980103977628545,
                -1.912451031282595,
                -2.737402166104861,
                1.7119217844439354,
                0.3374312321171152,
                0.17933420318276125
            ]
        },
        {
            "positions": [
                2.2296061676135652,
                -1.9486126712603449,
                -2.703058024118197,
                1.6840886979769594,
                0.3207944688344445,
                0.17003828309889019
            ]
        },
        {
            "positions": [
                1.9612019374642764,
                -1.9847743112380947,
                -2.668713882131533,
                1.6562556115099833,
                0.3041577055517738,
                0.16074236301501915
            ]
        },
        {
            "positions": [
                1.6927977073149871,
                -2.0209359512158445,
                -2.634369740144869,
                1.6284225250430073,
                0.28752094226910313,
                0.1514464429311481
            ]
        },
        {
            "positions": [
                1.424393477165698,
                -2.0570975911935943,
                -2.600025598158205,
                1.6005894385760313,
                0.27088417898643247,
                0.14215052284727703
            ]
        },
        {
            "positions": [
                1.155989247016409,
                -2.093259231171344,
                -2.565681456171541,
                1.5727563521090553,
                0.2542474157037618,
                0.132854602763406
            ]
        },
        {
            "positions": [
                0.8875850168671198,
                -2.129420871149094,
                -2.5313373141848774,
                1.544923265642079,
                0.23761065242109114,
                0.12355868267953492
            ]
        },
        {
            "positions": [
                0.6191807867178305,
                -2.1655825111268436,
                -2.4969931721982133,
                1.517090179175103,
                0.22097388913842045,
                0.11426276259566386
            ]
        },
        {
            "positions": [
                0.35077655656854123,
                -2.2017441511045934,
                -2.462649030211549,
                1.489257092708127,
                0.20433712585574976,
                0.10496684251179281
            ]
        },
        {
            "positions": [
                0.0823723264192524,
                -2.237905791082343,
                -2.4283048882248854,
                1.461424006241151,
                0.18770036257307912,
                0.09567092242792176
            ]
        },
        {
            "positions": [
                -0.18603190373003703,
                -2.274067431060093,
                -2.3939607462382213,
                1.433590919774175,
                0.17106359929040843,
                0.0863750023440507
            ]
        }
    ]
}