{
    "goal": {
        "global_pose": {
            "orientation": {
                "w": 0.005598929693374612,
                "x": 0.007748599140229565,
                "y": 0.7110244013736278,
                "z": -0.7031023480610252
            },
            "position": {
                "x": 0.1141497679147869,
                "y": -0.7141253447532654,
                "z": 0.3711530566215515
            }
        },
        "name": "move_to_auspresseinheit_B"
    },
    "id": "LBKPIECE_move_to_auspresseinheit_B_85",
    "joint_names": [
        "shoulder_pan_joint",
        "shoulder_lift_joint",
        "elbow_joint",
        "wrist_1_joint",
        "wrist_2_joint",
        "wrist_3_joint"
    ],
    "metrics": {
        "cart_traj_len": 0.563770883940684,
        "distance_elbow_joint": 0.05942095704581574,
        "distance_shoulder_lift_joint": 0.29591297261638205,
        "distance_shoulder_pan_joint": 0.5761089226807408,
        "distance_wrist_1_joint": 0.3174590766143869,
        "distance_wrist_2_joint": 0.9937622780355755,
        "distance_wrist_3_joint": 0.008159130722258379,
        "smoothness": 0.0,
        "time": 4.928566004,
        "traj_len": 1.500274420802794,
        "weighted_distance": 1.8916561404784007
    },
    "planner": "LBKPIECE",
    "start": {
        "state": {
            "elbow_joint": 2.019306165916698,
            "shoulder_lift_joint": -1.1220205098164344,
            "shoulder_pan_joint": -1.095207207618794,
            "wrist_1_joint": -0.8559671824921639,
            "wrist_2_joint": 0.47596387242952726,
            "wrist_3_joint": 3.159081874673826
        }
    },
    "waypoints": [
        {
            "positions": [
                -1.095207207618794,
                -1.1220205098164344,
                2.019306165916698,
                -0.8559671824921639,
                0.47596387242952726,
                3.159081874673826
            ]
        },
        {
            "positions": [
                -1.1912253613989174,
                -1.1713393385858315,
                2.0094026730757286,
                -0.8030573363897661,
                0.6415909187687898,
                3.1577220195534492
            ]
        },
        {
            "positions": [
                -1.287243515179041,
                -1.2206581673552284,
                1.9994991802347595,
                -0.7501474902873683,
                0.8072179651080524,
                3.156362164433073
            ]
        },
        {
            "positions": [
                -1.3832616689591644,
                -1.2699769961246254,
                1.9895956873937901,
                -0.6972376441849704,
                0.9728450114473151,
                3.155002309312697
            ]
        },
        {
            "positions": [
                -1.4792798227392878,
                -1.3192958248940225,
                1.9796921945528207,
                -0.6443277980825726,
                1.1384720577865775,
                3.1536424541923203
            ]
        },
        {
            "positions": [
                -1.5752979765194113,
                -1.3686146536634194,
                1.9697887017118516,
                -0.5914179519801748,
                1.3040991041258403,
                3.1522825990719436
            ]
        },
        {
            "positions": [
                -1.6713161302995347,
                -1.4179334824328165,
                1.9598852088708822,
                -0.538508105877777,
                1.4697261504651027,
                3.1509227439515675
            ]
        }
    ]
}