{
    "goal": {
        "global_pose": {
            "orientation": {
                "w": 0.7031023480610252,
                "x": -0.7110244013736278,
                "y": 0.0077485991402295624,
                "z": 0.005598929693374583
            },
            "position": {
                "x": -0.8841497679147869,
                "y": 0.44412534475326537,
                "z": 0.3711530566215515
            }
        },
        "name": "move_to_auspresseinheit_D"
    },
    "id": "LBKPIECE_move_to_auspresseinheit_D_136",
    "joint_names": [
        "shoulder_pan_joint",
        "shoulder_lift_joint",
        "elbow_joint",
        "wrist_1_joint",
        "wrist_2_joint",
        "wrist_3_joint"
    ],
    "metrics": {
        "cart_traj_len": 3.7644842570339456,
        "distance_elbow_joint": 3.1955884239953143,
        "distance_shoulder_lift_joint": 1.4819415296258711,
        "distance_shoulder_pan_joint": 2.797100890708022,
        "distance_wrist_1_joint": 1.3120327748152136,
        "distance_wrist_2_joint": 0.8972542054940915,
        "distance_wrist_3_joint": 3.049485016332357,
        "smoothness": 0.02242357052545088,
        "time": 3.511910545,
        "traj_len": 3.5683893903231567,
        "weighted_distance": 4.587118905581683
    },
    "planner": "LBKPIECE",
    "start": {
        "state": {
            "elbow_joint": 1.8268400409724999,
            "shoulder_lift_joint": -1.0144045787793008,
            "shoulder_pan_joint": 2.6280239544362485,
            "wrist_1_joint": -0.790705565816056,
            "wrist_2_joint": 1.0573557467365533,
            "wrist_3_joint": 3.1851377467193758
        }
    },
    "waypoints": [
        {
            "positions": [
                2.6280239544362485,
                -1.0144045787793008,
                1.8268400409724999,
                -0.790705565816056,
                1.0573557467365533,
                3.1851377467193758
            ]
        },
        {
            "positions": [
                2.6050524843522926,
                -1.0052980003007832,
                1.6769379477042639,
                -0.7373839808942829,
                1.0175511839049696,
                3.0794683333837223
            ]
        },
        {
            "positions": [
                2.582081014268337,
                -0.9961914218222655,
                1.527035854436028,
                -0.6840623959725098,
                0.9777466210733856,
                2.973798920048069
            ]
        },
        {
            "positions": [
                2.5591095441843814,
                -0.9870848433437479,
                1.377133761167792,
                -0.6307408110507366,
                0.9379420582418019,
                2.868129506712415
            ]
        },
        {
            "positions": [
                2.5361380741004256,
                -0.9779782648652302,
                1.2272316678995563,
                -0.5774192261289636,
                0.898137495410218,
                2.7624600933767613
            ]
        },
        {
            "positions": [
                2.5131666040164697,
                -0.9688716863867126,
                1.0773295746313203,
                -0.5240976412071905,
                0.8583329325786342,
                2.656790680041108
            ]
        },
        {
            "positions": [
                2.4173721918633184,
                -1.02017199485933,
                0.989969647572244,
                -0.48676103941410664,
                0.8333960971737708,
                2.566750038982033
            ]
        },
        {
            "positions": [
                2.3215777797101667,
                -1.071472303331947,
                0.9026097205131678,
                -0.4494244376210228,
                0.8084592617689076,
                2.4767093979229586
            ]
        },
        {
            "positions": [
                2.225783367557015,
                -1.1227726118045644,
                0.8152497934540917,
                -0.4120878358279389,
                0.7835224263640443,
                2.386668756863884
            ]
        },
        {
            "positions": [
                2.1299889554038636,
                -1.1740729202771816,
                0.7278898663950153,
                -0.37475123403485505,
                0.758585590959181,
                2.2966281158048094
            ]
        },
        {
            "positions": [
                2.0341945432507123,
                -1.225373228749799,
                0.6405299393359392,
                -0.33741463224177115,
                0.7336487555543176,
                2.2065874747457346
            ]
        },
        {
            "positions": [
                1.9384001310975605,
                -1.276673537222416,
                0.5531700122768629,
                -0.3000780304486873,
                0.7087119201494544,
                2.11654683368666
            ]
        },
        {
            "positions": [
                1.842605718944409,
                -1.3279738456950334,
                0.46581008521778666,
                -0.26274142865560346,
                0.6837750847445911,
                2.0265061926275854
            ]
        },
        {
            "positions": [
                1.7468113067912574,
                -1.3792741541676505,
                0.3784501581587104,
                -0.22540482686251961,
                0.6588382493397278,
                1.936465551568511
            ]
        },
        {
            "positions": [
                1.6510168946381056,
                -1.4305744626402679,
                0.29109023109963417,
                -0.1880682250694357,
                0.6339014139348644,
                1.8464249105094361
            ]
        },
        {
            "positions": [
                1.5552224824849543,
                -1.481874771112885,
                0.20373030404055792,
                -0.15073162327635187,
                0.6089645785300012,
                1.7563842694503615
            ]
        },
        {
            "positions": [
                1.4594280703318028,
                -1.5331750795855024,
                0.11637037698148178,
                -0.11339502148326802,
                0.5840277431251379,
                1.666343628391287
            ]
        },
        {
            "positions": [
                1.3636336581786512,
                -1.5844753880581197,
                0.029010449922405535,
                -0.07605841969018418,
                0.5590909077202746,
                1.5763029873322123
            ]
        },
        {
            "positions": [
                1.2678392460254997,
                -1.6357756965307368,
                -0.058349477136670824,
                -0.038721817897100275,
                0.5341540723154112,
                1.4862623462731377
            ]
        },
        {
            "positions": [
                1.1720448338723481,
                -1.687076005003354,
                -0.14570940419574696,
                -0.001385216104016429,
                0.509217236910548,
                1.396221705214063
            ]
        },
        {
            "positions": [
                1.0762504217191966,
                -1.7383763134759713,
                -0.2330693312548231,
                0.03595138568906742,
                0.4842804015056847,
                1.3061810641549885
            ]
        },
        {
            "positions": [
                0.9804560095660451,
                -1.7896766219485887,
                -0.32042925831389946,
                0.07328798748215126,
                0.4593435661008214,
                1.2161404230959139
            ]
        },
        {
            "positions": [
                0.8846615974128937,
                -1.8409769304212058,
                -0.4077891853729756,
                0.11062458927523511,
                0.43440673069595814,
                1.1260997820368392
            ]
        },
        {
            "positions": [
                0.7888671852597418,
                -1.8922772388938232,
                -0.49514911243205195,
                0.14796119106831906,
                0.40946989529109473,
                1.0360591409777644
            ]
        },
        {
            "positions": [
                0.6930727731065904,
                -1.9435775473664405,
                -0.5825090394911281,
                0.1852977928614029,
                0.3845330598862315,
                0.9460184999186898
            ]
        },
        {
            "positions": [
                0.5972783609534389,
                -1.9948778558390576,
                -0.6698689665502044,
                0.22263439465448676,
                0.3595962244813682,
                0.8559778588596152
            ]
        },
        {
            "positions": [
                0.5014839488002876,
                -2.0461781643116748,
                -0.7572288936092806,
                0.2599709964475706,
                0.33465938907650483,
                0.7659372178005408
            ]
        },
        {
            "positions": [
                0.4056895366471358,
                -2.0974784727842923,
                -0.8445888206683567,
                0.29730759824065445,
                0.3097225536716416,
                0.6758965767414662
            ]
        },
        {
            "positions": [
                0.3098951244939845,
                -2.148778781256909,
                -0.9319487477274329,
                0.3346442000337383,
                0.28478571826677834,
                0.5858559356823916
            ]
        },
        {
            "positions": [
                0.21410071234083272,
                -2.2000790897295266,
                -1.0193086747865092,
                0.37198080182682214,
                0.259848882861915,
                0.49581529462331675
            ]
        },
        {
            "positions": [
                0.11830630018768096,
                -2.251379398202144,
                -1.1066686018455856,
                0.4093174036199061,
                0.23491204745705163,
                0.4057746535642419
            ]
        },
        {
            "positions": [
                0.022511888034529637,
                -2.302679706674761,
                -1.194028528904662,
                0.44665400541298994,
                0.2099752120521884,
                0.3157340125051675
            ]
        },
        {
            "positions": [
                -0.07328252411862213,
                -2.3539800151473784,
                -1.2813884559637378,
                0.4839906072060738,
                0.18503837664732503,
                0.2256933714460927
            ]
        },
        {
            "positions": [
                -0.1690769362717734,
                -2.4052803236199956,
                -1.3687483830228144,
                0.5213272089991575,
                0.16010154124246176,
                0.1356527303870183
            ]
        }
    ]
}