{
    "goal": {
        "global_pose": {
            "orientation": {
                "w": 0.005598929693374612,
                "x": 0.007748599140229565,
                "y": 0.7110244013736278,
                "z": -0.7031023480610252
            },
            "position": {
                "x": -0.8858502320852131,
                "y": -0.7141253447532654,
                "z": 0.3711530566215515
            }
        },
        "name": "move_to_auspresseinheit_C"
    },
    "id": "LBKPIECE_move_to_auspresseinheit_C_62",
    "joint_names": [
        "shoulder_pan_joint",
        "shoulder_lift_joint",
        "elbow_joint",
        "wrist_1_joint",
        "wrist_2_joint",
        "wrist_3_joint"
    ],
    "metrics": {
        "cart_traj_len": 0.4934315441562862,
        "distance_elbow_joint": 1.0035573756788254,
        "distance_shoulder_lift_joint": 0.3267828438866027,
        "distance_shoulder_pan_joint": 0.25586316181214785,
        "distance_wrist_1_joint": 0.6783641109809102,
        "distance_wrist_2_joint": 1.321526608796605,
        "distance_wrist_3_joint": 0.06607829142164467,
        "smoothness": 3.2297397080004555e-16,
        "time": 4.814910238,
        "traj_len": 1.9110657740058912,
        "weighted_distance": 2.4050404768314277
    },
    "planner": "LBKPIECE",
    "start": {
        "state": {
            "elbow_joint": 1.752795957773711,
            "shoulder_lift_joint": -0.9740617694225064,
            "shoulder_pan_joint": -2.967991417825858,
            "wrist_1_joint": -0.7595177689806859,
            "wrist_2_joint": 1.7443932448377395,
            "wrist_3_joint": 3.199131542505932
        }
    },
    "waypoints": [
        {
            "positions": [
                -2.967991417825858,
                -0.9740617694225064,
                1.752795957773711,
                -0.7595177689806859,
                1.7443932448377395,
                3.199131542505932
            ]
        },
        {
            "positions": [
                -2.9424051016446433,
                -0.9413834850338462,
                1.6524402202058286,
                -0.6916813578825949,
                1.612240583958079,
                3.1925237133637676
            ]
        },
        {
            "positions": [
                -2.916818785463428,
                -0.9087052006451859,
                1.552084482637946,
                -0.6238449467845039,
                1.4800879230784185,
                3.185915884221603
            ]
        },
        {
            "positions": [
                -2.8912324692822136,
                -0.8760269162565256,
                1.4517287450700636,
                -0.5560085356864128,
                1.347935262198758,
                3.1793080550794386
            ]
        },
        {
            "positions": [
                -2.865646153100999,
                -0.8433486318678654,
                1.3513730075021808,
                -0.4881721245883218,
                1.2157826013190975,
                3.172700225937274
            ]
        },
        {
            "positions": [
                -2.8400598369197843,
                -0.8106703474792051,
                1.2510172699342985,
                -0.4203357134902308,
                1.083629940439437,
                3.1660923967951096
            ]
        },
        {
            "positions": [
                -2.814473520738569,
                -0.7779920630905448,
                1.1506615323664158,
                -0.3524993023921398,
                0.9514772795597765,
                3.1594845676529455
            ]
        },
        {
            "positions": [
                -2.7888872045573545,
                -0.7453137787018845,
                1.0503057947985335,
                -0.2846628912940488,
                0.819324618680116,
                3.152876738510781
            ]
        },
        {
            "positions": [
                -2.76330088837614,
                -0.7126354943132243,
                0.9499500572306507,
                -0.21682648019595774,
                0.6871719578004554,
                3.1462689093686165
            ]
        },
        {
            "positions": [
                -2.7377145721949248,
                -0.679957209924564,
                0.8495943196627682,
                -0.14899006909786672,
                0.5550192969207948,
                3.139661080226452
            ]
        },
        {
            "positions": [
                -2.71212825601371,
                -0.6472789255359037,
                0.7492385820948857,
                -0.08115365799977571,
                0.4228666360411343,
                3.1330532510842874
            ]
        }
    ]
}