{
    "goal": {
        "global_pose": {
            "orientation": {
                "w": 0.7031023502349854,
                "x": -0.7110244035720825,
                "y": 0.007748599164187908,
                "z": 0.005598929710686207
            },
            "position": {
                "x": 0.11585023208521307,
                "y": 0.44412534475326537,
                "z": 0.3711530566215515
            }
        },
        "name": "move_to_auspresseinheit_A"
    },
    "id": "LBKPIECE_move_to_auspresseinheit_A_22",
    "joint_names": [
        "shoulder_pan_joint",
        "shoulder_lift_joint",
        "elbow_joint",
        "wrist_1_joint",
        "wrist_2_joint",
        "wrist_3_joint"
    ],
    "metrics": {
        "cart_traj_len": 1.0909952771731442,
        "distance_elbow_joint": 0.6291428902341627,
        "distance_shoulder_lift_joint": 2.183686271298249,
        "distance_shoulder_pan_joint": 1.0467504684553148,
        "distance_wrist_1_joint": 0.7267259176583125,
        "distance_wrist_2_joint": 1.9479409238439227,
        "distance_wrist_3_joint": 0.18262049396672175,
        "smoothness": 1.3681301213597021,
        "time": 3.332253084,
        "traj_len": 2.5916919117550763,
        "weighted_distance": 3.1235836462134903
    },
    "planner": "LBKPIECE",
    "start": {
        "state": {
            "elbow_joint": 2.4225747245308327,
            "shoulder_lift_joint": -1.373653427065438,
            "shoulder_pan_joint": -0.33786330853087027,
            "wrist_1_joint": -1.0288602302712604,
            "wrist_2_joint": 1.23302299562683,
            "wrist_3_joint": -3.094021725338297
        }
    },
    "waypoints": [
        {
            "positions": [
                -0.33786330853087027,
                -1.373653427065438,
                2.4225747245308327,
                -1.0288602302712604,
                1.23302299562683,
                -3.094021725338297
            ]
        },
        {
            "positions": [
                -0.2687566566862794,
                -1.4870777264116624,
                2.4476967116262562,
                -0.9756892139415849,
                1.1305173971585802,
                -3.1027996962191393
            ]
        },
        {
            "positions": [
                -0.19965000484168852,
                -1.6005020257578866,
                2.4728186987216803,
                -0.9225181976119093,
                1.0280117986903305,
                -3.1115776670999815
            ]
        },
        {
            "positions": [
                -0.13054335299709763,
                -1.713926325104111,
                2.497940685817104,
                -0.8693471812822339,
                0.9255062002220807,
                -3.1203556379808237
            ]
        },
        {
            "positions": [
                -0.06143670115250677,
                -1.8273506244503355,
                2.5230626729125274,
                -0.8161761649525584,
                0.823000601753831,
                -3.129133608861666
            ]
        },
        {
            "positions": [
                0.007669950692084149,
                -1.94077492379656,
                2.5481846600079514,
                -0.7630051486228828,
                0.7204950032855812,
                -3.137911579742508
            ]
        },
        {
            "positions": [
                0.07677660253667501,
                -2.0541992231427844,
                2.573306647103375,
                -0.7098341322932074,
                0.6179894048173316,
                -3.1466895506233503
            ]
        },
        {
            "positions": [
                0.14588325438126593,
                -2.167623522489009,
                2.5984286341987985,
                -0.6566631159635319,
                0.5154838063490818,
                -3.1554675215041925
            ]
        },
        {
            "positions": [
                0.21498990622585673,
                -2.281047821835233,
                2.6235506212942226,
                -0.6034920996338564,
                0.41297820788083217,
                -3.1642454923850347
            ]
        },
        {
            "positions": [
                0.2840965580704477,
                -2.3944721211814572,
                2.648672608389646,
                -0.5503210833041808,
                0.31047260941258237,
                -3.173023463265877
            ]
        },
        {
            "positions": [
                0.35320320991503856,
                -2.5078964205276817,
                2.6737945954850697,
                -0.49715006697450526,
                0.20796701094433256,
                -3.181801434146719
            ]
        },
        {
            "positions": [
                0.4223098617596294,
                -2.621320719873906,
                2.6989165825804937,
                -0.4439790506448299,
                0.10546141247608287,
                -3.1905794050275613
            ]
        },
        {
            "positions": [
                0.49141651360422034,
                -2.7347450192201306,
                2.7240385696759173,
                -0.3908080343151543,
                0.0029558140078331796,
                -3.1993573759084035
            ]
        },
        {
            "positions": [
                0.5276616213242576,
                -2.597645906029538,
                2.6694253954944043,
                -0.4055869879321887,
                0.1226014377119875,
                -3.1864765686756344
            ]
        },
        {
            "positions": [
                0.5639067290442951,
                -2.460546792838945,
                2.6148122213128913,
                -0.42036594154922313,
                0.24224706141614183,
                -3.173595761442865
            ]
        },
        {
            "positions": [
                0.6001518367643324,
                -2.3234476796483525,
                2.5601990471313782,
                -0.43514489516625754,
                0.36189268512029615,
                -3.160714954210096
            ]
        },
        {
            "positions": [
                0.6363969444843697,
                -2.18634856645776,
                2.5055858729498652,
                -0.44992384878329195,
                0.4815383088244505,
                -3.1478341469773268
            ]
        },
        {
            "positions": [
                0.6726420522044071,
                -2.049249453267167,
                2.450972698768352,
                -0.46470280240032635,
                0.6011839325286048,
                -3.1349533397445573
            ]
        },
        {
            "positions": [
                0.7088871599244444,
                -1.9121503400765745,
                2.396359524586839,
                -0.47948175601736076,
                0.7208295562327591,
                -3.122072532511788
            ]
        }
    ]
}