{
    "goal": {
        "global_pose": {
            "orientation": {
                "w": -0.00223480608172531,
                "x": 0.0024358444001904467,
                "y": 0.7094548369677653,
                "z": -0.704743149386269
            },
            "position": {
                "x": -0.37947507619857795,
                "y": -0.6371506643295288,
                "z": 0.19426114857196808
            }
        },
        "name": "move_to_magneteinheit_C"
    },
    "id": "LBKPIECE_move_to_magneteinheit_C_31",
    "joint_names": [
        "shoulder_pan_joint",
        "shoulder_lift_joint",
        "elbow_joint",
        "wrist_1_joint",
        "wrist_2_joint",
        "wrist_3_joint"
    ],
    "metrics": {
        "cart_traj_len": 1.525960809989344,
        "distance_elbow_joint": 1.1991408539138244,
        "distance_shoulder_lift_joint": 1.8538048389945876,
        "distance_shoulder_pan_joint": 2.213528689465025,
        "distance_wrist_1_joint": 2.876112085552649,
        "distance_wrist_2_joint": 1.8979281607016065,
        "distance_wrist_3_joint": 5.0821544201258515,
        "smoothness": 0.9442339688390309,
        "time": 0.9925631290000001,
        "traj_len": 3.888787606536715,
        "weighted_distance": 5.482792913767535
    },
    "planner": "LBKPIECE",
    "start": {
        "state": {
            "elbow_joint": 1.9565354006590394,
            "shoulder_lift_joint": -1.4165861576513559,
            "shoulder_pan_joint": -1.6717766223277177,
            "wrist_1_joint": -0.5286633288215096,
            "wrist_2_joint": 1.4727565892594296,
            "wrist_3_joint": 3.1593482883155493
        }
    },
    "waypoints": [
        {
            "positions": [
                -1.6717766223277177,
                -1.4165861576513559,
                1.9565354006590394,
                -0.5286633288215096,
                1.4727565892594296,
                3.1593482883155493
            ]
        },
        {
            "positions": [
                -1.72359865839511,
                -1.411783035807005,
                1.987901512135659,
                -0.639573184281057,
                1.3215866864635788,
                3.117256999136405
            ]
        },
        {
            "positions": [
                -1.7754206944625022,
                -1.4069799139626542,
                2.0192676236122784,
                -0.7504830397406045,
                1.170416783667728,
                3.0751657099572607
            ]
        },
        {
            "positions": [
                -1.8272427305298944,
                -1.4021767921183033,
                2.050633735088898,
                -0.8613928952001519,
                1.019246880871877,
                3.0330744207781164
            ]
        },
        {
            "positions": [
                -1.8790647665972866,
                -1.3973736702739525,
                2.0819998465655174,
                -0.9723027506596994,
                0.8680769780760262,
                2.990983131598972
            ]
        },
        {
            "positions": [
                -1.9308868026646788,
                -1.3925705484296016,
                2.113365958042137,
                -1.0832126061192469,
                0.7169070752801755,
                2.948891842419828
            ]
        },
        {
            "positions": [
                -2.0043124612240812,
                -1.4397030577577814,
                2.14106821085435,
                -1.1444650842602622,
                0.7493743503858649,
                2.811073532677551
            ]
        },
        {
            "positions": [
                -2.077738119783484,
                -1.4868355670859612,
                2.1687704636665637,
                -1.2057175624012777,
                0.7818416254915541,
                2.6732552229352735
            ]
        },
        {
            "positions": [
                -2.1511637783428865,
                -1.533968076414141,
                2.1964727164787767,
                -1.266970040542293,
                0.8143089005972435,
                2.5354369131929966
            ]
        },
        {
            "positions": [
                -2.224589436902289,
                -1.5811005857423208,
                2.2241749692909902,
                -1.3282225186833083,
                0.8467761757029328,
                2.397618603450719
            ]
        },
        {
            "positions": [
                -2.298015095461692,
                -1.6282330950705006,
                2.2518772221032033,
                -1.3894749968243238,
                0.8792434508086222,
                2.259800293708442
            ]
        },
        {
            "positions": [
                -2.371440754021094,
                -1.6753656043986804,
                2.2795794749154163,
                -1.4507274749653392,
                0.9117107259143115,
                2.121981983966165
            ]
        },
        {
            "positions": [
                -2.444866412580497,
                -1.7224981137268602,
                2.30728172772763,
                -1.5119799531063545,
                0.9441780010200008,
                1.984163674223888
            ]
        },
        {
            "positions": [
                -2.5182920711398995,
                -1.76963062305504,
                2.334983980539843,
                -1.57323243124737,
                0.9766452761256901,
                1.8463453644816108
            ]
        },
        {
            "positions": [
                -2.591717729699302,
                -1.8167631323832198,
                2.3626862333520564,
                -1.6344849093883853,
                1.0091125512313794,
                1.7085270547393334
            ]
        },
        {
            "positions": [
                -2.665143388258705,
                -1.8638956417113997,
                2.3903884861642695,
                -1.6957373875294008,
                1.0415798263370688,
                1.5707087449970563
            ]
        },
        {
            "positions": [
                -2.738569046818107,
                -1.9110281510395795,
                2.418090738976483,
                -1.7569898656704162,
                1.0740471014427582,
                1.432890435254779
            ]
        },
        {
            "positions": [
                -2.8119947053775096,
                -1.9581606603677593,
                2.445792991788696,
                -1.8182423438114315,
                1.1065143765484475,
                1.295072125512502
            ]
        },
        {
            "positions": [
                -2.8854203639369125,
                -2.005293169695939,
                2.473495244600909,
                -1.8794948219524468,
                1.1389816516541367,
                1.157253815770225
            ]
        },
        {
            "positions": [
                -2.958846022496315,
                -2.052425679024119,
                2.5011974974131226,
                -1.9407473000934623,
                1.171448926759826,
                1.0194355060279479
            ]
        },
        {
            "positions": [
                -3.0322716810557173,
                -2.0995581883522987,
                2.5288997502253356,
                -2.0019997782344774,
                1.2039162018655154,
                0.8816171962856707
            ]
        },
        {
            "positions": [
                -3.10569733961512,
                -2.1466906976804783,
                2.556602003037549,
                -2.063252256375493,
                1.2363834769712048,
                0.7437988865433938
            ]
        },
        {
            "positions": [
                -3.1791229981745226,
                -2.1938232070086583,
                2.584304255849762,
                -2.1245047345165085,
                1.2688507520768941,
                0.6059805768011164
            ]
        },
        {
            "positions": [
                -3.1375828620793333,
                -2.1333210557619657,
                2.550694138277815,
                -2.049194694524882,
                1.2341369303165628,
                0.7547327361311998
            ]
        },
        {
            "positions": [
                -3.0960427259841437,
                -2.0728189045152727,
                2.517084020705868,
                -1.9738846545332556,
                1.1994231085562312,
                0.9034848954612833
            ]
        },
        {
            "positions": [
                -3.0545025898889544,
                -2.01231675326858,
                2.4834739031339206,
                -1.8985746145416291,
                1.1647092867959,
                1.0522370547913669
            ]
        },
        {
            "positions": [
                -3.012962453793765,
                -1.9518146020218874,
                2.4498637855619734,
                -1.8232645745500027,
                1.1299954650355686,
                1.2009892141214502
            ]
        },
        {
            "positions": [
                -2.9714223176985755,
                -1.8913124507751946,
                2.4162536679900266,
                -1.7479545345583762,
                1.095281643275237,
                1.3497413734515338
            ]
        },
        {
            "positions": [
                -2.929882181603386,
                -1.8308102995285018,
                2.3826435504180794,
                -1.6726444945667498,
                1.0605678215149057,
                1.4984935327816173
            ]
        },
        {
            "positions": [
                -2.888342045508197,
                -1.770308148281809,
                2.349033432846132,
                -1.5973344545751234,
                1.0258539997545744,
                1.6472456921117007
            ]
        },
        {
            "positions": [
                -2.8468019094130073,
                -1.7098059970351165,
                2.315423315274185,
                -1.522024414583497,
                0.991140177994243,
                1.7959978514417843
            ]
        },
        {
            "positions": [
                -2.805261773317818,
                -1.6493038457884235,
                2.281813197702238,
                -1.4467143745918705,
                0.9564263562339115,
                1.9447500107718676
            ]
        },
        {
            "positions": [
                -2.7637216372226288,
                -1.588801694541731,
                2.2482030801302906,
                -1.371404334600244,
                0.9217125344735801,
                2.093502170101951
            ]
        },
        {
            "positions": [
                -2.722181501127439,
                -1.5282995432950381,
                2.2145929625583434,
                -1.2960942946086174,
                0.8869987127132488,
                2.2422543294320345
            ]
        },
        {
            "positions": [
                -2.68064136503225,
                -1.4677973920483454,
                2.180982844986396,
                -1.220784254616991,
                0.8522848909529173,
                2.3910064887621183
            ]
        },
        {
            "positions": [
                -2.6391012289370606,
                -1.4072952408016528,
                2.1473727274144494,
                -1.1454742146253647,
                0.8175710691925859,
                2.539758648092201
            ]
        },
        {
            "positions": [
                -2.597561092841871,
                -1.3467930895549598,
                2.113762609842502,
                -1.070164174633738,
                0.7828572474322546,
                2.688510807422285
            ]
        },
        {
            "positions": [
                -2.5560209567466816,
                -1.2862909383082672,
                2.080152492270555,
                -0.9948541346421116,
                0.7481434256719232,
                2.8372629667523683
            ]
        },
        {
            "positions": [
                -2.514480820651492,
                -1.2257887870615745,
                2.046542374698608,
                -0.9195440946504851,
                0.7134296039115918,
                2.986015126082452
            ]
        },
        {
            "positions": [
                -2.4729406845563027,
                -1.1652866358148817,
                2.0129322571266606,
                -0.8442340546588587,
                0.6787157821512604,
                3.1347672854125355
            ]
        }
    ]
}