{
    "goal": {
        "global_pose": {
            "orientation": {
                "w": 0.7047431493862688,
                "x": -0.7094548369677653,
                "y": 0.0024358444001904,
                "z": -0.0022348060817251984
            },
            "position": {
                "x": -0.39052492380142206,
                "y": 0.3671506643295288,
                "z": 0.19426114857196808
            }
        },
        "name": "move_to_magneteinheit_D"
    },
    "id": "LBKPIECE_move_to_magneteinheit_D_116",
    "joint_names": [
        "shoulder_pan_joint",
        "shoulder_lift_joint",
        "elbow_joint",
        "wrist_1_joint",
        "wrist_2_joint",
        "wrist_3_joint"
    ],
    "metrics": {
        "cart_traj_len": 6.904337599965779,
        "distance_elbow_joint": 4.839873935040061,
        "distance_shoulder_lift_joint": 2.313984796492461,
        "distance_shoulder_pan_joint": 9.077879646782142,
        "distance_wrist_1_joint": 3.544705326798746,
        "distance_wrist_2_joint": 0.8310867283770432,
        "distance_wrist_3_joint": 6.281593100342123,
        "smoothness": 0.2826144084201727,
        "time": 4.677430309,
        "traj_len": 5.185472353974375,
        "weighted_distance": 6.620279585462582
    },
    "planner": "LBKPIECE",
    "start": {
        "state": {
            "elbow_joint": 0.7495348899011973,
            "shoulder_lift_joint": -0.6476975780737697,
            "shoulder_pan_joint": -2.711696901376276,
            "wrist_1_joint": -0.07506478080974305,
            "wrist_2_joint": 0.4329665971545858,
            "wrist_3_joint": 3.1361499051832524
        }
    },
    "waypoints": [
        {
            "positions": [
                -2.711696901376276,
                -0.6476975780737697,
                0.7495348899011973,
                -0.07506478080974305,
                0.4329665971545858,
                3.1361499051832524
            ]
        },
        {
            "positions": [
                -2.7163709176327426,
                -0.6462480647431512,
                0.7491250003589415,
                -0.10682827429330333,
                0.4772635018110323,
                3.1108078025899135
            ]
        },
        {
            "positions": [
                -2.7185134800889337,
                -0.6783832841177416,
                0.7951481884064766,
                -0.09646890486166723,
                0.4930709380041554,
                2.8996504155478418
            ]
        },
        {
            "positions": [
                -2.720656042545125,
                -0.710518503492332,
                0.8411713764540119,
                -0.08610953543003115,
                0.5088783741972785,
                2.6884930285057695
            ]
        },
        {
            "positions": [
                -2.7227986050013167,
                -0.7426537228669225,
                0.8871945645015471,
                -0.07575016599839507,
                0.5246858103904017,
                2.4773356414636973
            ]
        },
        {
            "positions": [
                -2.7249411674575077,
                -0.774788942241513,
                0.9332177525490822,
                -0.06539079656675897,
                0.5404932465835248,
                2.2661782544216256
            ]
        },
        {
            "positions": [
                -2.717092355032468,
                -0.813725978281615,
                0.9876586410401852,
                -0.012823814466149788,
                0.513136597490033,
                2.0640877155828057
            ]
        },
        {
            "positions": [
                -2.7092435426074286,
                -0.8526630143217171,
                1.042099529531288,
                0.0397431676344594,
                0.48577994839654126,
                1.8619971767439856
            ]
        },
        {
            "positions": [
                -2.701394730182389,
                -0.8916000503618191,
                1.096540418022391,
                0.09231014973506857,
                0.4584232993030495,
                1.6599066379051655
            ]
        },
        {
            "positions": [
                -2.693545917757349,
                -0.9305370864019212,
                1.150981306513494,
                0.14487713183567777,
                0.43106665020955764,
                1.4578160990663456
            ]
        },
        {
            "positions": [
                -2.6856971053323093,
                -0.9694741224420232,
                1.205422195004597,
                0.19744411393628694,
                0.40371000111606586,
                1.2557255602275255
            ]
        },
        {
            "positions": [
                -2.67784829290727,
                -1.0084111584821254,
                1.2598630834956999,
                0.2500110960368961,
                0.3763533520225741,
                1.0536350213887056
            ]
        },
        {
            "positions": [
                -2.6699994804822302,
                -1.0473481945222274,
                1.3143039719868028,
                0.30257807813750526,
                0.3489967029290823,
                0.8515444825498855
            ]
        },
        {
            "positions": [
                -2.6621506680571905,
                -1.0862852305623294,
                1.3687448604779058,
                0.35514506023811454,
                0.32164005383559047,
                0.6494539437110654
            ]
        },
        {
            "positions": [
                -2.6543018556321507,
                -1.1252222666024316,
                1.4231857489690087,
                0.4077120423387237,
                0.2942834047420987,
                0.44736340487224546
            ]
        },
        {
            "positions": [
                -2.6464530432071114,
                -1.1641593026425336,
                1.4776266374601117,
                0.4602790244393329,
                0.2669267556486069,
                0.24527286603342535
            ]
        },
        {
            "positions": [
                -2.6386042307820716,
                -1.2030963386826357,
                1.5320675259512146,
                0.5128460065399421,
                0.23957010655511515,
                0.043182327194605435
            ]
        },
        {
            "positions": [
                -2.6112043928133715,
                -1.2378890778204683,
                1.5585082982990075,
                0.5482608924229835,
                0.20818025924032868,
                -0.13350437160549103
            ]
        },
        {
            "positions": [
                -2.5838045548446713,
                -1.2726818169583012,
                1.5849490706468006,
                0.5836757783060249,
                0.1767904119255422,
                -0.31019107040558747
            ]
        },
        {
            "positions": [
                -2.556404716875971,
                -1.3074745560961338,
                1.6113898429945934,
                0.6190906641890663,
                0.14540056461075573,
                -0.48687776920568393
            ]
        },
        {
            "positions": [
                -2.311472394269188,
                -1.3528275939679444,
                1.5814461589857287,
                0.5961150280531979,
                0.1407372173818619,
                -0.5235259088648667
            ]
        },
        {
            "positions": [
                -2.0665400716624056,
                -1.398180631839755,
                1.5515024749768642,
                0.5731393919173295,
                0.1360738701529681,
                -0.5601740485240494
            ]
        },
        {
            "positions": [
                -1.8216077490556226,
                -1.4435336697115653,
                1.5215587909679995,
                0.550163755781461,
                0.13141052292407426,
                -0.5968221881832322
            ]
        },
        {
            "positions": [
                -1.5766754264488396,
                -1.4888867075833758,
                1.4916151069591348,
                0.5271881196455926,
                0.12674717569518046,
                -0.6334703278424149
            ]
        },
        {
            "positions": [
                -1.3317431038420569,
                -1.5342397454551864,
                1.4616714229502703,
                0.5042124835097243,
                0.12208382846628663,
                -0.6701184675015976
            ]
        },
        {
            "positions": [
                -1.086810781235274,
                -1.579592783326997,
                1.4317277389414056,
                0.4812368473738558,
                0.11742048123739281,
                -0.7067666071607803
            ]
        },
        {
            "positions": [
                -0.8418784586284911,
                -1.6249458211988075,
                1.4017840549325409,
                0.45826121123798735,
                0.11275713400849899,
                -0.7434147468199631
            ]
        },
        {
            "positions": [
                -0.5969461360217083,
                -1.6702988590706178,
                1.3718403709236764,
                0.43528557510211896,
                0.10809378677960517,
                -0.7800628864791459
            ]
        },
        {
            "positions": [
                -0.35201381341492555,
                -1.7156518969424284,
                1.3418966869148117,
                0.4123099389662505,
                0.10343043955071135,
                -0.8167110261383286
            ]
        },
        {
            "positions": [
                -0.10708149080814255,
                -1.761004934814239,
                1.311953002905947,
                0.3893343028303821,
                0.09876709232181753,
                -0.8533591657975113
            ]
        },
        {
            "positions": [
                0.13785083179864044,
                -1.8063579726860495,
                1.2820093188970825,
                0.36635866669451367,
                0.09410374509292371,
                -0.8900073054566942
            ]
        },
        {
            "positions": [
                0.382783154405423,
                -1.8517110105578598,
                1.2520656348882178,
                0.3433830305586453,
                0.08944039786402988,
                -0.9266554451158768
            ]
        },
        {
            "positions": [
                0.6277154770122055,
                -1.8970640484296704,
                1.2221219508793533,
                0.3204073944227769,
                0.08477705063513608,
                -0.9633035847750595
            ]
        },
        {
            "positions": [
                0.872647799618989,
                -1.942417086301481,
                1.1921782668704886,
                0.2974317582869084,
                0.08011370340624224,
                -0.9999517244342423
            ]
        },
        {
            "positions": [
                1.117580122225772,
                -1.9877701241732915,
                1.1622345828616238,
                0.27445612215104,
                0.07545035617734842,
                -1.036599864093425
            ]
        },
        {
            "positions": [
                1.3625124448325545,
                -2.033123162045102,
                1.1322908988527594,
                0.2514804860151716,
                0.0707870089484546,
                -1.0732480037526078
            ]
        },
        {
            "positions": [
                1.6074447674393375,
                -2.0784761999169126,
                1.1023472148438946,
                0.2285048498793032,
                0.06612366171956079,
                -1.1098961434117904
            ]
        },
        {
            "positions": [
                1.85237709004612,
                -2.1238292377887227,
                1.07240353083503,
                0.2055292137434347,
                0.061460314490666954,
                -1.1465442830709733
            ]
        },
        {
            "positions": [
                2.0973094126529035,
                -2.1691822756605337,
                1.0424598468261652,
                0.1825535776075663,
                0.056796967261773135,
                -1.183192422730156
            ]
        },
        {
            "positions": [
                2.342241735259686,
                -2.214535313532344,
                1.0125161628173007,
                0.1595779414716979,
                0.05213362003287933,
                -1.2198405623893387
            ]
        },
        {
            "positions": [
                2.5871740578664686,
                -2.2598883514041543,
                0.9825724788084361,
                0.1366023053358295,
                0.04747027280398551,
                -1.2564887020485214
            ]
        },
        {
            "positions": [
                2.832106380473252,
                -2.305241389275965,
                0.9526287947995714,
                0.113626669199961,
                0.04280692557509168,
                -1.2931368417077043
            ]
        },
        {
            "positions": [
                3.077038703080034,
                -2.3505944271477754,
                0.9226851107907068,
                0.09065103306409261,
                0.03814357834619786,
                -1.329784981366887
            ]
        },
        {
            "positions": [
                2.964533340660608,
                -2.329622395397527,
                0.8092887497335253,
                0.012768851556925628,
                0.030515633149274482,
                -1.3923938852907485
            ]
        },
        {
            "positions": [
                2.852027978241182,
                -2.3086503636472777,
                0.6958923886763436,
                -0.06511332995024136,
                0.022887687952351108,
                -1.4550027892146102
            ]
        },
        {
            "positions": [
                2.739522615821756,
                -2.287678331897029,
                0.5824960276191621,
                -0.14299551145740833,
                0.01525974275542773,
                -1.5176116931384718
            ]
        },
        {
            "positions": [
                2.6270172534023297,
                -2.26670630014678,
                0.4690996665619805,
                -0.22087769296457532,
                0.0076317975585043565,
                -1.5802205970623335
            ]
        },
        {
            "positions": [
                2.5145118909829036,
                -2.2457342683965313,
                0.3557033055047989,
                -0.29875987447174235,
                3.852361580979069e-06,
                -1.642829500986195
            ]
        },
        {
            "positions": [
                2.4020065285634775,
                -2.2247622366462823,
                0.24230694444761736,
                -0.37664205597890926,
                -0.007624092835342398,
                -1.7054384049100568
            ]
        },
        {
            "positions": [
                2.2895011661440514,
                -2.2037902048960336,
                0.1289105833904357,
                -0.4545242374860763,
                -0.015252038032265776,
                -1.7680473088339186
            ]
        },
        {
            "positions": [
                2.1769958037246253,
                -2.1828181731457845,
                0.015514222333254168,
                -0.5324064189932433,
                -0.022879983229189146,
                -1.8306562127577801
            ]
        },
        {
            "positions": [
                2.064490441305199,
                -2.161846141395536,
                -0.09788213872392748,
                -0.6102886005004102,
                -0.030507928426112524,
                -1.8932651166816417
            ]
        },
        {
            "positions": [
                1.951985078885773,
                -2.140874109645287,
                -0.21127849978110902,
                -0.6881707820075773,
                -0.0381358736230359,
                -1.9558740206055034
            ]
        },
        {
            "positions": [
                1.839479716466347,
                -2.119902077895038,
                -0.32467486083829056,
                -0.7660529635147442,
                -0.04576381881995928,
                -2.0184829245293647
            ]
        },
        {
            "positions": [
                1.726974354046921,
                -2.098930046144789,
                -0.4380712218954721,
                -0.8439351450219111,
                -0.053391764016882656,
                -2.0810918284532267
            ]
        },
        {
            "positions": [
                1.6144689916274948,
                -2.0779580143945404,
                -0.5514675829526536,
                -0.9218173265290781,
                -0.061019709213806034,
                -2.1437007323770882
            ]
        },
        {
            "positions": [
                1.5019636292080687,
                -2.0569859826442913,
                -0.6648639440098354,
                -0.9996995080362452,
                -0.06864765441072941,
                -2.20630963630095
            ]
        },
        {
            "positions": [
                1.3894582667886424,
                -2.0360139508940427,
                -0.7782603050670169,
                -1.0775816895434123,
                -0.07627559960765279,
                -2.2689185402248118
            ]
        },
        {
            "positions": [
                1.2769529043692165,
                -2.0150419191437936,
                -0.8916566661241985,
                -1.1554638710505791,
                -0.08390354480457615,
                -2.3315274441486733
            ]
        },
        {
            "positions": [
                1.1644475419497906,
                -1.994069887393545,
                -1.0050530271813798,
                -1.233346052557746,
                -0.09153149000149952,
                -2.394136348072535
            ]
        },
        {
            "positions": [
                1.0519421795303643,
                -1.9730978556432959,
                -1.1184493882385618,
                -1.311228234064913,
                -0.09915943519842291,
                -2.456745251996397
            ]
        },
        {
            "positions": [
                0.9394368171109382,
                -1.9521258238930472,
                -1.231845749295743,
                -1.38911041557208,
                -0.10678738039534627,
                -2.519354155920258
            ]
        },
        {
            "positions": [
                0.8269314546915121,
                -1.9311537921427981,
                -1.3452421103529248,
                -1.4669925970792472,
                -0.11441532559226966,
                -2.58196305984412
            ]
        },
        {
            "positions": [
                0.714426092272086,
                -1.9101817603925495,
                -1.4586384714101062,
                -1.544874778586414,
                -0.12204327078919303,
                -2.6445719637679814
            ]
        },
        {
            "positions": [
                0.6019207298526599,
                -1.8892097286423006,
                -1.572034832467288,
                -1.622756960093581,
                -0.12967121598611642,
                -2.707180867691843
            ]
        },
        {
            "positions": [
                0.48941536743323377,
                -1.8682376968920518,
                -1.6854311935244697,
                -1.700639141600748,
                -0.1372991611830398,
                -2.769789771615705
            ]
        },
        {
            "positions": [
                0.37691000501380767,
                -1.847265665141803,
                -1.798827554581651,
                -1.7785213231079149,
                -0.14492710637996317,
                -2.832398675539566
            ]
        },
        {
            "positions": [
                0.26440464259438157,
                -1.826293633391554,
                -1.9122239156388323,
                -1.8564035046150817,
                -0.15255505157688654,
                -2.895007579463428
            ]
        },
        {
            "positions": [
                0.15189928017495546,
                -1.8053216016413052,
                -2.025620276696014,
                -1.9342856861222488,
                -0.16018299677380993,
                -2.95761648338729
            ]
        },
        {
            "positions": [
                0.03939391775552936,
                -1.7843495698910563,
                -2.139016637753196,
                -2.0121678676294157,
                -0.1678109419707333,
                -3.020225387311151
            ]
        },
        {
            "positions": [
                -0.07311144466389674,
                -1.7633775381408074,
                -2.2524129988103776,
                -2.090050049136583,
                -0.17543888716765668,
                -3.082834291235013
            ]
        },
        {
            "positions": [
                -0.185616807083323,
                -1.7424055063905586,
                -2.365809359867559,
                -2.16793223064375,
                -0.18306683236458005,
                -3.1454431951588746
            ]
        }
    ]
}