{
    "goal": {
        "global_pose": {
            "orientation": {
                "w": -0.00223480608172531,
                "x": 0.0024358444001904467,
                "y": 0.7094548369677653,
                "z": -0.704743149386269
            },
            "position": {
                "x": 0.6205249238014221,
                "y": -0.6371506643295288,
                "z": 0.19426114857196808
            }
        },
        "name": "move_to_magneteinheit_B"
    },
    "id": "LBKPIECE_move_to_magneteinheit_B_17",
    "joint_names": [
        "shoulder_pan_joint",
        "shoulder_lift_joint",
        "elbow_joint",
        "wrist_1_joint",
        "wrist_2_joint",
        "wrist_3_joint"
    ],
    "metrics": {
        "cart_traj_len": 1.452653454926597,
        "distance_elbow_joint": 0.7300158850276164,
        "distance_shoulder_lift_joint": 1.247445325588476,
        "distance_shoulder_pan_joint": 1.621384152701968,
        "distance_wrist_1_joint": 2.6060765583893954,
        "distance_wrist_2_joint": 2.9398222446837488,
        "distance_wrist_3_joint": 3.131181718853131,
        "smoothness": 1.387778783941556e-16,
        "time": 4.131169259,
        "traj_len": 3.5037017403375446,
        "weighted_distance": 4.907564378184329
    },
    "planner": "LBKPIECE",
    "start": {
        "state": {
            "elbow_joint": 2.3935871308073637,
            "shoulder_lift_joint": -1.9085141043777403,
            "shoulder_pan_joint": 0.7066247067284167,
            "wrist_1_joint": -0.46782909355067076,
            "wrist_2_joint": 0.7096259085804283,
            "wrist_3_joint": -3.1358149275257428
        }
    },
    "waypoints": [
        {
            "positions": [
                0.7066247067284167,
                -1.9085141043777403,
                2.3935871308073637,
                -0.46782909355067076,
                0.7096259085804283,
                -3.1358149275257428
            ]
        },
        {
            "positions": [
                0.6543219921251274,
                -1.8682739325845636,
                2.370038231290344,
                -0.38376210779617415,
                0.6147929329454687,
                -3.034809065627255
            ]
        },
        {
            "positions": [
                0.6020192775218381,
                -1.828033760791387,
                2.346489331773324,
                -0.2996951220416775,
                0.519959957310509,
                -2.9338032037287665
            ]
        },
        {
            "positions": [
                0.5497165629185489,
                -1.7877935889982104,
                2.322940432256304,
                -0.21562813628718086,
                0.4251269816755494,
                -2.8327973418302785
            ]
        },
        {
            "positions": [
                0.4974138483152596,
                -1.7475534172050338,
                2.299391532739284,
                -0.13156115053268425,
                0.3302940060405897,
                -2.7317914799317906
            ]
        },
        {
            "positions": [
                0.44511113371197025,
                -1.7073132454118571,
                2.2758426332222643,
                -0.04749416477818763,
                0.2354610304056301,
                -2.6307856180333022
            ]
        },
        {
            "positions": [
                0.392808419108681,
                -1.6670730736186803,
                2.2522937337052444,
                0.03657282097630904,
                0.14062805477067053,
                -2.5297797561348143
            ]
        },
        {
            "positions": [
                0.3405057045053917,
                -1.6268329018255037,
                2.2287448341882246,
                0.1206398067308056,
                0.04579507913571079,
                -2.428773894236326
            ]
        },
        {
            "positions": [
                0.2882029899021024,
                -1.586592730032327,
                2.2051959346712047,
                0.20470679248530227,
                -0.049037896499248834,
                -2.327768032337838
            ]
        },
        {
            "positions": [
                0.23590027529881308,
                -1.5463525582391504,
                2.181647035154185,
                0.28877377823979894,
                -0.14387087213420846,
                -2.2267621704393497
            ]
        },
        {
            "positions": [
                0.1835975606955238,
                -1.5061123864459738,
                2.158098135637165,
                0.3728407639942955,
                -0.2387038477691681,
                -2.1257563085408617
            ]
        },
        {
            "positions": [
                0.13129484609223452,
                -1.4658722146527972,
                2.134549236120145,
                0.45690774974879217,
                -0.3335368234041277,
                -2.024750446642374
            ]
        },
        {
            "positions": [
                0.07899213148894524,
                -1.4256320428596205,
                2.111000336603125,
                0.5409747355032888,
                -0.42836979903908723,
                -1.9237445847438857
            ]
        },
        {
            "positions": [
                0.02668941688565596,
                -1.3853918710664437,
                2.0874514370861053,
                0.6250417212577855,
                -0.523202774674047,
                -1.8227387228453975
            ]
        },
        {
            "positions": [
                -0.02561329771763332,
                -1.3451516992732673,
                2.0639025375690854,
                0.7091087070122819,
                -0.6180357503090067,
                -1.7217328609469094
            ]
        },
        {
            "positions": [
                -0.0779160123209226,
                -1.3049115274800904,
                2.0403536380520655,
                0.7931756927667786,
                -0.7128687259439662,
                -1.6207269990484212
            ]
        },
        {
            "positions": [
                -0.13021872692421188,
                -1.264671355686914,
                2.0168047385350456,
                0.8772426785212752,
                -0.807701701578926,
                -1.5197211371499333
            ]
        },
        {
            "positions": [
                -0.18252144152750105,
                -1.2244311838937372,
                1.9932558390180257,
                0.9613096642757717,
                -0.9025346772138855,
                -1.4187152752514451
            ]
        },
        {
            "positions": [
                -0.23482415613079055,
                -1.1841910121005605,
                1.9697069395010058,
                1.0453766500302686,
                -0.9973676528488452,
                -1.317709413352957
            ]
        },
        {
            "positions": [
                -0.2871268707340797,
                -1.143950840307384,
                1.946158039983986,
                1.129443635784765,
                -1.092200628483805,
                -1.2167035514544688
            ]
        },
        {
            "positions": [
                -0.3394295853373691,
                -1.1037106685142073,
                1.922609140466966,
                1.2135106215392617,
                -1.1870336041187644,
                -1.1156976895559807
            ]
        },
        {
            "positions": [
                -0.39173229994065817,
                -1.0634704967210307,
                1.8990602409499462,
                1.2975776072937582,
                -1.281866579753724,
                -1.0146918276574928
            ]
        },
        {
            "positions": [
                -0.44403501454394767,
                -1.0232303249278538,
                1.8755113414329263,
                1.381644593048255,
                -1.3766995553886838,
                -0.9136859657590044
            ]
        },
        {
            "positions": [
                -0.49633772914723695,
                -0.9829901531346773,
                1.8519624419159064,
                1.4657115788027517,
                -1.4715325310236436,
                -0.8126801038605165
            ]
        },
        {
            "positions": [
                -0.5486404437505262,
                -0.9427499813415008,
                1.8284135423988865,
                1.5497785645572484,
                -1.5663655066586029,
                -0.7116742419620286
            ]
        },
        {
            "positions": [
                -0.6009431583538153,
                -0.9025098095483242,
                1.8048646428818667,
                1.6338455503117446,
                -1.6611984822935626,
                -0.6106683800635406
            ]
        },
        {
            "positions": [
                -0.6532458729571048,
                -0.8622696377551473,
                1.7813157433648468,
                1.7179125360662417,
                -1.7560314579285223,
                -0.5096625181650523
            ]
        },
        {
            "positions": [
                -0.7055485875603941,
                -0.8220294659619707,
                1.7577668438478269,
                1.801979521820738,
                -1.850864433563482,
                -0.40865665626656433
            ]
        },
        {
            "positions": [
                -0.7578513021636833,
                -0.7817892941687941,
                1.734217944330807,
                1.8860465075752346,
                -1.9456974091984418,
                -0.30765079436807596
            ]
        },
        {
            "positions": [
                -0.8101540167669726,
                -0.7415491223756174,
                1.7106690448137871,
                1.9701134933297313,
                -2.040530384833401,
                -0.20664493246958804
            ]
        },
        {
            "positions": [
                -0.8624567313702619,
                -0.7013089505824408,
                1.6871201452967672,
                2.054180479084228,
                -2.135363360468361,
                -0.10563907057109967
            ]
        },
        {
            "positions": [
                -0.9147594459735511,
                -0.6610687787892643,
                1.6635712457797474,
                2.1382474648387246,
                -2.2301963361033206,
                -0.004633208672611542
            ]
        }
    ]
}