{
    "goal": {
        "global_pose": {
            "orientation": {
                "w": 0.7047431468963623,
                "x": -0.7094548344612122,
                "y": 0.0024358443915843964,
                "z": -0.0022348060738295317
            },
            "position": {
                "x": 0.6094750761985779,
                "y": 0.3671506643295288,
                "z": 0.19426114857196808
            }
        },
        "name": "move_to_magneteinheit_A"
    },
    "id": "LBKPIECE_move_to_magneteinheit_A_148",
    "joint_names": [
        "shoulder_pan_joint",
        "shoulder_lift_joint",
        "elbow_joint",
        "wrist_1_joint",
        "wrist_2_joint",
        "wrist_3_joint"
    ],
    "metrics": {
        "cart_traj_len": 1.0530584507408756,
        "distance_elbow_joint": 0.38043209517455145,
        "distance_shoulder_lift_joint": 0.36732410816846617,
        "distance_shoulder_pan_joint": 1.2407420522558088,
        "distance_wrist_1_joint": 2.201561527610795,
        "distance_wrist_2_joint": 1.6968787020102445,
        "distance_wrist_3_joint": 1.2263293407237312,
        "smoothness": 9.349246597189412e-17,
        "time": 1.8945189709999999,
        "traj_len": 2.667071020041198,
        "weighted_distance": 3.66938233726224
    },
    "planner": "LBKPIECE",
    "start": {
        "state": {
            "elbow_joint": 1.5739458966750683,
            "shoulder_lift_joint": -1.4977259741207325,
            "shoulder_pan_joint": -1.1188672016454206,
            "wrist_1_joint": 1.494575848278785,
            "wrist_2_joint": -1.5706037134824402,
            "wrist_3_joint": -2.0226957942261072
        }
    },
    "waypoints": [
        {
            "positions": [
                -1.1188672016454206,
                -1.4977259741207325,
                1.5739458966750683,
                1.494575848278785,
                -1.5706037134824402,
                -2.0226957942261072
            ]
        },
        {
            "positions": [
                -1.049937087631209,
                -1.4773190792224844,
                1.5950810130736546,
                1.3722668745226296,
                -1.476332674481871,
                -2.0908252020440923
            ]
        },
        {
            "positions": [
                -0.9810069736169975,
                -1.4569121843242363,
                1.6162161294722408,
                1.2499579007664745,
                -1.382061635481302,
                -2.1589546098620773
            ]
        },
        {
            "positions": [
                -0.9120768596027858,
                -1.4365052894259882,
                1.637351245870827,
                1.1276489270103192,
                -1.2877905964807328,
                -2.2270840176800624
            ]
        },
        {
            "positions": [
                -0.8431467455885743,
                -1.4160983945277401,
                1.658486362269413,
                1.0053399532541638,
                -1.1935195574801636,
                -2.2952134254980474
            ]
        },
        {
            "positions": [
                -0.7742166315743626,
                -1.3956914996294918,
                1.6796214786679993,
                0.8830309794980086,
                -1.0992485184795946,
                -2.3633428333160325
            ]
        },
        {
            "positions": [
                -0.705286517560151,
                -1.3752846047312437,
                1.7007565950665855,
                0.7607220057418533,
                -1.0049774794790254,
                -2.4314722411340175
            ]
        },
        {
            "positions": [
                -0.6363564035459395,
                -1.3548777098329956,
                1.7218917114651717,
                0.6384130319856981,
                -0.9107064404784563,
                -2.4996016489520025
            ]
        },
        {
            "positions": [
                -0.5674262895317279,
                -1.3344708149347475,
                1.743026827863758,
                0.5161040582295429,
                -0.8164354014778872,
                -2.567731056769988
            ]
        },
        {
            "positions": [
                -0.49849617551751624,
                -1.3140639200364994,
                1.764161944262344,
                0.3937950844733875,
                -0.722164362477318,
                -2.6358604645879726
            ]
        },
        {
            "positions": [
                -0.42956606150330456,
                -1.2936570251382513,
                1.7852970606609302,
                0.27148611071723217,
                -0.6278933234767488,
                -2.703989872405958
            ]
        },
        {
            "positions": [
                -0.360635947489093,
                -1.2732501302400032,
                1.8064321770595164,
                0.14917713696107682,
                -0.5336222844761795,
                -2.772119280223943
            ]
        },
        {
            "positions": [
                -0.29170583347488144,
                -1.2528432353417551,
                1.8275672934581026,
                0.02686816320492169,
                -0.43935124547561055,
                -2.840248688041928
            ]
        },
        {
            "positions": [
                -0.22277571946066987,
                -1.232436340443507,
                1.8487024098566889,
                -0.09544081055123366,
                -0.34508020647504134,
                -2.9083780958599132
            ]
        },
        {
            "positions": [
                -0.1538456054464582,
                -1.2120294455452587,
                1.869837526255275,
                -0.21774978430738878,
                -0.25080916747447235,
                -2.9765075036778983
            ]
        },
        {
            "positions": [
                -0.08491549143224653,
                -1.1916225506470106,
                1.8909726426538613,
                -0.34005875806354413,
                -0.15653812847390314,
                -3.0446369114958833
            ]
        },
        {
            "positions": [
                -0.015985377418035185,
                -1.1712156557487625,
                1.9121077590524473,
                -0.46236773181969926,
                -0.06226708947333415,
                -3.1127663193138684
            ]
        },
        {
            "positions": [
                0.0529447365961766,
                -1.1508087608505144,
                1.9332428754510336,
                -0.5846767055758548,
                0.032003949527235065,
                -3.1808957271318534
            ]
        },
        {
            "positions": [
                0.12187485061038814,
                -1.1304018659522663,
                1.9543779918496198,
                -0.7069856793320098,
                0.12627498852780433,
                -3.2490251349498385
            ]
        }
    ]
}