{
    "goal": {
        "global_pose": {
            "orientation": {
                "w": 0.005598929693374612,
                "x": 0.007748599140229565,
                "y": 0.7110244013736278,
                "z": -0.7031023480610252
            },
            "position": {
                "x": 0.1141497679147869,
                "y": -0.7141253447532654,
                "z": 0.3711530566215515
            }
        },
        "name": "move_to_auspresseinheit_B"
    },
    "id": "LBKPIECE_move_to_auspresseinheit_B_102",
    "joint_names": [
        "shoulder_pan_joint",
        "shoulder_lift_joint",
        "elbow_joint",
        "wrist_1_joint",
        "wrist_2_joint",
        "wrist_3_joint"
    ],
    "metrics": {
        "cart_traj_len": 0.5644541837148743,
        "distance_elbow_joint": 0.0634641278901531,
        "distance_shoulder_lift_joint": 0.2940386038830278,
        "distance_shoulder_pan_joint": 0.5788300467196388,
        "distance_wrist_1_joint": 0.33326308399475746,
        "distance_wrist_2_joint": 0.9850347393325158,
        "distance_wrist_3_joint": 0.0046084445071596924,
        "smoothness": 5.075305255429287e-16,
        "time": 0.70584494,
        "traj_len": 1.5030765271027462,
        "weighted_distance": 1.8938726880835588
    },
    "planner": "LBKPIECE",
    "start": {
        "state": {
            "elbow_joint": 2.019306165916698,
            "shoulder_lift_joint": -1.1220205098164344,
            "shoulder_pan_joint": -1.095207207618794,
            "wrist_1_joint": -0.8559671824921639,
            "wrist_2_joint": 0.47596387242952726,
            "wrist_3_joint": 3.159081874673826
        }
    },
    "waypoints": [
        {
            "positions": [
                -1.095207207618794,
                -1.1220205098164344,
                2.019306165916698,
                -0.8559671824921639,
                0.47596387242952726,
                3.159081874673826
            ]
        },
        {
            "positions": [
                -1.1916788820720672,
                -1.1710269437969392,
                2.0087288112683392,
                -0.8004233351597043,
                0.6401363289849465,
                3.1583138005892994
            ]
        },
        {
            "positions": [
                -1.2881505565253402,
                -1.2200333777774437,
                1.9981514566199803,
                -0.7448794878272447,
                0.8043087855403659,
                3.1575457265047726
            ]
        },
        {
            "positions": [
                -1.3846222309786134,
                -1.2690398117579482,
                1.9875741019716213,
                -0.6893356404947851,
                0.9684812420957851,
                3.1567776524202458
            ]
        },
        {
            "positions": [
                -1.4810939054318863,
                -1.318046245738453,
                1.9769967473232626,
                -0.6337917931623256,
                1.1326536986512044,
                3.1560095783357194
            ]
        },
        {
            "positions": [
                -1.5775655798851598,
                -1.3670526797189577,
                1.9664193926749038,
                -0.5782479458298659,
                1.2968261552066238,
                3.155241504251193
            ]
        },
        {
            "positions": [
                -1.6740372543384328,
                -1.4160591136994622,
                1.9558420380265449,
                -0.5227040984974064,
                1.460998611762043,
                3.154473430166666
            ]
        }
    ]
}