{
    "goal": {
        "global_pose": {
            "orientation": {
                "w": 0.7031023480610252,
                "x": -0.7110244013736278,
                "y": 0.0077485991402295624,
                "z": 0.005598929693374583
            },
            "position": {
                "x": -0.8841497679147869,
                "y": 0.44412534475326537,
                "z": 0.3711530566215515
            }
        },
        "name": "move_to_auspresseinheit_D"
    },
    "id": "LBKPIECE_move_to_auspresseinheit_D_86",
    "joint_names": [
        "shoulder_pan_joint",
        "shoulder_lift_joint",
        "elbow_joint",
        "wrist_1_joint",
        "wrist_2_joint",
        "wrist_3_joint"
    ],
    "metrics": {
        "cart_traj_len": 2.568926808869084,
        "distance_elbow_joint": 2.382324225865738,
        "distance_shoulder_lift_joint": 0.8779385978059739,
        "distance_shoulder_pan_joint": 1.1180660963090023,
        "distance_wrist_1_joint": 3.3182073176899127,
        "distance_wrist_2_joint": 3.6673177008779976,
        "distance_wrist_3_joint": 9.230670206671613,
        "smoothness": 0.33377917726229794,
        "time": 2.089591615,
        "traj_len": 4.5381190095919965,
        "weighted_distance": 6.785380577177036
    },
    "planner": "LBKPIECE",
    "start": {
        "state": {
            "elbow_joint": 1.8268400409724999,
            "shoulder_lift_joint": -1.0144045787793008,
            "shoulder_pan_joint": 2.6280239544362485,
            "wrist_1_joint": -0.790705565816056,
            "wrist_2_joint": 1.0573557467365533,
            "wrist_3_joint": 3.1851377467193758
        }
    },
    "waypoints": [
        {
            "positions": [
                2.6280239544362485,
                -1.0144045787793008,
                1.8268400409724999,
                -0.790705565816056,
                1.0573557467365533,
                3.1851377467193758
            ]
        },
        {
            "positions": [
                2.6478477042530164,
                -1.0255924474624698,
                1.7716088528519967,
                -0.7722293586432677,
                1.0178768613264313,
                2.947134392327523
            ]
        },
        {
            "positions": [
                2.667671454069784,
                -1.0367803161456388,
                1.7163776647314934,
                -0.7537531514704795,
                0.9783979759163092,
                2.7091310379356703
            ]
        },
        {
            "positions": [
                2.6874952038865514,
                -1.0479681848288078,
                1.6611464766109905,
                -0.7352769442976912,
                0.938919090506187,
                2.471127683543817
            ]
        },
        {
            "positions": [
                2.7073189537033193,
                -1.0591560535119768,
                1.6059152884904873,
                -0.7168007371249029,
                0.899440205096065,
                2.2331243291519645
            ]
        },
        {
            "positions": [
                2.7271427035200873,
                -1.0703439221951458,
                1.550684100369984,
                -0.6983245299521146,
                0.859961319685943,
                1.9951209747601117
            ]
        },
        {
            "positions": [
                2.7469664533368547,
                -1.0815317908783149,
                1.4954529122494808,
                -0.6798483227793264,
                0.8204824342758209,
                1.757117620368259
            ]
        },
        {
            "positions": [
                2.7667902031536222,
                -1.0927196595614839,
                1.4402217241289779,
                -0.6613721156065381,
                0.7810035488656989,
                1.5191142659764063
            ]
        },
        {
            "positions": [
                2.78661395297039,
                -1.1039075282446529,
                1.3849905360084747,
                -0.6428959084337498,
                0.7415246634555768,
                1.2811109115845534
            ]
        },
        {
            "positions": [
                2.806437702787158,
                -1.115095396927822,
                1.3297593478879715,
                -0.6244197012609616,
                0.7020457780454548,
                1.0431075571927009
            ]
        },
        {
            "positions": [
                2.8262614526039256,
                -1.126283265610991,
                1.2745281597674682,
                -0.6059434940881733,
                0.6625668926353326,
                0.8051042028008477
            ]
        },
        {
            "positions": [
                2.846085202420693,
                -1.13747113429416,
                1.219296971646965,
                -0.587467286915385,
                0.6230880072252106,
                0.567100848408995
            ]
        },
        {
            "positions": [
                2.865908952237461,
                -1.148659002977329,
                1.1640657835264618,
                -0.5689910797425968,
                0.5836091218150885,
                0.3290974940171423
            ]
        },
        {
            "positions": [
                2.885732702054229,
                -1.159846871660498,
                1.1088345954059589,
                -0.5505148725698085,
                0.5441302364049665,
                0.09109413962528956
            ]
        },
        {
            "positions": [
                2.9055564518709964,
                -1.171034740343667,
                1.0536034072854559,
                -0.5320386653970202,
                0.5046513509948445,
                -0.14690921476656316
            ]
        },
        {
            "positions": [
                2.925380201687764,
                -1.182222609026836,
                0.9983722191649527,
                -0.513562458224232,
                0.46517246558472247,
                -0.3849125691584159
            ]
        },
        {
            "positions": [
                2.945203951504532,
                -1.193410477710005,
                0.9431410310444494,
                -0.49508625105144366,
                0.42569358017460024,
                -0.622915923550269
            ]
        },
        {
            "positions": [
                2.9650277013213,
                -1.204598346393174,
                0.8879098429239463,
                -0.47661004387865535,
                0.38621469476447823,
                -0.8609192779421213
            ]
        },
        {
            "positions": [
                2.9848514511380673,
                -1.215786215076343,
                0.8326786548034432,
                -0.4581338367058671,
                0.3467358093543562,
                -1.098922632333974
            ]
        },
        {
            "positions": [
                3.0046752009548348,
                -1.226974083759512,
                0.7774474666829401,
                -0.43965762953307885,
                0.3072569239442342,
                -1.3369259867258267
            ]
        },
        {
            "positions": [
                3.0244989507716027,
                -1.238161952442681,
                0.7222162785624366,
                -0.42118142236029055,
                0.267778038534112,
                -1.5749293411176803
            ]
        },
        {
            "positions": [
                3.0443227005883706,
                -1.24934982112585,
                0.6669850904419337,
                -0.4027052151875023,
                0.22829915312398996,
                -1.812932695509533
            ]
        },
        {
            "positions": [
                3.064146450405138,
                -1.260537689809019,
                0.6117539023214305,
                -0.38422900801471405,
                0.18882026771386795,
                -2.050936049901386
            ]
        },
        {
            "positions": [
                3.0839702002219056,
                -1.271725558492188,
                0.5565227142009275,
                -0.36575280084192574,
                0.14934138230374594,
                -2.2889394042932385
            ]
        },
        {
            "positions": [
                3.1037939500386735,
                -1.282913427175357,
                0.501291526080424,
                -0.34727659366913743,
                0.1098624968936237,
                -2.526942758685091
            ]
        },
        {
            "positions": [
                3.1236176998554415,
                -1.294101295858526,
                0.44606033795992106,
                -0.3288003864963492,
                0.0703836114835017,
                -2.764946113076944
            ]
        },
        {
            "positions": [
                3.143441449672209,
                -1.305289164541695,
                0.39082914983941786,
                -0.31032417932356093,
                0.030904726073379685,
                -3.002949467468796
            ]
        },
        {
            "positions": [
                3.1205569593635003,
                -1.286679068430483,
                0.4206767140705603,
                -0.20610866759760815,
                -0.06412722400911154,
                -2.8826875335289786
            ]
        },
        {
            "positions": [
                3.0976724690547917,
                -1.2680689723192708,
                0.4505242783017027,
                -0.1018931558716554,
                -0.15915917409160277,
                -2.762425599589161
            ]
        },
        {
            "positions": [
                3.0747879787460834,
                -1.2494588762080587,
                0.48037184253284515,
                0.0023223558542973533,
                -0.25419112417409395,
                -2.6421636656493432
            ]
        },
        {
            "positions": [
                3.051903488437375,
                -1.2308487800968466,
                0.5102194067639876,
                0.10653786758025013,
                -0.3492230742565852,
                -2.5219017317095256
            ]
        },
        {
            "positions": [
                3.029018998128666,
                -1.2122386839856347,
                0.54006697099513,
                0.21075337930620286,
                -0.44425502433907643,
                -2.4016397977697075
            ]
        },
        {
            "positions": [
                3.0061345078199575,
                -1.1936285878744226,
                0.5699145352262724,
                0.31496889103215564,
                -0.5392869744215676,
                -2.2813778638298903
            ]
        },
        {
            "positions": [
                2.983250017511249,
                -1.1750184917632105,
                0.5997620994574149,
                0.4191844027581084,
                -0.6343189245040589,
                -2.161115929890072
            ]
        },
        {
            "positions": [
                2.9603655272025406,
                -1.1564083956519984,
                0.6296096636885573,
                0.5233999144840612,
                -0.7293508745865501,
                -2.0408539959502545
            ]
        },
        {
            "positions": [
                2.937481036893832,
                -1.1377982995407863,
                0.6594572279196996,
                0.6276154262100139,
                -0.8243828246690412,
                -1.920592062010437
            ]
        },
        {
            "positions": [
                2.9145965465851233,
                -1.1191882034295741,
                0.6893047921508422,
                0.7318309379359667,
                -0.9194147747515325,
                -1.8003301280706192
            ]
        },
        {
            "positions": [
                2.8917120562764147,
                -1.100578107318362,
                0.7191523563819845,
                0.8360464496619193,
                -1.0144467248340236,
                -1.6800681941308016
            ]
        },
        {
            "positions": [
                2.868827565967706,
                -1.0819680112071501,
                0.7489999206131269,
                0.9402619613878722,
                -1.1094786749165149,
                -1.559806260190984
            ]
        },
        {
            "positions": [
                2.845943075658998,
                -1.063357915095938,
                0.7788474848442694,
                1.0444774731138249,
                -1.2045106249990063,
                -1.4395443262511662
            ]
        },
        {
            "positions": [
                2.823058585350289,
                -1.044747818984726,
                0.8086950490754118,
                1.1486929848397778,
                -1.2995425750814975,
                -1.3192823923113484
            ]
        },
        {
            "positions": [
                2.8001740950415805,
                -1.0261377228735138,
                0.8385426133065541,
                1.2529084965657304,
                -1.3945745251639885,
                -1.199020458371531
            ]
        },
        {
            "positions": [
                2.777289604732872,
                -1.0075276267623017,
                0.8683901775376967,
                1.3571240082916833,
                -1.48960647524648,
                -1.078758524431713
            ]
        },
        {
            "positions": [
                2.7544051144241632,
                -0.9889175306510896,
                0.8982377417688391,
                1.461339520017636,
                -1.5846384253289711,
                -0.9584965904918952
            ]
        },
        {
            "positions": [
                2.731520624115455,
                -0.9703074345398774,
                0.9280853059999814,
                1.5655550317435887,
                -1.6796703754114621,
                -0.838234656552078
            ]
        },
        {
            "positions": [
                2.7086361338067464,
                -0.9516973384286653,
                0.957932870231124,
                1.6697705434695416,
                -1.7747023254939536,
                -0.7179727226122599
            ]
        },
        {
            "positions": [
                2.6857516434980377,
                -0.9330872423174532,
                0.9877804344622664,
                1.7739860551954942,
                -1.8697342755764448,
                -0.5977107886724422
            ]
        },
        {
            "positions": [
                2.662867153189329,
                -0.9144771462062412,
                1.0176279986934087,
                1.878201566921447,
                -1.964766225658936,
                -0.477448854732625
            ]
        },
        {
            "positions": [
                2.6399826628806204,
                -0.8958670500950292,
                1.0474755629245511,
                1.9824170786473996,
                -2.059798175741427,
                -0.3571869207928069
            ]
        },
        {
            "positions": [
                2.617098172571912,
                -0.8772569539838171,
                1.0773231271556936,
                2.0866325903733527,
                -2.1548301258239184,
                -0.23692498685298924
            ]
        },
        {
            "positions": [
                2.5942136822632036,
                -0.858646857872605,
                1.107170691386836,
                2.1908481020993054,
                -2.2498620759064094,
                -0.11666305291317158
            ]
        },
        {
            "positions": [
                2.571329191954495,
                -0.8400367617613929,
                1.1370182556179784,
                2.295063613825258,
                -2.344894025988901,
                0.0035988810266462112
            ]
        },
        {
            "positions": [
                2.579673720489562,
                -0.7919990585215037,
                1.214098025475054,
                2.3813954437687515,
                -2.4515287761371454,
                -0.0024180055650525473
            ]
        },
        {
            "positions": [
                2.5880182490246284,
                -0.7439613552816144,
                1.2911777953321293,
                2.467727273712245,
                -2.55816352628539,
                -0.008434892156751306
            ]
        },
        {
            "positions": [
                2.601865535309823,
                -0.7182351524981154,
                1.3371424845720743,
                2.527501751873857,
                -2.609961954141444,
                0.015565978647854223
            ]
        }
    ]
}