{
    "goal": {
        "global_pose": {
            "orientation": {
                "w": 0.7031023502349854,
                "x": -0.7110244035720825,
                "y": 0.007748599164187908,
                "z": 0.005598929710686207
            },
            "position": {
                "x": 0.11585023208521307,
                "y": 0.44412534475326537,
                "z": 0.3711530566215515
            }
        },
        "name": "move_to_auspresseinheit_A"
    },
    "id": "LBKPIECE_move_to_auspresseinheit_A_102",
    "joint_names": [
        "shoulder_pan_joint",
        "shoulder_lift_joint",
        "elbow_joint",
        "wrist_1_joint",
        "wrist_2_joint",
        "wrist_3_joint"
    ],
    "metrics": {
        "cart_traj_len": 2.8767586340212046,
        "distance_elbow_joint": 1.702115694202353,
        "distance_shoulder_lift_joint": 0.5651106397581978,
        "distance_shoulder_pan_joint": 4.713296749568426,
        "distance_wrist_1_joint": 4.416068237283994,
        "distance_wrist_2_joint": 2.897192446801297,
        "distance_wrist_3_joint": 6.1995586883382545,
        "smoothness": 0.6077337489851972,
        "time": 3.572177058,
        "traj_len": 4.526957306619152,
        "weighted_distance": 6.340798097772417
    },
    "planner": "LBKPIECE",
    "start": {
        "state": {
            "elbow_joint": 2.4225747245308327,
            "shoulder_lift_joint": -1.373653427065438,
            "shoulder_pan_joint": -0.33786330853087027,
            "wrist_1_joint": -1.0288602302712604,
            "wrist_2_joint": 1.23302299562683,
            "wrist_3_joint": -3.094021725338297
        }
    },
    "waypoints": [
        {
            "positions": [
                -0.33786330853087027,
                -1.373653427065438,
                2.4225747245308327,
                -1.0288602302712604,
                1.23302299562683,
                -3.094021725338297
            ]
        },
        {
            "positions": [
                -0.4084579466629835,
                -1.3730776568195837,
                2.389326681152817,
                -0.9333875228154084,
                1.167102740786055,
                -2.9755265442782393
            ]
        },
        {
            "positions": [
                -0.4790525847950968,
                -1.3725018865737295,
                2.3560786377748015,
                -0.8379148153595563,
                1.10118248594528,
                -2.857031363218181
            ]
        },
        {
            "positions": [
                -0.5496472229272101,
                -1.3719261163278753,
                2.3228305943967857,
                -0.7424421079037042,
                1.035262231104505,
                -2.738536182158123
            ]
        },
        {
            "positions": [
                -0.6202418610593234,
                -1.371350346082021,
                2.2895825510187704,
                -0.6469694004478521,
                0.9693419762637301,
                -2.6200410010980653
            ]
        },
        {
            "positions": [
                -0.6908364991914366,
                -1.370774575836167,
                2.2563345076407546,
                -0.5514966929920001,
                0.9034217214229551,
                -2.5015458200380074
            ]
        },
        {
            "positions": [
                -0.7614311373235501,
                -1.3701988055903127,
                2.2230864642627393,
                -0.456023985536148,
                0.83750146658218,
                -2.383050638977949
            ]
        },
        {
            "positions": [
                -0.8320257754556633,
                -1.3696230353444585,
                2.1898384208847235,
                -0.3605512780802961,
                0.7715812117414051,
                -2.2645554579178913
            ]
        },
        {
            "positions": [
                -0.9026204135877764,
                -1.3690472650986043,
                2.156590377506708,
                -0.26507857062444395,
                0.7056609569006301,
                -2.146060276857833
            ]
        },
        {
            "positions": [
                -0.9732150517198899,
                -1.36847149485275,
                2.1233423341286923,
                -0.16960586316859194,
                0.6397407020598552,
                -2.027565095797775
            ]
        },
        {
            "positions": [
                -1.043809689852003,
                -1.367895724606896,
                2.090094290750677,
                -0.07413315571273982,
                0.5738204472190802,
                -1.9090699147377173
            ]
        },
        {
            "positions": [
                -1.1144043279841163,
                -1.3673199543610417,
                2.056846247372661,
                0.021339551743112306,
                0.5079001923783052,
                -1.7905747336776592
            ]
        },
        {
            "positions": [
                -1.1849989661162297,
                -1.3667441841151875,
                2.023598203994646,
                0.11681225919896443,
                0.4419799375375302,
                -1.672079552617601
            ]
        },
        {
            "positions": [
                -1.2555936042483429,
                -1.366168413869333,
                1.99035016061663,
                0.21228496665481633,
                0.37605968269675527,
                -1.5535843715575433
            ]
        },
        {
            "positions": [
                -1.326188242380456,
                -1.3655926436234789,
                1.9571021172386145,
                0.30775767411066823,
                0.31013942785598037,
                -1.4350891904974854
            ]
        },
        {
            "positions": [
                -1.3967828805125693,
                -1.3650168733776247,
                1.923854073860599,
                0.40323038156652036,
                0.24421917301520546,
                -1.3165940094374273
            ]
        },
        {
            "positions": [
                -1.4673775186446827,
                -1.3644411031317705,
                1.8906060304825831,
                0.4987030890223725,
                0.17829891817443033,
                -1.1980988283773693
            ]
        },
        {
            "positions": [
                -1.537972156776796,
                -1.3638653328859163,
                1.8573579871045678,
                0.5941757964782246,
                0.11237866333365543,
                -1.0796036473173114
            ]
        },
        {
            "positions": [
                -1.6085667949089093,
                -1.363289562640062,
                1.824109943726552,
                0.6896485039340765,
                0.04645840849288052,
                -0.9611084662572535
            ]
        },
        {
            "positions": [
                -1.6791614330410225,
                -1.3627137923942079,
                1.7908619003485367,
                0.7851212113899286,
                -0.019461846347894607,
                -0.8426132851971952
            ]
        },
        {
            "positions": [
                -1.749756071173136,
                -1.3621380221483537,
                1.7576138569705209,
                0.8805939188457808,
                -0.08538210118866951,
                -0.7241181041371374
            ]
        },
        {
            "positions": [
                -1.8203507093052491,
                -1.3615622519024995,
                1.7243658135925055,
                0.9760666263016329,
                -0.15130235602944464,
                -0.6056229230770791
            ]
        },
        {
            "positions": [
                -1.8909453474373623,
                -1.3609864816566453,
                1.6911177702144897,
                1.071539333757485,
                -0.21722261087021955,
                -0.48712774201702125
            ]
        },
        {
            "positions": [
                -1.9615399855694757,
                -1.360410711410791,
                1.6578697268364744,
                1.1670120412133367,
                -0.28314286571099445,
                -0.3686325609569634
            ]
        },
        {
            "positions": [
                -2.032134623701589,
                -1.3598349411649369,
                1.6246216834584586,
                1.2624847486691892,
                -0.3490631205517696,
                -0.2501373798969051
            ]
        },
        {
            "positions": [
                -2.1027292618337023,
                -1.3592591709190827,
                1.591373640080443,
                1.357957456125041,
                -0.4149833753925445,
                -0.13164219883684725
            ]
        },
        {
            "positions": [
                -2.1733238999658155,
                -1.3586834006732285,
                1.5581255967024275,
                1.4534301635808933,
                -0.4809036302333194,
                -0.013147017776789394
            ]
        },
        {
            "positions": [
                -2.066737375590501,
                -1.3790589789460428,
                1.589150284345907,
                1.3818087619723067,
                -0.4370789701984621,
                -0.12865383187963186
            ]
        },
        {
            "positions": [
                -1.9601508512151873,
                -1.3994345572188571,
                1.6201749719893865,
                1.3101873603637202,
                -0.39325431016360474,
                -0.24416064598247436
            ]
        },
        {
            "positions": [
                -1.853564326839873,
                -1.4198101354916717,
                1.6511996596328662,
                1.2385659587551336,
                -0.3494296501287474,
                -0.35966746008531686
            ]
        },
        {
            "positions": [
                -1.7469778024645588,
                -1.440185713764486,
                1.6822243472763456,
                1.166944557146547,
                -0.3056049900938901,
                -0.47517427418815933
            ]
        },
        {
            "positions": [
                -1.6403912780892447,
                -1.4605612920373003,
                1.713249034919825,
                1.0953231555379606,
                -0.2617803300590328,
                -0.5906810882910019
            ]
        },
        {
            "positions": [
                -1.5338047537139305,
                -1.4809368703101147,
                1.7442737225633047,
                1.023701753929374,
                -0.21795567002417543,
                -0.7061879023938443
            ]
        },
        {
            "positions": [
                -1.4272182293386164,
                -1.501312448582929,
                1.7752984102067844,
                0.9520803523207874,
                -0.17413100998931808,
                -0.8216947164966868
            ]
        },
        {
            "positions": [
                -1.320631704963302,
                -1.5216880268557436,
                1.8063230978502638,
                0.8804589507122008,
                -0.13030634995446078,
                -0.9372015305995293
            ]
        },
        {
            "positions": [
                -1.2140451805879882,
                -1.542063605128558,
                1.8373477854937432,
                0.8088375491036143,
                -0.08648168991960342,
                -1.0527083447023717
            ]
        },
        {
            "positions": [
                -1.1074586562126738,
                -1.5624391834013722,
                1.8683724731372229,
                0.7372161474950277,
                -0.04265702988474612,
                -1.1682151588052143
            ]
        },
        {
            "positions": [
                -1.0008721318373597,
                -1.5828147616741866,
                1.8993971607807025,
                0.6655947458864412,
                0.0011676301501112318,
                -1.2837219729080567
            ]
        },
        {
            "positions": [
                -0.8942856074620456,
                -1.603190339947001,
                1.930421848424182,
                0.5939733442778546,
                0.04499229018496853,
                -1.3992287870108993
            ]
        },
        {
            "positions": [
                -0.7876990830867314,
                -1.6235659182198154,
                1.9614465360676616,
                0.5223519426692681,
                0.08881695021982594,
                -1.5147356011137416
            ]
        },
        {
            "positions": [
                -0.6811125587114173,
                -1.6439414964926298,
                1.992471223711141,
                0.45073054106068144,
                0.13264161025468324,
                -1.6302424152165842
            ]
        },
        {
            "positions": [
                -0.5745260343361029,
                -1.664317074765444,
                2.0234959113546207,
                0.3791091394520949,
                0.17646627028954065,
                -1.7457492293194268
            ]
        },
        {
            "positions": [
                -0.4679395099607888,
                -1.6846926530382587,
                2.0545205989981,
                0.30748773784350836,
                0.22029093032439784,
                -1.8612560434222691
            ]
        },
        {
            "positions": [
                -0.3613529855854747,
                -1.705068231311073,
                2.0855452866415796,
                0.23586633623492181,
                0.26411559035925525,
                -1.9767628575251117
            ]
        },
        {
            "positions": [
                -0.25476646121016056,
                -1.7254438095838873,
                2.116569974285059,
                0.16424493462633527,
                0.30794025039411255,
                -2.092269671627954
            ]
        },
        {
            "positions": [
                -0.14817993683484643,
                -1.7458193878567017,
                2.147594661928539,
                0.0926235330177485,
                0.35176491042896996,
                -2.207776485730797
            ]
        },
        {
            "positions": [
                -0.041593412459532075,
                -1.766194966129516,
                2.1786193495720183,
                0.021002131409162184,
                0.39558957046382714,
                -2.3232832998336392
            ]
        },
        {
            "positions": [
                0.06499311191578228,
                -1.7865705444023305,
                2.209644037215498,
                -0.05061927019942458,
                0.43941423049868455,
                -2.4387901139364816
            ]
        },
        {
            "positions": [
                0.17157963629109618,
                -1.8069461226751449,
                2.2406687248589776,
                -0.1222406718080109,
                0.48323889053354185,
                -2.554296928039324
            ]
        },
        {
            "positions": [
                0.27816616066641053,
                -1.8273217009479592,
                2.271693412502457,
                -0.19386207341659767,
                0.5270635505683992,
                -2.6698037421421668
            ]
        },
        {
            "positions": [
                0.38475268504172444,
                -1.8476972792207735,
                2.3027181001459365,
                -0.265483475025184,
                0.5708882106032565,
                -2.785310556245009
            ]
        },
        {
            "positions": [
                0.4913392094170388,
                -1.8680728574935879,
                2.333742787789416,
                -0.33710487663377076,
                0.614712870638114,
                -2.9008173703478515
            ]
        },
        {
            "positions": [
                0.5979257337923527,
                -1.8884484357664024,
                2.364767475432896,
                -0.4087262782423571,
                0.6585375306729713,
                -3.016324184450694
            ]
        },
        {
            "positions": [
                0.7045122581676673,
                -1.9088240140392168,
                2.395792163076375,
                -0.4803476798509438,
                0.7023621907078287,
                -3.1318309985535366
            ]
        }
    ]
}