{
    "goal": {
        "global_pose": {
            "orientation": {
                "w": 0.7031023502349854,
                "x": -0.7110244035720825,
                "y": 0.007748599164187908,
                "z": 0.005598929710686207
            },
            "position": {
                "x": 0.11585023208521307,
                "y": 0.44412534475326537,
                "z": 0.3711530566215515
            }
        },
        "name": "move_to_auspresseinheit_A"
    },
    "id": "LBKPIECE_move_to_auspresseinheit_A_150",
    "joint_names": [
        "shoulder_pan_joint",
        "shoulder_lift_joint",
        "elbow_joint",
        "wrist_1_joint",
        "wrist_2_joint",
        "wrist_3_joint"
    ],
    "metrics": {
        "cart_traj_len": 2.2050255642103815,
        "distance_elbow_joint": 1.220612951583346,
        "distance_shoulder_lift_joint": 1.7340120255259188,
        "distance_shoulder_pan_joint": 5.606607065071694,
        "distance_wrist_1_joint": 3.5172582704350654,
        "distance_wrist_2_joint": 0.5321116188112373,
        "distance_wrist_3_joint": 4.51922210995677,
        "smoothness": 0.6897098545922419,
        "time": 2.7661665810000002,
        "traj_len": 4.138819160265888,
        "weighted_distance": 5.497057226420685
    },
    "planner": "LBKPIECE",
    "start": {
        "state": {
            "elbow_joint": 2.4225747245308327,
            "shoulder_lift_joint": -1.373653427065438,
            "shoulder_pan_joint": -0.33786330853087027,
            "wrist_1_joint": -1.0288602302712604,
            "wrist_2_joint": 1.23302299562683,
            "wrist_3_joint": -3.094021725338297
        }
    },
    "waypoints": [
        {
            "positions": [
                -0.33786330853087027,
                -1.373653427065438,
                2.4225747245308327,
                -1.0288602302712604,
                1.23302299562683,
                -3.094021725338297
            ]
        },
        {
            "positions": [
                -0.44162410402060776,
                -1.4251444787228031,
                2.394113525711983,
                -0.9358351088626371,
                1.2325749914801576,
                -2.9923911819147153
            ]
        },
        {
            "positions": [
                -0.5453848995103452,
                -1.4766355303801681,
                2.3656523268931333,
                -0.8428099874540138,
                1.2321269873334855,
                -2.890760638491134
            ]
        },
        {
            "positions": [
                -0.6491456950000827,
                -1.5281265820375334,
                2.337191128074284,
                -0.7497848660453905,
                1.2316789831868131,
                -2.789130095067552
            ]
        },
        {
            "positions": [
                -0.7529064904898202,
                -1.5796176336948984,
                2.3087299292554344,
                -0.6567597446367672,
                1.231230979040141,
                -2.6874995516439704
            ]
        },
        {
            "positions": [
                -0.8566672859795577,
                -1.6311086853522636,
                2.2802687304365845,
                -0.563734623228144,
                1.2307829748934687,
                -2.585869008220389
            ]
        },
        {
            "positions": [
                -0.9604280814692951,
                -1.6825997370096286,
                2.251807531617735,
                -0.47070950181952076,
                1.2303349707467965,
                -2.484238464796807
            ]
        },
        {
            "positions": [
                -1.0641888769590326,
                -1.7340907886669938,
                2.223346332798885,
                -0.37768438041089747,
                1.2298869666001242,
                -2.3826079213732254
            ]
        },
        {
            "positions": [
                -1.1679496724487701,
                -1.785581840324359,
                2.1948851339800357,
                -0.2846592590022742,
                1.229438962453452,
                -2.280977377949644
            ]
        },
        {
            "positions": [
                -1.2717104679385078,
                -1.837072891981724,
                2.1664239351611863,
                -0.1916341375936509,
                1.2289909583067797,
                -2.1793468345260623
            ]
        },
        {
            "positions": [
                -1.375471263428245,
                -1.8885639436390893,
                2.1379627363423364,
                -0.09860901618502771,
                1.2285429541601076,
                -2.0777162911024805
            ]
        },
        {
            "positions": [
                -1.4792320589179826,
                -1.9400549952964545,
                2.109501537523487,
                -0.005583894776404419,
                1.2280949500134353,
                -1.9760857476788989
            ]
        },
        {
            "positions": [
                -1.58299285440772,
                -1.9915460469538195,
                2.0810403387046374,
                0.08744122663221887,
                1.227646945866763,
                -1.8744552042553173
            ]
        },
        {
            "positions": [
                -1.6867536498974576,
                -2.043037098611185,
                2.0525791398857876,
                0.18046634804084216,
                1.2271989417200908,
                -1.7728246608317355
            ]
        },
        {
            "positions": [
                -1.790514445387195,
                -2.09452815026855,
                2.024117941066938,
                0.27349146944946545,
                1.2267509375734185,
                -1.671194117408154
            ]
        },
        {
            "positions": [
                -1.8942752408769323,
                -2.146019201925915,
                1.9956567422480884,
                0.3665165908580885,
                1.2263029334267463,
                -1.5695635739845724
            ]
        },
        {
            "positions": [
                -1.99803603636667,
                -2.19751025358328,
                1.9671955434292387,
                0.45954171226671203,
                1.225854929280074,
                -1.4679330305609906
            ]
        },
        {
            "positions": [
                -2.1017968318564075,
                -2.249001305240645,
                1.9387343446103893,
                0.5525668336753351,
                1.2254069251334019,
                -1.366302487137409
            ]
        },
        {
            "positions": [
                -2.2055576273461455,
                -2.3004923568980105,
                1.9102731457915396,
                0.6455919550839586,
                1.2249589209867295,
                -1.2646719437138272
            ]
        },
        {
            "positions": [
                -2.3093184228358825,
                -2.3519834085553755,
                1.88181194697269,
                0.7386170764925817,
                1.2245109168400574,
                -1.1630414002902456
            ]
        },
        {
            "positions": [
                -2.41307921832562,
                -2.403474460212741,
                1.8533507481538405,
                0.831642197901205,
                1.224062912693385,
                -1.0614108568666643
            ]
        },
        {
            "positions": [
                -2.5168400138153575,
                -2.454965511870106,
                1.8248895493349906,
                0.9246673193098283,
                1.223614908546713,
                -0.959780313443082
            ]
        },
        {
            "positions": [
                -2.620600809305095,
                -2.506456563527471,
                1.7964283505161411,
                1.0176924407184518,
                1.2231669044000406,
                -0.8581497700195007
            ]
        },
        {
            "positions": [
                -2.476084741292161,
                -2.48031704661165,
                1.8222747234539087,
                0.9537487190034364,
                1.2004601423311516,
                -0.9574258636994126
            ]
        },
        {
            "positions": [
                -2.331568673279228,
                -2.4541775296958286,
                1.8481210963916763,
                0.889804997288421,
                1.1777533802622626,
                -1.0567019573793246
            ]
        },
        {
            "positions": [
                -2.1870526052662944,
                -2.4280380127800076,
                1.873967469329444,
                0.8258612755734056,
                1.1550466181933734,
                -1.1559780510592366
            ]
        },
        {
            "positions": [
                -2.0425365372533606,
                -2.4018984958641862,
                1.8998138422672115,
                0.7619175538583903,
                1.1323398561244844,
                -1.2552541447391485
            ]
        },
        {
            "positions": [
                -1.8980204692404272,
                -2.3757589789483653,
                1.925660215204979,
                0.6979738321433749,
                1.1096330940555954,
                -1.3545302384190605
            ]
        },
        {
            "positions": [
                -1.7535044012274934,
                -2.3496194620325443,
                1.9515065881427467,
                0.6340301104283596,
                1.0869263319867064,
                -1.4538063320989725
            ]
        },
        {
            "positions": [
                -1.6089883332145598,
                -2.323479945116723,
                1.9773529610805143,
                0.5700863887133442,
                1.0642195699178174,
                -1.5530824257788844
            ]
        },
        {
            "positions": [
                -1.4644722652016262,
                -2.297340428200902,
                2.003199334018282,
                0.5061426669983289,
                1.0415128078489282,
                -1.6523585194587962
            ]
        },
        {
            "positions": [
                -1.3199561971886926,
                -2.2712009112850806,
                2.0290457069560492,
                0.4421989452833134,
                1.0188060457800392,
                -1.7516346131387084
            ]
        },
        {
            "positions": [
                -1.1754401291757592,
                -2.2450613943692597,
                2.054892079893817,
                0.3782552235682981,
                0.9960992837111502,
                -1.8509107068186201
            ]
        },
        {
            "positions": [
                -1.0309240611628254,
                -2.2189218774534387,
                2.0807384528315844,
                0.3143115018532827,
                0.9733925216422612,
                -1.950186800498532
            ]
        },
        {
            "positions": [
                -0.886407993149892,
                -2.1927823605376173,
                2.1065848257693522,
                0.2503677801382673,
                0.9506857595733722,
                -2.0494628941784443
            ]
        },
        {
            "positions": [
                -0.7418919251369585,
                -2.1666428436217964,
                2.1324311987071196,
                0.18642405842325205,
                0.9279789975044831,
                -2.148738987858356
            ]
        },
        {
            "positions": [
                -0.5973758571240246,
                -2.140503326705975,
                2.1582775716448874,
                0.12248033670823655,
                0.905272235435594,
                -2.2480150815382682
            ]
        },
        {
            "positions": [
                -0.45285978911109126,
                -2.114363809790154,
                2.184123944582655,
                0.05853661499322116,
                0.882565473366705,
                -2.3472911752181798
            ]
        },
        {
            "positions": [
                -0.30834372109815744,
                -2.088224292874333,
                2.2099703175204226,
                -0.005407106721794008,
                0.859858711297816,
                -2.4465672688980917
            ]
        },
        {
            "positions": [
                -0.16382765308522407,
                -2.0620847759585117,
                2.23581669045819,
                -0.0693508284368094,
                0.837151949228927,
                -2.5458433625780037
            ]
        },
        {
            "positions": [
                -0.01931158507229025,
                -2.0359452590426907,
                2.261663063395958,
                -0.133294550151825,
                0.8144451871600379,
                -2.645119456257916
            ]
        },
        {
            "positions": [
                0.12520448294064312,
                -2.0098057421268694,
                2.287509436333725,
                -0.19723827186684018,
                0.7917384250911488,
                -2.7443955499378276
            ]
        },
        {
            "positions": [
                0.2697205509535765,
                -1.9836662252110484,
                2.313355809271493,
                -0.26118199358185556,
                0.7690316630222598,
                -2.8436716436177396
            ]
        },
        {
            "positions": [
                0.4142366189665103,
                -1.9575267082952275,
                2.3392021822092604,
                -0.32512571529687095,
                0.7463249009533708,
                -2.9429477372976516
            ]
        },
        {
            "positions": [
                0.5587526869794441,
                -1.931387191379406,
                2.3650485551470277,
                -0.38906943701188634,
                0.7236181388844818,
                -3.0422238309775635
            ]
        },
        {
            "positions": [
                0.7032687549923775,
                -1.9052476744635851,
                2.3908949280847955,
                -0.45301315872690173,
                0.7009113768155927,
                -3.1414999246574755
            ]
        }
    ]
}