{
    "goal": {
        "global_pose": {
            "orientation": {
                "w": 0.5084816262002911,
                "x": -0.4908360881923452,
                "y": 0.5182115481033761,
                "z": -0.48164630358495003
            },
            "position": {
                "x": 0.5540239810943604,
                "y": -0.46912469901144505,
                "z": 0.16403168439865112
            }
        },
        "name": "move_to_storage_B"
    },
    "id": "LBKPIECE_move_to_storage_B_29",
    "joint_names": [
        "shoulder_pan_joint",
        "shoulder_lift_joint",
        "elbow_joint",
        "wrist_1_joint",
        "wrist_2_joint",
        "wrist_3_joint"
    ],
    "metrics": {
        "cart_traj_len": 3.3283806093872665,
        "distance_elbow_joint": 0.9289224722750433,
        "distance_shoulder_lift_joint": 2.6893595109465647,
        "distance_shoulder_pan_joint": 3.637287809995116,
        "distance_wrist_1_joint": 2.977121321806414,
        "distance_wrist_2_joint": 2.711323940303195,
        "distance_wrist_3_joint": 7.34487733411513,
        "smoothness": 0.3507951734475679,
        "time": 4.341015888,
        "traj_len": 4.504319303673026,
        "weighted_distance": 6.377075530349418
    },
    "planner": "LBKPIECE",
    "start": {
        "state": {
            "elbow_joint": 1.6649325706314817,
            "shoulder_lift_joint": -0.6616388048112454,
            "shoulder_pan_joint": -0.9139837860083814,
            "wrist_1_joint": 2.146757197745094,
            "wrist_2_joint": -2.234196043158733,
            "wrist_3_joint": 0.005471033829999897
        }
    },
    "waypoints": [
        {
            "positions": [
                -0.9139837860083814,
                -0.6616388048112454,
                1.6649325706314817,
                2.146757197745094,
                -2.234196043158733,
                0.005471033829999897
            ]
        },
        {
            "positions": [
                -0.8388379598433537,
                -0.7300574669513102,
                1.6926771628558526,
                2.1249891696023617,
                -2.125096667485235,
                -0.08594184444837079
            ]
        },
        {
            "positions": [
                -0.7636921336783261,
                -0.7984761290913751,
                1.7204217550802232,
                2.103221141459629,
                -2.0159972918117375,
                -0.1773547227267415
            ]
        },
        {
            "positions": [
                -0.6885463075132985,
                -0.86689479123144,
                1.748166347304594,
                2.0814531133168965,
                -1.9068979161382398,
                -0.26876760100511216
            ]
        },
        {
            "positions": [
                -0.6134004813482709,
                -0.9353134533715048,
                1.775910939528965,
                2.059685085174164,
                -1.797798540464742,
                -0.36018047928348285
            ]
        },
        {
            "positions": [
                -0.5382546551832432,
                -1.0037321155115697,
                1.8036555317533356,
                2.0379170570314313,
                -1.6886991647912444,
                -0.45159335756185354
            ]
        },
        {
            "positions": [
                -0.4631088290182156,
                -1.0721507776516346,
                1.8314001239777065,
                2.016149028888699,
                -1.5795997891177467,
                -0.5430062358402242
            ]
        },
        {
            "positions": [
                -0.38796300285318785,
                -1.1405694397916997,
                1.8591447162020773,
                1.9943810007459666,
                -1.470500413444249,
                -0.634419114118595
            ]
        },
        {
            "positions": [
                -0.31281717668816034,
                -1.2089881019317645,
                1.886889308426448,
                1.972612972603234,
                -1.3614010377707515,
                -0.7258319923969656
            ]
        },
        {
            "positions": [
                -0.2376713505231326,
                -1.2774067640718294,
                1.9146339006508188,
                1.9508449444605014,
                -1.2523016620972536,
                -0.8172448706753364
            ]
        },
        {
            "positions": [
                -0.16252552435810508,
                -1.3458254262118943,
                1.9423784928751897,
                1.929076916317769,
                -1.143202286423756,
                -0.908657748953707
            ]
        },
        {
            "positions": [
                -0.08737969819307734,
                -1.4142440883519591,
                1.9701230850995604,
                1.9073088881750364,
                -1.0341029107502584,
                -1.0000706272320778
            ]
        },
        {
            "positions": [
                -0.01223387202804982,
                -1.482662750492024,
                1.9978676773239312,
                1.885540860032304,
                -0.9250035350767607,
                -1.0914835055104484
            ]
        },
        {
            "positions": [
                0.06291195413697781,
                -1.5510814126320889,
                2.025612269548302,
                1.8637728318895714,
                -0.8159041594032632,
                -1.1828963837888191
            ]
        },
        {
            "positions": [
                0.13805778030200566,
                -1.6195000747721537,
                2.0533568617726727,
                1.842004803746839,
                -0.7068047837297653,
                -1.2743092620671899
            ]
        },
        {
            "positions": [
                0.21320360646703318,
                -1.6879187369122186,
                2.0811014539970434,
                1.8202367756041065,
                -0.5977054080562676,
                -1.3657221403455606
            ]
        },
        {
            "positions": [
                0.2883494326320607,
                -1.7563373990522835,
                2.1088460462214145,
                1.7984687474613739,
                -0.4886060323827701,
                -1.4571350186239311
            ]
        },
        {
            "positions": [
                0.3634952587970882,
                -1.8247560611923481,
                2.136590638445785,
                1.7767007193186415,
                -0.3795066567092724,
                -1.5485478969023019
            ]
        },
        {
            "positions": [
                0.4386410849621162,
                -1.8931747233324132,
                2.1643352306701558,
                1.7549326911759089,
                -0.2704072810357745,
                -1.6399607751806726
            ]
        },
        {
            "positions": [
                0.5137869111271437,
                -1.961593385472478,
                2.192079822894527,
                1.7331646630331763,
                -0.16130790536227702,
                -1.7313736534590434
            ]
        },
        {
            "positions": [
                0.5889327372921712,
                -2.030012047612543,
                2.2198244151188975,
                1.711396634890444,
                -0.052208529688779315,
                -1.822786531737414
            ]
        },
        {
            "positions": [
                0.664078563457199,
                -2.098430709752608,
                2.247569007343268,
                1.6896286067477113,
                0.056890845984718386,
                -1.9141994100157846
            ]
        },
        {
            "positions": [
                0.7392243896222267,
                -2.1668493718926727,
                2.2753135995676392,
                1.6678605786049787,
                0.16599022165821609,
                -2.005612288294156
            ]
        },
        {
            "positions": [
                0.8143702157872541,
                -2.2352680340327375,
                2.30305819179201,
                1.6460925504622463,
                0.2750895973317138,
                -2.0970251665725264
            ]
        },
        {
            "positions": [
                0.7485449120562376,
                -2.1967945760422176,
                2.2930307141673714,
                1.5606974927200543,
                0.2820564352562913,
                -1.9162534033410572
            ]
        },
        {
            "positions": [
                0.6827196083252212,
                -2.158321118051698,
                2.283003236542733,
                1.4753024349778625,
                0.2890232731808688,
                -1.7354816401095883
            ]
        },
        {
            "positions": [
                0.6168943045942046,
                -2.119847660061178,
                2.2729757589180943,
                1.3899073772356705,
                0.2959901111054463,
                -1.5547098768781193
            ]
        },
        {
            "positions": [
                0.5510690008631881,
                -2.0813742020706587,
                2.2629482812934563,
                1.3045123194934787,
                0.3029569490300238,
                -1.3739381136466502
            ]
        },
        {
            "positions": [
                0.4852436971321716,
                -2.0429007440801388,
                2.2529208036688178,
                1.2191172617512867,
                0.3099237869546013,
                -1.193166350415181
            ]
        },
        {
            "positions": [
                0.4194183934011551,
                -2.0044272860896193,
                2.2428933260441792,
                1.1337222040090946,
                0.31689062487917885,
                -1.0123945871837121
            ]
        },
        {
            "positions": [
                0.3535930896701386,
                -1.9659538280990996,
                2.2328658484195407,
                1.0483271462669026,
                0.3238574628037563,
                -0.831622823952243
            ]
        },
        {
            "positions": [
                0.2877677859391221,
                -1.9274803701085799,
                2.222838370794902,
                0.9629320885247108,
                0.33082430072833385,
                -0.6508510607207738
            ]
        },
        {
            "positions": [
                0.22194248220810564,
                -1.8890069121180602,
                2.2128108931702637,
                0.8775370307825188,
                0.3377911386529113,
                -0.47007929748930466
            ]
        },
        {
            "positions": [
                0.15611717847708906,
                -1.8505334541275404,
                2.202783415545625,
                0.7921419730403267,
                0.34475797657748886,
                -0.28930753425783573
            ]
        },
        {
            "positions": [
                0.0902918747460727,
                -1.8120599961370207,
                2.192755937920987,
                0.7067469152981349,
                0.3517248145020664,
                -0.1085357710263668
            ]
        },
        {
            "positions": [
                0.024466571015056116,
                -1.773586538146501,
                2.1827284602963486,
                0.6213518575559429,
                0.35869165242664386,
                0.07223599220510213
            ]
        },
        {
            "positions": [
                -0.041358732715960356,
                -1.735113080155981,
                2.17270098267171,
                0.5359567998137509,
                0.3656584903512214,
                0.2530077554365713
            ]
        },
        {
            "positions": [
                -0.10718403644697694,
                -1.6966396221654616,
                2.1626735050470716,
                0.4505617420715591,
                0.37262532827579886,
                0.43377951866804043
            ]
        },
        {
            "positions": [
                -0.1730093401779934,
                -1.6581661641749417,
                2.152646027422433,
                0.36516668432936705,
                0.3795921662003764,
                0.6145512818995096
            ]
        },
        {
            "positions": [
                -0.23883464390900988,
                -1.6196927061844222,
                2.1426185497977945,
                0.27977162658717525,
                0.38655900412495386,
                0.7953230451309787
            ]
        },
        {
            "positions": [
                -0.30465994764002624,
                -1.5812192481939022,
                2.132591072173156,
                0.19437656884498322,
                0.3935258420495314,
                0.9760948083624474
            ]
        },
        {
            "positions": [
                -0.3704852513710428,
                -1.5427457902033828,
                2.1225635945485175,
                0.1089815111027912,
                0.40049267997410887,
                1.156866571593917
            ]
        },
        {
            "positions": [
                -0.4363105551020594,
                -1.5042723322128628,
                2.1125361169238794,
                0.02358645336059939,
                0.4074595178986864,
                1.3376383348253857
            ]
        },
        {
            "positions": [
                -0.502135858833076,
                -1.4657988742223431,
                2.102508639299241,
                -0.06180860438159286,
                0.4144263558232639,
                1.518410098056855
            ]
        },
        {
            "positions": [
                -0.5679611625640923,
                -1.4273254162318234,
                2.0924811616746024,
                -0.14720366212378466,
                0.42139319374784145,
                1.699181861288324
            ]
        },
        {
            "positions": [
                -0.6337864662951087,
                -1.388851958241304,
                2.082453684049964,
                -0.23259871986597647,
                0.42836003167241893,
                1.8799536245197928
            ]
        },
        {
            "positions": [
                -0.6996117700261255,
                -1.350378500250784,
                2.0724262064253254,
                -0.3179937776081685,
                0.4353268695969964,
                2.0607253877512623
            ]
        },
        {
            "positions": [
                -0.7654370737571419,
                -1.3119050422602643,
                2.062398728800687,
                -0.4033888353503605,
                0.44229370752157393,
                2.2414971509827306
            ]
        },
        {
            "positions": [
                -0.8312623774881582,
                -1.2734315842697446,
                2.052371251176049,
                -0.4887838930925521,
                0.44926054544615146,
                2.4222689142141998
            ]
        },
        {
            "positions": [
                -0.8970876812191748,
                -1.2349581262792249,
                2.0423437735514103,
                -0.5741789508347446,
                0.456227383370729,
                2.603040677445669
            ]
        },
        {
            "positions": [
                -0.9629129849501914,
                -1.1964846682887051,
                2.0323162959267718,
                -0.6595740085769362,
                0.4631942212953064,
                2.783812440677138
            ]
        },
        {
            "positions": [
                -1.028738288681208,
                -1.1580112102981854,
                2.0222888183021333,
                -0.7449690663191282,
                0.47016105921988394,
                2.964584203908607
            ]
        },
        {
            "positions": [
                -1.0945635924122243,
                -1.1195377523076657,
                2.0122613406774947,
                -0.8303641240613204,
                0.47712789714446147,
                3.1453559671400764
            ]
        }
    ]
}