{
    "goal": {
        "global_pose": {
            "orientation": {
                "w": 0.5084816217422485,
                "x": -0.49083608388900757,
                "y": 0.5182115435600281,
                "z": -0.4816462993621826
            },
            "position": {
                "x": 0.5540239810943604,
                "y": 0.030875300988554955,
                "z": 0.16403168439865112
            }
        },
        "name": "move_to_storage_A"
    },
    "id": "LBKPIECE_move_to_storage_A_67",
    "joint_names": [
        "shoulder_pan_joint",
        "shoulder_lift_joint",
        "elbow_joint",
        "wrist_1_joint",
        "wrist_2_joint",
        "wrist_3_joint"
    ],
    "metrics": {
        "cart_traj_len": 0.3530091253332725,
        "distance_elbow_joint": 0.44876783611249804,
        "distance_shoulder_lift_joint": 0.2362139088251729,
        "distance_shoulder_pan_joint": 0.46352149407452853,
        "distance_wrist_1_joint": 0.2368984673421416,
        "distance_wrist_2_joint": 1.0909948007180486,
        "distance_wrist_3_joint": 0.09130466319123265,
        "smoothness": 0.0,
        "time": 3.335087012,
        "traj_len": 1.6024048084874254,
        "weighted_distance": 2.019456304232968
    },
    "planner": "LBKPIECE",
    "start": {
        "state": {
            "elbow_joint": 1.9715474177455299,
            "shoulder_lift_joint": -1.139484666580328,
            "shoulder_pan_joint": 0.12281154398918248,
            "wrist_1_joint": -0.7804687475355282,
            "wrist_2_joint": 0.12958649657246987,
            "wrist_3_joint": -3.1924925159053466
        }
    },
    "waypoints": [
        {
            "positions": [
                0.12281154398918248,
                -1.139484666580328,
                1.9715474177455299,
                -0.7804687475355282,
                0.12958649657246987,
                -3.1924925159053466
            ]
        },
        {
            "positions": [
                0.05659418769282126,
                -1.1732295106982098,
                2.035657108618744,
                -0.8143113857272627,
                0.2854428966750483,
                -3.1794489925923135
            ]
        },
        {
            "positions": [
                -0.009623168603539956,
                -1.2069743548160916,
                2.0997667994919578,
                -0.8481540239189972,
                0.4412992967776267,
                -3.16640546927928
            ]
        },
        {
            "positions": [
                -0.07584052489990117,
                -1.2407191989339734,
                2.1638764903651717,
                -0.8819966621107317,
                0.5971556968802051,
                -3.153361945966247
            ]
        },
        {
            "positions": [
                -0.1420578811962624,
                -1.2744640430518555,
                2.2279861812383857,
                -0.9158393003024663,
                0.7530120969827835,
                -3.1403184226532135
            ]
        },
        {
            "positions": [
                -0.2082752374926236,
                -1.3082088871697373,
                2.2920958721116,
                -0.9496819384942008,
                0.9088684970853619,
                -3.1272748993401804
            ]
        },
        {
            "positions": [
                -0.27449259378898483,
                -1.341953731287619,
                2.356205562984814,
                -0.9835245766859353,
                1.0647248971879402,
                -3.114231376027147
            ]
        },
        {
            "positions": [
                -0.34070995008534605,
                -1.375698575405501,
                2.420315253858028,
                -1.0173672148776698,
                1.2205812972905186,
                -3.101187852714114
            ]
        }
    ]
}