{
    "goal": {
        "global_pose": {
            "orientation": {
                "w": -0.00223480608172531,
                "x": 0.0024358444001904467,
                "y": 0.7094548369677653,
                "z": -0.704743149386269
            },
            "position": {
                "x": -0.37947507619857795,
                "y": -0.6371506643295288,
                "z": 0.19426114857196808
            }
        },
        "name": "move_to_magneteinheit_C"
    },
    "id": "LBKPIECE_move_to_magneteinheit_C_131",
    "joint_names": [
        "shoulder_pan_joint",
        "shoulder_lift_joint",
        "elbow_joint",
        "wrist_1_joint",
        "wrist_2_joint",
        "wrist_3_joint"
    ],
    "metrics": {
        "cart_traj_len": 7.172016431216562,
        "distance_elbow_joint": 1.5738577007247572,
        "distance_shoulder_lift_joint": 3.096835737722394,
        "distance_shoulder_pan_joint": 9.296850516758823,
        "distance_wrist_1_joint": 4.976394190495808,
        "distance_wrist_2_joint": 1.2448987180072595,
        "distance_wrist_3_joint": 6.003912708624255,
        "smoothness": 0.4318116989226697,
        "time": 0.813496706,
        "traj_len": 5.117885263693717,
        "weighted_distance": 6.664973210605192
    },
    "planner": "LBKPIECE",
    "start": {
        "state": {
            "elbow_joint": 1.9565354006590394,
            "shoulder_lift_joint": -1.4165861576513559,
            "shoulder_pan_joint": -1.6717766223277177,
            "wrist_1_joint": -0.5286633288215096,
            "wrist_2_joint": 1.4727565892594296,
            "wrist_3_joint": 3.1593482883155493
        }
    },
    "waypoints": [
        {
            "positions": [
                -1.6717766223277177,
                -1.4165861576513559,
                1.9565354006590394,
                -0.5286633288215096,
                1.4727565892594296,
                3.1593482883155493
            ]
        },
        {
            "positions": [
                -1.5263796314818001,
                -1.4654583953280746,
                1.9339867496734888,
                -0.45319315912262575,
                1.4538902201020791,
                3.0822173873929395
            ]
        },
        {
            "positions": [
                -1.3809826406358825,
                -1.5143306330047934,
                1.9114380986879385,
                -0.37772298942374194,
                1.4350238509447288,
                3.0050864864703293
            ]
        },
        {
            "positions": [
                -1.2355856497899649,
                -1.563202870681512,
                1.8888894477023879,
                -0.30225281972485807,
                1.4161574817873783,
                2.9279555855477195
            ]
        },
        {
            "positions": [
                -1.090188658944047,
                -1.6120751083582308,
                1.8663407967168375,
                -0.22678265002597425,
                1.397291112630028,
                2.8508246846251097
            ]
        },
        {
            "positions": [
                -0.9447916680981293,
                -1.6609473460349495,
                1.843792145731287,
                -0.15131248032709038,
                1.3784247434726775,
                2.7736937837024995
            ]
        },
        {
            "positions": [
                -0.7993946772522118,
                -1.7098195837116683,
                1.8212434947457363,
                -0.07584231062820662,
                1.3595583743153272,
                2.6965628827798898
            ]
        },
        {
            "positions": [
                -0.653997686406294,
                -1.7586918213883869,
                1.798694843760186,
                -0.00037214092932269516,
                1.3406920051579767,
                2.61943198185728
            ]
        },
        {
            "positions": [
                -0.5086006955603763,
                -1.8075640590651056,
                1.7761461927746354,
                0.07509802876956106,
                1.3218256360006264,
                2.5423010809346698
            ]
        },
        {
            "positions": [
                -0.36320370471445873,
                -1.8564362967418244,
                1.7535975417890848,
                0.15056819846844494,
                1.302959266843276,
                2.46517018001206
            ]
        },
        {
            "positions": [
                -0.2178067138685409,
                -1.9053085344185432,
                1.7310488908035344,
                0.2260383681673288,
                1.2840928976859256,
                2.3880392790894502
            ]
        },
        {
            "positions": [
                -0.0724097230226235,
                -1.954180772095262,
                1.7085002398179838,
                0.30150853786621246,
                1.265226528528575,
                2.3109083781668405
            ]
        },
        {
            "positions": [
                0.07298726782329412,
                -2.0030530097719805,
                1.6859515888324332,
                0.3769787075650963,
                1.2463601593712248,
                2.2337774772442303
            ]
        },
        {
            "positions": [
                0.21838425866921196,
                -2.0519252474486995,
                1.6634029378468829,
                0.4524488772639802,
                1.2274937902138743,
                2.1566465763216205
            ]
        },
        {
            "positions": [
                0.3637812495151298,
                -2.100797485125418,
                1.6408542868613323,
                0.5279190469628642,
                1.208627421056524,
                2.0795156753990103
            ]
        },
        {
            "positions": [
                0.5091782403610474,
                -2.1496697228021366,
                1.6183056358757817,
                0.6033892166617479,
                1.1897610518991735,
                2.0023847744764005
            ]
        },
        {
            "positions": [
                0.654575231206965,
                -2.1985419604788556,
                1.5957569848902313,
                0.6788593863606317,
                1.1708946827418232,
                1.9252538735537907
            ]
        },
        {
            "positions": [
                0.7999722220528822,
                -2.247414198155574,
                1.573208333904681,
                0.7543295560595155,
                1.1520283135844727,
                1.848122972631181
            ]
        },
        {
            "positions": [
                0.9453692128988003,
                -2.296286435832293,
                1.5506596829191304,
                0.8297997257583994,
                1.1331619444271224,
                1.770992071708571
            ]
        },
        {
            "positions": [
                1.0907662037447179,
                -2.3451586735090117,
                1.5281110319335798,
                0.9052698954572832,
                1.1142955752697719,
                1.693861170785961
            ]
        },
        {
            "positions": [
                1.236163194590636,
                -2.3940309111857303,
                1.5055623809480294,
                0.9807400651561672,
                1.0954292061124216,
                1.616730269863351
            ]
        },
        {
            "positions": [
                1.3815601854365531,
                -2.4429031488624493,
                1.4830137299624788,
                1.056210234855051,
                1.076562836955071,
                1.5395993689407412
            ]
        },
        {
            "positions": [
                1.5269571762824707,
                -2.491775386539168,
                1.4604650789769282,
                1.1316804045539346,
                1.0576964677977208,
                1.4624684680181315
            ]
        },
        {
            "positions": [
                1.6723541671283888,
                -2.540647624215887,
                1.4379164279913779,
                1.2071505742528186,
                1.0388300986403702,
                1.3853375670955212
            ]
        },
        {
            "positions": [
                1.817751157974306,
                -2.5895198618926054,
                1.4153677770058273,
                1.2826207439517021,
                1.01996372948302,
                1.3082066661729115
            ]
        },
        {
            "positions": [
                1.9631481488202236,
                -2.638392099569324,
                1.3928191260202767,
                1.358090913650586,
                1.0010973603256694,
                1.2310757652503017
            ]
        },
        {
            "positions": [
                2.1085451396661417,
                -2.687264337246043,
                1.3702704750347263,
                1.43356108334947,
                0.982230991168319,
                1.1539448643276917
            ]
        },
        {
            "positions": [
                2.2539421305120593,
                -2.7361365749227615,
                1.347721824049176,
                1.509031253048354,
                0.9633646220109686,
                1.076813963405082
            ]
        },
        {
            "positions": [
                2.3993391213579773,
                -2.7850088125994805,
                1.3251731730636251,
                1.584501422747238,
                0.9444982528536182,
                0.9996830624824717
            ]
        },
        {
            "positions": [
                2.5447361122038945,
                -2.833881050276199,
                1.3026245220780748,
                1.6599715924461216,
                0.9256318836962678,
                0.922552161559862
            ]
        },
        {
            "positions": [
                2.3579021552288086,
                -2.771162087962765,
                1.2985531577696643,
                1.5585337269260358,
                0.9339827808409061,
                0.8923675957222187
            ]
        },
        {
            "positions": [
                2.171068198253723,
                -2.7084431256493313,
                1.2944817934612538,
                1.4570958614059502,
                0.9423336779855445,
                0.8621830298845754
            ]
        },
        {
            "positions": [
                1.9842342412786373,
                -2.645724163335897,
                1.2904104291528433,
                1.3556579958858643,
                0.9506845751301828,
                0.8319984640469321
            ]
        },
        {
            "positions": [
                1.797400284303552,
                -2.5830052010224636,
                1.2863390648444326,
                1.2542201303657785,
                0.9590354722748211,
                0.8018138982092888
            ]
        },
        {
            "positions": [
                1.610566327328466,
                -2.5202862387090295,
                1.2822677005360221,
                1.1527822648456927,
                0.9673863694194594,
                0.7716293323716455
            ]
        },
        {
            "positions": [
                1.4237323703533804,
                -2.457567276395596,
                1.2781963362276116,
                1.051344399325607,
                0.9757372665640978,
                0.7414447665340023
            ]
        },
        {
            "positions": [
                1.236898413378295,
                -2.3948483140821617,
                1.2741249719192012,
                0.9499065338055214,
                0.9840881637087362,
                0.711260200696359
            ]
        },
        {
            "positions": [
                1.0500644564032091,
                -2.332129351768728,
                1.2700536076107907,
                0.8484686682854355,
                0.9924390608533745,
                0.6810756348587157
            ]
        },
        {
            "positions": [
                0.8632304994281235,
                -2.269410389455294,
                1.2659822433023802,
                0.7470308027653498,
                1.0007899579980128,
                0.6508910690210724
            ]
        },
        {
            "positions": [
                0.6763965424530378,
                -2.20669142714186,
                1.2619108789939695,
                0.645592937245264,
                1.009140855142651,
                0.6207065031834291
            ]
        },
        {
            "positions": [
                0.4895625854779522,
                -2.143972464828426,
                1.257839514685559,
                0.5441550717251782,
                1.0174917522872895,
                0.5905219373457858
            ]
        },
        {
            "positions": [
                0.3027286285028663,
                -2.0812535025149925,
                1.2537681503771485,
                0.44271720620509236,
                1.0258426494319277,
                0.5603373715081426
            ]
        },
        {
            "positions": [
                0.11589467152778088,
                -2.0185345402015584,
                1.249696786068738,
                0.34127934068500676,
                1.0341935465765661,
                0.5301528056704993
            ]
        },
        {
            "positions": [
                -0.07093928544730455,
                -1.9558155778881245,
                1.2456254217603275,
                0.23984147516492116,
                1.0425444437212046,
                0.499968239832856
            ]
        },
        {
            "positions": [
                -0.2577732424223904,
                -1.8930966155746907,
                1.241554057451917,
                0.13840360964483533,
                1.0508953408658428,
                0.46978367399521276
            ]
        },
        {
            "positions": [
                -0.4446071993974763,
                -1.8303776532612568,
                1.2374826931435066,
                0.03696574412474951,
                1.0592462380104812,
                0.4395991081575694
            ]
        },
        {
            "positions": [
                -0.6314411563725617,
                -1.767658690947823,
                1.2334113288350959,
                -0.06447212139533631,
                1.0675971351551194,
                0.40941454231992613
            ]
        },
        {
            "positions": [
                -0.8182751133476476,
                -1.704939728634389,
                1.2293399645266854,
                -0.16590998691542191,
                1.0759480322997579,
                0.37922997648228285
            ]
        },
        {
            "positions": [
                -1.005109070322733,
                -1.6422207663209551,
                1.2252686002182749,
                -0.26734785243550774,
                1.084298929444396,
                0.34904541064463956
            ]
        },
        {
            "positions": [
                -1.1919430272978189,
                -1.579501804007521,
                1.2211972359098644,
                -0.36878571795559356,
                1.0926498265890345,
                0.3188608448069963
            ]
        },
        {
            "positions": [
                -1.3787769842729043,
                -1.5167828416940872,
                1.217125871601454,
                -0.47022358347567916,
                1.1010007237336727,
                0.288676278969353
            ]
        },
        {
            "positions": [
                -1.5656109412479902,
                -1.4540638793806533,
                1.2130545072930434,
                -0.5716614489957652,
                1.1093516208783112,
                0.2584917131317097
            ]
        },
        {
            "positions": [
                -1.752444898223076,
                -1.3913449170672194,
                1.208983142984633,
                -0.6730993145158508,
                1.1177025180229494,
                0.22830714729406643
            ]
        },
        {
            "positions": [
                -1.939278855198162,
                -1.3286259547537855,
                1.2049117786762222,
                -0.7745371800359369,
                1.1260534151675878,
                0.19812258145642314
            ]
        },
        {
            "positions": [
                -2.126112812173247,
                -1.2659069924403517,
                1.2008404143678117,
                -0.8759750455560225,
                1.1344043123122263,
                0.16793801561877986
            ]
        },
        {
            "positions": [
                -2.3129467691483327,
                -1.2031880301269178,
                1.1967690500594013,
                -0.9774129110761081,
                1.1427552094568645,
                0.13775344978113654
            ]
        },
        {
            "positions": [
                -2.366444252018991,
                -1.1916931335180994,
                1.3006044740743368,
                -0.9776581344306196,
                1.1462197335896738,
                0.35227342711782805
            ]
        },
        {
            "positions": [
                -2.419941734889649,
                -1.1801982369092812,
                1.4044398980892723,
                -0.9779033577851312,
                1.1496842577224828,
                0.5667934044545196
            ]
        },
        {
            "positions": [
                -2.473439217760307,
                -1.1687033403004627,
                1.5082753221042078,
                -0.9781485811396426,
                1.1531487818552921,
                0.7813133817912112
            ]
        },
        {
            "positions": [
                -2.479521018016569,
                -1.1667918817210012,
                1.5656256598860998,
                -0.9654436349506027,
                1.1090589115211482,
                1.019416081314918
            ]
        },
        {
            "positions": [
                -2.485602818272832,
                -1.1648804231415397,
                1.622975997667992,
                -0.9527386887615628,
                1.0649690411870043,
                1.257518780838625
            ]
        },
        {
            "positions": [
                -2.491684618529094,
                -1.162968964562078,
                1.680326335449884,
                -0.9400337425725227,
                1.0208791708528604,
                1.4956214803623316
            ]
        },
        {
            "positions": [
                -2.4977664187853565,
                -1.1610575059826165,
                1.7376766732317763,
                -0.9273287963834828,
                0.9767893005187166,
                1.7337241798860386
            ]
        },
        {
            "positions": [
                -2.5038482190416187,
                -1.159146047403155,
                1.7950270110136683,
                -0.9146238501944428,
                0.9326994301845727,
                1.9718268794097453
            ]
        },
        {
            "positions": [
                -2.4990925630953953,
                -1.159729502858143,
                1.8385325891267594,
                -0.9004229462305328,
                0.8835473857163588,
                2.1971551209882647
            ]
        },
        {
            "positions": [
                -2.4943369071491714,
                -1.160312958313131,
                1.8820381672398503,
                -0.8862220422666228,
                0.8343953412481449,
                2.4224833625667843
            ]
        },
        {
            "positions": [
                -2.489581251202948,
                -1.160896413768119,
                1.9255437453529414,
                -0.8720211383027128,
                0.785243296779931,
                2.6478116041453035
            ]
        },
        {
            "positions": [
                -2.480838009631437,
                -1.1624241516978913,
                1.9682020727687308,
                -0.8502653118999699,
                0.7340674821750749,
                2.883941462008143
            ]
        },
        {
            "positions": [
                -2.4720947680599257,
                -1.1639518896276637,
                2.0108604001845203,
                -0.8285094854972269,
                0.6828916675702188,
                3.1200713198709824
            ]
        }
    ]
}