{
    "goal": {
        "global_pose": {
            "orientation": {
                "w": 0.5084816262002911,
                "x": -0.4908360881923452,
                "y": 0.5182115481033761,
                "z": -0.48164630358495003
            },
            "position": {
                "x": 0.5540239810943604,
                "y": -0.46912469901144505,
                "z": 0.16403168439865112
            }
        },
        "name": "move_to_storage_B"
    },
    "id": "LBKPIECE_move_to_storage_B_13",
    "joint_names": [
        "shoulder_pan_joint",
        "shoulder_lift_joint",
        "elbow_joint",
        "wrist_1_joint",
        "wrist_2_joint",
        "wrist_3_joint"
    ],
    "metrics": {
        "cart_traj_len": 1.3915469254883863,
        "distance_elbow_joint": 0.3890220986462605,
        "distance_shoulder_lift_joint": 1.080702046849506,
        "distance_shoulder_pan_joint": 0.7106903635638103,
        "distance_wrist_1_joint": 3.0060857169078727,
        "distance_wrist_2_joint": 2.7017639060828107,
        "distance_wrist_3_joint": 3.123626378761708,
        "smoothness": 0.2845635184028368,
        "time": 2.532185208,
        "traj_len": 3.3184168681484203,
        "weighted_distance": 4.792389058843832
    },
    "planner": "LBKPIECE",
    "start": {
        "state": {
            "elbow_joint": 1.6649325706314817,
            "shoulder_lift_joint": -0.6616388048112454,
            "shoulder_pan_joint": -0.9139837860083814,
            "wrist_1_joint": 2.146757197745094,
            "wrist_2_joint": -2.234196043158733,
            "wrist_3_joint": 0.005471033829999897
        }
    },
    "waypoints": [
        {
            "positions": [
                -0.9139837860083814,
                -0.6616388048112454,
                1.6649325706314817,
                2.146757197745094,
                -2.234196043158733,
                0.005471033829999897
            ]
        },
        {
            "positions": [
                -0.8939072618616521,
                -0.66997864731002,
                1.646902126520866,
                2.1367437955554367,
                -2.2255677762104713,
                0.002948089551375388
            ]
        },
        {
            "positions": [
                -0.8717159697873028,
                -0.7392230340007216,
                1.6677581941540847,
                2.044790333161861,
                -2.1207334201452737,
                -0.06376397051199881
            ]
        },
        {
            "positions": [
                -0.8495246777129535,
                -0.8084674206914233,
                1.6886142617873034,
                1.9528368707682857,
                -2.015899064080076,
                -0.13047603057537302
            ]
        },
        {
            "positions": [
                -0.8273333856386041,
                -0.8777118073821251,
                1.709470329420522,
                1.8608834083747103,
                -1.9110647080148788,
                -0.1971880906387472
            ]
        },
        {
            "positions": [
                -0.8051420935642548,
                -0.9469561940728267,
                1.7303263970537408,
                1.7689299459811347,
                -1.8062303519496812,
                -0.2639001507021214
            ]
        },
        {
            "positions": [
                -0.7829508014899056,
                -1.0162005807635284,
                1.7511824646869594,
                1.6769764835875594,
                -1.7013959958844835,
                -0.3306122107654956
            ]
        },
        {
            "positions": [
                -0.7607595094155563,
                -1.0854449674542301,
                1.7720385323201782,
                1.585023021193984,
                -1.5965616398192861,
                -0.3973242708288698
            ]
        },
        {
            "positions": [
                -0.7385682173412069,
                -1.154689354144932,
                1.7928945999533967,
                1.4930695588004084,
                -1.4917272837540885,
                -0.464036330892244
            ]
        },
        {
            "positions": [
                -0.7163769252668576,
                -1.2239337408356334,
                1.8137506675866155,
                1.4011160964068328,
                -1.386892927688891,
                -0.5307483909556182
            ]
        },
        {
            "positions": [
                -0.6941856331925083,
                -1.2931781275263352,
                1.834606735219834,
                1.3091626340132572,
                -1.2820585716236934,
                -0.5974604510189925
            ]
        },
        {
            "positions": [
                -0.6719943411181589,
                -1.362422514217037,
                1.8554628028530527,
                1.217209171619682,
                -1.177224215558496,
                -0.6641725110823665
            ]
        },
        {
            "positions": [
                -0.6498030490438096,
                -1.4316669009077385,
                1.8763188704862714,
                1.1252557092261064,
                -1.0723898594932983,
                -0.7308845711457408
            ]
        },
        {
            "positions": [
                -0.674609139410434,
                -1.4144072369770155,
                1.8841841432957291,
                1.0150010298711682,
                -0.986836652692333,
                -0.8635107252449612
            ]
        },
        {
            "positions": [
                -0.6994152297770583,
                -1.3971475730462926,
                1.8920494161051868,
                0.9047463505162302,
                -0.9012834458913677,
                -0.9961368793441816
            ]
        },
        {
            "positions": [
                -0.7242213201436827,
                -1.3798879091155696,
                1.8999146889146448,
                0.7944916711612922,
                -0.8157302390904023,
                -1.128763033443402
            ]
        },
        {
            "positions": [
                -0.7490274105103071,
                -1.3626282451848468,
                1.9077799617241025,
                0.684236991806354,
                -0.730177032289437,
                -1.2613891875426222
            ]
        },
        {
            "positions": [
                -0.7738335008769314,
                -1.3453685812541238,
                1.9156452345335602,
                0.5739823124514158,
                -0.6446238254884715,
                -1.3940153416418428
            ]
        },
        {
            "positions": [
                -0.7986395912435558,
                -1.3281089173234009,
                1.9235105073430179,
                0.4637276330964778,
                -0.5590706186875063,
                -1.526641495741063
            ]
        },
        {
            "positions": [
                -0.8234456816101802,
                -1.3108492533926779,
                1.9313757801524758,
                0.35347295374153964,
                -0.47351741188654084,
                -1.6592676498402836
            ]
        },
        {
            "positions": [
                -0.8482517719768045,
                -1.293589589461955,
                1.9392410529619335,
                0.2432182743866016,
                -0.3879642050855755,
                -1.7918938039395038
            ]
        },
        {
            "positions": [
                -0.8730578623434289,
                -1.2763299255312321,
                1.9471063257713912,
                0.13296359503166344,
                -0.30241099828461016,
                -1.9245199580387242
            ]
        },
        {
            "positions": [
                -0.8978639527100533,
                -1.2590702616005092,
                1.954971598580849,
                0.022708915676725283,
                -0.2168577914836448,
                -2.0571461121379446
            ]
        },
        {
            "positions": [
                -0.9226700430766777,
                -1.2418105976697862,
                1.9628368713903068,
                -0.08754576367821287,
                -0.13130458468267936,
                -2.1897722662371653
            ]
        },
        {
            "positions": [
                -0.947476133443302,
                -1.2245509337390632,
                1.9707021441997645,
                -0.1978004430331508,
                -0.04575137788171424,
                -2.322398420336385
            ]
        },
        {
            "positions": [
                -0.9722822238099262,
                -1.2072912698083402,
                1.9785674170092222,
                -0.30805512238808896,
                0.039801828919251214,
                -2.4550245744356056
            ]
        },
        {
            "positions": [
                -0.9970883141765507,
                -1.1900316058776172,
                1.98643268981868,
                -0.4183098017430271,
                0.12535503572021667,
                -2.5876507285348262
            ]
        },
        {
            "positions": [
                -1.021894404543175,
                -1.1727719419468943,
                1.9942979626281376,
                -0.5285644810979653,
                0.21090824252118212,
                -2.720276882634047
            ]
        },
        {
            "positions": [
                -1.0467004949097993,
                -1.1555122780161715,
                2.0021632354375956,
                -0.6388191604529032,
                0.29646144932214735,
                -2.8529030367332666
            ]
        },
        {
            "positions": [
                -1.0715065852764236,
                -1.1382526140854485,
                2.010028508247053,
                -0.7490738398078414,
                0.3820146561231126,
                -2.9855291908324872
            ]
        },
        {
            "positions": [
                -1.0963126756430481,
                -1.1209929501547256,
                2.017893781056511,
                -0.8593285191627796,
                0.467567862924078,
                -3.118155344931708
            ]
        }
    ]
}