{
    "goal": {
        "global_pose": {
            "orientation": {
                "w": 0.5084816217422485,
                "x": -0.49083608388900757,
                "y": 0.5182115435600281,
                "z": -0.4816462993621826
            },
            "position": {
                "x": 0.5540239810943604,
                "y": 0.030875300988554955,
                "z": 0.16403168439865112
            }
        },
        "name": "move_to_storage_A"
    },
    "id": "LBKPIECE_move_to_storage_A_46",
    "joint_names": [
        "shoulder_pan_joint",
        "shoulder_lift_joint",
        "elbow_joint",
        "wrist_1_joint",
        "wrist_2_joint",
        "wrist_3_joint"
    ],
    "metrics": {
        "cart_traj_len": 0.3533774523625528,
        "distance_elbow_joint": 0.4487899852805297,
        "distance_shoulder_lift_joint": 0.23489440781308923,
        "distance_shoulder_pan_joint": 0.46233341027548197,
        "distance_wrist_1_joint": 0.2385889817772472,
        "distance_wrist_2_joint": 1.0983083563022649,
        "distance_wrist_3_joint": 0.09718921677270131,
        "smoothness": 4.440892098500626e-16,
        "time": 1.9100533679999998,
        "traj_len": 1.6062703253877644,
        "weighted_distance": 2.0276538486256053
    },
    "planner": "LBKPIECE",
    "start": {
        "state": {
            "elbow_joint": 1.9715474177455299,
            "shoulder_lift_joint": -1.139484666580328,
            "shoulder_pan_joint": 0.12281154398918248,
            "wrist_1_joint": -0.7804687475355282,
            "wrist_2_joint": 0.12958649657246987,
            "wrist_3_joint": -3.1924925159053466
        }
    },
    "waypoints": [
        {
            "positions": [
                0.12281154398918248,
                -1.139484666580328,
                1.9715474177455299,
                -0.7804687475355282,
                0.12958649657246987,
                -3.1924925159053466
            ]
        },
        {
            "positions": [
                0.056763913949827924,
                -1.1730410105536264,
                2.0356602727856057,
                -0.8145528877894207,
                0.2864876903299363,
                -3.178608342080675
            ]
        },
        {
            "positions": [
                -0.009283716089526634,
                -1.2065973545269248,
                2.099773127825681,
                -0.8486370280433131,
                0.44338888408740273,
                -3.1647241682560034
            ]
        },
        {
            "positions": [
                -0.0753313461288812,
                -1.2401536985002233,
                2.163885982865757,
                -0.8827211682972056,
                0.6002900778448692,
                -3.150839994431332
            ]
        },
        {
            "positions": [
                -0.14137897616823575,
                -1.273710042473522,
                2.2279988379058326,
                -0.916805308551098,
                0.7571912716023357,
                -3.13695582060666
            ]
        },
        {
            "positions": [
                -0.20742660620759035,
                -1.3072663864468204,
                2.2921116929459084,
                -0.9508894488049905,
                0.9140924653598022,
                -3.1230716467819883
            ]
        },
        {
            "positions": [
                -0.2734742362469449,
                -1.3408227304201188,
                2.356224547985984,
                -0.9849735890588829,
                1.0709936591172684,
                -3.109187472957317
            ]
        },
        {
            "positions": [
                -0.3395218662862995,
                -1.3743790743934172,
                2.4203374030260596,
                -1.0190577293127754,
                1.2278948528747349,
                -3.0953032991326452
            ]
        }
    ]
}