{
    "goal": {
        "global_pose": {
            "orientation": {
                "w": 0.7031023502349854,
                "x": -0.7110244035720825,
                "y": 0.007748599164187908,
                "z": 0.005598929710686207
            },
            "position": {
                "x": 0.11585023208521307,
                "y": 0.44412534475326537,
                "z": 0.3711530566215515
            }
        },
        "name": "move_to_auspresseinheit_A"
    },
    "id": "LBKPIECE_move_to_auspresseinheit_A_20",
    "joint_names": [
        "shoulder_pan_joint",
        "shoulder_lift_joint",
        "elbow_joint",
        "wrist_1_joint",
        "wrist_2_joint",
        "wrist_3_joint"
    ],
    "metrics": {
        "cart_traj_len": 0.9376490153585771,
        "distance_elbow_joint": 0.3507186371564224,
        "distance_shoulder_lift_joint": 1.42240007504539,
        "distance_shoulder_pan_joint": 1.2174139423605919,
        "distance_wrist_1_joint": 0.5477550705934395,
        "distance_wrist_2_joint": 2.3322193740973995,
        "distance_wrist_3_joint": 0.6816095063977379,
        "smoothness": 1.1420488031371974,
        "time": 1.777809687,
        "traj_len": 2.5597102581446562,
        "weighted_distance": 3.285621716378393
    },
    "planner": "LBKPIECE",
    "start": {
        "state": {
            "elbow_joint": 2.4225747245308327,
            "shoulder_lift_joint": -1.373653427065438,
            "shoulder_pan_joint": -0.33786330853087027,
            "wrist_1_joint": -1.0288602302712604,
            "wrist_2_joint": 1.23302299562683,
            "wrist_3_joint": -3.094021725338297
        }
    },
    "waypoints": [
        {
            "positions": [
                -0.33786330853087027,
                -1.373653427065438,
                2.4225747245308327,
                -1.0288602302712604,
                1.23302299562683,
                -3.094021725338297
            ]
        },
        {
            "positions": [
                -0.34862278254358503,
                -1.4960837271864666,
                2.4429264181857446,
                -0.9761840205752278,
                1.3466398445427512,
                -3.1383341789706596
            ]
        },
        {
            "positions": [
                -0.35938225655629985,
                -1.6185140273074952,
                2.463278111840657,
                -0.9235078108791952,
                1.4602566934586725,
                -3.182646632603022
            ]
        },
        {
            "positions": [
                -0.3701417305690146,
                -1.740944327428524,
                2.4836298054955694,
                -0.8708316011831625,
                1.5738735423745938,
                -3.2269590862353845
            ]
        },
        {
            "positions": [
                -0.3809012045817294,
                -1.8633746275495526,
                2.5039814991504814,
                -0.8181553914871299,
                1.687490391290515,
                -3.2712715398677465
            ]
        },
        {
            "positions": [
                -0.3916606785944442,
                -1.9858049276705811,
                2.5243331928053934,
                -0.7654791817910973,
                1.8011072402064363,
                -3.315583993500109
            ]
        },
        {
            "positions": [
                -0.40242015260715897,
                -2.10823522779161,
                2.5446848864603058,
                -0.7128029720950646,
                1.9147240891223576,
                -3.3598964471324715
            ]
        },
        {
            "positions": [
                -0.41317962661987373,
                -2.2306655279126386,
                2.565036580115218,
                -0.660126762399032,
                2.028340938038279,
                -3.404208900764834
            ]
        },
        {
            "positions": [
                -0.42393910063258855,
                -2.353095828033667,
                2.58538827377013,
                -0.6074505527029994,
                2.1419577869542,
                -3.4485213543971964
            ]
        },
        {
            "positions": [
                -0.3108052856067012,
                -2.308800060625951,
                2.5665977649784177,
                -0.5948160134004815,
                1.9996293286771971,
                -3.4158103666633126
            ]
        },
        {
            "positions": [
                -0.1976714705808138,
                -2.264504293218235,
                2.5478072561867053,
                -0.5821814740979637,
                1.8573008704001943,
                -3.383099378929429
            ]
        },
        {
            "positions": [
                -0.08453765555492643,
                -2.220208525810519,
                2.5290167473949925,
                -0.5695469347954458,
                1.7149724121231913,
                -3.350388391195545
            ]
        },
        {
            "positions": [
                0.028596159470960947,
                -2.1759127584028026,
                2.51022623860328,
                -0.556912395492928,
                1.5726439538461885,
                -3.317677403461661
            ]
        },
        {
            "positions": [
                0.14172997449684832,
                -2.1316169909950866,
                2.4914357298115677,
                -0.5442778561904101,
                1.4303154955691855,
                -3.2849664157277774
            ]
        },
        {
            "positions": [
                0.2548637895227357,
                -2.0873212235873706,
                2.4726452210198553,
                -0.5316433168878923,
                1.2879870372921824,
                -3.252255427993893
            ]
        },
        {
            "positions": [
                0.36799760454862307,
                -2.0430254561796546,
                2.453854712228143,
                -0.5190087775853744,
                1.1456585790151796,
                -3.2195444402600093
            ]
        },
        {
            "positions": [
                0.48113141957451044,
                -1.9987296887719386,
                2.43506420343643,
                -0.5063742382828567,
                1.0033301207381766,
                -3.1868334525261255
            ]
        },
        {
            "positions": [
                0.5942652346003978,
                -1.9544339213642223,
                2.4162736946447176,
                -0.49373969898033876,
                0.8610016624611736,
                -3.1541224647922417
            ]
        },
        {
            "positions": [
                0.7073990496262851,
                -1.9101381539565063,
                2.3974831858530052,
                -0.4811051596778209,
                0.7186732041841707,
                -3.121411477058358
            ]
        }
    ]
}