{
    "goal": {
        "global_pose": {
            "orientation": {
                "w": -0.00223480608172531,
                "x": 0.0024358444001904467,
                "y": 0.7094548369677653,
                "z": -0.704743149386269
            },
            "position": {
                "x": 0.6205249238014221,
                "y": -0.6371506643295288,
                "z": 0.19426114857196808
            }
        },
        "name": "move_to_magneteinheit_B"
    },
    "id": "LBKPIECE_move_to_magneteinheit_B_44",
    "joint_names": [
        "shoulder_pan_joint",
        "shoulder_lift_joint",
        "elbow_joint",
        "wrist_1_joint",
        "wrist_2_joint",
        "wrist_3_joint"
    ],
    "metrics": {
        "cart_traj_len": 4.652464240000965,
        "distance_elbow_joint": 4.861863826658222,
        "distance_shoulder_lift_joint": 2.6068663789171787,
        "distance_shoulder_pan_joint": 3.2888758335100703,
        "distance_wrist_1_joint": 3.2396902845071813,
        "distance_wrist_2_joint": 2.3030792441125163,
        "distance_wrist_3_joint": 6.814740522707783,
        "smoothness": 0.6259427237735063,
        "time": 4.985766594,
        "traj_len": 4.807818225600147,
        "weighted_distance": 6.502873723550859
    },
    "planner": "LBKPIECE",
    "start": {
        "state": {
            "elbow_joint": 2.3935871308073637,
            "shoulder_lift_joint": -1.9085141043777403,
            "shoulder_pan_joint": 0.7066247067284167,
            "wrist_1_joint": -0.46782909355067076,
            "wrist_2_joint": 0.7096259085804283,
            "wrist_3_joint": -3.1358149275257428
        }
    },
    "waypoints": [
        {
            "positions": [
                0.7066247067284167,
                -1.9085141043777403,
                2.3935871308073637,
                -0.46782909355067076,
                0.7096259085804283,
                -3.1358149275257428
            ]
        },
        {
            "positions": [
                0.5737325842359786,
                -1.9227465112808968,
                2.357703430341785,
                -0.36104129472556773,
                0.69449692053511,
                -3.052182809620883
            ]
        },
        {
            "positions": [
                0.48653129997854666,
                -2.01244757223569,
                2.344009231405291,
                -0.3705235123425953,
                0.7084486496324238,
                -3.068631599589707
            ]
        },
        {
            "positions": [
                0.3993300157211147,
                -2.1021486331904824,
                2.330315032468797,
                -0.3800057299596228,
                0.7224003787297375,
                -3.0850803895585313
            ]
        },
        {
            "positions": [
                0.434494279033915,
                -2.090171406105052,
                2.209615462106886,
                -0.427754179398815,
                0.7142272054020619,
                -2.9238773821830786
            ]
        },
        {
            "positions": [
                0.46965854234671534,
                -2.0781941790196217,
                2.0889158917449744,
                -0.4755026288380072,
                0.7060540320743861,
                -2.7626743748076255
            ]
        },
        {
            "positions": [
                0.5048228056595156,
                -2.0662169519341913,
                1.9682163213830632,
                -0.5232510782771994,
                0.6978808587467105,
                -2.6014713674321728
            ]
        },
        {
            "positions": [
                0.539987068972316,
                -2.054239724848761,
                1.847516751021152,
                -0.5709995277163916,
                0.6897076854190347,
                -2.4402683600567197
            ]
        },
        {
            "positions": [
                0.5751513322851163,
                -2.0422624977633306,
                1.7268171806592407,
                -0.6187479771555838,
                0.6815345120913591,
                -2.279065352681267
            ]
        },
        {
            "positions": [
                0.6103155955979167,
                -2.0302852706779,
                1.6061176102973294,
                -0.6664964265947761,
                0.6733613387636833,
                -2.117862345305814
            ]
        },
        {
            "positions": [
                0.6454798589107169,
                -2.01830804359247,
                1.4854180399354182,
                -0.7142448760339684,
                0.6651881654360077,
                -1.9566593379303612
            ]
        },
        {
            "positions": [
                0.6806441222235173,
                -2.00633081650704,
                1.3647184695735068,
                -0.7619933254731606,
                0.6570149921083319,
                -1.7954563305549083
            ]
        },
        {
            "positions": [
                0.7158083855363176,
                -1.9943535894216093,
                1.2440188992115955,
                -0.8097417749123528,
                0.6488418187806563,
                -1.6342533231794552
            ]
        },
        {
            "positions": [
                0.750972648849118,
                -1.982376362336179,
                1.1233193288496843,
                -0.857490224351545,
                0.6406686454529805,
                -1.4730503158040025
            ]
        },
        {
            "positions": [
                0.7861369121619183,
                -1.9703991352507486,
                1.002619758487773,
                -0.9052386737907372,
                0.6324954721253049,
                -1.3118473084285496
            ]
        },
        {
            "positions": [
                0.8213011754747186,
                -1.9584219081653185,
                0.8819201881258616,
                -0.9529871232299294,
                0.6243222987976291,
                -1.1506443010530967
            ]
        },
        {
            "positions": [
                0.856465438787519,
                -1.946444681079888,
                0.7612206177639502,
                -1.0007355726691216,
                0.6161491254699535,
                -0.9894412936776438
            ]
        },
        {
            "positions": [
                0.8916297021003192,
                -1.9344674539944577,
                0.6405210474020391,
                -1.0484840221083138,
                0.6079759521422778,
                -0.8282382863021911
            ]
        },
        {
            "positions": [
                0.9267939654131196,
                -1.9224902269090274,
                0.5198214770401277,
                -1.096232471547506,
                0.5998027788146021,
                -0.667035278926738
            ]
        },
        {
            "positions": [
                0.9619582287259199,
                -1.910512999823597,
                0.39912190667821656,
                -1.1439809209866982,
                0.5916296054869263,
                -0.5058322715512853
            ]
        },
        {
            "positions": [
                0.9971224920387202,
                -1.8985357727381666,
                0.2784223363163054,
                -1.1917293704258904,
                0.5834564321592507,
                -0.3446292641758326
            ]
        },
        {
            "positions": [
                1.0322867553515205,
                -1.8865585456527363,
                0.15772276595439383,
                -1.2394778198650829,
                0.575283258831575,
                -0.18342625680037905
            ]
        },
        {
            "positions": [
                1.067451018664321,
                -1.874581318567306,
                0.03702319559248268,
                -1.2872262693042749,
                0.5671100855038993,
                -0.022223249424926372
            ]
        },
        {
            "positions": [
                1.1026152819771213,
                -1.8626040914818758,
                -0.08367637476942846,
                -1.334974718743467,
                0.5589369121762237,
                0.1389797579505263
            ]
        },
        {
            "positions": [
                1.1377795452899215,
                -1.8506268643964454,
                -0.2043759451313396,
                -1.3827231681826593,
                0.5507637388485479,
                0.300182765325979
            ]
        },
        {
            "positions": [
                1.1729438086027217,
                -1.838649637311015,
                -0.3250755154932512,
                -1.4304716176218517,
                0.5425905655208723,
                0.4613857727014321
            ]
        },
        {
            "positions": [
                1.2081080719155222,
                -1.8266724102255847,
                -0.44577508585516235,
                -1.4782200670610437,
                0.5344173921931965,
                0.6225887800768848
            ]
        },
        {
            "positions": [
                1.2432723352283226,
                -1.8146951831401543,
                -0.5664746562170739,
                -1.5259685165002361,
                0.5262442188655209,
                0.7837917874523379
            ]
        },
        {
            "positions": [
                1.2784365985411228,
                -1.802717956054724,
                -0.6871742265789851,
                -1.5737169659394281,
                0.5180710455378452,
                0.9449947948277901
            ]
        },
        {
            "positions": [
                1.3136008618539232,
                -1.7907407289692936,
                -0.8078737969408967,
                -1.6214654153786205,
                0.5098978722101695,
                1.1061978022032437
            ]
        },
        {
            "positions": [
                1.3487651251667234,
                -1.7787635018838635,
                -0.9285733673028078,
                -1.6692138648178125,
                0.5017246988824937,
                1.2674008095786964
            ]
        },
        {
            "positions": [
                1.3839293884795238,
                -1.766786274798433,
                -1.049272937664719,
                -1.716962314257005,
                0.49355152555481807,
                1.428603816954149
            ]
        },
        {
            "positions": [
                1.4190936517923243,
                -1.7548090477130027,
                -1.16997250802663,
                -1.764710763696197,
                0.4853783522271424,
                1.5898068243296017
            ]
        },
        {
            "positions": [
                1.4542579151051247,
                -1.7428318206275724,
                -1.2906720783885417,
                -1.8124592131353894,
                0.4772051788994667,
                1.7510098317050553
            ]
        },
        {
            "positions": [
                1.4894221784179247,
                -1.730854593542142,
                -1.4113716487504528,
                -1.8602076625745814,
                0.469032005571791,
                1.912212839080508
            ]
        },
        {
            "positions": [
                1.5182858897301976,
                -1.7270005012015275,
                -1.4848890045820857,
                -1.8938203126282889,
                0.4595338409574582,
                1.9931402285584368
            ]
        },
        {
            "positions": [
                1.5471496010424708,
                -1.723146408860913,
                -1.5584063604137188,
                -1.9274329626819964,
                0.45003567634312547,
                2.0740676180363655
            ]
        },
        {
            "positions": [
                1.6473576052779983,
                -1.6576463859039523,
                -1.577007524492042,
                -2.014169121046372,
                0.49326824868523167,
                2.1407089592030832
            ]
        },
        {
            "positions": [
                1.747565609513526,
                -1.5921463629469914,
                -1.5956086885703655,
                -2.1009052794107475,
                0.5365008210273379,
                2.207350300369801
            ]
        },
        {
            "positions": [
                1.8477736137490535,
                -1.5266463399900307,
                -1.6142098526486888,
                -2.187641437775123,
                0.579733393369444,
                2.2739916415365187
            ]
        },
        {
            "positions": [
                1.947981617984581,
                -1.46114631703307,
                -1.6328110167270122,
                -2.2743775961394985,
                0.6229659657115502,
                2.3406329827032364
            ]
        },
        {
            "positions": [
                2.0481896222201086,
                -1.3956462940761092,
                -1.6514121808053355,
                -2.361113754503874,
                0.6661985380536564,
                2.407274323869954
            ]
        },
        {
            "positions": [
                2.1483976264556364,
                -1.3301462711191485,
                -1.670013344883659,
                -2.4478499128682496,
                0.7094311103957626,
                2.473915665036672
            ]
        },
        {
            "positions": [
                2.2486056306911637,
                -1.2646462481621876,
                -1.6886145089619822,
                -2.534586071232625,
                0.7526636827378688,
                2.5405570062033895
            ]
        },
        {
            "positions": [
                2.3488136349266915,
                -1.1991462252052272,
                -1.7072156730403054,
                -2.6213222295970007,
                0.7958962550799749,
                2.6071983473701072
            ]
        },
        {
            "positions": [
                2.4490216391622193,
                -1.1336462022482663,
                -1.7258168371186289,
                -2.708058387961376,
                0.8391288274220812,
                2.673839688536825
            ]
        },
        {
            "positions": [
                2.5492296433977466,
                -1.0681461792913054,
                -1.7444180011969521,
                -2.7947945463257517,
                0.8823613997641873,
                2.7404810297035427
            ]
        },
        {
            "positions": [
                2.649437647633274,
                -1.002646156334345,
                -1.7630191652752756,
                -2.8815307046901273,
                0.9255939721062935,
                2.8071223708702604
            ]
        },
        {
            "positions": [
                2.7496456518688017,
                -0.9371461333773841,
                -1.7816203293535988,
                -2.968266863054503,
                0.9688265444483997,
                2.873763712036978
            ]
        },
        {
            "positions": [
                2.7096740124129672,
                -1.0318567201165485,
                -1.8126456314427977,
                -2.956766520503298,
                0.8072242634846847,
                2.929233355870722
            ]
        },
        {
            "positions": [
                2.6697023729571328,
                -1.126567306855713,
                -1.8436709335319967,
                -2.9452661779520923,
                0.6456219825209697,
                2.9847029997044663
            ]
        },
        {
            "positions": [
                2.6297307335012987,
                -1.2212778935948774,
                -1.8746962356211956,
                -2.9337658354008873,
                0.4840197015572546,
                3.040172643538211
            ]
        },
        {
            "positions": [
                2.5897590940454642,
                -1.315988480334042,
                -1.9057215377103944,
                -2.922265492849682,
                0.3224174205935396,
                3.095642287371955
            ]
        },
        {
            "positions": [
                2.5497874545896297,
                -1.4106990670732065,
                -1.9367468397995935,
                -2.910765150298477,
                0.1608151396298244,
                3.151111931205699
            ]
        },
        {
            "positions": [
                2.5098158151337953,
                -1.505409653812371,
                -1.9677721418887923,
                -2.8992648077472714,
                -0.000787141333890462,
                3.206581575039443
            ]
        },
        {
            "positions": [
                2.469844175677961,
                -1.6001202405515356,
                -1.9987974439779912,
                -2.8877644651960663,
                -0.16238942229760567,
                3.2620512188731876
            ]
        },
        {
            "positions": [
                2.4298725362221267,
                -1.6948308272907,
                -2.02982274606719,
                -2.876264122644861,
                -0.32399170326132043,
                3.3175208627069317
            ]
        },
        {
            "positions": [
                2.3899008967662922,
                -1.7895414140298644,
                -2.060848048156389,
                -2.864763780093656,
                -0.4855939842250356,
                3.372990506540676
            ]
        },
        {
            "positions": [
                2.4442050470168066,
                -1.8687082279576361,
                -1.9793623186174951,
                -2.7803290132151965,
                -0.4826998444835859,
                3.324962520787462
            ]
        },
        {
            "positions": [
                2.498509197267321,
                -1.9478750418854076,
                -1.8978765890786011,
                -2.6958942463367372,
                -0.4798057047421362,
                3.276934535034248
            ]
        },
        {
            "positions": [
                2.5528133475178354,
                -2.027041855813179,
                -1.8163908595397071,
                -2.6114594794582784,
                -0.47691156500068654,
                3.228906549281034
            ]
        },
        {
            "positions": [
                2.60711749776835,
                -2.106208669740951,
                -1.734905130000813,
                -2.527024712579819,
                -0.47401742525923685,
                3.18087856352782
            ]
        },
        {
            "positions": [
                2.661421648018864,
                -2.1853754836687225,
                -1.653419400461919,
                -2.44258994570136,
                -0.47112328551778715,
                3.132850577774606
            ]
        }
    ]
}