{
    "goal": {
        "global_pose": {
            "orientation": {
                "w": 0.7031023502349854,
                "x": -0.7110244035720825,
                "y": 0.007748599164187908,
                "z": 0.005598929710686207
            },
            "position": {
                "x": 0.11585023208521307,
                "y": 0.44412534475326537,
                "z": 0.3711530566215515
            }
        },
        "name": "move_to_auspresseinheit_A"
    },
    "id": "LBKPIECE_move_to_auspresseinheit_A_93",
    "joint_names": [
        "shoulder_pan_joint",
        "shoulder_lift_joint",
        "elbow_joint",
        "wrist_1_joint",
        "wrist_2_joint",
        "wrist_3_joint"
    ],
    "metrics": {
        "cart_traj_len": 0.7340996430610713,
        "distance_elbow_joint": 0.387116101395963,
        "distance_shoulder_lift_joint": 0.5323705300588,
        "distance_shoulder_pan_joint": 1.0401652465778073,
        "distance_wrist_1_joint": 1.0296533441830573,
        "distance_wrist_2_joint": 0.5370666258258048,
        "distance_wrist_3_joint": 0.36358401170785903,
        "smoothness": 0.8808550671080108,
        "time": 0.726072021,
        "traj_len": 1.972297102302108,
        "weighted_distance": 2.4867335710071297
    },
    "planner": "LBKPIECE",
    "start": {
        "state": {
            "elbow_joint": 2.4225747245308327,
            "shoulder_lift_joint": -1.373653427065438,
            "shoulder_pan_joint": -0.33786330853087027,
            "wrist_1_joint": -1.0288602302712604,
            "wrist_2_joint": 1.23302299562683,
            "wrist_3_joint": -3.094021725338297
        }
    },
    "waypoints": [
        {
            "positions": [
                -0.33786330853087027,
                -1.373653427065438,
                2.4225747245308327,
                -1.0288602302712604,
                1.23302299562683,
                -3.094021725338297
            ]
        },
        {
            "positions": [
                -0.27787105595914285,
                -1.4266603068111168,
                2.3926711313833677,
                -0.9147889223975642,
                1.1620513663749539,
                -3.0709050493391103
            ]
        },
        {
            "positions": [
                -0.2178788033874155,
                -1.4796671865567956,
                2.362767538235903,
                -0.8007176145238678,
                1.091079737123078,
                -3.0477883733399236
            ]
        },
        {
            "positions": [
                -0.15788655081568811,
                -1.5326740663024745,
                2.332863945088438,
                -0.6866463066501716,
                1.020108107871202,
                -3.024671697340737
            ]
        },
        {
            "positions": [
                -0.09789429824396073,
                -1.5856809460481534,
                2.3029603519409734,
                -0.5725749987764752,
                0.9491364786193262,
                -3.0015550213415496
            ]
        },
        {
            "positions": [
                -0.03790204567223332,
                -1.6386878257938322,
                2.2730567587935084,
                -0.458503690902779,
                0.8781648493674501,
                -2.978438345342363
            ]
        },
        {
            "positions": [
                0.022090206899494036,
                -1.691694705539511,
                2.2431531656460435,
                -0.34443238302908274,
                0.8071932201155743,
                -2.955321669343176
            ]
        },
        {
            "positions": [
                0.08208245947122145,
                -1.74470158528519,
                2.2132495724985786,
                -0.23036107515538645,
                0.7362215908636982,
                -2.9322049933439893
            ]
        },
        {
            "positions": [
                0.23713732911515034,
                -1.7850321782449519,
                2.257697309839506,
                -0.28814962242218234,
                0.72615528559803,
                -2.9826468132723774
            ]
        },
        {
            "positions": [
                0.39219219875907924,
                -1.825362771204714,
                2.3021450471804332,
                -0.3459381696889782,
                0.7160889803323617,
                -3.033088633200765
            ]
        },
        {
            "positions": [
                0.5472470684030082,
                -1.865693364164476,
                2.34659278452136,
                -0.4037267169557741,
                0.7060226750666934,
                -3.0835304531291525
            ]
        },
        {
            "positions": [
                0.7023019380469371,
                -1.9060239571242379,
                2.3910405218622874,
                -0.46151526422257,
                0.6959563698010252,
                -3.1339722730575406
            ]
        }
    ]
}