{
    "goal": {
        "global_pose": {
            "orientation": {
                "w": -0.00223480608172531,
                "x": 0.0024358444001904467,
                "y": 0.7094548369677653,
                "z": -0.704743149386269
            },
            "position": {
                "x": -0.37947507619857795,
                "y": -0.6371506643295288,
                "z": 0.19426114857196808
            }
        },
        "name": "move_to_magneteinheit_C"
    },
    "id": "LBKPIECE_move_to_magneteinheit_C_106",
    "joint_names": [
        "shoulder_pan_joint",
        "shoulder_lift_joint",
        "elbow_joint",
        "wrist_1_joint",
        "wrist_2_joint",
        "wrist_3_joint"
    ],
    "metrics": {
        "cart_traj_len": 6.029584195026784,
        "distance_elbow_joint": 0.05432774050111133,
        "distance_shoulder_lift_joint": 3.3240719384792143,
        "distance_shoulder_pan_joint": 9.472432205964171,
        "distance_wrist_1_joint": 5.334822356449432,
        "distance_wrist_2_joint": 1.8161665423430102,
        "distance_wrist_3_joint": 3.7982882846841677,
        "smoothness": 0.5697686102124324,
        "time": 3.976744425,
        "traj_len": 4.878535545470701,
        "weighted_distance": 6.208677358067649
    },
    "planner": "LBKPIECE",
    "start": {
        "state": {
            "elbow_joint": 1.9565354006590394,
            "shoulder_lift_joint": -1.4165861576513559,
            "shoulder_pan_joint": -1.6717766223277177,
            "wrist_1_joint": -0.5286633288215096,
            "wrist_2_joint": 1.4727565892594296,
            "wrist_3_joint": 3.1593482883155493
        }
    },
    "waypoints": [
        {
            "positions": [
                -1.6717766223277177,
                -1.4165861576513559,
                1.9565354006590394,
                -0.5286633288215096,
                1.4727565892594296,
                3.1593482883155493
            ]
        },
        {
            "positions": [
                -1.5272809496391098,
                -1.4677789635172296,
                1.9583010632481446,
                -0.44457935345194394,
                1.429253999248399,
                3.0954937719955207
            ]
        },
        {
            "positions": [
                -1.382785276950502,
                -1.518971769383103,
                1.9600667258372497,
                -0.3604953780823783,
                1.3857514092373684,
                3.0316392556754925
            ]
        },
        {
            "positions": [
                -1.2382896042618943,
                -1.5701645752489768,
                1.9618323884263549,
                -0.2764114027128126,
                1.3422488192263378,
                2.967784739355464
            ]
        },
        {
            "positions": [
                -1.0937939315732863,
                -1.6213573811148505,
                1.96359805101546,
                -0.19232742734324698,
                1.2987462292153071,
                2.9039302230354354
            ]
        },
        {
            "positions": [
                -0.9492982588846786,
                -1.6725501869807242,
                1.9653637136045652,
                -0.10824345197368135,
                1.2552436392042765,
                2.840075706715407
            ]
        },
        {
            "positions": [
                -0.8048025861960706,
                -1.723742992846598,
                1.9671293761936703,
                -0.02415947660411566,
                1.2117410491932459,
                2.7762211903953786
            ]
        },
        {
            "positions": [
                -0.6603069135074628,
                -1.7749357987124714,
                1.9688950387827755,
                0.05992449876544992,
                1.1682384591822155,
                2.71236667407535
            ]
        },
        {
            "positions": [
                -0.5158112408188549,
                -1.8261286045783451,
                1.9706607013718804,
                0.1440084741350156,
                1.1247358691711846,
                2.648512157755322
            ]
        },
        {
            "positions": [
                -0.37131556813024713,
                -1.8773214104442189,
                1.9724263639609856,
                0.22809244950458119,
                1.0812332791601542,
                2.5846576414352933
            ]
        },
        {
            "positions": [
                -0.22681989544163939,
                -1.9285142163100923,
                1.9741920265500907,
                0.3121764248741469,
                1.0377306891491236,
                2.5208031251152647
            ]
        },
        {
            "positions": [
                -0.08232422275303142,
                -1.9797070221759663,
                1.975957689139196,
                0.39626040024371245,
                0.994228099138093,
                2.4569486087952366
            ]
        },
        {
            "positions": [
                0.06217144993557655,
                -2.0308998280418398,
                1.977723351728301,
                0.48034437561327825,
                0.9507255091270622,
                2.393094092475208
            ]
        },
        {
            "positions": [
                0.2066671226241843,
                -2.0820926339077133,
                1.9794890143174062,
                0.5644283509828439,
                0.9072229191160317,
                2.3292395761551794
            ]
        },
        {
            "positions": [
                0.35116279531279204,
                -2.133285439773587,
                1.9812546769065114,
                0.6485123263524094,
                0.8637203291050011,
                2.2653850598351513
            ]
        },
        {
            "positions": [
                0.4956584680014,
                -2.1844782456394607,
                1.9830203394956165,
                0.7325963017219751,
                0.8202177390939704,
                2.2015305435151227
            ]
        },
        {
            "positions": [
                0.640154140690008,
                -2.235671051505334,
                1.9847860020847217,
                0.8166802770915408,
                0.7767151490829398,
                2.137676027195094
            ]
        },
        {
            "positions": [
                0.7846498133786155,
                -2.286863857371208,
                1.9865516646738268,
                0.9007642524611063,
                0.7332125590719092,
                2.0738215108750655
            ]
        },
        {
            "positions": [
                0.9291454860672235,
                -2.3380566632370816,
                1.988317327262932,
                0.9848482278306719,
                0.6897099690608787,
                2.0099669945550374
            ]
        },
        {
            "positions": [
                1.0736411587558314,
                -2.3892494691029555,
                1.9900829898520371,
                1.0689322032002377,
                0.646207379049848,
                1.946112478235009
            ]
        },
        {
            "positions": [
                1.218136831444439,
                -2.440442274968829,
                1.9918486524411423,
                1.1530161785698034,
                0.6027047890388174,
                1.8822579619149806
            ]
        },
        {
            "positions": [
                1.362632504133047,
                -2.491635080834703,
                1.9936143150302474,
                1.2371001539393687,
                0.5592021990277868,
                1.818403445594952
            ]
        },
        {
            "positions": [
                1.507128176821655,
                -2.5428278867005765,
                1.9953799776193526,
                1.3211841293089344,
                0.5156996090167563,
                1.7545489292749237
            ]
        },
        {
            "positions": [
                1.6516238495102629,
                -2.59402069256645,
                1.9971456402084575,
                1.4052681046785005,
                0.4721970190057254,
                1.690694412954895
            ]
        },
        {
            "positions": [
                1.7961195221988708,
                -2.645213498432324,
                1.9989113027975627,
                1.4893520800480662,
                0.4286944289946948,
                1.6268398966348667
            ]
        },
        {
            "positions": [
                1.9406151948874788,
                -2.6964063042981974,
                2.000676965386668,
                1.5734360554176319,
                0.38519183898366416,
                1.5629853803148381
            ]
        },
        {
            "positions": [
                2.0851108675760863,
                -2.747599110164071,
                2.002442627975773,
                1.6575200307871976,
                0.34168924897263375,
                1.4991308639948098
            ]
        },
        {
            "positions": [
                2.2296065402646943,
                -2.798791916029945,
                2.004208290564878,
                1.7416040061567628,
                0.2981866589616031,
                1.4352763476747814
            ]
        },
        {
            "positions": [
                2.374102212953302,
                -2.8499847218958188,
                2.0059739531539833,
                1.8256879815263285,
                0.2546840689505725,
                1.371421831354753
            ]
        },
        {
            "positions": [
                2.51859788564191,
                -2.901177527761692,
                2.0077396157430885,
                1.9097719568958942,
                0.21118147893954187,
                1.3075673150347245
            ]
        },
        {
            "positions": [
                2.6630935583305178,
                -2.9523703336275657,
                2.0095052783321936,
                1.9938559322654599,
                0.16767888892851124,
                1.243712798714696
            ]
        },
        {
            "positions": [
                2.4973657510625844,
                -2.89468363161134,
                2.009461476305485,
                1.9031364775763482,
                0.18416562576761097,
                1.3044435340399643
            ]
        },
        {
            "positions": [
                2.331637943794651,
                -2.836996929595114,
                2.009417674278777,
                1.8124170228872365,
                0.2006523626067107,
                1.3651742693652325
            ]
        },
        {
            "positions": [
                2.1659101365267173,
                -2.779310227578888,
                2.009373872252069,
                1.7216975681981248,
                0.21713909944581047,
                1.4259050046905006
            ]
        },
        {
            "positions": [
                2.000182329258784,
                -2.721623525562662,
                2.0093300702253605,
                1.630978113509013,
                0.2336258362849102,
                1.4866357400157688
            ]
        },
        {
            "positions": [
                1.8344545219908504,
                -2.663936823546436,
                2.009286268198652,
                1.5402586588199012,
                0.2501125731240099,
                1.547366475341037
            ]
        },
        {
            "positions": [
                1.6687267147229168,
                -2.60625012153021,
                2.0092424661719437,
                1.4495392041307895,
                0.2665993099631097,
                1.6080972106663054
            ]
        },
        {
            "positions": [
                1.5029989074549834,
                -2.548563419513984,
                2.0091986641452357,
                1.3588197494416776,
                0.28308604680220945,
                1.6688279459915736
            ]
        },
        {
            "positions": [
                1.33727110018705,
                -2.490876717497758,
                2.0091548621185273,
                1.268100294752566,
                0.2995727836413092,
                1.7295586813168418
            ]
        },
        {
            "positions": [
                1.1715432929191163,
                -2.4331900154815322,
                2.009111060091819,
                1.1773808400634542,
                0.316059520480409,
                1.7902894166421102
            ]
        },
        {
            "positions": [
                1.005815485651183,
                -2.3755033134653063,
                2.0090672580651106,
                1.0866613853743425,
                0.33254625731950865,
                1.8510201519673781
            ]
        },
        {
            "positions": [
                0.8400876783832494,
                -2.3178166114490804,
                2.009023456038402,
                0.9959419306852307,
                0.34903299415860845,
                1.9117508872926465
            ]
        },
        {
            "positions": [
                0.674359871115316,
                -2.2601299094328544,
                2.008979654011694,
                0.9052224759961192,
                0.3655197309977082,
                1.9724816226179147
            ]
        },
        {
            "positions": [
                0.5086320638473825,
                -2.2024432074166285,
                2.008935851984986,
                0.8145030213070072,
                0.3820064678368079,
                2.033212357943183
            ]
        },
        {
            "positions": [
                0.3429042565794491,
                -2.1447565054004025,
                2.0088920499582774,
                0.7237835666178956,
                0.39849320467590765,
                2.093943093268451
            ]
        },
        {
            "positions": [
                0.17717644931151533,
                -2.0870698033841766,
                2.008848247931569,
                0.6330641119287839,
                0.4149799415150074,
                2.1546738285937193
            ]
        },
        {
            "positions": [
                0.011448642043582424,
                -2.0293831013679506,
                2.008804445904861,
                0.5423446572396722,
                0.4314666783541071,
                2.2154045639189874
            ]
        },
        {
            "positions": [
                -0.15427916522435092,
                -1.971696399351725,
                2.0087606438781527,
                0.4516252025505605,
                0.44795341519320686,
                2.2761352992442556
            ]
        },
        {
            "positions": [
                -0.32000697249228516,
                -1.9140096973354987,
                2.0087168418514443,
                0.3609057478614486,
                0.46444015203230665,
                2.336866034569524
            ]
        },
        {
            "positions": [
                -0.4857347797602185,
                -1.856322995319273,
                2.008673039824736,
                0.2701862931723369,
                0.4809268888714064,
                2.3975967698947924
            ]
        },
        {
            "positions": [
                -0.6514625870281519,
                -1.798636293303047,
                2.008629237798028,
                0.1794668384832252,
                0.49741362571050607,
                2.45832750522006
            ]
        },
        {
            "positions": [
                -0.8171903942960852,
                -1.7409495912868211,
                2.0085854357713195,
                0.08874738379411373,
                0.5139003625496058,
                2.5190582405453283
            ]
        },
        {
            "positions": [
                -0.982918201564019,
                -1.683262889270595,
                2.008541633744611,
                -0.001972070894998401,
                0.5303870993887057,
                2.5797889758705965
            ]
        },
        {
            "positions": [
                -1.1486460088319523,
                -1.6255761872543693,
                2.0084978317179027,
                -0.09269152558410987,
                0.5468738362278054,
                2.640519711195865
            ]
        },
        {
            "positions": [
                -1.3143738160998857,
                -1.5678894852381433,
                2.0084540296911944,
                -0.18341098027322156,
                0.5633605730669051,
                2.701250446521133
            ]
        },
        {
            "positions": [
                -1.480101623367819,
                -1.5102027832219174,
                2.0084102276644864,
                -0.27413043496233325,
                0.5798473099060049,
                2.7619811818464015
            ]
        },
        {
            "positions": [
                -1.6458294306357528,
                -1.4525160812056914,
                2.008366425637778,
                -0.3648498896514454,
                0.5963340467451046,
                2.8227119171716697
            ]
        },
        {
            "positions": [
                -1.8115572379036857,
                -1.3948293791894655,
                2.0083226236110696,
                -0.45556934434055707,
                0.6128207835842043,
                2.883442652496938
            ]
        },
        {
            "positions": [
                -1.9772850451716195,
                -1.3371426771732395,
                2.008278821584361,
                -0.5462887990296688,
                0.6293075204233041,
                2.9441733878222056
            ]
        },
        {
            "positions": [
                -2.1430128524395524,
                -1.2794559751570136,
                2.0082350195576533,
                -0.63700825371878,
                0.6457942572624038,
                3.0049041231474742
            ]
        },
        {
            "positions": [
                -2.308740659707487,
                -1.2217692731407876,
                2.008191217530945,
                -0.7277277084078921,
                0.6622809941015035,
                3.0656348584727424
            ]
        },
        {
            "positions": [
                -2.4744684669754204,
                -1.1640825711245617,
                2.0081474155042365,
                -0.8184471630970036,
                0.6787677309406033,
                3.1263655937980106
            ]
        }
    ]
}