{
    "goal": {
        "global_pose": {
            "orientation": {
                "w": -0.4816463035849501,
                "x": 0.5182115481033762,
                "y": 0.4908360881923453,
                "z": -0.5084816262002911
            },
            "position": {
                "x": -0.8240239810943604,
                "y": 0.19912469901144506,
                "z": 0.16403168439865112
            }
        },
        "name": "move_to_storage_D"
    },
    "id": "LBKPIECE_move_to_storage_D_38",
    "joint_names": [
        "shoulder_pan_joint",
        "shoulder_lift_joint",
        "elbow_joint",
        "wrist_1_joint",
        "wrist_2_joint",
        "wrist_3_joint"
    ],
    "metrics": {
        "cart_traj_len": 3.7623455410513866,
        "distance_elbow_joint": 4.208175529588646,
        "distance_shoulder_lift_joint": 1.2656436250829814,
        "distance_shoulder_pan_joint": 2.811141492038583,
        "distance_wrist_1_joint": 2.2647780025700266,
        "distance_wrist_2_joint": 0.949642438998494,
        "distance_wrist_3_joint": 3.1417489528394693,
        "smoothness": 0.018691503185158116,
        "time": 3.31257057,
        "traj_len": 3.8263729615810065,
        "weighted_distance": 4.9131505562485716
    },
    "planner": "LBKPIECE",
    "start": {
        "state": {
            "elbow_joint": -2.384821997420982,
            "shoulder_lift_joint": -2.2788054674887404,
            "shoulder_pan_joint": -0.18546946417610016,
            "wrist_1_joint": 1.4845937964226739,
            "wrist_2_joint": 0.1789877726866377,
            "wrist_3_joint": 0.03710572555276528
        }
    },
    "waypoints": [
        {
            "positions": [
                -0.18546946417610016,
                -2.2788054674887404,
                -2.384821997420982,
                1.4845937964226739,
                0.1789877726866377,
                0.03710572555276528
            ]
        },
        {
            "positions": [
                -0.14695441610400545,
                -2.2503511563287923,
                -2.3632401802381997,
                1.4628186242279835,
                0.19161156205411112,
                0.059370224889199394
            ]
        },
        {
            "positions": [
                -0.06710478139157379,
                -2.223535684757774,
                -2.2473369292922833,
                1.407517446840605,
                0.21875442550127655,
                0.14426523006816036
            ]
        },
        {
            "positions": [
                0.012744853320857868,
                -2.1967202131867563,
                -2.1314336783463665,
                1.3522162694532265,
                0.245897288948442,
                0.2291602352471213
            ]
        },
        {
            "positions": [
                0.09259448803328954,
                -2.169904741615738,
                -2.01553042740045,
                1.296915092065848,
                0.27304015239560747,
                0.3140552404260823
            ]
        },
        {
            "positions": [
                0.17244412274572118,
                -2.1430892700447197,
                -1.8996271764545338,
                1.2416139146784697,
                0.3001830158427729,
                0.3989502456050433
            ]
        },
        {
            "positions": [
                0.25229375745815286,
                -2.116273798473702,
                -1.7837239255086172,
                1.186312737291091,
                0.3273258792899384,
                0.4838452507840042
            ]
        },
        {
            "positions": [
                0.33214339217058453,
                -2.0894583269026836,
                -1.6678206745627007,
                1.1310115599037127,
                0.3544687427371038,
                0.5687402559629652
            ]
        },
        {
            "positions": [
                0.41199302688301626,
                -2.0626428553316654,
                -1.5519174236167843,
                1.075710382516334,
                0.38161160618426926,
                0.6536352611419262
            ]
        },
        {
            "positions": [
                0.4918426615954478,
                -2.0358273837606475,
                -1.436014172670868,
                1.0204092051289557,
                0.4087544696314347,
                0.7385302663208871
            ]
        },
        {
            "positions": [
                0.5716922963078794,
                -2.0090119121896293,
                -1.3201109217249514,
                0.9651080277415773,
                0.4358973330786001,
                0.823425271499848
            ]
        },
        {
            "positions": [
                0.6515419310203112,
                -1.9821964406186112,
                -1.2042076707790348,
                0.9098068503541988,
                0.4630401965257656,
                0.908320276678809
            ]
        },
        {
            "positions": [
                0.7313915657327428,
                -1.9553809690475932,
                -1.0883044198331184,
                0.8545056729668205,
                0.490183059972931,
                0.99321528185777
            ]
        },
        {
            "positions": [
                0.8112412004451746,
                -1.928565497476575,
                -0.9724011688872018,
                0.799204495579442,
                0.5173259234200964,
                1.078110287036731
            ]
        },
        {
            "positions": [
                0.8910908351576061,
                -1.9017500259055569,
                -0.8564979179412855,
                0.7439033181920636,
                0.544468786867262,
                1.163005292215692
            ]
        },
        {
            "positions": [
                0.9709404698700379,
                -1.8749345543345388,
                -0.7405946669953689,
                0.688602140804685,
                0.5716116503144274,
                1.247900297394653
            ]
        },
        {
            "positions": [
                1.0507901045824695,
                -1.8481190827635205,
                -0.6246914160494526,
                0.6333009634173066,
                0.5987545137615928,
                1.3327953025736137
            ]
        },
        {
            "positions": [
                1.130639739294901,
                -1.8213036111925025,
                -0.508788165103536,
                0.5779997860299281,
                0.6258973772087583,
                1.4176903077525749
            ]
        },
        {
            "positions": [
                1.2104893740073328,
                -1.7944881396214845,
                -0.3928849141576196,
                0.5226986086425497,
                0.6530402406559237,
                1.5025853129315356
            ]
        },
        {
            "positions": [
                1.2903390087197644,
                -1.7676726680504664,
                -0.27698166321170303,
                0.4673974312551713,
                0.6801831041030891,
                1.5874803181104966
            ]
        },
        {
            "positions": [
                1.3701886434321962,
                -1.7408571964794481,
                -0.16107841226578623,
                0.4120962538677926,
                0.7073259675502547,
                1.6723753232894578
            ]
        },
        {
            "positions": [
                1.4500382781446277,
                -1.71404172490843,
                -0.04517516131986987,
                0.3567950764804142,
                0.7344688309974201,
                1.7572703284684186
            ]
        },
        {
            "positions": [
                1.5298879128570593,
                -1.6872262533374118,
                0.07072808962604649,
                0.3014938990930358,
                0.7616116944445854,
                1.8421653336473796
            ]
        },
        {
            "positions": [
                1.609737547569491,
                -1.660410781766394,
                0.18663134057196284,
                0.24619272170565742,
                0.7887545578917509,
                1.9270603388263405
            ]
        },
        {
            "positions": [
                1.6895871822819228,
                -1.6335953101953757,
                0.30253459151787965,
                0.19089154431827882,
                0.8158974213389164,
                2.0119553440053015
            ]
        },
        {
            "positions": [
                1.7694368169943544,
                -1.6067798386243575,
                0.418437842463796,
                0.13559036693090043,
                0.8430402847860818,
                2.0968503491842623
            ]
        },
        {
            "positions": [
                1.849286451706786,
                -1.5799643670533396,
                0.5343410934097124,
                0.08028918954352204,
                0.8701831482332473,
                2.181745354363223
            ]
        },
        {
            "positions": [
                1.9291360864192177,
                -1.5531488954823214,
                0.6502443443556287,
                0.024988012156143657,
                0.8973260116804127,
                2.2666403595421842
            ]
        },
        {
            "positions": [
                2.0089857211316495,
                -1.5263334239113031,
                0.7661475953015455,
                -0.03031316523123495,
                0.9244688751275782,
                2.3515353647211454
            ]
        },
        {
            "positions": [
                2.0888353558440813,
                -1.4995179523402853,
                0.8820508462474619,
                -0.08561434261861356,
                0.9516117385747437,
                2.436430369900106
            ]
        },
        {
            "positions": [
                2.1686849905565126,
                -1.472702480769267,
                0.9979540971933782,
                -0.14091552000599195,
                0.978754602021909,
                2.521325375079067
            ]
        },
        {
            "positions": [
                2.2485346252689444,
                -1.445887009198249,
                1.1138573481392946,
                -0.19621669739337033,
                1.0058974654690744,
                2.6062203802580277
            ]
        },
        {
            "positions": [
                2.328384259981376,
                -1.419071537627231,
                1.2297605990852114,
                -0.25151787478074894,
                1.03304032891624,
                2.691115385436989
            ]
        },
        {
            "positions": [
                2.4082338946938076,
                -1.3922560660562127,
                1.3456638500311278,
                -0.3068190521681273,
                1.0601831923634055,
                2.77601039061595
            ]
        },
        {
            "positions": [
                2.4880835294062393,
                -1.3654405944851946,
                1.4615671009770441,
                -0.3621202295555056,
                1.0873260558105708,
                2.860905395794911
            ]
        },
        {
            "positions": [
                2.515601229097488,
                -1.2949848440693075,
                1.5339243872151678,
                -0.445733024873875,
                1.0790652246356587,
                2.9244952523143755
            ]
        },
        {
            "positions": [
                2.543118928788737,
                -1.2245290936534203,
                1.6062816734532916,
                -0.5293458201922444,
                1.0708043934607465,
                2.9880851088338405
            ]
        },
        {
            "positions": [
                2.5706366284799853,
                -1.1540733432375332,
                1.6786389596914153,
                -0.6129586155106138,
                1.0625435622858344,
                3.051674965353305
            ]
        },
        {
            "positions": [
                2.5981543281712343,
                -1.083617592821646,
                1.7509962459295392,
                -0.6965714108289832,
                1.0542827311109222,
                3.11526482187277
            ]
        },
        {
            "positions": [
                2.6256720278624828,
                -1.013161842405759,
                1.8233535321676628,
                -0.7801842061473526,
                1.04602189993601,
                3.1788546783922347
            ]
        }
    ]
}