{
    "goal": {
        "global_pose": {
            "orientation": {
                "w": 0.7047431493862688,
                "x": -0.7094548369677653,
                "y": 0.0024358444001904,
                "z": -0.0022348060817251984
            },
            "position": {
                "x": -0.39052492380142206,
                "y": 0.3671506643295288,
                "z": 0.19426114857196808
            }
        },
        "name": "move_to_magneteinheit_D"
    },
    "id": "LBKPIECE_move_to_magneteinheit_D_26",
    "joint_names": [
        "shoulder_pan_joint",
        "shoulder_lift_joint",
        "elbow_joint",
        "wrist_1_joint",
        "wrist_2_joint",
        "wrist_3_joint"
    ],
    "metrics": {
        "cart_traj_len": 5.37285172393971,
        "distance_elbow_joint": 3.1642340837040037,
        "distance_shoulder_lift_joint": 1.628567898374441,
        "distance_shoulder_pan_joint": 4.785125273158983,
        "distance_wrist_1_joint": 1.533246525927136,
        "distance_wrist_2_joint": 1.7781104558206369,
        "distance_wrist_3_joint": 5.546396952951363,
        "smoothness": 0.5812646142287459,
        "time": 1.473054795,
        "traj_len": 4.293679213674045,
        "weighted_distance": 5.730604861407482
    },
    "planner": "LBKPIECE",
    "start": {
        "state": {
            "elbow_joint": 0.7495348899011973,
            "shoulder_lift_joint": -0.6476975780737697,
            "shoulder_pan_joint": -2.711696901376276,
            "wrist_1_joint": -0.07506478080974305,
            "wrist_2_joint": 0.4329665971545858,
            "wrist_3_joint": 3.1361499051832524
        }
    },
    "waypoints": [
        {
            "positions": [
                -2.711696901376276,
                -0.6476975780737697,
                0.7495348899011973,
                -0.07506478080974305,
                0.4329665971545858,
                3.1361499051832524
            ]
        },
        {
            "positions": [
                -2.788377251926905,
                -0.699371835090265,
                0.6031471310815363,
                -0.054993160537709154,
                0.36527337377888414,
                3.169437992601323
            ]
        },
        {
            "positions": [
                -2.7226879716341488,
                -0.7207662940185295,
                0.4536385764290538,
                -0.04788100885842883,
                0.39550762435433356,
                3.091890784507036
            ]
        },
        {
            "positions": [
                -2.6569986913413928,
                -0.7421607529467942,
                0.3041300217765713,
                -0.0407688571791485,
                0.425741874929783,
                3.014343576412749
            ]
        },
        {
            "positions": [
                -2.539519840005899,
                -0.7763680808391691,
                0.24342818679324804,
                -0.026056627507492266,
                0.44913712492040764,
                2.8759042219420614
            ]
        },
        {
            "positions": [
                -2.422040988670405,
                -0.810575408731544,
                0.1827263518099248,
                -0.011344397835836031,
                0.4725323749110322,
                2.737464867471374
            ]
        },
        {
            "positions": [
                -2.304562137334911,
                -0.8447827366239189,
                0.12202451682660154,
                0.0033678318358202064,
                0.49592762490165687,
                2.599025513000686
            ]
        },
        {
            "positions": [
                -2.1870832859994174,
                -0.8789900645162938,
                0.0613226818432783,
                0.018080061507476437,
                0.5193228748922815,
                2.4605861585299986
            ]
        },
        {
            "positions": [
                -2.0696044346639235,
                -0.9131973924086687,
                0.0006208468599550598,
                0.032792291179132675,
                0.5427181248829062,
                2.322146804059311
            ]
        },
        {
            "positions": [
                -1.9521255833284292,
                -0.9474047203010436,
                -0.060080988123368206,
                0.04750452085078891,
                0.5661133748735308,
                2.1837074495886233
            ]
        },
        {
            "positions": [
                -1.8346467319929354,
                -0.9816120481934185,
                -0.12078282310669142,
                0.06221675052244515,
                0.5895086248641553,
                2.045268095117936
            ]
        },
        {
            "positions": [
                -1.7171678806574415,
                -1.0158193760857934,
                -0.18148465809001468,
                0.07692898019410138,
                0.61290387485478,
                1.9068287406472484
            ]
        },
        {
            "positions": [
                -1.5996890293219477,
                -1.0500267039781683,
                -0.2421864930733379,
                0.0916412098657576,
                0.6362991248454046,
                1.7683893861765607
            ]
        },
        {
            "positions": [
                -1.4822101779864538,
                -1.084234031870543,
                -0.30288832805666116,
                0.10635343953741386,
                0.6596943748360292,
                1.6299500317058733
            ]
        },
        {
            "positions": [
                -1.3647313266509598,
                -1.118441359762918,
                -0.3635901630399843,
                0.12106566920907008,
                0.6830896248266538,
                1.4915106772351858
            ]
        },
        {
            "positions": [
                -1.2472524753154657,
                -1.152648687655293,
                -0.4242919980233077,
                0.13577789888072633,
                0.7064848748172785,
                1.353071322764498
            ]
        },
        {
            "positions": [
                -1.1297736239799718,
                -1.186856015547668,
                -0.48499383300663096,
                0.15049012855238256,
                0.7298801248079032,
                1.2146319682938105
            ]
        },
        {
            "positions": [
                -1.012294772644478,
                -1.2210633434400426,
                -0.5456956679899541,
                0.1652023582240388,
                0.7532753747985277,
                1.0761926138231228
            ]
        },
        {
            "positions": [
                -0.8948159213089841,
                -1.2552706713324175,
                -0.6063975029732773,
                0.17991458789569503,
                0.7766706247891524,
                0.9377532593524354
            ]
        },
        {
            "positions": [
                -0.7773370699734903,
                -1.2894779992247924,
                -0.6670993379566006,
                0.19462681756735126,
                0.8000658747797771,
                0.7993139048817479
            ]
        },
        {
            "positions": [
                -0.6598582186379964,
                -1.3236853271171674,
                -0.7278011729399239,
                0.2093390472390075,
                0.8234611247704016,
                0.6608745504110605
            ]
        },
        {
            "positions": [
                -0.5423793673025026,
                -1.3578926550095423,
                -0.7885030079232471,
                0.2240512769106637,
                0.8468563747610263,
                0.5224351959403726
            ]
        },
        {
            "positions": [
                -0.42490051596700873,
                -1.3920999829019172,
                -0.8492048429065704,
                0.23876350658231996,
                0.8702516247516509,
                0.38399584146968513
            ]
        },
        {
            "positions": [
                -0.3074216646315149,
                -1.426307310794292,
                -0.9099066778898937,
                0.2534757362539762,
                0.8936468747422754,
                0.24555648699899768
            ]
        },
        {
            "positions": [
                -0.18994281329602103,
                -1.460514638686667,
                -0.9706085128732169,
                0.2681879659256324,
                0.9170421247329001,
                0.10711713252831023
            ]
        },
        {
            "positions": [
                -0.07246396196052673,
                -1.4947219665790419,
                -1.03131034785654,
                0.28290019559728863,
                0.9404373747235247,
                -0.031322221942377215
            ]
        },
        {
            "positions": [
                0.045014889374967115,
                -1.5289292944714168,
                -1.0920121828398635,
                0.29761242526894494,
                0.9638326247141494,
                -0.16976157641306555
            ]
        },
        {
            "positions": [
                0.1624937407104614,
                -1.5631366223637917,
                -1.1527140178231867,
                0.31232465494060113,
                0.987227874704774,
                -0.308200930883753
            ]
        },
        {
            "positions": [
                0.27997259204595526,
                -1.5973439502561666,
                -1.21341585280651,
                0.3270368846122574,
                1.0106231246953987,
                -0.44664028535444045
            ]
        },
        {
            "positions": [
                0.3974514433814491,
                -1.6315512781485415,
                -1.2741176877898333,
                0.3417491142839136,
                1.0340183746860232,
                -0.5850796398251279
            ]
        },
        {
            "positions": [
                0.514930294716943,
                -1.6657586060409164,
                -1.3348195227731563,
                0.35646134395556983,
                1.057413624676648,
                -0.7235189942958153
            ]
        },
        {
            "positions": [
                0.6324091460524368,
                -1.6999659339332913,
                -1.3955213577564796,
                0.3711735736272261,
                1.0808088746672726,
                -0.8619583487665032
            ]
        },
        {
            "positions": [
                0.7498879973879307,
                -1.7341732618256662,
                -1.4562231927398028,
                0.3858858032988823,
                1.104204124657897,
                -1.0003977032371907
            ]
        },
        {
            "positions": [
                0.8673668487234245,
                -1.7683805897180411,
                -1.516925027723126,
                0.40059803297053853,
                1.1275993746485218,
                -1.1388370577078777
            ]
        },
        {
            "positions": [
                0.8025924004695012,
                -1.7988233250539458,
                -1.580280756526858,
                0.46627454438455773,
                1.0599189258473483,
                -1.0535008302878444
            ]
        },
        {
            "positions": [
                0.7378179522155778,
                -1.8292660603898503,
                -1.64363648533059,
                0.5319510557985769,
                0.9922384770461748,
                -0.9681646028678113
            ]
        },
        {
            "positions": [
                0.6730435039616545,
                -1.859708795725755,
                -1.706992214134322,
                0.5976275672125961,
                0.9245580282450014,
                -0.8828283754477779
            ]
        },
        {
            "positions": [
                0.608269055707731,
                -1.8901515310616595,
                -1.770347942938054,
                0.6633040786266153,
                0.8568775794438279,
                -0.7974921480277448
            ]
        },
        {
            "positions": [
                0.5434946074538077,
                -1.9205942663975641,
                -1.8337036717417858,
                0.7289805900406346,
                0.7891971306426544,
                -0.7121559206077115
            ]
        },
        {
            "positions": [
                0.47872015919988437,
                -1.9510370017334686,
                -1.8970594005455177,
                0.7946571014546537,
                0.721516681841481,
                -0.6268196931876783
            ]
        },
        {
            "positions": [
                0.413945710945961,
                -1.9814797370693733,
                -1.9604151293492498,
                0.860333612868673,
                0.6538362330403075,
                -0.5414834657676451
            ]
        },
        {
            "positions": [
                0.3491712626920377,
                -2.0119224724052778,
                -2.023770858152982,
                0.9260101242826922,
                0.5861557842391341,
                -0.45614723834761184
            ]
        },
        {
            "positions": [
                0.28439681443811426,
                -2.0423652077411827,
                -2.087126586956714,
                0.9916866356967116,
                0.5184753354379604,
                -0.3708110109275785
            ]
        },
        {
            "positions": [
                0.21962236618419095,
                -2.072807943077087,
                -2.1504823157604456,
                1.0573631471107308,
                0.450794886636787,
                -0.2854747835075453
            ]
        },
        {
            "positions": [
                0.15484791793026753,
                -2.1032506784129916,
                -2.2138380445641777,
                1.1230396585247497,
                0.3831144378356136,
                -0.2001385560875122
            ]
        },
        {
            "positions": [
                0.09007346967634422,
                -2.133693413748896,
                -2.2771937733679097,
                1.1887161699387692,
                0.3154339890344402,
                -0.11480232866747886
            ]
        },
        {
            "positions": [
                0.025299021422420798,
                -2.164136149084801,
                -2.3405495021716414,
                1.2543926813527884,
                0.24775354023326657,
                -0.02946610124744553
            ]
        },
        {
            "positions": [
                -0.03947542683150256,
                -2.1945788844207055,
                -2.4039052309753735,
                1.3200691927668076,
                0.18007309143209319,
                0.05587012617258752
            ]
        },
        {
            "positions": [
                -0.18533397323459747,
                -2.2762654764482106,
                -2.3931112681479405,
                1.4581817451173928,
                0.17950814307322396,
                0.06599675751621745
            ]
        }
    ]
}