{
    "goal": {
        "global_pose": {
            "orientation": {
                "w": 0.005598929693374612,
                "x": 0.007748599140229565,
                "y": 0.7110244013736278,
                "z": -0.7031023480610252
            },
            "position": {
                "x": -0.8858502320852131,
                "y": -0.7141253447532654,
                "z": 0.3711530566215515
            }
        },
        "name": "move_to_auspresseinheit_C"
    },
    "id": "LBKPIECE_move_to_auspresseinheit_C_130",
    "joint_names": [
        "shoulder_pan_joint",
        "shoulder_lift_joint",
        "elbow_joint",
        "wrist_1_joint",
        "wrist_2_joint",
        "wrist_3_joint"
    ],
    "metrics": {
        "cart_traj_len": 0.49224835450177923,
        "distance_elbow_joint": 0.9875074241159523,
        "distance_shoulder_lift_joint": 0.31856498061598804,
        "distance_shoulder_pan_joint": 0.2559818789639534,
        "distance_wrist_1_joint": 0.6528822688398132,
        "distance_wrist_2_joint": 1.3129863979974936,
        "distance_wrist_3_joint": 0.050597054886327264,
        "smoothness": 8.074349308362242e-16,
        "time": 4.499550154,
        "traj_len": 1.891697651692661,
        "weighted_distance": 2.3760435143383822
    },
    "planner": "LBKPIECE",
    "start": {
        "state": {
            "elbow_joint": 1.752795957773711,
            "shoulder_lift_joint": -0.9740617694225064,
            "shoulder_pan_joint": -2.967991417825858,
            "wrist_1_joint": -0.7595177689806859,
            "wrist_2_joint": 1.7443932448377395,
            "wrist_3_joint": 3.199131542505932
        }
    },
    "waypoints": [
        {
            "positions": [
                -2.967991417825858,
                -0.9740617694225064,
                1.752795957773711,
                -0.7595177689806859,
                1.7443932448377395,
                3.199131542505932
            ]
        },
        {
            "positions": [
                -2.9423932299294626,
                -0.9422052713609076,
                1.654045215362116,
                -0.6942295420967046,
                1.6130946050379902,
                3.1940718370172996
            ]
        },
        {
            "positions": [
                -2.9167950420330673,
                -0.9103487732993089,
                1.5552944729505207,
                -0.6289413152127232,
                1.4817959652382409,
                3.1890121315286666
            ]
        },
        {
            "positions": [
                -2.891196854136672,
                -0.87849227523771,
                1.4565437305389255,
                -0.563653088328742,
                1.3504973254384915,
                3.183952426040034
            ]
        },
        {
            "positions": [
                -2.8655986662402766,
                -0.8466357771761113,
                1.35779298812733,
                -0.4983648614447606,
                1.219198685638742,
                3.178892720551401
            ]
        },
        {
            "positions": [
                -2.8400004783438813,
                -0.8147792791145124,
                1.2590422457157349,
                -0.43307663456077933,
                1.0879000458389927,
                3.1738330150627685
            ]
        },
        {
            "positions": [
                -2.814402290447486,
                -0.7829227810529136,
                1.1602915033041397,
                -0.36778840767679805,
                0.9566014060392434,
                3.168773309574136
            ]
        },
        {
            "positions": [
                -2.7888041025510906,
                -0.7510662829913148,
                1.0615407608925445,
                -0.3025001807928167,
                0.8253027662394941,
                3.163713604085503
            ]
        },
        {
            "positions": [
                -2.7632059146546952,
                -0.719209784929716,
                0.9627900184809493,
                -0.23721195390883532,
                0.6940041264397445,
                3.1586538985968704
            ]
        },
        {
            "positions": [
                -2.7376077267583,
                -0.6873532868681171,
                0.864039276069354,
                -0.17192372702485403,
                0.5627054866399952,
                3.1535941931082374
            ]
        },
        {
            "positions": [
                -2.7120095388619045,
                -0.6554967888065184,
                0.7652885336577588,
                -0.10663550014087272,
                0.4314068468402458,
                3.148534487619605
            ]
        }
    ]
}