{
    "goal": {
        "global_pose": {
            "orientation": {
                "w": 0.5084816217422485,
                "x": -0.49083608388900757,
                "y": 0.5182115435600281,
                "z": -0.4816462993621826
            },
            "position": {
                "x": 0.5540239810943604,
                "y": 0.030875300988554955,
                "z": 0.16403168439865112
            }
        },
        "name": "move_to_storage_A"
    },
    "id": "LBKPIECE_move_to_storage_A_71",
    "joint_names": [
        "shoulder_pan_joint",
        "shoulder_lift_joint",
        "elbow_joint",
        "wrist_1_joint",
        "wrist_2_joint",
        "wrist_3_joint"
    ],
    "metrics": {
        "cart_traj_len": 0.3526676379174076,
        "distance_elbow_joint": 0.45018814561078946,
        "distance_shoulder_lift_joint": 0.23493574196251377,
        "distance_shoulder_pan_joint": 0.46126961155395657,
        "distance_wrist_1_joint": 0.24396996870763543,
        "distance_wrist_2_joint": 1.0977711653673676,
        "distance_wrist_3_joint": 0.09862670308091559,
        "smoothness": 6.661338165333112e-16,
        "time": 4.3544421820000005,
        "traj_len": 1.6083411753366195,
        "weighted_distance": 2.0311956765708254
    },
    "planner": "LBKPIECE",
    "start": {
        "state": {
            "elbow_joint": 1.9715474177455299,
            "shoulder_lift_joint": -1.139484666580328,
            "shoulder_pan_joint": 0.12281154398918248,
            "wrist_1_joint": -0.7804687475355282,
            "wrist_2_joint": 0.12958649657246987,
            "wrist_3_joint": -3.1924925159053466
        }
    },
    "waypoints": [
        {
            "positions": [
                0.12281154398918248,
                -1.139484666580328,
                1.9715474177455299,
                -0.7804687475355282,
                0.12958649657246987,
                -3.1924925159053466
            ]
        },
        {
            "positions": [
                0.056915885195760116,
                -1.1730469154321157,
                2.0358600099756425,
                -0.8153216002080476,
                0.28641094876780815,
                -3.1784029868937873
            ]
        },
        {
            "positions": [
                -0.00897977359766225,
                -1.2066091642839034,
                2.1001726022057556,
                -0.8501744528805669,
                0.4432354009631464,
                -3.1643134578822276
            ]
        },
        {
            "positions": [
                -0.0748754323910846,
                -1.2401714131356911,
                2.1644851944358683,
                -0.8850273055530862,
                0.6000598531584846,
                -3.1502239288706684
            ]
        },
        {
            "positions": [
                -0.14077109118450698,
                -1.2737336619874786,
                2.228797786665981,
                -0.9198801582256055,
                0.7568843053538229,
                -3.136134399859109
            ]
        },
        {
            "positions": [
                -0.2066667499779294,
                -1.3072959108392663,
                2.2931103788960936,
                -0.9547330108981249,
                0.9137087575491613,
                -3.12204487084755
            ]
        },
        {
            "positions": [
                -0.2725624087713517,
                -1.340858159691054,
                2.3574229711262067,
                -0.9895858635706443,
                1.0705332097444993,
                -3.10795534183599
            ]
        },
        {
            "positions": [
                -0.3384580675647741,
                -1.3744204085428418,
                2.4217355633563193,
                -1.0244387162431636,
                1.2273576619398376,
                -3.093865812824431
            ]
        }
    ]
}