{
    "goal": {
        "global_pose": {
            "orientation": {
                "w": -0.4816463035849501,
                "x": 0.5182115481033762,
                "y": 0.4908360881923453,
                "z": -0.5084816262002911
            },
            "position": {
                "x": -0.8240239810943604,
                "y": 0.19912469901144506,
                "z": 0.16403168439865112
            }
        },
        "name": "move_to_storage_D"
    },
    "id": "LBKPIECE_move_to_storage_D_8",
    "joint_names": [
        "shoulder_pan_joint",
        "shoulder_lift_joint",
        "elbow_joint",
        "wrist_1_joint",
        "wrist_2_joint",
        "wrist_3_joint"
    ],
    "metrics": {
        "cart_traj_len": 3.7354797164125673,
        "distance_elbow_joint": 4.207701194024294,
        "distance_shoulder_lift_joint": 1.2646080519265732,
        "distance_shoulder_pan_joint": 2.8126178939487816,
        "distance_wrist_1_joint": 2.452202659552354,
        "distance_wrist_2_joint": 0.958105188637967,
        "distance_wrist_3_joint": 3.2374417420268866,
        "smoothness": 0.3203496217714147,
        "time": 0.28821482499999995,
        "traj_len": 3.8642821752709584,
        "weighted_distance": 4.981753512806605
    },
    "planner": "LBKPIECE",
    "start": {
        "state": {
            "elbow_joint": -2.384821997420982,
            "shoulder_lift_joint": -2.2788054674887404,
            "shoulder_pan_joint": -0.18546946417610016,
            "wrist_1_joint": 1.4845937964226739,
            "wrist_2_joint": 0.1789877726866377,
            "wrist_3_joint": 0.03710572555276528
        }
    },
    "waypoints": [
        {
            "positions": [
                -0.18546946417610016,
                -2.2788054674887404,
                -2.384821997420982,
                1.4845937964226739,
                0.1789877726866377,
                0.03710572555276528
            ]
        },
        {
            "positions": [
                -0.0960132358982847,
                -2.271110999921714,
                -2.3604966196840182,
                1.5783772883909744,
                0.13441393972107873,
                -0.012052116918628251
            ]
        },
        {
            "positions": [
                -0.016513781437418454,
                -2.233911700745769,
                -2.2416820928502785,
                1.5040755373224404,
                0.13999406680403106,
                0.06595442078509067
            ]
        },
        {
            "positions": [
                0.06298567302344779,
                -2.196712401569824,
                -2.1228675660165393,
                1.4297737862539064,
                0.14557419388698337,
                0.1439609584888096
            ]
        },
        {
            "positions": [
                0.14248512748431405,
                -2.1595131023938783,
                -2.0040530391827995,
                1.3554720351853724,
                0.1511543209699357,
                0.2219674961925285
            ]
        },
        {
            "positions": [
                0.22198458194518028,
                -2.122313803217933,
                -1.88523851234906,
                1.2811702841168384,
                0.15673444805288803,
                0.2999740338962475
            ]
        },
        {
            "positions": [
                0.3014840364060466,
                -2.085114504041988,
                -1.7664239855153205,
                1.2068685330483044,
                0.16231457513584036,
                0.37798057159996645
            ]
        },
        {
            "positions": [
                0.3809834908669128,
                -2.047915204866043,
                -1.6476094586815808,
                1.1325667819797705,
                0.16789470221879266,
                0.4559871093036853
            ]
        },
        {
            "positions": [
                0.4604829453277791,
                -2.0107159056900974,
                -1.528794931847841,
                1.0582650309112365,
                0.173474829301745,
                0.5339936470074043
            ]
        },
        {
            "positions": [
                0.5399823997886453,
                -1.9735166065141523,
                -1.4099804050141018,
                0.9839632798427026,
                0.17905495638469732,
                0.6120001847111232
            ]
        },
        {
            "positions": [
                0.6194818542495116,
                -1.9363173073382072,
                -1.291165878180362,
                0.9096615287741685,
                0.18463508346764962,
                0.6900067224148421
            ]
        },
        {
            "positions": [
                0.6989813087103779,
                -1.899118008162262,
                -1.1723513513466226,
                0.8353597777056345,
                0.19021521055060195,
                0.7680132601185611
            ]
        },
        {
            "positions": [
                0.778480763171244,
                -1.8619187089863167,
                -1.053536824512883,
                0.7610580266371006,
                0.19579533763355428,
                0.8460197978222799
            ]
        },
        {
            "positions": [
                0.8579802176321103,
                -1.8247194098103716,
                -0.9347222976791434,
                0.6867562755685667,
                0.20137546471650658,
                0.9240263355259988
            ]
        },
        {
            "positions": [
                0.9374796720929767,
                -1.7875201106344263,
                -0.8159077708454039,
                0.6124545245000327,
                0.2069555917994589,
                1.0020328732297177
            ]
        },
        {
            "positions": [
                1.016979126553843,
                -1.7503208114584812,
                -0.6970932440116642,
                0.5381527734314986,
                0.21253571888241124,
                1.0800394109334368
            ]
        },
        {
            "positions": [
                1.096478581014709,
                -1.7131215122825358,
                -0.5782787171779247,
                0.4638510223629646,
                0.21811584596536354,
                1.1580459486371557
            ]
        },
        {
            "positions": [
                1.1759780354755751,
                -1.6759222131065907,
                -0.4594641903441852,
                0.38954927129443084,
                0.22369597304831587,
                1.2360524863408746
            ]
        },
        {
            "positions": [
                1.2554774899364416,
                -1.6387229139306454,
                -0.3406496635104457,
                0.31524752022589686,
                0.2292761001312682,
                1.3140590240445933
            ]
        },
        {
            "positions": [
                1.334976944397308,
                -1.6015236147547003,
                -0.22183513667670596,
                0.24094576915736265,
                0.2348562272142205,
                1.3920655617483124
            ]
        },
        {
            "positions": [
                1.4144763988581741,
                -1.5643243155787552,
                -0.10302060984296668,
                0.1666440180888289,
                0.24043635429717283,
                1.4700720994520313
            ]
        },
        {
            "positions": [
                1.4939758533190406,
                -1.5271250164028098,
                0.015793916990773038,
                0.09234226702029469,
                0.24601648138012516,
                1.5480786371557504
            ]
        },
        {
            "positions": [
                1.5734753077799066,
                -1.4899257172268645,
                0.13460844382451276,
                0.018040515951760927,
                0.25159660846307746,
                1.6260851748594691
            ]
        },
        {
            "positions": [
                1.6529747622407727,
                -1.4527264180509194,
                0.25342297065825203,
                -0.056261235116773056,
                0.2571767355460298,
                1.704091712563188
            ]
        },
        {
            "positions": [
                1.7324742167016391,
                -1.4155271188749743,
                0.37223749749199175,
                -0.13056298618530726,
                0.2627568626289821,
                1.7820982502669072
            ]
        },
        {
            "positions": [
                1.8119736711625052,
                -1.3783278196990292,
                0.4910520243257315,
                -0.20486473725384102,
                0.2683369897119344,
                1.8601047879706258
            ]
        },
        {
            "positions": [
                1.8914731256233717,
                -1.3411285205230838,
                0.6098665511594707,
                -0.279166488322375,
                0.27391711679488673,
                1.9381113256743447
            ]
        },
        {
            "positions": [
                1.9709725800842381,
                -1.3039292213471385,
                0.7286810779932105,
                -0.353468239390909,
                0.2794972438778391,
                2.0161178633780636
            ]
        },
        {
            "positions": [
                2.050472034545104,
                -1.2667299221711934,
                0.8474956048269497,
                -0.427769990459443,
                0.2850773709607914,
                2.0941244010817828
            ]
        },
        {
            "positions": [
                2.1299714890059707,
                -1.229530622995248,
                0.9663101316606899,
                -0.5020717415279772,
                0.29065749804374374,
                2.172130938785502
            ]
        },
        {
            "positions": [
                2.2094709434668367,
                -1.192331323819303,
                1.0851246584944292,
                -0.5763734925965109,
                0.29623762512669605,
                2.2501374764892206
            ]
        },
        {
            "positions": [
                2.255879553056375,
                -1.1725386673462879,
                1.1670973849509718,
                -0.5990033133294628,
                0.3797606996007839,
                2.353036843838959
            ]
        },
        {
            "positions": [
                2.302288162645913,
                -1.1527460108732728,
                1.2490701114075144,
                -0.6216331340624146,
                0.46328377407487176,
                2.455936211188697
            ]
        },
        {
            "positions": [
                2.3486967722354515,
                -1.1329533544002577,
                1.3310428378640569,
                -0.6442629547953664,
                0.5468068485489596,
                2.5588355785384356
            ]
        },
        {
            "positions": [
                2.39510538182499,
                -1.1131606979272426,
                1.4130155643205995,
                -0.6668927755283183,
                0.6303299230230475,
                2.6617349458881736
            ]
        },
        {
            "positions": [
                2.441513991414528,
                -1.0933680414542275,
                1.4949882907771421,
                -0.6895225962612701,
                0.7138529974971353,
                2.764634313237912
            ]
        },
        {
            "positions": [
                2.4879226010040663,
                -1.0735753849812124,
                1.5769610172336845,
                -0.7121524169942219,
                0.7973760719712231,
                2.86753368058765
            ]
        },
        {
            "positions": [
                2.5343312105936047,
                -1.0537827285081973,
                1.6589337436902274,
                -0.7347822377271738,
                0.880899146445311,
                2.9704330479373886
            ]
        },
        {
            "positions": [
                2.5807398201831426,
                -1.0339900720351822,
                1.7409064701467698,
                -0.7574120584601256,
                0.9644222209193988,
                3.0733324152871266
            ]
        },
        {
            "positions": [
                2.627148429772681,
                -1.0141974155621671,
                1.8228791966033124,
                -0.7800418791930774,
                1.0479452953934867,
                3.176231782636865
            ]
        }
    ]
}