{
    "goal": {
        "global_pose": {
            "orientation": {
                "w": 0.7047431493862688,
                "x": -0.7094548369677653,
                "y": 0.0024358444001904,
                "z": -0.0022348060817251984
            },
            "position": {
                "x": -0.39052492380142206,
                "y": 0.3671506643295288,
                "z": 0.19426114857196808
            }
        },
        "name": "move_to_magneteinheit_D"
    },
    "id": "LBKPIECE_move_to_magneteinheit_D_33",
    "joint_names": [
        "shoulder_pan_joint",
        "shoulder_lift_joint",
        "elbow_joint",
        "wrist_1_joint",
        "wrist_2_joint",
        "wrist_3_joint"
    ],
    "metrics": {
        "cart_traj_len": 4.4087354664971885,
        "distance_elbow_joint": 3.136058943538906,
        "distance_shoulder_lift_joint": 1.1348639416529351,
        "distance_shoulder_pan_joint": 2.8704123065604823,
        "distance_wrist_1_joint": 2.5071758247347535,
        "distance_wrist_2_joint": 0.8789386288579399,
        "distance_wrist_3_joint": 0.6438826785539189,
        "smoothness": 0.6730286058039979,
        "time": 2.7989012620000002,
        "traj_len": 3.3423543085524217,
        "weighted_distance": 3.9806044936164495
    },
    "planner": "LBKPIECE",
    "start": {
        "state": {
            "elbow_joint": 0.7495348899011973,
            "shoulder_lift_joint": -0.6476975780737697,
            "shoulder_pan_joint": -2.711696901376276,
            "wrist_1_joint": -0.07506478080974305,
            "wrist_2_joint": 0.4329665971545858,
            "wrist_3_joint": 3.1361499051832524
        }
    },
    "waypoints": [
        {
            "positions": [
                -2.711696901376276,
                -0.6476975780737697,
                0.7495348899011973,
                -0.07506478080974305,
                0.4329665971545858,
                3.1361499051832524
            ]
        },
        {
            "positions": [
                -2.7365559281462986,
                -0.7500756965879072,
                0.7546301408908942,
                0.02987570234858944,
                0.4090418005655604,
                3.1027083954811787
            ]
        },
        {
            "positions": [
                -2.7614149549163214,
                -0.8524538151020447,
                0.7597253918805912,
                0.13481618550692193,
                0.3851170039765349,
                3.069266885779105
            ]
        },
        {
            "positions": [
                -2.6495259848653547,
                -0.8896500328759632,
                0.6479740233798075,
                0.043178954964493005,
                0.3545900429893209,
                3.058071782536117
            ]
        },
        {
            "positions": [
                -2.537637014814388,
                -0.9268462506498819,
                0.5362226548790239,
                -0.048458275577935916,
                0.3240630820021068,
                3.046876679293128
            ]
        },
        {
            "positions": [
                -2.425748044763421,
                -0.9640424684238005,
                0.42447128637824016,
                -0.1400955061203648,
                0.2935361210148928,
                3.03568157605014
            ]
        },
        {
            "positions": [
                -2.3138590747124543,
                -1.0012386861977192,
                0.3127199178774565,
                -0.23173273666279376,
                0.2630091600276787,
                3.0244864728071517
            ]
        },
        {
            "positions": [
                -2.2019701046614877,
                -1.0384349039716376,
                0.20096854937667286,
                -0.32336996720522265,
                0.23248219904046466,
                3.013291369564163
            ]
        },
        {
            "positions": [
                -2.090081134610521,
                -1.0756311217455563,
                0.08921718087588915,
                -0.41500719774765155,
                0.2019552380532506,
                3.0020962663211748
            ]
        },
        {
            "positions": [
                -1.978192164559554,
                -1.112827339519475,
                -0.022534187624894564,
                -0.5066444282900806,
                0.17142827706603656,
                2.9909011630781865
            ]
        },
        {
            "positions": [
                -1.8663031945085873,
                -1.1500235572933935,
                -0.13428555612567816,
                -0.5982816588325095,
                0.14090131607882253,
                2.979706059835198
            ]
        },
        {
            "positions": [
                -1.7544142244576206,
                -1.1872197750673121,
                -0.24603692462646187,
                -0.6899188893749384,
                0.11037435509160842,
                2.9685109565922096
            ]
        },
        {
            "positions": [
                -1.642525254406654,
                -1.2244159928412306,
                -0.35778829312724547,
                -0.7815561199173673,
                0.0798473941043944,
                2.9573158533492214
            ]
        },
        {
            "positions": [
                -1.530636284355687,
                -1.2616122106151493,
                -0.4695396616280293,
                -0.8731933504597964,
                0.04932043311718037,
                2.9461207501062328
            ]
        },
        {
            "positions": [
                -1.4187473143047205,
                -1.298808428389068,
                -0.5812910301288129,
                -0.9648305810022251,
                0.018793472129966293,
                2.9349256468632445
            ]
        },
        {
            "positions": [
                -1.3068583442537538,
                -1.3360046461629864,
                -0.6930423986295965,
                -1.056467811544654,
                -0.011733488857247731,
                2.9237305436202563
            ]
        },
        {
            "positions": [
                -1.1949693742027867,
                -1.3732008639369053,
                -0.8047937671303803,
                -1.148105042087083,
                -0.04226044984446181,
                2.9125354403772676
            ]
        },
        {
            "positions": [
                -1.08308040415182,
                -1.4103970817108238,
                -0.9165451356311639,
                -1.239742272629512,
                -0.07278741083167584,
                2.9013403371342794
            ]
        },
        {
            "positions": [
                -0.9711914341008534,
                -1.4475932994847422,
                -1.0282965041319474,
                -1.3313795031719409,
                -0.10331437181888986,
                2.8901452338912907
            ]
        },
        {
            "positions": [
                -0.8593024640498867,
                -1.484789517258661,
                -1.140047872632731,
                -1.4230167337143698,
                -0.13384133280610389,
                2.8789501306483025
            ]
        },
        {
            "positions": [
                -0.7474134939989199,
                -1.5219857350325796,
                -1.251799241133515,
                -1.5146539642567989,
                -0.16436829379331808,
                2.8677550274053143
            ]
        },
        {
            "positions": [
                -0.6355245239479532,
                -1.5591819528064983,
                -1.3635506096342986,
                -1.6062911947992278,
                -0.19489525478053205,
                2.8565599241623256
            ]
        },
        {
            "positions": [
                -0.5236355538969866,
                -1.5963781705804168,
                -1.4753019781350822,
                -1.6979284253416564,
                -0.22542221576774613,
                2.8453648209193374
            ]
        },
        {
            "positions": [
                -0.4117465838460199,
                -1.6335743883543352,
                -1.5870533466358658,
                -1.7895656558840853,
                -0.2559491767549601,
                2.834169717676349
            ]
        },
        {
            "positions": [
                -0.2998576137950528,
                -1.670770606128254,
                -1.6988047151366499,
                -1.8812028864265147,
                -0.2864761377421742,
                2.8229746144333605
            ]
        },
        {
            "positions": [
                -0.1879686437440862,
                -1.7079668239021726,
                -1.8105560836374333,
                -1.9728401169689431,
                -0.3170030987293883,
                2.8117795111903723
            ]
        },
        {
            "positions": [
                -0.12551955719640162,
                -1.7353391816749741,
                -1.9267530880610688,
                -2.055099663509705,
                -0.30940891259506886,
                2.882544471620351
            ]
        },
        {
            "positions": [
                -0.06307047064871704,
                -1.7627115394477757,
                -2.0429500924847046,
                -2.1373592100504677,
                -0.30181472646074947,
                2.9533094320503293
            ]
        },
        {
            "positions": [
                -0.12424535502513329,
                -1.7527865493083112,
                -2.2045465710818126,
                -2.1499189414808173,
                -0.24492444610808609,
                3.04230061390087
            ]
        },
        {
            "positions": [
                -0.18542023940154953,
                -1.7428615591688466,
                -2.366143049678921,
                -2.1624786729111674,
                -0.1880341657554227,
                3.131291795751411
            ]
        }
    ]
}