{
    "goal": {
        "global_pose": {
            "orientation": {
                "w": -0.4816463035849501,
                "x": 0.5182115481033762,
                "y": 0.4908360881923453,
                "z": -0.5084816262002911
            },
            "position": {
                "x": -0.8240239810943604,
                "y": -0.300875300988555,
                "z": 0.16403168439865112
            }
        },
        "name": "move_to_storage_C"
    },
    "id": "LBKPIECE_move_to_storage_C_44",
    "joint_names": [
        "shoulder_pan_joint",
        "shoulder_lift_joint",
        "elbow_joint",
        "wrist_1_joint",
        "wrist_2_joint",
        "wrist_3_joint"
    ],
    "metrics": {
        "cart_traj_len": 0.5768683619927114,
        "distance_elbow_joint": 0.25563414030778797,
        "distance_shoulder_lift_joint": 0.18912661082562365,
        "distance_shoulder_pan_joint": 0.49458412090918635,
        "distance_wrist_1_joint": 0.06603336513978808,
        "distance_wrist_2_joint": 1.0697619781517465,
        "distance_wrist_3_joint": 0.05579074284605223,
        "smoothness": 0.0,
        "time": 4.1281214219999995,
        "traj_len": 1.4597708581075952,
        "weighted_distance": 1.8380173522477485
    },
    "planner": "LBKPIECE",
    "start": {
        "state": {
            "elbow_joint": 2.010868315001653,
            "shoulder_lift_joint": -1.1634956873357014,
            "shoulder_pan_joint": -2.4736205022346103,
            "wrist_1_joint": -0.8367026794713948,
            "wrist_2_joint": 0.6746043897044093,
            "wrist_3_joint": 3.1335220948105738
        }
    },
    "waypoints": [
        {
            "positions": [
                -2.4736205022346103,
                -1.1634956873357014,
                2.010868315001653,
                -0.8367026794713948,
                0.6746043897044093,
                3.1335220948105738
            ]
        },
        {
            "positions": [
                -2.556051189052808,
                -1.1319745855314307,
                1.9682626249503552,
                -0.8256971186147635,
                0.8528980527297003,
                3.1428205519515826
            ]
        },
        {
            "positions": [
                -2.6384818758710056,
                -1.1004534837271602,
                1.925656934899057,
                -0.8146915577581321,
                1.0311917157549915,
                3.152119009092591
            ]
        },
        {
            "positions": [
                -2.7209125626892035,
                -1.0689323819228895,
                1.883051244847759,
                -0.8036859969015007,
                1.2094853787802826,
                3.1614174662336
            ]
        },
        {
            "positions": [
                -2.8033432495074013,
                -1.037411280118619,
                1.840445554796461,
                -0.7926804360448694,
                1.3877790418055735,
                3.1707159233746087
            ]
        },
        {
            "positions": [
                -2.8857739363255988,
                -1.0058901783143483,
                1.7978398647451632,
                -0.7816748751882381,
                1.5660727048308647,
                3.180014380515617
            ]
        },
        {
            "positions": [
                -2.9682046231437966,
                -0.9743690765100778,
                1.7552341746938651,
                -0.7706693143316067,
                1.7443663678561558,
                3.189312837656626
            ]
        }
    ]
}