{
    "goal": {
        "global_pose": {
            "orientation": {
                "w": -0.4816463035849501,
                "x": 0.5182115481033762,
                "y": 0.4908360881923453,
                "z": -0.5084816262002911
            },
            "position": {
                "x": -0.8240239810943604,
                "y": 0.19912469901144506,
                "z": 0.16403168439865112
            }
        },
        "name": "move_to_storage_D"
    },
    "id": "LBKPIECE_move_to_storage_D_111",
    "joint_names": [
        "shoulder_pan_joint",
        "shoulder_lift_joint",
        "elbow_joint",
        "wrist_1_joint",
        "wrist_2_joint",
        "wrist_3_joint"
    ],
    "metrics": {
        "cart_traj_len": 5.353997649732487,
        "distance_elbow_joint": 4.2104659422826725,
        "distance_shoulder_lift_joint": 3.1048749647216187,
        "distance_shoulder_pan_joint": 2.81299541242995,
        "distance_wrist_1_joint": 3.1181625284274825,
        "distance_wrist_2_joint": 6.035517225292526,
        "distance_wrist_3_joint": 5.514086957081693,
        "smoothness": 0.5182212340018715,
        "time": 4.379371753,
        "traj_len": 4.979568558644009,
        "weighted_distance": 6.706560720527275
    },
    "planner": "LBKPIECE",
    "start": {
        "state": {
            "elbow_joint": -2.384821997420982,
            "shoulder_lift_joint": -2.2788054674887404,
            "shoulder_pan_joint": -0.18546946417610016,
            "wrist_1_joint": 1.4845937964226739,
            "wrist_2_joint": 0.1789877726866377,
            "wrist_3_joint": 0.03710572555276528
        }
    },
    "waypoints": [
        {
            "positions": [
                -0.18546946417610016,
                -2.2788054674887404,
                -2.384821997420982,
                1.4845937964226739,
                0.1789877726866377,
                0.03710572555276528
            ]
        },
        {
            "positions": [
                -0.14508747785498757,
                -2.2182643262099875,
                -2.361699113440264,
                1.5195894805917551,
                0.10167957629310437,
                0.043887783594225335
            ]
        },
        {
            "positions": [
                -0.061350989216966745,
                -2.1798046004,
                -2.2453999954117148,
                1.4667459444920243,
                0.1293083183497679,
                0.11645947664426126
            ]
        },
        {
            "positions": [
                0.022385499421054084,
                -2.1413448745900117,
                -2.1291008773831654,
                1.4139024083922935,
                0.1569370604064314,
                0.18903116969429717
            ]
        },
        {
            "positions": [
                0.10612198805907488,
                -2.102885148780024,
                -2.012801759354616,
                1.3610588722925625,
                0.1845658024630949,
                0.2616028627443331
            ]
        },
        {
            "positions": [
                0.18985847669709574,
                -2.0644254229700363,
                -1.896502641326067,
                1.3082153361928317,
                0.21219454451975844,
                0.33417455579436905
            ]
        },
        {
            "positions": [
                0.2735949653351165,
                -2.025965697160048,
                -1.7802035232975177,
                1.255371800093101,
                0.23982328657642193,
                0.40674624884440497
            ]
        },
        {
            "positions": [
                0.35733145397313737,
                -1.9875059713500605,
                -1.6639044052689687,
                1.20252826399337,
                0.2674520286330855,
                0.4793179418944409
            ]
        },
        {
            "positions": [
                0.4410679426111582,
                -1.9490462455400726,
                -1.5476052872404193,
                1.1496847278936393,
                0.295080770689749,
                0.5518896349444767
            ]
        },
        {
            "positions": [
                0.5248044312491791,
                -1.9105865197300846,
                -1.43130616921187,
                1.0968411917939083,
                0.32270951274641246,
                0.6244613279945127
            ]
        },
        {
            "positions": [
                0.6085409198871999,
                -1.8721267939200967,
                -1.3150070511833205,
                1.0439976556941775,
                0.350338254803076,
                0.6970330210445487
            ]
        },
        {
            "positions": [
                0.6922774085252207,
                -1.833667068110109,
                -1.1987079331547714,
                0.9911541195944468,
                0.3779669968597395,
                0.7696047140945845
            ]
        },
        {
            "positions": [
                0.7760138971632415,
                -1.7952073423001211,
                -1.0824088151262221,
                0.9383105834947159,
                0.40559573891640305,
                0.8421764071446205
            ]
        },
        {
            "positions": [
                0.8469062135375629,
                -1.830603966504679,
                -1.0241093593058213,
                0.8571276519208945,
                0.3093850875673753,
                0.796417788528702
            ]
        },
        {
            "positions": [
                0.9177985299118843,
                -1.8660005907092367,
                -0.9658099034854204,
                0.7759447203470731,
                0.2131744362183476,
                0.7506591699127835
            ]
        },
        {
            "positions": [
                0.9886908462862056,
                -1.9013972149137945,
                -0.9075104476650195,
                0.6947617887732516,
                0.11696378486931991,
                0.7049005512968649
            ]
        },
        {
            "positions": [
                1.059583162660527,
                -1.9367938391183521,
                -0.8492109918446186,
                0.6135788571994302,
                0.020753133520292177,
                0.6591419326809465
            ]
        },
        {
            "positions": [
                1.1304754790348484,
                -1.97219046332291,
                -0.7909115360242177,
                0.5323959256256088,
                -0.07545751782873555,
                0.613383314065028
            ]
        },
        {
            "positions": [
                1.2013677954091697,
                -2.007587087527468,
                -0.7326120802038169,
                0.45121299405178733,
                -0.17166816917776323,
                0.5676246954491094
            ]
        },
        {
            "positions": [
                1.272260111783491,
                -2.0429837117320253,
                -0.674312624383416,
                0.370030062477966,
                -0.26787882052679096,
                0.521866076833191
            ]
        },
        {
            "positions": [
                1.3431524281578127,
                -2.078380335936583,
                -0.616013168563015,
                0.2888471309041445,
                -0.3640894718758187,
                0.4761074582172724
            ]
        },
        {
            "positions": [
                1.4140447445321338,
                -2.113776960141141,
                -0.5577137127426143,
                0.2076641993303231,
                -0.4603001232248463,
                0.43034883960135395
            ]
        },
        {
            "positions": [
                1.4849370609064554,
                -2.1491735843456987,
                -0.4994142569222133,
                0.1264812677565016,
                -0.5565107745738742,
                0.3845902209854354
            ]
        },
        {
            "positions": [
                1.5558293772807765,
                -2.1845702085502565,
                -0.44111480110181245,
                0.04529833618268031,
                -0.6527214259229017,
                0.3388316023695169
            ]
        },
        {
            "positions": [
                1.6267216936550981,
                -2.2199668327548143,
                -0.3828153452814116,
                -0.035884595391141194,
                -0.7489320772719295,
                0.29307298375359836
            ]
        },
        {
            "positions": [
                1.6976140100294193,
                -2.255363456959372,
                -0.32451588946101073,
                -0.11706752696496259,
                -0.8451427286209572,
                0.2473143651376799
            ]
        },
        {
            "positions": [
                1.7685063264037408,
                -2.29076008116393,
                -0.2662164336406099,
                -0.19825045853878387,
                -0.9413533799699849,
                0.20155574652176145
            ]
        },
        {
            "positions": [
                1.839398642778062,
                -2.3261567053684877,
                -0.20791697782020901,
                -0.2794333901126054,
                -1.0375640313190124,
                0.155797127905843
            ]
        },
        {
            "positions": [
                1.9102909591523836,
                -2.3615533295730455,
                -0.14961752199980805,
                -0.3606163216864269,
                -1.1337746826680404,
                0.11003850928992431
            ]
        },
        {
            "positions": [
                1.981183275526705,
                -2.3969499537776033,
                -0.09131806617940719,
                -0.4417992532602484,
                -1.229985334017068,
                0.06427989067400586
            ]
        },
        {
            "positions": [
                2.0520755919010263,
                -2.4323465779821607,
                -0.03301861035900644,
                -0.5229821848340697,
                -1.3261959853660956,
                0.0185212720580874
            ]
        },
        {
            "positions": [
                2.1229679082753474,
                -2.4677432021867185,
                0.02528084546139442,
                -0.604165116407891,
                -1.4224066367151234,
                -0.027237346557831055
            ]
        },
        {
            "positions": [
                2.193860224649669,
                -2.5031398263912763,
                0.0835803012817955,
                -0.6853480479817127,
                -1.5186172880641513,
                -0.07299596517374973
            ]
        },
        {
            "positions": [
                2.2647525410239906,
                -2.538536450595834,
                0.14187975710219636,
                -0.766530979555534,
                -1.6148279394131788,
                -0.11875458378966819
            ]
        },
        {
            "positions": [
                2.3356448573983117,
                -2.573933074800392,
                0.20017921292259722,
                -0.8477139111293552,
                -1.7110385907622065,
                -0.16451320240558664
            ]
        },
        {
            "positions": [
                2.406537173772633,
                -2.6093296990049497,
                0.2584786687429981,
                -0.9288968427031767,
                -1.8072492421112343,
                -0.2102718210215051
            ]
        },
        {
            "positions": [
                2.4774294901469545,
                -2.6447263232095075,
                0.31677812456339893,
                -1.0100797742769982,
                -1.903459893460262,
                -0.2560304396374238
            ]
        },
        {
            "positions": [
                2.548321806521276,
                -2.6801229474140653,
                0.3750775803837998,
                -1.0912627058508197,
                -1.9996705448092897,
                -0.30178905825334224
            ]
        },
        {
            "positions": [
                2.619214122895597,
                -2.715519571618623,
                0.43337703620420065,
                -1.1724456374246413,
                -2.0958811961583175,
                -0.3475476768692607
            ]
        },
        {
            "positions": [
                2.6195338084862994,
                -2.6500978558411425,
                0.48692576346025807,
                -1.1574021094922564,
                -1.97461904495828,
                -0.21219028488941627
            ]
        },
        {
            "positions": [
                2.619853494077001,
                -2.5846761400636615,
                0.5404744907163155,
                -1.1423585815598718,
                -1.8533568937582423,
                -0.07683289290957185
            ]
        },
        {
            "positions": [
                2.6201731796677032,
                -2.519254424286181,
                0.5940232179723729,
                -1.127315053627487,
                -1.7320947425582047,
                0.05852449907027257
            ]
        },
        {
            "positions": [
                2.6204928652584054,
                -2.4538327085087,
                0.6475719452284303,
                -1.1122715256951023,
                -1.6108325913581671,
                0.193881891050117
            ]
        },
        {
            "positions": [
                2.6208125508491076,
                -2.3884109927312194,
                0.7011206724844877,
                -1.0972279977627175,
                -1.4895704401581296,
                0.3292392830299614
            ]
        },
        {
            "positions": [
                2.6211322364398093,
                -2.322989276953739,
                0.7546693997405451,
                -1.0821844698303327,
                -1.368308288958092,
                0.46459667500980584
            ]
        },
        {
            "positions": [
                2.6214519220305115,
                -2.257567561176258,
                0.8082181269966026,
                -1.067140941897948,
                -1.2470461377580544,
                0.5999540669896501
            ]
        },
        {
            "positions": [
                2.6217716076212136,
                -2.192145845398777,
                0.86176685425266,
                -1.0520974139655632,
                -1.1257839865580166,
                0.7353114589694947
            ]
        },
        {
            "positions": [
                2.622091293211916,
                -2.126724129621296,
                0.9153155815087174,
                -1.0370538860331786,
                -1.004521835357979,
                0.870668850949339
            ]
        },
        {
            "positions": [
                2.6224109788026175,
                -2.0613024138438156,
                0.9688643087647748,
                -1.0220103581007938,
                -0.8832596841579414,
                1.0060262429291835
            ]
        },
        {
            "positions": [
                2.6227306643933197,
                -1.9958806980663348,
                1.0224130360208323,
                -1.0069668301684092,
                -0.7619975329579038,
                1.1413836349090278
            ]
        },
        {
            "positions": [
                2.623050349984022,
                -1.930458982288854,
                1.0759617632768896,
                -0.9919233022360243,
                -0.6407353817578663,
                1.2767410268888724
            ]
        },
        {
            "positions": [
                2.623370035574724,
                -1.8650372665113735,
                1.129510490532947,
                -0.9768797743036396,
                -0.5194732305578287,
                1.4120984188687167
            ]
        },
        {
            "positions": [
                2.6236897211654258,
                -1.7996155507338927,
                1.1830592177890045,
                -0.9618362463712549,
                -0.3982110793577911,
                1.547455810848561
            ]
        },
        {
            "positions": [
                2.624009406756128,
                -1.7341938349564119,
                1.2366079450450618,
                -0.9467927184388701,
                -0.27694892815775374,
                1.6828132028284055
            ]
        },
        {
            "positions": [
                2.62432909234683,
                -1.668772119178931,
                1.2901566723011193,
                -0.9317491905064854,
                -0.1556867769577157,
                1.81817059480825
            ]
        },
        {
            "positions": [
                2.624648777937532,
                -1.6033504034014503,
                1.3437053995571766,
                -0.9167056625741006,
                -0.03442462575767813,
                1.9535279867880941
            ]
        },
        {
            "positions": [
                2.624968463528234,
                -1.5379286876239697,
                1.3972541268132341,
                -0.901662134641716,
                0.08683752544235945,
                2.0888853787679387
            ]
        },
        {
            "positions": [
                2.625288149118936,
                -1.472506971846489,
                1.4508028540692914,
                -0.8866186067093311,
                0.2080996766423966,
                2.224242770747783
            ]
        },
        {
            "positions": [
                2.6256078347096383,
                -1.4070852560690081,
                1.504351581325349,
                -0.8715750787769464,
                0.3293618278424346,
                2.3596001627276277
            ]
        },
        {
            "positions": [
                2.62592752030034,
                -1.3416635402915273,
                1.5579003085814065,
                -0.8565315508445617,
                0.4506239790424722,
                2.494957554707472
            ]
        },
        {
            "positions": [
                2.626247205891042,
                -1.2762418245140466,
                1.6114490358374638,
                -0.8414880229121768,
                0.5718861302425098,
                2.6303149466873164
            ]
        },
        {
            "positions": [
                2.6265668914817444,
                -1.210820108736566,
                1.664997763093521,
                -0.8264444949797922,
                0.6931482814425474,
                2.765672338667161
            ]
        },
        {
            "positions": [
                2.6268865770724465,
                -1.145398392959085,
                1.7185464903495786,
                -0.8114009670474074,
                0.814410432642585,
                2.9010297306470054
            ]
        },
        {
            "positions": [
                2.6272062626631483,
                -1.0799766771816044,
                1.7720952176056362,
                -0.7963574391150227,
                0.9356725838426225,
                3.0363871226268495
            ]
        },
        {
            "positions": [
                2.6275259482538504,
                -1.0145549614041236,
                1.8256439448616935,
                -0.7813139111826379,
                1.0569347350426601,
                3.171744514606694
            ]
        }
    ]
}