{
    "goal": {
        "global_pose": {
            "orientation": {
                "w": 0.5084816262002911,
                "x": -0.4908360881923452,
                "y": 0.5182115481033761,
                "z": -0.48164630358495003
            },
            "position": {
                "x": 0.5540239810943604,
                "y": -0.46912469901144505,
                "z": 0.16403168439865112
            }
        },
        "name": "move_to_storage_B"
    },
    "id": "LBKPIECE_move_to_storage_B_99",
    "joint_names": [
        "shoulder_pan_joint",
        "shoulder_lift_joint",
        "elbow_joint",
        "wrist_1_joint",
        "wrist_2_joint",
        "wrist_3_joint"
    ],
    "metrics": {
        "cart_traj_len": 3.8140107385460884,
        "distance_elbow_joint": 2.188615862571118,
        "distance_shoulder_lift_joint": 3.079459258849737,
        "distance_shoulder_pan_joint": 1.051151122729781,
        "distance_wrist_1_joint": 3.8804533914952213,
        "distance_wrist_2_joint": 4.745478354133914,
        "distance_wrist_3_joint": 7.164722106630739,
        "smoothness": 0.6979994711361119,
        "time": 3.06144341,
        "traj_len": 4.702114428255708,
        "weighted_distance": 6.713066069636222
    },
    "planner": "LBKPIECE",
    "start": {
        "state": {
            "elbow_joint": 1.6649325706314817,
            "shoulder_lift_joint": -0.6616388048112454,
            "shoulder_pan_joint": -0.9139837860083814,
            "wrist_1_joint": 2.146757197745094,
            "wrist_2_joint": -2.234196043158733,
            "wrist_3_joint": 0.005471033829999897
        }
    },
    "waypoints": [
        {
            "positions": [
                -0.9139837860083814,
                -0.6616388048112454,
                1.6649325706314817,
                2.146757197745094,
                -2.234196043158733,
                0.005471033829999897
            ]
        },
        {
            "positions": [
                -0.8912096016560153,
                -0.672642567411503,
                1.6610090240023103,
                2.158130096622047,
                -2.2174215393089542,
                0.036589396633457616
            ]
        },
        {
            "positions": [
                -0.8665402624646903,
                -0.7580964607533164,
                1.6691438769840332,
                2.201784014018009,
                -2.3196025937166564,
                -0.07070536160657977
            ]
        },
        {
            "positions": [
                -0.8418709232733653,
                -0.8435503540951298,
                1.6772787299657559,
                2.2454379314139707,
                -2.4217836481243586,
                -0.17800011984661715
            ]
        },
        {
            "positions": [
                -0.8172015840820404,
                -0.9290042474369431,
                1.6854135829474788,
                2.2890918488099326,
                -2.5239647025320604,
                -0.2852948780866545
            ]
        },
        {
            "positions": [
                -0.7925322448907154,
                -1.0144581407787565,
                1.6935484359292017,
                2.3327457662058944,
                -2.6261457569397626,
                -0.3925896363266919
            ]
        },
        {
            "positions": [
                -0.7678629056993904,
                -1.09991203412057,
                1.7016832889109246,
                2.376399683601856,
                -2.728326811347465,
                -0.4998843945667293
            ]
        },
        {
            "positions": [
                -0.7431935665080656,
                -1.1853659274623833,
                1.7098181418926472,
                2.420053600997818,
                -2.830507865755167,
                -0.6071791528067666
            ]
        },
        {
            "positions": [
                -0.7185242273167406,
                -1.2708198208041968,
                1.7179529948743701,
                2.4637075183937798,
                -2.932688920162869,
                -0.714473911046804
            ]
        },
        {
            "positions": [
                -0.6938548881254156,
                -1.3562737141460102,
                1.726087847856093,
                2.5073614357897416,
                -3.0348699745705714,
                -0.8217686692868414
            ]
        },
        {
            "positions": [
                -0.6691855489340907,
                -1.4417276074878236,
                1.7342227008378157,
                2.5510153531857034,
                -3.137051028978273,
                -0.9290634275268789
            ]
        },
        {
            "positions": [
                -0.6445162097427657,
                -1.527181500829637,
                1.7423575538195386,
                2.594669270581665,
                -3.2392320833859753,
                -1.0363581857669162
            ]
        },
        {
            "positions": [
                -0.6787462502033581,
                -1.5773528106477874,
                1.691494394331179,
                2.538136388082202,
                -3.106022314429905,
                -1.0883666209885108
            ]
        },
        {
            "positions": [
                -0.7129762906639506,
                -1.6275241204659379,
                1.6406312348428196,
                2.4816035055827386,
                -2.9728125454738352,
                -1.1403750562101054
            ]
        },
        {
            "positions": [
                -0.747206331124543,
                -1.6776954302840885,
                1.5897680753544603,
                2.4250706230832755,
                -2.839602776517765,
                -1.1923834914317
            ]
        },
        {
            "positions": [
                -0.7814363715851356,
                -1.727866740102239,
                1.5389049158661008,
                2.368537740583812,
                -2.7063930075616947,
                -1.2443919266532946
            ]
        },
        {
            "positions": [
                -0.815666412045728,
                -1.7780380499203894,
                1.4880417563777413,
                2.312004858084349,
                -2.573183238605625,
                -1.2964003618748892
            ]
        },
        {
            "positions": [
                -0.8498964525063204,
                -1.8282093597385398,
                1.4371785968893818,
                2.2554719755848858,
                -2.439973469649555,
                -1.3484087970964835
            ]
        },
        {
            "positions": [
                -0.8841264929669129,
                -1.8783806695566905,
                1.3863154374010223,
                2.1989390930854222,
                -2.3067637006934847,
                -1.4004172323180784
            ]
        },
        {
            "positions": [
                -0.9183565334275055,
                -1.928551979374841,
                1.3354522779126627,
                2.142406210585959,
                -2.1735539317374144,
                -1.4524256675396727
            ]
        },
        {
            "positions": [
                -0.9525865738880979,
                -1.9787232891929913,
                1.2845891184243032,
                2.085873328086496,
                -2.040344162781344,
                -1.5044341027612673
            ]
        },
        {
            "positions": [
                -0.9868166143486903,
                -2.0288945990111418,
                1.2337259589359437,
                2.0293404455870325,
                -1.9071343938252743,
                -1.556442537982862
            ]
        },
        {
            "positions": [
                -1.021046654809283,
                -2.079065908829292,
                1.1828627994475842,
                1.9728075630875692,
                -1.773924624869204,
                -1.6084509732044565
            ]
        },
        {
            "positions": [
                -1.055276695269875,
                -2.1292372186474426,
                1.131999639959225,
                1.9162746805881061,
                -1.6407148559131342,
                -1.660459408426051
            ]
        },
        {
            "positions": [
                -1.0895067357304677,
                -2.1794085284655935,
                1.0811364804708654,
                1.8597417980886428,
                -1.5075050869570639,
                -1.7124678436476457
            ]
        },
        {
            "positions": [
                -1.1237367761910602,
                -2.229579838283744,
                1.0302733209825061,
                1.8032089155891795,
                -1.3742953180009938,
                -1.7644762788692403
            ]
        },
        {
            "positions": [
                -1.1579668166516526,
                -2.2797511481018944,
                0.9794101614941465,
                1.7466760330897162,
                -1.2410855490449235,
                -1.816484714090835
            ]
        },
        {
            "positions": [
                -1.1921968571122452,
                -2.329922457920045,
                0.9285470020057871,
                1.690143150590253,
                -1.1078757800888535,
                -1.8684931493124295
            ]
        },
        {
            "positions": [
                -1.2264268975728374,
                -2.3800937677381953,
                0.8776838425174276,
                1.6336102680907898,
                -0.9746660111327836,
                -1.920501584534024
            ]
        },
        {
            "positions": [
                -1.26065693803343,
                -2.4302650775563457,
                0.8268206830290681,
                1.5770773855913265,
                -0.8414562421767133,
                -1.9725100197556187
            ]
        },
        {
            "positions": [
                -1.2551388440943134,
                -2.386570644686191,
                0.866414246873543,
                1.496579071135716,
                -0.7978189933434516,
                -1.8016932088410118
            ]
        },
        {
            "positions": [
                -1.2496207501551966,
                -2.3428762118160367,
                0.9060078107180178,
                1.4160807566801057,
                -0.75418174451019,
                -1.630876397926405
            ]
        },
        {
            "positions": [
                -1.24410265621608,
                -2.299181778945882,
                0.9456013745624927,
                1.3355824422244953,
                -0.7105444956769283,
                -1.460059587011798
            ]
        },
        {
            "positions": [
                -1.2385845622769633,
                -2.255487346075727,
                0.9851949384069676,
                1.255084127768885,
                -0.6669072468436668,
                -1.2892427760971912
            ]
        },
        {
            "positions": [
                -1.2330664683378465,
                -2.211792913205573,
                1.0247885022514425,
                1.1745858133132745,
                -0.6232699980104051,
                -1.1184259651825843
            ]
        },
        {
            "positions": [
                -1.2275483743987299,
                -2.168098480335418,
                1.0643820660959173,
                1.094087498857664,
                -0.5796327491771434,
                -0.9476091542679774
            ]
        },
        {
            "positions": [
                -1.2220302804596133,
                -2.124404047465264,
                1.1039756299403924,
                1.0135891844020537,
                -0.5359955003438818,
                -0.7767923433533706
            ]
        },
        {
            "positions": [
                -1.2165121865204964,
                -2.080709614595109,
                1.143569193784867,
                0.9330908699464433,
                -0.49235825151062007,
                -0.6059755324387637
            ]
        },
        {
            "positions": [
                -1.2109940925813798,
                -2.0370151817249544,
                1.1831627576293422,
                0.8525925554908329,
                -0.4487210026773584,
                -0.4351587215241568
            ]
        },
        {
            "positions": [
                -1.2054759986422632,
                -1.9933207488548,
                1.2227563214738169,
                0.7720942410352225,
                -0.4050837538440968,
                -0.2643419106095499
            ]
        },
        {
            "positions": [
                -1.1999579047031463,
                -1.9496263159846454,
                1.262349885318292,
                0.6915959265796122,
                -0.36144650501083514,
                -0.09352509969494327
            ]
        },
        {
            "positions": [
                -1.1944398107640297,
                -1.9059318831144907,
                1.3019434491627668,
                0.6110976121240017,
                -0.3178092561775735,
                0.07729171121966383
            ]
        },
        {
            "positions": [
                -1.188921716824913,
                -1.8622374502443362,
                1.3415370130072417,
                0.5305992976683913,
                -0.2741720073443118,
                0.2481085221342707
            ]
        },
        {
            "positions": [
                -1.1834036228857963,
                -1.8185430173741817,
                1.3811305768517166,
                0.4501009832127809,
                -0.2305347585110502,
                0.4189253330488776
            ]
        },
        {
            "positions": [
                -1.1778855289466796,
                -1.774848584504027,
                1.4207241406961915,
                0.3696026687571705,
                -0.1868975096777885,
                0.5897421439634845
            ]
        },
        {
            "positions": [
                -1.172367435007563,
                -1.7311541516338724,
                1.4603177045406663,
                0.2891043543015601,
                -0.1432602608445268,
                0.7605589548780913
            ]
        },
        {
            "positions": [
                -1.1668493410684462,
                -1.687459718763718,
                1.4999112683851412,
                0.20860603984594972,
                -0.09962301201126522,
                0.9313757657926982
            ]
        },
        {
            "positions": [
                -1.1613312471293296,
                -1.6437652858935632,
                1.539504832229616,
                0.12810772539033932,
                -0.05598576317800352,
                1.102192576707305
            ]
        },
        {
            "positions": [
                -1.155813153190213,
                -1.600070853023409,
                1.579098396074091,
                0.047609410934728924,
                -0.012348514344741934,
                1.273009387621912
            ]
        },
        {
            "positions": [
                -1.150295059251096,
                -1.5563764201532542,
                1.6186919599185658,
                -0.032888903520881474,
                0.031288734488519765,
                1.4438261985365188
            ]
        },
        {
            "positions": [
                -1.1447769653119795,
                -1.5126819872830997,
                1.6582855237630407,
                -0.11338721797649187,
                0.07492598332178135,
                1.6146430094511253
            ]
        },
        {
            "positions": [
                -1.1392588713728629,
                -1.4689875544129452,
                1.6978790876075156,
                -0.19388553243210205,
                0.11856323215504305,
                1.7854598203657321
            ]
        },
        {
            "positions": [
                -1.133740777433746,
                -1.4252931215427904,
                1.7374726514519907,
                -0.2743838468877129,
                0.16220048098830486,
                1.95627663128034
            ]
        },
        {
            "positions": [
                -1.1282226834946294,
                -1.381598688672636,
                1.7770662152964656,
                -0.35488216134332307,
                0.20583772982156634,
                2.1270934421949463
            ]
        },
        {
            "positions": [
                -1.1227045895555128,
                -1.3379042558024812,
                1.8166597791409405,
                -0.43538047579893346,
                0.24947497865482804,
                2.297910253109553
            ]
        },
        {
            "positions": [
                -1.117186495616396,
                -1.2942098229323267,
                1.8562533429854153,
                -0.5158787902545439,
                0.29311222748808974,
                2.46872706402416
            ]
        },
        {
            "positions": [
                -1.1116684016772793,
                -1.2505153900621722,
                1.8958469068298902,
                -0.5963771047101543,
                0.33674947632135144,
                2.639543874938767
            ]
        },
        {
            "positions": [
                -1.1061503077381627,
                -1.2068209571920177,
                1.935440470674365,
                -0.6768754191657647,
                0.3803867251546129,
                2.810360685853374
            ]
        },
        {
            "positions": [
                -1.1006322137990459,
                -1.163126524321863,
                1.97503403451884,
                -0.7573737336213751,
                0.4240239739878746,
                2.9811774967679807
            ]
        },
        {
            "positions": [
                -1.0951141198599292,
                -1.1194320914517084,
                2.014627598363315,
                -0.8378720480769853,
                0.4676612228211364,
                3.151994307682587
            ]
        }
    ]
}