{
    "goal": {
        "global_pose": {
            "orientation": {
                "w": -0.00223480608172531,
                "x": 0.0024358444001904467,
                "y": 0.7094548369677653,
                "z": -0.704743149386269
            },
            "position": {
                "x": -0.37947507619857795,
                "y": -0.6371506643295288,
                "z": 0.19426114857196808
            }
        },
        "name": "move_to_magneteinheit_C"
    },
    "id": "LBKPIECE_move_to_magneteinheit_C_140",
    "joint_names": [
        "shoulder_pan_joint",
        "shoulder_lift_joint",
        "elbow_joint",
        "wrist_1_joint",
        "wrist_2_joint",
        "wrist_3_joint"
    ],
    "metrics": {
        "cart_traj_len": 6.141913157029117,
        "distance_elbow_joint": 1.2071220597158456,
        "distance_shoulder_lift_joint": 2.709989820646916,
        "distance_shoulder_pan_joint": 10.02601567835983,
        "distance_wrist_1_joint": 7.004207809319652,
        "distance_wrist_2_joint": 2.23759466687438,
        "distance_wrist_3_joint": 5.076867349492684,
        "smoothness": 0.43693823616840055,
        "time": 4.70311577,
        "traj_len": 5.31618259509672,
        "weighted_distance": 6.903429188424311
    },
    "planner": "LBKPIECE",
    "start": {
        "state": {
            "elbow_joint": 1.9565354006590394,
            "shoulder_lift_joint": -1.4165861576513559,
            "shoulder_pan_joint": -1.6717766223277177,
            "wrist_1_joint": -0.5286633288215096,
            "wrist_2_joint": 1.4727565892594296,
            "wrist_3_joint": 3.1593482883155493
        }
    },
    "waypoints": [
        {
            "positions": [
                -1.6717766223277177,
                -1.4165861576513559,
                1.9565354006590394,
                -0.5286633288215096,
                1.4727565892594296,
                3.1593482883155493
            ]
        },
        {
            "positions": [
                -1.5028205073752294,
                -1.4601088137250615,
                1.9420959724087707,
                -0.5189631213321235,
                1.4120647208593857,
                3.069085604653942
            ]
        },
        {
            "positions": [
                -1.3338643924227411,
                -1.503631469798767,
                1.9276565441585023,
                -0.5092629138427376,
                1.351372852459342,
                2.978822920992335
            ]
        },
        {
            "positions": [
                -1.164908277470253,
                -1.5471541258724726,
                1.9132171159082336,
                -0.49956270635335154,
                1.290680984059298,
                2.8885602373307275
            ]
        },
        {
            "positions": [
                -0.9959521625177646,
                -1.5906767819461782,
                1.8987776876579652,
                -0.48986249886396555,
                1.2299891156592544,
                2.79829755366912
            ]
        },
        {
            "positions": [
                -0.8269960475652764,
                -1.6341994380198837,
                1.8843382594076965,
                -0.48016229137457955,
                1.1692972472592105,
                2.7080348700075128
            ]
        },
        {
            "positions": [
                -0.6580399326127881,
                -1.6777220940935893,
                1.869898831157428,
                -0.47046208388519356,
                1.1086053788591668,
                2.617772186345906
            ]
        },
        {
            "positions": [
                -0.48908381766029985,
                -1.721244750167295,
                1.8554594029071594,
                -0.46076187639580757,
                1.0479135104591228,
                2.5275095026842984
            ]
        },
        {
            "positions": [
                -0.32012770270781155,
                -1.7647674062410004,
                1.841019974656891,
                -0.4510616689064215,
                0.987221642059079,
                2.4372468190226915
            ]
        },
        {
            "positions": [
                -0.15117158775532347,
                -1.808290062314706,
                1.8265805464066223,
                -0.4413614614170355,
                0.9265297736590352,
                2.346984135361084
            ]
        },
        {
            "positions": [
                0.017784527197164834,
                -1.8518127183884117,
                1.8121411181563536,
                -0.43166125392764954,
                0.8658379052589913,
                2.2567214516994767
            ]
        },
        {
            "positions": [
                0.18674064214965314,
                -1.895335374462117,
                1.7977016899060851,
                -0.42196104643826354,
                0.8051460368589476,
                2.1664587680378693
            ]
        },
        {
            "positions": [
                0.35569675710214144,
                -1.9388580305358227,
                1.7832622616558165,
                -0.41226083894887755,
                0.7444541684589038,
                2.0761960843762624
            ]
        },
        {
            "positions": [
                0.5246528720546295,
                -1.9823806866095284,
                1.768822833405548,
                -0.4025606314594915,
                0.6837623000588599,
                1.985933400714655
            ]
        },
        {
            "positions": [
                0.693608987007118,
                -2.0259033426832342,
                1.7543834051552794,
                -0.3928604239701055,
                0.623070431658816,
                1.8956707170530476
            ]
        },
        {
            "positions": [
                0.8625651019596061,
                -2.0694259987569392,
                1.739943976905011,
                -0.3831602164807195,
                0.5623785632587723,
                1.8054080333914406
            ]
        },
        {
            "positions": [
                1.0315212169120946,
                -2.112948654830645,
                1.7255045486547422,
                -0.37346000899133347,
                0.5016866948587284,
                1.7151453497298332
            ]
        },
        {
            "positions": [
                1.2004773318645827,
                -2.156471310904351,
                1.7110651204044736,
                -0.36375980150194753,
                0.4409948264586845,
                1.6248826660682258
            ]
        },
        {
            "positions": [
                1.3694334468170708,
                -2.199993966978056,
                1.6966256921542051,
                -0.3540595940125615,
                0.3803029580586408,
                1.534619982406619
            ]
        },
        {
            "positions": [
                1.5383895617695593,
                -2.243516623051762,
                1.6821862639039364,
                -0.3443593865231755,
                0.31961108965859686,
                1.4443572987450115
            ]
        },
        {
            "positions": [
                1.7073456767220474,
                -2.2870392791254677,
                1.667746835653668,
                -0.3346591790337895,
                0.25891922125855293,
                1.3540946150834041
            ]
        },
        {
            "positions": [
                1.8763017916745355,
                -2.3305619351991727,
                1.6533074074033993,
                -0.3249589715444035,
                0.19822735285850923,
                1.2638319314217972
            ]
        },
        {
            "positions": [
                2.045257906627024,
                -2.3740845912728785,
                1.6388679791531309,
                -0.3152587640550175,
                0.13753548445846553,
                1.1735692477601898
            ]
        },
        {
            "positions": [
                2.2142140215795125,
                -2.4176072473465844,
                1.6244285509028622,
                -0.30555855656563147,
                0.0768436160584216,
                1.0833065640985824
            ]
        },
        {
            "positions": [
                2.3831701365320006,
                -2.4611299034202894,
                1.6099891226525935,
                -0.29585834907624553,
                0.016151747658377902,
                0.9930438804369754
            ]
        },
        {
            "positions": [
                2.5521262514844887,
                -2.5046525594939952,
                1.595549694402325,
                -0.2861581415868595,
                -0.04454012074166602,
                0.9027811967753681
            ]
        },
        {
            "positions": [
                2.3355930115215795,
                -2.510254635644602,
                1.586844894179186,
                -0.1615448780854032,
                -0.02157540138716909,
                0.8905637211521165
            ]
        },
        {
            "positions": [
                2.1190597715586703,
                -2.5158567117952093,
                1.5781400939560468,
                -0.03693161458394689,
                0.0013893179673278439,
                0.8783462455288649
            ]
        },
        {
            "positions": [
                1.9025265315957613,
                -2.521458787945816,
                1.5694352937329077,
                0.0876816489175094,
                0.02435403732182477,
                0.8661287699056133
            ]
        },
        {
            "positions": [
                1.6859932916328522,
                -2.5270608640964234,
                1.5607304935097686,
                0.2122949124189657,
                0.04731875667632171,
                0.8539112942823617
            ]
        },
        {
            "positions": [
                1.469460051669943,
                -2.53266294024703,
                1.5520256932866294,
                0.336908175920422,
                0.07028347603081864,
                0.8416938186591101
            ]
        },
        {
            "positions": [
                1.252926811707034,
                -2.538265016397637,
                1.5433208930634903,
                0.4615214394218783,
                0.09324819538531556,
                0.8294763430358585
            ]
        },
        {
            "positions": [
                1.0363935717441248,
                -2.5438670925482443,
                1.5346160928403512,
                0.5861347029233347,
                0.11621291473981252,
                0.8172588674126069
            ]
        },
        {
            "positions": [
                0.8198603317812156,
                -2.549469168698851,
                1.525911292617212,
                0.7107479664247909,
                0.13917763409430944,
                0.8050413917893553
            ]
        },
        {
            "positions": [
                0.6033270918183067,
                -2.5550712448494584,
                1.517206492394073,
                0.8353612299262472,
                0.16214235344880637,
                0.7928239161661037
            ]
        },
        {
            "positions": [
                0.3867938518553973,
                -2.560673321000065,
                1.5085016921709338,
                0.9599744934277035,
                0.1851070728033033,
                0.7806064405428521
            ]
        },
        {
            "positions": [
                0.17026061189248853,
                -2.566275397150672,
                1.4997968919477946,
                1.0845877569291598,
                0.20807179215780025,
                0.7683889649196005
            ]
        },
        {
            "positions": [
                -0.04627262807042065,
                -2.5718774733012792,
                1.4910920917246555,
                1.209201020430616,
                0.23103651151229715,
                0.7561714892963489
            ]
        },
        {
            "positions": [
                -0.26280586803332984,
                -2.577479549451886,
                1.4823872915015164,
                1.3338142839320724,
                0.2540012308667941,
                0.7439540136730973
            ]
        },
        {
            "positions": [
                -0.479339107996239,
                -2.5830816256024933,
                1.4736824912783772,
                1.4584275474335289,
                0.27696595022129106,
                0.7317365380498457
            ]
        },
        {
            "positions": [
                -0.6958723479591478,
                -2.5886837017531,
                1.4649776910552381,
                1.583040810934985,
                0.29993066957578796,
                0.7195190624265941
            ]
        },
        {
            "positions": [
                -0.9124055879220574,
                -2.594285777903707,
                1.456272890832099,
                1.7076540744364412,
                0.3228953889302849,
                0.7073015868033425
            ]
        },
        {
            "positions": [
                -1.1289388278849666,
                -2.599887854054314,
                1.4475680906089599,
                1.8322673379378975,
                0.34586010828478186,
                0.695084111180091
            ]
        },
        {
            "positions": [
                -1.3454720678478753,
                -2.605489930204921,
                1.4388632903858207,
                1.9568806014393538,
                0.36882482763927876,
                0.6828666355568394
            ]
        },
        {
            "positions": [
                -1.562005307810785,
                -2.6110920063555283,
                1.4301584901626816,
                2.08149386494081,
                0.39178954699377566,
                0.6706491599335878
            ]
        },
        {
            "positions": [
                -1.7785385477736941,
                -2.616694082506135,
                1.4214536899395425,
                2.2061071284422664,
                0.4147542663482726,
                0.6584316843103362
            ]
        },
        {
            "positions": [
                -1.9950717877366024,
                -2.622296158656742,
                1.4127488897164033,
                2.3307203919437227,
                0.4377189857027695,
                0.6462142086870846
            ]
        },
        {
            "positions": [
                -2.2116050276995116,
                -2.627898234807349,
                1.4040440894932642,
                2.455333655445179,
                0.4606837050572665,
                0.633996733063833
            ]
        },
        {
            "positions": [
                -2.428138267662421,
                -2.633500310957956,
                1.395339289270125,
                2.5799469189466353,
                0.4836484244117635,
                0.6217792574405814
            ]
        },
        {
            "positions": [
                -2.64467150762533,
                -2.6391023871085633,
                1.386634489046986,
                2.7045601824480916,
                0.5066131437662603,
                0.6095617818173298
            ]
        },
        {
            "positions": [
                -2.861204747588239,
                -2.64470446325917,
                1.3779296888238468,
                2.829173445949548,
                0.5295778631207573,
                0.5973443061940782
            ]
        },
        {
            "positions": [
                -2.8443011908284612,
                -2.580275266953122,
                1.4052564865577883,
                2.6706355748822177,
                0.5359335141212296,
                0.706686191731957
            ]
        },
        {
            "positions": [
                -2.8273976340686837,
                -2.515846070647074,
                1.4325832842917297,
                2.5120977038148875,
                0.5422891651217019,
                0.8160280772698357
            ]
        },
        {
            "positions": [
                -2.8104940773089058,
                -2.4514168743410263,
                1.4599100820256712,
                2.3535598327475573,
                0.5486448161221742,
                0.9253699628077146
            ]
        },
        {
            "positions": [
                -2.793590520549128,
                -2.386987678034979,
                1.4872368797596125,
                2.195021961680227,
                0.5550004671226465,
                1.0347118483455933
            ]
        },
        {
            "positions": [
                -2.77668696378935,
                -2.322558481728931,
                1.514563677493554,
                2.036484090612897,
                0.5613561181231188,
                1.1440537338834722
            ]
        },
        {
            "positions": [
                -2.7597834070295724,
                -2.258129285422883,
                1.5418904752274953,
                1.8779462195455667,
                0.567711769123591,
                1.253395619421351
            ]
        },
        {
            "positions": [
                -2.7428798502697944,
                -2.193700089116835,
                1.5692172729614369,
                1.7194083484782365,
                0.5740674201240633,
                1.3627375049592296
            ]
        },
        {
            "positions": [
                -2.7259762935100165,
                -2.129270892810787,
                1.5965440706953782,
                1.5608704774109066,
                0.5804230711245356,
                1.4720793904971083
            ]
        },
        {
            "positions": [
                -2.7090727367502385,
                -2.064841696504739,
                1.6238708684293197,
                1.4023326063435764,
                0.5867787221250079,
                1.5814212760349875
            ]
        },
        {
            "positions": [
                -2.692169179990461,
                -2.000412500198691,
                1.6511976661632612,
                1.2437947352762462,
                0.5931343731254802,
                1.690763161572866
            ]
        },
        {
            "positions": [
                -2.675265623230683,
                -1.9359833038926435,
                1.6785244638972026,
                1.085256864208916,
                0.5994900241259525,
                1.800105047110745
            ]
        },
        {
            "positions": [
                -2.658362066470905,
                -1.8715541075865956,
                1.705851261631144,
                0.9267189931415858,
                0.6058456751264248,
                1.9094469326486236
            ]
        },
        {
            "positions": [
                -2.641458509711127,
                -1.8071249112805479,
                1.7331780593650854,
                0.7681811220742558,
                0.6122013261268971,
                2.0187888181865024
            ]
        },
        {
            "positions": [
                -2.6245549529513497,
                -1.7426957149745,
                1.760504857099027,
                0.6096432510069252,
                0.6185569771273695,
                2.1281307037243815
            ]
        },
        {
            "positions": [
                -2.6076513961915717,
                -1.678266518668452,
                1.7878316548329685,
                0.45110537993959543,
                0.6249126281278418,
                2.23747258926226
            ]
        },
        {
            "positions": [
                -2.5907478394317938,
                -1.613837322362404,
                1.8151584525669098,
                0.29256750887226524,
                0.6312682791283141,
                2.346814474800139
            ]
        },
        {
            "positions": [
                -2.573844282672016,
                -1.5494081260563564,
                1.842485250300851,
                0.13402963780493504,
                0.6376239301287863,
                2.456156360338017
            ]
        },
        {
            "positions": [
                -2.5569407259122383,
                -1.4849789297503082,
                1.8698120480347926,
                -0.02450823326239515,
                0.6439795811292586,
                2.5654982458758964
            ]
        },
        {
            "positions": [
                -2.5400371691524604,
                -1.4205497334442605,
                1.8971388457687341,
                -0.18304610432972535,
                0.6503352321297309,
                2.674840131413775
            ]
        },
        {
            "positions": [
                -2.5231336123926824,
                -1.3561205371382126,
                1.9244656435026755,
                -0.34158397539705554,
                0.6566908831302032,
                2.784182016951654
            ]
        },
        {
            "positions": [
                -2.506230055632905,
                -1.2916913408321649,
                1.9517924412366168,
                -0.5001218464643857,
                0.6630465341306755,
                2.8935239024895325
            ]
        },
        {
            "positions": [
                -2.489326498873127,
                -1.227262144526117,
                1.9791192389705583,
                -0.6586597175317159,
                0.6694021851311478,
                3.0028657880274117
            ]
        },
        {
            "positions": [
                -2.472422942113349,
                -1.162832948220069,
                2.0064460367045,
                -0.8171975885990462,
                0.6757578361316201,
                3.1122076735652904
            ]
        }
    ]
}