{
    "goal": {
        "global_pose": {
            "orientation": {
                "w": 0.005598929693374612,
                "x": 0.007748599140229565,
                "y": 0.7110244013736278,
                "z": -0.7031023480610252
            },
            "position": {
                "x": -0.8858502320852131,
                "y": -0.7141253447532654,
                "z": 0.3711530566215515
            }
        },
        "name": "move_to_auspresseinheit_C"
    },
    "id": "LBKPIECE_move_to_auspresseinheit_C_53",
    "joint_names": [
        "shoulder_pan_joint",
        "shoulder_lift_joint",
        "elbow_joint",
        "wrist_1_joint",
        "wrist_2_joint",
        "wrist_3_joint"
    ],
    "metrics": {
        "cart_traj_len": 0.49326694517161523,
        "distance_elbow_joint": 1.0068682744068571,
        "distance_shoulder_lift_joint": 0.3284349640484665,
        "distance_shoulder_pan_joint": 0.25696472600549836,
        "distance_wrist_1_joint": 0.7006485258802474,
        "distance_wrist_2_joint": 1.3024484795688416,
        "distance_wrist_3_joint": 0.07029284284139647,
        "smoothness": 1.1304088990788627e-15,
        "time": 4.287630297,
        "traj_len": 1.91459076900295,
        "weighted_distance": 2.4102573522101722
    },
    "planner": "LBKPIECE",
    "start": {
        "state": {
            "elbow_joint": 1.752795957773711,
            "shoulder_lift_joint": -0.9740617694225064,
            "shoulder_pan_joint": -2.967991417825858,
            "wrist_1_joint": -0.7595177689806859,
            "wrist_2_joint": 1.7443932448377395,
            "wrist_3_joint": 3.199131542505932
        }
    },
    "waypoints": [
        {
            "positions": [
                -2.967991417825858,
                -0.9740617694225064,
                1.752795957773711,
                -0.7595177689806859,
                1.7443932448377395,
                3.199131542505932
            ]
        },
        {
            "positions": [
                -2.942294945225308,
                -0.9412182730176598,
                1.6521091303330253,
                -0.6894529163926612,
                1.6141483968808554,
                3.1921022582217926
            ]
        },
        {
            "positions": [
                -2.9165984726247585,
                -0.9083747766128132,
                1.5514223028923397,
                -0.6193880638046364,
                1.4839035489239711,
                3.1850729739376527
            ]
        },
        {
            "positions": [
                -2.8909020000242083,
                -0.8755312802079664,
                1.450735475451654,
                -0.5493232112166117,
                1.353658700967087,
                3.178043689653513
            ]
        },
        {
            "positions": [
                -2.8652055274236585,
                -0.8426877838031198,
                1.3500486480109681,
                -0.47925835862858696,
                1.2234138530102028,
                3.1710144053693736
            ]
        },
        {
            "positions": [
                -2.839509054823109,
                -0.8098442873982732,
                1.2493618205702826,
                -0.4091935060405622,
                1.0931690050533187,
                3.1639851210852337
            ]
        },
        {
            "positions": [
                -2.813812582222559,
                -0.7770007909934266,
                1.148674993129597,
                -0.33912865345253745,
                0.9629241570964345,
                3.156955836801094
            ]
        },
        {
            "positions": [
                -2.7881161096220093,
                -0.7441572945885799,
                1.0479881656889112,
                -0.26906380086451276,
                0.8326793091395505,
                3.1499265525169546
            ]
        },
        {
            "positions": [
                -2.762419637021459,
                -0.7113137981837332,
                0.9473013382482254,
                -0.198998948276488,
                0.7024344611826663,
                3.142897268232815
            ]
        },
        {
            "positions": [
                -2.7367231644209093,
                -0.6784703017788866,
                0.8466145108075397,
                -0.12893409568846326,
                0.572189613225782,
                3.135867983948675
            ]
        },
        {
            "positions": [
                -2.7110266918203596,
                -0.6456268053740399,
                0.7459276833668541,
                -0.05886924310043851,
                0.441944765268898,
                3.1288386996645356
            ]
        }
    ]
}