{
    "goal": {
        "global_pose": {
            "orientation": {
                "w": -0.4816463035849501,
                "x": 0.5182115481033762,
                "y": 0.4908360881923453,
                "z": -0.5084816262002911
            },
            "position": {
                "x": -0.8240239810943604,
                "y": 0.19912469901144506,
                "z": 0.16403168439865112
            }
        },
        "name": "move_to_storage_D"
    },
    "id": "LBKPIECE_move_to_storage_D_89",
    "joint_names": [
        "shoulder_pan_joint",
        "shoulder_lift_joint",
        "elbow_joint",
        "wrist_1_joint",
        "wrist_2_joint",
        "wrist_3_joint"
    ],
    "metrics": {
        "cart_traj_len": 3.854008387873104,
        "distance_elbow_joint": 4.208226598403438,
        "distance_shoulder_lift_joint": 1.496221249235848,
        "distance_shoulder_pan_joint": 3.6753826602112603,
        "distance_wrist_1_joint": 2.2616917655950894,
        "distance_wrist_2_joint": 2.123671249485791,
        "distance_wrist_3_joint": 3.1382441529884595,
        "smoothness": 0.13174669200020378,
        "time": 4.550581588,
        "traj_len": 4.111379047949713,
        "weighted_distance": 5.250265612040755
    },
    "planner": "LBKPIECE",
    "start": {
        "state": {
            "elbow_joint": -2.384821997420982,
            "shoulder_lift_joint": -2.2788054674887404,
            "shoulder_pan_joint": -0.18546946417610016,
            "wrist_1_joint": 1.4845937964226739,
            "wrist_2_joint": 0.1789877726866377,
            "wrist_3_joint": 0.03710572555276528
        }
    },
    "waypoints": [
        {
            "positions": [
                -0.18546946417610016,
                -2.2788054674887404,
                -2.384821997420982,
                1.4845937964226739,
                0.1789877726866377,
                0.03710572555276528
            ]
        },
        {
            "positions": [
                -0.06069558610532158,
                -2.225708619341609,
                -2.3086340442792412,
                1.4592763076371673,
                0.23656771605981058,
                0.094397589946071
            ]
        },
        {
            "positions": [
                0.064078291965457,
                -2.172611771194478,
                -2.2324460911375006,
                1.4339588188516608,
                0.29414765943298343,
                0.15168945433937672
            ]
        },
        {
            "positions": [
                0.18885217003623556,
                -2.1195149230473462,
                -2.15625813799576,
                1.408641330066154,
                0.35172760280615634,
                0.20898131873268244
            ]
        },
        {
            "positions": [
                0.31362604810701417,
                -2.066418074900215,
                -2.0800701848540193,
                1.3833238412806474,
                0.4093075461793292,
                0.26627318312598813
            ]
        },
        {
            "positions": [
                0.4383999261777927,
                -2.013321226753084,
                -2.0038822317122786,
                1.358006352495141,
                0.46688748955250203,
                0.3235650475192939
            ]
        },
        {
            "positions": [
                0.5631738042485712,
                -1.9602243786059526,
                -1.927694278570538,
                1.3326888637096344,
                0.5244674329256749,
                0.38085691191259957
            ]
        },
        {
            "positions": [
                0.6879476823193498,
                -1.9071275304588213,
                -1.8515063254287973,
                1.3073713749241276,
                0.5820473762988477,
                0.43814877630590526
            ]
        },
        {
            "positions": [
                0.8127215603901286,
                -1.8540306823116899,
                -1.7753183722870567,
                1.282053886138621,
                0.6396273196720207,
                0.495440640699211
            ]
        },
        {
            "positions": [
                0.9374954384609071,
                -1.8009338341645584,
                -1.699130419145316,
                1.2567363973531145,
                0.6972072630451934,
                0.5527325050925167
            ]
        },
        {
            "positions": [
                1.0622693165316857,
                -1.7478369860174272,
                -1.6229424660035754,
                1.231418908567608,
                0.7547872064183664,
                0.6100243694858225
            ]
        },
        {
            "positions": [
                1.1870431946024642,
                -1.694740137870296,
                -1.5467545128618347,
                1.2061014197821014,
                0.8123671497915392,
                0.6673162338791281
            ]
        },
        {
            "positions": [
                1.3118170726732428,
                -1.6416432897231645,
                -1.470566559720094,
                1.1807839309965946,
                0.8699470931647121,
                0.7246080982724339
            ]
        },
        {
            "positions": [
                1.4365909507440213,
                -1.5885464415760333,
                -1.3943786065783534,
                1.155466442211088,
                0.9275270365378849,
                0.7818999626657396
            ]
        },
        {
            "positions": [
                1.5613648288147999,
                -1.535449593428902,
                -1.3181906534366128,
                1.1301489534255815,
                0.9851069799110578,
                0.8391918270590453
            ]
        },
        {
            "positions": [
                1.6861387068855782,
                -1.4823527452817706,
                -1.2420027002948721,
                1.104831464640075,
                1.0426869232842306,
                0.896483691452351
            ]
        },
        {
            "positions": [
                1.8109125849563572,
                -1.4292558971346394,
                -1.1658147471531315,
                1.0795139758545682,
                1.1002668666574036,
                0.9537755558456568
            ]
        },
        {
            "positions": [
                1.9356864630271358,
                -1.3761590489875082,
                -1.0896267940113908,
                1.0541964870690617,
                1.1578468100305765,
                1.0110674202389625
            ]
        },
        {
            "positions": [
                2.0604603410979143,
                -1.3230622008403767,
                -1.0134388408696502,
                1.0288789982835551,
                1.2154267534037493,
                1.0683592846322683
            ]
        },
        {
            "positions": [
                2.1852342191686924,
                -1.2699653526932455,
                -0.9372508877279095,
                1.0035615094980486,
                1.2730066967769222,
                1.1256511490255738
            ]
        },
        {
            "positions": [
                2.3100080972394714,
                -1.216868504546114,
                -0.8610629345861689,
                0.9782440207125419,
                1.3305866401500952,
                1.1829430134188799
            ]
        },
        {
            "positions": [
                2.43478197531025,
                -1.1637716563989828,
                -0.7848749814444282,
                0.9529265319270352,
                1.388166583523268,
                1.2402348778121854
            ]
        },
        {
            "positions": [
                2.5595558533810285,
                -1.1106748082518516,
                -0.7086870283026876,
                0.9276090431415287,
                1.445746526896441,
                1.297526742205491
            ]
        },
        {
            "positions": [
                2.684329731451807,
                -1.0575779601047202,
                -0.6324990751609469,
                0.9022915543560222,
                1.5033264702696136,
                1.3548186065987968
            ]
        },
        {
            "positions": [
                2.8091036095225856,
                -1.0044811119575887,
                -0.5563111220192063,
                0.8769740655705155,
                1.5609064136427866,
                1.4121104709921026
            ]
        },
        {
            "positions": [
                2.933877487593364,
                -0.9513842638104575,
                -0.48012316887746564,
                0.8516565767850088,
                1.6184863570159596,
                1.4694023353854084
            ]
        },
        {
            "positions": [
                3.0586513656641428,
                -0.8982874156633263,
                -0.403935215735725,
                0.8263390879995023,
                1.6760663003891323,
                1.526694199778714
            ]
        },
        {
            "positions": [
                3.033283022701142,
                -0.9050934860992341,
                -0.2729152265170086,
                0.7320192611070365,
                1.639207904990115,
                1.6236739455882734
            ]
        },
        {
            "positions": [
                3.007914679738141,
                -0.9118995565351421,
                -0.14189523729829218,
                0.6376994342145708,
                1.6023495095910973,
                1.720653691397833
            ]
        },
        {
            "positions": [
                2.9825463367751395,
                -0.91870562697105,
                -0.010875248079575739,
                0.5433796073221049,
                1.56549111419208,
                1.8176334372073923
            ]
        },
        {
            "positions": [
                2.9571779938121385,
                -0.9255116974069579,
                0.12014474113914064,
                0.4490597804296392,
                1.5286327187930626,
                1.914613183016952
            ]
        },
        {
            "positions": [
                2.9318096508491376,
                -0.9323177678428658,
                0.25116473035785714,
                0.35473995353717336,
                1.491774323394045,
                2.0115929288265115
            ]
        },
        {
            "positions": [
                2.9064413078861366,
                -0.9391238382787738,
                0.3821847195765735,
                0.2604201266447076,
                1.4549159279950277,
                2.1085726746360707
            ]
        },
        {
            "positions": [
                2.8810729649231357,
                -0.9459299087146816,
                0.5132047087952899,
                0.16610029975224183,
                1.41805753259601,
                2.2055524204456303
            ]
        },
        {
            "positions": [
                2.8557046219601347,
                -0.9527359791505896,
                0.6442246980140063,
                0.07178047285977607,
                1.3811991371969927,
                2.3025321662551894
            ]
        },
        {
            "positions": [
                2.8303362789971334,
                -0.9595420495864975,
                0.7752446872327228,
                -0.022539354032689807,
                1.3443407417979754,
                2.3995119120647495
            ]
        },
        {
            "positions": [
                2.8049679360341324,
                -0.9663481200224054,
                0.9062646764514393,
                -0.11685918092515557,
                1.3074823463989578,
                2.4964916578743086
            ]
        },
        {
            "positions": [
                2.7795995930711315,
                -0.9731541904583133,
                1.0372846656701555,
                -0.21117900781762144,
                1.2706239509999404,
                2.593471403683868
            ]
        },
        {
            "positions": [
                2.7542312501081305,
                -0.9799602608942213,
                1.168304654888872,
                -0.3054988347100871,
                1.233765555600923,
                2.690451149493428
            ]
        },
        {
            "positions": [
                2.7288629071451296,
                -0.9867663313301291,
                1.2993246441075883,
                -0.39981866160255275,
                1.1969071602019055,
                2.787430895302987
            ]
        },
        {
            "positions": [
                2.7034945641821286,
                -0.993572401766037,
                1.4303446333263048,
                -0.4941384884950186,
                1.160048764802888,
                2.884410641112546
            ]
        },
        {
            "positions": [
                2.6781262212191272,
                -1.000378472201945,
                1.561364622545021,
                -0.5884583153874845,
                1.1231903694038707,
                2.981390386922106
            ]
        },
        {
            "positions": [
                2.6527578782561263,
                -1.007184542637853,
                1.6923846117637376,
                -0.6827781422799502,
                1.0863319740048532,
                3.0783701327316653
            ]
        },
        {
            "positions": [
                2.6273895352931254,
                -1.0139906130737608,
                1.8234046009824543,
                -0.777097969172416,
                1.0494735786058358,
                3.175349878541225
            ]
        }
    ]
}