{
    "goal": {
        "global_pose": {
            "orientation": {
                "w": 0.7047431468963623,
                "x": -0.7094548344612122,
                "y": 0.0024358443915843964,
                "z": -0.0022348060738295317
            },
            "position": {
                "x": 0.6094750761985779,
                "y": 0.3671506643295288,
                "z": 0.19426114857196808
            }
        },
        "name": "move_to_magneteinheit_A"
    },
    "id": "LBKPIECE_move_to_magneteinheit_A_33",
    "joint_names": [
        "shoulder_pan_joint",
        "shoulder_lift_joint",
        "elbow_joint",
        "wrist_1_joint",
        "wrist_2_joint",
        "wrist_3_joint"
    ],
    "metrics": {
        "cart_traj_len": 1.054065776088744,
        "distance_elbow_joint": 0.3812986017055071,
        "distance_shoulder_lift_joint": 0.3677062624989005,
        "distance_shoulder_pan_joint": 1.2417462536838044,
        "distance_wrist_1_joint": 2.207258768513507,
        "distance_wrist_2_joint": 1.7012012172395732,
        "distance_wrist_3_joint": 1.2232052093708239,
        "smoothness": 1.8698493194378823e-16,
        "time": 4.269993203,
        "traj_len": 2.6687855502104543,
        "weighted_distance": 3.671142426753128
    },
    "planner": "LBKPIECE",
    "start": {
        "state": {
            "elbow_joint": 1.5739458966750683,
            "shoulder_lift_joint": -1.4977259741207325,
            "shoulder_pan_joint": -1.1188672016454206,
            "wrist_1_joint": 1.494575848278785,
            "wrist_2_joint": -1.5706037134824402,
            "wrist_3_joint": -2.0226957942261072
        }
    },
    "waypoints": [
        {
            "positions": [
                -1.1188672016454206,
                -1.4977259741207325,
                1.5739458966750683,
                1.494575848278785,
                -1.5706037134824402,
                -2.0226957942261072
            ]
        },
        {
            "positions": [
                -1.049881298662987,
                -1.477297848426349,
                1.5951291523253743,
                1.3719503611391457,
                -1.4760925347469083,
                -2.090651639191153
            ]
        },
        {
            "positions": [
                -0.9808953956805535,
                -1.4568697227319658,
                1.6163124079756803,
                1.2493248739995064,
                -1.3815813560113765,
                -2.1586074841561986
            ]
        },
        {
            "positions": [
                -0.9119094926981199,
                -1.4364415970375823,
                1.637495663625986,
                1.1266993868598671,
                -1.2870701772758446,
                -2.2265633291212445
            ]
        },
        {
            "positions": [
                -0.8429235897156864,
                -1.416013471343199,
                1.658678919276292,
                1.0040738997202279,
                -1.1925589985403129,
                -2.2945191740862905
            ]
        },
        {
            "positions": [
                -0.7739376867332528,
                -1.3955853456488156,
                1.679862174926598,
                0.8814484125805886,
                -1.098047819804781,
                -2.362475019051336
            ]
        },
        {
            "positions": [
                -0.7049517837508192,
                -1.3751572199544324,
                1.701045430576904,
                0.7588229254409493,
                -1.0035366410692492,
                -2.430430864016382
            ]
        },
        {
            "positions": [
                -0.6359658807683856,
                -1.354729094260049,
                1.72222868622721,
                0.63619743830131,
                -0.9090254623337173,
                -2.498386708981428
            ]
        },
        {
            "positions": [
                -0.566979977785952,
                -1.3343009685656657,
                1.743411941877516,
                0.5135719511616708,
                -0.8145142835981855,
                -2.5663425539464733
            ]
        },
        {
            "positions": [
                -0.4979940748035184,
                -1.3138728428712823,
                1.764595197527822,
                0.3909464640220315,
                -0.7200031048626536,
                -2.634298398911519
            ]
        },
        {
            "positions": [
                -0.42900817182108486,
                -1.2934447171768988,
                1.7857784531781278,
                0.2683209768823922,
                -0.6254919261271218,
                -2.702254243876565
            ]
        },
        {
            "positions": [
                -0.3600222688386512,
                -1.2730165914825156,
                1.8069617088284338,
                0.14569548974275293,
                -0.53098074739159,
                -2.770210088841611
            ]
        },
        {
            "positions": [
                -0.2910363658562177,
                -1.252588465788132,
                1.8281449644787398,
                0.02307000260311365,
                -0.43646956865605824,
                -2.8381659338066565
            ]
        },
        {
            "positions": [
                -0.22205046287378416,
                -1.2321603400937489,
                1.8493282201290457,
                -0.09955548453652563,
                -0.3419583899205263,
                -2.9061217787717024
            ]
        },
        {
            "positions": [
                -0.15306455989135048,
                -1.2117322143993654,
                1.8705114757793517,
                -0.2221809716761649,
                -0.24744721118499435,
                -2.974077623736748
            ]
        },
        {
            "positions": [
                -0.08407865690891692,
                -1.1913040887049822,
                1.8916947314296575,
                -0.3448064588158042,
                -0.1529360324494624,
                -3.042033468701794
            ]
        },
        {
            "positions": [
                -0.015092753926483349,
                -1.1708759630105987,
                1.9128779870799635,
                -0.46743194595544346,
                -0.05842485371393069,
                -3.1099893136668397
            ]
        },
        {
            "positions": [
                0.05389314905595022,
                -1.1504478373162152,
                1.9340612427302695,
                -0.5900574330950825,
                0.03608632502160103,
                -3.1779451586318856
            ]
        },
        {
            "positions": [
                0.12287905203838372,
                -1.130019711621832,
                1.9552444983805755,
                -0.7126829202347221,
                0.13059750375713305,
                -3.245901003596931
            ]
        }
    ]
}