{
    "goal": {
        "global_pose": {
            "orientation": {
                "w": 0.005598929693374612,
                "x": 0.007748599140229565,
                "y": 0.7110244013736278,
                "z": -0.7031023480610252
            },
            "position": {
                "x": 0.1141497679147869,
                "y": -0.7141253447532654,
                "z": 0.3711530566215515
            }
        },
        "name": "move_to_auspresseinheit_B"
    },
    "id": "LBKPIECE_move_to_auspresseinheit_B_95",
    "joint_names": [
        "shoulder_pan_joint",
        "shoulder_lift_joint",
        "elbow_joint",
        "wrist_1_joint",
        "wrist_2_joint",
        "wrist_3_joint"
    ],
    "metrics": {
        "cart_traj_len": 0.5647536574271211,
        "distance_elbow_joint": 0.06350847026109574,
        "distance_shoulder_lift_joint": 0.2932390179098512,
        "distance_shoulder_pan_joint": 0.5746219189709252,
        "distance_wrist_1_joint": 0.3267652530536953,
        "distance_wrist_2_joint": 1.0070270943369808,
        "distance_wrist_3_joint": 0.003221499798423899,
        "smoothness": 3.806478935924272e-16,
        "time": 0.725729643,
        "traj_len": 1.5061152858699005,
        "weighted_distance": 1.8996364392479146
    },
    "planner": "LBKPIECE",
    "start": {
        "state": {
            "elbow_joint": 2.019306165916698,
            "shoulder_lift_joint": -1.1220205098164344,
            "shoulder_pan_joint": -1.095207207618794,
            "wrist_1_joint": -0.8559671824921639,
            "wrist_2_joint": 0.47596387242952726,
            "wrist_3_joint": 3.159081874673826
        }
    },
    "waypoints": [
        {
            "positions": [
                -1.095207207618794,
                -1.1220205098164344,
                2.019306165916698,
                -0.8559671824921639,
                0.47596387242952726,
                3.159081874673826
            ]
        },
        {
            "positions": [
                -1.1909775274472816,
                -1.1708936794680762,
                2.008721420873182,
                -0.8015063069832147,
                0.6438017214856907,
                3.158544958040755
            ]
        },
        {
            "positions": [
                -1.286747847275769,
                -1.2197668491197182,
                1.9981366758296661,
                -0.7470454314742654,
                0.8116395705418542,
                3.1580080414076845
            ]
        },
        {
            "positions": [
                -1.3825181671042566,
                -1.26864001877136,
                1.9875519307861502,
                -0.6925845559653162,
                0.9794774195980176,
                3.157471124774614
            ]
        },
        {
            "positions": [
                -1.478288486932744,
                -1.3175131884230018,
                1.976967185742634,
                -0.638123680456367,
                1.147315268654181,
                3.1569342081415432
            ]
        },
        {
            "positions": [
                -1.5740588067612316,
                -1.3663863580746438,
                1.9663824406991182,
                -0.5836628049474177,
                1.3151531177103446,
                3.1563972915084726
            ]
        },
        {
            "positions": [
                -1.6698291265897192,
                -1.4152595277262856,
                1.9557976956556022,
                -0.5292019294384686,
                1.482990966766508,
                3.155860374875402
            ]
        }
    ]
}