{
    "goal": {
        "global_pose": {
            "orientation": {
                "w": 0.7047431468963623,
                "x": -0.7094548344612122,
                "y": 0.0024358443915843964,
                "z": -0.0022348060738295317
            },
            "position": {
                "x": 0.6094750761985779,
                "y": 0.3671506643295288,
                "z": 0.19426114857196808
            }
        },
        "name": "move_to_magneteinheit_A"
    },
    "id": "LBKPIECE_move_to_magneteinheit_A_109",
    "joint_names": [
        "shoulder_pan_joint",
        "shoulder_lift_joint",
        "elbow_joint",
        "wrist_1_joint",
        "wrist_2_joint",
        "wrist_3_joint"
    ],
    "metrics": {
        "cart_traj_len": 1.0533755018046342,
        "distance_elbow_joint": 0.3960558549489288,
        "distance_shoulder_lift_joint": 0.36001802285707685,
        "distance_shoulder_pan_joint": 1.2414173504194896,
        "distance_wrist_1_joint": 2.2692439831928106,
        "distance_wrist_2_joint": 1.6922077080751328,
        "distance_wrist_3_joint": 1.18052810019253,
        "smoothness": 0.0,
        "time": 1.760147694,
        "traj_len": 2.6719788583905317,
        "weighted_distance": 3.6690569512258833
    },
    "planner": "LBKPIECE",
    "start": {
        "state": {
            "elbow_joint": 1.5739458966750683,
            "shoulder_lift_joint": -1.4977259741207325,
            "shoulder_pan_joint": -1.1188672016454206,
            "wrist_1_joint": 1.494575848278785,
            "wrist_2_joint": -1.5706037134824402,
            "wrist_3_joint": -2.0226957942261072
        }
    },
    "waypoints": [
        {
            "positions": [
                -1.1188672016454206,
                -1.4977259741207325,
                1.5739458966750683,
                1.494575848278785,
                -1.5706037134824402,
                -2.0226957942261072
            ]
        },
        {
            "positions": [
                -1.0535294463601843,
                -1.4787776571282547,
                1.5947909416723804,
                1.3751419544265318,
                -1.4815401498995384,
                -2.0848288521309772
            ]
        },
        {
            "positions": [
                -0.9881916910749481,
                -1.4598293401357771,
                1.6156359866696923,
                1.2557080605742785,
                -1.3924765863166368,
                -2.1469619100358472
            ]
        },
        {
            "positions": [
                -0.9228539357897118,
                -1.4408810231432994,
                1.6364810316670044,
                1.1362741667220253,
                -1.303413022733735,
                -2.2090949679407172
            ]
        },
        {
            "positions": [
                -0.8575161805044755,
                -1.4219327061508216,
                1.6573260766643165,
                1.0168402728697723,
                -1.2143494591508333,
                -2.2712280258455873
            ]
        },
        {
            "positions": [
                -0.7921784252192392,
                -1.4029843891583438,
                1.6781711216616286,
                0.8974063790175191,
                -1.1252858955679317,
                -2.3333610837504573
            ]
        },
        {
            "positions": [
                -0.7268406699340029,
                -1.3840360721658662,
                1.6990161666589405,
                0.7779724851652658,
                -1.0362223319850299,
                -2.3954941416553273
            ]
        },
        {
            "positions": [
                -0.6615029146487665,
                -1.3650877551733884,
                1.7198612116562526,
                0.6585385913130127,
                -0.9471587684021282,
                -2.4576271995601973
            ]
        },
        {
            "positions": [
                -0.5961651593635303,
                -1.3461394381809106,
                1.7407062566535647,
                0.5391046974607595,
                -0.8580952048192264,
                -2.5197602574650673
            ]
        },
        {
            "positions": [
                -0.530827404078294,
                -1.3271911211884329,
                1.7615513016508768,
                0.4196708036085064,
                -0.7690316412363247,
                -2.5818933153699373
            ]
        },
        {
            "positions": [
                -0.46548964879305765,
                -1.3082428041959553,
                1.7823963466481887,
                0.30023690975625317,
                -0.679968077653423,
                -2.6440263732748073
            ]
        },
        {
            "positions": [
                -0.4001518935078213,
                -1.2892944872034775,
                1.8032413916455008,
                0.18080301590399972,
                -0.5909045140705212,
                -2.7061594311796773
            ]
        },
        {
            "positions": [
                -0.3348141382225851,
                -1.2703461702109997,
                1.824086436642813,
                0.061369122051746716,
                -0.5018409504876196,
                -2.7682924890845473
            ]
        },
        {
            "positions": [
                -0.26947638293734877,
                -1.251397853218522,
                1.844931481640125,
                -0.05806477180050651,
                -0.41277738690471777,
                -2.8304255469894173
            ]
        },
        {
            "positions": [
                -0.20413862765211255,
                -1.2324495362260444,
                1.8657765266374369,
                -0.1774986656527595,
                -0.3237138233218162,
                -2.8925586048942873
            ]
        },
        {
            "positions": [
                -0.13880087236687622,
                -1.2135012192335666,
                1.886621571634749,
                -0.29693255950501296,
                -0.2346502597389144,
                -2.9546916627991573
            ]
        },
        {
            "positions": [
                -0.07346311708164,
                -1.1945529022410888,
                1.907466616632061,
                -0.41636645335726596,
                -0.1455866961560126,
                -3.0168247207040273
            ]
        },
        {
            "positions": [
                -0.008125361796403663,
                -1.1756045852486112,
                1.928311661629373,
                -0.5358003472095192,
                -0.05652313257311081,
                -3.0789577786088973
            ]
        },
        {
            "positions": [
                0.05721239348883267,
                -1.1566562682561334,
                1.949156706626685,
                -0.6552342410617722,
                0.03254043100979076,
                -3.1410908365137673
            ]
        },
        {
            "positions": [
                0.12255014877406908,
                -1.1377079512636556,
                1.9700017516239972,
                -0.7746681349140258,
                0.1216039945926925,
                -3.2032238944186373
            ]
        }
    ]
}