{
    "goal": {
        "global_pose": {
            "orientation": {
                "w": 0.5084816217422485,
                "x": -0.49083608388900757,
                "y": 0.5182115435600281,
                "z": -0.4816462993621826
            },
            "position": {
                "x": 0.5540239810943604,
                "y": 0.030875300988554955,
                "z": 0.16403168439865112
            }
        },
        "name": "move_to_storage_A"
    },
    "id": "LBKPIECE_move_to_storage_A_83",
    "joint_names": [
        "shoulder_pan_joint",
        "shoulder_lift_joint",
        "elbow_joint",
        "wrist_1_joint",
        "wrist_2_joint",
        "wrist_3_joint"
    ],
    "metrics": {
        "cart_traj_len": 0.3534207340638462,
        "distance_elbow_joint": 0.44926370158481577,
        "distance_shoulder_lift_joint": 0.23387328810326746,
        "distance_shoulder_pan_joint": 0.45981497492735085,
        "distance_wrist_1_joint": 0.24295379999773792,
        "distance_wrist_2_joint": 1.1089733054385191,
        "distance_wrist_3_joint": 0.09386922321390223,
        "smoothness": 4.440892098500626e-16,
        "time": 4.559606134,
        "traj_len": 1.6089587605857378,
        "weighted_distance": 2.031849857920032
    },
    "planner": "LBKPIECE",
    "start": {
        "state": {
            "elbow_joint": 1.9715474177455299,
            "shoulder_lift_joint": -1.139484666580328,
            "shoulder_pan_joint": 0.12281154398918248,
            "wrist_1_joint": -0.7804687475355282,
            "wrist_2_joint": 0.12958649657246987,
            "wrist_3_joint": -3.1924925159053466
        }
    },
    "waypoints": [
        {
            "positions": [
                0.12281154398918248,
                -1.139484666580328,
                1.9715474177455299,
                -0.7804687475355282,
                0.12958649657246987,
                -3.1924925159053466
            ]
        },
        {
            "positions": [
                0.05712369042813237,
                -1.1728951363093663,
                2.0357279465433606,
                -0.8151764332494907,
                0.28801125449225834,
                -3.179082626874789
            ]
        },
        {
            "positions": [
                -0.008564163132917746,
                -1.2063056060384043,
                2.0999084753411914,
                -0.8498841189634533,
                0.4464360124120468,
                -3.1656727378442318
            ]
        },
        {
            "positions": [
                -0.07425201669396786,
                -1.2397160757674426,
                2.164089004139022,
                -0.8845918046774158,
                0.6048607703318353,
                -3.1522628488136744
            ]
        },
        {
            "positions": [
                -0.13993987025501797,
                -1.2731265454964809,
                2.228269532936853,
                -0.9192994903913785,
                0.7632855282516238,
                -3.1388529597831165
            ]
        },
        {
            "positions": [
                -0.20562772381606814,
                -1.3065370152255191,
                2.292450061734684,
                -0.954007176105341,
                0.9217102861714123,
                -3.125443070752559
            ]
        },
        {
            "positions": [
                -0.2713155773771182,
                -1.3399474849545572,
                2.356630590532515,
                -0.9887148618193036,
                1.0801350440912008,
                -3.1120331817220017
            ]
        },
        {
            "positions": [
                -0.33700343093816837,
                -1.3733579546835954,
                2.4208111193303457,
                -1.0234225475332661,
                1.2385598020109891,
                -3.0986232926914443
            ]
        }
    ]
}