{
    "goal": {
        "global_pose": {
            "orientation": {
                "w": 0.7031023502349854,
                "x": -0.7110244035720825,
                "y": 0.007748599164187908,
                "z": 0.005598929710686207
            },
            "position": {
                "x": 0.11585023208521307,
                "y": 0.44412534475326537,
                "z": 0.3711530566215515
            }
        },
        "name": "move_to_auspresseinheit_A"
    },
    "id": "LBKPIECE_move_to_auspresseinheit_A_19",
    "joint_names": [
        "shoulder_pan_joint",
        "shoulder_lift_joint",
        "elbow_joint",
        "wrist_1_joint",
        "wrist_2_joint",
        "wrist_3_joint"
    ],
    "metrics": {
        "cart_traj_len": 2.1110605217723215,
        "distance_elbow_joint": 0.22174070303942273,
        "distance_shoulder_lift_joint": 0.658848122968487,
        "distance_shoulder_pan_joint": 5.7571543372236365,
        "distance_wrist_1_joint": 4.137336053845067,
        "distance_wrist_2_joint": 0.5558686536068179,
        "distance_wrist_3_joint": 4.660491269285551,
        "smoothness": 0.7450921605851759,
        "time": 3.950936624,
        "traj_len": 3.9989297493165576,
        "weighted_distance": 5.477739167393056
    },
    "planner": "LBKPIECE",
    "start": {
        "state": {
            "elbow_joint": 2.4225747245308327,
            "shoulder_lift_joint": -1.373653427065438,
            "shoulder_pan_joint": -0.33786330853087027,
            "wrist_1_joint": -1.0288602302712604,
            "wrist_2_joint": 1.23302299562683,
            "wrist_3_joint": -3.094021725338297
        }
    },
    "waypoints": [
        {
            "positions": [
                -0.33786330853087027,
                -1.373653427065438,
                2.4225747245308327,
                -1.0288602302712604,
                1.23302299562683,
                -3.094021725338297
            ]
        },
        {
            "positions": [
                -0.4557507809467446,
                -1.4034964390990818,
                2.4163202864158446,
                -0.9115687692773496,
                1.233593978226141,
                -2.9783438072219264
            ]
        },
        {
            "positions": [
                -0.573638253362619,
                -1.433339451132726,
                2.4100658483008566,
                -0.7942773082834389,
                1.2341649608254521,
                -2.8626658891055556
            ]
        },
        {
            "positions": [
                -0.6915257257784932,
                -1.46318246316637,
                2.4038114101858685,
                -0.676985847289528,
                1.2347359434247631,
                -2.746987970989185
            ]
        },
        {
            "positions": [
                -0.8094131981943676,
                -1.493025475200014,
                2.3975569720708805,
                -0.5596943862956173,
                1.235306926024074,
                -2.6313100528728146
            ]
        },
        {
            "positions": [
                -0.927300670610242,
                -1.522868487233658,
                2.3913025339558924,
                -0.44240292530170655,
                1.2358779086233853,
                -2.515632134756444
            ]
        },
        {
            "positions": [
                -1.0451881430261163,
                -1.552711499267302,
                2.3850480958409044,
                -0.3251114643077958,
                1.2364488912226963,
                -2.399954216640073
            ]
        },
        {
            "positions": [
                -1.1630756154419906,
                -1.582554511300946,
                2.3787936577259163,
                -0.20782000331388506,
                1.2370198738220073,
                -2.2842762985237024
            ]
        },
        {
            "positions": [
                -1.280963087857865,
                -1.61239752333459,
                2.3725392196109283,
                -0.0905285423199742,
                1.2375908564213183,
                -2.1685983804073317
            ]
        },
        {
            "positions": [
                -1.3988505602737393,
                -1.6422405353682341,
                2.3662847814959402,
                0.026762918673936653,
                1.2381618390206295,
                -2.0529204622909614
            ]
        },
        {
            "positions": [
                -1.5167380326896136,
                -1.672083547401878,
                2.360030343380952,
                0.1440543796678473,
                1.2387328216199405,
                -1.9372425441745904
            ]
        },
        {
            "positions": [
                -1.634625505105488,
                -1.7019265594355222,
                2.3537759052659637,
                0.26134584066175814,
                1.2393038042192515,
                -1.8215646260582197
            ]
        },
        {
            "positions": [
                -1.7525129775213621,
                -1.731769571469166,
                2.3475214671509756,
                0.3786373016556688,
                1.2398747868185627,
                -1.7058867079418492
            ]
        },
        {
            "positions": [
                -1.8704004499372366,
                -1.76161258350281,
                2.3412670290359876,
                0.49592876264957964,
                1.2404457694178737,
                -1.5902087898254784
            ]
        },
        {
            "positions": [
                -1.988287922353111,
                -1.791455595536454,
                2.3350125909209996,
                0.6132202236434903,
                1.2410167520171846,
                -1.474530871709108
            ]
        },
        {
            "positions": [
                -2.1061753947689854,
                -1.821298607570098,
                2.3287581528060115,
                0.7305116846374011,
                1.2415877346164956,
                -1.358852953592737
            ]
        },
        {
            "positions": [
                -2.22406286718486,
                -1.8511416196037422,
                2.3225037146910235,
                0.847803145631312,
                1.2421587172158068,
                -1.2431750354763662
            ]
        },
        {
            "positions": [
                -2.341950339600734,
                -1.8809846316373862,
                2.3162492765760354,
                0.9650946066252226,
                1.2427296998151178,
                -1.1274971173599957
            ]
        },
        {
            "positions": [
                -2.4598378120166084,
                -1.91082764367103,
                2.3099948384610474,
                1.0823860676191337,
                1.2433006824144288,
                -1.0118191992436252
            ]
        },
        {
            "positions": [
                -2.5777252844324825,
                -1.940670655704674,
                2.3037404003460593,
                1.199677528613044,
                1.24387166501374,
                -0.8961412811272544
            ]
        },
        {
            "positions": [
                -2.695612756848357,
                -1.9705136677383182,
                2.2974859622310713,
                1.3169689896069552,
                1.244442647613051,
                -0.7804633630108837
            ]
        },
        {
            "positions": [
                -2.533736333567112,
                -1.9675618638194798,
                2.3020884355996265,
                1.2316591403704382,
                1.218516504678737,
                -0.8922220728660332
            ]
        },
        {
            "positions": [
                -2.3718599102858664,
                -1.9646100599006413,
                2.3066909089681817,
                1.1463492911339215,
                1.1925903617444227,
                -1.0039807827211826
            ]
        },
        {
            "positions": [
                -2.2099834870046213,
                -1.961658255981803,
                2.311293382336737,
                1.0610394418974045,
                1.1666642188101086,
                -1.115739492576332
            ]
        },
        {
            "positions": [
                -2.048107063723376,
                -1.9587064520629645,
                2.3158958557052927,
                0.9757295926608878,
                1.1407380758757946,
                -1.2274982024314816
            ]
        },
        {
            "positions": [
                -1.8862306404421307,
                -1.9557546481441261,
                2.320498329073848,
                0.8904197434243708,
                1.1148119329414803,
                -1.339256912286631
            ]
        },
        {
            "positions": [
                -1.7243542171608857,
                -1.9528028442252876,
                2.325100802442403,
                0.805109894187854,
                1.0888857900071662,
                -1.4510156221417803
            ]
        },
        {
            "positions": [
                -1.5624777938796404,
                -1.9498510403064493,
                2.3297032758109584,
                0.7198000449513371,
                1.062959647072852,
                -1.5627743319969296
            ]
        },
        {
            "positions": [
                -1.400601370598395,
                -1.9468992363876108,
                2.3343057491795136,
                0.6344901957148202,
                1.037033504138538,
                -1.6745330418520792
            ]
        },
        {
            "positions": [
                -1.23872494731715,
                -1.9439474324687724,
                2.338908222548069,
                0.5491803464783034,
                1.0111073612042238,
                -1.7862917517072285
            ]
        },
        {
            "positions": [
                -1.0768485240359047,
                -1.940995628549934,
                2.343510695916624,
                0.46387049724178653,
                0.9851812182699097,
                -1.898050461562378
            ]
        },
        {
            "positions": [
                -0.9149721007546592,
                -1.9380438246310956,
                2.3481131692851798,
                0.37856064800526956,
                0.9592550753355955,
                -2.0098091714175275
            ]
        },
        {
            "positions": [
                -0.7530956774734141,
                -1.935092020712257,
                2.352715642653735,
                0.2932507987687527,
                0.9333289324012815,
                -2.121567881272677
            ]
        },
        {
            "positions": [
                -0.5912192541921688,
                -1.9321402167934187,
                2.3573181160222902,
                0.20794094953223574,
                0.9074027894669672,
                -2.2333265911278266
            ]
        },
        {
            "positions": [
                -0.42934283091092373,
                -1.9291884128745802,
                2.3619205893908455,
                0.122631100295719,
                0.8814766465326531,
                -2.3450853009829755
            ]
        },
        {
            "positions": [
                -0.2674664076296782,
                -1.926236608955742,
                2.3665230627594007,
                0.03732125105920203,
                0.855550503598339,
                -2.4568440108381253
            ]
        },
        {
            "positions": [
                -0.10558998434843314,
                -1.9232848050369034,
                2.371125536127956,
                -0.04798859817731471,
                0.8296243606640249,
                -2.5686027206932747
            ]
        },
        {
            "positions": [
                0.05628643893281238,
                -1.920333001118065,
                2.375728009496511,
                -0.13329844741383168,
                0.8036982177297107,
                -2.680361430548424
            ]
        },
        {
            "positions": [
                0.218162862214057,
                -1.9173811971992265,
                2.380330482865067,
                -0.21860829665034842,
                0.7777720747953967,
                -2.7921201404035734
            ]
        },
        {
            "positions": [
                0.3800392854953025,
                -1.9144293932803882,
                2.384932956233622,
                -0.3039181458868654,
                0.7518459318610824,
                -2.903878850258723
            ]
        },
        {
            "positions": [
                0.5419157087765476,
                -1.9114775893615499,
                2.3895354296021774,
                -0.38922799512338213,
                0.7259197889267683,
                -3.0156375601138725
            ]
        },
        {
            "positions": [
                0.7037921320577933,
                -1.9085257854427113,
                2.3941379029707326,
                -0.474537844359899,
                0.6999936459924542,
                -3.127396269969022
            ]
        }
    ]
}