{
    "goal": {
        "global_pose": {
            "orientation": {
                "w": 0.5084816262002911,
                "x": -0.4908360881923452,
                "y": 0.5182115481033761,
                "z": -0.48164630358495003
            },
            "position": {
                "x": 0.5540239810943604,
                "y": -0.46912469901144505,
                "z": 0.16403168439865112
            }
        },
        "name": "move_to_storage_B"
    },
    "id": "LBKPIECE_move_to_storage_B_30",
    "joint_names": [
        "shoulder_pan_joint",
        "shoulder_lift_joint",
        "elbow_joint",
        "wrist_1_joint",
        "wrist_2_joint",
        "wrist_3_joint"
    ],
    "metrics": {
        "cart_traj_len": 3.753212934759948,
        "distance_elbow_joint": 1.1780635856374493,
        "distance_shoulder_lift_joint": 3.0690028470021,
        "distance_shoulder_pan_joint": 5.2831467249405755,
        "distance_wrist_1_joint": 4.074575511193516,
        "distance_wrist_2_joint": 3.3697822725251667,
        "distance_wrist_3_joint": 7.304553575838017,
        "smoothness": 0.4537571305217635,
        "time": 2.8373199110000002,
        "traj_len": 4.927385160218029,
        "weighted_distance": 6.806804643335341
    },
    "planner": "LBKPIECE",
    "start": {
        "state": {
            "elbow_joint": 1.6649325706314817,
            "shoulder_lift_joint": -0.6616388048112454,
            "shoulder_pan_joint": -0.9139837860083814,
            "wrist_1_joint": 2.146757197745094,
            "wrist_2_joint": -2.234196043158733,
            "wrist_3_joint": 0.005471033829999897
        }
    },
    "waypoints": [
        {
            "positions": [
                -0.9139837860083814,
                -0.6616388048112454,
                1.6649325706314817,
                2.146757197745094,
                -2.234196043158733,
                0.005471033829999897
            ]
        },
        {
            "positions": [
                -0.8176493977349997,
                -0.7498568149483021,
                1.6672439839087974,
                2.0650512050106684,
                -2.123239800896861,
                0.01900209748721117
            ]
        },
        {
            "positions": [
                -0.721315009461618,
                -0.8380748250853589,
                1.669555397186113,
                1.9833452122762427,
                -2.0122835586349894,
                0.032533161144422444
            ]
        },
        {
            "positions": [
                -0.6249806211882363,
                -0.9262928352224156,
                1.6718668104634287,
                1.9016392195418172,
                -1.901327316373118,
                0.04606422480163371
            ]
        },
        {
            "positions": [
                -0.5286462329148546,
                -1.0145108453594722,
                1.6741782237407443,
                1.8199332268073916,
                -1.7903710741112464,
                0.05959528845884499
            ]
        },
        {
            "positions": [
                -0.4323118446414729,
                -1.102728855496529,
                1.67648963701806,
                1.738227234072966,
                -1.6794148318493747,
                0.07312635211605627
            ]
        },
        {
            "positions": [
                -0.3359774563680912,
                -1.1909468656335858,
                1.6788010502953756,
                1.6565212413385404,
                -1.568458589587503,
                0.08665741577326753
            ]
        },
        {
            "positions": [
                -0.23964306809470948,
                -1.2791648757706424,
                1.6811124635726913,
                1.5748152486041147,
                -1.4575023473256314,
                0.1001884794304788
            ]
        },
        {
            "positions": [
                -0.14330867982132778,
                -1.3673828859076993,
                1.683423876850007,
                1.493109255869689,
                -1.3465461050637597,
                0.1137195430876901
            ]
        },
        {
            "positions": [
                -0.04697429154794608,
                -1.455600896044756,
                1.6857352901273226,
                1.4114032631352633,
                -1.2355898628018882,
                0.12725060674490135
            ]
        },
        {
            "positions": [
                0.04936009672543562,
                -1.5438189061818126,
                1.6880467034046385,
                1.3296972704008378,
                -1.1246336205400165,
                0.14078167040211262
            ]
        },
        {
            "positions": [
                0.14569448499881743,
                -1.6320369163188695,
                1.6903581166819541,
                1.2479912776664122,
                -1.0136773782781447,
                0.1543127340593239
            ]
        },
        {
            "positions": [
                0.24202887327219902,
                -1.7202549264559261,
                1.6926695299592698,
                1.1662852849319867,
                -0.9027211360162732,
                0.16784379771653515
            ]
        },
        {
            "positions": [
                0.33836326154558083,
                -1.808472936592983,
                1.6949809432365854,
                1.084579292197561,
                -0.7917648937544015,
                0.18137486137374645
            ]
        },
        {
            "positions": [
                0.4346976498189624,
                -1.8966909467300397,
                1.697292356513901,
                1.0028732994631355,
                -0.68080865149253,
                0.1949059250309577
            ]
        },
        {
            "positions": [
                0.5310320380923442,
                -1.9849089568670963,
                1.6996037697912167,
                0.9211673067287096,
                -0.5698524092306583,
                0.20843698868816898
            ]
        },
        {
            "positions": [
                0.6273664263657258,
                -2.0731269670041534,
                1.7019151830685324,
                0.8394613139942839,
                -0.45889616696878655,
                0.22196805234538028
            ]
        },
        {
            "positions": [
                0.7237008146391074,
                -2.16134497714121,
                1.704226596345848,
                0.7577553212598584,
                -0.34793992470691504,
                0.23549911600259152
            ]
        },
        {
            "positions": [
                0.8200352029124892,
                -2.2495629872782663,
                1.7065380096231637,
                0.6760493285254328,
                -0.2369836824450433,
                0.24903017965980281
            ]
        },
        {
            "positions": [
                0.9163695911858708,
                -2.337780997415323,
                1.7088494229004794,
                0.5943433357910073,
                -0.1260274401831718,
                0.2625612433170141
            ]
        },
        {
            "positions": [
                1.0127039794592525,
                -2.42599900755238,
                1.711160836177795,
                0.5126373430565816,
                -0.015071197921300072,
                0.2760923069742254
            ]
        },
        {
            "positions": [
                0.8825744101067012,
                -2.416593007320969,
                1.7453605239551584,
                0.4223950794193212,
                -0.03069856598435672,
                0.1769330085083708
            ]
        },
        {
            "positions": [
                0.75244484075415,
                -2.4071870070895582,
                1.7795602117325218,
                0.3321528157820608,
                -0.04632593404741337,
                0.07777371004251624
            ]
        },
        {
            "positions": [
                0.6223152714015987,
                -2.397781006858147,
                1.8137598995098851,
                0.2419105521448004,
                -0.061953302110470024,
                -0.02138558842333832
            ]
        },
        {
            "positions": [
                0.49218570204904755,
                -2.3883750066267364,
                1.8479595872872485,
                0.15166828850754,
                -0.07758067017352667,
                -0.1205448868891929
            ]
        },
        {
            "positions": [
                0.3620561326964963,
                -2.3789690063953253,
                1.882159275064612,
                0.061426024870279594,
                -0.09320803823658333,
                -0.2197041853550475
            ]
        },
        {
            "positions": [
                0.231926563343945,
                -2.3695630061639146,
                1.9163589628419753,
                -0.028816238766980806,
                -0.10883540629963998,
                -0.318863483820902
            ]
        },
        {
            "positions": [
                0.10179699399139375,
                -2.3601570059325034,
                1.9505586506193386,
                -0.1190585024042412,
                -0.12446277436269662,
                -0.4180227822867566
            ]
        },
        {
            "positions": [
                -0.028332575361157408,
                -2.3507510057010923,
                1.984758338396702,
                -0.2093007660415016,
                -0.14009014242575327,
                -0.5171820807526112
            ]
        },
        {
            "positions": [
                -0.15846214471370867,
                -2.3413450054696816,
                2.018958026174065,
                -0.299543029678762,
                -0.1557175104888099,
                -0.6163413792184658
            ]
        },
        {
            "positions": [
                -0.28859171406625994,
                -2.3319390052382705,
                2.0531577139514288,
                -0.3897852933160224,
                -0.1713448785518666,
                -0.7155006776843204
            ]
        },
        {
            "positions": [
                -0.41872128341881143,
                -2.3225330050068598,
                2.087357401728792,
                -0.4800275569532828,
                -0.18697224661492323,
                -0.8146599761501749
            ]
        },
        {
            "positions": [
                -0.5488508527713625,
                -2.3131270047754486,
                2.1215570895061555,
                -0.5702698205905432,
                -0.20259961467797988,
                -0.9138192746160294
            ]
        },
        {
            "positions": [
                -0.678980422123914,
                -2.303721004544038,
                2.1557567772835187,
                -0.6605120842278036,
                -0.21822698274103655,
                -1.012978573081884
            ]
        },
        {
            "positions": [
                -0.809109991476465,
                -2.294315004312627,
                2.1899564650608823,
                -0.750754347865064,
                -0.23385435080409317,
                -1.1121378715477386
            ]
        },
        {
            "positions": [
                -0.9392395608290163,
                -2.2849090040812157,
                2.2241561528382454,
                -0.8409966115023244,
                -0.24948171886714984,
                -1.2112971700135933
            ]
        },
        {
            "positions": [
                -1.0693691301815673,
                -2.275503003849805,
                2.258355840615609,
                -0.9312388751395848,
                -0.26510908693020646,
                -1.3104564684794477
            ]
        },
        {
            "positions": [
                -1.1994986995341188,
                -2.266097003618394,
                2.292555528392972,
                -1.0214811387768452,
                -0.28073645499326316,
                -1.4096157669453024
            ]
        },
        {
            "positions": [
                -1.3296282688866699,
                -2.256691003386983,
                2.3267552161703353,
                -1.1117234024141056,
                -0.29636382305631975,
                -1.508775065411157
            ]
        },
        {
            "positions": [
                -1.4597578382392213,
                -2.247285003155572,
                2.360954903947699,
                -1.201965666051366,
                -0.31199119111937645,
                -1.6079343638770116
            ]
        },
        {
            "positions": [
                -1.5898874075917724,
                -2.2378790029241613,
                2.3951545917250625,
                -1.2922079296886264,
                -0.3276185591824331,
                -1.707093662342866
            ]
        },
        {
            "positions": [
                -1.7200169769443239,
                -2.22847300269275,
                2.4293542795024257,
                -1.3824501933258868,
                -0.34324592724548975,
                -1.806252960808721
            ]
        },
        {
            "positions": [
                -1.6916652495320796,
                -2.1781495190835987,
                2.410552376013039,
                -1.3576607333203172,
                -0.3058603500653287,
                -1.581180822858228
            ]
        },
        {
            "positions": [
                -1.6633135221198356,
                -2.127826035474447,
                2.3917504725236522,
                -1.3328712733147474,
                -0.26847477288516763,
                -1.356108684907735
            ]
        },
        {
            "positions": [
                -1.6349617947075914,
                -2.077502551865295,
                2.372948569034266,
                -1.3080818133091778,
                -0.23108919570500652,
                -1.131036546957242
            ]
        },
        {
            "positions": [
                -1.6066100672953474,
                -2.0271790682561437,
                2.3541466655448793,
                -1.283292353303608,
                -0.19370361852484547,
                -0.905964409006749
            ]
        },
        {
            "positions": [
                -1.5782583398831032,
                -1.9768555846469922,
                2.3353447620554926,
                -1.2585028932980384,
                -0.15631804134468438,
                -0.6808922710562562
            ]
        },
        {
            "positions": [
                -1.5499066124708591,
                -1.9265321010378404,
                2.316542858566106,
                -1.2337134332924686,
                -0.11893246416452333,
                -0.4558201331057632
            ]
        },
        {
            "positions": [
                -1.521554885058615,
                -1.876208617428689,
                2.2977409550767196,
                -1.208923973286899,
                -0.08154688698436224,
                -0.23074799515527
            ]
        },
        {
            "positions": [
                -1.493203157646371,
                -1.8258851338195372,
                2.278939051587333,
                -1.1841345132813292,
                -0.04416130980420119,
                -0.005675857204777035
            ]
        },
        {
            "positions": [
                -1.4648514302341267,
                -1.7755616502103857,
                2.260137148097946,
                -1.1593450532757597,
                -0.006775732624040076,
                0.21939628074571593
            ]
        },
        {
            "positions": [
                -1.4364997028218824,
                -1.7252381666012342,
                2.2413352446085595,
                -1.13455559327019,
                0.03060984455612098,
                0.4444684186962087
            ]
        },
        {
            "positions": [
                -1.4081479754096384,
                -1.6749146829920825,
                2.2225333411191732,
                -1.1097661332646203,
                0.06799542173628204,
                0.6695405566467019
            ]
        },
        {
            "positions": [
                -1.3797962479973944,
                -1.6245911993829307,
                2.2037314376297865,
                -1.0849766732590507,
                0.10538099891644309,
                0.8946126945971946
            ]
        },
        {
            "positions": [
                -1.3514445205851502,
                -1.5742677157737792,
                2.1849295341404,
                -1.0601872132534809,
                0.1427665760966042,
                1.1196848325476878
            ]
        },
        {
            "positions": [
                -1.323092793172906,
                -1.5239442321646277,
                2.166127630651013,
                -1.0353977532479113,
                0.18015215327676526,
                1.344756970498181
            ]
        },
        {
            "positions": [
                -1.294741065760662,
                -1.4736207485554762,
                2.1473257271616264,
                -1.0106082932423415,
                0.21753773045692626,
                1.5698291084486737
            ]
        },
        {
            "positions": [
                -1.2663893383484177,
                -1.4232972649463242,
                2.12852382367224,
                -0.9858188332367719,
                0.25492330763708737,
                1.794901246399167
            ]
        },
        {
            "positions": [
                -1.2380376109361737,
                -1.3729737813371727,
                2.1097219201828534,
                -0.9610293732312021,
                0.2923088848172485,
                2.01997338434966
            ]
        },
        {
            "positions": [
                -1.2096858835239295,
                -1.3226502977280212,
                2.0909200166934667,
                -0.9362399132256325,
                0.3296944619974096,
                2.2450455223001526
            ]
        },
        {
            "positions": [
                -1.1813341561116855,
                -1.2723268141188697,
                2.07211811320408,
                -0.9114504532200627,
                0.3670800391775706,
                2.4701176602506454
            ]
        },
        {
            "positions": [
                -1.1529824286994412,
                -1.222003330509718,
                2.0533162097146938,
                -0.8866609932144931,
                0.4044656163577317,
                2.695189798201138
            ]
        },
        {
            "positions": [
                -1.124630701287197,
                -1.1716798469005663,
                2.034514306225307,
                -0.8618715332089234,
                0.4418511935378928,
                2.9202619361516318
            ]
        },
        {
            "positions": [
                -1.096278973874953,
                -1.1213563632914147,
                2.0157124027359203,
                -0.8370820732033537,
                0.4792367707180539,
                3.1453340741021245
            ]
        }
    ]
}