{
    "goal": {
        "global_pose": {
            "orientation": {
                "w": 0.7047431493862688,
                "x": -0.7094548369677653,
                "y": 0.0024358444001904,
                "z": -0.0022348060817251984
            },
            "position": {
                "x": -0.39052492380142206,
                "y": 0.3671506643295288,
                "z": 0.19426114857196808
            }
        },
        "name": "move_to_magneteinheit_D"
    },
    "id": "LBKPIECE_move_to_magneteinheit_D_136",
    "joint_names": [
        "shoulder_pan_joint",
        "shoulder_lift_joint",
        "elbow_joint",
        "wrist_1_joint",
        "wrist_2_joint",
        "wrist_3_joint"
    ],
    "metrics": {
        "cart_traj_len": 4.2338365715450195,
        "distance_elbow_joint": 3.1416502666457813,
        "distance_shoulder_lift_joint": 1.6290706127177255,
        "distance_shoulder_pan_joint": 3.5659836188281298,
        "distance_wrist_1_joint": 2.0670982762688057,
        "distance_wrist_2_joint": 0.43793729358155975,
        "distance_wrist_3_joint": 3.1658854024186027,
        "smoothness": 0.48447257081001194,
        "time": 2.540976024,
        "traj_len": 3.74267624440862,
        "weighted_distance": 4.7795849030170166
    },
    "planner": "LBKPIECE",
    "start": {
        "state": {
            "elbow_joint": 0.7495348899011973,
            "shoulder_lift_joint": -0.6476975780737697,
            "shoulder_pan_joint": -2.711696901376276,
            "wrist_1_joint": -0.07506478080974305,
            "wrist_2_joint": 0.4329665971545858,
            "wrist_3_joint": 3.1361499051832524
        }
    },
    "waypoints": [
        {
            "positions": [
                -2.711696901376276,
                -0.6476975780737697,
                0.7495348899011973,
                -0.07506478080974305,
                0.4329665971545858,
                3.1361499051832524
            ]
        },
        {
            "positions": [
                -2.686678971170112,
                -0.6798229387644554,
                0.5007972195500522,
                -0.08511612310988273,
                0.46037087579611924,
                3.1851188362629577
            ]
        },
        {
            "positions": [
                -2.6840213752089435,
                -0.7217335753349731,
                0.4391042683739511,
                -0.08018818769650077,
                0.5299173769766728,
                3.159822536802599
            ]
        },
        {
            "positions": [
                -2.579953773119907,
                -0.763029081263571,
                0.34998388764263766,
                -0.01828134334750331,
                0.5243899371270102,
                3.0667007158113333
            ]
        },
        {
            "positions": [
                -2.475886171030871,
                -0.8043245871921689,
                0.2608635069113242,
                0.04362550100149415,
                0.5188624972773476,
                2.9735788948200677
            ]
        },
        {
            "positions": [
                -2.3718185689418343,
                -0.8456200931207669,
                0.1717431261800108,
                0.10553234535049161,
                0.5133350574276849,
                2.880457073828802
            ]
        },
        {
            "positions": [
                -2.2677509668527978,
                -0.8869155990493649,
                0.08262274544869735,
                0.16743918969948907,
                0.5078076175780223,
                2.7873352528375364
            ]
        },
        {
            "positions": [
                -2.163683364763761,
                -0.9282111049779629,
                -0.006497635282616099,
                0.22934603404848652,
                0.5022801777283596,
                2.6942134318462707
            ]
        },
        {
            "positions": [
                -2.059615762674725,
                -0.9695066109065608,
                -0.0956180160139295,
                0.291252878397484,
                0.496752737878697,
                2.601091610855005
            ]
        },
        {
            "positions": [
                -1.9555481605856886,
                -1.0108021168351589,
                -0.18473839674524295,
                0.35315972274648144,
                0.49122529802903436,
                2.507969789863739
            ]
        },
        {
            "positions": [
                -1.8514805584966523,
                -1.0520976227637568,
                -0.2738587774765564,
                0.4150665670954789,
                0.4856978581793717,
                2.4148479688724738
            ]
        },
        {
            "positions": [
                -1.747412956407616,
                -1.0933931286923546,
                -0.36297915820786986,
                0.4769734114444763,
                0.4801704183297091,
                2.3217261478812077
            ]
        },
        {
            "positions": [
                -1.6433453543185794,
                -1.1346886346209526,
                -0.4520995389391833,
                0.5388802557934738,
                0.47464297848004644,
                2.228604326889942
            ]
        },
        {
            "positions": [
                -1.539277752229543,
                -1.1759841405495506,
                -0.5412199196704967,
                0.6007871001424712,
                0.4691155386303838,
                2.1354825058986764
            ]
        },
        {
            "positions": [
                -1.4352101501405068,
                -1.2172796464781486,
                -0.6303403004018101,
                0.6626939444914688,
                0.46358809878072116,
                2.0423606849074107
            ]
        },
        {
            "positions": [
                -1.3311425480514703,
                -1.2585751524067463,
                -0.7194606811331236,
                0.7246007888404662,
                0.4580606589310585,
                1.949238863916145
            ]
        },
        {
            "positions": [
                -1.2270749459624337,
                -1.2998706583353443,
                -0.808581061864437,
                0.7865076331894636,
                0.4525332190813959,
                1.8561170429248794
            ]
        },
        {
            "positions": [
                -1.1230073438733974,
                -1.3411661642639423,
                -0.8977014425957505,
                0.8484144775384612,
                0.44700577923173324,
                1.7629952219336138
            ]
        },
        {
            "positions": [
                -1.018939741784361,
                -1.3824616701925403,
                -0.9868218233270639,
                0.9103213218874586,
                0.4414783393820706,
                1.6698734009423482
            ]
        },
        {
            "positions": [
                -0.9148721396953248,
                -1.4237571761211383,
                -1.0759422040583773,
                0.972228166236456,
                0.435950899532408,
                1.5767515799510825
            ]
        },
        {
            "positions": [
                -0.8108045376062882,
                -1.4650526820497363,
                -1.1650625847896907,
                1.0341350105854534,
                0.4304234596827453,
                1.4836297589598166
            ]
        },
        {
            "positions": [
                -0.7067369355172519,
                -1.5063481879783343,
                -1.2541829655210042,
                1.0960418549344508,
                0.4248960198330827,
                1.3905079379685512
            ]
        },
        {
            "positions": [
                -0.6026693334282154,
                -1.5476436939069322,
                -1.3433033462523176,
                1.1579486992834485,
                0.41936857998342003,
                1.2973861169772853
            ]
        },
        {
            "positions": [
                -0.49860173133917884,
                -1.5889391998355302,
                -1.432423726983631,
                1.2198555436324459,
                0.41384114013375745,
                1.2042642959860197
            ]
        },
        {
            "positions": [
                -0.39453412925014275,
                -1.6302347057641282,
                -1.5215441077149445,
                1.2817623879814433,
                0.4083137002840948,
                1.1111424749947543
            ]
        },
        {
            "positions": [
                -0.2904665271611062,
                -1.6715302116927262,
                -1.610664488446258,
                1.3436692323304409,
                0.4027862604344321,
                1.0180206540034882
            ]
        },
        {
            "positions": [
                -0.18639892507207012,
                -1.712825717621324,
                -1.6997848691775714,
                1.4055760766794383,
                0.3972588205847695,
                0.9248988330122225
            ]
        },
        {
            "positions": [
                -0.08233132298303358,
                -1.7541212235499217,
                -1.7889052499088849,
                1.4674829210284357,
                0.3917313807351069,
                0.8317770120209573
            ]
        },
        {
            "positions": [
                0.021736279106002954,
                -1.7954167294785197,
                -1.8780256306401983,
                1.529389765377433,
                0.38620394088544424,
                0.7386551910296912
            ]
        },
        {
            "positions": [
                0.12580388119503905,
                -1.8367122354071177,
                -1.9671460113715118,
                1.5912966097264305,
                0.3806765010357816,
                0.6455333700384256
            ]
        },
        {
            "positions": [
                0.22987148328407603,
                -1.8780077413357157,
                -2.0562663921028252,
                1.6532034540754281,
                0.37514906118611896,
                0.5524115490471599
            ]
        },
        {
            "positions": [
                0.3339390853731121,
                -1.9193032472643137,
                -2.1453867728341387,
                1.7151102984244255,
                0.3696216213364563,
                0.4592897280558942
            ]
        },
        {
            "positions": [
                0.22986955895736372,
                -1.99079623596975,
                -2.1947324936162276,
                1.663746195937554,
                0.3334834697126051,
                0.38107225542952716
            ]
        },
        {
            "positions": [
                0.12580003254161534,
                -2.0622892246751863,
                -2.244078214398317,
                1.6123820934506823,
                0.29734531808875386,
                0.30285478280316014
            ]
        },
        {
            "positions": [
                0.021730506125866966,
                -2.1337822133806226,
                -2.2934239351804058,
                1.5610179909638107,
                0.26120716646490266,
                0.2246373101767931
            ]
        },
        {
            "positions": [
                -0.08233902028988144,
                -2.205275202086059,
                -2.342769655962495,
                1.509653888476939,
                0.22506901484105143,
                0.14641983755042604
            ]
        },
        {
            "positions": [
                -0.1864085467056298,
                -2.276768190791495,
                -2.392115376744584,
                1.4582897859900674,
                0.1889308632172002,
                0.068202364924059
            ]
        }
    ]
}