{
    "goal": {
        "global_pose": {
            "orientation": {
                "w": -0.4816463035849501,
                "x": 0.5182115481033762,
                "y": 0.4908360881923453,
                "z": -0.5084816262002911
            },
            "position": {
                "x": -0.8240239810943604,
                "y": 0.19912469901144506,
                "z": 0.16403168439865112
            }
        },
        "name": "move_to_storage_D"
    },
    "id": "LBKPIECE_move_to_storage_D_41",
    "joint_names": [
        "shoulder_pan_joint",
        "shoulder_lift_joint",
        "elbow_joint",
        "wrist_1_joint",
        "wrist_2_joint",
        "wrist_3_joint"
    ],
    "metrics": {
        "cart_traj_len": 0.6032480768253639,
        "distance_elbow_joint": 1.2237817711821117,
        "distance_shoulder_lift_joint": 0.24620340829457765,
        "distance_shoulder_pan_joint": 0.3435278712027566,
        "distance_wrist_1_joint": 3.8238485009471272,
        "distance_wrist_2_joint": 1.9627536158859935,
        "distance_wrist_3_joint": 3.151891659836076,
        "smoothness": 0.1898471757711536,
        "time": 4.0781585830000004,
        "traj_len": 3.2790252861709748,
        "weighted_distance": 4.779371534402187
    },
    "planner": "LBKPIECE",
    "start": {
        "state": {
            "elbow_joint": -2.384821997420982,
            "shoulder_lift_joint": -2.2788054674887404,
            "shoulder_pan_joint": -0.18546946417610016,
            "wrist_1_joint": 1.4845937964226739,
            "wrist_2_joint": 0.1789877726866377,
            "wrist_3_joint": 0.03710572555276528
        }
    },
    "waypoints": [
        {
            "positions": [
                -0.18546946417610016,
                -2.2788054674887404,
                -2.384821997420982,
                1.4845937964226739,
                0.1789877726866377,
                0.03710572555276528
            ]
        },
        {
            "positions": [
                -0.13622943092541565,
                -2.2390346039263207,
                -2.451655314093578,
                1.4043489696036233,
                0.19630952881688452,
                0.10761419521035945
            ]
        },
        {
            "positions": [
                -0.08698939767473111,
                -2.1992637403639006,
                -2.518488630766174,
                1.3241041427845728,
                0.2136312849471313,
                0.1781226648679536
            ]
        },
        {
            "positions": [
                -0.03774936442404661,
                -2.159492876801481,
                -2.5853219474387696,
                1.2438593159655225,
                0.2309530410773781,
                0.24863113452554778
            ]
        },
        {
            "positions": [
                0.011490668826637934,
                -2.119722013239061,
                -2.6521552641113657,
                1.163614489146472,
                0.2482747972076249,
                0.3191396041831419
            ]
        },
        {
            "positions": [
                0.06073070207732245,
                -2.079951149676641,
                -2.7189885807839618,
                1.0833696623274214,
                0.2655965533378717,
                0.3896480738407361
            ]
        },
        {
            "positions": [
                0.05667538103776686,
                -2.0819240284467444,
                -2.681921281291498,
                0.9407603137085933,
                0.1874238518697567,
                0.5062876284885738
            ]
        },
        {
            "positions": [
                0.052620059998211274,
                -2.0838969072168476,
                -2.644853981799034,
                0.7981509650897651,
                0.10925115040164174,
                0.6229271831364115
            ]
        },
        {
            "positions": [
                0.04856473895865569,
                -2.085869785986951,
                -2.6077866823065703,
                0.655541616470937,
                0.031078448933526737,
                0.7395667377842492
            ]
        },
        {
            "positions": [
                0.044509417919100104,
                -2.087842664757054,
                -2.5707193828141066,
                0.5129322678521089,
                -0.04709425253458821,
                0.856206292432087
            ]
        },
        {
            "positions": [
                0.040454096879544515,
                -2.0898155435271577,
                -2.5336520833216425,
                0.37032291923328076,
                -0.12526695400270327,
                0.9728458470799247
            ]
        },
        {
            "positions": [
                0.03639877583998893,
                -2.091788422297261,
                -2.496584783829179,
                0.22771357061445263,
                -0.20343965547081821,
                1.0894854017277624
            ]
        },
        {
            "positions": [
                0.03234345480043334,
                -2.093761301067364,
                -2.459517484336715,
                0.0851042219956244,
                -0.2816123569389333,
                1.2061249563756002
            ]
        },
        {
            "positions": [
                0.028288133760877757,
                -2.0957341798374673,
                -2.422450184844251,
                -0.05750512662320362,
                -0.3597850584070481,
                1.3227645110234378
            ]
        },
        {
            "positions": [
                0.02423281272132216,
                -2.0977070586075706,
                -2.3853828853517873,
                -0.20011447524203185,
                -0.43795775987516317,
                1.4394040656712757
            ]
        },
        {
            "positions": [
                0.020177491681766573,
                -2.0996799373776738,
                -2.3483155858593237,
                -0.34272382386085987,
                -0.5161304613432782,
                1.5560436203191133
            ]
        },
        {
            "positions": [
                0.01612217064221099,
                -2.101652816147777,
                -2.3112482863668595,
                -0.4853331724796879,
                -0.5943031628113931,
                1.6726831749669508
            ]
        },
        {
            "positions": [
                0.012066849602655402,
                -2.1036256949178807,
                -2.274180986874396,
                -0.6279425210985161,
                -0.6724758642795081,
                1.7893227296147889
            ]
        },
        {
            "positions": [
                0.00801152856309982,
                -2.105598573687984,
                -2.237113687381932,
                -0.7705518697173441,
                -0.750648565747623,
                1.9059622842626265
            ]
        },
        {
            "positions": [
                0.003956207523544225,
                -2.107571452458087,
                -2.200046387889468,
                -0.9131612183361726,
                -0.8288212672157382,
                2.0226018389104645
            ]
        },
        {
            "positions": [
                -9.911351601135654e-05,
                -2.1095443312281903,
                -2.1629790883970044,
                -1.0557705669550004,
                -0.9069939686838531,
                2.139241393558302
            ]
        },
        {
            "positions": [
                -0.004154434555566938,
                -2.1115172099982935,
                -2.1259117889045407,
                -1.1983799155738286,
                -0.9851666701519679,
                2.2558809482061397
            ]
        },
        {
            "positions": [
                -0.008209755595122534,
                -2.1134900887683967,
                -2.0888444894120766,
                -1.3409892641926568,
                -1.0633393716200832,
                2.3725205028539773
            ]
        },
        {
            "positions": [
                -0.01226507663467813,
                -2.1154629675385,
                -2.051777189919613,
                -1.483598612811485,
                -1.141512073088198,
                2.489160057501815
            ]
        },
        {
            "positions": [
                -0.01632039767423371,
                -2.117435846308603,
                -2.014709890427149,
                -1.6262079614303129,
                -1.2196847745563129,
                2.6057996121496525
            ]
        },
        {
            "positions": [
                -0.020375718713789306,
                -2.1194087250787064,
                -1.977642590934685,
                -1.7688173100491411,
                -1.2978574760244281,
                2.7224391667974905
            ]
        },
        {
            "positions": [
                -0.024431039753344888,
                -2.12138160384881,
                -1.9405752914422214,
                -1.9114266586679693,
                -1.376030177492543,
                2.839078721445328
            ]
        },
        {
            "positions": [
                -0.02848636079290047,
                -2.1233544826189132,
                -1.9035079919497577,
                -2.054036007286797,
                -1.4542028789606578,
                2.9557182760931657
            ]
        },
        {
            "positions": [
                -0.032541681832456065,
                -2.1253273613890165,
                -1.8664406924572936,
                -2.196645355905626,
                -1.532375580428773,
                3.0723578307410038
            ]
        },
        {
            "positions": [
                -0.03659700287201165,
                -2.1273002401591197,
                -1.82937339296483,
                -2.3392547045244534,
                -1.610548281896888,
                3.1889973853888414
            ]
        }
    ]
}