{
    "goal": {
        "global_pose": {
            "orientation": {
                "w": 0.7047431493862688,
                "x": -0.7094548369677653,
                "y": 0.0024358444001904,
                "z": -0.0022348060817251984
            },
            "position": {
                "x": -0.39052492380142206,
                "y": 0.3671506643295288,
                "z": 0.19426114857196808
            }
        },
        "name": "move_to_magneteinheit_D"
    },
    "id": "LBKPIECE_move_to_magneteinheit_D_123",
    "joint_names": [
        "shoulder_pan_joint",
        "shoulder_lift_joint",
        "elbow_joint",
        "wrist_1_joint",
        "wrist_2_joint",
        "wrist_3_joint"
    ],
    "metrics": {
        "cart_traj_len": 4.553694639716492,
        "distance_elbow_joint": 4.002242261185536,
        "distance_shoulder_lift_joint": 1.7974882674208725,
        "distance_shoulder_pan_joint": 3.6229277034379996,
        "distance_wrist_1_joint": 1.5261967357190143,
        "distance_wrist_2_joint": 0.908180590373107,
        "distance_wrist_3_joint": 4.363000220759538,
        "smoothness": 0.4469869968978216,
        "time": 2.7722910020000002,
        "traj_len": 4.027410555046017,
        "weighted_distance": 5.232629697055511
    },
    "planner": "LBKPIECE",
    "start": {
        "state": {
            "elbow_joint": 0.7495348899011973,
            "shoulder_lift_joint": -0.6476975780737697,
            "shoulder_pan_joint": -2.711696901376276,
            "wrist_1_joint": -0.07506478080974305,
            "wrist_2_joint": 0.4329665971545858,
            "wrist_3_joint": 3.1361499051832524
        }
    },
    "waypoints": [
        {
            "positions": [
                -2.711696901376276,
                -0.6476975780737697,
                0.7495348899011973,
                -0.07506478080974305,
                0.4329665971545858,
                3.1361499051832524
            ]
        },
        {
            "positions": [
                -2.7312193455712395,
                -0.6939046314313919,
                0.773249991161872,
                0.008196745804837147,
                0.3648892237411052,
                3.1194692034853913
            ]
        },
        {
            "positions": [
                -2.7507417897662023,
                -0.7401116847890141,
                0.7969650924225467,
                0.09145827241941733,
                0.2968118503276247,
                3.10278850178753
            ]
        },
        {
            "positions": [
                -2.755267181238622,
                -0.755678561067831,
                0.8025384877666487,
                0.11673807503373838,
                0.2741212870621898,
                3.0931319985462475
            ]
        },
        {
            "positions": [
                -2.6590454643498678,
                -0.8005407378860242,
                0.708830691731011,
                0.12955833040285214,
                0.26342650133302753,
                2.96710785420065
            ]
        },
        {
            "positions": [
                -2.5628237474611137,
                -0.8454029147042174,
                0.6151228956953733,
                0.1423785857719659,
                0.25273171560386526,
                2.8410837098550523
            ]
        },
        {
            "positions": [
                -2.4666020305723597,
                -0.8902650915224105,
                0.5214150996597355,
                0.15519884114107965,
                0.242036929874703,
                2.715059565509455
            ]
        },
        {
            "positions": [
                -2.3703803136836052,
                -0.9351272683406037,
                0.42770730362409776,
                0.16801909651019342,
                0.23134214414554075,
                2.589035421163857
            ]
        },
        {
            "positions": [
                -2.274158596794851,
                -0.9799894451587968,
                0.33399950758846003,
                0.18083935187930716,
                0.22064735841637848,
                2.4630112768182597
            ]
        },
        {
            "positions": [
                -2.177936879906097,
                -1.0248516219769899,
                0.24029171155282225,
                0.19365960724842093,
                0.2099525726872162,
                2.336987132472662
            ]
        },
        {
            "positions": [
                -2.081715163017343,
                -1.069713798795183,
                0.14658391551718453,
                0.2064798626175347,
                0.19925778695805393,
                2.2109629881270645
            ]
        },
        {
            "positions": [
                -1.985493446128589,
                -1.1145759756133762,
                0.0528761194815468,
                0.21930011798664845,
                0.1885630012288917,
                2.084938843781467
            ]
        },
        {
            "positions": [
                -1.8892717292398349,
                -1.1594381524315693,
                -0.04083167655409092,
                0.2321203733557622,
                0.17786821549972942,
                1.9589146994358693
            ]
        },
        {
            "positions": [
                -1.7930500123510806,
                -1.2043003292497625,
                -0.13453947258972865,
                0.24494062872487599,
                0.16717342977056715,
                1.8328905550902717
            ]
        },
        {
            "positions": [
                -1.6968282954623266,
                -1.2491625060679556,
                -0.22824726862536637,
                0.25776088409398973,
                0.15647864404140488,
                1.706866410744674
            ]
        },
        {
            "positions": [
                -1.6006065785735726,
                -1.2940246828861488,
                -0.3219550646610042,
                0.27058113946310347,
                0.1457838583122426,
                1.5808422663990764
            ]
        },
        {
            "positions": [
                -1.5043848616848183,
                -1.338886859704342,
                -0.4156628606966418,
                0.2834013948322172,
                0.13508907258308034,
                1.4548181220534788
            ]
        },
        {
            "positions": [
                -1.4081631447960643,
                -1.3837490365225351,
                -0.5093706567322797,
                0.296221650201331,
                0.12439428685391807,
                1.3287939777078812
            ]
        },
        {
            "positions": [
                -1.31194142790731,
                -1.4286112133407283,
                -0.6030784527679175,
                0.30904190557044475,
                0.1136995011247558,
                1.2027698333622834
            ]
        },
        {
            "positions": [
                -1.215719711018556,
                -1.4734733901589214,
                -0.6967862488035551,
                0.3218621609395585,
                0.10300471539559355,
                1.0767456890166862
            ]
        },
        {
            "positions": [
                -1.1194979941298018,
                -1.5183355669771146,
                -0.7904940448391929,
                0.3346824163086723,
                0.09230992966643126,
                0.9507215446710884
            ]
        },
        {
            "positions": [
                -1.023276277241048,
                -1.5631977437953077,
                -0.8842018408748306,
                0.34750267167778603,
                0.08161514393726901,
                0.824697400325491
            ]
        },
        {
            "positions": [
                -0.9270545603522937,
                -1.608059920613501,
                -0.9779096369104684,
                0.3603229270468998,
                0.07092035820810674,
                0.6986732559798932
            ]
        },
        {
            "positions": [
                -0.8308328434635397,
                -1.652922097431694,
                -1.071617432946106,
                0.3731431824160136,
                0.06022557247894447,
                0.5726491116342958
            ]
        },
        {
            "positions": [
                -0.7346111265747854,
                -1.6977842742498872,
                -1.165325228981744,
                0.3859634377851273,
                0.0495307867497822,
                0.44662496728869794
            ]
        },
        {
            "positions": [
                -0.6383894096860314,
                -1.7426464510680804,
                -1.2590330250173816,
                0.39878369315424106,
                0.03883600102061996,
                0.32060082294310055
            ]
        },
        {
            "positions": [
                -0.5421676927972774,
                -1.7875086278862735,
                -1.3527408210530196,
                0.41160394852335486,
                0.02814121529145766,
                0.19457667859750272
            ]
        },
        {
            "positions": [
                -0.44594597590852336,
                -1.8323708047044667,
                -1.4464486170886572,
                0.4244242038924686,
                0.017446429562295418,
                0.06855253425190533
            ]
        },
        {
            "positions": [
                -0.3497242590197689,
                -1.8772329815226598,
                -1.5401564131242949,
                0.43724445926158234,
                0.006751643833133147,
                -0.057471610093692505
            ]
        },
        {
            "positions": [
                -0.25350254213101486,
                -1.922095158340853,
                -1.6338642091599325,
                0.4500647146306961,
                -0.003943141896029123,
                -0.1834957544392899
            ]
        },
        {
            "positions": [
                -0.15728082524226075,
                -1.9669573351590464,
                -1.7275720051955705,
                0.4628849699998099,
                -0.014637927625191408,
                -0.3095198987848877
            ]
        },
        {
            "positions": [
                -0.10440549920883724,
                -2.010614554848435,
                -1.8433968701086805,
                0.570186580773654,
                -0.029534322823496655,
                -0.33962115543385124
            ]
        },
        {
            "positions": [
                -0.05153017317541371,
                -2.054271774537824,
                -1.9592217350217902,
                0.6774881915474982,
                -0.0444307180218019,
                -0.36972241208281476
            ]
        },
        {
            "positions": [
                0.0013451528580098182,
                -2.0979289942272126,
                -2.0750465999349,
                0.7847898023213422,
                -0.059327113220107155,
                -0.39982366873177827
            ]
        },
        {
            "positions": [
                0.05422047889143333,
                -2.1415862139166015,
                -2.19087146484801,
                0.8920914130951865,
                -0.07422350841841241,
                -0.4299249253807418
            ]
        },
        {
            "positions": [
                0.1070958049248569,
                -2.1852434336059905,
                -2.30669632976112,
                0.9993930238690306,
                -0.08911990361671766,
                -0.46002618202970535
            ]
        },
        {
            "positions": [
                0.1599711309582804,
                -2.228900653295379,
                -2.4225211946742293,
                1.1066946346428748,
                -0.1040162988150229,
                -0.4901274386786688
            ]
        },
        {
            "positions": [
                0.21284645699170393,
                -2.272557872984768,
                -2.5383460595873393,
                1.2139962454167188,
                -0.11891269401332816,
                -0.5202286953276324
            ]
        },
        {
            "positions": [
                0.2657217830251274,
                -2.3162150926741565,
                -2.6541709245004492,
                1.3212978561905628,
                -0.1338090892116334,
                -0.5503299519765958
            ]
        },
        {
            "positions": [
                0.31859710905855093,
                -2.3598723123635454,
                -2.769995789413559,
                1.428599466964407,
                -0.14870548440993864,
                -0.5804312086255594
            ]
        },
        {
            "positions": [
                0.21749848240285463,
                -2.342809605737326,
                -2.694654912185584,
                1.43310596455338,
                -0.08340378264822211,
                -0.45114738723541437
            ]
        },
        {
            "positions": [
                0.11639985574715833,
                -2.3257468991111065,
                -2.6193140349576085,
                1.4376124621423527,
                -0.018102080886505584,
                -0.32186356584526926
            ]
        },
        {
            "positions": [
                0.015301229091462087,
                -2.3086841924848875,
                -2.543973157729633,
                1.4421189597313258,
                0.04719962087521093,
                -0.1925797444551242
            ]
        },
        {
            "positions": [
                -0.08579739756423427,
                -2.291621485858668,
                -2.468632280501658,
                1.4466254573202986,
                0.11250132263692747,
                -0.06329592306497911
            ]
        },
        {
            "positions": [
                -0.18689602421993048,
                -2.2745587792324486,
                -2.3932914032736825,
                1.4511319549092714,
                0.17780302439864398,
                0.06598789832516598
            ]
        }
    ]
}