{
    "goal": {
        "global_pose": {
            "orientation": {
                "w": 0.7031023480610252,
                "x": -0.7110244013736278,
                "y": 0.0077485991402295624,
                "z": 0.005598929693374583
            },
            "position": {
                "x": -0.8841497679147869,
                "y": 0.44412534475326537,
                "z": 0.3711530566215515
            }
        },
        "name": "move_to_auspresseinheit_D"
    },
    "id": "LBKPIECE_move_to_auspresseinheit_D_122",
    "joint_names": [
        "shoulder_pan_joint",
        "shoulder_lift_joint",
        "elbow_joint",
        "wrist_1_joint",
        "wrist_2_joint",
        "wrist_3_joint"
    ],
    "metrics": {
        "cart_traj_len": 3.6865760165799797,
        "distance_elbow_joint": 3.0210215819433754,
        "distance_shoulder_lift_joint": 1.2309858654400414,
        "distance_shoulder_pan_joint": 2.796343720788609,
        "distance_wrist_1_joint": 2.3670082256849008,
        "distance_wrist_2_joint": 1.2154605269897882,
        "distance_wrist_3_joint": 1.3923244216479937,
        "smoothness": 0.1523808835802012,
        "time": 3.096586801,
        "traj_len": 3.4674406040327077,
        "weighted_distance": 4.288386869029587
    },
    "planner": "LBKPIECE",
    "start": {
        "state": {
            "elbow_joint": 1.8268400409724999,
            "shoulder_lift_joint": -1.0144045787793008,
            "shoulder_pan_joint": 2.6280239544362485,
            "wrist_1_joint": -0.790705565816056,
            "wrist_2_joint": 1.0573557467365533,
            "wrist_3_joint": 3.1851377467193758
        }
    },
    "waypoints": [
        {
            "positions": [
                2.6280239544362485,
                -1.0144045787793008,
                1.8268400409724999,
                -0.790705565816056,
                1.0573557467365533,
                3.1851377467193758
            ]
        },
        {
            "positions": [
                2.598858912527037,
                -1.0534431571011427,
                1.763013298003082,
                -0.7604997798041467,
                0.9884342144709042,
                3.0441173940757715
            ]
        },
        {
            "positions": [
                2.569693870617826,
                -1.0924817354229843,
                1.6991865550336638,
                -0.7302939937922375,
                0.9195126822052552,
                2.903097041432167
            ]
        },
        {
            "positions": [
                2.5405288287086143,
                -1.1315203137448262,
                1.6353598120642459,
                -0.7000882077803282,
                0.850591149939606,
                2.7620766887885626
            ]
        },
        {
            "positions": [
                2.511363786799403,
                -1.1705588920666679,
                1.5715330690948277,
                -0.669882421768419,
                0.781669617673957,
                2.621056336144958
            ]
        },
        {
            "positions": [
                2.4821987448901917,
                -1.2095974703885097,
                1.5077063261254098,
                -0.6396766357565097,
                0.7127480854083079,
                2.4800359835013537
            ]
        },
        {
            "positions": [
                2.3802557252270167,
                -1.2494356616896956,
                1.4037875620063218,
                -0.7249066086651772,
                0.6792537444213255,
                2.506467624210199
            ]
        },
        {
            "positions": [
                2.2783127055638417,
                -1.2892738529908814,
                1.2998687978872339,
                -0.8101365815738446,
                0.645759403434343,
                2.5328992649190436
            ]
        },
        {
            "positions": [
                2.1763696859006663,
                -1.3291120442920674,
                1.195950033768146,
                -0.8953665544825121,
                0.6122650624473606,
                2.559330905627889
            ]
        },
        {
            "positions": [
                2.0744266662374913,
                -1.3689502355932532,
                1.0920312696490582,
                -0.9805965273911796,
                0.5787707214603781,
                2.585762546336734
            ]
        },
        {
            "positions": [
                1.9724836465743163,
                -1.408788426894439,
                0.9881125055299702,
                -1.065826500299847,
                0.5452763804733958,
                2.612194187045579
            ]
        },
        {
            "positions": [
                1.870540626911141,
                -1.4486266181956249,
                0.8841937414108823,
                -1.1510564732085147,
                0.5117820394864133,
                2.638625827754424
            ]
        },
        {
            "positions": [
                1.768597607247966,
                -1.4884648094968107,
                0.7802749772917945,
                -1.236286446117182,
                0.47828769849943087,
                2.665057468463269
            ]
        },
        {
            "positions": [
                1.666654587584791,
                -1.5283030007979965,
                0.6763562131727064,
                -1.3215164190258495,
                0.4447933575124484,
                2.6914891091721143
            ]
        },
        {
            "positions": [
                1.564711567921616,
                -1.5681411920991826,
                0.5724374490536186,
                -1.406746391934517,
                0.411299016525466,
                2.7179207498809594
            ]
        },
        {
            "positions": [
                1.4627685482584407,
                -1.6079793834003684,
                0.46851868493453064,
                -1.4919763648431845,
                0.37780467553848357,
                2.744352390589804
            ]
        },
        {
            "positions": [
                1.3608255285952657,
                -1.6478175747015542,
                0.3645999208154429,
                -1.577206337751852,
                0.3443103345515011,
                2.7707840312986494
            ]
        },
        {
            "positions": [
                1.2588825089320905,
                -1.6876557660027403,
                0.2606811566963547,
                -1.6624363106605196,
                0.31081599356451867,
                2.7972156720074945
            ]
        },
        {
            "positions": [
                1.1569394892689155,
                -1.7274939573039259,
                0.15676239257726698,
                -1.747666283569187,
                0.27732165257753627,
                2.8236473127163393
            ]
        },
        {
            "positions": [
                1.0549964696057406,
                -1.767332148605112,
                0.05284362845817925,
                -1.8328962564778544,
                0.24382731159055387,
                2.8500789534251845
            ]
        },
        {
            "positions": [
                0.9530534499425656,
                -1.8071703399062975,
                -0.05107513566090871,
                -1.9181262293865218,
                0.21033297060357148,
                2.8765105941340297
            ]
        },
        {
            "positions": [
                0.8511104302793902,
                -1.8470085312074835,
                -0.1549938997799969,
                -2.003356202295189,
                0.17683862961658892,
                2.902942234842875
            ]
        },
        {
            "positions": [
                0.7491674106162152,
                -1.8868467225086696,
                -0.2589126638990846,
                -2.0885861752038566,
                0.14334428862960658,
                2.9293738755517196
            ]
        },
        {
            "positions": [
                0.6472243909530402,
                -1.9266849138098552,
                -0.3628314280181726,
                -2.173816148112524,
                0.10984994764262412,
                2.9558055162605648
            ]
        },
        {
            "positions": [
                0.5452813712898652,
                -1.9665231051110412,
                -0.4667501921372603,
                -2.2590461210211914,
                0.07635560665564167,
                2.98223715696941
            ]
        },
        {
            "positions": [
                0.4433383516266898,
                -2.0063612964122273,
                -0.5706689562563485,
                -2.3442760939298593,
                0.04286126566865922,
                3.008668797678255
            ]
        },
        {
            "positions": [
                0.3413953319635148,
                -2.046199487713413,
                -0.6745877203754362,
                -2.4295060668385267,
                0.00936692468167677,
                3.0351004383871
            ]
        },
        {
            "positions": [
                0.2394523123003398,
                -2.0860376790145985,
                -0.778506484494524,
                -2.514736039747194,
                -0.024127416305305682,
                3.061532079095945
            ]
        },
        {
            "positions": [
                0.13750929263716483,
                -2.1258758703157845,
                -0.8824252486136122,
                -2.5999660126558615,
                -0.05762175729228802,
                3.0879637198047902
            ]
        },
        {
            "positions": [
                0.0355662729739894,
                -2.1657140616169706,
                -0.9863440127327003,
                -2.6851959855645293,
                -0.09111609827927059,
                3.114395360513635
            ]
        },
        {
            "positions": [
                -0.06637674668918558,
                -2.2055522529181566,
                -1.090262776851788,
                -2.7704259584731967,
                -0.12461043926625293,
                3.14082700122248
            ]
        },
        {
            "positions": [
                -0.1683197663523607,
                -2.245390444219342,
                -1.1941815409708756,
                -2.855655931381864,
                -0.15810478025323532,
                3.1672586419313253
            ]
        }
    ]
}