{
    "goal": {
        "global_pose": {
            "orientation": {
                "w": -0.4816463035849501,
                "x": 0.5182115481033762,
                "y": 0.4908360881923453,
                "z": -0.5084816262002911
            },
            "position": {
                "x": -0.8240239810943604,
                "y": 0.19912469901144506,
                "z": 0.16403168439865112
            }
        },
        "name": "move_to_storage_D"
    },
    "id": "LBKPIECE_move_to_storage_D_99",
    "joint_names": [
        "shoulder_pan_joint",
        "shoulder_lift_joint",
        "elbow_joint",
        "wrist_1_joint",
        "wrist_2_joint",
        "wrist_3_joint"
    ],
    "metrics": {
        "cart_traj_len": 3.681224748287103,
        "distance_elbow_joint": 4.209086941388662,
        "distance_shoulder_lift_joint": 1.264257431959707,
        "distance_shoulder_pan_joint": 2.812152903914087,
        "distance_wrist_1_joint": 2.5635187969408593,
        "distance_wrist_2_joint": 1.6828098214202827,
        "distance_wrist_3_joint": 3.246157497756754,
        "smoothness": 0.08812822549291179,
        "time": 2.646589579,
        "traj_len": 3.9721509781704363,
        "weighted_distance": 5.1494297749610105
    },
    "planner": "LBKPIECE",
    "start": {
        "state": {
            "elbow_joint": -2.384821997420982,
            "shoulder_lift_joint": -2.2788054674887404,
            "shoulder_pan_joint": -0.18546946417610016,
            "wrist_1_joint": 1.4845937964226739,
            "wrist_2_joint": 0.1789877726866377,
            "wrist_3_joint": 0.03710572555276528
        }
    },
    "waypoints": [
        {
            "positions": [
                -0.18546946417610016,
                -2.2788054674887404,
                -2.384821997420982,
                1.4845937964226739,
                0.1789877726866377,
                0.03710572555276528
            ]
        },
        {
            "positions": [
                -0.1527749936196439,
                -2.22739794798472,
                -2.3692002371978678,
                1.4065593040842286,
                0.13464159771633777,
                0.02717657209132106
            ]
        },
        {
            "positions": [
                -0.12008052306318762,
                -2.1759904284806995,
                -2.353578476974753,
                1.3285248117457835,
                0.09029542274603783,
                0.017247418629876846
            ]
        },
        {
            "positions": [
                -0.037340253133850046,
                -2.1636257196168764,
                -2.2433790265711804,
                1.2557336337529557,
                0.08005896281518805,
                0.12021676038970582
            ]
        },
        {
            "positions": [
                0.045400016795487524,
                -2.1512610107530534,
                -2.133179576167608,
                1.1829424557601278,
                0.06982250288433828,
                0.22318610214953477
            ]
        },
        {
            "positions": [
                0.1281402867248251,
                -2.1388963018892304,
                -2.022980125764035,
                1.1101512777673,
                0.0595860429534885,
                0.32615544390936374
            ]
        },
        {
            "positions": [
                0.21088055665416267,
                -2.126531593025407,
                -1.9127806753604624,
                1.0373600997744723,
                0.049349583022638734,
                0.4291247856691927
            ]
        },
        {
            "positions": [
                0.29362082658350025,
                -2.114166884161584,
                -1.8025812249568895,
                0.9645689217816443,
                0.03911312309178896,
                0.5320941274290217
            ]
        },
        {
            "positions": [
                0.37636109651283783,
                -2.101802175297761,
                -1.692381774553317,
                0.8917777437888166,
                0.028876663160939182,
                0.6350634691888507
            ]
        },
        {
            "positions": [
                0.45910136644217536,
                -2.089437466433938,
                -1.5821823241497444,
                0.8189865657959886,
                0.018640203230089414,
                0.7380328109486797
            ]
        },
        {
            "positions": [
                0.541841636371513,
                -2.077072757570115,
                -1.4719828737461715,
                0.7461953878031609,
                0.008403743299239638,
                0.8410021527085086
            ]
        },
        {
            "positions": [
                0.6245819063008506,
                -2.064708048706292,
                -1.3617834233425987,
                0.6734042098103329,
                -0.0018327166316101512,
                0.9439714944683377
            ]
        },
        {
            "positions": [
                0.7073221762301881,
                -2.0523433398424684,
                -1.2515839729390261,
                0.6006130318175051,
                -0.012069176562459913,
                1.0469408362281665
            ]
        },
        {
            "positions": [
                0.7900624461595258,
                -2.0399786309786454,
                -1.1413845225354533,
                0.5278218538246773,
                -0.02230563649330969,
                1.1499101779879957
            ]
        },
        {
            "positions": [
                0.8728027160888633,
                -2.0276139221148224,
                -1.0311850721318807,
                0.45503067583184953,
                -0.032542096424159464,
                1.2528795197478244
            ]
        },
        {
            "positions": [
                0.955542986018201,
                -2.0152492132509994,
                -0.9209856217283079,
                0.38223949783902156,
                -0.04277855635500924,
                1.3558488615076536
            ]
        },
        {
            "positions": [
                1.0382832559475383,
                -2.0028845043871764,
                -0.8107861713247353,
                0.3094483198461937,
                -0.053015016285859,
                1.4588182032674823
            ]
        },
        {
            "positions": [
                1.1210235258768761,
                -1.9905197955233531,
                -0.7005867209211627,
                0.23665714185336584,
                -0.06325147621670879,
                1.5617875450273115
            ]
        },
        {
            "positions": [
                1.2037637958062135,
                -1.97815508665953,
                -0.5903872705175899,
                0.1638659638605382,
                -0.07348793614755855,
                1.6647568867871403
            ]
        },
        {
            "positions": [
                1.286504065735551,
                -1.965790377795707,
                -0.4801878201140173,
                0.09107478586771034,
                -0.08372439607840831,
                1.7677262285469693
            ]
        },
        {
            "positions": [
                1.369244335664889,
                -1.9534256689318839,
                -0.36998836971044446,
                0.018283607874882257,
                -0.09396085600925813,
                1.8706955703067984
            ]
        },
        {
            "positions": [
                1.4519846055942265,
                -1.9410609600680608,
                -0.25978891930687187,
                -0.05450757011794538,
                -0.10419731594010789,
                1.9736649120666274
            ]
        },
        {
            "positions": [
                1.5347248755235638,
                -1.9286962512042378,
                -0.14958946890329905,
                -0.12729874811077324,
                -0.11443377587095765,
                2.076634253826456
            ]
        },
        {
            "positions": [
                1.6174651454529014,
                -1.9163315423404146,
                -0.039390018499726676,
                -0.20008992610360088,
                -0.12467023580180742,
                2.1796035955862854
            ]
        },
        {
            "positions": [
                1.7002054153822392,
                -1.9039668334765916,
                0.07080943190384659,
                -0.27288110409642896,
                -0.1349066957326572,
                2.2825729373461145
            ]
        },
        {
            "positions": [
                1.7829456853115766,
                -1.8916021246127683,
                0.18100888230741896,
                -0.3456722820892568,
                -0.14514315566350697,
                2.3855422791059433
            ]
        },
        {
            "positions": [
                1.8656859552409142,
                -1.8792374157489453,
                0.2912083327109918,
                -0.41846346008208446,
                -0.15537961559435676,
                2.488511620865772
            ]
        },
        {
            "positions": [
                1.9484262251702518,
                -1.8668727068851223,
                0.40140778311456415,
                -0.4912546380749123,
                -0.1656160755252065,
                2.5914809626256012
            ]
        },
        {
            "positions": [
                2.0311664950995896,
                -1.8545079980212993,
                0.5116072335181374,
                -0.5640458160677404,
                -0.1758525354560563,
                2.6944503043854304
            ]
        },
        {
            "positions": [
                2.113906765028927,
                -1.842143289157476,
                0.6218066839217098,
                -0.636836994060568,
                -0.18608899538690607,
                2.797419646145259
            ]
        },
        {
            "positions": [
                2.1966470349582643,
                -1.829778580293653,
                0.7320061343252826,
                -0.7096281720533961,
                -0.19632545531775583,
                2.900388987905088
            ]
        },
        {
            "positions": [
                2.279387304887602,
                -1.81741387142983,
                0.842205584728855,
                -0.7824193500462238,
                -0.2065619152486056,
                3.003358329664917
            ]
        },
        {
            "positions": [
                2.36212757481694,
                -1.8050491625660068,
                0.9524050351324278,
                -0.8552105280390518,
                -0.2167983751794554,
                3.1063276714247463
            ]
        },
        {
            "positions": [
                2.4448678447462773,
                -1.7926844537021838,
                1.0626044855360006,
                -0.9280017060318796,
                -0.22703483511030517,
                3.209297013184575
            ]
        },
        {
            "positions": [
                2.465069577523134,
                -1.7062248516829448,
                1.1472334253617429,
                -0.9112324510889567,
                -0.08516958915215636,
                3.2054915024868897
            ]
        },
        {
            "positions": [
                2.4852713102999906,
                -1.6197652496637058,
                1.2318623651874852,
                -0.8944631961460338,
                0.05669565680599245,
                3.2016859917892044
            ]
        },
        {
            "positions": [
                2.505473043076847,
                -1.5333056476444669,
                1.3164913050132274,
                -0.8776939412031108,
                0.19856090276414126,
                3.197880481091519
            ]
        },
        {
            "positions": [
                2.5256747758537035,
                -1.446846045625228,
                1.4011202448389697,
                -0.860924686260188,
                0.34042614872229005,
                3.194074970393834
            ]
        },
        {
            "positions": [
                2.54587650863056,
                -1.360386443605989,
                1.4857491846647122,
                -0.844155431317265,
                0.4822913946804389,
                3.1902694596961485
            ]
        },
        {
            "positions": [
                2.566078241407417,
                -1.2739268415867502,
                1.5703781244904542,
                -0.8273861763743422,
                0.6241566406385877,
                3.186463948998463
            ]
        },
        {
            "positions": [
                2.586279974184273,
                -1.187467239567511,
                1.6550070643161967,
                -0.8106169214314193,
                0.7660218865967365,
                3.182658438300778
            ]
        },
        {
            "positions": [
                2.6064817069611297,
                -1.1010076375482722,
                1.7396360041419388,
                -0.7938476664884964,
                0.9078871325548853,
                3.1788529276030926
            ]
        },
        {
            "positions": [
                2.6266834397379863,
                -1.0145480355290333,
                1.8242649439676812,
                -0.7770784115455734,
                1.0497523785130343,
                3.1750474169054073
            ]
        }
    ]
}