{
    "goal": {
        "global_pose": {
            "orientation": {
                "w": 0.5084816217422485,
                "x": -0.49083608388900757,
                "y": 0.5182115435600281,
                "z": -0.4816462993621826
            },
            "position": {
                "x": 0.5540239810943604,
                "y": 0.030875300988554955,
                "z": 0.16403168439865112
            }
        },
        "name": "move_to_storage_A"
    },
    "id": "LBKPIECE_move_to_storage_A_85",
    "joint_names": [
        "shoulder_pan_joint",
        "shoulder_lift_joint",
        "elbow_joint",
        "wrist_1_joint",
        "wrist_2_joint",
        "wrist_3_joint"
    ],
    "metrics": {
        "cart_traj_len": 0.35294103917898606,
        "distance_elbow_joint": 0.44789173429935447,
        "distance_shoulder_lift_joint": 0.235906218926887,
        "distance_shoulder_pan_joint": 0.4611138859632479,
        "distance_wrist_1_joint": 0.23652435849113462,
        "distance_wrist_2_joint": 1.1003699688368713,
        "distance_wrist_3_joint": 0.09609131049615449,
        "smoothness": 2.2204460668324854e-16,
        "time": 4.389827488000001,
        "traj_len": 1.6055832202080493,
        "weighted_distance": 2.0265671529297924
    },
    "planner": "LBKPIECE",
    "start": {
        "state": {
            "elbow_joint": 1.9715474177455299,
            "shoulder_lift_joint": -1.139484666580328,
            "shoulder_pan_joint": 0.12281154398918248,
            "wrist_1_joint": -0.7804687475355282,
            "wrist_2_joint": 0.12958649657246987,
            "wrist_3_joint": -3.1924925159053466
        }
    },
    "waypoints": [
        {
            "positions": [
                0.12281154398918248,
                -1.139484666580328,
                1.9715474177455299,
                -0.7804687475355282,
                0.12958649657246987,
                -3.1924925159053466
            ]
        },
        {
            "positions": [
                0.05693813170871849,
                -1.1731855549984547,
                2.0355319512168664,
                -0.8142579416056903,
                0.28678220640630864,
                -3.178765185834467
            ]
        },
        {
            "positions": [
                -0.008935280571745502,
                -1.2068864434165814,
                2.0995164846882024,
                -0.8480471356758523,
                0.4439779162401474,
                -3.1650378557635883
            ]
        },
        {
            "positions": [
                -0.07480869285220948,
                -1.240587331834708,
                2.163501018159539,
                -0.8818363297460144,
                0.6011736260739862,
                -3.151310525692709
            ]
        },
        {
            "positions": [
                -0.14068210513267349,
                -1.274288220252835,
                2.2274855516308754,
                -0.9156255238161766,
                0.758369335907825,
                -3.1375831956218296
            ]
        },
        {
            "positions": [
                -0.2065555174131375,
                -1.3079891086709616,
                2.291470085102212,
                -0.9494147178863386,
                0.9155650457416638,
                -3.1238558655509503
            ]
        },
        {
            "positions": [
                -0.27242892969360144,
                -1.3416899970890883,
                2.355454618573548,
                -0.9832039119565007,
                1.0727607555755023,
                -3.1101285354800714
            ]
        },
        {
            "positions": [
                -0.33830234197406545,
                -1.375390885507215,
                2.4194391520448844,
                -1.0169931060266628,
                1.2299564654093411,
                -3.096401205409192
            ]
        }
    ]
}