{
    "goal": {
        "global_pose": {
            "orientation": {
                "w": -0.4816463035849501,
                "x": 0.5182115481033762,
                "y": 0.4908360881923453,
                "z": -0.5084816262002911
            },
            "position": {
                "x": -0.8240239810943604,
                "y": -0.300875300988555,
                "z": 0.16403168439865112
            }
        },
        "name": "move_to_storage_C"
    },
    "id": "LBKPIECE_move_to_storage_C_79",
    "joint_names": [
        "shoulder_pan_joint",
        "shoulder_lift_joint",
        "elbow_joint",
        "wrist_1_joint",
        "wrist_2_joint",
        "wrist_3_joint"
    ],
    "metrics": {
        "cart_traj_len": 0.5772612121614009,
        "distance_elbow_joint": 0.25837925142663676,
        "distance_shoulder_lift_joint": 0.18984246085283196,
        "distance_shoulder_pan_joint": 0.49572151804768527,
        "distance_wrist_1_joint": 0.07698770038655878,
        "distance_wrist_2_joint": 1.0629805579477867,
        "distance_wrist_3_joint": 0.06027833044863584,
        "smoothness": 2.5376526478085547e-16,
        "time": 3.698448076,
        "traj_len": 1.4643052342698688,
        "weighted_distance": 1.8451869114920993
    },
    "planner": "LBKPIECE",
    "start": {
        "state": {
            "elbow_joint": 2.010868315001653,
            "shoulder_lift_joint": -1.1634956873357014,
            "shoulder_pan_joint": -2.4736205022346103,
            "wrist_1_joint": -0.8367026794713948,
            "wrist_2_joint": 0.6746043897044093,
            "wrist_3_joint": 3.1335220948105738
        }
    },
    "waypoints": [
        {
            "positions": [
                -2.4736205022346103,
                -1.1634956873357014,
                2.010868315001653,
                -0.8367026794713948,
                0.6746043897044093,
                3.1335220948105738
            ]
        },
        {
            "positions": [
                -2.5562407552425577,
                -1.1318552771935628,
                1.9678051064305468,
                -0.823871396073635,
                0.8517678160290404,
                3.14356848321868
            ]
        },
        {
            "positions": [
                -2.6388610082505055,
                -1.100214867051424,
                1.9247418978594408,
                -0.8110401126758752,
                1.0289312423536714,
                3.1536148716267856
            ]
        },
        {
            "positions": [
                -2.721481261258453,
                -1.0685744569092854,
                1.8816786892883348,
                -0.7982088292781153,
                1.2060946686783027,
                3.1636612600348917
            ]
        },
        {
            "positions": [
                -2.8041015142664003,
                -1.0369340467671468,
                1.8386154807172286,
                -0.7853775458803556,
                1.3832580950029336,
                3.173707648442998
            ]
        },
        {
            "positions": [
                -2.886721767274348,
                -1.005293636625008,
                1.7955522721461223,
                -0.7725462624825958,
                1.560421521327565,
                3.1837540368511035
            ]
        },
        {
            "positions": [
                -2.9693420202822955,
                -0.9736532264828694,
                1.7524890635750163,
                -0.759714979084836,
                1.737584947652196,
                3.1938004252592096
            ]
        }
    ]
}