{
    "goal": {
        "global_pose": {
            "orientation": {
                "w": 0.7031023480610252,
                "x": -0.7110244013736278,
                "y": 0.0077485991402295624,
                "z": 0.005598929693374583
            },
            "position": {
                "x": -0.8841497679147869,
                "y": 0.44412534475326537,
                "z": 0.3711530566215515
            }
        },
        "name": "move_to_auspresseinheit_D"
    },
    "id": "LBKPIECE_move_to_auspresseinheit_D_88",
    "joint_names": [
        "shoulder_pan_joint",
        "shoulder_lift_joint",
        "elbow_joint",
        "wrist_1_joint",
        "wrist_2_joint",
        "wrist_3_joint"
    ],
    "metrics": {
        "cart_traj_len": 3.671542670251534,
        "distance_elbow_joint": 2.999582998448985,
        "distance_shoulder_lift_joint": 1.2426637867172659,
        "distance_shoulder_pan_joint": 2.797085246995657,
        "distance_wrist_1_joint": 2.2194841651119765,
        "distance_wrist_2_joint": 1.2173710865016767,
        "distance_wrist_3_joint": 6.230888246068966,
        "smoothness": 0.014499793616028085,
        "time": 4.293537773,
        "traj_len": 4.087428963278081,
        "weighted_distance": 5.710140740261672
    },
    "planner": "LBKPIECE",
    "start": {
        "state": {
            "elbow_joint": 1.8268400409724999,
            "shoulder_lift_joint": -1.0144045787793008,
            "shoulder_pan_joint": 2.6280239544362485,
            "wrist_1_joint": -0.790705565816056,
            "wrist_2_joint": 1.0573557467365533,
            "wrist_3_joint": 3.1851377467193758
        }
    },
    "waypoints": [
        {
            "positions": [
                2.6280239544362485,
                -1.0144045787793008,
                1.8268400409724999,
                -0.790705565816056,
                1.0573557467365533,
                3.1851377467193758
            ]
        },
        {
            "positions": [
                2.5950751139036363,
                -1.058064079942346,
                1.7631361566657038,
                -0.783455898314258,
                1.0159843578266978,
                3.0434719001762573
            ]
        },
        {
            "positions": [
                2.5621262733710237,
                -1.1017235811053911,
                1.6994322723589077,
                -0.77620623081246,
                0.9746129689168422,
                2.9018060536331394
            ]
        },
        {
            "positions": [
                2.5291774328384116,
                -1.1453830822684363,
                1.6357283880521116,
                -0.7689565633106619,
                0.9332415800069866,
                2.7601402070900214
            ]
        },
        {
            "positions": [
                2.4962285923057994,
                -1.1890425834314815,
                1.5720245037453158,
                -0.7617068958088639,
                0.8918701910971312,
                2.618474360546903
            ]
        },
        {
            "positions": [
                2.463279751773187,
                -1.2327020845945267,
                1.5083206194385197,
                -0.7544572283070659,
                0.8504988021872757,
                2.4768085140037845
            ]
        },
        {
            "positions": [
                2.4303309112405747,
                -1.2763615857575719,
                1.4446167351317236,
                -0.7472075608052678,
                0.8091274132774201,
                2.3351426674606666
            ]
        },
        {
            "positions": [
                2.3619258532458383,
                -1.302169658908598,
                1.375738848484139,
                -0.8044703544921412,
                0.7836236566184058,
                2.1935402157025017
            ]
        },
        {
            "positions": [
                2.293520795251102,
                -1.3279777320596242,
                1.3068609618365548,
                -0.8617331481790146,
                0.7581198999593914,
                2.0519377639443372
            ]
        },
        {
            "positions": [
                2.2251157372563655,
                -1.3537858052106504,
                1.2379830751889702,
                -0.918995941865888,
                0.7326161433003772,
                1.9103353121861726
            ]
        },
        {
            "positions": [
                2.156710679261629,
                -1.3795938783616766,
                1.1691051885413857,
                -0.9762587355527613,
                0.7071123866413629,
                1.768732860428008
            ]
        },
        {
            "positions": [
                2.0883056212668927,
                -1.4054019515127028,
                1.1002273018938014,
                -1.0335215292396347,
                0.6816086299823485,
                1.6271304086698433
            ]
        },
        {
            "positions": [
                2.0199005632721563,
                -1.431210024663729,
                1.0313494152462168,
                -1.090784322926508,
                0.6561048733233342,
                1.4855279569116786
            ]
        },
        {
            "positions": [
                1.9514955052774199,
                -1.457018097814755,
                0.9624715285986325,
                -1.1480471166133814,
                0.63060111666432,
                1.343925505153514
            ]
        },
        {
            "positions": [
                1.8830904472826835,
                -1.4828261709657813,
                0.893593641951048,
                -1.205309910300255,
                0.6050973600053056,
                1.2023230533953493
            ]
        },
        {
            "positions": [
                1.814685389287947,
                -1.5086342441168075,
                0.8247157553034635,
                -1.2625727039871282,
                0.5795936033462913,
                1.0607206016371846
            ]
        },
        {
            "positions": [
                1.7462803312932107,
                -1.5344423172678336,
                0.7558378686558791,
                -1.3198354976740014,
                0.554089846687277,
                0.91911814987902
            ]
        },
        {
            "positions": [
                1.6778752732984743,
                -1.5602503904188598,
                0.6869599820082946,
                -1.3770982913608751,
                0.5285860900282626,
                0.7775156981208551
            ]
        },
        {
            "positions": [
                1.609470215303738,
                -1.586058463569886,
                0.6180820953607101,
                -1.4343610850477484,
                0.5030823333692482,
                0.6359132463626906
            ]
        },
        {
            "positions": [
                1.5410651573090013,
                -1.6118665367209122,
                0.5492042087131256,
                -1.4916238787346217,
                0.47757857671023396,
                0.49431079460452576
            ]
        },
        {
            "positions": [
                1.4726600993142651,
                -1.6376746098719384,
                0.48032632206554127,
                -1.548886672421495,
                0.4520748200512197,
                0.3527083428463613
            ]
        },
        {
            "positions": [
                1.4042550413195285,
                -1.6634826830229645,
                0.4114484354179566,
                -1.6061494661083686,
                0.42657106339220535,
                0.21110589108819644
            ]
        },
        {
            "positions": [
                1.335849983324792,
                -1.6892907561739907,
                0.3425705487703723,
                -1.6634122597952419,
                0.4010673067331911,
                0.069503439330032
            ]
        },
        {
            "positions": [
                1.2674449253300557,
                -1.715098829325017,
                0.27369266212278776,
                -1.7206750534821151,
                0.3755635500741767,
                -0.07209901242813288
            ]
        },
        {
            "positions": [
                1.1990398673353193,
                -1.740906902476043,
                0.20481477547520344,
                -1.7779378471689884,
                0.3500597934151624,
                -0.21370146418629732
            ]
        },
        {
            "positions": [
                1.130634809340583,
                -1.7667149756270693,
                0.1359368888276189,
                -1.835200640855862,
                0.3245560367561481,
                -0.3553039159444622
            ]
        },
        {
            "positions": [
                1.0622297513458465,
                -1.7925230487780954,
                0.06705900218003458,
                -1.8924634345427354,
                0.2990522800971338,
                -0.49690636770262664
            ]
        },
        {
            "positions": [
                0.9938246933511099,
                -1.8183311219291216,
                -0.0018188844675501858,
                -1.949726228229609,
                0.2735485234381194,
                -0.638508819460792
            ]
        },
        {
            "positions": [
                0.9254196353563737,
                -1.8441391950801478,
                -0.0706967711151345,
                -2.0069890219164823,
                0.24804476677910514,
                -0.7801112712189564
            ]
        },
        {
            "positions": [
                0.8570145773616373,
                -1.869947268231174,
                -0.13957465776271882,
                -2.0642518156033556,
                0.22254101012009087,
                -0.9217137229771208
            ]
        },
        {
            "positions": [
                0.7886095193669009,
                -1.8957553413822001,
                -0.20845254441030336,
                -2.121514609290229,
                0.19703725346107648,
                -1.0633161747352853
            ]
        },
        {
            "positions": [
                0.7202044613721643,
                -1.9215634145332263,
                -0.2773304310578879,
                -2.1787774029771025,
                0.1715334968020621,
                -1.2049186264934506
            ]
        },
        {
            "positions": [
                0.6517994033774279,
                -1.9473714876842525,
                -0.34620831770547245,
                -2.236040196663976,
                0.14602974014304781,
                -1.346521078251615
            ]
        },
        {
            "positions": [
                0.5833943453826917,
                -1.9731795608352787,
                -0.41508620435305676,
                -2.293302990350849,
                0.12052598348403354,
                -1.4881235300097795
            ]
        },
        {
            "positions": [
                0.5149892873879554,
                -1.9989876339863049,
                -0.4839640910006411,
                -2.3505657840377223,
                0.09502222682501926,
                -1.629725981767944
            ]
        },
        {
            "positions": [
                0.44658422939321873,
                -2.024795707137331,
                -0.5528419776482258,
                -2.407828577724596,
                0.06951847016600488,
                -1.7713284335261088
            ]
        },
        {
            "positions": [
                0.37817917139848234,
                -2.050603780288357,
                -0.6217198642958104,
                -2.4650913714114693,
                0.0440147135069906,
                -1.9129308852842737
            ]
        },
        {
            "positions": [
                0.30977411340374594,
                -2.0764118534393834,
                -0.6905977509433947,
                -2.5223541650983425,
                0.018510956847976323,
                -2.0545333370424386
            ]
        },
        {
            "positions": [
                0.24136905540900955,
                -2.1022199265904096,
                -0.759475637590979,
                -2.579616958785216,
                -0.006992799811037953,
                -2.1961357888006026
            ]
        },
        {
            "positions": [
                0.17296399741427315,
                -2.1280279997414357,
                -0.8283535242385638,
                -2.6368797524720895,
                -0.03249655647005234,
                -2.3377382405587674
            ]
        },
        {
            "positions": [
                0.10455893941953676,
                -2.153836072892462,
                -0.8972314108861481,
                -2.6941425461589628,
                -0.05800031312906673,
                -2.4793406923169323
            ]
        },
        {
            "positions": [
                0.03615388142480036,
                -2.179644146043488,
                -0.9661092975337324,
                -2.751405339845836,
                -0.083504069788081,
                -2.620943144075097
            ]
        },
        {
            "positions": [
                -0.032251176569936035,
                -2.2054522191945143,
                -1.0349871841813167,
                -2.8086681335327093,
                -0.10900782644709528,
                -2.762545595833261
            ]
        },
        {
            "positions": [
                -0.10065623456467243,
                -2.2312602923455405,
                -1.1038650708289015,
                -2.865930927219583,
                -0.13451158310610967,
                -2.904148047591426
            ]
        },
        {
            "positions": [
                -0.169061292559409,
                -2.2570683654965666,
                -1.1727429574764856,
                -2.9231937209064562,
                -0.1600153397651239,
                -3.045750499349591
            ]
        }
    ]
}