{
    "goal": {
        "global_pose": {
            "orientation": {
                "w": -0.4816463035849501,
                "x": 0.5182115481033762,
                "y": 0.4908360881923453,
                "z": -0.5084816262002911
            },
            "position": {
                "x": -0.8240239810943604,
                "y": 0.19912469901144506,
                "z": 0.16403168439865112
            }
        },
        "name": "move_to_storage_D"
    },
    "id": "LBKPIECE_move_to_storage_D_54",
    "joint_names": [
        "shoulder_pan_joint",
        "shoulder_lift_joint",
        "elbow_joint",
        "wrist_1_joint",
        "wrist_2_joint",
        "wrist_3_joint"
    ],
    "metrics": {
        "cart_traj_len": 3.7800058448697516,
        "distance_elbow_joint": 4.209975620237635,
        "distance_shoulder_lift_joint": 1.2654334684103266,
        "distance_shoulder_pan_joint": 2.8152756984884175,
        "distance_wrist_1_joint": 2.2703818303710728,
        "distance_wrist_2_joint": 1.4519327753724145,
        "distance_wrist_3_joint": 3.140418918767339,
        "smoothness": 0.07595922429623801,
        "time": 5.29422658,
        "traj_len": 3.8927391784766687,
        "weighted_distance": 5.015632637556839
    },
    "planner": "LBKPIECE",
    "start": {
        "state": {
            "elbow_joint": -2.384821997420982,
            "shoulder_lift_joint": -2.2788054674887404,
            "shoulder_pan_joint": -0.18546946417610016,
            "wrist_1_joint": 1.4845937964226739,
            "wrist_2_joint": 0.1789877726866377,
            "wrist_3_joint": 0.03710572555276528
        }
    },
    "waypoints": [
        {
            "positions": [
                -0.18546946417610016,
                -2.2788054674887404,
                -2.384821997420982,
                1.4845937964226739,
                0.1789877726866377,
                0.03710572555276528
            ]
        },
        {
            "positions": [
                -0.10673015328697258,
                -2.2565597891460913,
                -2.2571220314554292,
                1.4277282802970728,
                0.21556971982115006,
                -0.026728694049551686
            ]
        },
        {
            "positions": [
                -0.027990842397844995,
                -2.2343141108034423,
                -2.1294220654898766,
                1.370862764171472,
                0.25215166695566243,
                -0.09056311365186864
            ]
        },
        {
            "positions": [
                0.05074846849128259,
                -2.2120684324607938,
                -2.001722099524324,
                1.3139972480458708,
                0.2887336140901748,
                -0.15439753325418562
            ]
        },
        {
            "positions": [
                0.12948777938041017,
                -2.1898227541181448,
                -1.8740221335587712,
                1.2571317319202697,
                0.32531556122468713,
                -0.21823195285650257
            ]
        },
        {
            "positions": [
                0.20822709026953773,
                -2.1675770757754957,
                -1.7463221675932186,
                1.2002662157946689,
                0.3618975083591995,
                -0.28206637245881955
            ]
        },
        {
            "positions": [
                0.28696640115866534,
                -2.1453313974328467,
                -1.6186222016276661,
                1.1434006996690678,
                0.3984794554937119,
                -0.34590079206113655
            ]
        },
        {
            "positions": [
                0.36570571204779295,
                -2.1230857190901977,
                -1.4909222356621135,
                1.0865351835434667,
                0.43506140262822424,
                -0.4097352116634535
            ]
        },
        {
            "positions": [
                0.4444450229369205,
                -2.100840040747549,
                -1.3632222696965608,
                1.0296696674178658,
                0.4716433497627366,
                -0.47356963126577045
            ]
        },
        {
            "positions": [
                0.523184333826048,
                -2.0785943624049,
                -1.2355223037310081,
                0.9728041512922647,
                0.5082252968972489,
                -0.5374040508680874
            ]
        },
        {
            "positions": [
                0.6019236447151757,
                -2.056348684062251,
                -1.1078223377654555,
                0.9159386351666637,
                0.5448072440317613,
                -0.6012384704704044
            ]
        },
        {
            "positions": [
                0.6806629556043033,
                -2.034103005719602,
                -0.9801223717999028,
                0.8590731190410628,
                0.5813891911662736,
                -0.6650728900727213
            ]
        },
        {
            "positions": [
                0.7594022664934308,
                -2.0118573273769536,
                -0.8524224058343504,
                0.8022076029154617,
                0.617971138300786,
                -0.7289073096750384
            ]
        },
        {
            "positions": [
                0.8381415773825585,
                -1.9896116490343045,
                -0.7247224398687977,
                0.7453420867898607,
                0.6545530854352983,
                -0.7927417292773553
            ]
        },
        {
            "positions": [
                0.9168808882716861,
                -1.9673659706916555,
                -0.597022473903245,
                0.6884765706642597,
                0.6911350325698107,
                -0.8565761488796723
            ]
        },
        {
            "positions": [
                0.9956201991608136,
                -1.9451202923490065,
                -0.46932250793769237,
                0.6316110545386586,
                0.727716979704323,
                -0.9204105684819892
            ]
        },
        {
            "positions": [
                1.0743595100499412,
                -1.9228746140063577,
                -0.3416225419721397,
                0.5747455384130576,
                0.7642989268388354,
                -0.9842449880843062
            ]
        },
        {
            "positions": [
                1.153098820939069,
                -1.900628935663709,
                -0.21392257600658704,
                0.5178800222874567,
                0.8008808739733477,
                -1.048079407686623
            ]
        },
        {
            "positions": [
                1.2318381318281963,
                -1.87838325732106,
                -0.08622261004103438,
                0.4610145061618556,
                0.8374628211078601,
                -1.11191382728894
            ]
        },
        {
            "positions": [
                1.310577442717324,
                -1.856137578978411,
                0.04147735592451829,
                0.4041489900362547,
                0.8740447682423724,
                -1.175748246891257
            ]
        },
        {
            "positions": [
                1.3893167536064515,
                -1.8338919006357621,
                0.16917732189007095,
                0.3472834739106536,
                0.9106267153768848,
                -1.2395826664935738
            ]
        },
        {
            "positions": [
                1.4680560644955791,
                -1.8116462222931131,
                0.2968772878556236,
                0.2904179577850525,
                0.9472086625113971,
                -1.303417086095891
            ]
        },
        {
            "positions": [
                1.5467953753847068,
                -1.7894005439504643,
                0.4245772538211763,
                0.23355244165945166,
                0.9837906096459095,
                -1.3672515056982077
            ]
        },
        {
            "positions": [
                1.6255346862738342,
                -1.7671548656078153,
                0.552277219786729,
                0.17668692553385057,
                1.0203725567804218,
                -1.4310859253005248
            ]
        },
        {
            "positions": [
                1.704273997162962,
                -1.7449091872651663,
                0.6799771857522812,
                0.11982140940824948,
                1.0569545039149344,
                -1.4949203449028419
            ]
        },
        {
            "positions": [
                1.7830133080520896,
                -1.7226635089225175,
                0.8076771517178338,
                0.06295589328264861,
                1.0935364510494467,
                -1.5587547645051587
            ]
        },
        {
            "positions": [
                1.861752618941217,
                -1.7004178305798687,
                0.9353771176833865,
                0.006090377157047522,
                1.130118398183959,
                -1.6225891841074758
            ]
        },
        {
            "positions": [
                1.9404919298303445,
                -1.6781721522372197,
                1.0630770836489392,
                -0.05077513896855357,
                1.1667003453184714,
                -1.6864236037097926
            ]
        },
        {
            "positions": [
                2.0192312407194724,
                -1.6559264738945707,
                1.1907770496144918,
                -0.10764065509415444,
                1.2032822924529838,
                -1.7502580233121097
            ]
        },
        {
            "positions": [
                2.0979705516086,
                -1.6336807955519217,
                1.3184770155800445,
                -0.16450617121975553,
                1.2398642395874961,
                -1.8140924429144265
            ]
        },
        {
            "positions": [
                2.1767098624977272,
                -1.611435117209273,
                1.4461769815455972,
                -0.22137168734535662,
                1.2764461867220085,
                -1.8779268625167436
            ]
        },
        {
            "positions": [
                2.255449173386855,
                -1.5891894388666241,
                1.5738769475111498,
                -0.2782372034709575,
                1.3130281338565208,
                -1.9417612821190604
            ]
        },
        {
            "positions": [
                2.3341884842759826,
                -1.566943760523975,
                1.7015769134767025,
                -0.3351027195965586,
                1.3496100809910332,
                -2.0055957017213775
            ]
        },
        {
            "positions": [
                2.3711407030305245,
                -1.49774729034328,
                1.717024002144196,
                -0.39143838389053864,
                1.3144462726075308,
                -2.142810388158027
            ]
        },
        {
            "positions": [
                2.4080929217850664,
                -1.4285508201625847,
                1.7324710908116896,
                -0.4477740481845187,
                1.2792824642240284,
                -2.2800250745946764
            ]
        },
        {
            "positions": [
                2.4450451405396083,
                -1.3593543499818896,
                1.7479181794791832,
                -0.5041097124784988,
                1.2441186558405262,
                -2.4172397610313263
            ]
        },
        {
            "positions": [
                2.4819973592941498,
                -1.2901578798011943,
                1.7633652681466767,
                -0.5604453767724789,
                1.2089548474570238,
                -2.554454447467976
            ]
        },
        {
            "positions": [
                2.5189495780486917,
                -1.2209614096204993,
                1.7788123568141705,
                -0.6167810410664589,
                1.1737910390735213,
                -2.6916691339046253
            ]
        },
        {
            "positions": [
                2.5559017968032336,
                -1.1517649394398042,
                1.794259445481664,
                -0.673116705360439,
                1.1386272306900191,
                -2.828883820341275
            ]
        },
        {
            "positions": [
                2.5928540155577755,
                -1.082568469259109,
                1.8097065341491576,
                -0.7294523696544191,
                1.1034634223065167,
                -2.9660985067779246
            ]
        },
        {
            "positions": [
                2.6298062343123174,
                -1.0133719990784138,
                1.8251536228166512,
                -0.7857880339483991,
                1.0682996139230143,
                -3.103313193214574
            ]
        }
    ]
}