{
    "goal": {
        "global_pose": {
            "orientation": {
                "w": 0.7031023480610252,
                "x": -0.7110244013736278,
                "y": 0.0077485991402295624,
                "z": 0.005598929693374583
            },
            "position": {
                "x": -0.8841497679147869,
                "y": 0.44412534475326537,
                "z": 0.3711530566215515
            }
        },
        "name": "move_to_auspresseinheit_D"
    },
    "id": "LBKPIECE_move_to_auspresseinheit_D_134",
    "joint_names": [
        "shoulder_pan_joint",
        "shoulder_lift_joint",
        "elbow_joint",
        "wrist_1_joint",
        "wrist_2_joint",
        "wrist_3_joint"
    ],
    "metrics": {
        "cart_traj_len": 4.130726333973358,
        "distance_elbow_joint": 3.486790767102156,
        "distance_shoulder_lift_joint": 1.3893234591618118,
        "distance_shoulder_pan_joint": 3.9962311481343784,
        "distance_wrist_1_joint": 1.6148971624836577,
        "distance_wrist_2_joint": 3.5674610859642573,
        "distance_wrist_3_joint": 3.051043105207201,
        "smoothness": 0.29213494943261176,
        "time": 2.322658337,
        "traj_len": 4.135909419710912,
        "weighted_distance": 5.3282446628243125
    },
    "planner": "LBKPIECE",
    "start": {
        "state": {
            "elbow_joint": 1.8268400409724999,
            "shoulder_lift_joint": -1.0144045787793008,
            "shoulder_pan_joint": 2.6280239544362485,
            "wrist_1_joint": -0.790705565816056,
            "wrist_2_joint": 1.0573557467365533,
            "wrist_3_joint": 3.1851377467193758
        }
    },
    "waypoints": [
        {
            "positions": [
                2.6280239544362485,
                -1.0144045787793008,
                1.8268400409724999,
                -0.790705565816056,
                1.0573557467365533,
                3.1851377467193758
            ]
        },
        {
            "positions": [
                2.6824879264504076,
                -1.0496123468425353,
                1.8399610067404801,
                -0.804377691653713,
                1.1791454390552794,
                3.036991677602196
            ]
        },
        {
            "positions": [
                2.7369518984645667,
                -1.08482011490577,
                1.8530819725084606,
                -0.8180498174913701,
                1.3009351313740052,
                2.8888456084850165
            ]
        },
        {
            "positions": [
                2.7914158704787257,
                -1.1200278829690045,
                1.866202938276441,
                -0.831721943329027,
                1.4227248236927312,
                2.740699539367837
            ]
        },
        {
            "positions": [
                2.845879842492885,
                -1.1552356510322392,
                1.8793239040444212,
                -0.8453940691666841,
                1.544514516011457,
                2.592553470250657
            ]
        },
        {
            "positions": [
                2.900343814507044,
                -1.1904434190954738,
                1.8924448698124015,
                -0.8590661950043411,
                1.6663042083301831,
                2.4444074011334775
            ]
        },
        {
            "positions": [
                2.9548077865212035,
                -1.2256511871587084,
                1.905565835580382,
                -0.8727383208419982,
                1.7880939006489092,
                2.2962613320162983
            ]
        },
        {
            "positions": [
                3.0092717585353626,
                -1.260858955221943,
                1.9186868013483622,
                -0.8864104466796552,
                1.9098835929676352,
                2.1481152628991182
            ]
        },
        {
            "positions": [
                3.0637357305495216,
                -1.2960667232851777,
                1.9318077671163425,
                -0.9000825725173123,
                2.0316732852863613,
                1.9999691937819388
            ]
        },
        {
            "positions": [
                3.1181997025636807,
                -1.3312744913484122,
                1.944928732884323,
                -0.9137546983549693,
                2.153462977605087,
                1.8518231246647592
            ]
        },
        {
            "positions": [
                3.17266367457784,
                -1.3664822594116468,
                1.9580496986523033,
                -0.9274268241926262,
                2.275252669923813,
                1.7036770555475798
            ]
        },
        {
            "positions": [
                3.227127646591999,
                -1.4016900274748814,
                1.9711706644202835,
                -0.9410989500302833,
                2.397042362242539,
                1.5555309864304
            ]
        },
        {
            "positions": [
                3.1241843903502224,
                -1.4320548156708277,
                1.869883993400454,
                -0.8967200476584825,
                2.3295340449559245,
                1.5124571577965145
            ]
        },
        {
            "positions": [
                3.0212411341084455,
                -1.462419603866774,
                1.7685973223806246,
                -0.8523411452866815,
                2.2620257276693105,
                1.469383329162629
            ]
        },
        {
            "positions": [
                2.918297877866669,
                -1.4927843920627206,
                1.6673106513607951,
                -0.8079622429148805,
                2.194517410382696,
                1.4263095005287436
            ]
        },
        {
            "positions": [
                2.8153546216248926,
                -1.523149180258667,
                1.5660239803409657,
                -0.7635833405430796,
                2.1270090930960817,
                1.383235671894858
            ]
        },
        {
            "positions": [
                2.712411365383116,
                -1.5535139684546133,
                1.4647373093211362,
                -0.7192044381712788,
                2.059500775809467,
                1.3401618432609723
            ]
        },
        {
            "positions": [
                2.609468109141339,
                -1.5838787566505599,
                1.3634506383013067,
                -0.6748255357994778,
                1.991992458522853,
                1.297088014627087
            ]
        },
        {
            "positions": [
                2.5065248528995627,
                -1.6142435448465062,
                1.2621639672814773,
                -0.6304466334276768,
                1.9244841412362388,
                1.2540141859932012
            ]
        },
        {
            "positions": [
                2.4035815966577863,
                -1.6446083330424526,
                1.1608772962616478,
                -0.586067731055876,
                1.8569758239496243,
                1.2109403573593158
            ]
        },
        {
            "positions": [
                2.30063834041601,
                -1.674973121238399,
                1.0595906252418184,
                -0.5416888286840751,
                1.7894675066630101,
                1.1678665287254302
            ]
        },
        {
            "positions": [
                2.197695084174233,
                -1.7053379094343453,
                0.9583039542219887,
                -0.4973099263122741,
                1.721959189376396,
                1.1247927000915448
            ]
        },
        {
            "positions": [
                2.0947518279324564,
                -1.7357026976302916,
                0.8570172832021594,
                -0.45293102394047324,
                1.6544508720897815,
                1.0817188714576593
            ]
        },
        {
            "positions": [
                1.9918085716906797,
                -1.7660674858262382,
                0.7557306121823297,
                -0.40855212156867227,
                1.586942554803167,
                1.0386450428237737
            ]
        },
        {
            "positions": [
                1.8888653154489032,
                -1.7964322740221845,
                0.6544439411625003,
                -0.3641732191968714,
                1.519434237516553,
                0.9955712141898881
            ]
        },
        {
            "positions": [
                1.7859220592071265,
                -1.826797062218131,
                0.5531572701426708,
                -0.3197943168250704,
                1.4519259202299386,
                0.9524973855560025
            ]
        },
        {
            "positions": [
                1.68297880296535,
                -1.8571618504140774,
                0.45187059912284133,
                -0.27541541445326956,
                1.3844176029433242,
                0.9094235569221171
            ]
        },
        {
            "positions": [
                1.5800355467235734,
                -1.8875266386100238,
                0.35058392810301187,
                -0.23103651208146858,
                1.31690928565671,
                0.8663497282882314
            ]
        },
        {
            "positions": [
                1.477092290481797,
                -1.9178914268059701,
                0.2492972570831824,
                -0.18665760970966772,
                1.2494009683700955,
                0.823275899654346
            ]
        },
        {
            "positions": [
                1.3741490342400204,
                -1.9482562150019165,
                0.14801058606335316,
                -0.14227870733786685,
                1.1818926510834813,
                0.7802020710204605
            ]
        },
        {
            "positions": [
                1.2712057779982435,
                -1.978621003197863,
                0.046723915043523245,
                -0.09789980496606576,
                1.1143843337968669,
                0.7371282423865748
            ]
        },
        {
            "positions": [
                1.1682625217564668,
                -2.008985791393809,
                -0.05456275597630622,
                -0.053520902594264896,
                1.0468760165102526,
                0.6940544137526893
            ]
        },
        {
            "positions": [
                1.0653192655146904,
                -2.0393505795897555,
                -0.1558494269961357,
                -0.00914200022246403,
                0.9793676992236384,
                0.6509805851188037
            ]
        },
        {
            "positions": [
                0.9623760092729139,
                -2.069715367785702,
                -0.2571360980159647,
                0.035236902149336835,
                0.911859381937024,
                0.6079067564849183
            ]
        },
        {
            "positions": [
                0.859432753031137,
                -2.1000801559816487,
                -0.3584227690357946,
                0.07961580452113792,
                0.8443510646504095,
                0.5648329278510327
            ]
        },
        {
            "positions": [
                0.7564894967893605,
                -2.130444944177595,
                -0.4597094400556241,
                0.12399470689293879,
                0.7768427473637953,
                0.5217590992171472
            ]
        },
        {
            "positions": [
                0.653546240547584,
                -2.1608097323735413,
                -0.5609961110754536,
                0.16837360926473965,
                0.7093344300771811,
                0.4786852705832616
            ]
        },
        {
            "positions": [
                0.5506029843058076,
                -2.1911745205694877,
                -0.662282782095283,
                0.21275251163654052,
                0.6418261127905669,
                0.4356114419493762
            ]
        },
        {
            "positions": [
                0.44765972806403065,
                -2.2215393087654345,
                -0.7635694531151125,
                0.2571314140083416,
                0.5743177955039522,
                0.39253761331549053
            ]
        },
        {
            "positions": [
                0.3447164718222542,
                -2.251904096961381,
                -0.864856124134942,
                0.3015103163801425,
                0.506809478217338,
                0.3494637846816049
            ]
        },
        {
            "positions": [
                0.2417732155804777,
                -2.282268885157327,
                -0.9661427951547714,
                0.34588921875194334,
                0.4393011609307238,
                0.30638995604771946
            ]
        },
        {
            "positions": [
                0.13882995933870124,
                -2.3126336733532735,
                -1.0674294661746009,
                0.3902681211237442,
                0.37179284364410936,
                0.26331612741383403
            ]
        },
        {
            "positions": [
                0.03588670309692432,
                -2.34299846154922,
                -1.1687161371944303,
                0.4346470234955453,
                0.3042845263574949,
                0.2202422987799484
            ]
        },
        {
            "positions": [
                -0.06705655314485215,
                -2.373363249745166,
                -1.2700028082142598,
                0.47902592586734616,
                0.23677620907088093,
                0.17716847014606274
            ]
        },
        {
            "positions": [
                -0.16999980938662868,
                -2.4037280379411126,
                -1.371289479234089,
                0.5234048282391469,
                0.16926789178426638,
                0.1340946415121772
            ]
        }
    ]
}