{
    "goal": {
        "global_pose": {
            "orientation": {
                "w": 0.005598929693374612,
                "x": 0.007748599140229565,
                "y": 0.7110244013736278,
                "z": -0.7031023480610252
            },
            "position": {
                "x": -0.8858502320852131,
                "y": -0.7141253447532654,
                "z": 0.3711530566215515
            }
        },
        "name": "move_to_auspresseinheit_C"
    },
    "id": "LBKPIECE_move_to_auspresseinheit_C_127",
    "joint_names": [
        "shoulder_pan_joint",
        "shoulder_lift_joint",
        "elbow_joint",
        "wrist_1_joint",
        "wrist_2_joint",
        "wrist_3_joint"
    ],
    "metrics": {
        "cart_traj_len": 0.49378031191852456,
        "distance_elbow_joint": 1.0161208954112209,
        "distance_shoulder_lift_joint": 0.3322360411875058,
        "distance_shoulder_pan_joint": 0.25583627332057945,
        "distance_wrist_1_joint": 0.7123787833008056,
        "distance_wrist_2_joint": 1.307199138701614,
        "distance_wrist_3_joint": 0.08671889093089513,
        "smoothness": 6.45947944157498e-16,
        "time": 1.199767135,
        "traj_len": 1.9262632278202845,
        "weighted_distance": 2.429713095556105
    },
    "planner": "LBKPIECE",
    "start": {
        "state": {
            "elbow_joint": 1.752795957773711,
            "shoulder_lift_joint": -0.9740617694225064,
            "shoulder_pan_joint": -2.967991417825858,
            "wrist_1_joint": -0.7595177689806859,
            "wrist_2_joint": 1.7443932448377395,
            "wrist_3_joint": 3.199131542505932
        }
    },
    "waypoints": [
        {
            "positions": [
                -2.967991417825858,
                -0.9740617694225064,
                1.752795957773711,
                -0.7595177689806859,
                1.7443932448377395,
                3.199131542505932
            ]
        },
        {
            "positions": [
                -2.9424077904938,
                -0.9408381653037559,
                1.651183868232589,
                -0.6882798906506054,
                1.6136733309675781,
                3.1904596534128427
            ]
        },
        {
            "positions": [
                -2.916824163161742,
                -0.9076145611850053,
                1.549571778691467,
                -0.6170420123205248,
                1.4829534170974168,
                3.181787764319753
            ]
        },
        {
            "positions": [
                -2.891240535829684,
                -0.8743909570662547,
                1.4479596891503448,
                -0.5458041339904443,
                1.3522335032272554,
                3.1731158752266637
            ]
        },
        {
            "positions": [
                -2.865656908497626,
                -0.8411673529475041,
                1.3463475996092227,
                -0.47456625566036365,
                1.2215135893570939,
                3.1644439861335742
            ]
        },
        {
            "positions": [
                -2.8400732811655685,
                -0.8079437488287535,
                1.2447355100681006,
                -0.4033283773302831,
                1.0907936754869325,
                3.155772097040485
            ]
        },
        {
            "positions": [
                -2.8144896538335105,
                -0.774720144710003,
                1.1431234205269787,
                -0.33209049900020254,
                0.9600737616167712,
                3.147100207947395
            ]
        },
        {
            "positions": [
                -2.7889060265014525,
                -0.7414965405912524,
                1.0415113309858566,
                -0.260852620670122,
                0.8293538477466098,
                3.1384283188543054
            ]
        },
        {
            "positions": [
                -2.7633223991693945,
                -0.7082729364725018,
                0.9398992414447344,
                -0.1896147423400414,
                0.6986339338764482,
                3.129756429761216
            ]
        },
        {
            "positions": [
                -2.7377387718373365,
                -0.6750493323537512,
                0.8382871519036124,
                -0.11837686400996084,
                0.5679140200062869,
                3.1210845406681265
            ]
        },
        {
            "positions": [
                -2.7121551445052785,
                -0.6418257282350006,
                0.7366750623624903,
                -0.04713898567988032,
                0.4371941061361256,
                3.112412651575037
            ]
        }
    ]
}