{
    "goal": {
        "global_pose": {
            "orientation": {
                "w": -0.4816463035849501,
                "x": 0.5182115481033762,
                "y": 0.4908360881923453,
                "z": -0.5084816262002911
            },
            "position": {
                "x": -0.8240239810943604,
                "y": -0.300875300988555,
                "z": 0.16403168439865112
            }
        },
        "name": "move_to_storage_C"
    },
    "id": "LBKPIECE_move_to_storage_C_42",
    "joint_names": [
        "shoulder_pan_joint",
        "shoulder_lift_joint",
        "elbow_joint",
        "wrist_1_joint",
        "wrist_2_joint",
        "wrist_3_joint"
    ],
    "metrics": {
        "cart_traj_len": 0.5763862982915142,
        "distance_elbow_joint": 0.25381268253911493,
        "distance_shoulder_lift_joint": 0.18889600791656092,
        "distance_shoulder_pan_joint": 0.4956353623958467,
        "distance_wrist_1_joint": 0.06383990582388965,
        "distance_wrist_2_joint": 1.0602961923326886,
        "distance_wrist_3_joint": 0.058141247389527084,
        "smoothness": 0.0,
        "time": 2.386122604,
        "traj_len": 1.4562353513074828,
        "weighted_distance": 1.8333139369276776
    },
    "planner": "LBKPIECE",
    "start": {
        "state": {
            "elbow_joint": 2.010868315001653,
            "shoulder_lift_joint": -1.1634956873357014,
            "shoulder_pan_joint": -2.4736205022346103,
            "wrist_1_joint": -0.8367026794713948,
            "wrist_2_joint": 0.6746043897044093,
            "wrist_3_joint": 3.1335220948105738
        }
    },
    "waypoints": [
        {
            "positions": [
                -2.4736205022346103,
                -1.1634956873357014,
                2.010868315001653,
                -0.8367026794713948,
                0.6746043897044093,
                3.1335220948105738
            ]
        },
        {
            "positions": [
                -2.5562263959672515,
                -1.1320130193496079,
                1.968566201245134,
                -0.8260626951674132,
                0.8513204217598573,
                3.1432123027088283
            ]
        },
        {
            "positions": [
                -2.6388322896998924,
                -1.1005303513635145,
                1.9262640874886148,
                -0.8154227108634315,
                1.0280364538153055,
                3.152902510607083
            ]
        },
        {
            "positions": [
                -2.7214381834325336,
                -1.069047683377421,
                1.8839619737320956,
                -0.8047827265594499,
                1.2047524858707535,
                3.162592718505337
            ]
        },
        {
            "positions": [
                -2.804044077165175,
                -1.0375650153913274,
                1.8416598599755765,
                -0.7941427422554683,
                1.3814685179262016,
                3.1722829264035917
            ]
        },
        {
            "positions": [
                -2.8866499708978157,
                -1.006082347405234,
                1.7993577462190573,
                -0.7835027579514867,
                1.5581845499816498,
                3.1819731343018463
            ]
        },
        {
            "positions": [
                -2.969255864630457,
                -0.9745996794191405,
                1.7570556324625382,
                -0.7728627736475051,
                1.734900582037098,
                3.191663342200101
            ]
        }
    ]
}