{
    "goal": {
        "global_pose": {
            "orientation": {
                "w": 0.5084816217422485,
                "x": -0.49083608388900757,
                "y": 0.5182115435600281,
                "z": -0.4816462993621826
            },
            "position": {
                "x": 0.5540239810943604,
                "y": 0.030875300988554955,
                "z": 0.16403168439865112
            }
        },
        "name": "move_to_storage_A"
    },
    "id": "LBKPIECE_move_to_storage_A_132",
    "joint_names": [
        "shoulder_pan_joint",
        "shoulder_lift_joint",
        "elbow_joint",
        "wrist_1_joint",
        "wrist_2_joint",
        "wrist_3_joint"
    ],
    "metrics": {
        "cart_traj_len": 0.35279731674337717,
        "distance_elbow_joint": 0.4505921272940072,
        "distance_shoulder_lift_joint": 0.23170361861599198,
        "distance_shoulder_pan_joint": 0.45731592564228263,
        "distance_wrist_1_joint": 0.25356392607607414,
        "distance_wrist_2_joint": 1.1139648766781125,
        "distance_wrist_3_joint": 0.10730811250733874,
        "smoothness": 8.881784197001252e-16,
        "time": 0.596693632,
        "traj_len": 1.6169256590251164,
        "weighted_distance": 2.0485589116700234
    },
    "planner": "LBKPIECE",
    "start": {
        "state": {
            "elbow_joint": 1.9715474177455299,
            "shoulder_lift_joint": -1.139484666580328,
            "shoulder_pan_joint": 0.12281154398918248,
            "wrist_1_joint": -0.7804687475355282,
            "wrist_2_joint": 0.12958649657246987,
            "wrist_3_joint": -3.1924925159053466
        }
    },
    "waypoints": [
        {
            "positions": [
                0.12281154398918248,
                -1.139484666580328,
                1.9715474177455299,
                -0.7804687475355282,
                0.12958649657246987,
                -3.1924925159053466
            ]
        },
        {
            "positions": [
                0.057480697468856395,
                -1.1725851835254697,
                2.0359177216446738,
                -0.8166921655463959,
                0.2887243360979145,
                -3.1771627855471554
            ]
        },
        {
            "positions": [
                -0.00785014905146969,
                -1.2056857004706114,
                2.1002880255438177,
                -0.8529155835572637,
                0.44786217562335917,
                -3.161833055188964
            ]
        },
        {
            "positions": [
                -0.07318099557179578,
                -1.2387862174157531,
                2.1646583294429615,
                -0.8891390015681314,
                0.6070000151488038,
                -3.146503324830773
            ]
        },
        {
            "positions": [
                -0.13851184209212186,
                -1.2718867343608948,
                2.2290286333421054,
                -0.9253624195789991,
                0.7661378546742484,
                -3.1311735944725814
            ]
        },
        {
            "positions": [
                -0.20384268861244798,
                -1.3049872513060365,
                2.2933989372412493,
                -0.9615858375898669,
                0.9252756941996931,
                -3.11584386411439
            ]
        },
        {
            "positions": [
                -0.26917353513277403,
                -1.3380877682511783,
                2.357769241140393,
                -0.9978092556007345,
                1.0844135337251377,
                -3.100514133756199
            ]
        },
        {
            "positions": [
                -0.33450438165310015,
                -1.37118828519632,
                2.422139545039537,
                -1.0340326736116023,
                1.2435513732505823,
                -3.085184403398008
            ]
        }
    ]
}