{
    "goal": {
        "global_pose": {
            "orientation": {
                "w": 0.5084816217422485,
                "x": -0.49083608388900757,
                "y": 0.5182115435600281,
                "z": -0.4816462993621826
            },
            "position": {
                "x": 0.5540239810943604,
                "y": 0.030875300988554955,
                "z": 0.16403168439865112
            }
        },
        "name": "move_to_storage_A"
    },
    "id": "LBKPIECE_move_to_storage_A_127",
    "joint_names": [
        "shoulder_pan_joint",
        "shoulder_lift_joint",
        "elbow_joint",
        "wrist_1_joint",
        "wrist_2_joint",
        "wrist_3_joint"
    ],
    "metrics": {
        "cart_traj_len": 0.3523011386010355,
        "distance_elbow_joint": 0.4512363465882472,
        "distance_shoulder_lift_joint": 0.23422143249581162,
        "distance_shoulder_pan_joint": 0.4614834383818606,
        "distance_wrist_1_joint": 0.25043286417270905,
        "distance_wrist_2_joint": 1.0937395917990482,
        "distance_wrist_3_joint": 0.10311933396329254,
        "smoothness": 2.2204460668324854e-16,
        "time": 0.812647427,
        "traj_len": 1.6106622884394386,
        "weighted_distance": 2.0358399080721723
    },
    "planner": "LBKPIECE",
    "start": {
        "state": {
            "elbow_joint": 1.9715474177455299,
            "shoulder_lift_joint": -1.139484666580328,
            "shoulder_pan_joint": 0.12281154398918248,
            "wrist_1_joint": -0.7804687475355282,
            "wrist_2_joint": 0.12958649657246987,
            "wrist_3_joint": -3.1924925159053466
        }
    },
    "waypoints": [
        {
            "positions": [
                0.12281154398918248,
                -1.139484666580328,
                1.9715474177455299,
                -0.7804687475355282,
                0.12958649657246987,
                -3.1924925159053466
            ]
        },
        {
            "positions": [
                0.056885338506059535,
                -1.1729448712225867,
                2.036009752972422,
                -0.8162448709887723,
                0.2858350096866196,
                -3.177761182482019
            ]
        },
        {
            "positions": [
                -0.009040866977063411,
                -1.2064050758648457,
                2.100472088199315,
                -0.8520209944420165,
                0.44208352280076935,
                -3.1630298490586917
            ]
        },
        {
            "positions": [
                -0.07496707246018636,
                -1.2398652805071044,
                2.164934423426207,
                -0.8877971178952606,
                0.5983320359149191,
                -3.1482985156353642
            ]
        },
        {
            "positions": [
                -0.1408932779433093,
                -1.2733254851493632,
                2.2293967586531,
                -0.9235732413485048,
                0.7545805490290689,
                -3.1335671822120363
            ]
        },
        {
            "positions": [
                -0.20681948342643225,
                -1.3067856897916221,
                2.293859093879992,
                -0.9593493648017489,
                0.9108290621432187,
                -3.118835848788709
            ]
        },
        {
            "positions": [
                -0.2727456889095552,
                -1.3402458944338809,
                2.3583214291068844,
                -0.9951254882549931,
                1.0670775752573682,
                -3.1041045153653815
            ]
        },
        {
            "positions": [
                -0.33867189439267814,
                -1.3737060990761396,
                2.422783764333777,
                -1.0309016117082372,
                1.223326088371518,
                -3.089373181942054
            ]
        }
    ]
}