{
    "goal": {
        "global_pose": {
            "orientation": {
                "w": 0.7031023502349854,
                "x": -0.7110244035720825,
                "y": 0.007748599164187908,
                "z": 0.005598929710686207
            },
            "position": {
                "x": 0.11585023208521307,
                "y": 0.44412534475326537,
                "z": 0.3711530566215515
            }
        },
        "name": "move_to_auspresseinheit_A"
    },
    "id": "LBKPIECE_move_to_auspresseinheit_A_87",
    "joint_names": [
        "shoulder_pan_joint",
        "shoulder_lift_joint",
        "elbow_joint",
        "wrist_1_joint",
        "wrist_2_joint",
        "wrist_3_joint"
    ],
    "metrics": {
        "cart_traj_len": 2.976348848635202,
        "distance_elbow_joint": 0.496130821706084,
        "distance_shoulder_lift_joint": 2.9253111678265507,
        "distance_shoulder_pan_joint": 6.050530486203331,
        "distance_wrist_1_joint": 4.8534007026587656,
        "distance_wrist_2_joint": 3.2420491401806837,
        "distance_wrist_3_joint": 1.614543284818358,
        "smoothness": 0.7547306225189373,
        "time": 2.254785087,
        "traj_len": 4.379722092027504,
        "weighted_distance": 5.523269142081521
    },
    "planner": "LBKPIECE",
    "start": {
        "state": {
            "elbow_joint": 2.4225747245308327,
            "shoulder_lift_joint": -1.373653427065438,
            "shoulder_pan_joint": -0.33786330853087027,
            "wrist_1_joint": -1.0288602302712604,
            "wrist_2_joint": 1.23302299562683,
            "wrist_3_joint": -3.094021725338297
        }
    },
    "waypoints": [
        {
            "positions": [
                -0.33786330853087027,
                -1.373653427065438,
                2.4225747245308327,
                -1.0288602302712604,
                1.23302299562683,
                -3.094021725338297
            ]
        },
        {
            "positions": [
                -0.3000765668065657,
                -1.530869107795354,
                2.4386385944536144,
                -1.0854482235620393,
                1.1823382996663885,
                -3.0363475519164975
            ]
        },
        {
            "positions": [
                -0.26228982508226106,
                -1.68808478852527,
                2.454702464376396,
                -1.1420362168528184,
                1.1316536037059468,
                -2.978673378494698
            ]
        },
        {
            "positions": [
                -0.22450308335795652,
                -1.845300469255186,
                2.470766334299178,
                -1.1986242101435973,
                1.0809689077455054,
                -2.9209992050728983
            ]
        },
        {
            "positions": [
                -0.18671634163365192,
                -2.002516149985102,
                2.4868302042219597,
                -1.2552122034343765,
                1.030284211785064,
                -2.8633250316510988
            ]
        },
        {
            "positions": [
                -0.14892959990934734,
                -2.1597318307150184,
                2.5028940741447414,
                -1.3118001967251554,
                0.9795995158246225,
                -2.805650858229299
            ]
        },
        {
            "positions": [
                -0.11114285818504277,
                -2.3169475114449343,
                2.518957944067523,
                -1.3683881900159345,
                0.9289148198641809,
                -2.7479766848074996
            ]
        },
        {
            "positions": [
                -0.0733561164607382,
                -2.47416319217485,
                2.535021813990305,
                -1.4249761833067134,
                0.8782301239037393,
                -2.6903025113857
            ]
        },
        {
            "positions": [
                -0.03556937473643357,
                -2.6313788729047665,
                2.5510856839130867,
                -1.4815641765974925,
                0.8275454279432979,
                -2.6326283379639004
            ]
        },
        {
            "positions": [
                0.0022173669878710056,
                -2.788594553634683,
                2.5671495538358684,
                -1.5381521698882714,
                0.7768607319828563,
                -2.574954164542101
            ]
        },
        {
            "positions": [
                0.04000410871217558,
                -2.9458102343645987,
                2.58321342375865,
                -1.5947401631790505,
                0.7261760360224149,
                -2.517279991120301
            ]
        },
        {
            "positions": [
                0.07779085043648015,
                -3.1030259150945145,
                2.599277293681432,
                -1.6513281564698294,
                0.6754913400619733,
                -2.4596058176985016
            ]
        },
        {
            "positions": [
                0.22020721703717197,
                -3.0537520193497385,
                2.601801648287432,
                -1.528053379253393,
                0.6154117792640291,
                -2.4527646302876787
            ]
        },
        {
            "positions": [
                0.3626235836378638,
                -3.004478123604962,
                2.6043260028934325,
                -1.4047786020369566,
                0.5553322184660849,
                -2.445923442876856
            ]
        },
        {
            "positions": [
                0.5050399502385555,
                -2.955204227860186,
                2.6068503574994333,
                -1.2815038248205204,
                0.4952526576681408,
                -2.439082255466033
            ]
        },
        {
            "positions": [
                0.6474563168392474,
                -2.90593033211541,
                2.6093747121054336,
                -1.158229047604084,
                0.43517309687019656,
                -2.4322410680552107
            ]
        },
        {
            "positions": [
                0.7898726834399391,
                -2.8566564363706335,
                2.611899066711434,
                -1.0349542703876478,
                0.37509353607225243,
                -2.4253998806443877
            ]
        },
        {
            "positions": [
                0.9322890500406309,
                -2.8073825406258575,
                2.614423421317434,
                -0.9116794931712113,
                0.3150139752743083,
                -2.4185586932335648
            ]
        },
        {
            "positions": [
                1.0747054166413226,
                -2.758108644881081,
                2.616947775923435,
                -0.7884047159547749,
                0.25493441447636406,
                -2.4117175058227422
            ]
        },
        {
            "positions": [
                1.2171217832420147,
                -2.708834749136305,
                2.6194721305294353,
                -0.6651299387383385,
                0.19485485367841987,
                -2.4048763184119193
            ]
        },
        {
            "positions": [
                1.3595381498427064,
                -2.659560853391529,
                2.6219964851354356,
                -0.541855161521902,
                0.13477529288047574,
                -2.3980351310010968
            ]
        },
        {
            "positions": [
                1.501954516443398,
                -2.6102869576467524,
                2.624520839741436,
                -0.41858038430546585,
                0.07469573208253155,
                -2.391193943590274
            ]
        },
        {
            "positions": [
                1.64437088304409,
                -2.5610130619019764,
                2.6270451943474367,
                -0.2953056070890294,
                0.014616171284587365,
                -2.3843527561794513
            ]
        },
        {
            "positions": [
                1.7867872496447816,
                -2.5117391661572004,
                2.629569548953437,
                -0.17203082987259322,
                -0.04546338951335671,
                -2.3775115687686283
            ]
        },
        {
            "positions": [
                1.9292036162454738,
                -2.462465270412424,
                2.6320939035594373,
                -0.04875605265615657,
                -0.10554295031130101,
                -2.3706703813578054
            ]
        },
        {
            "positions": [
                2.0716199828461654,
                -2.413191374667648,
                2.6346182581654376,
                0.07451872456027964,
                -0.1656225111092452,
                -2.363829193946983
            ]
        },
        {
            "positions": [
                2.214036349446857,
                -2.363917478922872,
                2.637142612771438,
                0.19779350177671584,
                -0.22570207190718927,
                -2.35698800653616
            ]
        },
        {
            "positions": [
                2.3564527160475492,
                -2.3146435831780954,
                2.6396669673774387,
                0.3210682789931525,
                -0.28578163270513357,
                -2.3501468191253374
            ]
        },
        {
            "positions": [
                2.4988690826482407,
                -2.2653696874333193,
                2.642191321983439,
                0.4443430562095889,
                -0.34586119350307776,
                -2.3433056317145144
            ]
        },
        {
            "positions": [
                2.6412854492489326,
                -2.216095791688543,
                2.6447156765894393,
                0.5676178334260253,
                -0.40594075430102183,
                -2.3364644443036915
            ]
        },
        {
            "positions": [
                2.7837018158496245,
                -2.166821895943767,
                2.6472400311954396,
                0.6908926106424613,
                -0.46602031509896613,
                -2.329623256892869
            ]
        },
        {
            "positions": [
                2.926118182450316,
                -2.117548000198991,
                2.6497643858014404,
                0.8141673878588978,
                -0.5260998758969102,
                -2.322782069482046
            ]
        },
        {
            "positions": [
                3.0685345490510083,
                -2.068274104454215,
                2.6522887404074407,
                0.9374421650753342,
                -0.5861794366948545,
                -2.3159408820712235
            ]
        },
        {
            "positions": [
                3.2109509156516998,
                -2.0190002087094383,
                2.654813095013441,
                1.0607169422917706,
                -0.6462589974927986,
                -2.3090996946604005
            ]
        },
        {
            "positions": [
                3.0637911355328313,
                -2.012417092626356,
                2.6392900096473544,
                0.9713706083095001,
                -0.5660962241362659,
                -2.357900944903957
            ]
        },
        {
            "positions": [
                2.9166313554139633,
                -2.0058339765432738,
                2.6237669242812673,
                0.8820242743272294,
                -0.4859334507797332,
                -2.406702195147514
            ]
        },
        {
            "positions": [
                2.769471575295095,
                -1.9992508604601915,
                2.6082438389151807,
                0.7926779403449589,
                -0.4057706774232005,
                -2.45550344539107
            ]
        },
        {
            "positions": [
                2.622311795176227,
                -1.9926677443771093,
                2.5927207535490937,
                0.7033316063626882,
                -0.32560790406666784,
                -2.5043046956346267
            ]
        },
        {
            "positions": [
                2.4751520150573585,
                -1.986084628294027,
                2.577197668183007,
                0.6139852723804177,
                -0.24544513071013513,
                -2.5531059458781833
            ]
        },
        {
            "positions": [
                2.32799223493849,
                -1.9795015122109447,
                2.56167458281692,
                0.524638938398147,
                -0.16528235735360247,
                -2.60190719612174
            ]
        },
        {
            "positions": [
                2.1808324548196216,
                -1.9729183961278625,
                2.5461514974508335,
                0.43529260441587647,
                -0.08511958399706987,
                -2.6507084463652966
            ]
        },
        {
            "positions": [
                2.0336726747007536,
                -1.9663352800447802,
                2.5306284120847464,
                0.34594627043360593,
                -0.0049568106405371015,
                -2.699509696608853
            ]
        },
        {
            "positions": [
                1.8865128945818852,
                -1.9597521639616982,
                2.51510532671866,
                0.2565999364513353,
                0.07520596271599556,
                -2.7483109468524094
            ]
        },
        {
            "positions": [
                1.739353114463017,
                -1.953169047878616,
                2.499582241352573,
                0.16725360246906473,
                0.15536873607252832,
                -2.797112197095966
            ]
        },
        {
            "positions": [
                1.5921933343441486,
                -1.9465859317955336,
                2.484059155986486,
                0.07790726848679408,
                0.23553150942906098,
                -2.8459134473395227
            ]
        },
        {
            "positions": [
                1.4450335542252803,
                -1.9400028157124514,
                2.468536070620399,
                -0.011439065495476575,
                0.31569428278559364,
                -2.8947146975830793
            ]
        },
        {
            "positions": [
                1.2978737741064124,
                -1.933419699629369,
                2.4530129852543126,
                -0.100785399477747,
                0.3958570561421262,
                -2.9435159478266355
            ]
        },
        {
            "positions": [
                1.150713993987544,
                -1.9268365835462868,
                2.4374898998882255,
                -0.19013173346001766,
                0.47601982949865884,
                -2.992317198070192
            ]
        },
        {
            "positions": [
                1.0035542138686755,
                -1.9202534674632046,
                2.421966814522139,
                -0.2794780674422881,
                0.5561826028551917,
                -3.041118448313749
            ]
        },
        {
            "positions": [
                0.8563944337498075,
                -1.9136703513801223,
                2.4064437291560523,
                -0.36882440142455875,
                0.6363453762117244,
                -3.0899196985573054
            ]
        },
        {
            "positions": [
                0.7092346536309392,
                -1.90708723529704,
                2.3909206437899653,
                -0.4581707354068294,
                0.716508149568257,
                -3.138720948800862
            ]
        }
    ]
}