{
    "goal": {
        "global_pose": {
            "orientation": {
                "w": 0.7047431493862688,
                "x": -0.7094548369677653,
                "y": 0.0024358444001904,
                "z": -0.0022348060817251984
            },
            "position": {
                "x": -0.39052492380142206,
                "y": 0.3671506643295288,
                "z": 0.19426114857196808
            }
        },
        "name": "move_to_magneteinheit_D"
    },
    "id": "LBKPIECE_move_to_magneteinheit_D_31",
    "joint_names": [
        "shoulder_pan_joint",
        "shoulder_lift_joint",
        "elbow_joint",
        "wrist_1_joint",
        "wrist_2_joint",
        "wrist_3_joint"
    ],
    "metrics": {
        "cart_traj_len": 4.221637597481279,
        "distance_elbow_joint": 3.1254840451623416,
        "distance_shoulder_lift_joint": 2.07428075513951,
        "distance_shoulder_pan_joint": 3.3845532005663577,
        "distance_wrist_1_joint": 7.20240267825032,
        "distance_wrist_2_joint": 4.578712535782042,
        "distance_wrist_3_joint": 3.7091934476520927,
        "smoothness": 0.5285618020360523,
        "time": 3.4663019609999997,
        "traj_len": 4.906590125795375,
        "weighted_distance": 6.578307439751444
    },
    "planner": "LBKPIECE",
    "start": {
        "state": {
            "elbow_joint": 0.7495348899011973,
            "shoulder_lift_joint": -0.6476975780737697,
            "shoulder_pan_joint": -2.711696901376276,
            "wrist_1_joint": -0.07506478080974305,
            "wrist_2_joint": 0.4329665971545858,
            "wrist_3_joint": 3.1361499051832524
        }
    },
    "waypoints": [
        {
            "positions": [
                -2.711696901376276,
                -0.6476975780737697,
                0.7495348899011973,
                -0.07506478080974305,
                0.4329665971545858,
                3.1361499051832524
            ]
        },
        {
            "positions": [
                -2.8154593656180693,
                -0.584787668231971,
                0.6941836524819522,
                -0.13834465084094302,
                0.35910372093428344,
                3.1152538616241596
            ]
        },
        {
            "positions": [
                -2.9192218298598624,
                -0.5218777583901723,
                0.6388324150627073,
                -0.201624520872143,
                0.28524084471398103,
                3.0943578180650664
            ]
        },
        {
            "positions": [
                -2.898927125631008,
                -0.5456330152699062,
                0.5747218826825133,
                -0.3088276014353024,
                0.21214594383788526,
                2.986749312992692
            ]
        },
        {
            "positions": [
                -2.8786324214021537,
                -0.5693882721496399,
                0.5106113503023194,
                -0.4160306819984618,
                0.1390510429617895,
                2.879140807920317
            ]
        },
        {
            "positions": [
                -2.858337717173299,
                -0.5931435290293738,
                0.4465008179221255,
                -0.5232337625616212,
                0.06595614208569375,
                2.7715323028479424
            ]
        },
        {
            "positions": [
                -2.838043012944445,
                -0.6168987859091076,
                0.38239028554193155,
                -0.6304368431247807,
                -0.007138758790402044,
                2.6639237977755674
            ]
        },
        {
            "positions": [
                -2.8177483087155903,
                -0.6406540427888415,
                0.31827975316173757,
                -0.7376399236879401,
                -0.08023365966649781,
                2.556315292703193
            ]
        },
        {
            "positions": [
                -2.7974536044867357,
                -0.6644092996685753,
                0.2541692207815437,
                -0.8448430042510995,
                -0.15332856054259353,
                2.448706787630818
            ]
        },
        {
            "positions": [
                -2.7771589002578816,
                -0.6881645565483092,
                0.1900586884013497,
                -0.952046084814259,
                -0.2264234614186894,
                2.3410982825584434
            ]
        },
        {
            "positions": [
                -2.756864196029027,
                -0.7119198134280431,
                0.12594815602115583,
                -1.0592491653774183,
                -0.2995183622947851,
                2.233489777486069
            ]
        },
        {
            "positions": [
                -2.736569491800173,
                -0.7356750703077769,
                0.0618376236409619,
                -1.1664522459405777,
                -0.37261326317088084,
                2.125881272413694
            ]
        },
        {
            "positions": [
                -2.7162747875713182,
                -0.7594303271875108,
                -0.002272908739232138,
                -1.2736553265037371,
                -0.44570816404697666,
                2.018272767341319
            ]
        },
        {
            "positions": [
                -2.6959800833424636,
                -0.7831855840672446,
                -0.06638344111942596,
                -1.3808584070668966,
                -0.5188030649230724,
                1.9106642622689445
            ]
        },
        {
            "positions": [
                -2.6756853791136095,
                -0.8069408409469785,
                -0.1304939734996199,
                -1.488061487630056,
                -0.5918979657991681,
                1.80305575719657
            ]
        },
        {
            "positions": [
                -2.655390674884755,
                -0.8306960978267124,
                -0.19460450587981393,
                -1.5952645681932154,
                -0.664992866675264,
                1.695447252124195
            ]
        },
        {
            "positions": [
                -2.6350959706559003,
                -0.8544513547064462,
                -0.25871503826000786,
                -1.702467648756375,
                -0.7380877675513599,
                1.5878387470518203
            ]
        },
        {
            "positions": [
                -2.614801266427046,
                -0.87820661158618,
                -0.3228255706402017,
                -1.8096707293195342,
                -0.8111826684274553,
                1.4802302419794457
            ]
        },
        {
            "positions": [
                -2.5945065621981915,
                -0.9019618684659139,
                -0.3869361030203956,
                -1.9168738098826936,
                -0.8842775693035513,
                1.372621736907071
            ]
        },
        {
            "positions": [
                -2.5742118579693374,
                -0.9257171253456478,
                -0.45104663540058965,
                -2.024076890445853,
                -0.957372470179647,
                1.265013231834696
            ]
        },
        {
            "positions": [
                -2.553917153740483,
                -0.9494723822253816,
                -0.5151571677807835,
                -2.1312799710090125,
                -1.0304673710557428,
                1.1574047267623215
            ]
        },
        {
            "positions": [
                -2.5336224495116286,
                -0.9732276391051153,
                -0.5792677001609775,
                -2.238483051572172,
                -1.1035622719318385,
                1.049796221689947
            ]
        },
        {
            "positions": [
                -2.513327745282774,
                -0.9969828959848492,
                -0.6433782325411715,
                -2.3456861321353313,
                -1.1766571728079342,
                0.9421877166175721
            ]
        },
        {
            "positions": [
                -2.4930330410539194,
                -1.0207381528645831,
                -0.7074887649213654,
                -2.4528892126984907,
                -1.24975207368403,
                0.8345792115451975
            ]
        },
        {
            "positions": [
                -2.4727383368250653,
                -1.0444934097443168,
                -0.7715992973015592,
                -2.56009229326165,
                -1.3228469745601257,
                0.7269707064728226
            ]
        },
        {
            "positions": [
                -2.4524436325962107,
                -1.0682486666240507,
                -0.8357098296817532,
                -2.6672953738248095,
                -1.3959418754362218,
                0.6193622014004481
            ]
        },
        {
            "positions": [
                -2.4321489283673565,
                -1.0920039235037846,
                -0.899820362061947,
                -2.774498454387969,
                -1.469036776312317,
                0.5117536963280735
            ]
        },
        {
            "positions": [
                -2.411854224138502,
                -1.1157591803835185,
                -0.9639308944421412,
                -2.8817015349511284,
                -1.5421316771884133,
                0.4041451912556988
            ]
        },
        {
            "positions": [
                -2.326393614372759,
                -1.1110223562986892,
                -1.0024815401928837,
                -2.7111387778963545,
                -1.4545093171703813,
                0.40668471778001797
            ]
        },
        {
            "positions": [
                -2.2409330046070153,
                -1.1062855322138598,
                -1.0410321859436262,
                -2.5405760208415806,
                -1.3668869571523492,
                0.40922424430433707
            ]
        },
        {
            "positions": [
                -2.155472394841272,
                -1.1015487081290303,
                -1.0795828316943687,
                -2.3700132637868068,
                -1.2792645971343173,
                0.41176377082865623
            ]
        },
        {
            "positions": [
                -2.070011785075529,
                -1.096811884044201,
                -1.1181334774451113,
                -2.199450506732033,
                -1.1916422371162851,
                0.41430329735297533
            ]
        },
        {
            "positions": [
                -1.9845511753097858,
                -1.0920750599593716,
                -1.1566841231958538,
                -2.028887749677259,
                -1.1040198770982532,
                0.4168428238772945
            ]
        },
        {
            "positions": [
                -1.8990905655440424,
                -1.0873382358745423,
                -1.195234768946596,
                -1.858324992622485,
                -1.0163975170802213,
                0.41938235040161365
            ]
        },
        {
            "positions": [
                -1.8136299557782993,
                -1.082601411789713,
                -1.2337854146973386,
                -1.687762235567711,
                -0.9287751570621893,
                0.42192187692593275
            ]
        },
        {
            "positions": [
                -1.728169346012556,
                -1.0778645877048834,
                -1.2723360604480811,
                -1.517199478512937,
                -0.8411527970441571,
                0.4244614034502519
            ]
        },
        {
            "positions": [
                -1.6427087362468127,
                -1.073127763620054,
                -1.3108867061988236,
                -1.3466367214581632,
                -0.7535304370261252,
                0.427000929974571
            ]
        },
        {
            "positions": [
                -1.5572481264810696,
                -1.0683909395352247,
                -1.3494373519495662,
                -1.1760739644033893,
                -0.6659080770080932,
                0.42954045649889017
            ]
        },
        {
            "positions": [
                -1.4717875167153263,
                -1.0636541154503953,
                -1.3879879977003087,
                -1.0055112073486152,
                -0.578285716990061,
                0.4320799830232093
            ]
        },
        {
            "positions": [
                -1.3863269069495832,
                -1.058917291365566,
                -1.4265386434510512,
                -0.8349484502938416,
                -0.4906633569720291,
                0.4346195095475284
            ]
        },
        {
            "positions": [
                -1.3008662971838398,
                -1.0541804672807364,
                -1.4650892892017937,
                -0.6643856932390677,
                -0.4030409969539972,
                0.4371590360718476
            ]
        },
        {
            "positions": [
                -1.2154056874180967,
                -1.049443643195907,
                -1.503639934952536,
                -0.49382293618429385,
                -0.3154186369359653,
                0.4396985625961667
            ]
        },
        {
            "positions": [
                -1.1299450776523534,
                -1.0447068191110778,
                -1.5421905807032785,
                -0.32326017912951954,
                -0.22779627691793314,
                0.44223808912048584
            ]
        },
        {
            "positions": [
                -1.04448446788661,
                -1.0399699950262484,
                -1.580741226454021,
                -0.15269742207474568,
                -0.140173916899901,
                0.444777615644805
            ]
        },
        {
            "positions": [
                -0.959023858120867,
                -1.035233170941419,
                -1.6192918722047636,
                0.01786533498002818,
                -0.05255155688186908,
                0.4473171421691241
            ]
        },
        {
            "positions": [
                -0.8735632483551237,
                -1.0304963468565895,
                -1.657842517955506,
                0.18842809203480204,
                0.03507080313616284,
                0.44985666869344326
            ]
        },
        {
            "positions": [
                -0.7881026385893806,
                -1.0257595227717602,
                -1.6963931637062486,
                0.3589908490895759,
                0.12269316315419476,
                0.45239619521776236
            ]
        },
        {
            "positions": [
                -0.7026420288236371,
                -1.0210226986869309,
                -1.7349438094569911,
                0.5295536061443498,
                0.2103155231722269,
                0.4549357217420815
            ]
        },
        {
            "positions": [
                -0.6119069745837183,
                -1.0988883675054413,
                -1.7771635094558804,
                0.5429476826757571,
                0.14739663041838386,
                0.3738676945054852
            ]
        },
        {
            "positions": [
                -0.5211719203437997,
                -1.1767540363239517,
                -1.8193832094547695,
                0.5563417592071644,
                0.08447773766454078,
                0.29279966726888884
            ]
        },
        {
            "positions": [
                -0.4304368661038809,
                -1.2546197051424621,
                -1.8616029094536588,
                0.5697358357385718,
                0.021558844910697705,
                0.21173164003229256
            ]
        },
        {
            "positions": [
                -0.33970181186396214,
                -1.3324853739609726,
                -1.903822609452548,
                0.5831299122699791,
                -0.04136004784314534,
                0.13066361279569622
            ]
        },
        {
            "positions": [
                -0.24896675762404336,
                -1.4103510427794832,
                -1.9460423094514374,
                0.5965239888013865,
                -0.10427894059698845,
                0.049595585559099875
            ]
        },
        {
            "positions": [
                -0.15823170338412462,
                -1.4882167115979936,
                -1.9882620094503265,
                0.6099180653327938,
                -0.1671978333508315,
                -0.03147244167749641
            ]
        },
        {
            "positions": [
                -0.0674966491442058,
                -1.566082380416504,
                -2.030481709449216,
                0.6233121418642011,
                -0.23011672610467457,
                -0.1125404689140928
            ]
        },
        {
            "positions": [
                -0.04689445948812928,
                -1.6768450358415699,
                -2.0949212198654785,
                0.7192527170563456,
                -0.1973154024832219,
                -0.13755477292217094
            ]
        },
        {
            "positions": [
                -0.026292269832052753,
                -1.7876076912666354,
                -2.1593607302817412,
                0.8151932922484902,
                -0.16451407886176928,
                -0.16256907693024908
            ]
        },
        {
            "positions": [
                -0.005690080175976234,
                -1.8983703466917012,
                -2.2238002406980035,
                0.9111338674406347,
                -0.13171275524031661,
                -0.18758338093832722
            ]
        },
        {
            "positions": [
                0.0149121094801003,
                -2.009133002116767,
                -2.2882397511142663,
                1.0070744426327793,
                -0.09891143161886395,
                -0.21259768494640535
            ]
        },
        {
            "positions": [
                0.03551429913617682,
                -2.1198956575418326,
                -2.352679261530529,
                1.1030150178249238,
                -0.06611010799741134,
                -0.2376119889544835
            ]
        },
        {
            "positions": [
                -0.026229506256370556,
                -2.1215444696253907,
                -2.3597804244032976,
                1.1817364301143565,
                -0.007452099951969646,
                -0.17020819857149155
            ]
        },
        {
            "positions": [
                -0.08797331164891793,
                -2.123193281708949,
                -2.366881587276066,
                1.260457842403789,
                0.051205908093472044,
                -0.10280440818849959
            ]
        },
        {
            "positions": [
                -0.14971711704146531,
                -2.124842093792507,
                -2.3739827501488344,
                1.3391792546932217,
                0.10986391613891372,
                -0.03540061780550763
            ]
        },
        {
            "positions": [
                -0.1682474804960104,
                -2.202853912122708,
                -2.374965952704989,
                1.4266218219255162,
                0.14524100091787107,
                -0.019581057109200325
            ]
        },
        {
            "positions": [
                -0.18677784395055552,
                -2.280865730452909,
                -2.375949155261144,
                1.5140643891578107,
                0.18061808569682844,
                -0.0037614964128930245
            ]
        }
    ]
}