{
    "goal": {
        "global_pose": {
            "orientation": {
                "w": 0.7047431493862688,
                "x": -0.7094548369677653,
                "y": 0.0024358444001904,
                "z": -0.0022348060817251984
            },
            "position": {
                "x": -0.39052492380142206,
                "y": 0.3671506643295288,
                "z": 0.19426114857196808
            }
        },
        "name": "move_to_magneteinheit_D"
    },
    "id": "LBKPIECE_move_to_magneteinheit_D_47",
    "joint_names": [
        "shoulder_pan_joint",
        "shoulder_lift_joint",
        "elbow_joint",
        "wrist_1_joint",
        "wrist_2_joint",
        "wrist_3_joint"
    ],
    "metrics": {
        "cart_traj_len": 6.566106472304944,
        "distance_elbow_joint": 4.2592244723000405,
        "distance_shoulder_lift_joint": 1.7144412922301604,
        "distance_shoulder_pan_joint": 8.83703381322415,
        "distance_wrist_1_joint": 1.9755105742758665,
        "distance_wrist_2_joint": 3.6833497153216377,
        "distance_wrist_3_joint": 3.0727089368759364,
        "smoothness": 0.6603633385382952,
        "time": 5.3069126749999995,
        "traj_len": 4.852037593035299,
        "weighted_distance": 5.94529620520098
    },
    "planner": "LBKPIECE",
    "start": {
        "state": {
            "elbow_joint": 0.7495348899011973,
            "shoulder_lift_joint": -0.6476975780737697,
            "shoulder_pan_joint": -2.711696901376276,
            "wrist_1_joint": -0.07506478080974305,
            "wrist_2_joint": 0.4329665971545858,
            "wrist_3_joint": 3.1361499051832524
        }
    },
    "waypoints": [
        {
            "positions": [
                -2.711696901376276,
                -0.6476975780737697,
                0.7495348899011973,
                -0.07506478080974305,
                0.4329665971545858,
                3.1361499051832524
            ]
        },
        {
            "positions": [
                -2.781732908807827,
                -0.7162979506738476,
                0.8272716663776699,
                -0.03479774722906814,
                0.4153859020685689,
                3.048460924367383
            ]
        },
        {
            "positions": [
                -2.851768916239378,
                -0.7848983232739255,
                0.9050084428541425,
                0.005469286351606761,
                0.397805206982552,
                2.960771943551514
            ]
        },
        {
            "positions": [
                -2.921804923670929,
                -0.8534986958740034,
                0.9827452193306152,
                0.045736319932281666,
                0.3802245118965351,
                2.8730829627356447
            ]
        },
        {
            "positions": [
                -2.799853101295037,
                -0.8391971918350463,
                0.8059923527875683,
                0.018366024987059422,
                0.3855817245917737,
                2.8348714639099137
            ]
        },
        {
            "positions": [
                -2.677901278919145,
                -0.8248956877960891,
                0.6292394862445213,
                -0.009004269958162822,
                0.39093893728701234,
                2.796659965084183
            ]
        },
        {
            "positions": [
                -2.555949456543253,
                -0.810594183757132,
                0.4524866197014743,
                -0.03637456490338507,
                0.39629614998225093,
                2.758448466258452
            ]
        },
        {
            "positions": [
                -2.399593359303389,
                -0.8388882833888821,
                0.35926198752346034,
                -0.040330586058033586,
                0.33995123557641865,
                2.701228257583669
            ]
        },
        {
            "positions": [
                -2.243237262063525,
                -0.8671823830206322,
                0.26603735534544637,
                -0.0442866072126821,
                0.2836063211705864,
                2.644008048908886
            ]
        },
        {
            "positions": [
                -2.086881164823661,
                -0.8954764826523823,
                0.17281272316743246,
                -0.04824262836733062,
                0.22726140676475404,
                2.5867878402341034
            ]
        },
        {
            "positions": [
                -1.930525067583797,
                -0.9237705822841324,
                0.07958809098941849,
                -0.05219864952197913,
                0.17091649235892176,
                2.5295676315593205
            ]
        },
        {
            "positions": [
                -1.774168970343933,
                -0.9520646819158826,
                -0.013636541188595475,
                -0.05615467067662765,
                0.11457157795308942,
                2.4723474228845377
            ]
        },
        {
            "positions": [
                -1.6178128731040688,
                -0.9803587815476327,
                -0.10686117336660939,
                -0.06011069183127617,
                0.05822666354725714,
                2.415127214209755
            ]
        },
        {
            "positions": [
                -1.461456775864205,
                -1.008652881179383,
                -0.2000858055446233,
                -0.06406671298592467,
                0.00188174914142486,
                2.3579070055349725
            ]
        },
        {
            "positions": [
                -1.3051006786243409,
                -1.036946980811133,
                -0.2933104377226373,
                -0.0680227341405732,
                -0.05446316526440742,
                2.3006867968601896
            ]
        },
        {
            "positions": [
                -1.148744581384477,
                -1.065241080442883,
                -0.38653506990065123,
                -0.07197875529522171,
                -0.11080807967023976,
                2.243466588185407
            ]
        },
        {
            "positions": [
                -0.9923884841446129,
                -1.0935351800746331,
                -0.47975970207866525,
                -0.07593477644987023,
                -0.1671529940760721,
                2.186246379510624
            ]
        },
        {
            "positions": [
                -0.8360323869047488,
                -1.1218292797063834,
                -0.5729843342566792,
                -0.07989079760451875,
                -0.22349790848190432,
                2.129026170835841
            ]
        },
        {
            "positions": [
                -0.6796762896648847,
                -1.1501233793381334,
                -0.6662089664346931,
                -0.08384681875916726,
                -0.27984282288773665,
                2.0718059621610583
            ]
        },
        {
            "positions": [
                -0.5233201924250208,
                -1.1784174789698834,
                -0.759433598612707,
                -0.08780283991381577,
                -0.3361877372935689,
                2.0145857534862754
            ]
        },
        {
            "positions": [
                -0.36696409518515694,
                -1.2067115786016336,
                -0.8526582307907209,
                -0.09175886106846429,
                -0.3925326516994012,
                1.9573655448114926
            ]
        },
        {
            "positions": [
                -0.21060799794529306,
                -1.2350056782333838,
                -0.9458828629687348,
                -0.09571488222311281,
                -0.44887756610523344,
                1.90014533613671
            ]
        },
        {
            "positions": [
                -0.054251900705428735,
                -1.2632997778651338,
                -1.039107495146749,
                -0.09967090337776131,
                -0.5052224805110658,
                1.8429251274619272
            ]
        },
        {
            "positions": [
                0.10210419653443514,
                -1.2915938774968838,
                -1.1323321273247628,
                -0.10362692453240983,
                -0.5615673949168981,
                1.7857049187871443
            ]
        },
        {
            "positions": [
                0.258460293774299,
                -1.319887977128634,
                -1.2255567595027768,
                -0.10758294568705835,
                -0.6179123093227304,
                1.7284847101123615
            ]
        },
        {
            "positions": [
                0.41481639101416334,
                -1.3481820767603843,
                -1.318781391680791,
                -0.11153896684170686,
                -0.6742572237285628,
                1.6712645014375787
            ]
        },
        {
            "positions": [
                0.5711724882540272,
                -1.3764761763921343,
                -1.4120060238588048,
                -0.11549498799635538,
                -0.7306021381343951,
                1.6140442927627958
            ]
        },
        {
            "positions": [
                0.7275285854938911,
                -1.4047702760238843,
                -1.5052306560368187,
                -0.1194510091510039,
                -0.7869470525402275,
                1.556824084088013
            ]
        },
        {
            "positions": [
                0.8838846827337554,
                -1.4330643756556345,
                -1.5984552882148326,
                -0.12340703030565242,
                -0.8432919669460596,
                1.4996038754132304
            ]
        },
        {
            "positions": [
                1.0402407799736193,
                -1.4613584752873847,
                -1.6916799203928468,
                -0.1273630514603009,
                -0.8996368813518919,
                1.4423836667384475
            ]
        },
        {
            "positions": [
                1.1965968772134836,
                -1.4896525749191347,
                -1.7849045525708604,
                -0.13131907261494946,
                -0.9559817957577242,
                1.3851634580636647
            ]
        },
        {
            "positions": [
                1.3529529744533475,
                -1.5179466745508847,
                -1.8781291847488746,
                -0.13527509376959795,
                -1.0123267101635567,
                1.3279432493888819
            ]
        },
        {
            "positions": [
                1.5093090716932114,
                -1.546240774182635,
                -1.9713538169268883,
                -0.13923111492424645,
                -1.0686716245693888,
                1.2707230407140993
            ]
        },
        {
            "positions": [
                1.6656651689330753,
                -1.5745348738143852,
                -2.0645784491049026,
                -0.143187136078895,
                -1.125016538975221,
                1.2135028320393164
            ]
        },
        {
            "positions": [
                1.8220212661729391,
                -1.6028289734461352,
                -2.157803081282916,
                -0.1471431572335435,
                -1.1813614533810535,
                1.1562826233645336
            ]
        },
        {
            "positions": [
                1.978377363412803,
                -1.6311230730778852,
                -2.25102771346093,
                -0.151099178388192,
                -1.2377063677868856,
                1.0990624146897507
            ]
        },
        {
            "positions": [
                2.134733460652667,
                -1.6594171727096354,
                -2.344252345638944,
                -0.15505519954284053,
                -1.2940512821927177,
                1.0418422060149681
            ]
        },
        {
            "positions": [
                2.2910895578925308,
                -1.6877112723413856,
                -2.4374769778169583,
                -0.15901122069748905,
                -1.3503961965985503,
                0.9846219973401853
            ]
        },
        {
            "positions": [
                2.4474456551323955,
                -1.7160053719731356,
                -2.5307016099949724,
                -0.16296724185213757,
                -1.4067411110043824,
                0.9274017886654025
            ]
        },
        {
            "positions": [
                2.6038017523722594,
                -1.7442994716048856,
                -2.6239262421729856,
                -0.16692326300678606,
                -1.463086025410215,
                0.8701815799906196
            ]
        },
        {
            "positions": [
                2.7601578496121233,
                -1.7725935712366359,
                -2.717150874351,
                -0.1708792841614346,
                -1.5194309398160473,
                0.8129613713158368
            ]
        },
        {
            "positions": [
                2.6129096987298013,
                -1.7977803849783134,
                -2.7008449718915495,
                -0.08897459068942834,
                -1.4344904947070685,
                0.7754853511654108
            ]
        },
        {
            "positions": [
                2.465661547847479,
                -1.822967198719991,
                -2.6845390694320987,
                -0.007069897217422072,
                -1.3495500495980899,
                0.7380093310149849
            ]
        },
        {
            "positions": [
                2.318413396965157,
                -1.8481540124616687,
                -2.6682331669726485,
                0.07483479625458417,
                -1.2646096044891113,
                0.7005333108645588
            ]
        },
        {
            "positions": [
                2.1711652460828343,
                -1.8733408262033462,
                -2.6519272645131977,
                0.15673948972659046,
                -1.1796691593801325,
                0.6630572907141329
            ]
        },
        {
            "positions": [
                2.0239170952005123,
                -1.8985276399450237,
                -2.6356213620537474,
                0.2386441831985967,
                -1.094728714271154,
                0.6255812705637069
            ]
        },
        {
            "positions": [
                1.8766689443181899,
                -1.9237144536867012,
                -2.6193154595942967,
                0.32054887667060294,
                -1.0097882691621751,
                0.588105250413281
            ]
        },
        {
            "positions": [
                1.7294207934358679,
                -1.9489012674283788,
                -2.6030095571348464,
                0.4024535701426092,
                -0.9248478240531965,
                0.550629230262855
            ]
        },
        {
            "positions": [
                1.5821726425535456,
                -1.9740880811700565,
                -2.5867036546753956,
                0.48435826361461554,
                -0.8399073789442177,
                0.513153210112429
            ]
        },
        {
            "positions": [
                1.4349244916712234,
                -1.999274894911734,
                -2.5703977522159454,
                0.5662629570866218,
                -0.7549669338352392,
                0.47567718996200303
            ]
        },
        {
            "positions": [
                1.2876763407889011,
                -2.0244617086534116,
                -2.554091849756495,
                0.648167650558628,
                -0.6700264887262605,
                0.4382011698115771
            ]
        },
        {
            "positions": [
                1.140428189906579,
                -2.0496485223950893,
                -2.5377859472970443,
                0.7300723440306344,
                -0.5850860436172817,
                0.4007251496611511
            ]
        },
        {
            "positions": [
                0.9931800390242567,
                -2.0748353361367666,
                -2.521480044837594,
                0.8119770375026405,
                -0.5001455985083032,
                0.36324912951072513
            ]
        },
        {
            "positions": [
                0.8459318881419344,
                -2.1000221498784444,
                -2.5051741423781433,
                0.8938817309746467,
                -0.4152051533993244,
                0.3257731093602992
            ]
        },
        {
            "positions": [
                0.6986837372596124,
                -2.1252089636201217,
                -2.488868239918693,
                0.975786424446653,
                -0.3302647082903458,
                0.2882970892098732
            ]
        },
        {
            "positions": [
                0.55143558637729,
                -2.1503957773617994,
                -2.4725623374592423,
                1.0576911179186594,
                -0.24532426318136702,
                0.25082106905944723
            ]
        },
        {
            "positions": [
                0.40418743549496794,
                -2.175582591103477,
                -2.456256434999792,
                1.1395958113906657,
                -0.16038381807238822,
                0.21334504890902128
            ]
        },
        {
            "positions": [
                0.2569392846126455,
                -2.2007694048451545,
                -2.439950532540341,
                1.221500504862672,
                -0.07544337296340986,
                0.17586902875859534
            ]
        },
        {
            "positions": [
                0.10969113373032346,
                -2.2259562185868322,
                -2.423644630080891,
                1.3034051983346782,
                0.009497072145568941,
                0.13839300860816928
            ]
        },
        {
            "positions": [
                -0.03755701715199855,
                -2.2511430323285095,
                -2.4073387276214406,
                1.3853098918066844,
                0.09443751725454752,
                0.10091698845774333
            ]
        },
        {
            "positions": [
                -0.1848051680343212,
                -2.2763298460701873,
                -2.39103282516199,
                1.4672145852786906,
                0.17937796236352638,
                0.06344096830731737
            ]
        }
    ]
}