{
    "goal": {
        "global_pose": {
            "orientation": {
                "w": 0.7047431493862688,
                "x": -0.7094548369677653,
                "y": 0.0024358444001904,
                "z": -0.0022348060817251984
            },
            "position": {
                "x": -0.39052492380142206,
                "y": 0.3671506643295288,
                "z": 0.19426114857196808
            }
        },
        "name": "move_to_magneteinheit_D"
    },
    "id": "LBKPIECE_move_to_magneteinheit_D_74",
    "joint_names": [
        "shoulder_pan_joint",
        "shoulder_lift_joint",
        "elbow_joint",
        "wrist_1_joint",
        "wrist_2_joint",
        "wrist_3_joint"
    ],
    "metrics": {
        "cart_traj_len": 5.493951758859335,
        "distance_elbow_joint": 6.894313212237645,
        "distance_shoulder_lift_joint": 2.179509446596815,
        "distance_shoulder_pan_joint": 3.892208119278849,
        "distance_wrist_1_joint": 2.175155313323613,
        "distance_wrist_2_joint": 8.357996470436742,
        "distance_wrist_3_joint": 6.201130859172309,
        "smoothness": 0.4446865599428981,
        "time": 4.862715452,
        "traj_len": 5.449799392734194,
        "weighted_distance": 7.255048374969736
    },
    "planner": "LBKPIECE",
    "start": {
        "state": {
            "elbow_joint": 0.7495348899011973,
            "shoulder_lift_joint": -0.6476975780737697,
            "shoulder_pan_joint": -2.711696901376276,
            "wrist_1_joint": -0.07506478080974305,
            "wrist_2_joint": 0.4329665971545858,
            "wrist_3_joint": 3.1361499051832524
        }
    },
    "waypoints": [
        {
            "positions": [
                -2.711696901376276,
                -0.6476975780737697,
                0.7495348899011973,
                -0.07506478080974305,
                0.4329665971545858,
                3.1361499051832524
            ]
        },
        {
            "positions": [
                -2.7269570243607646,
                -0.7318946850748685,
                0.80178271158058,
                -0.12436755028999893,
                0.401572269411659,
                3.047625171307768
            ]
        },
        {
            "positions": [
                -2.7422171473452526,
                -0.8160917920759674,
                0.8540305332599627,
                -0.17367031977025482,
                0.3701779416687323,
                2.9591004374322836
            ]
        },
        {
            "positions": [
                -2.7251061864204202,
                -0.8831194932719042,
                0.9355846880795063,
                -0.2272420378590237,
                0.4593168965244307,
                2.8728242704062232
            ]
        },
        {
            "positions": [
                -2.7079952254955884,
                -0.9501471944678411,
                1.01713884289905,
                -0.28081375594779256,
                0.5484558513801291,
                2.7865481033801625
            ]
        },
        {
            "positions": [
                -2.690884264570756,
                -1.017174895663778,
                1.0986929977185937,
                -0.3343854740365614,
                0.6375948062358274,
                2.700271936354102
            ]
        },
        {
            "positions": [
                -2.6737733036459237,
                -1.0842025968597149,
                1.1802471525381373,
                -0.3879571921253303,
                0.7267337610915259,
                2.613995769328042
            ]
        },
        {
            "positions": [
                -2.656662342721092,
                -1.1512302980556517,
                1.261801307357681,
                -0.4415289102140991,
                0.8158727159472243,
                2.527719602301981
            ]
        },
        {
            "positions": [
                -2.6395513817962595,
                -1.2182579992515885,
                1.3433554621772248,
                -0.495100628302868,
                0.9050116708029227,
                2.4414434352759207
            ]
        },
        {
            "positions": [
                -2.6224404208714276,
                -1.2852857004475253,
                1.4249096169967683,
                -0.5486723463916369,
                0.9941506256586211,
                2.3551672682498603
            ]
        },
        {
            "positions": [
                -2.6053294599465953,
                -1.3523134016434624,
                1.506463771816312,
                -0.6022440644804057,
                1.0832895805143195,
                2.2688911012238
            ]
        },
        {
            "positions": [
                -2.588218499021763,
                -1.4193411028393992,
                1.5880179266358558,
                -0.6558157825691746,
                1.1724285353700181,
                2.182614934197739
            ]
        },
        {
            "positions": [
                -2.571107538096931,
                -1.486368804035336,
                1.6695720814553994,
                -0.7093875006579434,
                1.2615674902257163,
                2.096338767171679
            ]
        },
        {
            "positions": [
                -2.5539965771720987,
                -1.553396505231273,
                1.7511262362749431,
                -0.7629592187467124,
                1.3507064450814148,
                2.010062600145618
            ]
        },
        {
            "positions": [
                -2.5368856162472664,
                -1.6204242064272099,
                1.8326803910944869,
                -0.8165309368354812,
                1.439845399937113,
                1.923786433119558
            ]
        },
        {
            "positions": [
                -2.5197746553224345,
                -1.6874519076231467,
                1.9142345459140306,
                -0.8701026549242501,
                1.5289843547928117,
                1.8375102660934972
            ]
        },
        {
            "positions": [
                -2.502663694397602,
                -1.7544796088190835,
                1.9957887007335742,
                -0.9236743730130189,
                1.61812330964851,
                1.7512340990674369
            ]
        },
        {
            "positions": [
                -2.48555273347277,
                -1.8215073100150203,
                2.077342855553118,
                -0.9772460911017877,
                1.7072622645042084,
                1.6649579320413765
            ]
        },
        {
            "positions": [
                -2.468441772547938,
                -1.8885350112109573,
                2.1588970103726615,
                -1.0308178091905567,
                1.7964012193599068,
                1.578681765015316
            ]
        },
        {
            "positions": [
                -2.4513308116231056,
                -1.9555627124068942,
                2.240451165192205,
                -1.0843895272793256,
                1.8855401742156053,
                1.4924055979892554
            ]
        },
        {
            "positions": [
                -2.4342198506982733,
                -2.022590413602831,
                2.322005320011749,
                -1.1379612453680945,
                1.9746791290713037,
                1.4061294309631949
            ]
        },
        {
            "positions": [
                -2.4171088897734414,
                -2.0896181147987676,
                2.4035594748312925,
                -1.1915329634568632,
                2.063818083927002,
                1.3198532639371345
            ]
        },
        {
            "positions": [
                -2.399997928848609,
                -2.156645815994705,
                2.485113629650836,
                -1.245104681545632,
                2.1529570387827004,
                1.2335770969110742
            ]
        },
        {
            "positions": [
                -2.382886967923777,
                -2.2236735171906417,
                2.56666778447038,
                -1.298676399634401,
                2.242095993638399,
                1.1473009298850134
            ]
        },
        {
            "positions": [
                -2.365776006998945,
                -2.2907012183865785,
                2.6482219392899236,
                -1.35224811772317,
                2.3312349484940973,
                1.061024762858953
            ]
        },
        {
            "positions": [
                -2.294925452270181,
                -2.2833198705922793,
                2.557735446869198,
                -1.3725140517844412,
                2.2208279124274024,
                0.9734336034636585
            ]
        },
        {
            "positions": [
                -2.224074897541417,
                -2.27593852279798,
                2.467248954448473,
                -1.3927799858457124,
                2.110420876360707,
                0.8858424440683639
            ]
        },
        {
            "positions": [
                -2.153224342812653,
                -2.268557175003681,
                2.376762462027748,
                -1.4130459199069838,
                2.000013840294012,
                0.7982512846730692
            ]
        },
        {
            "positions": [
                -2.0823737880838893,
                -2.2611758272093816,
                2.2862759696070225,
                -1.433311853968255,
                1.889606804227317,
                0.7106601252777746
            ]
        },
        {
            "positions": [
                -2.0115232333551254,
                -2.2537944794150824,
                2.195789477186297,
                -1.4535777880295262,
                1.779199768160622,
                0.62306896588248
            ]
        },
        {
            "positions": [
                -1.9406726786263615,
                -2.246413131620783,
                2.105302984765572,
                -1.4738437220907974,
                1.668792732093927,
                0.5354778064871853
            ]
        },
        {
            "positions": [
                -1.8698221238975976,
                -2.239031783826484,
                2.014816492344847,
                -1.4941096561520686,
                1.5583856960272322,
                0.44788664709189074
            ]
        },
        {
            "positions": [
                -1.7989715691688335,
                -2.2316504360321847,
                1.9243299999241215,
                -1.5143755902133398,
                1.4479786599605369,
                0.36029548769659603
            ]
        },
        {
            "positions": [
                -1.7281210144400696,
                -2.2242690882378855,
                1.833843507503396,
                -1.5346415242746112,
                1.337571623893842,
                0.2727043283013014
            ]
        },
        {
            "positions": [
                -1.6572704597113057,
                -2.2168877404435863,
                1.743357015082671,
                -1.5549074583358824,
                1.2271645878271469,
                0.18511316890600682
            ]
        },
        {
            "positions": [
                -1.5864199049825416,
                -2.209506392649287,
                1.6528705226619456,
                -1.5751733923971536,
                1.1167575517604518,
                0.0975220095107121
            ]
        },
        {
            "positions": [
                -1.515569350253778,
                -2.202125044854988,
                1.5623840302412204,
                -1.5954393264584248,
                1.0063505156937569,
                0.009930850115417611
            ]
        },
        {
            "positions": [
                -1.4447187955250138,
                -2.1947436970606886,
                1.471897537820495,
                -1.615705260519696,
                0.8959434796270618,
                -0.0776603092798771
            ]
        },
        {
            "positions": [
                -1.3738682407962501,
                -2.1873623492663894,
                1.3814110453997699,
                -1.6359711945809672,
                0.7855364435603669,
                -0.1652514686751716
            ]
        },
        {
            "positions": [
                -1.303017686067486,
                -2.17998100147209,
                1.2909245529790447,
                -1.6562371286422386,
                0.6751294074936718,
                -0.2528426280704663
            ]
        },
        {
            "positions": [
                -1.2321671313387221,
                -2.172599653677791,
                1.2004380605583194,
                -1.6765030627035098,
                0.5647223714269765,
                -0.34043378746576103
            ]
        },
        {
            "positions": [
                -1.1613165766099582,
                -2.1652183058834917,
                1.1099515681375942,
                -1.696768996764781,
                0.45431533536028157,
                -0.4280249468610555
            ]
        },
        {
            "positions": [
                -1.0904660218811943,
                -2.1578369580891925,
                1.0194650757168688,
                -1.7170349308260522,
                0.34390829929358646,
                -0.5156161062563502
            ]
        },
        {
            "positions": [
                -1.0196154671524305,
                -2.1504556102948937,
                0.9289785832961437,
                -1.7373008648873234,
                0.2335012632268918,
                -0.6032072656516447
            ]
        },
        {
            "positions": [
                -0.9487649124236666,
                -2.143074262500594,
                0.8384920908754183,
                -1.7575667989485946,
                0.12309422716019647,
                -0.6907984250469394
            ]
        },
        {
            "positions": [
                -0.8779143576949027,
                -2.1356929147062953,
                0.7480055984546929,
                -1.777832733009866,
                0.012687191093501138,
                -0.7783895844422342
            ]
        },
        {
            "positions": [
                -0.8070638029661386,
                -2.1283115669119956,
                0.6575191060339676,
                -1.7980986670711372,
                -0.09771984497319375,
                -0.8659807438375289
            ]
        },
        {
            "positions": [
                -0.7362132482373749,
                -2.120930219117697,
                0.5670326136132426,
                -1.8183646011324084,
                -0.20812688103988863,
                -0.9535719032328234
            ]
        },
        {
            "positions": [
                -0.665362693508611,
                -2.1135488713233976,
                0.47654612119251727,
                -1.8386305351936796,
                -0.3185339171065835,
                -1.0411630626281179
            ]
        },
        {
            "positions": [
                -0.5945121387798471,
                -2.1061675235290984,
                0.3860596287717919,
                -1.858896469254951,
                -0.42894095317327885,
                -1.1287542220234124
            ]
        },
        {
            "positions": [
                -0.523661584051083,
                -2.098786175734799,
                0.2955731363510665,
                -1.8791624033162222,
                -0.5393479892399737,
                -1.2163453814187073
            ]
        },
        {
            "positions": [
                -0.4528110293223191,
                -2.0914048279405,
                0.20508664393034115,
                -1.8994283373774934,
                -0.6497550253066691,
                -1.3039365408140018
            ]
        },
        {
            "positions": [
                -0.3819604745935554,
                -2.0840234801462008,
                0.11460015150961622,
                -1.9196942714387646,
                -0.7601620613733635,
                -1.3915277002092963
            ]
        },
        {
            "positions": [
                -0.31110991986479153,
                -2.0766421323519015,
                0.02411365908889085,
                -1.9399602055000358,
                -0.8705690974400588,
                -1.4791188596045912
            ]
        },
        {
            "positions": [
                -0.2402593651360272,
                -2.0692607845576023,
                -0.06637283333183408,
                -1.960226139561307,
                -0.9809761335067537,
                -1.5667100189998857
            ]
        },
        {
            "positions": [
                -0.1694088104072633,
                -2.061879436763303,
                -0.15685932575255945,
                -1.9804920736225782,
                -1.091383169573449,
                -1.6543011783951802
            ]
        },
        {
            "positions": [
                -0.0985582556784994,
                -2.054498088969004,
                -0.24734581817328483,
                -2.0007580076838494,
                -1.2017902056401444,
                -1.7418923377904751
            ]
        },
        {
            "positions": [
                -0.02770770094973596,
                -2.0471167411747047,
                -0.33783231059400975,
                -2.0210239417451206,
                -1.3121972417068388,
                -1.8294834971857696
            ]
        },
        {
            "positions": [
                0.04314285377902838,
                -2.0397353933804054,
                -0.42831880301473513,
                -2.0412898758063918,
                -1.4226042777735342,
                -1.9170746565810641
            ]
        },
        {
            "positions": [
                0.11399340850779227,
                -2.032354045586106,
                -0.5188052954354605,
                -2.061555809867663,
                -1.533011313840229,
                -2.004665815976359
            ]
        },
        {
            "positions": [
                0.18484396323655616,
                -2.024972697791807,
                -0.6092917878561859,
                -2.0818217439289346,
                -1.6434183499069244,
                -2.0922569753716536
            ]
        },
        {
            "positions": [
                0.25569451796532006,
                -2.0175913499975078,
                -0.6997782802769112,
                -2.102087677990206,
                -1.7538253859736197,
                -2.179848134766948
            ]
        },
        {
            "positions": [
                0.32654507269408395,
                -2.0102100022032086,
                -0.7902647726976362,
                -2.122353612051477,
                -1.8642324220403137,
                -2.2674392941622425
            ]
        },
        {
            "positions": [
                0.39739562742284784,
                -2.0028286544089093,
                -0.8807512651183615,
                -2.142619546112748,
                -1.9746394581070095,
                -2.3550304535575375
            ]
        },
        {
            "positions": [
                0.46824618215161173,
                -1.9954473066146101,
                -0.9712377575390869,
                -2.1628854801740194,
                -2.0850464941737044,
                -2.442621612952832
            ]
        },
        {
            "positions": [
                0.418151986473688,
                -1.9768894685752227,
                -1.0770967164636955,
                -2.1696035274016605,
                -1.937518081446187,
                -2.4904954084171567
            ]
        },
        {
            "positions": [
                0.36805779079576423,
                -1.9583316305358351,
                -1.1829556753883044,
                -2.176321574629302,
                -1.7899896687186694,
                -2.538369203881482
            ]
        },
        {
            "positions": [
                0.3179635951178405,
                -1.9397737924964478,
                -1.288814634312913,
                -2.1830396218569432,
                -1.642461255991152,
                -2.5862429993458065
            ]
        },
        {
            "positions": [
                0.2678693994399167,
                -1.9212159544570604,
                -1.3946735932375216,
                -2.1897576690845844,
                -1.4949328432636344,
                -2.634116794810131
            ]
        },
        {
            "positions": [
                0.217775203761993,
                -1.9026581164176728,
                -1.5005325521621304,
                -2.196475716312226,
                -1.347404430536117,
                -2.6819905902744563
            ]
        },
        {
            "positions": [
                0.16768100808406927,
                -1.8841002783782854,
                -1.606391511086739,
                -2.203193763539867,
                -1.1998760178085996,
                -2.729864385738781
            ]
        },
        {
            "positions": [
                0.11758681240614555,
                -1.865542440338898,
                -1.7122504700113477,
                -2.209911810767508,
                -1.0523476050810823,
                -2.7777381812031057
            ]
        },
        {
            "positions": [
                0.06749261672822177,
                -1.8469846022995107,
                -1.8181094289359563,
                -2.2166298579951493,
                -0.9048191923535647,
                -2.825611976667431
            ]
        },
        {
            "positions": [
                0.01739842105029804,
                -1.828426764260123,
                -1.923968387860565,
                -2.223347905222791,
                -0.7572907796260473,
                -2.8734857721317555
            ]
        },
        {
            "positions": [
                -0.03269577462762574,
                -1.8098689262207357,
                -2.029827346785174,
                -2.230065952450432,
                -0.6097623668985297,
                -2.92135956759608
            ]
        },
        {
            "positions": [
                -0.08278997030554947,
                -1.7913110881813483,
                -2.1356863057097826,
                -2.236783999678073,
                -0.4622339541710123,
                -2.969233363060405
            ]
        },
        {
            "positions": [
                -0.1328841659834732,
                -1.7727532501419607,
                -2.241545264634391,
                -2.2435020469057148,
                -0.3147055414434947,
                -3.01710715852473
            ]
        },
        {
            "positions": [
                -0.1829783616613969,
                -1.7541954121025733,
                -2.347404223559,
                -2.250220094133356,
                -0.16717712871597742,
                -3.0649809539890547
            ]
        }
    ]
}