{
    "goal": {
        "global_pose": {
            "orientation": {
                "w": 0.7031023502349854,
                "x": -0.7110244035720825,
                "y": 0.007748599164187908,
                "z": 0.005598929710686207
            },
            "position": {
                "x": 0.11585023208521307,
                "y": 0.44412534475326537,
                "z": 0.3711530566215515
            }
        },
        "name": "move_to_auspresseinheit_A"
    },
    "id": "LBKPIECE_move_to_auspresseinheit_A_11",
    "joint_names": [
        "shoulder_pan_joint",
        "shoulder_lift_joint",
        "elbow_joint",
        "wrist_1_joint",
        "wrist_2_joint",
        "wrist_3_joint"
    ],
    "metrics": {
        "cart_traj_len": 4.474785802893617,
        "distance_elbow_joint": 6.4974597201677895,
        "distance_shoulder_lift_joint": 2.556761000806815,
        "distance_shoulder_pan_joint": 7.531682694979649,
        "distance_wrist_1_joint": 1.967976330785996,
        "distance_wrist_2_joint": 5.382972629123456,
        "distance_wrist_3_joint": 10.00233109055647,
        "smoothness": 0.5078004504048362,
        "time": 1.7639096730000001,
        "traj_len": 5.825734585991723,
        "weighted_distance": 7.82909922069216
    },
    "planner": "LBKPIECE",
    "start": {
        "state": {
            "elbow_joint": 2.4225747245308327,
            "shoulder_lift_joint": -1.373653427065438,
            "shoulder_pan_joint": -0.33786330853087027,
            "wrist_1_joint": -1.0288602302712604,
            "wrist_2_joint": 1.23302299562683,
            "wrist_3_joint": -3.094021725338297
        }
    },
    "waypoints": [
        {
            "positions": [
                -0.33786330853087027,
                -1.373653427065438,
                2.4225747245308327,
                -1.0288602302712604,
                1.23302299562683,
                -3.094021725338297
            ]
        },
        {
            "positions": [
                -0.3976648602080434,
                -1.3675194386058165,
                2.2796099789495528,
                -1.0636944336188447,
                1.1379280222606298,
                -3.0391568726752074
            ]
        },
        {
            "positions": [
                -0.45746641188521664,
                -1.361385450146195,
                2.136645233368273,
                -1.098528636966429,
                1.0428330488944297,
                -2.984292020012118
            ]
        },
        {
            "positions": [
                -0.5172679635623898,
                -1.3552514616865736,
                1.9936804877869927,
                -1.1333628403140135,
                0.9477380755282296,
                -2.9294271673490284
            ]
        },
        {
            "positions": [
                -0.577069515239563,
                -1.3491174732269522,
                1.8507157422057126,
                -1.1681970436615978,
                0.8526431021620294,
                -2.874562314685939
            ]
        },
        {
            "positions": [
                -0.6368710669167361,
                -1.342983484767331,
                1.7077509966244326,
                -1.2030312470091822,
                0.7575481287958293,
                -2.8196974620228494
            ]
        },
        {
            "positions": [
                -0.6966726185939093,
                -1.3368494963077096,
                1.5647862510431527,
                -1.2378654503567665,
                0.6624531554296292,
                -2.76483260935976
            ]
        },
        {
            "positions": [
                -0.7564741702710824,
                -1.3307155078480881,
                1.4218215054618726,
                -1.272699653704351,
                0.5673581820634291,
                -2.7099677566966704
            ]
        },
        {
            "positions": [
                -0.8162757219482557,
                -1.3245815193884667,
                1.2788567598805927,
                -1.3075338570519355,
                0.47226320869722893,
                -2.6551029040335807
            ]
        },
        {
            "positions": [
                -0.8760772736254288,
                -1.3184475309288453,
                1.1358920142993125,
                -1.3423680603995196,
                0.37716823533102883,
                -2.6002380513704915
            ]
        },
        {
            "positions": [
                -0.935878825302602,
                -1.3123135424692238,
                0.9929272687180326,
                -1.3772022637471042,
                0.28207326196482874,
                -2.5453731987074018
            ]
        },
        {
            "positions": [
                -0.9956803769797753,
                -1.3061795540096024,
                0.8499625231367525,
                -1.4120364670946886,
                0.18697828859862864,
                -2.4905083460443125
            ]
        },
        {
            "positions": [
                -1.0554819286569483,
                -1.300045565549981,
                0.7069977775554726,
                -1.446870670442273,
                0.09188331523242854,
                -2.4356434933812228
            ]
        },
        {
            "positions": [
                -1.1152834803341216,
                -1.2939115770903595,
                0.5640330319741926,
                -1.4817048737898573,
                -0.0032116581337715555,
                -2.380778640718133
            ]
        },
        {
            "positions": [
                -1.1750850320112947,
                -1.287777588630738,
                0.4210682863929125,
                -1.5165390771374416,
                -0.09830663149997165,
                -2.325913788055044
            ]
        },
        {
            "positions": [
                -1.2348865836884677,
                -1.2816436001711167,
                0.2781035408116326,
                -1.551373280485026,
                -0.19340160486617197,
                -2.2710489353919545
            ]
        },
        {
            "positions": [
                -1.294688135365641,
                -1.2755096117114955,
                0.13513879523035266,
                -1.5862074838326103,
                -0.28849657823237207,
                -2.216184082728865
            ]
        },
        {
            "positions": [
                -1.354489687042814,
                -1.269375623251874,
                -0.007825950350927258,
                -1.6210416871801947,
                -0.38359155159857217,
                -2.161319230065775
            ]
        },
        {
            "positions": [
                -1.4142912387199873,
                -1.2632416347922526,
                -0.15079069593220762,
                -1.655875890527779,
                -0.47868652496477226,
                -2.1064543774026854
            ]
        },
        {
            "positions": [
                -1.4740927903971603,
                -1.2571076463326312,
                -0.29375544151348754,
                -1.6907100938753634,
                -0.5737814983309724,
                -2.051589524739596
            ]
        },
        {
            "positions": [
                -1.5338943420743336,
                -1.2509736578730097,
                -0.43672018709476745,
                -1.7255442972229478,
                -0.6688764716971725,
                -1.9967246720765066
            ]
        },
        {
            "positions": [
                -1.4292549599035986,
                -1.2886499308153947,
                -0.35786954024194184,
                -1.709282512371782,
                -0.60949091776094,
                -1.9020945457869716
            ]
        },
        {
            "positions": [
                -1.3246155777328636,
                -1.3263262037577797,
                -0.27901889338911623,
                -1.6930207275206164,
                -0.5501053638247075,
                -1.8074644194974365
            ]
        },
        {
            "positions": [
                -1.2199761955621287,
                -1.3640024767001644,
                -0.20016824653629064,
                -1.6767589426694505,
                -0.4907198098884751,
                -1.7128342932079015
            ]
        },
        {
            "positions": [
                -1.1153368133913937,
                -1.4016787496425493,
                -0.121317599683465,
                -1.6604971578182848,
                -0.4313342559522426,
                -1.6182041669183664
            ]
        },
        {
            "positions": [
                -1.0106974312206587,
                -1.4393550225849343,
                -0.04246695283063939,
                -1.644235372967119,
                -0.37194870201601016,
                -1.5235740406288314
            ]
        },
        {
            "positions": [
                -0.9060580490499238,
                -1.4770312955273193,
                0.036383694022186164,
                -1.6279735881159534,
                -0.3125631480797777,
                -1.4289439143392966
            ]
        },
        {
            "positions": [
                -0.8014186668791887,
                -1.5147075684697042,
                0.11523434087501183,
                -1.6117118032647877,
                -0.2531775941435452,
                -1.3343137880497613
            ]
        },
        {
            "positions": [
                -0.6967792847084537,
                -1.552383841412089,
                0.19408498772783744,
                -1.595450018413622,
                -0.19379204020731272,
                -1.2396836617602263
            ]
        },
        {
            "positions": [
                -0.5921399025377188,
                -1.590060114354474,
                0.27293563458066306,
                -1.5791882335624563,
                -0.13440648627108032,
                -1.1450535354706912
            ]
        },
        {
            "positions": [
                -0.48750052036698377,
                -1.6277363872968589,
                0.35178628143348867,
                -1.5629264487112904,
                -0.07502093233484786,
                -1.0504234091811564
            ]
        },
        {
            "positions": [
                -0.3828611381962488,
                -1.6654126602392438,
                0.4306369282863143,
                -1.5466646638601247,
                -0.015635378398615285,
                -0.9557932828916211
            ]
        },
        {
            "positions": [
                -0.278221756025514,
                -1.7030889331816286,
                0.5094875751391398,
                -1.530402879008959,
                0.043750175537617064,
                -0.8611631566020863
            ]
        },
        {
            "positions": [
                -0.17358237385477882,
                -1.7407652061240135,
                0.5883382219919655,
                -1.5141410941577933,
                0.10313572947384964,
                -0.766533030312551
            ]
        },
        {
            "positions": [
                -0.06894299168404383,
                -1.7784414790663985,
                0.6671888688447911,
                -1.4978793093066276,
                0.1625212834100821,
                -0.671902904023016
            ]
        },
        {
            "positions": [
                0.03569639048669093,
                -1.8161177520087834,
                0.7460395156976167,
                -1.4816175244554617,
                0.22190683734631456,
                -0.5772727777334812
            ]
        },
        {
            "positions": [
                0.14033577265742614,
                -1.8537940249511684,
                0.8248901625504423,
                -1.465355739604296,
                0.281292391282547,
                -0.4826426514439459
            ]
        },
        {
            "positions": [
                0.2449751548281609,
                -1.8914702978935531,
                0.903740809403268,
                -1.4490939547531303,
                0.34067794521877937,
                -0.3880125251544111
            ]
        },
        {
            "positions": [
                0.3496145369988961,
                -1.929146570835938,
                0.9825914562560936,
                -1.4328321699019646,
                0.4000634991550118,
                -0.2933823988648758
            ]
        },
        {
            "positions": [
                0.4542539191696311,
                -1.966822843778323,
                1.0614421031089192,
                -1.416570385050799,
                0.4594490530912445,
                -0.19875227257534078
            ]
        },
        {
            "positions": [
                0.5588933013403661,
                -2.004499116720708,
                1.1402927499617448,
                -1.400308600199633,
                0.5188346070274767,
                -0.10412214628580596
            ]
        },
        {
            "positions": [
                0.6635326835111008,
                -2.0421753896630928,
                1.2191433968145704,
                -1.3840468153484675,
                0.5782201609637094,
                -0.009492019996270695
            ]
        },
        {
            "positions": [
                0.768172065681836,
                -2.0798516626054777,
                1.297994043667396,
                -1.3677850304973016,
                0.6376057148999419,
                0.08513810629326435
            ]
        },
        {
            "positions": [
                0.8728114478525713,
                -2.1175279355478627,
                1.3768446905202218,
                -1.351523245646136,
                0.6969912688361743,
                0.17976823258279961
            ]
        },
        {
            "positions": [
                0.9774508300233056,
                -2.1552042084902476,
                1.455695337373047,
                -1.3352614607949702,
                0.7563768227724066,
                0.274398358872334
            ]
        },
        {
            "positions": [
                1.0820902121940408,
                -2.1928804814326326,
                1.5345459842258729,
                -1.3189996759438045,
                0.815762376708639,
                0.36902848516186926
            ]
        },
        {
            "positions": [
                1.186729594364776,
                -2.2305567543750175,
                1.6133966310786985,
                -1.3027378910926388,
                0.8751479306448717,
                0.4636586114514045
            ]
        },
        {
            "positions": [
                1.2913689765355107,
                -2.268233027317402,
                1.692247277931524,
                -1.286476106241473,
                0.9345334845811042,
                0.5582887377409393
            ]
        },
        {
            "positions": [
                1.396008358706246,
                -2.3059093002597875,
                1.7710979247843497,
                -1.2702143213903072,
                0.9939190385173367,
                0.6529188640304746
            ]
        },
        {
            "positions": [
                1.5006477408769807,
                -2.343585573202172,
                1.8499485716371753,
                -1.2539525365391415,
                1.0533045924535689,
                0.7475489903200094
            ]
        },
        {
            "positions": [
                1.6052871230477155,
                -2.381261846144557,
                1.928799218490001,
                -1.2376907516879758,
                1.1126901463898016,
                0.8421791166095443
            ]
        },
        {
            "positions": [
                1.7099265052184507,
                -2.418938119086942,
                2.0076498653428265,
                -1.2214289668368101,
                1.172075700326034,
                0.9368092428990795
            ]
        },
        {
            "positions": [
                1.814565887389186,
                -2.456614392029327,
                2.086500512195652,
                -1.2051671819856442,
                1.2314612542622665,
                1.0314393691886148
            ]
        },
        {
            "positions": [
                1.919205269559921,
                -2.494290664971712,
                2.1653511590484777,
                -1.1889053971344785,
                1.290846808198499,
                1.12606949547815
            ]
        },
        {
            "positions": [
                2.0238446517306556,
                -2.5319669379140963,
                2.2442018059013034,
                -1.1726436122833128,
                1.3502323621347312,
                1.2206996217676844
            ]
        },
        {
            "positions": [
                2.1284840339013904,
                -2.5696432108564817,
                2.323052452754129,
                -1.1563818274321471,
                1.4096179160709639,
                1.3153297480572197
            ]
        },
        {
            "positions": [
                2.233123416072126,
                -2.6073194837988662,
                2.4019030996069546,
                -1.1401200425809814,
                1.469003470007196,
                1.409959874346755
            ]
        },
        {
            "positions": [
                2.337762798242861,
                -2.6449957567412516,
                2.48075374645978,
                -1.1238582577298155,
                1.5283890239434288,
                1.5045900006362898
            ]
        },
        {
            "positions": [
                2.4424021804135956,
                -2.682672029683636,
                2.559604393312606,
                -1.10759647287865,
                1.5877745778796615,
                1.599220126925825
            ]
        },
        {
            "positions": [
                2.5470415625843303,
                -2.720348302626021,
                2.6384550401654314,
                -1.0913346880274841,
                1.6471601318158937,
                1.6938502532153599
            ]
        },
        {
            "positions": [
                2.651680944755066,
                -2.758024575568406,
                2.717305687018257,
                -1.0750729031763184,
                1.706545685752126,
                1.7884803795048947
            ]
        },
        {
            "positions": [
                2.7563203269258008,
                -2.795700848510791,
                2.7961563338710826,
                -1.0588111183251527,
                1.7659312396883586,
                1.8831105057944302
            ]
        },
        {
            "positions": [
                2.677649673370568,
                -2.761494923857845,
                2.780568322810454,
                -1.0355588458275944,
                1.7256902608262847,
                1.6898336265858247
            ]
        },
        {
            "positions": [
                2.598979019815335,
                -2.727288999204898,
                2.764980311749826,
                -1.0123065733300363,
                1.6854492819642108,
                1.4965567473772192
            ]
        },
        {
            "positions": [
                2.5203083662601022,
                -2.693083074551952,
                2.7493923006891974,
                -0.989054300832478,
                1.645208303102137,
                1.303279868168614
            ]
        },
        {
            "positions": [
                2.4416377127048694,
                -2.6588771498990056,
                2.733804289628569,
                -0.9658020283349198,
                1.6049673242400633,
                1.1100029889600085
            ]
        },
        {
            "positions": [
                2.3629670591496366,
                -2.6246712252460593,
                2.7182162785679407,
                -0.9425497558373614,
                1.5647263453779894,
                0.9167261097514031
            ]
        },
        {
            "positions": [
                2.2842964055944037,
                -2.5904653005931126,
                2.702628267507312,
                -0.9192974833398032,
                1.5244853665159155,
                0.7234492305427977
            ]
        },
        {
            "positions": [
                2.205625752039171,
                -2.5562593759401664,
                2.6870402564466835,
                -0.896045210842245,
                1.4842443876538416,
                0.5301723513341923
            ]
        },
        {
            "positions": [
                2.1269550984839376,
                -2.52205345128722,
                2.671452245386055,
                -0.8727929383446867,
                1.4440034087917677,
                0.3368954721255868
            ]
        },
        {
            "positions": [
                2.0482844449287048,
                -2.4878475266342734,
                2.655864234325427,
                -0.8495406658471285,
                1.403762429929694,
                0.14361859291698154
            ]
        },
        {
            "positions": [
                1.969613791373472,
                -2.453641601981327,
                2.6402762232647983,
                -0.8262883933495703,
                1.3635214510676201,
                -0.04965828629162394
            ]
        },
        {
            "positions": [
                1.890943137818239,
                -2.419435677328381,
                2.6246882122041697,
                -0.803036120852012,
                1.3232804722055462,
                -0.2429351655002292
            ]
        },
        {
            "positions": [
                1.8122724842630062,
                -2.3852297526754347,
                2.6091002011435416,
                -0.7797838483544537,
                1.2830394933434723,
                -0.4362120447088347
            ]
        },
        {
            "positions": [
                1.7336018307077734,
                -2.351023828022488,
                2.593512190082913,
                -0.7565315758568956,
                1.2427985144813984,
                -0.6294889239174402
            ]
        },
        {
            "positions": [
                1.6549311771525406,
                -2.3168179033695417,
                2.5779241790222844,
                -0.7332793033593372,
                1.2025575356193245,
                -0.8227658031260456
            ]
        },
        {
            "positions": [
                1.5762605235973077,
                -2.2826119787165955,
                2.5623361679616563,
                -0.7100270308617791,
                1.1623165567572507,
                -1.0160426823346507
            ]
        },
        {
            "positions": [
                1.4975898700420747,
                -2.248406054063649,
                2.5467481569010277,
                -0.6867747583642207,
                1.1220755778951768,
                -1.2093195615432566
            ]
        },
        {
            "positions": [
                1.4189192164868418,
                -2.2142001294107025,
                2.531160145840399,
                -0.6635224858666625,
                1.0818345990331029,
                -1.4025964407518616
            ]
        },
        {
            "positions": [
                1.340248562931609,
                -2.1799942047577563,
                2.515572134779771,
                -0.6402702133691043,
                1.0415936201710292,
                -1.595873319960467
            ]
        },
        {
            "positions": [
                1.2615779093763761,
                -2.14578828010481,
                2.4999841237191425,
                -0.617017940871546,
                1.0013526413089553,
                -1.7891501991690726
            ]
        },
        {
            "positions": [
                1.1829072558211433,
                -2.1115823554518633,
                2.484396112658514,
                -0.5937656683739878,
                0.9611116624468814,
                -1.982427078377678
            ]
        },
        {
            "positions": [
                1.1042366022659105,
                -2.077376430798917,
                2.4688081015978858,
                -0.5705133958764295,
                0.9208706835848075,
                -2.175703957586283
            ]
        },
        {
            "positions": [
                1.0255659487106776,
                -2.043170506145971,
                2.453220090537257,
                -0.5472611233788713,
                0.8806297047227337,
                -2.3689808367948886
            ]
        },
        {
            "positions": [
                0.9468952951554448,
                -2.008964581493024,
                2.4376320794766286,
                -0.5240088508813131,
                0.8403887258606598,
                -2.562257716003494
            ]
        },
        {
            "positions": [
                0.8682246416002117,
                -1.974758656840078,
                2.422044068416,
                -0.5007565783837548,
                0.8001477469985859,
                -2.7555345952120995
            ]
        },
        {
            "positions": [
                0.7895539880449789,
                -1.9405527321871316,
                2.406456057355372,
                -0.4775043058861965,
                0.7599067681365121,
                -2.948811474420705
            ]
        },
        {
            "positions": [
                0.7108833344897463,
                -1.9063468075341852,
                2.3908680462947434,
                -0.4542520333886383,
                0.7196657892744381,
                -3.1420883536293105
            ]
        }
    ]
}