{
    "goal": {
        "global_pose": {
            "orientation": {
                "w": 0.7031023502349854,
                "x": -0.7110244035720825,
                "y": 0.007748599164187908,
                "z": 0.005598929710686207
            },
            "position": {
                "x": 0.11585023208521307,
                "y": 0.44412534475326537,
                "z": 0.3711530566215515
            }
        },
        "name": "move_to_auspresseinheit_A"
    },
    "id": "LBKPIECE_move_to_auspresseinheit_A_44",
    "joint_names": [
        "shoulder_pan_joint",
        "shoulder_lift_joint",
        "elbow_joint",
        "wrist_1_joint",
        "wrist_2_joint",
        "wrist_3_joint"
    ],
    "metrics": {
        "cart_traj_len": 0.6888802752763437,
        "distance_elbow_joint": 0.03485602033294555,
        "distance_shoulder_lift_joint": 0.535981470168521,
        "distance_shoulder_pan_joint": 1.0449835910704357,
        "distance_wrist_1_joint": 0.5426930173901692,
        "distance_wrist_2_joint": 0.5239568825748788,
        "distance_wrist_3_joint": 0.02352403595699304,
        "smoothness": 0.052572855854234025,
        "time": 4.481451863,
        "traj_len": 1.6449908867510312,
        "weighted_distance": 1.9544034868401605
    },
    "planner": "LBKPIECE",
    "start": {
        "state": {
            "elbow_joint": 2.4225747245308327,
            "shoulder_lift_joint": -1.373653427065438,
            "shoulder_pan_joint": -0.33786330853087027,
            "wrist_1_joint": -1.0288602302712604,
            "wrist_2_joint": 1.23302299562683,
            "wrist_3_joint": -3.094021725338297
        }
    },
    "waypoints": [
        {
            "positions": [
                -0.33786330853087027,
                -1.373653427065438,
                2.4225747245308327,
                -1.0288602302712604,
                1.23302299562683,
                -3.094021725338297
            ]
        },
        {
            "positions": [
                -0.20342727893398313,
                -1.4432870736816708,
                2.418334965732804,
                -0.9568562234529259,
                1.1637248786433598,
                -3.096255488533273
            ]
        },
        {
            "positions": [
                -0.068991249337096,
                -1.5129207202979038,
                2.414095206934775,
                -0.8848522166345913,
                1.0944267616598897,
                -3.0984892517282496
            ]
        },
        {
            "positions": [
                0.06544478025979111,
                -1.5825543669141366,
                2.4098554481367467,
                -0.8128482098162568,
                1.0251286446764196,
                -3.1007230149232257
            ]
        },
        {
            "positions": [
                0.19988080985667828,
                -1.6521880135303695,
                2.4056156893387177,
                -0.7408442029979223,
                0.9558305276929495,
                -3.102956778118202
            ]
        },
        {
            "positions": [
                0.33431683945356544,
                -1.7218216601466025,
                2.401375930540689,
                -0.6688401961795878,
                0.8865324107094794,
                -3.105190541313178
            ]
        },
        {
            "positions": [
                0.4687528690504525,
                -1.7914553067628352,
                2.3971361717426602,
                -0.5968361893612533,
                0.8172342937260094,
                -3.1074243045081547
            ]
        },
        {
            "positions": [
                0.6031888986473397,
                -1.8610889533790682,
                2.3928964129446317,
                -0.5248321825429187,
                0.7479361767425393,
                -3.1096580677031307
            ]
        },
        {
            "positions": [
                0.7071202825395655,
                -1.909634897233959,
                2.3980741216913763,
                -0.48616721288109116,
                0.7090661130519511,
                -3.11754576129529
            ]
        }
    ]
}