{
    "goal": {
        "global_pose": {
            "orientation": {
                "w": 0.7031023480610252,
                "x": -0.7110244013736278,
                "y": 0.0077485991402295624,
                "z": 0.005598929693374583
            },
            "position": {
                "x": -0.8841497679147869,
                "y": 0.44412534475326537,
                "z": 0.3711530566215515
            }
        },
        "name": "move_to_auspresseinheit_D"
    },
    "id": "ProjEST_move_to_auspresseinheit_D_136",
    "joint_names": [
        "shoulder_pan_joint",
        "shoulder_lift_joint",
        "elbow_joint",
        "wrist_1_joint",
        "wrist_2_joint",
        "wrist_3_joint"
    ],
    "metrics": {
        "cart_traj_len": 3.54960362203128,
        "distance_elbow_joint": 3.186732614081574,
        "distance_shoulder_lift_joint": 1.3969114150110986,
        "distance_shoulder_pan_joint": 2.7974258733798423,
        "distance_wrist_1_joint": 1.5090538248167529,
        "distance_wrist_2_joint": 0.8839364879429591,
        "distance_wrist_3_joint": 3.104367471007162,
        "smoothness": 0.026184388418786373,
        "time": 0.459194677,
        "traj_len": 3.5886526282491302,
        "weighted_distance": 4.634668590202909
    },
    "planner": "ProjEST",
    "start": {
        "state": {
            "elbow_joint": 1.8268400409724999,
            "shoulder_lift_joint": -1.0144045787793008,
            "shoulder_pan_joint": 2.6280239544362485,
            "wrist_1_joint": -0.790705565816056,
            "wrist_2_joint": 1.0573557467365533,
            "wrist_3_joint": 3.1851377467193758
        }
    },
    "waypoints": [
        {
            "positions": [
                2.6280239544362485,
                -1.0144045787793008,
                1.8268400409724999,
                -0.790705565816056,
                1.0573557467365533,
                3.1851377467193758
            ]
        },
        {
            "positions": [
                2.588348866578195,
                -1.0588793652439363,
                1.7679464451048255,
                -0.8013083892361614,
                0.9965365069051627,
                3.0382567727817587
            ]
        },
        {
            "positions": [
                2.5486737787201412,
                -1.103354151708572,
                1.709052849237151,
                -0.8119112126562669,
                0.9357172670737722,
                2.891375798844142
            ]
        },
        {
            "positions": [
                2.5089986908620876,
                -1.1478289381732076,
                1.6501592533694767,
                -0.8225140360763723,
                0.8748980272423816,
                2.744494824906525
            ]
        },
        {
            "positions": [
                2.469323603004034,
                -1.1923037246378434,
                1.5912656575018023,
                -0.8331168594964776,
                0.8140787874109912,
                2.5976138509689077
            ]
        },
        {
            "positions": [
                2.4296485151459803,
                -1.236778511102479,
                1.5323720616341279,
                -0.8437196829165831,
                0.7532595475796006,
                2.4507328770312906
            ]
        },
        {
            "positions": [
                2.3899734272879267,
                -1.2812532975671145,
                1.4734784657664535,
                -0.8543225063366885,
                0.6924403077482101,
                2.303851903093674
            ]
        },
        {
            "positions": [
                2.350298339429873,
                -1.3257280840317502,
                1.414584869898779,
                -0.8649253297567939,
                0.6316210679168195,
                2.156970929156057
            ]
        },
        {
            "positions": [
                2.256976107638263,
                -1.365935043652441,
                1.3118264460836735,
                -0.8117833275021267,
                0.6146506305418852,
                2.080074608658137
            ]
        },
        {
            "positions": [
                2.1636538758466535,
                -1.4061420032731315,
                1.2090680222685677,
                -0.7586413252474594,
                0.597680193166951,
                2.0031782881602167
            ]
        },
        {
            "positions": [
                2.0703316440550434,
                -1.4463489628938224,
                1.106309598453462,
                -0.7054993229927923,
                0.5807097557920167,
                1.9262819676622966
            ]
        },
        {
            "positions": [
                1.9770094122634336,
                -1.486555922514513,
                1.0035511746383565,
                -0.652357320738125,
                0.5637393184170824,
                1.8493856471643766
            ]
        },
        {
            "positions": [
                1.8836871804718238,
                -1.5267628821352037,
                0.9007927508232508,
                -0.5992153184834578,
                0.5467688810421482,
                1.7724893266664565
            ]
        },
        {
            "positions": [
                1.7903649486802138,
                -1.5669698417558946,
                0.7980343270081451,
                -0.5460733162287905,
                0.5297984436672138,
                1.6955930061685365
            ]
        },
        {
            "positions": [
                1.6970427168886042,
                -1.6071768013765853,
                0.6952759031930396,
                -0.4929313139741233,
                0.5128280062922795,
                1.6186966856706166
            ]
        },
        {
            "positions": [
                1.6037204850969942,
                -1.647383760997276,
                0.5925174793779339,
                -0.43978931171945607,
                0.49585756891734534,
                1.5418003651726964
            ]
        },
        {
            "positions": [
                1.5103982533053844,
                -1.6875907206179666,
                0.48975905556282817,
                -0.38664730946478887,
                0.478887131542411,
                1.4649040446747765
            ]
        },
        {
            "positions": [
                1.4170760215137745,
                -1.7277976802386572,
                0.3870006317477226,
                -0.3335053072101216,
                0.46191669416747677,
                1.3880077241768563
            ]
        },
        {
            "positions": [
                1.3237537897221645,
                -1.768004639859348,
                0.284242207932617,
                -0.28036330495545436,
                0.4449462567925425,
                1.3111114036789364
            ]
        },
        {
            "positions": [
                1.2304315579305547,
                -1.8082115994800387,
                0.1814837841175112,
                -0.22722130270078722,
                0.4279758194176082,
                1.2342150831810161
            ]
        },
        {
            "positions": [
                1.1371093261389449,
                -1.8484185591007294,
                0.07872536030240562,
                -0.17407930044611997,
                0.41100538204267395,
                1.1573187626830963
            ]
        },
        {
            "positions": [
                1.043787094347335,
                -1.8886255187214203,
                -0.02403306351269996,
                -0.12093729819145271,
                0.3940349446677397,
                1.0804224421851762
            ]
        },
        {
            "positions": [
                0.950464862555725,
                -1.928832478342111,
                -0.12679148732780576,
                -0.06779529593678535,
                0.3770645072928054,
                1.003526121687256
            ]
        },
        {
            "positions": [
                0.8571426307641152,
                -1.9690394379628016,
                -0.22954991114291134,
                -0.014653293682118207,
                0.36009406991787113,
                0.9266298011893361
            ]
        },
        {
            "positions": [
                0.7638203989725052,
                -2.0092463975834924,
                -0.33230833495801715,
                0.038488708572549046,
                0.3431236325429368,
                0.8497334806914159
            ]
        },
        {
            "positions": [
                0.6704981671808956,
                -2.049453357204183,
                -0.43506675877312273,
                0.09163071082721619,
                0.32615319516800256,
                0.772837160193496
            ]
        },
        {
            "positions": [
                0.5771759353892856,
                -2.0896603168248737,
                -0.5378251825882285,
                0.14477271308188355,
                0.3091827577930683,
                0.695940839695576
            ]
        },
        {
            "positions": [
                0.48385370359767577,
                -2.129867276445564,
                -0.6405836064033339,
                0.1979147153365507,
                0.29221232041813405,
                0.6190445191976559
            ]
        },
        {
            "positions": [
                0.39053147180606573,
                -2.170074236066255,
                -0.7433420302184397,
                0.25105671759121806,
                0.27524188304319974,
                0.5421481986997359
            ]
        },
        {
            "positions": [
                0.2972092400144559,
                -2.210281195686946,
                -0.8461004540335451,
                0.3041987198458852,
                0.2582714456682655,
                0.4652518782018158
            ]
        },
        {
            "positions": [
                0.2038870082228459,
                -2.250488155307637,
                -0.9488588778486509,
                0.35734072210055234,
                0.24130100829333118,
                0.38835555770389574
            ]
        },
        {
            "positions": [
                0.1105647764312363,
                -2.2906951149283272,
                -1.0516173016637567,
                0.4104827243552195,
                0.22433057091839692,
                0.3114592372059757
            ]
        },
        {
            "positions": [
                0.017242544639626267,
                -2.330902074549018,
                -1.1543757254788625,
                0.46362472660988685,
                0.20736013354346267,
                0.23456291670805562
            ]
        },
        {
            "positions": [
                -0.07607968715198332,
                -2.3711090341697085,
                -1.2571341492939678,
                0.516766728864554,
                0.1903896961685284,
                0.15766659621013557
            ]
        },
        {
            "positions": [
                -0.16940191894359344,
                -2.4113159937903994,
                -1.3598925731090734,
                0.5699087311192212,
                0.17341925879359407,
                0.0807702757122155
            ]
        }
    ]
}