{
    "goal": {
        "global_pose": {
            "orientation": {
                "w": 0.7047431493862688,
                "x": -0.7094548369677653,
                "y": 0.0024358444001904,
                "z": -0.0022348060817251984
            },
            "position": {
                "x": -0.39052492380142206,
                "y": 0.3671506643295288,
                "z": 0.19426114857196808
            }
        },
        "name": "move_to_magneteinheit_D"
    },
    "id": "ProjEST_move_to_magneteinheit_D_138",
    "joint_names": [
        "shoulder_pan_joint",
        "shoulder_lift_joint",
        "elbow_joint",
        "wrist_1_joint",
        "wrist_2_joint",
        "wrist_3_joint"
    ],
    "metrics": {
        "cart_traj_len": 4.277115287286059,
        "distance_elbow_joint": 3.128024566303064,
        "distance_shoulder_lift_joint": 1.7547877329006933,
        "distance_shoulder_pan_joint": 3.18523540682288,
        "distance_wrist_1_joint": 1.5967012932741627,
        "distance_wrist_2_joint": 2.489529110678075,
        "distance_wrist_3_joint": 3.458357567116615,
        "smoothness": 0.20965285001301667,
        "time": 0.22022841399999998,
        "traj_len": 3.9512827888035917,
        "weighted_distance": 5.15902909618476
    },
    "planner": "ProjEST",
    "start": {
        "state": {
            "elbow_joint": 0.7495348899011973,
            "shoulder_lift_joint": -0.6476975780737697,
            "shoulder_pan_joint": -2.711696901376276,
            "wrist_1_joint": -0.07506478080974305,
            "wrist_2_joint": 0.4329665971545858,
            "wrist_3_joint": 3.1361499051832524
        }
    },
    "waypoints": [
        {
            "positions": [
                -2.711696901376276,
                -0.6476975780737697,
                0.7495348899011973,
                -0.07506478080974305,
                0.4329665971545858,
                3.1361499051832524
            ]
        },
        {
            "positions": [
                -2.726126006534802,
                -0.6421631807960964,
                0.7399268116405598,
                0.006126384810329177,
                0.3542730640133893,
                2.9450015451004345
            ]
        },
        {
            "positions": [
                -2.740555111693328,
                -0.636628783518423,
                0.7303187333799224,
                0.08731755043040142,
                0.27557953087219283,
                2.7538531850176167
            ]
        },
        {
            "positions": [
                -2.7466577867929582,
                -0.6336609122768183,
                0.7137311120673778,
                0.16340621745286565,
                0.19336743379289545,
                2.5569538841975823
            ]
        },
        {
            "positions": [
                -2.7527604618925885,
                -0.6306930410352136,
                0.6971434907548333,
                0.2394948844753299,
                0.11115533671359806,
                2.360054583377548
            ]
        },
        {
            "positions": [
                -2.7588631369922183,
                -0.627725169793609,
                0.6805558694422886,
                0.31558355149779416,
                0.028943239634300677,
                2.1631552825575135
            ]
        },
        {
            "positions": [
                -2.7649658120918486,
                -0.6247572985520043,
                0.6639682481297441,
                0.3916722185202584,
                -0.05326885744499671,
                1.9662559817374792
            ]
        },
        {
            "positions": [
                -2.771068487191479,
                -0.6217894273103997,
                0.6473806268171995,
                0.46776088554272266,
                -0.1354809545242941,
                1.7693566809174448
            ]
        },
        {
            "positions": [
                -2.7771711622911086,
                -0.6188215560687951,
                0.6307930055046549,
                0.543849552565187,
                -0.21769305160359148,
                1.5724573800974107
            ]
        },
        {
            "positions": [
                -2.783273837390739,
                -0.6158536848271904,
                0.6142053841921103,
                0.6199382195876512,
                -0.2999051486828888,
                1.3755580792773763
            ]
        },
        {
            "positions": [
                -2.789376512490369,
                -0.6128858135855857,
                0.5976177628795658,
                0.6960268866101155,
                -0.3821172457621863,
                1.178658778457342
            ]
        },
        {
            "positions": [
                -2.774596418486439,
                -0.6165896201152157,
                0.5682144108945324,
                0.7436872152176022,
                -0.45483456842900455,
                1.0107874818000473
            ]
        },
        {
            "positions": [
                -2.7272545062371267,
                -0.6312663345662987,
                0.5164645085856254,
                0.7580337942275195,
                -0.521089460234315,
                0.8640869408545149
            ]
        },
        {
            "positions": [
                -2.6799125939878143,
                -0.6459430490173818,
                0.46471460627671846,
                0.7723803732374369,
                -0.5873443520396255,
                0.7173863999089826
            ]
        },
        {
            "positions": [
                -2.632570681738502,
                -0.6606197634684647,
                0.4129647039678115,
                0.7867269522473542,
                -0.653599243844936,
                0.5706858589634503
            ]
        },
        {
            "positions": [
                -2.5852287694891896,
                -0.6752964779195477,
                0.36121480165890457,
                0.8010735312572715,
                -0.7198541356502464,
                0.42398531801791783
            ]
        },
        {
            "positions": [
                -2.537886857239877,
                -0.6899731923706308,
                0.3094648993499976,
                0.815420110267189,
                -0.7861090274555569,
                0.2772847770723854
            ]
        },
        {
            "positions": [
                -2.490544944990565,
                -0.7046499068217138,
                0.25771499704109063,
                0.8297666892771063,
                -0.8523639192608674,
                0.1305842361268531
            ]
        },
        {
            "positions": [
                -2.356108832204528,
                -0.7789772325792984,
                0.1554314570917543,
                0.833121875668052,
                -0.7936669931815448,
                0.11492529836000984
            ]
        },
        {
            "positions": [
                -2.221672719418491,
                -0.8533045583368829,
                0.053147917142417955,
                0.8364770620589977,
                -0.7349700671022222,
                0.09926636059316657
            ]
        },
        {
            "positions": [
                -2.087236606632454,
                -0.9276318840944675,
                -0.04913562280691841,
                0.8398322484499434,
                -0.6762731410228996,
                0.0836074228263233
            ]
        },
        {
            "positions": [
                -1.952800493846417,
                -1.001959209852052,
                -0.15141916275625472,
                0.8431874348408892,
                -0.6175762149435771,
                0.06794848505948003
            ]
        },
        {
            "positions": [
                -1.81836438106038,
                -1.0762865356096367,
                -0.2537027027055911,
                0.8465426212318349,
                -0.5588792888642544,
                0.05228954729263677
            ]
        },
        {
            "positions": [
                -1.683928268274343,
                -1.1506138613672212,
                -0.35598624265492745,
                0.8498978076227807,
                -0.5001823627849318,
                0.0366306095257935
            ]
        },
        {
            "positions": [
                -1.549492155488306,
                -1.2249411871248057,
                -0.4582697826042638,
                0.8532529940137263,
                -0.44148543670560925,
                0.020971671758950233
            ]
        },
        {
            "positions": [
                -1.4150560427022691,
                -1.2992685128823904,
                -0.5605533225536001,
                0.856608180404672,
                -0.38278851062628666,
                0.005312733992106966
            ]
        },
        {
            "positions": [
                -1.2806199299162322,
                -1.3735958386399747,
                -0.6628368625029364,
                0.8599633667956178,
                -0.3240915845469641,
                -0.010346203774736301
            ]
        },
        {
            "positions": [
                -1.1461838171301952,
                -1.4479231643975594,
                -0.7651204024522729,
                0.8633185531865635,
                -0.26539465846764154,
                -0.02600514154157957
            ]
        },
        {
            "positions": [
                -1.0117477043441583,
                -1.5222504901551441,
                -0.8674039424016093,
                0.8666737395775093,
                -0.2066977323883188,
                -0.04166407930842286
            ]
        },
        {
            "positions": [
                -0.8773115915581213,
                -1.5965778159127284,
                -0.9696874823509456,
                0.8700289259684549,
                -0.14800080630899626,
                -0.0573230170752661
            ]
        },
        {
            "positions": [
                -0.7428754787720844,
                -1.6709051416703131,
                -1.071971022300282,
                0.8733841123594006,
                -0.08930388022967362,
                -0.0729819548421094
            ]
        },
        {
            "positions": [
                -0.6084393659860474,
                -1.7452324674278976,
                -1.1742545622496183,
                0.8767392987503464,
                -0.030606954150351084,
                -0.08864089260895264
            ]
        },
        {
            "positions": [
                -0.47400325320001047,
                -1.8195597931854823,
                -1.2765381021989546,
                0.8800944851412921,
                0.028089971928971558,
                -0.10429983037579593
            ]
        },
        {
            "positions": [
                -0.3395671404139735,
                -1.8938871189430668,
                -1.3788216421482908,
                0.8834496715322379,
                0.08678689800829409,
                -0.11995876814263917
            ]
        },
        {
            "positions": [
                -0.20513102762793656,
                -1.9682144447006513,
                -1.4811051820976273,
                0.8868048579231835,
                0.14548382408761673,
                -0.13561770590948247
            ]
        },
        {
            "positions": [
                -0.0706949148418996,
                -2.042541770458236,
                -1.5833887220469636,
                0.8901600443141293,
                0.20418075016693926,
                -0.1512766436763257
            ]
        },
        {
            "positions": [
                0.06374119794413727,
                -2.1168690962158205,
                -1.6856722619963,
                0.893515230705075,
                0.26287767624626185,
                -0.16693558144316903
            ]
        },
        {
            "positions": [
                0.06431073044350322,
                -2.164236438016894,
                -1.800297376968075,
                1.038908800383273,
                0.2647037086221523,
                -0.1351299190283183
            ]
        },
        {
            "positions": [
                0.06488026294286918,
                -2.2116037798179677,
                -1.9149224919398502,
                1.1843023700614708,
                0.2665297409980427,
                -0.1033242566134676
            ]
        },
        {
            "positions": [
                0.06544979544223514,
                -2.2589711216190413,
                -2.0295476069116254,
                1.3296959397396686,
                0.2683557733739331,
                -0.07151859419861689
            ]
        },
        {
            "positions": [
                0.06601932794160109,
                -2.306338463420115,
                -2.1441727218834004,
                1.4750895094178664,
                0.2701818057498236,
                -0.03971293178376617
            ]
        },
        {
            "positions": [
                -0.06006064969680741,
                -2.293076804131125,
                -2.261331199142634,
                1.498363010941143,
                0.22935537112385782,
                -0.025688216368372884
            ]
        },
        {
            "positions": [
                -0.18614062733521589,
                -2.279815144842135,
                -2.3784896764018675,
                1.5216365124644196,
                0.18852893649789204,
                -0.011663500952979597
            ]
        }
    ]
}