{
    "goal": {
        "global_pose": {
            "orientation": {
                "w": -0.4816463035849501,
                "x": 0.5182115481033762,
                "y": 0.4908360881923453,
                "z": -0.5084816262002911
            },
            "position": {
                "x": -0.8240239810943604,
                "y": -0.300875300988555,
                "z": 0.16403168439865112
            }
        },
        "name": "move_to_storage_C"
    },
    "id": "ProjEST_move_to_storage_C_75",
    "joint_names": [
        "shoulder_pan_joint",
        "shoulder_lift_joint",
        "elbow_joint",
        "wrist_1_joint",
        "wrist_2_joint",
        "wrist_3_joint"
    ],
    "metrics": {
        "cart_traj_len": 0.5765514409504257,
        "distance_elbow_joint": 0.25964837089142945,
        "distance_shoulder_lift_joint": 0.18939157886232594,
        "distance_shoulder_pan_joint": 0.493291455697606,
        "distance_wrist_1_joint": 0.0845131791610979,
        "distance_wrist_2_joint": 1.0785577986213744,
        "distance_wrist_3_joint": 0.06280360936458251,
        "smoothness": 2.5376526478085547e-16,
        "time": 0.011059901,
        "traj_len": 1.4724829345695034,
        "weighted_distance": 1.859269799977952
    },
    "planner": "ProjEST",
    "start": {
        "state": {
            "elbow_joint": 2.010868315001653,
            "shoulder_lift_joint": -1.1634956873357014,
            "shoulder_pan_joint": -2.4736205022346103,
            "wrist_1_joint": -0.8367026794713948,
            "wrist_2_joint": 0.6746043897044093,
            "wrist_3_joint": 3.1335220948105738
        }
    },
    "waypoints": [
        {
            "positions": [
                -2.4736205022346103,
                -1.1634956873357014,
                2.010868315001653,
                -0.8367026794713948,
                0.6746043897044093,
                3.1335220948105738
            ]
        },
        {
            "positions": [
                -2.555835744850878,
                -1.1319304241919803,
                1.9675935865197482,
                -0.8226171496112118,
                0.8543640228079716,
                3.143989363038004
            ]
        },
        {
            "positions": [
                -2.6380509874671456,
                -1.1003651610482594,
                1.9243188580378432,
                -0.8085316197510288,
                1.034123655911534,
                3.1544566312654347
            ]
        },
        {
            "positions": [
                -2.7202662300834133,
                -1.0687998979045386,
                1.8810441295559384,
                -0.7944460898908459,
                1.2138832890150963,
                3.164923899492865
            ]
        },
        {
            "positions": [
                -2.802481472699681,
                -1.0372346347608175,
                1.8377694010740335,
                -0.7803605600306628,
                1.3936429221186588,
                3.1753911677202953
            ]
        },
        {
            "positions": [
                -2.8846967153159486,
                -1.0056693716170964,
                1.7944946725921285,
                -0.7662750301704798,
                1.5734025552222213,
                3.185858435947726
            ]
        },
        {
            "positions": [
                -2.9669119579322163,
                -0.9741041084733755,
                1.7512199441102236,
                -0.7521895003102969,
                1.7531621883257835,
                3.1963257041751563
            ]
        }
    ]
}