{
    "goal": {
        "global_pose": {
            "orientation": {
                "w": -0.4816463035849501,
                "x": 0.5182115481033762,
                "y": 0.4908360881923453,
                "z": -0.5084816262002911
            },
            "position": {
                "x": -0.8240239810943604,
                "y": -0.300875300988555,
                "z": 0.16403168439865112
            }
        },
        "name": "move_to_storage_C"
    },
    "id": "ProjEST_move_to_storage_C_29",
    "joint_names": [
        "shoulder_pan_joint",
        "shoulder_lift_joint",
        "elbow_joint",
        "wrist_1_joint",
        "wrist_2_joint",
        "wrist_3_joint"
    ],
    "metrics": {
        "cart_traj_len": 0.5771574946521933,
        "distance_elbow_joint": 0.26354956098730065,
        "distance_shoulder_lift_joint": 0.19043722504635363,
        "distance_shoulder_pan_joint": 0.49322984533031766,
        "distance_wrist_1_joint": 0.09179455531987313,
        "distance_wrist_2_joint": 1.0769845407802037,
        "distance_wrist_3_joint": 0.07095375277333904,
        "smoothness": 2.5376526478085547e-16,
        "time": 0.053647838,
        "traj_len": 1.4788338244161807,
        "weighted_distance": 1.870196802982013
    },
    "planner": "ProjEST",
    "start": {
        "state": {
            "elbow_joint": 2.010868315001653,
            "shoulder_lift_joint": -1.1634956873357014,
            "shoulder_pan_joint": -2.4736205022346103,
            "wrist_1_joint": -0.8367026794713948,
            "wrist_2_joint": 0.6746043897044093,
            "wrist_3_joint": 3.1335220948105738
        }
    },
    "waypoints": [
        {
            "positions": [
                -2.4736205022346103,
                -1.1634956873357014,
                2.010868315001653,
                -0.8367026794713948,
                0.6746043897044093,
                3.1335220948105738
            ]
        },
        {
            "positions": [
                -2.55582547645633,
                -1.1317561498279758,
                1.9669433881704363,
                -0.8214035869180826,
                0.8541018131677766,
                3.145347720272797
            ]
        },
        {
            "positions": [
                -2.6380304506780496,
                -1.1000166123202502,
                1.9230184613392196,
                -0.8061044943647704,
                1.0335992366311437,
                3.15717334573502
            ]
        },
        {
            "positions": [
                -2.7202354248997693,
                -1.0682770748125245,
                1.8790935345080029,
                -0.7908054018114582,
                1.2130966600945112,
                3.1689989711972433
            ]
        },
        {
            "positions": [
                -2.8024403991214886,
                -1.036537537304799,
                1.835168607676786,
                -0.775506309258146,
                1.3925940835578783,
                3.1808245966594666
            ]
        },
        {
            "positions": [
                -2.8846453733432083,
                -1.0047979997970733,
                1.7912436808455692,
                -0.7602072167048338,
                1.5720915070212458,
                3.1926502221216895
            ]
        },
        {
            "positions": [
                -2.966850347564928,
                -0.9730584622893478,
                1.7473187540143524,
                -0.7449081241515216,
                1.7515889304846128,
                3.204475847583913
            ]
        }
    ]
}