{
    "goal": {
        "global_pose": {
            "orientation": {
                "w": -0.4816463035849501,
                "x": 0.5182115481033762,
                "y": 0.4908360881923453,
                "z": -0.5084816262002911
            },
            "position": {
                "x": -0.8240239810943604,
                "y": -0.300875300988555,
                "z": 0.16403168439865112
            }
        },
        "name": "move_to_storage_C"
    },
    "id": "ProjEST_move_to_storage_C_66",
    "joint_names": [
        "shoulder_pan_joint",
        "shoulder_lift_joint",
        "elbow_joint",
        "wrist_1_joint",
        "wrist_2_joint",
        "wrist_3_joint"
    ],
    "metrics": {
        "cart_traj_len": 0.5760433241740909,
        "distance_elbow_joint": 0.2584590921663099,
        "distance_shoulder_lift_joint": 0.1901617941376912,
        "distance_shoulder_pan_joint": 0.4922741210911967,
        "distance_wrist_1_joint": 0.07470362132514918,
        "distance_wrist_2_joint": 1.0773791534352237,
        "distance_wrist_3_joint": 0.059932060033430545,
        "smoothness": 2.5376526478085547e-16,
        "time": 0.018805195,
        "traj_len": 1.467279742308535,
        "weighted_distance": 1.8506368463359404
    },
    "planner": "ProjEST",
    "start": {
        "state": {
            "elbow_joint": 2.010868315001653,
            "shoulder_lift_joint": -1.1634956873357014,
            "shoulder_pan_joint": -2.4736205022346103,
            "wrist_1_joint": -0.8367026794713948,
            "wrist_2_joint": 0.6746043897044093,
            "wrist_3_joint": 3.1335220948105738
        }
    },
    "waypoints": [
        {
            "positions": [
                -2.4736205022346103,
                -1.1634956873357014,
                2.010868315001653,
                -0.8367026794713948,
                0.6746043897044093,
                3.1335220948105738
            ]
        },
        {
            "positions": [
                -2.555666189083143,
                -1.1318020549794197,
                1.9677917996406014,
                -0.8242520759172032,
                0.8541675819436132,
                3.1435107714828123
            ]
        },
        {
            "positions": [
                -2.637711875931676,
                -1.1001084226231377,
                1.9247152842795499,
                -0.8118014723630117,
                1.0337307741828172,
                3.1534994481550505
            ]
        },
        {
            "positions": [
                -2.7197575627802086,
                -1.0684147902668557,
                1.8816387689184981,
                -0.7993508688088202,
                1.2132939664220213,
                3.163488124827289
            ]
        },
        {
            "positions": [
                -2.8018032496287413,
                -1.036721157910574,
                1.8385622535574464,
                -0.7869002652546286,
                1.392857158661225,
                3.1734768014995276
            ]
        },
        {
            "positions": [
                -2.8838489364772744,
                -1.0050275255542922,
                1.795485738196395,
                -0.774449661700437,
                1.572420350900429,
                3.1834654781717657
            ]
        },
        {
            "positions": [
                -2.965894623325807,
                -0.9733338931980102,
                1.7524092228353432,
                -0.7619990581462456,
                1.751983543139633,
                3.1934541548440043
            ]
        }
    ]
}