{
    "goal": {
        "global_pose": {
            "orientation": {
                "w": 0.005598929693374612,
                "x": 0.007748599140229565,
                "y": 0.7110244013736278,
                "z": -0.7031023480610252
            },
            "position": {
                "x": -0.8858502320852131,
                "y": -0.7141253447532654,
                "z": 0.3711530566215515
            }
        },
        "name": "move_to_auspresseinheit_C"
    },
    "id": "ProjEST_move_to_auspresseinheit_C_74",
    "joint_names": [
        "shoulder_pan_joint",
        "shoulder_lift_joint",
        "elbow_joint",
        "wrist_1_joint",
        "wrist_2_joint",
        "wrist_3_joint"
    ],
    "metrics": {
        "cart_traj_len": 0.49456699486240124,
        "distance_elbow_joint": 1.0197296628022219,
        "distance_shoulder_lift_joint": 0.3346525343322333,
        "distance_shoulder_pan_joint": 0.2564896408992783,
        "distance_wrist_1_joint": 0.715109025231282,
        "distance_wrist_2_joint": 1.3187560935692715,
        "distance_wrist_3_joint": 0.09290560676652992,
        "smoothness": 6.45947944157498e-16,
        "time": 0.915061468,
        "traj_len": 1.933298363833378,
        "weighted_distance": 2.440761949870251
    },
    "planner": "ProjEST",
    "start": {
        "state": {
            "elbow_joint": 1.752795957773711,
            "shoulder_lift_joint": -0.9740617694225064,
            "shoulder_pan_joint": -2.967991417825858,
            "wrist_1_joint": -0.7595177689806859,
            "wrist_2_joint": 1.7443932448377395,
            "wrist_3_joint": 3.199131542505932
        }
    },
    "waypoints": [
        {
            "positions": [
                -2.967991417825858,
                -0.9740617694225064,
                1.752795957773711,
                -0.7595177689806859,
                1.7443932448377395,
                3.199131542505932
            ]
        },
        {
            "positions": [
                -2.94234245373593,
                -0.9405965159892831,
                1.6508229914934889,
                -0.6880068664575577,
                1.6125176354808124,
                3.189840981829279
            ]
        },
        {
            "positions": [
                -2.9166934896460024,
                -0.9071312625560598,
                1.5488500252132666,
                -0.6164959639344295,
                1.4806420261238853,
                3.1805504211526263
            ]
        },
        {
            "positions": [
                -2.8910445255560746,
                -0.8736660091228364,
                1.4468770589330446,
                -0.5449850614113013,
                1.3487664167669582,
                3.171259860475973
            ]
        },
        {
            "positions": [
                -2.865395561466147,
                -0.8402007556896132,
                1.3449040926528224,
                -0.4734741588881731,
                1.2168908074100309,
                3.16196929979932
            ]
        },
        {
            "positions": [
                -2.8397465973762186,
                -0.8067355022563898,
                1.2429311263726002,
                -0.40196325636504493,
                1.0850151980531038,
                3.152678739122667
            ]
        },
        {
            "positions": [
                -2.814097633286291,
                -0.7732702488231664,
                1.140958160092378,
                -0.33045235384191673,
                0.9531395886961767,
                3.1433881784460143
            ]
        },
        {
            "positions": [
                -2.788448669196363,
                -0.7398049953899432,
                1.038985193812156,
                -0.25894145131878854,
                0.8212639793392496,
                3.134097617769361
            ]
        },
        {
            "positions": [
                -2.7627997051064352,
                -0.7063397419567198,
                0.9370122275319336,
                -0.18743054879566035,
                0.6893883699823222,
                3.124807057092708
            ]
        },
        {
            "positions": [
                -2.7371507410165075,
                -0.6728744885234965,
                0.8350392612517114,
                -0.11591964627253215,
                0.5575127606253951,
                3.1155164964160553
            ]
        },
        {
            "positions": [
                -2.7115017769265797,
                -0.6394092350902731,
                0.7330662949714893,
                -0.04440874374940396,
                0.4256371512684681,
                3.106225935739402
            ]
        }
    ]
}