{
    "goal": {
        "global_pose": {
            "orientation": {
                "w": 0.7047431468963623,
                "x": -0.7094548344612122,
                "y": 0.0024358443915843964,
                "z": -0.0022348060738295317
            },
            "position": {
                "x": 0.6094750761985779,
                "y": 0.3671506643295288,
                "z": 0.19426114857196808
            }
        },
        "name": "move_to_magneteinheit_A"
    },
    "id": "ProjEST_move_to_magneteinheit_A_141",
    "joint_names": [
        "shoulder_pan_joint",
        "shoulder_lift_joint",
        "elbow_joint",
        "wrist_1_joint",
        "wrist_2_joint",
        "wrist_3_joint"
    ],
    "metrics": {
        "cart_traj_len": 1.0534622163801528,
        "distance_elbow_joint": 0.40829806313843675,
        "distance_shoulder_lift_joint": 0.35347115948994,
        "distance_shoulder_pan_joint": 1.241586166943024,
        "distance_wrist_1_joint": 2.323332565890898,
        "distance_wrist_2_joint": 1.7067513232351774,
        "distance_wrist_3_joint": 1.118573410089276,
        "smoothness": 0.0,
        "time": 0.055452402000000005,
        "traj_len": 2.6743247164072566,
        "weighted_distance": 3.663228548438028
    },
    "planner": "ProjEST",
    "start": {
        "state": {
            "elbow_joint": 1.5739458966750683,
            "shoulder_lift_joint": -1.4977259741207325,
            "shoulder_pan_joint": -1.1188672016454206,
            "wrist_1_joint": 1.494575848278785,
            "wrist_2_joint": -1.5706037134824402,
            "wrist_3_joint": -2.0226957942261072
        }
    },
    "waypoints": [
        {
            "positions": [
                -1.1188672016454206,
                -1.4977259741207325,
                1.5739458966750683,
                1.494575848278785,
                -1.5706037134824402,
                -2.0226957942261072
            ]
        },
        {
            "positions": [
                -1.0535205612799983,
                -1.47912222888442,
                1.5954352684191966,
                1.3722951869161062,
                -1.4807746964700625,
                -2.0815680789676483
            ]
        },
        {
            "positions": [
                -0.988173920914576,
                -1.4605184836481073,
                1.6169246401633248,
                1.2500145255534274,
                -1.3909456794576847,
                -2.140440363709189
            ]
        },
        {
            "positions": [
                -0.9228272805491538,
                -1.4419147384117945,
                1.638414011907453,
                1.1277338641907484,
                -1.301116662445307,
                -2.19931264845073
            ]
        },
        {
            "positions": [
                -0.8574806401837314,
                -1.423310993175482,
                1.6599033836515813,
                1.0054532028280696,
                -1.2112876454329293,
                -2.2581849331922705
            ]
        },
        {
            "positions": [
                -0.7921339998183091,
                -1.4047072479391693,
                1.6813927553957095,
                0.8831725414653908,
                -1.1214586284205514,
                -2.3170572179338116
            ]
        },
        {
            "positions": [
                -0.7267873594528869,
                -1.3861035027028568,
                1.7028821271398378,
                0.760891880102712,
                -1.0316296114081736,
                -2.375929502675352
            ]
        },
        {
            "positions": [
                -0.6614407190874645,
                -1.3674997574665442,
                1.724371498883966,
                0.6386112187400331,
                -0.9418005943957959,
                -2.4348017874168932
            ]
        },
        {
            "positions": [
                -0.5960940787220421,
                -1.3488960122302314,
                1.7458608706280943,
                0.5163305573773543,
                -0.8519715773834182,
                -2.493674072158434
            ]
        },
        {
            "positions": [
                -0.5307474383566199,
                -1.3302922669939188,
                1.7673502423722225,
                0.39404989601467544,
                -0.7621425603710404,
                -2.552546356899975
            ]
        },
        {
            "positions": [
                -0.4654007979911976,
                -1.3116885217576062,
                1.788839614116351,
                0.27176923465199665,
                -0.6723135433586627,
                -2.6114186416415155
            ]
        },
        {
            "positions": [
                -0.40005415762577523,
                -1.2930847765212936,
                1.8103289858604792,
                0.14948857328931764,
                -0.5824845263462848,
                -2.6702909263830565
            ]
        },
        {
            "positions": [
                -0.33470751726035297,
                -1.274481031284981,
                1.8318183576046074,
                0.027207911926639072,
                -0.4926555093339071,
                -2.729163211124597
            ]
        },
        {
            "positions": [
                -0.2693608768949306,
                -1.2558772860486682,
                1.8533077293487357,
                -0.09507274943603994,
                -0.40282649232152923,
                -2.788035495866138
            ]
        },
        {
            "positions": [
                -0.20401423652950834,
                -1.2372735408123556,
                1.874797101092864,
                -0.21735341079871873,
                -0.31299747530915156,
                -2.846907780607679
            ]
        },
        {
            "positions": [
                -0.13866759616408597,
                -1.218669795576043,
                1.8962864728369921,
                -0.3396340721613975,
                -0.2231684582967739,
                -2.90578006534922
            ]
        },
        {
            "positions": [
                -0.0733209557986636,
                -1.2000660503397305,
                1.9177758445811204,
                -0.4619147335240763,
                -0.13333944128439623,
                -2.9646523500907604
            ]
        },
        {
            "positions": [
                -0.00797431543324123,
                -1.1814623051034179,
                1.9392652163252486,
                -0.5841953948867553,
                -0.043510424272018344,
                -3.0235246348323015
            ]
        },
        {
            "positions": [
                0.05737232493218092,
                -1.162858559867105,
                1.9607545880693769,
                -0.7064760562494341,
                0.04631859274035932,
                -3.082396919573842
            ]
        },
        {
            "positions": [
                0.12271896529760336,
                -1.1442548146307925,
                1.982243959813505,
                -0.8287567176121128,
                0.13614760975273715,
                -3.141269204315383
            ]
        }
    ]
}