{
    "goal": {
        "global_pose": {
            "orientation": {
                "w": -0.00223480608172531,
                "x": 0.0024358444001904467,
                "y": 0.7094548369677653,
                "z": -0.704743149386269
            },
            "position": {
                "x": 0.6205249238014221,
                "y": -0.6371506643295288,
                "z": 0.19426114857196808
            }
        },
        "name": "move_to_magneteinheit_B"
    },
    "id": "ProjEST_move_to_magneteinheit_B_49",
    "joint_names": [
        "shoulder_pan_joint",
        "shoulder_lift_joint",
        "elbow_joint",
        "wrist_1_joint",
        "wrist_2_joint",
        "wrist_3_joint"
    ],
    "metrics": {
        "cart_traj_len": 1.453299741481064,
        "distance_elbow_joint": 0.7232047216550586,
        "distance_shoulder_lift_joint": 1.2427492126345192,
        "distance_shoulder_pan_joint": 1.622085609114067,
        "distance_wrist_1_joint": 2.6239246791733852,
        "distance_wrist_2_joint": 2.9349677488659562,
        "distance_wrist_3_joint": 3.1510914560740293,
        "smoothness": 2.153159807199991e-16,
        "time": 0.052882339,
        "traj_len": 3.5068537790328556,
        "weighted_distance": 4.915190613567741
    },
    "planner": "ProjEST",
    "start": {
        "state": {
            "elbow_joint": 2.3935871308073637,
            "shoulder_lift_joint": -1.9085141043777403,
            "shoulder_pan_joint": 0.7066247067284167,
            "wrist_1_joint": -0.46782909355067076,
            "wrist_2_joint": 0.7096259085804283,
            "wrist_3_joint": -3.1358149275257428
        }
    },
    "waypoints": [
        {
            "positions": [
                0.7066247067284167,
                -1.9085141043777403,
                2.3935871308073637,
                -0.46782909355067076,
                0.7096259085804283,
                -3.1358149275257428
            ]
        },
        {
            "positions": [
                0.6559345314436021,
                -1.8696781914829115,
                2.370986983255643,
                -0.3858314473265025,
                0.6179081664283672,
                -3.0373433195234294
            ]
        },
        {
            "positions": [
                0.6052443561587875,
                -1.830842278588083,
                2.3483868357039226,
                -0.30383380110233416,
                0.526190424276306,
                -2.938871711521116
            ]
        },
        {
            "positions": [
                0.5545541808739729,
                -1.792006365693254,
                2.325786688152202,
                -0.22183615487816588,
                0.4344726821242449,
                -2.8404001035188027
            ]
        },
        {
            "positions": [
                0.5038640055891583,
                -1.7531704527984253,
                2.3031865406004814,
                -0.1398385086539976,
                0.34275493997218376,
                -2.741928495516489
            ]
        },
        {
            "positions": [
                0.45317383030434377,
                -1.7143345399035965,
                2.2805863930487607,
                -0.05784086242982933,
                0.2510371978201226,
                -2.6434568875141755
            ]
        },
        {
            "positions": [
                0.40248365501952915,
                -1.675498627008768,
                2.2579862454970403,
                0.024156783794339,
                0.1593194556680615,
                -2.544985279511862
            ]
        },
        {
            "positions": [
                0.35179347973471453,
                -1.6366627141139392,
                2.2353860979453195,
                0.10615443001850727,
                0.06760171351600042,
                -2.446513671509549
            ]
        },
        {
            "positions": [
                0.30110330444989997,
                -1.5978268012191106,
                2.212785950393599,
                0.18815207624267555,
                -0.02411602863606077,
                -2.3480420635072354
            ]
        },
        {
            "positions": [
                0.2504131291650854,
                -1.5589908883242818,
                2.1901858028418784,
                0.2701497224668438,
                -0.11583377078812196,
                -2.249570455504922
            ]
        },
        {
            "positions": [
                0.19972295388027084,
                -1.520154975429453,
                2.167585655290158,
                0.3521473686910121,
                -0.20755151294018304,
                -2.1510988475026087
            ]
        },
        {
            "positions": [
                0.14903277859545616,
                -1.4813190625346242,
                2.144985507738437,
                0.43414501491518037,
                -0.2992692550922441,
                -2.0526272395002954
            ]
        },
        {
            "positions": [
                0.0983426033106416,
                -1.4424831496397956,
                2.122385360186717,
                0.5161426611393487,
                -0.3909869972443053,
                -1.9541556314979818
            ]
        },
        {
            "positions": [
                0.04765242802582703,
                -1.4036472367449668,
                2.099785212634996,
                0.598140307363517,
                -0.4827047393963665,
                -1.8556840234956684
            ]
        },
        {
            "positions": [
                -0.003037747258987644,
                -1.3648113238501383,
                2.0771850650832757,
                0.6801379535876853,
                -0.5744224815484275,
                -1.7572124154933548
            ]
        },
        {
            "positions": [
                -0.05372792254380221,
                -1.3259754109553095,
                2.054584917531555,
                0.7621355998118535,
                -0.6661402237004886,
                -1.6587408074910415
            ]
        },
        {
            "positions": [
                -0.10441809782861677,
                -1.2871394980604807,
                2.0319847699798346,
                0.8441332460360218,
                -0.7578579658525498,
                -1.560269199488728
            ]
        },
        {
            "positions": [
                -0.15510827311343134,
                -1.2483035851656519,
                2.0093846224281138,
                0.9261308922601901,
                -0.849575708004611,
                -1.4617975914864147
            ]
        },
        {
            "positions": [
                -0.2057984483982459,
                -1.209467672270823,
                1.9867844748763934,
                1.0081285384843583,
                -0.9412934501566722,
                -1.3633259834841014
            ]
        },
        {
            "positions": [
                -0.2564886236830606,
                -1.1706317593759945,
                1.9641843273246726,
                1.0901261847085266,
                -1.033011192308733,
                -1.2648543754817878
            ]
        },
        {
            "positions": [
                -0.30717879896787503,
                -1.1317958464811657,
                1.9415841797729523,
                1.172123830932695,
                -1.1247289344607942,
                -1.1663827674794744
            ]
        },
        {
            "positions": [
                -0.3578689742526898,
                -1.0929599335863371,
                1.9189840322212315,
                1.2541214771568632,
                -1.2164466766128554,
                -1.0679111594771609
            ]
        },
        {
            "positions": [
                -0.4085591495375044,
                -1.0541240206915083,
                1.896383884669511,
                1.3361191233810314,
                -1.3081644187649166,
                -0.9694395514748475
            ]
        },
        {
            "positions": [
                -0.45924932482231895,
                -1.0152881077966796,
                1.8737837371177903,
                1.4181167696051997,
                -1.3998821609169778,
                -0.8709679434725341
            ]
        },
        {
            "positions": [
                -0.5099395001071335,
                -0.9764521949018509,
                1.8511835895660698,
                1.5001144158293682,
                -1.491599903069039,
                -0.7724963354702208
            ]
        },
        {
            "positions": [
                -0.5606296753919481,
                -0.9376162820070222,
                1.8285834420143492,
                1.5821120620535365,
                -1.5833176452211002,
                -0.6740247274679074
            ]
        },
        {
            "positions": [
                -0.6113198506767626,
                -0.8987803691121934,
                1.8059832944626286,
                1.6641097082777048,
                -1.6750353873731614,
                -0.5755531194655941
            ]
        },
        {
            "positions": [
                -0.6620100259615772,
                -0.8599444562173646,
                1.783383146910908,
                1.746107354501873,
                -1.7667531295252226,
                -0.4770815114632807
            ]
        },
        {
            "positions": [
                -0.712700201246392,
                -0.821108543322536,
                1.7607829993591875,
                1.8281050007260413,
                -1.8584708716772833,
                -0.3786099034609669
            ]
        },
        {
            "positions": [
                -0.7633903765312066,
                -0.7822726304277072,
                1.738182851807467,
                1.9101026469502096,
                -1.9501886138293445,
                -0.28013829545865354
            ]
        },
        {
            "positions": [
                -0.8140805518160211,
                -0.7434367175328784,
                1.7155827042557463,
                1.9921002931743779,
                -2.0419063559814057,
                -0.18166668745634018
            ]
        },
        {
            "positions": [
                -0.8647707271008357,
                -0.7046008046380499,
                1.6929825567040258,
                2.074097939398546,
                -2.133624098133467,
                -0.08319507945402682
            ]
        },
        {
            "positions": [
                -0.9154609023856501,
                -0.6657648917432211,
                1.6703824091523052,
                2.1560955856227144,
                -2.225341840285528,
                0.015276528548286641
            ]
        }
    ]
}