{
    "goal": {
        "global_pose": {
            "orientation": {
                "w": 0.005598929693374612,
                "x": 0.007748599140229565,
                "y": 0.7110244013736278,
                "z": -0.7031023480610252
            },
            "position": {
                "x": -0.8858502320852131,
                "y": -0.7141253447532654,
                "z": 0.3711530566215515
            }
        },
        "name": "move_to_auspresseinheit_C"
    },
    "id": "ProjEST_move_to_auspresseinheit_C_71",
    "joint_names": [
        "shoulder_pan_joint",
        "shoulder_lift_joint",
        "elbow_joint",
        "wrist_1_joint",
        "wrist_2_joint",
        "wrist_3_joint"
    ],
    "metrics": {
        "cart_traj_len": 0.49299550139019455,
        "distance_elbow_joint": 1.0022532147386207,
        "distance_shoulder_lift_joint": 0.3269091893412702,
        "distance_shoulder_pan_joint": 0.2561265992079136,
        "distance_wrist_1_joint": 0.6789261990508441,
        "distance_wrist_2_joint": 1.3193593755910398,
        "distance_wrist_3_joint": 0.06455208882513519,
        "smoothness": 9.689219039026152e-16,
        "time": 0.174924882,
        "traj_len": 1.910006980813113,
        "weighted_distance": 2.4032304132244535
    },
    "planner": "ProjEST",
    "start": {
        "state": {
            "elbow_joint": 1.752795957773711,
            "shoulder_lift_joint": -0.9740617694225064,
            "shoulder_pan_joint": -2.967991417825858,
            "wrist_1_joint": -0.7595177689806859,
            "wrist_2_joint": 1.7443932448377395,
            "wrist_3_joint": 3.199131542505932
        }
    },
    "waypoints": [
        {
            "positions": [
                -2.967991417825858,
                -0.9740617694225064,
                1.752795957773711,
                -0.7595177689806859,
                1.7443932448377395,
                3.199131542505932
            ]
        },
        {
            "positions": [
                -2.9423787579050664,
                -0.9413708504883794,
                1.6525706362998491,
                -0.6916251490756015,
                1.6124573072786355,
                3.1926763336234187
            ]
        },
        {
            "positions": [
                -2.9167660979842753,
                -0.9086799315542524,
                1.552345314825987,
                -0.6237325291705171,
                1.4805213697195314,
                3.186221124740905
            ]
        },
        {
            "positions": [
                -2.891153438063484,
                -0.8759890126201254,
                1.452119993352125,
                -0.5558399092654327,
                1.3485854321604276,
                3.1797659158583915
            ]
        },
        {
            "positions": [
                -2.8655407781426927,
                -0.8432980936859984,
                1.3518946718782627,
                -0.48794728936034826,
                1.2166494946013235,
                3.173310706975878
            ]
        },
        {
            "positions": [
                -2.839928118221901,
                -0.8106071747518713,
                1.2516693504044007,
                -0.4200546694552639,
                1.0847135570422197,
                3.1668554980933648
            ]
        },
        {
            "positions": [
                -2.8143154583011096,
                -0.7779162558177444,
                1.1514440289305385,
                -0.3521620495501795,
                0.9527776194831157,
                3.160400289210851
            ]
        },
        {
            "positions": [
                -2.7887027983803185,
                -0.7452253368836173,
                1.0512187074566768,
                -0.2842694296450951,
                0.8208416819240117,
                3.1539450803283375
            ]
        },
        {
            "positions": [
                -2.763090138459527,
                -0.7125344179494902,
                0.9509933859828145,
                -0.2163768097400106,
                0.6889057443649076,
                3.147489871445824
            ]
        },
        {
            "positions": [
                -2.737477478538736,
                -0.6798434990153632,
                0.8507680645089525,
                -0.14848418983492628,
                0.5569698068058038,
                3.1410346625633103
            ]
        },
        {
            "positions": [
                -2.7118648186179444,
                -0.6471525800812362,
                0.7505427430350904,
                -0.08059156992984182,
                0.42503386924669967,
                3.134579453680797
            ]
        }
    ]
}