{
    "goal": {
        "global_pose": {
            "orientation": {
                "w": -0.4816463035849501,
                "x": 0.5182115481033762,
                "y": 0.4908360881923453,
                "z": -0.5084816262002911
            },
            "position": {
                "x": -0.8240239810943604,
                "y": -0.300875300988555,
                "z": 0.16403168439865112
            }
        },
        "name": "move_to_storage_C"
    },
    "id": "ProjEST_move_to_storage_C_123",
    "joint_names": [
        "shoulder_pan_joint",
        "shoulder_lift_joint",
        "elbow_joint",
        "wrist_1_joint",
        "wrist_2_joint",
        "wrist_3_joint"
    ],
    "metrics": {
        "cart_traj_len": 0.5771849033425918,
        "distance_elbow_joint": 0.26078394941847916,
        "distance_shoulder_lift_joint": 0.18925217418873275,
        "distance_shoulder_pan_joint": 0.49491791401355023,
        "distance_wrist_1_joint": 0.08909046381826757,
        "distance_wrist_2_joint": 1.0710368787958107,
        "distance_wrist_3_joint": 0.06236810940842297,
        "smoothness": 0.0,
        "time": 0.013023063999999999,
        "traj_len": 1.472226032117101,
        "weighted_distance": 1.8580401101898172
    },
    "planner": "ProjEST",
    "start": {
        "state": {
            "elbow_joint": 2.010868315001653,
            "shoulder_lift_joint": -1.1634956873357014,
            "shoulder_pan_joint": -2.4736205022346103,
            "wrist_1_joint": -0.8367026794713948,
            "wrist_2_joint": 0.6746043897044093,
            "wrist_3_joint": 3.1335220948105738
        }
    },
    "waypoints": [
        {
            "positions": [
                -2.4736205022346103,
                -1.1634956873357014,
                2.010868315001653,
                -0.8367026794713948,
                0.6746043897044093,
                3.1335220948105738
            ]
        },
        {
            "positions": [
                -2.5561068212368685,
                -1.131953658304246,
                1.9674043234319065,
                -0.8218542688350168,
                0.8531105361703777,
                3.1439167797119776
            ]
        },
        {
            "positions": [
                -2.638593140239127,
                -1.1004116292727906,
                1.92394033186216,
                -0.8070058581986389,
                1.0316166826363462,
                3.1543114646133814
            ]
        },
        {
            "positions": [
                -2.7210794592413854,
                -1.0688696002413351,
                1.8804763402924136,
                -0.792157447562261,
                1.2101228291023145,
                3.1647061495147852
            ]
        },
        {
            "positions": [
                -2.8035657782436436,
                -1.0373275712098795,
                1.837012348722667,
                -0.777309036925883,
                1.388628975568283,
                3.175100834416189
            ]
        },
        {
            "positions": [
                -2.8860520972459023,
                -1.005785542178424,
                1.7935483571529205,
                -0.7624606262895051,
                1.5671351220342515,
                3.185495519317593
            ]
        },
        {
            "positions": [
                -2.9685384162481605,
                -0.9742435131469687,
                1.750084365583174,
                -0.7476122156531272,
                1.74564126850022,
                3.1958902042189967
            ]
        }
    ]
}