{
    "goal": {
        "global_pose": {
            "orientation": {
                "w": -0.00223480608172531,
                "x": 0.0024358444001904467,
                "y": 0.7094548369677653,
                "z": -0.704743149386269
            },
            "position": {
                "x": -0.37947507619857795,
                "y": -0.6371506643295288,
                "z": 0.19426114857196808
            }
        },
        "name": "move_to_magneteinheit_C"
    },
    "id": "ProjEST_move_to_magneteinheit_C_146",
    "joint_names": [
        "shoulder_pan_joint",
        "shoulder_lift_joint",
        "elbow_joint",
        "wrist_1_joint",
        "wrist_2_joint",
        "wrist_3_joint"
    ],
    "metrics": {
        "cart_traj_len": 0.8257559823152217,
        "distance_elbow_joint": 0.35144331504537973,
        "distance_shoulder_lift_joint": 0.6509985913624923,
        "distance_shoulder_pan_joint": 0.8023292374906816,
        "distance_wrist_1_joint": 1.3170815055857168,
        "distance_wrist_2_joint": 2.047994868405493,
        "distance_wrist_3_joint": 5.308127289113107,
        "smoothness": 0.6344959662218901,
        "time": 0.79612728,
        "traj_len": 3.2369700040319915,
        "weighted_distance": 4.94563502082597
    },
    "planner": "ProjEST",
    "start": {
        "state": {
            "elbow_joint": 1.9565354006590394,
            "shoulder_lift_joint": -1.4165861576513559,
            "shoulder_pan_joint": -1.6717766223277177,
            "wrist_1_joint": -0.5286633288215096,
            "wrist_2_joint": 1.4727565892594296,
            "wrist_3_joint": 3.1593482883155493
        }
    },
    "waypoints": [
        {
            "positions": [
                -1.6717766223277177,
                -1.4165861576513559,
                1.9565354006590394,
                -0.5286633288215096,
                1.4727565892594296,
                3.1593482883155493
            ]
        },
        {
            "positions": [
                -1.6899680869640208,
                -1.434388025174442,
                1.942849749617064,
                -0.4942251603859405,
                1.5295962543894068,
                2.9162171267792902
            ]
        },
        {
            "positions": [
                -1.7081595516003238,
                -1.452189892697528,
                1.9291640985750886,
                -0.4597869919503715,
                1.586435919519384,
                2.6730859652430308
            ]
        },
        {
            "positions": [
                -1.726351016236627,
                -1.4699917602206143,
                1.9154784475331132,
                -0.4253488235148024,
                1.6432755846493612,
                2.4299548037067717
            ]
        },
        {
            "positions": [
                -1.74454248087293,
                -1.4877936277437003,
                1.9017927964911379,
                -0.3909106550792334,
                1.7001152497793384,
                2.1868236421705127
            ]
        },
        {
            "positions": [
                -1.762733945509233,
                -1.5055954952667865,
                1.8881071454491625,
                -0.3564724866436644,
                1.7569549149093153,
                1.9436924806342535
            ]
        },
        {
            "positions": [
                -1.780925410145536,
                -1.5233973627898725,
                1.8744214944071873,
                -0.3220343182080953,
                1.8137945800392925,
                1.7005613190979942
            ]
        },
        {
            "positions": [
                -1.7991168747818391,
                -1.5411992303129587,
                1.860735843365212,
                -0.28759614977252623,
                1.8706342451692697,
                1.457430157561735
            ]
        },
        {
            "positions": [
                -1.8173083394181422,
                -1.5590010978360447,
                1.8470501923232365,
                -0.25315798133695716,
                1.9274739102992469,
                1.2142989960254758
            ]
        },
        {
            "positions": [
                -1.8354998040544452,
                -1.576802965359131,
                1.8333645412812611,
                -0.21871981290138814,
                1.984313575429224,
                0.9711678344892163
            ]
        },
        {
            "positions": [
                -1.8536912686907483,
                -1.5946048328822169,
                1.8196788902392858,
                -0.18428164446581913,
                2.0411532405592014,
                0.7280366729529577
            ]
        },
        {
            "positions": [
                -1.8718827333270514,
                -1.612406700405303,
                1.8059932391973104,
                -0.14984347603025006,
                2.0979929056891784,
                0.48490551141669824
            ]
        },
        {
            "positions": [
                -1.9766387927928697,
                -1.6133225056677094,
                1.8519138129607922,
                -0.10540808960167496,
                2.0939865307854353,
                0.6131342097675174
            ]
        },
        {
            "positions": [
                -2.081394852258688,
                -1.614238310930116,
                1.897834386724274,
                -0.06097270317309986,
                2.089980155881692,
                0.7413629081183367
            ]
        },
        {
            "positions": [
                -2.186150911724506,
                -1.6151541161925222,
                1.9437549604877558,
                -0.016537316744524758,
                2.085973780977949,
                0.869591606469156
            ]
        },
        {
            "positions": [
                -2.211432158230596,
                -1.5824918586832295,
                1.9503342322330335,
                -0.07311881416435292,
                1.9837711527113775,
                1.0378870077630873
            ]
        },
        {
            "positions": [
                -2.236713404736686,
                -1.5498296011739368,
                1.956913503978311,
                -0.1297003115841811,
                1.8815685244448057,
                1.2061824090570183
            ]
        },
        {
            "positions": [
                -2.2619946512427758,
                -1.5171673436646442,
                1.9634927757235887,
                -0.18628180900400926,
                1.7793658961782342,
                1.3744778103509496
            ]
        },
        {
            "positions": [
                -2.2872758977488656,
                -1.4845050861553515,
                1.9700720474688662,
                -0.2428633064238374,
                1.6771632679116626,
                1.5427732116448807
            ]
        },
        {
            "positions": [
                -2.312557144254956,
                -1.4518428286460587,
                1.976651319214144,
                -0.2994448038436656,
                1.5749606396450908,
                1.7110686129388122
            ]
        },
        {
            "positions": [
                -2.337838390761046,
                -1.419180571136766,
                1.9832305909594214,
                -0.35602630126349377,
                1.4727580113785192,
                1.8793640142327432
            ]
        },
        {
            "positions": [
                -2.3631196372671357,
                -1.3865183136274735,
                1.9898098627046992,
                -0.4126077986833219,
                1.3705553831119475,
                2.0476594155266747
            ]
        },
        {
            "positions": [
                -2.3884008837732256,
                -1.3538560561181807,
                1.9963891344499767,
                -0.4691892961031501,
                1.2683527548453761,
                2.215954816820606
            ]
        },
        {
            "positions": [
                -2.4136821302793154,
                -1.321193798608888,
                2.0029684061952544,
                -0.5257707935229783,
                1.1661501265788043,
                2.384250218114537
            ]
        },
        {
            "positions": [
                -2.425766876187132,
                -1.2894997355613496,
                2.0037536035123957,
                -0.5849151968690339,
                1.0679669720057303,
                2.5311181792178203
            ]
        },
        {
            "positions": [
                -2.437851622094949,
                -1.2578056725138114,
                2.004538800829537,
                -0.6440596002150896,
                0.9697838174326563,
                2.6779861403211043
            ]
        },
        {
            "positions": [
                -2.4499363680027657,
                -1.226111609466273,
                2.0053239981466784,
                -0.7032040035611453,
                0.8716006628595823,
                2.8248541014243878
            ]
        },
        {
            "positions": [
                -2.4620211139105828,
                -1.1944175464187348,
                2.0061091954638197,
                -0.762348406907201,
                0.7734175082865082,
                2.9717220625276717
            ]
        },
        {
            "positions": [
                -2.4741058598183994,
                -1.1627234833711964,
                2.006894392780961,
                -0.8214928102532566,
                0.6752343537134343,
                3.118590023630955
            ]
        }
    ]
}