{
    "goal": {
        "global_pose": {
            "orientation": {
                "w": 0.7047431468963623,
                "x": -0.7094548344612122,
                "y": 0.0024358443915843964,
                "z": -0.0022348060738295317
            },
            "position": {
                "x": 0.6094750761985779,
                "y": 0.3671506643295288,
                "z": 0.19426114857196808
            }
        },
        "name": "move_to_magneteinheit_A"
    },
    "id": "ProjEST_move_to_magneteinheit_A_45",
    "joint_names": [
        "shoulder_pan_joint",
        "shoulder_lift_joint",
        "elbow_joint",
        "wrist_1_joint",
        "wrist_2_joint",
        "wrist_3_joint"
    ],
    "metrics": {
        "cart_traj_len": 1.052676696200996,
        "distance_elbow_joint": 0.4152985672123275,
        "distance_shoulder_lift_joint": 0.34814364109238083,
        "distance_shoulder_pan_joint": 1.2423182589816104,
        "distance_wrist_1_joint": 2.3570031922085324,
        "distance_wrist_2_joint": 1.6961990186532963,
        "distance_wrist_3_joint": 1.0912911029455463,
        "smoothness": 7.993605840596945e-16,
        "time": 0.173974323,
        "traj_len": 2.6739958453770445,
        "weighted_distance": 3.6586935096898476
    },
    "planner": "ProjEST",
    "start": {
        "state": {
            "elbow_joint": 1.5739458966750683,
            "shoulder_lift_joint": -1.4977259741207325,
            "shoulder_pan_joint": -1.1188672016454206,
            "wrist_1_joint": 1.494575848278785,
            "wrist_2_joint": -1.5706037134824402,
            "wrist_3_joint": -2.0226957942261072
        }
    },
    "waypoints": [
        {
            "positions": [
                -1.1188672016454206,
                -1.4977259741207325,
                1.5739458966750683,
                1.494575848278785,
                -1.5706037134824402,
                -2.0226957942261072
            ]
        },
        {
            "positions": [
                -1.0534820301200727,
                -1.4794026245895546,
                1.5958037160020329,
                1.3705230486888622,
                -1.4813300809217405,
                -2.0801321680653464
            ]
        },
        {
            "positions": [
                -0.9880968585947248,
                -1.4610792750583765,
                1.6176615353289976,
                1.2464702490989394,
                -1.3920564483610407,
                -2.137568541904586
            ]
        },
        {
            "positions": [
                -0.9227116870693769,
                -1.4427559255271987,
                1.639519354655962,
                1.1224174495090167,
                -1.3027828158003407,
                -2.195004915743825
            ]
        },
        {
            "positions": [
                -0.857326515544029,
                -1.4244325759960208,
                1.6613771739829268,
                0.9983646499190939,
                -1.213509183239641,
                -2.2524412895830643
            ]
        },
        {
            "positions": [
                -0.7919413440186811,
                -1.4061092264648427,
                1.6832349933098913,
                0.8743118503291712,
                -1.1242355506789412,
                -2.3098776634223035
            ]
        },
        {
            "positions": [
                -0.7265561724933332,
                -1.3877858769336648,
                1.705092812636856,
                0.7502590507392485,
                -1.0349619181182415,
                -2.3673140372615427
            ]
        },
        {
            "positions": [
                -0.6611710009679852,
                -1.369462527402487,
                1.7269506319638206,
                0.6262062511493257,
                -0.9456882855575416,
                -2.4247504111007823
            ]
        },
        {
            "positions": [
                -0.5957858294426374,
                -1.351139177871309,
                1.748808451290785,
                0.5021534515594029,
                -0.8564146529968418,
                -2.4821867849400214
            ]
        },
        {
            "positions": [
                -0.5304006579172894,
                -1.332815828340131,
                1.7706662706177498,
                0.3781006519694803,
                -0.7671410204361421,
                -2.5396231587792606
            ]
        },
        {
            "positions": [
                -0.46501548639194146,
                -1.3144924788089531,
                1.7925240899447143,
                0.2540478523795575,
                -0.6778673878754422,
                -2.5970595326185
            ]
        },
        {
            "positions": [
                -0.3996303148665935,
                -1.296169129277775,
                1.814381909271679,
                0.12999505278963452,
                -0.5885937553147423,
                -2.6544959064577394
            ]
        },
        {
            "positions": [
                -0.33424514334124567,
                -1.2778457797465972,
                1.8362397285986436,
                0.005942253199711978,
                -0.4993201227540427,
                -2.7119322802969785
            ]
        },
        {
            "positions": [
                -0.2688599718158977,
                -1.2595224302154193,
                1.8580975479256083,
                -0.11811054639021101,
                -0.4100464901933427,
                -2.769368654136218
            ]
        },
        {
            "positions": [
                -0.20347480029054987,
                -1.2411990806842415,
                1.8799553672525728,
                -0.24216334598013356,
                -0.32077285763264296,
                -2.826805027975457
            ]
        },
        {
            "positions": [
                -0.13808962876520192,
                -1.2228757311530634,
                1.9018131865795374,
                -0.36621614557005633,
                -0.2314992250719432,
                -2.8842414018146965
            ]
        },
        {
            "positions": [
                -0.07270445723985408,
                -1.2045523816218855,
                1.923671005906502,
                -0.4902689451599791,
                -0.14222559251124345,
                -2.9416777756539356
            ]
        },
        {
            "positions": [
                -0.00731928571450613,
                -1.1862290320907074,
                1.9455288252334666,
                -0.6143217447499019,
                -0.05295195995054347,
                -2.999114149493175
            ]
        },
        {
            "positions": [
                0.05806588581084182,
                -1.1679056825595295,
                1.967386644560431,
                -0.7383745443398244,
                0.036321672610156064,
                -3.0565505233324144
            ]
        },
        {
            "positions": [
                0.1234510573361897,
                -1.1495823330283517,
                1.9892444638873958,
                -0.8624273439297473,
                0.12559530517085604,
                -3.1139868971716536
            ]
        }
    ]
}