{
    "goal": {
        "global_pose": {
            "orientation": {
                "w": -0.00223480608172531,
                "x": 0.0024358444001904467,
                "y": 0.7094548369677653,
                "z": -0.704743149386269
            },
            "position": {
                "x": 0.6205249238014221,
                "y": -0.6371506643295288,
                "z": 0.19426114857196808
            }
        },
        "name": "move_to_magneteinheit_B"
    },
    "id": "ProjEST_move_to_magneteinheit_B_55",
    "joint_names": [
        "shoulder_pan_joint",
        "shoulder_lift_joint",
        "elbow_joint",
        "wrist_1_joint",
        "wrist_2_joint",
        "wrist_3_joint"
    ],
    "metrics": {
        "cart_traj_len": 1.453090861425324,
        "distance_elbow_joint": 0.7333093726608197,
        "distance_shoulder_lift_joint": 1.2506963165750338,
        "distance_shoulder_pan_joint": 1.6195758469130361,
        "distance_wrist_1_joint": 2.60293918582046,
        "distance_wrist_2_joint": 2.9461374446115856,
        "distance_wrist_3_joint": 3.131245412414921,
        "smoothness": 3.7680296891702773e-16,
        "time": 0.171868725,
        "traj_len": 3.504840021883433,
        "weighted_distance": 4.908713786141717
    },
    "planner": "ProjEST",
    "start": {
        "state": {
            "elbow_joint": 2.3935871308073637,
            "shoulder_lift_joint": -1.9085141043777403,
            "shoulder_pan_joint": 0.7066247067284167,
            "wrist_1_joint": -0.46782909355067076,
            "wrist_2_joint": 0.7096259085804283,
            "wrist_3_joint": -3.1358149275257428
        }
    },
    "waypoints": [
        {
            "positions": [
                0.7066247067284167,
                -1.9085141043777403,
                2.3935871308073637,
                -0.46782909355067076,
                0.7096259085804283,
                -3.1358149275257428
            ]
        },
        {
            "positions": [
                0.6560129615123843,
                -1.8694298444847706,
                2.370671212911713,
                -0.38648724399378137,
                0.6175591134363162,
                -3.0379635083877763
            ]
        },
        {
            "positions": [
                0.6054012162963519,
                -1.8303455845918006,
                2.3477552950160625,
                -0.30514539443689204,
                0.5254923182922042,
                -2.9401120892498103
            ]
        },
        {
            "positions": [
                0.5547894710803196,
                -1.791261324698831,
                2.324839377120412,
                -0.22380354488000265,
                0.43342552314809213,
                -2.842260670111844
            ]
        },
        {
            "positions": [
                0.5041777258642872,
                -1.752177064805861,
                2.3019234592247613,
                -0.14246169532311326,
                0.3413587280039801,
                -2.744409250973878
            ]
        },
        {
            "positions": [
                0.4535659806482548,
                -1.7130928049128913,
                2.2790075413291104,
                -0.06111984576622387,
                0.24929193285986806,
                -2.6465578318359113
            ]
        },
        {
            "positions": [
                0.4029542354322224,
                -1.6740085450199214,
                2.25609162343346,
                0.020222003790665466,
                0.15722513771575597,
                -2.5487064126979453
            ]
        },
        {
            "positions": [
                0.3523424902161901,
                -1.6349242851269516,
                2.2331757055378096,
                0.10156385334755486,
                0.06515834257164399,
                -2.450854993559979
            ]
        },
        {
            "positions": [
                0.3017307450001577,
                -1.595840025233982,
                2.210259787642159,
                0.18290570290444425,
                -0.0269084525724681,
                -2.3530035744220124
            ]
        },
        {
            "positions": [
                0.2511189997841253,
                -1.556755765341012,
                2.187343869746508,
                0.26424755246133363,
                -0.11897524771658019,
                -2.2551521552840463
            ]
        },
        {
            "positions": [
                0.20050725456809293,
                -1.517671505448042,
                2.1644279518508576,
                0.345589402018223,
                -0.21104204286069217,
                -2.15730073614608
            ]
        },
        {
            "positions": [
                0.14989550935206053,
                -1.4785872455550724,
                2.141512033955207,
                0.4269312515751124,
                -0.30310883800480426,
                -2.059449317008114
            ]
        },
        {
            "positions": [
                0.09928376413602813,
                -1.4395029856621027,
                2.1185961160595563,
                0.5082731011320016,
                -0.39517563314891635,
                -1.9615978978701474
            ]
        },
        {
            "positions": [
                0.04867201891999573,
                -1.400418725769133,
                2.0956801981639055,
                0.589614950688891,
                -0.48724242829302844,
                -1.8637464787321811
            ]
        },
        {
            "positions": [
                -0.001939726296036559,
                -1.361334465876163,
                2.072764280268255,
                0.6709568002457804,
                -0.5793092234371403,
                -1.7658950595942147
            ]
        },
        {
            "positions": [
                -0.05255147151206896,
                -1.322250205983193,
                2.0498483623726047,
                0.7522986498026698,
                -0.6713760185812524,
                -1.6680436404562484
            ]
        },
        {
            "positions": [
                -0.10316321672810136,
                -1.2831659460902234,
                2.026932444476954,
                0.8336404993595592,
                -0.7634428137253645,
                -1.5701922213182822
            ]
        },
        {
            "positions": [
                -0.15377496194413376,
                -1.2440816861972537,
                2.004016526581303,
                0.9149823489164486,
                -0.8555096088694766,
                -1.472340802180316
            ]
        },
        {
            "positions": [
                -0.20438670716016616,
                -1.2049974263042837,
                1.9811006086856526,
                0.996324198473338,
                -0.9475764040135887,
                -1.3744893830423497
            ]
        },
        {
            "positions": [
                -0.25499845237619845,
                -1.1659131664113138,
                1.958184690790002,
                1.0776660480302274,
                -1.0396431991577004,
                -1.2766379639043832
            ]
        },
        {
            "positions": [
                -0.30561019759223085,
                -1.126828906518344,
                1.9352687728943514,
                1.1590078975871168,
                -1.1317099943018127,
                -1.178786544766417
            ]
        },
        {
            "positions": [
                -0.35622194280826325,
                -1.0877446466253744,
                1.9123528549987008,
                1.2403497471440061,
                -1.2237767894459246,
                -1.080935125628451
            ]
        },
        {
            "positions": [
                -0.40683368802429565,
                -1.0486603867324047,
                1.8894369371030502,
                1.3216915967008955,
                -1.315843584590037,
                -0.9830837064904845
            ]
        },
        {
            "positions": [
                -0.45744543324032805,
                -1.0095761268394348,
                1.8665210192073995,
                1.403033446257785,
                -1.4079103797341488,
                -0.885232287352518
            ]
        },
        {
            "positions": [
                -0.5080571784563604,
                -0.9704918669464649,
                1.843605101311749,
                1.484375295814674,
                -1.499977174878261,
                -0.787380868214552
            ]
        },
        {
            "positions": [
                -0.5586689236723928,
                -0.9314076070534951,
                1.8206891834160983,
                1.5657171453715635,
                -1.592043970022373,
                -0.6895294490765855
            ]
        },
        {
            "positions": [
                -0.6092806688884252,
                -0.8923233471605254,
                1.7977732655204477,
                1.6470589949284529,
                -1.6841107651664853,
                -0.5916780299386195
            ]
        },
        {
            "positions": [
                -0.6598924141044574,
                -0.8532390872675555,
                1.774857347624797,
                1.7284008444853423,
                -1.7761775603105971,
                -0.49382661080065304
            ]
        },
        {
            "positions": [
                -0.7105041593204898,
                -0.8141548273745858,
                1.7519414297291465,
                1.8097426940422316,
                -1.868244355454709,
                -0.3959751916626866
            ]
        },
        {
            "positions": [
                -0.7611159045365222,
                -0.7750705674816158,
                1.7290255118334958,
                1.891084543599121,
                -1.9603111505988213,
                -0.29812377252472055
            ]
        },
        {
            "positions": [
                -0.8117276497525546,
                -0.7359863075886461,
                1.7061095939378452,
                1.9724263931560104,
                -2.052377945742933,
                -0.2002723533867541
            ]
        },
        {
            "positions": [
                -0.862339394968587,
                -0.6969020476956762,
                1.6831936760421946,
                2.0537682427129,
                -2.1444447408870455,
                -0.10242093424878806
            ]
        },
        {
            "positions": [
                -0.9129511401846194,
                -0.6578177878027065,
                1.660277758146544,
                2.135110092269789,
                -2.2365115360311574,
                -0.004569515110821677
            ]
        }
    ]
}