{
    "goal": {
        "global_pose": {
            "orientation": {
                "w": 0.7047431468963623,
                "x": -0.7094548344612122,
                "y": 0.0024358443915843964,
                "z": -0.0022348060738295317
            },
            "position": {
                "x": 0.6094750761985779,
                "y": 0.3671506643295288,
                "z": 0.19426114857196808
            }
        },
        "name": "move_to_magneteinheit_A"
    },
    "id": "ProjEST_move_to_magneteinheit_A_71",
    "joint_names": [
        "shoulder_pan_joint",
        "shoulder_lift_joint",
        "elbow_joint",
        "wrist_1_joint",
        "wrist_2_joint",
        "wrist_3_joint"
    ],
    "metrics": {
        "cart_traj_len": 1.0530824944077046,
        "distance_elbow_joint": 0.39123595586267834,
        "distance_shoulder_lift_joint": 0.3622379681584176,
        "distance_shoulder_pan_joint": 1.2409297456901818,
        "distance_wrist_1_joint": 2.2479079266092734,
        "distance_wrist_2_joint": 1.6922339258667922,
        "distance_wrist_3_joint": 1.1908371715897816,
        "smoothness": 1.8698493194378823e-16,
        "time": 0.38763774900000003,
        "traj_len": 2.669341247157644,
        "weighted_distance": 3.6670422535652287
    },
    "planner": "ProjEST",
    "start": {
        "state": {
            "elbow_joint": 1.5739458966750683,
            "shoulder_lift_joint": -1.4977259741207325,
            "shoulder_pan_joint": -1.1188672016454206,
            "wrist_1_joint": 1.494575848278785,
            "wrist_2_joint": -1.5706037134824402,
            "wrist_3_joint": -2.0226957942261072
        }
    },
    "waypoints": [
        {
            "positions": [
                -1.1188672016454206,
                -1.4977259741207325,
                1.5739458966750683,
                1.494575848278785,
                -1.5706037134824402,
                -2.0226957942261072
            ]
        },
        {
            "positions": [
                -1.0499266602181883,
                -1.477601642556376,
                1.5956812275563284,
                1.36969207457827,
                -1.4765907176009518,
                -2.088853414869984
            ]
        },
        {
            "positions": [
                -0.980986118790956,
                -1.4574773109920194,
                1.6174165584375881,
                1.2448083008777546,
                -1.3825777217194632,
                -2.1550110355138608
            ]
        },
        {
            "positions": [
                -0.9120455773637237,
                -1.437352979427663,
                1.6391518893188481,
                1.1199245271772393,
                -1.2885647258379749,
                -2.2211686561577375
            ]
        },
        {
            "positions": [
                -0.8431050359364913,
                -1.4172286478633063,
                1.660887220200108,
                0.9950407534767243,
                -1.1945517299564865,
                -2.2873262768016143
            ]
        },
        {
            "positions": [
                -0.774164494509259,
                -1.3971043162989498,
                1.682622551081368,
                0.870156979776209,
                -1.100538734074998,
                -2.353483897445491
            ]
        },
        {
            "positions": [
                -0.7052239530820268,
                -1.3769799847345934,
                1.7043578819626277,
                0.7452732060756939,
                -1.0065257381935095,
                -2.419641518089368
            ]
        },
        {
            "positions": [
                -0.6362834116547944,
                -1.3568556531702367,
                1.7260932128438877,
                0.6203894323751786,
                -0.912512742312021,
                -2.4857991387332445
            ]
        },
        {
            "positions": [
                -0.5673428702275621,
                -1.3367313216058803,
                1.7478285437251475,
                0.49550565867466356,
                -0.8184997464305326,
                -2.5519567593771213
            ]
        },
        {
            "positions": [
                -0.49840232880032975,
                -1.3166069900415236,
                1.7695638746064075,
                0.3706218849741483,
                -0.7244867505490441,
                -2.618114380020998
            ]
        },
        {
            "positions": [
                -0.42946178737309737,
                -1.2964826584771671,
                1.7912992054876675,
                0.245738111273633,
                -0.6304737546675556,
                -2.684272000664875
            ]
        },
        {
            "positions": [
                -0.3605212459458651,
                -1.2763583269128107,
                1.8130345363689273,
                0.1208543375731177,
                -0.536460758786067,
                -2.7504296213087516
            ]
        },
        {
            "positions": [
                -0.2915807045186328,
                -1.256233995348454,
                1.8347698672501873,
                -0.004029436127397146,
                -0.4424477629045789,
                -2.8165872419526283
            ]
        },
        {
            "positions": [
                -0.22264016309140044,
                -1.2361096637840976,
                1.856505198131447,
                -0.12891320982791243,
                -0.3484347670230903,
                -2.882744862596505
            ]
        },
        {
            "positions": [
                -0.15369962166416817,
                -1.215985332219741,
                1.878240529012707,
                -0.2537969835284277,
                -0.2544217711416017,
                -2.948902483240382
            ]
        },
        {
            "positions": [
                -0.08475908023693579,
                -1.1958610006553845,
                1.8999758598939671,
                -0.378680757228943,
                -0.16040877526011332,
                -3.0150601038842586
            ]
        },
        {
            "positions": [
                -0.01581853880970363,
                -1.175736669091028,
                1.921711190775227,
                -0.5035645309294579,
                -0.06639577937862495,
                -3.0812177245281354
            ]
        },
        {
            "positions": [
                0.05312200261752875,
                -1.1556123375266716,
                1.9434465216564867,
                -0.6284483046299731,
                0.027617216502863418,
                -3.147375345172012
            ]
        },
        {
            "positions": [
                0.12206254404476122,
                -1.135488005962315,
                1.9651818525377467,
                -0.7533320783304885,
                0.12163021238435202,
                -3.213532965815889
            ]
        }
    ]
}