{
    "goal": {
        "global_pose": {
            "orientation": {
                "w": 0.005598929693374612,
                "x": 0.007748599140229565,
                "y": 0.7110244013736278,
                "z": -0.7031023480610252
            },
            "position": {
                "x": 0.1141497679147869,
                "y": -0.7141253447532654,
                "z": 0.3711530566215515
            }
        },
        "name": "move_to_auspresseinheit_B"
    },
    "id": "ProjEST_move_to_auspresseinheit_B_136",
    "joint_names": [
        "shoulder_pan_joint",
        "shoulder_lift_joint",
        "elbow_joint",
        "wrist_1_joint",
        "wrist_2_joint",
        "wrist_3_joint"
    ],
    "metrics": {
        "cart_traj_len": 0.5652148496640929,
        "distance_elbow_joint": 0.06196708916018001,
        "distance_shoulder_lift_joint": 0.2934798046687035,
        "distance_shoulder_pan_joint": 0.5744281855132791,
        "distance_wrist_1_joint": 0.3162204656133649,
        "distance_wrist_2_joint": 1.008148645316662,
        "distance_wrist_3_joint": 0.006233366736466461,
        "smoothness": 5.075305295617109e-16,
        "time": 0.46318913,
        "traj_len": 1.5034884625459073,
        "weighted_distance": 1.8966584830726947
    },
    "planner": "ProjEST",
    "start": {
        "state": {
            "elbow_joint": 2.019306165916698,
            "shoulder_lift_joint": -1.1220205098164344,
            "shoulder_pan_joint": -1.095207207618794,
            "wrist_1_joint": -0.8559671824921639,
            "wrist_2_joint": 0.47596387242952726,
            "wrist_3_joint": 3.159081874673826
        }
    },
    "waypoints": [
        {
            "positions": [
                -1.095207207618794,
                -1.1220205098164344,
                2.019306165916698,
                -0.8559671824921639,
                0.47596387242952726,
                3.159081874673826
            ]
        },
        {
            "positions": [
                -1.1909452385376738,
                -1.1709338105945517,
                2.0089783177233347,
                -0.803263771556603,
                0.6439886466489709,
                3.160120769129904
            ]
        },
        {
            "positions": [
                -1.2866832694565538,
                -1.219847111372669,
                1.9986504695299714,
                -0.7505603606210423,
                0.8120134208684145,
                3.1611596635859813
            ]
        },
        {
            "positions": [
                -1.3824213003754335,
                -1.2687604121507863,
                1.988322621336608,
                -0.6978569496854814,
                0.9800381950878583,
                3.162198558042059
            ]
        },
        {
            "positions": [
                -1.4781593312943133,
                -1.3176737129289033,
                1.9779947731432446,
                -0.6451535387499205,
                1.148062969307302,
                3.163237452498137
            ]
        },
        {
            "positions": [
                -1.5738973622131933,
                -1.3665870137070206,
                1.9676669249498813,
                -0.5924501278143597,
                1.3160877435267455,
                3.164276346954215
            ]
        },
        {
            "positions": [
                -1.669635393132073,
                -1.415500314485138,
                1.957339076756518,
                -0.5397467168787989,
                1.4841125177461891,
                3.1653152414102923
            ]
        }
    ]
}