{
    "goal": {
        "global_pose": {
            "orientation": {
                "w": 0.7031023480610252,
                "x": -0.7110244013736278,
                "y": 0.0077485991402295624,
                "z": 0.005598929693374583
            },
            "position": {
                "x": -0.8841497679147869,
                "y": 0.44412534475326537,
                "z": 0.3711530566215515
            }
        },
        "name": "move_to_auspresseinheit_D"
    },
    "id": "ProjEST_move_to_auspresseinheit_D_17",
    "joint_names": [
        "shoulder_pan_joint",
        "shoulder_lift_joint",
        "elbow_joint",
        "wrist_1_joint",
        "wrist_2_joint",
        "wrist_3_joint"
    ],
    "metrics": {
        "cart_traj_len": 4.086819137136547,
        "distance_elbow_joint": 3.0169768033510236,
        "distance_shoulder_lift_joint": 1.2334350076174379,
        "distance_shoulder_pan_joint": 2.7977320072006577,
        "distance_wrist_1_joint": 2.0767373234260784,
        "distance_wrist_2_joint": 1.2180937847456936,
        "distance_wrist_3_joint": 5.673275606246644,
        "smoothness": 0.2541836283826294,
        "time": 0.204161298,
        "traj_len": 4.002030801054326,
        "weighted_distance": 5.536933524366407
    },
    "planner": "ProjEST",
    "start": {
        "state": {
            "elbow_joint": 1.8268400409724999,
            "shoulder_lift_joint": -1.0144045787793008,
            "shoulder_pan_joint": 2.6280239544362485,
            "wrist_1_joint": -0.790705565816056,
            "wrist_2_joint": 1.0573557467365533,
            "wrist_3_joint": 3.1851377467193758
        }
    },
    "waypoints": [
        {
            "positions": [
                2.6280239544362485,
                -1.0144045787793008,
                1.8268400409724999,
                -0.790705565816056,
                1.0573557467365533,
                3.1851377467193758
            ]
        },
        {
            "positions": [
                2.5763950271876475,
                -1.0479585416919874,
                1.7149651881122403,
                -0.8096838148365634,
                1.0384525604471402,
                3.027505795471721
            ]
        },
        {
            "positions": [
                2.524766099939047,
                -1.0815125046046743,
                1.603090335251981,
                -0.8286620638570706,
                1.0195493741577268,
                2.8698738442240668
            ]
        },
        {
            "positions": [
                2.473137172690446,
                -1.115066467517361,
                1.4912154823917214,
                -0.847640312877578,
                1.0006461878683137,
                2.712241892976412
            ]
        },
        {
            "positions": [
                2.421508245441845,
                -1.1486204304300478,
                1.379340629531462,
                -0.8666185618980853,
                0.9817430015789006,
                2.5546099417287573
            ]
        },
        {
            "positions": [
                2.3698793181932443,
                -1.1821743933427344,
                1.2674657766712025,
                -0.8855968109185927,
                0.9628398152894874,
                2.3969779904811026
            ]
        },
        {
            "positions": [
                2.3182503909446432,
                -1.2157283562554213,
                1.155590923810943,
                -0.9045750599390999,
                0.9439366290000742,
                2.239346039233448
            ]
        },
        {
            "positions": [
                2.2666214636960422,
                -1.249282319168108,
                1.0437160709506834,
                -0.9235533089596073,
                0.925033442710661,
                2.0817140879857936
            ]
        },
        {
            "positions": [
                2.2149925364474417,
                -1.2828362820807948,
                0.9318412180904241,
                -0.9425315579801146,
                0.9061302564212479,
                1.9240821367381389
            ]
        },
        {
            "positions": [
                2.1633636091988406,
                -1.3163902449934815,
                0.8199663652301645,
                -0.9615098070006219,
                0.8872270701318347,
                1.7664501854904842
            ]
        },
        {
            "positions": [
                2.1117346819502396,
                -1.349944207906168,
                0.708091512369905,
                -0.9804880560211293,
                0.8683238838424214,
                1.6088182342428294
            ]
        },
        {
            "positions": [
                2.060105754701639,
                -1.383498170818855,
                0.5962166595096454,
                -0.9994663050416366,
                0.8494206975530083,
                1.4511862829951747
            ]
        },
        {
            "positions": [
                2.008476827453038,
                -1.4170521337315416,
                0.4843418066493861,
                -1.0184445540621438,
                0.8305175112635952,
                1.2935543317475204
            ]
        },
        {
            "positions": [
                1.956847900204437,
                -1.4506060966442285,
                0.37246695378912653,
                -1.0374228030826513,
                0.811614324974182,
                1.1359223804998657
            ]
        },
        {
            "positions": [
                1.9052189729558364,
                -1.484160059556915,
                0.2605921009288672,
                -1.0564010521031586,
                0.7927111386847687,
                0.978290429252211
            ]
        },
        {
            "positions": [
                1.8535900457072354,
                -1.517714022469602,
                0.14871724806860764,
                -1.0753793011236659,
                0.7738079523953556,
                0.8206584780045563
            ]
        },
        {
            "positions": [
                1.8019611184586346,
                -1.5512679853822886,
                0.03684239520834831,
                -1.0943575501441731,
                0.7549047661059425,
                0.663026526756902
            ]
        },
        {
            "positions": [
                1.7503321912100338,
                -1.5848219482949752,
                -0.07503245765191124,
                -1.1133357991646806,
                0.7360015798165291,
                0.5053945755092473
            ]
        },
        {
            "positions": [
                1.6987032639614328,
                -1.618375911207662,
                -0.18690731051217097,
                -1.1323140481851879,
                0.717098393527116,
                0.34776262426159243
            ]
        },
        {
            "positions": [
                1.6174679893211787,
                -1.645743897085448,
                -0.23052598233244698,
                -1.2077544325789682,
                0.6789315921559744,
                0.4710626452958908
            ]
        },
        {
            "positions": [
                1.5362327146809247,
                -1.6731118829632339,
                -0.274144654152723,
                -1.2831948169727485,
                0.6407647907848328,
                0.5943626663301892
            ]
        },
        {
            "positions": [
                1.4549974400406707,
                -1.7004798688410199,
                -0.317763325972999,
                -1.3586352013665288,
                0.6025979894136912,
                0.7176626873644876
            ]
        },
        {
            "positions": [
                1.3737621654004166,
                -1.7278478547188059,
                -0.361381997793275,
                -1.4340755857603091,
                0.5644311880425498,
                0.8409627083987861
            ]
        },
        {
            "positions": [
                1.2925268907601628,
                -1.7552158405965919,
                -0.405000669613551,
                -1.5095159701540894,
                0.5262643866714082,
                0.9642627294330844
            ]
        },
        {
            "positions": [
                1.2112916161199088,
                -1.7825838264743776,
                -0.44861934143382703,
                -1.5849563545478698,
                0.4880975853002666,
                1.0875627504673828
            ]
        },
        {
            "positions": [
                1.1300563414796547,
                -1.8099518123521636,
                -0.49223801325410305,
                -1.66039673894165,
                0.449930783929125,
                1.2108627715016813
            ]
        },
        {
            "positions": [
                1.0488210668394007,
                -1.8373197982299496,
                -0.5358566850743791,
                -1.7358371233354302,
                0.41176398255798347,
                1.3341627925359796
            ]
        },
        {
            "positions": [
                0.9675857921991466,
                -1.8646877841077356,
                -0.5794753568946551,
                -1.8112775077292107,
                0.3735971811868419,
                1.4574628135702783
            ]
        },
        {
            "positions": [
                0.8863505175588927,
                -1.8920557699855214,
                -0.6230940287149311,
                -1.8867178921229908,
                0.33543037981570034,
                1.5807628346045766
            ]
        },
        {
            "positions": [
                0.8051152429186387,
                -1.9194237558633074,
                -0.6667127005352071,
                -1.962158276516771,
                0.29726357844455875,
                1.7040628556388748
            ]
        },
        {
            "positions": [
                0.7238799682783846,
                -1.9467917417410934,
                -0.7103313723554832,
                -2.037598660910551,
                0.25909677707341716,
                1.827362876673173
            ]
        },
        {
            "positions": [
                0.6426446936381307,
                -1.9741597276188791,
                -0.7539500441757592,
                -2.1130390453043315,
                0.22092997570227563,
                1.9506628977074714
            ]
        },
        {
            "positions": [
                0.5614094189978767,
                -2.001527713496665,
                -0.7975687159960352,
                -2.188479429698112,
                0.18276317433113398,
                2.07396291874177
            ]
        },
        {
            "positions": [
                0.4801741443576226,
                -2.028895699374451,
                -0.8411873878163112,
                -2.263919814091892,
                0.1445963729599925,
                2.1972629397760683
            ]
        },
        {
            "positions": [
                0.3989388697173686,
                -2.056263685252237,
                -0.8848060596365872,
                -2.3393601984856724,
                0.10642957158885091,
                2.3205629608103666
            ]
        },
        {
            "positions": [
                0.31770359507711476,
                -2.083631671130023,
                -0.9284247314568632,
                -2.4148005828794528,
                0.06826277021770932,
                2.4438629818446653
            ]
        },
        {
            "positions": [
                0.2364683204368605,
                -2.110999657007809,
                -0.9720434032771392,
                -2.490240967273233,
                0.030095968846567733,
                2.567163002878964
            ]
        },
        {
            "positions": [
                0.15523304579660646,
                -2.138367642885595,
                -1.0156620750974152,
                -2.5656813516670134,
                -0.008070832524573857,
                2.6904630239132623
            ]
        },
        {
            "positions": [
                0.07399777115635264,
                -2.1657356287633807,
                -1.0592807469176913,
                -2.6411217360607937,
                -0.046237633895715335,
                2.8137630449475606
            ]
        },
        {
            "positions": [
                -0.007237503483901397,
                -2.1931036146411667,
                -1.1028994187379673,
                -2.716562120454574,
                -0.08440443526685693,
                2.937063065981859
            ]
        },
        {
            "positions": [
                -0.08847277812415544,
                -2.2204716005189526,
                -1.1465180905582433,
                -2.7920025048483543,
                -0.12257123663799852,
                3.0603630870161576
            ]
        },
        {
            "positions": [
                -0.16970805276440945,
                -2.2478395863967386,
                -1.1901367623785193,
                -2.8674428892421346,
                -0.16073803800914005,
                3.183663108050456
            ]
        }
    ]
}