{
    "goal": {
        "global_pose": {
            "orientation": {
                "w": 0.7047431468963623,
                "x": -0.7094548344612122,
                "y": 0.0024358443915843964,
                "z": -0.0022348060738295317
            },
            "position": {
                "x": 0.6094750761985779,
                "y": 0.3671506643295288,
                "z": 0.19426114857196808
            }
        },
        "name": "move_to_magneteinheit_A"
    },
    "id": "ProjEST_move_to_magneteinheit_A_64",
    "joint_names": [
        "shoulder_pan_joint",
        "shoulder_lift_joint",
        "elbow_joint",
        "wrist_1_joint",
        "wrist_2_joint",
        "wrist_3_joint"
    ],
    "metrics": {
        "cart_traj_len": 1.0530767551170859,
        "distance_elbow_joint": 0.38392320449937434,
        "distance_shoulder_lift_joint": 0.3658764451592602,
        "distance_shoulder_pan_joint": 1.2404408009232033,
        "distance_wrist_1_joint": 2.2039309223813386,
        "distance_wrist_2_joint": 1.7090867674191106,
        "distance_wrist_3_joint": 1.2309890449239176,
        "smoothness": 0.0,
        "time": 0.42902255899999997,
        "traj_len": 2.6710011578631345,
        "weighted_distance": 3.675492207168244
    },
    "planner": "ProjEST",
    "start": {
        "state": {
            "elbow_joint": 1.5739458966750683,
            "shoulder_lift_joint": -1.4977259741207325,
            "shoulder_pan_joint": -1.1188672016454206,
            "wrist_1_joint": 1.494575848278785,
            "wrist_2_joint": -1.5706037134824402,
            "wrist_3_joint": -2.0226957942261072
        }
    },
    "waypoints": [
        {
            "positions": [
                -1.1188672016454206,
                -1.4977259741207325,
                1.5739458966750683,
                1.494575848278785,
                -1.5706037134824402,
                -2.0226957942261072
            ]
        },
        {
            "positions": [
                -1.0535808437020941,
                -1.4784693191123504,
                1.5941523811224039,
                1.378579483942925,
                -1.4806517783551185,
                -2.087484691327366
            ]
        },
        {
            "positions": [
                -0.9882944857587677,
                -1.4592126641039682,
                1.6143588655697394,
                1.2625831196070652,
                -1.390699843227797,
                -2.152273588428625
            ]
        },
        {
            "positions": [
                -0.9230081278154412,
                -1.439956009095586,
                1.6345653500170747,
                1.1465867552712052,
                -1.3007479081004754,
                -2.2170624855298837
            ]
        },
        {
            "positions": [
                -0.8577217698721147,
                -1.420699354087204,
                1.6547718344644102,
                1.0305903909353453,
                -1.2107959729731537,
                -2.2818513826311424
            ]
        },
        {
            "positions": [
                -0.7924354119287882,
                -1.401442699078822,
                1.6749783189117458,
                0.9145940265994854,
                -1.1208440378458322,
                -2.3466402797324015
            ]
        },
        {
            "positions": [
                -0.7271490539854617,
                -1.3821860440704399,
                1.6951848033590813,
                0.7985976622636255,
                -1.0308921027185107,
                -2.41142917683366
            ]
        },
        {
            "positions": [
                -0.6618626960421352,
                -1.3629293890620577,
                1.7153912878064168,
                0.6826012979277656,
                -0.9409401675911889,
                -2.476218073934919
            ]
        },
        {
            "positions": [
                -0.5965763380988087,
                -1.3436727340536756,
                1.7355977722537523,
                0.5666049335919057,
                -0.8509882324638673,
                -2.541006971036178
            ]
        },
        {
            "positions": [
                -0.5312899801554822,
                -1.3244160790452935,
                1.7558042567010879,
                0.45060856925604575,
                -0.7610362973365458,
                -2.6057958681374367
            ]
        },
        {
            "positions": [
                -0.46600362221215574,
                -1.3051594240369113,
                1.7760107411484232,
                0.33461220492018584,
                -0.6710843622092242,
                -2.6705847652386954
            ]
        },
        {
            "positions": [
                -0.40071726426882925,
                -1.2859027690285292,
                1.7962172255957587,
                0.2186158405843257,
                -0.5811324270819025,
                -2.7353736623399545
            ]
        },
        {
            "positions": [
                -0.33543090632550276,
                -1.266646114020147,
                1.8164237100430942,
                0.10261947624846601,
                -0.491180491954581,
                -2.800162559441213
            ]
        },
        {
            "positions": [
                -0.2701445483821763,
                -1.247389459011765,
                1.8366301944904297,
                -0.013376888087394123,
                -0.40122855682725933,
                -2.864951456542472
            ]
        },
        {
            "positions": [
                -0.20485819043884979,
                -1.228132804003383,
                1.8568366789377653,
                -0.12937325242325382,
                -0.31127662169993764,
                -2.9297403536437305
            ]
        },
        {
            "positions": [
                -0.1395718324955233,
                -1.2088761489950008,
                1.8770431633851008,
                -0.24536961675911395,
                -0.22132468657261595,
                -2.9945292507449897
            ]
        },
        {
            "positions": [
                -0.0742854745521968,
                -1.1896194939866187,
                1.897249647832436,
                -0.36136598109497364,
                -0.13137275144529448,
                -3.0593181478462483
            ]
        },
        {
            "positions": [
                -0.008999116608870317,
                -1.1703628389782366,
                1.9174561322797716,
                -0.4773623454308338,
                -0.041420816317972786,
                -3.1241070449475075
            ]
        },
        {
            "positions": [
                0.05628724133445617,
                -1.1511061839698544,
                1.9376626167271072,
                -0.5933587097666935,
                0.04853111880934868,
                -3.1888959420487657
            ]
        },
        {
            "positions": [
                0.12157359927778258,
                -1.1318495289614723,
                1.9578691011744427,
                -0.7093550741025536,
                0.13848305393667035,
                -3.253684839150025
            ]
        }
    ]
}