{
    "goal": {
        "global_pose": {
            "orientation": {
                "w": -0.4816463035849501,
                "x": 0.5182115481033762,
                "y": 0.4908360881923453,
                "z": -0.5084816262002911
            },
            "position": {
                "x": -0.8240239810943604,
                "y": 0.19912469901144506,
                "z": 0.16403168439865112
            }
        },
        "name": "move_to_storage_D"
    },
    "id": "ProjEST_move_to_storage_D_122",
    "joint_names": [
        "shoulder_pan_joint",
        "shoulder_lift_joint",
        "elbow_joint",
        "wrist_1_joint",
        "wrist_2_joint",
        "wrist_3_joint"
    ],
    "metrics": {
        "cart_traj_len": 4.037317623682046,
        "distance_elbow_joint": 4.21030507645191,
        "distance_shoulder_lift_joint": 1.2649412217382996,
        "distance_shoulder_pan_joint": 2.814233654488194,
        "distance_wrist_1_joint": 2.264699703340355,
        "distance_wrist_2_joint": 1.530990159081394,
        "distance_wrist_3_joint": 5.589209487683806,
        "smoothness": 0.19278509556878562,
        "time": 0.09483309200000001,
        "traj_len": 4.204090781938938,
        "weighted_distance": 5.7138855554319
    },
    "planner": "ProjEST",
    "start": {
        "state": {
            "elbow_joint": -2.384821997420982,
            "shoulder_lift_joint": -2.2788054674887404,
            "shoulder_pan_joint": -0.18546946417610016,
            "wrist_1_joint": 1.4845937964226739,
            "wrist_2_joint": 0.1789877726866377,
            "wrist_3_joint": 0.03710572555276528
        }
    },
    "waypoints": [
        {
            "positions": [
                -0.18546946417610016,
                -2.2788054674887404,
                -2.384821997420982,
                1.4845937964226739,
                0.1789877726866377,
                0.03710572555276528
            ]
        },
        {
            "positions": [
                -0.05501920915973468,
                -2.2481988205329624,
                -2.293189319863045,
                1.46711416399811,
                0.15752203789544328,
                -0.044351820822021985
            ]
        },
        {
            "positions": [
                0.0754310458566308,
                -2.217592173577184,
                -2.201556642305108,
                1.4496345315735462,
                0.13605630310424882,
                -0.12580936719680924
            ]
        },
        {
            "positions": [
                0.20588130087299628,
                -2.186985526621406,
                -2.109923964747171,
                1.4321548991489823,
                0.11459056831305439,
                -0.20726691357159652
            ]
        },
        {
            "positions": [
                0.33633155588936176,
                -2.1563788796656276,
                -2.018291287189234,
                1.4146752667244185,
                0.09312483352185995,
                -0.2887244599463838
            ]
        },
        {
            "positions": [
                0.4667818109057272,
                -2.1257722327098496,
                -1.926658609631297,
                1.3971956342998546,
                0.07165909873066552,
                -0.37018200632117104
            ]
        },
        {
            "positions": [
                0.5972320659220927,
                -2.095165585754071,
                -1.83502593207336,
                1.3797160018752908,
                0.050193363939471075,
                -0.45163955269595835
            ]
        },
        {
            "positions": [
                0.7276823209384582,
                -2.064558938798293,
                -1.7433932545154232,
                1.3622363694507267,
                0.028727629148276645,
                -0.5330970990707455
            ]
        },
        {
            "positions": [
                0.8581325759548237,
                -2.033952291842515,
                -1.6517605769574861,
                1.344756737026163,
                0.007261894357082188,
                -0.6145546454455328
            ]
        },
        {
            "positions": [
                0.988582830971189,
                -2.003345644886737,
                -1.560127899399549,
                1.327277104601599,
                -0.014203840434112242,
                -0.69601219182032
            ]
        },
        {
            "positions": [
                1.1190330859875546,
                -1.9727389979309586,
                -1.468495221841612,
                1.3097974721770351,
                -0.03566957522530667,
                -0.7774697381951073
            ]
        },
        {
            "positions": [
                1.2494833410039201,
                -1.9421323509751804,
                -1.3768625442836753,
                1.2923178397524713,
                -0.0571353100165011,
                -0.8589272845698945
            ]
        },
        {
            "positions": [
                1.3799335960202856,
                -1.9115257040194022,
                -1.285229866725738,
                1.2748382073279074,
                -0.07860104480769556,
                -0.940384830944682
            ]
        },
        {
            "positions": [
                1.5103838510366512,
                -1.880919057063624,
                -1.193597189167801,
                1.2573585749033436,
                -0.10006677959889002,
                -1.0218423773194691
            ]
        },
        {
            "positions": [
                1.6408341060530165,
                -1.8503124101078459,
                -1.1019645116098642,
                1.2398789424787797,
                -0.12153251439008442,
                -1.1032999236942562
            ]
        },
        {
            "positions": [
                1.771284361069382,
                -1.8197057631520677,
                -1.0103318340519272,
                1.2223993100542159,
                -0.1429982491812789,
                -1.1847574700690435
            ]
        },
        {
            "positions": [
                1.7989450007223728,
                -1.7937108754939506,
                -0.9188539336298995,
                1.1578023675712514,
                -0.10399811572277964,
                -1.0438753316154308
            ]
        },
        {
            "positions": [
                1.8266056403753634,
                -1.7677159878358337,
                -0.827376033207872,
                1.093205425088287,
                -0.06499798226428037,
                -0.9029931931618179
            ]
        },
        {
            "positions": [
                1.8542662800283543,
                -1.7417211001777166,
                -0.7358981327858444,
                1.0286084826053226,
                -0.025997848805781112,
                -0.7621110547082051
            ]
        },
        {
            "positions": [
                1.8819269196813448,
                -1.7157262125195998,
                -0.6444202323638168,
                0.9640115401223582,
                0.01300228465271816,
                -0.6212289162545923
            ]
        },
        {
            "positions": [
                1.9095875593343357,
                -1.6897313248614827,
                -0.5529423319417892,
                0.8994145976393939,
                0.05200241811121742,
                -0.48034677780097945
            ]
        },
        {
            "positions": [
                1.9372481989873263,
                -1.6637364372033656,
                -0.4614644315197616,
                0.8348176551564295,
                0.09100255156971668,
                -0.3394646393473667
            ]
        },
        {
            "positions": [
                1.964908838640317,
                -1.6377415495452488,
                -0.36998653109773394,
                0.770220712673465,
                0.13000268502821594,
                -0.19858250089375384
            ]
        },
        {
            "positions": [
                1.9925694782933077,
                -1.6117466618871317,
                -0.2785086306757064,
                0.7056237701905006,
                0.16900281848671522,
                -0.057700362440141095
            ]
        },
        {
            "positions": [
                2.0202301179462983,
                -1.5857517742290146,
                -0.18703073025367867,
                0.6410268277075362,
                0.2080029519452145,
                0.08318177601347188
            ]
        },
        {
            "positions": [
                2.0478907575992893,
                -1.5597568865708977,
                -0.09555282983165114,
                0.5764298852245718,
                0.24700308540371374,
                0.22406391446708462
            ]
        },
        {
            "positions": [
                2.07555139725228,
                -1.5337619989127806,
                -0.004074929409623618,
                0.5118329427416074,
                0.286003218862213,
                0.3649460529206976
            ]
        },
        {
            "positions": [
                2.1032120369052705,
                -1.5077671112546638,
                0.08740297101240402,
                0.44723600025864296,
                0.32500335232071226,
                0.5058281913743101
            ]
        },
        {
            "positions": [
                2.130872676558261,
                -1.4817722235965467,
                0.17888087143443165,
                0.3826390577756785,
                0.3640034857792116,
                0.6467103298279231
            ]
        },
        {
            "positions": [
                2.158533316211252,
                -1.4557773359384298,
                0.2703587718564593,
                0.3180421152927142,
                0.4030036192377108,
                0.7875924682815358
            ]
        },
        {
            "positions": [
                2.1861939558642427,
                -1.4297824482803128,
                0.3618366722784869,
                0.25344517280974976,
                0.44200375269621006,
                0.9284746067351488
            ]
        },
        {
            "positions": [
                2.2138545955172333,
                -1.4037875606221957,
                0.45331457270051434,
                0.18884823032678533,
                0.48100388615470935,
                1.0693567451887613
            ]
        },
        {
            "positions": [
                2.241515235170224,
                -1.3777926729640788,
                0.544792473122542,
                0.12425128784382111,
                0.5200040196132085,
                1.2102388836423743
            ]
        },
        {
            "positions": [
                2.269175874823215,
                -1.3517977853059617,
                0.6362703735445698,
                0.05965434536085645,
                0.5590041530717079,
                1.3511210220959873
            ]
        },
        {
            "positions": [
                2.2968365144762055,
                -1.3258028976478446,
                0.7277482739665972,
                -0.004942597122107983,
                0.5980042865302071,
                1.4920031605495998
            ]
        },
        {
            "positions": [
                2.324497154129196,
                -1.2998080099897278,
                0.8192261743886249,
                -0.0695395396050722,
                0.6370044199887064,
                1.6328852990032128
            ]
        },
        {
            "positions": [
                2.3521577937821867,
                -1.2738131223316107,
                0.9107040748106523,
                -0.13413648208803663,
                0.6760045534472056,
                1.7737674374568253
            ]
        },
        {
            "positions": [
                2.3798184334351777,
                -1.2478182346734936,
                1.00218197523268,
                -0.19873342457100107,
                0.715004686905705,
                1.9146495759104387
            ]
        },
        {
            "positions": [
                2.4074790730881683,
                -1.2218233470153768,
                1.0936598756547078,
                -0.2633303670539655,
                0.7540048203642042,
                2.0555317143640512
            ]
        },
        {
            "positions": [
                2.435139712741159,
                -1.19582845935726,
                1.1851377760767352,
                -0.32792730953692995,
                0.7930049538227034,
                2.1964138528176638
            ]
        },
        {
            "positions": [
                2.4628003523941495,
                -1.1698335716991428,
                1.2766156764987626,
                -0.39252425201989416,
                0.8320050872812027,
                2.3372959912712767
            ]
        },
        {
            "positions": [
                2.4904609920471406,
                -1.1438386840410257,
                1.3680935769207905,
                -0.4571211945028588,
                0.8710052207397021,
                2.4781781297248897
            ]
        },
        {
            "positions": [
                2.518121631700131,
                -1.1178437963829086,
                1.459571477342818,
                -0.5217181369858233,
                0.9100053541982012,
                2.6190602681785022
            ]
        },
        {
            "positions": [
                2.5457822713531217,
                -1.0918489087247918,
                1.5510493777648457,
                -0.5863150794687875,
                0.9490054876567005,
                2.759942406632115
            ]
        },
        {
            "positions": [
                2.5734429110061123,
                -1.065854021066675,
                1.6425272781868732,
                -0.6509120219517519,
                0.9880056211151997,
                2.9008245450857277
            ]
        },
        {
            "positions": [
                2.6011035506591034,
                -1.0398591334085578,
                1.734005178608901,
                -0.7155089644347163,
                1.027005754573699,
                3.041706683539341
            ]
        },
        {
            "positions": [
                2.628764190312094,
                -1.0138642457504408,
                1.8254830790309284,
                -0.7801059069176809,
                1.0660058880321983,
                3.1825888219929537
            ]
        }
    ]
}