{
    "goal": {
        "global_pose": {
            "orientation": {
                "w": 0.7047431468963623,
                "x": -0.7094548344612122,
                "y": 0.0024358443915843964,
                "z": -0.0022348060738295317
            },
            "position": {
                "x": 0.6094750761985779,
                "y": 0.3671506643295288,
                "z": 0.19426114857196808
            }
        },
        "name": "move_to_magneteinheit_A"
    },
    "id": "ProjEST_move_to_magneteinheit_A_148",
    "joint_names": [
        "shoulder_pan_joint",
        "shoulder_lift_joint",
        "elbow_joint",
        "wrist_1_joint",
        "wrist_2_joint",
        "wrist_3_joint"
    ],
    "metrics": {
        "cart_traj_len": 1.053556846416638,
        "distance_elbow_joint": 0.38188417740782765,
        "distance_shoulder_lift_joint": 0.3673683685932687,
        "distance_shoulder_pan_joint": 1.2409672157350546,
        "distance_wrist_1_joint": 2.2115316009852144,
        "distance_wrist_2_joint": 1.694749310983906,
        "distance_wrist_3_joint": 1.2184009572430679,
        "smoothness": 2.8047739791568236e-16,
        "time": 0.053442208000000005,
        "traj_len": 2.667377294450176,
        "weighted_distance": 3.6685125674316
    },
    "planner": "ProjEST",
    "start": {
        "state": {
            "elbow_joint": 1.5739458966750683,
            "shoulder_lift_joint": -1.4977259741207325,
            "shoulder_pan_joint": -1.1188672016454206,
            "wrist_1_joint": 1.494575848278785,
            "wrist_2_joint": -1.5706037134824402,
            "wrist_3_joint": -2.0226957942261072
        }
    },
    "waypoints": [
        {
            "positions": [
                -1.1188672016454206,
                -1.4977259741207325,
                1.5739458966750683,
                1.494575848278785,
                -1.5706037134824402,
                -2.0226957942261072
            ]
        },
        {
            "positions": [
                -1.0499245785490288,
                -1.4773166203099954,
                1.5951616843088365,
                1.3717129815573843,
                -1.4764509739833342,
                -2.0903847362951664
            ]
        },
        {
            "positions": [
                -0.9809819554526368,
                -1.4569072664992582,
                1.6163774719426047,
                1.2488501148359834,
                -1.3822982344842285,
                -2.158073678364226
            ]
        },
        {
            "positions": [
                -0.9120393323562449,
                -1.4364979126885211,
                1.637593259576373,
                1.1259872481145825,
                -1.2881454949851225,
                -2.225762620433285
            ]
        },
        {
            "positions": [
                -0.8430967092598529,
                -1.4160885588777838,
                1.658809047210141,
                1.0031243813931818,
                -1.1939927554860166,
                -2.2934515625023444
            ]
        },
        {
            "positions": [
                -0.774154086163461,
                -1.3956792050670468,
                1.6800248348439093,
                0.8802615146717809,
                -1.0998400159869108,
                -2.361140504571404
            ]
        },
        {
            "positions": [
                -0.7052114630670692,
                -1.3752698512563095,
                1.7012406224776775,
                0.7573986479503803,
                -1.0056872764878049,
                -2.428829446640463
            ]
        },
        {
            "positions": [
                -0.6362688399706772,
                -1.3548604974455725,
                1.7224564101114457,
                0.6345357812289794,
                -0.911534536988699,
                -2.4965183887095224
            ]
        },
        {
            "positions": [
                -0.5673262168742853,
                -1.3344511436348352,
                1.7436721977452139,
                0.5116729145075787,
                -0.8173817974895932,
                -2.564207330778582
            ]
        },
        {
            "positions": [
                -0.4983835937778933,
                -1.3140417898240981,
                1.7648879853789823,
                0.3888100477861778,
                -0.7232290579904872,
                -2.631896272847641
            ]
        },
        {
            "positions": [
                -0.42944097068150133,
                -1.293632436013361,
                1.7861037730127505,
                0.2659471810647769,
                -0.6290763184913812,
                -2.6995852149167003
            ]
        },
        {
            "positions": [
                -0.36049834758510946,
                -1.2732230822026238,
                1.8073195606465187,
                0.14308431434337598,
                -0.5349235789922753,
                -2.76727415698576
            ]
        },
        {
            "positions": [
                -0.2915557244887176,
                -1.2528137283918868,
                1.8285353482802869,
                0.02022144762197553,
                -0.44077083949316953,
                -2.834963099054819
            ]
        },
        {
            "positions": [
                -0.2226131013923256,
                -1.2324043745811495,
                1.849751135914055,
                -0.10264141909942537,
                -0.34661809999406357,
                -2.9026520411238783
            ]
        },
        {
            "positions": [
                -0.15367047829593372,
                -1.2119950207704124,
                1.8709669235478232,
                -0.22550428582082627,
                -0.2524653604949578,
                -2.970340983192938
            ]
        },
        {
            "positions": [
                -0.08472785519954162,
                -1.1915856669596752,
                1.8921827111815914,
                -0.34836715254222717,
                -0.15831262099585186,
                -3.038029925261997
            ]
        },
        {
            "positions": [
                -0.01578523210314997,
                -1.171176313148938,
                1.9133984988153596,
                -0.4712300192636276,
                -0.06415988149674612,
                -3.1057188673310563
            ]
        },
        {
            "positions": [
                0.053157390993242126,
                -1.1507669593382008,
                1.9346142864491278,
                -0.5940928859850285,
                0.029992858002359846,
                -3.173407809400116
            ]
        },
        {
            "positions": [
                0.12210001408963392,
                -1.1303576055274638,
                1.955830074082896,
                -0.7169557527064295,
                0.12414559750146592,
                -3.241096751469175
            ]
        }
    ]
}