{
    "goal": {
        "global_pose": {
            "orientation": {
                "w": -0.4816463035849501,
                "x": 0.5182115481033762,
                "y": 0.4908360881923453,
                "z": -0.5084816262002911
            },
            "position": {
                "x": -0.8240239810943604,
                "y": -0.300875300988555,
                "z": 0.16403168439865112
            }
        },
        "name": "move_to_storage_C"
    },
    "id": "ProjEST_move_to_storage_C_136",
    "joint_names": [
        "shoulder_pan_joint",
        "shoulder_lift_joint",
        "elbow_joint",
        "wrist_1_joint",
        "wrist_2_joint",
        "wrist_3_joint"
    ],
    "metrics": {
        "cart_traj_len": 0.5771192650715005,
        "distance_elbow_joint": 0.2576052044325665,
        "distance_shoulder_lift_joint": 0.188794773125612,
        "distance_shoulder_pan_joint": 0.49552346663422453,
        "distance_wrist_1_joint": 0.07831484574032355,
        "distance_wrist_2_joint": 1.0677255016218723,
        "distance_wrist_3_joint": 0.07395177246055695,
        "smoothness": 2.5376526478085547e-16,
        "time": 0.015926545,
        "traj_len": 1.4703453893610017,
        "weighted_distance": 1.8589942055580662
    },
    "planner": "ProjEST",
    "start": {
        "state": {
            "elbow_joint": 2.010868315001653,
            "shoulder_lift_joint": -1.1634956873357014,
            "shoulder_pan_joint": -2.4736205022346103,
            "wrist_1_joint": -0.8367026794713948,
            "wrist_2_joint": 0.6746043897044093,
            "wrist_3_joint": 3.1335220948105738
        }
    },
    "waypoints": [
        {
            "positions": [
                -2.4736205022346103,
                -1.1634956873357014,
                2.010868315001653,
                -0.8367026794713948,
                0.6746043897044093,
                3.1335220948105738
            ]
        },
        {
            "positions": [
                -2.556207746673648,
                -1.132029891814766,
                1.967934114262892,
                -0.8236502051813408,
                0.8525586399747214,
                3.1458473902206667
            ]
        },
        {
            "positions": [
                -2.638794991112685,
                -1.1005640962938308,
                1.924999913524131,
                -0.810597730891287,
                1.0305128902450333,
                3.1581726856307593
            ]
        },
        {
            "positions": [
                -2.7213822355517223,
                -1.0690983007728954,
                1.8820657127853697,
                -0.797545256601233,
                1.2084671405153453,
                3.1704979810408522
            ]
        },
        {
            "positions": [
                -2.80396947999076,
                -1.0376325052519602,
                1.8391315120466087,
                -0.784492782311179,
                1.3864213907856575,
                3.182823276450945
            ]
        },
        {
            "positions": [
                -2.8865567244297976,
                -1.0061667097310247,
                1.7961973113078478,
                -0.7714403080211252,
                1.5643756410559697,
                3.1951485718610377
            ]
        },
        {
            "positions": [
                -2.969143968868835,
                -0.9747009142100894,
                1.7532631105690866,
                -0.7583878337310712,
                1.7423298913262817,
                3.2074738672711307
            ]
        }
    ]
}