{
    "goal": {
        "global_pose": {
            "orientation": {
                "w": 0.7031023502349854,
                "x": -0.7110244035720825,
                "y": 0.007748599164187908,
                "z": 0.005598929710686207
            },
            "position": {
                "x": 0.11585023208521307,
                "y": 0.44412534475326537,
                "z": 0.3711530566215515
            }
        },
        "name": "move_to_auspresseinheit_A"
    },
    "id": "ProjEST_move_to_auspresseinheit_A_68",
    "joint_names": [
        "shoulder_pan_joint",
        "shoulder_lift_joint",
        "elbow_joint",
        "wrist_1_joint",
        "wrist_2_joint",
        "wrist_3_joint"
    ],
    "metrics": {
        "cart_traj_len": 0.7107919474385699,
        "distance_elbow_joint": 0.05227429688761953,
        "distance_shoulder_lift_joint": 0.548809987238307,
        "distance_shoulder_pan_joint": 1.0659719062229005,
        "distance_wrist_1_joint": 0.6360505781294676,
        "distance_wrist_2_joint": 0.5817221217190077,
        "distance_wrist_3_joint": 0.0386711220882936,
        "smoothness": 1.753408836197302,
        "time": 0.38897274000000004,
        "traj_len": 1.7098245559956131,
        "weighted_distance": 2.053926716392447
    },
    "planner": "ProjEST",
    "start": {
        "state": {
            "elbow_joint": 2.4225747245308327,
            "shoulder_lift_joint": -1.373653427065438,
            "shoulder_pan_joint": -0.33786330853087027,
            "wrist_1_joint": -1.0288602302712604,
            "wrist_2_joint": 1.23302299562683,
            "wrist_3_joint": -3.094021725338297
        }
    },
    "waypoints": [
        {
            "positions": [
                -0.33786330853087027,
                -1.373653427065438,
                2.4225747245308327,
                -1.0288602302712604,
                1.23302299562683,
                -3.094021725338297
            ]
        },
        {
            "positions": [
                -0.20613503251011814,
                -1.441401769052772,
                2.41747364647784,
                -0.9536426612231995,
                1.1636236406230425,
                -3.094409365843277
            ]
        },
        {
            "positions": [
                -0.07440675648936601,
                -1.5091501110401064,
                2.412372568424847,
                -0.8784250921751386,
                1.094224285619255,
                -3.0947970063482577
            ]
        },
        {
            "positions": [
                0.057321519531386145,
                -1.5768984530274406,
                2.407271490371855,
                -0.8032075231270778,
                1.0248249306154675,
                -3.095184646853238
            ]
        },
        {
            "positions": [
                0.18904979555213824,
                -1.6446467950147747,
                2.402170412318862,
                -0.7279899540790169,
                0.9554255756116801,
                -3.095572287358218
            ]
        },
        {
            "positions": [
                0.32077807157289034,
                -1.712395137002109,
                2.3970693342658693,
                -0.652772385030956,
                0.8860262206078926,
                -3.0959599278631984
            ]
        },
        {
            "positions": [
                0.45250634759364255,
                -1.7801434789894433,
                2.391968256212877,
                -0.5775548159828952,
                0.8166268656041051,
                -3.0963475683681785
            ]
        },
        {
            "positions": [
                0.5842346236143947,
                -1.8478918209767774,
                2.3868671781598843,
                -0.5023372469348343,
                0.7472275106003177,
                -3.096735208873159
            ]
        },
        {
            "positions": [
                0.7159628996351468,
                -1.9156401629641118,
                2.3817661001068915,
                -0.4271196778867734,
                0.6778281555965302,
                -3.097122849378139
            ]
        },
        {
            "positions": [
                0.7038172015782633,
                -1.9088169116244786,
                2.39323177257057,
                -0.461429703631754,
                0.7043554372852382,
                -3.1326928474265907
            ]
        }
    ]
}