{
    "goal": {
        "global_pose": {
            "orientation": {
                "w": -0.4816463035849501,
                "x": 0.5182115481033762,
                "y": 0.4908360881923453,
                "z": -0.5084816262002911
            },
            "position": {
                "x": -0.8240239810943604,
                "y": -0.300875300988555,
                "z": 0.16403168439865112
            }
        },
        "name": "move_to_storage_C"
    },
    "id": "ProjEST_move_to_storage_C_150",
    "joint_names": [
        "shoulder_pan_joint",
        "shoulder_lift_joint",
        "elbow_joint",
        "wrist_1_joint",
        "wrist_2_joint",
        "wrist_3_joint"
    ],
    "metrics": {
        "cart_traj_len": 0.5759109893950705,
        "distance_elbow_joint": 0.25854073172712755,
        "distance_shoulder_lift_joint": 0.1894850995491596,
        "distance_shoulder_pan_joint": 0.4945042823667034,
        "distance_wrist_1_joint": 0.08364192974330964,
        "distance_wrist_2_joint": 1.0641259138476653,
        "distance_wrist_3_joint": 0.06525835412307268,
        "smoothness": 0.0,
        "time": 0.102601143,
        "traj_len": 1.4681812937634908,
        "weighted_distance": 1.8530625632164064
    },
    "planner": "ProjEST",
    "start": {
        "state": {
            "elbow_joint": 2.010868315001653,
            "shoulder_lift_joint": -1.1634956873357014,
            "shoulder_pan_joint": -2.4736205022346103,
            "wrist_1_joint": -0.8367026794713948,
            "wrist_2_joint": 0.6746043897044093,
            "wrist_3_joint": 3.1335220948105738
        }
    },
    "waypoints": [
        {
            "positions": [
                -2.4736205022346103,
                -1.1634956873357014,
                2.010868315001653,
                -0.8367026794713948,
                0.6746043897044093,
                3.1335220948105738
            ]
        },
        {
            "positions": [
                -2.556037882629061,
                -1.1319148374108414,
                1.9677781930471319,
                -0.8227623578475098,
                0.8519587086790201,
                3.1443984871644193
            ]
        },
        {
            "positions": [
                -2.6384552630235114,
                -1.1003339874859814,
                1.9246880710926106,
                -0.8088220362236249,
                1.029313027653631,
                3.155274879518265
            ]
        },
        {
            "positions": [
                -2.720872643417962,
                -1.0687531375611217,
                1.8815979491380892,
                -0.79488171459974,
                1.206667346628242,
                3.16615127187211
            ]
        },
        {
            "positions": [
                -2.8032900238124125,
                -1.0371722876362617,
                1.838507827183568,
                -0.780941392975855,
                1.3840216656028528,
                3.1770276642259554
            ]
        },
        {
            "positions": [
                -2.885707404206863,
                -1.0055914377114017,
                1.7954177052290468,
                -0.76700107135197,
                1.5613759845774637,
                3.187904056579801
            ]
        },
        {
            "positions": [
                -2.9681247846013137,
                -0.9740105877865418,
                1.7523275832745255,
                -0.7530607497280851,
                1.7387303035520745,
                3.1987804489336464
            ]
        }
    ]
}