{
    "goal": {
        "global_pose": {
            "orientation": {
                "w": 0.5084816217422485,
                "x": -0.49083608388900757,
                "y": 0.5182115435600281,
                "z": -0.4816462993621826
            },
            "position": {
                "x": 0.5540239810943604,
                "y": 0.030875300988554955,
                "z": 0.16403168439865112
            }
        },
        "name": "move_to_storage_A"
    },
    "id": "ProjEST_move_to_storage_A_112",
    "joint_names": [
        "shoulder_pan_joint",
        "shoulder_lift_joint",
        "elbow_joint",
        "wrist_1_joint",
        "wrist_2_joint",
        "wrist_3_joint"
    ],
    "metrics": {
        "cart_traj_len": 0.35357252205605566,
        "distance_elbow_joint": 0.4492645095238319,
        "distance_shoulder_lift_joint": 0.23562996142403425,
        "distance_shoulder_pan_joint": 0.46342661604396274,
        "distance_wrist_1_joint": 0.23952697985260996,
        "distance_wrist_2_joint": 1.0954538643943366,
        "distance_wrist_3_joint": 0.0999106107821679,
        "smoothness": 0.0,
        "time": 0.047462561,
        "traj_len": 1.6072375499660727,
        "weighted_distance": 2.0292891878271626
    },
    "planner": "ProjEST",
    "start": {
        "state": {
            "elbow_joint": 1.9715474177455299,
            "shoulder_lift_joint": -1.139484666580328,
            "shoulder_pan_joint": 0.12281154398918248,
            "wrist_1_joint": -0.7804687475355282,
            "wrist_2_joint": 0.12958649657246987,
            "wrist_3_joint": -3.1924925159053466
        }
    },
    "waypoints": [
        {
            "positions": [
                0.12281154398918248,
                -1.139484666580328,
                1.9715474177455299,
                -0.7804687475355282,
                0.12958649657246987,
                -3.1924925159053466
            ]
        },
        {
            "positions": [
                0.05660774169718781,
                -1.1731460896409043,
                2.03572806196322,
                -0.8146868875144725,
                0.28607990577166087,
                -3.178219571507894
            ]
        },
        {
            "positions": [
                -0.00959606059480686,
                -1.2068075127014806,
                2.0999087061809103,
                -0.8489050274934168,
                0.44257331497085184,
                -3.1639466271104415
            ]
        },
        {
            "positions": [
                -0.07579986288680154,
                -1.2404689357620569,
                2.1640893503986005,
                -0.883123167472361,
                0.5990667241700428,
                -3.1496736827129888
            ]
        },
        {
            "positions": [
                -0.1420036651787962,
                -1.2741303588226334,
                2.2282699946162907,
                -0.9173413074513053,
                0.7555601333692338,
                -3.1354007383155365
            ]
        },
        {
            "positions": [
                -0.20820746747079089,
                -1.3077917818832097,
                2.2924506388339814,
                -0.9515594474302496,
                0.9120535425684247,
                -3.1211277939180837
            ]
        },
        {
            "positions": [
                -0.27441126976278557,
                -1.341453204943786,
                2.3566312830516716,
                -0.9857775874091939,
                1.0685469517676156,
                -3.1068548495206314
            ]
        },
        {
            "positions": [
                -0.34061507205478025,
                -1.3751146280043622,
                2.420811927269362,
                -1.0199957273881382,
                1.2250403609668066,
                -3.0925819051231787
            ]
        }
    ]
}