{
    "goal": {
        "global_pose": {
            "orientation": {
                "w": 0.7047431493862688,
                "x": -0.7094548369677653,
                "y": 0.0024358444001904,
                "z": -0.0022348060817251984
            },
            "position": {
                "x": -0.39052492380142206,
                "y": 0.3671506643295288,
                "z": 0.19426114857196808
            }
        },
        "name": "move_to_magneteinheit_D"
    },
    "id": "ProjEST_move_to_magneteinheit_D_55",
    "joint_names": [
        "shoulder_pan_joint",
        "shoulder_lift_joint",
        "elbow_joint",
        "wrist_1_joint",
        "wrist_2_joint",
        "wrist_3_joint"
    ],
    "metrics": {
        "cart_traj_len": 4.86188081463092,
        "distance_elbow_joint": 3.3977044149420292,
        "distance_shoulder_lift_joint": 1.629726303490573,
        "distance_shoulder_pan_joint": 3.884865149114572,
        "distance_wrist_1_joint": 2.1197675689463527,
        "distance_wrist_2_joint": 0.9357892582802365,
        "distance_wrist_3_joint": 3.8892885573831846,
        "smoothness": 1.002562477016417,
        "time": 0.7363314519999999,
        "traj_len": 3.982102616979746,
        "weighted_distance": 5.1663599559215685
    },
    "planner": "ProjEST",
    "start": {
        "state": {
            "elbow_joint": 0.7495348899011973,
            "shoulder_lift_joint": -0.6476975780737697,
            "shoulder_pan_joint": -2.711696901376276,
            "wrist_1_joint": -0.07506478080974305,
            "wrist_2_joint": 0.4329665971545858,
            "wrist_3_joint": 3.1361499051832524
        }
    },
    "waypoints": [
        {
            "positions": [
                -2.711696901376276,
                -0.6476975780737697,
                0.7495348899011973,
                -0.07506478080974305,
                0.4329665971545858,
                3.1361499051832524
            ]
        },
        {
            "positions": [
                -2.7410916803786827,
                -0.7534746855736411,
                0.8147581174402752,
                -0.02138804408369281,
                0.46634726109108915,
                3.063729627261283
            ]
        },
        {
            "positions": [
                -2.770486459381089,
                -0.8592517930735124,
                0.879981344979353,
                0.032288692642357425,
                0.49972792502759245,
                2.9913093493393133
            ]
        },
        {
            "positions": [
                -2.726314570657764,
                -0.9246512705528314,
                0.7985787936507353,
                -0.025497387450614924,
                0.4405364280208949,
                3.0032662836235526
            ]
        },
        {
            "positions": [
                -2.6821426819344394,
                -0.9900507480321503,
                0.7171762423221175,
                -0.08328346754358727,
                0.38134493101419736,
                3.015223217907792
            ]
        },
        {
            "positions": [
                -2.6379707932111143,
                -1.0554502255114693,
                0.6357736909934998,
                -0.1410695476365596,
                0.32215343400749985,
                3.027180152192032
            ]
        },
        {
            "positions": [
                -2.5937989044877896,
                -1.1208497029907882,
                0.554371139664882,
                -0.19885562772953197,
                0.2629619370008023,
                3.0391370864762712
            ]
        },
        {
            "positions": [
                -2.5496270157644645,
                -1.1862491804701072,
                0.47296858833626426,
                -0.25664170782250434,
                0.2037704399941047,
                3.0510940207605106
            ]
        },
        {
            "positions": [
                -2.4467165114827063,
                -1.2214620772605784,
                0.38826110737900066,
                -0.2080792530397837,
                0.21316623007158597,
                2.9359451089041264
            ]
        },
        {
            "positions": [
                -2.3438060072009477,
                -1.2566749740510497,
                0.30355362642173706,
                -0.15951679825706302,
                0.2225620201490672,
                2.8207961970477426
            ]
        },
        {
            "positions": [
                -2.240895502919189,
                -1.291887870841521,
                0.21884614546447345,
                -0.11095434347434238,
                0.23195781022654846,
                2.7056472851913584
            ]
        },
        {
            "positions": [
                -2.137984998637431,
                -1.3271007676319921,
                0.13413866450720985,
                -0.06239188869162171,
                0.2413536003040297,
                2.5904983733349747
            ]
        },
        {
            "positions": [
                -2.0350744943556722,
                -1.3623136644224636,
                0.049431183549946245,
                -0.01382943390890104,
                0.25074939038151095,
                2.4753494614785905
            ]
        },
        {
            "positions": [
                -1.932163990073914,
                -1.3975265612129348,
                -0.03527629740731736,
                0.034733020873819576,
                0.2601451804589922,
                2.3602005496222067
            ]
        },
        {
            "positions": [
                -1.8292534857921554,
                -1.432739458003406,
                -0.1199837783645809,
                0.08329547565654027,
                0.26954097053647347,
                2.2450516377658225
            ]
        },
        {
            "positions": [
                -1.7263429815103972,
                -1.4679523547938773,
                -0.20469125932184457,
                0.13185793043926092,
                0.27893676061395467,
                2.1299027259094387
            ]
        },
        {
            "positions": [
                -1.6234324772286386,
                -1.5031652515843485,
                -0.2893987402791081,
                0.18042038522198156,
                0.28833255069143593,
                2.0147538140530545
            ]
        },
        {
            "positions": [
                -1.5205219729468802,
                -1.5383781483748198,
                -0.37410622123637177,
                0.22898284000470226,
                0.2977283407689172,
                1.8996049021966706
            ]
        },
        {
            "positions": [
                -1.417611468665122,
                -1.573591045165291,
                -0.4588137021936353,
                0.2775452947874229,
                0.30712413084639845,
                1.7844559903402866
            ]
        },
        {
            "positions": [
                -1.3147009643833636,
                -1.6088039419557623,
                -0.543521183150899,
                0.3261077495701435,
                0.3165199209238797,
                1.6693070784839026
            ]
        },
        {
            "positions": [
                -1.211790460101605,
                -1.6440168387462335,
                -0.6282286641081625,
                0.3746702043528642,
                0.32591571100136096,
                1.5541581666275186
            ]
        },
        {
            "positions": [
                -1.1088799558198466,
                -1.6792297355367047,
                -0.7129361450654261,
                0.4232326591355849,
                0.3353115010788422,
                1.4390092547711344
            ]
        },
        {
            "positions": [
                -1.0059694515380881,
                -1.714442632327176,
                -0.7976436260226898,
                0.4717951139183056,
                0.3447072911563235,
                1.3238603429147504
            ]
        },
        {
            "positions": [
                -0.90305894725633,
                -1.7496555291176472,
                -0.8823511069799534,
                0.5203575687010262,
                0.3541030812338047,
                1.2087114310583664
            ]
        },
        {
            "positions": [
                -0.8001484429745715,
                -1.7848684259081184,
                -0.9670585879372169,
                0.5689200234837468,
                0.36349887131128594,
                1.0935625192019827
            ]
        },
        {
            "positions": [
                -0.6972379386928129,
                -1.82008132269859,
                -1.0517660688944805,
                0.6174824782664674,
                0.3728946613887672,
                0.9784136073455985
            ]
        },
        {
            "positions": [
                -0.5943274344110547,
                -1.8552942194890611,
                -1.1364735498517442,
                0.6660449330491882,
                0.3822904514662484,
                0.8632646954892147
            ]
        },
        {
            "positions": [
                -0.4914169301292959,
                -1.8905071162795326,
                -1.2211810308090079,
                0.7146073878319088,
                0.3916862415437297,
                0.7481157836328305
            ]
        },
        {
            "positions": [
                -0.3885064258475377,
                -1.9257200130700036,
                -1.3058885117662713,
                0.7631698426146296,
                0.4010820316212109,
                0.6329668717764463
            ]
        },
        {
            "positions": [
                -0.2855959215657795,
                -1.9609329098604749,
                -1.390595992723535,
                0.8117322973973502,
                0.4104778216986922,
                0.5178179599200625
            ]
        },
        {
            "positions": [
                -0.18268541728402088,
                -1.9961458066509463,
                -1.4753034736807986,
                0.8602947521800708,
                0.41987361177617344,
                0.4026690480636783
            ]
        },
        {
            "positions": [
                -0.07977491300226269,
                -2.0313587034414176,
                -1.5600109546380623,
                0.9088572069627914,
                0.4292694018536547,
                0.28752013620729455
            ]
        },
        {
            "positions": [
                0.023135591279495937,
                -2.066571600231889,
                -1.6447184355953255,
                0.957419661745512,
                0.43866519193113596,
                0.1723712243509108
            ]
        },
        {
            "positions": [
                0.12604609556125457,
                -2.10178449702236,
                -1.7294259165525891,
                1.0059821165282328,
                0.4480609820086172,
                0.057222312494526584
            ]
        },
        {
            "positions": [
                0.22895659984301275,
                -2.1369973938128313,
                -1.8141333975098528,
                1.0545445713109534,
                0.4574567720860984,
                -0.05792659936185762
            ]
        },
        {
            "positions": [
                0.3318671041247714,
                -2.1722102906033025,
                -1.8988408784671165,
                1.1031070260936742,
                0.4668525621635797,
                -0.17307551121824183
            ]
        },
        {
            "positions": [
                0.43477760840652957,
                -2.2074231873937737,
                -1.98354835942438,
                1.1516694808763948,
                0.47624835224106093,
                -0.28822442307462554
            ]
        },
        {
            "positions": [
                0.3313090211861729,
                -2.2190899697555353,
                -2.05083640200107,
                1.2041982319314766,
                0.42614959671993,
                -0.23066694202747356
            ]
        },
        {
            "positions": [
                0.22784043396581616,
                -2.230756752117297,
                -2.11812444457776,
                1.2567269829865584,
                0.37605084119879906,
                -0.1731094609803216
            ]
        },
        {
            "positions": [
                0.12437184674545942,
                -2.242423534479058,
                -2.18541248715445,
                1.3092557340416402,
                0.32595208567766815,
                -0.11555197993316962
            ]
        },
        {
            "positions": [
                0.020903259525102746,
                -2.2540903168408195,
                -2.25270052973114,
                1.3617844850967218,
                0.27585333015653724,
                -0.057994498886017654
            ]
        },
        {
            "positions": [
                -0.08256532769525404,
                -2.265757099202581,
                -2.31998857230783,
                1.4143132361518036,
                0.22575457463540627,
                -0.00043701783886568313
            ]
        },
        {
            "positions": [
                -0.1860339149156107,
                -2.2774238815643426,
                -2.38727661488452,
                1.4668419872068854,
                0.17565581911427536,
                0.05712046320828631
            ]
        }
    ]
}