{
    "goal": {
        "global_pose": {
            "orientation": {
                "w": 0.7047431493862688,
                "x": -0.7094548369677653,
                "y": 0.0024358444001904,
                "z": -0.0022348060817251984
            },
            "position": {
                "x": -0.39052492380142206,
                "y": 0.3671506643295288,
                "z": 0.19426114857196808
            }
        },
        "name": "move_to_magneteinheit_D"
    },
    "id": "ProjEST_move_to_magneteinheit_D_14",
    "joint_names": [
        "shoulder_pan_joint",
        "shoulder_lift_joint",
        "elbow_joint",
        "wrist_1_joint",
        "wrist_2_joint",
        "wrist_3_joint"
    ],
    "metrics": {
        "cart_traj_len": 4.45498321702853,
        "distance_elbow_joint": 3.7415429492023513,
        "distance_shoulder_lift_joint": 1.668236079761293,
        "distance_shoulder_pan_joint": 4.3299663244502735,
        "distance_wrist_1_joint": 3.2460610268401746,
        "distance_wrist_2_joint": 1.5482790596313452,
        "distance_wrist_3_joint": 2.003445441433018,
        "smoothness": 0.7686051857736911,
        "time": 0.23532039000000002,
        "traj_len": 4.06663631043132,
        "weighted_distance": 5.033762196474522
    },
    "planner": "ProjEST",
    "start": {
        "state": {
            "elbow_joint": 0.7495348899011973,
            "shoulder_lift_joint": -0.6476975780737697,
            "shoulder_pan_joint": -2.711696901376276,
            "wrist_1_joint": -0.07506478080974305,
            "wrist_2_joint": 0.4329665971545858,
            "wrist_3_joint": 3.1361499051832524
        }
    },
    "waypoints": [
        {
            "positions": [
                -2.711696901376276,
                -0.6476975780737697,
                0.7495348899011973,
                -0.07506478080974305,
                0.4329665971545858,
                3.1361499051832524
            ]
        },
        {
            "positions": [
                -2.7237897920020027,
                -0.6122106080221467,
                0.6357847969639436,
                -0.005184435738527171,
                0.37290589341107083,
                3.0641942620677534
            ]
        },
        {
            "positions": [
                -2.7358826826277296,
                -0.5767236379705236,
                0.5220347040266899,
                0.0646959093326887,
                0.31284518966755587,
                2.9922386189522547
            ]
        },
        {
            "positions": [
                -2.747975573253456,
                -0.5412366679189006,
                0.4082846110894363,
                0.13457625440390458,
                0.2527844859240409,
                2.9202829758367557
            ]
        },
        {
            "positions": [
                -2.7600684638791826,
                -0.5057496978672775,
                0.2945345181521826,
                0.20445659947512046,
                0.19272378218052597,
                2.848327332721257
            ]
        },
        {
            "positions": [
                -2.7721613545049095,
                -0.4702627278156545,
                0.180784425214929,
                0.27433694454633634,
                0.13266307843701103,
                2.776371689605758
            ]
        },
        {
            "positions": [
                -2.784254245130636,
                -0.43477575776403143,
                0.0670343322776753,
                0.3442172896175522,
                0.07260237469349606,
                2.704416046490259
            ]
        },
        {
            "positions": [
                -2.796347135756363,
                -0.3992887877124084,
                -0.04671576065957839,
                0.4140976346887681,
                0.012541670949981099,
                2.6324604033747603
            ]
        },
        {
            "positions": [
                -2.8084400263820894,
                -0.36380181766078534,
                -0.16046585359683208,
                0.4839779797599839,
                -0.047519032793533866,
                2.560504760259261
            ]
        },
        {
            "positions": [
                -2.770305963607401,
                -0.38728246729092375,
                -0.13705449680228346,
                0.3916880927521438,
                -0.02109969477027185,
                2.423546068375558
            ]
        },
        {
            "positions": [
                -2.7321719008327126,
                -0.4107631169210622,
                -0.11364314000773487,
                0.2993982057443036,
                0.005319643252990169,
                2.2865873764918545
            ]
        },
        {
            "positions": [
                -2.694037838058024,
                -0.4342437665512006,
                -0.09023178321318626,
                0.20710831873646343,
                0.03173898127625218,
                2.1496286846081514
            ]
        },
        {
            "positions": [
                -2.5614794354897343,
                -0.47437887077248364,
                -0.19080484266979977,
                0.1255899343814017,
                0.007807535079148806,
                2.157822129275518
            ]
        },
        {
            "positions": [
                -2.4289210329214446,
                -0.5145139749937666,
                -0.2913779021264133,
                0.044071550026339945,
                -0.016123911117954567,
                2.166015573942885
            ]
        },
        {
            "positions": [
                -2.296362630353155,
                -0.5546490792150496,
                -0.3919509615830268,
                -0.03744683432872181,
                -0.04005535731505793,
                2.174209018610252
            ]
        },
        {
            "positions": [
                -2.1638042277848655,
                -0.5947841834363325,
                -0.4925240210396403,
                -0.11896521868378354,
                -0.06398680351216132,
                2.1824024632776187
            ]
        },
        {
            "positions": [
                -2.0312458252165753,
                -0.6349192876576156,
                -0.5930970804962539,
                -0.20048360303884535,
                -0.08791824970926468,
                2.190595907944985
            ]
        },
        {
            "positions": [
                -1.898687422648286,
                -0.6750543918788986,
                -0.6936701399528673,
                -0.282001987393907,
                -0.11184969590636804,
                2.198789352612352
            ]
        },
        {
            "positions": [
                -1.7661290200799962,
                -0.7151894961001817,
                -0.794243199409481,
                -0.3635203717489689,
                -0.13578114210347142,
                2.2069827972797187
            ]
        },
        {
            "positions": [
                -1.6335706175117064,
                -0.7553246003214646,
                -0.8948162588660944,
                -0.44503875610403054,
                -0.1597125883005748,
                2.2151762419470855
            ]
        },
        {
            "positions": [
                -1.5010122149434166,
                -0.7954597045427476,
                -0.9953893183227078,
                -0.5265571404590923,
                -0.18364403449767816,
                2.2233696866144523
            ]
        },
        {
            "positions": [
                -1.3684538123751269,
                -0.8355948087640306,
                -1.0959623777793215,
                -0.6080755248141542,
                -0.20757548069478154,
                2.231563131281819
            ]
        },
        {
            "positions": [
                -1.2358954098068373,
                -0.8757299129853136,
                -1.196535437235935,
                -0.6895939091692158,
                -0.2315069268918849,
                2.239756575949186
            ]
        },
        {
            "positions": [
                -1.1033370072385476,
                -0.9158650172065965,
                -1.2971084966925484,
                -0.7711122935242776,
                -0.25543837308898826,
                2.247950020616553
            ]
        },
        {
            "positions": [
                -0.9707786046702578,
                -0.9560001214278795,
                -1.397681556149162,
                -0.8526306778793394,
                -0.27936981928609167,
                2.256143465283919
            ]
        },
        {
            "positions": [
                -0.838220202101968,
                -0.9961352256491627,
                -1.4982546156057757,
                -0.9341490622344012,
                -0.303301265483195,
                2.264336909951286
            ]
        },
        {
            "positions": [
                -0.7056617995336785,
                -1.0362703298704454,
                -1.5988276750623889,
                -1.0156674465894626,
                -0.3272327116802984,
                2.272530354618653
            ]
        },
        {
            "positions": [
                -0.5731033969653887,
                -1.0764054340917286,
                -1.6994007345190025,
                -1.0971858309445244,
                -0.3511641578774018,
                2.2807237992860196
            ]
        },
        {
            "positions": [
                -0.44054499439709893,
                -1.1165405383130116,
                -1.7999737939756162,
                -1.1787042152995864,
                -0.37509560407450515,
                2.2889172439533865
            ]
        },
        {
            "positions": [
                -0.30798659182880916,
                -1.1566756425342946,
                -1.9005468534322294,
                -1.260222599654648,
                -0.3990270502716085,
                2.2971106886207533
            ]
        },
        {
            "positions": [
                -0.1754281892605194,
                -1.1968107467555775,
                -2.001119912888843,
                -1.3417409840097096,
                -0.42295849646871186,
                2.30530413328812
            ]
        },
        {
            "positions": [
                -0.04286978669222963,
                -1.2369458509768605,
                -2.1016929723454565,
                -1.4232593683647716,
                -0.4468899426658153,
                2.313497577955487
            ]
        },
        {
            "positions": [
                0.0896886158760597,
                -1.2770809551981435,
                -2.20226603180207,
                -1.5047777527198332,
                -0.4708213888629186,
                2.3216910226228533
            ]
        },
        {
            "positions": [
                0.22224701844434946,
                -1.3172160594194264,
                -2.302839091258684,
                -1.586296137074895,
                -0.494752835060022,
                2.32988446729022
            ]
        },
        {
            "positions": [
                0.3548054210126397,
                -1.3573511636407096,
                -2.4034121507152975,
                -1.6678145214299567,
                -0.5186842812571254,
                2.338077911957587
            ]
        },
        {
            "positions": [
                0.487363823580929,
                -1.3974862678619924,
                -2.5039852101719102,
                -1.7493329057850184,
                -0.5426157274542287,
                2.346271356624954
            ]
        },
        {
            "positions": [
                0.619922226149219,
                -1.4376213720832756,
                -2.604558269628524,
                -1.8308512901400804,
                -0.5665471736513321,
                2.3544648012923206
            ]
        },
        {
            "positions": [
                0.5193146077850751,
                -1.476436467699003,
                -2.5736855635153564,
                -1.8773749146863783,
                -0.5177660160656004,
                2.455975814314039
            ]
        },
        {
            "positions": [
                0.41870698942093126,
                -1.51525156331473,
                -2.5428128574021893,
                -1.9238985392326762,
                -0.4689848584798687,
                2.5574868273357576
            ]
        },
        {
            "positions": [
                0.31809937105678743,
                -1.5540666589304575,
                -2.5119401512890223,
                -1.9704221637789743,
                -0.42020370089413694,
                2.658997840357476
            ]
        },
        {
            "positions": [
                0.21749175269264354,
                -1.5928817545461849,
                -2.4810674451758548,
                -2.0169457883252724,
                -0.3714225433084053,
                2.7605088533791946
            ]
        },
        {
            "positions": [
                0.11688413432849964,
                -1.631696850161912,
                -2.4501947390626873,
                -2.0634694128715703,
                -0.32264138572267353,
                2.862019866400913
            ]
        },
        {
            "positions": [
                0.016276515964355864,
                -1.6705119457776394,
                -2.41932203294952,
                -2.109993037417868,
                -0.27386022813694183,
                2.963530879422631
            ]
        },
        {
            "positions": [
                -0.08433110239978803,
                -1.7093270413933666,
                -2.388449326836353,
                -2.156516661964166,
                -0.22507907055121013,
                3.0650418924443494
            ]
        },
        {
            "positions": [
                -0.18493872076393192,
                -1.748142137009094,
                -2.3575766207231856,
                -2.203040286510464,
                -0.17629791296547842,
                3.166552905466068
            ]
        }
    ]
}