{
    "goal": {
        "global_pose": {
            "orientation": {
                "w": -0.4816463035849501,
                "x": 0.5182115481033762,
                "y": 0.4908360881923453,
                "z": -0.5084816262002911
            },
            "position": {
                "x": -0.8240239810943604,
                "y": 0.19912469901144506,
                "z": 0.16403168439865112
            }
        },
        "name": "move_to_storage_D"
    },
    "id": "ProjEST_move_to_storage_D_7",
    "joint_names": [
        "shoulder_pan_joint",
        "shoulder_lift_joint",
        "elbow_joint",
        "wrist_1_joint",
        "wrist_2_joint",
        "wrist_3_joint"
    ],
    "metrics": {
        "cart_traj_len": 3.904451696768397,
        "distance_elbow_joint": 4.216038375446162,
        "distance_shoulder_lift_joint": 1.2628561448339048,
        "distance_shoulder_pan_joint": 2.81359746410345,
        "distance_wrist_1_joint": 3.088962537689597,
        "distance_wrist_2_joint": 0.8856431589140431,
        "distance_wrist_3_joint": 3.160080220410985,
        "smoothness": 0.09350727848666712,
        "time": 0.167950175,
        "traj_len": 3.927744632915707,
        "weighted_distance": 5.071680593139098
    },
    "planner": "ProjEST",
    "start": {
        "state": {
            "elbow_joint": -2.384821997420982,
            "shoulder_lift_joint": -2.2788054674887404,
            "shoulder_pan_joint": -0.18546946417610016,
            "wrist_1_joint": 1.4845937964226739,
            "wrist_2_joint": 0.1789877726866377,
            "wrist_3_joint": 0.03710572555276528
        }
    },
    "waypoints": [
        {
            "positions": [
                -0.18546946417610016,
                -2.2788054674887404,
                -2.384821997420982,
                1.4845937964226739,
                0.1789877726866377,
                0.03710572555276528
            ]
        },
        {
            "positions": [
                -0.10737494974439758,
                -2.251580523099529,
                -2.2561644364131785,
                1.3978521727666882,
                0.20170306038037794,
                0.08492140661673746
            ]
        },
        {
            "positions": [
                -0.029280435312695002,
                -2.224355578710318,
                -2.1275068754053756,
                1.3111105491107025,
                0.22441834807411815,
                0.13273708768070963
            ]
        },
        {
            "positions": [
                0.048814079119007564,
                -2.197130634321107,
                -1.9988493143975723,
                1.224368925454717,
                0.24713363576785838,
                0.18055276874468185
            ]
        },
        {
            "positions": [
                0.12690859355071016,
                -2.1699056899318956,
                -1.870191753389769,
                1.1376273017987313,
                0.2698489234615986,
                0.228368449808654
            ]
        },
        {
            "positions": [
                0.20500310798241272,
                -2.1426807455426844,
                -1.7415341923819658,
                1.0508856781427456,
                0.2925642111553388,
                0.27618413087262617
            ]
        },
        {
            "positions": [
                0.2830976224141153,
                -2.115455801153473,
                -1.6128766313741627,
                0.9641440544867599,
                0.315279498849079,
                0.3239998119365984
            ]
        },
        {
            "positions": [
                0.3611921368458179,
                -2.088230856764262,
                -1.4842190703663594,
                0.8774024308307742,
                0.3379947865428192,
                0.37181549300057054
            ]
        },
        {
            "positions": [
                0.4392866512775205,
                -2.061005912375051,
                -1.3555615093585562,
                0.7906608071747886,
                0.3607100742365595,
                0.4196311740645427
            ]
        },
        {
            "positions": [
                0.5173811657092231,
                -2.0337809679858396,
                -1.226903948350753,
                0.7039191835188028,
                0.38342536193029975,
                0.46744685512851497
            ]
        },
        {
            "positions": [
                0.5954756801409256,
                -2.0065560235966284,
                -1.0982463873429498,
                0.6171775598628172,
                0.40614064962403995,
                0.5152625361924871
            ]
        },
        {
            "positions": [
                0.6735701945726282,
                -1.979331079207417,
                -0.9695888263351464,
                0.5304359362068315,
                0.42885593731778016,
                0.5630782172564593
            ]
        },
        {
            "positions": [
                0.7516647090043307,
                -1.9521061348182058,
                -0.8409312653273433,
                0.4436943125508459,
                0.45157122501152036,
                0.6108938983204315
            ]
        },
        {
            "positions": [
                0.8297592234360334,
                -1.9248811904289946,
                -0.71227370431954,
                0.3569526888948602,
                0.47428651270526057,
                0.6587095793844037
            ]
        },
        {
            "positions": [
                0.907853737867736,
                -1.8976562460397834,
                -0.5836161433117368,
                0.2702110652388745,
                0.49700180039900077,
                0.7065252604483758
            ]
        },
        {
            "positions": [
                0.9859482522994385,
                -1.8704313016505723,
                -0.4549585823039335,
                0.1834694415828888,
                0.5197170880927411,
                0.7543409415123481
            ]
        },
        {
            "positions": [
                1.0640427667311412,
                -1.843206357261361,
                -0.3263010212961306,
                0.09672781792690333,
                0.5424323757864813,
                0.8021566225763201
            ]
        },
        {
            "positions": [
                1.1421372811628436,
                -1.8159814128721499,
                -0.19764346028832724,
                0.009986194270917625,
                0.5651476634802215,
                0.8499723036402923
            ]
        },
        {
            "positions": [
                1.2202317955945463,
                -1.7887564684829387,
                -0.0689858992805239,
                -0.0767554293850683,
                0.5878629511739617,
                0.8977879847042647
            ]
        },
        {
            "positions": [
                1.298326310026249,
                -1.7615315240937273,
                0.059671661727279446,
                -0.16349705304105377,
                0.6105782388677019,
                0.9456036657682367
            ]
        },
        {
            "positions": [
                1.3764208244579514,
                -1.7343065797045163,
                0.18832922273508235,
                -0.2502386766970395,
                0.6332935265614421,
                0.9934193468322089
            ]
        },
        {
            "positions": [
                1.454515338889654,
                -1.707081635315305,
                0.31698678374288525,
                -0.33698030035302495,
                0.6560088142551823,
                1.0412350278961813
            ]
        },
        {
            "positions": [
                1.5326098533213566,
                -1.6798566909260937,
                0.44564434475068904,
                -0.4237219240090109,
                0.6787241019489226,
                1.0890507089601535
            ]
        },
        {
            "positions": [
                1.6107043677530593,
                -1.6526317465368825,
                0.5743019057584919,
                -0.5104635476649964,
                0.7014393896426628,
                1.1368663900241256
            ]
        },
        {
            "positions": [
                1.6887988821847617,
                -1.6254068021476713,
                0.7029594667662953,
                -0.597205171320982,
                0.724154677336403,
                1.1846820710880979
            ]
        },
        {
            "positions": [
                1.7668933966164642,
                -1.5981818577584601,
                0.8316170277740982,
                -0.6839467949769675,
                0.7468699650301432,
                1.23249775215207
            ]
        },
        {
            "positions": [
                1.8449879110481668,
                -1.570956913369249,
                0.960274588781902,
                -0.7706884186329535,
                0.7695852527238835,
                1.2803134332160422
            ]
        },
        {
            "positions": [
                1.9230824254798695,
                -1.5437319689800377,
                1.0889321497897049,
                -0.8574300422889389,
                0.7923005404176237,
                1.3281291142800145
            ]
        },
        {
            "positions": [
                2.001176939911572,
                -1.5165070245908265,
                1.2175897107975082,
                -0.9441716659449249,
                0.8150158281113639,
                1.3759447953439865
            ]
        },
        {
            "positions": [
                2.0792714543432744,
                -1.4892820802016153,
                1.3462472718053111,
                -1.0309132896009103,
                0.8377311158051041,
                1.4237604764079586
            ]
        },
        {
            "positions": [
                2.157365968774977,
                -1.4620571358124042,
                1.474904832813115,
                -1.1176549132568963,
                0.8604464034988444,
                1.471576157471931
            ]
        },
        {
            "positions": [
                2.23546048320668,
                -1.434832191423193,
                1.6035623938209178,
                -1.2043965369128817,
                0.8831616911925846,
                1.519391838535903
            ]
        },
        {
            "positions": [
                2.279090207286754,
                -1.388289650448931,
                1.6288572809547248,
                -1.1599551808735438,
                0.9033249401268175,
                1.705813406027886
            ]
        },
        {
            "positions": [
                2.3227199313668287,
                -1.3417471094746691,
                1.6541521680885318,
                -1.115513824834206,
                0.9234881890610505,
                1.8922349735198691
            ]
        },
        {
            "positions": [
                2.366349655446903,
                -1.2952045685004072,
                1.6794470552223386,
                -1.071072468794868,
                0.9436514379952833,
                2.078656541011852
            ]
        },
        {
            "positions": [
                2.4099793795269777,
                -1.2486620275261453,
                1.7047419423561456,
                -1.0266311127555303,
                0.9638146869295162,
                2.265078108503835
            ]
        },
        {
            "positions": [
                2.453609103607052,
                -1.2021194865518832,
                1.7300368294899526,
                -0.9821897567161924,
                0.9839779358637492,
                2.451499675995818
            ]
        },
        {
            "positions": [
                2.4972388276871267,
                -1.1555769455776215,
                1.7553317166237596,
                -0.9377484006768545,
                1.004141184797982,
                2.637921243487801
            ]
        },
        {
            "positions": [
                2.540868551767201,
                -1.1090344046033593,
                1.7806266037575664,
                -0.8933070446375166,
                1.024304433732215,
                2.8243428109797843
            ]
        },
        {
            "positions": [
                2.5844982758472757,
                -1.0624918636290974,
                1.8059214908913734,
                -0.8488656885981787,
                1.0444676826664478,
                3.010764378471767
            ]
        },
        {
            "positions": [
                2.62812799992735,
                -1.0159493226548355,
                1.8312163780251804,
                -0.8044243325588408,
                1.0646309316006808,
                3.19718594596375
            ]
        }
    ]
}