{
    "goal": {
        "global_pose": {
            "orientation": {
                "w": -0.4816463035849501,
                "x": 0.5182115481033762,
                "y": 0.4908360881923453,
                "z": -0.5084816262002911
            },
            "position": {
                "x": -0.8240239810943604,
                "y": -0.300875300988555,
                "z": 0.16403168439865112
            }
        },
        "name": "move_to_storage_C"
    },
    "id": "ProjEST_move_to_storage_C_109",
    "joint_names": [
        "shoulder_pan_joint",
        "shoulder_lift_joint",
        "elbow_joint",
        "wrist_1_joint",
        "wrist_2_joint",
        "wrist_3_joint"
    ],
    "metrics": {
        "cart_traj_len": 0.5768791547999101,
        "distance_elbow_joint": 0.25535202198528206,
        "distance_shoulder_lift_joint": 0.19023668810594352,
        "distance_shoulder_pan_joint": 0.4946883434349756,
        "distance_wrist_1_joint": 0.06678058551314237,
        "distance_wrist_2_joint": 1.0702211997024027,
        "distance_wrist_3_joint": 0.07440867013902164,
        "smoothness": 0.0,
        "time": 0.021221124,
        "traj_len": 1.4668631527449205,
        "weighted_distance": 1.8540514109307638
    },
    "planner": "ProjEST",
    "start": {
        "state": {
            "elbow_joint": 2.010868315001653,
            "shoulder_lift_joint": -1.1634956873357014,
            "shoulder_pan_joint": -2.4736205022346103,
            "wrist_1_joint": -0.8367026794713948,
            "wrist_2_joint": 0.6746043897044093,
            "wrist_3_joint": 3.1335220948105738
        }
    },
    "waypoints": [
        {
            "positions": [
                -2.4736205022346103,
                -1.1634956873357014,
                2.010868315001653,
                -0.8367026794713948,
                0.6746043897044093,
                3.1335220948105738
            ]
        },
        {
            "positions": [
                -2.556068559473773,
                -1.1317895726513776,
                1.9683096446707729,
                -0.825572581885871,
                0.8529745896548098,
                3.145923539833744
            ]
        },
        {
            "positions": [
                -2.6385166167129355,
                -1.1000834579670535,
                1.9257509743398924,
                -0.8144424843003473,
                1.0313447896052101,
                3.158324984856914
            ]
        },
        {
            "positions": [
                -2.720964673952098,
                -1.0683773432827297,
                1.883192304009012,
                -0.8033123867148235,
                1.2097149895556107,
                3.1707264298800846
            ]
        },
        {
            "positions": [
                -2.8034127311912607,
                -1.0366712285984057,
                1.8406336336781317,
                -0.7921822891292999,
                1.3880851895060111,
                3.183127874903255
            ]
        },
        {
            "positions": [
                -2.8858607884304233,
                -1.0049651139140818,
                1.7980749633472515,
                -0.7810521915437761,
                1.5664553894564115,
                3.195529319926425
            ]
        },
        {
            "positions": [
                -2.968308845669586,
                -0.9732589992297579,
                1.755516293016371,
                -0.7699220939582524,
                1.7448255894068119,
                3.2079307649495954
            ]
        }
    ]
}