{
    "goal": {
        "global_pose": {
            "orientation": {
                "w": 0.005598929693374612,
                "x": 0.007748599140229565,
                "y": 0.7110244013736278,
                "z": -0.7031023480610252
            },
            "position": {
                "x": 0.1141497679147869,
                "y": -0.7141253447532654,
                "z": 0.3711530566215515
            }
        },
        "name": "move_to_auspresseinheit_B"
    },
    "id": "ProjEST_move_to_auspresseinheit_B_128",
    "joint_names": [
        "shoulder_pan_joint",
        "shoulder_lift_joint",
        "elbow_joint",
        "wrist_1_joint",
        "wrist_2_joint",
        "wrist_3_joint"
    ],
    "metrics": {
        "cart_traj_len": 0.5647035542416247,
        "distance_elbow_joint": 0.0657548978039475,
        "distance_shoulder_lift_joint": 0.2946703959981509,
        "distance_shoulder_pan_joint": 0.5782800009671736,
        "distance_wrist_1_joint": 0.3397675298342918,
        "distance_wrist_2_joint": 0.9861582327295475,
        "distance_wrist_3_joint": 0.007172946014657899,
        "smoothness": 2.5376526478085547e-16,
        "time": 0.070797993,
        "traj_len": 1.507250477972314,
        "weighted_distance": 1.9005461472800194
    },
    "planner": "ProjEST",
    "start": {
        "state": {
            "elbow_joint": 2.019306165916698,
            "shoulder_lift_joint": -1.1220205098164344,
            "shoulder_pan_joint": -1.095207207618794,
            "wrist_1_joint": -0.8559671824921639,
            "wrist_2_joint": 0.47596387242952726,
            "wrist_3_joint": 3.159081874673826
        }
    },
    "waypoints": [
        {
            "positions": [
                -1.095207207618794,
                -1.1220205098164344,
                2.019306165916698,
                -0.8559671824921639,
                0.47596387242952726,
                3.159081874673826
            ]
        },
        {
            "positions": [
                -1.1915872077799896,
                -1.171132242482793,
                2.008347016282707,
                -0.7993392608531152,
                0.6403235778844518,
                3.157886383671383
            ]
        },
        {
            "positions": [
                -1.2879672079411852,
                -1.2202439751491514,
                1.9973878666487155,
                -0.7427113392140666,
                0.8046832833393764,
                3.15669089266894
            ]
        },
        {
            "positions": [
                -1.3843472081023807,
                -1.2693557078155098,
                1.9864287170147241,
                -0.6860834175750179,
                0.9690429887943011,
                3.1554954016664967
            ]
        },
        {
            "positions": [
                -1.4807272082635763,
                -1.3184674404818684,
                1.975469567380733,
                -0.6294554959359693,
                1.1334026942492255,
                3.154299910664054
            ]
        },
        {
            "positions": [
                -1.577107208424772,
                -1.367579173148227,
                1.9645104177467418,
                -0.5728275742969207,
                1.2977623997041503,
                3.153104419661611
            ]
        },
        {
            "positions": [
                -1.6734872085859676,
                -1.4166909058145853,
                1.9535512681127505,
                -0.516199652657872,
                1.4621221051590747,
                3.151908928659168
            ]
        }
    ]
}