{
    "goal": {
        "global_pose": {
            "orientation": {
                "w": -0.4816463035849501,
                "x": 0.5182115481033762,
                "y": 0.4908360881923453,
                "z": -0.5084816262002911
            },
            "position": {
                "x": -0.8240239810943604,
                "y": -0.300875300988555,
                "z": 0.16403168439865112
            }
        },
        "name": "move_to_storage_C"
    },
    "id": "ProjEST_move_to_storage_C_132",
    "joint_names": [
        "shoulder_pan_joint",
        "shoulder_lift_joint",
        "elbow_joint",
        "wrist_1_joint",
        "wrist_2_joint",
        "wrist_3_joint"
    ],
    "metrics": {
        "cart_traj_len": 0.5770481195951574,
        "distance_elbow_joint": 0.25647083210591437,
        "distance_shoulder_lift_joint": 0.18911143079671922,
        "distance_shoulder_pan_joint": 0.4945382843136681,
        "distance_wrist_1_joint": 0.06908656107445388,
        "distance_wrist_2_joint": 1.0716647121089027,
        "distance_wrist_3_joint": 0.06291231998164992,
        "smoothness": 2.5376526478085547e-16,
        "time": 0.018214866,
        "traj_len": 1.4641667051197784,
        "weighted_distance": 1.8467160186471456
    },
    "planner": "ProjEST",
    "start": {
        "state": {
            "elbow_joint": 2.010868315001653,
            "shoulder_lift_joint": -1.1634956873357014,
            "shoulder_pan_joint": -2.4736205022346103,
            "wrist_1_joint": -0.8367026794713948,
            "wrist_2_joint": 0.6746043897044093,
            "wrist_3_joint": 3.1335220948105738
        }
    },
    "waypoints": [
        {
            "positions": [
                -2.4736205022346103,
                -1.1634956873357014,
                2.010868315001653,
                -0.8367026794713948,
                0.6746043897044093,
                3.1335220948105738
            ]
        },
        {
            "positions": [
                -2.5560435496202216,
                -1.1319771155362481,
                1.968123176317334,
                -0.8251882526256524,
                0.8532151750558931,
                3.144007481474182
            ]
        },
        {
            "positions": [
                -2.638466597005833,
                -1.100458543736795,
                1.925378037633015,
                -0.8136738257799101,
                1.0318259604073767,
                3.1544928681377904
            ]
        },
        {
            "positions": [
                -2.7208896443914443,
                -1.0689399719373418,
                1.882632898948696,
                -0.8021593989341678,
                1.2104367457588605,
                3.1649782548013987
            ]
        },
        {
            "positions": [
                -2.8033126917770557,
                -1.0374214001378885,
                1.8398877602643768,
                -0.7906449720884255,
                1.3890475311103443,
                3.175463641465007
            ]
        },
        {
            "positions": [
                -2.885735739162667,
                -1.0059028283384355,
                1.7971426215800577,
                -0.7791305452426832,
                1.567658316461828,
                3.1859490281286154
            ]
        },
        {
            "positions": [
                -2.9681587865482784,
                -0.9743842565389822,
                1.7543974828957387,
                -0.7676161183969409,
                1.746269101813312,
                3.1964344147922237
            ]
        }
    ]
}