{
    "goal": {
        "global_pose": {
            "orientation": {
                "w": -0.00223480608172531,
                "x": 0.0024358444001904467,
                "y": 0.7094548369677653,
                "z": -0.704743149386269
            },
            "position": {
                "x": 0.6205249238014221,
                "y": -0.6371506643295288,
                "z": 0.19426114857196808
            }
        },
        "name": "move_to_magneteinheit_B"
    },
    "id": "ProjEST_move_to_magneteinheit_B_21",
    "joint_names": [
        "shoulder_pan_joint",
        "shoulder_lift_joint",
        "elbow_joint",
        "wrist_1_joint",
        "wrist_2_joint",
        "wrist_3_joint"
    ],
    "metrics": {
        "cart_traj_len": 4.1733218161515655,
        "distance_elbow_joint": 4.06183007296189,
        "distance_shoulder_lift_joint": 0.7527059350016916,
        "distance_shoulder_pan_joint": 3.3098249707531067,
        "distance_wrist_1_joint": 5.180930399575754,
        "distance_wrist_2_joint": 5.156318166040917,
        "distance_wrist_3_joint": 3.52729380227093,
        "smoothness": 0.28255971949209946,
        "time": 1.051801718,
        "traj_len": 4.68923270339661,
        "weighted_distance": 6.275407517983419
    },
    "planner": "ProjEST",
    "start": {
        "state": {
            "elbow_joint": 2.3935871308073637,
            "shoulder_lift_joint": -1.9085141043777403,
            "shoulder_pan_joint": 0.7066247067284167,
            "wrist_1_joint": -0.46782909355067076,
            "wrist_2_joint": 0.7096259085804283,
            "wrist_3_joint": -3.1358149275257428
        }
    },
    "waypoints": [
        {
            "positions": [
                0.7066247067284167,
                -1.9085141043777403,
                2.3935871308073637,
                -0.46782909355067076,
                0.7096259085804283,
                -3.1358149275257428
            ]
        },
        {
            "positions": [
                0.5882601121812673,
                -1.9159368240506263,
                2.3763604495197406,
                -0.43174156881822445,
                0.6560176410618098,
                -2.9858290856149328
            ]
        },
        {
            "positions": [
                0.46989551763411785,
                -1.9233595437235123,
                2.3591337682321174,
                -0.3956540440857781,
                0.6024093735431914,
                -2.8358432437041228
            ]
        },
        {
            "positions": [
                0.3857157681660469,
                -1.9194020204333198,
                2.3165259584744735,
                -0.38098741662059415,
                0.5395503800579202,
                -2.733748354014918
            ]
        },
        {
            "positions": [
                0.301536018697976,
                -1.9154444971431273,
                2.273918148716829,
                -0.3663207891554102,
                0.47669138657264915,
                -2.631653464325713
            ]
        },
        {
            "positions": [
                0.21735626922990514,
                -1.9114869738529348,
                2.231310338959185,
                -0.35165416169022634,
                0.41383239308737807,
                -2.5295585746365084
            ]
        },
        {
            "positions": [
                0.13317651976183423,
                -1.9075294505627423,
                2.188702529201541,
                -0.3369875342250424,
                0.35097339960210694,
                -2.4274636849473037
            ]
        },
        {
            "positions": [
                0.21062034308021715,
                -1.9043989981635856,
                2.048898570934332,
                -0.40876668506702457,
                0.26074583515339167,
                -2.4194574042004358
            ]
        },
        {
            "positions": [
                0.2880641663986001,
                -1.9012685457644292,
                1.9090946126671235,
                -0.48054583590900674,
                0.17051827070467646,
                -2.4114511234535683
            ]
        },
        {
            "positions": [
                0.36550798971698306,
                -1.8981380933652725,
                1.769290654399915,
                -0.552324986750989,
                0.08029070625596119,
                -2.4034448427067003
            ]
        },
        {
            "positions": [
                0.4429518130353659,
                -1.895007640966116,
                1.6294866961327061,
                -0.624104137592971,
                -0.009936858192754028,
                -2.3954385619598324
            ]
        },
        {
            "positions": [
                0.520395636353749,
                -1.8918771885669594,
                1.4896827378654973,
                -0.6958832884349533,
                -0.10016442264146935,
                -2.387432281212965
            ]
        },
        {
            "positions": [
                0.5978394596721318,
                -1.888746736167803,
                1.3498787795982887,
                -0.7676624392769354,
                -0.19039198709018457,
                -2.379426000466097
            ]
        },
        {
            "positions": [
                0.6752832829905148,
                -1.8856162837686463,
                1.21007482133108,
                -0.8394415901189176,
                -0.28061955153889984,
                -2.371419719719229
            ]
        },
        {
            "positions": [
                0.7527271063088976,
                -1.8824858313694897,
                1.0702708630638713,
                -0.9112207409608997,
                -0.370847115987615,
                -2.3634134389723616
            ]
        },
        {
            "positions": [
                0.8301709296272806,
                -1.8793553789703332,
                0.9304669047966625,
                -0.9829998918028819,
                -0.4610746804363304,
                -2.3554071582254936
            ]
        },
        {
            "positions": [
                0.9076147529456636,
                -1.8762249265711766,
                0.7906629465294539,
                -1.0547790426448642,
                -0.5513022448850456,
                -2.3474008774786257
            ]
        },
        {
            "positions": [
                0.9850585762640465,
                -1.8730944741720201,
                0.6508589882622453,
                -1.1265581934868463,
                -0.6415298093337608,
                -2.339394596731758
            ]
        },
        {
            "positions": [
                1.0625023995824294,
                -1.8699640217728635,
                0.5110550299950365,
                -1.1983373443288285,
                -0.7317573737824761,
                -2.3313883159848903
            ]
        },
        {
            "positions": [
                1.1399462229008124,
                -1.8668335693737068,
                0.3712510717278279,
                -1.2701164951708106,
                -0.8219849382311912,
                -2.3233820352380223
            ]
        },
        {
            "positions": [
                1.2173900462191953,
                -1.8637031169745504,
                0.23144711346061886,
                -1.3418956460127929,
                -0.9122125026799066,
                -2.315375754491155
            ]
        },
        {
            "positions": [
                1.2948338695375783,
                -1.8605726645753937,
                0.09164315519341049,
                -1.413674796854775,
                -1.0024400671286218,
                -2.307369473744287
            ]
        },
        {
            "positions": [
                1.372277692855961,
                -1.8574422121762373,
                -0.04816080307379833,
                -1.485453947696757,
                -1.092667631577337,
                -2.299363192997419
            ]
        },
        {
            "positions": [
                1.4497215161743442,
                -1.8543117597770806,
                -0.18796476134100715,
                -1.5572330985387393,
                -1.1828951960260523,
                -2.2913569122505515
            ]
        },
        {
            "positions": [
                1.527165339492727,
                -1.851181307377924,
                -0.32776871960821596,
                -1.6290122493807215,
                -1.2731227604747677,
                -2.2833506315036836
            ]
        },
        {
            "positions": [
                1.6046091628111099,
                -1.8480508549787675,
                -0.46757267787542434,
                -1.7007914002227036,
                -1.3633503249234828,
                -2.2753443507568156
            ]
        },
        {
            "positions": [
                1.682052986129493,
                -1.8449204025796109,
                -0.6073766361426332,
                -1.7725705510646859,
                -1.4535778893721982,
                -2.267338070009948
            ]
        },
        {
            "positions": [
                1.7594968094478758,
                -1.8417899501804544,
                -0.747180594409842,
                -1.844349701906668,
                -1.5438054538209134,
                -2.25933178926308
            ]
        },
        {
            "positions": [
                1.8369406327662587,
                -1.8386594977812978,
                -0.8869845526770503,
                -1.9161288527486502,
                -1.6340330182696285,
                -2.2513255085162123
            ]
        },
        {
            "positions": [
                1.9143844560846417,
                -1.8355290453821413,
                -1.0267885109442596,
                -1.9879080035906325,
                -1.7242605827183437,
                -2.243319227769345
            ]
        },
        {
            "positions": [
                1.9918282794030246,
                -1.8323985929829847,
                -1.1665924692114678,
                -2.0596871544326145,
                -1.814488147167059,
                -2.235312947022477
            ]
        },
        {
            "positions": [
                2.1231806145096908,
                -1.8755856046449713,
                -1.2007094771314708,
                -2.1056471808339814,
                -1.871679400638067,
                -2.2979483199313115
            ]
        },
        {
            "positions": [
                2.2545329496163564,
                -1.9187726163069576,
                -1.234826485051474,
                -2.1516072072353487,
                -1.9288706541090752,
                -2.360583692840146
            ]
        },
        {
            "positions": [
                2.3858852847230225,
                -1.9619596279689442,
                -1.2689434929714771,
                -2.1975672336367156,
                -1.9860619075800832,
                -2.4232190657489805
            ]
        },
        {
            "positions": [
                2.460705469836723,
                -2.0136503912278494,
                -1.285224014079527,
                -2.1886972008689325,
                -1.952935228533365,
                -2.4121328781069127
            ]
        },
        {
            "positions": [
                2.484135776922255,
                -2.0415366852584933,
                -1.3026853031199428,
                -2.0725478748008435,
                -1.8580211574266416,
                -2.3220765220834942
            ]
        },
        {
            "positions": [
                2.5075660840077876,
                -2.069422979289137,
                -1.3201465921603588,
                -1.9563985487327546,
                -1.7631070863199183,
                -2.232020166060076
            ]
        },
        {
            "positions": [
                2.53099639109332,
                -2.097309273319781,
                -1.3376078812007746,
                -1.8402492226646658,
                -1.6681930152131952,
                -2.141963810036657
            ]
        },
        {
            "positions": [
                2.5544266981788524,
                -2.1251955673504255,
                -1.3550691702411906,
                -1.7240998965965768,
                -1.5732789441064718,
                -2.0519074540132385
            ]
        },
        {
            "positions": [
                2.5778570052643848,
                -2.1530818613810694,
                -1.3725304592816063,
                -1.607950570528488,
                -1.4783648729997485,
                -1.96185109798982
            ]
        },
        {
            "positions": [
                2.601287312349917,
                -2.1809681554117133,
                -1.389991748322022,
                -1.4918012444603992,
                -1.3834508018930252,
                -1.8717947419664016
            ]
        },
        {
            "positions": [
                2.624717619435449,
                -2.208854449442357,
                -1.407453037362438,
                -1.3756519183923102,
                -1.2885367307863018,
                -1.7817383859429832
            ]
        },
        {
            "positions": [
                2.6481479265209815,
                -2.236740743473001,
                -1.4249143264028539,
                -1.2595025923242211,
                -1.1936226596795785,
                -1.6916820299195643
            ]
        },
        {
            "positions": [
                2.671578233606514,
                -2.264627037503645,
                -1.4423756154432699,
                -1.1433532662561325,
                -1.0987085885728551,
                -1.6016256738961459
            ]
        },
        {
            "positions": [
                2.6950085406920463,
                -2.2925133315342894,
                -1.4598369044836856,
                -1.0272039401880435,
                -1.0037945174661318,
                -1.5115693178727274
            ]
        },
        {
            "positions": [
                2.7184388477775787,
                -2.3203996255649333,
                -1.4772981935241014,
                -0.9110546141199547,
                -0.9088804463594087,
                -1.421512961849309
            ]
        },
        {
            "positions": [
                2.741869154863111,
                -2.348285919595577,
                -1.4947594825645174,
                -0.7949052880518657,
                -0.8139663752526853,
                -1.3314566058258903
            ]
        },
        {
            "positions": [
                2.7652994619486435,
                -2.376172213626221,
                -1.5122207716049332,
                -0.678755961983777,
                -0.7190523041459619,
                -1.2414002498024719
            ]
        },
        {
            "positions": [
                2.7648801815265145,
                -2.3876317418827555,
                -1.5245357937203934,
                -0.5653898527361251,
                -0.6345045545930939,
                -1.1546284644611755
            ]
        },
        {
            "positions": [
                2.764460901104385,
                -2.39909127013929,
                -1.5368508158358534,
                -0.4520237434884732,
                -0.5499568050402259,
                -1.067856679119879
            ]
        },
        {
            "positions": [
                2.7640416206822556,
                -2.410550798395824,
                -1.5491658379513136,
                -0.33865763424082124,
                -0.46540905548735795,
                -0.9810848937785824
            ]
        },
        {
            "positions": [
                2.7636223402601265,
                -2.4220103266523583,
                -1.5614808600667738,
                -0.22529152499316935,
                -0.38086130593448997,
                -0.894313108437286
            ]
        },
        {
            "positions": [
                2.75222492693666,
                -2.428375639013027,
                -1.5733433136320796,
                -0.0900433658604019,
                -0.28581355613062165,
                -0.7932042478006789
            ]
        },
        {
            "positions": [
                2.7408275136131937,
                -2.4347409513736955,
                -1.5852057671973852,
                0.04520479327236554,
                -0.19076580632675327,
                -0.6920953871640717
            ]
        },
        {
            "positions": [
                2.729430100289727,
                -2.4411062637343646,
                -1.597068220762691,
                0.18045295240513298,
                -0.0957180565228849,
                -0.5909865265274646
            ]
        },
        {
            "positions": [
                2.7180326869662608,
                -2.447471576095033,
                -1.6089306743279967,
                0.3157011115379004,
                -0.0006703067190165779,
                -0.4898776658908575
            ]
        },
        {
            "positions": [
                2.706635273642794,
                -2.453836888455702,
                -1.6207931278933023,
                0.45094927067066787,
                0.09437744308485185,
                -0.3887688052542504
            ]
        },
        {
            "positions": [
                2.695237860319328,
                -2.4602022008163704,
                -1.6326555814586081,
                0.5861974298034354,
                0.18942519288872017,
                -0.2876599446176433
            ]
        },
        {
            "positions": [
                2.683840446995861,
                -2.4665675131770395,
                -1.644518035023914,
                0.7214455889362028,
                0.2844729426925885,
                -0.18655108398103615
            ]
        },
        {
            "positions": [
                2.672443033672395,
                -2.472932825537708,
                -1.6563804885892195,
                0.8566937480689703,
                0.3795206924964568,
                -0.08544222334442908
            ]
        },
        {
            "positions": [
                2.6610456203489283,
                -2.4792981378983767,
                -1.6682429421545253,
                0.9919419072017376,
                0.4745684423003252,
                0.015666637292178077
            ]
        }
    ]
}