{
    "goal": {
        "global_pose": {
            "orientation": {
                "w": -0.4816463035849501,
                "x": 0.5182115481033762,
                "y": 0.4908360881923453,
                "z": -0.5084816262002911
            },
            "position": {
                "x": -0.8240239810943604,
                "y": -0.300875300988555,
                "z": 0.16403168439865112
            }
        },
        "name": "move_to_storage_C"
    },
    "id": "ProjEST_move_to_storage_C_50",
    "joint_names": [
        "shoulder_pan_joint",
        "shoulder_lift_joint",
        "elbow_joint",
        "wrist_1_joint",
        "wrist_2_joint",
        "wrist_3_joint"
    ],
    "metrics": {
        "cart_traj_len": 0.5770211196218561,
        "distance_elbow_joint": 0.25809087118117735,
        "distance_shoulder_lift_joint": 0.19092828516367244,
        "distance_shoulder_pan_joint": 0.4928506929715102,
        "distance_wrist_1_joint": 0.06886237019013652,
        "distance_wrist_2_joint": 1.0791221665128368,
        "distance_wrist_3_joint": 0.06158522524574428,
        "smoothness": 0.0,
        "time": 0.013744885,
        "traj_len": 1.4667786510803456,
        "weighted_distance": 1.8500255669745593
    },
    "planner": "ProjEST",
    "start": {
        "state": {
            "elbow_joint": 2.010868315001653,
            "shoulder_lift_joint": -1.1634956873357014,
            "shoulder_pan_joint": -2.4736205022346103,
            "wrist_1_joint": -0.8367026794713948,
            "wrist_2_joint": 0.6746043897044093,
            "wrist_3_joint": 3.1335220948105738
        }
    },
    "waypoints": [
        {
            "positions": [
                -2.4736205022346103,
                -1.1634956873357014,
                2.010868315001653,
                -0.8367026794713948,
                0.6746043897044093,
                3.1335220948105738
            ]
        },
        {
            "positions": [
                -2.5557622843965286,
                -1.1316743064750894,
                1.96785316980479,
                -0.8252256177730387,
                0.8544580841232154,
                3.1437862990181977
            ]
        },
        {
            "positions": [
                -2.637904066558447,
                -1.0998529256144773,
                1.9248380246079273,
                -0.8137485560746825,
                1.0343117785420215,
                3.1540505032258217
            ]
        },
        {
            "positions": [
                -2.7200458487203654,
                -1.068031544753865,
                1.8818228794110645,
                -0.8022714943763265,
                1.2141654729608278,
                3.164314707433446
            ]
        },
        {
            "positions": [
                -2.8021876308822837,
                -1.036210163893253,
                1.8388077342142015,
                -0.7907944326779704,
                1.3940191673796338,
                3.17457891164107
            ]
        },
        {
            "positions": [
                -2.884329413044202,
                -1.004388783032641,
                1.7957925890173385,
                -0.7793173709796143,
                1.5738728617984399,
                3.184843115848694
            ]
        },
        {
            "positions": [
                -2.9664711952061205,
                -0.972567402172029,
                1.7527774438204757,
                -0.7678403092812582,
                1.7537265562172462,
                3.195107320056318
            ]
        }
    ]
}