{
    "goal": {
        "global_pose": {
            "orientation": {
                "w": 0.005598929693374612,
                "x": 0.007748599140229565,
                "y": 0.7110244013736278,
                "z": -0.7031023480610252
            },
            "position": {
                "x": 0.1141497679147869,
                "y": -0.7141253447532654,
                "z": 0.3711530566215515
            }
        },
        "name": "move_to_auspresseinheit_B"
    },
    "id": "ProjEST_move_to_auspresseinheit_B_45",
    "joint_names": [
        "shoulder_pan_joint",
        "shoulder_lift_joint",
        "elbow_joint",
        "wrist_1_joint",
        "wrist_2_joint",
        "wrist_3_joint"
    ],
    "metrics": {
        "cart_traj_len": 0.5645548833075155,
        "distance_elbow_joint": 0.06176528533093095,
        "distance_shoulder_lift_joint": 0.29513608554767945,
        "distance_shoulder_pan_joint": 0.5788789647769537,
        "distance_wrist_1_joint": 0.3279914924473838,
        "distance_wrist_2_joint": 0.9858823635438518,
        "distance_wrist_3_joint": 0.0006880064478980152,
        "smoothness": 2.5376526478085547e-16,
        "time": 0.066341179,
        "traj_len": 1.5001140616948758,
        "weighted_distance": 1.888277539712245
    },
    "planner": "ProjEST",
    "start": {
        "state": {
            "elbow_joint": 2.019306165916698,
            "shoulder_lift_joint": -1.1220205098164344,
            "shoulder_pan_joint": -1.095207207618794,
            "wrist_1_joint": -0.8559671824921639,
            "wrist_2_joint": 0.47596387242952726,
            "wrist_3_joint": 3.159081874673826
        }
    },
    "waypoints": [
        {
            "positions": [
                -1.095207207618794,
                -1.1220205098164344,
                2.019306165916698,
                -0.8559671824921639,
                0.47596387242952726,
                3.159081874673826
            ]
        },
        {
            "positions": [
                -1.1916870350816196,
                -1.1712098574077143,
                2.0090119516948763,
                -0.8013019337509333,
                0.640277599686836,
                3.1591965424151423
            ]
        },
        {
            "positions": [
                -1.2881668625444451,
                -1.2203992049989942,
                1.9987177374730543,
                -0.7466366850097026,
                0.8045913269441445,
                3.1593112101564587
            ]
        },
        {
            "positions": [
                -1.384646690007271,
                -1.2695885525902741,
                1.9884235232512326,
                -0.6919714362684719,
                0.9689050542014532,
                3.1594258778977746
            ]
        },
        {
            "positions": [
                -1.4811265174700963,
                -1.318777900181554,
                1.9781293090294108,
                -0.6373061875272413,
                1.1332187814587618,
                3.159540545639091
            ]
        },
        {
            "positions": [
                -1.577606344932922,
                -1.367967247772834,
                1.967835094807589,
                -0.5826409387860108,
                1.2975325087160705,
                3.1596552133804074
            ]
        },
        {
            "positions": [
                -1.6740861723957476,
                -1.4171565953641139,
                1.957540880585767,
                -0.5279756900447801,
                1.461846235973379,
                3.159769881121724
            ]
        }
    ]
}