{
    "goal": {
        "global_pose": {
            "orientation": {
                "w": 0.005598929693374612,
                "x": 0.007748599140229565,
                "y": 0.7110244013736278,
                "z": -0.7031023480610252
            },
            "position": {
                "x": 0.1141497679147869,
                "y": -0.7141253447532654,
                "z": 0.3711530566215515
            }
        },
        "name": "move_to_auspresseinheit_B"
    },
    "id": "ProjEST_move_to_auspresseinheit_B_139",
    "joint_names": [
        "shoulder_pan_joint",
        "shoulder_lift_joint",
        "elbow_joint",
        "wrist_1_joint",
        "wrist_2_joint",
        "wrist_3_joint"
    ],
    "metrics": {
        "cart_traj_len": 0.5647860239854428,
        "distance_elbow_joint": 0.06653712661155353,
        "distance_shoulder_lift_joint": 0.293469036844888,
        "distance_shoulder_pan_joint": 0.5778691725011162,
        "distance_wrist_1_joint": 0.33878074204221564,
        "distance_wrist_2_joint": 0.9870210007569511,
        "distance_wrist_3_joint": 0.005058736046447354,
        "smoothness": 0.0,
        "time": 0.200421544,
        "traj_len": 1.5062323243122795,
        "weighted_distance": 1.8985929078386534
    },
    "planner": "ProjEST",
    "start": {
        "state": {
            "elbow_joint": 2.019306165916698,
            "shoulder_lift_joint": -1.1220205098164344,
            "shoulder_pan_joint": -1.095207207618794,
            "wrist_1_joint": -0.8559671824921639,
            "wrist_2_joint": 0.47596387242952726,
            "wrist_3_joint": 3.159081874673826
        }
    },
    "waypoints": [
        {
            "positions": [
                -1.095207207618794,
                -1.1220205098164344,
                2.019306165916698,
                -0.8559671824921639,
                0.47596387242952726,
                3.159081874673826
            ]
        },
        {
            "positions": [
                -1.19151873636898,
                -1.1709320159572492,
                2.0082166448147722,
                -0.7995037254851279,
                0.6404673725556858,
                3.158238751999418
            ]
        },
        {
            "positions": [
                -1.287830265119166,
                -1.2198435220980637,
                1.9971271237128467,
                -0.743040268478092,
                0.8049708726818443,
                3.15739562932501
            ]
        },
        {
            "positions": [
                -1.384141793869352,
                -1.2687550282388784,
                1.9860376026109212,
                -0.686576811471056,
                0.9694743728080029,
                3.156552506650602
            ]
        },
        {
            "positions": [
                -1.480453322619538,
                -1.3176665343796932,
                1.9749480815089957,
                -0.6301133544640201,
                1.1339778729341612,
                3.1557093839761943
            ]
        },
        {
            "positions": [
                -1.5767648513697243,
                -1.3665780405205077,
                1.96385856040707,
                -0.5736498974569841,
                1.29848137306032,
                3.1548662613017866
            ]
        },
        {
            "positions": [
                -1.6730763801199102,
                -1.4154895466613224,
                1.9527690393051444,
                -0.5171864404499482,
                1.4629848731864783,
                3.1540231386273785
            ]
        }
    ]
}