{
    "goal": {
        "global_pose": {
            "orientation": {
                "w": 0.005598929693374612,
                "x": 0.007748599140229565,
                "y": 0.7110244013736278,
                "z": -0.7031023480610252
            },
            "position": {
                "x": 0.1141497679147869,
                "y": -0.7141253447532654,
                "z": 0.3711530566215515
            }
        },
        "name": "move_to_auspresseinheit_B"
    },
    "id": "ProjEST_move_to_auspresseinheit_B_70",
    "joint_names": [
        "shoulder_pan_joint",
        "shoulder_lift_joint",
        "elbow_joint",
        "wrist_1_joint",
        "wrist_2_joint",
        "wrist_3_joint"
    ],
    "metrics": {
        "cart_traj_len": 0.5652201968147017,
        "distance_elbow_joint": 0.06290699491280538,
        "distance_shoulder_lift_joint": 0.2951429983059317,
        "distance_shoulder_pan_joint": 0.5762679412065848,
        "distance_wrist_1_joint": 0.32913264683712684,
        "distance_wrist_2_joint": 1.0031058036681701,
        "distance_wrist_3_joint": 0.0005001230188104167,
        "smoothness": 0.0,
        "time": 0.034118582999999994,
        "traj_len": 1.5056747683179887,
        "weighted_distance": 1.8974443877205853
    },
    "planner": "ProjEST",
    "start": {
        "state": {
            "elbow_joint": 2.019306165916698,
            "shoulder_lift_joint": -1.1220205098164344,
            "shoulder_pan_joint": -1.095207207618794,
            "wrist_1_joint": -0.8559671824921639,
            "wrist_2_joint": 0.47596387242952726,
            "wrist_3_joint": 3.159081874673826
        }
    },
    "waypoints": [
        {
            "positions": [
                -1.095207207618794,
                -1.1220205098164344,
                2.019306165916698,
                -0.8559671824921639,
                0.47596387242952726,
                3.159081874673826
            ]
        },
        {
            "positions": [
                -1.1912518644865582,
                -1.1712110095340897,
                2.0088216667645638,
                -0.8011117413526427,
                0.643148173040889,
                3.159165228510294
            ]
        },
        {
            "positions": [
                -1.2872965213543222,
                -1.220401509251745,
                1.9983371676124295,
                -0.7462563002131216,
                0.8103324736522506,
                3.1592485823467626
            ]
        },
        {
            "positions": [
                -1.3833411782220864,
                -1.2695920089694002,
                1.9878526684602953,
                -0.6914008590736005,
                0.9775167742636124,
                3.1593319361832313
            ]
        },
        {
            "positions": [
                -1.4793858350898503,
                -1.3187825086870555,
                1.977368169308161,
                -0.6365454179340793,
                1.144701074874974,
                3.1594152900196995
            ]
        },
        {
            "positions": [
                -1.5754304919576145,
                -1.3679730084047108,
                1.9668836701560268,
                -0.5816899767945581,
                1.3118853754863358,
                3.1594986438561676
            ]
        },
        {
            "positions": [
                -1.6714751488253787,
                -1.4171635081223661,
                1.9563991710038926,
                -0.526834535655037,
                1.4790696760976974,
                3.1595819976926363
            ]
        }
    ]
}