{
    "goal": {
        "global_pose": {
            "orientation": {
                "w": -0.4816463035849501,
                "x": 0.5182115481033762,
                "y": 0.4908360881923453,
                "z": -0.5084816262002911
            },
            "position": {
                "x": -0.8240239810943604,
                "y": 0.19912469901144506,
                "z": 0.16403168439865112
            }
        },
        "name": "move_to_storage_D"
    },
    "id": "ProjEST_move_to_storage_D_125",
    "joint_names": [
        "shoulder_pan_joint",
        "shoulder_lift_joint",
        "elbow_joint",
        "wrist_1_joint",
        "wrist_2_joint",
        "wrist_3_joint"
    ],
    "metrics": {
        "cart_traj_len": 3.188227655594687,
        "distance_elbow_joint": 4.207151602195919,
        "distance_shoulder_lift_joint": 1.2655160250316748,
        "distance_shoulder_pan_joint": 2.812195759094362,
        "distance_wrist_1_joint": 2.263787880191635,
        "distance_wrist_2_joint": 0.8698547976971551,
        "distance_wrist_3_joint": 3.1389437787595735,
        "smoothness": 4.3270230627485517e-16,
        "time": 0.121549921,
        "traj_len": 3.8154226296663802,
        "weighted_distance": 4.89581250441418
    },
    "planner": "ProjEST",
    "start": {
        "state": {
            "elbow_joint": -2.384821997420982,
            "shoulder_lift_joint": -2.2788054674887404,
            "shoulder_pan_joint": -0.18546946417610016,
            "wrist_1_joint": 1.4845937964226739,
            "wrist_2_joint": 0.1789877726866377,
            "wrist_3_joint": 0.03710572555276528
        }
    },
    "waypoints": [
        {
            "positions": [
                -0.18546946417610016,
                -2.2788054674887404,
                -2.384821997420982,
                1.4845937964226739,
                0.1789877726866377,
                0.03710572555276528
            ]
        },
        {
            "positions": [
                -0.07018573045829352,
                -2.2433086172967363,
                -2.189794898851162,
                1.467310500480386,
                0.18095975938554798,
                0.059449307931239405
            ]
        },
        {
            "positions": [
                0.04509800325951313,
                -2.207811767104732,
                -1.9947678002813425,
                1.4500272045380982,
                0.18293174608445825,
                0.08179289030971354
            ]
        },
        {
            "positions": [
                0.16038173697731978,
                -2.172314916912728,
                -1.7997407017115228,
                1.4327439085958102,
                0.18490373278336852,
                0.10413647268818765
            ]
        },
        {
            "positions": [
                0.2756654706951264,
                -2.136818066720724,
                -1.604713603141703,
                1.4154606126535225,
                0.18687571948227882,
                0.1264800550666618
            ]
        },
        {
            "positions": [
                0.39094920441293307,
                -2.10132121652872,
                -1.4096865045718832,
                1.3981773167112346,
                0.1888477061811891,
                0.1488236374451359
            ]
        },
        {
            "positions": [
                0.5062329381307398,
                -2.0658243663367157,
                -1.2146594060020637,
                1.3808940207689466,
                0.19081969288009937,
                0.17116721982361002
            ]
        },
        {
            "positions": [
                0.6215166718485463,
                -2.0303275161447116,
                -1.019632307432244,
                1.363610724826659,
                0.19279167957900964,
                0.19351080220208414
            ]
        },
        {
            "positions": [
                0.7368004055663531,
                -1.9948306659527073,
                -0.824605208862424,
                1.346327428884371,
                0.1947636662779199,
                0.2158543845805583
            ]
        },
        {
            "positions": [
                0.8520841392841598,
                -1.959333815760703,
                -0.6295781102926044,
                1.3290441329420832,
                0.19673565297683018,
                0.23819796695903242
            ]
        },
        {
            "positions": [
                0.9673678730019664,
                -1.9238369655686989,
                -0.43455101172278465,
                1.3117608369997953,
                0.19870763967574046,
                0.2605415493375065
            ]
        },
        {
            "positions": [
                1.0826516067197731,
                -1.8883401153766948,
                -0.23952391315296495,
                1.2944775410575073,
                0.20067962637465075,
                0.2828851317159807
            ]
        },
        {
            "positions": [
                1.1979353404375797,
                -1.8528432651846907,
                -0.04449681458314547,
                1.2771942451152196,
                0.20265161307356103,
                0.30522871409445473
            ]
        },
        {
            "positions": [
                1.3132190741553864,
                -1.8173464149926866,
                0.15053028398667445,
                1.2599109491729317,
                0.2046235997724713,
                0.3275722964729289
            ]
        },
        {
            "positions": [
                1.428502807873193,
                -1.7818495648006825,
                0.34555738255649393,
                1.242627653230644,
                0.20659558647138157,
                0.34991587885140296
            ]
        },
        {
            "positions": [
                1.5437865415909995,
                -1.7463527146086784,
                0.5405844811263139,
                1.225344357288356,
                0.20856757317029184,
                0.37225946122987713
            ]
        },
        {
            "positions": [
                1.6590702753088062,
                -1.7108558644166743,
                0.7356115796961338,
                1.208061061346068,
                0.21053955986920214,
                0.3946030436083513
            ]
        },
        {
            "positions": [
                1.7743540090266128,
                -1.6753590142246702,
                0.9306386782659533,
                1.1907777654037803,
                0.21251154656811239,
                0.41694662598682536
            ]
        },
        {
            "positions": [
                1.8896377427444198,
                -1.6398621640326658,
                1.1256657768357732,
                1.1734944694614924,
                0.21448353326702269,
                0.43929020836529953
            ]
        },
        {
            "positions": [
                2.004921476462226,
                -1.604365313840662,
                1.3206928754055927,
                1.1562111735192047,
                0.21645551996593296,
                0.4616337907437736
            ]
        },
        {
            "positions": [
                2.120205210180033,
                -1.5688684636486576,
                1.5157199739754126,
                1.1389278775769167,
                0.21842750666484323,
                0.48397737312224776
            ]
        },
        {
            "positions": [
                2.1483452704432677,
                -1.538002962471347,
                1.5327538423531637,
                1.0323655463910346,
                0.26456167687145155,
                0.6335369359661417
            ]
        },
        {
            "positions": [
                2.1764853307065026,
                -1.5071374612940363,
                1.5497877107309148,
                0.9258032152051525,
                0.31069584707805986,
                0.7830964988100357
            ]
        },
        {
            "positions": [
                2.2046253909697375,
                -1.4762719601167256,
                1.566821579108666,
                0.8192408840192704,
                0.3568300172846682,
                0.9326560616539297
            ]
        },
        {
            "positions": [
                2.2327654512329724,
                -1.4454064589394149,
                1.583855447486417,
                0.7126785528333883,
                0.4029641874912765,
                1.0822156244978236
            ]
        },
        {
            "positions": [
                2.2609055114962078,
                -1.4145409577621042,
                1.6008893158641684,
                0.6061162216475062,
                0.4490983576978848,
                1.2317751873417175
            ]
        },
        {
            "positions": [
                2.2890455717594427,
                -1.3836754565847935,
                1.6179231842419195,
                0.49955389046162413,
                0.4952325279044931,
                1.3813347501856115
            ]
        },
        {
            "positions": [
                2.3171856320226776,
                -1.3528099554074828,
                1.6349570526196706,
                0.39299155927574203,
                0.5413666981111014,
                1.5308943130295054
            ]
        },
        {
            "positions": [
                2.3453256922859125,
                -1.3219444542301724,
                1.6519909209974217,
                0.28642922808985993,
                0.5875008683177098,
                1.6804538758733996
            ]
        },
        {
            "positions": [
                2.3734657525491474,
                -1.2910789530528617,
                1.6690247893751728,
                0.17986689690397784,
                0.6336350385243181,
                1.8300134387172933
            ]
        },
        {
            "positions": [
                2.4016058128123823,
                -1.260213451875551,
                1.686058657752924,
                0.07330456571809574,
                0.6797692087309264,
                1.9795730015611874
            ]
        },
        {
            "positions": [
                2.429745873075617,
                -1.2293479506982403,
                1.703092526130675,
                -0.03325776546778636,
                0.7259033789375348,
                2.1291325644050816
            ]
        },
        {
            "positions": [
                2.457885933338852,
                -1.1984824495209296,
                1.7201263945084262,
                -0.13982009665366846,
                0.772037549144143,
                2.2786921272489753
            ]
        },
        {
            "positions": [
                2.486025993602087,
                -1.167616948343619,
                1.7371602628861773,
                -0.24638242783955056,
                0.8181717193507513,
                2.428251690092869
            ]
        },
        {
            "positions": [
                2.5141660538653223,
                -1.1367514471663083,
                1.7541941312639286,
                -0.35294475902543265,
                0.8643058895573597,
                2.577811252936763
            ]
        },
        {
            "positions": [
                2.5423061141285572,
                -1.1058859459889976,
                1.7712279996416798,
                -0.45950709021131475,
                0.910440059763968,
                2.7273708157806573
            ]
        },
        {
            "positions": [
                2.570446174391792,
                -1.075020444811687,
                1.7882618680194309,
                -0.5660694213971968,
                0.9565742299705763,
                2.876930378624551
            ]
        },
        {
            "positions": [
                2.598586234655027,
                -1.0441549436343762,
                1.805295736397182,
                -0.672631752583079,
                1.0027084001771844,
                3.0264899414684447
            ]
        },
        {
            "positions": [
                2.626726294918262,
                -1.0132894424570655,
                1.822329604774933,
                -0.779194083768961,
                1.048842570383793,
                3.176049504312339
            ]
        }
    ]
}