{
    "goal": {
        "global_pose": {
            "orientation": {
                "w": 0.7031023502349854,
                "x": -0.7110244035720825,
                "y": 0.007748599164187908,
                "z": 0.005598929710686207
            },
            "position": {
                "x": 0.11585023208521307,
                "y": 0.44412534475326537,
                "z": 0.3711530566215515
            }
        },
        "name": "move_to_auspresseinheit_A"
    },
    "id": "ProjEST_move_to_auspresseinheit_A_33",
    "joint_names": [
        "shoulder_pan_joint",
        "shoulder_lift_joint",
        "elbow_joint",
        "wrist_1_joint",
        "wrist_2_joint",
        "wrist_3_joint"
    ],
    "metrics": {
        "cart_traj_len": 1.0615938130335982,
        "distance_elbow_joint": 0.97372965341851,
        "distance_shoulder_lift_joint": 0.6866295436211547,
        "distance_shoulder_pan_joint": 1.0407607290676046,
        "distance_wrist_1_joint": 1.7298648650919133,
        "distance_wrist_2_joint": 1.8846580620390987,
        "distance_wrist_3_joint": 0.9526051823173267,
        "smoothness": 1.047036937848486,
        "time": 0.346190973,
        "traj_len": 2.695968849144145,
        "weighted_distance": 3.576028708962118
    },
    "planner": "ProjEST",
    "start": {
        "state": {
            "elbow_joint": 2.4225747245308327,
            "shoulder_lift_joint": -1.373653427065438,
            "shoulder_pan_joint": -0.33786330853087027,
            "wrist_1_joint": -1.0288602302712604,
            "wrist_2_joint": 1.23302299562683,
            "wrist_3_joint": -3.094021725338297
        }
    },
    "waypoints": [
        {
            "positions": [
                -0.33786330853087027,
                -1.373653427065438,
                2.4225747245308327,
                -1.0288602302712604,
                1.23302299562683,
                -3.094021725338297
            ]
        },
        {
            "positions": [
                -0.28606657744283887,
                -1.4246590777750128,
                2.380930921141112,
                -0.933921734328187,
                1.1323601378458132,
                -3.055321308477187
            ]
        },
        {
            "positions": [
                -0.23426984635480746,
                -1.4756647284845876,
                2.3392871177513914,
                -0.8389832383851137,
                1.0316972800647966,
                -3.0166208916160766
            ]
        },
        {
            "positions": [
                -0.18247311526677604,
                -1.5266703791941625,
                2.297643314361671,
                -0.7440447424420402,
                0.9310344222837798,
                -2.9779204747549666
            ]
        },
        {
            "positions": [
                -0.13067638417874464,
                -1.5776760299037376,
                2.2559995109719497,
                -0.649106246498967,
                0.8303715645027631,
                -2.939220057893856
            ]
        },
        {
            "positions": [
                -0.07887965309071321,
                -1.6286816806133124,
                2.214355707582229,
                -0.5541677505558935,
                0.7297087067217463,
                -2.900519641032746
            ]
        },
        {
            "positions": [
                -0.02708292200268181,
                -1.6796873313228873,
                2.1727119041925085,
                -0.45922925461282016,
                0.6290458489407296,
                -2.8618192241716356
            ]
        },
        {
            "positions": [
                0.024713809085349647,
                -1.7306929820324621,
                2.131068100802788,
                -0.3642907586697467,
                0.5283829911597128,
                -2.8231188073105256
            ]
        },
        {
            "positions": [
                0.07651054017338099,
                -1.781698632742037,
                2.0894242974130672,
                -0.26935226272667345,
                0.4277201333786962,
                -2.7844183904494155
            ]
        },
        {
            "positions": [
                0.12830727126141245,
                -1.832704283451612,
                2.047780494023346,
                -0.1744137667836001,
                0.3270572755976794,
                -2.745717973588305
            ]
        },
        {
            "positions": [
                0.18010400234944385,
                -1.883709934161187,
                2.0061366906336255,
                -0.07947527084052664,
                0.22639441781666259,
                -2.707017556727195
            ]
        },
        {
            "positions": [
                0.23190073343747525,
                -1.9347155848707618,
                1.964492887243905,
                0.015463225102546607,
                0.1257315600356459,
                -2.668317139866085
            ]
        },
        {
            "positions": [
                0.28369746452550665,
                -1.9857212355803366,
                1.9228490838541843,
                0.11040172104562013,
                0.025068702254629316,
                -2.6296167230049745
            ]
        },
        {
            "positions": [
                0.34143141089750334,
                -1.9741876944680241,
                1.9931489676628331,
                0.07118373818167947,
                0.10671620417274574,
                -2.6932739710775913
            ]
        },
        {
            "positions": [
                0.3991653572695001,
                -1.9626541533557114,
                2.063448851471482,
                0.03196575531773882,
                0.18836370609086217,
                -2.756931219150208
            ]
        },
        {
            "positions": [
                0.4568993036414968,
                -1.9511206122433988,
                2.1337487352801308,
                -0.007252227546201806,
                0.27001120800897854,
                -2.8205884672228247
            ]
        },
        {
            "positions": [
                0.5146332500134935,
                -1.939587071131086,
                2.2040486190887796,
                -0.04647021041014249,
                0.351658709927095,
                -2.8842457152954415
            ]
        },
        {
            "positions": [
                0.5723671963854902,
                -1.9280535300187736,
                2.2743485028974284,
                -0.08568819327408311,
                0.4333062118452114,
                -2.9479029633680582
            ]
        },
        {
            "positions": [
                0.6158772711025715,
                -1.9224221868372093,
                2.3151833674636344,
                -0.2171925264258595,
                0.52279496487065,
                -3.0045409432416985
            ]
        },
        {
            "positions": [
                0.659387345819653,
                -1.916790843655645,
                2.35601823202984,
                -0.3486968595776359,
                0.6122837178960886,
                -3.0611789231153383
            ]
        },
        {
            "positions": [
                0.7028974205367343,
                -1.9111595004740807,
                2.396853096596046,
                -0.4802011927294123,
                0.7017724709215272,
                -3.1178169029889786
            ]
        }
    ]
}