{
    "goal": {
        "global_pose": {
            "orientation": {
                "w": 0.7031023480610252,
                "x": -0.7110244013736278,
                "y": 0.0077485991402295624,
                "z": 0.005598929693374583
            },
            "position": {
                "x": -0.8841497679147869,
                "y": 0.44412534475326537,
                "z": 0.3711530566215515
            }
        },
        "name": "move_to_auspresseinheit_D"
    },
    "id": "ProjEST_move_to_auspresseinheit_D_24",
    "joint_names": [
        "shoulder_pan_joint",
        "shoulder_lift_joint",
        "elbow_joint",
        "wrist_1_joint",
        "wrist_2_joint",
        "wrist_3_joint"
    ],
    "metrics": {
        "cart_traj_len": 4.25877291591577,
        "distance_elbow_joint": 1.6154245608405442,
        "distance_shoulder_lift_joint": 2.9531425718271453,
        "distance_shoulder_pan_joint": 0.9511347306872913,
        "distance_wrist_1_joint": 5.149043234770772,
        "distance_wrist_2_joint": 4.735279388556977,
        "distance_wrist_3_joint": 9.789515135961866,
        "smoothness": 0.29513974670826715,
        "time": 0.40962157899999996,
        "traj_len": 5.01931664897171,
        "weighted_distance": 7.393029995738963
    },
    "planner": "ProjEST",
    "start": {
        "state": {
            "elbow_joint": 1.8268400409724999,
            "shoulder_lift_joint": -1.0144045787793008,
            "shoulder_pan_joint": 2.6280239544362485,
            "wrist_1_joint": -0.790705565816056,
            "wrist_2_joint": 1.0573557467365533,
            "wrist_3_joint": 3.1851377467193758
        }
    },
    "waypoints": [
        {
            "positions": [
                2.6280239544362485,
                -1.0144045787793008,
                1.8268400409724999,
                -0.790705565816056,
                1.0573557467365533,
                3.1851377467193758
            ]
        },
        {
            "positions": [
                2.6105580928341925,
                -1.061842412351775,
                1.789237014175672,
                -0.8233303392835941,
                1.0764275573287894,
                2.9537840786654126
            ]
        },
        {
            "positions": [
                2.5930922312321365,
                -1.1092802459242488,
                1.751633987378844,
                -0.8559551127511321,
                1.0954993679210254,
                2.7224304106114494
            ]
        },
        {
            "positions": [
                2.5756263696300805,
                -1.1567180794967227,
                1.714030960582016,
                -0.8885798862186702,
                1.1145711785132615,
                2.4910767425574862
            ]
        },
        {
            "positions": [
                2.5581605080280245,
                -1.2041559130691968,
                1.6764279337851884,
                -0.9212046596862083,
                1.1336429891054978,
                2.2597230745035235
            ]
        },
        {
            "positions": [
                2.5406946464259685,
                -1.251593746641671,
                1.6388249069883605,
                -0.9538294331537465,
                1.1527147996977338,
                2.02836940644956
            ]
        },
        {
            "positions": [
                2.5232287848239126,
                -1.2990315802141448,
                1.6012218801915326,
                -0.9864542066212845,
                1.1717866102899699,
                1.7970157383955971
            ]
        },
        {
            "positions": [
                2.5057629232218566,
                -1.3464694137866187,
                1.5636188533947046,
                -1.0190789800888225,
                1.190858420882206,
                1.565662070341634
            ]
        },
        {
            "positions": [
                2.4882970616198006,
                -1.3939072473590928,
                1.5260158265978767,
                -1.0517037535563607,
                1.209930231474442,
                1.334308402287671
            ]
        },
        {
            "positions": [
                2.4708312000177446,
                -1.4413450809315669,
                1.4884127998010488,
                -1.0843285270238987,
                1.229002042066678,
                1.1029547342337076
            ]
        },
        {
            "positions": [
                2.4533653384156886,
                -1.4887829145040408,
                1.450809773004221,
                -1.1169533004914367,
                1.2480738526589144,
                0.8716010661797444
            ]
        },
        {
            "positions": [
                2.4358994768136326,
                -1.5362207480765147,
                1.413206746207393,
                -1.149578073958975,
                1.2671456632511502,
                0.6402473981257817
            ]
        },
        {
            "positions": [
                2.4184336152115766,
                -1.5836585816489888,
                1.3756037194105653,
                -1.182202847426513,
                1.2862174738433865,
                0.4088937300718185
            ]
        },
        {
            "positions": [
                2.40096775360952,
                -1.6310964152214629,
                1.3380006926137373,
                -1.2148276208940512,
                1.3052892844356225,
                0.17754006201785533
            ]
        },
        {
            "positions": [
                2.383501892007464,
                -1.6785342487939368,
                1.3003976658169094,
                -1.2474523943615892,
                1.3243610950278586,
                -0.05381360603610785
            ]
        },
        {
            "positions": [
                2.366036030405408,
                -1.7259720823664106,
                1.2627946390200815,
                -1.2800771678291272,
                1.3434329056200947,
                -0.28516727409007103
            ]
        },
        {
            "positions": [
                2.3485701688033522,
                -1.7734099159388848,
                1.2251916122232536,
                -1.3127019412966652,
                1.3625047162123307,
                -0.5165209421440338
            ]
        },
        {
            "positions": [
                2.3311043072012962,
                -1.8208477495113586,
                1.1875885854264259,
                -1.3453267147642034,
                1.3815765268045668,
                -0.747874610197997
            ]
        },
        {
            "positions": [
                2.3136384455992403,
                -1.868285583083833,
                1.1499855586295977,
                -1.3779514882317416,
                1.400648337396803,
                -0.9792282782519606
            ]
        },
        {
            "positions": [
                2.2961725839971843,
                -1.9157234166563066,
                1.11238253183277,
                -1.4105762616992796,
                1.4197201479890391,
                -1.2105819463059233
            ]
        },
        {
            "positions": [
                2.2787067223951283,
                -1.9631612502287807,
                1.074779505035942,
                -1.4432010351668176,
                1.4387919585812752,
                -1.441935614359887
            ]
        },
        {
            "positions": [
                2.2612408607930723,
                -2.010599083801255,
                1.0371764782391142,
                -1.4758258086343559,
                1.4578637691735112,
                -1.6732892824138497
            ]
        },
        {
            "positions": [
                2.2437749991910163,
                -2.0580369173737285,
                0.9995734514422863,
                -1.5084505821018939,
                1.4769355797657473,
                -1.9046429504678124
            ]
        },
        {
            "positions": [
                2.2263091375889603,
                -2.1054747509462026,
                0.9619704246454585,
                -1.5410753555694319,
                1.4960073903579834,
                -2.135996618521776
            ]
        },
        {
            "positions": [
                2.2088432759869043,
                -2.1529125845186767,
                0.9243673978486305,
                -1.57370012903697,
                1.5150792009502194,
                -2.3673502865757388
            ]
        },
        {
            "positions": [
                2.1913774143848483,
                -2.200350418091151,
                0.8867643710518026,
                -1.606324902504508,
                1.5341510115424557,
                -2.5987039546297024
            ]
        },
        {
            "positions": [
                2.1739115527827924,
                -2.247788251663625,
                0.8491613442549747,
                -1.638949675972046,
                1.5532228221346918,
                -2.830057622683665
            ]
        },
        {
            "positions": [
                2.1564456911807364,
                -2.2952260852360986,
                0.8115583174581469,
                -1.6715744494395843,
                1.5722946327269278,
                -3.0614112907376287
            ]
        },
        {
            "positions": [
                2.1389798295786804,
                -2.3426639188085727,
                0.773955290661319,
                -1.7041992229071223,
                1.5913664433191639,
                -3.292764958791591
            ]
        },
        {
            "positions": [
                2.1514687648713755,
                -2.2987481557870084,
                0.7891590693242747,
                -1.58972490999686,
                1.4778186408333702,
                -3.203261920130756
            ]
        },
        {
            "positions": [
                2.1639577001640706,
                -2.2548323927654446,
                0.8043628479872305,
                -1.4752505970865977,
                1.3642708383475766,
                -3.113758881469921
            ]
        },
        {
            "positions": [
                2.176446635456766,
                -2.2109166297438803,
                0.8195666266501862,
                -1.3607762841763353,
                1.250723035861783,
                -3.0242558428090853
            ]
        },
        {
            "positions": [
                2.1889355707494613,
                -2.1670008667223164,
                0.8347704053131421,
                -1.2463019712660732,
                1.1371752333759892,
                -2.9347528041482502
            ]
        },
        {
            "positions": [
                2.2014245060421564,
                -2.123085103700752,
                0.8499741839760978,
                -1.131827658355811,
                1.0236274308901958,
                -2.845249765487415
            ]
        },
        {
            "positions": [
                2.2139134413348516,
                -2.0791693406791882,
                0.8651779626390536,
                -1.0173533454455486,
                0.910079628404402,
                -2.75574672682658
            ]
        },
        {
            "positions": [
                2.226402376627547,
                -2.035253577657624,
                0.8803817413020093,
                -0.9028790325352862,
                0.7965318259186084,
                -2.6662436881657445
            ]
        },
        {
            "positions": [
                2.2388913119202423,
                -1.9913378146360599,
                0.895585519964965,
                -0.788404719625024,
                0.6829840234328147,
                -2.5767406495049094
            ]
        },
        {
            "positions": [
                2.2513802472129374,
                -1.9474220516144958,
                0.9107892986279209,
                -0.6739304067147616,
                0.569436220947021,
                -2.4872376108440744
            ]
        },
        {
            "positions": [
                2.2638691825056325,
                -1.9035062885929315,
                0.9259930772908767,
                -0.5594560938044995,
                0.4558884184612275,
                -2.3977345721832393
            ]
        },
        {
            "positions": [
                2.2763581177983276,
                -1.8595905255713676,
                0.9411968559538324,
                -0.4449817808942371,
                0.34234061597543386,
                -2.308231533522404
            ]
        },
        {
            "positions": [
                2.288847053091023,
                -1.8156747625498033,
                0.9564006346167881,
                -0.3305074679839748,
                0.2287928134896402,
                -2.218728494861569
            ]
        },
        {
            "positions": [
                2.3013359883837183,
                -1.7717589995282392,
                0.9716044132797439,
                -0.21603315507371246,
                0.11524501100384654,
                -2.129225456200734
            ]
        },
        {
            "positions": [
                2.3138249236764135,
                -1.7278432365066752,
                0.9868081919426996,
                -0.10155884216345012,
                0.001697208518052884,
                -2.0397224175398985
            ]
        },
        {
            "positions": [
                2.3263138589691086,
                -1.683927473485111,
                1.0020119706056554,
                0.012915470746812208,
                -0.11185059396774077,
                -1.9502193788790634
            ]
        },
        {
            "positions": [
                2.338802794261804,
                -1.640011710463547,
                1.0172157492686111,
                0.12738978365707432,
                -0.22539839645353443,
                -1.8607163402182283
            ]
        },
        {
            "positions": [
                2.3512917295544993,
                -1.5960959474419827,
                1.0324195279315669,
                0.24186409656733665,
                -0.3389461989393281,
                -1.771213301557393
            ]
        },
        {
            "positions": [
                2.3637806648471944,
                -1.5521801844204188,
                1.0476233065945229,
                0.3563384094775992,
                -0.45249400142512197,
                -1.681710262896558
            ]
        },
        {
            "positions": [
                2.3762696001398895,
                -1.5082644213988545,
                1.0628270852574784,
                0.47081272238786087,
                -0.566041803910915,
                -1.5922072242357228
            ]
        },
        {
            "positions": [
                2.3887585354325847,
                -1.4643486583772904,
                1.0780308639204343,
                0.5852870352981234,
                -0.6795896063967088,
                -1.5027041855748875
            ]
        },
        {
            "positions": [
                2.4012474707252798,
                -1.4204328953557264,
                1.09323464258339,
                0.6997613482083855,
                -0.7931374088825023,
                -1.4132011469140524
            ]
        },
        {
            "positions": [
                2.4137364060179753,
                -1.3765171323341623,
                1.1084384212463458,
                0.8142356611186481,
                -0.9066852113682962,
                -1.323698108253217
            ]
        },
        {
            "positions": [
                2.4262253413106705,
                -1.3326013693125982,
                1.1236421999093016,
                0.9287099740289102,
                -1.0202330138540896,
                -1.2341950695923822
            ]
        },
        {
            "positions": [
                2.4387142766033656,
                -1.288685606291034,
                1.1388459785722573,
                1.0431842869391728,
                -1.1337808163398835,
                -1.1446920309315467
            ]
        },
        {
            "positions": [
                2.4512032118960607,
                -1.24476984326947,
                1.154049757235213,
                1.1576585998494349,
                -1.247328618825677,
                -1.0551889922707116
            ]
        },
        {
            "positions": [
                2.4636921471887563,
                -1.2008540802479057,
                1.1692535358981688,
                1.2721329127596974,
                -1.3608764213114708,
                -0.9656859536098765
            ]
        },
        {
            "positions": [
                2.4761810824814514,
                -1.1569383172263417,
                1.1844573145611246,
                1.3866072256699595,
                -1.4744242237972642,
                -0.8761829149490414
            ]
        },
        {
            "positions": [
                2.4886700177741465,
                -1.1130225542047776,
                1.1996610932240803,
                1.501081538580222,
                -1.5879720262830581,
                -0.7866798762882059
            ]
        },
        {
            "positions": [
                2.5011589530668417,
                -1.0691067911832135,
                1.214864871887036,
                1.6155558514904842,
                -1.7015198287688515,
                -0.6971768376273713
            ]
        },
        {
            "positions": [
                2.513647888359537,
                -1.0251910281616494,
                1.2300686505499918,
                1.7300301644007468,
                -1.8150676312546454,
                -0.6076737989665357
            ]
        },
        {
            "positions": [
                2.5261368236522324,
                -0.9812752651400853,
                1.2452724292129478,
                1.8445044773110084,
                -1.9286154337404389,
                -0.5181707603057006
            ]
        },
        {
            "positions": [
                2.5386257589449275,
                -0.937359502118521,
                1.2604762078759035,
                1.958978790221271,
                -2.0421632362262327,
                -0.42866772164486555
            ]
        },
        {
            "positions": [
                2.5511146942376226,
                -0.8934437390969572,
                1.2756799865388593,
                2.0734531031315333,
                -2.155711038712026,
                -0.33916468298403046
            ]
        },
        {
            "positions": [
                2.5636036295303177,
                -0.8495279760753929,
                1.290883765201815,
                2.187927416041796,
                -2.26925884119782,
                -0.24966164432319493
            ]
        },
        {
            "positions": [
                2.5760925648230133,
                -0.8056122130538288,
                1.3060875438647708,
                2.3024017289520584,
                -2.3828066436836135,
                -0.16015860566235984
            ]
        },
        {
            "positions": [
                2.5885815001157084,
                -0.7616964500322647,
                1.3212913225277265,
                2.416876041862321,
                -2.496354446169408,
                -0.07065556700152475
            ]
        },
        {
            "positions": [
                2.6010704354084035,
                -0.7177806870107006,
                1.3364951011906823,
                2.5313503547725826,
                -2.6099022486552013,
                0.018847471659310538
            ]
        }
    ]
}