{
    "goal": {
        "global_pose": {
            "orientation": {
                "w": 0.005598929693374612,
                "x": 0.007748599140229565,
                "y": 0.7110244013736278,
                "z": -0.7031023480610252
            },
            "position": {
                "x": 0.1141497679147869,
                "y": -0.7141253447532654,
                "z": 0.3711530566215515
            }
        },
        "name": "move_to_auspresseinheit_B"
    },
    "id": "ProjEST_move_to_auspresseinheit_B_134",
    "joint_names": [
        "shoulder_pan_joint",
        "shoulder_lift_joint",
        "elbow_joint",
        "wrist_1_joint",
        "wrist_2_joint",
        "wrist_3_joint"
    ],
    "metrics": {
        "cart_traj_len": 0.5639052018106092,
        "distance_elbow_joint": 0.061342440258838726,
        "distance_shoulder_lift_joint": 0.2954099863936692,
        "distance_shoulder_pan_joint": 0.5763884386564735,
        "distance_wrist_1_joint": 0.3264970753203774,
        "distance_wrist_2_joint": 0.9946833045570007,
        "distance_wrist_3_joint": 0.0012761585708354062,
        "smoothness": 2.5376526478085547e-16,
        "time": 0.150662235,
        "traj_len": 1.5018646422887767,
        "weighted_distance": 1.8919117581896476
    },
    "planner": "ProjEST",
    "start": {
        "state": {
            "elbow_joint": 2.019306165916698,
            "shoulder_lift_joint": -1.1220205098164344,
            "shoulder_pan_joint": -1.095207207618794,
            "wrist_1_joint": -0.8559671824921639,
            "wrist_2_joint": 0.47596387242952726,
            "wrist_3_joint": 3.159081874673826
        }
    },
    "waypoints": [
        {
            "positions": [
                -1.095207207618794,
                -1.1220205098164344,
                2.019306165916698,
                -0.8559671824921639,
                0.47596387242952726,
                3.159081874673826
            ]
        },
        {
            "positions": [
                -1.191271947394873,
                -1.1712555075487125,
                2.009082425873558,
                -0.8015510032721009,
                0.6417444231890274,
                3.1588691815786865
            ]
        },
        {
            "positions": [
                -1.2873366871709517,
                -1.220490505280991,
                1.9988586858304185,
                -0.747134824052038,
                0.8075249739485275,
                3.1586564884835475
            ]
        },
        {
            "positions": [
                -1.3834014269470307,
                -1.269725503013269,
                1.9886349457872785,
                -0.6927186448319751,
                0.9733055247080276,
                3.158443795388408
            ]
        },
        {
            "positions": [
                -1.4794661667231095,
                -1.3189605007455472,
                1.9784112057441388,
                -0.6383024656119123,
                1.1390860754675276,
                3.1582311022932688
            ]
        },
        {
            "positions": [
                -1.5755309064991887,
                -1.3681954984778255,
                1.968187465700999,
                -0.5838862863918493,
                1.3048666262270279,
                3.15801840919813
            ]
        },
        {
            "positions": [
                -1.6715956462752675,
                -1.4174304962101036,
                1.9579637256578593,
                -0.5294701071717864,
                1.470647176986528,
                3.1578057161029904
            ]
        }
    ]
}