{
    "goal": {
        "global_pose": {
            "orientation": {
                "w": 0.7047431493862688,
                "x": -0.7094548369677653,
                "y": 0.0024358444001904,
                "z": -0.0022348060817251984
            },
            "position": {
                "x": -0.39052492380142206,
                "y": 0.3671506643295288,
                "z": 0.19426114857196808
            }
        },
        "name": "move_to_magneteinheit_D"
    },
    "id": "ProjEST_move_to_magneteinheit_D_97",
    "joint_names": [
        "shoulder_pan_joint",
        "shoulder_lift_joint",
        "elbow_joint",
        "wrist_1_joint",
        "wrist_2_joint",
        "wrist_3_joint"
    ],
    "metrics": {
        "cart_traj_len": 7.238478666631431,
        "distance_elbow_joint": 3.5933020237831546,
        "distance_shoulder_lift_joint": 3.3042250688052928,
        "distance_shoulder_pan_joint": 6.3194794838991,
        "distance_wrist_1_joint": 3.938717541754026,
        "distance_wrist_2_joint": 3.7619193522989844,
        "distance_wrist_3_joint": 6.209218613508634,
        "smoothness": 0.32148079709451516,
        "time": 0.160348047,
        "traj_len": 5.2083454267213485,
        "weighted_distance": 6.873567938495947
    },
    "planner": "ProjEST",
    "start": {
        "state": {
            "elbow_joint": 0.7495348899011973,
            "shoulder_lift_joint": -0.6476975780737697,
            "shoulder_pan_joint": -2.711696901376276,
            "wrist_1_joint": -0.07506478080974305,
            "wrist_2_joint": 0.4329665971545858,
            "wrist_3_joint": 3.1361499051832524
        }
    },
    "waypoints": [
        {
            "positions": [
                -2.711696901376276,
                -0.6476975780737697,
                0.7495348899011973,
                -0.07506478080974305,
                0.4329665971545858,
                3.1361499051832524
            ]
        },
        {
            "positions": [
                -2.7244532734076286,
                -0.6966442199451855,
                0.7892237522299098,
                -0.1290122549148152,
                0.43256331871171977,
                3.0037292078257507
            ]
        },
        {
            "positions": [
                -2.737209645438981,
                -0.7455908618166015,
                0.8289126145586222,
                -0.18295972901988733,
                0.4321600402688538,
                2.8713085104682485
            ]
        },
        {
            "positions": [
                -2.7499660174703333,
                -0.7945375036880173,
                0.8686014768873347,
                -0.2369072031249595,
                0.43175676182598777,
                2.738887813110747
            ]
        },
        {
            "positions": [
                -2.746780357610781,
                -0.855070858602693,
                0.9117821559805223,
                -0.3031047339623846,
                0.4386796736984632,
                2.5881129089203507
            ]
        },
        {
            "positions": [
                -2.743594697751229,
                -0.9156042135173686,
                0.9549628350737097,
                -0.3693022647998097,
                0.44560258557093874,
                2.437338004729955
            ]
        },
        {
            "positions": [
                -2.740409037891677,
                -0.9761375684320444,
                0.9981435141668973,
                -0.43549979563723484,
                0.4525254974434142,
                2.286563100539559
            ]
        },
        {
            "positions": [
                -2.5991120534771857,
                -1.0212252705370977,
                0.9671094288827861,
                -0.4874135290264214,
                0.47783960712792445,
                2.1917755644673744
            ]
        },
        {
            "positions": [
                -2.4578150690626943,
                -1.0663129726421512,
                0.9360753435986748,
                -0.5393272624156079,
                0.5031537168124347,
                2.0969880283951894
            ]
        },
        {
            "positions": [
                -2.316518084648203,
                -1.1114006747472045,
                0.9050412583145635,
                -0.5912409958047945,
                0.528467826496945,
                2.002200492323005
            ]
        },
        {
            "positions": [
                -2.1752211002337116,
                -1.1564883768522578,
                0.8740071730304523,
                -0.6431547291939811,
                0.5537819361814552,
                1.9074129562508202
            ]
        },
        {
            "positions": [
                -2.0339241158192207,
                -1.2015760789573113,
                0.842973087746341,
                -0.6950684625831677,
                0.5790960458659655,
                1.8126254201786354
            ]
        },
        {
            "positions": [
                -1.8926271314047294,
                -1.2466637810623646,
                0.8119390024622297,
                -0.7469821959723542,
                0.6044101555504757,
                1.7178378841064506
            ]
        },
        {
            "positions": [
                -1.751330146990238,
                -1.291751483167418,
                0.7809049171781185,
                -0.7988959293615407,
                0.629724265234986,
                1.623050348034266
            ]
        },
        {
            "positions": [
                -1.6100331625757467,
                -1.3368391852724715,
                0.7498708318940073,
                -0.8508096627507273,
                0.6550383749194963,
                1.5282628119620811
            ]
        },
        {
            "positions": [
                -1.4687361781612553,
                -1.3819268873775248,
                0.718836746609896,
                -0.9027233961399139,
                0.6803524846040065,
                1.4334752758898963
            ]
        },
        {
            "positions": [
                -1.327439193746764,
                -1.427014589482578,
                0.6878026613257848,
                -0.9546371295291005,
                0.7056665942885169,
                1.3386877398177117
            ]
        },
        {
            "positions": [
                -1.1861422093322729,
                -1.4721022915876314,
                0.6567685760416735,
                -1.0065508629182869,
                0.7309807039730272,
                1.243900203745527
            ]
        },
        {
            "positions": [
                -1.0448452249177815,
                -1.5171899936926847,
                0.6257344907575623,
                -1.0584645963074735,
                0.7562948136575374,
                1.1491126676733423
            ]
        },
        {
            "positions": [
                -0.9035482405032902,
                -1.5622776957977382,
                0.594700405473451,
                -1.11037832969666,
                0.7816089233420476,
                1.0543251316011575
            ]
        },
        {
            "positions": [
                -0.7622512560887988,
                -1.6073653979027918,
                0.5636663201893397,
                -1.1622920630858466,
                0.806923033026558,
                0.9595375955289727
            ]
        },
        {
            "positions": [
                -0.6209542716743073,
                -1.652453100007845,
                0.5326322349052285,
                -1.2142057964750332,
                0.8322371427110682,
                0.8647500594567878
            ]
        },
        {
            "positions": [
                -0.4796572872598164,
                -1.6975408021128984,
                0.5015981496211173,
                -1.2661195298642198,
                0.8575512523955784,
                0.7699625233846032
            ]
        },
        {
            "positions": [
                -0.33836030284532503,
                -1.7426285042179517,
                0.47056406433700604,
                -1.3180332632534064,
                0.8828653620800886,
                0.6751749873124187
            ]
        },
        {
            "positions": [
                -0.1970633184308337,
                -1.787716206323005,
                0.4395299790528948,
                -1.369946996642593,
                0.908179471764599,
                0.5803874512402338
            ]
        },
        {
            "positions": [
                -0.055766334016342345,
                -1.8328039084280585,
                0.4084958937687836,
                -1.4218607300317794,
                0.9334935814491092,
                0.485599915168049
            ]
        },
        {
            "positions": [
                0.085530650398149,
                -1.877891610533112,
                0.37746180848467226,
                -1.4737744634209662,
                0.9588076911336195,
                0.3908123790958642
            ]
        },
        {
            "positions": [
                0.22682763481264034,
                -1.9229793126381654,
                0.34642772320056103,
                -1.5256881968101526,
                0.9841218008181297,
                0.2960248430236796
            ]
        },
        {
            "positions": [
                0.36812461922713124,
                -1.9680670147432187,
                0.3153936379164498,
                -1.5776019301993391,
                1.00943591050264,
                0.20123730695149478
            ]
        },
        {
            "positions": [
                0.509421603641623,
                -2.013154716848272,
                0.2843595526323385,
                -1.6295156635885257,
                1.0347500201871505,
                0.10644977087931018
            ]
        },
        {
            "positions": [
                0.6507185880561139,
                -2.0582424189533253,
                0.25332546734822725,
                -1.6814293969777123,
                1.0600641298716607,
                0.011662234807125582
            ]
        },
        {
            "positions": [
                0.7920155724706053,
                -2.1033301210583786,
                0.22229138206411603,
                -1.7333431303668987,
                1.0853782395561709,
                -0.08312530126505902
            ]
        },
        {
            "positions": [
                0.9333125568850966,
                -2.148417823163432,
                0.1912572967800048,
                -1.7852568637560855,
                1.110692349240681,
                -0.17791283733724406
            ]
        },
        {
            "positions": [
                1.074609541299588,
                -2.1935055252684856,
                0.16022321149589358,
                -1.8371705971452719,
                1.1360064589251913,
                -0.27270037340942865
            ]
        },
        {
            "positions": [
                1.2159065257140793,
                -2.238593227373539,
                0.12918912621178225,
                -1.8890843305344585,
                1.1613205686097017,
                -0.3674879094816137
            ]
        },
        {
            "positions": [
                1.3572035101285702,
                -2.2836809294785922,
                0.09815504092767108,
                -1.940998063923645,
                1.1866346782942119,
                -0.46227544555379846
            ]
        },
        {
            "positions": [
                1.3729759826382422,
                -2.2287382636749458,
                0.06827230631875418,
                -2.0008396937111925,
                1.0774045003448747,
                -0.5770554361396438
            ]
        },
        {
            "positions": [
                1.3887484551479141,
                -2.1737955978712997,
                0.038389571709837284,
                -2.0606813234987396,
                0.9681743223955374,
                -0.6918354267254893
            ]
        },
        {
            "positions": [
                1.404520927657586,
                -2.1188529320676537,
                0.0085068371009204,
                -2.120522953286287,
                0.8589441444462002,
                -0.8066154173113347
            ]
        },
        {
            "positions": [
                1.420293400167258,
                -2.063910266264007,
                -0.02137589750799651,
                -2.1803645830738345,
                0.7497139664968628,
                -0.9213954078971801
            ]
        },
        {
            "positions": [
                1.43606587267693,
                -2.0089676004603607,
                -0.051258632116913394,
                -2.2402062128613816,
                0.6404837885475256,
                -1.0361753984830255
            ]
        },
        {
            "positions": [
                1.451838345186602,
                -1.9540249346567147,
                -0.08114136672583028,
                -2.300047842648929,
                0.5312536105981884,
                -1.1509553890688708
            ]
        },
        {
            "positions": [
                1.4676108176962739,
                -1.8990822688530684,
                -0.11102410133474716,
                -2.3598894724364765,
                0.4220234326488512,
                -1.2657353796547162
            ]
        },
        {
            "positions": [
                1.4833832902059458,
                -1.8441396030494221,
                -0.1409068359436641,
                -2.419731102224024,
                0.3127932546995138,
                -1.3805153702405617
            ]
        },
        {
            "positions": [
                1.4991557627156178,
                -1.7891969372457759,
                -0.17078957055258098,
                -2.479572732011571,
                0.2035630767501766,
                -1.4952953608264072
            ]
        },
        {
            "positions": [
                1.5149282352252897,
                -1.7342542714421296,
                -0.20067230516149787,
                -2.5394143617991185,
                0.0943328988008394,
                -1.6100753514122526
            ]
        },
        {
            "positions": [
                1.530700707734962,
                -1.6793116056384834,
                -0.2305550397704148,
                -2.599255991586666,
                -0.014897279148498033,
                -1.724855341998098
            ]
        },
        {
            "positions": [
                1.5464731802446339,
                -1.624368939834837,
                -0.26043777437933163,
                -2.659097621374213,
                -0.12412745709783501,
                -1.8396353325839434
            ]
        },
        {
            "positions": [
                1.5622456527543058,
                -1.5694262740311908,
                -0.29032050898824857,
                -2.7189392511617605,
                -0.23335763504717244,
                -1.9544153231697887
            ]
        },
        {
            "positions": [
                1.5780181252639778,
                -1.5144836082275446,
                -0.3202032435971654,
                -2.778780880949308,
                -0.3425878129965094,
                -2.069195313755634
            ]
        },
        {
            "positions": [
                1.5937905977736497,
                -1.4595409424238983,
                -0.35008597820608234,
                -2.8386225107368555,
                -0.45181799094584685,
                -2.1839753043414794
            ]
        },
        {
            "positions": [
                1.6095630702833217,
                -1.404598276620252,
                -0.3799687128149993,
                -2.8984641405244025,
                -0.5610481688951843,
                -2.298755294927325
            ]
        },
        {
            "positions": [
                1.6253355427929936,
                -1.3496556108166058,
                -0.40985144742391616,
                -2.95830577031195,
                -0.6702783468445213,
                -2.4135352855131704
            ]
        },
        {
            "positions": [
                1.6411080153026656,
                -1.2947129450129595,
                -0.43973418203283304,
                -3.0181474000994974,
                -0.7795085247938587,
                -2.5283152760990157
            ]
        },
        {
            "positions": [
                1.6568804878123375,
                -1.2397702792093133,
                -0.4696169166417499,
                -3.0779890298870445,
                -0.8887387027431959,
                -2.643095266684861
            ]
        },
        {
            "positions": [
                1.6726529603220095,
                -1.184827613405667,
                -0.49949965125066687,
                -3.137830659674592,
                -0.9979688806925333,
                -2.7578752572707064
            ]
        },
        {
            "positions": [
                1.5564909984462165,
                -1.2204143884886383,
                -0.6149402908819099,
                -3.0830836807440183,
                -0.9466421280978197,
                -2.7775748479616236
            ]
        },
        {
            "positions": [
                1.4403290365704235,
                -1.2560011635716095,
                -0.730380930513153,
                -3.028336701813445,
                -0.895315375503106,
                -2.7972744386525408
            ]
        },
        {
            "positions": [
                1.3241670746946306,
                -1.2915879386545808,
                -0.8458215701443962,
                -2.9735897228828714,
                -0.8439886229083924,
                -2.8169740293434575
            ]
        },
        {
            "positions": [
                1.2080051128188378,
                -1.327174713737552,
                -0.9612622097756393,
                -2.9188427439522977,
                -0.7926618703136787,
                -2.8366736200343747
            ]
        },
        {
            "positions": [
                1.0918431509430446,
                -1.3627614888205233,
                -1.0767028494068822,
                -2.864095765021724,
                -0.7413351177189651,
                -2.856373210725292
            ]
        },
        {
            "positions": [
                0.9756811890672519,
                -1.3983482639034945,
                -1.1921434890381255,
                -2.8093487860911504,
                -0.6900083651242515,
                -2.876072801416209
            ]
        },
        {
            "positions": [
                0.8595192271914589,
                -1.4339350389864656,
                -1.3075841286693686,
                -2.754601807160577,
                -0.6386816125295378,
                -2.8957723921071263
            ]
        },
        {
            "positions": [
                0.7433572653156659,
                -1.469521814069437,
                -1.4230247683006116,
                -2.6998548282300034,
                -0.5873548599348242,
                -2.915471982798043
            ]
        },
        {
            "positions": [
                0.627195303439873,
                -1.505108589152408,
                -1.5384654079318547,
                -2.6451078492994298,
                -0.5360281073401105,
                -2.9351715734889603
            ]
        },
        {
            "positions": [
                0.51103334156408,
                -1.5406953642353796,
                -1.6539060475630978,
                -2.5903608703688565,
                -0.4847013547453968,
                -2.9548711641798775
            ]
        },
        {
            "positions": [
                0.394871379688287,
                -1.5762821393183506,
                -1.7693466871943409,
                -2.535613891438283,
                -0.43337460215068313,
                -2.9745707548707947
            ]
        },
        {
            "positions": [
                0.27870941781249425,
                -1.6118689144013219,
                -1.8847873268255841,
                -2.480866912507709,
                -0.3820478495559695,
                -2.994270345561712
            ]
        },
        {
            "positions": [
                0.16254745593670128,
                -1.647455689484293,
                -2.000227966456827,
                -2.4261199335771355,
                -0.33072109696125584,
                -3.0139699362526287
            ]
        },
        {
            "positions": [
                0.046385494060908306,
                -1.6830424645672644,
                -2.1156686060880703,
                -2.371372954646562,
                -0.2793943443665422,
                -3.033669526943546
            ]
        },
        {
            "positions": [
                -0.06977646781488467,
                -1.7186292396502356,
                -2.2311092457193133,
                -2.3166259757159886,
                -0.22806759177182856,
                -3.053369117634463
            ]
        },
        {
            "positions": [
                -0.1859384296906776,
                -1.7542160147332069,
                -2.3465498853505564,
                -2.261878996785415,
                -0.17674083917711494,
                -3.0730687083253803
            ]
        }
    ]
}