{
    "goal": {
        "global_pose": {
            "orientation": {
                "w": 0.005598929693374612,
                "x": 0.007748599140229565,
                "y": 0.7110244013736278,
                "z": -0.7031023480610252
            },
            "position": {
                "x": -0.8858502320852131,
                "y": -0.7141253447532654,
                "z": 0.3711530566215515
            }
        },
        "name": "move_to_auspresseinheit_C"
    },
    "id": "ProjEST_move_to_auspresseinheit_C_126",
    "joint_names": [
        "shoulder_pan_joint",
        "shoulder_lift_joint",
        "elbow_joint",
        "wrist_1_joint",
        "wrist_2_joint",
        "wrist_3_joint"
    ],
    "metrics": {
        "cart_traj_len": 0.4944710073230905,
        "distance_elbow_joint": 1.0128851834092183,
        "distance_shoulder_lift_joint": 0.3304988520040749,
        "distance_shoulder_pan_joint": 0.2564996794647678,
        "distance_wrist_1_joint": 0.7017943551283878,
        "distance_wrist_2_joint": 1.314806381878805,
        "distance_wrist_3_joint": 0.07565769702290837,
        "smoothness": 6.459479416000911e-16,
        "time": 0.055014907,
        "traj_len": 1.9214947694199331,
        "weighted_distance": 2.4207557249671376
    },
    "planner": "ProjEST",
    "start": {
        "state": {
            "elbow_joint": 1.752795957773711,
            "shoulder_lift_joint": -0.9740617694225064,
            "shoulder_pan_joint": -2.967991417825858,
            "wrist_1_joint": -0.7595177689806859,
            "wrist_2_joint": 1.7443932448377395,
            "wrist_3_joint": 3.199131542505932
        }
    },
    "waypoints": [
        {
            "positions": [
                -2.967991417825858,
                -0.9740617694225064,
                1.752795957773711,
                -0.7595177689806859,
                1.7443932448377395,
                3.199131542505932
            ]
        },
        {
            "positions": [
                -2.942341449879381,
                -0.9410118842220989,
                1.6515074394327893,
                -0.6893383334678471,
                1.612912606649859,
                3.1915657728036413
            ]
        },
        {
            "positions": [
                -2.9166914819329044,
                -0.9079619990216915,
                1.5502189210918673,
                -0.6191588979550083,
                1.4814319684619786,
                3.1840000031013505
            ]
        },
        {
            "positions": [
                -2.8910415139864276,
                -0.874912113821284,
                1.4489304027509458,
                -0.5489794624421696,
                1.349951330274098,
                3.1764342333990596
            ]
        },
        {
            "positions": [
                -2.865391546039951,
                -0.8418622286208765,
                1.3476418844100237,
                -0.47880002692933077,
                1.2184706920862176,
                3.1688684636967688
            ]
        },
        {
            "positions": [
                -2.839741578093474,
                -0.808812343420469,
                1.246353366069102,
                -0.408620591416492,
                1.086990053898337,
                3.161302693994478
            ]
        },
        {
            "positions": [
                -2.8140916101469973,
                -0.7757624582200615,
                1.1450648477281802,
                -0.3384411559036532,
                0.9555094157104566,
                3.153736924292187
            ]
        },
        {
            "positions": [
                -2.7884416422005205,
                -0.742712573019654,
                1.0437763293872584,
                -0.2682617203908145,
                0.8240287775225761,
                3.1461711545898963
            ]
        },
        {
            "positions": [
                -2.7627916742540437,
                -0.7096626878192465,
                0.9424878110463364,
                -0.19808228487797563,
                0.6925481393346955,
                3.1386053848876054
            ]
        },
        {
            "positions": [
                -2.737141706307567,
                -0.6766128026188389,
                0.8411992927054146,
                -0.12790284936513685,
                0.5610675011468149,
                3.1310396151853146
            ]
        },
        {
            "positions": [
                -2.71149173836109,
                -0.6435629174184315,
                0.7399107743644929,
                -0.05772341385229812,
                0.42958686295893445,
                3.1234738454830238
            ]
        }
    ]
}