{
    "goal": {
        "global_pose": {
            "orientation": {
                "w": -0.4816463035849501,
                "x": 0.5182115481033762,
                "y": 0.4908360881923453,
                "z": -0.5084816262002911
            },
            "position": {
                "x": -0.8240239810943604,
                "y": -0.300875300988555,
                "z": 0.16403168439865112
            }
        },
        "name": "move_to_storage_C"
    },
    "id": "ProjEST_move_to_storage_C_139",
    "joint_names": [
        "shoulder_pan_joint",
        "shoulder_lift_joint",
        "elbow_joint",
        "wrist_1_joint",
        "wrist_2_joint",
        "wrist_3_joint"
    ],
    "metrics": {
        "cart_traj_len": 0.5773994056173216,
        "distance_elbow_joint": 0.2597059916491413,
        "distance_shoulder_lift_joint": 0.18988155443559962,
        "distance_shoulder_pan_joint": 0.49630280854519837,
        "distance_wrist_1_joint": 0.0814330327656877,
        "distance_wrist_2_joint": 1.0582688867991492,
        "distance_wrist_3_joint": 0.0738035623797666,
        "smoothness": 5.075305295617109e-16,
        "time": 0.013955554,
        "traj_len": 1.4694882907238638,
        "weighted_distance": 1.8565303339560366
    },
    "planner": "ProjEST",
    "start": {
        "state": {
            "elbow_joint": 2.010868315001653,
            "shoulder_lift_joint": -1.1634956873357014,
            "shoulder_pan_joint": -2.4736205022346103,
            "wrist_1_joint": -0.8367026794713948,
            "wrist_2_joint": 0.6746043897044093,
            "wrist_3_joint": 3.1335220948105738
        }
    },
    "waypoints": [
        {
            "positions": [
                -2.4736205022346103,
                -1.1634956873357014,
                2.010868315001653,
                -0.8367026794713948,
                0.6746043897044093,
                3.1335220948105738
            ]
        },
        {
            "positions": [
                -2.5563376369921436,
                -1.1318487615964348,
                1.9675839830601296,
                -0.8231305073437801,
                0.8509825375042674,
                3.1458226885405347
            ]
        },
        {
            "positions": [
                -2.6390547717496764,
                -1.1002018358571681,
                1.924299651118606,
                -0.8095583352161655,
                1.0273606853041257,
                3.158123282270496
            ]
        },
        {
            "positions": [
                -2.7217719065072092,
                -1.0685549101179017,
                1.8810153191770824,
                -0.795986163088551,
                1.203738833103984,
                3.170423876000457
            ]
        },
        {
            "positions": [
                -2.8044890412647425,
                -1.036907984378635,
                1.837730987235559,
                -0.7824139909609363,
                1.380116980903842,
                3.182724469730418
            ]
        },
        {
            "positions": [
                -2.887206176022276,
                -1.0052610586393684,
                1.7944466552940352,
                -0.7688418188333217,
                1.5564951287037003,
                3.1950250634603794
            ]
        },
        {
            "positions": [
                -2.9699233107798086,
                -0.9736141329001018,
                1.7511623233525118,
                -0.7552696467057071,
                1.7328732765035584,
                3.2073256571903404
            ]
        }
    ]
}