{
    "goal": {
        "global_pose": {
            "orientation": {
                "w": 0.7047431493862688,
                "x": -0.7094548369677653,
                "y": 0.0024358444001904,
                "z": -0.0022348060817251984
            },
            "position": {
                "x": -0.39052492380142206,
                "y": 0.3671506643295288,
                "z": 0.19426114857196808
            }
        },
        "name": "move_to_magneteinheit_D"
    },
    "id": "ProjEST_move_to_magneteinheit_D_136",
    "joint_names": [
        "shoulder_pan_joint",
        "shoulder_lift_joint",
        "elbow_joint",
        "wrist_1_joint",
        "wrist_2_joint",
        "wrist_3_joint"
    ],
    "metrics": {
        "cart_traj_len": 4.635843988993686,
        "distance_elbow_joint": 3.1347020624074036,
        "distance_shoulder_lift_joint": 1.770198895556701,
        "distance_shoulder_pan_joint": 3.5071773698385322,
        "distance_wrist_1_joint": 2.626789485893421,
        "distance_wrist_2_joint": 1.0519756270622271,
        "distance_wrist_3_joint": 3.756280515224361,
        "smoothness": 0.475265949978834,
        "time": 0.19112317099999998,
        "traj_len": 3.9808446284655035,
        "weighted_distance": 5.199850968959305
    },
    "planner": "ProjEST",
    "start": {
        "state": {
            "elbow_joint": 0.7495348899011973,
            "shoulder_lift_joint": -0.6476975780737697,
            "shoulder_pan_joint": -2.711696901376276,
            "wrist_1_joint": -0.07506478080974305,
            "wrist_2_joint": 0.4329665971545858,
            "wrist_3_joint": 3.1361499051832524
        }
    },
    "waypoints": [
        {
            "positions": [
                -2.711696901376276,
                -0.6476975780737697,
                0.7495348899011973,
                -0.07506478080974305,
                0.4329665971545858,
                3.1361499051832524
            ]
        },
        {
            "positions": [
                -2.737348927939151,
                -0.6784394621972789,
                0.7180215950474943,
                -0.20767036013263673,
                0.3197206487144748,
                3.087052301053711
            ]
        },
        {
            "positions": [
                -2.7630009545020258,
                -0.7091813463207881,
                0.6865083001937913,
                -0.3402759394555304,
                0.20647470027436388,
                3.03795469692417
            ]
        },
        {
            "positions": [
                -2.788652981064901,
                -0.7399232304442974,
                0.6549950053400883,
                -0.4728815187784241,
                0.09322875183425289,
                2.988857092794629
            ]
        },
        {
            "positions": [
                -2.814305007627776,
                -0.7706651145678066,
                0.6234817104863852,
                -0.6054870981013178,
                -0.020017196605858045,
                2.939759488665088
            ]
        },
        {
            "positions": [
                -2.709050929228557,
                -0.8153779545149038,
                0.5483389319846638,
                -0.5393106618066069,
                -0.0272870784576875,
                2.8535856132722004
            ]
        },
        {
            "positions": [
                -2.6037968508293385,
                -0.860090794462001,
                0.4731961534829423,
                -0.473134225511896,
                -0.03455696030951695,
                2.767411737879313
            ]
        },
        {
            "positions": [
                -2.49854277243012,
                -0.9048036344090982,
                0.3980533749812209,
                -0.40695778921718506,
                -0.041826842161346404,
                2.681237862486425
            ]
        },
        {
            "positions": [
                -2.3932886940309013,
                -0.9495164743561952,
                0.32291059647949943,
                -0.3407813529224742,
                -0.04909672401317586,
                2.5950639870935372
            ]
        },
        {
            "positions": [
                -2.2880346156316826,
                -0.9942293143032924,
                0.24776781797777797,
                -0.27460491662776326,
                -0.05636660586500531,
                2.5088901117006497
            ]
        },
        {
            "positions": [
                -2.182780537232464,
                -1.0389421542503896,
                0.17262503947605656,
                -0.20842848033305234,
                -0.06363648771683476,
                2.422716236307762
            ]
        },
        {
            "positions": [
                -2.0775264588332454,
                -1.0836549941974867,
                0.0974822609743351,
                -0.1422520440383414,
                -0.07090636956866422,
                2.3365423609148745
            ]
        },
        {
            "positions": [
                -1.972272380434027,
                -1.128367834144584,
                0.022339482472613637,
                -0.07607560774363054,
                -0.07817625142049367,
                2.250368485521987
            ]
        },
        {
            "positions": [
                -1.8670183020348083,
                -1.173080674091681,
                -0.05280329602910783,
                -0.009899171448919608,
                -0.08544613327232312,
                2.1641946101290994
            ]
        },
        {
            "positions": [
                -1.7617642236355897,
                -1.2177935140387781,
                -0.1279460745308293,
                0.05627726484579132,
                -0.09271601512415258,
                2.0780207347362114
            ]
        },
        {
            "positions": [
                -1.656510145236371,
                -1.2625063539858754,
                -0.20308885303255064,
                0.12245370114050225,
                -0.09998589697598202,
                1.9918468593433238
            ]
        },
        {
            "positions": [
                -1.5512560668371524,
                -1.3072191939329727,
                -0.2782316315342721,
                0.18863013743521317,
                -0.10725577882781148,
                1.9056729839504363
            ]
        },
        {
            "positions": [
                -1.4460019884379338,
                -1.3519320338800696,
                -0.35337441003599357,
                0.2548065737299241,
                -0.11452566067964093,
                1.8194991085575485
            ]
        },
        {
            "positions": [
                -1.3407479100387152,
                -1.3966448738271668,
                -0.42851718853771503,
                0.32098301002463503,
                -0.12179554253147039,
                1.733325233164661
            ]
        },
        {
            "positions": [
                -1.2354938316394966,
                -1.4413577137742641,
                -0.5036599670394366,
                0.38715944631934607,
                -0.12906542438329985,
                1.6471513577717731
            ]
        },
        {
            "positions": [
                -1.1302397532402781,
                -1.4860705537213612,
                -0.578802745541158,
                0.4533358826140568,
                -0.1363353062351293,
                1.5609774823788856
            ]
        },
        {
            "positions": [
                -1.0249856748410593,
                -1.5307833936684583,
                -0.6539455240428795,
                0.5195123189087678,
                -0.14360518808695877,
                1.4748036069859978
            ]
        },
        {
            "positions": [
                -0.9197315964418409,
                -1.5754962336155556,
                -0.7290883025446009,
                0.5856887552034786,
                -0.1508750699387882,
                1.3886297315931104
            ]
        },
        {
            "positions": [
                -0.814477518042622,
                -1.6202090735626529,
                -0.8042310810463225,
                0.6518651914981897,
                -0.15814495179061766,
                1.3024558562002226
            ]
        },
        {
            "positions": [
                -0.7092234396434036,
                -1.6649219135097497,
                -0.8793738595480438,
                0.7180416277929005,
                -0.1654148336424471,
                1.216281980807335
            ]
        },
        {
            "positions": [
                -0.603969361244185,
                -1.709634753456847,
                -0.9545166380497652,
                0.7842180640876115,
                -0.17268471549427658,
                1.1301081054144473
            ]
        },
        {
            "positions": [
                -0.49871528284496636,
                -1.754347593403944,
                -1.0296594165514865,
                0.8503945003823223,
                -0.179954597346106,
                1.0439342300215597
            ]
        },
        {
            "positions": [
                -0.3934612044457477,
                -1.7990604333510412,
                -1.104802195053208,
                0.9165709366770334,
                -0.18722447919793547,
                0.9577603546286719
            ]
        },
        {
            "positions": [
                -0.2882071260465291,
                -1.8437732732981384,
                -1.1799449735549294,
                0.9827473729717442,
                -0.19449436104976492,
                0.8715864792357846
            ]
        },
        {
            "positions": [
                -0.18295304764731046,
                -1.8884861132452357,
                -1.255087752056651,
                1.0489238092664552,
                -0.2017642429015944,
                0.7854126038428966
            ]
        },
        {
            "positions": [
                -0.07769896924809183,
                -1.9331989531923326,
                -1.3302305305583724,
                1.115100245561166,
                -0.2090341247534238,
                0.699238728450009
            ]
        },
        {
            "positions": [
                0.027555109151126578,
                -1.97791179313943,
                -1.405373309060094,
                1.181276681855877,
                -0.21630400660525329,
                0.6130648530571214
            ]
        },
        {
            "positions": [
                0.052537824049026446,
                -2.0309598161919578,
                -1.4749774914852005,
                1.2035656976597433,
                -0.15912889971570465,
                0.48371808564933205
            ]
        },
        {
            "positions": [
                0.07752053894692632,
                -2.084007839244485,
                -1.5445816739103073,
                1.2258547134636095,
                -0.10195379282615602,
                0.3543713182415426
            ]
        },
        {
            "positions": [
                0.1025032538448262,
                -2.1370558622970126,
                -1.614185856335414,
                1.2481437292674757,
                -0.04477868593660739,
                0.22502455083375317
            ]
        },
        {
            "positions": [
                0.12748596874272605,
                -2.19010388534954,
                -1.6837900387605207,
                1.2704327450713417,
                0.012396420952941245,
                0.09567778342596378
            ]
        },
        {
            "positions": [
                0.15246868364062593,
                -2.2431519084020675,
                -1.7533942211856273,
                1.292721760875208,
                0.06957152784248988,
                -0.03366898398182572
            ]
        },
        {
            "positions": [
                0.17745139853852582,
                -2.296199931454595,
                -1.8229984036107338,
                1.3150107766790742,
                0.1267466347320385,
                -0.1630157513896151
            ]
        },
        {
            "positions": [
                0.2024341134364257,
                -2.3492479545071223,
                -1.8926025860358406,
                1.3372997924829404,
                0.18392174162158714,
                -0.29236251879740466
            ]
        },
        {
            "positions": [
                0.10547657780571823,
                -2.3320858247262852,
                -2.015743732653432,
                1.375694861987337,
                0.18454156039047429,
                -0.21042049598647866
            ]
        },
        {
            "positions": [
                0.00851904217501076,
                -2.314923694945448,
                -2.138884879271024,
                1.4140899314917337,
                0.18516137915936143,
                -0.12847847317555264
            ]
        },
        {
            "positions": [
                -0.08843849345569671,
                -2.297761565164611,
                -2.2620260258886153,
                1.4524850009961305,
                0.18578119792824857,
                -0.046536450364626614
            ]
        },
        {
            "positions": [
                -0.18539602908640418,
                -2.280599435383774,
                -2.385167172506207,
                1.4908800705005272,
                0.1864010166971357,
                0.03540557244629936
            ]
        }
    ]
}