{
    "goal": {
        "global_pose": {
            "orientation": {
                "w": -0.4816463035849501,
                "x": 0.5182115481033762,
                "y": 0.4908360881923453,
                "z": -0.5084816262002911
            },
            "position": {
                "x": -0.8240239810943604,
                "y": 0.19912469901144506,
                "z": 0.16403168439865112
            }
        },
        "name": "move_to_storage_D"
    },
    "id": "ProjEST_move_to_storage_D_80",
    "joint_names": [
        "shoulder_pan_joint",
        "shoulder_lift_joint",
        "elbow_joint",
        "wrist_1_joint",
        "wrist_2_joint",
        "wrist_3_joint"
    ],
    "metrics": {
        "cart_traj_len": 3.8115234949657655,
        "distance_elbow_joint": 4.209778295871232,
        "distance_shoulder_lift_joint": 1.2638959581963187,
        "distance_shoulder_pan_joint": 2.8146591924867037,
        "distance_wrist_1_joint": 2.261420793804986,
        "distance_wrist_2_joint": 0.8843362496602624,
        "distance_wrist_3_joint": 3.1322111990099826,
        "smoothness": 2.3373116378885775e-16,
        "time": 0.155728122,
        "traj_len": 3.8165824619716378,
        "weighted_distance": 4.896578512646837
    },
    "planner": "ProjEST",
    "start": {
        "state": {
            "elbow_joint": -2.384821997420982,
            "shoulder_lift_joint": -2.2788054674887404,
            "shoulder_pan_joint": -0.18546946417610016,
            "wrist_1_joint": 1.4845937964226739,
            "wrist_2_joint": 0.1789877726866377,
            "wrist_3_joint": 0.03710572555276528
        }
    },
    "waypoints": [
        {
            "positions": [
                -0.18546946417610016,
                -2.2788054674887404,
                -2.384821997420982,
                1.4845937964226739,
                0.1789877726866377,
                0.03710572555276528
            ]
        },
        {
            "positions": [
                -0.10114698095804285,
                -2.246718669700418,
                -2.265385730735803,
                1.4191769455982584,
                0.20106474240779557,
                -0.03356544060153447
            ]
        },
        {
            "positions": [
                -0.01682449773998554,
                -2.214631871912095,
                -2.145949464050625,
                1.3537600947738428,
                0.2231417121289534,
                -0.10423660675583421
            ]
        },
        {
            "positions": [
                0.06749798547807179,
                -2.182545074123773,
                -2.026513197365446,
                1.2883432439494271,
                0.24521868185011125,
                -0.17490777291013396
            ]
        },
        {
            "positions": [
                0.15182046869612909,
                -2.1504582763354505,
                -1.9070769306802677,
                1.2229263931250116,
                0.2672956515712691,
                -0.2455789390644337
            ]
        },
        {
            "positions": [
                0.23614295191418638,
                -2.118371478547128,
                -1.7876406639950893,
                1.157509542300596,
                0.2893726212924269,
                -0.3162501052187335
            ]
        },
        {
            "positions": [
                0.32046543513224374,
                -2.086284680758806,
                -1.6682043973099105,
                1.0920926914761804,
                0.3114495910135848,
                -0.3869212713730332
            ]
        },
        {
            "positions": [
                0.404787918350301,
                -2.0541978829704832,
                -1.548768130624732,
                1.0266758406517649,
                0.3335265607347426,
                -0.457592437527333
            ]
        },
        {
            "positions": [
                0.48911040156835833,
                -2.0221110851821607,
                -1.4293318639395536,
                0.9612589898273494,
                0.3556035304559005,
                -0.5282636036816327
            ]
        },
        {
            "positions": [
                0.5734328847864156,
                -1.990024287393838,
                -1.309895597254375,
                0.8958421390029339,
                0.37768050017705834,
                -0.5989347698359325
            ]
        },
        {
            "positions": [
                0.657755368004473,
                -1.9579374896055157,
                -1.1904593305691966,
                0.8304252881785182,
                0.39975746989821614,
                -0.6696059359902322
            ]
        },
        {
            "positions": [
                0.7420778512225303,
                -1.9258506918171934,
                -1.071023063884018,
                0.7650084373541026,
                0.42183443961937406,
                -0.7402771021445319
            ]
        },
        {
            "positions": [
                0.8264003344405877,
                -1.8937638940288708,
                -0.9515867971988394,
                0.6995915865296871,
                0.44391140934053186,
                -0.8109482682988317
            ]
        },
        {
            "positions": [
                0.910722817658645,
                -1.8616770962405482,
                -0.832150530513661,
                0.6341747357052716,
                0.4659883790616898,
                -0.8816194344531315
            ]
        },
        {
            "positions": [
                0.9950453008767022,
                -1.8295902984522259,
                -0.7127142638284822,
                0.568757884880856,
                0.4880653487828476,
                -0.9522906006074312
            ]
        },
        {
            "positions": [
                1.0793677840947595,
                -1.7975035006639035,
                -0.5932779971433038,
                0.5033410340564404,
                0.5101423185040054,
                -1.0229617667617308
            ]
        },
        {
            "positions": [
                1.1636902673128169,
                -1.765416702875581,
                -0.4738417304581253,
                0.43792418323202487,
                0.5322192882251633,
                -1.0936329329160306
            ]
        },
        {
            "positions": [
                1.2480127505308742,
                -1.7333299050872584,
                -0.35440546377294657,
                0.37250733240760936,
                0.5542962579463211,
                -1.1643040990703304
            ]
        },
        {
            "positions": [
                1.3323352337489316,
                -1.701243107298936,
                -0.2349691970877683,
                0.30709048158319385,
                0.576373227667479,
                -1.2349752652246302
            ]
        },
        {
            "positions": [
                1.4166577169669887,
                -1.6691563095106137,
                -0.1155329304025896,
                0.24167363075877812,
                0.5984501973886368,
                -1.3056464313789298
            ]
        },
        {
            "positions": [
                1.500980200185046,
                -1.637069511722291,
                0.003903336282588654,
                0.17625677993436262,
                0.6205271671097946,
                -1.3763175975332296
            ]
        },
        {
            "positions": [
                1.5853026834031034,
                -1.6049827139339685,
                0.12333960296776736,
                0.11083992910994711,
                0.6426041368309525,
                -1.4469887636875294
            ]
        },
        {
            "positions": [
                1.6696251666211608,
                -1.5728959161456462,
                0.24277586965294606,
                0.04542307828553138,
                0.6646811065521103,
                -1.517659929841829
            ]
        },
        {
            "positions": [
                1.7539476498392181,
                -1.5408091183573238,
                0.3622121363381243,
                -0.019993772538884125,
                0.6867580762732681,
                -1.5883310959961288
            ]
        },
        {
            "positions": [
                1.8382701330572755,
                -1.5087223205690012,
                0.48164840302330303,
                -0.08541062336329963,
                0.708835045994426,
                -1.6590022621504286
            ]
        },
        {
            "positions": [
                1.9225926162753328,
                -1.4766355227806787,
                0.6010846697084817,
                -0.15082747418771514,
                0.7309120157155838,
                -1.7296734283047284
            ]
        },
        {
            "positions": [
                2.00691509949339,
                -1.4445487249923563,
                0.72052093639366,
                -0.21624432501213064,
                0.7529889854367418,
                -1.8003445944590282
            ]
        },
        {
            "positions": [
                2.091237582711447,
                -1.412461927204034,
                0.8399572030788387,
                -0.2816611758365464,
                0.7750659551578996,
                -1.8710157606133277
            ]
        },
        {
            "positions": [
                2.1755600659295045,
                -1.3803751294157114,
                0.9593934697640174,
                -0.3470780266609619,
                0.7971429248790574,
                -1.9416869267676276
            ]
        },
        {
            "positions": [
                2.259882549147562,
                -1.3482883316273888,
                1.0788297364491957,
                -0.4124948774853774,
                0.8192198946002153,
                -2.0123580929219274
            ]
        },
        {
            "positions": [
                2.344205032365619,
                -1.3162015338390665,
                1.1982660031343744,
                -0.4779117283097931,
                0.8412968643213731,
                -2.083029259076227
            ]
        },
        {
            "positions": [
                2.4285275155836765,
                -1.284114736050744,
                1.3177022698195526,
                -0.5433285791342084,
                0.863373834042531,
                -2.153700425230527
            ]
        },
        {
            "positions": [
                2.512849998801734,
                -1.2520279382624215,
                1.4371385365047311,
                -0.6087454299586244,
                0.8854508037636888,
                -2.2243715913848265
            ]
        },
        {
            "positions": [
                2.536117944703508,
                -1.2046042524684215,
                1.514702088893835,
                -0.642361743443362,
                0.921025447480331,
                -2.3985183677993045
            ]
        },
        {
            "positions": [
                2.5593858906052818,
                -1.1571805666744215,
                1.592265641282939,
                -0.6759780569280998,
                0.9566000911969733,
                -2.572665144213783
            ]
        },
        {
            "positions": [
                2.5826538365070557,
                -1.1097568808804217,
                1.6698291936720429,
                -0.7095943704128373,
                0.9921747349136155,
                -2.746811920628261
            ]
        },
        {
            "positions": [
                2.6059217824088297,
                -1.0623331950864217,
                1.747392746061147,
                -0.743210683897575,
                1.0277493786302578,
                -2.9209586970427392
            ]
        },
        {
            "positions": [
                2.6291897283106036,
                -1.0149095092924216,
                1.8249562984502508,
                -0.7768269973823128,
                1.0633240223469,
                -3.095105473457217
            ]
        }
    ]
}