{
    "goal": {
        "global_pose": {
            "orientation": {
                "w": 0.7047431493862688,
                "x": -0.7094548369677653,
                "y": 0.0024358444001904,
                "z": -0.0022348060817251984
            },
            "position": {
                "x": -0.39052492380142206,
                "y": 0.3671506643295288,
                "z": 0.19426114857196808
            }
        },
        "name": "move_to_magneteinheit_D"
    },
    "id": "ProjEST_move_to_magneteinheit_D_7",
    "joint_names": [
        "shoulder_pan_joint",
        "shoulder_lift_joint",
        "elbow_joint",
        "wrist_1_joint",
        "wrist_2_joint",
        "wrist_3_joint"
    ],
    "metrics": {
        "cart_traj_len": 5.083415234023866,
        "distance_elbow_joint": 3.8031130107719235,
        "distance_shoulder_lift_joint": 1.3635539646255816,
        "distance_shoulder_pan_joint": 3.3819941706778947,
        "distance_wrist_1_joint": 3.279078614891997,
        "distance_wrist_2_joint": 3.295482945458173,
        "distance_wrist_3_joint": 6.252960751501249,
        "smoothness": 0.896544087894428,
        "time": 0.255204846,
        "traj_len": 4.623438488606378,
        "weighted_distance": 6.360555519864559
    },
    "planner": "ProjEST",
    "start": {
        "state": {
            "elbow_joint": 0.7495348899011973,
            "shoulder_lift_joint": -0.6476975780737697,
            "shoulder_pan_joint": -2.711696901376276,
            "wrist_1_joint": -0.07506478080974305,
            "wrist_2_joint": 0.4329665971545858,
            "wrist_3_joint": 3.1361499051832524
        }
    },
    "waypoints": [
        {
            "positions": [
                -2.711696901376276,
                -0.6476975780737697,
                0.7495348899011973,
                -0.07506478080974305,
                0.4329665971545858,
                3.1361499051832524
            ]
        },
        {
            "positions": [
                -2.7384757371396504,
                -0.7080444533939805,
                0.7266225009665008,
                0.009829558473908831,
                0.46993248668830384,
                3.0567815335184547
            ]
        },
        {
            "positions": [
                -2.765254572903025,
                -0.7683913287141912,
                0.7037101120318043,
                0.09472389775756071,
                0.5068983762220219,
                2.977413161853657
            ]
        },
        {
            "positions": [
                -2.7920334086663994,
                -0.828738204034402,
                0.6807977230971078,
                0.1796182370412126,
                0.54386426575574,
                2.8980447901888593
            ]
        },
        {
            "positions": [
                -2.6742782378003533,
                -0.8711806144264569,
                0.6781844524146754,
                0.09503250535516045,
                0.5596617732234306,
                2.7752059925954797
            ]
        },
        {
            "positions": [
                -2.5565230669343073,
                -0.9136230248185118,
                0.675571181732243,
                0.010446773669108289,
                0.5754592806911213,
                2.6523671950020997
            ]
        },
        {
            "positions": [
                -2.438767896068261,
                -0.9560654352105666,
                0.6729579110498104,
                -0.07413895801694381,
                0.5912567881588119,
                2.52952839740872
            ]
        },
        {
            "positions": [
                -2.321012725202215,
                -0.9985078456026215,
                0.670344640367378,
                -0.15872468970299602,
                0.6070542956265026,
                2.40668959981534
            ]
        },
        {
            "positions": [
                -2.2032575543361688,
                -1.0409502559946764,
                0.6677313696849455,
                -0.24331042138904813,
                0.6228518030941932,
                2.2838508022219606
            ]
        },
        {
            "positions": [
                -2.1377657816898137,
                -1.053778181910475,
                0.5926289100365224,
                -0.30510736260041854,
                0.5896582122323887,
                2.139454547769748
            ]
        },
        {
            "positions": [
                -2.0722740090434586,
                -1.0666061078262736,
                0.5175264503880993,
                -0.36690430381178896,
                0.5564646213705841,
                1.9950582933175354
            ]
        },
        {
            "positions": [
                -2.006782236397104,
                -1.0794340337420723,
                0.4424239907396762,
                -0.42870124502315937,
                0.5232710305087795,
                1.8506620388653225
            ]
        },
        {
            "positions": [
                -1.9412904637507489,
                -1.0922619596578709,
                0.36732153109125304,
                -0.4904981862345298,
                0.49007743964697503,
                1.70626578441311
            ]
        },
        {
            "positions": [
                -1.8757986911043938,
                -1.1050898855736695,
                0.29221907144282994,
                -0.5522951274459003,
                0.4568838487851704,
                1.5618695299608971
            ]
        },
        {
            "positions": [
                -1.810306918458039,
                -1.1179178114894683,
                0.21711661179440683,
                -0.6140920686572706,
                0.4236902579233659,
                1.4174732755086845
            ]
        },
        {
            "positions": [
                -1.7448151458116838,
                -1.130745737405267,
                0.14201415214598367,
                -0.6758890098686411,
                0.3904966670615614,
                1.273077021056472
            ]
        },
        {
            "positions": [
                -1.679323373165329,
                -1.1435736633210656,
                0.06691169249756057,
                -0.7376859510800114,
                0.3573030761997568,
                1.1286807666042593
            ]
        },
        {
            "positions": [
                -1.613831600518974,
                -1.1564015892368642,
                -0.008190767150862532,
                -0.7994828922913819,
                0.32410948533795225,
                0.9842845121520465
            ]
        },
        {
            "positions": [
                -1.5483398278726188,
                -1.1692295151526628,
                -0.08329322679928564,
                -0.8612798335027524,
                0.2909158944761477,
                0.8398882576998337
            ]
        },
        {
            "positions": [
                -1.4828480552262637,
                -1.1820574410684614,
                -0.15839568644770885,
                -0.9230767747141229,
                0.2577223036143431,
                0.6954920032476211
            ]
        },
        {
            "positions": [
                -1.417356282579909,
                -1.19488536698426,
                -0.23349814609613184,
                -0.9848737159254931,
                0.2245287127525386,
                0.5510957487954085
            ]
        },
        {
            "positions": [
                -1.351864509933554,
                -1.2077132929000587,
                -0.30860060574455495,
                -1.0466706571368636,
                0.19133512189073404,
                0.40669949434319586
            ]
        },
        {
            "positions": [
                -1.286372737287199,
                -1.2205412188158573,
                -0.38370306539297816,
                -1.1084675983482342,
                0.15814153102892953,
                0.26230323989098325
            ]
        },
        {
            "positions": [
                -1.2208809646408438,
                -1.233369144731656,
                -0.45880552504140126,
                -1.1702645395596045,
                0.12494794016712496,
                0.1179069854387702
            ]
        },
        {
            "positions": [
                -1.155389191994489,
                -1.2461970706474546,
                -0.5339079846898244,
                -1.2320614807709749,
                0.09175434930532045,
                -0.02648926901344195
            ]
        },
        {
            "positions": [
                -1.0898974193481341,
                -1.2590249965632532,
                -0.6090104443382475,
                -1.2938584219823452,
                0.058560758443515826,
                -0.170885523465655
            ]
        },
        {
            "positions": [
                -1.024405646701779,
                -1.2718529224790518,
                -0.6841129039866706,
                -1.3556553631937156,
                0.025367167581711314,
                -0.3152817779178676
            ]
        },
        {
            "positions": [
                -0.9589138740554239,
                -1.2846808483948506,
                -0.7592153636350937,
                -1.417452304405086,
                -0.007826423280093198,
                -0.4596780323700802
            ]
        },
        {
            "positions": [
                -0.8934221014090691,
                -1.2975087743106493,
                -0.8343178232835168,
                -1.4792492456164568,
                -0.04102001414189782,
                -0.6040742868222932
            ]
        },
        {
            "positions": [
                -0.827930328762714,
                -1.3103367002264479,
                -0.9094202829319401,
                -1.5410461868278271,
                -0.07421360500370233,
                -0.7484705412745059
            ]
        },
        {
            "positions": [
                -0.7624385561163589,
                -1.3231646261422465,
                -0.9845227425803632,
                -1.6028431280391975,
                -0.10740719586550695,
                -0.8928667957267185
            ]
        },
        {
            "positions": [
                -0.6969467834700043,
                -1.3359925520580451,
                -1.0596252022287862,
                -1.6646400692505678,
                -0.14060078672731136,
                -1.0372630501789306
            ]
        },
        {
            "positions": [
                -0.6314550108236492,
                -1.3488204779738437,
                -1.1347276618772093,
                -1.7264370104619382,
                -0.17379437758911598,
                -1.1816593046311437
            ]
        },
        {
            "positions": [
                -0.5659632381772941,
                -1.3616484038896424,
                -1.2098301215256324,
                -1.7882339516733086,
                -0.2069879684509205,
                -1.3260555590833563
            ]
        },
        {
            "positions": [
                -0.5004714655309392,
                -1.374476329805441,
                -1.2849325811740555,
                -1.850030892884679,
                -0.2401815593127251,
                -1.4704518135355689
            ]
        },
        {
            "positions": [
                -0.43497969288458416,
                -1.3873042557212396,
                -1.3600350408224786,
                -1.9118278340960497,
                -0.2733751501745296,
                -1.6148480679877815
            ]
        },
        {
            "positions": [
                -0.3694879202382291,
                -1.4001321816370382,
                -1.4351375004709017,
                -1.97362477530742,
                -0.30656874103633414,
                -1.759244322439994
            ]
        },
        {
            "positions": [
                -0.3039961475918742,
                -1.4129601075528369,
                -1.5102399601193248,
                -2.0354217165187904,
                -0.33976233189813876,
                -1.9036405768922076
            ]
        },
        {
            "positions": [
                -0.23850437494551913,
                -1.4257880334686357,
                -1.585342419767748,
                -2.097218657730161,
                -0.37295592275994327,
                -2.04803683134442
            ]
        },
        {
            "positions": [
                -0.17301260229916426,
                -1.4386159593844343,
                -1.660444879416171,
                -2.159015598941531,
                -0.4061495136217479,
                -2.1924330857966328
            ]
        },
        {
            "positions": [
                -0.10752082965280918,
                -1.451443885300233,
                -1.7355473390645941,
                -2.2208125401529015,
                -0.4393431044835523,
                -2.3368293402488445
            ]
        },
        {
            "positions": [
                -0.04202905700645454,
                -1.4642718112160316,
                -1.8106497987130172,
                -2.282609481364272,
                -0.4725366953453569,
                -2.481225594701058
            ]
        },
        {
            "positions": [
                0.023462715639900544,
                -1.4770997371318302,
                -1.8857522583614403,
                -2.3444064225756427,
                -0.5057302862071615,
                -2.6256218491532706
            ]
        },
        {
            "positions": [
                0.08895448828625563,
                -1.4899276630476288,
                -1.9608547180098634,
                -2.406203363787013,
                -0.5389238770689659,
                -2.770018103605483
            ]
        },
        {
            "positions": [
                0.15444626093261093,
                -1.5027555889634274,
                -2.0359571776582865,
                -2.4680003049983834,
                -0.5721174679307707,
                -2.9144143580576958
            ]
        },
        {
            "positions": [
                0.11090503463665347,
                -1.486457543021657,
                -2.119217896693682,
                -2.43036224338254,
                -0.42881570471759906,
                -2.937648057544311
            ]
        },
        {
            "positions": [
                0.067363808340696,
                -1.4701594970798864,
                -2.2024786157290768,
                -2.3927241817666967,
                -0.28551394150442744,
                -2.960881757030926
            ]
        },
        {
            "positions": [
                0.023822582044738527,
                -1.453861451138116,
                -2.285739334764472,
                -2.3550861201508533,
                -0.14221217829125582,
                -2.984115456517541
            ]
        },
        {
            "positions": [
                -0.019718644251218942,
                -1.4375634051963455,
                -2.3690000537998674,
                -2.3174480585350095,
                0.0010895849219157983,
                -3.007349156004156
            ]
        },
        {
            "positions": [
                -0.06325987054717641,
                -1.421265359254575,
                -2.452260772835263,
                -2.279809996919166,
                0.14439134813508747,
                -3.030582855490771
            ]
        },
        {
            "positions": [
                -0.10680109684313388,
                -1.4049673133128047,
                -2.535521491870658,
                -2.2421719353033227,
                0.28769311134825903,
                -3.053816554977386
            ]
        },
        {
            "positions": [
                -0.15034232313909135,
                -1.3886692673710341,
                -2.618782210906053,
                -2.2045338736874793,
                0.4309948745614306,
                -3.0770502544640013
            ]
        },
        {
            "positions": [
                -0.19388354943504882,
                -1.3723712214292636,
                -2.7020429299414483,
                -2.166895812071636,
                0.5742966377746024,
                -3.1002839539506164
            ]
        },
        {
            "positions": [
                -0.1925139127508283,
                -1.4479935386696157,
                -2.631735891755593,
                -2.1820303244865755,
                0.42145376521695666,
                -3.09697857547714
            ]
        },
        {
            "positions": [
                -0.19114427606660778,
                -1.5236158559099677,
                -2.5614288535697374,
                -2.197164836901515,
                0.26861089265931093,
                -3.0936731970036644
            ]
        },
        {
            "positions": [
                -0.18977463938238726,
                -1.5992381731503196,
                -2.4911218153838814,
                -2.212299349316455,
                0.11576802010166531,
                -3.090367818530188
            ]
        },
        {
            "positions": [
                -0.18840500269816673,
                -1.6748604903906716,
                -2.420814777198026,
                -2.2274338617313947,
                -0.03707485245598052,
                -3.0870624400567124
            ]
        },
        {
            "positions": [
                -0.1870353660139462,
                -1.7504828076310237,
                -2.3505077390121705,
                -2.2425683741463343,
                -0.18991772501362614,
                -3.083757061583236
            ]
        }
    ]
}