{
    "goal": {
        "global_pose": {
            "orientation": {
                "w": 0.5084816217422485,
                "x": -0.49083608388900757,
                "y": 0.5182115435600281,
                "z": -0.4816462993621826
            },
            "position": {
                "x": 0.5540239810943604,
                "y": 0.030875300988554955,
                "z": 0.16403168439865112
            }
        },
        "name": "move_to_storage_A"
    },
    "id": "ProjEST_move_to_storage_A_88",
    "joint_names": [
        "shoulder_pan_joint",
        "shoulder_lift_joint",
        "elbow_joint",
        "wrist_1_joint",
        "wrist_2_joint",
        "wrist_3_joint"
    ],
    "metrics": {
        "cart_traj_len": 0.35407839985758416,
        "distance_elbow_joint": 0.4525673204470446,
        "distance_shoulder_lift_joint": 0.23406238497227716,
        "distance_shoulder_pan_joint": 0.46485956577841575,
        "distance_wrist_1_joint": 0.25376245181228063,
        "distance_wrist_2_joint": 1.0928434324788423,
        "distance_wrist_3_joint": 0.10369447817164934,
        "smoothness": 4.440892098500626e-16,
        "time": 0.02558817,
        "traj_len": 1.6130063960383139,
        "weighted_distance": 2.0385741277409886
    },
    "planner": "ProjEST",
    "start": {
        "state": {
            "elbow_joint": 1.9715474177455299,
            "shoulder_lift_joint": -1.139484666580328,
            "shoulder_pan_joint": 0.12281154398918248,
            "wrist_1_joint": -0.7804687475355282,
            "wrist_2_joint": 0.12958649657246987,
            "wrist_3_joint": -3.1924925159053466
        }
    },
    "waypoints": [
        {
            "positions": [
                0.12281154398918248,
                -1.139484666580328,
                1.9715474177455299,
                -0.7804687475355282,
                0.12958649657246987,
                -3.1924925159053466
            ]
        },
        {
            "positions": [
                0.05640303459226595,
                -1.1729221501477962,
                2.036199892095108,
                -0.816720526365854,
                0.2857069869265902,
                -3.1776790190236825
            ]
        },
        {
            "positions": [
                -0.010005474804650583,
                -1.2063596337152642,
                2.1008523664446854,
                -0.8529723051961798,
                0.4418274772807105,
                -3.162865522142018
            ]
        },
        {
            "positions": [
                -0.07641398420156711,
                -1.2397971172827325,
                2.1655048407942634,
                -0.8892240840265055,
                0.5979479676348308,
                -3.148052025260354
            ]
        },
        {
            "positions": [
                -0.14282249359848365,
                -1.2732346008502007,
                2.230157315143841,
                -0.9254758628568314,
                0.7540684579889512,
                -3.1332385283786897
            ]
        },
        {
            "positions": [
                -0.2092310029954002,
                -1.306672084417669,
                2.294809789493419,
                -0.9617276416871572,
                0.9101889483430715,
                -3.1184250314970257
            ]
        },
        {
            "positions": [
                -0.2756395123923167,
                -1.340109567985137,
                2.3594622638429965,
                -0.997979420517483,
                1.0663094386971919,
                -3.103611534615361
            ]
        },
        {
            "positions": [
                -0.34204802178923327,
                -1.3735470515526051,
                2.4241147381925745,
                -1.0342311993478088,
                1.222429929051312,
                -3.088798037733697
            ]
        }
    ]
}