{
    "goal": {
        "global_pose": {
            "orientation": {
                "w": 0.5084816262002911,
                "x": -0.4908360881923452,
                "y": 0.5182115481033761,
                "z": -0.48164630358495003
            },
            "position": {
                "x": 0.5540239810943604,
                "y": -0.46912469901144505,
                "z": 0.16403168439865112
            }
        },
        "name": "move_to_storage_B"
    },
    "id": "ProjEST_move_to_storage_B_104",
    "joint_names": [
        "shoulder_pan_joint",
        "shoulder_lift_joint",
        "elbow_joint",
        "wrist_1_joint",
        "wrist_2_joint",
        "wrist_3_joint"
    ],
    "metrics": {
        "cart_traj_len": 3.1249748128534405,
        "distance_elbow_joint": 0.35191018520865414,
        "distance_shoulder_lift_joint": 1.4509933389375569,
        "distance_shoulder_pan_joint": 4.075194757186232,
        "distance_wrist_1_joint": 2.988251036967714,
        "distance_wrist_2_joint": 2.7215243355572243,
        "distance_wrist_3_joint": 6.048273928236782,
        "smoothness": 0.3431900542578355,
        "time": 0.09208853,
        "traj_len": 4.199541353778311,
        "weighted_distance": 5.9533579441431765
    },
    "planner": "ProjEST",
    "start": {
        "state": {
            "elbow_joint": 1.6649325706314817,
            "shoulder_lift_joint": -0.6616388048112454,
            "shoulder_pan_joint": -0.9139837860083814,
            "wrist_1_joint": 2.146757197745094,
            "wrist_2_joint": -2.234196043158733,
            "wrist_3_joint": 0.005471033829999897
        }
    },
    "waypoints": [
        {
            "positions": [
                -0.9139837860083814,
                -0.6616388048112454,
                1.6649325706314817,
                2.146757197745094,
                -2.234196043158733,
                0.005471033829999897
            ]
        },
        {
            "positions": [
                -0.8057772479441119,
                -0.7147125271084737,
                1.6806054339955772,
                2.0670792378570644,
                -2.1815332984709324,
                -0.07518409400339233
            ]
        },
        {
            "positions": [
                -0.6975707098798424,
                -0.767786249405702,
                1.6962782973596728,
                1.9874012779690344,
                -2.1288705537831314,
                -0.15583922183678459
            ]
        },
        {
            "positions": [
                -0.5893641718155729,
                -0.8208599717029303,
                1.7119511607237683,
                1.9077233180810045,
                -2.0762078090953304,
                -0.23649434967017682
            ]
        },
        {
            "positions": [
                -0.48115763375130344,
                -0.8739336940001586,
                1.727624024087864,
                1.8280453581929748,
                -2.02354506440753,
                -0.31714947750356903
            ]
        },
        {
            "positions": [
                -0.3729510956870339,
                -0.9270074162973869,
                1.7432968874519594,
                1.7483673983049448,
                -1.9708823197197292,
                -0.39780460533696127
            ]
        },
        {
            "positions": [
                -0.2647445576227645,
                -0.9800811385946152,
                1.7589697508160551,
                1.668689438416915,
                -1.9182195750319284,
                -0.4784597331703535
            ]
        },
        {
            "positions": [
                -0.156538019558495,
                -1.0331548608918435,
                1.7746426141801506,
                1.5890114785288851,
                -1.8655568303441277,
                -0.5591148610037457
            ]
        },
        {
            "positions": [
                -0.0483314814942255,
                -1.086228583189072,
                1.790315477544246,
                1.5093335186408554,
                -1.812894085656327,
                -0.639769988837138
            ]
        },
        {
            "positions": [
                0.059875056570043994,
                -1.1393023054863,
                1.8059883409083417,
                1.4296555587528255,
                -1.7602313409685262,
                -0.7204251166705302
            ]
        },
        {
            "positions": [
                0.1680815946343136,
                -1.1923760277835285,
                1.8216612042724374,
                1.3499775988647955,
                -1.7075685962807254,
                -0.8010802445039225
            ]
        },
        {
            "positions": [
                0.276288132698583,
                -1.2454497500807569,
                1.8373340676365328,
                1.2702996389767658,
                -1.6549058515929247,
                -0.8817353723373148
            ]
        },
        {
            "positions": [
                0.3844946707628524,
                -1.298523472377985,
                1.8530069310006283,
                1.190621679088736,
                -1.602243106905124,
                -0.9623905001707069
            ]
        },
        {
            "positions": [
                0.492701208827122,
                -1.3515971946752134,
                1.868679794364724,
                1.1109437192007061,
                -1.5495803622173232,
                -1.0430456280040992
            ]
        },
        {
            "positions": [
                0.6009077468913914,
                -1.4046709169724418,
                1.8843526577288194,
                1.0312657593126762,
                -1.4969176175295225,
                -1.1237007558374914
            ]
        },
        {
            "positions": [
                0.709114284955661,
                -1.45774463926967,
                1.9000255210929151,
                0.9515877994246462,
                -1.4442548728417217,
                -1.2043558836708836
            ]
        },
        {
            "positions": [
                0.8173208230199304,
                -1.5108183615668982,
                1.9156983844570106,
                0.8719098395366165,
                -1.391592128153921,
                -1.2850110115042759
            ]
        },
        {
            "positions": [
                0.9255273610841998,
                -1.5638920838641268,
                1.9313712478211063,
                0.7922318796485868,
                -1.3389293834661202,
                -1.3656661393376681
            ]
        },
        {
            "positions": [
                1.0337338991484692,
                -1.616965806161355,
                1.9470441111852017,
                0.7125539197605568,
                -1.2862666387783195,
                -1.4463212671710604
            ]
        },
        {
            "positions": [
                0.9549384520362698,
                -1.5986077936581162,
                1.9496292461724214,
                0.6549965953537724,
                -1.2205779376236228,
                -1.2760812069030707
            ]
        },
        {
            "positions": [
                0.8761430049240704,
                -1.5802497811548775,
                1.9522143811596413,
                0.597439270946988,
                -1.1548892364689263,
                -1.105841146635081
            ]
        },
        {
            "positions": [
                0.797347557811871,
                -1.5618917686516387,
                1.954799516146861,
                0.5398819465402037,
                -1.0892005353142298,
                -0.9356010863670913
            ]
        },
        {
            "positions": [
                0.7185521106996716,
                -1.5435337561484,
                1.9573846511340809,
                0.4823246221334193,
                -1.023511834159533,
                -0.7653610260991016
            ]
        },
        {
            "positions": [
                0.6397566635874723,
                -1.525175743645161,
                1.9599697861213006,
                0.42476729772663496,
                -0.9578231330048365,
                -0.595120965831112
            ]
        },
        {
            "positions": [
                0.5609612164752729,
                -1.5068177311419222,
                1.9625549211085205,
                0.36720997331985056,
                -0.8921344318501399,
                -0.4248809055631222
            ]
        },
        {
            "positions": [
                0.4821657693630734,
                -1.4884597186386834,
                1.9651400560957402,
                0.3096526489130662,
                -0.8264457306954432,
                -0.25464084529513253
            ]
        },
        {
            "positions": [
                0.403370322250874,
                -1.4701017061354447,
                1.96772519108296,
                0.2520953245062818,
                -0.7607570295407466,
                -0.08440078502714288
            ]
        },
        {
            "positions": [
                0.32457487513867456,
                -1.451743693632206,
                1.9703103260701798,
                0.1945380000994974,
                -0.69506832838605,
                0.08583927524084678
            ]
        },
        {
            "positions": [
                0.24577942802647523,
                -1.4333856811289671,
                1.9728954610573994,
                0.1369806756927131,
                -0.6293796272313534,
                0.25607933550883644
            ]
        },
        {
            "positions": [
                0.1669839809142758,
                -1.4150276686257284,
                1.9754805960446193,
                0.0794233512859287,
                -0.5636909260766568,
                0.4263193957768263
            ]
        },
        {
            "positions": [
                0.08818853380207636,
                -1.3966696561224896,
                1.978065731031839,
                0.021866026879144296,
                -0.4980022249219602,
                0.596559456044816
            ]
        },
        {
            "positions": [
                0.00939308668987704,
                -1.3783116436192508,
                1.980650866019059,
                -0.03569129752764011,
                -0.4323135237672636,
                0.7667995163128054
            ]
        },
        {
            "positions": [
                -0.0694023604223224,
                -1.3599536311160119,
                1.9832360010062786,
                -0.0932486219344244,
                -0.366624822612567,
                0.9370395765807953
            ]
        },
        {
            "positions": [
                -0.14819780753452205,
                -1.341595618612773,
                1.9858211359934985,
                -0.15080594634120892,
                -0.3009361214578703,
                1.1072796368487852
            ]
        },
        {
            "positions": [
                -0.22699325464672127,
                -1.3232376061095343,
                1.9884062709807182,
                -0.2083632707479932,
                -0.2352474203031738,
                1.2775196971167746
            ]
        },
        {
            "positions": [
                -0.3057887017589207,
                -1.3048795936062956,
                1.990991405967938,
                -0.26592059515477773,
                -0.1695587191484771,
                1.4477597573847645
            ]
        },
        {
            "positions": [
                -0.38458414887112014,
                -1.2865215811030568,
                1.9935765409551578,
                -0.323477919561562,
                -0.1038700179937806,
                1.617999817652754
            ]
        },
        {
            "positions": [
                -0.46337959598331957,
                -1.268163568599818,
                1.9961616759423775,
                -0.3810352439683464,
                -0.03818131683908388,
                1.7882398779207438
            ]
        },
        {
            "positions": [
                -0.5421750430955188,
                -1.2498055560965793,
                1.9987468109295974,
                -0.4385925683751306,
                0.027507384315612615,
                1.9584799381887332
            ]
        },
        {
            "positions": [
                -0.6209704902077184,
                -1.2314475435933405,
                2.0013319459168173,
                -0.49614989278191524,
                0.09319608547030933,
                2.1287199984567238
            ]
        },
        {
            "positions": [
                -0.6997659373199177,
                -1.2130895310901018,
                2.0039170809040368,
                -0.5537072171886994,
                0.15888478662500582,
                2.298960058724713
            ]
        },
        {
            "positions": [
                -0.7785613844321173,
                -1.1947315185868628,
                2.0065022158912567,
                -0.611264541595484,
                0.22457348777970254,
                2.4692001189927026
            ]
        },
        {
            "positions": [
                -0.8573568315443165,
                -1.1763735060836242,
                2.0090873508784766,
                -0.6688218660022682,
                0.29026218893439903,
                2.639440179260692
            ]
        },
        {
            "positions": [
                -0.936152278656516,
                -1.1580154935803852,
                2.0116724858656965,
                -0.7263791904090526,
                0.35595089008909575,
                2.8096802395286815
            ]
        },
        {
            "positions": [
                -1.0149477257687152,
                -1.1396574810771465,
                2.014257620852916,
                -0.783936514815837,
                0.42163959124379224,
                2.979920299796671
            ]
        },
        {
            "positions": [
                -1.0937431728809146,
                -1.1212994685739077,
                2.016842755840136,
                -0.8414938392226213,
                0.4873282923984889,
                3.1501603600646613
            ]
        }
    ]
}