{
    "goal": {
        "global_pose": {
            "orientation": {
                "w": -0.00223480608172531,
                "x": 0.0024358444001904467,
                "y": 0.7094548369677653,
                "z": -0.704743149386269
            },
            "position": {
                "x": -0.37947507619857795,
                "y": -0.6371506643295288,
                "z": 0.19426114857196808
            }
        },
        "name": "move_to_magneteinheit_C"
    },
    "id": "ProjEST_move_to_magneteinheit_C_63",
    "joint_names": [
        "shoulder_pan_joint",
        "shoulder_lift_joint",
        "elbow_joint",
        "wrist_1_joint",
        "wrist_2_joint",
        "wrist_3_joint"
    ],
    "metrics": {
        "cart_traj_len": 0.8164022205859126,
        "distance_elbow_joint": 0.9709214033518219,
        "distance_shoulder_lift_joint": 0.3946922906191044,
        "distance_shoulder_pan_joint": 1.2092130725860155,
        "distance_wrist_1_joint": 0.3849081258882491,
        "distance_wrist_2_joint": 0.7998277608865948,
        "distance_wrist_3_joint": 1.4134444306707818,
        "smoothness": 1.2999408028783501,
        "time": 0.14860383300000002,
        "traj_len": 2.274424561070903,
        "weighted_distance": 3.030615751315065
    },
    "planner": "ProjEST",
    "start": {
        "state": {
            "elbow_joint": 1.9565354006590394,
            "shoulder_lift_joint": -1.4165861576513559,
            "shoulder_pan_joint": -1.6717766223277177,
            "wrist_1_joint": -0.5286633288215096,
            "wrist_2_joint": 1.4727565892594296,
            "wrist_3_joint": 3.1593482883155493
        }
    },
    "waypoints": [
        {
            "positions": [
                -1.6717766223277177,
                -1.4165861576513559,
                1.9565354006590394,
                -0.5286633288215096,
                1.4727565892594296,
                3.1593482883155493
            ]
        },
        {
            "positions": [
                -1.7975021612955389,
                -1.4255069269180027,
                2.0206203073014013,
                -0.5239199533470762,
                1.3874479013596503,
                3.068989923540993
            ]
        },
        {
            "positions": [
                -1.92322770026336,
                -1.4344276961846498,
                2.0847052139437627,
                -0.5191765778726428,
                1.302139213459871,
                2.9786315587664376
            ]
        },
        {
            "positions": [
                -2.048953239231181,
                -1.443348465451297,
                2.1487901205861246,
                -0.5144332023982094,
                1.2168305255600915,
                2.8882731939918815
            ]
        },
        {
            "positions": [
                -2.1746787781990022,
                -1.4522692347179438,
                2.2128750272284865,
                -0.509689826923776,
                1.1315218376603122,
                2.7979148292173255
            ]
        },
        {
            "positions": [
                -2.3004043171668234,
                -1.4611900039845906,
                2.276959933870848,
                -0.5049464514493426,
                1.046213149760533,
                2.70755646444277
            ]
        },
        {
            "positions": [
                -2.4261298561346445,
                -1.4701107732512377,
                2.34104484051321,
                -0.5002030759749092,
                0.9609044618607535,
                2.617198099668214
            ]
        },
        {
            "positions": [
                -2.5518553951024656,
                -1.4790315425178848,
                2.4051297471555713,
                -0.49545970050047583,
                0.8755957739609741,
                2.5268397348936578
            ]
        },
        {
            "positions": [
                -2.6775809340702867,
                -1.4879523117845317,
                2.469214653797933,
                -0.49071632502604245,
                0.7902870860611948,
                2.436481370119102
            ]
        },
        {
            "positions": [
                -2.6436794739297125,
                -1.4340646223702103,
                2.3928409620957787,
                -0.5485431787081728,
                0.7707273764464682,
                2.551577622198158
            ]
        },
        {
            "positions": [
                -2.6097780137891378,
                -1.3801769329558888,
                2.3164672703936238,
                -0.6063700323903031,
                0.7511676668317415,
                2.6666738742772136
            ]
        },
        {
            "positions": [
                -2.5758765536485635,
                -1.3262892435415674,
                2.240093578691469,
                -0.6641968860724334,
                0.7316079572170149,
                2.7817701263562693
            ]
        },
        {
            "positions": [
                -2.5419750935079892,
                -1.272401554127246,
                2.1637198869893144,
                -0.7220237397545637,
                0.7120482476022881,
                2.8968663784353255
            ]
        },
        {
            "positions": [
                -2.5080736333674145,
                -1.2185138647129246,
                2.08734619528716,
                -0.7798505934366942,
                0.6924885379875615,
                3.011962630514381
            ]
        },
        {
            "positions": [
                -2.4741721732268402,
                -1.1646261752986031,
                2.010972503585005,
                -0.8376774471188244,
                0.6729288283728349,
                3.127058882593437
            ]
        }
    ]
}