{
    "goal": {
        "global_pose": {
            "orientation": {
                "w": 0.5084816217422485,
                "x": -0.49083608388900757,
                "y": 0.5182115435600281,
                "z": -0.4816462993621826
            },
            "position": {
                "x": 0.5540239810943604,
                "y": 0.030875300988554955,
                "z": 0.16403168439865112
            }
        },
        "name": "move_to_storage_A"
    },
    "id": "ProjEST_move_to_storage_A_94",
    "joint_names": [
        "shoulder_pan_joint",
        "shoulder_lift_joint",
        "elbow_joint",
        "wrist_1_joint",
        "wrist_2_joint",
        "wrist_3_joint"
    ],
    "metrics": {
        "cart_traj_len": 0.35233014496492676,
        "distance_elbow_joint": 0.4493883285966582,
        "distance_shoulder_lift_joint": 0.23392567508673578,
        "distance_shoulder_pan_joint": 0.46129364892623503,
        "distance_wrist_1_joint": 0.23857370113953247,
        "distance_wrist_2_joint": 1.094895385439071,
        "distance_wrist_3_joint": 0.0965464819441455,
        "smoothness": 8.881784197001252e-16,
        "time": 0.058109657,
        "traj_len": 1.6045632493399498,
        "weighted_distance": 2.0251383339414795
    },
    "planner": "ProjEST",
    "start": {
        "state": {
            "elbow_joint": 1.9715474177455299,
            "shoulder_lift_joint": -1.139484666580328,
            "shoulder_pan_joint": 0.12281154398918248,
            "wrist_1_joint": -0.7804687475355282,
            "wrist_2_joint": 0.12958649657246987,
            "wrist_3_joint": -3.1924925159053466
        }
    },
    "waypoints": [
        {
            "positions": [
                0.12281154398918248,
                -1.139484666580328,
                1.9715474177455299,
                -0.7804687475355282,
                0.12958649657246987,
                -3.1924925159053466
            ]
        },
        {
            "positions": [
                0.05691245128543462,
                -1.1729026201641475,
                2.0357457504021954,
                -0.8145507048411756,
                0.28600012306376577,
                -3.1787001613418973
            ]
        },
        {
            "positions": [
                -0.008986641418313235,
                -1.2063205737479668,
                2.099944083058861,
                -0.8486326621468232,
                0.44241374955506163,
                -3.164907806778448
            ]
        },
        {
            "positions": [
                -0.07488573412206109,
                -1.2397385273317862,
                2.1641424157155265,
                -0.8827146194524707,
                0.5988273760463575,
                -3.1511154522149987
            ]
        },
        {
            "positions": [
                -0.14078482682580895,
                -1.2731564809156055,
                2.2283407483721915,
                -0.9167965767581182,
                0.7552410025376534,
                -3.137323097651549
            ]
        },
        {
            "positions": [
                -0.20668391952955684,
                -1.306574434499425,
                2.292539081028857,
                -0.9508785340637657,
                0.9116546290289492,
                -3.1235307430880996
            ]
        },
        {
            "positions": [
                -0.27258301223330467,
                -1.3399923880832443,
                2.3567374136855226,
                -0.9849604913694132,
                1.068068255520245,
                -3.1097383885246503
            ]
        },
        {
            "positions": [
                -0.33848210493705255,
                -1.3734103416670638,
                2.420935746342188,
                -1.0190424486750607,
                1.2244818820115408,
                -3.095946033961201
            ]
        }
    ]
}