{
    "goal": {
        "global_pose": {
            "orientation": {
                "w": -0.4816463035849501,
                "x": 0.5182115481033762,
                "y": 0.4908360881923453,
                "z": -0.5084816262002911
            },
            "position": {
                "x": -0.8240239810943604,
                "y": 0.19912469901144506,
                "z": 0.16403168439865112
            }
        },
        "name": "move_to_storage_D"
    },
    "id": "ProjEST_move_to_storage_D_130",
    "joint_names": [
        "shoulder_pan_joint",
        "shoulder_lift_joint",
        "elbow_joint",
        "wrist_1_joint",
        "wrist_2_joint",
        "wrist_3_joint"
    ],
    "metrics": {
        "cart_traj_len": 3.4735786028426667,
        "distance_elbow_joint": 4.210230647128605,
        "distance_shoulder_lift_joint": 1.265036758146867,
        "distance_shoulder_pan_joint": 2.8129368519609335,
        "distance_wrist_1_joint": 2.277921341532995,
        "distance_wrist_2_joint": 0.8718230969217785,
        "distance_wrist_3_joint": 3.1275735908827436,
        "smoothness": 5.60954790572426e-16,
        "time": 0.15960251,
        "traj_len": 3.8164803532278158,
        "weighted_distance": 4.895958936387659
    },
    "planner": "ProjEST",
    "start": {
        "state": {
            "elbow_joint": -2.384821997420982,
            "shoulder_lift_joint": -2.2788054674887404,
            "shoulder_pan_joint": -0.18546946417610016,
            "wrist_1_joint": 1.4845937964226739,
            "wrist_2_joint": 0.1789877726866377,
            "wrist_3_joint": 0.03710572555276528
        }
    },
    "waypoints": [
        {
            "positions": [
                -0.18546946417610016,
                -2.2788054674887404,
                -2.384821997420982,
                1.4845937964226739,
                0.1789877726866377,
                0.03710572555276528
            ]
        },
        {
            "positions": [
                -0.103460639686823,
                -2.2748202864641898,
                -2.20814283731547,
                1.4522236484341438,
                0.21052146788110387,
                -0.029872227313796386
            ]
        },
        {
            "positions": [
                -0.021451815197545826,
                -2.270835105439639,
                -2.031463677209958,
                1.4198535004456136,
                0.24205516307557004,
                -0.09685018018035804
            ]
        },
        {
            "positions": [
                0.060557009291731356,
                -2.2668499244150886,
                -1.854784517104446,
                1.3874833524570835,
                0.2735888582700362,
                -0.1638281330469197
            ]
        },
        {
            "positions": [
                0.1425658337810085,
                -2.2628647433905384,
                -1.678105356998934,
                1.3551132044685532,
                0.30512255346450234,
                -0.23080608591348137
            ]
        },
        {
            "positions": [
                0.22457465827028567,
                -2.258879562365988,
                -1.501426196893422,
                1.322743056480023,
                0.3366562486589685,
                -0.29778403878004306
            ]
        },
        {
            "positions": [
                0.3065834827595629,
                -2.2548943813414373,
                -1.32474703678791,
                1.290372908491493,
                0.3681899438534347,
                -0.3647619916466047
            ]
        },
        {
            "positions": [
                0.38859230724884003,
                -2.2509092003168867,
                -1.148067876682398,
                1.258002760502963,
                0.39972363904790087,
                -0.4317399445131664
            ]
        },
        {
            "positions": [
                0.4706011317381172,
                -2.246924019292336,
                -0.971388716576886,
                1.2256326125144328,
                0.431257334242367,
                -0.49871789737972805
            ]
        },
        {
            "positions": [
                0.5526099562273943,
                -2.2429388382677855,
                -0.794709556471374,
                1.1932624645259025,
                0.46279102943683315,
                -0.5656958502462897
            ]
        },
        {
            "positions": [
                0.6346187807166714,
                -2.238953657243235,
                -0.618030396365862,
                1.1608923165373723,
                0.4943247246312993,
                -0.6326738031128514
            ]
        },
        {
            "positions": [
                0.7166276052059488,
                -2.2349684762186848,
                -0.44135123626035,
                1.1285221685488422,
                0.5258584198257655,
                -0.6996517559794131
            ]
        },
        {
            "positions": [
                0.798636429695226,
                -2.230983295194134,
                -0.264672076154838,
                1.0961520205603121,
                0.5573921150202317,
                -0.7666297088459747
            ]
        },
        {
            "positions": [
                0.8806452541845031,
                -2.2269981141695836,
                -0.08799291604932602,
                1.063781872571782,
                0.5889258102146978,
                -0.8336076617125364
            ]
        },
        {
            "positions": [
                0.9626540786737803,
                -2.223012933145033,
                0.08868624405618597,
                1.031411724583252,
                0.620459505409164,
                -0.900585614579098
            ]
        },
        {
            "positions": [
                1.0446629031630577,
                -2.2190277521204824,
                0.26536540416169796,
                0.9990415765947217,
                0.6519932006036302,
                -0.9675635674456599
            ]
        },
        {
            "positions": [
                1.1266717276523346,
                -2.215042571095932,
                0.44204456426720995,
                0.9666714286061916,
                0.6835268957980963,
                -1.0345415203122212
            ]
        },
        {
            "positions": [
                1.208680552141612,
                -2.2110573900713812,
                0.6187237243727219,
                0.9343012806176614,
                0.7150605909925625,
                -1.101519473178783
            ]
        },
        {
            "positions": [
                1.290689376630889,
                -2.207072209046831,
                0.7954028844782339,
                0.9019311326291313,
                0.7465942861870286,
                -1.1684974260453445
            ]
        },
        {
            "positions": [
                1.3726982011201663,
                -2.2030870280222805,
                0.9720820445837459,
                0.8695609846406012,
                0.7781279813814949,
                -1.2354753789119064
            ]
        },
        {
            "positions": [
                1.4547070256094432,
                -2.19910184699773,
                1.148761204689258,
                0.8371908366520711,
                0.8096616765759609,
                -1.302453331778468
            ]
        },
        {
            "positions": [
                1.5367158500987206,
                -2.1951166659731793,
                1.3254403647947697,
                0.8048206886635408,
                0.8411953717704271,
                -1.3694312846450296
            ]
        },
        {
            "positions": [
                1.6048878212041027,
                -2.1212824186837227,
                1.356688382601823,
                0.7049364240526744,
                0.8542963403853014,
                -1.476996070937839
            ]
        },
        {
            "positions": [
                1.6730597923094845,
                -2.047448171394266,
                1.3879364004088761,
                0.6050521594418081,
                0.8673973090001758,
                -1.5845608572306482
            ]
        },
        {
            "positions": [
                1.7412317634148666,
                -1.9736139241048094,
                1.4191844182159294,
                0.5051678948309417,
                0.8804982776150501,
                -1.6921256435234575
            ]
        },
        {
            "positions": [
                1.8094037345202487,
                -1.8997796768153528,
                1.4504324360229828,
                0.4052836302200753,
                0.8935992462299244,
                -1.7996904298162668
            ]
        },
        {
            "positions": [
                1.8775757056256306,
                -1.8259454295258961,
                1.481680453830036,
                0.3053993656092089,
                0.9067002148447987,
                -1.9072552161090761
            ]
        },
        {
            "positions": [
                1.9457476767310127,
                -1.7521111822364397,
                1.5129284716370892,
                0.20551510099834258,
                0.919801183459673,
                -2.014820002401885
            ]
        },
        {
            "positions": [
                2.0139196478363948,
                -1.678276934946983,
                1.5441764894441425,
                0.10563083638747617,
                0.9329021520745473,
                -2.1223847886946947
            ]
        },
        {
            "positions": [
                2.0820916189417766,
                -1.6044426876575264,
                1.5754245072511956,
                0.005746571776609755,
                0.9460031206894217,
                -2.229949574987504
            ]
        },
        {
            "positions": [
                2.1502635900471585,
                -1.5306084403680698,
                1.606672525058249,
                -0.09413769283425666,
                0.9591040893042959,
                -2.3375143612803133
            ]
        },
        {
            "positions": [
                2.218435561152541,
                -1.4567741930786131,
                1.6379205428653023,
                -0.19402195744512307,
                0.9722050579191703,
                -2.4450791475731224
            ]
        },
        {
            "positions": [
                2.2866075322579227,
                -1.3829399457891567,
                1.6691685606723556,
                -0.2939062220559895,
                0.9853060265340446,
                -2.552643933865932
            ]
        },
        {
            "positions": [
                2.3547795033633045,
                -1.3091056984997,
                1.7004165784794087,
                -0.3937904866668557,
                0.998406995148919,
                -2.660208720158741
            ]
        },
        {
            "positions": [
                2.422951474468687,
                -1.2352714512102434,
                1.731664596286462,
                -0.4936747512777221,
                1.0115079637637931,
                -2.76777350645155
            ]
        },
        {
            "positions": [
                2.4911234455740687,
                -1.1614372039207868,
                1.7629126140935152,
                -0.5935590158885885,
                1.0246089323786676,
                -2.8753382927443596
            ]
        },
        {
            "positions": [
                2.5592954166794506,
                -1.08760295663133,
                1.7941606319005685,
                -0.6934432804994549,
                1.037709900993542,
                -2.982903079037169
            ]
        },
        {
            "positions": [
                2.627467387784833,
                -1.0137687093418735,
                1.8254086497076218,
                -0.7933275451103212,
                1.0508108696084162,
                -3.090467865329978
            ]
        }
    ]
}