{
    "goal": {
        "global_pose": {
            "orientation": {
                "w": 0.7031023480610252,
                "x": -0.7110244013736278,
                "y": 0.0077485991402295624,
                "z": 0.005598929693374583
            },
            "position": {
                "x": -0.8841497679147869,
                "y": 0.44412534475326537,
                "z": 0.3711530566215515
            }
        },
        "name": "move_to_auspresseinheit_D"
    },
    "id": "ProjEST_move_to_auspresseinheit_D_116",
    "joint_names": [
        "shoulder_pan_joint",
        "shoulder_lift_joint",
        "elbow_joint",
        "wrist_1_joint",
        "wrist_2_joint",
        "wrist_3_joint"
    ],
    "metrics": {
        "cart_traj_len": 3.4161806364045098,
        "distance_elbow_joint": 3.9663872548089065,
        "distance_shoulder_lift_joint": 1.4211056590720457,
        "distance_shoulder_pan_joint": 1.2649070654376127,
        "distance_wrist_1_joint": 3.3253147763074478,
        "distance_wrist_2_joint": 3.661683118607465,
        "distance_wrist_3_joint": 4.619638887062315,
        "smoothness": 0.2973569853966178,
        "time": 3.6721229999999996,
        "traj_len": 4.273059414669517,
        "weighted_distance": 5.8724196401768936
    },
    "planner": "ProjEST",
    "start": {
        "state": {
            "elbow_joint": 1.8268400409724999,
            "shoulder_lift_joint": -1.0144045787793008,
            "shoulder_pan_joint": 2.6280239544362485,
            "wrist_1_joint": -0.790705565816056,
            "wrist_2_joint": 1.0573557467365533,
            "wrist_3_joint": 3.1851377467193758
        }
    },
    "waypoints": [
        {
            "positions": [
                2.6280239544362485,
                -1.0144045787793008,
                1.8268400409724999,
                -0.790705565816056,
                1.0573557467365533,
                3.1851377467193758
            ]
        },
        {
            "positions": [
                2.6041082741219266,
                -1.0352671073523527,
                1.7443966226956888,
                -0.7163019795866451,
                1.0158344687535192,
                3.0411212188364853
            ]
        },
        {
            "positions": [
                2.5801925938076047,
                -1.0561296359254049,
                1.6619532044188778,
                -0.6418983933572341,
                0.974313190770485,
                2.8971046909535945
            ]
        },
        {
            "positions": [
                2.556276913493283,
                -1.0769921644984568,
                1.5795097861420666,
                -0.5674948071278232,
                0.9327919127874509,
                2.753088163070704
            ]
        },
        {
            "positions": [
                2.532361233178961,
                -1.0978546930715087,
                1.4970663678652556,
                -0.49309122089841223,
                0.8912706348044167,
                2.6090716351878136
            ]
        },
        {
            "positions": [
                2.508445552864639,
                -1.1187172216445607,
                1.4146229495884444,
                -0.4186876346690013,
                0.8497493568213825,
                2.4650551073049227
            ]
        },
        {
            "positions": [
                2.484529872550317,
                -1.1395797502176128,
                1.3321795313116334,
                -0.3442840484395904,
                0.8082280788383485,
                2.3210385794220323
            ]
        },
        {
            "positions": [
                2.460614192235995,
                -1.1604422787906647,
                1.2497361130348223,
                -0.26988046221017936,
                0.7667068008553143,
                2.177022051539142
            ]
        },
        {
            "positions": [
                2.4366985119216733,
                -1.1813048073637167,
                1.1672926947580113,
                -0.19547687598076846,
                0.7251855228722801,
                2.033005523656251
            ]
        },
        {
            "positions": [
                2.4127828316073514,
                -1.2021673359367688,
                1.0848492764812003,
                -0.12107328975135756,
                0.683664244889246,
                1.8889889957733605
            ]
        },
        {
            "positions": [
                2.3888671512930295,
                -1.2230298645098208,
                1.002405858204389,
                -0.04666970352194655,
                0.6421429669062119,
                1.74497246789047
            ]
        },
        {
            "positions": [
                2.3649514709787076,
                -1.2438923930828727,
                0.9199624399275781,
                0.027733882707464352,
                0.6006216889231777,
                1.6009559400075792
            ]
        },
        {
            "positions": [
                2.3410357906643857,
                -1.2647549216559248,
                0.837519021650767,
                0.10213746893687525,
                0.5591004109401436,
                1.4569394121246888
            ]
        },
        {
            "positions": [
                2.317120110350064,
                -1.2856174502289768,
                0.7550756033739559,
                0.17654105516628626,
                0.5175791329571094,
                1.3129228842417981
            ]
        },
        {
            "positions": [
                2.293204430035742,
                -1.3064799788020287,
                0.6726321850971448,
                0.2509446413956973,
                0.47605785497407527,
                1.1689063563589075
            ]
        },
        {
            "positions": [
                2.26928874972142,
                -1.3273425073750809,
                0.5901887668203336,
                0.3253482276251083,
                0.4345365769910411,
                1.0248898284760166
            ]
        },
        {
            "positions": [
                2.245373069407098,
                -1.3482050359481328,
                0.5077453485435228,
                0.3997518138545191,
                0.3930152990080069,
                0.8808733005931262
            ]
        },
        {
            "positions": [
                2.2214573890927762,
                -1.3690675645211847,
                0.4253019302667116,
                0.4741554000839301,
                0.35149402102497274,
                0.7368567727102358
            ]
        },
        {
            "positions": [
                2.1975417087784543,
                -1.3899300930942367,
                0.3428585119899006,
                0.5485589863133409,
                0.30997274304193867,
                0.5928402448273453
            ]
        },
        {
            "positions": [
                2.1736260284641324,
                -1.4107926216672888,
                0.26041509371308935,
                0.6229625725427521,
                0.2684514650589045,
                0.44882371694445444
            ]
        },
        {
            "positions": [
                2.1497103481498105,
                -1.4316551502403407,
                0.17797167543627834,
                0.6973661587721629,
                0.22693018707587043,
                0.304807189061564
            ]
        },
        {
            "positions": [
                2.125794667835488,
                -1.4525176788133927,
                0.09552825715946733,
                0.7717697450015739,
                0.18540890909283614,
                0.16079066117867313
            ]
        },
        {
            "positions": [
                2.1018789875211668,
                -1.4733802073864446,
                0.013084838882656324,
                0.8461733312309847,
                0.14388763110980207,
                0.0167741332957827
            ]
        },
        {
            "positions": [
                2.0779633072068444,
                -1.4942427359594967,
                -0.0693585793941549,
                0.9205769174603957,
                0.1023663531267679,
                -0.12724239458710818
            ]
        },
        {
            "positions": [
                2.054047626892523,
                -1.5151052645325487,
                -0.15180199767096592,
                0.9949805036898065,
                0.06084507514373383,
                -0.27125892246999816
            ]
        },
        {
            "positions": [
                2.0301319465782006,
                -1.5359677931056006,
                -0.23424541594777715,
                1.0693840899192177,
                0.01932379716069965,
                -0.41527545035288904
            ]
        },
        {
            "positions": [
                2.0062162662638787,
                -1.5568303216786528,
                -0.31668883422458816,
                1.1437876761486285,
                -0.022197480822334414,
                -0.5592919782357795
            ]
        },
        {
            "positions": [
                1.982300585949557,
                -1.5776928502517047,
                -0.3991322525013991,
                1.2181912623780398,
                -0.06371875880536869,
                -0.7033085061186702
            ]
        },
        {
            "positions": [
                2.012887872524844,
                -1.5352949805228644,
                -0.31330659421429585,
                1.283540704016807,
                -0.18950893839341204,
                -0.6675245120276337
            ]
        },
        {
            "positions": [
                2.0434751591001312,
                -1.492897110794024,
                -0.2274809359271926,
                1.3488901456555742,
                -0.3152991179814554,
                -0.6317405179365974
            ]
        },
        {
            "positions": [
                2.0740624456754184,
                -1.4504992410651838,
                -0.14165527764008934,
                1.4142395872943412,
                -0.44108929756949866,
                -0.5959565238455609
            ]
        },
        {
            "positions": [
                2.104649732250705,
                -1.4081013713363435,
                -0.05582961935298608,
                1.4795890289331084,
                -0.5668794771575421,
                -0.5601725297545244
            ]
        },
        {
            "positions": [
                2.1352370188259924,
                -1.3657035016075032,
                0.029996038934117175,
                1.5449384705718756,
                -0.6926696567455853,
                -0.524388535663488
            ]
        },
        {
            "positions": [
                2.1658243054012796,
                -1.323305631878663,
                0.11582169722122043,
                1.6102879122106428,
                -0.8184598363336286,
                -0.48860454157245153
            ]
        },
        {
            "positions": [
                2.1964115919765668,
                -1.2809077621498226,
                0.20164735550832363,
                1.6756373538494098,
                -0.9442500159216719,
                -0.4528205474814151
            ]
        },
        {
            "positions": [
                2.2269988785518535,
                -1.238509892420982,
                0.28747301379542695,
                1.740986795488177,
                -1.0700401955097154,
                -0.4170365533903786
            ]
        },
        {
            "positions": [
                2.2575861651271407,
                -1.1961120226921418,
                0.37329867208253026,
                1.8063362371269442,
                -1.1958303750977586,
                -0.38125255929934215
            ]
        },
        {
            "positions": [
                2.288173451702428,
                -1.1537141529633015,
                0.45912433036963346,
                1.8716856787657115,
                -1.321620554685802,
                -0.3454685652083057
            ]
        },
        {
            "positions": [
                2.3187607382777147,
                -1.1113162832344612,
                0.5449499886567368,
                1.9370351204044787,
                -1.4474107342738454,
                -0.3096845711172692
            ]
        },
        {
            "positions": [
                2.349348024853002,
                -1.068918413505621,
                0.6307756469438399,
                2.002384562043246,
                -1.5732009138618885,
                -0.2739005770262328
            ]
        },
        {
            "positions": [
                2.379935311428289,
                -1.0265205437767806,
                0.7166013052309432,
                2.067734003682013,
                -1.698991093449932,
                -0.23811658293519633
            ]
        },
        {
            "positions": [
                2.4105225980035763,
                -0.9841226740479404,
                0.8024269635180463,
                2.1330834453207803,
                -1.824781273037975,
                -0.20233258884415994
            ]
        },
        {
            "positions": [
                2.441109884578863,
                -0.9417248043191,
                0.8882526218051496,
                2.198432886959547,
                -1.9505714526260187,
                -0.16654859475312345
            ]
        },
        {
            "positions": [
                2.47169717115415,
                -0.8993269345902597,
                0.974078280092253,
                2.2637823285983147,
                -2.076361632214062,
                -0.13076460066208695
            ]
        },
        {
            "positions": [
                2.5022844577294374,
                -0.8569290648614194,
                1.0599039383793563,
                2.3291317702370815,
                -2.202151811802105,
                -0.09498060657105056
            ]
        },
        {
            "positions": [
                2.5328717443047246,
                -0.8145311951325791,
                1.1457295966664596,
                2.394481211875849,
                -2.3279419913901482,
                -0.059196612480014066
            ]
        },
        {
            "positions": [
                2.5634590308800114,
                -0.7721333254037388,
                1.2315552549535627,
                2.459830653514616,
                -2.4537321709781916,
                -0.02341261838897768
            ]
        },
        {
            "positions": [
                2.5940463174552986,
                -0.7297354556748985,
                1.317380913240666,
                2.525180095153383,
                -2.579522350566235,
                0.012371375702058847
            ]
        },
        {
            "positions": [
                2.6014842829004783,
                -0.7198754626520628,
                1.341282708833608,
                2.534609210491392,
                -2.6043273718709115,
                0.027884128105598625
            ]
        }
    ]
}