{
    "goal": {
        "global_pose": {
            "orientation": {
                "w": 0.7047431468963623,
                "x": -0.7094548344612122,
                "y": 0.0024358443915843964,
                "z": -0.0022348060738295317
            },
            "position": {
                "x": 0.6094750761985779,
                "y": 0.3671506643295288,
                "z": 0.19426114857196808
            }
        },
        "name": "move_to_magneteinheit_A"
    },
    "id": "ProjEST_move_to_magneteinheit_A_29",
    "joint_names": [
        "shoulder_pan_joint",
        "shoulder_lift_joint",
        "elbow_joint",
        "wrist_1_joint",
        "wrist_2_joint",
        "wrist_3_joint"
    ],
    "metrics": {
        "cart_traj_len": 1.0540929418222034,
        "distance_elbow_joint": 0.3770695284855481,
        "distance_shoulder_lift_joint": 0.37011577203408774,
        "distance_shoulder_pan_joint": 1.2421116127514933,
        "distance_wrist_1_joint": 2.1841817108188293,
        "distance_wrist_2_joint": 1.694243942286917,
        "distance_wrist_3_joint": 1.2446501472543146,
        "smoothness": 9.349246597189412e-17,
        "time": 0.139922775,
        "traj_len": 2.6669032066483385,
        "weighted_distance": 3.671525386163844
    },
    "planner": "ProjEST",
    "start": {
        "state": {
            "elbow_joint": 1.5739458966750683,
            "shoulder_lift_joint": -1.4977259741207325,
            "shoulder_pan_joint": -1.1188672016454206,
            "wrist_1_joint": 1.494575848278785,
            "wrist_2_joint": -1.5706037134824402,
            "wrist_3_joint": -2.0226957942261072
        }
    },
    "waypoints": [
        {
            "positions": [
                -1.1188672016454206,
                -1.4977259741207325,
                1.5739458966750683,
                1.494575848278785,
                -1.5706037134824402,
                -2.0226957942261072
            ]
        },
        {
            "positions": [
                -1.0498610009370044,
                -1.4771639867855053,
                1.5948942038131544,
                1.3732324198999613,
                -1.476479050022056,
                -2.091843024629125
            ]
        },
        {
            "positions": [
                -0.9808548002285881,
                -1.4566019994502784,
                1.6158425109512404,
                1.2518889915211373,
                -1.3823543865616716,
                -2.160990255032142
            ]
        },
        {
            "positions": [
                -0.9118485995201717,
                -1.4360400121150512,
                1.6367908180893265,
                1.1305455631423134,
                -1.2882297231012874,
                -2.2301374854351597
            ]
        },
        {
            "positions": [
                -0.8428423988117555,
                -1.4154780247798242,
                1.6577391252274123,
                1.0092021347634896,
                -1.194105059640903,
                -2.2992847158381773
            ]
        },
        {
            "positions": [
                -0.7738361981033391,
                -1.394916037444597,
                1.6786874323654983,
                0.8878587063846657,
                -1.0999803961805188,
                -2.3684319462411945
            ]
        },
        {
            "positions": [
                -0.7048299973949229,
                -1.3743540501093698,
                1.6996357395035844,
                0.766515278005842,
                -1.0058557327201345,
                -2.437579176644212
            ]
        },
        {
            "positions": [
                -0.6358237966865066,
                -1.3537920627741429,
                1.7205840466416704,
                0.645171849627018,
                -0.9117310692597502,
                -2.5067264070472297
            ]
        },
        {
            "positions": [
                -0.5668175959780903,
                -1.3332300754389157,
                1.7415323537797565,
                0.5238284212481943,
                -0.8176064057993659,
                -2.575873637450247
            ]
        },
        {
            "positions": [
                -0.497811395269674,
                -1.3126680881036887,
                1.7624806609178423,
                0.40248499286937034,
                -0.7234817423389817,
                -2.6450208678532645
            ]
        },
        {
            "positions": [
                -0.42880519456125765,
                -1.2921061007684616,
                1.7834289680559283,
                0.2811415644905464,
                -0.6293570788785974,
                -2.714168098256282
            ]
        },
        {
            "positions": [
                -0.3597989938528413,
                -1.2715441134332344,
                1.8043772751940144,
                0.15979813611172244,
                -0.5352324154182131,
                -2.7833153286592998
            ]
        },
        {
            "positions": [
                -0.2907927931444252,
                -1.2509821260980074,
                1.8253255823321004,
                0.03845470773289894,
                -0.4411077519578288,
                -2.852462559062317
            ]
        },
        {
            "positions": [
                -0.22178659243600884,
                -1.2304201387627802,
                1.8462738894701864,
                -0.08288872064592501,
                -0.3469830884974445,
                -2.9216097894653346
            ]
        },
        {
            "positions": [
                -0.1527803917275925,
                -1.2098581514275533,
                1.8672221966082725,
                -0.20423214902474895,
                -0.25285842503706024,
                -2.9907570198683517
            ]
        },
        {
            "positions": [
                -0.08377419101917627,
                -1.189296164092326,
                1.8881705037463585,
                -0.3255755774035729,
                -0.15873376157667596,
                -3.0599042502713694
            ]
        },
        {
            "positions": [
                -0.014767990310760037,
                -1.168734176757099,
                1.9091188108844444,
                -0.4469190057823964,
                -0.06460909811629167,
                -3.129051480674387
            ]
        },
        {
            "positions": [
                0.05423821039765642,
                -1.148172189421872,
                1.9300671180225304,
                -0.5682624341612204,
                0.02951556534409261,
                -3.1981987110774046
            ]
        },
        {
            "positions": [
                0.12324441110607272,
                -1.1276102020866448,
                1.9510154251606164,
                -0.6896058625400444,
                0.12364022880447692,
                -3.267345941480422
            ]
        }
    ]
}