{
    "goal": {
        "global_pose": {
            "orientation": {
                "w": -0.4816463035849501,
                "x": 0.5182115481033762,
                "y": 0.4908360881923453,
                "z": -0.5084816262002911
            },
            "position": {
                "x": -0.8240239810943604,
                "y": -0.300875300988555,
                "z": 0.16403168439865112
            }
        },
        "name": "move_to_storage_C"
    },
    "id": "ProjEST_move_to_storage_C_88",
    "joint_names": [
        "shoulder_pan_joint",
        "shoulder_lift_joint",
        "elbow_joint",
        "wrist_1_joint",
        "wrist_2_joint",
        "wrist_3_joint"
    ],
    "metrics": {
        "cart_traj_len": 0.5763969977890154,
        "distance_elbow_joint": 0.2559846377963282,
        "distance_shoulder_lift_joint": 0.18909847571466032,
        "distance_shoulder_pan_joint": 0.4940027398565596,
        "distance_wrist_1_joint": 0.07356210522756856,
        "distance_wrist_2_joint": 1.0749580013365123,
        "distance_wrist_3_joint": 0.0555125572231252,
        "smoothness": 2.5376526478085547e-16,
        "time": 0.107291366,
        "traj_len": 1.4639393830192404,
        "weighted_distance": 1.8446310574651736
    },
    "planner": "ProjEST",
    "start": {
        "state": {
            "elbow_joint": 2.010868315001653,
            "shoulder_lift_joint": -1.1634956873357014,
            "shoulder_pan_joint": -2.4736205022346103,
            "wrist_1_joint": -0.8367026794713948,
            "wrist_2_joint": 0.6746043897044093,
            "wrist_3_joint": 3.1335220948105738
        }
    },
    "waypoints": [
        {
            "positions": [
                -2.4736205022346103,
                -1.1634956873357014,
                2.010868315001653,
                -0.8367026794713948,
                0.6746043897044093,
                3.1335220948105738
            ]
        },
        {
            "positions": [
                -2.5559542922107035,
                -1.1319792747165913,
                1.968204208702265,
                -0.8244423286001333,
                0.853764056593828,
                3.142774187681095
            ]
        },
        {
            "positions": [
                -2.6382880821867967,
                -1.1004628620974812,
                1.925540102402877,
                -0.8121819777288719,
                1.0329237234832467,
                3.1520262805516155
            ]
        },
        {
            "positions": [
                -2.72062187216289,
                -1.0689464494783714,
                1.8828759961034889,
                -0.7999216268576105,
                1.2120833903726655,
                3.161278373422136
            ]
        },
        {
            "positions": [
                -2.8029556621389835,
                -1.0374300368592613,
                1.8402118898041009,
                -0.787661275986349,
                1.3912430572620842,
                3.1705304662926572
            ]
        },
        {
            "positions": [
                -2.8852894521150767,
                -1.0059136242401512,
                1.797547783504713,
                -0.7754009251150876,
                1.5704027241515028,
                3.1797825591631783
            ]
        },
        {
            "positions": [
                -2.96762324209117,
                -0.9743972116210411,
                1.754883677205325,
                -0.7631405742438262,
                1.7495623910409217,
                3.189034652033699
            ]
        }
    ]
}