{
    "goal": {
        "global_pose": {
            "orientation": {
                "w": -0.4816463035849501,
                "x": 0.5182115481033762,
                "y": 0.4908360881923453,
                "z": -0.5084816262002911
            },
            "position": {
                "x": -0.8240239810943604,
                "y": -0.300875300988555,
                "z": 0.16403168439865112
            }
        },
        "name": "move_to_storage_C"
    },
    "id": "ProjEST_move_to_storage_C_51",
    "joint_names": [
        "shoulder_pan_joint",
        "shoulder_lift_joint",
        "elbow_joint",
        "wrist_1_joint",
        "wrist_2_joint",
        "wrist_3_joint"
    ],
    "metrics": {
        "cart_traj_len": 0.5770705895179873,
        "distance_elbow_joint": 0.2553919482893583,
        "distance_shoulder_lift_joint": 0.18876737778319808,
        "distance_shoulder_pan_joint": 0.49552380979309785,
        "distance_wrist_1_joint": 0.06754526018037832,
        "distance_wrist_2_joint": 1.0661416776768182,
        "distance_wrist_3_joint": 0.05863287730021671,
        "smoothness": 0.0,
        "time": 0.013036797000000001,
        "traj_len": 1.4601379904046972,
        "weighted_distance": 1.8392812844914987
    },
    "planner": "ProjEST",
    "start": {
        "state": {
            "elbow_joint": 2.010868315001653,
            "shoulder_lift_joint": -1.1634956873357014,
            "shoulder_pan_joint": -2.4736205022346103,
            "wrist_1_joint": -0.8367026794713948,
            "wrist_2_joint": 0.6746043897044093,
            "wrist_3_joint": 3.1335220948105738
        }
    },
    "waypoints": [
        {
            "positions": [
                -2.4736205022346103,
                -1.1634956873357014,
                2.010868315001653,
                -0.8367026794713948,
                0.6746043897044093,
                3.1335220948105738
            ]
        },
        {
            "positions": [
                -2.5562078038667932,
                -1.1320344577051684,
                1.9683029902867601,
                -0.8254451361079984,
                0.8522946693172123,
                3.1432942410272764
            ]
        },
        {
            "positions": [
                -2.6387951054989762,
                -1.1005732280746354,
                1.925737665571867,
                -0.814187592744602,
                1.0299849489300152,
                3.1530663872439795
            ]
        },
        {
            "positions": [
                -2.721382407131159,
                -1.0691119984441024,
                1.8831723408569738,
                -0.8029300493812056,
                1.2076752285428185,
                3.162838533460682
            ]
        },
        {
            "positions": [
                -2.803969708763342,
                -1.0376507688135694,
                1.8406070161420809,
                -0.7916725060178093,
                1.3853655081556213,
                3.1726106796773847
            ]
        },
        {
            "positions": [
                -2.886557010395525,
                -1.0061895391830364,
                1.798041691427188,
                -0.7804149626544128,
                1.5630557877684246,
                3.182382825894088
            ]
        },
        {
            "positions": [
                -2.969144312027708,
                -0.9747283095525033,
                1.7554763667122948,
                -0.7691574192910164,
                1.7407460673812276,
                3.1921549721107905
            ]
        }
    ]
}