{
    "goal": {
        "global_pose": {
            "orientation": {
                "w": -0.4816463035849501,
                "x": 0.5182115481033762,
                "y": 0.4908360881923453,
                "z": -0.5084816262002911
            },
            "position": {
                "x": -0.8240239810943604,
                "y": 0.19912469901144506,
                "z": 0.16403168439865112
            }
        },
        "name": "move_to_storage_D"
    },
    "id": "ProjEST_move_to_storage_D_107",
    "joint_names": [
        "shoulder_pan_joint",
        "shoulder_lift_joint",
        "elbow_joint",
        "wrist_1_joint",
        "wrist_2_joint",
        "wrist_3_joint"
    ],
    "metrics": {
        "cart_traj_len": 1.8905451128956945,
        "distance_elbow_joint": 0.5556204160572136,
        "distance_shoulder_lift_joint": 1.0784247232180597,
        "distance_shoulder_pan_joint": 2.716832161579606,
        "distance_wrist_1_joint": 3.8216073671616924,
        "distance_wrist_2_joint": 1.7789808842566905,
        "distance_wrist_3_joint": 3.152140278753394,
        "smoothness": 0.18820974372005883,
        "time": 0.049630837,
        "traj_len": 3.6198903064908827,
        "weighted_distance": 5.000847392187832
    },
    "planner": "ProjEST",
    "start": {
        "state": {
            "elbow_joint": -2.384821997420982,
            "shoulder_lift_joint": -2.2788054674887404,
            "shoulder_pan_joint": -0.18546946417610016,
            "wrist_1_joint": 1.4845937964226739,
            "wrist_2_joint": 0.1789877726866377,
            "wrist_3_joint": 0.03710572555276528
        }
    },
    "waypoints": [
        {
            "positions": [
                -0.18546946417610016,
                -2.2788054674887404,
                -2.384821997420982,
                1.4845937964226739,
                0.1789877726866377,
                0.03710572555276528
            ]
        },
        {
            "positions": [
                -0.06600136717094311,
                -2.2275685760515023,
                -2.3628496501963685,
                1.3966884290932586,
                0.14795470279810372,
                0.08915058226275357
            ]
        },
        {
            "positions": [
                0.05346672983421394,
                -2.176331684614264,
                -2.3408773029717556,
                1.3087830617638434,
                0.11692163290956972,
                0.14119543897274187
            ]
        },
        {
            "positions": [
                0.172934826839371,
                -2.125094793177026,
                -2.3189049557471426,
                1.2208776944344282,
                0.08588856302103573,
                0.19324029568273016
            ]
        },
        {
            "positions": [
                0.29240292384452804,
                -2.073857901739788,
                -2.2969326085225292,
                1.132972327105013,
                0.05485549313250174,
                0.24528515239271845
            ]
        },
        {
            "positions": [
                0.41187102084968513,
                -2.02262101030255,
                -2.274960261297916,
                1.0450669597755977,
                0.023822423243967744,
                0.29733000910270674
            ]
        },
        {
            "positions": [
                0.5313391178548421,
                -1.9713841188653118,
                -2.252987914073303,
                0.9571615924461825,
                -0.007210646644566249,
                0.349374865812695
            ]
        },
        {
            "positions": [
                0.6508072148599993,
                -1.9201472274280738,
                -2.23101556684869,
                0.8692562251167673,
                -0.03824371653310024,
                0.4014197225226833
            ]
        },
        {
            "positions": [
                0.7702753118651562,
                -1.868910335990836,
                -2.2090432196240766,
                0.781350857787352,
                -0.06927678642163423,
                0.4534645792326716
            ]
        },
        {
            "positions": [
                0.8897434088703133,
                -1.8176734445535978,
                -2.187070872399463,
                0.6934454904579368,
                -0.10030985631016823,
                0.5055094359426598
            ]
        },
        {
            "positions": [
                1.0092115058754705,
                -1.7664365531163595,
                -2.1650985251748502,
                0.6055401231285216,
                -0.13134292619870222,
                0.5575542926526482
            ]
        },
        {
            "positions": [
                1.1286796028806274,
                -1.7151996616791216,
                -2.1431261779502373,
                0.5176347557991063,
                -0.1623759960872362,
                0.6095991493626365
            ]
        },
        {
            "positions": [
                1.2481476998857846,
                -1.6639627702418835,
                -2.121153830725624,
                0.4297293884696912,
                -0.19340906597577023,
                0.6616440060726247
            ]
        },
        {
            "positions": [
                1.1923557434719707,
                -1.684118510501501,
                -2.108460254666413,
                0.3094362163301821,
                -0.25456489404508686,
                0.7715397451262567
            ]
        },
        {
            "positions": [
                1.1365637870581566,
                -1.7042742507611186,
                -2.095766678607202,
                0.18914304419067296,
                -0.3157207221144035,
                0.8814354841798886
            ]
        },
        {
            "positions": [
                1.0807718306443428,
                -1.7244299910207361,
                -2.0830731025479907,
                0.06884987205116383,
                -0.3768765501837201,
                0.9913312232335205
            ]
        },
        {
            "positions": [
                1.024979874230529,
                -1.7445857312803537,
                -2.0703795264887797,
                -0.0514433000883453,
                -0.43803237825303676,
                1.1012269622871524
            ]
        },
        {
            "positions": [
                0.9691879178167151,
                -1.7647414715399712,
                -2.057685950429568,
                -0.17173647222785438,
                -0.4991882063223534,
                1.2111227013407846
            ]
        },
        {
            "positions": [
                0.9133959614029011,
                -1.7848972117995887,
                -2.044992374370357,
                -0.29202964436736356,
                -0.56034403439167,
                1.3210184403944165
            ]
        },
        {
            "positions": [
                0.8576040049890872,
                -1.8050529520592062,
                -2.032298798311146,
                -0.41232281650687275,
                -0.6214998624609867,
                1.4309141794480484
            ]
        },
        {
            "positions": [
                0.8018120485752733,
                -1.8252086923188238,
                -2.019605222251935,
                -0.5326159886463818,
                -0.6826556905303033,
                1.5408099185016804
            ]
        },
        {
            "positions": [
                0.7460200921614594,
                -1.8453644325784413,
                -2.006911646192724,
                -0.6529091607858911,
                -0.74381151859962,
                1.6507056575553123
            ]
        },
        {
            "positions": [
                0.6902281357476455,
                -1.8655201728380586,
                -1.9942180701335128,
                -0.7732023329254,
                -0.8049673466689365,
                1.7606013966089442
            ]
        },
        {
            "positions": [
                0.6344361793338316,
                -1.8856759130976761,
                -1.9815244940743018,
                -0.8934955050649093,
                -0.8661231747382533,
                1.8704971356625761
            ]
        },
        {
            "positions": [
                0.5786442229200177,
                -1.9058316533572937,
                -1.9688309180150905,
                -1.0137886772044182,
                -0.9272790028075698,
                1.980392874716208
            ]
        },
        {
            "positions": [
                0.5228522665062039,
                -1.9259873936169112,
                -1.9561373419558794,
                -1.1340818493439273,
                -0.9884348308768864,
                2.09028861376984
            ]
        },
        {
            "positions": [
                0.4670603100923898,
                -1.9461431338765287,
                -1.9434437658966683,
                -1.2543750214834368,
                -1.0495906589462032,
                2.200184352823472
            ]
        },
        {
            "positions": [
                0.41126835367857595,
                -1.9662988741361462,
                -1.9307501898374573,
                -1.374668193622946,
                -1.1107464870155197,
                2.310080091877104
            ]
        },
        {
            "positions": [
                0.3554763972647621,
                -1.9864546143957638,
                -1.918056613778246,
                -1.494961365762455,
                -1.1719023150848362,
                2.4199758309307358
            ]
        },
        {
            "positions": [
                0.29968444085094825,
                -2.0066103546553813,
                -1.905363037719035,
                -1.615254537901964,
                -1.2330581431541532,
                2.5298715699843677
            ]
        },
        {
            "positions": [
                0.24389248443713418,
                -2.026766094914999,
                -1.8926694616598239,
                -1.7355477100414736,
                -1.2942139712234697,
                2.6397673090379996
            ]
        },
        {
            "positions": [
                0.18810052802332033,
                -2.0469218351746163,
                -1.8799758856006128,
                -1.8558408821809826,
                -1.3553697992927862,
                2.749663048091632
            ]
        },
        {
            "positions": [
                0.1323085716095065,
                -2.067077575434234,
                -1.8672823095414017,
                -1.9761340543204913,
                -1.4165256273621027,
                2.8595587871452635
            ]
        },
        {
            "positions": [
                0.07651661519569264,
                -2.0872333156938514,
                -1.8545887334821907,
                -2.0964272264600003,
                -1.4776814554314197,
                2.969454526198896
            ]
        },
        {
            "positions": [
                0.02072465878187857,
                -2.107389055953469,
                -1.8418951574229794,
                -2.21672039859951,
                -1.5388372835007362,
                3.0793502652525273
            ]
        },
        {
            "positions": [
                -0.035067297631935335,
                -2.1275447962130865,
                -1.8292015813637683,
                -2.337013570739019,
                -1.5999931115700528,
                3.1892460043061592
            ]
        }
    ]
}