{
    "goal": {
        "global_pose": {
            "orientation": {
                "w": 0.7031023502349854,
                "x": -0.7110244035720825,
                "y": 0.007748599164187908,
                "z": 0.005598929710686207
            },
            "position": {
                "x": 0.11585023208521307,
                "y": 0.44412534475326537,
                "z": 0.3711530566215515
            }
        },
        "name": "move_to_auspresseinheit_A"
    },
    "id": "ProjEST_move_to_auspresseinheit_A_84",
    "joint_names": [
        "shoulder_pan_joint",
        "shoulder_lift_joint",
        "elbow_joint",
        "wrist_1_joint",
        "wrist_2_joint",
        "wrist_3_joint"
    ],
    "metrics": {
        "cart_traj_len": 0.9994058756493539,
        "distance_elbow_joint": 0.5042485236968104,
        "distance_shoulder_lift_joint": 0.9386937251106908,
        "distance_shoulder_pan_joint": 1.0465987046060654,
        "distance_wrist_1_joint": 0.5468632824786355,
        "distance_wrist_2_joint": 1.767768886301221,
        "distance_wrist_3_joint": 1.890754328818109,
        "smoothness": 0.6289339120933046,
        "time": 0.073002058,
        "traj_len": 2.5874557872573463,
        "weighted_distance": 3.576460299993222
    },
    "planner": "ProjEST",
    "start": {
        "state": {
            "elbow_joint": 2.4225747245308327,
            "shoulder_lift_joint": -1.373653427065438,
            "shoulder_pan_joint": -0.33786330853087027,
            "wrist_1_joint": -1.0288602302712604,
            "wrist_2_joint": 1.23302299562683,
            "wrist_3_joint": -3.094021725338297
        }
    },
    "waypoints": [
        {
            "positions": [
                -0.33786330853087027,
                -1.373653427065438,
                2.4225747245308327,
                -1.0288602302712604,
                1.23302299562683,
                -3.094021725338297
            ]
        },
        {
            "positions": [
                -0.32348560344810673,
                -1.4227700814857038,
                2.384829546497941,
                -0.9679282540273916,
                1.1656351545589503,
                -2.960671470913584
            ]
        },
        {
            "positions": [
                -0.30910789836534314,
                -1.47188673590597,
                2.3470843684650498,
                -0.9069962777835227,
                1.0982473134910706,
                -2.827321216488871
            ]
        },
        {
            "positions": [
                -0.2947301932825796,
                -1.5210033903262359,
                2.309339190432158,
                -0.8460643015396538,
                1.030859472423191,
                -2.693970962064158
            ]
        },
        {
            "positions": [
                -0.280352488199816,
                -1.570120044746502,
                2.271594012399267,
                -0.7851323252957849,
                0.9634716313553113,
                -2.5606207076394445
            ]
        },
        {
            "positions": [
                -0.26597478311705247,
                -1.619236699166768,
                2.233848834366375,
                -0.7242003490519161,
                0.8960837902874317,
                -2.4272704532147316
            ]
        },
        {
            "positions": [
                -0.2515970780342889,
                -1.668353353587034,
                2.196103656333484,
                -0.6632683728080473,
                0.828695949219552,
                -2.293920198790018
            ]
        },
        {
            "positions": [
                -0.23721937295152534,
                -1.7174700080073,
                2.1583584783005922,
                -0.6023363965641784,
                0.7613081081516724,
                -2.1605699443653053
            ]
        },
        {
            "positions": [
                -0.12027315518689093,
                -1.796409672384836,
                2.164217649736208,
                -0.5909968801857581,
                0.6272359731800791,
                -2.177912602175616
            ]
        },
        {
            "positions": [
                -0.0033269374222565096,
                -1.8753493367623721,
                2.1700768211718233,
                -0.5796573638073378,
                0.4931638382084858,
                -2.195255259985927
            ]
        },
        {
            "positions": [
                0.11361928034237789,
                -1.954289001139908,
                2.175935992607439,
                -0.5683178474289176,
                0.3590917032368926,
                -2.2125979177962383
            ]
        },
        {
            "positions": [
                0.23056549810701232,
                -2.033228665517444,
                2.1817951640430544,
                -0.5569783310504972,
                0.22501956826529923,
                -2.229940575606549
            ]
        },
        {
            "positions": [
                0.34751171587164664,
                -2.1121683298949803,
                2.18765433547867,
                -0.545638814672077,
                0.09094743329370605,
                -2.24728323341686
            ]
        },
        {
            "positions": [
                0.3945584317850428,
                -2.087371519893323,
                2.2176720669334236,
                -0.5365359537033944,
                0.1699282609542644,
                -2.365916807521243
            ]
        },
        {
            "positions": [
                0.4416051476984389,
                -2.0625747098916656,
                2.2476897983881776,
                -0.5274330927347117,
                0.24890908861482272,
                -2.4845503816256262
            ]
        },
        {
            "positions": [
                0.488651863611835,
                -2.037777899890008,
                2.2777075298429317,
                -0.5183302317660291,
                0.32788991627538105,
                -2.6031839557300094
            ]
        },
        {
            "positions": [
                0.5356985795252311,
                -2.012981089888351,
                2.3077252612976853,
                -0.5092273707973465,
                0.40687074393593936,
                -2.7218175298343925
            ]
        },
        {
            "positions": [
                0.5933775183752191,
                -1.979317229130178,
                2.337947092787511,
                -0.5001505631291059,
                0.5101274150445606,
                -2.8538358506264023
            ]
        },
        {
            "positions": [
                0.651056457225207,
                -1.9456533683720048,
                2.3681689242773367,
                -0.4910737554608654,
                0.6133840861531819,
                -2.9858541714184126
            ]
        },
        {
            "positions": [
                0.708735396075195,
                -1.9119895076138318,
                2.398390755767162,
                -0.48199694779262486,
                0.7166407572618031,
                -3.1178724922104224
            ]
        }
    ]
}