{
    "goal": {
        "global_pose": {
            "orientation": {
                "w": -0.4816463035849501,
                "x": 0.5182115481033762,
                "y": 0.4908360881923453,
                "z": -0.5084816262002911
            },
            "position": {
                "x": -0.8240239810943604,
                "y": -0.300875300988555,
                "z": 0.16403168439865112
            }
        },
        "name": "move_to_storage_C"
    },
    "id": "ProjEST_move_to_storage_C_32",
    "joint_names": [
        "shoulder_pan_joint",
        "shoulder_lift_joint",
        "elbow_joint",
        "wrist_1_joint",
        "wrist_2_joint",
        "wrist_3_joint"
    ],
    "metrics": {
        "cart_traj_len": 0.5764041218359807,
        "distance_elbow_joint": 0.25595858486304746,
        "distance_shoulder_lift_joint": 0.18890793693450425,
        "distance_shoulder_pan_joint": 0.4932329182033137,
        "distance_wrist_1_joint": 0.06587484109835307,
        "distance_wrist_2_joint": 1.0752361565317772,
        "distance_wrist_3_joint": 0.06324476176492233,
        "smoothness": 0.0,
        "time": 0.011242124,
        "traj_len": 1.463712813155613,
        "weighted_distance": 1.846633618386683
    },
    "planner": "ProjEST",
    "start": {
        "state": {
            "elbow_joint": 2.010868315001653,
            "shoulder_lift_joint": -1.1634956873357014,
            "shoulder_pan_joint": -2.4736205022346103,
            "wrist_1_joint": -0.8367026794713948,
            "wrist_2_joint": 0.6746043897044093,
            "wrist_3_joint": 3.1335220948105738
        }
    },
    "waypoints": [
        {
            "positions": [
                -2.4736205022346103,
                -1.1634956873357014,
                2.010868315001653,
                -0.8367026794713948,
                0.6746043897044093,
                3.1335220948105738
            ]
        },
        {
            "positions": [
                -2.5558259886018293,
                -1.1320110311799507,
                1.9682085508578118,
                -0.825723539288336,
                0.8538104157930388,
                3.144062888438061
            ]
        },
        {
            "positions": [
                -2.6380314749690483,
                -1.1005263750242,
                1.9255487867139707,
                -0.8147443991052771,
                1.0330164418816683,
                3.154603682065548
            ]
        },
        {
            "positions": [
                -2.7202369613362674,
                -1.0690417188684493,
                1.8828890225701294,
                -0.8037652589222182,
                1.2122224679702978,
                3.165144475693035
            ]
        },
        {
            "positions": [
                -2.802442447703486,
                -1.0375570627126987,
                1.840229258426288,
                -0.7927861187391594,
                1.3914284940589274,
                3.175685269320522
            ]
        },
        {
            "positions": [
                -2.884647934070705,
                -1.0060724065569477,
                1.797569494282447,
                -0.7818069785561006,
                1.5706345201475571,
                3.186226062948009
            ]
        },
        {
            "positions": [
                -2.966853420437924,
                -0.9745877504011972,
                1.7549097301386056,
                -0.7708278383730417,
                1.7498405462361866,
                3.196766856575496
            ]
        }
    ]
}