{
    "goal": {
        "global_pose": {
            "orientation": {
                "w": 0.5084816217422485,
                "x": -0.49083608388900757,
                "y": 0.5182115435600281,
                "z": -0.4816462993621826
            },
            "position": {
                "x": 0.5540239810943604,
                "y": 0.030875300988554955,
                "z": 0.16403168439865112
            }
        },
        "name": "move_to_storage_A"
    },
    "id": "ProjEST_move_to_storage_A_6",
    "joint_names": [
        "shoulder_pan_joint",
        "shoulder_lift_joint",
        "elbow_joint",
        "wrist_1_joint",
        "wrist_2_joint",
        "wrist_3_joint"
    ],
    "metrics": {
        "cart_traj_len": 0.35265030911495243,
        "distance_elbow_joint": 0.44762667763166153,
        "distance_shoulder_lift_joint": 0.23455430250435771,
        "distance_shoulder_pan_joint": 0.46000004936916805,
        "distance_wrist_1_joint": 0.2384855990313729,
        "distance_wrist_2_joint": 1.1022060159953635,
        "distance_wrist_3_joint": 0.10269434626506424,
        "smoothness": 0.0,
        "time": 0.039731212,
        "traj_len": 1.6079698351638902,
        "weighted_distance": 2.0326453941486826
    },
    "planner": "ProjEST",
    "start": {
        "state": {
            "elbow_joint": 1.9715474177455299,
            "shoulder_lift_joint": -1.139484666580328,
            "shoulder_pan_joint": 0.12281154398918248,
            "wrist_1_joint": -0.7804687475355282,
            "wrist_2_joint": 0.12958649657246987,
            "wrist_3_joint": -3.1924925159053466
        }
    },
    "waypoints": [
        {
            "positions": [
                0.12281154398918248,
                -1.139484666580328,
                1.9715474177455299,
                -0.7804687475355282,
                0.12958649657246987,
                -3.1924925159053466
            ]
        },
        {
            "positions": [
                0.057097251222158474,
                -1.1729924240809506,
                2.0354940859786246,
                -0.8145381188257244,
                0.2870444988575218,
                -3.177821895010337
            ]
        },
        {
            "positions": [
                -0.008617041544865534,
                -1.206500181581573,
                2.099440754211719,
                -0.8486074901159204,
                0.4445025011425737,
                -3.1631512741153283
            ]
        },
        {
            "positions": [
                -0.07433133431188954,
                -1.2400079390821956,
                2.1633874224448135,
                -0.8826768614061166,
                0.6019605034276257,
                -3.148480653220319
            ]
        },
        {
            "positions": [
                -0.14004562707891355,
                -1.273515696582818,
                2.2273340906779078,
                -0.9167462326963127,
                0.7594185057126777,
                -3.13381003232531
            ]
        },
        {
            "positions": [
                -0.20575991984593756,
                -1.3070234540834407,
                2.2912807589110025,
                -0.9508156039865088,
                0.9168765079977297,
                -3.1191394114303006
            ]
        },
        {
            "positions": [
                -0.27147421261296156,
                -1.340531211584063,
                2.3552274271440967,
                -0.9848849752767049,
                1.0743345102827815,
                -3.1044687905352917
            ]
        },
        {
            "positions": [
                -0.33718850537998557,
                -1.3740389690846857,
                2.4191740953771914,
                -1.018954346566901,
                1.2317925125678335,
                -3.0897981696402823
            ]
        }
    ]
}