{
    "goal": {
        "global_pose": {
            "orientation": {
                "w": 0.5084816262002911,
                "x": -0.4908360881923452,
                "y": 0.5182115481033761,
                "z": -0.48164630358495003
            },
            "position": {
                "x": 0.5540239810943604,
                "y": -0.46912469901144505,
                "z": 0.16403168439865112
            }
        },
        "name": "move_to_storage_B"
    },
    "id": "ProjEST_move_to_storage_B_63",
    "joint_names": [
        "shoulder_pan_joint",
        "shoulder_lift_joint",
        "elbow_joint",
        "wrist_1_joint",
        "wrist_2_joint",
        "wrist_3_joint"
    ],
    "metrics": {
        "cart_traj_len": 3.2560393260908103,
        "distance_elbow_joint": 1.7219457951142676,
        "distance_shoulder_lift_joint": 0.7583310220880992,
        "distance_shoulder_pan_joint": 3.23978127322621,
        "distance_wrist_1_joint": 3.496741191452771,
        "distance_wrist_2_joint": 2.7125281551824205,
        "distance_wrist_3_joint": 3.2945064639084785,
        "smoothness": 0.289162635805788,
        "time": 0.105602728,
        "traj_len": 3.901773173952101,
        "weighted_distance": 5.2935919917787775
    },
    "planner": "ProjEST",
    "start": {
        "state": {
            "elbow_joint": 1.6649325706314817,
            "shoulder_lift_joint": -0.6616388048112454,
            "shoulder_pan_joint": -0.9139837860083814,
            "wrist_1_joint": 2.146757197745094,
            "wrist_2_joint": -2.234196043158733,
            "wrist_3_joint": 0.005471033829999897
        }
    },
    "waypoints": [
        {
            "positions": [
                -0.9139837860083814,
                -0.6616388048112454,
                1.6649325706314817,
                2.146757197745094,
                -2.234196043158733,
                0.005471033829999897
            ]
        },
        {
            "positions": [
                -0.7749993299487422,
                -0.7170486116086866,
                1.6026408459096846,
                2.1700813045325686,
                -2.159585064960158,
                -0.0015938345072086758
            ]
        },
        {
            "positions": [
                -0.6360148738891032,
                -0.7724584184061278,
                1.5403491211878875,
                2.1934054113200427,
                -2.0849740867615827,
                -0.008658702844417249
            ]
        },
        {
            "positions": [
                -0.49703041782946406,
                -0.827868225203569,
                1.4780573964660906,
                2.2167295181075173,
                -2.010363108563008,
                -0.015723571181625817
            ]
        },
        {
            "positions": [
                -0.35804596176982484,
                -0.8832780320010102,
                1.4157656717442935,
                2.240053624894992,
                -1.9357521303644325,
                -0.022788439518834393
            ]
        },
        {
            "positions": [
                -0.2190615057101858,
                -0.9386878387984514,
                1.3534739470224963,
                2.263377731682466,
                -1.8611411521658576,
                -0.029853307856042968
            ]
        },
        {
            "positions": [
                -0.08007704965054674,
                -0.9940976455958925,
                1.2911822223006992,
                2.2867018384699405,
                -1.7865301739672825,
                -0.03691817619325154
            ]
        },
        {
            "positions": [
                0.05890740640909242,
                -1.0495074523933337,
                1.2288904975789023,
                2.3100259452574146,
                -1.7119191957687074,
                -0.04398304453046011
            ]
        },
        {
            "positions": [
                0.1978918624687317,
                -1.104917259190775,
                1.1665987728571052,
                2.333350052044889,
                -1.6373082175701321,
                -0.05104791286766869
            ]
        },
        {
            "positions": [
                0.33687631852837085,
                -1.1603270659882163,
                1.1043070481353081,
                2.3566741588323636,
                -1.5626972393715572,
                -0.05811278120487726
            ]
        },
        {
            "positions": [
                0.4758607745880098,
                -1.2157368727856572,
                1.0420153234135112,
                2.3799982656198377,
                -1.4880862611729821,
                -0.06517764954208582
            ]
        },
        {
            "positions": [
                0.6148452306476488,
                -1.2711466795830986,
                0.979723598691714,
                2.4033223724073123,
                -1.413475282974407,
                -0.0722425178792944
            ]
        },
        {
            "positions": [
                0.5558468769728151,
                -1.2660148469170212,
                1.0154731443184208,
                2.291592164931776,
                -1.348240545215852,
                0.0386813756448154
            ]
        },
        {
            "positions": [
                0.49684852329798124,
                -1.2608830142509437,
                1.0512226899451278,
                2.1798619574562395,
                -1.283005807457297,
                0.1496052691689252
            ]
        },
        {
            "positions": [
                0.43785016962314743,
                -1.2557511815848663,
                1.0869722355718348,
                2.0681317499807035,
                -1.2177710696987418,
                0.26052916269303494
            ]
        },
        {
            "positions": [
                0.37885181594831363,
                -1.2506193489187887,
                1.1227217811985415,
                1.956401542505167,
                -1.152536331940187,
                0.37145305621714475
            ]
        },
        {
            "positions": [
                0.3198534622734798,
                -1.2454875162527113,
                1.1584713268252484,
                1.8446713350296307,
                -1.0873015941816317,
                0.48237694974125467
            ]
        },
        {
            "positions": [
                0.260855108598646,
                -1.2403556835866338,
                1.1942208724519554,
                1.7329411275540942,
                -1.0220668564230768,
                0.5933008432653644
            ]
        },
        {
            "positions": [
                0.20185675492381222,
                -1.2352238509205564,
                1.2299704180786621,
                1.6212109200785578,
                -0.9568321186645217,
                0.7042247367894743
            ]
        },
        {
            "positions": [
                0.14285840124897842,
                -1.230092018254479,
                1.265719963705369,
                1.5094807126030219,
                -0.8915973809059666,
                0.815148630313584
            ]
        },
        {
            "positions": [
                0.08386004757414467,
                -1.2249601855884016,
                1.301469509332076,
                1.3977505051274854,
                -0.8263626431474116,
                0.9260725238376938
            ]
        },
        {
            "positions": [
                0.02486169389931081,
                -1.2198283529223242,
                1.337219054958783,
                1.286020297651949,
                -0.7611279053888566,
                1.0369964173618036
            ]
        },
        {
            "positions": [
                -0.03413665977552294,
                -1.2146965202562465,
                1.37296860058549,
                1.1742900901764128,
                -0.6958931676303015,
                1.1479203108859133
            ]
        },
        {
            "positions": [
                -0.0931350134503568,
                -1.209564687590169,
                1.4087181462121967,
                1.0625598827008764,
                -0.6306584298717465,
                1.258844204410023
            ]
        },
        {
            "positions": [
                -0.15213336712519054,
                -1.2044328549240917,
                1.4444676918389037,
                0.95082967522534,
                -0.5654236921131914,
                1.369768097934133
            ]
        },
        {
            "positions": [
                -0.2111317208000244,
                -1.1993010222580143,
                1.4802172374656104,
                0.8390994677498036,
                -0.5001889543546363,
                1.4806919914582428
            ]
        },
        {
            "positions": [
                -0.27013007447485826,
                -1.1941691895919369,
                1.5159667830923174,
                0.7273692602742674,
                -0.43495421659608124,
                1.5916158849823525
            ]
        },
        {
            "positions": [
                -0.329128428149692,
                -1.1890373569258594,
                1.5517163287190243,
                0.6156390527987312,
                -0.3697194788375262,
                1.7025397785064622
            ]
        },
        {
            "positions": [
                -0.38812678182452576,
                -1.183905524259782,
                1.5874658743457313,
                0.503908845323195,
                -0.3044847410789713,
                1.813463672030572
            ]
        },
        {
            "positions": [
                -0.4471251354993595,
                -1.1787736915937046,
                1.6232154199724382,
                0.3921786378476586,
                -0.23925000332041613,
                1.9243875655546818
            ]
        },
        {
            "positions": [
                -0.5061234891741933,
                -1.173641858927627,
                1.658964965599145,
                0.2804484303721222,
                -0.1740152655618612,
                2.035311459078792
            ]
        },
        {
            "positions": [
                -0.5651218428490272,
                -1.1685100262615495,
                1.694714511225852,
                0.16871822289658578,
                -0.10878052780330605,
                2.146235352602902
            ]
        },
        {
            "positions": [
                -0.624120196523861,
                -1.1633781935954721,
                1.7304640568525587,
                0.056988015421049365,
                -0.0435457900447509,
                2.2571592461270114
            ]
        },
        {
            "positions": [
                -0.6831185501986947,
                -1.1582463609293947,
                1.7662136024792656,
                -0.054742192054486605,
                0.02168894771380403,
                2.3680831396511213
            ]
        },
        {
            "positions": [
                -0.7421169038735287,
                -1.1531145282633173,
                1.8019631481059726,
                -0.16647239953002302,
                0.08692368547235918,
                2.479007033175231
            ]
        },
        {
            "positions": [
                -0.8011152575483624,
                -1.1479826955972399,
                1.8377126937326795,
                -0.27820260700555943,
                0.1521584232309141,
                2.5899309266993407
            ]
        },
        {
            "positions": [
                -0.8601136112231962,
                -1.1428508629311624,
                1.8734622393593865,
                -0.3899328144810954,
                0.21739316098946904,
                2.7008548202234506
            ]
        },
        {
            "positions": [
                -0.9191119648980299,
                -1.1377190302650848,
                1.9092117849860935,
                -0.5016630219566323,
                0.2826278987480242,
                2.8117787137475605
            ]
        },
        {
            "positions": [
                -0.9781103185728637,
                -1.1325871975990074,
                1.9449613306128002,
                -0.6133932294321682,
                0.34786263650657934,
                2.92270260727167
            ]
        },
        {
            "positions": [
                -1.0371086722476976,
                -1.12745536493293,
                1.980710876239507,
                -0.7251234369077051,
                0.4130973742651345,
                3.0336265007957803
            ]
        },
        {
            "positions": [
                -1.0961070259225314,
                -1.1223235322668526,
                2.016460421866214,
                -0.8368536443832412,
                0.4783321120236894,
                3.14455039431989
            ]
        }
    ]
}