{
    "goal": {
        "global_pose": {
            "orientation": {
                "w": -0.00223480608172531,
                "x": 0.0024358444001904467,
                "y": 0.7094548369677653,
                "z": -0.704743149386269
            },
            "position": {
                "x": 0.6205249238014221,
                "y": -0.6371506643295288,
                "z": 0.19426114857196808
            }
        },
        "name": "move_to_magneteinheit_B"
    },
    "id": "ProjEST_move_to_magneteinheit_B_5",
    "joint_names": [
        "shoulder_pan_joint",
        "shoulder_lift_joint",
        "elbow_joint",
        "wrist_1_joint",
        "wrist_2_joint",
        "wrist_3_joint"
    ],
    "metrics": {
        "cart_traj_len": 3.5614977750293515,
        "distance_elbow_joint": 4.475366848679069,
        "distance_shoulder_lift_joint": 1.1278171392742153,
        "distance_shoulder_pan_joint": 2.254497717082842,
        "distance_wrist_1_joint": 2.992659576645762,
        "distance_wrist_2_joint": 1.181416189628846,
        "distance_wrist_3_joint": 6.275086645118407,
        "smoothness": 0.1670362981214901,
        "time": 3.106882824,
        "traj_len": 4.278649800629767,
        "weighted_distance": 5.918707052468515
    },
    "planner": "ProjEST",
    "start": {
        "state": {
            "elbow_joint": 2.3935871308073637,
            "shoulder_lift_joint": -1.9085141043777403,
            "shoulder_pan_joint": 0.7066247067284167,
            "wrist_1_joint": -0.46782909355067076,
            "wrist_2_joint": 0.7096259085804283,
            "wrist_3_joint": -3.1358149275257428
        }
    },
    "waypoints": [
        {
            "positions": [
                0.7066247067284167,
                -1.9085141043777403,
                2.3935871308073637,
                -0.46782909355067076,
                0.7096259085804283,
                -3.1358149275257428
            ]
        },
        {
            "positions": [
                0.7470971231309642,
                -1.9429664667615587,
                2.392903011831942,
                -0.38368748734782676,
                0.6428913026270792,
                -2.9800595627252835
            ]
        },
        {
            "positions": [
                0.7875695395335118,
                -1.9774188291453771,
                2.39221889285652,
                -0.2995458811449827,
                0.5761566966737302,
                -2.824304197924824
            ]
        },
        {
            "positions": [
                0.8280419559360594,
                -2.011871191529196,
                2.3915347738810984,
                -0.2154042749421387,
                0.509422090720381,
                -2.6685488331243645
            ]
        },
        {
            "positions": [
                0.868514372338607,
                -2.0463235539130142,
                2.3908506549056767,
                -0.1312626687392947,
                0.44268748476703196,
                -2.5127934683239053
            ]
        },
        {
            "positions": [
                0.9089867887411545,
                -2.0807759162968327,
                2.3901665359302546,
                -0.04712106253645065,
                0.37595287881368283,
                -2.3570381035234456
            ]
        },
        {
            "positions": [
                0.9494592051437021,
                -2.115228278680651,
                2.389482416954833,
                0.03702054366639329,
                0.30921827286033376,
                -2.2012827387229863
            ]
        },
        {
            "positions": [
                1.0094928679896435,
                -2.1015396517843437,
                2.2522060478383814,
                -0.011052928178227499,
                0.30001600724380206,
                -2.073720521513966
            ]
        },
        {
            "positions": [
                1.0695265308355852,
                -2.0878510248880366,
                2.11492967872193,
                -0.05912640002284829,
                0.29081374162727036,
                -1.9461583043049457
            ]
        },
        {
            "positions": [
                1.1295601936815267,
                -2.074162397991729,
                1.9776533096054782,
                -0.10719987186746907,
                0.28161147601073866,
                -1.8185960870959257
            ]
        },
        {
            "positions": [
                1.1895938565274684,
                -2.060473771095422,
                1.8403769404890267,
                -0.15527334371208987,
                0.27240921039420696,
                -1.6910338698869054
            ]
        },
        {
            "positions": [
                1.2496275193734099,
                -2.0467851441991147,
                1.703100571372575,
                -0.20334681555671066,
                0.26320694477767526,
                -1.5634716526778851
            ]
        },
        {
            "positions": [
                1.3096611822193516,
                -2.0330965173028077,
                1.5658242022561235,
                -0.25142028740133143,
                0.25400467916114355,
                -1.435909435468865
            ]
        },
        {
            "positions": [
                1.369694845065293,
                -2.0194078904065003,
                1.428547833139672,
                -0.29949375924595223,
                0.24480241354461182,
                -1.3083472182598448
            ]
        },
        {
            "positions": [
                1.4297285079112347,
                -2.0057192635101933,
                1.2912714640232206,
                -0.347567231090573,
                0.23560014792808012,
                -1.1807850010508245
            ]
        },
        {
            "positions": [
                1.4897621707571762,
                -1.9920306366138858,
                1.1539950949067688,
                -0.3956407029351939,
                0.2263978823115484,
                -1.053222783841804
            ]
        },
        {
            "positions": [
                1.5497958336031177,
                -1.9783420097175786,
                1.0167187257903174,
                -0.4437141747798146,
                0.21719561669501672,
                -0.925660566632784
            ]
        },
        {
            "positions": [
                1.6098294964490594,
                -1.9646533828212713,
                0.8794423566738656,
                -0.4917876466244354,
                0.207993351078485,
                -0.7980983494237637
            ]
        },
        {
            "positions": [
                1.669863159295001,
                -1.950964755924964,
                0.7421659875574143,
                -0.5398611184690562,
                0.1987910854619533,
                -0.6705361322147436
            ]
        },
        {
            "positions": [
                1.7298968221409425,
                -1.9372761290286569,
                0.6048896184409627,
                -0.587934590313677,
                0.18958881984542159,
                -0.5429739150057231
            ]
        },
        {
            "positions": [
                1.789930484986884,
                -1.9235875021323496,
                0.4676132493245111,
                -0.6360080621582977,
                0.18038655422888988,
                -0.41541169779670306
            ]
        },
        {
            "positions": [
                1.8499641478328257,
                -1.9098988752360424,
                0.3303368802080593,
                -0.6840815340029186,
                0.17118428861235818,
                -0.2878494805876828
            ]
        },
        {
            "positions": [
                1.9099978106787672,
                -1.8962102483397352,
                0.19306051109160816,
                -0.7321550058475393,
                0.16198202299582648,
                -0.16028726337866273
            ]
        },
        {
            "positions": [
                1.9700314735247086,
                -1.882521621443428,
                0.055784141975156576,
                -0.7802284776921601,
                0.15277975737929478,
                -0.03272504616964245
            ]
        },
        {
            "positions": [
                2.0300651363706503,
                -1.8688329945471207,
                -0.08149222714129545,
                -0.828301949536781,
                0.14357749176276305,
                0.09483717103937828
            ]
        },
        {
            "positions": [
                2.090098799216592,
                -1.8551443676508135,
                -0.21876859625774658,
                -0.8763754213814018,
                0.13437522614623135,
                0.2223993882483981
            ]
        },
        {
            "positions": [
                2.1501324620625333,
                -1.8414557407545062,
                -0.35604496537419816,
                -0.9244488932260225,
                0.12517296052969967,
                0.3499616054574184
            ]
        },
        {
            "positions": [
                2.2101661249084747,
                -1.827767113858199,
                -0.49332133449064974,
                -0.9725223650706432,
                0.11597069491316797,
                0.47752382266643867
            ]
        },
        {
            "positions": [
                2.2701997877544167,
                -1.8140784869618916,
                -0.6305977036071018,
                -1.0205958369152641,
                0.10676842929663624,
                0.605086039875459
            ]
        },
        {
            "positions": [
                2.330233450600358,
                -1.8003898600655845,
                -0.7678740727235529,
                -1.0686693087598849,
                0.09756616368010454,
                0.7326482570844792
            ]
        },
        {
            "positions": [
                2.3902671134463,
                -1.786701233169277,
                -0.9051504418400045,
                -1.1167427806045056,
                0.08836389806357284,
                0.8602104742934991
            ]
        },
        {
            "positions": [
                2.4503007762922415,
                -1.77301260627297,
                -1.042426810956456,
                -1.1648162524491263,
                0.07916163244704114,
                0.9877726915025193
            ]
        },
        {
            "positions": [
                2.510334439138183,
                -1.7593239793766626,
                -1.1797031800729076,
                -1.2128897242937473,
                0.0699593668305094,
                1.11533490871154
            ]
        },
        {
            "positions": [
                2.5703681019841245,
                -1.7456353524803554,
                -1.3169795491893592,
                -1.260963196138368,
                0.060757101213977704,
                1.24289712592056
            ]
        },
        {
            "positions": [
                2.630401764830066,
                -1.7319467255840482,
                -1.4542559183058108,
                -1.3090366679829888,
                0.051554835597446,
                1.3704593431295802
            ]
        },
        {
            "positions": [
                2.6904354276760074,
                -1.718258098687741,
                -1.5915322874222624,
                -1.3571101398276095,
                0.0423525699809143,
                1.4980215603386005
            ]
        },
        {
            "positions": [
                2.7504690905219493,
                -1.7045694717914337,
                -1.7288086565387144,
                -1.4051836116722305,
                0.0331503043643826,
                1.6255837775476207
            ]
        },
        {
            "positions": [
                2.810502753367891,
                -1.6908808448951265,
                -1.8660850256551653,
                -1.4532570835168512,
                0.02394803874785091,
                1.7531459947566408
            ]
        },
        {
            "positions": [
                2.7985331527158275,
                -1.739205890300768,
                -1.858423437156448,
                -1.5708862398572483,
                -0.017055134926671572,
                1.9051885002179272
            ]
        },
        {
            "positions": [
                2.7865635520637637,
                -1.7875309357064095,
                -1.850761848657731,
                -1.6885153961976456,
                -0.058058308601194056,
                2.057231005679214
            ]
        },
        {
            "positions": [
                2.7745939514117004,
                -1.8358559811120512,
                -1.8431002601590138,
                -1.8061445525380426,
                -0.09906148227571654,
                2.2092735111405
            ]
        },
        {
            "positions": [
                2.7583706483985346,
                -1.8875818609223214,
                -1.818231112696879,
                -1.908363975860637,
                -0.15180809300837578,
                2.352968452684239
            ]
        },
        {
            "positions": [
                2.7421473453853684,
                -1.9393077407325914,
                -1.7933619652347446,
                -2.0105833991832314,
                -0.204554703741035,
                2.4966633942279777
            ]
        },
        {
            "positions": [
                2.7259240423722026,
                -1.9910336205428614,
                -1.7684928177726098,
                -2.1128028225058255,
                -0.2573013144736942,
                2.640358335771716
            ]
        },
        {
            "positions": [
                2.709700739359037,
                -2.0427595003531316,
                -1.743623670310475,
                -2.21502224582842,
                -0.31004792520635344,
                2.784053277315455
            ]
        },
        {
            "positions": [
                2.6930948538808654,
                -2.0910517922623897,
                -1.712545891353192,
                -2.2936112958063815,
                -0.363962043820375,
                2.902459424074524
            ]
        },
        {
            "positions": [
                2.676488968402694,
                -2.1393440841716482,
                -1.6814681123959088,
                -2.3722003457843432,
                -0.41787616243439657,
                3.020865570833593
            ]
        },
        {
            "positions": [
                2.6598830829245226,
                -2.1876363760809063,
                -1.6503903334386256,
                -2.4507893957623046,
                -0.47179028104841814,
                3.1392717175926617
            ]
        }
    ]
}