{
    "goal": {
        "global_pose": {
            "orientation": {
                "w": 0.005598929693374612,
                "x": 0.007748599140229565,
                "y": 0.7110244013736278,
                "z": -0.7031023480610252
            },
            "position": {
                "x": -0.8858502320852131,
                "y": -0.7141253447532654,
                "z": 0.3711530566215515
            }
        },
        "name": "move_to_auspresseinheit_C"
    },
    "id": "ProjEST_move_to_auspresseinheit_C_146",
    "joint_names": [
        "shoulder_pan_joint",
        "shoulder_lift_joint",
        "elbow_joint",
        "wrist_1_joint",
        "wrist_2_joint",
        "wrist_3_joint"
    ],
    "metrics": {
        "cart_traj_len": 0.4924482151376282,
        "distance_elbow_joint": 1.0014687430466154,
        "distance_shoulder_lift_joint": 0.32530056232668825,
        "distance_shoulder_pan_joint": 0.25563561407623636,
        "distance_wrist_1_joint": 0.6864640206535759,
        "distance_wrist_2_joint": 1.3103183498957538,
        "distance_wrist_3_joint": 0.05986144720851616,
        "smoothness": 6.459479416000911e-16,
        "time": 0.044270530999999995,
        "traj_len": 1.907629087953784,
        "weighted_distance": 2.3990735716467193
    },
    "planner": "ProjEST",
    "start": {
        "state": {
            "elbow_joint": 1.752795957773711,
            "shoulder_lift_joint": -0.9740617694225064,
            "shoulder_pan_joint": -2.967991417825858,
            "wrist_1_joint": -0.7595177689806859,
            "wrist_2_joint": 1.7443932448377395,
            "wrist_3_joint": 3.199131542505932
        }
    },
    "waypoints": [
        {
            "positions": [
                -2.967991417825858,
                -0.9740617694225064,
                1.752795957773711,
                -0.7595177689806859,
                1.7443932448377395,
                3.199131542505932
            ]
        },
        {
            "positions": [
                -2.9424278564182345,
                -0.9415317131898376,
                1.6526490834690495,
                -0.6908713669153284,
                1.6133614098481641,
                3.1931453977850803
            ]
        },
        {
            "positions": [
                -2.9168642950106105,
                -0.9090016569571688,
                1.552502209164388,
                -0.6222249648499707,
                1.4823295748585887,
                3.187159253064229
            ]
        },
        {
            "positions": [
                -2.891300733602987,
                -0.8764716007244999,
                1.4523553348597265,
                -0.5535785627846131,
                1.3512977398690134,
                3.181173108343377
            ]
        },
        {
            "positions": [
                -2.8657371721953635,
                -0.8439415444918311,
                1.3522084605550648,
                -0.48493216071925555,
                1.220265904879438,
                3.175186963622526
            ]
        },
        {
            "positions": [
                -2.8401736107877396,
                -0.8114114882591623,
                1.2520615862504034,
                -0.41628575865389794,
                1.0892340698898626,
                3.169200818901674
            ]
        },
        {
            "positions": [
                -2.814610049380116,
                -0.7788814320264935,
                1.151914711945742,
                -0.34763935658854034,
                0.9582022349002872,
                3.1632146741808223
            ]
        },
        {
            "positions": [
                -2.7890464879724925,
                -0.7463513757938247,
                1.0517678376410804,
                -0.2789929545231828,
                0.827170399910712,
                3.157228529459971
            ]
        },
        {
            "positions": [
                -2.763482926564869,
                -0.7138213195611558,
                0.9516209633364188,
                -0.2103465524578252,
                0.6961385649211365,
                3.151242384739119
            ]
        },
        {
            "positions": [
                -2.737919365157245,
                -0.681291263328487,
                0.8514740890317573,
                -0.14170015039246753,
                0.5651067299315611,
                3.1452562400182678
            ]
        },
        {
            "positions": [
                -2.7123558037496216,
                -0.6487612070958182,
                0.7513272147270957,
                -0.07305374832711004,
                0.4340748949419857,
                3.139270095297416
            ]
        }
    ]
}