{
    "goal": {
        "global_pose": {
            "orientation": {
                "w": 0.5084816262002911,
                "x": -0.4908360881923452,
                "y": 0.5182115481033761,
                "z": -0.48164630358495003
            },
            "position": {
                "x": 0.5540239810943604,
                "y": -0.46912469901144505,
                "z": 0.16403168439865112
            }
        },
        "name": "move_to_storage_B"
    },
    "id": "ProjEST_move_to_storage_B_55",
    "joint_names": [
        "shoulder_pan_joint",
        "shoulder_lift_joint",
        "elbow_joint",
        "wrist_1_joint",
        "wrist_2_joint",
        "wrist_3_joint"
    ],
    "metrics": {
        "cart_traj_len": 3.288020029485882,
        "distance_elbow_joint": 2.579750780435943,
        "distance_shoulder_lift_joint": 0.7209271162661623,
        "distance_shoulder_pan_joint": 3.042055281572826,
        "distance_wrist_1_joint": 3.0044793292679395,
        "distance_wrist_2_joint": 2.7078172241305745,
        "distance_wrist_3_joint": 3.1605584231213206,
        "smoothness": 0.2924648747549864,
        "time": 0.09983261399999999,
        "traj_len": 3.9007163643098646,
        "weighted_distance": 5.220057619838685
    },
    "planner": "ProjEST",
    "start": {
        "state": {
            "elbow_joint": 1.6649325706314817,
            "shoulder_lift_joint": -0.6616388048112454,
            "shoulder_pan_joint": -0.9139837860083814,
            "wrist_1_joint": 2.146757197745094,
            "wrist_2_joint": -2.234196043158733,
            "wrist_3_joint": 0.005471033829999897
        }
    },
    "waypoints": [
        {
            "positions": [
                -0.9139837860083814,
                -0.6616388048112454,
                1.6649325706314817,
                2.146757197745094,
                -2.234196043158733,
                0.005471033829999897
            ]
        },
        {
            "positions": [
                -0.8185992539101257,
                -0.7010017776446911,
                1.5907677600758714,
                2.096366306673736,
                -2.1731243798307704,
                0.06891351849975406
            ]
        },
        {
            "positions": [
                -0.7232147218118699,
                -0.7403647504781368,
                1.516602949520261,
                2.045975415602378,
                -2.112052716502808,
                0.1323560031695082
            ]
        },
        {
            "positions": [
                -0.627830189713614,
                -0.7797277233115826,
                1.4424381389646508,
                1.99558452453102,
                -2.0509810531748456,
                0.1957984878392624
            ]
        },
        {
            "positions": [
                -0.5324456576153583,
                -0.8190906961450283,
                1.3682733284090407,
                1.945193633459662,
                -1.9899093898468831,
                0.25924097250901657
            ]
        },
        {
            "positions": [
                -0.43706112551710263,
                -0.858453668978474,
                1.2941085178534304,
                1.894802742388304,
                -1.9288377265189207,
                0.3226834571787707
            ]
        },
        {
            "positions": [
                -0.3416765934188468,
                -0.8978166418119198,
                1.21994370729782,
                1.8444118513169458,
                -1.867766063190958,
                0.38612594184852495
            ]
        },
        {
            "positions": [
                -0.24629206132059112,
                -0.9371796146453655,
                1.1457788967422098,
                1.7940209602455879,
                -1.8066943998629956,
                0.4495684265182791
            ]
        },
        {
            "positions": [
                -0.1509075292223353,
                -0.9765425874788112,
                1.0716140861865995,
                1.74363006917423,
                -1.7456227365350332,
                0.5130109111880332
            ]
        },
        {
            "positions": [
                -0.0555229971240796,
                -1.0159055603122569,
                0.9974492756309893,
                1.693239178102872,
                -1.6845510732070708,
                0.5764533958577874
            ]
        },
        {
            "positions": [
                0.039861534974176105,
                -1.0552685331457026,
                0.923284465075379,
                1.642848287031514,
                -1.6234794098791083,
                0.6398958805275415
            ]
        },
        {
            "positions": [
                0.13524606707243192,
                -1.0946315059791483,
                0.8491196545197687,
                1.5924573959601558,
                -1.5624077465511457,
                0.7033383651972956
            ]
        },
        {
            "positions": [
                0.23063059917068773,
                -1.1339944788125942,
                0.7749548439641584,
                1.5420665048887976,
                -1.5013360832231832,
                0.76678084986705
            ]
        },
        {
            "positions": [
                0.32601513126894355,
                -1.1733574516460399,
                0.7007900334085481,
                1.4916756138174398,
                -1.4402644198952208,
                0.8302233345368041
            ]
        },
        {
            "positions": [
                0.42139966336719914,
                -1.2127204244794856,
                0.6266252228529379,
                1.4412847227460817,
                -1.3791927565672584,
                0.8936658192065583
            ]
        },
        {
            "positions": [
                0.5167841954654548,
                -1.2520833973129313,
                0.5524604122973276,
                1.3908938316747237,
                -1.318121093239296,
                0.9571083038763124
            ]
        },
        {
            "positions": [
                0.449647224627997,
                -1.2466466254894115,
                0.6135970215515688,
                1.297201499874825,
                -1.243465165147165,
                1.0491466852544378
            ]
        },
        {
            "positions": [
                0.3825102537905391,
                -1.2412098536658915,
                0.6747336308058101,
                1.2035091680749261,
                -1.1688092370550345,
                1.1411850666325631
            ]
        },
        {
            "positions": [
                0.3153732829530812,
                -1.2357730818423718,
                0.7358702400600513,
                1.1098168362750274,
                -1.0941533089629036,
                1.2332234480106883
            ]
        },
        {
            "positions": [
                0.24823631211562336,
                -1.2303363100188518,
                0.7970068493142926,
                1.0161245044751288,
                -1.019497380870773,
                1.3252618293888137
            ]
        },
        {
            "positions": [
                0.1810993412781654,
                -1.224899538195332,
                0.8581434585685339,
                0.92243217267523,
                -0.9448414527786422,
                1.417300210766939
            ]
        },
        {
            "positions": [
                0.11396237044070756,
                -1.2194627663718123,
                0.919280067822775,
                0.8287398408753313,
                -0.8701855246865114,
                1.5093385921450644
            ]
        },
        {
            "positions": [
                0.04682539960324966,
                -1.2140259945482923,
                0.9804166770770164,
                0.7350475090754325,
                -0.7955295965943807,
                1.6013769735231898
            ]
        },
        {
            "positions": [
                -0.020311571234208126,
                -1.2085892227247725,
                1.0415532863312575,
                0.6413551772755338,
                -0.72087366850225,
                1.693415354901315
            ]
        },
        {
            "positions": [
                -0.08744854207166608,
                -1.2031524509012526,
                1.102689895585499,
                0.547662845475635,
                -0.6462177404101193,
                1.7854537362794405
            ]
        },
        {
            "positions": [
                -0.15458551290912403,
                -1.1977156790777328,
                1.16382650483974,
                0.45397051367573626,
                -0.5715618123179884,
                1.8774921176575656
            ]
        },
        {
            "positions": [
                -0.22172248374658177,
                -1.1922789072542128,
                1.2249631140939814,
                0.3602781818758376,
                -0.4969058842258577,
                1.969530499035691
            ]
        },
        {
            "positions": [
                -0.2888594545840397,
                -1.186842135430693,
                1.2860997233482228,
                0.2665858500759388,
                -0.42224995613372696,
                2.0615688804138164
            ]
        },
        {
            "positions": [
                -0.35599642542149756,
                -1.1814053636071733,
                1.347236332602464,
                0.17289351827604027,
                -0.3475940280415962,
                2.1536072617919415
            ]
        },
        {
            "positions": [
                -0.4231333962589555,
                -1.1759685917836533,
                1.4083729418567053,
                0.07920118647614127,
                -0.2729380999494655,
                2.245645643170067
            ]
        },
        {
            "positions": [
                -0.4902703670964135,
                -1.1705318199601336,
                1.4695095511109464,
                -0.014491145323757282,
                -0.19828217185733465,
                2.3376840245481922
            ]
        },
        {
            "positions": [
                -0.5574073379338711,
                -1.1650950481366136,
                1.5306461603651877,
                -0.10818347712365606,
                -0.12362624376520404,
                2.4297224059263174
            ]
        },
        {
            "positions": [
                -0.6245443087713292,
                -1.1596582763130938,
                1.5917827696194289,
                -0.20187580892355506,
                -0.048970315673073195,
                2.5217607873044434
            ]
        },
        {
            "positions": [
                -0.691681279608787,
                -1.1542215044895738,
                1.6529193788736702,
                -0.2955681407234536,
                0.025685612419057424,
                2.6137991686825686
            ]
        },
        {
            "positions": [
                -0.7588182504462448,
                -1.148784732666054,
                1.7140559881279114,
                -0.38926047252335216,
                0.10034154051118827,
                2.7058375500606937
            ]
        },
        {
            "positions": [
                -0.8259552212837029,
                -1.1433479608425343,
                1.7751925973821527,
                -0.48295280432325116,
                0.1749974686033191,
                2.797875931438819
            ]
        },
        {
            "positions": [
                -0.8930921921211605,
                -1.1379111890190143,
                1.8363292066363939,
                -0.5766451361231499,
                0.24965339669544973,
                2.8899143128169444
            ]
        },
        {
            "positions": [
                -0.9602291629586184,
                -1.1324744171954946,
                1.8974658158906352,
                -0.6703374679230485,
                0.32430932478758057,
                2.9819526941950696
            ]
        },
        {
            "positions": [
                -1.0273661337960764,
                -1.1270376453719746,
                1.9586024251448766,
                -0.7640297997229475,
                0.3989652528797114,
                3.073991075573195
            ]
        },
        {
            "positions": [
                -1.0945031046335343,
                -1.1216008735484548,
                2.0197390343991177,
                -0.8577221315228459,
                0.473621180971842,
                3.1660294569513203
            ]
        }
    ]
}