{
    "goal": {
        "global_pose": {
            "orientation": {
                "w": 0.7031023480610252,
                "x": -0.7110244013736278,
                "y": 0.0077485991402295624,
                "z": 0.005598929693374583
            },
            "position": {
                "x": -0.8841497679147869,
                "y": 0.44412534475326537,
                "z": 0.3711530566215515
            }
        },
        "name": "move_to_auspresseinheit_D"
    },
    "id": "ProjEST_move_to_auspresseinheit_D_148",
    "joint_names": [
        "shoulder_pan_joint",
        "shoulder_lift_joint",
        "elbow_joint",
        "wrist_1_joint",
        "wrist_2_joint",
        "wrist_3_joint"
    ],
    "metrics": {
        "cart_traj_len": 3.5658688233828024,
        "distance_elbow_joint": 3.0130307263469533,
        "distance_shoulder_lift_joint": 1.23609481323818,
        "distance_shoulder_pan_joint": 2.796498252987582,
        "distance_wrist_1_joint": 3.5747181081830233,
        "distance_wrist_2_joint": 1.2212674504440684,
        "distance_wrist_3_joint": 5.3652681421136705,
        "smoothness": 0.27227141784730763,
        "time": 0.165799727,
        "traj_len": 4.148117343243014,
        "weighted_distance": 5.721310980550515
    },
    "planner": "ProjEST",
    "start": {
        "state": {
            "elbow_joint": 1.8268400409724999,
            "shoulder_lift_joint": -1.0144045787793008,
            "shoulder_pan_joint": 2.6280239544362485,
            "wrist_1_joint": -0.790705565816056,
            "wrist_2_joint": 1.0573557467365533,
            "wrist_3_joint": 3.1851377467193758
        }
    },
    "waypoints": [
        {
            "positions": [
                2.6280239544362485,
                -1.0144045787793008,
                1.8268400409724999,
                -0.790705565816056,
                1.0573557467365533,
                3.1851377467193758
            ]
        },
        {
            "positions": [
                2.588096885983474,
                -1.060560899188909,
                1.7993044713999602,
                -0.7379504498228158,
                1.039845084531159,
                2.9937583775407464
            ]
        },
        {
            "positions": [
                2.5481698175306993,
                -1.1067172195985175,
                1.7717689018274208,
                -0.6851953338295755,
                1.0223344223257649,
                2.802379008362117
            ]
        },
        {
            "positions": [
                2.508242749077924,
                -1.1528735400081258,
                1.744233332254881,
                -0.6324402178363353,
                1.0048237601203707,
                2.6109996391834875
            ]
        },
        {
            "positions": [
                2.4683156806251496,
                -1.1990298604177343,
                1.7166977626823414,
                -0.5796851018430952,
                0.9873130979149765,
                2.419620270004858
            ]
        },
        {
            "positions": [
                2.428388612172375,
                -1.2451861808273426,
                1.6891621931098018,
                -0.5269299858498548,
                0.9698024357095821,
                2.2282409008262287
            ]
        },
        {
            "positions": [
                2.3884615437196004,
                -1.2913425012369508,
                1.6616266235372623,
                -0.4741748698566147,
                0.9522917735041879,
                2.0368615316475993
            ]
        },
        {
            "positions": [
                2.348534475266826,
                -1.3374988216465593,
                1.6340910539647227,
                -0.4214197538633745,
                0.9347811112987937,
                1.84548216246897
            ]
        },
        {
            "positions": [
                2.3086074068140507,
                -1.3836551420561676,
                1.606555484392183,
                -0.3686646378701343,
                0.9172704490933995,
                1.6541027932903405
            ]
        },
        {
            "positions": [
                2.268680338361276,
                -1.429811462465776,
                1.5790199148196433,
                -0.31590952187689403,
                0.8997597868880052,
                1.4627234241117109
            ]
        },
        {
            "positions": [
                2.2287532699085015,
                -1.4759677828753843,
                1.5514843452471039,
                -0.2631544058836538,
                0.882249124682611,
                1.2713440549330817
            ]
        },
        {
            "positions": [
                2.188826201455727,
                -1.5221241032849928,
                1.5239487756745642,
                -0.21039928989041368,
                0.8647384624772168,
                1.0799646857544523
            ]
        },
        {
            "positions": [
                2.148899133002952,
                -1.568280423694601,
                1.4964132061020248,
                -0.15764417389717345,
                0.8472278002718225,
                0.8885853165758228
            ]
        },
        {
            "positions": [
                2.1089720645501773,
                -1.6144367441042093,
                1.468877636529485,
                -0.10488905790393321,
                0.8297171380664283,
                0.6972059473971934
            ]
        },
        {
            "positions": [
                2.0690449960974027,
                -1.6605930645138178,
                1.4413420669569454,
                -0.05213394191069298,
                0.8122064758610341,
                0.5058265782185641
            ]
        },
        {
            "positions": [
                1.9968669543345403,
                -1.6796223008849038,
                1.356582945913997,
                -0.14362253817771428,
                0.7807187926491455,
                0.5924703515609143
            ]
        },
        {
            "positions": [
                1.9246889125716777,
                -1.6986515372559896,
                1.2718238248710487,
                -0.23511113444473558,
                0.7492311094372567,
                0.6791141249032644
            ]
        },
        {
            "positions": [
                1.8525108708088154,
                -1.7176807736270756,
                1.1870647038281004,
                -0.3265997307117569,
                0.717743426225368,
                0.7657578982456146
            ]
        },
        {
            "positions": [
                1.780332829045953,
                -1.7367100099981614,
                1.102305582785152,
                -0.4180883269787782,
                0.6862557430134792,
                0.8524016715879648
            ]
        },
        {
            "positions": [
                1.7081547872830907,
                -1.7557392463692474,
                1.0175464617422036,
                -0.5095769232457995,
                0.6547680598015906,
                0.9390454449303149
            ]
        },
        {
            "positions": [
                1.635976745520228,
                -1.7747684827403332,
                0.9327873406992554,
                -0.6010655195128208,
                0.6232803765897019,
                1.0256892182726651
            ]
        },
        {
            "positions": [
                1.5637987037573657,
                -1.7937977191114192,
                0.848028219656307,
                -0.692554115779842,
                0.5917926933778132,
                1.1123329916150153
            ]
        },
        {
            "positions": [
                1.4916206619945034,
                -1.812826955482505,
                0.7632690986133587,
                -0.7840427120468634,
                0.5603050101659245,
                1.1989767649573655
            ]
        },
        {
            "positions": [
                1.4194426202316408,
                -1.831856191853591,
                0.6785099775704102,
                -0.8755313083138848,
                0.5288173269540357,
                1.2856205382997157
            ]
        },
        {
            "positions": [
                1.3472645784687785,
                -1.850885428224677,
                0.593750856527462,
                -0.967019904580906,
                0.49732964374214705,
                1.3722643116420656
            ]
        },
        {
            "positions": [
                1.275086536705916,
                -1.8699146645957627,
                0.5089917354845135,
                -1.0585085008479274,
                0.46584196053025834,
                1.458908084984416
            ]
        },
        {
            "positions": [
                1.2029084949430535,
                -1.8889439009668485,
                0.42423261444156535,
                -1.1499970971149487,
                0.4343542773183697,
                1.5455518583267658
            ]
        },
        {
            "positions": [
                1.1307304531801912,
                -1.9079731373379345,
                0.33947349339861677,
                -1.24148569338197,
                0.40286659410648096,
                1.6321956316691164
            ]
        },
        {
            "positions": [
                1.0585524114173288,
                -1.9270023737090205,
                0.25471437235566863,
                -1.3329742896489911,
                0.37137891089459224,
                1.7188394050114661
            ]
        },
        {
            "positions": [
                0.9863743696544665,
                -1.9460316100801063,
                0.16995525131272005,
                -1.4244628859160127,
                0.3398912276827035,
                1.8054831783538163
            ]
        },
        {
            "positions": [
                0.9141963278916039,
                -1.9650608464511923,
                0.08519613026977191,
                -1.5159514821830338,
                0.30840354447081486,
                1.8921269516961665
            ]
        },
        {
            "positions": [
                0.8420182861287415,
                -1.984090082822278,
                0.00043700922682354815,
                -1.607440078450055,
                0.2769158612589262,
                1.9787707250385167
            ]
        },
        {
            "positions": [
                0.769840244365879,
                -2.003119319193364,
                -0.08432211181612503,
                -1.6989286747170766,
                0.24542817804703743,
                2.065414498380867
            ]
        },
        {
            "positions": [
                0.6976622026030166,
                -2.02214855556445,
                -0.1690812328590734,
                -1.7904172709840978,
                0.21394049483514876,
                2.152058271723217
            ]
        },
        {
            "positions": [
                0.6254841608401542,
                -2.041177791935536,
                -0.25384035390202153,
                -1.881905867251119,
                0.18245281162326,
                2.2387020450655672
            ]
        },
        {
            "positions": [
                0.5533061190772919,
                -2.0602070283066216,
                -0.3385994749449699,
                -1.9733944635181402,
                0.15096512841137133,
                2.3253458184079174
            ]
        },
        {
            "positions": [
                0.4811280773144293,
                -2.0792362646777076,
                -0.4233585959879185,
                -2.0648830597851617,
                0.11947744519948256,
                2.4119895917502676
            ]
        },
        {
            "positions": [
                0.40895003555156695,
                -2.0982655010487936,
                -0.5081177170308666,
                -2.156371656052183,
                0.0879897619875939,
                2.498633365092618
            ]
        },
        {
            "positions": [
                0.3367719937887046,
                -2.117294737419879,
                -0.5928768380738147,
                -2.2478602523192044,
                0.05650207877570523,
                2.5852771384349675
            ]
        },
        {
            "positions": [
                0.26459395202584224,
                -2.136323973790965,
                -0.6776359591167633,
                -2.3393488485862255,
                0.02501439556381657,
                2.6719209117773177
            ]
        },
        {
            "positions": [
                0.19241591026297966,
                -2.155353210162051,
                -0.7623950801597119,
                -2.430837444853247,
                -0.006473287648072201,
                2.7585646851196683
            ]
        },
        {
            "positions": [
                0.1202378685001173,
                -2.174382446533137,
                -0.84715420120266,
                -2.522326041120268,
                -0.03796097085996086,
                2.845208458462018
            ]
        },
        {
            "positions": [
                0.04805982673725495,
                -2.193411682904223,
                -0.9319133222456082,
                -2.6138146373872893,
                -0.06944865407184964,
                2.9318522318043683
            ]
        },
        {
            "positions": [
                -0.02411821502560718,
                -2.212440919275309,
                -1.0166724432885568,
                -2.705303233654311,
                -0.1009363372837383,
                3.0184960051467185
            ]
        },
        {
            "positions": [
                -0.09629625678846976,
                -2.2314701556463947,
                -1.1014315643315054,
                -2.7967918299213324,
                -0.13242402049562707,
                3.1051397784890686
            ]
        },
        {
            "positions": [
                -0.16847429855133247,
                -2.2504993920174807,
                -1.1861906853744535,
                -2.8882804261883535,
                -0.1639117037075157,
                3.191783551831419
            ]
        }
    ]
}