{
    "goal": {
        "global_pose": {
            "orientation": {
                "w": 0.5084816217422485,
                "x": -0.49083608388900757,
                "y": 0.5182115435600281,
                "z": -0.4816462993621826
            },
            "position": {
                "x": 0.5540239810943604,
                "y": 0.030875300988554955,
                "z": 0.16403168439865112
            }
        },
        "name": "move_to_storage_A"
    },
    "id": "ProjEST_move_to_storage_A_103",
    "joint_names": [
        "shoulder_pan_joint",
        "shoulder_lift_joint",
        "elbow_joint",
        "wrist_1_joint",
        "wrist_2_joint",
        "wrist_3_joint"
    ],
    "metrics": {
        "cart_traj_len": 0.3532374783473737,
        "distance_elbow_joint": 0.4526300022959635,
        "distance_shoulder_lift_joint": 0.2355615161179696,
        "distance_shoulder_pan_joint": 0.46290861212406553,
        "distance_wrist_1_joint": 0.25575073554575567,
        "distance_wrist_2_joint": 1.0952823022636222,
        "distance_wrist_3_joint": 0.10747747560635057,
        "smoothness": 4.440892098500626e-16,
        "time": 0.018932863,
        "traj_len": 1.6154289349747724,
        "weighted_distance": 2.0434281570380217
    },
    "planner": "ProjEST",
    "start": {
        "state": {
            "elbow_joint": 1.9715474177455299,
            "shoulder_lift_joint": -1.139484666580328,
            "shoulder_pan_joint": 0.12281154398918248,
            "wrist_1_joint": -0.7804687475355282,
            "wrist_2_joint": 0.12958649657246987,
            "wrist_3_joint": -3.1924925159053466
        }
    },
    "waypoints": [
        {
            "positions": [
                0.12281154398918248,
                -1.139484666580328,
                1.9715474177455299,
                -0.7804687475355282,
                0.12958649657246987,
                -3.1924925159053466
            ]
        },
        {
            "positions": [
                0.05668174225717312,
                -1.173136311740038,
                2.036208846644953,
                -0.8170045668992075,
                0.28605539689584447,
                -3.177138590818725
            ]
        },
        {
            "positions": [
                -0.009448059474836235,
                -1.206787956899748,
                2.1008702755443767,
                -0.853540386262887,
                0.44252429721921904,
                -3.1617846657321036
            ]
        },
        {
            "positions": [
                -0.07557786120684559,
                -1.240439602059458,
                2.1655317044438,
                -0.8900762056265663,
                0.5989931975425936,
                -3.146430740645482
            ]
        },
        {
            "positions": [
                -0.14170766293885495,
                -1.2740912472191677,
                2.2301931333432234,
                -0.9266120249902458,
                0.7554620978659683,
                -3.1310768155588606
            ]
        },
        {
            "positions": [
                -0.20783746467086434,
                -1.3077428923788776,
                2.2948545622426466,
                -0.9631478443539251,
                0.911930998189343,
                -3.115722890472239
            ]
        },
        {
            "positions": [
                -0.27396726640287367,
                -1.3413945375385876,
                2.35951599114207,
                -0.9996836637176045,
                1.0683998985127174,
                -3.1003689653856177
            ]
        },
        {
            "positions": [
                -0.34009706813488305,
                -1.3750461826982976,
                2.4241774200414934,
                -1.0362194830812839,
                1.224868798836092,
                -3.085015040298996
            ]
        }
    ]
}