{
    "goal": {
        "global_pose": {
            "orientation": {
                "w": 0.7047431468963623,
                "x": -0.7094548344612122,
                "y": 0.0024358443915843964,
                "z": -0.0022348060738295317
            },
            "position": {
                "x": 0.6094750761985779,
                "y": 0.3671506643295288,
                "z": 0.19426114857196808
            }
        },
        "name": "move_to_magneteinheit_A"
    },
    "id": "ProjEST_move_to_magneteinheit_A_17",
    "joint_names": [
        "shoulder_pan_joint",
        "shoulder_lift_joint",
        "elbow_joint",
        "wrist_1_joint",
        "wrist_2_joint",
        "wrist_3_joint"
    ],
    "metrics": {
        "cart_traj_len": 1.0528178550702891,
        "distance_elbow_joint": 0.38697716266124504,
        "distance_shoulder_lift_joint": 0.363505549445736,
        "distance_shoulder_pan_joint": 1.2410729542251033,
        "distance_wrist_1_joint": 2.2114800914089994,
        "distance_wrist_2_joint": 1.7102417804250243,
        "distance_wrist_3_joint": 1.2331454366494845,
        "smoothness": 1.7763568534659883e-16,
        "time": 0.10586852199999999,
        "traj_len": 2.6732794419618,
        "weighted_distance": 3.67891773758922
    },
    "planner": "ProjEST",
    "start": {
        "state": {
            "elbow_joint": 1.5739458966750683,
            "shoulder_lift_joint": -1.4977259741207325,
            "shoulder_pan_joint": -1.1188672016454206,
            "wrist_1_joint": 1.494575848278785,
            "wrist_2_joint": -1.5706037134824402,
            "wrist_3_joint": -2.0226957942261072
        }
    },
    "waypoints": [
        {
            "positions": [
                -1.1188672016454206,
                -1.4977259741207325,
                1.5739458966750683,
                1.494575848278785,
                -1.5706037134824402,
                -2.0226957942261072
            ]
        },
        {
            "positions": [
                -1.0535475724756784,
                -1.4785941030972727,
                1.5943131157625023,
                1.3781821592572587,
                -1.4805909881969126,
                -2.087598185628712
            ]
        },
        {
            "positions": [
                -0.9882279433059361,
                -1.4594622320738129,
                1.6146803348499363,
                1.2617884702357325,
                -1.390578262911385,
                -2.152500577031316
            ]
        },
        {
            "positions": [
                -0.9229083141361938,
                -1.440330361050353,
                1.6350475539373701,
                1.1453947812142062,
                -1.3005655376258574,
                -2.2174029684339205
            ]
        },
        {
            "positions": [
                -0.8575886849664516,
                -1.4211984900268932,
                1.655414773024804,
                1.0290010921926798,
                -1.21055281234033,
                -2.282305359836525
            ]
        },
        {
            "positions": [
                -0.7922690557967093,
                -1.4020666190034337,
                1.675781992112238,
                0.9126074031711536,
                -1.1205400870548023,
                -2.3472077512391296
            ]
        },
        {
            "positions": [
                -0.7269494266269669,
                -1.3829347479799738,
                1.696149211199672,
                0.7962137141496273,
                -1.0305273617692747,
                -2.4121101426417337
            ]
        },
        {
            "positions": [
                -0.6616297974572247,
                -1.363802876956514,
                1.7165164302871059,
                0.679820025128101,
                -0.9405146364837471,
                -2.4770125340443383
            ]
        },
        {
            "positions": [
                -0.5963101682874824,
                -1.3446710059330542,
                1.7368836493745399,
                0.5634263361065748,
                -0.8505019111982195,
                -2.541914925446943
            ]
        },
        {
            "positions": [
                -0.5309905391177402,
                -1.3255391349095944,
                1.7572508684619739,
                0.44703264708504853,
                -0.7604891859126919,
                -2.606817316849547
            ]
        },
        {
            "positions": [
                -0.46567090994799787,
                -1.3064072638861346,
                1.7776180875494079,
                0.3306389580635223,
                -0.6704764606271644,
                -2.6717197082521515
            ]
        },
        {
            "positions": [
                -0.40035128077825555,
                -1.2872753928626748,
                1.7979853066368419,
                0.2142452690419958,
                -0.5804637353416366,
                -2.736622099654756
            ]
        },
        {
            "positions": [
                -0.33503165160851334,
                -1.268143521839215,
                1.8183525257242756,
                0.09785158002046956,
                -0.49045101005610925,
                -2.8015244910573607
            ]
        },
        {
            "positions": [
                -0.269712022438771,
                -1.2490116508157552,
                1.8387197448117096,
                -0.018542109001056684,
                -0.4004382847705814,
                -2.8664268824599652
            ]
        },
        {
            "positions": [
                -0.2043923932690288,
                -1.2298797797922956,
                1.8590869638991436,
                -0.13493579802258293,
                -0.310425559485054,
                -2.9313292738625694
            ]
        },
        {
            "positions": [
                -0.13907276409928637,
                -1.2107479087688358,
                1.8794541829865776,
                -0.2513294870441092,
                -0.22041283419952618,
                -2.996231665265174
            ]
        },
        {
            "positions": [
                -0.07375313492954416,
                -1.191616037745376,
                1.8998214020740116,
                -0.3677231760656354,
                -0.13040010891399878,
                -3.061134056667778
            ]
        },
        {
            "positions": [
                -0.008433505759801951,
                -1.1724841667219161,
                1.9201886211614454,
                -0.4841168650871619,
                -0.04038738362847116,
                -3.1260364480703826
            ]
        },
        {
            "positions": [
                0.05688612340994026,
                -1.1533522956984563,
                1.9405558402488794,
                -0.6005105541086879,
                0.049625341657056454,
                -3.190938839472987
            ]
        },
        {
            "positions": [
                0.1222057525796828,
                -1.1342204246749965,
                1.9609230593363134,
                -0.7169042431302144,
                0.1396380669425841,
                -3.2558412308755917
            ]
        }
    ]
}