{
    "goal": {
        "global_pose": {
            "orientation": {
                "w": 0.5084816262002911,
                "x": -0.4908360881923452,
                "y": 0.5182115481033761,
                "z": -0.48164630358495003
            },
            "position": {
                "x": 0.5540239810943604,
                "y": -0.46912469901144505,
                "z": 0.16403168439865112
            }
        },
        "name": "move_to_storage_B"
    },
    "id": "ProjEST_move_to_storage_B_138",
    "joint_names": [
        "shoulder_pan_joint",
        "shoulder_lift_joint",
        "elbow_joint",
        "wrist_1_joint",
        "wrist_2_joint",
        "wrist_3_joint"
    ],
    "metrics": {
        "cart_traj_len": 1.0779955096375606,
        "distance_elbow_joint": 0.34814769455012917,
        "distance_shoulder_lift_joint": 0.45769132319403694,
        "distance_shoulder_pan_joint": 0.9418792248455531,
        "distance_wrist_1_joint": 3.996057255312533,
        "distance_wrist_2_joint": 3.089627048157128,
        "distance_wrist_3_joint": 3.135851823854033,
        "smoothness": 0.3939548976722295,
        "time": 0.211803938,
        "traj_len": 3.4596610195094857,
        "weighted_distance": 5.0325582282862005
    },
    "planner": "ProjEST",
    "start": {
        "state": {
            "elbow_joint": 1.6649325706314817,
            "shoulder_lift_joint": -0.6616388048112454,
            "shoulder_pan_joint": -0.9139837860083814,
            "wrist_1_joint": 2.146757197745094,
            "wrist_2_joint": -2.234196043158733,
            "wrist_3_joint": 0.005471033829999897
        }
    },
    "waypoints": [
        {
            "positions": [
                -0.9139837860083814,
                -0.6616388048112454,
                1.6649325706314817,
                2.146757197745094,
                -2.234196043158733,
                0.005471033829999897
            ]
        },
        {
            "positions": [
                -0.8506893120336749,
                -0.7369843616309686,
                1.6987066815327192,
                2.230841223843594,
                -2.266745985529659,
                -0.06993583990598838
            ]
        },
        {
            "positions": [
                -0.7873948380589684,
                -0.8123299184506918,
                1.7324807924339565,
                2.3149252499420943,
                -2.299295927900585,
                -0.14534271364197668
            ]
        },
        {
            "positions": [
                -0.7241003640842618,
                -0.8876754752704151,
                1.7662549033351937,
                2.3990092760405943,
                -2.3318458702715112,
                -0.220749587377965
            ]
        },
        {
            "positions": [
                -0.6608058901095554,
                -0.9630210320901383,
                1.8000290142364312,
                2.483093302139094,
                -2.364395812642437,
                -0.2961564611139532
            ]
        },
        {
            "positions": [
                -0.5975114161348489,
                -1.0383665889098617,
                1.8338031251376687,
                2.567177328237594,
                -2.396945755013363,
                -0.3715633348499416
            ]
        },
        {
            "positions": [
                -0.5342169421601424,
                -1.1137121457295849,
                1.867577236038906,
                2.651261354336094,
                -2.429495697384289,
                -0.44697020858592984
            ]
        },
        {
            "positions": [
                -0.556701437400035,
                -1.1139368650206127,
                1.8733973572046143,
                2.5115992303872328,
                -2.3137226016270263,
                -0.554306631843454
            ]
        },
        {
            "positions": [
                -0.5791859326399275,
                -1.1141615843116406,
                1.8792174783703224,
                2.3719371064383714,
                -2.1979495058697633,
                -0.6616430551009781
            ]
        },
        {
            "positions": [
                -0.6016704278798201,
                -1.1143863036026687,
                1.8850375995360307,
                2.23227498248951,
                -2.0821764101125004,
                -0.7689794783585022
            ]
        },
        {
            "positions": [
                -0.6241549231197127,
                -1.1146110228936965,
                1.8908577207017387,
                2.0926128585406487,
                -1.9664033143552375,
                -0.8763159016160263
            ]
        },
        {
            "positions": [
                -0.6466394183596051,
                -1.1148357421847244,
                1.896677841867447,
                1.9529507345917874,
                -1.8506302185979746,
                -0.9836523248735505
            ]
        },
        {
            "positions": [
                -0.6691239135994977,
                -1.1150604614757522,
                1.902497963033155,
                1.813288610642926,
                -1.734857122840712,
                -1.0909887481310747
            ]
        },
        {
            "positions": [
                -0.6916084088393903,
                -1.11528518076678,
                1.9083180841988634,
                1.6736264866940647,
                -1.619084027083449,
                -1.198325171388599
            ]
        },
        {
            "positions": [
                -0.7140929040792829,
                -1.1155099000578081,
                1.9141382053645715,
                1.5339643627452035,
                -1.503310931326186,
                -1.3056615946461227
            ]
        },
        {
            "positions": [
                -0.7365773993191754,
                -1.115734619348836,
                1.9199583265302798,
                1.3943022387963422,
                -1.3875378355689234,
                -1.412998017903647
            ]
        },
        {
            "positions": [
                -0.759061894559068,
                -1.1159593386398639,
                1.925778447695988,
                1.2546401148474806,
                -1.2717647398116603,
                -1.5203344411611712
            ]
        },
        {
            "positions": [
                -0.7815463897989605,
                -1.1161840579308917,
                1.9315985688616961,
                1.1149779908986195,
                -1.1559916440543976,
                -1.6276708644186955
            ]
        },
        {
            "positions": [
                -0.8040308850388531,
                -1.1164087772219196,
                1.9374186900274044,
                0.9753158669497581,
                -1.0402185482971347,
                -1.7350072876762193
            ]
        },
        {
            "positions": [
                -0.8265153802787457,
                -1.1166334965129476,
                1.9432388111931125,
                0.8356537430008968,
                -0.9244454525398718,
                -1.8423437109337435
            ]
        },
        {
            "positions": [
                -0.8489998755186383,
                -1.1168582158039755,
                1.9490589323588208,
                0.6959916190520352,
                -0.8086723567826088,
                -1.9496801341912677
            ]
        },
        {
            "positions": [
                -0.8714843707585308,
                -1.1170829350950033,
                1.9548790535245288,
                0.5563294951031743,
                -0.6928992610253462,
                -2.057016557448792
            ]
        },
        {
            "positions": [
                -0.8939688659984234,
                -1.1173076543860312,
                1.9606991746902371,
                0.41666737115431296,
                -0.577126165268083,
                -2.1643529807063158
            ]
        },
        {
            "positions": [
                -0.916453361238316,
                -1.117532373677059,
                1.9665192958559454,
                0.27700524720545117,
                -0.4613530695108201,
                -2.27168940396384
            ]
        },
        {
            "positions": [
                -0.9389378564782085,
                -1.1177570929680871,
                1.9723394170216535,
                0.13734312325659026,
                -0.34557997375355765,
                -2.3790258272213642
            ]
        },
        {
            "positions": [
                -0.9614223517181011,
                -1.117981812259115,
                1.9781595381873618,
                -0.0023190006922710893,
                -0.2298068779962943,
                -2.486362250478888
            ]
        },
        {
            "positions": [
                -0.9839068469579937,
                -1.1182065315501428,
                1.9839796593530699,
                -0.14198112464113288,
                -0.11403378223903138,
                -2.5936986737364123
            ]
        },
        {
            "positions": [
                -1.0063913421978863,
                -1.1184312508411707,
                1.9897997805187781,
                -0.2816432485899938,
                0.0017393135182310893,
                -2.7010350969939365
            ]
        },
        {
            "positions": [
                -1.0288758374377789,
                -1.1186559701321985,
                1.9956199016844862,
                -0.42130537253885514,
                0.117512409275494,
                -2.8083715202514608
            ]
        },
        {
            "positions": [
                -1.0513603326776715,
                -1.1188806894232266,
                2.0014400228501943,
                -0.5609674964877165,
                0.2332855050327569,
                -2.915707943508985
            ]
        },
        {
            "positions": [
                -1.0738448279175639,
                -1.1191054087142545,
                2.007260144015903,
                -0.7006296204365778,
                0.3490586007900198,
                -3.023044366766509
            ]
        },
        {
            "positions": [
                -1.0963293231574565,
                -1.1193301280052823,
                2.013080265181611,
                -0.8402917443854391,
                0.4648316965472826,
                -3.130380790024033
            ]
        }
    ]
}