{
    "goal": {
        "global_pose": {
            "orientation": {
                "w": 0.7047431493862688,
                "x": -0.7094548369677653,
                "y": 0.0024358444001904,
                "z": -0.0022348060817251984
            },
            "position": {
                "x": -0.39052492380142206,
                "y": 0.3671506643295288,
                "z": 0.19426114857196808
            }
        },
        "name": "move_to_magneteinheit_D"
    },
    "id": "ProjEST_move_to_magneteinheit_D_16",
    "joint_names": [
        "shoulder_pan_joint",
        "shoulder_lift_joint",
        "elbow_joint",
        "wrist_1_joint",
        "wrist_2_joint",
        "wrist_3_joint"
    ],
    "metrics": {
        "cart_traj_len": 4.570220153541369,
        "distance_elbow_joint": 3.1533511577867417,
        "distance_shoulder_lift_joint": 1.9490192122096381,
        "distance_shoulder_pan_joint": 3.238286356990533,
        "distance_wrist_1_joint": 2.2111788458428476,
        "distance_wrist_2_joint": 1.4650766960395916,
        "distance_wrist_3_joint": 3.2326880008411227,
        "smoothness": 1.1819968673471848,
        "time": 0.149855173,
        "traj_len": 3.9050736573988556,
        "weighted_distance": 5.038971305065664
    },
    "planner": "ProjEST",
    "start": {
        "state": {
            "elbow_joint": 0.7495348899011973,
            "shoulder_lift_joint": -0.6476975780737697,
            "shoulder_pan_joint": -2.711696901376276,
            "wrist_1_joint": -0.07506478080974305,
            "wrist_2_joint": 0.4329665971545858,
            "wrist_3_joint": 3.1361499051832524
        }
    },
    "waypoints": [
        {
            "positions": [
                -2.711696901376276,
                -0.6476975780737697,
                0.7495348899011973,
                -0.07506478080974305,
                0.4329665971545858,
                3.1361499051832524
            ]
        },
        {
            "positions": [
                -2.770101783508913,
                -0.6072726842189132,
                0.7047670576162888,
                -0.12852474229408795,
                0.3969135667189909,
                3.168680234471899
            ]
        },
        {
            "positions": [
                -2.8285066656415494,
                -0.5668477903640567,
                0.6599992253313802,
                -0.18198470377843287,
                0.36086053628339604,
                3.2012105637605455
            ]
        },
        {
            "positions": [
                -2.7791183041791907,
                -0.6492900174942478,
                0.6073646863899993,
                -0.15302590159452056,
                0.3791752325630292,
                3.1170923555361103
            ]
        },
        {
            "positions": [
                -2.7297299427168316,
                -0.7317322446244388,
                0.5547301474486185,
                -0.12406709941060828,
                0.3974899288426624,
                3.032974147311675
            ]
        },
        {
            "positions": [
                -2.6260735493813923,
                -0.7796301899422002,
                0.4837980280087355,
                -0.07078274521992942,
                0.37526983312749257,
                2.935537815354373
            ]
        },
        {
            "positions": [
                -2.522417156045953,
                -0.8275281352599617,
                0.4128659085688525,
                -0.017498391029250535,
                0.3530497374123228,
                2.838101483397071
            ]
        },
        {
            "positions": [
                -2.4187607627105137,
                -0.8754260805777232,
                0.34193378912896955,
                0.03578596316142835,
                0.330829641697153,
                2.740665151439768
            ]
        },
        {
            "positions": [
                -2.3151043693750744,
                -0.9233240258954847,
                0.27100166968908657,
                0.08907031735210721,
                0.3086095459819832,
                2.643228819482466
            ]
        },
        {
            "positions": [
                -2.211447976039635,
                -0.9712219712132462,
                0.2000695502492036,
                0.14235467154278614,
                0.2863894502668134,
                2.545792487525164
            ]
        },
        {
            "positions": [
                -2.1077915827041958,
                -1.0191199165310076,
                0.1291374308093206,
                0.19563902573346498,
                0.2641693545516436,
                2.4483561555678612
            ]
        },
        {
            "positions": [
                -2.004135189368757,
                -1.0670178618487691,
                0.05820531136943757,
                0.24892337992414387,
                0.2419492588364738,
                2.350919823610559
            ]
        },
        {
            "positions": [
                -1.9004787960333176,
                -1.1149158071665304,
                -0.01272680807044535,
                0.3022077341148227,
                0.21972916312130403,
                2.253483491653257
            ]
        },
        {
            "positions": [
                -1.7968224026978783,
                -1.162813752484292,
                -0.08365892751032833,
                0.3554920883055016,
                0.19750906740613422,
                2.1560471596959547
            ]
        },
        {
            "positions": [
                -1.6931660093624388,
                -1.2107116978020536,
                -0.1545910469502113,
                0.40877644249618056,
                0.17528897169096444,
                2.0586108277386526
            ]
        },
        {
            "positions": [
                -1.5895096160269997,
                -1.258609643119815,
                -0.2255231663900943,
                0.46206079668685934,
                0.15306887597579466,
                1.9611744957813502
            ]
        },
        {
            "positions": [
                -1.4858532226915604,
                -1.3065075884375763,
                -0.29645528582997727,
                0.5153451508775382,
                0.13084878026062485,
                1.8637381638240478
            ]
        },
        {
            "positions": [
                -1.3821968293561213,
                -1.354405533755338,
                -0.36738740526986013,
                0.5686295050682171,
                0.1086286845454551,
                1.7663018318667456
            ]
        },
        {
            "positions": [
                -1.2785404360206818,
                -1.4023034790730993,
                -0.43831952470974334,
                0.621913859258896,
                0.08640858883028524,
                1.6688654999094432
            ]
        },
        {
            "positions": [
                -1.1748840426852425,
                -1.450201424390861,
                -0.5092516441496263,
                0.6751982134495749,
                0.06418849311511549,
                1.5714291679521408
            ]
        },
        {
            "positions": [
                -1.0712276493498034,
                -1.4980993697086222,
                -0.5801837635895092,
                0.7284825676402538,
                0.04196839739994568,
                1.4739928359948387
            ]
        },
        {
            "positions": [
                -0.9675712560143639,
                -1.545997315026384,
                -0.6511158830293923,
                0.7817669218309327,
                0.01974830168477587,
                1.3765565040375363
            ]
        },
        {
            "positions": [
                -0.8639148626789248,
                -1.5938952603441452,
                -0.7220480024692751,
                0.8350512760216116,
                -0.0024717940303939367,
                1.279120172080234
            ]
        },
        {
            "positions": [
                -0.7602584693434857,
                -1.6417932056619067,
                -0.792980121909158,
                0.8883356302122902,
                -0.02469188974556369,
                1.181683840122932
            ]
        },
        {
            "positions": [
                -0.656602076008046,
                -1.6896911509796682,
                -0.8639122413490411,
                0.9416199844029693,
                -0.046911985460733496,
                1.0842475081656295
            ]
        },
        {
            "positions": [
                -0.5529456826726071,
                -1.7375890962974296,
                -0.934844360788924,
                0.994904338593648,
                -0.0691320811759033,
                0.9868111762083274
            ]
        },
        {
            "positions": [
                -0.44928928933716783,
                -1.7854870416151911,
                -1.005776480228807,
                1.048188692784327,
                -0.09135217689107306,
                0.8893748442510252
            ]
        },
        {
            "positions": [
                -0.34563289600172853,
                -1.8333849869329526,
                -1.0767085996686903,
                1.1014730469750058,
                -0.11357227260624286,
                0.7919385122937226
            ]
        },
        {
            "positions": [
                -0.24197650266628923,
                -1.881282932250714,
                -1.1476407191085731,
                1.1547574011656847,
                -0.13579236832141264,
                0.6945021803364204
            ]
        },
        {
            "positions": [
                -0.2092446926987268,
                -1.9254484892946442,
                -1.2567926726208956,
                1.2135778168121745,
                -0.08324098921044223,
                0.6285445840675283
            ]
        },
        {
            "positions": [
                -0.17651288273116442,
                -1.9696140463385743,
                -1.365944626133218,
                1.2723982324586642,
                -0.030689610099471826,
                0.5625869877986363
            ]
        },
        {
            "positions": [
                -0.14378107276360202,
                -2.0137796033825044,
                -1.4750965796455402,
                1.331218648105154,
                0.021861769011498583,
                0.4966293915297443
            ]
        },
        {
            "positions": [
                -0.1110492627960396,
                -2.0579451604264345,
                -1.5842485331578628,
                1.3900390637516438,
                0.07441314812246899,
                0.4306717952608522
            ]
        },
        {
            "positions": [
                -0.07831745282847719,
                -2.102110717470365,
                -1.693400486670185,
                1.4488594793981333,
                0.1269645272334394,
                0.3647141989919601
            ]
        },
        {
            "positions": [
                -0.04558564286091479,
                -2.146276274514295,
                -1.8025524401825075,
                1.507679895044623,
                0.1795159063444098,
                0.2987566027230681
            ]
        },
        {
            "positions": [
                -0.012853832893352374,
                -2.1904418315582252,
                -1.91170439369483,
                1.5665003106911128,
                0.23206728545538022,
                0.232799006454176
            ]
        },
        {
            "positions": [
                0.019877977074210018,
                -2.2346073886021554,
                -2.020856347207152,
                1.6253207263376026,
                0.28461866456635065,
                0.16684141018528398
            ]
        },
        {
            "positions": [
                0.05260978704177244,
                -2.2787729456460855,
                -2.130008300719475,
                1.6841411419840924,
                0.33717004367732106,
                0.10088381391639187
            ]
        },
        {
            "positions": [
                0.049133191831961576,
                -2.2387823942867255,
                -2.264769650372008,
                1.6295824395625407,
                0.21225131673847167,
                0.08114168731874921
            ]
        },
        {
            "positions": [
                0.045656596622150714,
                -2.198791842927366,
                -2.399531000024541,
                1.575023737140989,
                0.08733258979962226,
                0.06139956072110657
            ]
        },
        {
            "positions": [
                -0.07104687818900761,
                -2.2369234261769546,
                -2.397388366094039,
                1.5105159010067246,
                0.13746212958393628,
                0.0753077303333017
            ]
        },
        {
            "positions": [
                -0.18775035300016593,
                -2.275055009426543,
                -2.395245732163537,
                1.44600806487246,
                0.18759166936825028,
                0.08921589994549682
            ]
        }
    ]
}