{
    "goal": {
        "global_pose": {
            "orientation": {
                "w": 0.5084816262002911,
                "x": -0.4908360881923452,
                "y": 0.5182115481033761,
                "z": -0.48164630358495003
            },
            "position": {
                "x": 0.5540239810943604,
                "y": -0.46912469901144505,
                "z": 0.16403168439865112
            }
        },
        "name": "move_to_storage_B"
    },
    "id": "ProjEST_move_to_storage_B_64",
    "joint_names": [
        "shoulder_pan_joint",
        "shoulder_lift_joint",
        "elbow_joint",
        "wrist_1_joint",
        "wrist_2_joint",
        "wrist_3_joint"
    ],
    "metrics": {
        "cart_traj_len": 5.172459744181985,
        "distance_elbow_joint": 5.076055241528843,
        "distance_shoulder_lift_joint": 0.4595951552045976,
        "distance_shoulder_pan_joint": 4.826733086675532,
        "distance_wrist_1_joint": 2.9863606883494933,
        "distance_wrist_2_joint": 2.7017574464305993,
        "distance_wrist_3_joint": 3.1326818685816784,
        "smoothness": 0.34980554609584685,
        "time": 0.1055889,
        "traj_len": 4.379861126425213,
        "weighted_distance": 5.580023777611902
    },
    "planner": "ProjEST",
    "start": {
        "state": {
            "elbow_joint": 1.6649325706314817,
            "shoulder_lift_joint": -0.6616388048112454,
            "shoulder_pan_joint": -0.9139837860083814,
            "wrist_1_joint": 2.146757197745094,
            "wrist_2_joint": -2.234196043158733,
            "wrist_3_joint": 0.005471033829999897
        }
    },
    "waypoints": [
        {
            "positions": [
                -0.9139837860083814,
                -0.6616388048112454,
                1.6649325706314817,
                2.146757197745094,
                -2.234196043158733,
                0.005471033829999897
            ]
        },
        {
            "positions": [
                -0.8172003073701728,
                -0.675202662372554,
                1.5664856769885436,
                2.0653377142818403,
                -2.153489060329494,
                0.018675281814491622
            ]
        },
        {
            "positions": [
                -0.7204168287319642,
                -0.6887665199338627,
                1.4680387833456054,
                1.983918230818587,
                -2.072782077500255,
                0.03187952979898334
            ]
        },
        {
            "positions": [
                -0.6236333500937556,
                -0.7023303774951714,
                1.3695918897026673,
                1.9024987473553332,
                -1.992075094671016,
                0.04508377778347507
            ]
        },
        {
            "positions": [
                -0.5268498714555471,
                -0.71589423505648,
                1.2711449960597294,
                1.8210792638920796,
                -1.9113681118417771,
                0.05828802576796679
            ]
        },
        {
            "positions": [
                -0.4300663928173385,
                -0.7294580926177887,
                1.1726981024167913,
                1.739659780428826,
                -1.830661129012538,
                0.07149227375245852
            ]
        },
        {
            "positions": [
                -0.3332829141791299,
                -0.7430219501790973,
                1.0742512087738532,
                1.6582402969655723,
                -1.749954146183299,
                0.08469652173695025
            ]
        },
        {
            "positions": [
                -0.23649943554092134,
                -0.756585807740406,
                0.975804315130915,
                1.5768208135023187,
                -1.66924716335406,
                0.09790076972144197
            ]
        },
        {
            "positions": [
                -0.13971595690271277,
                -0.7701496653017147,
                0.877357421487977,
                1.4954013300390652,
                -1.5885401805248212,
                0.11110501770593369
            ]
        },
        {
            "positions": [
                -0.04293247826450419,
                -0.7837135228630233,
                0.7789105278450389,
                1.4139818465758114,
                -1.5078331976955823,
                0.12430926569042543
            ]
        },
        {
            "positions": [
                0.05385100037370438,
                -0.797277380424332,
                0.6804636342021008,
                1.3325623631125578,
                -1.4271262148663433,
                0.13751351367491713
            ]
        },
        {
            "positions": [
                0.15063447901191285,
                -0.8108412379856407,
                0.5820167405591627,
                1.2511428796493043,
                -1.3464192320371042,
                0.15071776165940884
            ]
        },
        {
            "positions": [
                0.24741795765012153,
                -0.8244050955469493,
                0.4835698469162246,
                1.1697233961860505,
                -1.2657122492078652,
                0.16392200964390058
            ]
        },
        {
            "positions": [
                0.34420143628833,
                -0.8379689531082579,
                0.3851229532732867,
                1.0883039127227971,
                -1.1850052663786264,
                0.1771262576283923
            ]
        },
        {
            "positions": [
                0.4409849149265387,
                -0.8515328106695667,
                0.28667605963034837,
                1.0068844292595434,
                -1.1042982835493873,
                0.19033050561288403
            ]
        },
        {
            "positions": [
                0.5377683935647474,
                -0.8650966682308753,
                0.18822916598741046,
                0.9254649457962898,
                -1.0235913007201485,
                0.20353475359737574
            ]
        },
        {
            "positions": [
                0.6345518722029558,
                -0.8786605257921839,
                0.08978227234447234,
                0.8440454623330362,
                -0.9428843178909094,
                0.21673900158186746
            ]
        },
        {
            "positions": [
                0.7313353508411645,
                -0.8922243833534926,
                -0.008664621298466013,
                0.7626259788697825,
                -0.8621773350616704,
                0.22994324956635923
            ]
        },
        {
            "positions": [
                0.828118829479373,
                -0.9057882409148013,
                -0.10711151494140392,
                0.6812064954065289,
                -0.7814703522324316,
                0.24314749755085094
            ]
        },
        {
            "positions": [
                0.9249023081175815,
                -0.9193520984761099,
                -0.20555840858434182,
                0.5997870119432753,
                -0.7007633694031925,
                0.2563517455353427
            ]
        },
        {
            "positions": [
                1.02168578675579,
                -0.9329159560374186,
                -0.30400530222728017,
                0.5183675284800215,
                -0.6200563865739535,
                0.2695559935198344
            ]
        },
        {
            "positions": [
                1.1184692653939985,
                -0.9464798135987272,
                -0.4024521958702183,
                0.436948045016768,
                -0.5393494037447146,
                0.2827602415043261
            ]
        },
        {
            "positions": [
                1.215252744032207,
                -0.9600436711600359,
                -0.5008990895131562,
                0.3555285615535144,
                -0.4586424209154758,
                0.2959644894888178
            ]
        },
        {
            "positions": [
                1.3120362226704159,
                -0.9736075287213446,
                -0.5993459831560946,
                0.27410907809026064,
                -0.37793543808623653,
                0.3091687374733096
            ]
        },
        {
            "positions": [
                1.4088197013086243,
                -0.9871713862826532,
                -0.6977928767990322,
                0.19268959462700716,
                -0.2972284552569977,
                0.3223729854578013
            ]
        },
        {
            "positions": [
                1.3125147167179119,
                -0.9923276391185452,
                -0.5934340385644812,
                0.15298601442579915,
                -0.26781346069819534,
                0.43067221303295045
            ]
        },
        {
            "positions": [
                1.2162097321271994,
                -0.9974838919544371,
                -0.4890752003299301,
                0.11328243422459115,
                -0.23839846613939294,
                0.5389714406080995
            ]
        },
        {
            "positions": [
                1.1199047475364867,
                -1.002640144790329,
                -0.3847163620953791,
                0.07357885402338314,
                -0.20898347158059055,
                0.6472706681832487
            ]
        },
        {
            "positions": [
                1.0235997629457743,
                -1.007796397626221,
                -0.2803575238608281,
                0.033875273822175145,
                -0.1795684770217882,
                0.7555698957583978
            ]
        },
        {
            "positions": [
                0.9272947783550618,
                -1.0129526504621127,
                -0.17599868562627707,
                -0.005828306379032866,
                -0.1501534824629858,
                0.8638691233335469
            ]
        },
        {
            "positions": [
                0.8309897937643492,
                -1.0181089032980046,
                -0.07163984739172602,
                -0.04553188658024088,
                -0.1207384879041834,
                0.972168350908696
            ]
        },
        {
            "positions": [
                0.7346848091736368,
                -1.0232651561338966,
                0.032718990842825035,
                -0.08523546678144886,
                -0.09132349334538103,
                1.0804675784838451
            ]
        },
        {
            "positions": [
                0.6383798245829242,
                -1.0284214089697885,
                0.1370778290773761,
                -0.12493904698265687,
                -0.06190849878657864,
                1.1887668060589944
            ]
        },
        {
            "positions": [
                0.5420748399922117,
                -1.0335776618056804,
                0.24143666731192703,
                -0.16464262718386483,
                -0.03249350422777625,
                1.2970660336341435
            ]
        },
        {
            "positions": [
                0.44576985540149916,
                -1.0387339146415724,
                0.3457955055464781,
                -0.2043462073850729,
                -0.0030785096689738833,
                1.4053652612092926
            ]
        },
        {
            "positions": [
                0.3494648708107868,
                -1.0438901674774643,
                0.45015434378102914,
                -0.24404978758628085,
                0.026336484889828482,
                1.5136644887844417
            ]
        },
        {
            "positions": [
                0.2531598862200741,
                -1.0490464203133563,
                0.5545131820155802,
                -0.28375336778748894,
                0.0557514794486309,
                1.6219637163595908
            ]
        },
        {
            "positions": [
                0.15685490162936166,
                -1.054202673149248,
                0.6588720202501313,
                -0.32345694798869684,
                0.08516647400743327,
                1.73026294393474
            ]
        },
        {
            "positions": [
                0.060549917038649204,
                -1.05935892598514,
                0.7632308584846823,
                -0.36316052818990485,
                0.11458146856623563,
                1.838562171509889
            ]
        },
        {
            "positions": [
                -0.03575506755206326,
                -1.0645151788210319,
                0.8675896967192331,
                -0.40286410839111275,
                0.143996463125038,
                1.946861399085038
            ]
        },
        {
            "positions": [
                -0.13206005214277594,
                -1.0696714316569238,
                0.9719485349537844,
                -0.4425676885923209,
                0.17341145768384042,
                2.0551606266601876
            ]
        },
        {
            "positions": [
                -0.2283650367334884,
                -1.0748276844928157,
                1.0763073731883355,
                -0.4822712687935289,
                0.20282645224264284,
                2.1634598542353367
            ]
        },
        {
            "positions": [
                -0.32467002132420086,
                -1.0799839373287077,
                1.1806662114228863,
                -0.5219748489947368,
                0.2322414468014452,
                2.271759081810486
            ]
        },
        {
            "positions": [
                -0.4209750059149133,
                -1.0851401901645996,
                1.2850250496574374,
                -0.5616784291959448,
                0.26165644136024757,
                2.3800583093856345
            ]
        },
        {
            "positions": [
                -0.517279990505626,
                -1.0902964430004916,
                1.3893838878919884,
                -0.6013820093971529,
                0.29107143591904994,
                2.488357536960784
            ]
        },
        {
            "positions": [
                -0.6135849750963387,
                -1.0954526958363835,
                1.4937427261265395,
                -0.6410855895983609,
                0.3204864304778523,
                2.596656764535933
            ]
        },
        {
            "positions": [
                -0.7098899596870507,
                -1.1006089486722752,
                1.5981015643610905,
                -0.6807891697995688,
                0.34990142503665467,
                2.704955992111082
            ]
        },
        {
            "positions": [
                -0.8061949442777632,
                -1.1057652015081672,
                1.7024604025956416,
                -0.7204927500007768,
                0.37931641959545703,
                2.8132552196862313
            ]
        },
        {
            "positions": [
                -0.9024999288684761,
                -1.110921454344059,
                1.8068192408301926,
                -0.760196330201985,
                0.4087314141542595,
                2.9215544472613804
            ]
        },
        {
            "positions": [
                -0.9988049134591885,
                -1.116077707179951,
                1.9111780790647437,
                -0.7998999104031929,
                0.4381464087130619,
                3.0298536748365295
            ]
        },
        {
            "positions": [
                -1.095109898049901,
                -1.121233960015843,
                2.0155369172992947,
                -0.8396034906044009,
                0.4675614032718643,
                3.1381529024116785
            ]
        }
    ]
}