{
    "goal": {
        "global_pose": {
            "orientation": {
                "w": 0.7047431493862688,
                "x": -0.7094548369677653,
                "y": 0.0024358444001904,
                "z": -0.0022348060817251984
            },
            "position": {
                "x": -0.39052492380142206,
                "y": 0.3671506643295288,
                "z": 0.19426114857196808
            }
        },
        "name": "move_to_magneteinheit_D"
    },
    "id": "ProjEST_move_to_magneteinheit_D_77",
    "joint_names": [
        "shoulder_pan_joint",
        "shoulder_lift_joint",
        "elbow_joint",
        "wrist_1_joint",
        "wrist_2_joint",
        "wrist_3_joint"
    ],
    "metrics": {
        "cart_traj_len": 4.5875282078734765,
        "distance_elbow_joint": 4.951599773900259,
        "distance_shoulder_lift_joint": 1.633486052352895,
        "distance_shoulder_pan_joint": 3.625992085265294,
        "distance_wrist_1_joint": 2.207776356033884,
        "distance_wrist_2_joint": 0.3293060614661663,
        "distance_wrist_3_joint": 5.113629605978111,
        "smoothness": 0.34313938439306063,
        "time": 0.126184851,
        "traj_len": 4.22632108754134,
        "weighted_distance": 5.534088142092867
    },
    "planner": "ProjEST",
    "start": {
        "state": {
            "elbow_joint": 0.7495348899011973,
            "shoulder_lift_joint": -0.6476975780737697,
            "shoulder_pan_joint": -2.711696901376276,
            "wrist_1_joint": -0.07506478080974305,
            "wrist_2_joint": 0.4329665971545858,
            "wrist_3_joint": 3.1361499051832524
        }
    },
    "waypoints": [
        {
            "positions": [
                -2.711696901376276,
                -0.6476975780737697,
                0.7495348899011973,
                -0.07506478080974305,
                0.4329665971545858,
                3.1361499051832524
            ]
        },
        {
            "positions": [
                -2.729204297388229,
                -0.6911539861860094,
                0.7992946527611084,
                -0.09217898956596945,
                0.43109183430331577,
                2.905039674349467
            ]
        },
        {
            "positions": [
                -2.746711693400181,
                -0.7346103942982491,
                0.8490544156210196,
                -0.10929319832219585,
                0.4292170714520458,
                2.6739294435156813
            ]
        },
        {
            "positions": [
                -2.75578598657682,
                -0.7849839736687284,
                0.9044498330245845,
                -0.12809855328657757,
                0.4281974696128896,
                2.4187795147718267
            ]
        },
        {
            "positions": [
                -2.764860279753459,
                -0.8353575530392077,
                0.9598452504281494,
                -0.1469039082509593,
                0.42717786777373346,
                2.1636295860279726
            ]
        },
        {
            "positions": [
                -2.773934572930098,
                -0.8857311324096868,
                1.0152406678317143,
                -0.16570926321534102,
                0.4261582659345773,
                1.908479657284118
            ]
        },
        {
            "positions": [
                -2.783008866106737,
                -0.9361047117801661,
                1.0706360852352792,
                -0.18451461817972276,
                0.42513866409542117,
                1.6533297285402637
            ]
        },
        {
            "positions": [
                -2.792083159283376,
                -0.9864782911506453,
                1.126031502638844,
                -0.2033199731441045,
                0.424119062256265,
                1.3981797997964092
            ]
        },
        {
            "positions": [
                -2.801157452460015,
                -1.0368518705211245,
                1.181426920042409,
                -0.22212532810848623,
                0.42309946041710883,
                1.1430298710525548
            ]
        },
        {
            "positions": [
                -2.810231745636654,
                -1.0872254498916039,
                1.236822337445974,
                -0.24093068307286797,
                0.42207985857795266,
                0.8878799423087003
            ]
        },
        {
            "positions": [
                -2.819306038813293,
                -1.137599029262083,
                1.2922177548495388,
                -0.25973603803724965,
                0.4210602567387965,
                0.6327300135648461
            ]
        },
        {
            "positions": [
                -2.828380331989932,
                -1.1879726086325624,
                1.3476131722531037,
                -0.27854139300163144,
                0.4200406548996403,
                0.37758008482099115
            ]
        },
        {
            "positions": [
                -2.837454625166571,
                -1.2383461880030415,
                1.4030085896566686,
                -0.2973467479660131,
                0.41902105306048415,
                0.12243015607713703
            ]
        },
        {
            "positions": [
                -2.84652891834321,
                -1.2887197673735207,
                1.4584040070602335,
                -0.31615210293039486,
                0.41800145122132804,
                -0.13271977266671753
            ]
        },
        {
            "positions": [
                -2.855603211519849,
                -1.339093346744,
                1.5137994244637984,
                -0.3349574578947766,
                0.41698184938217187,
                -0.38786970141057164
            ]
        },
        {
            "positions": [
                -2.864677504696488,
                -1.3894669261144794,
                1.5691948418673634,
                -0.35376281285915834,
                0.4159622475430157,
                -0.6430196301544266
            ]
        },
        {
            "positions": [
                -2.873751797873127,
                -1.4398405054849586,
                1.6245902592709283,
                -0.3725681678235401,
                0.4149426457038595,
                -0.8981695588982807
            ]
        },
        {
            "positions": [
                -2.668940373495951,
                -1.4974357517129429,
                1.6441058306111458,
                -0.37425734033935665,
                0.435901443256283,
                -0.9454171846201301
            ]
        },
        {
            "positions": [
                -2.4641289491187752,
                -1.5550309979409271,
                1.663621401951363,
                -0.3759465128551732,
                0.45686024080870646,
                -0.9926648103419796
            ]
        },
        {
            "positions": [
                -2.3574893090311124,
                -1.5794503628602365,
                1.507003775206449,
                -0.3139734474296937,
                0.45079368456423363,
                -0.9537208716036535
            ]
        },
        {
            "positions": [
                -2.2508496689434496,
                -1.603869727779546,
                1.3503861484615347,
                -0.25200038200421415,
                0.4447271283197608,
                -0.9147769328653272
            ]
        },
        {
            "positions": [
                -2.1442100288557864,
                -1.6282890926988554,
                1.1937685217166205,
                -0.1900273165787346,
                0.43866057207528797,
                -0.8758329941270011
            ]
        },
        {
            "positions": [
                -2.0375703887681236,
                -1.652708457618165,
                1.0371508949717063,
                -0.12805425115325506,
                0.43259401583081514,
                -0.8368890553886749
            ]
        },
        {
            "positions": [
                -1.9309307486804608,
                -1.6771278225374744,
                0.880533268226792,
                -0.0660811857277755,
                0.4265274595863423,
                -0.7979451166503487
            ]
        },
        {
            "positions": [
                -1.824291108592798,
                -1.7015471874567838,
                0.7239156414818779,
                -0.004108120302295959,
                0.4204609033418695,
                -0.7590011779120226
            ]
        },
        {
            "positions": [
                -1.7176514685051352,
                -1.7259665523760932,
                0.5672980147369635,
                0.05786494512318363,
                0.41439434709739664,
                -0.7200572391736964
            ]
        },
        {
            "positions": [
                -1.6110118284174724,
                -1.7503859172954026,
                0.41068038799204953,
                0.11983801054866311,
                0.4083277908529238,
                -0.6811133004353702
            ]
        },
        {
            "positions": [
                -1.5043721883298096,
                -1.774805282214712,
                0.25406276124713534,
                0.1818110759741427,
                0.402261234608451,
                -0.6421693616970441
            ]
        },
        {
            "positions": [
                -1.3977325482421465,
                -1.7992246471340216,
                0.09744513450222092,
                0.24378414139962223,
                0.39619467836397815,
                -0.6032254229587178
            ]
        },
        {
            "positions": [
                -1.2910929081544835,
                -1.823644012053331,
                -0.05917249224269305,
                0.30575720682510177,
                0.3901281221195053,
                -0.5642814842203916
            ]
        },
        {
            "positions": [
                -1.1844532680668207,
                -1.8480633769726404,
                -0.21579011898760725,
                0.3677302722505813,
                0.3840615658750325,
                -0.5253375454820655
            ]
        },
        {
            "positions": [
                -1.077813627979158,
                -1.8724827418919499,
                -0.37240774573252167,
                0.42970333767606084,
                0.37799500963055965,
                -0.4863936067437393
            ]
        },
        {
            "positions": [
                -0.9711739878914949,
                -1.8969021068112593,
                -0.5290253724774361,
                0.4916764031015405,
                0.37192845338608677,
                -0.4474496680054131
            ]
        },
        {
            "positions": [
                -0.8645343478038321,
                -1.9213214717305687,
                -0.6856429992223501,
                0.5536494685270199,
                0.365861897141614,
                -0.40850572926708695
            ]
        },
        {
            "positions": [
                -0.7578947077161693,
                -1.945740836649878,
                -0.842260625967264,
                0.6156225339524994,
                0.3597953408971411,
                -0.3695617905287607
            ]
        },
        {
            "positions": [
                -0.6512550676285063,
                -1.9701602015691877,
                -0.9988782527121784,
                0.6775955993779791,
                0.35372878465266827,
                -0.33061785179043457
            ]
        },
        {
            "positions": [
                -0.5446154275408437,
                -1.994579566488497,
                -1.1554958794570924,
                0.7395686648034586,
                0.34766222840819544,
                -0.29167391305210844
            ]
        },
        {
            "positions": [
                -0.43797578745318066,
                -2.0189989314078067,
                -1.3121135062020068,
                0.8015417302289382,
                0.3415956721637226,
                -0.2527299743137822
            ]
        },
        {
            "positions": [
                -0.33133614736551786,
                -2.043418296327116,
                -1.4687311329469213,
                0.8635147956544177,
                0.3355291159192498,
                -0.21378603557545606
            ]
        },
        {
            "positions": [
                -0.22469650727785506,
                -2.0678376612464255,
                -1.6253487596918352,
                0.9254878610798972,
                0.32946255967477694,
                -0.17484209683712992
            ]
        },
        {
            "positions": [
                -0.11805686719019182,
                -2.092257026165735,
                -1.7819663864367492,
                0.9874609265053768,
                0.3233960034303041,
                -0.13589815809880368
            ]
        },
        {
            "positions": [
                -0.011417227102529015,
                -2.1166763910850444,
                -1.9385840131816636,
                1.0494339919308562,
                0.3173294471858313,
                -0.09695421936047743
            ]
        },
        {
            "positions": [
                0.09522241298513379,
                -2.1410957560043538,
                -2.095201639926578,
                1.111407057356336,
                0.31126289094135845,
                -0.05801028062215141
            ]
        },
        {
            "positions": [
                0.20186205307279648,
                -2.165515120923663,
                -2.251819266671492,
                1.1733801227818155,
                0.3051963346968856,
                -0.019066341883825166
            ]
        },
        {
            "positions": [
                0.07242094046529013,
                -2.204071290757997,
                -2.292510131080571,
                1.292569452232304,
                0.2659627984306282,
                -0.015327534552248624
            ]
        },
        {
            "positions": [
                -0.05702017214221622,
                -2.2426274605923306,
                -2.3332009954896495,
                1.4117587816827921,
                0.2267292621643708,
                -0.011588727220672081
            ]
        },
        {
            "positions": [
                -0.18646128474972254,
                -2.2811836304266646,
                -2.3738918598987286,
                1.5309481111332806,
                0.1874957258981134,
                -0.007849919889095537
            ]
        }
    ]
}