{
    "goal": {
        "global_pose": {
            "orientation": {
                "w": 0.5084816217422485,
                "x": -0.49083608388900757,
                "y": 0.5182115435600281,
                "z": -0.4816462993621826
            },
            "position": {
                "x": 0.5540239810943604,
                "y": 0.030875300988554955,
                "z": 0.16403168439865112
            }
        },
        "name": "move_to_storage_A"
    },
    "id": "ProjEST_move_to_storage_A_49",
    "joint_names": [
        "shoulder_pan_joint",
        "shoulder_lift_joint",
        "elbow_joint",
        "wrist_1_joint",
        "wrist_2_joint",
        "wrist_3_joint"
    ],
    "metrics": {
        "cart_traj_len": 0.35364883396958435,
        "distance_elbow_joint": 0.4477067900605882,
        "distance_shoulder_lift_joint": 0.23429501865464264,
        "distance_shoulder_pan_joint": 0.4632169174048322,
        "distance_wrist_1_joint": 0.23616994719181983,
        "distance_wrist_2_joint": 1.095992023160702,
        "distance_wrist_3_joint": 0.1053823342667437,
        "smoothness": 4.440892098500626e-16,
        "time": 0.070929141,
        "traj_len": 1.6070977041671515,
        "weighted_distance": 2.031179378987818
    },
    "planner": "ProjEST",
    "start": {
        "state": {
            "elbow_joint": 1.9715474177455299,
            "shoulder_lift_joint": -1.139484666580328,
            "shoulder_pan_joint": 0.12281154398918248,
            "wrist_1_joint": -0.7804687475355282,
            "wrist_2_joint": 0.12958649657246987,
            "wrist_3_joint": -3.1924925159053466
        }
    },
    "waypoints": [
        {
            "positions": [
                0.12281154398918248,
                -1.139484666580328,
                1.9715474177455299,
                -0.7804687475355282,
                0.12958649657246987,
                -3.1924925159053466
            ]
        },
        {
            "positions": [
                0.05663769864563503,
                -1.1729553835309912,
                2.0355055306113283,
                -0.8142073114200739,
                0.28615678559542734,
                -3.177437896724383
            ]
        },
        {
            "positions": [
                -0.009536146697912418,
                -1.2064261004816546,
                2.0994636434771263,
                -0.8479458753046196,
                0.4427270746183848,
                -3.16238327754342
            ]
        },
        {
            "positions": [
                -0.07570999204145987,
                -1.2398968174323177,
                2.1634217563429248,
                -0.8816844391891653,
                0.5992973636413422,
                -3.1473286583624565
            ]
        },
        {
            "positions": [
                -0.14188383738500732,
                -1.273367534382981,
                2.227379869208723,
                -0.9154230030737109,
                0.7558676526642998,
                -3.132274039181493
            ]
        },
        {
            "positions": [
                -0.2080576827285548,
                -1.306838251333644,
                2.2913379820745217,
                -0.9491615669582567,
                0.9124379416872573,
                -3.1172194200005294
            ]
        },
        {
            "positions": [
                -0.2742315280721022,
                -1.3403089682843075,
                2.3552960949403197,
                -0.9829001308428023,
                1.0690082307102147,
                -3.1021648008195664
            ]
        },
        {
            "positions": [
                -0.3404053734156497,
                -1.3737796852349706,
                2.419254207806118,
                -1.016638694727348,
                1.2255785197331721,
                -3.087110181638603
            ]
        }
    ]
}