{
    "goal": {
        "global_pose": {
            "orientation": {
                "w": 0.5084816262002911,
                "x": -0.4908360881923452,
                "y": 0.5182115481033761,
                "z": -0.48164630358495003
            },
            "position": {
                "x": 0.5540239810943604,
                "y": -0.46912469901144505,
                "z": 0.16403168439865112
            }
        },
        "name": "move_to_storage_B"
    },
    "id": "ProjEST_move_to_storage_B_69",
    "joint_names": [
        "shoulder_pan_joint",
        "shoulder_lift_joint",
        "elbow_joint",
        "wrist_1_joint",
        "wrist_2_joint",
        "wrist_3_joint"
    ],
    "metrics": {
        "cart_traj_len": 4.372597915741692,
        "distance_elbow_joint": 4.136868626658677,
        "distance_shoulder_lift_joint": 0.4576013997009394,
        "distance_shoulder_pan_joint": 4.785555333549379,
        "distance_wrist_1_joint": 4.941863920753604,
        "distance_wrist_2_joint": 4.820109815284505,
        "distance_wrist_3_joint": 3.133022415432822,
        "smoothness": 0.3680345936291084,
        "time": 0.111192684,
        "traj_len": 4.719642095686909,
        "weighted_distance": 6.188944989114353
    },
    "planner": "ProjEST",
    "start": {
        "state": {
            "elbow_joint": 1.6649325706314817,
            "shoulder_lift_joint": -0.6616388048112454,
            "shoulder_pan_joint": -0.9139837860083814,
            "wrist_1_joint": 2.146757197745094,
            "wrist_2_joint": -2.234196043158733,
            "wrist_3_joint": 0.005471033829999897
        }
    },
    "waypoints": [
        {
            "positions": [
                -0.9139837860083814,
                -0.6616388048112454,
                1.6649325706314817,
                2.146757197745094,
                -2.234196043158733,
                0.005471033829999897
            ]
        },
        {
            "positions": [
                -0.7928338692265906,
                -0.6717952793003321,
                1.5652945553680562,
                2.1978969601079346,
                -2.289993259693911,
                -0.03758186565485833
            ]
        },
        {
            "positions": [
                -0.6716839524447997,
                -0.6819517537894187,
                1.4656565401046304,
                2.2490367224707746,
                -2.3457904762290895,
                -0.08063476513971655
            ]
        },
        {
            "positions": [
                -0.550534035663009,
                -0.6921082282785055,
                1.3660185248412047,
                2.300176484833615,
                -2.4015876927642683,
                -0.12368766462457477
            ]
        },
        {
            "positions": [
                -0.4293841188812182,
                -0.7022647027675921,
                1.2663805095777791,
                2.3513162471964555,
                -2.4573849092994466,
                -0.16674056410943303
            ]
        },
        {
            "positions": [
                -0.3082342020994273,
                -0.7124211772566789,
                1.1667424943143536,
                2.4024560095592955,
                -2.513182125834625,
                -0.20979346359429124
            ]
        },
        {
            "positions": [
                -0.18708428531763655,
                -0.7225776517457655,
                1.0671044790509279,
                2.453595771922136,
                -2.5689793423698033,
                -0.2528463630791494
            ]
        },
        {
            "positions": [
                -0.06593436853584578,
                -0.7327341262348522,
                0.9674664637875022,
                2.5047355342849764,
                -2.6247765589049816,
                -0.29589926256400767
            ]
        },
        {
            "positions": [
                0.05521554824594499,
                -0.742890600723939,
                0.8678284485240766,
                2.5558752966478164,
                -2.6805737754401604,
                -0.3389521620488659
            ]
        },
        {
            "positions": [
                0.17636546502773587,
                -0.7530470752130256,
                0.768190433260651,
                2.607015059010657,
                -2.7363709919753387,
                -0.38200506153372416
            ]
        },
        {
            "positions": [
                0.29751538180952675,
                -0.7632035497021123,
                0.6685524179972253,
                2.6581548213734973,
                -2.792168208510517,
                -0.42505796101858234
            ]
        },
        {
            "positions": [
                0.4186652985913176,
                -0.773360024191199,
                0.5689144027337996,
                2.7092945837363374,
                -2.8479654250456954,
                -0.46811086050344064
            ]
        },
        {
            "positions": [
                0.5398152153731083,
                -0.7835164986802857,
                0.46927638747037403,
                2.760434346099178,
                -2.903762641580874,
                -0.5111637599882988
            ]
        },
        {
            "positions": [
                0.6609651321548992,
                -0.7936729731693724,
                0.3696383722069483,
                2.8115741084620183,
                -2.9595598581160525,
                -0.5542166594731571
            ]
        },
        {
            "positions": [
                0.7821150489366898,
                -0.8038294476584591,
                0.27000035694352276,
                2.8627138708248587,
                -3.015357074651231,
                -0.5972695589580153
            ]
        },
        {
            "positions": [
                0.9032649657184807,
                -0.8139859221475458,
                0.170362341680097,
                2.9138536331876987,
                -3.071154291186409,
                -0.6403224584428736
            ]
        },
        {
            "positions": [
                1.0244148825002712,
                -0.8241423966366325,
                0.07072432641667148,
                2.964993395550539,
                -3.1269515077215875,
                -0.6833753579277317
            ]
        },
        {
            "positions": [
                1.1455647992820621,
                -0.8342988711257192,
                -0.02891368884675427,
                3.0161331579133797,
                -3.182748724256766,
                -0.72642825741259
            ]
        },
        {
            "positions": [
                1.266714716063853,
                -0.8444553456148058,
                -0.1285517041101798,
                3.0672729202762197,
                -3.238545940791944,
                -0.7694811568974482
            ]
        },
        {
            "positions": [
                1.3878646328456439,
                -0.8546118201038926,
                -0.22818971937360555,
                3.11841268263906,
                -3.294343157327123,
                -0.8125340563823065
            ]
        },
        {
            "positions": [
                1.3225039245641874,
                -0.8615757249567424,
                -0.16914376314587956,
                3.013933513274333,
                -3.195396770455646,
                -0.8734555649407411
            ]
        },
        {
            "positions": [
                1.2571432162827307,
                -0.8685396298095922,
                -0.11009780691815356,
                2.9094543439096054,
                -3.0964503835841697,
                -0.9343770734991756
            ]
        },
        {
            "positions": [
                1.1917825080012743,
                -0.875503534662442,
                -0.05105185069042756,
                2.8049751745448783,
                -2.997503996712693,
                -0.9952985820576103
            ]
        },
        {
            "positions": [
                1.1264217997198178,
                -0.8824674395152917,
                0.00799410553729843,
                2.700496005180151,
                -2.898557609841216,
                -1.056220090616045
            ]
        },
        {
            "positions": [
                1.0610610914383614,
                -0.8894313443681415,
                0.06704006176502442,
                2.5960168358154236,
                -2.7996112229697396,
                -1.1171415991744795
            ]
        },
        {
            "positions": [
                0.9957003831569047,
                -0.8963952492209913,
                0.12608601799275043,
                2.4915376664506965,
                -2.700664836098263,
                -1.1780631077329142
            ]
        },
        {
            "positions": [
                0.9303396748754482,
                -0.9033591540738412,
                0.1851319742204764,
                2.3870584970859694,
                -2.601718449226786,
                -1.2389846162913487
            ]
        },
        {
            "positions": [
                0.8649789665939916,
                -0.910323058926691,
                0.2441779304482024,
                2.282579327721242,
                -2.5027720623553096,
                -1.2999061248497834
            ]
        },
        {
            "positions": [
                0.7996182583125352,
                -0.9172869637795407,
                0.30322388667592837,
                2.1781001583565147,
                -2.4038256754838327,
                -1.3608276334082179
            ]
        },
        {
            "positions": [
                0.7342575500310786,
                -0.9242508686323905,
                0.3622698429036544,
                2.073620988991787,
                -2.304879288612356,
                -1.4217491419666526
            ]
        },
        {
            "positions": [
                0.668896841749622,
                -0.9312147734852403,
                0.4213157991313804,
                1.96914181962706,
                -2.205932901740879,
                -1.4826706505250873
            ]
        },
        {
            "positions": [
                0.6035361334681656,
                -0.9381786783380901,
                0.4803617553591064,
                1.8646626502623327,
                -2.1069865148694027,
                -1.5435921590835218
            ]
        },
        {
            "positions": [
                0.538175425186709,
                -0.9451425831909399,
                0.5394077115868324,
                1.7601834808976053,
                -2.008040127997926,
                -1.6045136676419567
            ]
        },
        {
            "positions": [
                0.47281471690525256,
                -0.9521064880437897,
                0.5984536678145583,
                1.6557043115328782,
                -1.9090937411264493,
                -1.6654351762003912
            ]
        },
        {
            "positions": [
                0.4074540086237959,
                -0.9590703928966395,
                0.6574996240422845,
                1.5512251421681509,
                -1.8101473542549724,
                -1.7263566847588256
            ]
        },
        {
            "positions": [
                0.3420933003423394,
                -0.9660342977494892,
                0.7165455802700104,
                1.4467459728034238,
                -1.711200967383496,
                -1.7872781933172603
            ]
        },
        {
            "positions": [
                0.27673259206088296,
                -0.972998202602339,
                0.7755915364977364,
                1.3422668034386962,
                -1.6122545805120192,
                -1.848199701875695
            ]
        },
        {
            "positions": [
                0.2113718837794265,
                -0.9799621074551889,
                0.8346374927254623,
                1.237787634073969,
                -1.5133081936405426,
                -1.9091212104341295
            ]
        },
        {
            "positions": [
                0.14601117549796983,
                -0.9869260123080387,
                0.8936834489531884,
                1.1333084647092417,
                -1.4143618067690658,
                -1.9700427189925642
            ]
        },
        {
            "positions": [
                0.08065046721651337,
                -0.9938899171608885,
                0.9527294051809143,
                1.0288292953445146,
                -1.3154154198975891,
                -2.0309642275509985
            ]
        },
        {
            "positions": [
                0.015289758935056685,
                -1.0008538220137382,
                1.0117753614086404,
                0.924350125979787,
                -1.216469033026112,
                -2.0918857361094334
            ]
        },
        {
            "positions": [
                -0.05007094934639977,
                -1.007817726866588,
                1.0708213176363663,
                0.8198709566150599,
                -1.1175226461546357,
                -2.1528072446678683
            ]
        },
        {
            "positions": [
                -0.11543165762785623,
                -1.0147816317194378,
                1.1298672738640925,
                0.7153917872503328,
                -1.0185762592831589,
                -2.2137287532263024
            ]
        },
        {
            "positions": [
                -0.1807923659093127,
                -1.0217455365722876,
                1.1889132300918184,
                0.6109126178856052,
                -0.9196298724116825,
                -2.2746502617847373
            ]
        },
        {
            "positions": [
                -0.24615307419076937,
                -1.0287094414251374,
                1.2479591863195445,
                0.5064334485208777,
                -0.8206834855402052,
                -2.335571770343172
            ]
        },
        {
            "positions": [
                -0.31151378247222583,
                -1.0356733462779872,
                1.3070051425472704,
                0.40195427915615056,
                -0.7217370986687288,
                -2.3964932789016067
            ]
        },
        {
            "positions": [
                -0.3768744907536823,
                -1.042637251130837,
                1.3660510987749963,
                0.29747510979142344,
                -0.6227907117972524,
                -2.457414787460041
            ]
        },
        {
            "positions": [
                -0.44223519903513875,
                -1.0496011559836869,
                1.4250970550027222,
                0.19299594042669632,
                -0.5238443249257756,
                -2.5183362960184756
            ]
        },
        {
            "positions": [
                -0.5075959073165957,
                -1.0565650608365367,
                1.4841430112304486,
                0.08851677106196876,
                -0.42489793805429876,
                -2.5792578045769106
            ]
        },
        {
            "positions": [
                -0.5729566155980521,
                -1.0635289656893865,
                1.5431889674581745,
                -0.015962398302758363,
                -0.32595155118282193,
                -2.640179313135345
            ]
        },
        {
            "positions": [
                -0.6383173238795083,
                -1.0704928705422363,
                1.6022349236859004,
                -0.12044156766748548,
                -0.22700516431134554,
                -2.7011008216937795
            ]
        },
        {
            "positions": [
                -0.703678032160965,
                -1.0774567753950859,
                1.6612808799136263,
                -0.2249207370322126,
                -0.12805877743986915,
                -2.762022330252214
            ]
        },
        {
            "positions": [
                -0.7690387404424217,
                -1.0844206802479357,
                1.7203268361413524,
                -0.32939990639694017,
                -0.029112390568391877,
                -2.822943838810649
            ]
        },
        {
            "positions": [
                -0.834399448723878,
                -1.0913845851007855,
                1.7793727923690783,
                -0.43387907576166773,
                0.06983399630308451,
                -2.883865347369084
            ]
        },
        {
            "positions": [
                -0.8997601570053346,
                -1.0983484899536353,
                1.8384187485968044,
                -0.5383582451263949,
                0.16878038317456134,
                -2.944786855927518
            ]
        },
        {
            "positions": [
                -0.9651208652867909,
                -1.1053123948064851,
                1.8974647048245301,
                -0.642837414491122,
                0.26772677004603773,
                -3.005708364485953
            ]
        },
        {
            "positions": [
                -1.030481573568248,
                -1.112276299659335,
                1.9565106610522562,
                -0.7473165838558495,
                0.366673156917515,
                -3.0666298730443877
            ]
        },
        {
            "positions": [
                -1.0958422818497042,
                -1.1192402045121848,
                2.0155566172799824,
                -0.8517957532205768,
                0.4656195437889914,
                -3.1275513816028218
            ]
        }
    ]
}