{
    "goal": {
        "global_pose": {
            "orientation": {
                "w": 0.7047431493862688,
                "x": -0.7094548369677653,
                "y": 0.0024358444001904,
                "z": -0.0022348060817251984
            },
            "position": {
                "x": -0.39052492380142206,
                "y": 0.3671506643295288,
                "z": 0.19426114857196808
            }
        },
        "name": "move_to_magneteinheit_D"
    },
    "id": "ProjEST_move_to_magneteinheit_D_108",
    "joint_names": [
        "shoulder_pan_joint",
        "shoulder_lift_joint",
        "elbow_joint",
        "wrist_1_joint",
        "wrist_2_joint",
        "wrist_3_joint"
    ],
    "metrics": {
        "cart_traj_len": 5.69879495607883,
        "distance_elbow_joint": 4.2202579833903044,
        "distance_shoulder_lift_joint": 1.633079502212,
        "distance_shoulder_pan_joint": 4.9762607860424115,
        "distance_wrist_1_joint": 5.98602550232687,
        "distance_wrist_2_joint": 0.8332061665748856,
        "distance_wrist_3_joint": 3.1460671230283843,
        "smoothness": 0.40920716169150845,
        "time": 0.160870802,
        "traj_len": 4.560142219665397,
        "weighted_distance": 5.822908463863517
    },
    "planner": "ProjEST",
    "start": {
        "state": {
            "elbow_joint": 0.7495348899011973,
            "shoulder_lift_joint": -0.6476975780737697,
            "shoulder_pan_joint": -2.711696901376276,
            "wrist_1_joint": -0.07506478080974305,
            "wrist_2_joint": 0.4329665971545858,
            "wrist_3_joint": 3.1361499051832524
        }
    },
    "waypoints": [
        {
            "positions": [
                -2.711696901376276,
                -0.6476975780737697,
                0.7495348899011973,
                -0.07506478080974305,
                0.4329665971545858,
                3.1361499051832524
            ]
        },
        {
            "positions": [
                -2.7293949144384313,
                -0.6798737672123022,
                0.7664565981778636,
                0.13714359059675163,
                0.46195756987836617,
                3.082425515091976
            ]
        },
        {
            "positions": [
                -2.747092927500586,
                -0.7120499563508347,
                0.7833783064545299,
                0.3493519620032463,
                0.4909485426021466,
                3.0287011250007
            ]
        },
        {
            "positions": [
                -2.764790940562741,
                -0.7442261454893672,
                0.8003000147311962,
                0.561560333409741,
                0.519939515325927,
                2.9749767349094234
            ]
        },
        {
            "positions": [
                -2.7824889536248962,
                -0.7764023346278996,
                0.8172217230078624,
                0.7737687048162356,
                0.5489304880497073,
                2.9212523448181473
            ]
        },
        {
            "positions": [
                -2.8001869666870514,
                -0.8085785237664322,
                0.8341434312845286,
                0.9859770762227302,
                0.5779214607734877,
                2.867527954726871
            ]
        },
        {
            "positions": [
                -2.817884979749206,
                -0.8407547129049646,
                0.8510651395611949,
                1.1981854476292249,
                0.6069124334972681,
                2.8138035646355943
            ]
        },
        {
            "positions": [
                -2.835582992811361,
                -0.8729309020434972,
                0.8679868478378612,
                1.4103938190357195,
                0.6359034062210485,
                2.7600791745443183
            ]
        },
        {
            "positions": [
                -2.8532810058735163,
                -0.9051070911820297,
                0.8849085561145275,
                1.6226021904422143,
                0.664894378944829,
                2.706354784453042
            ]
        },
        {
            "positions": [
                -2.870979018935671,
                -0.9372832803205622,
                0.9018302643911937,
                1.834810561848709,
                0.6938853516686093,
                2.6526303943617657
            ]
        },
        {
            "positions": [
                -2.888677031997826,
                -0.9694594694590947,
                0.91875197266786,
                2.047018933255204,
                0.7228763243923897,
                2.5989060042704892
            ]
        },
        {
            "positions": [
                -2.7276703640731825,
                -1.008060158110602,
                0.8871606202284427,
                2.018320053459756,
                0.7135056573866035,
                2.4801204613246806
            ]
        },
        {
            "positions": [
                -2.5666636961485394,
                -1.046660846762109,
                0.8555692677890254,
                1.9896211736643077,
                0.7041349903808174,
                2.3613349183788723
            ]
        },
        {
            "positions": [
                -2.405657028223896,
                -1.0852615354136161,
                0.8239779153496081,
                1.9609222938688595,
                0.6947643233750312,
                2.2425493754330637
            ]
        },
        {
            "positions": [
                -2.2635926203529593,
                -1.1118972755781829,
                0.8404981915807317,
                1.8693590392896824,
                0.681980047116002,
                2.1448551207783626
            ]
        },
        {
            "positions": [
                -2.1215282124820223,
                -1.1385330157427496,
                0.8570184678118553,
                1.777795784710505,
                0.6691957708569727,
                2.047160866123662
            ]
        },
        {
            "positions": [
                -1.9794638046110857,
                -1.1651687559073163,
                0.8735387440429789,
                1.686232530131328,
                0.6564114945979435,
                1.949466611468961
            ]
        },
        {
            "positions": [
                -1.8373993967401492,
                -1.1918044960718828,
                0.8900590202741027,
                1.5946692755521505,
                0.6436272183389141,
                1.8517723568142601
            ]
        },
        {
            "positions": [
                -1.6953349888692124,
                -1.2184402362364495,
                0.9065792965052263,
                1.5031060209729734,
                0.6308429420798849,
                1.7540781021595593
            ]
        },
        {
            "positions": [
                -1.5532705809982756,
                -1.2450759764010162,
                0.9230995727363499,
                1.4115427663937963,
                0.6180586658208556,
                1.6563838475048585
            ]
        },
        {
            "positions": [
                -1.411206173127339,
                -1.271711716565583,
                0.9396198489674735,
                1.319979511814619,
                0.6052743895618263,
                1.5586895928501576
            ]
        },
        {
            "positions": [
                -1.2691417652564023,
                -1.2983474567301496,
                0.9561401251985971,
                1.2284162572354416,
                0.592490113302797,
                1.4609953381954566
            ]
        },
        {
            "positions": [
                -1.1270773573854656,
                -1.3249831968947163,
                0.9726604014297209,
                1.1368530026562644,
                0.5797058370437678,
                1.3633010835407557
            ]
        },
        {
            "positions": [
                -0.985012949514529,
                -1.351618937059283,
                0.9891806776608445,
                1.0452897480770873,
                0.5669215607847384,
                1.265606828886055
            ]
        },
        {
            "positions": [
                -0.8429485416435922,
                -1.3782546772238495,
                1.0057009538919681,
                0.9537264934979099,
                0.5541372845257092,
                1.1679125742313539
            ]
        },
        {
            "positions": [
                -0.7008841337726557,
                -1.4048904173884162,
                1.0222212301230917,
                0.8621632389187328,
                0.54135300826668,
                1.0702183195766533
            ]
        },
        {
            "positions": [
                -0.5588197259017191,
                -1.431526157552983,
                1.0387415063542154,
                0.7705999843395557,
                0.5285687320076506,
                0.9725240649219524
            ]
        },
        {
            "positions": [
                -0.41675531803078214,
                -1.4581618977175497,
                1.055261782585339,
                0.6790367297603783,
                0.5157844557486213,
                0.8748298102672514
            ]
        },
        {
            "positions": [
                -0.27469091015984537,
                -1.4847976378821164,
                1.0717820588164626,
                0.587473475181201,
                0.5030001794895921,
                0.7771355556125505
            ]
        },
        {
            "positions": [
                -0.13262650228890882,
                -1.511433378046683,
                1.0883023350475862,
                0.49591022060202383,
                0.49021590323056285,
                0.6794413009578497
            ]
        },
        {
            "positions": [
                0.009437905582027728,
                -1.5380691182112498,
                1.1048226112787098,
                0.4043469660228467,
                0.4774316269715335,
                0.5817470463031489
            ]
        },
        {
            "positions": [
                0.15150231345296472,
                -1.5647048583758165,
                1.1213428875098335,
                0.31278371144366934,
                0.4646473507125043,
                0.48405279164844783
            ]
        },
        {
            "positions": [
                0.29356672132390127,
                -1.5913405985403832,
                1.1378631637409573,
                0.2212204568644922,
                0.45186307445347496,
                0.386358536993747
            ]
        },
        {
            "positions": [
                0.4356311291948378,
                -1.61797633870495,
                1.154383439972081,
                0.12965720228531508,
                0.43907879819444573,
                0.2886642823390462
            ]
        },
        {
            "positions": [
                0.5776955370657744,
                -1.6446120788695164,
                1.1709037162032045,
                0.03809394770613772,
                0.42629452193541645,
                0.19097002768434512
            ]
        },
        {
            "positions": [
                0.7197599449367114,
                -1.6712478190340831,
                1.1874239924343282,
                -0.053469306873039635,
                0.41351024567638717,
                0.09327577302964407
            ]
        },
        {
            "positions": [
                0.861824352807648,
                -1.6978835591986499,
                1.2039442686654518,
                -0.14503256145221688,
                0.4007259694173579,
                -0.004418481625056647
            ]
        },
        {
            "positions": [
                0.8035588377734598,
                -1.7302665325923787,
                1.005260908110477,
                -0.05214976736585562,
                0.38844007584168844,
                -0.004723966970616228
            ]
        },
        {
            "positions": [
                0.7452933227392717,
                -1.7626495059861076,
                0.8065775475555022,
                0.04073302672050563,
                0.376154182266019,
                -0.005029452316175808
            ]
        },
        {
            "positions": [
                0.6870278077050835,
                -1.7950324793798365,
                0.6078941870005274,
                0.1336158208068669,
                0.3638682886903496,
                -0.005334937661735388
            ]
        },
        {
            "positions": [
                0.6287622926708953,
                -1.8274154527735653,
                0.4092108264455526,
                0.22649861489322815,
                0.35158239511468015,
                -0.005640423007294969
            ]
        },
        {
            "positions": [
                0.5704967776367071,
                -1.8597984261672942,
                0.2105274658905777,
                0.3193814089795895,
                0.3392965015390107,
                -0.005945908352854549
            ]
        },
        {
            "positions": [
                0.5122312626025189,
                -1.892181399561023,
                0.011844105335603095,
                0.4122642030659507,
                0.32701060796334125,
                -0.0062513936984141295
            ]
        },
        {
            "positions": [
                0.4539657475683308,
                -1.924564372954752,
                -0.18683925521937184,
                0.505146997152312,
                0.3147247143876718,
                -0.00655687904397371
            ]
        },
        {
            "positions": [
                0.39570023253414266,
                -1.956947346348481,
                -0.38552261577434654,
                0.5980297912386732,
                0.30243882081200235,
                -0.00686236438953329
            ]
        },
        {
            "positions": [
                0.33743471749995446,
                -1.9893303197422099,
                -0.5842059763293215,
                0.6909125853250345,
                0.2901529272363329,
                -0.007167849735092871
            ]
        },
        {
            "positions": [
                0.27916920246576626,
                -2.0217132931359387,
                -0.7828893368842964,
                0.7837953794113959,
                0.27786703366066345,
                -0.007473335080652451
            ]
        },
        {
            "positions": [
                0.22090368743157807,
                -2.0540962665296676,
                -0.9815726974392713,
                0.8766781734977572,
                0.265581140084994,
                -0.0077788204262120315
            ]
        },
        {
            "positions": [
                0.16263817239738998,
                -2.0864792399233965,
                -1.1802560579942456,
                0.9695609675841182,
                0.2532952465093246,
                -0.008084305771771612
            ]
        },
        {
            "positions": [
                0.10437265736320178,
                -2.1188622133171253,
                -1.3789394185492208,
                1.0624437616704796,
                0.24100935293365516,
                -0.008389791117331192
            ]
        },
        {
            "positions": [
                0.046107142329013584,
                -2.151245186710854,
                -1.5776227791041955,
                1.155326555756841,
                0.22872345935798571,
                -0.008695276462890773
            ]
        },
        {
            "positions": [
                -0.012158372705174614,
                -2.183628160104583,
                -1.7763061396591706,
                1.248209349843202,
                0.21643756578231627,
                -0.009000761808450353
            ]
        },
        {
            "positions": [
                -0.0704238877393627,
                -2.216011133498312,
                -1.9749895002141449,
                1.341092143929563,
                0.20415167220664684,
                -0.009306247154009933
            ]
        },
        {
            "positions": [
                -0.1286894027735509,
                -2.2483941068920408,
                -2.17367286076912,
                1.4339749380159246,
                0.1918657786309774,
                -0.009611732499569514
            ]
        },
        {
            "positions": [
                -0.186954917807739,
                -2.2807770802857696,
                -2.3723562213240945,
                1.526857732102286,
                0.17957988505530795,
                -0.009917217845129094
            ]
        }
    ]
}