{
    "goal": {
        "global_pose": {
            "orientation": {
                "w": 0.7047431468963623,
                "x": -0.7094548344612122,
                "y": 0.0024358443915843964,
                "z": -0.0022348060738295317
            },
            "position": {
                "x": 0.6094750761985779,
                "y": 0.3671506643295288,
                "z": 0.19426114857196808
            }
        },
        "name": "move_to_magneteinheit_A"
    },
    "id": "ProjEST_move_to_magneteinheit_A_43",
    "joint_names": [
        "shoulder_pan_joint",
        "shoulder_lift_joint",
        "elbow_joint",
        "wrist_1_joint",
        "wrist_2_joint",
        "wrist_3_joint"
    ],
    "metrics": {
        "cart_traj_len": 1.0541130534192475,
        "distance_elbow_joint": 0.38417815712917536,
        "distance_shoulder_lift_joint": 0.36613337661686707,
        "distance_shoulder_pan_joint": 1.2421376129914723,
        "distance_wrist_1_joint": 2.2257231180017834,
        "distance_wrist_2_joint": 1.694235606223693,
        "distance_wrist_3_joint": 1.2182902095226802,
        "smoothness": 1.8698493194378823e-16,
        "time": 0.041021835,
        "traj_len": 2.6703366979625756,
        "weighted_distance": 3.672497409632375
    },
    "planner": "ProjEST",
    "start": {
        "state": {
            "elbow_joint": 1.5739458966750683,
            "shoulder_lift_joint": -1.4977259741207325,
            "shoulder_pan_joint": -1.1188672016454206,
            "wrist_1_joint": 1.494575848278785,
            "wrist_2_joint": -1.5706037134824402,
            "wrist_3_joint": -2.0226957942261072
        }
    },
    "waypoints": [
        {
            "positions": [
                -1.1188672016454206,
                -1.4977259741207325,
                1.5739458966750683,
                1.494575848278785,
                -1.5706037134824402,
                -2.0226957942261072
            ]
        },
        {
            "positions": [
                -1.0498595564792277,
                -1.477385230975351,
                1.5952891276266892,
                1.3709245639453527,
                -1.4764795131366795,
                -2.090378583644034
            ]
        },
        {
            "positions": [
                -0.9808519113130348,
                -1.4570444878299695,
                1.61663235857831,
                1.2472732796119201,
                -1.3823553127909187,
                -2.1580613730619604
            ]
        },
        {
            "positions": [
                -0.911844266146842,
                -1.436703744684588,
                1.6379755895299308,
                1.1236219952784878,
                -1.2882311124451582,
                -2.225744162479887
            ]
        },
        {
            "positions": [
                -0.842836620980649,
                -1.4163630015392066,
                1.6593188204815517,
                0.9999707109450553,
                -1.1941069120993975,
                -2.293426951897814
            ]
        },
        {
            "positions": [
                -0.7738289758144561,
                -1.3960222583938249,
                1.6806620514331727,
                0.8763194266116229,
                -1.0999827117536367,
                -2.3611097413157407
            ]
        },
        {
            "positions": [
                -0.7048213306482632,
                -1.3756815152484434,
                1.7020052823847935,
                0.7526681422781906,
                -1.005858511407876,
                -2.4287925307336673
            ]
        },
        {
            "positions": [
                -0.6358136854820703,
                -1.355340772103062,
                1.7233485133364144,
                0.6290168579447581,
                -0.9117343110621151,
                -2.496475320151594
            ]
        },
        {
            "positions": [
                -0.5668060403158774,
                -1.3350000289576804,
                1.7446917442880352,
                0.5053655736113257,
                -0.8176101107163545,
                -2.5641581095695205
            ]
        },
        {
            "positions": [
                -0.4977983951496845,
                -1.314659285812299,
                1.766034975239656,
                0.3817142892778933,
                -0.7234859103705937,
                -2.6318408989874476
            ]
        },
        {
            "positions": [
                -0.42879074998349154,
                -1.2943185426669175,
                1.7873782061912769,
                0.25806300494446077,
                -0.629361710024833,
                -2.699523688405374
            ]
        },
        {
            "positions": [
                -0.3597831048172986,
                -1.273977799521536,
                1.8087214371428977,
                0.13441172061102846,
                -0.5352375096790722,
                -2.7672064778233008
            ]
        },
        {
            "positions": [
                -0.29077545965110585,
                -1.2536370563761545,
                1.8300646680945185,
                0.010760436277596153,
                -0.4411133093333117,
                -2.8348892672412274
            ]
        },
        {
            "positions": [
                -0.2217678144849129,
                -1.233296313230773,
                1.8514078990461393,
                -0.11289084805583638,
                -0.346989108987551,
                -2.902572056659154
            ]
        },
        {
            "positions": [
                -0.15276016931871994,
                -1.2129555700853913,
                1.8727511299977602,
                -0.2365421323892687,
                -0.25286490864179,
                -2.9702548460770806
            ]
        },
        {
            "positions": [
                -0.08375252415252699,
                -1.1926148269400099,
                1.8940943609493812,
                -0.3601934167227012,
                -0.15874070829602926,
                -3.037937635495007
            ]
        },
        {
            "positions": [
                -0.014744878986334253,
                -1.1722740837946284,
                1.915437591901002,
                -0.48384470105613353,
                -0.06461650795026874,
                -3.105620424912934
            ]
        },
        {
            "positions": [
                0.0542627661798587,
                -1.151933340649247,
                1.9367808228526229,
                -0.6074959853895658,
                0.029507692395492002,
                -3.173303214330861
            ]
        },
        {
            "positions": [
                0.1232704113460516,
                -1.1315925975038654,
                1.9581240538042437,
                -0.7311472697229984,
                0.12363189274125277,
                -3.2409860037487874
            ]
        }
    ]
}