{
    "goal": {
        "global_pose": {
            "orientation": {
                "w": -0.00223480608172531,
                "x": 0.0024358444001904467,
                "y": 0.7094548369677653,
                "z": -0.704743149386269
            },
            "position": {
                "x": -0.37947507619857795,
                "y": -0.6371506643295288,
                "z": 0.19426114857196808
            }
        },
        "name": "move_to_magneteinheit_C"
    },
    "id": "ProjEST_move_to_magneteinheit_C_31",
    "joint_names": [
        "shoulder_pan_joint",
        "shoulder_lift_joint",
        "elbow_joint",
        "wrist_1_joint",
        "wrist_2_joint",
        "wrist_3_joint"
    ],
    "metrics": {
        "cart_traj_len": 3.527273478480696,
        "distance_elbow_joint": 1.4664986510444162,
        "distance_shoulder_lift_joint": 1.5950260521500657,
        "distance_shoulder_pan_joint": 4.139052496126553,
        "distance_wrist_1_joint": 1.419032931150051,
        "distance_wrist_2_joint": 1.7207432494499502,
        "distance_wrist_3_joint": 8.328606827860874,
        "smoothness": 0.8178440286604892,
        "time": 0.524753342,
        "traj_len": 4.32075921659399,
        "weighted_distance": 6.202092392419163
    },
    "planner": "ProjEST",
    "start": {
        "state": {
            "elbow_joint": 1.9565354006590394,
            "shoulder_lift_joint": -1.4165861576513559,
            "shoulder_pan_joint": -1.6717766223277177,
            "wrist_1_joint": -0.5286633288215096,
            "wrist_2_joint": 1.4727565892594296,
            "wrist_3_joint": 3.1593482883155493
        }
    },
    "waypoints": [
        {
            "positions": [
                -1.6717766223277177,
                -1.4165861576513559,
                1.9565354006590394,
                -0.5286633288215096,
                1.4727565892594296,
                3.1593482883155493
            ]
        },
        {
            "positions": [
                -1.6280279534515296,
                -1.4361834109360818,
                1.961171301175625,
                -0.5267493741959485,
                1.4111181001704802,
                3.104564381993817
            ]
        },
        {
            "positions": [
                -1.5543798120845733,
                -1.468756945939685,
                1.9290689272440271,
                -0.512487796450211,
                1.3769707344056874,
                2.898558262915663
            ]
        },
        {
            "positions": [
                -1.4807316707176172,
                -1.5013304809432881,
                1.8969665533124291,
                -0.49822621870447364,
                1.3428233686408946,
                2.692552143837509
            ]
        },
        {
            "positions": [
                -1.407083529350661,
                -1.5339040159468913,
                1.8648641793808312,
                -0.4839646409587362,
                1.3086760028761018,
                2.486546024759355
            ]
        },
        {
            "positions": [
                -1.3334353879837046,
                -1.5664775509504945,
                1.8327618054492332,
                -0.46970306321299876,
                1.274528637111309,
                2.280539905681201
            ]
        },
        {
            "positions": [
                -1.2597872466167486,
                -1.5990510859540976,
                1.8006594315176352,
                -0.4554414854672614,
                1.240381271346516,
                2.074533786603047
            ]
        },
        {
            "positions": [
                -1.1861391052497923,
                -1.6316246209577008,
                1.7685570575860372,
                -0.44117990772152393,
                1.2062339055817235,
                1.868527667524893
            ]
        },
        {
            "positions": [
                -1.112490963882836,
                -1.664198155961304,
                1.7364546836544392,
                -0.4269183299757865,
                1.1720865398169307,
                1.662521548446739
            ]
        },
        {
            "positions": [
                -1.0388428225158797,
                -1.696771690964907,
                1.7043523097228412,
                -0.41265675223004905,
                1.1379391740521378,
                1.4565154293685847
            ]
        },
        {
            "positions": [
                -0.9651946811489236,
                -1.7293452259685103,
                1.6722499357912433,
                -0.3983951744843116,
                1.103791808287345,
                1.2505093102904308
            ]
        },
        {
            "positions": [
                -0.8915465397819674,
                -1.7619187609721134,
                1.6401475618596453,
                -0.3841335967385742,
                1.0696444425225522,
                1.0445031912122769
            ]
        },
        {
            "positions": [
                -0.8178983984150111,
                -1.7944922959757166,
                1.6080451879280473,
                -0.3698720189928368,
                1.0354970767577594,
                0.8384970721341225
            ]
        },
        {
            "positions": [
                -0.744250257048055,
                -1.8270658309793197,
                1.5759428139964493,
                -0.3556104412470994,
                1.0013497109929665,
                0.632490953055969
            ]
        },
        {
            "positions": [
                -0.6706021156810987,
                -1.859639365982923,
                1.5438404400648513,
                -0.34134886350136195,
                0.9672023452281737,
                0.42648483397781467
            ]
        },
        {
            "positions": [
                -0.5969539743141425,
                -1.892212900986526,
                1.5117380661332533,
                -0.3270872857556245,
                0.933054979463381,
                0.2204787148996612
            ]
        },
        {
            "positions": [
                -0.5233058329471862,
                -1.9247864359901292,
                1.4796356922016554,
                -0.31282570800988707,
                0.8989076136985882,
                0.01447259582150684
            ]
        },
        {
            "positions": [
                -0.44965769158022995,
                -1.9573599709937324,
                1.4475333182700574,
                -0.29856413026414963,
                0.8647602479337954,
                -0.19153352325664752
            ]
        },
        {
            "positions": [
                -0.37600955021327387,
                -1.9899335059973355,
                1.4154309443384594,
                -0.28430255251841224,
                0.8306128821690026,
                -0.397539642334801
            ]
        },
        {
            "positions": [
                -0.30236140884631757,
                -2.0225070410009387,
                1.3833285704068614,
                -0.2700409747726748,
                0.7964655164042097,
                -0.6035457614129554
            ]
        },
        {
            "positions": [
                -0.2287132674793615,
                -2.055080576004542,
                1.3512261964752634,
                -0.2557793970269374,
                0.762318150639417,
                -0.8095518804911088
            ]
        },
        {
            "positions": [
                -0.15506512611240528,
                -2.087654111008145,
                1.3191238225436654,
                -0.2415178192812,
                0.7281707848746242,
                -1.015557999569263
            ]
        },
        {
            "positions": [
                -0.26250310694027934,
                -2.0641835869212093,
                1.3500347632549867,
                -0.2794959081054402,
                0.7056054125245491,
                -0.8436056930174388
            ]
        },
        {
            "positions": [
                -0.3699410877681534,
                -2.0407130628342736,
                1.380945703966308,
                -0.3174739969296805,
                0.683040040174474,
                -0.6716533864656147
            ]
        },
        {
            "positions": [
                -0.4773790685960274,
                -2.0172425387473383,
                1.4118566446776293,
                -0.35545208575392073,
                0.6604746678243989,
                -0.49970107991379054
            ]
        },
        {
            "positions": [
                -0.5848170494239014,
                -1.9937720146604025,
                1.4427675853889506,
                -0.393430174578161,
                0.6379092954743237,
                -0.3277487733619664
            ]
        },
        {
            "positions": [
                -0.6922550302517755,
                -1.9703014905734668,
                1.4736785261002718,
                -0.43140826340240124,
                0.6153439231242487,
                -0.15579646681014225
            ]
        },
        {
            "positions": [
                -0.7996930110796495,
                -1.9468309664865313,
                1.5045894668115931,
                -0.4693863522266415,
                0.5927785507741736,
                0.016155839741681888
            ]
        },
        {
            "positions": [
                -0.9071309919075236,
                -1.9233604423995956,
                1.5355004075229146,
                -0.5073644410508817,
                0.5702131784240985,
                0.18810814629350614
            ]
        },
        {
            "positions": [
                -1.0145689727353975,
                -1.89988991831266,
                1.566411348234236,
                -0.545342529875122,
                0.5476478060740234,
                0.36006045284533017
            ]
        },
        {
            "positions": [
                -1.1220069535632715,
                -1.8764193942257243,
                1.5973222889455572,
                -0.5833206186993622,
                0.5250824337239484,
                0.5320127593971544
            ]
        },
        {
            "positions": [
                -1.2294449343911455,
                -1.8529488701387888,
                1.6282332296568784,
                -0.6212987075236025,
                0.5025170613738732,
                0.7039650659489785
            ]
        },
        {
            "positions": [
                -1.3368829152190196,
                -1.829478346051853,
                1.6591441703681997,
                -0.6592767963478428,
                0.47995168902379814,
                0.8759173725008027
            ]
        },
        {
            "positions": [
                -1.4443208960468936,
                -1.8060078219649176,
                1.690055111079521,
                -0.697254885172083,
                0.45738631667372304,
                1.0478696790526267
            ]
        },
        {
            "positions": [
                -1.5517588768747677,
                -1.7825372978779819,
                1.7209660517908423,
                -0.7352329739963233,
                0.43482094432364793,
                1.2198219856044508
            ]
        },
        {
            "positions": [
                -1.6591968577026417,
                -1.7590667737910461,
                1.7518769925021636,
                -0.7732110628205635,
                0.4122555719735728,
                1.3917742921562752
            ]
        },
        {
            "positions": [
                -1.7666348385305157,
                -1.7355962497041106,
                1.7827879332134848,
                -0.8111891516448038,
                0.3896901996234977,
                1.5637265987080993
            ]
        },
        {
            "positions": [
                -1.8740728193583898,
                -1.7121257256171751,
                1.813698873924806,
                -0.849167240469044,
                0.36712482727342266,
                1.7356789052599233
            ]
        },
        {
            "positions": [
                -1.9815108001862636,
                -1.6886552015302394,
                1.8446098146361276,
                -0.8871453292932843,
                0.34455945492334755,
                1.9076312118117473
            ]
        },
        {
            "positions": [
                -2.088948781014138,
                -1.6651846774433037,
                1.8755207553474489,
                -0.9251234181175245,
                0.32199408257327244,
                2.079583518363572
            ]
        },
        {
            "positions": [
                -2.196386761842012,
                -1.6417141533563682,
                1.9064316960587702,
                -0.9631015069417648,
                0.29942871022319734,
                2.251535824915396
            ]
        },
        {
            "positions": [
                -2.303824742669886,
                -1.6182436292694327,
                1.9373426367700914,
                -1.001079595766005,
                0.2768633378731223,
                2.42348813146722
            ]
        },
        {
            "positions": [
                -2.41126272349776,
                -1.594773105182497,
                1.9682535774814127,
                -1.0390576845902453,
                0.2542979655230472,
                2.595440438019044
            ]
        },
        {
            "positions": [
                -2.518700704325634,
                -1.5713025810955612,
                1.999164518192734,
                -1.0770357734144855,
                0.23173259317297207,
                2.767392744570868
            ]
        },
        {
            "positions": [
                -2.6261386851535082,
                -1.5478320570086257,
                2.0300754589040553,
                -1.1150138622387258,
                0.20916722082289696,
                2.939345051122692
            ]
        },
        {
            "positions": [
                -2.5971361935362007,
                -1.4481669144147573,
                2.0536975248173235,
                -1.0571844229699372,
                0.3138667816840395,
                3.016409286269478
            ]
        },
        {
            "positions": [
                -2.5681337019188932,
                -1.3485017718208892,
                2.0773195907305912,
                -0.9993549837011484,
                0.418566342545182,
                3.093473521416264
            ]
        },
        {
            "positions": [
                -2.5215024731011324,
                -1.2560988920178788,
                2.0465098388761187,
                -0.9279887336438293,
                0.542443722190748,
                3.1158080309115315
            ]
        },
        {
            "positions": [
                -2.474871244283372,
                -1.1636960122148685,
                2.015700087021646,
                -0.8566224835865103,
                0.666321101836314,
                3.138142540406799
            ]
        }
    ]
}