{
    "goal": {
        "global_pose": {
            "orientation": {
                "w": 0.005598929693374612,
                "x": 0.007748599140229565,
                "y": 0.7110244013736278,
                "z": -0.7031023480610252
            },
            "position": {
                "x": 0.1141497679147869,
                "y": -0.7141253447532654,
                "z": 0.3711530566215515
            }
        },
        "name": "move_to_auspresseinheit_B"
    },
    "id": "ProjEST_move_to_auspresseinheit_B_17",
    "joint_names": [
        "shoulder_pan_joint",
        "shoulder_lift_joint",
        "elbow_joint",
        "wrist_1_joint",
        "wrist_2_joint",
        "wrist_3_joint"
    ],
    "metrics": {
        "cart_traj_len": 0.5650366974696646,
        "distance_elbow_joint": 0.06120164788439775,
        "distance_shoulder_lift_joint": 0.29479699785074054,
        "distance_shoulder_pan_joint": 0.5783950889535121,
        "distance_wrist_1_joint": 0.320242997276979,
        "distance_wrist_2_joint": 0.9883877536375671,
        "distance_wrist_3_joint": 0.003929480120401063,
        "smoothness": 5.075305295617109e-16,
        "time": 0.103412761,
        "traj_len": 1.4989843113667325,
        "weighted_distance": 1.8877085783772203
    },
    "planner": "ProjEST",
    "start": {
        "state": {
            "elbow_joint": 2.019306165916698,
            "shoulder_lift_joint": -1.1220205098164344,
            "shoulder_pan_joint": -1.095207207618794,
            "wrist_1_joint": -0.8559671824921639,
            "wrist_2_joint": 0.47596387242952726,
            "wrist_3_joint": 3.159081874673826
        }
    },
    "waypoints": [
        {
            "positions": [
                -1.095207207618794,
                -1.1220205098164344,
                2.019306165916698,
                -0.8559671824921639,
                0.47596387242952726,
                3.159081874673826
            ]
        },
        {
            "positions": [
                -1.191606389111046,
                -1.171153342791558,
                2.0091058912692983,
                -0.8025933496126674,
                0.6406951647024551,
                3.1584269613204254
            ]
        },
        {
            "positions": [
                -1.288005570603298,
                -1.2202861757666812,
                1.9989056166218988,
                -0.7492195167331709,
                0.805426456975383,
                3.1577720479670255
            ]
        },
        {
            "positions": [
                -1.38440475209555,
                -1.2694190087418047,
                1.988705341974499,
                -0.6958456838536744,
                0.9701577492483109,
                3.1571171346136255
            ]
        },
        {
            "positions": [
                -1.480803933587802,
                -1.3185518417169282,
                1.9785050673270994,
                -0.6424718509741778,
                1.1348890415212387,
                3.156462221260225
            ]
        },
        {
            "positions": [
                -1.577203115080054,
                -1.3676846746920515,
                1.9683047926797,
                -0.5890980180946813,
                1.2996203337941665,
                3.1558073079068247
            ]
        },
        {
            "positions": [
                -1.673602296572306,
                -1.416817507667175,
                1.9581045180323002,
                -0.5357241852151848,
                1.4643516260670943,
                3.1551523945534248
            ]
        }
    ]
}