{
    "goal": {
        "global_pose": {
            "orientation": {
                "w": 0.7031023502349854,
                "x": -0.7110244035720825,
                "y": 0.007748599164187908,
                "z": 0.005598929710686207
            },
            "position": {
                "x": 0.11585023208521307,
                "y": 0.44412534475326537,
                "z": 0.3711530566215515
            }
        },
        "name": "move_to_auspresseinheit_A"
    },
    "id": "ProjEST_move_to_auspresseinheit_A_50",
    "joint_names": [
        "shoulder_pan_joint",
        "shoulder_lift_joint",
        "elbow_joint",
        "wrist_1_joint",
        "wrist_2_joint",
        "wrist_3_joint"
    ],
    "metrics": {
        "cart_traj_len": 0.6652638236567492,
        "distance_elbow_joint": 0.4601535141352504,
        "distance_shoulder_lift_joint": 1.0457837484847883,
        "distance_shoulder_pan_joint": 1.0439723160491212,
        "distance_wrist_1_joint": 0.5468559119173249,
        "distance_wrist_2_joint": 0.5326762884827441,
        "distance_wrist_3_joint": 0.9821811567658107,
        "smoothness": 0.9802960773578329,
        "time": 0.356773493,
        "traj_len": 2.1474689603891925,
        "weighted_distance": 2.766860576495811
    },
    "planner": "ProjEST",
    "start": {
        "state": {
            "elbow_joint": 2.4225747245308327,
            "shoulder_lift_joint": -1.373653427065438,
            "shoulder_pan_joint": -0.33786330853087027,
            "wrist_1_joint": -1.0288602302712604,
            "wrist_2_joint": 1.23302299562683,
            "wrist_3_joint": -3.094021725338297
        }
    },
    "waypoints": [
        {
            "positions": [
                -0.33786330853087027,
                -1.373653427065438,
                2.4225747245308327,
                -1.0288602302712604,
                1.23302299562683,
                -3.094021725338297
            ]
        },
        {
            "positions": [
                -0.30297039555778,
                -1.48660462124857,
                2.453574270366968,
                -0.9814689503599872,
                1.1737091085562248,
                -3.0259355318526255
            ]
        },
        {
            "positions": [
                -0.2680774825846897,
                -1.5995558154317022,
                2.484573816203104,
                -0.934077670448714,
                1.1143952214856196,
                -2.9578493383669544
            ]
        },
        {
            "positions": [
                -0.23318456961159945,
                -1.7125070096148343,
                2.5155733620392393,
                -0.8866863905374408,
                1.0550813344150147,
                -2.889763144881283
            ]
        },
        {
            "positions": [
                -0.19829165663850915,
                -1.8254582037979663,
                2.546572907875375,
                -0.8392951106261676,
                0.9957674473444096,
                -2.8216769513956113
            ]
        },
        {
            "positions": [
                -0.16339874366541884,
                -1.9384093979810986,
                2.5775724537115106,
                -0.7919038307148945,
                0.9364535602738044,
                -2.7535907579099397
            ]
        },
        {
            "positions": [
                -0.1285058306923286,
                -2.051360592164231,
                2.6085719995476464,
                -0.7445125508036212,
                0.8771396732031993,
                -2.6855045644242685
            ]
        },
        {
            "positions": [
                -0.09361291771923831,
                -2.164311786347363,
                2.639571545383782,
                -0.697121270892348,
                0.8178257861325943,
                -2.617418370938597
            ]
        },
        {
            "positions": [
                0.0396740698203432,
                -2.1217908881468857,
                2.599045429836732,
                -0.6612684454692792,
                0.7982459396345095,
                -2.7016813379996156
            ]
        },
        {
            "positions": [
                0.17296105735992473,
                -2.0792699899464084,
                2.5585193142896814,
                -0.6254156200462104,
                0.7786660931364248,
                -2.785944305060634
            ]
        },
        {
            "positions": [
                0.3062480448995063,
                -2.036749091745931,
                2.517993198742631,
                -0.5895627946231418,
                0.7590862466383401,
                -2.870207272121652
            ]
        },
        {
            "positions": [
                0.43953503243908776,
                -1.994228193545454,
                2.477467083195581,
                -0.553709969200073,
                0.7395064001402554,
                -2.9544702391826707
            ]
        },
        {
            "positions": [
                0.5728220199786694,
                -1.9517072953449768,
                2.436940967648531,
                -0.5178571437770042,
                0.7199265536421706,
                -3.0387332062436894
            ]
        },
        {
            "positions": [
                0.7061090075182509,
                -1.9091863971444996,
                2.3964148521014805,
                -0.4820043183539355,
                0.7003467071440859,
                -3.1229961733047076
            ]
        }
    ]
}