{
    "goal": {
        "global_pose": {
            "orientation": {
                "w": 0.7047431468963623,
                "x": -0.7094548344612122,
                "y": 0.0024358443915843964,
                "z": -0.0022348060738295317
            },
            "position": {
                "x": 0.6094750761985779,
                "y": 0.3671506643295288,
                "z": 0.19426114857196808
            }
        },
        "name": "move_to_magneteinheit_A"
    },
    "id": "ProjEST_move_to_magneteinheit_A_118",
    "joint_names": [
        "shoulder_pan_joint",
        "shoulder_lift_joint",
        "elbow_joint",
        "wrist_1_joint",
        "wrist_2_joint",
        "wrist_3_joint"
    ],
    "metrics": {
        "cart_traj_len": 1.0525527090279083,
        "distance_elbow_joint": 0.40945085066447606,
        "distance_shoulder_lift_joint": 0.351657762704904,
        "distance_shoulder_pan_joint": 1.2415754770633556,
        "distance_wrist_1_joint": 2.3311534702413135,
        "distance_wrist_2_joint": 1.6900351791443018,
        "distance_wrist_3_joint": 1.1130350353672753,
        "smoothness": 0.0,
        "time": 0.153209506,
        "traj_len": 2.67149916249016,
        "weighted_distance": 3.6584377123720166
    },
    "planner": "ProjEST",
    "start": {
        "state": {
            "elbow_joint": 1.5739458966750683,
            "shoulder_lift_joint": -1.4977259741207325,
            "shoulder_pan_joint": -1.1188672016454206,
            "wrist_1_joint": 1.494575848278785,
            "wrist_2_joint": -1.5706037134824402,
            "wrist_3_joint": -2.0226957942261072
        }
    },
    "waypoints": [
        {
            "positions": [
                -1.1188672016454206,
                -1.4977259741207325,
                1.5739458966750683,
                1.494575848278785,
                -1.5706037134824402,
                -2.0226957942261072
            ]
        },
        {
            "positions": [
                -1.053521123905244,
                -1.4792176708204743,
                1.5954959414468828,
                1.3718835603713475,
                -1.481654493527477,
                -2.081276585561227
            ]
        },
        {
            "positions": [
                -0.9881750461650675,
                -1.4607093675202163,
                1.6170459862186974,
                1.2491912724639098,
                -1.3927052735725138,
                -2.1398573768963467
            ]
        },
        {
            "positions": [
                -0.9228289684248908,
                -1.442201064219958,
                1.6385960309905119,
                1.1264989845564723,
                -1.3037560536175505,
                -2.1984381682314664
            ]
        },
        {
            "positions": [
                -0.8574828906847143,
                -1.4236927609197,
                1.6601460757623265,
                1.0038066966490349,
                -1.2148068336625872,
                -2.257018959566586
            ]
        },
        {
            "positions": [
                -0.7921368129445376,
                -1.4051844576194419,
                1.681696120534141,
                0.8811144087415973,
                -1.125857613707624,
                -2.315599750901706
            ]
        },
        {
            "positions": [
                -0.726790735204361,
                -1.386676154319184,
                1.7032461653059556,
                0.7584221208341597,
                -1.0369083937526606,
                -2.3741805422368256
            ]
        },
        {
            "positions": [
                -0.6614446574641843,
                -1.3681678510189257,
                1.72479621007777,
                0.6357298329267221,
                -0.9479591737976975,
                -2.4327613335719454
            ]
        },
        {
            "positions": [
                -0.5960985797240078,
                -1.3496595477186677,
                1.7463462548495845,
                0.5130375450192847,
                -0.8590099538427343,
                -2.491342124907065
            ]
        },
        {
            "positions": [
                -0.5307525019838312,
                -1.3311512444184095,
                1.7678962996213992,
                0.3903452571118471,
                -0.770060733887771,
                -2.549922916242185
            ]
        },
        {
            "positions": [
                -0.4654064242436545,
                -1.3126429411181515,
                1.7894463443932136,
                0.2676529692044096,
                -0.6811115139328078,
                -2.608503707577305
            ]
        },
        {
            "positions": [
                -0.4000603465034779,
                -1.2941346378178933,
                1.8109963891650283,
                0.14496068129697193,
                -0.5921622939778444,
                -2.6670844989124247
            ]
        },
        {
            "positions": [
                -0.33471426876330135,
                -1.2756263345176353,
                1.8325464339368427,
                0.022268393389534458,
                -0.5032130740228813,
                -2.7256652902475444
            ]
        },
        {
            "positions": [
                -0.2693681910231247,
                -1.257118031217377,
                1.8540964787086573,
                -0.10042389451790323,
                -0.414263854067918,
                -2.784246081582664
            ]
        },
        {
            "positions": [
                -0.20402211328294817,
                -1.238609727917119,
                1.8756465234804718,
                -0.2231161824253407,
                -0.3253146341129547,
                -2.842826872917784
            ]
        },
        {
            "positions": [
                -0.13867603554277153,
                -1.2201014246168609,
                1.8971965682522862,
                -0.3458084703327784,
                -0.2363654141579914,
                -2.9014076642529036
            ]
        },
        {
            "positions": [
                -0.07332995780259499,
                -1.201593121316603,
                1.9187466130241009,
                -0.46850075824021564,
                -0.14741619420302832,
                -2.9599884555880234
            ]
        },
        {
            "positions": [
                -0.007983880062418347,
                -1.1830848180163447,
                1.9402966577959153,
                -0.5911930461476536,
                -0.05846697424806502,
                -3.018569246923143
            ]
        },
        {
            "positions": [
                0.0573621976777583,
                -1.1645765147160865,
                1.9618467025677297,
                -0.7138853340550908,
                0.03048224570689828,
                -3.077150038258263
            ]
        },
        {
            "positions": [
                0.12270827541793497,
                -1.1460682114158285,
                1.9833967473395444,
                -0.8365776219625286,
                0.11943146566186157,
                -3.1357308295933826
            ]
        }
    ]
}