{
    "goal": {
        "global_pose": {
            "orientation": {
                "w": 0.005598929693374612,
                "x": 0.007748599140229565,
                "y": 0.7110244013736278,
                "z": -0.7031023480610252
            },
            "position": {
                "x": 0.1141497679147869,
                "y": -0.7141253447532654,
                "z": 0.3711530566215515
            }
        },
        "name": "move_to_auspresseinheit_B"
    },
    "id": "ProjEST_move_to_auspresseinheit_B_114",
    "joint_names": [
        "shoulder_pan_joint",
        "shoulder_lift_joint",
        "elbow_joint",
        "wrist_1_joint",
        "wrist_2_joint",
        "wrist_3_joint"
    ],
    "metrics": {
        "cart_traj_len": 0.5649066351773441,
        "distance_elbow_joint": 0.06491814866781698,
        "distance_shoulder_lift_joint": 0.29243507725296003,
        "distance_shoulder_pan_joint": 0.574561350925453,
        "distance_wrist_1_joint": 0.3296278679550452,
        "distance_wrist_2_joint": 1.0068939531750307,
        "distance_wrist_3_joint": 0.003624128763970891,
        "smoothness": 0.0,
        "time": 0.129211454,
        "traj_len": 1.507335572041036,
        "weighted_distance": 1.9015337507912644
    },
    "planner": "ProjEST",
    "start": {
        "state": {
            "elbow_joint": 2.019306165916698,
            "shoulder_lift_joint": -1.1220205098164344,
            "shoulder_pan_joint": -1.095207207618794,
            "wrist_1_joint": -0.8559671824921639,
            "wrist_2_joint": 0.47596387242952726,
            "wrist_3_joint": 3.159081874673826
        }
    },
    "waypoints": [
        {
            "positions": [
                -1.095207207618794,
                -1.1220205098164344,
                2.019306165916698,
                -0.8559671824921639,
                0.47596387242952726,
                3.159081874673826
            ]
        },
        {
            "positions": [
                -1.1909674327730362,
                -1.1707596893585945,
                2.0084864744720616,
                -0.8010292044996563,
                0.6437795312920324,
                3.158477853213164
            ]
        },
        {
            "positions": [
                -1.2867276579272784,
                -1.2194988689007544,
                1.9976667830274257,
                -0.7460912265071488,
                0.8115951901545375,
                3.1578738317525024
            ]
        },
        {
            "positions": [
                -1.3824878830815206,
                -1.2682380484429143,
                1.9868470915827894,
                -0.6911532485146412,
                0.9794108490170426,
                3.15726981029184
            ]
        },
        {
            "positions": [
                -1.4782481082357626,
                -1.3169772279850744,
                1.9760274001381533,
                -0.6362152705221338,
                1.1472265078795476,
                3.1566657888311784
            ]
        },
        {
            "positions": [
                -1.5740083333900048,
                -1.3657164075272346,
                1.9652077086935171,
                -0.5812772925296261,
                1.3150421667420529,
                3.1560617673705167
            ]
        },
        {
            "positions": [
                -1.669768558544247,
                -1.4144555870693944,
                1.954388017248881,
                -0.5263393145371187,
                1.482857825604558,
                3.155457745909855
            ]
        }
    ]
}