{
    "goal": {
        "global_pose": {
            "orientation": {
                "w": -0.4816463035849501,
                "x": 0.5182115481033762,
                "y": 0.4908360881923453,
                "z": -0.5084816262002911
            },
            "position": {
                "x": -0.8240239810943604,
                "y": 0.19912469901144506,
                "z": 0.16403168439865112
            }
        },
        "name": "move_to_storage_D"
    },
    "id": "ProjEST_move_to_storage_D_141",
    "joint_names": [
        "shoulder_pan_joint",
        "shoulder_lift_joint",
        "elbow_joint",
        "wrist_1_joint",
        "wrist_2_joint",
        "wrist_3_joint"
    ],
    "metrics": {
        "cart_traj_len": 3.9986617808100435,
        "distance_elbow_joint": 4.213358246682669,
        "distance_shoulder_lift_joint": 1.264291494122125,
        "distance_shoulder_pan_joint": 2.812991609403215,
        "distance_wrist_1_joint": 2.8918392237521493,
        "distance_wrist_2_joint": 1.5769394749146635,
        "distance_wrist_3_joint": 3.128943857878787,
        "smoothness": 0.1827400395066515,
        "time": 0.083922653,
        "traj_len": 3.9860210620057708,
        "weighted_distance": 5.158975704650876
    },
    "planner": "ProjEST",
    "start": {
        "state": {
            "elbow_joint": -2.384821997420982,
            "shoulder_lift_joint": -2.2788054674887404,
            "shoulder_pan_joint": -0.18546946417610016,
            "wrist_1_joint": 1.4845937964226739,
            "wrist_2_joint": 0.1789877726866377,
            "wrist_3_joint": 0.03710572555276528
        }
    },
    "waypoints": [
        {
            "positions": [
                -0.18546946417610016,
                -2.2788054674887404,
                -2.384821997420982,
                1.4845937964226739,
                0.1789877726866377,
                0.03710572555276528
            ]
        },
        {
            "positions": [
                -0.10627050959319097,
                -2.252579388088541,
                -2.2706249185542577,
                1.4106160389541467,
                0.21404144101981712,
                -0.02800376685578409
            ]
        },
        {
            "positions": [
                -0.027071555010281773,
                -2.2263533086883425,
                -2.156427839687534,
                1.3366382814856195,
                0.24909510935299653,
                -0.09311325926433345
            ]
        },
        {
            "positions": [
                0.052127399572627436,
                -2.2001272292881433,
                -2.04223076082081,
                1.262660524017092,
                0.28414877768617597,
                -0.15822275167288283
            ]
        },
        {
            "positions": [
                0.13132635415553662,
                -2.173901149887944,
                -1.928033681954086,
                1.1886827665485649,
                0.3192024460193553,
                -0.22333224408143218
            ]
        },
        {
            "positions": [
                0.21052530873844577,
                -2.147675070487745,
                -1.813836603087362,
                1.1147050090800377,
                0.35425611435253473,
                -0.28844173648998156
            ]
        },
        {
            "positions": [
                0.28972426332135504,
                -2.1214489910875463,
                -1.699639524220638,
                1.0407272516115103,
                0.38930978268571415,
                -0.35355122889853097
            ]
        },
        {
            "positions": [
                0.36892321790426424,
                -2.095222911687347,
                -1.585442445353914,
                0.9667494941429832,
                0.4243634510188936,
                -0.4186607213070804
            ]
        },
        {
            "positions": [
                0.4481221724871734,
                -2.068996832287148,
                -1.47124536648719,
                0.892771736674456,
                0.45941711935207297,
                -0.48377021371562967
            ]
        },
        {
            "positions": [
                0.5273211270700826,
                -2.042770752886949,
                -1.3570482876204661,
                0.8187939792059287,
                0.4944707876852523,
                -0.548879706124179
            ]
        },
        {
            "positions": [
                0.6065200816529916,
                -2.01654467348675,
                -1.2428512087537422,
                0.7448162217374015,
                0.5295244560184318,
                -0.6139891985327284
            ]
        },
        {
            "positions": [
                0.6857190362359009,
                -1.9903185940865509,
                -1.128654129887018,
                0.6708384642688742,
                0.5645781243516113,
                -0.6790986909412778
            ]
        },
        {
            "positions": [
                0.7649179908188102,
                -1.964092514686352,
                -1.0144570510202942,
                0.5968607068003469,
                0.5996317926847906,
                -0.7442081833498272
            ]
        },
        {
            "positions": [
                0.8441169454017194,
                -1.937866435286153,
                -0.90025997215357,
                0.5228829493318197,
                0.6346854610179701,
                -0.8093176757583765
            ]
        },
        {
            "positions": [
                0.9233158999846287,
                -1.9116403558859538,
                -0.7860628932868461,
                0.4489051918632925,
                0.6697391293511494,
                -0.874427168166926
            ]
        },
        {
            "positions": [
                1.0025148545675377,
                -1.8854142764857549,
                -0.6718658144201224,
                0.3749274343947653,
                0.7047927976843288,
                -0.9395366605754752
            ]
        },
        {
            "positions": [
                1.081713809150447,
                -1.8591881970855557,
                -0.5576687355533982,
                0.3009496769262381,
                0.7398464660175083,
                -1.0046461529840245
            ]
        },
        {
            "positions": [
                1.1609127637333563,
                -1.8329621176853568,
                -0.4434716566866743,
                0.22697191945771067,
                0.7749001343506876,
                -1.0697556453925738
            ]
        },
        {
            "positions": [
                1.2401117183162653,
                -1.8067360382851576,
                -0.3292745778199504,
                0.15299416198918347,
                0.809953802683867,
                -1.1348651378011232
            ]
        },
        {
            "positions": [
                1.3193106728991746,
                -1.7805099588849587,
                -0.21507749895322625,
                0.07901640452065628,
                0.8450074710170464,
                -1.1999746302096725
            ]
        },
        {
            "positions": [
                1.3985096274820836,
                -1.7542838794847597,
                -0.10088042008650255,
                0.005038647052129086,
                0.8800611393502258,
                -1.265084122618222
            ]
        },
        {
            "positions": [
                1.477708582064993,
                -1.7280578000845606,
                0.01331665878022159,
                -0.06893911041639833,
                0.9151148076834053,
                -1.3301936150267715
            ]
        },
        {
            "positions": [
                1.5569075366479022,
                -1.7018317206843614,
                0.12751373764694574,
                -0.14291686788492552,
                0.9501684760165847,
                -1.3953031074353208
            ]
        },
        {
            "positions": [
                1.6361064912308114,
                -1.6756056412841625,
                0.24171081651366944,
                -0.21689462535345272,
                0.9852221443497641,
                -1.4604125998438702
            ]
        },
        {
            "positions": [
                1.7153054458137207,
                -1.6493795618839635,
                0.3559078953803936,
                -0.29087238282198014,
                1.0202758126829437,
                -1.5255220922524195
            ]
        },
        {
            "positions": [
                1.7945044003966297,
                -1.6231534824837643,
                0.4701049742471177,
                -0.36485014029050733,
                1.055329481016123,
                -1.5906315846609689
            ]
        },
        {
            "positions": [
                1.873703354979539,
                -1.5969274030835654,
                0.5843020531138419,
                -0.4388278977590345,
                1.0903831493493024,
                -1.6557410770695182
            ]
        },
        {
            "positions": [
                1.952902309562448,
                -1.5707013236833665,
                0.6984991319805656,
                -0.5128056552275619,
                1.1254368176824818,
                -1.7208505694780678
            ]
        },
        {
            "positions": [
                2.0321012641453575,
                -1.5444752442831673,
                0.8126962108472897,
                -0.5867834126960889,
                1.1604904860156613,
                -1.7859600618866172
            ]
        },
        {
            "positions": [
                2.1113002187282666,
                -1.5182491648829681,
                0.9268932897140139,
                -0.6607611701646166,
                1.1955441543488408,
                -1.8510695542951665
            ]
        },
        {
            "positions": [
                2.1904991733111756,
                -1.4920230854827694,
                1.0410903685807371,
                -0.7347389276331433,
                1.23059782268202,
                -1.9161790467037156
            ]
        },
        {
            "positions": [
                2.2696981278940846,
                -1.4657970060825702,
                1.1552874474474613,
                -0.8087166851016705,
                1.2656514910151995,
                -1.9812885391122652
            ]
        },
        {
            "positions": [
                2.348897082476994,
                -1.439570926682371,
                1.2694845263141854,
                -0.8826944425701977,
                1.300705159348379,
                -2.0463980315208143
            ]
        },
        {
            "positions": [
                2.428096037059903,
                -1.4133448472821721,
                1.3836816051809095,
                -0.9566722000387253,
                1.3357588276815582,
                -2.111507523929364
            ]
        },
        {
            "positions": [
                2.5072949916428127,
                -1.3871187678819732,
                1.4978786840476332,
                -1.0306499575072525,
                1.3708124960147376,
                -2.176617016337913
            ]
        },
        {
            "positions": [
                2.5864939462257217,
                -1.360892688481774,
                1.6120757629143572,
                -1.10462771497578,
                1.4058661643479171,
                -2.2417265087464626
            ]
        },
        {
            "positions": [
                2.5933319793926204,
                -1.3031629026292475,
                1.648152510638912,
                -1.0541914295834975,
                1.3475226504723532,
                -2.383411779343056
            ]
        },
        {
            "positions": [
                2.6001700125595195,
                -1.2454331167767212,
                1.6842292583634673,
                -1.003755144191215,
                1.289179136596789,
                -2.525097049939649
            ]
        },
        {
            "positions": [
                2.607008045726418,
                -1.1877033309241947,
                1.7203060060880222,
                -0.9533188587989325,
                1.2308356227212252,
                -2.6667823205362424
            ]
        },
        {
            "positions": [
                2.613846078893317,
                -1.1299735450716681,
                1.7563827538125771,
                -0.9028825734066501,
                1.1724921088456612,
                -2.8084675911328354
            ]
        },
        {
            "positions": [
                2.620684112060216,
                -1.0722437592191416,
                1.7924595015371323,
                -0.8524462880143677,
                1.114148594970097,
                -2.9501528617294293
            ]
        },
        {
            "positions": [
                2.6275221452271147,
                -1.0145139733666153,
                1.8285362492616872,
                -0.8020100026220852,
                1.0558050810945332,
                -3.0918381323260222
            ]
        }
    ]
}