{
    "goal": {
        "global_pose": {
            "orientation": {
                "w": 0.7031023502349854,
                "x": -0.7110244035720825,
                "y": 0.007748599164187908,
                "z": 0.005598929710686207
            },
            "position": {
                "x": 0.11585023208521307,
                "y": 0.44412534475326537,
                "z": 0.3711530566215515
            }
        },
        "name": "move_to_auspresseinheit_A"
    },
    "id": "ProjEST_move_to_auspresseinheit_A_87",
    "joint_names": [
        "shoulder_pan_joint",
        "shoulder_lift_joint",
        "elbow_joint",
        "wrist_1_joint",
        "wrist_2_joint",
        "wrist_3_joint"
    ],
    "metrics": {
        "cart_traj_len": 3.1493873651378466,
        "distance_elbow_joint": 5.280444535610753,
        "distance_shoulder_lift_joint": 0.8211251159915043,
        "distance_shoulder_pan_joint": 2.2439180089040285,
        "distance_wrist_1_joint": 3.1399074199853807,
        "distance_wrist_2_joint": 1.5823041234020923,
        "distance_wrist_3_joint": 4.453414089003456,
        "smoothness": 0.7174688266263475,
        "time": 0.24429999600000002,
        "traj_len": 4.1858228931593855,
        "weighted_distance": 5.581232212898115
    },
    "planner": "ProjEST",
    "start": {
        "state": {
            "elbow_joint": 2.4225747245308327,
            "shoulder_lift_joint": -1.373653427065438,
            "shoulder_pan_joint": -0.33786330853087027,
            "wrist_1_joint": -1.0288602302712604,
            "wrist_2_joint": 1.23302299562683,
            "wrist_3_joint": -3.094021725338297
        }
    },
    "waypoints": [
        {
            "positions": [
                -0.33786330853087027,
                -1.373653427065438,
                2.4225747245308327,
                -1.0288602302712604,
                1.23302299562683,
                -3.094021725338297
            ]
        },
        {
            "positions": [
                -0.3143661915513223,
                -1.378395825390779,
                2.3007797233783167,
                -0.9410259575935772,
                1.1826550658261679,
                -2.9886649303714283
            ]
        },
        {
            "positions": [
                -0.29086907457177424,
                -1.3831382237161205,
                2.1789847222258003,
                -0.853191684915894,
                1.1322871360255056,
                -2.8833081354045595
            ]
        },
        {
            "positions": [
                -0.26737195759222626,
                -1.3878806220414617,
                2.0571897210732843,
                -0.7653574122382107,
                1.0819192062248435,
                -2.7779513404376908
            ]
        },
        {
            "positions": [
                -0.24387484061267822,
                -1.392623020366803,
                1.935394719920768,
                -0.6775231395605276,
                1.0315512764241814,
                -2.6725945454708215
            ]
        },
        {
            "positions": [
                -0.22037772363313024,
                -1.3973654186921443,
                1.813599718768252,
                -0.5896888668828444,
                0.9811833466235194,
                -2.5672377505039528
            ]
        },
        {
            "positions": [
                -0.19688060665358223,
                -1.4021078170174857,
                1.6918047176157356,
                -0.5018545942051611,
                0.9308154168228571,
                -2.461880955537084
            ]
        },
        {
            "positions": [
                -0.17338348967403422,
                -1.4068502153428268,
                1.5700097164632196,
                -0.4140203215274779,
                0.880447487022195,
                -2.356524160570215
            ]
        },
        {
            "positions": [
                -0.1498863726944862,
                -1.4115926136681682,
                1.4482147153107032,
                -0.32618604884979474,
                0.8300795572215329,
                -2.2511673656033464
            ]
        },
        {
            "positions": [
                -0.1263892557149382,
                -1.4163350119935094,
                1.3264197141581873,
                -0.23835177617211145,
                0.7797116274208707,
                -2.1458105706364776
            ]
        },
        {
            "positions": [
                -0.10289213873539019,
                -1.4210774103188508,
                1.204624713005671,
                -0.15051750349442827,
                0.7293436976202087,
                -2.040453775669609
            ]
        },
        {
            "positions": [
                -0.07939502175584218,
                -1.425819808644192,
                1.0828297118531547,
                -0.06268323081674498,
                0.6789757678195464,
                -1.9350969807027398
            ]
        },
        {
            "positions": [
                -0.055897904776294194,
                -1.4305622069695334,
                0.9610347107006387,
                0.025151041860938195,
                0.6286078380188843,
                -1.829740185735871
            ]
        },
        {
            "positions": [
                -0.032400787796746156,
                -1.4353046052948746,
                0.8392397095481223,
                0.11298531453862148,
                0.5782399082182221,
                -1.724383390769002
            ]
        },
        {
            "positions": [
                -0.008903670817198173,
                -1.440047003620216,
                0.7174447083956064,
                0.20081958721630455,
                0.5278719784175601,
                -1.6190265958021333
            ]
        },
        {
            "positions": [
                0.014593446162349866,
                -1.4447894019455572,
                0.5956497072430902,
                0.28865385989398784,
                0.4775040486168979,
                -1.5136698008352645
            ]
        },
        {
            "positions": [
                0.03809056314189785,
                -1.4495318002708986,
                0.473854706090574,
                0.3764881325716709,
                0.4271361188162358,
                -1.4083130058683957
            ]
        },
        {
            "positions": [
                0.06158768012144589,
                -1.4542741985962397,
                0.3520597049380578,
                0.4643224052493542,
                0.37676818901557363,
                -1.3029562109015267
            ]
        },
        {
            "positions": [
                0.08508479710099387,
                -1.4590165969215811,
                0.23026470378554187,
                0.5521566779270375,
                0.32640025921491156,
                -1.197599415934658
            ]
        },
        {
            "positions": [
                0.10858191408054191,
                -1.4637589952469223,
                0.10846970263302547,
                0.6399909506047208,
                0.2760323294142494,
                -1.092242620967789
            ]
        },
        {
            "positions": [
                0.1320790310600899,
                -1.4685013935722635,
                -0.013325298519490492,
                0.7278252232824038,
                0.22566439961358742,
                -0.9868858260009201
            ]
        },
        {
            "positions": [
                0.15557614803963793,
                -1.473243791897605,
                -0.13512029967200673,
                0.8156594959600871,
                0.17529646981292515,
                -0.8815290310340513
            ]
        },
        {
            "positions": [
                0.2126582992696033,
                -1.5085444962416525,
                0.010840930955946126,
                0.7672035648019258,
                0.1882602588634755,
                -0.9673033462116465
            ]
        },
        {
            "positions": [
                0.2697404504995687,
                -1.5438452005857002,
                0.15680216158389898,
                0.7187476336437644,
                0.20122404791402584,
                -1.0530776613892416
            ]
        },
        {
            "positions": [
                0.32682260172953403,
                -1.5791459049297476,
                0.30276339221185183,
                0.6702917024856029,
                0.21418783696457622,
                -1.138851976566837
            ]
        },
        {
            "positions": [
                0.38390475295949944,
                -1.6144466092737952,
                0.4487246228398047,
                0.6218357713274415,
                0.22715162601512656,
                -1.2246262917444322
            ]
        },
        {
            "positions": [
                0.4409869041894648,
                -1.6497473136178429,
                0.5946858534677575,
                0.5733798401692801,
                0.2401154150656769,
                -1.3104006069220273
            ]
        },
        {
            "positions": [
                0.4980690554194302,
                -1.6850480179618905,
                0.7406470840957105,
                0.5249239090111186,
                0.25307920411622725,
                -1.3961749220996227
            ]
        },
        {
            "positions": [
                0.5551512066493955,
                -1.7203487223059382,
                0.8866083147236632,
                0.47646797785295725,
                0.2660429931667776,
                -1.4819492372772176
            ]
        },
        {
            "positions": [
                0.612233357879361,
                -1.7556494266499856,
                1.0325695453516162,
                0.42801204669479587,
                0.27900678221732794,
                -1.567723552454813
            ]
        },
        {
            "positions": [
                0.6693155091093262,
                -1.7909501309940332,
                1.178530775979569,
                0.37955611553663443,
                0.2919705712678783,
                -1.653497867632408
            ]
        },
        {
            "positions": [
                0.7263976603392917,
                -1.8262508353380809,
                1.3244920066075216,
                0.33110018437847305,
                0.3049343603184287,
                -1.7392721828100033
            ]
        },
        {
            "positions": [
                0.7834798115692571,
                -1.8615515396821285,
                1.4704532372354746,
                0.2826442532203116,
                0.317898149368979,
                -1.8250464979875984
            ]
        },
        {
            "positions": [
                0.8405619627992225,
                -1.8968522440261761,
                1.6164144678634276,
                0.23418832206215023,
                0.3308619384195294,
                -1.9108208131651938
            ]
        },
        {
            "positions": [
                0.8976441140291879,
                -1.9321529483702236,
                1.7623756984913803,
                0.18573239090398874,
                0.3438257274700797,
                -1.996595128342789
            ]
        },
        {
            "positions": [
                0.9547262652591532,
                -1.9674536527142712,
                1.908336929119333,
                0.13727645974582736,
                0.35678951652063007,
                -2.082369443520384
            ]
        },
        {
            "positions": [
                1.0118084164891186,
                -2.002754357058319,
                2.054298159747286,
                0.08882052858766593,
                0.3697533055711804,
                -2.1681437586979793
            ]
        },
        {
            "positions": [
                1.0704298580281162,
                -2.012939389222714,
                2.1418591701811636,
                -0.0067287105232261,
                0.37293233384345753,
                -2.264149480917422
            ]
        },
        {
            "positions": [
                1.1290512995671138,
                -2.0231244213871085,
                2.2294201806150413,
                -0.10227794963411813,
                0.37611136211573465,
                -2.3601552031368653
            ]
        },
        {
            "positions": [
                1.1876727411061112,
                -2.0333094535515035,
                2.316981191048919,
                -0.19782718874501015,
                0.37929039038801177,
                -2.456160925356308
            ]
        },
        {
            "positions": [
                1.2462941826451088,
                -2.043494485715898,
                2.404542201482797,
                -0.2933764278559022,
                0.3824694186602889,
                -2.5521666475757514
            ]
        },
        {
            "positions": [
                1.3049156241841064,
                -2.053679517880293,
                2.4921032119166746,
                -0.3889256669667942,
                0.385648446932566,
                -2.648172369795194
            ]
        },
        {
            "positions": [
                1.184687808946296,
                -2.025459712844963,
                2.4729980119528285,
                -0.40708617313222467,
                0.4484935710262753,
                -2.743027980982807
            ]
        },
        {
            "positions": [
                1.0644599937084855,
                -1.9972399078096335,
                2.453892811988983,
                -0.42524667929765514,
                0.5113386951199846,
                -2.8378835921704204
            ]
        },
        {
            "positions": [
                0.9442321784706751,
                -1.9690201027743037,
                2.434787612025137,
                -0.4434071854630856,
                0.5741838192136939,
                -2.9327392033580333
            ]
        },
        {
            "positions": [
                0.8240043632328646,
                -1.9408002977389738,
                2.415682412061291,
                -0.4615676916285161,
                0.6370289433074032,
                -3.0275948145456466
            ]
        },
        {
            "positions": [
                0.7037765479950542,
                -1.912580492703644,
                2.396577212097445,
                -0.47972819779394654,
                0.6998740674011126,
                -3.1224504257332595
            ]
        }
    ]
}