{
    "goal": {
        "global_pose": {
            "orientation": {
                "w": 0.005598929693374612,
                "x": 0.007748599140229565,
                "y": 0.7110244013736278,
                "z": -0.7031023480610252
            },
            "position": {
                "x": -0.8858502320852131,
                "y": -0.7141253447532654,
                "z": 0.3711530566215515
            }
        },
        "name": "move_to_auspresseinheit_C"
    },
    "id": "ProjEST_move_to_auspresseinheit_C_28",
    "joint_names": [
        "shoulder_pan_joint",
        "shoulder_lift_joint",
        "elbow_joint",
        "wrist_1_joint",
        "wrist_2_joint",
        "wrist_3_joint"
    ],
    "metrics": {
        "cart_traj_len": 0.4924109222701975,
        "distance_elbow_joint": 0.9976788225177969,
        "distance_shoulder_lift_joint": 0.324006706569008,
        "distance_shoulder_pan_joint": 0.25629046006849476,
        "distance_wrist_1_joint": 0.6795400816864707,
        "distance_wrist_2_joint": 1.3071763789770672,
        "distance_wrist_3_joint": 0.06962986014857941,
        "smoothness": 1.6148698667872622e-16,
        "time": 0.016237269,
        "traj_len": 1.9063898630572438,
        "weighted_distance": 2.4000621848044092
    },
    "planner": "ProjEST",
    "start": {
        "state": {
            "elbow_joint": 1.752795957773711,
            "shoulder_lift_joint": -0.9740617694225064,
            "shoulder_pan_joint": -2.967991417825858,
            "wrist_1_joint": -0.7595177689806859,
            "wrist_2_joint": 1.7443932448377395,
            "wrist_3_joint": 3.199131542505932
        }
    },
    "waypoints": [
        {
            "positions": [
                -2.967991417825858,
                -0.9740617694225064,
                1.752795957773711,
                -0.7595177689806859,
                1.7443932448377395,
                3.199131542505932
            ]
        },
        {
            "positions": [
                -2.9423623718190086,
                -0.9416610987656057,
                1.6530280755219313,
                -0.6915637608120389,
                1.6136756069400329,
                3.1921685564910742
            ]
        },
        {
            "positions": [
                -2.916733325812159,
                -0.9092604281087049,
                1.5532601932701517,
                -0.6236097526433917,
                1.482957969042326,
                3.1852055704762163
            ]
        },
        {
            "positions": [
                -2.8911042798053095,
                -0.876859757451804,
                1.4534923110183722,
                -0.5556557444747448,
                1.3522403311446194,
                3.1782425844613584
            ]
        },
        {
            "positions": [
                -2.86547523379846,
                -0.8444590867949032,
                1.3537244287665924,
                -0.4877017363060976,
                1.2215226932469125,
                3.1712795984465005
            ]
        },
        {
            "positions": [
                -2.8398461877916104,
                -0.8120584161380024,
                1.2539565465148126,
                -0.41974772813745054,
                1.090805055349206,
                3.1643166124316426
            ]
        },
        {
            "positions": [
                -2.814217141784761,
                -0.7796577454811017,
                1.154188664263033,
                -0.3517937199688035,
                0.9600874174514992,
                3.1573536264167843
            ]
        },
        {
            "positions": [
                -2.7885880957779117,
                -0.7472570748242009,
                1.0544207820112534,
                -0.28383971180015644,
                0.8293697795537925,
                3.1503906404019264
            ]
        },
        {
            "positions": [
                -2.7629590497710623,
                -0.7148564041673,
                0.9546528997594735,
                -0.21588570363150927,
                0.6986521416560858,
                3.1434276543870685
            ]
        },
        {
            "positions": [
                -2.7373300037642125,
                -0.6824557335103992,
                0.8548850175076939,
                -0.14793169546286222,
                0.567934503758379,
                3.1364646683722106
            ]
        },
        {
            "positions": [
                -2.711700957757363,
                -0.6500550628534985,
                0.7551171352559142,
                -0.07997768729421519,
                0.4372168658606722,
                3.1295016823573527
            ]
        }
    ]
}