{
    "goal": {
        "global_pose": {
            "orientation": {
                "w": 0.7047431493862688,
                "x": -0.7094548369677653,
                "y": 0.0024358444001904,
                "z": -0.0022348060817251984
            },
            "position": {
                "x": -0.39052492380142206,
                "y": 0.3671506643295288,
                "z": 0.19426114857196808
            }
        },
        "name": "move_to_magneteinheit_D"
    },
    "id": "ProjEST_move_to_magneteinheit_D_41",
    "joint_names": [
        "shoulder_pan_joint",
        "shoulder_lift_joint",
        "elbow_joint",
        "wrist_1_joint",
        "wrist_2_joint",
        "wrist_3_joint"
    ],
    "metrics": {
        "cart_traj_len": 4.445657246633091,
        "distance_elbow_joint": 3.424743285651936,
        "distance_shoulder_lift_joint": 1.2705331763036045,
        "distance_shoulder_pan_joint": 3.1265337740747317,
        "distance_wrist_1_joint": 4.582664851875655,
        "distance_wrist_2_joint": 0.8109940808145097,
        "distance_wrist_3_joint": 6.489745208989931,
        "smoothness": 0.5290512133888143,
        "time": 0.5973147169999999,
        "traj_len": 4.439055572721562,
        "weighted_distance": 6.170766867122789
    },
    "planner": "ProjEST",
    "start": {
        "state": {
            "elbow_joint": 0.7495348899011973,
            "shoulder_lift_joint": -0.6476975780737697,
            "shoulder_pan_joint": -2.711696901376276,
            "wrist_1_joint": -0.07506478080974305,
            "wrist_2_joint": 0.4329665971545858,
            "wrist_3_joint": 3.1361499051832524
        }
    },
    "waypoints": [
        {
            "positions": [
                -2.711696901376276,
                -0.6476975780737697,
                0.7495348899011973,
                -0.07506478080974305,
                0.4329665971545858,
                3.1361499051832524
            ]
        },
        {
            "positions": [
                -2.719585136845745,
                -0.6261758406523165,
                0.6597754665535415,
                0.07022950402036504,
                0.4382021370076403,
                3.010530768202665
            ]
        },
        {
            "positions": [
                -2.727473372315214,
                -0.6046541032308632,
                0.5700160432058857,
                0.21552378885047313,
                0.4434376768606948,
                2.884911631222078
            ]
        },
        {
            "positions": [
                -2.7353616077846827,
                -0.58313236580941,
                0.48025661985822987,
                0.3608180736805812,
                0.4486732167137493,
                2.7592924942414907
            ]
        },
        {
            "positions": [
                -2.7432498432541514,
                -0.5616106283879567,
                0.3904971965105741,
                0.5061123585106893,
                0.45390875656680385,
                2.6336733572609035
            ]
        },
        {
            "positions": [
                -2.757418189079261,
                -0.5712585808033253,
                0.37632706334966837,
                0.6377558248277516,
                0.4049468006437337,
                2.4581072316734773
            ]
        },
        {
            "positions": [
                -2.771586534904371,
                -0.5809065332186938,
                0.36215693018876266,
                0.769399291144814,
                0.3559848447206635,
                2.2825411060860508
            ]
        },
        {
            "positions": [
                -2.7857548807294807,
                -0.5905544856340624,
                0.347986797027857,
                0.9010427574618765,
                0.3070228887975933,
                2.1069749804986246
            ]
        },
        {
            "positions": [
                -2.799923226554591,
                -0.600202438049431,
                0.3338166638669513,
                1.032686223778939,
                0.2580609328745231,
                1.9314088549111985
            ]
        },
        {
            "positions": [
                -2.8140915723797004,
                -0.6098503904647995,
                0.3196465307060456,
                1.1643296900960012,
                0.2090989769514529,
                1.7558427293237722
            ]
        },
        {
            "positions": [
                -2.737057531259506,
                -0.6374131115170661,
                0.26527701429584727,
                1.0668328088242431,
                0.19922962880506875,
                1.6359346666333188
            ]
        },
        {
            "positions": [
                -2.6600234901393107,
                -0.6649758325693327,
                0.2109074978856489,
                0.9693359275524849,
                0.1893602806586846,
                1.5160266039428651
            ]
        },
        {
            "positions": [
                -2.582989449019116,
                -0.6925385536215993,
                0.15653798147545053,
                0.8718390462807268,
                0.17949093251230047,
                1.3961185412524117
            ]
        },
        {
            "positions": [
                -2.5059554078989215,
                -0.720101274673866,
                0.10216846506525218,
                0.7743421650089687,
                0.16962158436591632,
                1.2762104785619584
            ]
        },
        {
            "positions": [
                -2.4289213667787264,
                -0.7476639957261325,
                0.04779894865505385,
                0.6768452837372105,
                0.15975223621953216,
                1.156302415871505
            ]
        },
        {
            "positions": [
                -2.3518873256585318,
                -0.7752267167783992,
                -0.00657056775514453,
                0.5793484024654524,
                0.149882888073148,
                1.0363943531810513
            ]
        },
        {
            "positions": [
                -2.274853284538337,
                -0.8027894378306657,
                -0.060940084165342856,
                0.48185152119369423,
                0.14001353992676385,
                0.9164862904905979
            ]
        },
        {
            "positions": [
                -2.197819243418142,
                -0.8303521588829323,
                -0.11530960057554124,
                0.3843546399219362,
                0.13014419178037973,
                0.7965782278001445
            ]
        },
        {
            "positions": [
                -2.1207852022979474,
                -0.857914879935199,
                -0.16967911698573956,
                0.28685775865017804,
                0.12027484363399557,
                0.6766701651096911
            ]
        },
        {
            "positions": [
                -2.043751161177753,
                -0.8854776009874655,
                -0.2240486333959379,
                0.1893608773784199,
                0.11040549548761142,
                0.5567621024192377
            ]
        },
        {
            "positions": [
                -1.966717120057558,
                -0.9130403220397322,
                -0.2784181498061363,
                0.09186399610666185,
                0.10053614734122727,
                0.4368540397287841
            ]
        },
        {
            "positions": [
                -1.889683078937363,
                -0.9406030430919988,
                -0.33278766621633465,
                -0.005632885165096413,
                0.0906667991948431,
                0.3169459770383305
            ]
        },
        {
            "positions": [
                -1.8126490378171682,
                -0.9681657641442654,
                -0.38715718262653304,
                -0.10312976643685445,
                0.08079745104845895,
                0.1970379143478771
            ]
        },
        {
            "positions": [
                -1.7356149966969736,
                -0.995728485196532,
                -0.4415266990367313,
                -0.20062664770861272,
                0.07092810290207482,
                0.0771298516574237
            ]
        },
        {
            "positions": [
                -1.6585809555767788,
                -1.0232912062487987,
                -0.4958962154469297,
                -0.29812352898037076,
                0.06105875475569067,
                -0.0427782110330297
            ]
        },
        {
            "positions": [
                -1.581546914456584,
                -1.0508539273010653,
                -0.550265731857128,
                -0.3956204102521288,
                0.051189406609306515,
                -0.1626862737234831
            ]
        },
        {
            "positions": [
                -1.5045128733363893,
                -1.0784166483533317,
                -0.6046352482673263,
                -0.49311729152388706,
                0.04132005846292239,
                -0.2825943364139365
            ]
        },
        {
            "positions": [
                -1.4274788322161944,
                -1.1059793694055984,
                -0.6590047646775248,
                -0.5906141727956451,
                0.03145071031653823,
                -0.4025023991043899
            ]
        },
        {
            "positions": [
                -1.3504447910959998,
                -1.133542090457865,
                -0.713374281087723,
                -0.6881110540674031,
                0.021581362170154078,
                -0.5224104617948433
            ]
        },
        {
            "positions": [
                -1.273410749975805,
                -1.1611048115101315,
                -0.7677437974979213,
                -0.7856079353391614,
                0.011712014023769923,
                -0.6423185244852967
            ]
        },
        {
            "positions": [
                -1.19637670885561,
                -1.1886675325623983,
                -0.8221133139081196,
                -0.8831048166109192,
                0.0018426658773857962,
                -0.7622265871757501
            ]
        },
        {
            "positions": [
                -1.1193426677354155,
                -1.2162302536146647,
                -0.8764828303183181,
                -0.9806016978826775,
                -0.008026682268998359,
                -0.8821346498662039
            ]
        },
        {
            "positions": [
                -1.0423086266152204,
                -1.2437929746669316,
                -0.9308523467285166,
                -1.0780985791544357,
                -0.01789603041538254,
                -1.0020427125566573
            ]
        },
        {
            "positions": [
                -0.9652745854950258,
                -1.271355695719198,
                -0.9852218631387148,
                -1.175595460426194,
                -0.027765378561766696,
                -1.1219507752471112
            ]
        },
        {
            "positions": [
                -0.8882405443748309,
                -1.2989184167714647,
                -1.0395913795489131,
                -1.2730923416979523,
                -0.03763472670815082,
                -1.2418588379375646
            ]
        },
        {
            "positions": [
                -0.8112065032546361,
                -1.3264811378237313,
                -1.0939608959591116,
                -1.37058922296971,
                -0.047504074854535006,
                -1.361766900628018
            ]
        },
        {
            "positions": [
                -0.7341724621344414,
                -1.3540438588759978,
                -1.1483304123693099,
                -1.4680861042414683,
                -0.05737342300091913,
                -1.4816749633184714
            ]
        },
        {
            "positions": [
                -0.6571384210142468,
                -1.3816065799282646,
                -1.2026999287795082,
                -1.5655829855132266,
                -0.06724277114730326,
                -1.6015830260089248
            ]
        },
        {
            "positions": [
                -0.5801043798940517,
                -1.409169300980531,
                -1.2570694451897066,
                -1.6630798667849844,
                -0.07711211929368744,
                -1.7214910886993782
            ]
        },
        {
            "positions": [
                -0.5030703387738571,
                -1.4367320220327977,
                -1.311438961599905,
                -1.7605767480567427,
                -0.08698146744007158,
                -1.8413991513898318
            ]
        },
        {
            "positions": [
                -0.4294741314691209,
                -1.4578055227623345,
                -1.411511866751977,
                -1.803352453412882,
                -0.08141404471215163,
                -1.9744065740757761
            ]
        },
        {
            "positions": [
                -0.3558779241643847,
                -1.4788790234918712,
                -1.511584771904049,
                -1.8461281587690213,
                -0.07584662198423167,
                -2.1074139967617205
            ]
        },
        {
            "positions": [
                -0.2822817168596485,
                -1.499952524221408,
                -1.611657677056121,
                -1.8889038641251605,
                -0.07027919925631172,
                -2.240421419447665
            ]
        },
        {
            "positions": [
                -0.20868550955491227,
                -1.5210260249509446,
                -1.711730582208193,
                -1.9316795694812998,
                -0.06471177652839177,
                -2.373428842133609
            ]
        },
        {
            "positions": [
                -0.135089302250176,
                -1.5420995256804815,
                -1.811803487360265,
                -1.9744552748374393,
                -0.05914435380047181,
                -2.5064362648195537
            ]
        },
        {
            "positions": [
                -0.06149309494543986,
                -1.563173026410018,
                -1.9118763925123372,
                -2.0172309801935784,
                -0.05357693107255186,
                -2.639443687505498
            ]
        },
        {
            "positions": [
                0.012103112359296356,
                -1.584246527139555,
                -2.011949297664409,
                -2.060006685549718,
                -0.048009508344631906,
                -2.7724511101914424
            ]
        },
        {
            "positions": [
                -0.026859936729347396,
                -1.586362482248542,
                -2.180707094831858,
                -2.065576636523966,
                -0.03321215548705231,
                -2.931561072473197
            ]
        },
        {
            "positions": [
                -0.06582298581799115,
                -1.5884784373575291,
                -2.349464891999307,
                -2.0711465874982147,
                -0.018414802629472704,
                -3.090671034754952
            ]
        },
        {
            "positions": [
                -0.1047860349066349,
                -1.5905943924665162,
                -2.518222689166756,
                -2.076716538472463,
                -0.0036174497718931,
                -3.249780997036707
            ]
        },
        {
            "positions": [
                -0.1453136704398244,
                -1.6683256237361324,
                -2.4397298358747643,
                -2.1278286146731844,
                -0.08651628963551174,
                -3.1978738436517196
            ]
        },
        {
            "positions": [
                -0.18584130597301393,
                -1.7460568550057483,
                -2.361236982582773,
                -2.1789406908739055,
                -0.16941512949913037,
                -3.1459666902667323
            ]
        }
    ]
}