{
    "goal": {
        "global_pose": {
            "orientation": {
                "w": 0.7031023502349854,
                "x": -0.7110244035720825,
                "y": 0.007748599164187908,
                "z": 0.005598929710686207
            },
            "position": {
                "x": 0.11585023208521307,
                "y": 0.44412534475326537,
                "z": 0.3711530566215515
            }
        },
        "name": "move_to_auspresseinheit_A"
    },
    "id": "ProjEST_move_to_auspresseinheit_A_79",
    "joint_names": [
        "shoulder_pan_joint",
        "shoulder_lift_joint",
        "elbow_joint",
        "wrist_1_joint",
        "wrist_2_joint",
        "wrist_3_joint"
    ],
    "metrics": {
        "cart_traj_len": 1.0748819431228622,
        "distance_elbow_joint": 0.7563801585883683,
        "distance_shoulder_lift_joint": 0.5511117151035292,
        "distance_shoulder_pan_joint": 1.0475040581281172,
        "distance_wrist_1_joint": 0.6612815637064017,
        "distance_wrist_2_joint": 0.5923278884921286,
        "distance_wrist_3_joint": 2.1772985751633667,
        "smoothness": 1.1967666870998508,
        "time": 0.243121623,
        "traj_len": 2.4053906042848654,
        "weighted_distance": 3.375516340014839
    },
    "planner": "ProjEST",
    "start": {
        "state": {
            "elbow_joint": 2.4225747245308327,
            "shoulder_lift_joint": -1.373653427065438,
            "shoulder_pan_joint": -0.33786330853087027,
            "wrist_1_joint": -1.0288602302712604,
            "wrist_2_joint": 1.23302299562683,
            "wrist_3_joint": -3.094021725338297
        }
    },
    "waypoints": [
        {
            "positions": [
                -0.33786330853087027,
                -1.373653427065438,
                2.4225747245308327,
                -1.0288602302712604,
                1.23302299562683,
                -3.094021725338297
            ]
        },
        {
            "positions": [
                -0.3243113311303449,
                -1.436239463716939,
                2.3732339866474144,
                -0.9719526096864473,
                1.1806193501616196,
                -2.9604428565465115
            ]
        },
        {
            "positions": [
                -0.31075935372981955,
                -1.4988255003684396,
                2.3238932487639956,
                -0.915044989101634,
                1.1282157046964092,
                -2.8268639877547264
            ]
        },
        {
            "positions": [
                -0.29720737632929417,
                -1.5614115370199406,
                2.2745525108805773,
                -0.8581373685168209,
                1.0758120592311988,
                -2.6932851189629408
            ]
        },
        {
            "positions": [
                -0.28365539892876884,
                -1.6239975736714416,
                2.2252117729971586,
                -0.8012297479320076,
                1.0234084137659885,
                -2.559706250171155
            ]
        },
        {
            "positions": [
                -0.27010342152824346,
                -1.6865836103229424,
                2.1758710351137402,
                -0.7443221273471945,
                0.971004768300778,
                -2.42612738137937
            ]
        },
        {
            "positions": [
                -0.25655144412771813,
                -1.7491696469744433,
                2.126530297230322,
                -0.6874145067623814,
                0.9186011228355675,
                -2.2925485125875844
            ]
        },
        {
            "positions": [
                -0.24299946672719275,
                -1.811755683625944,
                2.077189559346903,
                -0.6305068861775682,
                0.8661974773703571,
                -2.158969643795799
            ]
        },
        {
            "positions": [
                -0.2294474893266674,
                -1.874341720277445,
                2.027848821463485,
                -0.573599265592755,
                0.8137938319051468,
                -2.0253907750040137
            ]
        },
        {
            "positions": [
                -0.09047682802127172,
                -1.8825726947860826,
                2.085114325242047,
                -0.5412138377737931,
                0.8215354872263038,
                -2.160274329606736
            ]
        },
        {
            "positions": [
                0.04849383328412396,
                -1.8908036692947199,
                2.142379829020609,
                -0.5088284099548311,
                0.8292771425474608,
                -2.2951578842094578
            ]
        },
        {
            "positions": [
                0.18746449458951966,
                -1.8990346438033574,
                2.1996453327991707,
                -0.4764429821358693,
                0.8370187978686177,
                -2.43004143881218
            ]
        },
        {
            "positions": [
                0.32643515589491534,
                -1.9072656183119947,
                2.256910836577733,
                -0.4440575543169073,
                0.8447604531897747,
                -2.564924993414902
            ]
        },
        {
            "positions": [
                0.46540581720031104,
                -1.9154965928206322,
                2.314176340356295,
                -0.41167212649794543,
                0.8525021085109317,
                -2.699808548017624
            ]
        },
        {
            "positions": [
                0.546817461332623,
                -1.9124070763711873,
                2.3392852525656984,
                -0.426369946475641,
                0.8077052924560448,
                -2.844558498622782
            ]
        },
        {
            "positions": [
                0.6282291054649349,
                -1.9093175599217422,
                2.364394164775102,
                -0.4410677664533367,
                0.762908476401158,
                -2.989308449227939
            ]
        },
        {
            "positions": [
                0.7096407495972469,
                -1.9062280434722974,
                2.3895030769845054,
                -0.45576558643103227,
                0.7181116603462712,
                -3.134058399833097
            ]
        }
    ]
}