{
    "goal": {
        "global_pose": {
            "orientation": {
                "w": -0.4816463035849501,
                "x": 0.5182115481033762,
                "y": 0.4908360881923453,
                "z": -0.5084816262002911
            },
            "position": {
                "x": -0.8240239810943604,
                "y": 0.19912469901144506,
                "z": 0.16403168439865112
            }
        },
        "name": "move_to_storage_D"
    },
    "id": "ProjEST_move_to_storage_D_135",
    "joint_names": [
        "shoulder_pan_joint",
        "shoulder_lift_joint",
        "elbow_joint",
        "wrist_1_joint",
        "wrist_2_joint",
        "wrist_3_joint"
    ],
    "metrics": {
        "cart_traj_len": 3.6177030353704565,
        "distance_elbow_joint": 4.214871402921111,
        "distance_shoulder_lift_joint": 1.2634092917513127,
        "distance_shoulder_pan_joint": 2.8133628973595695,
        "distance_wrist_1_joint": 3.1706450819684813,
        "distance_wrist_2_joint": 1.520433420924178,
        "distance_wrist_3_joint": 3.2330647616107626,
        "smoothness": 0.2503455357063627,
        "time": 0.117680306,
        "traj_len": 4.026883019971578,
        "weighted_distance": 5.231920764179213
    },
    "planner": "ProjEST",
    "start": {
        "state": {
            "elbow_joint": -2.384821997420982,
            "shoulder_lift_joint": -2.2788054674887404,
            "shoulder_pan_joint": -0.18546946417610016,
            "wrist_1_joint": 1.4845937964226739,
            "wrist_2_joint": 0.1789877726866377,
            "wrist_3_joint": 0.03710572555276528
        }
    },
    "waypoints": [
        {
            "positions": [
                -0.18546946417610016,
                -2.2788054674887404,
                -2.384821997420982,
                1.4845937964226739,
                0.1789877726866377,
                0.03710572555276528
            ]
        },
        {
            "positions": [
                -0.1536326562012066,
                -2.256062240101687,
                -2.370812953604232,
                1.4724990699468838,
                0.15085056975621902,
                -0.0036052194986752537
            ]
        },
        {
            "positions": [
                -0.08709644584271854,
                -2.238671896089831,
                -2.2400946301028943,
                1.387620289661683,
                0.14162355573288146,
                0.07304561770795157
            ]
        },
        {
            "positions": [
                -0.02056023548423047,
                -2.2212815520779747,
                -2.1093763066015563,
                1.3027415093764818,
                0.1323965417095439,
                0.1496964549145784
            ]
        },
        {
            "positions": [
                0.045975974874257614,
                -2.2038912080661186,
                -1.9786579831002187,
                1.217862729091281,
                0.12316952768620634,
                0.22634729212120522
            ]
        },
        {
            "positions": [
                0.11251218523274567,
                -2.1865008640542625,
                -1.8479396595988808,
                1.1329839488060798,
                0.11394251366286878,
                0.30299812932783204
            ]
        },
        {
            "positions": [
                0.17904839559123373,
                -2.169110520042406,
                -1.717221336097543,
                1.0481051685208789,
                0.10471549963953122,
                0.37964896653445884
            ]
        },
        {
            "positions": [
                0.24558460594972184,
                -2.1517201760305498,
                -1.5865030125962054,
                0.9632263882356779,
                0.09548848561619365,
                0.4562998037410857
            ]
        },
        {
            "positions": [
                0.31212081630820987,
                -2.1343298320186936,
                -1.4557846890948676,
                0.8783476079504768,
                0.08626147159285609,
                0.5329506409477126
            ]
        },
        {
            "positions": [
                0.378657026666698,
                -2.1169394880068375,
                -1.3250663655935297,
                0.7934688276652758,
                0.07703445756951853,
                0.6096014781543394
            ]
        },
        {
            "positions": [
                0.4451932370251861,
                -2.0995491439949814,
                -1.194348042092192,
                0.7085900473800748,
                0.06780744354618097,
                0.6862523153609662
            ]
        },
        {
            "positions": [
                0.5117294473836741,
                -2.0821587999831253,
                -1.063629718590854,
                0.6237112670948738,
                0.05858042952284341,
                0.762903152567593
            ]
        },
        {
            "positions": [
                0.5782656577421622,
                -2.064768455971269,
                -0.9329113950895165,
                0.5388324868096728,
                0.04935341549950585,
                0.8395539897742199
            ]
        },
        {
            "positions": [
                0.6448018681006503,
                -2.0473781119594125,
                -0.8021930715881787,
                0.45395370652447187,
                0.04012640147616828,
                0.9162048269808467
            ]
        },
        {
            "positions": [
                0.7113380784591383,
                -2.0299877679475564,
                -0.6714747480868408,
                0.36907492623927074,
                0.030899387452830718,
                0.9928556641874735
            ]
        },
        {
            "positions": [
                0.7778742888176264,
                -2.0125974239357003,
                -0.5407564245855032,
                0.28419614595406983,
                0.021672373429493158,
                1.0695065013941003
            ]
        },
        {
            "positions": [
                0.8444104991761144,
                -1.9952070799238442,
                -0.4100381010841654,
                0.1993173656688687,
                0.012445359406155598,
                1.146157338600727
            ]
        },
        {
            "positions": [
                0.9109467095346026,
                -1.977816735911988,
                -0.27931977758282756,
                0.1144385853836678,
                0.0032183453828180386,
                1.222808175807354
            ]
        },
        {
            "positions": [
                0.9774829198930907,
                -1.960426391900132,
                -0.14860145408148995,
                0.029559805098466896,
                -0.006008668640519521,
                1.2994590130139807
            ]
        },
        {
            "positions": [
                1.0440191302515787,
                -1.9430360478882758,
                -0.017883130580151896,
                -0.05531897518673423,
                -0.01523568266385708,
                1.3761098502206075
            ]
        },
        {
            "positions": [
                1.1105553406100666,
                -1.9256457038764194,
                0.11283519292118571,
                -0.14019775547193514,
                -0.02446269668719464,
                1.4527606874272343
            ]
        },
        {
            "positions": [
                1.1770915509685547,
                -1.9082553598645633,
                0.24355351642252376,
                -0.22507653575713626,
                -0.0336897107105322,
                1.529411524633861
            ]
        },
        {
            "positions": [
                1.2436277613270428,
                -1.8908650158527072,
                0.37427183992386137,
                -0.30995531604233717,
                -0.04291672473386976,
                1.6060623618404881
            ]
        },
        {
            "positions": [
                1.310163971685531,
                -1.8734746718408508,
                0.504990163425199,
                -0.3948340963275383,
                -0.05214373875720732,
                1.682713199047115
            ]
        },
        {
            "positions": [
                1.376700182044019,
                -1.8560843278289947,
                0.635708486926537,
                -0.4797128766127392,
                -0.06137075278054488,
                1.7593640362537417
            ]
        },
        {
            "positions": [
                1.4432363924025071,
                -1.8386939838171386,
                0.7664268104278746,
                -0.5645916568979401,
                -0.07059776680388247,
                1.8360148734603685
            ]
        },
        {
            "positions": [
                1.509772602760995,
                -1.8213036398052824,
                0.8971451339292122,
                -0.6494704371831412,
                -0.07982478082722003,
                1.9126657106669953
            ]
        },
        {
            "positions": [
                1.5763088131194831,
                -1.8039132957934263,
                1.0278634574305503,
                -0.7343492174683424,
                -0.08905179485055759,
                1.989316547873622
            ]
        },
        {
            "positions": [
                1.6428450234779712,
                -1.78652295178157,
                1.158581780931888,
                -0.819227997753543,
                -0.09827880887389515,
                2.065967385080249
            ]
        },
        {
            "positions": [
                1.7093812338364593,
                -1.7691326077697138,
                1.2893001044332255,
                -0.9041067780387442,
                -0.1075058228972327,
                2.142618222286876
            ]
        },
        {
            "positions": [
                1.7759174441949475,
                -1.7517422637578577,
                1.4200184279345636,
                -0.9889855583239453,
                -0.11673283692057024,
                2.2192690594935027
            ]
        },
        {
            "positions": [
                1.8424536545534353,
                -1.7343519197460013,
                1.5507367514359012,
                -1.0738643386091464,
                -0.12595985094390783,
                2.2959198967001297
            ]
        },
        {
            "positions": [
                1.9089898649119235,
                -1.7169615757341452,
                1.6814550749372392,
                -1.1587431188943471,
                -0.13518686496724536,
                2.3725707339067563
            ]
        },
        {
            "positions": [
                1.9755260752704118,
                -1.699571231722289,
                1.8121733984385768,
                -1.2436218991795482,
                -0.14441387899058294,
                2.4492215711133833
            ]
        },
        {
            "positions": [
                2.0407628110617178,
                -1.631153726123803,
                1.8139609991447319,
                -1.1993789605429224,
                -0.0247107020658872,
                2.5231742737081095
            ]
        },
        {
            "positions": [
                2.1059995468530235,
                -1.5627362205253168,
                1.8157485998508869,
                -1.1551360219062965,
                0.09499247485880855,
                2.597126976302836
            ]
        },
        {
            "positions": [
                2.171236282644329,
                -1.4943187149268307,
                1.8175362005570421,
                -1.1108930832696704,
                0.21469565178350425,
                2.6710796788975624
            ]
        },
        {
            "positions": [
                2.236473018435635,
                -1.4259012093283445,
                1.8193238012631971,
                -1.0666501446330445,
                0.33439882870820004,
                2.745032381492289
            ]
        },
        {
            "positions": [
                2.3017097542269407,
                -1.3574837037298584,
                1.8211114019693522,
                -1.0224072059964187,
                0.45410200563289577,
                2.818985084087015
            ]
        },
        {
            "positions": [
                2.3669464900182464,
                -1.2890661981313722,
                1.8228990026755072,
                -0.9781642673597927,
                0.5738051825575914,
                2.8929377866817414
            ]
        },
        {
            "positions": [
                2.432183225809552,
                -1.220648692532886,
                1.8246866033816622,
                -0.9339213287231667,
                0.6935083594822873,
                2.966890489276468
            ]
        },
        {
            "positions": [
                2.497419961600858,
                -1.1522311869344,
                1.8264742040878175,
                -0.8896783900865408,
                0.813211536406983,
                3.0408431918711942
            ]
        },
        {
            "positions": [
                2.5626566973921636,
                -1.0838136813359138,
                1.8282618047939725,
                -0.8454354514499149,
                0.9329147133316789,
                3.114795894465921
            ]
        },
        {
            "positions": [
                2.6278934331834694,
                -1.0153961757374277,
                1.8300494055001275,
                -0.801192512813289,
                1.0526178902563745,
                3.188748597060647
            ]
        }
    ]
}