{
    "goal": {
        "global_pose": {
            "orientation": {
                "w": -0.00223480608172531,
                "x": 0.0024358444001904467,
                "y": 0.7094548369677653,
                "z": -0.704743149386269
            },
            "position": {
                "x": -0.37947507619857795,
                "y": -0.6371506643295288,
                "z": 0.19426114857196808
            }
        },
        "name": "move_to_magneteinheit_C"
    },
    "id": "ProjEST_move_to_magneteinheit_C_23",
    "joint_names": [
        "shoulder_pan_joint",
        "shoulder_lift_joint",
        "elbow_joint",
        "wrist_1_joint",
        "wrist_2_joint",
        "wrist_3_joint"
    ],
    "metrics": {
        "cart_traj_len": 2.54762802311413,
        "distance_elbow_joint": 1.614368946268093,
        "distance_shoulder_lift_joint": 0.7438842947962823,
        "distance_shoulder_pan_joint": 2.1244630780629894,
        "distance_wrist_1_joint": 1.043684653840432,
        "distance_wrist_2_joint": 1.0306992827918697,
        "distance_wrist_3_joint": 8.089315936976966,
        "smoothness": 0.6041180309478068,
        "time": 4.387370225,
        "traj_len": 3.827063651513602,
        "weighted_distance": 5.735802646824841
    },
    "planner": "ProjEST",
    "start": {
        "state": {
            "elbow_joint": 1.9565354006590394,
            "shoulder_lift_joint": -1.4165861576513559,
            "shoulder_pan_joint": -1.6717766223277177,
            "wrist_1_joint": -0.5286633288215096,
            "wrist_2_joint": 1.4727565892594296,
            "wrist_3_joint": 3.1593482883155493
        }
    },
    "waypoints": [
        {
            "positions": [
                -1.6717766223277177,
                -1.4165861576513559,
                1.9565354006590394,
                -0.5286633288215096,
                1.4727565892594296,
                3.1593482883155493
            ]
        },
        {
            "positions": [
                -1.594664826697763,
                -1.3733016735243924,
                1.9861155596990565,
                -0.5578860459818484,
                1.4271413959484325,
                3.089213456635944
            ]
        },
        {
            "positions": [
                -1.517553031067808,
                -1.330017189397429,
                2.0156957187390736,
                -0.5871087631421873,
                1.381526202637435,
                3.0190786249563386
            ]
        },
        {
            "positions": [
                -1.4710263809452038,
                -1.3675263862926905,
                1.9445170444539783,
                -0.5569106983976772,
                1.3435334219814907,
                2.881722017373649
            ]
        },
        {
            "positions": [
                -1.4244997308225995,
                -1.4050355831879517,
                1.873338370168883,
                -0.526712633653167,
                1.3055406413255464,
                2.744365409790959
            ]
        },
        {
            "positions": [
                -1.377973080699995,
                -1.442544780083213,
                1.8021596958837875,
                -0.4965145689086569,
                1.2675478606696022,
                2.6070088022082696
            ]
        },
        {
            "positions": [
                -1.3314464305773908,
                -1.4800539769784744,
                1.7309810215986925,
                -0.46631650416414683,
                1.2295550800136579,
                2.46965219462558
            ]
        },
        {
            "positions": [
                -1.2849197804547865,
                -1.5175631738737358,
                1.659802347313597,
                -0.4361184394196367,
                1.1915622993577135,
                2.33229558704289
            ]
        },
        {
            "positions": [
                -1.2383931303321822,
                -1.555072370768997,
                1.5886236730285017,
                -0.40592037467512654,
                1.1535695187017692,
                2.1949389794602006
            ]
        },
        {
            "positions": [
                -1.1742006654545944,
                -1.5755933714059345,
                1.5188699433242414,
                -0.4124447713746547,
                1.1144336260606829,
                2.029284393581788
            ]
        },
        {
            "positions": [
                -1.2461020730488193,
                -1.5619322029155684,
                1.4999146401620844,
                -0.452268055688357,
                1.079822021130987,
                1.8340647987252607
            ]
        },
        {
            "positions": [
                -1.3180034806430438,
                -1.5482710344252024,
                1.4809593369999274,
                -0.4920913400020593,
                1.0452104162012912,
                1.6388452038687333
            ]
        },
        {
            "positions": [
                -1.3899048882372687,
                -1.5346098659348364,
                1.4620040338377702,
                -0.5319146243157615,
                1.0105988112715956,
                1.4436256090122057
            ]
        },
        {
            "positions": [
                -1.4618062958314935,
                -1.5209486974444704,
                1.4430487306756132,
                -0.5717379086294638,
                0.9759872063418997,
                1.2484060141556783
            ]
        },
        {
            "positions": [
                -1.533707703425718,
                -1.5072875289541043,
                1.4240934275134562,
                -0.6115611929431661,
                0.9413756014122039,
                1.053186419299151
            ]
        },
        {
            "positions": [
                -1.6056091110199429,
                -1.4936263604637383,
                1.4051381243512993,
                -0.6513844772568684,
                0.9067639964825082,
                0.8579668244426233
            ]
        },
        {
            "positions": [
                -1.6775105186141674,
                -1.4799651919733723,
                1.3861828211891423,
                -0.6912077615705707,
                0.8721523915528123,
                0.6627472295860959
            ]
        },
        {
            "positions": [
                -1.7494119262083925,
                -1.4663040234830063,
                1.367227518026985,
                -0.731031045884273,
                0.8375407866231166,
                0.4675276347295685
            ]
        },
        {
            "positions": [
                -1.821313333802617,
                -1.4526428549926402,
                1.348272214864828,
                -0.7708543301979753,
                0.8029291816934208,
                0.2723080398730411
            ]
        },
        {
            "positions": [
                -1.8932147413968416,
                -1.4389816865022742,
                1.329316911702671,
                -0.8106776145116776,
                0.768317576763725,
                0.07708844501651368
            ]
        },
        {
            "positions": [
                -1.9651161489910665,
                -1.4253205180119082,
                1.310361608540514,
                -0.8505008988253799,
                0.7337059718340293,
                -0.11813114984001372
            ]
        },
        {
            "positions": [
                -2.0370175565852913,
                -1.4116593495215422,
                1.291406305378357,
                -0.8903241831390822,
                0.6990943669043335,
                -0.31335074469654156
            ]
        },
        {
            "positions": [
                -2.108918964179516,
                -1.3979981810311761,
                1.2724510022161999,
                -0.9301474674527845,
                0.6644827619746376,
                -0.508570339553069
            ]
        },
        {
            "positions": [
                -2.1808203717737404,
                -1.38433701254081,
                1.253495699054043,
                -0.9699707517664868,
                0.6298711570449418,
                -0.7037899344095964
            ]
        },
        {
            "positions": [
                -2.2527217793679655,
                -1.370675844050444,
                1.234540395891886,
                -1.0097940360801891,
                0.5952595521152461,
                -0.8990095292661239
            ]
        },
        {
            "positions": [
                -2.347649530771813,
                -1.3368146079952414,
                1.2754264888912117,
                -0.9728322077470861,
                0.581218693395016,
                -0.902301216254501
            ]
        },
        {
            "positions": [
                -2.4425772821756606,
                -1.3029533719400388,
                1.3163125818905375,
                -0.9358703794139831,
                0.5671778346747859,
                -0.9055929032428782
            ]
        },
        {
            "positions": [
                -2.5075145927183993,
                -1.2734226083272207,
                1.3780380410816553,
                -0.9056641461763424,
                0.5630041075011782,
                -0.7072054714034517
            ]
        },
        {
            "positions": [
                -2.572451903261138,
                -1.2438918447144023,
                1.4397635002727731,
                -0.8754579129387017,
                0.5588303803275706,
                -0.5088180395640253
            ]
        },
        {
            "positions": [
                -2.6373892138038766,
                -1.2143610811015841,
                1.501488959463891,
                -0.845251679701061,
                0.554656653153963,
                -0.31043060772459874
            ]
        },
        {
            "positions": [
                -2.6345072290767004,
                -1.2069842934508535,
                1.5448062121301291,
                -0.8398771582716047,
                0.5622521347570156,
                -0.04548695650740364
            ]
        },
        {
            "positions": [
                -2.6316252443495247,
                -1.1996075058001228,
                1.5881234647963673,
                -0.8345026368421484,
                0.5698476163600683,
                0.21945669470979146
            ]
        },
        {
            "positions": [
                -2.6287432596223486,
                -1.1922307181493919,
                1.6314407174626053,
                -0.8291281154126922,
                0.5774430979631209,
                0.48440034592698644
            ]
        },
        {
            "positions": [
                -2.625861274895173,
                -1.1848539304986612,
                1.6747579701288435,
                -0.8237535939832359,
                0.5850385795661736,
                0.7493439971441817
            ]
        },
        {
            "positions": [
                -2.6229792901679967,
                -1.1774771428479305,
                1.7180752227950817,
                -0.8183790725537796,
                0.5926340611692262,
                1.0142876483613765
            ]
        },
        {
            "positions": [
                -2.6016523402816105,
                -1.1755310119942382,
                1.7595778625718925,
                -0.8196308162853827,
                0.6032943381222462,
                1.314929676049131
            ]
        },
        {
            "positions": [
                -2.580325390395224,
                -1.1735848811405458,
                1.8010805023487033,
                -0.8208825600169859,
                0.6139546150752662,
                1.6155717037368853
            ]
        },
        {
            "positions": [
                -2.5589984405088377,
                -1.1716387502868535,
                1.842583142125514,
                -0.822134303748589,
                0.6246148920282861,
                1.91621373142464
            ]
        },
        {
            "positions": [
                -2.5376714906224516,
                -1.1696926194331614,
                1.8840857819023247,
                -0.8233860474801921,
                0.6352751689813062,
                2.216855759112394
            ]
        },
        {
            "positions": [
                -2.5163445407360654,
                -1.167746488579469,
                1.9255884216791355,
                -0.8246377912117951,
                0.6459354459343262,
                2.517497786800149
            ]
        },
        {
            "positions": [
                -2.495017590849679,
                -1.1658003577257767,
                1.9670910614559463,
                -0.8258895349433983,
                0.6565957228873461,
                2.8181398144879033
            ]
        },
        {
            "positions": [
                -2.4736906409632926,
                -1.1638542268720844,
                2.008593701232757,
                -0.8271412786750014,
                0.6672559998403661,
                3.118781842175658
            ]
        }
    ]
}