{
    "goal": {
        "global_pose": {
            "orientation": {
                "w": -0.4816463035849501,
                "x": 0.5182115481033762,
                "y": 0.4908360881923453,
                "z": -0.5084816262002911
            },
            "position": {
                "x": -0.8240239810943604,
                "y": -0.300875300988555,
                "z": 0.16403168439865112
            }
        },
        "name": "move_to_storage_C"
    },
    "id": "ProjEST_move_to_storage_C_81",
    "joint_names": [
        "shoulder_pan_joint",
        "shoulder_lift_joint",
        "elbow_joint",
        "wrist_1_joint",
        "wrist_2_joint",
        "wrist_3_joint"
    ],
    "metrics": {
        "cart_traj_len": 0.5772414805071642,
        "distance_elbow_joint": 0.2594023650959485,
        "distance_shoulder_lift_joint": 0.18966549206948902,
        "distance_shoulder_pan_joint": 0.4952228748300662,
        "distance_wrist_1_joint": 0.08128042041074213,
        "distance_wrist_2_joint": 1.0671215371879939,
        "distance_wrist_3_joint": 0.07356944006268229,
        "smoothness": 0.0,
        "time": 0.010980156,
        "traj_len": 1.471822723583558,
        "weighted_distance": 1.860592101289539
    },
    "planner": "ProjEST",
    "start": {
        "state": {
            "elbow_joint": 2.010868315001653,
            "shoulder_lift_joint": -1.1634956873357014,
            "shoulder_pan_joint": -2.4736205022346103,
            "wrist_1_joint": -0.8367026794713948,
            "wrist_2_joint": 0.6746043897044093,
            "wrist_3_joint": 3.1335220948105738
        }
    },
    "waypoints": [
        {
            "positions": [
                -2.4736205022346103,
                -1.1634956873357014,
                2.010868315001653,
                -0.8367026794713948,
                0.6746043897044093,
                3.1335220948105738
            ]
        },
        {
            "positions": [
                -2.5561576480396213,
                -1.1318847719907865,
                1.9676345874856618,
                -0.8231559427362711,
                0.8524579792357416,
                3.1457836681543543
            ]
        },
        {
            "positions": [
                -2.6386947938446323,
                -1.1002738566458716,
                1.9244008599696703,
                -0.8096092060011474,
                1.0303115687670739,
                3.1580452414981344
            ]
        },
        {
            "positions": [
                -2.7212319396496434,
                -1.068662941300957,
                1.8811671324536787,
                -0.7960624692660236,
                1.208165158298406,
                3.170306814841915
            ]
        },
        {
            "positions": [
                -2.8037690854546544,
                -1.037052025956042,
                1.8379334049376874,
                -0.7825157325309,
                1.3860187478297386,
                3.1825683881856954
            ]
        },
        {
            "positions": [
                -2.8863062312596655,
                -1.0054411106111272,
                1.7946996774216961,
                -0.7689689957957764,
                1.563872337361071,
                3.1948299615294755
            ]
        },
        {
            "positions": [
                -2.9688433770646765,
                -0.9738301952662124,
                1.7514659499057046,
                -0.7554222590606526,
                1.7417259268924032,
                3.207091534873256
            ]
        }
    ]
}