{
    "goal": {
        "global_pose": {
            "orientation": {
                "w": 0.5084816262002911,
                "x": -0.4908360881923452,
                "y": 0.5182115481033761,
                "z": -0.48164630358495003
            },
            "position": {
                "x": 0.5540239810943604,
                "y": -0.46912469901144505,
                "z": 0.16403168439865112
            }
        },
        "name": "move_to_storage_B"
    },
    "id": "ProjEST_move_to_storage_B_21",
    "joint_names": [
        "shoulder_pan_joint",
        "shoulder_lift_joint",
        "elbow_joint",
        "wrist_1_joint",
        "wrist_2_joint",
        "wrist_3_joint"
    ],
    "metrics": {
        "cart_traj_len": 2.9708388704709763,
        "distance_elbow_joint": 2.131986661482978,
        "distance_shoulder_lift_joint": 0.8362065299670065,
        "distance_shoulder_pan_joint": 2.8016787921906117,
        "distance_wrist_1_joint": 2.9795092262420533,
        "distance_wrist_2_joint": 2.7063869779965084,
        "distance_wrist_3_joint": 3.153483138488175,
        "smoothness": 0.284628462748584,
        "time": 0.20899267,
        "traj_len": 3.8222050345798215,
        "weighted_distance": 5.1577237040754955
    },
    "planner": "ProjEST",
    "start": {
        "state": {
            "elbow_joint": 1.6649325706314817,
            "shoulder_lift_joint": -0.6616388048112454,
            "shoulder_pan_joint": -0.9139837860083814,
            "wrist_1_joint": 2.146757197745094,
            "wrist_2_joint": -2.234196043158733,
            "wrist_3_joint": 0.005471033829999897
        }
    },
    "waypoints": [
        {
            "positions": [
                -0.9139837860083814,
                -0.6616388048112454,
                1.6649325706314817,
                2.146757197745094,
                -2.234196043158733,
                0.005471033829999897
            ]
        },
        {
            "positions": [
                -0.8450385477694076,
                -0.6957012447771873,
                1.6180353157096965,
                2.0740179174884403,
                -2.163766864913866,
                -0.09193013747767297
            ]
        },
        {
            "positions": [
                -0.7760933095304338,
                -0.7297636847431292,
                1.5711380607879113,
                2.0012786372317866,
                -2.0933376866689994,
                -0.18933130878534585
            ]
        },
        {
            "positions": [
                -0.70714807129146,
                -0.7638261247090712,
                1.524240805866126,
                1.928539356975133,
                -2.022908508424133,
                -0.28673248009301866
            ]
        },
        {
            "positions": [
                -0.6382028330524863,
                -0.7978885646750131,
                1.477343550944341,
                1.8558000767184792,
                -1.9524793301792662,
                -0.38413365140069156
            ]
        },
        {
            "positions": [
                -0.5692575948135123,
                -0.8319510046409551,
                1.430446296022556,
                1.7830607964618255,
                -1.8820501519343997,
                -0.4815348227083644
            ]
        },
        {
            "positions": [
                -0.5003123565745387,
                -0.866013444606897,
                1.3835490411007707,
                1.7103215162051717,
                -1.811620973689533,
                -0.5789359940160372
            ]
        },
        {
            "positions": [
                -0.4313671183355648,
                -0.9000758845728389,
                1.3366517861789855,
                1.6375822359485182,
                -1.7411917954446663,
                -0.6763371653237101
            ]
        },
        {
            "positions": [
                -0.36242188009659104,
                -0.9341383245387809,
                1.2897545312572003,
                1.5648429556918644,
                -1.6707626171997996,
                -0.773738336631383
            ]
        },
        {
            "positions": [
                -0.29347664185761724,
                -0.9682007645047229,
                1.242857276335415,
                1.4921036754352106,
                -1.600333438954933,
                -0.8711395079390558
            ]
        },
        {
            "positions": [
                -0.22453140361864343,
                -1.002263204470665,
                1.19596002141363,
                1.4193643951785568,
                -1.5299042607100666,
                -0.9685406792467287
            ]
        },
        {
            "positions": [
                -0.15558616537966952,
                -1.036325644436607,
                1.1490627664918447,
                1.346625114921903,
                -1.4594750824651999,
                -1.0659418505544016
            ]
        },
        {
            "positions": [
                -0.08664092714069582,
                -1.0703880844025488,
                1.1021655115700595,
                1.2738858346652493,
                -1.3890459042203331,
                -1.1633430218620744
            ]
        },
        {
            "positions": [
                -0.017695688901721907,
                -1.1044505243684908,
                1.0552682566482745,
                1.2011465544085955,
                -1.3186167259754664,
                -1.2607441931697474
            ]
        },
        {
            "positions": [
                0.05124954933725179,
                -1.1385129643344327,
                1.008371001726489,
                1.128407274151942,
                -1.2481875477305997,
                -1.3581453644774202
            ]
        },
        {
            "positions": [
                0.12019478757622559,
                -1.1725754043003747,
                0.961473746804704,
                1.0556679938952882,
                -1.1777583694857332,
                -1.4555465357850932
            ]
        },
        {
            "positions": [
                0.1891400258151993,
                -1.2066378442663166,
                0.9145764918829189,
                0.9829287136386347,
                -1.1073291912408665,
                -1.552947707092766
            ]
        },
        {
            "positions": [
                0.2580852640541732,
                -1.2407002842322585,
                0.8676792369611337,
                0.9101894333819809,
                -1.0369000129959998,
                -1.6503488784004388
            ]
        },
        {
            "positions": [
                0.3270305022931469,
                -1.2747627241982005,
                0.8207819820393485,
                0.8374501531253271,
                -0.9664708347511333,
                -1.7477500497081115
            ]
        },
        {
            "positions": [
                0.3959757405321208,
                -1.3088251641641424,
                0.7738847271175633,
                0.7647108728686733,
                -0.8960416565062665,
                -1.8451512210157845
            ]
        },
        {
            "positions": [
                0.31746420023474664,
                -1.2988767341318208,
                0.8391972964843559,
                0.6806338780599559,
                -0.8240294148565801,
                -1.9137228464706473
            ]
        },
        {
            "positions": [
                0.23895265993737247,
                -1.2889283040994992,
                0.9045098658511486,
                0.5965568832512383,
                -0.7520171732068938,
                -1.9822944719255098
            ]
        },
        {
            "positions": [
                0.1604411196399983,
                -1.2789798740671778,
                0.9698224352179412,
                0.5124798884425208,
                -0.6800049315572073,
                -2.0508660973803727
            ]
        },
        {
            "positions": [
                0.08192957934262413,
                -1.2690314440348562,
                1.0351350045847338,
                0.42840289363380335,
                -0.607992689907521,
                -2.1194377228352352
            ]
        },
        {
            "positions": [
                0.0034180390452499543,
                -1.2590830140025346,
                1.1004475739515265,
                0.34432589882508585,
                -0.5359804482578345,
                -2.1880093482900977
            ]
        },
        {
            "positions": [
                -0.07509350125212422,
                -1.249134583970213,
                1.1657601433183191,
                0.26024890401636835,
                -0.4639682066081481,
                -2.2565809737449607
            ]
        },
        {
            "positions": [
                -0.1536050415494984,
                -1.2391861539378914,
                1.2310727126851118,
                0.1761719092076509,
                -0.39195596495846163,
                -2.325152599199823
            ]
        },
        {
            "positions": [
                -0.23211658184687256,
                -1.22923772390557,
                1.2963852820519044,
                0.09209491439893336,
                -0.3199437233087753,
                -2.3937242246546857
            ]
        },
        {
            "positions": [
                -0.31062812214424673,
                -1.2192892938732485,
                1.3616978514186973,
                0.008017919590215916,
                -0.24793148165908885,
                -2.4622958501095487
            ]
        },
        {
            "positions": [
                -0.3891396624416209,
                -1.2093408638409269,
                1.4270104207854897,
                -0.07605907521850164,
                -0.1759192400094025,
                -2.530867475564411
            ]
        },
        {
            "positions": [
                -0.4676512027389951,
                -1.1993924338086053,
                1.4923229901522825,
                -0.1601360700272192,
                -0.10390699835971595,
                -2.599439101019274
            ]
        },
        {
            "positions": [
                -0.5461627430363692,
                -1.189444003776284,
                1.557635559519075,
                -0.24421306483593663,
                -0.031894756710029615,
                -2.6680107264741366
            ]
        },
        {
            "positions": [
                -0.6246742833337434,
                -1.1794955737439623,
                1.6229481288858678,
                -0.3282900596446543,
                0.04011748493965683,
                -2.7365823519289996
            ]
        },
        {
            "positions": [
                -0.7031858236311176,
                -1.1695471437116407,
                1.6882606982526602,
                -0.4123670544533715,
                0.11212972658934328,
                -2.805153977383862
            ]
        },
        {
            "positions": [
                -0.7816973639284918,
                -1.159598713679319,
                1.753573267619453,
                -0.4964440492620892,
                0.18414196823902973,
                -2.873725602838725
            ]
        },
        {
            "positions": [
                -0.8602089042258659,
                -1.1496502836469975,
                1.8188858369862457,
                -0.5805210440708066,
                0.25615420988871596,
                -2.9422972282935875
            ]
        },
        {
            "positions": [
                -0.9387204445232401,
                -1.1397018536146761,
                1.8841984063530384,
                -0.6645980388795243,
                0.3281664515384024,
                -3.01086885374845
            ]
        },
        {
            "positions": [
                -1.0172319848206142,
                -1.1297534235823545,
                1.949510975719831,
                -0.7486750336882415,
                0.40017869318808885,
                -3.0794404792033125
            ]
        },
        {
            "positions": [
                -1.0957435251179886,
                -1.119804993550033,
                2.0148235450866236,
                -0.8327520284969593,
                0.47219093483777524,
                -3.1480121046581755
            ]
        }
    ]
}