{
    "goal": {
        "global_pose": {
            "orientation": {
                "w": 0.7031023480610252,
                "x": -0.7110244013736278,
                "y": 0.0077485991402295624,
                "z": 0.005598929693374583
            },
            "position": {
                "x": -0.8841497679147869,
                "y": 0.44412534475326537,
                "z": 0.3711530566215515
            }
        },
        "name": "move_to_auspresseinheit_D"
    },
    "id": "ProjEST_move_to_auspresseinheit_D_80",
    "joint_names": [
        "shoulder_pan_joint",
        "shoulder_lift_joint",
        "elbow_joint",
        "wrist_1_joint",
        "wrist_2_joint",
        "wrist_3_joint"
    ],
    "metrics": {
        "cart_traj_len": 3.722379661747242,
        "distance_elbow_joint": 3.0019805499263867,
        "distance_shoulder_lift_joint": 1.2410807785648337,
        "distance_shoulder_pan_joint": 2.797820167517151,
        "distance_wrist_1_joint": 3.040662214562203,
        "distance_wrist_2_joint": 1.2546897913104156,
        "distance_wrist_3_joint": 0.17619107093770658,
        "smoothness": 0.3273159741848003,
        "time": 0.089707291,
        "traj_len": 3.392996400354515,
        "weighted_distance": 4.019969990008224
    },
    "planner": "ProjEST",
    "start": {
        "state": {
            "elbow_joint": 1.8268400409724999,
            "shoulder_lift_joint": -1.0144045787793008,
            "shoulder_pan_joint": 2.6280239544362485,
            "wrist_1_joint": -0.790705565816056,
            "wrist_2_joint": 1.0573557467365533,
            "wrist_3_joint": 3.1851377467193758
        }
    },
    "waypoints": [
        {
            "positions": [
                2.6280239544362485,
                -1.0144045787793008,
                1.8268400409724999,
                -0.790705565816056,
                1.0573557467365533,
                3.1851377467193758
            ]
        },
        {
            "positions": [
                2.610560560851034,
                -1.0654265751336034,
                1.7548050134591673,
                -0.6414731032852854,
                1.060913116211749,
                3.16682767599214
            ]
        },
        {
            "positions": [
                2.59309716726582,
                -1.116448571487906,
                1.682769985945835,
                -0.4922406407545147,
                1.0644704856869447,
                3.148517605264905
            ]
        },
        {
            "positions": [
                2.5756337736806056,
                -1.1674705678422086,
                1.6107349584325024,
                -0.34300817822374396,
                1.0680278551621405,
                3.130207534537669
            ]
        },
        {
            "positions": [
                2.4739511815783275,
                -1.2077674118978354,
                1.5075543855663398,
                -0.43904391255596215,
                1.021953126166406,
                3.134698677454558
            ]
        },
        {
            "positions": [
                2.3722685894760493,
                -1.2480642559534623,
                1.4043738127001772,
                -0.5350796468881803,
                0.9758783971706717,
                3.139189820371447
            ]
        },
        {
            "positions": [
                2.270585997373771,
                -1.2883611000090893,
                1.3011932398340147,
                -0.6311153812203985,
                0.9298036681749373,
                3.143680963288336
            ]
        },
        {
            "positions": [
                2.168903405271493,
                -1.3286579440647162,
                1.198012666967852,
                -0.7271511155526167,
                0.8837289391792029,
                3.148172106205225
            ]
        },
        {
            "positions": [
                2.0672208131692154,
                -1.368954788120343,
                1.0948320941016894,
                -0.8231868498848348,
                0.8376542101834685,
                3.1526632491221136
            ]
        },
        {
            "positions": [
                1.9655382210669372,
                -1.4092516321759698,
                0.9916515212355269,
                -0.9192225842170529,
                0.7915794811877341,
                3.1571543920390024
            ]
        },
        {
            "positions": [
                1.863855628964659,
                -1.4495484762315969,
                0.8884709483693642,
                -1.0152583185492712,
                0.7455047521919997,
                3.1616455349558916
            ]
        },
        {
            "positions": [
                1.762173036862381,
                -1.4898453202872237,
                0.7852903755032017,
                -1.1112940528814894,
                0.6994300231962655,
                3.1661366778727804
            ]
        },
        {
            "positions": [
                1.6604904447601028,
                -1.5301421643428506,
                0.6821098026370391,
                -1.2073297872137074,
                0.6533552942005311,
                3.170627820789669
            ]
        },
        {
            "positions": [
                1.5588078526578246,
                -1.5704390083984774,
                0.5789292297708766,
                -1.3033655215459257,
                0.6072805652047967,
                3.175118963706558
            ]
        },
        {
            "positions": [
                1.4571252605555467,
                -1.6107358524541042,
                0.475748656904714,
                -1.3994012558781437,
                0.5612058362090623,
                3.179610106623447
            ]
        },
        {
            "positions": [
                1.3554426684532686,
                -1.651032696509731,
                0.37256808403855146,
                -1.495436990210362,
                0.5151311072133279,
                3.184101249540336
            ]
        },
        {
            "positions": [
                1.2537600763509904,
                -1.6913295405653581,
                0.2693875111723887,
                -1.5914727245425802,
                0.4690563782175935,
                3.188592392457225
            ]
        },
        {
            "positions": [
                1.1520774842487123,
                -1.731626384620985,
                0.16620693830622613,
                -1.6875084588747984,
                0.4229816492218591,
                3.1930835353741136
            ]
        },
        {
            "positions": [
                1.0503948921464341,
                -1.771923228676612,
                0.06302636544006335,
                -1.7835441932070166,
                0.3769069202261247,
                3.1975746782910024
            ]
        },
        {
            "positions": [
                0.9487123000441562,
                -1.8122200727322388,
                -0.04015420742609899,
                -1.8795799275392346,
                0.3308321912303904,
                3.2020658212078916
            ]
        },
        {
            "positions": [
                0.847029707941878,
                -1.8525169167878657,
                -0.14333478029226177,
                -1.9756156618714529,
                0.2847574622346559,
                3.2065569641247804
            ]
        },
        {
            "positions": [
                0.7453471158395999,
                -1.8928137608434925,
                -0.2465153531584241,
                -2.071651396203671,
                0.23868273323892164,
                3.211048107041669
            ]
        },
        {
            "positions": [
                0.6436645237373217,
                -1.9331106048991193,
                -0.3496959260245869,
                -2.1676871305358896,
                0.19260800424318714,
                3.215539249958558
            ]
        },
        {
            "positions": [
                0.5419819316350436,
                -1.9734074489547462,
                -0.4528764988907492,
                -2.2637228648681074,
                0.14653327524745285,
                3.220030392875447
            ]
        },
        {
            "positions": [
                0.44029933953276545,
                -2.013704293010373,
                -0.5560570717569122,
                -2.3597585992003256,
                0.10045854625171835,
                3.224521535792336
            ]
        },
        {
            "positions": [
                0.33861674743048775,
                -2.054001137066,
                -0.6592376446230743,
                -2.4557943335325434,
                0.05438381725598407,
                3.229012678709225
            ]
        },
        {
            "positions": [
                0.2369341553282096,
                -2.0942979811216267,
                -0.7624182174892373,
                -2.551830067864762,
                0.008309088260249675,
                3.2335038216261136
            ]
        },
        {
            "positions": [
                0.13525156322593146,
                -2.1345948251772535,
                -0.8655987903553994,
                -2.64786580219698,
                -0.03776564073548472,
                3.2379949645430024
            ]
        },
        {
            "positions": [
                0.03356897112365331,
                -2.174891669232881,
                -0.9687793632215624,
                -2.743901536529198,
                -0.08384036973121911,
                3.2424861074598916
            ]
        },
        {
            "positions": [
                -0.06811362097862483,
                -2.2151885132885076,
                -1.071959936087725,
                -2.8399372708614163,
                -0.1299150987269535,
                3.2469772503767804
            ]
        },
        {
            "positions": [
                -0.16979621308090276,
                -2.2554853573441345,
                -1.1751405089538873,
                -2.9359730051936346,
                -0.17598982772268784,
                3.251468393293669
            ]
        }
    ]
}