{
    "goal": {
        "global_pose": {
            "orientation": {
                "w": 0.5084816217422485,
                "x": -0.49083608388900757,
                "y": 0.5182115435600281,
                "z": -0.4816462993621826
            },
            "position": {
                "x": 0.5540239810943604,
                "y": 0.030875300988554955,
                "z": 0.16403168439865112
            }
        },
        "name": "move_to_storage_A"
    },
    "id": "ProjEST_move_to_storage_A_18",
    "joint_names": [
        "shoulder_pan_joint",
        "shoulder_lift_joint",
        "elbow_joint",
        "wrist_1_joint",
        "wrist_2_joint",
        "wrist_3_joint"
    ],
    "metrics": {
        "cart_traj_len": 0.3529363676838558,
        "distance_elbow_joint": 0.45007448444583886,
        "distance_shoulder_lift_joint": 0.2362202869349499,
        "distance_shoulder_pan_joint": 0.4617082884195641,
        "distance_wrist_1_joint": 0.23798980152013594,
        "distance_wrist_2_joint": 1.09887374556449,
        "distance_wrist_3_joint": 0.10123289837690042,
        "smoothness": 4.440892133664971e-16,
        "time": 0.139178216,
        "traj_len": 1.6081354126011524,
        "weighted_distance": 2.0311151737654627
    },
    "planner": "ProjEST",
    "start": {
        "state": {
            "elbow_joint": 1.9715474177455299,
            "shoulder_lift_joint": -1.139484666580328,
            "shoulder_pan_joint": 0.12281154398918248,
            "wrist_1_joint": -0.7804687475355282,
            "wrist_2_joint": 0.12958649657246987,
            "wrist_3_joint": -3.1924925159053466
        }
    },
    "waypoints": [
        {
            "positions": [
                0.12281154398918248,
                -1.139484666580328,
                1.9715474177455299,
                -0.7804687475355282,
                0.12958649657246987,
                -3.1924925159053466
            ]
        },
        {
            "positions": [
                0.056853217072101905,
                -1.1732304218567493,
                2.035843772666364,
                -0.8144672906098334,
                0.28656846022453986,
                -3.178030673280075
            ]
        },
        {
            "positions": [
                -0.00910510984497867,
                -1.2069761771331708,
                2.1001401275871983,
                -0.8484658336841384,
                0.4435504238766099,
                -3.1635688306548038
            ]
        },
        {
            "positions": [
                -0.07506343676205926,
                -1.2407219324095922,
                2.1644364825080324,
                -0.8824643767584436,
                0.6005323875286799,
                -3.149106988029532
            ]
        },
        {
            "positions": [
                -0.14102176367913982,
                -1.2744676876860137,
                2.228732837428866,
                -0.9164629198327487,
                0.75751435118075,
                -3.1346451454042605
            ]
        },
        {
            "positions": [
                -0.2069800905962204,
                -1.308213442962435,
                2.2930291923497004,
                -0.9504614629070538,
                0.91449631483282,
                -3.120183302778989
            ]
        },
        {
            "positions": [
                -0.272938417513301,
                -1.3419591982388566,
                2.3573255472705346,
                -0.984460005981359,
                1.07147827848489,
                -3.1057214601537178
            ]
        },
        {
            "positions": [
                -0.3388967444303816,
                -1.3757049535152779,
                2.4216219021913687,
                -1.0184585490556641,
                1.22846024213696,
                -3.091259617528446
            ]
        }
    ]
}