{
    "goal": {
        "global_pose": {
            "orientation": {
                "w": -0.4816463035849501,
                "x": 0.5182115481033762,
                "y": 0.4908360881923453,
                "z": -0.5084816262002911
            },
            "position": {
                "x": -0.8240239810943604,
                "y": 0.19912469901144506,
                "z": 0.16403168439865112
            }
        },
        "name": "move_to_storage_D"
    },
    "id": "ProjEST_move_to_storage_D_150",
    "joint_names": [
        "shoulder_pan_joint",
        "shoulder_lift_joint",
        "elbow_joint",
        "wrist_1_joint",
        "wrist_2_joint",
        "wrist_3_joint"
    ],
    "metrics": {
        "cart_traj_len": 3.6068476274769266,
        "distance_elbow_joint": 4.208033027958588,
        "distance_shoulder_lift_joint": 1.2655828719578839,
        "distance_shoulder_pan_joint": 2.814410417236127,
        "distance_wrist_1_joint": 2.491829545938821,
        "distance_wrist_2_joint": 1.2431648289580517,
        "distance_wrist_3_joint": 3.3286117710296965,
        "smoothness": 0.2241633286127533,
        "time": 0.127137442,
        "traj_len": 3.918115932827815,
        "weighted_distance": 5.07383980630404
    },
    "planner": "ProjEST",
    "start": {
        "state": {
            "elbow_joint": -2.384821997420982,
            "shoulder_lift_joint": -2.2788054674887404,
            "shoulder_pan_joint": -0.18546946417610016,
            "wrist_1_joint": 1.4845937964226739,
            "wrist_2_joint": 0.1789877726866377,
            "wrist_3_joint": 0.03710572555276528
        }
    },
    "waypoints": [
        {
            "positions": [
                -0.18546946417610016,
                -2.2788054674887404,
                -2.384821997420982,
                1.4845937964226739,
                0.1789877726866377,
                0.03710572555276528
            ]
        },
        {
            "positions": [
                -0.09917826760214582,
                -2.246907733383837,
                -2.3500015381701616,
                1.5222643629178858,
                0.11904602037054679,
                0.005587187708996709
            ]
        },
        {
            "positions": [
                -0.012887071028191477,
                -2.215009999278933,
                -2.315181078919341,
                1.5599349294130975,
                0.05910426805445586,
                -0.02593135013477186
            ]
        },
        {
            "positions": [
                0.0734041255457629,
                -2.18311226517403,
                -2.280360619668521,
                1.5976054959083095,
                -0.0008374842616350811,
                -0.05744988797854044
            ]
        },
        {
            "positions": [
                0.14410680514466973,
                -2.1567848550874924,
                -2.157267611453858,
                1.534648746692339,
                0.020915207657931718,
                0.024422657513640693
            ]
        },
        {
            "positions": [
                0.21480948474357658,
                -2.130457445000955,
                -2.0341746032391947,
                1.4716919974763687,
                0.042667899577498516,
                0.10629520300582182
            ]
        },
        {
            "positions": [
                0.2855121643424835,
                -2.104130034914418,
                -1.911081595024532,
                1.4087352482603983,
                0.0644205914970653,
                0.18816774849800297
            ]
        },
        {
            "positions": [
                0.35621484394139025,
                -2.0778026248278807,
                -1.7879885868098688,
                1.345778499044428,
                0.08617328341663211,
                0.2700402939901841
            ]
        },
        {
            "positions": [
                0.4269175235402971,
                -2.0514752147413433,
                -1.664895578595206,
                1.2828217498284578,
                0.10792597533619891,
                0.3519128394823652
            ]
        },
        {
            "positions": [
                0.4976202031392041,
                -2.025147804654806,
                -1.541802570380543,
                1.2198650006124871,
                0.1296786672557657,
                0.4337853849745464
            ]
        },
        {
            "positions": [
                0.5683228827381108,
                -1.9988203945682688,
                -1.4187095621658798,
                1.156908251396517,
                0.15143135917533251,
                0.5156579304667275
            ]
        },
        {
            "positions": [
                0.6390255623370177,
                -1.9724929844817314,
                -1.2956165539512168,
                1.0939515021805466,
                0.17318405109489932,
                0.5975304759589086
            ]
        },
        {
            "positions": [
                0.7097282419359245,
                -1.9461655743951942,
                -1.172523545736554,
                1.0309947529645762,
                0.19493674301446612,
                0.6794030214510898
            ]
        },
        {
            "positions": [
                0.7804309215348314,
                -1.9198381643086568,
                -1.049430537521891,
                0.9680380037486058,
                0.2166894349340329,
                0.7612755669432708
            ]
        },
        {
            "positions": [
                0.8511336011337383,
                -1.8935107542221195,
                -0.926337529307228,
                0.9050812545326354,
                0.2384421268535997,
                0.843148112435452
            ]
        },
        {
            "positions": [
                0.9218362807326452,
                -1.8671833441355823,
                -0.803244521092565,
                0.8421245053166649,
                0.26019481877316647,
                0.9250206579276332
            ]
        },
        {
            "positions": [
                0.992538960331552,
                -1.840855934049045,
                -0.6801515128779019,
                0.7791677561006946,
                0.28194751069273327,
                1.0068932034198144
            ]
        },
        {
            "positions": [
                1.0632416399304587,
                -1.8145285239625077,
                -0.557058504663239,
                0.7162110068847243,
                0.3037002026123001,
                1.0887657489119955
            ]
        },
        {
            "positions": [
                1.1339443195293657,
                -1.7882011138759704,
                -0.43396549644857596,
                0.6532542576687539,
                0.3254528945318669,
                1.1706382944041767
            ]
        },
        {
            "positions": [
                1.2046469991282724,
                -1.761873703789433,
                -0.3108724882339129,
                0.5902975084527835,
                0.3472055864514337,
                1.2525108398963578
            ]
        },
        {
            "positions": [
                1.2753496787271794,
                -1.7355462937028958,
                -0.18777948001925004,
                0.5273407592368131,
                0.3689582783710005,
                1.334383385388539
            ]
        },
        {
            "positions": [
                1.3460523583260862,
                -1.7092188836163584,
                -0.06468647180458698,
                0.46438401002084273,
                0.3907109702905673,
                1.41625593088072
            ]
        },
        {
            "positions": [
                1.4167550379249931,
                -1.6828914735298213,
                0.05840653641007609,
                0.40142726080487257,
                0.41246366221013403,
                1.498128476372901
            ]
        },
        {
            "positions": [
                1.4874577175238999,
                -1.6565640634432839,
                0.18149954462473872,
                0.3384705115889022,
                0.43421635412970083,
                1.5800010218650822
            ]
        },
        {
            "positions": [
                1.5581603971228066,
                -1.6302366533567465,
                0.3045925528394018,
                0.2755137623729318,
                0.45596904604926763,
                1.6618735673572633
            ]
        },
        {
            "positions": [
                1.6288630767217136,
                -1.6039092432702093,
                0.42768556105406486,
                0.2125570131569614,
                0.47772173796883444,
                1.7437461128494445
            ]
        },
        {
            "positions": [
                1.6995657563206206,
                -1.577581833183672,
                0.5507785692687284,
                0.1496002639409908,
                0.4994744298884013,
                1.8256186583416258
            ]
        },
        {
            "positions": [
                1.7702684359195275,
                -1.5512544230971348,
                0.673871577483391,
                0.08664351472502041,
                0.521227121807968,
                1.907491203833807
            ]
        },
        {
            "positions": [
                1.8409711155184343,
                -1.5249270130105974,
                0.7969645856980541,
                0.023686765509050023,
                0.5429798137275349,
                1.9893637493259881
            ]
        },
        {
            "positions": [
                1.911673795117341,
                -1.49859960292406,
                0.9200575939127171,
                -0.039269983706920364,
                0.5647325056471016,
                2.071236294818169
            ]
        },
        {
            "positions": [
                1.982376474716248,
                -1.4722721928375226,
                1.0431506021273802,
                -0.10222673292289053,
                0.5864851975666685,
                2.15310884031035
            ]
        },
        {
            "positions": [
                2.0530791543151548,
                -1.4459447827509855,
                1.1662436103420428,
                -0.16518348213886092,
                0.6082378894862353,
                2.234981385802531
            ]
        },
        {
            "positions": [
                2.1237818339140615,
                -1.4196173726644483,
                1.289336618556706,
                -0.2281402313548313,
                0.6299905814058021,
                2.3168539312947125
            ]
        },
        {
            "positions": [
                2.1944845135129682,
                -1.393289962577911,
                1.412429626771369,
                -0.29109698057080174,
                0.6517432733253689,
                2.3987264767868934
            ]
        },
        {
            "positions": [
                2.2487915684563506,
                -1.3457815416970291,
                1.4637773022421487,
                -0.352361401817561,
                0.7030881251282157,
                2.495961450878513
            ]
        },
        {
            "positions": [
                2.303098623399733,
                -1.2982731208161473,
                1.5151249777129285,
                -0.4136258230643202,
                0.7544329769310626,
                2.5931964249701327
            ]
        },
        {
            "positions": [
                2.3574056783431154,
                -1.2507646999352655,
                1.566472653183708,
                -0.4748902443110795,
                0.8057778287339095,
                2.6904313990617523
            ]
        },
        {
            "positions": [
                2.411712733286498,
                -1.2032562790543837,
                1.6178203286544879,
                -0.5361546655578387,
                0.8571226805367564,
                2.787666373153372
            ]
        },
        {
            "positions": [
                2.46601978822988,
                -1.155747858173502,
                1.6691680041252677,
                -0.597419086804598,
                0.9084675323396032,
                2.8849013472449916
            ]
        },
        {
            "positions": [
                2.5203268431732626,
                -1.10823943729262,
                1.7205156795960472,
                -0.6586835080513572,
                0.9598123841424502,
                2.982136321336611
            ]
        },
        {
            "positions": [
                2.574633898116645,
                -1.0607310164117383,
                1.771863355066827,
                -0.7199479292981165,
                1.011157235945297,
                3.079371295428231
            ]
        },
        {
            "positions": [
                2.6289409530600274,
                -1.0132225955308565,
                1.8232110305376068,
                -0.7812123505448757,
                1.062502087748144,
                3.1766062695198505
            ]
        }
    ]
}