{
    "goal": {
        "global_pose": {
            "orientation": {
                "w": 0.005598929693374612,
                "x": 0.007748599140229565,
                "y": 0.7110244013736278,
                "z": -0.7031023480610252
            },
            "position": {
                "x": 0.1141497679147869,
                "y": -0.7141253447532654,
                "z": 0.3711530566215515
            }
        },
        "name": "move_to_auspresseinheit_B"
    },
    "id": "ProjEST_move_to_auspresseinheit_B_22",
    "joint_names": [
        "shoulder_pan_joint",
        "shoulder_lift_joint",
        "elbow_joint",
        "wrist_1_joint",
        "wrist_2_joint",
        "wrist_3_joint"
    ],
    "metrics": {
        "cart_traj_len": 0.564848731849669,
        "distance_elbow_joint": 0.06454423075358062,
        "distance_shoulder_lift_joint": 0.2942649796100292,
        "distance_shoulder_pan_joint": 0.5774539846583597,
        "distance_wrist_1_joint": 0.3345641269672903,
        "distance_wrist_2_joint": 0.9928581429566479,
        "distance_wrist_3_joint": 0.0033013428120152177,
        "smoothness": 7.612957943425664e-16,
        "time": 0.610840904,
        "traj_len": 1.5056516223077379,
        "weighted_distance": 1.8976332004120005
    },
    "planner": "ProjEST",
    "start": {
        "state": {
            "elbow_joint": 2.019306165916698,
            "shoulder_lift_joint": -1.1220205098164344,
            "shoulder_pan_joint": -1.095207207618794,
            "wrist_1_joint": -0.8559671824921639,
            "wrist_2_joint": 0.47596387242952726,
            "wrist_3_joint": 3.159081874673826
        }
    },
    "waypoints": [
        {
            "positions": [
                -1.095207207618794,
                -1.1220205098164344,
                2.019306165916698,
                -0.8559671824921639,
                0.47596387242952726,
                3.159081874673826
            ]
        },
        {
            "positions": [
                -1.1914495383951873,
                -1.1710646730847727,
                2.0085487941244344,
                -0.8002064946642822,
                0.6414402295889685,
                3.158531650871823
            ]
        },
        {
            "positions": [
                -1.2876918691715806,
                -1.2201088363531107,
                1.997791422332171,
                -0.7444458068364004,
                0.8069165867484098,
                3.1579814270698208
            ]
        },
        {
            "positions": [
                -1.3839341999479737,
                -1.269152999621449,
                1.9870340505399078,
                -0.6886851190085187,
                0.9723929439078511,
                3.1574312032678185
            ]
        },
        {
            "positions": [
                -1.480176530724367,
                -1.3181971628897873,
                1.9762766787476442,
                -0.632924431180637,
                1.1378693010672924,
                3.1568809794658157
            ]
        },
        {
            "positions": [
                -1.5764188615007604,
                -1.3672413261581253,
                1.9655193069553807,
                -0.5771637433527552,
                1.3033456582267338,
                3.156330755663813
            ]
        },
        {
            "positions": [
                -1.6726611922771537,
                -1.4162854894264636,
                1.9547619351631174,
                -0.5214030555248735,
                1.468822015386175,
                3.1557805318618106
            ]
        }
    ]
}