{
    "goal": {
        "global_pose": {
            "orientation": {
                "w": 0.5084816217422485,
                "x": -0.49083608388900757,
                "y": 0.5182115435600281,
                "z": -0.4816462993621826
            },
            "position": {
                "x": 0.5540239810943604,
                "y": 0.030875300988554955,
                "z": 0.16403168439865112
            }
        },
        "name": "move_to_storage_A"
    },
    "id": "ProjEST_move_to_storage_A_124",
    "joint_names": [
        "shoulder_pan_joint",
        "shoulder_lift_joint",
        "elbow_joint",
        "wrist_1_joint",
        "wrist_2_joint",
        "wrist_3_joint"
    ],
    "metrics": {
        "cart_traj_len": 0.35315004270417727,
        "distance_elbow_joint": 0.4545098304480697,
        "distance_shoulder_lift_joint": 0.23162915996079958,
        "distance_shoulder_pan_joint": 0.46189502577086566,
        "distance_wrist_1_joint": 0.2652226112678048,
        "distance_wrist_2_joint": 1.0976955556773063,
        "distance_wrist_3_joint": 0.10135708960500756,
        "smoothness": 4.440892133664971e-16,
        "time": 0.043273187000000005,
        "traj_len": 1.6162639860894796,
        "weighted_distance": 2.044001374482165
    },
    "planner": "ProjEST",
    "start": {
        "state": {
            "elbow_joint": 1.9715474177455299,
            "shoulder_lift_joint": -1.139484666580328,
            "shoulder_pan_joint": 0.12281154398918248,
            "wrist_1_joint": -0.7804687475355282,
            "wrist_2_joint": 0.12958649657246987,
            "wrist_3_joint": -3.1924925159053466
        }
    },
    "waypoints": [
        {
            "positions": [
                0.12281154398918248,
                -1.139484666580328,
                1.9715474177455299,
                -0.7804687475355282,
                0.12958649657246987,
                -3.1924925159053466
            ]
        },
        {
            "positions": [
                0.05682654030763025,
                -1.172574546574728,
                2.0364773935238256,
                -0.8183576920023574,
                0.2864001473835136,
                -3.1780129316760597
            ]
        },
        {
            "positions": [
                -0.009158463373921982,
                -1.2056644265691279,
                2.1014073693021214,
                -0.8562466364691868,
                0.4432137981945573,
                -3.163533347446773
            ]
        },
        {
            "positions": [
                -0.07514346705547423,
                -1.2387543065635278,
                2.166337345080417,
                -0.894135580936016,
                0.6000274490056011,
                -3.149053763217486
            ]
        },
        {
            "positions": [
                -0.14112847073702645,
                -1.2718441865579277,
                2.2312673208587124,
                -0.9320245254028452,
                0.7568410998166448,
                -3.1345741789881996
            ]
        },
        {
            "positions": [
                -0.2071134744185787,
                -1.3049340665523277,
                2.296197296637008,
                -0.9699134698696745,
                0.9136547506276886,
                -3.1200945947589127
            ]
        },
        {
            "positions": [
                -0.27309847810013094,
                -1.3380239465467276,
                2.361127272415304,
                -1.0078024143365036,
                1.0704684014387322,
                -3.105615010529626
            ]
        },
        {
            "positions": [
                -0.3390834817816832,
                -1.3711138265411276,
                2.4260572481935996,
                -1.045691358803333,
                1.227282052249776,
                -3.091135426300339
            ]
        }
    ]
}