{
    "goal": {
        "global_pose": {
            "orientation": {
                "w": -0.00223480608172531,
                "x": 0.0024358444001904467,
                "y": 0.7094548369677653,
                "z": -0.704743149386269
            },
            "position": {
                "x": 0.6205249238014221,
                "y": -0.6371506643295288,
                "z": 0.19426114857196808
            }
        },
        "name": "move_to_magneteinheit_B"
    },
    "id": "ProjEST_move_to_magneteinheit_B_112",
    "joint_names": [
        "shoulder_pan_joint",
        "shoulder_lift_joint",
        "elbow_joint",
        "wrist_1_joint",
        "wrist_2_joint",
        "wrist_3_joint"
    ],
    "metrics": {
        "cart_traj_len": 1.4543910834755165,
        "distance_elbow_joint": 0.7298734713349075,
        "distance_shoulder_lift_joint": 1.2479486534896291,
        "distance_shoulder_pan_joint": 1.6213467774021537,
        "distance_wrist_1_joint": 2.6135139467868163,
        "distance_wrist_2_joint": 2.9460931725578128,
        "distance_wrist_3_joint": 3.1388893171728127,
        "smoothness": 5.652044510980879e-16,
        "time": 0.031908309999999995,
        "traj_len": 3.506802723100365,
        "weighted_distance": 4.912743743819169
    },
    "planner": "ProjEST",
    "start": {
        "state": {
            "elbow_joint": 2.3935871308073637,
            "shoulder_lift_joint": -1.9085141043777403,
            "shoulder_pan_joint": 0.7066247067284167,
            "wrist_1_joint": -0.46782909355067076,
            "wrist_2_joint": 0.7096259085804283,
            "wrist_3_joint": -3.1358149275257428
        }
    },
    "waypoints": [
        {
            "positions": [
                0.7066247067284167,
                -1.9085141043777403,
                2.3935871308073637,
                -0.46782909355067076,
                0.7096259085804283,
                -3.1358149275257428
            ]
        },
        {
            "positions": [
                0.6559576199345994,
                -1.8695157089561893,
                2.3707785848281477,
                -0.3861567827135828,
                0.6175604969379966,
                -3.0377246363640924
            ]
        },
        {
            "positions": [
                0.6052905331407821,
                -1.8305173135346384,
                2.347970038848932,
                -0.30448447187649474,
                0.525495085295565,
                -2.939634345202442
            ]
        },
        {
            "positions": [
                0.5546234463469648,
                -1.7915189181130875,
                2.325161492869716,
                -0.22281216103940674,
                0.43342967365313334,
                -2.8415440540407917
            ]
        },
        {
            "positions": [
                0.5039563595531475,
                -1.7525205226915366,
                2.3023529468905,
                -0.14113985020231873,
                0.3413642620107017,
                -2.7434537628791413
            ]
        },
        {
            "positions": [
                0.4532892727593302,
                -1.7135221272699857,
                2.2795444009112846,
                -0.05946753936523069,
                0.24929885036827004,
                -2.6453634717174905
            ]
        },
        {
            "positions": [
                0.4026221859655129,
                -1.6745237318484347,
                2.2567358549320686,
                0.022204771471857288,
                0.1572334387258384,
                -2.54727318055584
            ]
        },
        {
            "positions": [
                0.3519550991716956,
                -1.635525336426884,
                2.2339273089528526,
                0.10387708230894527,
                0.06516802708340674,
                -2.44918288939419
            ]
        },
        {
            "positions": [
                0.3012880123778783,
                -1.596526941005333,
                2.211118762973637,
                0.1855493931460333,
                -0.026897384559024906,
                -2.3510925982325395
            ]
        },
        {
            "positions": [
                0.25062092558406096,
                -1.5575285455837822,
                2.188310216994421,
                0.26722170398312134,
                -0.11896279620145656,
                -2.253002307070889
            ]
        },
        {
            "positions": [
                0.19995383879024364,
                -1.5185301501622313,
                2.165501671015205,
                0.3488940148202094,
                -0.2110282078438882,
                -2.1549120159092388
            ]
        },
        {
            "positions": [
                0.14928675199642638,
                -1.4795317547406803,
                2.142693125035989,
                0.4305663256572973,
                -0.30309361948631997,
                -2.0568217247475884
            ]
        },
        {
            "positions": [
                0.09861966520260912,
                -1.4405333593191294,
                2.1198845790567735,
                0.5122386364943854,
                -0.3951590311287515,
                -1.958731433585938
            ]
        },
        {
            "positions": [
                0.047952578408791746,
                -1.4015349638975785,
                2.0970760330775575,
                0.5939109473314732,
                -0.48722444277118304,
                -1.8606411424242877
            ]
        },
        {
            "positions": [
                -0.002714508385025516,
                -1.3625365684760276,
                2.0742674870983415,
                0.6755832581685612,
                -0.5792898544136148,
                -1.762550851262637
            ]
        },
        {
            "positions": [
                -0.05338159517884289,
                -1.3235381730544766,
                2.051458941119126,
                0.7572555690056493,
                -0.6713552660560466,
                -1.6644605601009868
            ]
        },
        {
            "positions": [
                -0.10404868197266015,
                -1.2845397776329257,
                2.02865039513991,
                0.8389278798427373,
                -0.7634206776984781,
                -1.5663702689393364
            ]
        },
        {
            "positions": [
                -0.1547157687664774,
                -1.2455413822113748,
                2.005841849160694,
                0.9206001906798253,
                -0.8554860893409096,
                -1.468279977777686
            ]
        },
        {
            "positions": [
                -0.20538285556029479,
                -1.2065429867898239,
                1.9830333031814782,
                1.0022725015169134,
                -0.9475515009833414,
                -1.3701896866160357
            ]
        },
        {
            "positions": [
                -0.25604994235411205,
                -1.167544591368273,
                1.9602247572022624,
                1.0839448123540014,
                -1.0396169126257733,
                -1.272099395454385
            ]
        },
        {
            "positions": [
                -0.3067170291479294,
                -1.128546195946722,
                1.9374162112230464,
                1.1656171231910895,
                -1.1316823242682048,
                -1.1740091042927348
            ]
        },
        {
            "positions": [
                -0.3573841159417467,
                -1.089547800525171,
                1.9146076652438306,
                1.2472894340281773,
                -1.2237477359106363,
                -1.0759188131310844
            ]
        },
        {
            "positions": [
                -0.40805120273556394,
                -1.0505494051036202,
                1.8917991192646149,
                1.3289617448652653,
                -1.3158131475530683,
                -0.977828521969434
            ]
        },
        {
            "positions": [
                -0.4587182895293812,
                -1.0115510096820692,
                1.8689905732853989,
                1.4106340557023533,
                -1.4078785591954999,
                -0.8797382308077837
            ]
        },
        {
            "positions": [
                -0.5093853763231985,
                -0.9725526142605184,
                1.846182027306183,
                1.4923063665394414,
                -1.4999439708379314,
                -0.7816479396461333
            ]
        },
        {
            "positions": [
                -0.560052463117016,
                -0.9335542188389675,
                1.8233734813269673,
                1.5739786773765294,
                -1.592009382480363,
                -0.683557648484483
            ]
        },
        {
            "positions": [
                -0.6107195499108332,
                -0.8945558234174167,
                1.8005649353477513,
                1.6556509882136172,
                -1.6840747941227945,
                -0.5854673573228326
            ]
        },
        {
            "positions": [
                -0.6613866367046505,
                -0.8555574279958658,
                1.7777563893685355,
                1.7373232990507055,
                -1.7761402057652265,
                -0.4873770661611818
            ]
        },
        {
            "positions": [
                -0.7120537234984677,
                -0.8165590325743148,
                1.7549478433893198,
                1.8189956098877933,
                -1.868205617407658,
                -0.38928677499953146
            ]
        },
        {
            "positions": [
                -0.762720810292285,
                -0.7775606371527639,
                1.7321392974101038,
                1.9006679207248816,
                -1.9602710290500895,
                -0.2911964838378811
            ]
        },
        {
            "positions": [
                -0.8133878970861025,
                -0.738562241731213,
                1.709330751430888,
                1.9823402315619694,
                -2.0523364406925215,
                -0.19310619267623075
            ]
        },
        {
            "positions": [
                -0.8640549838799197,
                -0.6995638463096621,
                1.6865222054516722,
                2.0640125423990576,
                -2.144401852334953,
                -0.09501590151458039
            ]
        },
        {
            "positions": [
                -0.9147220706737371,
                -0.6605654508881111,
                1.6637136594724562,
                2.1456848532361454,
                -2.2364672639773846,
                0.0030743896470697917
            ]
        }
    ]
}