{
    "goal": {
        "global_pose": {
            "orientation": {
                "w": 0.5084816262002911,
                "x": -0.4908360881923452,
                "y": 0.5182115481033761,
                "z": -0.48164630358495003
            },
            "position": {
                "x": 0.5540239810943604,
                "y": -0.46912469901144505,
                "z": 0.16403168439865112
            }
        },
        "name": "move_to_storage_B"
    },
    "id": "ProjEST_move_to_storage_B_3",
    "joint_names": [
        "shoulder_pan_joint",
        "shoulder_lift_joint",
        "elbow_joint",
        "wrist_1_joint",
        "wrist_2_joint",
        "wrist_3_joint"
    ],
    "metrics": {
        "cart_traj_len": 2.940789498572622,
        "distance_elbow_joint": 2.3374255978440726,
        "distance_shoulder_lift_joint": 0.5295961266138043,
        "distance_shoulder_pan_joint": 2.784829207138298,
        "distance_wrist_1_joint": 3.0223527509064043,
        "distance_wrist_2_joint": 2.710780524145375,
        "distance_wrist_3_joint": 5.3760069194050555,
        "smoothness": 0.32440381754205594,
        "time": 0.146523462,
        "traj_len": 4.0940189454926825,
        "weighted_distance": 5.765946430545025
    },
    "planner": "ProjEST",
    "start": {
        "state": {
            "elbow_joint": 1.6649325706314817,
            "shoulder_lift_joint": -0.6616388048112454,
            "shoulder_pan_joint": -0.9139837860083814,
            "wrist_1_joint": 2.146757197745094,
            "wrist_2_joint": -2.234196043158733,
            "wrist_3_joint": 0.005471033829999897
        }
    },
    "waypoints": [
        {
            "positions": [
                -0.9139837860083814,
                -0.6616388048112454,
                1.6649325706314817,
                2.146757197745094,
                -2.234196043158733,
                0.005471033829999897
            ]
        },
        {
            "positions": [
                -0.8265746873643823,
                -0.6946901735428269,
                1.6000436936756437,
                2.082989923376005,
                -2.163305772538967,
                0.08052456509911973
            ]
        },
        {
            "positions": [
                -0.7391655887203833,
                -0.7277415422744083,
                1.535154816719806,
                2.0192226490069154,
                -2.092415501919201,
                0.15557809636823955
            ]
        },
        {
            "positions": [
                -0.6517564900763841,
                -0.7607929110059899,
                1.470265939763968,
                1.9554553746378263,
                -2.0215252312994347,
                0.23063162763735937
            ]
        },
        {
            "positions": [
                -0.5643473914323851,
                -0.7938442797375714,
                1.40537706280813,
                1.8916881002687371,
                -1.9506349606796687,
                0.30568515890647924
            ]
        },
        {
            "positions": [
                -0.47693829278838606,
                -0.826895648469153,
                1.340488185852292,
                1.8279208258996478,
                -1.8797446900599026,
                0.3807386901755991
            ]
        },
        {
            "positions": [
                -0.389529194144387,
                -0.8599470172007344,
                1.2755993088964541,
                1.7641535515305584,
                -1.8088544194401366,
                0.45579222144471887
            ]
        },
        {
            "positions": [
                -0.302120095500388,
                -0.892998385932316,
                1.2107104319406161,
                1.7003862771614693,
                -1.7379641488203705,
                0.5308457527138387
            ]
        },
        {
            "positions": [
                -0.21471099685638895,
                -0.9260497546638975,
                1.1458215549847783,
                1.63661900279238,
                -1.6670738782006045,
                0.6058992839829586
            ]
        },
        {
            "positions": [
                -0.1273018982123898,
                -0.9591011233954789,
                1.0809326780289403,
                1.5728517284232906,
                -1.5961836075808384,
                0.6809528152520784
            ]
        },
        {
            "positions": [
                -0.03989279956839076,
                -0.9921524921270605,
                1.0160438010731023,
                1.5090844540542014,
                -1.5252933369610724,
                0.7560063465211982
            ]
        },
        {
            "positions": [
                0.04751629907560817,
                -1.025203860858642,
                0.9511549241172643,
                1.445317179685112,
                -1.4544030663413063,
                0.831059877790318
            ]
        },
        {
            "positions": [
                0.13492539771960732,
                -1.0582552295902234,
                0.8862660471614264,
                1.3815499053160227,
                -1.3835127957215403,
                0.9061134090594378
            ]
        },
        {
            "positions": [
                0.22233449636360636,
                -1.091306598321805,
                0.8213771702055884,
                1.3177826309469336,
                -1.3126225251017742,
                0.9811669403285577
            ]
        },
        {
            "positions": [
                0.30974359500760545,
                -1.1243579670533865,
                0.7564882932497505,
                1.2540153565778442,
                -1.2417322544820082,
                1.0562204715976775
            ]
        },
        {
            "positions": [
                0.3487288514139457,
                -1.1403621400635218,
                0.7157688519733416,
                1.1988728412959642,
                -1.1999945282503925,
                1.0945708890446797
            ]
        },
        {
            "positions": [
                0.38771410782028604,
                -1.1563663130736572,
                0.6750494106969327,
                1.1437303260140839,
                -1.158256802018777,
                1.1329213064916819
            ]
        },
        {
            "positions": [
                0.33474513234494213,
                -1.1551210052753933,
                0.7231759263365585,
                1.0716115446149626,
                -1.0998696133400119,
                0.9811871405365614
            ]
        },
        {
            "positions": [
                0.2817761568695982,
                -1.1538756974771291,
                0.7713024419761842,
                0.9994927632158412,
                -1.0414824246612469,
                0.829452974581441
            ]
        },
        {
            "positions": [
                0.22880718139425435,
                -1.1526303896788652,
                0.81942895761581,
                0.9273739818167199,
                -0.9830952359824818,
                0.6777188086263206
            ]
        },
        {
            "positions": [
                0.17583820591891047,
                -1.151385081880601,
                0.8675554732554358,
                0.8552552004175986,
                -0.9247080473037168,
                0.5259846426712002
            ]
        },
        {
            "positions": [
                0.12286923044356657,
                -1.1501397740823371,
                0.9156819888950616,
                0.7831364190184773,
                -0.8663208586249518,
                0.3742504767160797
            ]
        },
        {
            "positions": [
                0.06990025496822266,
                -1.1488944662840732,
                0.9638085045346874,
                0.711017637619356,
                -0.8079336699461868,
                0.22251631076095924
            ]
        },
        {
            "positions": [
                0.01693127949287876,
                -1.147649158485809,
                1.0119350201743131,
                0.6388988562202347,
                -0.7495464812674217,
                0.07078214480583878
            ]
        },
        {
            "positions": [
                -0.03603769598246509,
                -1.1464038506875451,
                1.060061535813939,
                0.5667800748211134,
                -0.6911592925886567,
                -0.08095202114928157
            ]
        },
        {
            "positions": [
                -0.08900667145780905,
                -1.145158542889281,
                1.1081880514535647,
                0.49466129342199205,
                -0.6327721039098917,
                -0.23268618710440214
            ]
        },
        {
            "positions": [
                -0.1419756469331529,
                -1.143913235091017,
                1.1563145670931907,
                0.42254251202287074,
                -0.5743849152311267,
                -0.3844203530595225
            ]
        },
        {
            "positions": [
                -0.19494462240849686,
                -1.1426679272927531,
                1.2044410827328162,
                0.35042373062374943,
                -0.5159977265523616,
                -0.5361545190146431
            ]
        },
        {
            "positions": [
                -0.2479135978838407,
                -1.141422619494489,
                1.2525675983724422,
                0.2783049492246281,
                -0.4576105378735966,
                -0.6878886849697634
            ]
        },
        {
            "positions": [
                -0.30088257335918467,
                -1.140177311696225,
                1.3006941140120678,
                0.2061861678255068,
                -0.3992233491948316,
                -0.839622850924884
            ]
        },
        {
            "positions": [
                -0.3538515488345285,
                -1.1389320038979611,
                1.3488206296516938,
                0.1340673864263855,
                -0.3408361605160666,
                -0.9913570168800043
            ]
        },
        {
            "positions": [
                -0.40682052430987237,
                -1.137686696099697,
                1.3969471452913194,
                0.06194860502726418,
                -0.28244897183730155,
                -1.143091182835125
            ]
        },
        {
            "positions": [
                -0.4597894997852162,
                -1.136441388301433,
                1.4450736609309454,
                -0.010170176371857131,
                -0.22406178315853653,
                -1.294825348790245
            ]
        },
        {
            "positions": [
                -0.5127584752605602,
                -1.135196080503169,
                1.493200176570571,
                -0.08228895777097844,
                -0.16567459447977162,
                -1.4465595147453656
            ]
        },
        {
            "positions": [
                -0.5657274507359041,
                -1.133950772704905,
                1.541326692210197,
                -0.15440773917009976,
                -0.10728740580100649,
                -1.5982936807004862
            ]
        },
        {
            "positions": [
                -0.6186964262112481,
                -1.132705464906641,
                1.5894532078498227,
                -0.22652652056922107,
                -0.04890021712224146,
                -1.7500278466556067
            ]
        },
        {
            "positions": [
                -0.6716654016865918,
                -1.1314601571083769,
                1.6375797234894485,
                -0.2986453019683424,
                0.00948697155652356,
                -1.9017620126107269
            ]
        },
        {
            "positions": [
                -0.7246343771619358,
                -1.130214849310113,
                1.6857062391290742,
                -0.3707640833674637,
                0.06787416023528858,
                -2.0534961785658474
            ]
        },
        {
            "positions": [
                -0.7776033526372798,
                -1.1289695415118488,
                1.7338327547687,
                -0.442882864766585,
                0.1262613489140536,
                -2.205230344520968
            ]
        },
        {
            "positions": [
                -0.8305723281126235,
                -1.1277242337135849,
                1.7819592704083258,
                -0.5150016461657063,
                0.18464853759281863,
                -2.356964510476088
            ]
        },
        {
            "positions": [
                -0.8835413035879675,
                -1.126478925915321,
                1.8300857860479516,
                -0.5871204275648276,
                0.24303572627158365,
                -2.5086986764312087
            ]
        },
        {
            "positions": [
                -0.9365102790633114,
                -1.1252336181170568,
                1.8782123016875774,
                -0.6592392089639489,
                0.3014229149503487,
                -2.6604328423863293
            ]
        },
        {
            "positions": [
                -0.9894792545386554,
                -1.1239883103187929,
                1.9263388173272031,
                -0.7313579903630703,
                0.3598101036291137,
                -2.81216700834145
            ]
        },
        {
            "positions": [
                -1.0424482300139992,
                -1.1227430025205287,
                1.974465332966829,
                -0.8034767717621916,
                0.4181972923078787,
                -2.9639011742965704
            ]
        },
        {
            "positions": [
                -1.095417205489343,
                -1.1214976947222648,
                2.0225918486064547,
                -0.8755955531613128,
                0.4765844809866437,
                -3.11563534025169
            ]
        }
    ]
}