{
    "goal": {
        "global_pose": {
            "orientation": {
                "w": 0.7047431493862688,
                "x": -0.7094548369677653,
                "y": 0.0024358444001904,
                "z": -0.0022348060817251984
            },
            "position": {
                "x": -0.39052492380142206,
                "y": 0.3671506643295288,
                "z": 0.19426114857196808
            }
        },
        "name": "move_to_magneteinheit_D"
    },
    "id": "ProjEST_move_to_magneteinheit_D_113",
    "joint_names": [
        "shoulder_pan_joint",
        "shoulder_lift_joint",
        "elbow_joint",
        "wrist_1_joint",
        "wrist_2_joint",
        "wrist_3_joint"
    ],
    "metrics": {
        "cart_traj_len": 4.459454053192566,
        "distance_elbow_joint": 3.2873856945228708,
        "distance_shoulder_lift_joint": 1.6315695800347725,
        "distance_shoulder_pan_joint": 2.949719676645115,
        "distance_wrist_1_joint": 1.6283779426687106,
        "distance_wrist_2_joint": 0.5418069348143323,
        "distance_wrist_3_joint": 3.4776174909063524,
        "smoothness": 0.3301552654555327,
        "time": 0.24953587800000002,
        "traj_len": 3.6764762095778822,
        "weighted_distance": 4.7583502581134045
    },
    "planner": "ProjEST",
    "start": {
        "state": {
            "elbow_joint": 0.7495348899011973,
            "shoulder_lift_joint": -0.6476975780737697,
            "shoulder_pan_joint": -2.711696901376276,
            "wrist_1_joint": -0.07506478080974305,
            "wrist_2_joint": 0.4329665971545858,
            "wrist_3_joint": 3.1361499051832524
        }
    },
    "waypoints": [
        {
            "positions": [
                -2.711696901376276,
                -0.6476975780737697,
                0.7495348899011973,
                -0.07506478080974305,
                0.4329665971545858,
                3.1361499051832524
            ]
        },
        {
            "positions": [
                -2.709310570529384,
                -0.686345449830392,
                0.7266258492377703,
                -0.08385115682220302,
                0.4628855657386398,
                3.0832371844792092
            ]
        },
        {
            "positions": [
                -2.7057310742590452,
                -0.7443172574653255,
                0.6922622882426298,
                -0.09703072084089298,
                0.5077640186147208,
                3.003868103423145
            ]
        },
        {
            "positions": [
                -2.702151577988707,
                -0.802289065100259,
                0.6578987272474893,
                -0.11021028485958295,
                0.5526424714908017,
                2.9244990223670806
            ]
        },
        {
            "positions": [
                -2.605596415451951,
                -0.854228410856133,
                0.584468759151925,
                -0.10123879126872548,
                0.5472295369935464,
                2.774984700211764
            ]
        },
        {
            "positions": [
                -2.509041252915195,
                -0.906167756612007,
                0.5110387910563605,
                -0.09226729767786801,
                0.541816602496291,
                2.625470378056447
            ]
        },
        {
            "positions": [
                -2.412486090378439,
                -0.958107102367881,
                0.4376088229607962,
                -0.08329580408701055,
                0.5364036679990357,
                2.4759560559011304
            ]
        },
        {
            "positions": [
                -2.315930927841683,
                -1.010046448123755,
                0.36417885486523177,
                -0.07432431049615308,
                0.5309907335017804,
                2.326441733745814
            ]
        },
        {
            "positions": [
                -2.219375765304927,
                -1.061985793879629,
                0.2907488867696673,
                -0.06535281690529561,
                0.5255777990045251,
                2.176927411590497
            ]
        },
        {
            "positions": [
                -2.122820602768171,
                -1.113925139635503,
                0.21731891867410297,
                -0.056381323314438146,
                0.5201648645072697,
                2.0274130894351803
            ]
        },
        {
            "positions": [
                -2.026265440231415,
                -1.165864485391377,
                0.14388895057853857,
                -0.04740982972358067,
                0.5147519300100144,
                1.8778987672798635
            ]
        },
        {
            "positions": [
                -1.9297102776946589,
                -1.217803831147251,
                0.07045898248297422,
                -0.03843833613272321,
                0.5093389955127591,
                1.728384445124547
            ]
        },
        {
            "positions": [
                -1.8331551151579029,
                -1.269743176903125,
                -0.002970985612590238,
                -0.02946684254186574,
                0.5039260610155037,
                1.5788701229692301
            ]
        },
        {
            "positions": [
                -1.7365999526211469,
                -1.3216825226589992,
                -0.0764009537081547,
                -0.02049534895100827,
                0.4985131265182484,
                1.4293558008139133
            ]
        },
        {
            "positions": [
                -1.6400447900843906,
                -1.3736218684148733,
                -0.14983092180371904,
                -0.011523855360150798,
                0.4931001920209931,
                1.2798414786585965
            ]
        },
        {
            "positions": [
                -1.5434896275476349,
                -1.425561214170747,
                -0.2232608898992834,
                -0.0025523617692933404,
                0.48768725752373776,
                1.13032715650328
            ]
        },
        {
            "positions": [
                -1.4469344650108786,
                -1.477500559926621,
                -0.29669085799484785,
                0.006419131821564131,
                0.48227432302648243,
                0.9808128343479632
            ]
        },
        {
            "positions": [
                -1.3503793024741226,
                -1.5294399056824952,
                -0.3701208260904122,
                0.015390625412421616,
                0.4768613885292271,
                0.8312985121926464
            ]
        },
        {
            "positions": [
                -1.2538241399373666,
                -1.5813792514383693,
                -0.44355079418597676,
                0.024362119003279087,
                0.4714484540319718,
                0.6817841900373298
            ]
        },
        {
            "positions": [
                -1.1572689774006106,
                -1.633318597194243,
                -0.5169807622815409,
                0.03333361259413653,
                0.46603551953471645,
                0.5322698678820132
            ]
        },
        {
            "positions": [
                -1.0607138148638546,
                -1.685257942950117,
                -0.5904107303771055,
                0.042305106184994,
                0.4606225850374611,
                0.38275554572669623
            ]
        },
        {
            "positions": [
                -0.9641586523270986,
                -1.7371972887059912,
                -0.6638406984726698,
                0.051276599775851486,
                0.4552096505402058,
                0.2332412235713795
            ]
        },
        {
            "positions": [
                -0.8715007997278102,
                -1.7606563395814856,
                -0.7975941450457835,
                0.1269812091414972,
                0.4410492621455091,
                0.19353630869769506
            ]
        },
        {
            "positions": [
                -0.7788429471285218,
                -1.78411539045698,
                -0.9313475916188971,
                0.20268581850714285,
                0.42688887375081247,
                0.1538313938240106
            ]
        },
        {
            "positions": [
                -0.6861850945292334,
                -1.8075744413324741,
                -1.0651010381920107,
                0.27839042787278856,
                0.4127284853561158,
                0.11412647895032614
            ]
        },
        {
            "positions": [
                -0.5935272419299449,
                -1.8310334922079685,
                -1.1988544847651244,
                0.3540950372384342,
                0.39856809696141915,
                0.07442156407664169
            ]
        },
        {
            "positions": [
                -0.5008693893306565,
                -1.854492543083463,
                -1.332607931338238,
                0.42979964660407993,
                0.38440770856672246,
                0.03471664920295725
            ]
        },
        {
            "positions": [
                -0.4082115367313681,
                -1.877951593958957,
                -1.4663613779113518,
                0.5055042559697256,
                0.3702473201720258,
                -0.0049882656707272155
            ]
        },
        {
            "positions": [
                -0.3155536841320796,
                -1.9014106448344514,
                -1.6001148244844656,
                0.5812088653353713,
                0.3560869317773291,
                -0.04469318054441168
            ]
        },
        {
            "positions": [
                -0.22289583153279124,
                -1.9248696957099458,
                -1.7338682710575792,
                0.656913474701017,
                0.34192654338263245,
                -0.08439809541809609
            ]
        },
        {
            "positions": [
                -0.16083519078535863,
                -1.95087688503156,
                -1.8486924548244055,
                0.7717830124671701,
                0.32484625337384243,
                -0.045092176957023444
            ]
        },
        {
            "positions": [
                -0.09877455003792598,
                -1.9768840743531744,
                -1.9635166385912317,
                0.8866525502333231,
                0.30776596336505235,
                -0.005786258495950797
            ]
        },
        {
            "positions": [
                -0.03671390929049334,
                -2.0028912636747886,
                -2.078340822358058,
                1.0015220879994762,
                0.29068567335626233,
                0.03351965996512185
            ]
        },
        {
            "positions": [
                0.02534673145693929,
                -2.028898452996403,
                -2.193165006124884,
                1.1163916257656292,
                0.2736053833474723,
                0.07282557842619451
            ]
        },
        {
            "positions": [
                0.026060368008336117,
                -2.1133498012512626,
                -2.3282108368703627,
                1.2357497219708329,
                0.28723707553227434,
                0.08925424464605389
            ]
        },
        {
            "positions": [
                0.026774004559732945,
                -2.1978011495061223,
                -2.463256667615841,
                1.3551078181760365,
                0.3008687677170764,
                0.10568291086591328
            ]
        },
        {
            "positions": [
                -0.07885038079482004,
                -2.2385341538073322,
                -2.4259595991129252,
                1.4190649859676623,
                0.2429534737344849,
                0.07218866885541544
            ]
        },
        {
            "positions": [
                -0.18447476614937303,
                -2.279267158108542,
                -2.388662530610009,
                1.4830221537592878,
                0.18503817975189343,
                0.03869442684491761
            ]
        }
    ]
}