{
    "goal": {
        "global_pose": {
            "orientation": {
                "w": -0.4816463035849501,
                "x": 0.5182115481033762,
                "y": 0.4908360881923453,
                "z": -0.5084816262002911
            },
            "position": {
                "x": -0.8240239810943604,
                "y": 0.19912469901144506,
                "z": 0.16403168439865112
            }
        },
        "name": "move_to_storage_D"
    },
    "id": "ProjEST_move_to_storage_D_58",
    "joint_names": [
        "shoulder_pan_joint",
        "shoulder_lift_joint",
        "elbow_joint",
        "wrist_1_joint",
        "wrist_2_joint",
        "wrist_3_joint"
    ],
    "metrics": {
        "cart_traj_len": 3.4738625240626093,
        "distance_elbow_joint": 4.208723018763941,
        "distance_shoulder_lift_joint": 1.2649362961080186,
        "distance_shoulder_pan_joint": 2.8117078701407636,
        "distance_wrist_1_joint": 2.2618027856030443,
        "distance_wrist_2_joint": 0.8723106484090448,
        "distance_wrist_3_joint": 3.135871723538662,
        "smoothness": 3.8715469546261474e-16,
        "time": 0.225645125,
        "traj_len": 3.8151477484579117,
        "weighted_distance": 4.895018817497323
    },
    "planner": "ProjEST",
    "start": {
        "state": {
            "elbow_joint": -2.384821997420982,
            "shoulder_lift_joint": -2.2788054674887404,
            "shoulder_pan_joint": -0.18546946417610016,
            "wrist_1_joint": 1.4845937964226739,
            "wrist_2_joint": 0.1789877726866377,
            "wrist_3_joint": 0.03710572555276528
        }
    },
    "waypoints": [
        {
            "positions": [
                -0.18546946417610016,
                -2.2788054674887404,
                -2.384821997420982,
                1.4845937964226739,
                0.1789877726866377,
                0.03710572555276528
            ]
        },
        {
            "positions": [
                -0.09726728450610278,
                -2.2562418664680446,
                -2.213368082856674,
                1.4180285804824595,
                0.18367031746642926,
                0.07269752245739919
            ]
        },
        {
            "positions": [
                -0.009065104836105398,
                -2.2336782654473493,
                -2.0419141682923656,
                1.3514633645422451,
                0.1883528622462208,
                0.10828931936203312
            ]
        },
        {
            "positions": [
                0.07913707483389198,
                -2.2111146644266535,
                -1.8704602537280577,
                1.2848981486020308,
                0.19303540702601235,
                0.14388111626666703
            ]
        },
        {
            "positions": [
                0.16733925450388937,
                -2.1885510634059577,
                -1.6990063391637498,
                1.2183329326618164,
                0.19771795180580387,
                0.17947291317130096
            ]
        },
        {
            "positions": [
                0.25554143417388675,
                -2.165987462385262,
                -1.5275524245994414,
                1.1517677167216018,
                0.20240049658559542,
                0.2150647100759349
            ]
        },
        {
            "positions": [
                0.34374361384388413,
                -2.1434238613645666,
                -1.3560985100351335,
                1.0852025007813875,
                0.20708304136538697,
                0.2506565069805688
            ]
        },
        {
            "positions": [
                0.43194579351388157,
                -2.120860260343871,
                -1.1846445954708253,
                1.018637284841173,
                0.2117655861451785,
                0.2862483038852027
            ]
        },
        {
            "positions": [
                0.520147973183879,
                -2.098296659323175,
                -1.0131906809065174,
                0.9520720689009587,
                0.21644813092497006,
                0.3218401007898366
            ]
        },
        {
            "positions": [
                0.6083501528538764,
                -2.07573305830248,
                -0.8417367663422093,
                0.8855068529607443,
                0.2211306757047616,
                0.35743189769447054
            ]
        },
        {
            "positions": [
                0.6965523325238736,
                -2.053169457281784,
                -0.6702828517779011,
                0.8189416370205298,
                0.22581322048455316,
                0.39302369459910447
            ]
        },
        {
            "positions": [
                0.784754512193871,
                -2.0306058562610882,
                -0.4988289372135932,
                0.7523764210803155,
                0.23049576526434468,
                0.42861549150373834
            ]
        },
        {
            "positions": [
                0.8729566918638685,
                -2.008042255240393,
                -0.3273750226492851,
                0.6858112051401011,
                0.23517831004413625,
                0.4642072884083723
            ]
        },
        {
            "positions": [
                0.9611588715338657,
                -1.9854786542196972,
                -0.15592110808497717,
                0.6192459891998867,
                0.23986085482392777,
                0.49979908531300615
            ]
        },
        {
            "positions": [
                1.0493610512038634,
                -1.9629150531990014,
                0.015532806479331196,
                0.5526807732596722,
                0.24454339960371935,
                0.5353908822176402
            ]
        },
        {
            "positions": [
                1.1375632308738606,
                -1.9403514521783058,
                0.18698672104363911,
                0.4861155573194579,
                0.24922594438351087,
                0.5709826791222741
            ]
        },
        {
            "positions": [
                1.225765410543858,
                -1.9177878511576103,
                0.35844063560794703,
                0.41955034137924363,
                0.25390848916330244,
                0.606574476026908
            ]
        },
        {
            "positions": [
                1.3139675902138555,
                -1.8952242501369145,
                0.5298945501722554,
                0.35298512543902905,
                0.25859103394309396,
                0.6421662729315419
            ]
        },
        {
            "positions": [
                1.402169769883853,
                -1.8726606491162188,
                0.7013484647365633,
                0.2864199094988147,
                0.2632735787228855,
                0.6777580698361758
            ]
        },
        {
            "positions": [
                1.49037194955385,
                -1.8500970480955232,
                0.8728023793008712,
                0.21985469355860032,
                0.26795612350267706,
                0.7133498667408097
            ]
        },
        {
            "positions": [
                1.5785741292238475,
                -1.8275334470748277,
                1.0442562938651796,
                0.15328947761838574,
                0.2726386682824686,
                0.7489416636454437
            ]
        },
        {
            "positions": [
                1.666776308893845,
                -1.804969846054132,
                1.2157102084294875,
                0.08672426167817138,
                0.27732121306226015,
                0.7845334605500776
            ]
        },
        {
            "positions": [
                1.7549784885638422,
                -1.7824062450334364,
                1.3871641229937954,
                0.020159045737957237,
                0.28200375784205167,
                0.8201252574547114
            ]
        },
        {
            "positions": [
                1.8431806682338396,
                -1.7598426440127408,
                1.5586180375581038,
                -0.046406170202257346,
                0.28668630262184325,
                0.8557170543593454
            ]
        },
        {
            "positions": [
                1.931382847903837,
                -1.737279042992045,
                1.7300719521224113,
                -0.11297138614247168,
                0.29136884740163477,
                0.8913088512639793
            ]
        },
        {
            "positions": [
                1.9810153877653247,
                -1.685606909305522,
                1.7367740284953075,
                -0.16041692921660727,
                0.3456495312369239,
                1.0542851796802255
            ]
        },
        {
            "positions": [
                2.0306479276268123,
                -1.6339347756189988,
                1.7434761048682035,
                -0.2078624722907429,
                0.39993021507221305,
                1.217261508096472
            ]
        },
        {
            "positions": [
                2.0802804674882998,
                -1.5822626419324757,
                1.7501781812410995,
                -0.2553080153648785,
                0.45421089890750216,
                1.3802378365127181
            ]
        },
        {
            "positions": [
                2.1299130073497876,
                -1.5305905082459528,
                1.7568802576139957,
                -0.3027535584390141,
                0.5084915827427913,
                1.5432141649289646
            ]
        },
        {
            "positions": [
                2.179545547211275,
                -1.4789183745594296,
                1.763582333986892,
                -0.35019910151314976,
                0.5627722665780804,
                1.7061904933452108
            ]
        },
        {
            "positions": [
                2.2291780870727624,
                -1.4272462408729065,
                1.770284410359788,
                -0.3976446445872853,
                0.6170529504133695,
                1.869166821761457
            ]
        },
        {
            "positions": [
                2.2788106269342503,
                -1.3755741071863834,
                1.776986486732684,
                -0.44509018766142094,
                0.6713336342486587,
                2.0321431501777036
            ]
        },
        {
            "positions": [
                2.3284431667957377,
                -1.3239019734998603,
                1.78368856310558,
                -0.49253573073555657,
                0.7256143180839478,
                2.1951194785939494
            ]
        },
        {
            "positions": [
                2.3780757066572256,
                -1.2722298398133371,
                1.7903906394784763,
                -0.5399812738096922,
                0.779895001919237,
                2.358095807010196
            ]
        },
        {
            "positions": [
                2.427708246518713,
                -1.2205577061268142,
                1.7970927158513723,
                -0.5874268168838278,
                0.8341756857545262,
                2.5210721354264423
            ]
        },
        {
            "positions": [
                2.477340786380201,
                -1.1688855724402911,
                1.8037947922242683,
                -0.6348723599579634,
                0.8884563695898153,
                2.6840484638426885
            ]
        },
        {
            "positions": [
                2.5269733262416882,
                -1.117213438753768,
                1.8104968685971645,
                -0.682317903032099,
                0.9427370534251043,
                2.847024792258935
            ]
        },
        {
            "positions": [
                2.5766058661031757,
                -1.0655413050672449,
                1.8171989449700607,
                -0.7297634461062347,
                0.9970177372603937,
                3.0100011206751813
            ]
        },
        {
            "positions": [
                2.6262384059646635,
                -1.0138691713807217,
                1.8239010213429567,
                -0.7772089891803703,
                1.0512984210956826,
                3.1729774490914275
            ]
        }
    ]
}