{
    "goal": {
        "global_pose": {
            "orientation": {
                "w": -0.00223480608172531,
                "x": 0.0024358444001904467,
                "y": 0.7094548369677653,
                "z": -0.704743149386269
            },
            "position": {
                "x": 0.6205249238014221,
                "y": -0.6371506643295288,
                "z": 0.19426114857196808
            }
        },
        "name": "move_to_magneteinheit_B"
    },
    "id": "ProjEST_move_to_magneteinheit_B_80",
    "joint_names": [
        "shoulder_pan_joint",
        "shoulder_lift_joint",
        "elbow_joint",
        "wrist_1_joint",
        "wrist_2_joint",
        "wrist_3_joint"
    ],
    "metrics": {
        "cart_traj_len": 4.333377279167037,
        "distance_elbow_joint": 4.415758053307937,
        "distance_shoulder_lift_joint": 0.5397960483888686,
        "distance_shoulder_pan_joint": 3.8085075708611247,
        "distance_wrist_1_joint": 2.1639449962904527,
        "distance_wrist_2_joint": 1.750325339709621,
        "distance_wrist_3_joint": 2.5053492271806297,
        "smoothness": 0.5312445914853586,
        "time": 4.068701848,
        "traj_len": 3.8966243385446626,
        "weighted_distance": 4.910056010485009
    },
    "planner": "ProjEST",
    "start": {
        "state": {
            "elbow_joint": 2.3935871308073637,
            "shoulder_lift_joint": -1.9085141043777403,
            "shoulder_pan_joint": 0.7066247067284167,
            "wrist_1_joint": -0.46782909355067076,
            "wrist_2_joint": 0.7096259085804283,
            "wrist_3_joint": -3.1358149275257428
        }
    },
    "waypoints": [
        {
            "positions": [
                0.7066247067284167,
                -1.9085141043777403,
                2.3935871308073637,
                -0.46782909355067076,
                0.7096259085804283,
                -3.1358149275257428
            ]
        },
        {
            "positions": [
                0.6314108332977404,
                -1.9046249639647572,
                2.401775599508615,
                -0.5040550552994024,
                0.653580045340663,
                -3.0633471104792465
            ]
        },
        {
            "positions": [
                0.556196959867064,
                -1.9007358235517742,
                2.4099640682098658,
                -0.540281017048134,
                0.5975341821008977,
                -2.9908792934327497
            ]
        },
        {
            "positions": [
                0.44620619935486405,
                -1.8801892595702527,
                2.371242065330315,
                -0.525442431795034,
                0.5029885742522379,
                -2.8900597197717217
            ]
        },
        {
            "positions": [
                0.3362154388426642,
                -1.8596426955887313,
                2.3325200624507643,
                -0.510603846541934,
                0.408442966403578,
                -2.7892401461106937
            ]
        },
        {
            "positions": [
                0.22622467833046428,
                -1.83909613160721,
                2.2937980595712135,
                -0.495765261288834,
                0.3138973585549182,
                -2.6884205724496657
            ]
        },
        {
            "positions": [
                0.11623391781826442,
                -1.8185495676256886,
                2.2550760566916628,
                -0.480926676035734,
                0.21935175070625834,
                -2.5876009987886377
            ]
        },
        {
            "positions": [
                0.006243157306064506,
                -1.7980030036441672,
                2.216354053812112,
                -0.466088090782634,
                0.1248061428575985,
                -2.4867814251276097
            ]
        },
        {
            "positions": [
                -0.10374760320613538,
                -1.7774564396626458,
                2.1776320509325613,
                -0.451249505529534,
                0.030260535008938633,
                -2.3859618514665817
            ]
        },
        {
            "positions": [
                0.01604653832175444,
                -1.7846516860364203,
                2.0182648873232063,
                -0.49582557782125447,
                -0.0018413180092986883,
                -2.364935084512816
            ]
        },
        {
            "positions": [
                0.13584067984964426,
                -1.7918469324101949,
                1.8588977237138513,
                -0.5404016501129749,
                -0.03394317102753601,
                -2.34390831755905
            ]
        },
        {
            "positions": [
                0.2556348213775341,
                -1.7990421787839694,
                1.6995305601044965,
                -0.5849777224046955,
                -0.06604502404577334,
                -2.3228815506052842
            ]
        },
        {
            "positions": [
                0.37542896290542394,
                -1.806237425157744,
                1.5401633964951416,
                -0.6295537946964159,
                -0.09814687706401065,
                -2.3018547836515184
            ]
        },
        {
            "positions": [
                0.49522310443331374,
                -1.8134326715315185,
                1.3807962328857866,
                -0.6741298669881364,
                -0.130248730082248,
                -2.2808280166977526
            ]
        },
        {
            "positions": [
                0.6150172459612036,
                -1.820627917905293,
                1.2214290692764318,
                -0.7187059392798569,
                -0.1623505831004853,
                -2.2598012497439868
            ]
        },
        {
            "positions": [
                0.7348113874890935,
                -1.8278231642790679,
                1.0620619056670766,
                -0.7632820115715774,
                -0.19445243611872265,
                -2.238774482790221
            ]
        },
        {
            "positions": [
                0.8546055290169832,
                -1.8350184106528424,
                0.9026947420577218,
                -0.8078580838632978,
                -0.22655428913695994,
                -2.217747715836455
            ]
        },
        {
            "positions": [
                0.9743996705448731,
                -1.842213657026617,
                0.7433275784483668,
                -0.8524341561550183,
                -0.2586561421551973,
                -2.1967209488826893
            ]
        },
        {
            "positions": [
                1.094193812072763,
                -1.8494089034003915,
                0.5839604148390118,
                -0.8970102284467387,
                -0.2907579951734346,
                -2.1756941819289235
            ]
        },
        {
            "positions": [
                1.2139879536006528,
                -1.856604149774166,
                0.4245932512296571,
                -0.9415863007384593,
                -0.3228598481916719,
                -2.1546674149751577
            ]
        },
        {
            "positions": [
                1.3337820951285426,
                -1.8637993961479407,
                0.2652260876203021,
                -0.9861623730301797,
                -0.3549617012099092,
                -2.133640648021392
            ]
        },
        {
            "positions": [
                1.4535762366564324,
                -1.8709946425217152,
                0.10585892401094732,
                -1.0307384453219002,
                -0.38706355422814653,
                -2.1126138810676256
            ]
        },
        {
            "positions": [
                1.5733703781843225,
                -1.8781898888954898,
                -0.053508239598408114,
                -1.0753145176136207,
                -0.41916540724638396,
                -2.09158711411386
            ]
        },
        {
            "positions": [
                1.693164519712212,
                -1.8853851352692643,
                -0.21287540320776266,
                -1.1198905899053413,
                -0.45126726026462116,
                -2.070560347160094
            ]
        },
        {
            "positions": [
                1.8129586612401019,
                -1.8925803816430389,
                -0.37224256681711765,
                -1.1644666621970616,
                -0.4833691132828585,
                -2.049533580206328
            ]
        },
        {
            "positions": [
                1.9327528027679917,
                -1.8997756280168134,
                -0.5316097304264726,
                -1.2090427344887822,
                -0.5154709663010959,
                -2.0285068132525623
            ]
        },
        {
            "positions": [
                2.0525469442958815,
                -1.9069708743905882,
                -0.6909768940358276,
                -1.2536188067805025,
                -0.5475728193193332,
                -2.0074800462987965
            ]
        },
        {
            "positions": [
                2.172341085823771,
                -1.9141661207643628,
                -0.8503440576451822,
                -1.298194879072223,
                -0.5796746723375704,
                -1.9864532793450307
            ]
        },
        {
            "positions": [
                2.292135227351661,
                -1.9213613671381373,
                -1.0097112212545376,
                -1.3427709513639434,
                -0.6117765253558078,
                -1.9654265123912649
            ]
        },
        {
            "positions": [
                2.4119293688795507,
                -1.9285566135119119,
                -1.1690783848638922,
                -1.387347023655664,
                -0.6438783783740452,
                -1.944399745437499
            ]
        },
        {
            "positions": [
                2.5317235104074407,
                -1.9357518598856864,
                -1.3284455484732471,
                -1.4319230959473845,
                -0.6759802313922825,
                -1.9233729784837332
            ]
        },
        {
            "positions": [
                2.6515176519353307,
                -1.942947106259461,
                -1.4878127120826021,
                -1.476499168239105,
                -0.7080820844105198,
                -1.9023462115299674
            ]
        },
        {
            "positions": [
                2.7713117934632203,
                -1.9501423526332355,
                -1.6471798756919571,
                -1.5210752405308254,
                -0.7401839374287571,
                -1.8813194445762016
            ]
        },
        {
            "positions": [
                2.7728760136552912,
                -1.9728711968896189,
                -1.6905161955348238,
                -1.6398418138691888,
                -0.6695254251999598,
                -2.0152671722412583
            ]
        },
        {
            "positions": [
                2.774440233847362,
                -1.9956000411460024,
                -1.7338525153776905,
                -1.758608387207552,
                -0.5988669129711626,
                -2.1492148999063145
            ]
        },
        {
            "positions": [
                2.776004454039433,
                -2.018328885402386,
                -1.7771888352205572,
                -1.8773749605459153,
                -0.5282084007423654,
                -2.283162627571371
            ]
        },
        {
            "positions": [
                2.777568674231504,
                -2.0410577296587693,
                -1.8205251550634238,
                -1.9961415338842787,
                -0.45754988851356815,
                -2.4171103552364275
            ]
        },
        {
            "positions": [
                2.7542048775337173,
                -2.0700851483942992,
                -1.7867467765369953,
                -2.0876554404682075,
                -0.46112617747061757,
                -2.5601229219506
            ]
        },
        {
            "positions": [
                2.7308410808359302,
                -2.0991125671298296,
                -1.7529683980105668,
                -2.1791693470521367,
                -0.464702466427667,
                -2.7031354886647727
            ]
        },
        {
            "positions": [
                2.7074772841381436,
                -2.1281399858653596,
                -1.7191900194841383,
                -2.2706832536360655,
                -0.46827875538471647,
                -2.846148055378945
            ]
        },
        {
            "positions": [
                2.6841134874403565,
                -2.15716740460089,
                -1.6854116409577098,
                -2.3621971602199947,
                -0.4718550443417659,
                -2.9891606220931175
            ]
        },
        {
            "positions": [
                2.66074969074257,
                -2.18619482333642,
                -1.6516332624312813,
                -2.4537110668039235,
                -0.4754313332988153,
                -3.13217318880729
            ]
        }
    ]
}