{
    "goal": {
        "global_pose": {
            "orientation": {
                "w": -0.00223480608172531,
                "x": 0.0024358444001904467,
                "y": 0.7094548369677653,
                "z": -0.704743149386269
            },
            "position": {
                "x": 0.6205249238014221,
                "y": -0.6371506643295288,
                "z": 0.19426114857196808
            }
        },
        "name": "move_to_magneteinheit_B"
    },
    "id": "ProjEST_move_to_magneteinheit_B_132",
    "joint_names": [
        "shoulder_pan_joint",
        "shoulder_lift_joint",
        "elbow_joint",
        "wrist_1_joint",
        "wrist_2_joint",
        "wrist_3_joint"
    ],
    "metrics": {
        "cart_traj_len": 1.4544623112325388,
        "distance_elbow_joint": 0.7275367233371919,
        "distance_shoulder_lift_joint": 1.2465914870844488,
        "distance_shoulder_pan_joint": 1.6219564610198631,
        "distance_wrist_1_joint": 2.6175688973057367,
        "distance_wrist_2_joint": 2.9345925156255404,
        "distance_wrist_3_joint": 3.14745336146891,
        "smoothness": 5.382899540774514e-16,
        "time": 0.081992945,
        "traj_len": 3.506522414849461,
        "weighted_distance": 4.91352903539918
    },
    "planner": "ProjEST",
    "start": {
        "state": {
            "elbow_joint": 2.3935871308073637,
            "shoulder_lift_joint": -1.9085141043777403,
            "shoulder_pan_joint": 0.7066247067284167,
            "wrist_1_joint": -0.46782909355067076,
            "wrist_2_joint": 0.7096259085804283,
            "wrist_3_joint": -3.1358149275257428
        }
    },
    "waypoints": [
        {
            "positions": [
                0.7066247067284167,
                -1.9085141043777403,
                2.3935871308073637,
                -0.46782909355067076,
                0.7096259085804283,
                -3.1358149275257428
            ]
        },
        {
            "positions": [
                0.655938567321546,
                -1.8695581204063512,
                2.3708516082030764,
                -0.3860300655098665,
                0.6179198924671302,
                -3.0374570099798395
            ]
        },
        {
            "positions": [
                0.6052524279146753,
                -1.8306021364349623,
                2.348116085598789,
                -0.3042310374690622,
                0.526213876353832,
                -2.9390990924339357
            ]
        },
        {
            "positions": [
                0.5545662885078045,
                -1.7916461524635732,
                2.325380562994502,
                -0.22243200942825794,
                0.4345078602405339,
                -2.8407411748880325
            ]
        },
        {
            "positions": [
                0.5038801491009338,
                -1.752690168492184,
                2.302645040390215,
                -0.14063298138745367,
                0.34280184412723574,
                -2.742383257342129
            ]
        },
        {
            "positions": [
                0.4531940096940631,
                -1.7137341845207952,
                2.2799095177859274,
                -0.05883395334664937,
                0.2510958280139376,
                -2.6440253397962254
            ]
        },
        {
            "positions": [
                0.40250787028719237,
                -1.674778200549406,
                2.25717399518164,
                0.022965074694154874,
                0.1593898119006395,
                -2.545667422250322
            ]
        },
        {
            "positions": [
                0.35182173088032165,
                -1.635822216578017,
                2.234438472577353,
                0.10476410273495912,
                0.0676837957873413,
                -2.4473095047044184
            ]
        },
        {
            "positions": [
                0.3011355914734509,
                -1.596866232606628,
                2.211702949973066,
                0.18656313077576342,
                -0.0240222203259568,
                -2.348951587158515
            ]
        },
        {
            "positions": [
                0.2504494520665802,
                -1.5579102486352392,
                2.1889674273687785,
                0.2683621588165677,
                -0.1157282364392549,
                -2.250593669612612
            ]
        },
        {
            "positions": [
                0.19976331265970948,
                -1.51895426466385,
                2.166231904764491,
                0.350161186857372,
                -0.2074342525525531,
                -2.1522357520667086
            ]
        },
        {
            "positions": [
                0.14907717325283876,
                -1.479998280692461,
                2.143496382160204,
                0.4319602148981762,
                -0.2991402686658512,
                -2.053877834520805
            ]
        },
        {
            "positions": [
                0.09839103384596803,
                -1.441042296721072,
                2.120760859555917,
                0.5137592429389806,
                -0.3908462847791493,
                -1.9555199169749016
            ]
        },
        {
            "positions": [
                0.04770489443909731,
                -1.402086312749683,
                2.0980253369516295,
                0.5955582709797846,
                -0.4825523008924474,
                -1.857161999428998
            ]
        },
        {
            "positions": [
                -0.002981244967773411,
                -1.3631303287782939,
                2.075289814347342,
                0.6773572990205889,
                -0.5742583170057457,
                -1.7588040818830946
            ]
        },
        {
            "positions": [
                -0.053667384374644134,
                -1.324174344806905,
                2.0525542917430553,
                0.7591563270613932,
                -0.6659643331190438,
                -1.6604461643371913
            ]
        },
        {
            "positions": [
                -0.10435352378151486,
                -1.2852183608355159,
                2.029818769138768,
                0.8409553551021975,
                -0.7576703492323419,
                -1.5620882467912878
            ]
        },
        {
            "positions": [
                -0.15503966318838558,
                -1.2462623768641268,
                2.0070832465344806,
                0.9227543831430018,
                -0.84937636534564,
                -1.4637303292453843
            ]
        },
        {
            "positions": [
                -0.2057258025952563,
                -1.207306392892738,
                1.9843477239301932,
                1.0045534111838061,
                -0.9410823814589381,
                -1.365372411699481
            ]
        },
        {
            "positions": [
                -0.256411942002127,
                -1.1683504089213488,
                1.961612201325906,
                1.0863524392246104,
                -1.0327883975722365,
                -1.2670144941535775
            ]
        },
        {
            "positions": [
                -0.30709808140899775,
                -1.1293944249499597,
                1.938876678721619,
                1.1681514672654147,
                -1.1244944136855346,
                -1.168656576607674
            ]
        },
        {
            "positions": [
                -0.35778422081586847,
                -1.0904384409785708,
                1.9161411561173316,
                1.2499504953062188,
                -1.2162004297988327,
                -1.0702986590617707
            ]
        },
        {
            "positions": [
                -0.4084703602227392,
                -1.0514824570071817,
                1.8934056335130443,
                1.3317495233470231,
                -1.3079064459121308,
                -0.971940741515867
            ]
        },
        {
            "positions": [
                -0.4591564996296099,
                -1.0125264730357926,
                1.8706701109087571,
                1.4135485513878274,
                -1.3996124620254289,
                -0.8735828239699637
            ]
        },
        {
            "positions": [
                -0.5098426390364806,
                -0.9735704890644037,
                1.8479345883044698,
                1.4953475794286317,
                -1.491318478138727,
                -0.7752249064240604
            ]
        },
        {
            "positions": [
                -0.5605287784433514,
                -0.9346145050930147,
                1.8251990657001826,
                1.577146607469436,
                -1.583024494252025,
                -0.6768669888781567
            ]
        },
        {
            "positions": [
                -0.6112149178502221,
                -0.8956585211216257,
                1.8024635430958953,
                1.65894563551024,
                -1.6747305103653232,
                -0.5785090713322534
            ]
        },
        {
            "positions": [
                -0.6619010572570928,
                -0.8567025371502366,
                1.779728020491608,
                1.7407446635510446,
                -1.7664365264786217,
                -0.4801511537863501
            ]
        },
        {
            "positions": [
                -0.7125871966639635,
                -0.8177465531788475,
                1.7569924978873208,
                1.8225436915918487,
                -1.8581425425919198,
                -0.38179323624044637
            ]
        },
        {
            "positions": [
                -0.7632733360708343,
                -0.7787905692074586,
                1.7342569752830337,
                1.9043427196326532,
                -1.949848558705218,
                -0.2834353186945431
            ]
        },
        {
            "positions": [
                -0.813959475477705,
                -0.7398345852360695,
                1.7115214526787463,
                1.9861417476734573,
                -2.041554574818516,
                -0.1850774011486398
            ]
        },
        {
            "positions": [
                -0.8646456148845757,
                -0.7008786012646806,
                1.688785930074459,
                2.067940775714262,
                -2.133260590931814,
                -0.08671948360273607
            ]
        },
        {
            "positions": [
                -0.9153317542914463,
                -0.6619226172932915,
                1.6660504074701719,
                2.149739803755066,
                -2.224966607045112,
                0.011638433943167303
            ]
        }
    ]
}