{
    "goal": {
        "global_pose": {
            "orientation": {
                "w": 0.5084816262002911,
                "x": -0.4908360881923452,
                "y": 0.5182115481033761,
                "z": -0.48164630358495003
            },
            "position": {
                "x": 0.5540239810943604,
                "y": -0.46912469901144505,
                "z": 0.16403168439865112
            }
        },
        "name": "move_to_storage_B"
    },
    "id": "ProjEST_move_to_storage_B_100",
    "joint_names": [
        "shoulder_pan_joint",
        "shoulder_lift_joint",
        "elbow_joint",
        "wrist_1_joint",
        "wrist_2_joint",
        "wrist_3_joint"
    ],
    "metrics": {
        "cart_traj_len": 0.7036962338278908,
        "distance_elbow_joint": 0.3500554119233372,
        "distance_shoulder_lift_joint": 0.45986705764577573,
        "distance_shoulder_pan_joint": 0.3007944507880639,
        "distance_wrist_1_joint": 2.98297035181127,
        "distance_wrist_2_joint": 2.7178682923605066,
        "distance_wrist_3_joint": 3.13490666458758,
        "smoothness": 0.01091731601427831,
        "time": 0.100556206,
        "traj_len": 3.1538012348777675,
        "weighted_distance": 4.681571766240849
    },
    "planner": "ProjEST",
    "start": {
        "state": {
            "elbow_joint": 1.6649325706314817,
            "shoulder_lift_joint": -0.6616388048112454,
            "shoulder_pan_joint": -0.9139837860083814,
            "wrist_1_joint": 2.146757197745094,
            "wrist_2_joint": -2.234196043158733,
            "wrist_3_joint": 0.005471033829999897
        }
    },
    "waypoints": [
        {
            "positions": [
                -0.9139837860083814,
                -0.6616388048112454,
                1.6649325706314817,
                2.146757197745094,
                -2.234196043158733,
                0.005471033829999897
            ]
        },
        {
            "positions": [
                -0.901315083849834,
                -0.6714653156386663,
                1.6690629225911247,
                2.116620411506571,
                -2.18609531514426,
                0.010731787168383296
            ]
        },
        {
            "positions": [
                -0.860103632642568,
                -0.7045539892529934,
                1.6828798530656863,
                2.0187845771921977,
                -2.025880819226347,
                0.02824224108721666
            ]
        },
        {
            "positions": [
                -0.8570210285747122,
                -0.7500129119696962,
                1.699540807511811,
                2.001090337329891,
                -1.8634930137629941,
                0.060108421955805895
            ]
        },
        {
            "positions": [
                -0.8539384245068564,
                -0.795471834686399,
                1.7162017619579357,
                1.9833960974675848,
                -1.7011052082996412,
                0.09197460282439512
            ]
        },
        {
            "positions": [
                -0.8644057762149668,
                -0.8096472271981652,
                1.7291924672012784,
                1.8608043908791605,
                -1.6061148840604493,
                0.22451386785018576
            ]
        },
        {
            "positions": [
                -0.8748731279230771,
                -0.8238226197099314,
                1.7421831724446213,
                1.7382126842907362,
                -1.5111245598212573,
                0.3570531328759764
            ]
        },
        {
            "positions": [
                -0.8853404796311876,
                -0.8379980122216976,
                1.755173877687964,
                1.6156209777023118,
                -1.4161342355820654,
                0.48959239790176706
            ]
        },
        {
            "positions": [
                -0.895807831339298,
                -0.8521734047334637,
                1.7681645829313066,
                1.4930292711138873,
                -1.3211439113428736,
                0.6221316629275577
            ]
        },
        {
            "positions": [
                -0.9062751830474084,
                -0.86634879724523,
                1.7811552881746495,
                1.3704375645254632,
                -1.2261535871036817,
                0.7546709279533483
            ]
        },
        {
            "positions": [
                -0.9167425347555187,
                -0.8805241897569961,
                1.7941459934179922,
                1.2478458579370386,
                -1.1311632628644896,
                0.887210192979139
            ]
        },
        {
            "positions": [
                -0.9272098864636291,
                -0.8946995822687622,
                1.8071366986613349,
                1.1252541513486143,
                -1.0361729386252976,
                1.0197494580049298
            ]
        },
        {
            "positions": [
                -0.9376772381717395,
                -0.9088749747805285,
                1.8201274039046778,
                1.00266244476019,
                -0.9411826143861058,
                1.1522887230307202
            ]
        },
        {
            "positions": [
                -0.94814458987985,
                -0.9230503672922946,
                1.8331181091480204,
                0.8800707381717656,
                -0.8461922901469139,
                1.284827988056511
            ]
        },
        {
            "positions": [
                -0.9586119415879603,
                -0.9372257598040608,
                1.8461088143913633,
                0.7574790315833413,
                -0.751201965907722,
                1.4173672530823016
            ]
        },
        {
            "positions": [
                -0.9690792932960707,
                -0.951401152315827,
                1.859099519634706,
                0.6348873249949167,
                -0.6562116416685302,
                1.5499065181080922
            ]
        },
        {
            "positions": [
                -0.9795466450041811,
                -0.9655765448275931,
                1.8720902248780487,
                0.5122956184064926,
                -0.5612213174293381,
                1.6824457831338828
            ]
        },
        {
            "positions": [
                -0.9900139967122914,
                -0.9797519373393593,
                1.8850809301213913,
                0.3897039118180683,
                -0.46623099319014627,
                1.8149850481596734
            ]
        },
        {
            "positions": [
                -1.0004813484204018,
                -0.9939273298511255,
                1.8980716353647342,
                0.26711220522964374,
                -0.3712406689509542,
                1.9475243131854643
            ]
        },
        {
            "positions": [
                -1.0109487001285122,
                -1.0081027223628918,
                1.911062340608077,
                0.1445204986412194,
                -0.27625034471176235,
                2.080063578211255
            ]
        },
        {
            "positions": [
                -1.0214160518366227,
                -1.0222781148746578,
                1.9240530458514198,
                0.021928792052795076,
                -0.1812600204725705,
                2.2126028432370455
            ]
        },
        {
            "positions": [
                -1.031883403544733,
                -1.036453507386424,
                1.9370437510947625,
                -0.10066291453562903,
                -0.08626969623337866,
                2.345142108262836
            ]
        },
        {
            "positions": [
                -1.0423507552528435,
                -1.0506288998981903,
                1.9500344563381051,
                -0.2232546211240536,
                0.008720628005813413,
                2.477681373288627
            ]
        },
        {
            "positions": [
                -1.0528181069609537,
                -1.0648042924099563,
                1.963025161581448,
                -0.34584632771247814,
                0.10371095224500526,
                2.6102206383144178
            ]
        },
        {
            "positions": [
                -1.063285458669064,
                -1.0789796849217226,
                1.9760158668247907,
                -0.46843803430090225,
                0.1987012764841971,
                2.7427599033402084
            ]
        },
        {
            "positions": [
                -1.0737528103771745,
                -1.0931550774334888,
                1.9890065720681334,
                -0.5910297408893268,
                0.29369160072338896,
                2.8752991683659985
            ]
        },
        {
            "positions": [
                -1.084220162085285,
                -1.1073304699452549,
                2.0019972773114763,
                -0.7136214474777514,
                0.3886819249625808,
                3.0078384333917896
            ]
        },
        {
            "positions": [
                -1.0946875137933954,
                -1.121505862457021,
                2.014987982554819,
                -0.8362131540661755,
                0.48367224920177293,
                3.14037769841758
            ]
        }
    ]
}