{
    "goal": {
        "global_pose": {
            "orientation": {
                "w": 0.7047431493862688,
                "x": -0.7094548369677653,
                "y": 0.0024358444001904,
                "z": -0.0022348060817251984
            },
            "position": {
                "x": -0.39052492380142206,
                "y": 0.3671506643295288,
                "z": 0.19426114857196808
            }
        },
        "name": "move_to_magneteinheit_D"
    },
    "id": "ProjEST_move_to_magneteinheit_D_121",
    "joint_names": [
        "shoulder_pan_joint",
        "shoulder_lift_joint",
        "elbow_joint",
        "wrist_1_joint",
        "wrist_2_joint",
        "wrist_3_joint"
    ],
    "metrics": {
        "cart_traj_len": 4.697366313731774,
        "distance_elbow_joint": 3.905185607146459,
        "distance_shoulder_lift_joint": 4.3364171162422345,
        "distance_shoulder_pan_joint": 4.149506260332715,
        "distance_wrist_1_joint": 3.644528875209053,
        "distance_wrist_2_joint": 4.21018536139066,
        "distance_wrist_3_joint": 3.9821377984970354,
        "smoothness": 0.5312874099213309,
        "time": 0.49864052000000003,
        "traj_len": 4.922190672740966,
        "weighted_distance": 6.328266022569843
    },
    "planner": "ProjEST",
    "start": {
        "state": {
            "elbow_joint": 0.7495348899011973,
            "shoulder_lift_joint": -0.6476975780737697,
            "shoulder_pan_joint": -2.711696901376276,
            "wrist_1_joint": -0.07506478080974305,
            "wrist_2_joint": 0.4329665971545858,
            "wrist_3_joint": 3.1361499051832524
        }
    },
    "waypoints": [
        {
            "positions": [
                -2.711696901376276,
                -0.6476975780737697,
                0.7495348899011973,
                -0.07506478080974305,
                0.4329665971545858,
                3.1361499051832524
            ]
        },
        {
            "positions": [
                -2.713092304977184,
                -0.7475394612663897,
                0.8474993128980577,
                -0.12342120370747696,
                0.48519450885129584,
                3.0707903290516274
            ]
        },
        {
            "positions": [
                -2.7144877085780923,
                -0.8473813444590097,
                0.9454637358949181,
                -0.17177762660521087,
                0.5374224205480059,
                3.005430752920002
            ]
        },
        {
            "positions": [
                -2.715883112179,
                -0.9472232276516297,
                1.0434281588917784,
                -0.2201340495029448,
                0.589650332244716,
                2.9400711767883765
            ]
        },
        {
            "positions": [
                -2.717278515779908,
                -1.0470651108442497,
                1.1413925818886388,
                -0.2684904724006787,
                0.641878243941426,
                2.8747116006567515
            ]
        },
        {
            "positions": [
                -2.7005894575762386,
                -1.0591050402067732,
                1.080573111848802,
                -0.31629651725794783,
                0.6301986067222145,
                2.7159374585711658
            ]
        },
        {
            "positions": [
                -2.683900399372569,
                -1.071144969569297,
                1.0197536418089652,
                -0.36410256211521697,
                0.6185189695030031,
                2.55716331648558
            ]
        },
        {
            "positions": [
                -2.5769150790280992,
                -1.099053750962695,
                0.9652898749756211,
                -0.35315869165867386,
                0.5715576807248444,
                2.4233270488871033
            ]
        },
        {
            "positions": [
                -2.469929758683629,
                -1.1269625323560932,
                0.910826108142277,
                -0.34221482120213076,
                0.5245963919466856,
                2.289490781288627
            ]
        },
        {
            "positions": [
                -2.362944438339159,
                -1.1548713137494913,
                0.8563623413089331,
                -0.33127095074558766,
                0.47763510316852686,
                2.15565451369015
            ]
        },
        {
            "positions": [
                -2.2559591179946885,
                -1.1827800951428895,
                0.801898574475589,
                -0.32032708028904455,
                0.4306738143903681,
                2.0218182460916734
            ]
        },
        {
            "positions": [
                -2.1489737976502186,
                -1.2106888765362875,
                0.7474348076422449,
                -0.30938320983250145,
                0.3837125256122094,
                1.8879819784931968
            ]
        },
        {
            "positions": [
                -2.0419884773057486,
                -1.2385976579296856,
                0.6929710408089009,
                -0.29843933937595835,
                0.33675123683405067,
                1.7541457108947203
            ]
        },
        {
            "positions": [
                -1.9350031569612782,
                -1.2665064393230838,
                0.6385072739755568,
                -0.28749546891941524,
                0.289789948055892,
                1.6203094432962435
            ]
        },
        {
            "positions": [
                -1.8280178366168083,
                -1.2944152207164819,
                0.5840435071422128,
                -0.27655159846287214,
                0.24282865927773317,
                1.486473175697767
            ]
        },
        {
            "positions": [
                -1.7210325162723379,
                -1.32232400210988,
                0.5295797403088687,
                -0.26560772800632904,
                0.19586737049957448,
                1.3526369080992902
            ]
        },
        {
            "positions": [
                -1.614047195927868,
                -1.3502327835032781,
                0.4751159734755246,
                -0.25466385754978593,
                0.14890608172141573,
                1.2188006405008136
            ]
        },
        {
            "positions": [
                -1.5070618755833978,
                -1.3781415648966764,
                0.4206522066421805,
                -0.24371998709324283,
                0.10194479294325698,
                1.0849643729023368
            ]
        },
        {
            "positions": [
                -1.4000765552389278,
                -1.4060503462900744,
                0.36618843980883653,
                -0.23277611663669975,
                0.05498350416509823,
                0.9511281053038603
            ]
        },
        {
            "positions": [
                -1.2930912348944574,
                -1.4339591276834724,
                0.31172467297549233,
                -0.22183224618015662,
                0.00802221538693948,
                0.8172918377053837
            ]
        },
        {
            "positions": [
                -1.1861059145499875,
                -1.4618679090768705,
                0.25726090614214836,
                -0.21088837572361355,
                -0.03893907339121916,
                0.6834555701069072
            ]
        },
        {
            "positions": [
                -1.0791205942055173,
                -1.4897766904702687,
                0.20279713930880428,
                -0.19994450526707044,
                -0.08590036216937791,
                0.5496193025084306
            ]
        },
        {
            "positions": [
                -0.9721352738610471,
                -1.517685471863667,
                0.1483333724754602,
                -0.1890006348105273,
                -0.13286165094753677,
                0.41578303490995383
            ]
        },
        {
            "positions": [
                -0.8651499535165772,
                -1.545594253257065,
                0.09386960564211622,
                -0.17805676435398424,
                -0.1798229397256954,
                0.28194676731147705
            ]
        },
        {
            "positions": [
                -0.7581646331721068,
                -1.573503034650463,
                0.03940583880877202,
                -0.16711289389744113,
                -0.22678422850385416,
                0.14811049971300028
            ]
        },
        {
            "positions": [
                -0.6511793128276371,
                -1.601411816043861,
                -0.015057928024571954,
                -0.15616902344089803,
                -0.2737455172820129,
                0.014274232114523944
            ]
        },
        {
            "positions": [
                -0.5441939924831665,
                -1.6293205974372593,
                -0.06952169485791601,
                -0.14522515298435493,
                -0.32070680606017166,
                -0.11956203548395275
            ]
        },
        {
            "positions": [
                -0.48596248019172295,
                -1.561786012718164,
                -0.11894338579564159,
                -0.02494882318731055,
                -0.38411671293930194,
                -0.09899303929608363
            ]
        },
        {
            "positions": [
                -0.4277309679002794,
                -1.4942514279990686,
                -0.16836507673336715,
                0.09532750660973383,
                -0.4475266198184322,
                -0.07842404310821452
            ]
        },
        {
            "positions": [
                -0.3694994556088359,
                -1.4267168432799733,
                -0.21778676767109273,
                0.2156038364067782,
                -0.5109365266975625,
                -0.057855046920345425
            ]
        },
        {
            "positions": [
                -0.3112679433173923,
                -1.359182258560878,
                -0.2672084586088183,
                0.33588016620382255,
                -0.5743464335766928,
                -0.0372860507324763
            ]
        },
        {
            "positions": [
                -0.2530364310259488,
                -1.2916476738417826,
                -0.3166301495465439,
                0.45615649600086694,
                -0.6377563404558231,
                -0.0167170545446072
            ]
        },
        {
            "positions": [
                -0.19480491873450528,
                -1.2241130891226872,
                -0.3660518404842694,
                0.5764328257979113,
                -0.7011662473349534,
                0.0038519416432618997
            ]
        },
        {
            "positions": [
                -0.13657340644306176,
                -1.156578504403592,
                -0.41547353142199495,
                0.6967091555949556,
                -0.7645761542140836,
                0.024420937831131
            ]
        },
        {
            "positions": [
                -0.07834189415161819,
                -1.0890439196844968,
                -0.4648952223597206,
                0.8169854853920001,
                -0.827986061093214,
                0.044989934019000144
            ]
        },
        {
            "positions": [
                -0.020110381860174664,
                -1.0215093349654012,
                -0.5143169132974461,
                0.9372618151890444,
                -0.8913959679723443,
                0.06555893020686923
            ]
        },
        {
            "positions": [
                0.03812113043126886,
                -0.953974750246306,
                -0.5637386042351717,
                1.0575381449860888,
                -0.9548058748514746,
                0.08612792639473835
            ]
        },
        {
            "positions": [
                0.09635264272271249,
                -0.8864401655272106,
                -0.6131602951728974,
                1.1778144747831332,
                -1.018215781730605,
                0.10669692258260746
            ]
        },
        {
            "positions": [
                0.1545841550141559,
                -0.8189055808081153,
                -0.6625819861106229,
                1.2980908045801776,
                -1.0816256886097353,
                0.12726591877047655
            ]
        },
        {
            "positions": [
                0.21281566730559953,
                -0.7513709960890199,
                -0.7120036770483484,
                1.418367134377222,
                -1.1450355954888656,
                0.1478349149583457
            ]
        },
        {
            "positions": [
                0.27104717959704294,
                -0.6838364113699247,
                -0.761425367986074,
                1.5386434641742661,
                -1.2084455023679959,
                0.16840391114621475
            ]
        },
        {
            "positions": [
                0.32927869188848646,
                -0.6163018266508293,
                -0.8108470589237996,
                1.6589197939713105,
                -1.2718554092471261,
                0.18897290733408387
            ]
        },
        {
            "positions": [
                0.3875102041799301,
                -0.548767241931734,
                -0.8602687498615252,
                1.7791961237683551,
                -1.3352653161262564,
                0.20954190352195304
            ]
        },
        {
            "positions": [
                0.4457417164713735,
                -0.48123265721263864,
                -0.9096904407992508,
                1.8994724535653993,
                -1.3986752230053867,
                0.2301108997098221
            ]
        },
        {
            "positions": [
                0.5039732287628171,
                -0.4136980724935433,
                -0.9591121317369763,
                2.0197487833624437,
                -1.462085129884517,
                0.25067989589769124
            ]
        },
        {
            "positions": [
                0.5622047410542605,
                -0.34616348777444794,
                -1.0085338226747018,
                2.140025113159488,
                -1.5254950367636473,
                0.27124889208556036
            ]
        },
        {
            "positions": [
                0.6204362533457042,
                -0.2786289030553526,
                -1.0579555136124275,
                2.2603014429565325,
                -1.5889049436427776,
                0.29181788827342947
            ]
        },
        {
            "positions": [
                0.5756468157455115,
                -0.3899679254162879,
                -1.1309543924823136,
                2.2196854935769865,
                -1.4905443588083542,
                0.2743153363805154
            ]
        },
        {
            "positions": [
                0.5308573781453187,
                -0.5013069477772232,
                -1.2039532713521996,
                2.17906954419744,
                -1.3921837739739311,
                0.25681278448760136
            ]
        },
        {
            "positions": [
                0.4860679405451259,
                -0.6126459701381586,
                -1.2769521502220857,
                2.138453594817894,
                -1.2938231891395078,
                0.23931023259468728
            ]
        },
        {
            "positions": [
                0.4412785029449332,
                -0.7239849924990939,
                -1.3499510290919718,
                2.0978376454383483,
                -1.1954626043050847,
                0.22180768070177323
            ]
        },
        {
            "positions": [
                0.39648906534474043,
                -0.8353240148600293,
                -1.422949907961858,
                2.0572216960588023,
                -1.097102019470661,
                0.20430512880885915
            ]
        },
        {
            "positions": [
                0.3516996277445477,
                -0.9466630372209646,
                -1.495948786831744,
                2.0166057466792564,
                -0.998741434636238,
                0.1868025769159451
            ]
        },
        {
            "positions": [
                0.30691019014435494,
                -1.0580020595819,
                -1.5689476657016301,
                1.97598979729971,
                -0.9003808498018148,
                0.16930002502303104
            ]
        },
        {
            "positions": [
                0.2621207525441622,
                -1.1693410819428351,
                -1.6419465445715162,
                1.935373847920164,
                -0.8020202649673915,
                0.151797473130117
            ]
        },
        {
            "positions": [
                0.21733131494396946,
                -1.2806801043037706,
                -1.7149454234414023,
                1.8947578985406182,
                -0.7036596801329682,
                0.1342949212372029
            ]
        },
        {
            "positions": [
                0.17254187734377668,
                -1.392019126664706,
                -1.7879443023112884,
                1.854141949161072,
                -0.6052990952985449,
                0.11679236934428883
            ]
        },
        {
            "positions": [
                0.1277524397435839,
                -1.5033581490256414,
                -1.8609431811811747,
                1.8135259997815258,
                -0.5069385104641215,
                0.09928981745137477
            ]
        },
        {
            "positions": [
                0.08296300214339125,
                -1.6146971713865765,
                -1.9339420600510606,
                1.77291005040198,
                -0.4085779256296984,
                0.08178726555846072
            ]
        },
        {
            "positions": [
                0.038173564543198424,
                -1.726036193747512,
                -2.0069409389209465,
                1.732294101022434,
                -0.3102173407952751,
                0.06428471366554667
            ]
        },
        {
            "positions": [
                -0.0066158730569942925,
                -1.8373752161084471,
                -2.079939817790833,
                1.6916781516428878,
                -0.21185675596085196,
                0.046782161772632586
            ]
        },
        {
            "positions": [
                -0.05140531065718701,
                -1.9487142384693825,
                -2.152938696660719,
                1.6510622022633417,
                -0.11349617112642862,
                0.029279609879718504
            ]
        },
        {
            "positions": [
                -0.09619474825737973,
                -2.0600532608303177,
                -2.225937575530605,
                1.6104462528837957,
                -0.01513558629200551,
                0.011777057986804507
            ]
        },
        {
            "positions": [
                -0.14098418585757255,
                -2.171392283191253,
                -2.298936454400491,
                1.5698303035042498,
                0.08322499854241783,
                -0.005725493906109602
            ]
        },
        {
            "positions": [
                -0.18577362345776524,
                -2.2827313055521885,
                -2.371935333270377,
                1.5292143541247036,
                0.1815855833768411,
                -0.02322804579902363
            ]
        }
    ]
}