{
    "goal": {
        "global_pose": {
            "orientation": {
                "w": 0.5084816217422485,
                "x": -0.49083608388900757,
                "y": 0.5182115435600281,
                "z": -0.4816462993621826
            },
            "position": {
                "x": 0.5540239810943604,
                "y": 0.030875300988554955,
                "z": 0.16403168439865112
            }
        },
        "name": "move_to_storage_A"
    },
    "id": "ProjEST_move_to_storage_A_32",
    "joint_names": [
        "shoulder_pan_joint",
        "shoulder_lift_joint",
        "elbow_joint",
        "wrist_1_joint",
        "wrist_2_joint",
        "wrist_3_joint"
    ],
    "metrics": {
        "cart_traj_len": 0.35377017049963766,
        "distance_elbow_joint": 0.450036573651567,
        "distance_shoulder_lift_joint": 0.23454103901203704,
        "distance_shoulder_pan_joint": 0.4644721007510245,
        "distance_wrist_1_joint": 0.2457042018546659,
        "distance_wrist_2_joint": 1.0918243327756363,
        "distance_wrist_3_joint": 0.10124704858017353,
        "smoothness": 0.0,
        "time": 0.082440634,
        "traj_len": 1.6086719045924511,
        "weighted_distance": 2.0317105916974874
    },
    "planner": "ProjEST",
    "start": {
        "state": {
            "elbow_joint": 1.9715474177455299,
            "shoulder_lift_joint": -1.139484666580328,
            "shoulder_pan_joint": 0.12281154398918248,
            "wrist_1_joint": -0.7804687475355282,
            "wrist_2_joint": 0.12958649657246987,
            "wrist_3_joint": -3.1924925159053466
        }
    },
    "waypoints": [
        {
            "positions": [
                0.12281154398918248,
                -1.139484666580328,
                1.9715474177455299,
                -0.7804687475355282,
                0.12958649657246987,
                -3.1924925159053466
            ]
        },
        {
            "positions": [
                0.05645838673903612,
                -1.1729905292963332,
                2.0358383568386107,
                -0.8155693478004805,
                0.28556140125470364,
                -3.1780286518224647
            ]
        },
        {
            "positions": [
                -0.009894770511110235,
                -1.2064963920123386,
                2.100129295931692,
                -0.8506699480654327,
                0.4415363059369374,
                -3.1635647877395825
            ]
        },
        {
            "positions": [
                -0.07624792776125658,
                -1.2400022547283438,
                2.1644202350247728,
                -0.885770548330385,
                0.5975112106191712,
                -3.1491009236567007
            ]
        },
        {
            "positions": [
                -0.14260108501140295,
                -1.2735081174443492,
                2.228711174117854,
                -0.9208711485953373,
                0.753486115301405,
                -3.134637059573819
            ]
        },
        {
            "positions": [
                -0.20895424226154935,
                -1.3070139801603544,
                2.293002113210935,
                -0.9559717488602896,
                0.9094610199836388,
                -3.120173195490937
            ]
        },
        {
            "positions": [
                -0.27530739951169564,
                -1.3405198428763598,
                2.3572930523040156,
                -0.9910723491252418,
                1.0654359246658724,
                -3.105709331408055
            ]
        },
        {
            "positions": [
                -0.34166055676184204,
                -1.374025705592365,
                2.421583991397097,
                -1.026172949390194,
                1.2214108293481063,
                -3.091245467325173
            ]
        }
    ]
}