{
    "goal": {
        "global_pose": {
            "orientation": {
                "w": -0.4816463035849501,
                "x": 0.5182115481033762,
                "y": 0.4908360881923453,
                "z": -0.5084816262002911
            },
            "position": {
                "x": -0.8240239810943604,
                "y": -0.300875300988555,
                "z": 0.16403168439865112
            }
        },
        "name": "move_to_storage_C"
    },
    "id": "ProjEST_move_to_storage_C_54",
    "joint_names": [
        "shoulder_pan_joint",
        "shoulder_lift_joint",
        "elbow_joint",
        "wrist_1_joint",
        "wrist_2_joint",
        "wrist_3_joint"
    ],
    "metrics": {
        "cart_traj_len": 0.5767069014025605,
        "distance_elbow_joint": 0.2595962866945176,
        "distance_shoulder_lift_joint": 0.19005378993479805,
        "distance_shoulder_pan_joint": 0.49565309705087923,
        "distance_wrist_1_joint": 0.0855845482598071,
        "distance_wrist_2_joint": 1.0603242780384599,
        "distance_wrist_3_joint": 0.07629575224409058,
        "smoothness": 5.075305295617109e-16,
        "time": 0.015136717,
        "traj_len": 1.4722458192240018,
        "weighted_distance": 1.861721806019632
    },
    "planner": "ProjEST",
    "start": {
        "state": {
            "elbow_joint": 2.010868315001653,
            "shoulder_lift_joint": -1.1634956873357014,
            "shoulder_pan_joint": -2.4736205022346103,
            "wrist_1_joint": -0.8367026794713948,
            "wrist_2_joint": 0.6746043897044093,
            "wrist_3_joint": 3.1335220948105738
        }
    },
    "waypoints": [
        {
            "positions": [
                -2.4736205022346103,
                -1.1634956873357014,
                2.010868315001653,
                -0.8367026794713948,
                0.6746043897044093,
                3.1335220948105738
            ]
        },
        {
            "positions": [
                -2.5562293517430903,
                -1.1318200556799018,
                1.9676022672192335,
                -0.8224385880947602,
                0.8513251027108193,
                3.146238053517922
            ]
        },
        {
            "positions": [
                -2.63883820125157,
                -1.100144424024102,
                1.9243362194368139,
                -0.8081744967181257,
                1.0280458157172292,
                3.1589540122252706
            ]
        },
        {
            "positions": [
                -2.72144705076005,
                -1.0684687923683023,
                1.8810701716543943,
                -0.7939104053414912,
                1.2047665287236393,
                3.1716699709326193
            ]
        },
        {
            "positions": [
                -2.80405590026853,
                -1.0367931607125027,
                1.8378041238719747,
                -0.7796463139648567,
                1.3814872417300492,
                3.1843859296399675
            ]
        },
        {
            "positions": [
                -2.8866647497770095,
                -1.0051175290567032,
                1.794538076089555,
                -0.7653822225882222,
                1.5582079547364591,
                3.1971018883473157
            ]
        },
        {
            "positions": [
                -2.9692735992854895,
                -0.9734418974009034,
                1.7512720283071355,
                -0.7511181312115877,
                1.734928667742869,
                3.2098178470546643
            ]
        }
    ]
}