{
    "goal": {
        "global_pose": {
            "orientation": {
                "w": 0.005598929693374612,
                "x": 0.007748599140229565,
                "y": 0.7110244013736278,
                "z": -0.7031023480610252
            },
            "position": {
                "x": -0.8858502320852131,
                "y": -0.7141253447532654,
                "z": 0.3711530566215515
            }
        },
        "name": "move_to_auspresseinheit_C"
    },
    "id": "ProjEST_move_to_auspresseinheit_C_13",
    "joint_names": [
        "shoulder_pan_joint",
        "shoulder_lift_joint",
        "elbow_joint",
        "wrist_1_joint",
        "wrist_2_joint",
        "wrist_3_joint"
    ],
    "metrics": {
        "cart_traj_len": 0.4917502886458642,
        "distance_elbow_joint": 0.9867184161495798,
        "distance_shoulder_lift_joint": 0.31835038592590836,
        "distance_shoulder_pan_joint": 0.2563458838525512,
        "distance_wrist_1_joint": 0.6600177979623733,
        "distance_wrist_2_joint": 1.3023548568463719,
        "distance_wrist_3_joint": 0.054270581083266656,
        "smoothness": 3.2297397080004555e-16,
        "time": 3.3950124,
        "traj_len": 1.891575513115998,
        "weighted_distance": 2.3767565585888955
    },
    "planner": "ProjEST",
    "start": {
        "state": {
            "elbow_joint": 1.752795957773711,
            "shoulder_lift_joint": -0.9740617694225064,
            "shoulder_pan_joint": -2.967991417825858,
            "wrist_1_joint": -0.7595177689806859,
            "wrist_2_joint": 1.7443932448377395,
            "wrist_3_joint": 3.199131542505932
        }
    },
    "waypoints": [
        {
            "positions": [
                -2.967991417825858,
                -0.9740617694225064,
                1.752795957773711,
                -0.7595177689806859,
                1.7443932448377395,
                3.199131542505932
            ]
        },
        {
            "positions": [
                -2.9423568294406026,
                -0.9422267308299156,
                1.6541241161587532,
                -0.6935159891844486,
                1.6141577591531022,
                3.1937044843976055
            ]
        },
        {
            "positions": [
                -2.9167222410553477,
                -0.9103916922373247,
                1.555452274543795,
                -0.6275142093882112,
                1.4839222734684652,
                3.188277426289279
            ]
        },
        {
            "positions": [
                -2.891087652670093,
                -0.8785566536447339,
                1.4567804329288372,
                -0.5615124295919739,
                1.353686787783828,
                3.182850368180952
            ]
        },
        {
            "positions": [
                -2.8654530642848375,
                -0.846721615052143,
                1.3581085913138793,
                -0.4955106497957366,
                1.2234513020991908,
                3.1774233100726255
            ]
        },
        {
            "positions": [
                -2.839818475899582,
                -0.8148865764595523,
                1.2594367496989212,
                -0.4295088699994993,
                1.0932158164145536,
                3.171996251964299
            ]
        },
        {
            "positions": [
                -2.8141838875143272,
                -0.7830515378669615,
                1.1607649080839633,
                -0.36350709020326194,
                0.9629803307299164,
                3.166569193855972
            ]
        },
        {
            "positions": [
                -2.7885492991290723,
                -0.7512164992743706,
                1.0620930664690054,
                -0.29750531040702466,
                0.8327448450452792,
                3.1611421357476455
            ]
        },
        {
            "positions": [
                -2.762914710743817,
                -0.7193814606817797,
                0.9634212248540472,
                -0.23150353061078732,
                0.702509359360642,
                3.155715077639319
            ]
        },
        {
            "positions": [
                -2.7372801223585617,
                -0.6875464220891889,
                0.8647493832390893,
                -0.16550175081454999,
                0.5722738736760047,
                3.150288019530992
            ]
        },
        {
            "positions": [
                -2.7116455339733068,
                -0.6557113834965981,
                0.7660775416241313,
                -0.09949997101831262,
                0.4420383879913677,
                3.1448609614226655
            ]
        }
    ]
}