{
    "goal": {
        "global_pose": {
            "orientation": {
                "w": 0.5084816262002911,
                "x": -0.4908360881923452,
                "y": 0.5182115481033761,
                "z": -0.48164630358495003
            },
            "position": {
                "x": 0.5540239810943604,
                "y": -0.46912469901144505,
                "z": 0.16403168439865112
            }
        },
        "name": "move_to_storage_B"
    },
    "id": "ProjEST_move_to_storage_B_70",
    "joint_names": [
        "shoulder_pan_joint",
        "shoulder_lift_joint",
        "elbow_joint",
        "wrist_1_joint",
        "wrist_2_joint",
        "wrist_3_joint"
    ],
    "metrics": {
        "cart_traj_len": 2.6507219800958026,
        "distance_elbow_joint": 2.7551695301457353,
        "distance_shoulder_lift_joint": 0.5166530142349741,
        "distance_shoulder_pan_joint": 1.3428162976516236,
        "distance_wrist_1_joint": 3.2382487241293676,
        "distance_wrist_2_joint": 2.7712300639916903,
        "distance_wrist_3_joint": 4.064240301730502,
        "smoothness": 0.3636330032305221,
        "time": 0.213907201,
        "traj_len": 3.8325393581650142,
        "weighted_distance": 5.369014557948781
    },
    "planner": "ProjEST",
    "start": {
        "state": {
            "elbow_joint": 1.6649325706314817,
            "shoulder_lift_joint": -0.6616388048112454,
            "shoulder_pan_joint": -0.9139837860083814,
            "wrist_1_joint": 2.146757197745094,
            "wrist_2_joint": -2.234196043158733,
            "wrist_3_joint": 0.005471033829999897
        }
    },
    "waypoints": [
        {
            "positions": [
                -0.9139837860083814,
                -0.6616388048112454,
                1.6649325706314817,
                2.146757197745094,
                -2.234196043158733,
                0.005471033829999897
            ]
        },
        {
            "positions": [
                -0.7688240769660284,
                -0.6544006356247196,
                1.6201122235185927,
                2.1062687891269336,
                -2.2417863022447557,
                -0.11026609661262873
            ]
        },
        {
            "positions": [
                -0.6236643679236754,
                -0.6471624664381939,
                1.575291876405704,
                2.0657803805087727,
                -2.249376561330779,
                -0.22600322705525738
            ]
        },
        {
            "positions": [
                -0.47850465888132243,
                -0.639924297251668,
                1.530471529292815,
                2.025291971890612,
                -2.256966820416802,
                -0.341740357497886
            ]
        },
        {
            "positions": [
                -0.33334494983896945,
                -0.6326861280651422,
                1.485651182179926,
                1.9848035632724514,
                -2.2645570795028247,
                -0.4574774879405146
            ]
        },
        {
            "positions": [
                -0.3451090911593603,
                -0.6528583855730283,
                1.4429871690140688,
                1.8620463891885128,
                -2.1522881917868544,
                -0.3783310461339853
            ]
        },
        {
            "positions": [
                -0.35687323247975117,
                -0.6730306430809144,
                1.4003231558482114,
                1.739289215104574,
                -2.0400193040708845,
                -0.299184604327456
            ]
        },
        {
            "positions": [
                -0.368637373800142,
                -0.6932029005888006,
                1.357659142682354,
                1.6165320410206354,
                -1.9277504163549142,
                -0.22003816252092673
            ]
        },
        {
            "positions": [
                -0.3804015151205329,
                -0.7133751580966867,
                1.3149951295164968,
                1.4937748669366968,
                -1.815481528638944,
                -0.14089172071439743
            ]
        },
        {
            "positions": [
                -0.3921656564409237,
                -0.7335474156045728,
                1.2723311163506394,
                1.371017692852758,
                -1.7032126409229738,
                -0.06174527890786813
            ]
        },
        {
            "positions": [
                -0.40392979776131455,
                -0.7537196731124589,
                1.2296671031847821,
                1.2482605187688194,
                -1.5909437532070037,
                0.01740116289866117
            ]
        },
        {
            "positions": [
                -0.41569393908170543,
                -0.7738919306203451,
                1.1870030900189248,
                1.1255033446848808,
                -1.4786748654910333,
                0.09654760470519047
            ]
        },
        {
            "positions": [
                -0.42745808040209626,
                -0.7940641881282311,
                1.1443390768530675,
                1.002746170600942,
                -1.3664059777750635,
                0.17569404651171977
            ]
        },
        {
            "positions": [
                -0.43922222172248715,
                -0.8142364456361173,
                1.1016750636872101,
                0.8799889965170034,
                -1.2541370900590931,
                0.25484048831824907
            ]
        },
        {
            "positions": [
                -0.450986363042878,
                -0.8344087031440034,
                1.0590110505213528,
                0.7572318224330645,
                -1.1418682023431228,
                0.33398693012477837
            ]
        },
        {
            "positions": [
                -0.4627505043632688,
                -0.8545809606518895,
                1.0163470373554955,
                0.6344746483491261,
                -1.029599314627153,
                0.41313337193130767
            ]
        },
        {
            "positions": [
                -0.4745146456836597,
                -0.8747532181597757,
                0.9736830241896381,
                0.5117174742651873,
                -0.9173304269111826,
                0.49227981373783697
            ]
        },
        {
            "positions": [
                -0.48627878700405053,
                -0.8949254756676617,
                0.9310190110237808,
                0.3889603001812487,
                -0.8050615391952125,
                0.5714262555443663
            ]
        },
        {
            "positions": [
                -0.4980429283244414,
                -0.9150977331755479,
                0.8883549978579235,
                0.2662031260973099,
                -0.6927926514792422,
                0.6505726973508956
            ]
        },
        {
            "positions": [
                -0.5098070696448322,
                -0.935269990683434,
                0.8456909846920662,
                0.1434459520133713,
                -0.5805237637632721,
                0.7297191391574249
            ]
        },
        {
            "positions": [
                -0.5215712109652231,
                -0.9554422481913201,
                0.8030269715262088,
                0.02068877792943269,
                -0.468254876047302,
                0.8088655809639542
            ]
        },
        {
            "positions": [
                -0.533335352285614,
                -0.9756145056992063,
                0.7603629583603515,
                -0.10206839615450636,
                -0.35598598833133166,
                0.8880120227704835
            ]
        },
        {
            "positions": [
                -0.5450994936060048,
                -0.9957867632070924,
                0.7176989451944942,
                -0.22482557023844474,
                -0.24371710061536156,
                0.9671584645770128
            ]
        },
        {
            "positions": [
                -0.5568636349263957,
                -1.0159590207149785,
                0.6750349320286368,
                -0.3475827443223831,
                -0.13144821289939168,
                1.0463049063835421
            ]
        },
        {
            "positions": [
                -0.5686277762467865,
                -1.0361312782228647,
                0.6323709188627795,
                -0.4703399184063224,
                -0.019179325183420914,
                1.1254513481900714
            ]
        },
        {
            "positions": [
                -0.5803919175671775,
                -1.0563035357307506,
                0.5897069056969222,
                -0.5930970924902608,
                0.09308956253254896,
                1.2045977899966007
            ]
        },
        {
            "positions": [
                -0.5921560588875683,
                -1.0764757932386368,
                0.5470428925310649,
                -0.7158542665741991,
                0.20535845024851884,
                1.28374423180313
            ]
        },
        {
            "positions": [
                -0.6039202002079591,
                -1.096648050746523,
                0.5043788793652075,
                -0.8386114406581384,
                0.3176273379644896,
                1.3628906736096593
            ]
        },
        {
            "positions": [
                -0.6156843415283499,
                -1.116820308254409,
                0.46171486619935026,
                -0.9613686147420768,
                0.42989622568045927,
                1.4420371154161886
            ]
        },
        {
            "positions": [
                -0.6636681485076331,
                -1.1171769239843694,
                0.6169100487707107,
                -0.9483563235778573,
                0.4345377979268907,
                1.6122148330765171
            ]
        },
        {
            "positions": [
                -0.7116519554869162,
                -1.1175335397143298,
                0.772105231342071,
                -0.9353440324136377,
                0.4391793701733221,
                1.7823925507368457
            ]
        },
        {
            "positions": [
                -0.7596357624661993,
                -1.1178901554442904,
                0.9273004139134313,
                -0.9223317412494183,
                0.4438209424197535,
                1.952570268397174
            ]
        },
        {
            "positions": [
                -0.8076195694454824,
                -1.1182467711742508,
                1.0824955964847918,
                -0.9093194500851988,
                0.4484625146661849,
                2.1227479860575027
            ]
        },
        {
            "positions": [
                -0.8556033764247656,
                -1.1186033869042111,
                1.237690779056152,
                -0.8963071589209792,
                0.4531040869126164,
                2.292925703717831
            ]
        },
        {
            "positions": [
                -0.9035871834040488,
                -1.1189600026341715,
                1.3928859616275124,
                -0.8832948677567597,
                0.4577456591590478,
                2.4631034213781593
            ]
        },
        {
            "positions": [
                -0.9515709903833318,
                -1.1193166183641319,
                1.5480811441988727,
                -0.8702825765925402,
                0.4623872314054792,
                2.6332811390384876
            ]
        },
        {
            "positions": [
                -0.999554797362615,
                -1.1196732340940925,
                1.703276326770233,
                -0.8572702854283207,
                0.46702880365191063,
                2.803458856698817
            ]
        },
        {
            "positions": [
                -1.0475386043418982,
                -1.1200298498240528,
                1.8584715093415936,
                -0.8442579942641012,
                0.47167037589834204,
                2.973636574359145
            ]
        },
        {
            "positions": [
                -1.0955224113211812,
                -1.1203864655540132,
                2.0136666919129538,
                -0.8312457030998817,
                0.47631194814477346,
                3.1438142920194734
            ]
        }
    ]
}