{
    "goal": {
        "global_pose": {
            "orientation": {
                "w": 0.5084816262002911,
                "x": -0.4908360881923452,
                "y": 0.5182115481033761,
                "z": -0.48164630358495003
            },
            "position": {
                "x": 0.5540239810943604,
                "y": -0.46912469901144505,
                "z": 0.16403168439865112
            }
        },
        "name": "move_to_storage_B"
    },
    "id": "ProjEST_move_to_storage_B_117",
    "joint_names": [
        "shoulder_pan_joint",
        "shoulder_lift_joint",
        "elbow_joint",
        "wrist_1_joint",
        "wrist_2_joint",
        "wrist_3_joint"
    ],
    "metrics": {
        "cart_traj_len": 2.0585062138695336,
        "distance_elbow_joint": 0.9070700232040954,
        "distance_shoulder_lift_joint": 1.3047645211886914,
        "distance_shoulder_pan_joint": 1.3269372219888476,
        "distance_wrist_1_joint": 2.9891205402745222,
        "distance_wrist_2_joint": 2.7098691050223094,
        "distance_wrist_3_joint": 3.133656476108095,
        "smoothness": 0.20079529109668978,
        "time": 0.126842744,
        "traj_len": 3.517302643757935,
        "weighted_distance": 4.933327526659828
    },
    "planner": "ProjEST",
    "start": {
        "state": {
            "elbow_joint": 1.6649325706314817,
            "shoulder_lift_joint": -0.6616388048112454,
            "shoulder_pan_joint": -0.9139837860083814,
            "wrist_1_joint": 2.146757197745094,
            "wrist_2_joint": -2.234196043158733,
            "wrist_3_joint": 0.005471033829999897
        }
    },
    "waypoints": [
        {
            "positions": [
                -0.9139837860083814,
                -0.6616388048112454,
                1.6649325706314817,
                2.146757197745094,
                -2.234196043158733,
                0.005471033829999897
            ]
        },
        {
            "positions": [
                -0.9006867235004237,
                -0.675229822876726,
                1.6633363835010417,
                2.1395607377554295,
                -2.2134125384609913,
                -0.00821921402638028
            ]
        },
        {
            "positions": [
                -0.8384707947283222,
                -0.7717104588785665,
                1.632570255488883,
                2.0501711739434887,
                -2.1466876641725503,
                -0.03708254921494091
            ]
        },
        {
            "positions": [
                -0.7762548659562207,
                -0.868191094880407,
                1.6018041274767245,
                1.9607816101315478,
                -2.0799627898841098,
                -0.06594588440350153
            ]
        },
        {
            "positions": [
                -0.7140389371841193,
                -0.9646717308822474,
                1.5710379994645658,
                1.8713920463196072,
                -2.013237915595669,
                -0.09480921959206216
            ]
        },
        {
            "positions": [
                -0.6518230084120178,
                -1.061152366884088,
                1.5402718714524073,
                1.7820024825076664,
                -1.9465130413072282,
                -0.12367255478062279
            ]
        },
        {
            "positions": [
                -0.5896070796399162,
                -1.1576330028859285,
                1.5095057434402486,
                1.6926129186957255,
                -1.8797881670187873,
                -0.15253588996918346
            ]
        },
        {
            "positions": [
                -0.5273911508678149,
                -1.2541136388877692,
                1.47873961542809,
                1.6032233548837849,
                -1.8130632927303467,
                -0.18139922515774407
            ]
        },
        {
            "positions": [
                -0.46517522209571327,
                -1.3505942748896096,
                1.4479734874159313,
                1.513833791071844,
                -1.7463384184419057,
                -0.21026256034630472
            ]
        },
        {
            "positions": [
                -0.40295929332361186,
                -1.44707491089145,
                1.4172073594037728,
                1.4244442272599032,
                -1.679613544153465,
                -0.23912589553486532
            ]
        },
        {
            "positions": [
                -0.34074336455151033,
                -1.5435555468932907,
                1.3864412313916141,
                1.3350546634479623,
                -1.6128886698650242,
                -0.26798923072342595
            ]
        },
        {
            "positions": [
                -0.37351279066159626,
                -1.5251708608451757,
                1.4137707393900587,
                1.240384315361989,
                -1.5220816380507374,
                -0.392345587747542
            ]
        },
        {
            "positions": [
                -0.4062822167716822,
                -1.5067861747970606,
                1.4411002473885035,
                1.1457139672760153,
                -1.4312746062364503,
                -0.5167019447716581
            ]
        },
        {
            "positions": [
                -0.4390516428817681,
                -1.4884014887489456,
                1.468429755386948,
                1.0510436191900419,
                -1.3404675744221635,
                -0.641058301795774
            ]
        },
        {
            "positions": [
                -0.47182106899185405,
                -1.4700168027008305,
                1.495759263385393,
                0.9563732711040682,
                -1.2496605426078764,
                -0.7654146588198901
            ]
        },
        {
            "positions": [
                -0.50459049510194,
                -1.4516321166527155,
                1.5230887713838375,
                0.8617029230180948,
                -1.1588535107935896,
                -0.8897710158440062
            ]
        },
        {
            "positions": [
                -0.5373599212120259,
                -1.4332474306046004,
                1.5504182793822823,
                0.7670325749321212,
                -1.0680464789793025,
                -1.0141273728681224
            ]
        },
        {
            "positions": [
                -0.5701293473221118,
                -1.4148627445564854,
                1.5777477873807269,
                0.6723622268461477,
                -0.9772394471650155,
                -1.1384837298922383
            ]
        },
        {
            "positions": [
                -0.6028987734321978,
                -1.3964780585083703,
                1.6050772953791717,
                0.5776918787601742,
                -0.8864324153507287,
                -1.2628400869163543
            ]
        },
        {
            "positions": [
                -0.6356681995422837,
                -1.3780933724602553,
                1.6324068033776162,
                0.4830215306742006,
                -0.7956253835364416,
                -1.3871964439404705
            ]
        },
        {
            "positions": [
                -0.6684376256523696,
                -1.3597086864121402,
                1.659736311376061,
                0.3883511825882272,
                -0.7048183517221548,
                -1.5115528009645864
            ]
        },
        {
            "positions": [
                -0.7012070517624556,
                -1.3413240003640252,
                1.6870658193745056,
                0.2936808345022537,
                -0.6140113199078677,
                -1.6359091579887024
            ]
        },
        {
            "positions": [
                -0.7339764778725415,
                -1.32293931431591,
                1.7143953273729504,
                0.19901048641628005,
                -0.5232042880935808,
                -1.7602655150128186
            ]
        },
        {
            "positions": [
                -0.7667459039826274,
                -1.3045546282677951,
                1.741724835371395,
                0.10434013833030664,
                -0.43239725627929393,
                -1.8846218720369345
            ]
        },
        {
            "positions": [
                -0.7995153300927134,
                -1.28616994221968,
                1.7690543433698398,
                0.00966979024433301,
                -0.34159022446500686,
                -2.008978229061051
            ]
        },
        {
            "positions": [
                -0.8322847562027993,
                -1.267785256171565,
                1.7963838513682844,
                -0.0850005578416404,
                -0.25078319265072,
                -2.1333345860851667
            ]
        },
        {
            "positions": [
                -0.8650541823128852,
                -1.2494005701234498,
                1.823713359366729,
                -0.1796709059276138,
                -0.15997616083643318,
                -2.2576909431092824
            ]
        },
        {
            "positions": [
                -0.8978236084229712,
                -1.231015884075335,
                1.8510428673651738,
                -0.27434125401358744,
                -0.06916912902214611,
                -2.382047300133399
            ]
        },
        {
            "positions": [
                -0.9305930345330571,
                -1.2126311980272197,
                1.8783723753636186,
                -0.3690116020995611,
                0.02163790279214095,
                -2.506403657157515
            ]
        },
        {
            "positions": [
                -0.963362460643143,
                -1.1942465119791048,
                1.9057018833620631,
                -0.4636819501855345,
                0.1124449346064278,
                -2.6307600141816305
            ]
        },
        {
            "positions": [
                -0.996131886753229,
                -1.1758618259309896,
                1.9330313913605077,
                -0.5583522982715079,
                0.20325196642071464,
                -2.755116371205747
            ]
        },
        {
            "positions": [
                -1.0289013128633149,
                -1.1574771398828747,
                1.9603608993589525,
                -0.6530226463574815,
                0.2940589982350017,
                -2.879472728229863
            ]
        },
        {
            "positions": [
                -1.0616707389734008,
                -1.1390924538347598,
                1.9876904073573973,
                -0.7476929944434549,
                0.38486603004928877,
                -3.0038290852539786
            ]
        },
        {
            "positions": [
                -1.0944401650834867,
                -1.1207077677866446,
                2.015019915355842,
                -0.8423633425294285,
                0.47567306186357566,
                -3.128185442278095
            ]
        }
    ]
}