{
    "goal": {
        "global_pose": {
            "orientation": {
                "w": 0.7031023480610252,
                "x": -0.7110244013736278,
                "y": 0.0077485991402295624,
                "z": 0.005598929693374583
            },
            "position": {
                "x": -0.8841497679147869,
                "y": 0.44412534475326537,
                "z": 0.3711530566215515
            }
        },
        "name": "move_to_auspresseinheit_D"
    },
    "id": "ProjEST_move_to_auspresseinheit_D_1",
    "joint_names": [
        "shoulder_pan_joint",
        "shoulder_lift_joint",
        "elbow_joint",
        "wrist_1_joint",
        "wrist_2_joint",
        "wrist_3_joint"
    ],
    "metrics": {
        "cart_traj_len": 3.643331044983022,
        "distance_elbow_joint": 3.011970630496144,
        "distance_shoulder_lift_joint": 1.2360017321309131,
        "distance_shoulder_pan_joint": 2.7974460794252187,
        "distance_wrist_1_joint": 2.093032417550831,
        "distance_wrist_2_joint": 1.2224047450027657,
        "distance_wrist_3_joint": 6.27824246509094,
        "smoothness": 3.835315927926112e-16,
        "time": 0.13429077,
        "traj_len": 4.079105057447872,
        "weighted_distance": 5.7018435757597095
    },
    "planner": "ProjEST",
    "start": {
        "state": {
            "elbow_joint": 1.8268400409724999,
            "shoulder_lift_joint": -1.0144045787793008,
            "shoulder_pan_joint": 2.6280239544362485,
            "wrist_1_joint": -0.790705565816056,
            "wrist_2_joint": 1.0573557467365533,
            "wrist_3_joint": 3.1851377467193758
        }
    },
    "waypoints": [
        {
            "positions": [
                2.6280239544362485,
                -1.0144045787793008,
                1.8268400409724999,
                -0.790705565816056,
                1.0573557467365533,
                3.1851377467193758
            ]
        },
        {
            "positions": [
                2.5973933093097727,
                -1.0506576941415204,
                1.7565556253156618,
                -0.8261254657052758,
                0.9891970186086583,
                3.052474758068917
            ]
        },
        {
            "positions": [
                2.5667626641832966,
                -1.0869108095037399,
                1.6862712096588235,
                -0.8615453655944956,
                0.9210382904807634,
                2.919811769418459
            ]
        },
        {
            "positions": [
                2.536132019056821,
                -1.1231639248659595,
                1.6159867940019854,
                -0.8969652654837154,
                0.8528795623528684,
                2.787148780768
            ]
        },
        {
            "positions": [
                2.5055013739303447,
                -1.159417040228179,
                1.5457023783451471,
                -0.9323851653729351,
                0.7847208342249734,
                2.654485792117542
            ]
        },
        {
            "positions": [
                2.474870728803869,
                -1.1956701555903986,
                1.475417962688309,
                -0.967805065262155,
                0.7165621060970784,
                2.5218228034670833
            ]
        },
        {
            "positions": [
                2.444240083677393,
                -1.231923270952618,
                1.4051335470314708,
                -1.0032249651513747,
                0.6484033779691835,
                2.389159814816625
            ]
        },
        {
            "positions": [
                2.413609438550917,
                -1.2681763863148376,
                1.3348491313746327,
                -1.0386448650405946,
                0.5802446498412885,
                2.2564968261661664
            ]
        },
        {
            "positions": [
                2.3829787934244413,
                -1.304429501677057,
                1.2645647157177944,
                -1.0740647649298145,
                0.5120859217133935,
                2.1238338375157078
            ]
        },
        {
            "positions": [
                2.352348148297965,
                -1.3406826170392767,
                1.1942803000609565,
                -1.1094846648190342,
                0.4439271935854986,
                1.9911708488652495
            ]
        },
        {
            "positions": [
                2.3217175031714894,
                -1.3769357324014964,
                1.1239958844041182,
                -1.1449045647082539,
                0.37576846545760356,
                1.858507860214791
            ]
        },
        {
            "positions": [
                2.2910868580450137,
                -1.4131888477637158,
                1.05371146874728,
                -1.1803244645974738,
                0.30760973732970864,
                1.7258448715643326
            ]
        },
        {
            "positions": [
                2.2604562129185375,
                -1.4494419631259352,
                0.9834270530904418,
                -1.2157443644866937,
                0.2394510092018136,
                1.5931818829138742
            ]
        },
        {
            "positions": [
                2.2298255677920618,
                -1.4856950784881549,
                0.9131426374336037,
                -1.2511642643759133,
                0.17129228107391867,
                1.4605188942634157
            ]
        },
        {
            "positions": [
                2.149850644699361,
                -1.5111854529022235,
                0.8432001965350288,
                -1.3055833883422792,
                0.16008090509591427,
                1.3087314405089165
            ]
        },
        {
            "positions": [
                2.0698757216066594,
                -1.5366758273162922,
                0.7732577556364537,
                -1.360002512308645,
                0.14886952911790988,
                1.1569439867544173
            ]
        },
        {
            "positions": [
                1.9899007985139585,
                -1.5621662017303608,
                0.7033153147378788,
                -1.4144216362750108,
                0.13765815313990545,
                1.005156532999918
            ]
        },
        {
            "positions": [
                1.9099258754212574,
                -1.5876565761444295,
                0.6333728738393039,
                -1.4688407602413764,
                0.12644677716190106,
                0.8533690792454187
            ]
        },
        {
            "positions": [
                1.8299509523285562,
                -1.613146950558498,
                0.5634304329407288,
                -1.5232598842077423,
                0.11523540118389666,
                0.7015816254909195
            ]
        },
        {
            "positions": [
                1.7499760292358553,
                -1.6386373249725668,
                0.4934879920421538,
                -1.577679008174108,
                0.10402402520589225,
                0.5497941717364202
            ]
        },
        {
            "positions": [
                1.6700011061431541,
                -1.6641276993866354,
                0.42354555114357884,
                -1.632098132140474,
                0.09281264922788786,
                0.3980067179819211
            ]
        },
        {
            "positions": [
                1.590026183050453,
                -1.689618073800704,
                0.3536031102450039,
                -1.6865172561068396,
                0.08160127324988346,
                0.24621926422742169
            ]
        },
        {
            "positions": [
                1.510051259957752,
                -1.7151084482147725,
                0.283660669346429,
                -1.7409363800732054,
                0.07038989727187907,
                0.09443181047292248
            ]
        },
        {
            "positions": [
                1.4300763368650509,
                -1.7405988226288411,
                0.21371822844785393,
                -1.7953555040395712,
                0.05917852129387466,
                -0.05735564328157672
            ]
        },
        {
            "positions": [
                1.3501014137723497,
                -1.7660891970429098,
                0.143775787549279,
                -1.849774628005937,
                0.04796714531587026,
                -0.20914309703607592
            ]
        },
        {
            "positions": [
                1.2701264906796486,
                -1.7915795714569784,
                0.07383334665070396,
                -1.904193751972303,
                0.03675576933786584,
                -0.36093055079057534
            ]
        },
        {
            "positions": [
                1.1901515675869474,
                -1.817069945871047,
                0.003890905752129026,
                -1.9586128759386687,
                0.025544393359861445,
                -0.5127180045450745
            ]
        },
        {
            "positions": [
                1.1101766444942465,
                -1.8425603202851157,
                -0.06605153514644602,
                -2.0130319999050346,
                0.01433301738185705,
                -0.6645054582995735
            ]
        },
        {
            "positions": [
                1.0302017214015453,
                -1.8680506946991844,
                -0.13599397604502095,
                -2.0674511238714004,
                0.003121641403852654,
                -0.816292912054073
            ]
        },
        {
            "positions": [
                0.9502267983088442,
                -1.893541069113253,
                -0.20593641694359588,
                -2.121870247837766,
                -0.008089734574151741,
                -0.9680803658085724
            ]
        },
        {
            "positions": [
                0.8702518752161432,
                -1.9190314435273217,
                -0.2758788578421708,
                -2.1762893718041316,
                -0.019301110552156137,
                -1.1198678195630714
            ]
        },
        {
            "positions": [
                0.7902769521234421,
                -1.9445218179413903,
                -0.34582129874074574,
                -2.2307084957704975,
                -0.030512486530160532,
                -1.2716552733175708
            ]
        },
        {
            "positions": [
                0.7103020290307409,
                -1.970012192355459,
                -0.4157637396393209,
                -2.2851276197368633,
                -0.04172386250816493,
                -1.4234427270720698
            ]
        },
        {
            "positions": [
                0.63032710593804,
                -1.9955025667695274,
                -0.4857061805378958,
                -2.339546743703229,
                -0.05293523848616935,
                -1.5752301808265692
            ]
        },
        {
            "positions": [
                0.5503521828453388,
                -2.020992941183596,
                -0.5556486214364708,
                -2.3939658676695945,
                -0.06414661446417375,
                -1.7270176345810682
            ]
        },
        {
            "positions": [
                0.47037725975263767,
                -2.0464833155976647,
                -0.6255910623350457,
                -2.448384991635961,
                -0.07535799044217814,
                -1.8788050883355676
            ]
        },
        {
            "positions": [
                0.3904023366599365,
                -2.0719736900117334,
                -0.6955335032336208,
                -2.5028041156023266,
                -0.08656936642018256,
                -2.030592542090067
            ]
        },
        {
            "positions": [
                0.31042741356723536,
                -2.097464064425802,
                -0.7654759441321958,
                -2.5572232395686925,
                -0.09778074239818699,
                -2.1823799958445664
            ]
        },
        {
            "positions": [
                0.2304524904745342,
                -2.1229544388398707,
                -0.8354183850307707,
                -2.611642363535058,
                -0.10899211837619135,
                -2.3341674495990654
            ]
        },
        {
            "positions": [
                0.15047756738183304,
                -2.1484448132539393,
                -0.9053608259293456,
                -2.666061487501424,
                -0.12020349435419578,
                -2.485954903353565
            ]
        },
        {
            "positions": [
                0.07050264428913211,
                -2.173935187668008,
                -0.9753032668279208,
                -2.7204806114677895,
                -0.13141487033220015,
                -2.6377423571080643
            ]
        },
        {
            "positions": [
                -0.009472278803568823,
                -2.1994255620820766,
                -1.0452457077264956,
                -2.774899735434156,
                -0.14262624631020457,
                -2.789529810862563
            ]
        },
        {
            "positions": [
                -0.0894472018962702,
                -2.2249159364961453,
                -1.1151881486250703,
                -2.829318859400521,
                -0.15383762228820894,
                -2.941317264617062
            ]
        },
        {
            "positions": [
                -0.1694221249889711,
                -2.250406310910214,
                -1.1851305895236457,
                -2.883737983366887,
                -0.16504899826621336,
                -3.0931047183715616
            ]
        }
    ]
}