{
    "goal": {
        "global_pose": {
            "orientation": {
                "w": -0.4816463035849501,
                "x": 0.5182115481033762,
                "y": 0.4908360881923453,
                "z": -0.5084816262002911
            },
            "position": {
                "x": -0.8240239810943604,
                "y": 0.19912469901144506,
                "z": 0.16403168439865112
            }
        },
        "name": "move_to_storage_D"
    },
    "id": "ProjEST_move_to_storage_D_22",
    "joint_names": [
        "shoulder_pan_joint",
        "shoulder_lift_joint",
        "elbow_joint",
        "wrist_1_joint",
        "wrist_2_joint",
        "wrist_3_joint"
    ],
    "metrics": {
        "cart_traj_len": 3.9156040091178856,
        "distance_elbow_joint": 4.213453597585901,
        "distance_shoulder_lift_joint": 1.2647811082225173,
        "distance_shoulder_pan_joint": 2.8123714943326794,
        "distance_wrist_1_joint": 2.3893828321447446,
        "distance_wrist_2_joint": 0.9081134433100595,
        "distance_wrist_3_joint": 3.218979224173947,
        "smoothness": 0.2584199838384422,
        "time": 0.12334566200000001,
        "traj_len": 3.8479971023598565,
        "weighted_distance": 4.954042432556725
    },
    "planner": "ProjEST",
    "start": {
        "state": {
            "elbow_joint": -2.384821997420982,
            "shoulder_lift_joint": -2.2788054674887404,
            "shoulder_pan_joint": -0.18546946417610016,
            "wrist_1_joint": 1.4845937964226739,
            "wrist_2_joint": 0.1789877726866377,
            "wrist_3_joint": 0.03710572555276528
        }
    },
    "waypoints": [
        {
            "positions": [
                -0.18546946417610016,
                -2.2788054674887404,
                -2.384821997420982,
                1.4845937964226739,
                0.1789877726866377,
                0.03710572555276528
            ]
        },
        {
            "positions": [
                -0.15376120313477443,
                -2.264607980433463,
                -2.384468801037533,
                1.4413830377486907,
                0.15987771391861055,
                4.200626256510402e-06
            ]
        },
        {
            "positions": [
                -0.07464864777533163,
                -2.2290407985598684,
                -2.2745288736353664,
                1.373892924604856,
                0.1790826630488257,
                0.07525614610622014
            ]
        },
        {
            "positions": [
                0.004463907584111165,
                -2.193473616686273,
                -2.1645889462332,
                1.306402811461021,
                0.1982876121790408,
                0.15050809158618375
            ]
        },
        {
            "positions": [
                0.08357646294355398,
                -2.1579064348126784,
                -2.0546490188310336,
                1.2389126983171863,
                0.21749256130925596,
                0.2257600370661474
            ]
        },
        {
            "positions": [
                0.16268901830299676,
                -2.1223392529390837,
                -1.9447090914288674,
                1.1714225851733517,
                0.23669751043947107,
                0.301011982546111
            ]
        },
        {
            "positions": [
                0.24180157366243954,
                -2.086772071065489,
                -1.834769164026701,
                1.103932472029517,
                0.2559024595696862,
                0.3762639280260746
            ]
        },
        {
            "positions": [
                0.3209141290218824,
                -2.0512048891918937,
                -1.7248292366245346,
                1.0364423588856821,
                0.27510740869990136,
                0.4515158735060383
            ]
        },
        {
            "positions": [
                0.4000266843813251,
                -2.015637707318299,
                -1.6148893092223684,
                0.9689522457418474,
                0.29431235783011644,
                0.5267678189860019
            ]
        },
        {
            "positions": [
                0.47913923974076794,
                -1.9800705254447042,
                -1.504949381820202,
                0.9014621325980127,
                0.31351730696033164,
                0.6020197644659655
            ]
        },
        {
            "positions": [
                0.5582517951002106,
                -1.9445033435711092,
                -1.3950094544180356,
                0.8339720194541779,
                0.33272225609054673,
                0.6772717099459291
            ]
        },
        {
            "positions": [
                0.6373643504596536,
                -1.9089361616975145,
                -1.2850695270158692,
                0.7664819063103431,
                0.35192720522076193,
                0.7525236554258927
            ]
        },
        {
            "positions": [
                0.7164769058190963,
                -1.8733689798239195,
                -1.1751295996137028,
                0.6989917931665084,
                0.371132154350977,
                0.8277756009058564
            ]
        },
        {
            "positions": [
                0.7955894611785392,
                -1.8378017979503247,
                -1.0651896722115364,
                0.6315016800226736,
                0.39033710348119216,
                0.9030275463858201
            ]
        },
        {
            "positions": [
                0.874702016537982,
                -1.8022346160767297,
                -0.9552497448093702,
                0.5640115668788389,
                0.4095420526114073,
                0.9782794918657836
            ]
        },
        {
            "positions": [
                0.9538145718974247,
                -1.766667434203135,
                -0.8453098174072038,
                0.4965214537350041,
                0.4287470017416224,
                1.0535314373457474
            ]
        },
        {
            "positions": [
                1.0329271272568674,
                -1.73110025232954,
                -0.7353698900050374,
                0.42903134059116943,
                0.44795195087183753,
                1.128783382825711
            ]
        },
        {
            "positions": [
                1.1120396826163104,
                -1.6955330704559453,
                -0.625429962602871,
                0.36154122744733463,
                0.4671569000020527,
                1.2040353283056746
            ]
        },
        {
            "positions": [
                1.191152237975753,
                -1.6599658885823503,
                -0.5154900352007046,
                0.29405111430349984,
                0.4863618491322678,
                1.2792872737856382
            ]
        },
        {
            "positions": [
                1.2702647933351958,
                -1.6243987067087553,
                -0.4055501077985382,
                0.22656100115966504,
                0.505566798262483,
                1.3545392192656018
            ]
        },
        {
            "positions": [
                1.3493773486946388,
                -1.5888315248351605,
                -0.295610180396372,
                0.15907088801583025,
                0.524771747392698,
                1.4297911647455654
            ]
        },
        {
            "positions": [
                1.4284899040540815,
                -1.5532643429615658,
                -0.1856702529942056,
                0.09158077487199545,
                0.5439766965229133,
                1.505043110225529
            ]
        },
        {
            "positions": [
                1.5076024594135242,
                -1.5176971610879706,
                -0.07573032559203918,
                0.024090661728160656,
                0.5631816456531284,
                1.580295055705493
            ]
        },
        {
            "positions": [
                1.5867150147729672,
                -1.4821299792143758,
                0.03420960181012722,
                -0.04339945141567392,
                0.5823865947833435,
                1.6555470011854565
            ]
        },
        {
            "positions": [
                1.66582757013241,
                -1.446562797340781,
                0.14414952921229363,
                -0.11088956455950871,
                0.6015915439135586,
                1.7307989466654201
            ]
        },
        {
            "positions": [
                1.7449401254918528,
                -1.410995615467186,
                0.25408945661446003,
                -0.1783796777033435,
                0.6207964930437737,
                1.8060508921453837
            ]
        },
        {
            "positions": [
                1.8240526808512956,
                -1.3754284335935911,
                0.36402938401662643,
                -0.2458697908471783,
                0.6400014421739889,
                1.8813028376253473
            ]
        },
        {
            "positions": [
                1.9031652362107383,
                -1.3398612517199964,
                0.4739693114187924,
                -0.3133599039910129,
                0.659206391304204,
                1.9565547831053107
            ]
        },
        {
            "positions": [
                1.982277791570181,
                -1.3042940698464016,
                0.5839092388209588,
                -0.3808500171348477,
                0.6784113404344192,
                2.0318067285852743
            ]
        },
        {
            "positions": [
                2.0613903469296235,
                -1.2687268879728069,
                0.6938491662231252,
                -0.44834013027868247,
                0.6976162895646343,
                2.107058674065238
            ]
        },
        {
            "positions": [
                2.1405029022890663,
                -1.2331597060992119,
                0.8037890936252916,
                -0.5158302434225173,
                0.7168212386948494,
                2.1823106195452016
            ]
        },
        {
            "positions": [
                2.219615457648509,
                -1.197592524225617,
                0.913729021027458,
                -0.5833203565663518,
                0.7360261878250645,
                2.2575625650251654
            ]
        },
        {
            "positions": [
                2.2987280130079517,
                -1.1620253423520222,
                1.0236689484296244,
                -0.6508104697101869,
                0.7552311369552798,
                2.332814510505129
            ]
        },
        {
            "positions": [
                2.377840568367395,
                -1.1264581604784272,
                1.1336088758317908,
                -0.7183005828540214,
                0.7744360860854949,
                2.4080664559850926
            ]
        },
        {
            "positions": [
                2.4569531237268376,
                -1.0908909786048324,
                1.2435488032339572,
                -0.7857906959978564,
                0.79364103521571,
                2.483318401465056
            ]
        },
        {
            "positions": [
                2.5360656790862803,
                -1.0553237967312374,
                1.3534887306361236,
                -0.8532808091416912,
                0.812845984345925,
                2.55857034694502
            ]
        },
        {
            "positions": [
                2.558774766853855,
                -1.044998937364984,
                1.4722744480183225,
                -0.8404037524965964,
                0.8718547628746045,
                2.7143982351771885
            ]
        },
        {
            "positions": [
                2.58148385462143,
                -1.0346740779987302,
                1.5910601654005214,
                -0.8275266958515014,
                0.930863541403284,
                2.870226123409357
            ]
        },
        {
            "positions": [
                2.6041929423890045,
                -1.0243492186324765,
                1.7098458827827203,
                -0.8146496392064064,
                0.9898723199319635,
                3.0260540116415258
            ]
        },
        {
            "positions": [
                2.6269020301565793,
                -1.014024359266223,
                1.8286316001649192,
                -0.8017725825613116,
                1.048881098460643,
                3.1818818998736944
            ]
        }
    ]
}