{
    "goal": {
        "global_pose": {
            "orientation": {
                "w": 0.7047431493862688,
                "x": -0.7094548369677653,
                "y": 0.0024358444001904,
                "z": -0.0022348060817251984
            },
            "position": {
                "x": -0.39052492380142206,
                "y": 0.3671506643295288,
                "z": 0.19426114857196808
            }
        },
        "name": "move_to_magneteinheit_D"
    },
    "id": "ProjEST_move_to_magneteinheit_D_31",
    "joint_names": [
        "shoulder_pan_joint",
        "shoulder_lift_joint",
        "elbow_joint",
        "wrist_1_joint",
        "wrist_2_joint",
        "wrist_3_joint"
    ],
    "metrics": {
        "cart_traj_len": 4.521558461363915,
        "distance_elbow_joint": 3.141723308022494,
        "distance_shoulder_lift_joint": 1.6272831363197353,
        "distance_shoulder_pan_joint": 3.0451663299563534,
        "distance_wrist_1_joint": 3.7509018667106053,
        "distance_wrist_2_joint": 0.7097261910381367,
        "distance_wrist_3_joint": 3.4912762338350785,
        "smoothness": 0.5367598971590442,
        "time": 0.757334428,
        "traj_len": 3.9706519698762825,
        "weighted_distance": 5.216249379707732
    },
    "planner": "ProjEST",
    "start": {
        "state": {
            "elbow_joint": 0.7495348899011973,
            "shoulder_lift_joint": -0.6476975780737697,
            "shoulder_pan_joint": -2.711696901376276,
            "wrist_1_joint": -0.07506478080974305,
            "wrist_2_joint": 0.4329665971545858,
            "wrist_3_joint": 3.1361499051832524
        }
    },
    "waypoints": [
        {
            "positions": [
                -2.711696901376276,
                -0.6476975780737697,
                0.7495348899011973,
                -0.07506478080974305,
                0.4329665971545858,
                3.1361499051832524
            ]
        },
        {
            "positions": [
                -2.7260554227960063,
                -0.6552741380615631,
                0.7295353849798694,
                0.02440848466700711,
                0.4104495005323025,
                2.974331738654767
            ]
        },
        {
            "positions": [
                -2.740413944215737,
                -0.6628506980493565,
                0.7095358800585415,
                0.12388175014375727,
                0.38793240391001915,
                2.8125135721262815
            ]
        },
        {
            "positions": [
                -2.754772465635467,
                -0.67042725803715,
                0.6895363751372137,
                0.2233550156205074,
                0.36541530728773586,
                2.650695405597796
            ]
        },
        {
            "positions": [
                -2.7691309870551972,
                -0.6780038180249434,
                0.6695368702158857,
                0.3228282810972576,
                0.34289821066545256,
                2.4888772390693106
            ]
        },
        {
            "positions": [
                -2.753787012373526,
                -0.6958683309927955,
                0.6265873698022566,
                0.39571570485107693,
                0.3228084207061887,
                2.3502435378594773
            ]
        },
        {
            "positions": [
                -2.7384430376918547,
                -0.7137328439606478,
                0.5836378693886275,
                0.4686031286048963,
                0.3027186307469248,
                2.211609836649644
            ]
        },
        {
            "positions": [
                -2.7230990630101837,
                -0.7315973569285,
                0.5406883689749984,
                0.5414905523587157,
                0.28262884078766093,
                2.0729761354398106
            ]
        },
        {
            "positions": [
                -2.5938061420694107,
                -0.7879778855831043,
                0.4378979284316302,
                0.4669435040782648,
                0.28046910263408814,
                2.087558275153702
            ]
        },
        {
            "positions": [
                -2.4645132211286374,
                -0.8443584142377086,
                0.33510748788826206,
                0.39239645579781396,
                0.2783093644805154,
                2.1021404148675935
            ]
        },
        {
            "positions": [
                -2.3352203001878644,
                -0.9007389428923129,
                0.2323170473448939,
                0.3178494075173631,
                0.2761496263269426,
                2.116722554581485
            ]
        },
        {
            "positions": [
                -2.2059273792470915,
                -0.9571194715469172,
                0.12952660680152572,
                0.24330235923691224,
                0.27398988817336983,
                2.131304694295376
            ]
        },
        {
            "positions": [
                -2.076634458306318,
                -1.0135000002015215,
                0.026736166258157557,
                0.1687553109564614,
                0.2718301500197971,
                2.1458868340092674
            ]
        },
        {
            "positions": [
                -1.9473415373655452,
                -1.069880528856126,
                -0.07605427428521061,
                0.09420826267601051,
                0.2696704118662243,
                2.160468973723159
            ]
        },
        {
            "positions": [
                -1.818048616424772,
                -1.1262610575107301,
                -0.17884471482857878,
                0.01966121439555968,
                0.2675106737126515,
                2.1750511134370503
            ]
        },
        {
            "positions": [
                -1.6887556954839988,
                -1.1826415861653343,
                -0.28163515537194694,
                -0.05488583388489121,
                0.2653509355590788,
                2.1896332531509417
            ]
        },
        {
            "positions": [
                -1.559462774543226,
                -1.2390221148199387,
                -0.3844255959153151,
                -0.129432882165342,
                0.263191197405506,
                2.204215392864833
            ]
        },
        {
            "positions": [
                -1.4301698536024527,
                -1.2954026434745431,
                -0.4872160364586833,
                -0.20397993044579288,
                0.2610314592519332,
                2.2187975325787246
            ]
        },
        {
            "positions": [
                -1.3008769326616796,
                -1.3517831721291473,
                -0.5900064770020514,
                -0.27852697872624377,
                0.2588717210983605,
                2.2333796722926156
            ]
        },
        {
            "positions": [
                -1.1715840117209064,
                -1.4081637007837515,
                -0.6927969175454196,
                -0.35307402700669466,
                0.2567119829447877,
                2.247961812006507
            ]
        },
        {
            "positions": [
                -1.0422910907801333,
                -1.464544229438356,
                -0.7955873580887878,
                -0.42762107528714555,
                0.2545522447912149,
                2.2625439517203985
            ]
        },
        {
            "positions": [
                -0.9129981698393603,
                -1.5209247580929603,
                -0.8983777986321559,
                -0.5021681235675963,
                0.2523925066376422,
                2.27712609143429
            ]
        },
        {
            "positions": [
                -0.7837052488985872,
                -1.5773052867475645,
                -1.001168239175524,
                -0.5767151718480472,
                0.2502327684840694,
                2.2917082311481813
            ]
        },
        {
            "positions": [
                -0.7366204887807505,
                -1.616103649799241,
                -1.062918100691937,
                -0.466578739652982,
                0.26335378802334963,
                2.167938130313423
            ]
        },
        {
            "positions": [
                -0.6895357286629138,
                -1.654902012850917,
                -1.12466796220835,
                -0.35644230745791683,
                0.2764748075626298,
                2.044168029478665
            ]
        },
        {
            "positions": [
                -0.642450968545077,
                -1.6937003759025935,
                -1.1864178237247631,
                -0.24630587526285158,
                0.28959582710191006,
                1.9203979286439061
            ]
        },
        {
            "positions": [
                -0.5953662084272404,
                -1.7324987389542699,
                -1.248167685241176,
                -0.1361694430677864,
                0.30271684664119025,
                1.7966278278091479
            ]
        },
        {
            "positions": [
                -0.5482814483094036,
                -1.7712971020059463,
                -1.309917546757589,
                -0.02603301087272114,
                0.3158378661804705,
                1.6728577269743896
            ]
        },
        {
            "positions": [
                -0.5011966881915669,
                -1.8100954650576226,
                -1.371667408274002,
                0.08410342132234405,
                0.3289588857197507,
                1.5490876261396311
            ]
        },
        {
            "positions": [
                -0.4541119280737303,
                -1.8488938281092988,
                -1.4334172697904148,
                0.19423985351740924,
                0.3420799052590309,
                1.4253175253048729
            ]
        },
        {
            "positions": [
                -0.40702716795589355,
                -1.8876921911609752,
                -1.495167131306828,
                0.30437628571247444,
                0.3552009247983111,
                1.3015474244701144
            ]
        },
        {
            "positions": [
                -0.35994240783805687,
                -1.9264905542126516,
                -1.5569169928232407,
                0.41451271790753974,
                0.36832194433759136,
                1.1777773236353561
            ]
        },
        {
            "positions": [
                -0.3128576477202201,
                -1.965288917264328,
                -1.6186668543396538,
                0.5246491501026049,
                0.3814429638768716,
                1.0540072228005977
            ]
        },
        {
            "positions": [
                -0.2657728876023834,
                -2.0040872803160044,
                -1.6804167158560668,
                0.6347855822976702,
                0.3945639834161518,
                0.9302371219658394
            ]
        },
        {
            "positions": [
                -0.2186881274845467,
                -2.0428856433676805,
                -1.7421665773724797,
                0.7449220144927353,
                0.407685002955432,
                0.8064670211310809
            ]
        },
        {
            "positions": [
                -0.1716033673667101,
                -2.0816840064193567,
                -1.8039164388888926,
                0.8550584466878004,
                0.4208060224947122,
                0.6826969202963227
            ]
        },
        {
            "positions": [
                -0.12451860724887343,
                -2.1204823694710333,
                -1.8656663004053056,
                0.9651948788828657,
                0.43392704203399246,
                0.5589268194615644
            ]
        },
        {
            "positions": [
                -0.07743384713103663,
                -2.1592807325227095,
                -1.9274161619217187,
                1.075331311077931,
                0.44704806157327265,
                0.43515671862680594
            ]
        },
        {
            "positions": [
                -0.030349087013199938,
                -2.1980790955743856,
                -1.9891660234381316,
                1.185467743272996,
                0.46016908111255284,
                0.3113866177920477
            ]
        },
        {
            "positions": [
                0.016735673104636792,
                -2.2368774586260622,
                -2.0509158849545446,
                1.2956041754680614,
                0.4732901006518331,
                0.18761651695728934
            ]
        },
        {
            "positions": [
                -0.05055285493456309,
                -2.2495785438818765,
                -2.1646733960101288,
                1.3435446628078196,
                0.3719784239185476,
                0.152523632226498
            ]
        },
        {
            "positions": [
                -0.11784138297376297,
                -2.2622796291376908,
                -2.2784309070657134,
                1.3914851501475776,
                0.27066674718526207,
                0.1174307474957067
            ]
        },
        {
            "positions": [
                -0.18512991101296286,
                -2.274980714393505,
                -2.3921884181212976,
                1.4394256374873358,
                0.16935507045197654,
                0.08233786276491538
            ]
        }
    ]
}