{
    "goal": {
        "global_pose": {
            "orientation": {
                "w": 0.5084816217422485,
                "x": -0.49083608388900757,
                "y": 0.5182115435600281,
                "z": -0.4816462993621826
            },
            "position": {
                "x": 0.5540239810943604,
                "y": 0.030875300988554955,
                "z": 0.16403168439865112
            }
        },
        "name": "move_to_storage_A"
    },
    "id": "ProjEST_move_to_storage_A_120",
    "joint_names": [
        "shoulder_pan_joint",
        "shoulder_lift_joint",
        "elbow_joint",
        "wrist_1_joint",
        "wrist_2_joint",
        "wrist_3_joint"
    ],
    "metrics": {
        "cart_traj_len": 0.35266539803916186,
        "distance_elbow_joint": 0.45012299580315984,
        "distance_shoulder_lift_joint": 0.23375680083810657,
        "distance_shoulder_pan_joint": 0.4611978866500196,
        "distance_wrist_1_joint": 0.2489338568594156,
        "distance_wrist_2_joint": 1.0971266812151503,
        "distance_wrist_3_joint": 0.10171816848503301,
        "smoothness": 8.881784197001252e-16,
        "time": 0.02090349,
        "traj_len": 1.6102348865463338,
        "weighted_distance": 2.0352771960830096
    },
    "planner": "ProjEST",
    "start": {
        "state": {
            "elbow_joint": 1.9715474177455299,
            "shoulder_lift_joint": -1.139484666580328,
            "shoulder_pan_joint": 0.12281154398918248,
            "wrist_1_joint": -0.7804687475355282,
            "wrist_2_joint": 0.12958649657246987,
            "wrist_3_joint": -3.1924925159053466
        }
    },
    "waypoints": [
        {
            "positions": [
                0.12281154398918248,
                -1.139484666580328,
                1.9715474177455299,
                -0.7804687475355282,
                0.12958649657246987,
                -3.1924925159053466
            ]
        },
        {
            "positions": [
                0.05692613161060826,
                -1.1728784952714861,
                2.035850702860267,
                -0.8160307270868733,
                0.2863188796032056,
                -3.177961348978913
            ]
        },
        {
            "positions": [
                -0.008959280767965955,
                -1.206272323962644,
                2.100153987975004,
                -0.8515927066382184,
                0.44305126263394135,
                -3.16343018205248
            ]
        },
        {
            "positions": [
                -0.07484469314654019,
                -1.2396661526538022,
                2.164457273089741,
                -0.8871546861895634,
                0.5997836456646771,
                -3.1488990151260468
            ]
        },
        {
            "positions": [
                -0.1407301055251144,
                -1.2730599813449603,
                2.2287605582044785,
                -0.9227166657409085,
                0.7565160286954129,
                -3.1343678481996133
            ]
        },
        {
            "positions": [
                -0.20661551790368865,
                -1.3064538100361185,
                2.2930638433192154,
                -0.9582786452922536,
                0.9132484117261487,
                -3.11983668127318
            ]
        },
        {
            "positions": [
                -0.27250093028226285,
                -1.3398476387272764,
                2.3573671284339524,
                -0.9938406248435987,
                1.0699807947568845,
                -3.105305514346747
            ]
        },
        {
            "positions": [
                -0.3383863426608371,
                -1.3732414674184346,
                2.4216704135486897,
                -1.0294026043949438,
                1.2267131777876201,
                -3.0907743474203135
            ]
        }
    ]
}