{
    "goal": {
        "global_pose": {
            "orientation": {
                "w": 0.005598929693374612,
                "x": 0.007748599140229565,
                "y": 0.7110244013736278,
                "z": -0.7031023480610252
            },
            "position": {
                "x": 0.1141497679147869,
                "y": -0.7141253447532654,
                "z": 0.3711530566215515
            }
        },
        "name": "move_to_auspresseinheit_B"
    },
    "id": "ProjEST_move_to_auspresseinheit_B_120",
    "joint_names": [
        "shoulder_pan_joint",
        "shoulder_lift_joint",
        "elbow_joint",
        "wrist_1_joint",
        "wrist_2_joint",
        "wrist_3_joint"
    ],
    "metrics": {
        "cart_traj_len": 0.5654864404001565,
        "distance_elbow_joint": 0.06431039115445203,
        "distance_shoulder_lift_joint": 0.2936117243631542,
        "distance_shoulder_pan_joint": 0.5785728199511864,
        "distance_wrist_1_joint": 0.33101038145900097,
        "distance_wrist_2_joint": 0.9904431345398796,
        "distance_wrist_3_joint": 0.005898062391060055,
        "smoothness": 0.0,
        "time": 0.348487078,
        "traj_len": 1.504608425424613,
        "weighted_distance": 1.896601211282892
    },
    "planner": "ProjEST",
    "start": {
        "state": {
            "elbow_joint": 2.019306165916698,
            "shoulder_lift_joint": -1.1220205098164344,
            "shoulder_pan_joint": -1.095207207618794,
            "wrist_1_joint": -0.8559671824921639,
            "wrist_2_joint": 0.47596387242952726,
            "wrist_3_joint": 3.159081874673826
        }
    },
    "waypoints": [
        {
            "positions": [
                -1.095207207618794,
                -1.1220205098164344,
                2.019306165916698,
                -0.8559671824921639,
                0.47596387242952726,
                3.159081874673826
            ]
        },
        {
            "positions": [
                -1.1916360109439916,
                -1.1709557972102935,
                2.008587767390956,
                -0.8007987855823304,
                0.6410377281861739,
                3.158098864275316
            ]
        },
        {
            "positions": [
                -1.2880648142691895,
                -1.2198910846041524,
                1.997869368865214,
                -0.7456303886724969,
                0.8061115839428205,
                3.157115853876806
            ]
        },
        {
            "positions": [
                -1.3844936175943872,
                -1.2688263719980115,
                1.987150970339472,
                -0.6904619917626633,
                0.971185439699467,
                3.1561328434782956
            ]
        },
        {
            "positions": [
                -1.4809224209195848,
                -1.3177616593918706,
                1.9764325718137299,
                -0.6352935948528299,
                1.1362592954561137,
                3.155149833079786
            ]
        },
        {
            "positions": [
                -1.5773512242447827,
                -1.3666969467857295,
                1.965714173287988,
                -0.5801251979429964,
                1.3013331512127604,
                3.154166822681276
            ]
        },
        {
            "positions": [
                -1.6737800275699803,
                -1.4156322341795886,
                1.954995774762246,
                -0.5249568010331629,
                1.4664070069694068,
                3.153183812282766
            ]
        }
    ]
}