{
    "goal": {
        "global_pose": {
            "orientation": {
                "w": -0.00223480608172531,
                "x": 0.0024358444001904467,
                "y": 0.7094548369677653,
                "z": -0.704743149386269
            },
            "position": {
                "x": -0.37947507619857795,
                "y": -0.6371506643295288,
                "z": 0.19426114857196808
            }
        },
        "name": "move_to_magneteinheit_C"
    },
    "id": "ProjEST_move_to_magneteinheit_C_97",
    "joint_names": [
        "shoulder_pan_joint",
        "shoulder_lift_joint",
        "elbow_joint",
        "wrist_1_joint",
        "wrist_2_joint",
        "wrist_3_joint"
    ],
    "metrics": {
        "cart_traj_len": 2.901139224550994,
        "distance_elbow_joint": 2.746250141608368,
        "distance_shoulder_lift_joint": 1.1974392734682557,
        "distance_shoulder_pan_joint": 1.614478343938289,
        "distance_wrist_1_joint": 1.3820220898538174,
        "distance_wrist_2_joint": 2.2734161776027406,
        "distance_wrist_3_joint": 3.0708605820298014,
        "smoothness": 1.3089698996925758,
        "time": 1.352432924,
        "traj_len": 3.5049203426756046,
        "weighted_distance": 4.699109068750951
    },
    "planner": "ProjEST",
    "start": {
        "state": {
            "elbow_joint": 1.9565354006590394,
            "shoulder_lift_joint": -1.4165861576513559,
            "shoulder_pan_joint": -1.6717766223277177,
            "wrist_1_joint": -0.5286633288215096,
            "wrist_2_joint": 1.4727565892594296,
            "wrist_3_joint": 3.1593482883155493
        }
    },
    "waypoints": [
        {
            "positions": [
                -1.6717766223277177,
                -1.4165861576513559,
                1.9565354006590394,
                -0.5286633288215096,
                1.4727565892594296,
                3.1593482883155493
            ]
        },
        {
            "positions": [
                -1.4814220319360678,
                -1.42115912777148,
                1.9466802743320184,
                -0.5191696513788384,
                1.4266863585865368,
                3.1913465781490826
            ]
        },
        {
            "positions": [
                -1.2910674415444177,
                -1.4257320978916042,
                1.9368251480049974,
                -0.5096759739361674,
                1.380616127913644,
                3.2233448679826155
            ]
        },
        {
            "positions": [
                -1.3565800273571964,
                -1.4642372640031753,
                1.8278117686920212,
                -0.46585300052978074,
                1.2831629150539101,
                3.204404812567412
            ]
        },
        {
            "positions": [
                -1.4220926131699754,
                -1.5027424301147465,
                1.718798389379045,
                -0.4220300271233941,
                1.1857097021941763,
                3.185464757152208
            ]
        },
        {
            "positions": [
                -1.4876051989827541,
                -1.5412475962263177,
                1.6097850100660689,
                -0.37820705371700747,
                1.0882564893344426,
                3.1665247017370044
            ]
        },
        {
            "positions": [
                -1.5531177847955329,
                -1.5797527623378889,
                1.5007716307530927,
                -0.33438408031062083,
                0.9908032764747088,
                3.1475846463218002
            ]
        },
        {
            "positions": [
                -1.6186303706083118,
                -1.61825792844946,
                1.3917582514401166,
                -0.2905611069042342,
                0.8933500636149749,
                3.1286445909065965
            ]
        },
        {
            "positions": [
                -1.6841429564210908,
                -1.6567630945610312,
                1.2827448721271404,
                -0.24673813349784757,
                0.7958968507552411,
                3.109704535491393
            ]
        },
        {
            "positions": [
                -1.7496555422338695,
                -1.6952682606726022,
                1.1737314928141642,
                -0.20291516009146093,
                0.6984436378955072,
                3.090764480076189
            ]
        },
        {
            "positions": [
                -1.8151681280466483,
                -1.7337734267841733,
                1.064718113501188,
                -0.1590921866850743,
                0.6009904250357735,
                3.0718244246609854
            ]
        },
        {
            "positions": [
                -1.8806807138594273,
                -1.7722785928957445,
                0.9557047341882119,
                -0.11526921327868767,
                0.5035372121760396,
                3.052884369245781
            ]
        },
        {
            "positions": [
                -1.9461932996722062,
                -1.8107837590073157,
                0.8466913548752357,
                -0.07144623987230103,
                0.4060839993163058,
                3.0339443138305775
            ]
        },
        {
            "positions": [
                -2.011705885484985,
                -1.8492889251188869,
                0.7376779755622596,
                -0.027623266465914398,
                0.30863078645657205,
                3.015004258415374
            ]
        },
        {
            "positions": [
                -2.0772184712977637,
                -1.887794091230458,
                0.6286645962492835,
                0.016199706940472236,
                0.2111775735968382,
                2.99606420300017
            ]
        },
        {
            "positions": [
                -2.1110486593362774,
                -1.8673188175144455,
                0.7409745375026983,
                -0.017459538128497612,
                0.27285861843135784,
                2.8853002536173737
            ]
        },
        {
            "positions": [
                -2.1448788473747906,
                -1.846843543798433,
                0.8532844787561131,
                -0.05111878319746746,
                0.3345396632658775,
                2.7745363042345774
            ]
        },
        {
            "positions": [
                -2.178709035413304,
                -1.8263682700824204,
                0.9655944200095279,
                -0.08477802826643732,
                0.3962207081003971,
                2.663772354851781
            ]
        },
        {
            "positions": [
                -2.2125392234518175,
                -1.8058929963664079,
                1.0779043612629426,
                -0.11843727333540716,
                0.45790175293491675,
                2.5530084054689848
            ]
        },
        {
            "positions": [
                -2.246369411490331,
                -1.7854177226503953,
                1.1902143025163574,
                -0.15209651840437705,
                0.5195827977694365,
                2.4422444560861885
            ]
        },
        {
            "positions": [
                -2.2801995995288444,
                -1.7649424489343826,
                1.3025242437697724,
                -0.18575576347334688,
                0.581263842603956,
                2.331480506703392
            ]
        },
        {
            "positions": [
                -2.314029787567358,
                -1.74446717521837,
                1.4148341850231871,
                -0.21941500854231674,
                0.6429448874384758,
                2.220716557320596
            ]
        },
        {
            "positions": [
                -2.3478599756058713,
                -1.7239919015023575,
                1.527144126276602,
                -0.25307425361128655,
                0.7046259322729953,
                2.1099526079377995
            ]
        },
        {
            "positions": [
                -2.381690163644385,
                -1.703516627786345,
                1.6394540675300164,
                -0.28673349868025644,
                0.766306977107515,
                1.9991886585550032
            ]
        },
        {
            "positions": [
                -2.4155203516828982,
                -1.6830413540703324,
                1.7517640087834314,
                -0.3203927437492263,
                0.8279880219420347,
                1.8884247091722068
            ]
        },
        {
            "positions": [
                -2.4493505397214115,
                -1.6625660803543199,
                1.8640739500368464,
                -0.3540519888181961,
                0.8896690667765543,
                1.7776607597894105
            ]
        },
        {
            "positions": [
                -2.483180727759925,
                -1.6420908066383073,
                1.9763838912902612,
                -0.387711233887166,
                0.951350111611074,
                1.6668968104066142
            ]
        },
        {
            "positions": [
                -2.48839345745169,
                -1.576298834664528,
                1.993172831751886,
                -0.45598834155147566,
                0.9124129449685546,
                1.8669738941184202
            ]
        },
        {
            "positions": [
                -2.493606187143455,
                -1.5105068626907487,
                2.0099617722135106,
                -0.5242654492157853,
                0.8734757783260354,
                2.067050977830226
            ]
        },
        {
            "positions": [
                -2.49881891683522,
                -1.4447148907169693,
                2.0267507126751356,
                -0.592542556880095,
                0.8345386116835161,
                2.2671280615420324
            ]
        },
        {
            "positions": [
                -2.4923144948691736,
                -1.373926855873053,
                2.0216774074819455,
                -0.6496467544479121,
                0.7958253306839272,
                2.479674234954861
            ]
        },
        {
            "positions": [
                -2.485810072903127,
                -1.3031388210291368,
                2.0166041022887553,
                -0.7067509520157291,
                0.7571120496843384,
                2.69222040836769
            ]
        },
        {
            "positions": [
                -2.4793056509370803,
                -1.2323507861852208,
                2.011530797095565,
                -0.7638551495835462,
                0.7183987686847495,
                2.9047665817805193
            ]
        },
        {
            "positions": [
                -2.4728012289710337,
                -1.1615627513413045,
                2.006457491902375,
                -0.8209593471513632,
                0.6796854876851607,
                3.117312755193348
            ]
        }
    ]
}