{
    "goal": {
        "global_pose": {
            "orientation": {
                "w": -0.00223480608172531,
                "x": 0.0024358444001904467,
                "y": 0.7094548369677653,
                "z": -0.704743149386269
            },
            "position": {
                "x": 0.6205249238014221,
                "y": -0.6371506643295288,
                "z": 0.19426114857196808
            }
        },
        "name": "move_to_magneteinheit_B"
    },
    "id": "ProjEST_move_to_magneteinheit_B_81",
    "joint_names": [
        "shoulder_pan_joint",
        "shoulder_lift_joint",
        "elbow_joint",
        "wrist_1_joint",
        "wrist_2_joint",
        "wrist_3_joint"
    ],
    "metrics": {
        "cart_traj_len": 1.4547384293254546,
        "distance_elbow_joint": 0.7359937899534916,
        "distance_shoulder_lift_joint": 1.2512492241566053,
        "distance_shoulder_pan_joint": 1.6190771533336106,
        "distance_wrist_1_joint": 2.607007692849803,
        "distance_wrist_2_joint": 2.95448989312142,
        "distance_wrist_3_joint": 3.135541200706578,
        "smoothness": 6.459479436782996e-16,
        "time": 0.138055528,
        "traj_len": 3.5076144249505967,
        "weighted_distance": 4.912834104822377
    },
    "planner": "ProjEST",
    "start": {
        "state": {
            "elbow_joint": 2.3935871308073637,
            "shoulder_lift_joint": -1.9085141043777403,
            "shoulder_pan_joint": 0.7066247067284167,
            "wrist_1_joint": -0.46782909355067076,
            "wrist_2_joint": 0.7096259085804283,
            "wrist_3_joint": -3.1358149275257428
        }
    },
    "waypoints": [
        {
            "positions": [
                0.7066247067284167,
                -1.9085141043777403,
                2.3935871308073637,
                -0.46782909355067076,
                0.7096259085804283,
                -3.1358149275257428
            ]
        },
        {
            "positions": [
                0.6560285456867414,
                -1.8694125661228465,
                2.370587324871317,
                -0.3863601031491144,
                0.6172980994203839,
                -3.037829265003662
            ]
        },
        {
            "positions": [
                0.605432384645066,
                -1.8303110278679524,
                2.3475875189352706,
                -0.3048911127475581,
                0.5249702902603395,
                -2.9398436024815817
            ]
        },
        {
            "positions": [
                0.5548362236033907,
                -1.7912094896130586,
                2.324587712999224,
                -0.22342212234600173,
                0.43264248110029513,
                -2.841857939959501
            ]
        },
        {
            "positions": [
                0.5042400625617154,
                -1.7521079513581646,
                2.301587907063177,
                -0.14195313194444537,
                0.3403146719402508,
                -2.7438722774374207
            ]
        },
        {
            "positions": [
                0.4536439015200401,
                -1.7130064131032707,
                2.2785881011271307,
                -0.060484141542889,
                0.24798686278020643,
                -2.64588661491534
            ]
        },
        {
            "positions": [
                0.4030477404783647,
                -1.6739048748483767,
                2.255588295191084,
                0.020984848858667304,
                0.15565905362016197,
                -2.5479009523932596
            ]
        },
        {
            "positions": [
                0.35245157943668937,
                -1.6348033365934829,
                2.2325884892550376,
                0.10245383926022372,
                0.06333124446011762,
                -2.449915289871179
            ]
        },
        {
            "positions": [
                0.30185541839501406,
                -1.595701798338589,
                2.209588683318991,
                0.18392282966178003,
                -0.02899656469992673,
                -2.351929627349098
            ]
        },
        {
            "positions": [
                0.25125925735333876,
                -1.556600260083695,
                2.186588877382944,
                0.26539182006333634,
                -0.12132437385997108,
                -2.253943964827018
            ]
        },
        {
            "positions": [
                0.20066309631166346,
                -1.517498721828801,
                2.1635890714468977,
                0.34686081046489275,
                -0.21365218302001543,
                -2.155958302304937
            ]
        },
        {
            "positions": [
                0.15006693526998804,
                -1.4783971835739071,
                2.140589265510851,
                0.42832980086644906,
                -0.3059799921800598,
                -2.0579726397828564
            ]
        },
        {
            "positions": [
                0.09947077422831274,
                -1.4392956453190133,
                2.1175894595748046,
                0.5097987912680053,
                -0.39830780134010435,
                -1.959986977260776
            ]
        },
        {
            "positions": [
                0.04887461318663744,
                -1.4001941070641193,
                2.094589653638758,
                0.5912677816695617,
                -0.4906356105001487,
                -1.8620013147386956
            ]
        },
        {
            "positions": [
                -0.0017215478550379748,
                -1.3610925688092255,
                2.071589847702711,
                0.6727367720711181,
                -0.582963419660193,
                -1.7640156522166148
            ]
        },
        {
            "positions": [
                -0.05231770889671328,
                -1.3219910305543316,
                2.0485900417666647,
                0.7542057624726743,
                -0.6752912288202374,
                -1.6660299896945343
            ]
        },
        {
            "positions": [
                -0.10291386993838858,
                -1.2828894922994376,
                2.025590235830618,
                0.8356747528742308,
                -0.7676190379802817,
                -1.5680443271724538
            ]
        },
        {
            "positions": [
                -0.15351003098006388,
                -1.2437879540445436,
                2.002590429894571,
                0.9171437432757872,
                -0.8599468471403261,
                -1.4700586646503733
            ]
        },
        {
            "positions": [
                -0.20410619202173919,
                -1.2046864157896497,
                1.9795906239585248,
                0.9986127336773434,
                -0.9522746563003704,
                -1.3720730021282928
            ]
        },
        {
            "positions": [
                -0.2547023530634146,
                -1.165584877534756,
                1.956590818022478,
                1.0800817240788998,
                -1.044602465460415,
                -1.274087339606212
            ]
        },
        {
            "positions": [
                -0.3052985141050898,
                -1.1264833392798619,
                1.9335910120864315,
                1.1615507144804562,
                -1.1369302746204593,
                -1.1761016770841315
            ]
        },
        {
            "positions": [
                -0.3558946751467652,
                -1.087381801024968,
                1.910591206150385,
                1.2430197048820124,
                -1.2292580837805036,
                -1.0781160145620512
            ]
        },
        {
            "positions": [
                -0.4064908361884406,
                -1.0482802627700742,
                1.8875914002143381,
                1.3244886952835688,
                -1.321585892940548,
                -0.9801303520399705
            ]
        },
        {
            "positions": [
                -0.4570869972301158,
                -1.0091787245151802,
                1.8645915942782916,
                1.4059576856851252,
                -1.4139137021005923,
                -0.8821446895178897
            ]
        },
        {
            "positions": [
                -0.5076831582717912,
                -0.9700771862602863,
                1.841591788342245,
                1.4874266760866814,
                -1.506241511260637,
                -0.7841590269958094
            ]
        },
        {
            "positions": [
                -0.5582793193134666,
                -0.9309756480053923,
                1.8185919824061985,
                1.5688956664882379,
                -1.5985693204206814,
                -0.6861733644737287
            ]
        },
        {
            "positions": [
                -0.6088754803551418,
                -0.8918741097504985,
                1.795592176470152,
                1.6503646568897943,
                -1.6908971295807258,
                -0.5881877019516484
            ]
        },
        {
            "positions": [
                -0.6594716413968172,
                -0.8527725714956045,
                1.7725923705341051,
                1.7318336472913507,
                -1.7832249387407701,
                -0.49020203942956764
            ]
        },
        {
            "positions": [
                -0.7100678024384927,
                -0.8136710332407107,
                1.7495925645980586,
                1.8133026376929071,
                -1.8755527479008145,
                -0.3922163769074869
            ]
        },
        {
            "positions": [
                -0.7606639634801678,
                -0.7745694949858166,
                1.726592758662012,
                1.894771628094463,
                -1.9678805570608588,
                -0.2942307143854066
            ]
        },
        {
            "positions": [
                -0.8112601245218433,
                -0.7354679567309228,
                1.7035929527259652,
                1.9762406184960195,
                -2.060208366220903,
                -0.19624505186332586
            ]
        },
        {
            "positions": [
                -0.8618562855635185,
                -0.6963664184760288,
                1.6805931467899187,
                2.057709608897576,
                -2.1525361753809475,
                -0.09825938934124556
            ]
        },
        {
            "positions": [
                -0.9124524466051938,
                -0.657264880221135,
                1.657593340853872,
                2.1391785992991323,
                -2.244863984540992,
                -0.0002737268191647318
            ]
        }
    ]
}