{
    "goal": {
        "global_pose": {
            "orientation": {
                "w": -0.00223480608172531,
                "x": 0.0024358444001904467,
                "y": 0.7094548369677653,
                "z": -0.704743149386269
            },
            "position": {
                "x": -0.37947507619857795,
                "y": -0.6371506643295288,
                "z": 0.19426114857196808
            }
        },
        "name": "move_to_magneteinheit_C"
    },
    "id": "ProjEST_move_to_magneteinheit_C_87",
    "joint_names": [
        "shoulder_pan_joint",
        "shoulder_lift_joint",
        "elbow_joint",
        "wrist_1_joint",
        "wrist_2_joint",
        "wrist_3_joint"
    ],
    "metrics": {
        "cart_traj_len": 5.908459585132401,
        "distance_elbow_joint": 0.6414552809645873,
        "distance_shoulder_lift_joint": 2.7985083241382727,
        "distance_shoulder_pan_joint": 8.748259494064499,
        "distance_wrist_1_joint": 7.226382067862257,
        "distance_wrist_2_joint": 2.139884273867369,
        "distance_wrist_3_joint": 1.003038380768405,
        "smoothness": 0.6077822720565039,
        "time": 0.754597424,
        "traj_len": 4.74947658396853,
        "weighted_distance": 5.824935272166708
    },
    "planner": "ProjEST",
    "start": {
        "state": {
            "elbow_joint": 1.9565354006590394,
            "shoulder_lift_joint": -1.4165861576513559,
            "shoulder_pan_joint": -1.6717766223277177,
            "wrist_1_joint": -0.5286633288215096,
            "wrist_2_joint": 1.4727565892594296,
            "wrist_3_joint": 3.1593482883155493
        }
    },
    "waypoints": [
        {
            "positions": [
                -1.6717766223277177,
                -1.4165861576513559,
                1.9565354006590394,
                -0.5286633288215096,
                1.4727565892594296,
                3.1593482883155493
            ]
        },
        {
            "positions": [
                -1.5298713318884074,
                -1.462009901734361,
                1.945958640006742,
                -0.4048746995422196,
                1.4201366639673993,
                3.14092918316691
            ]
        },
        {
            "positions": [
                -1.3879660414490973,
                -1.507433645817366,
                1.9353818793544444,
                -0.28108607026292964,
                1.367516738675369,
                3.1225100780182706
            ]
        },
        {
            "positions": [
                -1.246060751009787,
                -1.5528573899003713,
                1.9248051187021469,
                -0.15729744098363968,
                1.314896813383339,
                3.1040909728696318
            ]
        },
        {
            "positions": [
                -1.1041554605704769,
                -1.5982811339833765,
                1.9142283580498494,
                -0.03350881170434972,
                1.2622768880913087,
                3.0856718677209924
            ]
        },
        {
            "positions": [
                -0.9622501701311664,
                -1.6437048780663817,
                1.9036515973975519,
                0.0902798175749403,
                1.2096569627992784,
                3.067252762572353
            ]
        },
        {
            "positions": [
                -0.8203448796918562,
                -1.6891286221493869,
                1.8930748367452543,
                0.2140684468542302,
                1.157037037507248,
                3.048833657423714
            ]
        },
        {
            "positions": [
                -0.6784395892525459,
                -1.7345523662323918,
                1.8824980760929568,
                0.33785707613352023,
                1.1044171122152178,
                3.030414552275075
            ]
        },
        {
            "positions": [
                -0.5365342988132358,
                -1.779976110315397,
                1.871921315440659,
                0.46164570541281014,
                1.0517971869231875,
                3.0119954471264356
            ]
        },
        {
            "positions": [
                -0.3946290083739252,
                -1.8253998543984022,
                1.8613445547883616,
                0.5854343346921002,
                0.9991772616311572,
                2.9935763419777963
            ]
        },
        {
            "positions": [
                -0.2527237179346151,
                -1.8708235984814072,
                1.850767794136064,
                0.7092229639713902,
                0.946557336339127,
                2.975157236829157
            ]
        },
        {
            "positions": [
                -0.1108184274953048,
                -1.9162473425644124,
                1.8401910334837666,
                0.8330115932506802,
                0.8939374110470967,
                2.9567381316805177
            ]
        },
        {
            "positions": [
                0.03108686294400531,
                -1.9616710866474176,
                1.829614272831469,
                0.95680022252997,
                0.8413174857550665,
                2.938319026531879
            ]
        },
        {
            "positions": [
                0.17299215338331586,
                -2.0070948307304226,
                1.8190375121791715,
                1.0805888518092601,
                0.7886975604630362,
                2.9198999213832395
            ]
        },
        {
            "positions": [
                0.31489744382262597,
                -2.052518574813428,
                1.808460751526874,
                1.20437748108855,
                0.7360776351710059,
                2.9014808162346
            ]
        },
        {
            "positions": [
                0.4568027342619363,
                -2.097942318896433,
                1.7978839908745765,
                1.3281661103678402,
                0.6834577098789756,
                2.883061711085961
            ]
        },
        {
            "positions": [
                0.5987080247012462,
                -2.143366062979438,
                1.787307230222279,
                1.45195473964713,
                0.6308377845869454,
                2.8646426059373216
            ]
        },
        {
            "positions": [
                0.7406133151405565,
                -2.1887898070624434,
                1.7767304695699815,
                1.5757433689264198,
                0.5782178592949151,
                2.8462235007886827
            ]
        },
        {
            "positions": [
                0.8825186055798673,
                -2.234213551145449,
                1.766153708917684,
                1.69953199820571,
                0.5255979340028848,
                2.8278043956400434
            ]
        },
        {
            "positions": [
                1.0244238960191776,
                -2.279637295228454,
                1.7555769482653865,
                1.8233206274850002,
                0.4729780087108545,
                2.809385290491404
            ]
        },
        {
            "positions": [
                1.1663291864584875,
                -2.325061039311459,
                1.7450001876130887,
                1.94710925676429,
                0.4203580834188243,
                2.7909661853427647
            ]
        },
        {
            "positions": [
                1.3082344768977978,
                -2.3704847833944642,
                1.7344234269607912,
                2.07089788604358,
                0.367738158126794,
                2.7725470801941254
            ]
        },
        {
            "positions": [
                1.4501397673371081,
                -2.415908527477469,
                1.7238466663084937,
                2.19468651532287,
                0.3151182328347637,
                2.7541279750454866
            ]
        },
        {
            "positions": [
                1.592045057776418,
                -2.461332271560474,
                1.7132699056561962,
                2.31847514460216,
                0.2624983075427334,
                2.7357088698968473
            ]
        },
        {
            "positions": [
                1.7339503482157284,
                -2.5067560156434796,
                1.7026931450038987,
                2.4422637738814497,
                0.20987838225070332,
                2.717289764748208
            ]
        },
        {
            "positions": [
                1.8758556386550391,
                -2.5521797597264846,
                1.6921163843516012,
                2.56605240316074,
                0.1572584569586728,
                2.6988706595995686
            ]
        },
        {
            "positions": [
                2.0177609290943495,
                -2.5976035038094896,
                1.6815396236993037,
                2.6898410324400297,
                0.10463853166664272,
                2.6804515544509293
            ]
        },
        {
            "positions": [
                2.1596662195336593,
                -2.643027247892495,
                1.6709628630470061,
                2.81362966171932,
                0.05201860637461242,
                2.6620324493022904
            ]
        },
        {
            "positions": [
                2.3015715099729697,
                -2.6884509919755,
                1.6603861023947086,
                2.9374182909986097,
                -0.0006013189174178812,
                2.643613344153651
            ]
        },
        {
            "positions": [
                2.142407797914176,
                -2.6375628756483622,
                1.6718963018180506,
                2.8120749427305385,
                0.021616226605599587,
                2.6598567920405345
            ]
        },
        {
            "positions": [
                1.9832440858553824,
                -2.586674759321225,
                1.6834065012413924,
                2.6867315944624672,
                0.043833772128617055,
                2.6761002399274183
            ]
        },
        {
            "positions": [
                1.8240803737965885,
                -2.535786642994087,
                1.6949167006647343,
                2.561388246194396,
                0.06605131765163452,
                2.6923436878143017
            ]
        },
        {
            "positions": [
                1.6649166617377948,
                -2.48489852666695,
                1.706426900088076,
                2.4360448979263247,
                0.08826886317465199,
                2.7085871357011855
            ]
        },
        {
            "positions": [
                1.5057529496790012,
                -2.434010410339812,
                1.717937099511418,
                2.3107015496582535,
                0.11048640869766946,
                2.724830583588069
            ]
        },
        {
            "positions": [
                1.3465892376202073,
                -2.383122294012675,
                1.72944729893476,
                2.1853582013901818,
                0.13270395422068693,
                2.7410740314749527
            ]
        },
        {
            "positions": [
                1.1874255255614137,
                -2.332234177685537,
                1.7409574983581018,
                2.0600148531221105,
                0.1549214997437044,
                2.757317479361836
            ]
        },
        {
            "positions": [
                1.02826181350262,
                -2.2813460613584,
                1.7524676977814437,
                1.9346715048540395,
                0.17713904526672186,
                2.7735609272487194
            ]
        },
        {
            "positions": [
                0.8690981014438264,
                -2.230457945031262,
                1.7639778972047855,
                1.8093281565859682,
                0.19935659078973933,
                2.789804375135603
            ]
        },
        {
            "positions": [
                0.7099343893850327,
                -2.1795698287041247,
                1.7754880966281275,
                1.683984808317897,
                0.2215741363127568,
                2.8060478230224866
            ]
        },
        {
            "positions": [
                0.5507706773262391,
                -2.128681712376987,
                1.7869982960514692,
                1.5586414600498257,
                0.24379168183577424,
                2.8222912709093704
            ]
        },
        {
            "positions": [
                0.391606965267445,
                -2.0777935960498493,
                1.7985084954748112,
                1.4332981117817543,
                0.26600922735879173,
                2.8385347187962537
            ]
        },
        {
            "positions": [
                0.23244325320865133,
                -2.026905479722712,
                1.8100186948981531,
                1.307954763513683,
                0.2882267728818092,
                2.8547781666831376
            ]
        },
        {
            "positions": [
                0.07327954114985769,
                -1.9760173633955742,
                1.821528894321495,
                1.1826114152456118,
                0.31044431840482667,
                2.871021614570021
            ]
        },
        {
            "positions": [
                -0.08588417090893596,
                -1.925129247068437,
                1.8330390937448369,
                1.0572680669775405,
                0.33266186392784414,
                2.8872650624569047
            ]
        },
        {
            "positions": [
                -0.2450478829677296,
                -1.8742411307412992,
                1.8445492931681788,
                0.9319247187094692,
                0.3548794094508616,
                2.903508510343788
            ]
        },
        {
            "positions": [
                -0.40421159502652326,
                -1.8233530144141619,
                1.8560594925915206,
                0.806581370441398,
                0.3770969549738791,
                2.9197519582306715
            ]
        },
        {
            "positions": [
                -0.5633753070853169,
                -1.7724648980870241,
                1.8675696920148626,
                0.6812380221733267,
                0.39931450049689654,
                2.9359954061175553
            ]
        },
        {
            "positions": [
                -0.7225390191441106,
                -1.7215767817598868,
                1.8790798914382043,
                0.5558946739052555,
                0.421532046019914,
                2.9522388540044386
            ]
        },
        {
            "positions": [
                -0.8817027312029042,
                -1.670688665432749,
                1.8905900908615463,
                0.43055132563718423,
                0.4437495915429315,
                2.9684823018913225
            ]
        },
        {
            "positions": [
                -1.0408664432616979,
                -1.6198005491056116,
                1.902100290284888,
                0.305207977369113,
                0.4659671370659489,
                2.984725749778206
            ]
        },
        {
            "positions": [
                -1.2000301553204915,
                -1.568912432778474,
                1.91361048970823,
                0.17986462910104173,
                0.48818468258896636,
                3.000969197665089
            ]
        },
        {
            "positions": [
                -1.359193867379286,
                -1.5180243164513363,
                1.925120689131572,
                0.05452128083297003,
                0.5104022281119839,
                3.017212645551973
            ]
        },
        {
            "positions": [
                -1.5183575794380797,
                -1.4671362001241988,
                1.9366308885549137,
                -0.07082206743510122,
                0.5326197736350013,
                3.033456093438857
            ]
        },
        {
            "positions": [
                -1.6775212914968733,
                -1.4162480837970612,
                1.9481410879782557,
                -0.19616541570317247,
                0.5548373191580188,
                3.04969954132574
            ]
        },
        {
            "positions": [
                -1.836685003555667,
                -1.3653599674699237,
                1.9596512874015977,
                -0.3215087639712437,
                0.5770548646810363,
                3.0659429892126235
            ]
        },
        {
            "positions": [
                -1.9958487156144606,
                -1.3144718511427862,
                1.9711614868249394,
                -0.446852112239315,
                0.5992724102040538,
                3.0821864370995073
            ]
        },
        {
            "positions": [
                -2.1550124276732543,
                -1.2635837348156487,
                1.9826716862482814,
                -0.5721954605073862,
                0.6214899557270712,
                3.0984298849863907
            ]
        },
        {
            "positions": [
                -2.314176139732048,
                -1.2126956184885112,
                1.9941818856716234,
                -0.6975388087754575,
                0.6437075012500887,
                3.1146733328732745
            ]
        },
        {
            "positions": [
                -2.4733398517908416,
                -1.1618075021613736,
                2.005692085094965,
                -0.8228821570435289,
                0.6659250467731062,
                3.130916780760158
            ]
        }
    ]
}