{
    "goal": {
        "global_pose": {
            "orientation": {
                "w": 0.5084816217422485,
                "x": -0.49083608388900757,
                "y": 0.5182115435600281,
                "z": -0.4816462993621826
            },
            "position": {
                "x": 0.5540239810943604,
                "y": 0.030875300988554955,
                "z": 0.16403168439865112
            }
        },
        "name": "move_to_storage_A"
    },
    "id": "ProjEST_move_to_storage_A_116",
    "joint_names": [
        "shoulder_pan_joint",
        "shoulder_lift_joint",
        "elbow_joint",
        "wrist_1_joint",
        "wrist_2_joint",
        "wrist_3_joint"
    ],
    "metrics": {
        "cart_traj_len": 0.35325939584148947,
        "distance_elbow_joint": 0.44998821252361143,
        "distance_shoulder_lift_joint": 0.23393706976861384,
        "distance_shoulder_pan_joint": 0.4641633728033048,
        "distance_wrist_1_joint": 0.2403577978998238,
        "distance_wrist_2_joint": 1.089625978267283,
        "distance_wrist_3_joint": 0.09214457104847718,
        "smoothness": 4.440892098500626e-16,
        "time": 0.15642145000000002,
        "traj_len": 1.6031896339208018,
        "weighted_distance": 2.0210121030254062
    },
    "planner": "ProjEST",
    "start": {
        "state": {
            "elbow_joint": 1.9715474177455299,
            "shoulder_lift_joint": -1.139484666580328,
            "shoulder_pan_joint": 0.12281154398918248,
            "wrist_1_joint": -0.7804687475355282,
            "wrist_2_joint": 0.12958649657246987,
            "wrist_3_joint": -3.1924925159053466
        }
    },
    "waypoints": [
        {
            "positions": [
                0.12281154398918248,
                -1.139484666580328,
                1.9715474177455299,
                -0.7804687475355282,
                0.12958649657246987,
                -3.1924925159053466
            ]
        },
        {
            "positions": [
                0.05650249073156752,
                -1.1729042479758442,
                2.035831448106046,
                -0.8148055758069316,
                0.2852473506106532,
                -3.179329005755564
            ]
        },
        {
            "positions": [
                -0.009806562526047446,
                -1.2063238293713605,
                2.1001154784665617,
                -0.849142404078335,
                0.4409082046488365,
                -3.1661654956057816
            ]
        },
        {
            "positions": [
                -0.07611561578366241,
                -1.2397434107668768,
                2.1643995088270778,
                -0.8834792323497384,
                0.5965690586870198,
                -3.153001985455999
            ]
        },
        {
            "positions": [
                -0.14242466904127737,
                -1.273162992162393,
                2.2286835391875934,
                -0.9178160606211418,
                0.7522299127252031,
                -3.1398384753062167
            ]
        },
        {
            "positions": [
                -0.20873372229889237,
                -1.3065825735579093,
                2.2929675695481095,
                -0.9521528888925452,
                0.9078907667633865,
                -3.1266749651564343
            ]
        },
        {
            "positions": [
                -0.2750427755565073,
                -1.3400021549534256,
                2.357251599908625,
                -0.9864897171639486,
                1.0635516208015696,
                -3.113511455006652
            ]
        },
        {
            "positions": [
                -0.3413518288141223,
                -1.3734217363489418,
                2.4215356302691413,
                -1.020826545435352,
                1.219212474839753,
                -3.1003479448568694
            ]
        }
    ]
}