{
    "goal": {
        "global_pose": {
            "orientation": {
                "w": 0.005598929693374612,
                "x": 0.007748599140229565,
                "y": 0.7110244013736278,
                "z": -0.7031023480610252
            },
            "position": {
                "x": 0.1141497679147869,
                "y": -0.7141253447532654,
                "z": 0.3711530566215515
            }
        },
        "name": "move_to_auspresseinheit_B"
    },
    "id": "ProjEST_move_to_auspresseinheit_B_36",
    "joint_names": [
        "shoulder_pan_joint",
        "shoulder_lift_joint",
        "elbow_joint",
        "wrist_1_joint",
        "wrist_2_joint",
        "wrist_3_joint"
    ],
    "metrics": {
        "cart_traj_len": 0.5639554727952187,
        "distance_elbow_joint": 0.06252607817173961,
        "distance_shoulder_lift_joint": 0.2943671927988383,
        "distance_shoulder_pan_joint": 0.5761127126675936,
        "distance_wrist_1_joint": 0.33014694247534937,
        "distance_wrist_2_joint": 0.9969280283397621,
        "distance_wrist_3_joint": 0.004826256551938357,
        "smoothness": 0.0,
        "time": 0.127454224,
        "traj_len": 1.5049608669348253,
        "weighted_distance": 1.8977973271464499
    },
    "planner": "ProjEST",
    "start": {
        "state": {
            "elbow_joint": 2.019306165916698,
            "shoulder_lift_joint": -1.1220205098164344,
            "shoulder_pan_joint": -1.095207207618794,
            "wrist_1_joint": -0.8559671824921639,
            "wrist_2_joint": 0.47596387242952726,
            "wrist_3_joint": 3.159081874673826
        }
    },
    "waypoints": [
        {
            "positions": [
                -1.095207207618794,
                -1.1220205098164344,
                2.019306165916698,
                -0.8559671824921639,
                0.47596387242952726,
                3.159081874673826
            ]
        },
        {
            "positions": [
                -1.1912259930633928,
                -1.1710817086162408,
                2.008885152888075,
                -0.8009426920796057,
                0.6421185438194876,
                3.1582774985818363
            ]
        },
        {
            "positions": [
                -1.287244778507992,
                -1.2201429074160473,
                1.9984641398594514,
                -0.7459182016670474,
                0.808273215209448,
                3.1574731224898462
            ]
        },
        {
            "positions": [
                -1.3832635639525908,
                -1.2692041062158537,
                1.9880431268308283,
                -0.6908937112544892,
                0.9744278865994083,
                3.1566687463978567
            ]
        },
        {
            "positions": [
                -1.4792823493971896,
                -1.3182653050156599,
                1.977622113802205,
                -0.635869220841931,
                1.1405825579893687,
                3.155864370305867
            ]
        },
        {
            "positions": [
                -1.5753011348417887,
                -1.3673265038154663,
                1.9672011007735817,
                -0.5808447304293727,
                1.3067372293793291,
                3.155059994213877
            ]
        },
        {
            "positions": [
                -1.6713199202863875,
                -1.4163877026152727,
                1.9567800877449584,
                -0.5258202400168145,
                1.4728919007692893,
                3.1542556181218875
            ]
        }
    ]
}