{
    "goal": {
        "global_pose": {
            "orientation": {
                "w": 0.7031023502349854,
                "x": -0.7110244035720825,
                "y": 0.007748599164187908,
                "z": 0.005598929710686207
            },
            "position": {
                "x": 0.11585023208521307,
                "y": 0.44412534475326537,
                "z": 0.3711530566215515
            }
        },
        "name": "move_to_auspresseinheit_A"
    },
    "id": "ProjEST_move_to_auspresseinheit_A_139",
    "joint_names": [
        "shoulder_pan_joint",
        "shoulder_lift_joint",
        "elbow_joint",
        "wrist_1_joint",
        "wrist_2_joint",
        "wrist_3_joint"
    ],
    "metrics": {
        "cart_traj_len": 0.6943434391177694,
        "distance_elbow_joint": 0.3268953063871196,
        "distance_shoulder_lift_joint": 1.2412454142059604,
        "distance_shoulder_pan_joint": 1.0466558770668746,
        "distance_wrist_1_joint": 1.3869067902362908,
        "distance_wrist_2_joint": 0.5142148760074003,
        "distance_wrist_3_joint": 0.91236916757236,
        "smoothness": 1.2295970994313632,
        "time": 0.15582895800000002,
        "traj_len": 2.3298685438187294,
        "weighted_distance": 3.0255821642891165
    },
    "planner": "ProjEST",
    "start": {
        "state": {
            "elbow_joint": 2.4225747245308327,
            "shoulder_lift_joint": -1.373653427065438,
            "shoulder_pan_joint": -0.33786330853087027,
            "wrist_1_joint": -1.0288602302712604,
            "wrist_2_joint": 1.23302299562683,
            "wrist_3_joint": -3.094021725338297
        }
    },
    "waypoints": [
        {
            "positions": [
                -0.33786330853087027,
                -1.373653427065438,
                2.4225747245308327,
                -1.0288602302712604,
                1.23302299562683,
                -3.094021725338297
            ]
        },
        {
            "positions": [
                -0.2720676376682033,
                -1.4849229589678372,
                2.4415113396302757,
                -0.9080686694448865,
                1.220103287253162,
                -3.038545163100728
            ]
        },
        {
            "positions": [
                -0.20627196680553628,
                -1.5961924908702365,
                2.460447954729719,
                -0.7872771086185127,
                1.207183578879494,
                -2.9830686008631595
            ]
        },
        {
            "positions": [
                -0.14047629594286928,
                -1.7074620227726358,
                2.479384569829162,
                -0.6664855477921389,
                1.1942638705058262,
                -2.9275920386255905
            ]
        },
        {
            "positions": [
                -0.07468062508020229,
                -1.8187315546750353,
                2.4983211849286056,
                -0.5456939869657651,
                1.181344162132158,
                -2.8721154763880214
            ]
        },
        {
            "positions": [
                -0.008884954217535268,
                -1.9300010865774344,
                2.5172578000280486,
                -0.4249024261393912,
                1.1684244537584902,
                -2.816638914150453
            ]
        },
        {
            "positions": [
                0.0569107166451317,
                -2.041270618479834,
                2.5361944151274916,
                -0.30411086531301734,
                1.1555047453848224,
                -2.761162351912884
            ]
        },
        {
            "positions": [
                0.12270638750779866,
                -2.152540150382233,
                2.555131030226935,
                -0.18331930448664358,
                1.1425850370111543,
                -2.7056857896753153
            ]
        },
        {
            "positions": [
                0.18850205837046574,
                -2.2638096822846325,
                2.574067645326378,
                -0.0625277436602697,
                1.1296653286374865,
                -2.6502092274377462
            ]
        },
        {
            "positions": [
                0.27521714339805553,
                -2.2052948224535047,
                2.5448339143944487,
                -0.13262346093115301,
                1.0611891271344769,
                -2.728302005716381
            ]
        },
        {
            "positions": [
                0.3619322284256453,
                -2.1467799626223774,
                2.51560018346252,
                -0.20271917820203636,
                0.9927129256314675,
                -2.806394783995016
            ]
        },
        {
            "positions": [
                0.44864731345323516,
                -2.0882651027912496,
                2.486366452530591,
                -0.2728148954729197,
                0.924236724128458,
                -2.8844875622736508
            ]
        },
        {
            "positions": [
                0.5353623984808249,
                -2.029750242960122,
                2.457132721598662,
                -0.342910612743803,
                0.8557605226254485,
                -2.9625803405522855
            ]
        },
        {
            "positions": [
                0.6220774835084149,
                -1.9712353831289944,
                2.4278989906667325,
                -0.4130063300146864,
                0.7872843211224391,
                -3.0406731188309206
            ]
        },
        {
            "positions": [
                0.7087925685360046,
                -1.9127205232978668,
                2.3986652597348037,
                -0.4831020472855697,
                0.7188081196194296,
                -3.1187658971095553
            ]
        }
    ]
}