{
    "goal": {
        "global_pose": {
            "orientation": {
                "w": 0.7047431493862688,
                "x": -0.7094548369677653,
                "y": 0.0024358444001904,
                "z": -0.0022348060817251984
            },
            "position": {
                "x": -0.39052492380142206,
                "y": 0.3671506643295288,
                "z": 0.19426114857196808
            }
        },
        "name": "move_to_magneteinheit_D"
    },
    "id": "ProjEST_move_to_magneteinheit_D_94",
    "joint_names": [
        "shoulder_pan_joint",
        "shoulder_lift_joint",
        "elbow_joint",
        "wrist_1_joint",
        "wrist_2_joint",
        "wrist_3_joint"
    ],
    "metrics": {
        "cart_traj_len": 4.312137724703008,
        "distance_elbow_joint": 4.829008702244906,
        "distance_shoulder_lift_joint": 1.099057424942536,
        "distance_shoulder_pan_joint": 2.947830674031519,
        "distance_wrist_1_joint": 3.3472211440217414,
        "distance_wrist_2_joint": 1.5144887207642155,
        "distance_wrist_3_joint": 6.2667881434544626,
        "smoothness": 0.29363789872682033,
        "time": 0.239321734,
        "traj_len": 4.472627282644886,
        "weighted_distance": 6.115527856297791
    },
    "planner": "ProjEST",
    "start": {
        "state": {
            "elbow_joint": 0.7495348899011973,
            "shoulder_lift_joint": -0.6476975780737697,
            "shoulder_pan_joint": -2.711696901376276,
            "wrist_1_joint": -0.07506478080974305,
            "wrist_2_joint": 0.4329665971545858,
            "wrist_3_joint": 3.1361499051832524
        }
    },
    "waypoints": [
        {
            "positions": [
                -2.711696901376276,
                -0.6476975780737697,
                0.7495348899011973,
                -0.07506478080974305,
                0.4329665971545858,
                3.1361499051832524
            ]
        },
        {
            "positions": [
                -2.721798658890309,
                -0.71418897253694,
                0.8305524438456329,
                -0.008696100804298473,
                0.3593423373731048,
                3.124497299845761
            ]
        },
        {
            "positions": [
                -2.731900416404342,
                -0.7806803670001103,
                0.9115699977900683,
                0.0576725792011461,
                0.2857180775916238,
                3.112844694508269
            ]
        },
        {
            "positions": [
                -2.742002173918375,
                -0.8471717614632808,
                0.9925875517345039,
                0.1240412592065907,
                0.21209381781014278,
                3.1011920891707776
            ]
        },
        {
            "positions": [
                -2.7221794682200464,
                -0.938651984103952,
                1.0806578213976703,
                0.18331609559007417,
                0.12822447269634257,
                3.0608786775526897
            ]
        },
        {
            "positions": [
                -2.702356762521718,
                -1.0301322067446232,
                1.1687280910608366,
                0.2425909319735576,
                0.04435512758254234,
                3.020565265934602
            ]
        },
        {
            "positions": [
                -2.6825340568233895,
                -1.1216124293852943,
                1.256798360724003,
                0.30186576835704104,
                -0.03951421753125786,
                2.980251854316514
            ]
        },
        {
            "positions": [
                -2.6627113511250613,
                -1.2130926520259655,
                1.3448686303871693,
                0.3611406047405245,
                -0.12338356264505809,
                2.9399384426984265
            ]
        },
        {
            "positions": [
                -2.6428886454267326,
                -1.3045728746666367,
                1.4329389000503356,
                0.42041544112400797,
                -0.20725290775885832,
                2.8996250310803386
            ]
        },
        {
            "positions": [
                -2.6230659397284044,
                -1.396053097307308,
                1.5210091697135022,
                0.47969027750749144,
                -0.29112225287265847,
                2.8593116194622508
            ]
        },
        {
            "positions": [
                -2.6032432340300757,
                -1.4875333199479792,
                1.6090794393766685,
                0.5389651138909749,
                -0.37499159798645876,
                2.818998207844163
            ]
        },
        {
            "positions": [
                -2.52550988066347,
                -1.493808010806443,
                1.5103997042467907,
                0.4748647098623127,
                -0.3831294877913257,
                2.689372019009084
            ]
        },
        {
            "positions": [
                -2.4477765272968646,
                -1.5000827016649072,
                1.4117199691169127,
                0.41076430583365053,
                -0.3912673775961926,
                2.559745830174006
            ]
        },
        {
            "positions": [
                -2.3700431739302585,
                -1.506357392523371,
                1.3130402339870348,
                0.34666390180498835,
                -0.3994052674010596,
                2.430119641338927
            ]
        },
        {
            "positions": [
                -2.292309820563653,
                -1.5126320833818352,
                1.214360498857157,
                0.28256349777632617,
                -0.4075431572059265,
                2.3004934525038485
            ]
        },
        {
            "positions": [
                -2.2145764671970474,
                -1.518906774240299,
                1.115680763727279,
                0.21846309374766398,
                -0.41568104701079345,
                2.17086726366877
            ]
        },
        {
            "positions": [
                -2.136843113830442,
                -1.5251814650987632,
                1.0170010285974012,
                0.1543626897190018,
                -0.42381893681566035,
                2.0412410748336915
            ]
        },
        {
            "positions": [
                -2.059109760463836,
                -1.531456155957227,
                0.9183212934675232,
                0.09026228569033962,
                -0.4319568266205273,
                1.9116148859986128
            ]
        },
        {
            "positions": [
                -1.9813764070972306,
                -1.5377308468156912,
                0.8196415583376453,
                0.026161881661677433,
                -0.4400947164253942,
                1.7819886971635344
            ]
        },
        {
            "positions": [
                -1.9036430537306248,
                -1.544005537674155,
                0.7209618232077674,
                -0.037938522366984695,
                -0.4482326062302612,
                1.6523625083284559
            ]
        },
        {
            "positions": [
                -1.8259097003640192,
                -1.550280228532619,
                0.6222820880778894,
                -0.10203892639564693,
                -0.45637049603512814,
                1.5227363194933772
            ]
        },
        {
            "positions": [
                -1.7481763469974134,
                -1.556554919391083,
                0.5236023529480116,
                -0.16613933042430917,
                -0.46450838583999504,
                1.3931101306582987
            ]
        },
        {
            "positions": [
                -1.6704429936308078,
                -1.562829610249547,
                0.4249226178181338,
                -0.2302397344529713,
                -0.472646275644862,
                1.2634839418232202
            ]
        },
        {
            "positions": [
                -1.5927096402642023,
                -1.569104301108011,
                0.32624288268825574,
                -0.29434013848163343,
                -0.4807841654497289,
                1.1338577529881415
            ]
        },
        {
            "positions": [
                -1.5149762868975967,
                -1.575378991966475,
                0.22756314755837792,
                -0.35844054251029567,
                -0.48892205525459587,
                1.004231564153063
            ]
        },
        {
            "positions": [
                -1.4372429335309909,
                -1.581653682824939,
                0.12888341242849988,
                -0.4225409465389579,
                -0.4970599450594628,
                0.8746053753179843
            ]
        },
        {
            "positions": [
                -1.3595095801643853,
                -1.587928373683403,
                0.030203677298622056,
                -0.48664135056762003,
                -0.5051978348643298,
                0.7449791864829058
            ]
        },
        {
            "positions": [
                -1.2817762267977797,
                -1.5942030645418668,
                -0.06847605783125577,
                -0.5507417545962822,
                -0.5133357246691966,
                0.6153529976478271
            ]
        },
        {
            "positions": [
                -1.2040428734311739,
                -1.6004777554003309,
                -0.1671557929611338,
                -0.6148421586249443,
                -0.5214736144740636,
                0.4857268088127489
            ]
        },
        {
            "positions": [
                -1.1263095200645683,
                -1.6067524462587948,
                -0.26583552809101163,
                -0.6789425626536066,
                -0.5296115042789306,
                0.3561006199776702
            ]
        },
        {
            "positions": [
                -1.0485761666979627,
                -1.6130271371172589,
                -0.3645152632208897,
                -0.7430429666822688,
                -0.5377493940837974,
                0.22647443114259147
            ]
        },
        {
            "positions": [
                -0.9708428133313569,
                -1.6193018279757228,
                -0.4631949983507673,
                -0.8071433707109309,
                -0.5458872838886644,
                0.09684824230751321
            ]
        },
        {
            "positions": [
                -0.8931094599647513,
                -1.6255765188341869,
                -0.5618747334806453,
                -0.8712437747395932,
                -0.5540251736935313,
                -0.032777946527565494
            ]
        },
        {
            "positions": [
                -0.8153761065981457,
                -1.6318512096926507,
                -0.6605544686105234,
                -0.9353441787682554,
                -0.5621630634983983,
                -0.1624041353626442
            ]
        },
        {
            "positions": [
                -0.7376427532315399,
                -1.6381259005511146,
                -0.759234203740401,
                -0.9994445827969175,
                -0.5703009533032652,
                -0.29203032419772246
            ]
        },
        {
            "positions": [
                -0.6599093998649344,
                -1.6444005914095787,
                -0.857913938870279,
                -1.0635449868255797,
                -0.5784388431081322,
                -0.42165651303280116
            ]
        },
        {
            "positions": [
                -0.5821760464983288,
                -1.6506752822680426,
                -0.956593674000157,
                -1.1276453908542416,
                -0.586576732912999,
                -0.5512827018678799
            ]
        },
        {
            "positions": [
                -0.5044426931317232,
                -1.6569499731265067,
                -1.055273409130035,
                -1.191745794882904,
                -0.594714622717866,
                -0.6809088907029586
            ]
        },
        {
            "positions": [
                -0.4267093397651176,
                -1.6632246639849706,
                -1.1539531442599127,
                -1.2558461989115663,
                -0.602852512522733,
                -0.8105350795380368
            ]
        },
        {
            "positions": [
                -0.3489759863985116,
                -1.6694993548434347,
                -1.2526328793897907,
                -1.3199466029402283,
                -0.6109904023275999,
                -0.9401612683731155
            ]
        },
        {
            "positions": [
                -0.271242633031906,
                -1.6757740457018986,
                -1.3513126145196688,
                -1.3840470069688906,
                -0.6191282921324668,
                -1.0697874572081942
            ]
        },
        {
            "positions": [
                -0.1935092796653004,
                -1.6820487365603625,
                -1.4499923496495464,
                -1.448147410997553,
                -0.6272661819373337,
                -1.199413646043273
            ]
        },
        {
            "positions": [
                -0.11577592629869463,
                -1.6883234274188266,
                -1.5486720847794246,
                -1.5122478150262149,
                -0.6354040717422007,
                -1.3290398348783514
            ]
        },
        {
            "positions": [
                -0.10349614550614318,
                -1.6938039187316074,
                -1.6320193955444722,
                -1.571290976230108,
                -0.608038143255445,
                -1.5096978089368311
            ]
        },
        {
            "positions": [
                -0.09121636471359174,
                -1.6992844100443885,
                -1.71536670630952,
                -1.6303341374340008,
                -0.5806722147686894,
                -1.690355782995311
            ]
        },
        {
            "positions": [
                -0.07893658392104029,
                -1.7047649013571693,
                -1.7987140170745675,
                -1.6893772986378939,
                -0.5533062862819337,
                -1.8710137570537908
            ]
        },
        {
            "positions": [
                -0.06665680312848885,
                -1.7102453926699503,
                -1.882061327839615,
                -1.748420459841787,
                -0.525940357795178,
                -2.0516717311122705
            ]
        },
        {
            "positions": [
                -0.054377022335937386,
                -1.7157258839827312,
                -1.9654086386046627,
                -1.80746362104568,
                -0.4985744293084224,
                -2.2323297051707502
            ]
        },
        {
            "positions": [
                -0.042097241543385955,
                -1.7212063752955122,
                -2.0487559493697103,
                -1.866506782249573,
                -0.47120850082166676,
                -2.4129876792292304
            ]
        },
        {
            "positions": [
                -0.029817460750834496,
                -1.726686866608293,
                -2.132103260134758,
                -1.925549943453466,
                -0.4438425723349111,
                -2.5936456532877097
            ]
        },
        {
            "positions": [
                -0.017537679958283064,
                -1.7321673579210741,
                -2.2154505708998053,
                -1.9845931046573588,
                -0.4164766438481554,
                -2.77430362734619
            ]
        },
        {
            "positions": [
                -0.005257899165731605,
                -1.737647849233855,
                -2.298797881664853,
                -2.043636265861252,
                -0.38911071536139974,
                -2.9549616014046696
            ]
        },
        {
            "positions": [
                -0.09564846253412035,
                -1.7422014261250802,
                -2.329591297528811,
                -2.118931200645651,
                -0.2891983676180855,
                -3.042799919837939
            ]
        },
        {
            "positions": [
                -0.1860390259025091,
                -1.7467550030163057,
                -2.360384713392769,
                -2.1942261354300503,
                -0.1892860198747712,
                -3.130638238271209
            ]
        }
    ]
}