{
    "goal": {
        "global_pose": {
            "orientation": {
                "w": 0.005598929693374612,
                "x": 0.007748599140229565,
                "y": 0.7110244013736278,
                "z": -0.7031023480610252
            },
            "position": {
                "x": -0.8858502320852131,
                "y": -0.7141253447532654,
                "z": 0.3711530566215515
            }
        },
        "name": "move_to_auspresseinheit_C"
    },
    "id": "ProjEST_move_to_auspresseinheit_C_136",
    "joint_names": [
        "shoulder_pan_joint",
        "shoulder_lift_joint",
        "elbow_joint",
        "wrist_1_joint",
        "wrist_2_joint",
        "wrist_3_joint"
    ],
    "metrics": {
        "cart_traj_len": 0.49401775796723235,
        "distance_elbow_joint": 1.0029429031610368,
        "distance_shoulder_lift_joint": 0.3256376622176195,
        "distance_shoulder_pan_joint": 0.25670787387651917,
        "distance_wrist_1_joint": 0.6820603498203652,
        "distance_wrist_2_joint": 1.3124567277438997,
        "distance_wrist_3_joint": 0.05696964172167762,
        "smoothness": 6.459479416000911e-16,
        "time": 0.129250797,
        "traj_len": 1.9070330774638173,
        "weighted_distance": 2.396921258520759
    },
    "planner": "ProjEST",
    "start": {
        "state": {
            "elbow_joint": 1.752795957773711,
            "shoulder_lift_joint": -0.9740617694225064,
            "shoulder_pan_joint": -2.967991417825858,
            "wrist_1_joint": -0.7595177689806859,
            "wrist_2_joint": 1.7443932448377395,
            "wrist_3_joint": 3.199131542505932
        }
    },
    "waypoints": [
        {
            "positions": [
                -2.967991417825858,
                -0.9740617694225064,
                1.752795957773711,
                -0.7595177689806859,
                1.7443932448377395,
                3.199131542505932
            ]
        },
        {
            "positions": [
                -2.942320630438206,
                -0.9414980032007445,
                1.6525016674576074,
                -0.6913117339986494,
                1.6131475720633495,
                3.1934345783337643
            ]
        },
        {
            "positions": [
                -2.9166498430505543,
                -0.9089342369789826,
                1.5522073771415037,
                -0.6231056990166128,
                1.4819018992889594,
                3.1877376141615965
            ]
        },
        {
            "positions": [
                -2.890979055662902,
                -0.8763704707572206,
                1.4519130868254,
                -0.5548996640345764,
                1.3506562265145696,
                3.1820406499894287
            ]
        },
        {
            "positions": [
                -2.86530826827525,
                -0.8438067045354587,
                1.3516187965092963,
                -0.4866936290525398,
                1.2194105537401796,
                3.176343685817261
            ]
        },
        {
            "positions": [
                -2.8396374808875984,
                -0.8112429383136968,
                1.2513245061931926,
                -0.4184875940705033,
                1.0881648809657896,
                3.1706467216450935
            ]
        },
        {
            "positions": [
                -2.8139666934999465,
                -0.7786791720919348,
                1.151030215877089,
                -0.35028155908846675,
                0.9569192081913998,
                3.1649497574729257
            ]
        },
        {
            "positions": [
                -2.7882959061122947,
                -0.7461154058701729,
                1.0507359255609854,
                -0.2820755241064303,
                0.8256735354170098,
                3.159252793300758
            ]
        },
        {
            "positions": [
                -2.7626251187246424,
                -0.7135516396484108,
                0.9504416352448816,
                -0.21386948912439374,
                0.6944278626426197,
                3.15355582912859
            ]
        },
        {
            "positions": [
                -2.7369543313369906,
                -0.6809878734266489,
                0.850147344928778,
                -0.14566345414235715,
                0.5631821898682299,
                3.1478588649564223
            ]
        },
        {
            "positions": [
                -2.711283543949339,
                -0.648424107204887,
                0.7498530546126743,
                -0.07745741916032071,
                0.4319365170938399,
                3.1421619007842545
            ]
        }
    ]
}