{
    "goal": {
        "global_pose": {
            "orientation": {
                "w": 0.5084816262002911,
                "x": -0.4908360881923452,
                "y": 0.5182115481033761,
                "z": -0.48164630358495003
            },
            "position": {
                "x": 0.5540239810943604,
                "y": -0.46912469901144505,
                "z": 0.16403168439865112
            }
        },
        "name": "move_to_storage_B"
    },
    "id": "ProjEST_move_to_storage_B_52",
    "joint_names": [
        "shoulder_pan_joint",
        "shoulder_lift_joint",
        "elbow_joint",
        "wrist_1_joint",
        "wrist_2_joint",
        "wrist_3_joint"
    ],
    "metrics": {
        "cart_traj_len": 0.6456937712189789,
        "distance_elbow_joint": 0.3496098001515089,
        "distance_shoulder_lift_joint": 0.4594580538943427,
        "distance_shoulder_pan_joint": 0.3171071710275931,
        "distance_wrist_1_joint": 3.015177386407589,
        "distance_wrist_2_joint": 2.728313162912696,
        "distance_wrist_3_joint": 3.135521696699248,
        "smoothness": 0.16769909846973702,
        "time": 0.091813393,
        "traj_len": 3.16309773340834,
        "weighted_distance": 4.692517577357783
    },
    "planner": "ProjEST",
    "start": {
        "state": {
            "elbow_joint": 1.6649325706314817,
            "shoulder_lift_joint": -0.6616388048112454,
            "shoulder_pan_joint": -0.9139837860083814,
            "wrist_1_joint": 2.146757197745094,
            "wrist_2_joint": -2.234196043158733,
            "wrist_3_joint": 0.005471033829999897
        }
    },
    "waypoints": [
        {
            "positions": [
                -0.9139837860083814,
                -0.6616388048112454,
                1.6649325706314817,
                2.146757197745094,
                -2.234196043158733,
                0.005471033829999897
            ]
        },
        {
            "positions": [
                -0.8467871275074659,
                -0.6955343209913667,
                1.6944880255635628,
                2.1613500649001596,
                -2.2464415138409684,
                -0.041381233757133276
            ]
        },
        {
            "positions": [
                -0.856783548008533,
                -0.7125568224999356,
                1.70729019937234,
                2.0413266841300586,
                -2.13779880615175,
                -0.16492801092161785
            ]
        },
        {
            "positions": [
                -0.8667799685096,
                -0.7295793240085044,
                1.720092373181117,
                1.9213033033599576,
                -2.0291560984625314,
                -0.28847478808610244
            ]
        },
        {
            "positions": [
                -0.8767763890106672,
                -0.7466018255170732,
                1.7328945469898942,
                1.8012799225898568,
                -1.920513390773313,
                -0.41202156525058703
            ]
        },
        {
            "positions": [
                -0.8867728095117343,
                -0.7636243270256421,
                1.7456967207986713,
                1.6812565418197558,
                -1.8118706830840945,
                -0.5355683424150717
            ]
        },
        {
            "positions": [
                -0.8967692300128014,
                -0.780646828534211,
                1.7584988946074485,
                1.5612331610496548,
                -1.703227975394876,
                -0.6591151195795563
            ]
        },
        {
            "positions": [
                -0.9067656505138685,
                -0.7976693300427798,
                1.7713010684162254,
                1.441209780279554,
                -1.5945852677056578,
                -0.7826618967440409
            ]
        },
        {
            "positions": [
                -0.9167620710149356,
                -0.8146918315513487,
                1.7841032422250027,
                1.321186399509453,
                -1.4859425600164393,
                -0.9062086739085254
            ]
        },
        {
            "positions": [
                -0.9267584915160028,
                -0.8317143330599175,
                1.7969054160337796,
                1.201163018739352,
                -1.3772998523272209,
                -1.02975545107301
            ]
        },
        {
            "positions": [
                -0.9367549120170698,
                -0.8487368345684864,
                1.8097075898425568,
                1.081139637969251,
                -1.2686571446380026,
                -1.1533022282374945
            ]
        },
        {
            "positions": [
                -0.9467513325181369,
                -0.8657593360770552,
                1.8225097636513339,
                0.9611162571991501,
                -1.160014436948784,
                -1.2768490054019792
            ]
        },
        {
            "positions": [
                -0.956747753019204,
                -0.8827818375856241,
                1.835311937460111,
                0.8410928764290493,
                -1.0513717292595657,
                -1.4003957825664637
            ]
        },
        {
            "positions": [
                -0.9667441735202711,
                -0.899804339094193,
                1.8481141112688881,
                0.7210694956589483,
                -0.9427290215703472,
                -1.5239425597309484
            ]
        },
        {
            "positions": [
                -0.9767405940213383,
                -0.9168268406027618,
                1.8609162850776653,
                0.6010461148888473,
                -0.8340863138811287,
                -1.6474893368954329
            ]
        },
        {
            "positions": [
                -0.9867370145224054,
                -0.9338493421113307,
                1.8737184588864424,
                0.4810227341187463,
                -0.7254436061919103,
                -1.7710361140599176
            ]
        },
        {
            "positions": [
                -0.9967334350234724,
                -0.9508718436198995,
                1.8865206326952195,
                0.3609993533486455,
                -0.616800898502692,
                -1.894582891224402
            ]
        },
        {
            "positions": [
                -1.0067298555245396,
                -0.9678943451284684,
                1.8993228065039967,
                0.24097597257854453,
                -0.5081581908134734,
                -2.0181296683888865
            ]
        },
        {
            "positions": [
                -1.0167262760256066,
                -0.9849168466370373,
                1.9121249803127738,
                0.12095259180844353,
                -0.3995154831242549,
                -2.141676445553371
            ]
        },
        {
            "positions": [
                -1.0267226965266738,
                -1.001939348145606,
                1.924927154121551,
                0.0009292110383425367,
                -0.29087277543503665,
                -2.2652232227178555
            ]
        },
        {
            "positions": [
                -1.0367191170277408,
                -1.018961849654175,
                1.9377293279303278,
                -0.11909416973175846,
                -0.18223006774581796,
                -2.3887699998823404
            ]
        },
        {
            "positions": [
                -1.046715537528808,
                -1.0359843511627438,
                1.9505315017391052,
                -0.23911755050185945,
                -0.0735873600565995,
                -2.512316777046825
            ]
        },
        {
            "positions": [
                -1.0567119580298752,
                -1.0530068526713126,
                1.963333675547882,
                -0.35914093127196,
                0.03505534763261853,
                -2.6358635542113094
            ]
        },
        {
            "positions": [
                -1.0667083785309421,
                -1.0700293541798815,
                1.9761358493566592,
                -0.479164312042061,
                0.143698055321837,
                -2.759410331375794
            ]
        },
        {
            "positions": [
                -1.0767047990320093,
                -1.0870518556884503,
                1.9889380231654363,
                -0.5991876928121624,
                0.25234076301105546,
                -2.8829571085402788
            ]
        },
        {
            "positions": [
                -1.0867012195330763,
                -1.1040743571970193,
                2.0017401969742137,
                -0.719211073582263,
                0.3609834707002739,
                -3.0065038857047632
            ]
        },
        {
            "positions": [
                -1.0966976400341435,
                -1.121096858705588,
                2.0145423707829906,
                -0.839234454352364,
                0.46962617838949233,
                -3.1300506628692477
            ]
        }
    ]
}