{
    "goal": {
        "global_pose": {
            "orientation": {
                "w": -0.4816463035849501,
                "x": 0.5182115481033762,
                "y": 0.4908360881923453,
                "z": -0.5084816262002911
            },
            "position": {
                "x": -0.8240239810943604,
                "y": -0.300875300988555,
                "z": 0.16403168439865112
            }
        },
        "name": "move_to_storage_C"
    },
    "id": "ProjEST_move_to_storage_C_90",
    "joint_names": [
        "shoulder_pan_joint",
        "shoulder_lift_joint",
        "elbow_joint",
        "wrist_1_joint",
        "wrist_2_joint",
        "wrist_3_joint"
    ],
    "metrics": {
        "cart_traj_len": 0.5764254677700059,
        "distance_elbow_joint": 0.2604890012694381,
        "distance_shoulder_lift_joint": 0.1896598367135418,
        "distance_shoulder_pan_joint": 0.494584450422185,
        "distance_wrist_1_joint": 0.08860061425855636,
        "distance_wrist_2_joint": 1.0660377736572824,
        "distance_wrist_3_joint": 0.06821244506438084,
        "smoothness": 2.5376526478085547e-16,
        "time": 0.010770001999999999,
        "traj_len": 1.4722717552766487,
        "weighted_distance": 1.8597439069479391
    },
    "planner": "ProjEST",
    "start": {
        "state": {
            "elbow_joint": 2.010868315001653,
            "shoulder_lift_joint": -1.1634956873357014,
            "shoulder_pan_joint": -2.4736205022346103,
            "wrist_1_joint": -0.8367026794713948,
            "wrist_2_joint": 0.6746043897044093,
            "wrist_3_joint": 3.1335220948105738
        }
    },
    "waypoints": [
        {
            "positions": [
                -2.4736205022346103,
                -1.1634956873357014,
                2.010868315001653,
                -0.8367026794713948,
                0.6746043897044093,
                3.1335220948105738
            ]
        },
        {
            "positions": [
                -2.556051243971641,
                -1.131885714550111,
                1.9674534814567468,
                -0.821935910428302,
                0.852277351980623,
                3.1448908356546372
            ]
        },
        {
            "positions": [
                -2.638481985708672,
                -1.1002757417645208,
                1.9240386479118403,
                -0.8071691413852093,
                1.0299503142568367,
                3.1562595764987007
            ]
        },
        {
            "positions": [
                -2.720912727445703,
                -1.0686657689789305,
                1.880623814366934,
                -0.7924023723421165,
                1.2076232765330506,
                3.167628317342764
            ]
        },
        {
            "positions": [
                -2.8033434691827335,
                -1.0370557961933402,
                1.8372089808220278,
                -0.7776356032990238,
                1.3852962388092642,
                3.1789970581868277
            ]
        },
        {
            "positions": [
                -2.8857742109197644,
                -1.00544582340775,
                1.7937941472771213,
                -0.7628688342559311,
                1.5629692010854779,
                3.190365799030891
            ]
        },
        {
            "positions": [
                -2.9682049526567953,
                -0.9738358506221596,
                1.750379313732215,
                -0.7481020652128384,
                1.7406421633616915,
                3.2017345398749546
            ]
        }
    ]
}