{
    "goal": {
        "global_pose": {
            "orientation": {
                "w": 0.005598929693374612,
                "x": 0.007748599140229565,
                "y": 0.7110244013736278,
                "z": -0.7031023480610252
            },
            "position": {
                "x": -0.8858502320852131,
                "y": -0.7141253447532654,
                "z": 0.3711530566215515
            }
        },
        "name": "move_to_auspresseinheit_C"
    },
    "id": "ProjEST_move_to_auspresseinheit_C_49",
    "joint_names": [
        "shoulder_pan_joint",
        "shoulder_lift_joint",
        "elbow_joint",
        "wrist_1_joint",
        "wrist_2_joint",
        "wrist_3_joint"
    ],
    "metrics": {
        "cart_traj_len": 0.4940927555455836,
        "distance_elbow_joint": 1.0158230340766299,
        "distance_shoulder_lift_joint": 0.3324507906394769,
        "distance_shoulder_pan_joint": 0.2565925530061115,
        "distance_wrist_1_joint": 0.7133195904196252,
        "distance_wrist_2_joint": 1.3123663195957487,
        "distance_wrist_3_joint": 0.08218855958801852,
        "smoothness": 1.6148698667872622e-16,
        "time": 0.174881706,
        "traj_len": 1.9268473855823691,
        "weighted_distance": 2.4295686605891635
    },
    "planner": "ProjEST",
    "start": {
        "state": {
            "elbow_joint": 1.752795957773711,
            "shoulder_lift_joint": -0.9740617694225064,
            "shoulder_pan_joint": -2.967991417825858,
            "wrist_1_joint": -0.7595177689806859,
            "wrist_2_joint": 1.7443932448377395,
            "wrist_3_joint": 3.199131542505932
        }
    },
    "waypoints": [
        {
            "positions": [
                -2.967991417825858,
                -0.9740617694225064,
                1.752795957773711,
                -0.7595177689806859,
                1.7443932448377395,
                3.199131542505932
            ]
        },
        {
            "positions": [
                -2.942332162525247,
                -0.9408166903585587,
                1.651213654366048,
                -0.6881858099387234,
                1.6131566128781647,
                3.1909126865471302
            ]
        },
        {
            "positions": [
                -2.9166729072246356,
                -0.9075716112946111,
                1.5496313509583852,
                -0.6168538508967608,
                1.4819199809185897,
                3.1826938305883283
            ]
        },
        {
            "positions": [
                -2.8910136519240246,
                -0.8743265322306634,
                1.4480490475507222,
                -0.5455218918547984,
                1.3506833489590149,
                3.1744749746295264
            ]
        },
        {
            "positions": [
                -2.865354396623413,
                -0.8410814531667157,
                1.3464667441430591,
                -0.4741899328128358,
                1.2194467169994399,
                3.1662561186707245
            ]
        },
        {
            "positions": [
                -2.839695141322802,
                -0.807836374102768,
                1.244884440735396,
                -0.4028579737708733,
                1.088210085039865,
                3.1580372627119226
            ]
        },
        {
            "positions": [
                -2.8140358860221912,
                -0.7745912950388203,
                1.1433021373277332,
                -0.3315260147289108,
                0.9569734530802904,
                3.149818406753121
            ]
        },
        {
            "positions": [
                -2.78837663072158,
                -0.7413462159748726,
                1.0417198339200704,
                -0.26019405568694826,
                0.8257368211207154,
                3.1415995507943193
            ]
        },
        {
            "positions": [
                -2.762717375420969,
                -0.7081011369109249,
                0.9401375305124071,
                -0.18886209664498566,
                0.6945001891611404,
                3.1333806948355174
            ]
        },
        {
            "positions": [
                -2.7370581201203574,
                -0.6748560578469772,
                0.8385552271047442,
                -0.11753013760302322,
                0.5632635572015656,
                3.1251618388767155
            ]
        },
        {
            "positions": [
                -2.7113988648197465,
                -0.6416109787830295,
                0.7369729236970812,
                -0.04619817856106063,
                0.43202692524199077,
                3.1169429829179136
            ]
        }
    ]
}