{
    "goal": {
        "global_pose": {
            "orientation": {
                "w": 0.7047431468963623,
                "x": -0.7094548344612122,
                "y": 0.0024358443915843964,
                "z": -0.0022348060738295317
            },
            "position": {
                "x": 0.6094750761985779,
                "y": 0.3671506643295288,
                "z": 0.19426114857196808
            }
        },
        "name": "move_to_magneteinheit_A"
    },
    "id": "ProjEST_move_to_magneteinheit_A_96",
    "joint_names": [
        "shoulder_pan_joint",
        "shoulder_lift_joint",
        "elbow_joint",
        "wrist_1_joint",
        "wrist_2_joint",
        "wrist_3_joint"
    ],
    "metrics": {
        "cart_traj_len": 1.05196797388658,
        "distance_elbow_joint": 0.40880320450404106,
        "distance_shoulder_lift_joint": 0.35100328860341845,
        "distance_shoulder_pan_joint": 1.2409515314107746,
        "distance_wrist_1_joint": 2.320411156830798,
        "distance_wrist_2_joint": 1.7054582562343337,
        "distance_wrist_3_joint": 1.1306080306101358,
        "smoothness": 8.881784267329942e-17,
        "time": 0.038962806,
        "traj_len": 2.675301005156897,
        "weighted_distance": 3.6666498254508713
    },
    "planner": "ProjEST",
    "start": {
        "state": {
            "elbow_joint": 1.5739458966750683,
            "shoulder_lift_joint": -1.4977259741207325,
            "shoulder_pan_joint": -1.1188672016454206,
            "wrist_1_joint": 1.494575848278785,
            "wrist_2_joint": -1.5706037134824402,
            "wrist_3_joint": -2.0226957942261072
        }
    },
    "waypoints": [
        {
            "positions": [
                -1.1188672016454206,
                -1.4977259741207325,
                1.5739458966750683,
                1.494575848278785,
                -1.5706037134824402,
                -2.0226957942261072
            ]
        },
        {
            "positions": [
                -1.0535539631501167,
                -1.4792521168258157,
                1.59546185480686,
                1.3724489452876902,
                -1.4808427526280017,
                -2.082201480047693
            ]
        },
        {
            "positions": [
                -0.9882407246548128,
                -1.460778259530899,
                1.6169778129386516,
                1.2503220422965957,
                -1.391081791773563,
                -2.1417071658692795
            ]
        },
        {
            "positions": [
                -0.9229274861595089,
                -1.4423044022359823,
                1.6384937710704433,
                1.1281951393055012,
                -1.3013208309191244,
                -2.2012128516908653
            ]
        },
        {
            "positions": [
                -0.857614247664205,
                -1.4238305449410655,
                1.6600097292022349,
                1.0060682363144064,
                -1.211559870064686,
                -2.2607185375124517
            ]
        },
        {
            "positions": [
                -0.792301009168901,
                -1.4053566876461487,
                1.6815256873340265,
                0.8839413333233118,
                -1.1217989092102472,
                -2.3202242233340375
            ]
        },
        {
            "positions": [
                -0.7269877706735971,
                -1.386882830351232,
                1.7030416454658182,
                0.7618144303322172,
                -1.0320379483558084,
                -2.379729909155624
            ]
        },
        {
            "positions": [
                -0.6616745321782932,
                -1.3684089730563151,
                1.7245576035976098,
                0.6396875273411226,
                -0.9422769875013699,
                -2.4392355949772098
            ]
        },
        {
            "positions": [
                -0.5963612936829893,
                -1.3499351157613984,
                1.7460735617294014,
                0.5175606243500279,
                -0.8525160266469314,
                -2.498741280798796
            ]
        },
        {
            "positions": [
                -0.5310480551876853,
                -1.3314612584664816,
                1.767589519861193,
                0.3954337213589334,
                -0.7627550657924927,
                -2.558246966620382
            ]
        },
        {
            "positions": [
                -0.46573481669238137,
                -1.312987401171565,
                1.7891054779929847,
                0.27330681836783866,
                -0.6729941049380541,
                -2.6177526524419683
            ]
        },
        {
            "positions": [
                -0.40042157819707735,
                -1.2945135438766482,
                1.8106214361247763,
                0.1511799153767439,
                -0.5832331440836154,
                -2.677258338263554
            ]
        },
        {
            "positions": [
                -0.33510833970177356,
                -1.2760396865817314,
                1.832137394256568,
                0.02905301238564939,
                -0.49347218322917685,
                -2.73676402408514
            ]
        },
        {
            "positions": [
                -0.26979510120646955,
                -1.2575658292868146,
                1.8536533523883596,
                -0.09307389060544535,
                -0.4037112223747381,
                -2.7962697099067264
            ]
        },
        {
            "positions": [
                -0.20448186271116575,
                -1.2390919719918978,
                1.8751693105201512,
                -0.21520079359653987,
                -0.3139502615202996,
                -2.8557753957283127
            ]
        },
        {
            "positions": [
                -0.13916862421586174,
                -1.220618114696981,
                1.8966852686519429,
                -0.3373276965876346,
                -0.22418930066586107,
                -2.9152810815498986
            ]
        },
        {
            "positions": [
                -0.07385538572055794,
                -1.2021442574020642,
                1.9182012267837345,
                -0.45945459957872914,
                -0.13442833981142255,
                -2.9747867673714845
            ]
        },
        {
            "positions": [
                -0.008542147225253816,
                -1.1836704001071476,
                1.9397171849155261,
                -0.5815815025698241,
                -0.044667378956983805,
                -3.034292453193071
            ]
        },
        {
            "positions": [
                0.05677109127005009,
                -1.1651965428122308,
                1.9612331430473178,
                -0.7037084055609182,
                0.045093581897454715,
                -3.093798139014657
            ]
        },
        {
            "positions": [
                0.12208432976535398,
                -1.146722685517314,
                1.9827491011791094,
                -0.825835308552013,
                0.13485454275189349,
                -3.153303824836243
            ]
        }
    ]
}