{
    "goal": {
        "global_pose": {
            "orientation": {
                "w": 0.7047431493862688,
                "x": -0.7094548369677653,
                "y": 0.0024358444001904,
                "z": -0.0022348060817251984
            },
            "position": {
                "x": -0.39052492380142206,
                "y": 0.3671506643295288,
                "z": 0.19426114857196808
            }
        },
        "name": "move_to_magneteinheit_D"
    },
    "id": "ProjEST_move_to_magneteinheit_D_43",
    "joint_names": [
        "shoulder_pan_joint",
        "shoulder_lift_joint",
        "elbow_joint",
        "wrist_1_joint",
        "wrist_2_joint",
        "wrist_3_joint"
    ],
    "metrics": {
        "cart_traj_len": 4.235275162498722,
        "distance_elbow_joint": 3.3848091707701395,
        "distance_shoulder_lift_joint": 1.6341535178468956,
        "distance_shoulder_pan_joint": 3.0511059292327687,
        "distance_wrist_1_joint": 3.0427358756092575,
        "distance_wrist_2_joint": 1.134067307998146,
        "distance_wrist_3_joint": 3.1363319072721887,
        "smoothness": 0.3862491957181438,
        "time": 0.360204931,
        "traj_len": 3.922142744563155,
        "weighted_distance": 5.082585041775611
    },
    "planner": "ProjEST",
    "start": {
        "state": {
            "elbow_joint": 0.7495348899011973,
            "shoulder_lift_joint": -0.6476975780737697,
            "shoulder_pan_joint": -2.711696901376276,
            "wrist_1_joint": -0.07506478080974305,
            "wrist_2_joint": 0.4329665971545858,
            "wrist_3_joint": 3.1361499051832524
        }
    },
    "waypoints": [
        {
            "positions": [
                -2.711696901376276,
                -0.6476975780737697,
                0.7495348899011973,
                -0.07506478080974305,
                0.4329665971545858,
                3.1361499051832524
            ]
        },
        {
            "positions": [
                -2.7234437217919023,
                -0.688343337838106,
                0.7776867461508178,
                0.07576312019831621,
                0.34570782812962525,
                3.101949760606193
            ]
        },
        {
            "positions": [
                -2.7351905422075284,
                -0.7289890976024422,
                0.8058386024004383,
                0.22659102120637548,
                0.2584490591046647,
                3.0677496160291335
            ]
        },
        {
            "positions": [
                -2.7114283809224173,
                -0.7847860781077555,
                0.8204578870657705,
                0.30978928954983653,
                0.1861017172120633,
                2.9323012406433566
            ]
        },
        {
            "positions": [
                -2.6876662196373067,
                -0.8405830586130687,
                0.8350771717311029,
                0.39298755789329753,
                0.11375437531946192,
                2.7968528652575797
            ]
        },
        {
            "positions": [
                -2.6639040583521956,
                -0.896380039118382,
                0.8496964563964351,
                0.47618582623675854,
                0.04140703342686053,
                2.6614044898718023
            ]
        },
        {
            "positions": [
                -2.640141897067085,
                -0.9521770196236953,
                0.8643157410617675,
                0.5593840945802196,
                -0.030940308465740862,
                2.5259561144860254
            ]
        },
        {
            "positions": [
                -2.616379735781974,
                -1.0079740001290085,
                0.8789350257270997,
                0.6425823629236807,
                -0.10328765035834227,
                2.3905077391002485
            ]
        },
        {
            "positions": [
                -2.535364435028664,
                -1.0459255360713227,
                0.8586117643883818,
                0.5832182482529791,
                -0.11668174706479524,
                2.2200695222707916
            ]
        },
        {
            "positions": [
                -2.4543491342753545,
                -1.0838770720136368,
                0.8382885030496641,
                0.5238541335822775,
                -0.1300758437712482,
                2.0496313054413346
            ]
        },
        {
            "positions": [
                -2.373333833522045,
                -1.121828607955951,
                0.8179652417109462,
                0.46449001891157604,
                -0.14346994047770117,
                1.8791930886118775
            ]
        },
        {
            "positions": [
                -2.292318532768735,
                -1.1597801438982651,
                0.7976419803722283,
                0.40512590424087447,
                -0.15686403718415415,
                1.7087548717824206
            ]
        },
        {
            "positions": [
                -2.2113032320154256,
                -1.1977316798405795,
                0.7773187190335105,
                0.3457617895701729,
                -0.17025813389060712,
                1.5383166549529634
            ]
        },
        {
            "positions": [
                -2.1302879312621155,
                -1.2356832157828936,
                0.7569954576947926,
                0.2863976748994714,
                -0.1836522305970601,
                1.3678784381235065
            ]
        },
        {
            "positions": [
                -2.049272630508806,
                -1.2736347517252078,
                0.7366721963560748,
                0.2270335602287698,
                -0.19704632730351307,
                1.1974402212940494
            ]
        },
        {
            "positions": [
                -1.9682573297554964,
                -1.311586287667522,
                0.716348935017357,
                0.1676694455580683,
                -0.21044042400996602,
                1.0270020044645927
            ]
        },
        {
            "positions": [
                -1.8872420290021865,
                -1.349537823609836,
                0.6960256736786391,
                0.10830533088736671,
                -0.223834520716419,
                0.8565637876351355
            ]
        },
        {
            "positions": [
                -1.8062267282488769,
                -1.3874893595521502,
                0.6757024123399213,
                0.04894121621666514,
                -0.237228617422872,
                0.6861255708056784
            ]
        },
        {
            "positions": [
                -1.7252114274955672,
                -1.4254408954944644,
                0.6553791510012035,
                -0.010422898454036322,
                -0.2506227141293249,
                0.5156873539762217
            ]
        },
        {
            "positions": [
                -1.6441961267422576,
                -1.4633924314367786,
                0.6350558896624856,
                -0.0697870131247379,
                -0.2640168108357779,
                0.34524913714676475
            ]
        },
        {
            "positions": [
                -1.5380658708519306,
                -1.5020686085073303,
                0.4796089776472426,
                0.00717535666834776,
                -0.24956297068760458,
                0.3433573506223736
            ]
        },
        {
            "positions": [
                -1.4319356149616034,
                -1.540744785577882,
                0.32416206563199956,
                0.08413772646143342,
                -0.23510913053943128,
                0.3414655640979824
            ]
        },
        {
            "positions": [
                -1.3258053590712764,
                -1.5794209626484335,
                0.16871515361675654,
                0.16110009625451907,
                -0.22065529039125797,
                0.33957377757359125
            ]
        },
        {
            "positions": [
                -1.2196751031809494,
                -1.6180971397189852,
                0.01326824160151352,
                0.23806246604760473,
                -0.20620145024308467,
                0.3376819910492001
            ]
        },
        {
            "positions": [
                -1.1135448472906222,
                -1.6567733167895369,
                -0.14217867041372956,
                0.3150248358406904,
                -0.19174761009491137,
                0.3357902045248089
            ]
        },
        {
            "positions": [
                -1.0074145914002952,
                -1.6954494938600884,
                -0.2976255824289725,
                0.39198720563377604,
                -0.17729376994673804,
                0.33389841800041775
            ]
        },
        {
            "positions": [
                -0.9012843355099682,
                -1.73412567093064,
                -0.4530724944442155,
                0.46894957542686166,
                -0.16283992979856474,
                0.3320066314760266
            ]
        },
        {
            "positions": [
                -0.7951540796196411,
                -1.7728018480011918,
                -0.6085194064594586,
                0.5459119452199473,
                -0.14838608965039143,
                0.33011484495163546
            ]
        },
        {
            "positions": [
                -0.689023823729314,
                -1.8114780250717435,
                -0.7639663184747016,
                0.622874315013033,
                -0.13393224950221813,
                0.32822305842724425
            ]
        },
        {
            "positions": [
                -0.582893567838987,
                -1.8501542021422952,
                -0.9194132304899447,
                0.6998366848061187,
                -0.11947840935404483,
                0.3263312719028531
            ]
        },
        {
            "positions": [
                -0.47676331194866006,
                -1.8888303792128467,
                -1.0748601425051876,
                0.7767990545992043,
                -0.10502456920587153,
                0.32443948537846196
            ]
        },
        {
            "positions": [
                -0.37063305605833285,
                -1.9275065562833984,
                -1.2303070545204307,
                0.85376142439229,
                -0.0905707290576982,
                0.32254769885407075
            ]
        },
        {
            "positions": [
                -0.26450280016800587,
                -1.96618273335395,
                -1.3857539665356737,
                0.9307237941853755,
                -0.0761168889095249,
                0.3206559123296796
            ]
        },
        {
            "positions": [
                -0.15837254427767888,
                -2.0048589104245016,
                -1.5412008785509166,
                1.0076861639784611,
                -0.06166304876135159,
                0.31876412580528846
            ]
        },
        {
            "positions": [
                -0.052242288387351676,
                -2.0435350874950533,
                -1.6966477905661599,
                1.084648533771547,
                -0.04720920861317829,
                0.31687233928089725
            ]
        },
        {
            "positions": [
                0.053887967502975406,
                -2.082211264565605,
                -1.8520947025814025,
                1.1616109035646325,
                -0.03275536846500497,
                0.3149805527565061
            ]
        },
        {
            "positions": [
                0.03135621919455421,
                -2.123998831292623,
                -1.9703856370647475,
                1.254105033872251,
                0.00544086699046889,
                0.2810995927250919
            ]
        },
        {
            "positions": [
                0.008824470886133008,
                -2.165786398019641,
                -2.0886765715480924,
                1.3465991641798696,
                0.04363710244594275,
                0.24721863269367764
            ]
        },
        {
            "positions": [
                -0.013707277422288194,
                -2.2075739647466586,
                -2.2069675060314373,
                1.4390932944874881,
                0.08183333790141661,
                0.2133376726622634
            ]
        },
        {
            "positions": [
                -0.03623902573070939,
                -2.2493615314736766,
                -2.3252584405147823,
                1.5315874247951067,
                0.12002957335689049,
                0.17945671263084917
            ]
        },
        {
            "positions": [
                -0.11044241845937365,
                -2.265606313697171,
                -2.3508662248659595,
                1.5259149658413214,
                0.14654833126444755,
                0.08963735527095562
            ]
        },
        {
            "positions": [
                -0.1846458111880379,
                -2.2818510959206653,
                -2.3764740092171364,
                1.5202425068875358,
                0.17306708917200464,
                -0.00018200208893792957
            ]
        }
    ]
}