{
    "goal": {
        "global_pose": {
            "orientation": {
                "w": 0.5084816262002911,
                "x": -0.4908360881923452,
                "y": 0.5182115481033761,
                "z": -0.48164630358495003
            },
            "position": {
                "x": 0.5540239810943604,
                "y": -0.46912469901144505,
                "z": 0.16403168439865112
            }
        },
        "name": "move_to_storage_B"
    },
    "id": "ProjEST_move_to_storage_B_125",
    "joint_names": [
        "shoulder_pan_joint",
        "shoulder_lift_joint",
        "elbow_joint",
        "wrist_1_joint",
        "wrist_2_joint",
        "wrist_3_joint"
    ],
    "metrics": {
        "cart_traj_len": 1.3414908246904087,
        "distance_elbow_joint": 1.2573285583739164,
        "distance_shoulder_lift_joint": 0.4613420191921467,
        "distance_shoulder_pan_joint": 1.241264464029986,
        "distance_wrist_1_joint": 2.993796436356528,
        "distance_wrist_2_joint": 2.720380410011282,
        "distance_wrist_3_joint": 3.1522899076338047,
        "smoothness": 0.17887516209983412,
        "time": 0.144933395,
        "traj_len": 3.4389535902070074,
        "weighted_distance": 4.88315046432455
    },
    "planner": "ProjEST",
    "start": {
        "state": {
            "elbow_joint": 1.6649325706314817,
            "shoulder_lift_joint": -0.6616388048112454,
            "shoulder_pan_joint": -0.9139837860083814,
            "wrist_1_joint": 2.146757197745094,
            "wrist_2_joint": -2.234196043158733,
            "wrist_3_joint": 0.005471033829999897
        }
    },
    "waypoints": [
        {
            "positions": [
                -0.9139837860083814,
                -0.6616388048112454,
                1.6649325706314817,
                2.146757197745094,
                -2.234196043158733,
                0.005471033829999897
            ]
        },
        {
            "positions": [
                -0.8476813226677739,
                -0.6854808873442833,
                1.6084722747117253,
                2.0531447588940384,
                -2.1276862417284708,
                0.03512502965370812
            ]
        },
        {
            "positions": [
                -0.7813788593271663,
                -0.7093229698773211,
                1.5520119787919688,
                1.9595323200429824,
                -2.0211764402982086,
                0.06477902547741635
            ]
        },
        {
            "positions": [
                -0.7150763959865588,
                -0.733165052410359,
                1.4955516828722124,
                1.8659198811919264,
                -1.9146666388679467,
                0.09443302130112456
            ]
        },
        {
            "positions": [
                -0.6487739326459513,
                -0.7570071349433969,
                1.4390913869524562,
                1.7723074423408707,
                -1.8081568374376846,
                0.12408701712483279
            ]
        },
        {
            "positions": [
                -0.5824714693053438,
                -0.7808492174764348,
                1.3826310910326995,
                1.6786950034898147,
                -1.7016470360074225,
                0.153741012948541
            ]
        },
        {
            "positions": [
                -0.5161690059647362,
                -0.8046913000094726,
                1.3261707951129433,
                1.5850825646387587,
                -1.5951372345771606,
                0.1833950087722492
            ]
        },
        {
            "positions": [
                -0.44986654262412873,
                -0.8285333825425105,
                1.269710499193187,
                1.491470125787703,
                -1.4886274331468985,
                0.21304900459595744
            ]
        },
        {
            "positions": [
                -0.38356407928352115,
                -0.8523754650755484,
                1.2132502032734305,
                1.397857686936647,
                -1.3821176317166364,
                0.24270300041966567
            ]
        },
        {
            "positions": [
                -0.41447037307939616,
                -0.8641409154637155,
                1.2482782985349898,
                1.3002534727823827,
                -1.3008871100397152,
                0.3694446500302804
            ]
        },
        {
            "positions": [
                -0.4453766668752712,
                -0.8759063658518826,
                1.2833063937965492,
                1.2026492586281183,
                -1.2196565883627941,
                0.4961862996408951
            ]
        },
        {
            "positions": [
                -0.4762829606711462,
                -0.8876718162400498,
                1.3183344890581086,
                1.105045044473854,
                -1.1384260666858728,
                0.6229279492515098
            ]
        },
        {
            "positions": [
                -0.5071892544670212,
                -0.8994372666282169,
                1.353362584319668,
                1.0074408303195896,
                -1.0571955450089516,
                0.7496695988621245
            ]
        },
        {
            "positions": [
                -0.5380955482628963,
                -0.911202717016384,
                1.3883906795812273,
                0.9098366161653253,
                -0.9759650233320305,
                0.8764112484727392
            ]
        },
        {
            "positions": [
                -0.5690018420587712,
                -0.9229681674045511,
                1.4234187748427867,
                0.812232402011061,
                -0.8947345016551094,
                1.003152898083354
            ]
        },
        {
            "positions": [
                -0.5999081358546463,
                -0.9347336177927182,
                1.458446870104346,
                0.7146281878567965,
                -0.8135039799781881,
                1.1298945476939688
            ]
        },
        {
            "positions": [
                -0.6308144296505214,
                -0.9464990681808854,
                1.4934749653659054,
                0.6170239737025321,
                -0.732273458301267,
                1.2566361973045834
            ]
        },
        {
            "positions": [
                -0.6617207234463964,
                -0.9582645185690525,
                1.5285030606274648,
                0.5194197595482678,
                -0.6510429366243459,
                1.3833778469151983
            ]
        },
        {
            "positions": [
                -0.6926270172422714,
                -0.9700299689572196,
                1.5635311558890241,
                0.42181554539400345,
                -0.5698124149474247,
                1.510119496525813
            ]
        },
        {
            "positions": [
                -0.7235333110381464,
                -0.9817954193453866,
                1.5985592511505833,
                0.324211331239739,
                -0.4885818932705035,
                1.6368611461364277
            ]
        },
        {
            "positions": [
                -0.7544396048340214,
                -0.9935608697335538,
                1.6335873464121429,
                0.22660711708547487,
                -0.40735137159358237,
                1.7636027957470424
            ]
        },
        {
            "positions": [
                -0.7853458986298965,
                -1.0053263201217209,
                1.668615441673702,
                0.12900290293121053,
                -0.32612084991666124,
                1.890344445357657
            ]
        },
        {
            "positions": [
                -0.8162521924257715,
                -1.017091770509888,
                1.7036435369352616,
                0.03139868877694596,
                -0.24489032823973989,
                2.017086094968272
            ]
        },
        {
            "positions": [
                -0.8471584862216466,
                -1.028857220898055,
                1.7386716321968207,
                -0.06620552537731839,
                -0.16365980656281875,
                2.1438277445788865
            ]
        },
        {
            "positions": [
                -0.8780647800175215,
                -1.0406226712862223,
                1.7736997274583801,
                -0.16380973953158273,
                -0.08242928488589762,
                2.270569394189501
            ]
        },
        {
            "positions": [
                -0.9089710738133965,
                -1.0523881216743893,
                1.8087278227199395,
                -0.26141395368584686,
                -0.0011987632089764944,
                2.3973110438001157
            ]
        },
        {
            "positions": [
                -0.9398773676092715,
                -1.0641535720625566,
                1.843755917981499,
                -0.3590181678401114,
                0.08003175846794464,
                2.524052693410731
            ]
        },
        {
            "positions": [
                -0.9707836614051466,
                -1.0759190224507236,
                1.8787840132430582,
                -0.45662238199437577,
                0.16126228014486577,
                2.6507943430213454
            ]
        },
        {
            "positions": [
                -1.0016899552010217,
                -1.0876844728388906,
                1.9138121085046176,
                -0.5542265961486401,
                0.2424928018217869,
                2.77753599263196
            ]
        },
        {
            "positions": [
                -1.0325962489968965,
                -1.0994499232270578,
                1.948840203766177,
                -0.6518308103029045,
                0.323723323498708,
                2.9042776422425747
            ]
        },
        {
            "positions": [
                -1.0635025427927718,
                -1.111215373615225,
                1.9838682990277363,
                -0.749435024457169,
                0.4049538451756294,
                3.0310192918531897
            ]
        },
        {
            "positions": [
                -1.0944088365886466,
                -1.122980824003392,
                2.0188963942892957,
                -0.8470392386114333,
                0.48618436685255045,
                3.1577609414638044
            ]
        }
    ]
}