{
    "goal": {
        "global_pose": {
            "orientation": {
                "w": 0.005598929693374612,
                "x": 0.007748599140229565,
                "y": 0.7110244013736278,
                "z": -0.7031023480610252
            },
            "position": {
                "x": 0.1141497679147869,
                "y": -0.7141253447532654,
                "z": 0.3711530566215515
            }
        },
        "name": "move_to_auspresseinheit_B"
    },
    "id": "ProjEST_move_to_auspresseinheit_B_150",
    "joint_names": [
        "shoulder_pan_joint",
        "shoulder_lift_joint",
        "elbow_joint",
        "wrist_1_joint",
        "wrist_2_joint",
        "wrist_3_joint"
    ],
    "metrics": {
        "cart_traj_len": 0.5654475483484483,
        "distance_elbow_joint": 0.06625013012171266,
        "distance_shoulder_lift_joint": 0.2940854802488422,
        "distance_shoulder_pan_joint": 0.5782556221098643,
        "distance_wrist_1_joint": 0.33654934813181003,
        "distance_wrist_2_joint": 0.9885349652830298,
        "distance_wrist_3_joint": 0.009936395220952576,
        "smoothness": 8.881784234277638e-16,
        "time": 0.064101345,
        "traj_len": 1.5078501056524853,
        "weighted_distance": 1.9022536752423311
    },
    "planner": "ProjEST",
    "start": {
        "state": {
            "elbow_joint": 2.019306165916698,
            "shoulder_lift_joint": -1.1220205098164344,
            "shoulder_pan_joint": -1.095207207618794,
            "wrist_1_joint": -0.8559671824921639,
            "wrist_2_joint": 0.47596387242952726,
            "wrist_3_joint": 3.159081874673826
        }
    },
    "waypoints": [
        {
            "positions": [
                -1.095207207618794,
                -1.1220205098164344,
                2.019306165916698,
                -0.8559671824921639,
                0.47596387242952726,
                3.159081874673826
            ]
        },
        {
            "positions": [
                -1.1915831446371046,
                -1.1710347565245747,
                2.0082644775630794,
                -0.7998756244701956,
                0.6407196999766989,
                3.157425808803667
            ]
        },
        {
            "positions": [
                -1.2879590816554154,
                -1.2200490032327151,
                1.9972227892094605,
                -0.7437840664482271,
                0.8054755275238705,
                3.1557697429335083
            ]
        },
        {
            "positions": [
                -1.3843350186737262,
                -1.2690632499408556,
                1.9861811008558417,
                -0.6876925084262588,
                0.9702313550710422,
                3.1541136770633496
            ]
        },
        {
            "positions": [
                -1.4807109556920368,
                -1.3180774966489959,
                1.9751394125022228,
                -0.6316009504042905,
                1.1349871826182136,
                3.152457611193191
            ]
        },
        {
            "positions": [
                -1.5770868927103474,
                -1.3670917433571361,
                1.9640977241486042,
                -0.5755093923823221,
                1.2997430101653855,
                3.150801545323032
            ]
        },
        {
            "positions": [
                -1.6734628297286582,
                -1.4161059900652766,
                1.9530560357949853,
                -0.5194178343603538,
                1.464498837712557,
                3.1491454794528733
            ]
        }
    ]
}