{
    "goal": {
        "global_pose": {
            "orientation": {
                "w": 0.7031023502349854,
                "x": -0.7110244035720825,
                "y": 0.007748599164187908,
                "z": 0.005598929710686207
            },
            "position": {
                "x": 0.11585023208521307,
                "y": 0.44412534475326537,
                "z": 0.3711530566215515
            }
        },
        "name": "move_to_auspresseinheit_A"
    },
    "id": "ProjEST_move_to_auspresseinheit_A_43",
    "joint_names": [
        "shoulder_pan_joint",
        "shoulder_lift_joint",
        "elbow_joint",
        "wrist_1_joint",
        "wrist_2_joint",
        "wrist_3_joint"
    ],
    "metrics": {
        "cart_traj_len": 0.8226617468535949,
        "distance_elbow_joint": 0.15949775570363078,
        "distance_shoulder_lift_joint": 0.9086498862260624,
        "distance_shoulder_pan_joint": 1.0405513560795603,
        "distance_wrist_1_joint": 1.1266003066899672,
        "distance_wrist_2_joint": 0.6501475971197078,
        "distance_wrist_3_joint": 0.682034309736002,
        "smoothness": 1.5215426669546006,
        "time": 0.142533648,
        "traj_len": 2.137166631677308,
        "weighted_distance": 2.776382130549865
    },
    "planner": "ProjEST",
    "start": {
        "state": {
            "elbow_joint": 2.4225747245308327,
            "shoulder_lift_joint": -1.373653427065438,
            "shoulder_pan_joint": -0.33786330853087027,
            "wrist_1_joint": -1.0288602302712604,
            "wrist_2_joint": 1.23302299562683,
            "wrist_3_joint": -3.094021725338297
        }
    },
    "waypoints": [
        {
            "positions": [
                -0.33786330853087027,
                -1.373653427065438,
                2.4225747245308327,
                -1.0288602302712604,
                1.23302299562683,
                -3.094021725338297
            ]
        },
        {
            "positions": [
                -0.23556354050720113,
                -1.4457284381113877,
                2.4289705321854074,
                -0.9437130341254043,
                1.1737587923004795,
                -3.0624629389562763
            ]
        },
        {
            "positions": [
                -0.13326377248353202,
                -1.5178034491573373,
                2.435366339839982,
                -0.8585658379795482,
                1.114494588974129,
                -3.030904152574255
            ]
        },
        {
            "positions": [
                -0.030964004459862915,
                -1.5898784602032872,
                2.4417621474945572,
                -0.7734186418336921,
                1.0552303856477785,
                -2.9993453661922342
            ]
        },
        {
            "positions": [
                0.07133576356380622,
                -1.661953471249237,
                2.448157955149132,
                -0.688271445687836,
                0.9959661823214281,
                -2.967786579810213
            ]
        },
        {
            "positions": [
                0.1736355315874753,
                -1.7340284822951868,
                2.4545537628037066,
                -0.60312424954198,
                0.9367019789950776,
                -2.936227793428192
            ]
        },
        {
            "positions": [
                0.27593529961114444,
                -1.8061034933411364,
                2.4609495704582813,
                -0.5179770533961239,
                0.877437775668727,
                -2.9046690070461714
            ]
        },
        {
            "positions": [
                0.37823506763481346,
                -1.8781785043870862,
                2.467345378112856,
                -0.4328298572502678,
                0.8181735723423766,
                -2.87311022066415
            ]
        },
        {
            "positions": [
                0.4805348356584827,
                -1.9502535154330358,
                2.473741185767431,
                -0.3476826611044117,
                0.7589093690160261,
                -2.8415514342821293
            ]
        },
        {
            "positions": [
                0.5828346036821517,
                -2.0223285264789856,
                2.480136993422006,
                -0.2625354649585556,
                0.6996451656896756,
                -2.809992647900108
            ]
        },
        {
            "positions": [
                0.6851343717058208,
                -2.0944035375249355,
                2.4865328010765806,
                -0.17738826881269953,
                0.6403809623633252,
                -2.7784338615180872
            ]
        },
        {
            "positions": [
                0.6909855969867772,
                -2.0317702789360803,
                2.4546862413572863,
                -0.26909771722316833,
                0.6595494836487262,
                -2.900582676823351
            ]
        },
        {
            "positions": [
                0.6968368222677336,
                -1.9691370203472256,
                2.422839681637992,
                -0.36080716563363713,
                0.6787180049341273,
                -3.0227314921286155
            ]
        },
        {
            "positions": [
                0.70268804754869,
                -1.9065037617583707,
                2.3909931219186977,
                -0.452516614044106,
                0.6978865262195283,
                -3.1448803074338794
            ]
        }
    ]
}