{
    "goal": {
        "global_pose": {
            "orientation": {
                "w": 0.005598929693374612,
                "x": 0.007748599140229565,
                "y": 0.7110244013736278,
                "z": -0.7031023480610252
            },
            "position": {
                "x": -0.8858502320852131,
                "y": -0.7141253447532654,
                "z": 0.3711530566215515
            }
        },
        "name": "move_to_auspresseinheit_C"
    },
    "id": "ProjEST_move_to_auspresseinheit_C_3",
    "joint_names": [
        "shoulder_pan_joint",
        "shoulder_lift_joint",
        "elbow_joint",
        "wrist_1_joint",
        "wrist_2_joint",
        "wrist_3_joint"
    ],
    "metrics": {
        "cart_traj_len": 0.4936345980174093,
        "distance_elbow_joint": 1.0049933132955147,
        "distance_shoulder_lift_joint": 0.3276729182511382,
        "distance_shoulder_pan_joint": 0.25556540112820825,
        "distance_wrist_1_joint": 0.6751304275414741,
        "distance_wrist_2_joint": 1.3208756662458203,
        "distance_wrist_3_joint": 0.0445245498957525,
        "smoothness": 9.689219149575433e-16,
        "time": 0.6067753140000001,
        "traj_len": 1.9049310424154224,
        "weighted_distance": 2.3903592763299635
    },
    "planner": "ProjEST",
    "start": {
        "state": {
            "elbow_joint": 1.752795957773711,
            "shoulder_lift_joint": -0.9740617694225064,
            "shoulder_pan_joint": -2.967991417825858,
            "wrist_1_joint": -0.7595177689806859,
            "wrist_2_joint": 1.7443932448377395,
            "wrist_3_joint": 3.199131542505932
        }
    },
    "waypoints": [
        {
            "positions": [
                -2.967991417825858,
                -0.9740617694225064,
                1.752795957773711,
                -0.7595177689806859,
                1.7443932448377395,
                3.199131542505932
            ]
        },
        {
            "positions": [
                -2.942434877713037,
                -0.9412944775973926,
                1.6522966264441596,
                -0.6920047262265385,
                1.6123056782131575,
                3.1946790875163567
            ]
        },
        {
            "positions": [
                -2.9168783376002163,
                -0.9085271857722788,
                1.5517972951146082,
                -0.624491683472391,
                1.4802181115885755,
                3.1902266325267816
            ]
        },
        {
            "positions": [
                -2.8913217974873957,
                -0.875759893947165,
                1.4512979637850567,
                -0.5569786407182437,
                1.3481305449639933,
                3.1857741775372066
            ]
        },
        {
            "positions": [
                -2.8657652573745747,
                -0.8429926021220512,
                1.3507986324555052,
                -0.4894655979640962,
                1.2160429783394113,
                3.181321722547631
            ]
        },
        {
            "positions": [
                -2.8402087172617536,
                -0.8102253102969373,
                1.2502993011259538,
                -0.42195255520994884,
                1.0839554117148293,
                3.1768692675580557
            ]
        },
        {
            "positions": [
                -2.814652177148933,
                -0.7774580184718235,
                1.1497999697964023,
                -0.35443951245580146,
                0.9518678450902474,
                3.1724168125684806
            ]
        },
        {
            "positions": [
                -2.7890956370361124,
                -0.7446907266467098,
                1.0493006384668508,
                -0.28692646970165403,
                0.8197802784656654,
                3.1679643575789056
            ]
        },
        {
            "positions": [
                -2.7635390969232914,
                -0.7119234348215959,
                0.9488013071372994,
                -0.21941342694750654,
                0.6876927118410832,
                3.16351190258933
            ]
        },
        {
            "positions": [
                -2.7379825568104703,
                -0.6791561429964821,
                0.8483019758077479,
                -0.15190038419335916,
                0.5556051452165012,
                3.1590594475997547
            ]
        },
        {
            "positions": [
                -2.7124260166976497,
                -0.6463888511713682,
                0.7478026444781966,
                -0.08438734143921178,
                0.4235175785919192,
                3.1546069926101796
            ]
        }
    ]
}