{
    "goal": {
        "global_pose": {
            "orientation": {
                "w": 0.7031023480610252,
                "x": -0.7110244013736278,
                "y": 0.0077485991402295624,
                "z": 0.005598929693374583
            },
            "position": {
                "x": -0.8841497679147869,
                "y": 0.44412534475326537,
                "z": 0.3711530566215515
            }
        },
        "name": "move_to_auspresseinheit_D"
    },
    "id": "ProjEST_move_to_auspresseinheit_D_114",
    "joint_names": [
        "shoulder_pan_joint",
        "shoulder_lift_joint",
        "elbow_joint",
        "wrist_1_joint",
        "wrist_2_joint",
        "wrist_3_joint"
    ],
    "metrics": {
        "cart_traj_len": 3.7065051122888004,
        "distance_elbow_joint": 3.0278432423022137,
        "distance_shoulder_lift_joint": 1.2270624829793548,
        "distance_shoulder_pan_joint": 2.7973842741772783,
        "distance_wrist_1_joint": 2.057379192447855,
        "distance_wrist_2_joint": 1.3263347383619486,
        "distance_wrist_3_joint": 4.0206299239669105,
        "smoothness": 0.20121836366569715,
        "time": 0.154476665,
        "traj_len": 3.802188035097102,
        "weighted_distance": 5.087396940772284
    },
    "planner": "ProjEST",
    "start": {
        "state": {
            "elbow_joint": 1.8268400409724999,
            "shoulder_lift_joint": -1.0144045787793008,
            "shoulder_pan_joint": 2.6280239544362485,
            "wrist_1_joint": -0.790705565816056,
            "wrist_2_joint": 1.0573557467365533,
            "wrist_3_joint": 3.1851377467193758
        }
    },
    "waypoints": [
        {
            "positions": [
                2.6280239544362485,
                -1.0144045787793008,
                1.8268400409724999,
                -0.790705565816056,
                1.0573557467365533,
                3.1851377467193758
            ]
        },
        {
            "positions": [
                2.6002900720909006,
                -1.030256182824773,
                1.7627653968484618,
                -0.8046185235216843,
                0.9555843700514798,
                3.0597677576837445
            ]
        },
        {
            "positions": [
                2.5725561897455527,
                -1.0461077868702449,
                1.6986907527244237,
                -0.8185314812273126,
                0.8538129933664064,
                2.934397768648113
            ]
        },
        {
            "positions": [
                2.5448223074002048,
                -1.061959390915717,
                1.6346161086003856,
                -0.8324444389329408,
                0.7520416166813328,
                2.8090277796124816
            ]
        },
        {
            "positions": [
                2.5088660424292555,
                -1.0830323700946622,
                1.5852747880880123,
                -0.8722408559270926,
                0.6709279632581475,
                2.671899127689396
            ]
        },
        {
            "positions": [
                2.472909777458306,
                -1.1041053492736075,
                1.5359334675756389,
                -0.9120372729212443,
                0.5898143098349623,
                2.534770475766311
            ]
        },
        {
            "positions": [
                2.4369535124873565,
                -1.1251783284525525,
                1.4865921470632655,
                -0.9518336899153959,
                0.5087006564117771,
                2.3976418238432258
            ]
        },
        {
            "positions": [
                2.400997247516407,
                -1.1462513076314977,
                1.437250826550892,
                -0.9916301069095476,
                0.42758700298859176,
                2.260513171920141
            ]
        },
        {
            "positions": [
                2.365040982545458,
                -1.167324286810443,
                1.3879095060385187,
                -1.0314265239036993,
                0.3464733495654065,
                2.123384519997055
            ]
        },
        {
            "positions": [
                2.3290847175745086,
                -1.188397265989388,
                1.3385681855261453,
                -1.0712229408978509,
                0.2653596961422212,
                1.98625586807397
            ]
        },
        {
            "positions": [
                2.2931284526035594,
                -1.2094702451683332,
                1.289226865013772,
                -1.1110193578920027,
                0.18424604271903589,
                1.8491272161508845
            ]
        },
        {
            "positions": [
                2.25717218763261,
                -1.2305432243472785,
                1.2398855445013985,
                -1.1508157748861543,
                0.10313238929585067,
                1.7119985642277995
            ]
        },
        {
            "positions": [
                2.221215922661661,
                -1.2516162035262237,
                1.1905442239890252,
                -1.190612191880306,
                0.02201873587266534,
                1.574869912304714
            ]
        },
        {
            "positions": [
                2.185259657690711,
                -1.272689182705169,
                1.1412029034766518,
                -1.2304086088744577,
                -0.059094917550519876,
                1.4377412603816286
            ]
        },
        {
            "positions": [
                2.149303392719762,
                -1.293762161884114,
                1.0918615829642784,
                -1.2702050258686093,
                -0.1402085709737051,
                1.3006126084585437
            ]
        },
        {
            "positions": [
                2.1133471277488125,
                -1.3148351410630592,
                1.042520262451905,
                -1.310001442862761,
                -0.22132222439689048,
                1.1634839565354582
            ]
        },
        {
            "positions": [
                2.01409897785795,
                -1.3551234854411287,
                0.9449757640266172,
                -1.3768746304888981,
                -0.21925019103912932,
                1.2503959623521101
            ]
        },
        {
            "positions": [
                1.914850827967087,
                -1.395411829819198,
                0.8474312656013294,
                -1.443747818115035,
                -0.21717815768136814,
                1.337307968168762
            ]
        },
        {
            "positions": [
                1.8156026780762242,
                -1.4357001741972675,
                0.7498867671760416,
                -1.510621005741172,
                -0.21510612432360698,
                1.4242199739854138
            ]
        },
        {
            "positions": [
                1.7163545281853616,
                -1.4759885185753367,
                0.652342268750754,
                -1.577494193367309,
                -0.2130340909658458,
                1.5111319798020657
            ]
        },
        {
            "positions": [
                1.617106378294499,
                -1.5162768629534062,
                0.5547977703254662,
                -1.6443673809934458,
                -0.21096205760808465,
                1.5980439856187176
            ]
        },
        {
            "positions": [
                1.5178582284036362,
                -1.5565652073314757,
                0.4572532719001784,
                -1.7112405686195826,
                -0.20889002425032346,
                1.6849559914353693
            ]
        },
        {
            "positions": [
                1.4186100785127733,
                -1.596853551709545,
                0.3597087734748906,
                -1.7781137562457197,
                -0.2068179908925623,
                1.7718679972520213
            ]
        },
        {
            "positions": [
                1.3193619286219107,
                -1.6371418960876145,
                0.26216427504960294,
                -1.8449869438718567,
                -0.20474595753480113,
                1.8587800030686732
            ]
        },
        {
            "positions": [
                1.2201137787310479,
                -1.677430240465684,
                0.16461977662431504,
                -1.9118601314979937,
                -0.20267392417703997,
                1.9456920088853251
            ]
        },
        {
            "positions": [
                1.1208656288401853,
                -1.7177185848437533,
                0.06707527819902737,
                -1.9787333191241305,
                -0.2006018908192788,
                2.032604014701977
            ]
        },
        {
            "positions": [
                1.0216174789493224,
                -1.7580069292218228,
                -0.03046922022626042,
                -2.045606506750268,
                -0.19852985746151763,
                2.119516020518629
            ]
        },
        {
            "positions": [
                0.9223693290584598,
                -1.798295273599892,
                -0.1280137186515482,
                -2.1124796943764044,
                -0.19645782410375645,
                2.2064280263352805
            ]
        },
        {
            "positions": [
                0.8231211791675972,
                -1.8385836179779615,
                -0.22555821707683577,
                -2.1793528820025414,
                -0.1943857907459953,
                2.2933400321519324
            ]
        },
        {
            "positions": [
                0.7238730292767341,
                -1.878871962356031,
                -0.32310271550212377,
                -2.2462260696286784,
                -0.1923137573882341,
                2.3802520379685843
            ]
        },
        {
            "positions": [
                0.6246248793858715,
                -1.9191603067341003,
                -0.42064721392741156,
                -2.313099257254815,
                -0.19024172403047296,
                2.4671640437852362
            ]
        },
        {
            "positions": [
                0.5253767294950089,
                -1.9594486511121696,
                -0.5181917123526991,
                -2.379972444880952,
                -0.18816969067271178,
                2.554076049601888
            ]
        },
        {
            "positions": [
                0.4261285796041463,
                -1.999736995490239,
                -0.6157362107779869,
                -2.446845632507089,
                -0.18609765731495062,
                2.64098805541854
            ]
        },
        {
            "positions": [
                0.32688042971328324,
                -2.0400253398683086,
                -0.7132807092032749,
                -2.513718820133226,
                -0.18402562395718944,
                2.727900061235192
            ]
        },
        {
            "positions": [
                0.22763227982242062,
                -2.080313684246378,
                -0.8108252076285625,
                -2.580592007759363,
                -0.18195359059942828,
                2.814812067051844
            ]
        },
        {
            "positions": [
                0.128384129931558,
                -2.1206020286244476,
                -0.9083697060538503,
                -2.6474651953855,
                -0.1798815572416671,
                2.901724072868496
            ]
        },
        {
            "positions": [
                0.029135980040695397,
                -2.1608903730025166,
                -1.005914204479138,
                -2.7143383830116368,
                -0.17780952388390595,
                2.9886360786851474
            ]
        },
        {
            "positions": [
                -0.07011216985016766,
                -2.201178717380586,
                -1.1034587029044258,
                -2.7812115706377742,
                -0.1757374905261448,
                3.0755480845017997
            ]
        },
        {
            "positions": [
                -0.16936031974103005,
                -2.2414670617586556,
                -1.2010032013297136,
                -2.848084758263911,
                -0.1736654571683836,
                3.162460090318451
            ]
        }
    ]
}