{
    "goal": {
        "global_pose": {
            "orientation": {
                "w": -0.4816463035849501,
                "x": 0.5182115481033762,
                "y": 0.4908360881923453,
                "z": -0.5084816262002911
            },
            "position": {
                "x": -0.8240239810943604,
                "y": 0.19912469901144506,
                "z": 0.16403168439865112
            }
        },
        "name": "move_to_storage_D"
    },
    "id": "ProjEST_move_to_storage_D_104",
    "joint_names": [
        "shoulder_pan_joint",
        "shoulder_lift_joint",
        "elbow_joint",
        "wrist_1_joint",
        "wrist_2_joint",
        "wrist_3_joint"
    ],
    "metrics": {
        "cart_traj_len": 3.417996108645975,
        "distance_elbow_joint": 4.210364027204928,
        "distance_shoulder_lift_joint": 1.2648209564036277,
        "distance_shoulder_pan_joint": 2.810794984492509,
        "distance_wrist_1_joint": 2.441182170543884,
        "distance_wrist_2_joint": 1.290495939043852,
        "distance_wrist_3_joint": 3.1415711486910074,
        "smoothness": 0.08165740625962058,
        "time": 0.114140115,
        "traj_len": 3.8934854855745655,
        "weighted_distance": 5.0173747750541375
    },
    "planner": "ProjEST",
    "start": {
        "state": {
            "elbow_joint": -2.384821997420982,
            "shoulder_lift_joint": -2.2788054674887404,
            "shoulder_pan_joint": -0.18546946417610016,
            "wrist_1_joint": 1.4845937964226739,
            "wrist_2_joint": 0.1789877726866377,
            "wrist_3_joint": 0.03710572555276528
        }
    },
    "waypoints": [
        {
            "positions": [
                -0.18546946417610016,
                -2.2788054674887404,
                -2.384821997420982,
                1.4845937964226739,
                0.1789877726866377,
                0.03710572555276528
            ]
        },
        {
            "positions": [
                -0.11780311964712602,
                -2.2124042894720466,
                -2.330760614373574,
                1.5130510926960763,
                0.10818356359514104,
                0.014094723493640895
            ]
        },
        {
            "positions": [
                -0.05013677511815187,
                -2.1460031114553533,
                -2.276699231326166,
                1.5415083889694785,
                0.03737935450364438,
                -0.008916278565483486
            ]
        },
        {
            "positions": [
                0.017529569410822295,
                -2.0796019334386595,
                -2.222637848278758,
                1.569965685242881,
                -0.03342485458785229,
                -0.03192728062460787
            ]
        },
        {
            "positions": [
                0.10438783808360691,
                -2.0417018040819004,
                -2.096679529216837,
                1.5038513549296386,
                -0.026314713319480112,
                -0.09934489537255052
            ]
        },
        {
            "positions": [
                0.19124610675639153,
                -2.0038016747251413,
                -1.9707212101549159,
                1.437737024616396,
                -0.01920457205110793,
                -0.16676251012049317
            ]
        },
        {
            "positions": [
                0.27810437542917615,
                -1.9659015453683821,
                -1.8447628910929947,
                1.3716226943031538,
                -0.012094430782735748,
                -0.23418012486843584
            ]
        },
        {
            "positions": [
                0.3649626441019608,
                -1.928001416011623,
                -1.7188045720310736,
                1.3055083639899112,
                -0.0049842895143635685,
                -0.3015977396163785
            ]
        },
        {
            "positions": [
                0.4518209127747454,
                -1.8901012866548639,
                -1.5928462529691523,
                1.239394033676669,
                0.0021258517540086105,
                -0.36901535436432115
            ]
        },
        {
            "positions": [
                0.53867918144753,
                -1.8522011572981048,
                -1.4668879339072312,
                1.1732797033634264,
                0.009235993022380797,
                -0.4364329691122638
            ]
        },
        {
            "positions": [
                0.6255374501203146,
                -1.8143010279413456,
                -1.34092961484531,
                1.107165373050184,
                0.01634613429075297,
                -0.5038505838602064
            ]
        },
        {
            "positions": [
                0.7123957187930993,
                -1.7764008985845865,
                -1.214971295783389,
                1.0410510427369415,
                0.023456275559125155,
                -0.5712681986081491
            ]
        },
        {
            "positions": [
                0.7992539874658838,
                -1.7385007692278274,
                -1.0890129767214678,
                0.9749367124236992,
                0.030566416827497327,
                -0.6386858133560918
            ]
        },
        {
            "positions": [
                0.8861122561386685,
                -1.7006006398710682,
                -0.9630546576595465,
                0.9088223821104566,
                0.03767655809586951,
                -0.7061034281040344
            ]
        },
        {
            "positions": [
                0.9729705248114531,
                -1.6627005105143091,
                -0.8370963385976253,
                0.8427080517972143,
                0.0447866993642417,
                -0.773521042851977
            ]
        },
        {
            "positions": [
                1.0598287934842379,
                -1.62480038115755,
                -0.7111380195357042,
                0.7765937214839719,
                0.051896840632613885,
                -0.8409386575999198
            ]
        },
        {
            "positions": [
                1.1466870621570224,
                -1.5869002518007909,
                -0.5851797004737831,
                0.7104793911707294,
                0.05900698190098606,
                -0.9083562723478624
            ]
        },
        {
            "positions": [
                1.233545330829807,
                -1.5490001224440317,
                -0.459221381411862,
                0.644365060857487,
                0.06611712316935822,
                -0.975773887095805
            ]
        },
        {
            "positions": [
                1.3204035995025916,
                -1.5110999930872726,
                -0.33326306234994085,
                0.5782507305442447,
                0.07322726443773042,
                -1.0431915018437474
            ]
        },
        {
            "positions": [
                1.4072618681753764,
                -1.4731998637305133,
                -0.20730474328801973,
                0.512136400231002,
                0.0803374057061026,
                -1.1106091165916903
            ]
        },
        {
            "positions": [
                1.494120136848161,
                -1.4352997343737544,
                -0.08134642422609861,
                0.4460220699177597,
                0.0874475469744748,
                -1.1780267313396329
            ]
        },
        {
            "positions": [
                1.5809784055209455,
                -1.3973996050169952,
                0.04461189483582251,
                0.3799077396045174,
                0.09455768824284694,
                -1.2454443460875755
            ]
        },
        {
            "positions": [
                1.66783667419373,
                -1.359499475660236,
                0.17057021389774363,
                0.3137934092912751,
                0.10166782951121914,
                -1.312861960835518
            ]
        },
        {
            "positions": [
                1.7546949428665148,
                -1.3215993463034768,
                0.2965285329596652,
                0.24767907897803232,
                0.10877797077959131,
                -1.380279575583461
            ]
        },
        {
            "positions": [
                1.8415532115392994,
                -1.2836992169467176,
                0.4224868520215863,
                0.18156474866479,
                0.11588811204796351,
                -1.4476971903314035
            ]
        },
        {
            "positions": [
                1.928411480212084,
                -1.2457990875899585,
                0.5484451710835074,
                0.11545041835154768,
                0.12299825331633568,
                -1.5151148050793461
            ]
        },
        {
            "positions": [
                2.0152697488848683,
                -1.2078989582331996,
                0.6744034901454286,
                0.04933608803830536,
                0.13010839458470785,
                -1.5825324198272888
            ]
        },
        {
            "positions": [
                2.102128017557653,
                -1.1699988288764402,
                0.8003618092073497,
                -0.016778242274937183,
                0.13721853585308005,
                -1.6499500345752316
            ]
        },
        {
            "positions": [
                2.188986286230438,
                -1.1320986995196811,
                0.9263201282692708,
                -0.08289257258817972,
                0.14432867712145223,
                -1.7173676493231742
            ]
        },
        {
            "positions": [
                2.2758445549032222,
                -1.094198570162922,
                1.0522784473311917,
                -0.14900690290142193,
                0.1514388183898244,
                -1.7847852640711168
            ]
        },
        {
            "positions": [
                2.3076155517589663,
                -1.0869063829740302,
                1.1225751366450787,
                -0.20690123868136512,
                0.23264060373452305,
                -1.9047561876226737
            ]
        },
        {
            "positions": [
                2.3393865486147107,
                -1.0796141957851384,
                1.1928718259589657,
                -0.2647955744613083,
                0.3138423890792217,
                -2.0247271111742307
            ]
        },
        {
            "positions": [
                2.3711575454704548,
                -1.0723220085962468,
                1.2631685152728527,
                -0.3226899102412515,
                0.39504417442392037,
                -2.144698034725787
            ]
        },
        {
            "positions": [
                2.402928542326199,
                -1.065029821407355,
                1.3334652045867397,
                -0.38058424602119467,
                0.47624595976861905,
                -2.264668958277344
            ]
        },
        {
            "positions": [
                2.4346995391819433,
                -1.0577376342184632,
                1.4037618939006267,
                -0.43847858180113786,
                0.5574477451133176,
                -2.384639881828901
            ]
        },
        {
            "positions": [
                2.4664705360376873,
                -1.0504454470295714,
                1.4740585832145137,
                -0.49637291758108104,
                0.6386495304580163,
                -2.504610805380458
            ]
        },
        {
            "positions": [
                2.4982415328934318,
                -1.0431532598406796,
                1.5443552725284007,
                -0.5542672533610242,
                0.719851315802715,
                -2.624581728932015
            ]
        },
        {
            "positions": [
                2.530012529749176,
                -1.0358610726517878,
                1.6146519618422877,
                -0.6121615891409674,
                0.8010531011474137,
                -2.7445526524835717
            ]
        },
        {
            "positions": [
                2.56178352660492,
                -1.0285688854628963,
                1.6849486511561746,
                -0.6700559249209106,
                0.8822548864921124,
                -2.864523576035128
            ]
        },
        {
            "positions": [
                2.5935545234606643,
                -1.0212766982740045,
                1.7552453404700616,
                -0.7279502607008538,
                0.9634566718368109,
                -2.984494499586685
            ]
        },
        {
            "positions": [
                2.6253255203164083,
                -1.0139845110851127,
                1.8255420297839486,
                -0.785844596480797,
                1.0446584571815096,
                -3.104465423138242
            ]
        }
    ]
}