{
    "goal": {
        "global_pose": {
            "orientation": {
                "w": 0.7047431468963623,
                "x": -0.7094548344612122,
                "y": 0.0024358443915843964,
                "z": -0.0022348060738295317
            },
            "position": {
                "x": 0.6094750761985779,
                "y": 0.3671506643295288,
                "z": 0.19426114857196808
            }
        },
        "name": "move_to_magneteinheit_A"
    },
    "id": "ProjEST_move_to_magneteinheit_A_119",
    "joint_names": [
        "shoulder_pan_joint",
        "shoulder_lift_joint",
        "elbow_joint",
        "wrist_1_joint",
        "wrist_2_joint",
        "wrist_3_joint"
    ],
    "metrics": {
        "cart_traj_len": 1.052082848558771,
        "distance_elbow_joint": 0.4051145513842349,
        "distance_shoulder_lift_joint": 0.35297885288751174,
        "distance_shoulder_pan_joint": 1.2412815689909489,
        "distance_wrist_1_joint": 2.295619605578734,
        "distance_wrist_2_joint": 1.7080887843271284,
        "distance_wrist_3_joint": 1.157369186742533,
        "smoothness": 8.881784267329942e-17,
        "time": 0.127293996,
        "traj_len": 2.6759021936369596,
        "weighted_distance": 3.671362051514672
    },
    "planner": "ProjEST",
    "start": {
        "state": {
            "elbow_joint": 1.5739458966750683,
            "shoulder_lift_joint": -1.4977259741207325,
            "shoulder_pan_joint": -1.1188672016454206,
            "wrist_1_joint": 1.494575848278785,
            "wrist_2_joint": -1.5706037134824402,
            "wrist_3_joint": -2.0226957942261072
        }
    },
    "waypoints": [
        {
            "positions": [
                -1.1188672016454206,
                -1.4977259741207325,
                1.5739458966750683,
                1.494575848278785,
                -1.5706037134824402,
                -2.0226957942261072
            ]
        },
        {
            "positions": [
                -1.0535365927511602,
                -1.4791481397582318,
                1.5952677151689754,
                1.373753763774641,
                -1.4807043037810124,
                -2.0836099619493984
            ]
        },
        {
            "positions": [
                -0.9882059838568997,
                -1.4605703053957313,
                1.6165895336628826,
                1.2529316792704972,
                -1.3908048940795845,
                -2.1445241296726896
            ]
        },
        {
            "positions": [
                -0.9228753749626393,
                -1.4419924710332306,
                1.6379113521567896,
                1.1321095947663533,
                -1.300905484378157,
                -2.2054382973959807
            ]
        },
        {
            "positions": [
                -0.8575447660683788,
                -1.42341463667073,
                1.6592331706506966,
                1.0112875102622094,
                -1.211006074676729,
                -2.266352465119272
            ]
        },
        {
            "positions": [
                -0.7922141571741184,
                -1.4048368023082294,
                1.6805549891446039,
                0.8904654257580655,
                -1.1211066649753012,
                -2.327266632842563
            ]
        },
        {
            "positions": [
                -0.7268835482798579,
                -1.386258967945729,
                1.701876807638511,
                0.7696433412539216,
                -1.0312072552738734,
                -2.3881808005658547
            ]
        },
        {
            "positions": [
                -0.6615529393855974,
                -1.3676811335832282,
                1.723198626132418,
                0.6488212567497778,
                -0.9413078455724456,
                -2.449094968289146
            ]
        },
        {
            "positions": [
                -0.5962223304913369,
                -1.3491032992207275,
                1.7445204446263252,
                0.5279991722456339,
                -0.8514084358710178,
                -2.510009136012437
            ]
        },
        {
            "positions": [
                -0.5308917215970764,
                -1.330525464858227,
                1.7658422631202322,
                0.40717708774149,
                -0.7615090261695899,
                -2.570923303735728
            ]
        },
        {
            "positions": [
                -0.46556111270281597,
                -1.3119476304957263,
                1.7871640816141394,
                0.2863550032373461,
                -0.6716096164681622,
                -2.6318374714590194
            ]
        },
        {
            "positions": [
                -0.4002305038085555,
                -1.2933697961332258,
                1.8084859001080464,
                0.16553291873320197,
                -0.5817102067667342,
                -2.6927516391823105
            ]
        },
        {
            "positions": [
                -0.33489989491429506,
                -1.274791961770725,
                1.8298077186019535,
                0.044710834229058305,
                -0.4918107970653065,
                -2.7536658069056017
            ]
        },
        {
            "positions": [
                -0.2695692860200345,
                -1.2562141274082244,
                1.8511295370958607,
                -0.0761112502750858,
                -0.40191138736387866,
                -2.8145799746288933
            ]
        },
        {
            "positions": [
                -0.20423867712577415,
                -1.2376362930457239,
                1.8724513555897677,
                -0.19693333477922947,
                -0.31201197766245103,
                -2.875494142352184
            ]
        },
        {
            "positions": [
                -0.13890806823151358,
                -1.2190584586832232,
                1.893773174083675,
                -0.3177554192833736,
                -0.22211256796102297,
                -2.9364083100754756
            ]
        },
        {
            "positions": [
                -0.07357745933725313,
                -1.2004806243207227,
                1.915094992577582,
                -0.43857750378751725,
                -0.13221315825959534,
                -2.9973224777987664
            ]
        },
        {
            "positions": [
                -0.00824685044299267,
                -1.181902789958222,
                1.936416811071489,
                -0.5593995882916614,
                -0.0423137485581675,
                -3.058236645522058
            ]
        },
        {
            "positions": [
                0.057083758451267785,
                -1.1633249555957215,
                1.9577386295653962,
                -0.680221672795805,
                0.04758566114326035,
                -3.119150813245349
            ]
        },
        {
            "positions": [
                0.12241436734552817,
                -1.1447471212332208,
                1.9790604480593033,
                -0.8010437572999493,
                0.13748507084468817,
                -3.1800649809686403
            ]
        }
    ]
}