{
    "goal": {
        "global_pose": {
            "orientation": {
                "w": -0.4816463035849501,
                "x": 0.5182115481033762,
                "y": 0.4908360881923453,
                "z": -0.5084816262002911
            },
            "position": {
                "x": -0.8240239810943604,
                "y": -0.300875300988555,
                "z": 0.16403168439865112
            }
        },
        "name": "move_to_storage_C"
    },
    "id": "ProjEST_move_to_storage_C_25",
    "joint_names": [
        "shoulder_pan_joint",
        "shoulder_lift_joint",
        "elbow_joint",
        "wrist_1_joint",
        "wrist_2_joint",
        "wrist_3_joint"
    ],
    "metrics": {
        "cart_traj_len": 0.5769152464866348,
        "distance_elbow_joint": 0.2543479788366456,
        "distance_shoulder_lift_joint": 0.1897469022456989,
        "distance_shoulder_pan_joint": 0.49610663997019433,
        "distance_wrist_1_joint": 0.06335697344821156,
        "distance_wrist_2_joint": 1.0591960948384371,
        "distance_wrist_3_joint": 0.0689254876738965,
        "smoothness": 0.0,
        "time": 0.105722713,
        "traj_len": 1.4600274233770694,
        "weighted_distance": 1.8417611464702814
    },
    "planner": "ProjEST",
    "start": {
        "state": {
            "elbow_joint": 2.010868315001653,
            "shoulder_lift_joint": -1.1634956873357014,
            "shoulder_pan_joint": -2.4736205022346103,
            "wrist_1_joint": -0.8367026794713948,
            "wrist_2_joint": 0.6746043897044093,
            "wrist_3_joint": 3.1335220948105738
        }
    },
    "waypoints": [
        {
            "positions": [
                -2.4736205022346103,
                -1.1634956873357014,
                2.010868315001653,
                -0.8367026794713948,
                0.6746043897044093,
                3.1335220948105738
            ]
        },
        {
            "positions": [
                -2.5563049422296427,
                -1.131871203628085,
                1.9684769851955455,
                -0.8261431838966928,
                0.8511370721774821,
                3.1450096760895567
            ]
        },
        {
            "positions": [
                -2.638989382224675,
                -1.1002467199204684,
                1.9260856553894379,
                -0.8155836883219909,
                1.0276697546505549,
                3.1564972573685393
            ]
        },
        {
            "positions": [
                -2.7216738222197074,
                -1.068622236212852,
                1.8836943255833303,
                -0.805024192747289,
                1.204202437123628,
                3.167984838647522
            ]
        },
        {
            "positions": [
                -2.80435826221474,
                -1.0369977525052354,
                1.8413029957772227,
                -0.794464697172587,
                1.3807351195967006,
                3.1794724199265048
            ]
        },
        {
            "positions": [
                -2.887042702209772,
                -1.005373268797619,
                1.798911665971115,
                -0.7839052015978851,
                1.5572678020697737,
                3.1909600012054877
            ]
        },
        {
            "positions": [
                -2.9697271422048046,
                -0.9737487850900025,
                1.7565203361650075,
                -0.7733457060231832,
                1.7338004845428463,
                3.2024475824844703
            ]
        }
    ]
}