{
    "goal": {
        "global_pose": {
            "orientation": {
                "w": 0.005598929693374612,
                "x": 0.007748599140229565,
                "y": 0.7110244013736278,
                "z": -0.7031023480610252
            },
            "position": {
                "x": 0.1141497679147869,
                "y": -0.7141253447532654,
                "z": 0.3711530566215515
            }
        },
        "name": "move_to_auspresseinheit_B"
    },
    "id": "ProjEST_move_to_auspresseinheit_B_83",
    "joint_names": [
        "shoulder_pan_joint",
        "shoulder_lift_joint",
        "elbow_joint",
        "wrist_1_joint",
        "wrist_2_joint",
        "wrist_3_joint"
    ],
    "metrics": {
        "cart_traj_len": 0.5652506313490642,
        "distance_elbow_joint": 0.06567692893098975,
        "distance_shoulder_lift_joint": 0.29490377631115194,
        "distance_shoulder_pan_joint": 0.5784544156042168,
        "distance_wrist_1_joint": 0.336454759445204,
        "distance_wrist_2_joint": 0.9866742175529162,
        "distance_wrist_3_joint": 0.008449395119722425,
        "smoothness": 3.806478935924272e-16,
        "time": 0.201391727,
        "traj_len": 1.5068554983687723,
        "weighted_distance": 1.90016874519127
    },
    "planner": "ProjEST",
    "start": {
        "state": {
            "elbow_joint": 2.019306165916698,
            "shoulder_lift_joint": -1.1220205098164344,
            "shoulder_pan_joint": -1.095207207618794,
            "wrist_1_joint": -0.8559671824921639,
            "wrist_2_joint": 0.47596387242952726,
            "wrist_3_joint": 3.159081874673826
        }
    },
    "waypoints": [
        {
            "positions": [
                -1.095207207618794,
                -1.1220205098164344,
                2.019306165916698,
                -0.8559671824921639,
                0.47596387242952726,
                3.159081874673826
            ]
        },
        {
            "positions": [
                -1.1916162768861636,
                -1.1711711392016264,
                2.0083600110948665,
                -0.7998913892512965,
                0.6404095753550133,
                3.1576736421538723
            ]
        },
        {
            "positions": [
                -1.288025346153533,
                -1.2203217685868184,
                1.9974138562730348,
                -0.7438155960104292,
                0.8048552782804993,
                3.156265409633918
            ]
        },
        {
            "positions": [
                -1.3844344154209023,
                -1.2694723979720104,
                1.986467701451203,
                -0.6877398027695618,
                0.9693009812059854,
                3.1548571771139646
            ]
        },
        {
            "positions": [
                -1.4808434846882719,
                -1.3186230273572024,
                1.9755215466293714,
                -0.6316640095286945,
                1.1337466841314714,
                3.153448944594011
            ]
        },
        {
            "positions": [
                -1.5772525539556415,
                -1.3677736567423944,
                1.96457539180754,
                -0.5755882162878272,
                1.2981923870569574,
                3.152040712074057
            ]
        },
        {
            "positions": [
                -1.6736616232230108,
                -1.4169242861275864,
                1.9536292369857082,
                -0.5195124230469599,
                1.4626380899824434,
                3.1506324795541034
            ]
        }
    ]
}