{
    "goal": {
        "global_pose": {
            "orientation": {
                "w": 0.005598929693374612,
                "x": 0.007748599140229565,
                "y": 0.7110244013736278,
                "z": -0.7031023480610252
            },
            "position": {
                "x": 0.1141497679147869,
                "y": -0.7141253447532654,
                "z": 0.3711530566215515
            }
        },
        "name": "move_to_auspresseinheit_B"
    },
    "id": "ProjEST_move_to_auspresseinheit_B_59",
    "joint_names": [
        "shoulder_pan_joint",
        "shoulder_lift_joint",
        "elbow_joint",
        "wrist_1_joint",
        "wrist_2_joint",
        "wrist_3_joint"
    ],
    "metrics": {
        "cart_traj_len": 0.5643526554358717,
        "distance_elbow_joint": 0.062234559492532426,
        "distance_shoulder_lift_joint": 0.29611998151128804,
        "distance_shoulder_pan_joint": 0.5782883924865454,
        "distance_wrist_1_joint": 0.33236949940181715,
        "distance_wrist_2_joint": 0.9882301192937535,
        "distance_wrist_3_joint": 0.008197620696209107,
        "smoothness": 5.075305255429287e-16,
        "time": 0.478545365,
        "traj_len": 1.5051379248700583,
        "weighted_distance": 1.8980081751589308
    },
    "planner": "ProjEST",
    "start": {
        "state": {
            "elbow_joint": 2.019306165916698,
            "shoulder_lift_joint": -1.1220205098164344,
            "shoulder_pan_joint": -1.095207207618794,
            "wrist_1_joint": -0.8559671824921639,
            "wrist_2_joint": 0.47596387242952726,
            "wrist_3_joint": 3.159081874673826
        }
    },
    "waypoints": [
        {
            "positions": [
                -1.095207207618794,
                -1.1220205098164344,
                2.019306165916698,
                -0.8559671824921639,
                0.47596387242952726,
                3.159081874673826
            ]
        },
        {
            "positions": [
                -1.1915886063665515,
                -1.1713738400683158,
                2.0089337393346094,
                -0.8005722659251944,
                0.6406688923118196,
                3.157715604557791
            ]
        },
        {
            "positions": [
                -1.287970005114309,
                -1.2207271703201972,
                1.9985613127525206,
                -0.7451773493582248,
                0.8053739121941117,
                3.156349334441756
            ]
        },
        {
            "positions": [
                -1.3843514038620666,
                -1.2700805005720786,
                1.9881888861704318,
                -0.6897824327912553,
                0.970078932076404,
                3.1549830643257213
            ]
        },
        {
            "positions": [
                -1.480732802609824,
                -1.3194338308239597,
                1.977816459588343,
                -0.6343875162242858,
                1.1347839519586962,
                3.1536167942096864
            ]
        },
        {
            "positions": [
                -1.5771142013575818,
                -1.368787161075841,
                1.9674440330062544,
                -0.5789925996573162,
                1.2994889718409885,
                3.1522505240936516
            ]
        },
        {
            "positions": [
                -1.6734956001053394,
                -1.4181404913277225,
                1.9570716064241656,
                -0.5235976830903467,
                1.4641939917232807,
                3.1508842539776167
            ]
        }
    ]
}