{
    "goal": {
        "global_pose": {
            "orientation": {
                "w": 0.005598929693374612,
                "x": 0.007748599140229565,
                "y": 0.7110244013736278,
                "z": -0.7031023480610252
            },
            "position": {
                "x": -0.8858502320852131,
                "y": -0.7141253447532654,
                "z": 0.3711530566215515
            }
        },
        "name": "move_to_auspresseinheit_C"
    },
    "id": "ProjEST_move_to_auspresseinheit_C_122",
    "joint_names": [
        "shoulder_pan_joint",
        "shoulder_lift_joint",
        "elbow_joint",
        "wrist_1_joint",
        "wrist_2_joint",
        "wrist_3_joint"
    ],
    "metrics": {
        "cart_traj_len": 0.49342217870028393,
        "distance_elbow_joint": 1.0126281830202448,
        "distance_shoulder_lift_joint": 0.33103046697407645,
        "distance_shoulder_pan_joint": 0.25569133683292256,
        "distance_wrist_1_joint": 0.7034282223072974,
        "distance_wrist_2_joint": 1.314662909079157,
        "distance_wrist_3_joint": 0.08305011657471262,
        "smoothness": 0.0,
        "time": 0.11211065,
        "traj_len": 1.9236660923321414,
        "weighted_distance": 2.425836474151605
    },
    "planner": "ProjEST",
    "start": {
        "state": {
            "elbow_joint": 1.752795957773711,
            "shoulder_lift_joint": -0.9740617694225064,
            "shoulder_pan_joint": -2.967991417825858,
            "wrist_1_joint": -0.7595177689806859,
            "wrist_2_joint": 1.7443932448377395,
            "wrist_3_joint": 3.199131542505932
        }
    },
    "waypoints": [
        {
            "positions": [
                -2.967991417825858,
                -0.9740617694225064,
                1.752795957773711,
                -0.7595177689806859,
                1.7443932448377395,
                3.199131542505932
            ]
        },
        {
            "positions": [
                -2.9424222841425656,
                -0.9409587227250988,
                1.6515331394716866,
                -0.6891749467499562,
                1.6129269539298239,
                3.1908265308484607
            ]
        },
        {
            "positions": [
                -2.9168531504592736,
                -0.9078556760276911,
                1.5502703211696622,
                -0.6188321245192264,
                1.481460663021908,
                3.1825215191909897
            ]
        },
        {
            "positions": [
                -2.8912840167759812,
                -0.8747526293302835,
                1.4490075028676377,
                -0.5484893022884967,
                1.3499943721139924,
                3.1742165075335183
            ]
        },
        {
            "positions": [
                -2.865714883092689,
                -0.8416495826328758,
                1.3477446845656131,
                -0.47814648005776694,
                1.2185280812060766,
                3.1659114958760473
            ]
        },
        {
            "positions": [
                -2.8401457494093965,
                -0.8085465359354682,
                1.2464818662635886,
                -0.4078036578270372,
                1.087061790298161,
                3.157606484218576
            ]
        },
        {
            "positions": [
                -2.8145766157261045,
                -0.7754434892380606,
                1.1452190479615643,
                -0.33746083559630746,
                0.9555954993902452,
                3.1493014725611044
            ]
        },
        {
            "positions": [
                -2.789007482042812,
                -0.7423404425406529,
                1.04395622965954,
                -0.2671180133655778,
                0.8241292084823296,
                3.1409964609036334
            ]
        },
        {
            "positions": [
                -2.7634383483595197,
                -0.7092373958432452,
                0.9426934113575152,
                -0.19677519113484798,
                0.6926629175744139,
                3.132691449246162
            ]
        },
        {
            "positions": [
                -2.737869214676228,
                -0.6761343491458376,
                0.8414305930554907,
                -0.12643236890411824,
                0.561196626666498,
                3.124386437588691
            ]
        },
        {
            "positions": [
                -2.7123000809929354,
                -0.64303130244843,
                0.7401677747534663,
                -0.05608954667338856,
                0.4297303357585824,
                3.1160814259312195
            ]
        }
    ]
}