{
    "goal": {
        "global_pose": {
            "orientation": {
                "w": 0.5084816262002911,
                "x": -0.4908360881923452,
                "y": 0.5182115481033761,
                "z": -0.48164630358495003
            },
            "position": {
                "x": 0.5540239810943604,
                "y": -0.46912469901144505,
                "z": 0.16403168439865112
            }
        },
        "name": "move_to_storage_B"
    },
    "id": "ProjEST_move_to_storage_B_85",
    "joint_names": [
        "shoulder_pan_joint",
        "shoulder_lift_joint",
        "elbow_joint",
        "wrist_1_joint",
        "wrist_2_joint",
        "wrist_3_joint"
    ],
    "metrics": {
        "cart_traj_len": 1.204769530873034,
        "distance_elbow_joint": 0.4970533151369938,
        "distance_shoulder_lift_joint": 0.46000494294138905,
        "distance_shoulder_pan_joint": 1.1610324908281278,
        "distance_wrist_1_joint": 3.47601970313924,
        "distance_wrist_2_joint": 2.717423815078592,
        "distance_wrist_3_joint": 3.1559571239482325,
        "smoothness": 0.32055985370153683,
        "time": 0.098250683,
        "traj_len": 3.38636846652466,
        "weighted_distance": 4.8962076301140325
    },
    "planner": "ProjEST",
    "start": {
        "state": {
            "elbow_joint": 1.6649325706314817,
            "shoulder_lift_joint": -0.6616388048112454,
            "shoulder_pan_joint": -0.9139837860083814,
            "wrist_1_joint": 2.146757197745094,
            "wrist_2_joint": -2.234196043158733,
            "wrist_3_joint": 0.005471033829999897
        }
    },
    "waypoints": [
        {
            "positions": [
                -0.9139837860083814,
                -0.6616388048112454,
                1.6649325706314817,
                2.146757197745094,
                -2.234196043158733,
                0.005471033829999897
            ]
        },
        {
            "positions": [
                -0.7914660483161698,
                -0.7129103593994444,
                1.6469198188956002,
                2.2080693704233587,
                -2.1626486443534407,
                0.004344007351187021
            ]
        },
        {
            "positions": [
                -0.6689483106239584,
                -0.7641819139876433,
                1.6289070671597186,
                2.2693815431016233,
                -2.0911012455481486,
                0.0032169808723741438
            ]
        },
        {
            "positions": [
                -0.5464305729317469,
                -0.8154534685758422,
                1.6108943154238369,
                2.330693715779888,
                -2.0195538467428564,
                0.002089954393561267
            ]
        },
        {
            "positions": [
                -0.4239128352395354,
                -0.8667250231640412,
                1.5928815636879554,
                2.3920058884581525,
                -1.948006447937564,
                0.0009629279147483905
            ]
        },
        {
            "positions": [
                -0.44971904831873855,
                -0.8765295894943718,
                1.609227806310781,
                2.2677454649032995,
                -1.8544974394815092,
                0.1221725055314015
            ]
        },
        {
            "positions": [
                -0.47552526139794166,
                -0.8863341558247022,
                1.6255740489336068,
                2.143485041348446,
                -1.7609884310254547,
                0.24338208314805462
            ]
        },
        {
            "positions": [
                -0.5013314744771448,
                -0.8961387221550328,
                1.6419202915564324,
                2.019224617793593,
                -1.6674794225693998,
                0.3645916607647077
            ]
        },
        {
            "positions": [
                -0.5271376875563479,
                -0.9059432884853632,
                1.6582665341792582,
                1.89496419423874,
                -1.573970414113345,
                0.48580123838136086
            ]
        },
        {
            "positions": [
                -0.5529439006355511,
                -0.9157478548156938,
                1.6746127768020838,
                1.7707037706838868,
                -1.4804614056572905,
                0.607010815998014
            ]
        },
        {
            "positions": [
                -0.5787501137147543,
                -0.9255524211460242,
                1.6909590194249096,
                1.6464433471290336,
                -1.3869523972012356,
                0.7282203936146671
            ]
        },
        {
            "positions": [
                -0.6045563267939573,
                -0.9353569874763548,
                1.7073052620477351,
                1.5221829235741806,
                -1.293443388745181,
                0.8494299712313201
            ]
        },
        {
            "positions": [
                -0.6303625398731605,
                -0.9451615538066853,
                1.7236515046705607,
                1.3979225000193274,
                -1.1999343802891262,
                0.9706395488479733
            ]
        },
        {
            "positions": [
                -0.6561687529523637,
                -0.9549661201370158,
                1.7399977472933865,
                1.2736620764644744,
                -1.1064253718330717,
                1.0918491264646262
            ]
        },
        {
            "positions": [
                -0.6819749660315668,
                -0.9647706864673463,
                1.756343989916212,
                1.1494016529096212,
                -1.0129163633770166,
                1.2130587040812797
            ]
        },
        {
            "positions": [
                -0.70778117911077,
                -0.9745752527976768,
                1.772690232539038,
                1.025141229354768,
                -0.919407354920962,
                1.3342682816979328
            ]
        },
        {
            "positions": [
                -0.7335873921899732,
                -0.9843798191280073,
                1.7890364751618635,
                0.9008808057999147,
                -0.8258983464649072,
                1.4554778593145858
            ]
        },
        {
            "positions": [
                -0.7593936052691762,
                -0.9941843854583379,
                1.8053827177846893,
                0.7766203822450617,
                -0.7323893380088526,
                1.576687436931239
            ]
        },
        {
            "positions": [
                -0.7851998183483793,
                -1.0039889517886684,
                1.8217289604075149,
                0.6523599586902087,
                -0.638880329552798,
                1.697897014547892
            ]
        },
        {
            "positions": [
                -0.8110060314275824,
                -1.0137935181189988,
                1.8380752030303404,
                0.5280995351353557,
                -0.5453713210967432,
                1.819106592164545
            ]
        },
        {
            "positions": [
                -0.8368122445067856,
                -1.0235980844493293,
                1.8544214456531662,
                0.40383911158050223,
                -0.45186231264068843,
                1.9403161697811981
            ]
        },
        {
            "positions": [
                -0.8626184575859888,
                -1.0334026507796599,
                1.8707676882759918,
                0.2795786880256492,
                -0.3583533041846336,
                2.061525747397851
            ]
        },
        {
            "positions": [
                -0.8884246706651919,
                -1.0432072171099904,
                1.8871139308988174,
                0.15531826447079622,
                -0.26484429572857904,
                2.1827353250145043
            ]
        },
        {
            "positions": [
                -0.9142308837443951,
                -1.0530117834403208,
                1.9034601735216432,
                0.03105784091594277,
                -0.17133528727252445,
                2.3039449026311574
            ]
        },
        {
            "positions": [
                -0.9400370968235983,
                -1.0628163497706513,
                1.919806416144469,
                -0.09320258263891024,
                -0.07782627881646942,
                2.425154480247811
            ]
        },
        {
            "positions": [
                -0.9658433099028013,
                -1.0726209161009819,
                1.9361526587672946,
                -0.21746300619376369,
                0.01568272963958517,
                2.546364057864464
            ]
        },
        {
            "positions": [
                -0.9916495229820045,
                -1.0824254824313124,
                1.9524989013901202,
                -0.3417234297486167,
                0.10919173809563998,
                2.667573635481117
            ]
        },
        {
            "positions": [
                -1.0174557360612075,
                -1.092230048761643,
                1.968845144012946,
                -0.4659838533034697,
                0.20270074655169457,
                2.78878321309777
            ]
        },
        {
            "positions": [
                -1.043261949140411,
                -1.1020346150919735,
                1.9851913866357715,
                -0.5902442768583231,
                0.2962097550077496,
                2.909992790714423
            ]
        },
        {
            "positions": [
                -1.0690681622196139,
                -1.1118391814223039,
                2.001537629258597,
                -0.7145047004131762,
                0.3897187634638042,
                3.0312023683310763
            ]
        },
        {
            "positions": [
                -1.094874375298817,
                -1.1216437477526344,
                2.017883871881423,
                -0.8387651239680289,
                0.48322777191985894,
                3.1524119459477293
            ]
        }
    ]
}