{
    "goal": {
        "global_pose": {
            "orientation": {
                "w": -0.4816463035849501,
                "x": 0.5182115481033762,
                "y": 0.4908360881923453,
                "z": -0.5084816262002911
            },
            "position": {
                "x": -0.8240239810943604,
                "y": 0.19912469901144506,
                "z": 0.16403168439865112
            }
        },
        "name": "move_to_storage_D"
    },
    "id": "ProjEST_move_to_storage_D_129",
    "joint_names": [
        "shoulder_pan_joint",
        "shoulder_lift_joint",
        "elbow_joint",
        "wrist_1_joint",
        "wrist_2_joint",
        "wrist_3_joint"
    ],
    "metrics": {
        "cart_traj_len": 1.8388606461431756,
        "distance_elbow_joint": 0.9039953798148996,
        "distance_shoulder_lift_joint": 1.3259092955627012,
        "distance_shoulder_pan_joint": 2.1856260143352033,
        "distance_wrist_1_joint": 3.899901490675984,
        "distance_wrist_2_joint": 1.7769521563882322,
        "distance_wrist_3_joint": 3.1523361172044972,
        "smoothness": 0.18626254663185493,
        "time": 0.082930849,
        "traj_len": 3.6393296709671024,
        "weighted_distance": 5.022573676458586
    },
    "planner": "ProjEST",
    "start": {
        "state": {
            "elbow_joint": -2.384821997420982,
            "shoulder_lift_joint": -2.2788054674887404,
            "shoulder_pan_joint": -0.18546946417610016,
            "wrist_1_joint": 1.4845937964226739,
            "wrist_2_joint": 0.1789877726866377,
            "wrist_3_joint": 0.03710572555276528
        }
    },
    "waypoints": [
        {
            "positions": [
                -0.18546946417610016,
                -2.2788054674887404,
                -2.384821997420982,
                1.4845937964226739,
                0.1789877726866377,
                0.03710572555276528
            ]
        },
        {
            "positions": [
                -0.0556282116912703,
                -2.196733711644546,
                -2.303762475109747,
                1.4889969781128154,
                0.12961039175692685,
                0.06289721660973296
            ]
        },
        {
            "positions": [
                0.07421304079355956,
                -2.1146619558003517,
                -2.2227029527985116,
                1.4934001598029572,
                0.08023301082721596,
                0.08868870766670064
            ]
        },
        {
            "positions": [
                0.20405429327838948,
                -2.0325901999561573,
                -2.1416434304872767,
                1.4978033414930987,
                0.030855629897505094,
                0.11448019872366832
            ]
        },
        {
            "positions": [
                0.3338955457632193,
                -1.9505184441119627,
                -2.0605839081760413,
                1.5022065231832404,
                -0.018521751032205797,
                0.140271689780636
            ]
        },
        {
            "positions": [
                0.4637367982480493,
                -1.8684466882677684,
                -1.9795243858648064,
                1.506609704873382,
                -0.06789913196191669,
                0.1660631808376037
            ]
        },
        {
            "positions": [
                0.5935780507328792,
                -1.786374932423574,
                -1.8984648635535712,
                1.5110128865635237,
                -0.11727651289162752,
                0.1918546718945714
            ]
        },
        {
            "positions": [
                0.723419303217709,
                -1.7043031765793795,
                -1.817405341242336,
                1.5154160682536653,
                -0.16665389382133847,
                0.2176461629515391
            ]
        },
        {
            "positions": [
                0.8532605557025388,
                -1.6222314207351851,
                -1.736345818931101,
                1.519819249943807,
                -0.2160312747510493,
                0.24343765400850675
            ]
        },
        {
            "positions": [
                0.9831018081873688,
                -1.5401596648909908,
                -1.6552862966198658,
                1.5242224316339485,
                -0.2654086556807602,
                0.26922914506547446
            ]
        },
        {
            "positions": [
                0.9424196185084995,
                -1.5636502046095888,
                -1.6622646837804171,
                1.3698115174153602,
                -0.3187108848015936,
                0.38603765297314596
            ]
        },
        {
            "positions": [
                0.9017374288296301,
                -1.5871407443281869,
                -1.6692430709409685,
                1.215400603196772,
                -0.372013113922427,
                0.5028461608808175
            ]
        },
        {
            "positions": [
                0.8610552391507609,
                -1.610631284046785,
                -1.6762214581015198,
                1.0609896889781834,
                -0.42531534304326035,
                0.619654668788489
            ]
        },
        {
            "positions": [
                0.8203730494718916,
                -1.634121823765383,
                -1.6831998452620711,
                0.906578774759595,
                -0.47861757216409373,
                0.7364631766961606
            ]
        },
        {
            "positions": [
                0.7796908597930223,
                -1.657612363483981,
                -1.6901782324226224,
                0.7521678605410066,
                -0.5319198012849271,
                0.8532716846038321
            ]
        },
        {
            "positions": [
                0.7390086701141529,
                -1.681102903202579,
                -1.6971566195831738,
                0.5977569463224183,
                -0.5852220304057605,
                0.9700801925115036
            ]
        },
        {
            "positions": [
                0.6983264804352837,
                -1.7045934429211773,
                -1.7041350067437253,
                0.44334603210382983,
                -0.6385242595265939,
                1.0868887004191752
            ]
        },
        {
            "positions": [
                0.6576442907564144,
                -1.7280839826397754,
                -1.7111133939042766,
                0.2889351178852415,
                -0.6918264886474272,
                1.2036972083268467
            ]
        },
        {
            "positions": [
                0.616962101077545,
                -1.7515745223583734,
                -1.718091781064828,
                0.13452420366665319,
                -0.7451287177682606,
                1.3205057162345182
            ]
        },
        {
            "positions": [
                0.5762799113986757,
                -1.7750650620769715,
                -1.7250701682253793,
                -0.01988671055193536,
                -0.798430946889094,
                1.4373142241421897
            ]
        },
        {
            "positions": [
                0.5355977217198065,
                -1.7985556017955695,
                -1.7320485553859306,
                -0.17429762477052368,
                -0.8517331760099274,
                1.5541227320498612
            ]
        },
        {
            "positions": [
                0.4949155320409372,
                -1.8220461415141675,
                -1.739026942546482,
                -0.328708538989112,
                -0.9050354051307608,
                1.6709312399575327
            ]
        },
        {
            "positions": [
                0.4542333423620678,
                -1.8455366812327656,
                -1.7460053297070333,
                -0.48311945320770056,
                -0.9583376342515941,
                1.7877397478652044
            ]
        },
        {
            "positions": [
                0.41355115268319853,
                -1.8690272209513636,
                -1.7529837168675846,
                -0.6375303674262889,
                -1.0116398633724275,
                1.904548255772876
            ]
        },
        {
            "positions": [
                0.37286896300432926,
                -1.8925177606699617,
                -1.759962104028136,
                -0.7919412816448772,
                -1.0649420924932609,
                2.021356763680547
            ]
        },
        {
            "positions": [
                0.33218677332545987,
                -1.9160083003885597,
                -1.7669404911886872,
                -0.9463521958634655,
                -1.1182443216140943,
                2.138165271588219
            ]
        },
        {
            "positions": [
                0.2915045836465906,
                -1.939498840107158,
                -1.7739188783492386,
                -1.1007631100820539,
                -1.1715465507349276,
                2.2549737794958906
            ]
        },
        {
            "positions": [
                0.2508223939677213,
                -1.9629893798257558,
                -1.7808972655097899,
                -1.2551740243006422,
                -1.224848779855761,
                2.371782287403562
            ]
        },
        {
            "positions": [
                0.21014020428885205,
                -1.986479919544354,
                -1.7878756526703414,
                -1.4095849385192305,
                -1.2781510089765944,
                2.4885907953112336
            ]
        },
        {
            "positions": [
                0.16945801460998267,
                -2.009970459262952,
                -1.7948540398308928,
                -1.5639958527378193,
                -1.3314532380974278,
                2.605399303218905
            ]
        },
        {
            "positions": [
                0.1287758249311134,
                -2.03346099898155,
                -1.801832426991444,
                -1.7184067669564072,
                -1.3847554672182611,
                2.7222078111265766
            ]
        },
        {
            "positions": [
                0.08809363525224412,
                -2.0569515387001482,
                -1.8088108141519954,
                -1.872817681174996,
                -1.4380576963390945,
                2.839016319034248
            ]
        },
        {
            "positions": [
                0.04741144557337473,
                -2.0804420784187463,
                -1.8157892013125467,
                -2.0272285953935842,
                -1.491359925459928,
                2.9558248269419196
            ]
        },
        {
            "positions": [
                0.00672925589450557,
                -2.1039326181373443,
                -1.822767588473098,
                -2.1816395096121726,
                -1.5446621545807613,
                3.072633334849591
            ]
        },
        {
            "positions": [
                -0.033952933784363856,
                -2.1274231578559424,
                -1.8297459756336494,
                -2.336050423830761,
                -1.5979643837015947,
                3.1894418427572626
            ]
        }
    ]
}