{
    "goal": {
        "global_pose": {
            "orientation": {
                "w": 0.7047431493862688,
                "x": -0.7094548369677653,
                "y": 0.0024358444001904,
                "z": -0.0022348060817251984
            },
            "position": {
                "x": -0.39052492380142206,
                "y": 0.3671506643295288,
                "z": 0.19426114857196808
            }
        },
        "name": "move_to_magneteinheit_D"
    },
    "id": "ProjEST_move_to_magneteinheit_D_61",
    "joint_names": [
        "shoulder_pan_joint",
        "shoulder_lift_joint",
        "elbow_joint",
        "wrist_1_joint",
        "wrist_2_joint",
        "wrist_3_joint"
    ],
    "metrics": {
        "cart_traj_len": 4.063921409761843,
        "distance_elbow_joint": 3.8148711257895873,
        "distance_shoulder_lift_joint": 3.4766197685454228,
        "distance_shoulder_pan_joint": 6.039978719896393,
        "distance_wrist_1_joint": 5.121523907737097,
        "distance_wrist_2_joint": 2.6256231380301998,
        "distance_wrist_3_joint": 4.894352340690847,
        "smoothness": 0.5548092025875311,
        "time": 0.355449605,
        "traj_len": 5.096368216749015,
        "weighted_distance": 6.596121642892783
    },
    "planner": "ProjEST",
    "start": {
        "state": {
            "elbow_joint": 0.7495348899011973,
            "shoulder_lift_joint": -0.6476975780737697,
            "shoulder_pan_joint": -2.711696901376276,
            "wrist_1_joint": -0.07506478080974305,
            "wrist_2_joint": 0.4329665971545858,
            "wrist_3_joint": 3.1361499051832524
        }
    },
    "waypoints": [
        {
            "positions": [
                -2.711696901376276,
                -0.6476975780737697,
                0.7495348899011973,
                -0.07506478080974305,
                0.4329665971545858,
                3.1361499051832524
            ]
        },
        {
            "positions": [
                -2.7207235688018545,
                -0.7393049537392965,
                0.7684074621295119,
                0.0007348387225300512,
                0.4477579752326793,
                2.9689138905866708
            ]
        },
        {
            "positions": [
                -2.7297502362274324,
                -0.8309123294048233,
                0.7872800343578267,
                0.07653445825480315,
                0.46254935331077274,
                2.8016778759900896
            ]
        },
        {
            "positions": [
                -2.7387769036530107,
                -0.9225197050703502,
                0.8061526065861413,
                0.15233407778707625,
                0.47734073138886624,
                2.634441861393508
            ]
        },
        {
            "positions": [
                -2.6475571914292213,
                -0.9361717267640993,
                0.7225035364190988,
                0.1965542665759047,
                0.4393031485669402,
                2.5141023229296353
            ]
        },
        {
            "positions": [
                -2.5563374792054323,
                -0.9498237484578484,
                0.6388544662520563,
                0.24077445536473313,
                0.40126556574501415,
                2.3937627844657623
            ]
        },
        {
            "positions": [
                -2.465117766981643,
                -0.9634757701515975,
                0.5552053960850138,
                0.28499464415356157,
                0.3632279829230881,
                2.2734232460018897
            ]
        },
        {
            "positions": [
                -2.3738980547578534,
                -0.9771277918453466,
                0.4715563259179715,
                0.32921483294238996,
                0.32519040010116207,
                2.153083707538017
            ]
        },
        {
            "positions": [
                -2.282678342534064,
                -0.9907798135390957,
                0.387907255750929,
                0.37343502173121845,
                0.28715281727923603,
                2.032744169074144
            ]
        },
        {
            "positions": [
                -2.191458630310275,
                -1.0044318352328447,
                0.3042581855838865,
                0.41765521052004684,
                0.24911523445731001,
                1.9124046306102715
            ]
        },
        {
            "positions": [
                -2.1002389180864856,
                -1.018083856926594,
                0.22060911541684403,
                0.46187539930887533,
                0.21107765163538394,
                1.7920650921463988
            ]
        },
        {
            "positions": [
                -2.009019205862696,
                -1.031735878620343,
                0.13696004524980165,
                0.5060955880977037,
                0.17304006881345796,
                1.671725553682526
            ]
        },
        {
            "positions": [
                -1.9177994936389071,
                -1.045387900314092,
                0.05331097508275917,
                0.5503157768865321,
                0.13500248599153186,
                1.5513860152186534
            ]
        },
        {
            "positions": [
                -1.8265797814151177,
                -1.0590399220078413,
                -0.030338095084283312,
                0.5945359656753606,
                0.09696490316960582,
                1.4310464767547806
            ]
        },
        {
            "positions": [
                -1.7353600691913285,
                -1.0726919437015903,
                -0.11398716525132568,
                0.638756154464189,
                0.058927320347679835,
                1.310706938290908
            ]
        },
        {
            "positions": [
                -1.6441403569675392,
                -1.0863439653953395,
                -0.19763623541836828,
                0.6829763432530174,
                0.020889737525753793,
                1.1903673998270352
            ]
        },
        {
            "positions": [
                -1.5529206447437498,
                -1.0999959870890885,
                -0.28128530558541076,
                0.7271965320418459,
                -0.01714784529617225,
                1.0700278613631624
            ]
        },
        {
            "positions": [
                -1.4617009325199604,
                -1.1136480087828375,
                -0.36493437575245324,
                0.7714167208306744,
                -0.055185428118098345,
                0.9496883228992896
            ]
        },
        {
            "positions": [
                -1.3704812202961711,
                -1.1273000304765868,
                -0.4485834459194957,
                0.8156369096195029,
                -0.09322301094002439,
                0.8293487844354168
            ]
        },
        {
            "positions": [
                -1.279261508072382,
                -1.1409520521703358,
                -0.532232516086538,
                0.8598570984083311,
                -0.13126059376195032,
                0.7090092459715442
            ]
        },
        {
            "positions": [
                -1.1880417958485927,
                -1.1546040738640848,
                -0.6158815862535805,
                0.9040772871971596,
                -0.16929817658387636,
                0.5886697075076719
            ]
        },
        {
            "positions": [
                -1.0968220836248033,
                -1.168256095557834,
                -0.699530656420623,
                0.9482974759859881,
                -0.2073357594058025,
                0.46833016904379887
            ]
        },
        {
            "positions": [
                -1.005602371401014,
                -1.181908117251583,
                -0.7831797265876654,
                0.9925176647748164,
                -0.24537334222772844,
                0.3479906305799263
            ]
        },
        {
            "positions": [
                -0.9143826591772246,
                -1.1955601389453323,
                -0.8668287967547079,
                1.036737853563645,
                -0.2834109250496546,
                0.22765109211605328
            ]
        },
        {
            "positions": [
                -0.8231629469534354,
                -1.2092121606390813,
                -0.9504778669217504,
                1.0809580423524734,
                -0.3214485078715805,
                0.1073115536521807
            ]
        },
        {
            "positions": [
                -0.7319432347296462,
                -1.2228641823328303,
                -1.0341269370887927,
                1.1251782311413017,
                -0.35948609069350657,
                -0.013027984811691873
            ]
        },
        {
            "positions": [
                -0.6407235225058567,
                -1.2365162040265796,
                -1.1177760072558354,
                1.1693984199301304,
                -0.3975236735154327,
                -0.1333675232755649
            ]
        },
        {
            "positions": [
                -0.5495038102820677,
                -1.2501682257203286,
                -1.2014250774228779,
                1.2136186087189587,
                -0.43556125633735865,
                -0.25370706173943747
            ]
        },
        {
            "positions": [
                -0.4582840980582783,
                -1.2638202474140776,
                -1.2850741475899201,
                1.2578387975077872,
                -0.4735988391592847,
                -0.37404660020331004
            ]
        },
        {
            "positions": [
                -0.36706438583448886,
                -1.2774722691078269,
                -1.3687232177569628,
                1.3020589862966157,
                -0.5116364219812107,
                -0.49438613866718306
            ]
        },
        {
            "positions": [
                -0.27584467361069986,
                -1.2911242908015759,
                -1.452372287924005,
                1.346279175085444,
                -0.5496740048031368,
                -0.6147256771310556
            ]
        },
        {
            "positions": [
                -0.18462496138690998,
                -1.304776312495325,
                -1.5360213580910478,
                1.3904993638742726,
                -0.5877115876250629,
                -0.7350652155949287
            ]
        },
        {
            "positions": [
                -0.09340524916312082,
                -1.3184283341890741,
                -1.61967042825809,
                1.434719552663101,
                -0.6257491704469889,
                -0.8554047540588012
            ]
        },
        {
            "positions": [
                0.009033603970870926,
                -1.2607371958526885,
                -1.6853030341452575,
                1.322953586808447,
                -0.647174226892237,
                -0.8286734629831221
            ]
        },
        {
            "positions": [
                0.11147245710486267,
                -1.203046057516303,
                -1.750935640032425,
                1.211187620953793,
                -0.6685992833374852,
                -0.801942171907443
            ]
        },
        {
            "positions": [
                0.2139113102388544,
                -1.145354919179917,
                -1.8165682459195927,
                1.0994216550991391,
                -0.6900243397827334,
                -0.7752108808317638
            ]
        },
        {
            "positions": [
                0.31635016337284616,
                -1.0876637808435314,
                -1.8822008518067601,
                0.9876556892444852,
                -0.7114493962279815,
                -0.7484795897560848
            ]
        },
        {
            "positions": [
                0.4187890165068379,
                -1.0299726425071458,
                -1.9478334576939276,
                0.8758897233898312,
                -0.7328744526732296,
                -0.7217482986804056
            ]
        },
        {
            "positions": [
                0.5212278696408297,
                -0.9722815041707601,
                -2.0134660635810953,
                0.7641237575351773,
                -0.7542995091184778,
                -0.6950170076047264
            ]
        },
        {
            "positions": [
                0.6236667227748214,
                -0.9145903658343744,
                -2.0790986694682627,
                0.6523577916805233,
                -0.7757245655637259,
                -0.6682857165290472
            ]
        },
        {
            "positions": [
                0.7261055759088131,
                -0.8568992274979887,
                -2.14473127535543,
                0.5405918258258694,
                -0.7971496220089741,
                -0.6415544254533682
            ]
        },
        {
            "positions": [
                0.8285444290428048,
                -0.7992080891616031,
                -2.2103638812425976,
                0.42882585997121536,
                -0.8185746784542223,
                -0.6148231343776891
            ]
        },
        {
            "positions": [
                0.9309832821767967,
                -0.7415169508252174,
                -2.275996487129765,
                0.31705989411656144,
                -0.8399997348994704,
                -0.5880918433020099
            ]
        },
        {
            "positions": [
                1.0334221353107884,
                -0.6838258124888317,
                -2.341629093016933,
                0.2052939282619075,
                -0.8614247913447186,
                -0.5613605522263307
            ]
        },
        {
            "positions": [
                1.1358609884447801,
                -0.6261346741524461,
                -2.4072616989041,
                0.09352796240725358,
                -0.8828498477899667,
                -0.5346292611506516
            ]
        },
        {
            "positions": [
                1.2382998415787718,
                -0.5684435358160604,
                -2.472894304791268,
                -0.01823800344740034,
                -0.904274904235215,
                -0.5078979700749725
            ]
        },
        {
            "positions": [
                1.3407386947127637,
                -0.5107523974796747,
                -2.5385269106784354,
                -0.13000396930205427,
                -0.925699960680463,
                -0.48116667899929333
            ]
        },
        {
            "positions": [
                1.4431775478467554,
                -0.453061259143289,
                -2.604159516565603,
                -0.2417699351567082,
                -0.9471250171257112,
                -0.4544353879236142
            ]
        },
        {
            "positions": [
                1.5456164009807472,
                -0.39537012080690337,
                -2.6697921224527703,
                -0.3535359010113621,
                -0.9685500735709593,
                -0.4277040968479351
            ]
        },
        {
            "positions": [
                1.4546424318762263,
                -0.49446647865153215,
                -2.6549337708703633,
                -0.2575630525592679,
                -0.9087943788953754,
                -0.4026989903090965
            ]
        },
        {
            "positions": [
                1.3636684627717055,
                -0.5935628364961609,
                -2.6400754192879563,
                -0.16159020410717367,
                -0.8490386842197915,
                -0.3776938837702579
            ]
        },
        {
            "positions": [
                1.2726944936671847,
                -0.6926591943407898,
                -2.6252170677055497,
                -0.06561735565507948,
                -0.7892829895442075,
                -0.3526887772314193
            ]
        },
        {
            "positions": [
                1.1817205245626639,
                -0.7917555521854185,
                -2.6103587161231427,
                0.03035549279701477,
                -0.7295272948686236,
                -0.3276836706925807
            ]
        },
        {
            "positions": [
                1.090746555458143,
                -0.8908519100300474,
                -2.5955003645407357,
                0.12632834124910897,
                -0.6697716001930396,
                -0.3026785641537421
            ]
        },
        {
            "positions": [
                0.9997725863536222,
                -0.9899482678746762,
                -2.5806420129583287,
                0.22230118970120316,
                -0.6100159055174557,
                -0.2776734576149035
            ]
        },
        {
            "positions": [
                0.9087986172491014,
                -1.089044625719305,
                -2.5657836613759217,
                0.31827403815329747,
                -0.5502602108418717,
                -0.2526683510760649
            ]
        },
        {
            "positions": [
                0.8178246481445806,
                -1.1881409835639336,
                -2.550925309793515,
                0.41424688660539166,
                -0.49050451616628776,
                -0.2276632445372263
            ]
        },
        {
            "positions": [
                0.7268506790400596,
                -1.2872373414085625,
                -2.536066958211108,
                0.5102197350574859,
                -0.4307488214907038,
                -0.20265813799838772
            ]
        },
        {
            "positions": [
                0.6358767099355388,
                -1.3863336992531914,
                -2.521208606628701,
                0.60619258350958,
                -0.37099312681511987,
                -0.17765303145954914
            ]
        },
        {
            "positions": [
                0.5449027408310179,
                -1.4854300570978203,
                -2.506350255046294,
                0.7021654319616744,
                -0.3112374321395359,
                -0.1526479249207105
            ]
        },
        {
            "positions": [
                0.45392877172649726,
                -1.584526414942449,
                -2.4914919034638876,
                0.7981382804137684,
                -0.25148173746395197,
                -0.12764281838187191
            ]
        },
        {
            "positions": [
                0.3629548026219762,
                -1.6836227727870778,
                -2.4766335518814806,
                0.8941111288658627,
                -0.19172604278836802,
                -0.10263771184303327
            ]
        },
        {
            "positions": [
                0.2719808335174556,
                -1.7827191306317065,
                -2.4617752002990736,
                0.990083977317957,
                -0.13197034811278407,
                -0.07763260530419475
            ]
        },
        {
            "positions": [
                0.18100686441293456,
                -1.8818154884763354,
                -2.4469168487166666,
                1.0860568257700514,
                -0.07221465343720013,
                -0.05262749876535611
            ]
        },
        {
            "positions": [
                0.09003289530841396,
                -1.980911846320964,
                -2.4320584971342596,
                1.1820296742221454,
                -0.012458958761616179,
                -0.027622392226517523
            ]
        },
        {
            "positions": [
                -0.0009410737961070836,
                -2.080008204165593,
                -2.417200145551853,
                1.2780025226742397,
                0.04729673591396777,
                -0.002617285687678883
            ]
        },
        {
            "positions": [
                -0.09191504290062791,
                -2.1791045620102216,
                -2.402341793969446,
                1.3739753711263338,
                0.10705243058955172,
                0.022387820851159645
            ]
        },
        {
            "positions": [
                -0.18288901200514882,
                -2.2782009198548505,
                -2.387483442387039,
                1.4699482195784281,
                0.16680812526513558,
                0.047392927389998264
            ]
        }
    ]
}