{
    "goal": {
        "global_pose": {
            "orientation": {
                "w": -0.4816463035849501,
                "x": 0.5182115481033762,
                "y": 0.4908360881923453,
                "z": -0.5084816262002911
            },
            "position": {
                "x": -0.8240239810943604,
                "y": -0.300875300988555,
                "z": 0.16403168439865112
            }
        },
        "name": "move_to_storage_C"
    },
    "id": "ProjEST_move_to_storage_C_77",
    "joint_names": [
        "shoulder_pan_joint",
        "shoulder_lift_joint",
        "elbow_joint",
        "wrist_1_joint",
        "wrist_2_joint",
        "wrist_3_joint"
    ],
    "metrics": {
        "cart_traj_len": 0.5764395061244044,
        "distance_elbow_joint": 0.2553179707354505,
        "distance_shoulder_lift_joint": 0.1888784056644025,
        "distance_shoulder_pan_joint": 0.4957881428875468,
        "distance_wrist_1_joint": 0.07064959981288199,
        "distance_wrist_2_joint": 1.0597892523626746,
        "distance_wrist_3_joint": 0.05933647580513135,
        "smoothness": 0.0,
        "time": 0.081791194,
        "traj_len": 1.4593696746431617,
        "weighted_distance": 1.8381707350118233
    },
    "planner": "ProjEST",
    "start": {
        "state": {
            "elbow_joint": 2.010868315001653,
            "shoulder_lift_joint": -1.1634956873357014,
            "shoulder_pan_joint": -2.4736205022346103,
            "wrist_1_joint": -0.8367026794713948,
            "wrist_2_joint": 0.6746043897044093,
            "wrist_3_joint": 3.1335220948105738
        }
    },
    "waypoints": [
        {
            "positions": [
                -2.4736205022346103,
                -1.1634956873357014,
                2.010868315001653,
                -0.8367026794713948,
                0.6746043897044093,
                3.1335220948105738
            ]
        },
        {
            "positions": [
                -2.5562518593825345,
                -1.132015953058301,
                1.968315319879078,
                -0.8249277461692478,
                0.851235931764855,
                3.143411507444762
            ]
        },
        {
            "positions": [
                -2.638883216530459,
                -1.1005362187809005,
                1.925762324756503,
                -0.8131528128671007,
                1.0278674738253009,
                3.153300920078951
            ]
        },
        {
            "positions": [
                -2.721514573678384,
                -1.0690564845035002,
                1.8832093296339278,
                -0.8013778795649538,
                1.2044990158857467,
                3.1631903327131394
            ]
        },
        {
            "positions": [
                -2.804145930826308,
                -1.0375767502260997,
                1.8406563345113527,
                -0.7896029462628068,
                1.3811305579461923,
                3.173079745347328
            ]
        },
        {
            "positions": [
                -2.8867772879742324,
                -1.0060970159486993,
                1.7981033393887778,
                -0.7778280129606597,
                1.5577621000066382,
                3.1829691579815167
            ]
        },
        {
            "positions": [
                -2.969408645122157,
                -0.9746172816712989,
                1.7555503442662026,
                -0.7660530796585128,
                1.7343936420670838,
                3.192858570615705
            ]
        }
    ]
}