{
    "goal": {
        "global_pose": {
            "orientation": {
                "w": 0.5084816262002911,
                "x": -0.4908360881923452,
                "y": 0.5182115481033761,
                "z": -0.48164630358495003
            },
            "position": {
                "x": 0.5540239810943604,
                "y": -0.46912469901144505,
                "z": 0.16403168439865112
            }
        },
        "name": "move_to_storage_B"
    },
    "id": "ProjEST_move_to_storage_B_126",
    "joint_names": [
        "shoulder_pan_joint",
        "shoulder_lift_joint",
        "elbow_joint",
        "wrist_1_joint",
        "wrist_2_joint",
        "wrist_3_joint"
    ],
    "metrics": {
        "cart_traj_len": 4.188567417938982,
        "distance_elbow_joint": 1.8822114675414967,
        "distance_shoulder_lift_joint": 1.2139723121294186,
        "distance_shoulder_pan_joint": 4.156711421192678,
        "distance_wrist_1_joint": 3.0173305145008635,
        "distance_wrist_2_joint": 2.7080008383808702,
        "distance_wrist_3_joint": 5.104452696471199,
        "smoothness": 0.15929810564513303,
        "time": 0.143310178,
        "traj_len": 4.252373366746684,
        "weighted_distance": 5.832402249162919
    },
    "planner": "ProjEST",
    "start": {
        "state": {
            "elbow_joint": 1.6649325706314817,
            "shoulder_lift_joint": -0.6616388048112454,
            "shoulder_pan_joint": -0.9139837860083814,
            "wrist_1_joint": 2.146757197745094,
            "wrist_2_joint": -2.234196043158733,
            "wrist_3_joint": 0.005471033829999897
        }
    },
    "waypoints": [
        {
            "positions": [
                -0.9139837860083814,
                -0.6616388048112454,
                1.6649325706314817,
                2.146757197745094,
                -2.234196043158733,
                0.005471033829999897
            ]
        },
        {
            "positions": [
                -0.8004304594464986,
                -0.713364990089619,
                1.6458446499307253,
                2.0803649821124055,
                -2.1326174968304343,
                -0.025271973600612313
            ]
        },
        {
            "positions": [
                -0.6868771328846159,
                -0.7650911753679924,
                1.6267567292299687,
                2.013972766479717,
                -2.0310389505021353,
                -0.05601498103122453
            ]
        },
        {
            "positions": [
                -0.5733238063227333,
                -0.816817360646366,
                1.6076688085292123,
                1.9475805508470285,
                -1.9294604041738368,
                -0.08675798846183673
            ]
        },
        {
            "positions": [
                -0.4597704797608505,
                -0.8685435459247395,
                1.5885808878284557,
                1.88118833521434,
                -1.827881857845538,
                -0.11750099589244895
            ]
        },
        {
            "positions": [
                -0.34621715319896773,
                -0.9202697312031131,
                1.5694929671276994,
                1.8147961195816515,
                -1.7263033115172393,
                -0.14824400332306117
            ]
        },
        {
            "positions": [
                -0.23266382663708507,
                -0.9719959164814866,
                1.550405046426943,
                1.748403903948963,
                -1.6247247651889405,
                -0.17898701075367338
            ]
        },
        {
            "positions": [
                -0.11911050007520241,
                -1.0237221017598601,
                1.5313171257261864,
                1.6820116883162743,
                -1.523146218860642,
                -0.20973001818428558
            ]
        },
        {
            "positions": [
                -0.005557173513319635,
                -1.0754482870382338,
                1.51222920502543,
                1.6156194726835857,
                -1.4215676725323432,
                -0.2404730256148978
            ]
        },
        {
            "positions": [
                0.10799615304856303,
                -1.1271744723166073,
                1.4931412843246736,
                1.5492272570508974,
                -1.3199891262040444,
                -0.27121603304550995
            ]
        },
        {
            "positions": [
                0.2215494796104459,
                -1.1789006575949807,
                1.474053363623917,
                1.4828350414182088,
                -1.2184105798757456,
                -0.3019590404761222
            ]
        },
        {
            "positions": [
                0.33510280617232835,
                -1.2306268428733542,
                1.4549654429231607,
                1.4164428257855204,
                -1.116832033547447,
                -0.3327020479067344
            ]
        },
        {
            "positions": [
                0.44865613273421123,
                -1.282353028151728,
                1.435877522222404,
                1.3500506101528318,
                -1.015253487219148,
                -0.3634450553373466
            ]
        },
        {
            "positions": [
                0.562209459296094,
                -1.3340792134301014,
                1.4167896015216477,
                1.2836583945201432,
                -0.9136749408908497,
                -0.3941880627679588
            ]
        },
        {
            "positions": [
                0.6479732745938104,
                -1.3670419526855133,
                1.3978705852462876,
                1.2103931896538054,
                -0.8274732139322278,
                -0.4384290278327096
            ]
        },
        {
            "positions": [
                0.7337370898915268,
                -1.4000046919409252,
                1.3789515689709275,
                1.1371279847874676,
                -0.7412714869736059,
                -0.4826699928974604
            ]
        },
        {
            "positions": [
                0.8195009051892431,
                -1.432967431196337,
                1.3600325526955677,
                1.0638627799211298,
                -0.6550697600149841,
                -0.5269109579622112
            ]
        },
        {
            "positions": [
                0.9052647204869595,
                -1.465930170451749,
                1.3411135364202076,
                0.990597575054792,
                -0.5688680330563621,
                -0.5711519230269619
            ]
        },
        {
            "positions": [
                0.9910285357846759,
                -1.4988929097071608,
                1.3221945201448475,
                0.9173323701884541,
                -0.4826663060977403,
                -0.6153928880917128
            ]
        },
        {
            "positions": [
                1.0185758065304247,
                -1.4904682408658791,
                1.2870008555559957,
                0.7876428660346663,
                -0.42254570678632564,
                -0.7113613484826699
            ]
        },
        {
            "positions": [
                1.0461230772761736,
                -1.4820435720245975,
                1.2518071909671438,
                0.6579533618808784,
                -0.36242510747491097,
                -0.8073298088736268
            ]
        },
        {
            "positions": [
                1.0736703480219225,
                -1.4736189031833158,
                1.216613526378292,
                0.5282638577270904,
                -0.3023045081634963,
                -0.9032982692645839
            ]
        },
        {
            "positions": [
                1.0179729768611323,
                -1.4519213909803759,
                1.171682501738954,
                0.33612443042571627,
                -0.23714533728675508,
                -0.9126963148632878
            ]
        },
        {
            "positions": [
                0.9622756057003421,
                -1.4302238787774362,
                1.126751477099616,
                0.14398500312434215,
                -0.17198616641001388,
                -0.9220943604619918
            ]
        },
        {
            "positions": [
                0.9065782345395519,
                -1.4085263665744963,
                1.0818204524602781,
                -0.048154424177031974,
                -0.10682699553327266,
                -0.9314924060606957
            ]
        },
        {
            "positions": [
                0.8508808633787617,
                -1.3868288543715566,
                1.0368894278209404,
                -0.2402938514784061,
                -0.04166782465653146,
                -0.9408904516593996
            ]
        },
        {
            "positions": [
                0.7951834922179715,
                -1.3651313421686166,
                0.9919584031816024,
                -0.4324332787797802,
                0.023491346220209763,
                -0.9502884972581035
            ]
        },
        {
            "positions": [
                0.7394861210571813,
                -1.343433829965677,
                0.9470273785422645,
                -0.6245727060811543,
                0.08865051709695099,
                -0.9596865428568074
            ]
        },
        {
            "positions": [
                0.683788749896391,
                -1.321736317762737,
                0.9020963539029265,
                -0.8167121333825285,
                0.1538096879736922,
                -0.9690845884555114
            ]
        },
        {
            "positions": [
                0.594829965444549,
                -1.311758236998283,
                0.9580651164435736,
                -0.8194051925511905,
                0.1698094433361145,
                -0.7625897347462269
            ]
        },
        {
            "positions": [
                0.5058711809927069,
                -1.3017801562338291,
                1.0140338789842207,
                -0.8220982517198526,
                0.1858091986985368,
                -0.5560948810369426
            ]
        },
        {
            "positions": [
                0.4169123965408648,
                -1.291802075469375,
                1.0700026415248678,
                -0.8247913108885147,
                0.20180895406095906,
                -0.34960002732765827
            ]
        },
        {
            "positions": [
                0.32795361208902274,
                -1.2818239947049213,
                1.1259714040655149,
                -0.8274843700571767,
                0.21780870942338137,
                -0.14310517361837383
            ]
        },
        {
            "positions": [
                0.23899482763718066,
                -1.2718459139404672,
                1.181940166606162,
                -0.8301774292258388,
                0.23380846478580364,
                0.0633896800909105
            ]
        },
        {
            "positions": [
                0.15003604318533859,
                -1.2618678331760131,
                1.237908929146809,
                -0.8328704883945008,
                0.2498082201482259,
                0.26988453380019484
            ]
        },
        {
            "positions": [
                0.061077258733496564,
                -1.2518897524115593,
                1.293877691687456,
                -0.8355635475631629,
                0.2658079755106482,
                0.47637938750947917
            ]
        },
        {
            "positions": [
                -0.027881525718345568,
                -1.2419116716471053,
                1.3498464542281032,
                -0.8382566067318249,
                0.28180773087307054,
                0.6828742412187637
            ]
        },
        {
            "positions": [
                -0.1168403101701877,
                -1.2319335908826514,
                1.40581521676875,
                -0.840949665900487,
                0.2978074862354928,
                0.889369094928048
            ]
        },
        {
            "positions": [
                -0.20579909462202972,
                -1.2219555101181974,
                1.4617839793093972,
                -0.8436427250691491,
                0.31380724159791507,
                1.0958639486373323
            ]
        },
        {
            "positions": [
                -0.29475787907387185,
                -1.2119774293537433,
                1.5177527418500443,
                -0.8463357842378111,
                0.32980699696033733,
                1.302358802346617
            ]
        },
        {
            "positions": [
                -0.3837166635257139,
                -1.2019993485892895,
                1.5737215043906914,
                -0.8490288434064732,
                0.3458067523227596,
                1.508853656055901
            ]
        },
        {
            "positions": [
                -0.4726754479775559,
                -1.1920212678248354,
                1.6296902669313384,
                -0.8517219025751352,
                0.36180650768518197,
                1.7153485097651857
            ]
        },
        {
            "positions": [
                -0.5616342324293979,
                -1.1820431870603816,
                1.6856590294719855,
                -0.8544149617437973,
                0.37780626304760423,
                1.9218433634744696
            ]
        },
        {
            "positions": [
                -0.6505930168812402,
                -1.1720651062959275,
                1.7416277920126326,
                -0.8571080209124593,
                0.3938060184100265,
                2.128338217183754
            ]
        },
        {
            "positions": [
                -0.7395518013330822,
                -1.1620870255314735,
                1.7975965545532797,
                -0.8598010800811214,
                0.4098057737724488,
                2.3348330708930387
            ]
        },
        {
            "positions": [
                -0.8285105857849242,
                -1.1521089447670196,
                1.8535653170939268,
                -0.8624941392497835,
                0.4258055291348711,
                2.5413279246023226
            ]
        },
        {
            "positions": [
                -0.9174693702367664,
                -1.1421308640025656,
                1.9095340796345739,
                -0.8651871984184455,
                0.44180528449729334,
                2.7478227783116074
            ]
        },
        {
            "positions": [
                -1.0064281546886082,
                -1.1321527832381117,
                1.965502842175221,
                -0.8678802575871076,
                0.4578050398597156,
                2.9543176320208913
            ]
        },
        {
            "positions": [
                -1.0953869391404505,
                -1.1221747024736577,
                2.021471604715868,
                -0.8705733167557697,
                0.4738047952221379,
                3.1608124857301765
            ]
        }
    ]
}