{
    "goal": {
        "global_pose": {
            "orientation": {
                "w": -0.00223480608172531,
                "x": 0.0024358444001904467,
                "y": 0.7094548369677653,
                "z": -0.704743149386269
            },
            "position": {
                "x": -0.37947507619857795,
                "y": -0.6371506643295288,
                "z": 0.19426114857196808
            }
        },
        "name": "move_to_magneteinheit_C"
    },
    "id": "ProjEST_move_to_magneteinheit_C_48",
    "joint_names": [
        "shoulder_pan_joint",
        "shoulder_lift_joint",
        "elbow_joint",
        "wrist_1_joint",
        "wrist_2_joint",
        "wrist_3_joint"
    ],
    "metrics": {
        "cart_traj_len": 2.2021684663082377,
        "distance_elbow_joint": 1.0206259905393433,
        "distance_shoulder_lift_joint": 0.36249656582653733,
        "distance_shoulder_pan_joint": 2.490657916370585,
        "distance_wrist_1_joint": 3.6820961342796803,
        "distance_wrist_2_joint": 1.4325316965627333,
        "distance_wrist_3_joint": 8.417689572299528,
        "smoothness": 0.7164953173599244,
        "time": 0.21491063700000002,
        "traj_len": 4.172061585820421,
        "weighted_distance": 6.27344441685107
    },
    "planner": "ProjEST",
    "start": {
        "state": {
            "elbow_joint": 1.9565354006590394,
            "shoulder_lift_joint": -1.4165861576513559,
            "shoulder_pan_joint": -1.6717766223277177,
            "wrist_1_joint": -0.5286633288215096,
            "wrist_2_joint": 1.4727565892594296,
            "wrist_3_joint": 3.1593482883155493
        }
    },
    "waypoints": [
        {
            "positions": [
                -1.6717766223277177,
                -1.4165861576513559,
                1.9565354006590394,
                -0.5286633288215096,
                1.4727565892594296,
                3.1593482883155493
            ]
        },
        {
            "positions": [
                -1.5138966392358937,
                -1.4274849044769902,
                1.899001444950712,
                -0.5282793268610554,
                1.4312006221162985,
                3.0413425982725224
            ]
        },
        {
            "positions": [
                -1.3560166561440696,
                -1.4383836513026245,
                1.8414674892423848,
                -0.5278953249006012,
                1.3896446549731674,
                2.923336908229495
            ]
        },
        {
            "positions": [
                -1.1981366730522458,
                -1.4492823981282585,
                1.7839335335340574,
                -0.527511322940147,
                1.348088687830036,
                2.8053312181864682
            ]
        },
        {
            "positions": [
                -1.0402566899604215,
                -1.4601811449538928,
                1.7263995778257302,
                -0.5271273209796928,
                1.3065327206869048,
                2.687325528143441
            ]
        },
        {
            "positions": [
                -0.8823767068685977,
                -1.4710798917795271,
                1.6688656221174027,
                -0.5267433190192387,
                1.2649767535437737,
                2.569319838100414
            ]
        },
        {
            "positions": [
                -0.9598456330813172,
                -1.4664798298678896,
                1.6595063811204873,
                -0.4462520857049399,
                1.2215517001549945,
                2.396372877264688
            ]
        },
        {
            "positions": [
                -1.0373145592940367,
                -1.461879767956252,
                1.650147140123572,
                -0.36576085239064116,
                1.1781266467662153,
                2.2234259164289623
            ]
        },
        {
            "positions": [
                -1.1147834855067562,
                -1.4572797060446145,
                1.6407878991266567,
                -0.28526961907634246,
                1.134701593377436,
                2.050478955593236
            ]
        },
        {
            "positions": [
                -1.1922524117194757,
                -1.4526796441329768,
                1.6314286581297415,
                -0.2047783857620437,
                1.0912765399886568,
                1.8775319947575102
            ]
        },
        {
            "positions": [
                -1.2697213379321952,
                -1.4480795822213393,
                1.622069417132826,
                -0.12428715244774502,
                1.0478514865998776,
                1.7045850339217843
            ]
        },
        {
            "positions": [
                -1.3471902641449145,
                -1.4434795203097017,
                1.6127101761359108,
                -0.04379591913344627,
                1.0044264332110984,
                1.5316380730860581
            ]
        },
        {
            "positions": [
                -1.424659190357634,
                -1.4388794583980642,
                1.6033509351389954,
                0.03669531418085248,
                0.9610013798223191,
                1.3586911122503322
            ]
        },
        {
            "positions": [
                -1.5021281165703535,
                -1.4342793964864267,
                1.59399169414208,
                0.11718654749515123,
                0.9175763264335399,
                1.1857441514146063
            ]
        },
        {
            "positions": [
                -1.579597042783073,
                -1.4296793345747891,
                1.5846324531451648,
                0.19767778080944987,
                0.8741512730447607,
                1.0127971905788802
            ]
        },
        {
            "positions": [
                -1.6570659689957925,
                -1.4250792726631516,
                1.5752732121482493,
                0.2781690141237486,
                0.8307262196559815,
                0.8398502297431543
            ]
        },
        {
            "positions": [
                -1.734534895208512,
                -1.4204792107515138,
                1.5659139711513341,
                0.3586602474380475,
                0.7873011662672023,
                0.6669032689074281
            ]
        },
        {
            "positions": [
                -1.8120038214212313,
                -1.4158791488398763,
                1.5565547301544187,
                0.4391514807523461,
                0.743876112878423,
                0.4939563080717022
            ]
        },
        {
            "positions": [
                -1.889472747633951,
                -1.4112790869282388,
                1.5471954891575035,
                0.519642714066645,
                0.7004510594896438,
                0.3210093472359761
            ]
        },
        {
            "positions": [
                -1.9669416738466703,
                -1.4066790250166012,
                1.537836248160588,
                0.6001339473809436,
                0.6570260061008646,
                0.14806238640025038
            ]
        },
        {
            "positions": [
                -2.04441060005939,
                -1.4020789631049637,
                1.5284770071636726,
                0.6806251806952425,
                0.6136009527120854,
                -0.02488457443547576
            ]
        },
        {
            "positions": [
                -2.1218795262721093,
                -1.3974789011933262,
                1.5191177661667574,
                0.7611164140095411,
                0.5701758993233061,
                -0.19783153527120145
            ]
        },
        {
            "positions": [
                -2.199348452484829,
                -1.3928788392816887,
                1.509758525169842,
                0.8416076473238397,
                0.5267508459345269,
                -0.3707784961069276
            ]
        },
        {
            "positions": [
                -2.2768173786975483,
                -1.388278777370051,
                1.5003992841729268,
                0.9220988806381384,
                0.4833257925457477,
                -0.5437254569426537
            ]
        },
        {
            "positions": [
                -2.354286304910268,
                -1.3836787154584134,
                1.4910400431760114,
                1.0025901139524374,
                0.4399007391569685,
                -0.7166724177783799
            ]
        },
        {
            "positions": [
                -2.4317552311229873,
                -1.3790786535467758,
                1.4816808021790961,
                1.0830813472667358,
                0.39647568576818926,
                -0.8896193786141056
            ]
        },
        {
            "positions": [
                -2.509224157335707,
                -1.3744785916351383,
                1.4723215611821807,
                1.1635725805810346,
                0.35305063237941003,
                -1.0625663394498317
            ]
        },
        {
            "positions": [
                -2.510765336589205,
                -1.3646659192283013,
                1.5074170844587975,
                1.0605774743897485,
                0.3696948633681773,
                -0.8400703188031607
            ]
        },
        {
            "positions": [
                -2.512306515842704,
                -1.3548532468214642,
                1.5425126077354143,
                0.9575823681984622,
                0.3863390943569446,
                -0.6175742981564898
            ]
        },
        {
            "positions": [
                -2.513847695096202,
                -1.345040574414627,
                1.5776081310120311,
                0.8545872620071759,
                0.4029833253457118,
                -0.39507827750981883
            ]
        },
        {
            "positions": [
                -2.5153888743497004,
                -1.33522790200779,
                1.6127036542886477,
                0.7515921558158898,
                0.41962755633447907,
                -0.17258225686314788
            ]
        },
        {
            "positions": [
                -2.516930053603199,
                -1.325415229600953,
                1.6477991775652645,
                0.6485970496246035,
                0.43627178732324634,
                0.04991376378352297
            ]
        },
        {
            "positions": [
                -2.5184712328566974,
                -1.315602557194116,
                1.6828947008418813,
                0.5456019434333172,
                0.4529160183120136,
                0.27240978443019404
            ]
        },
        {
            "positions": [
                -2.5200124121101957,
                -1.3057898847872786,
                1.717990224118498,
                0.4426068372420311,
                0.46956024930078083,
                0.49490580507686466
            ]
        },
        {
            "positions": [
                -2.521553591363694,
                -1.2959772123804416,
                1.753085747395115,
                0.3396117310507448,
                0.4862044802895481,
                0.717401825723536
            ]
        },
        {
            "positions": [
                -2.5230947706171927,
                -1.2861645399736046,
                1.7881812706717315,
                0.23661662485945867,
                0.5028487112783153,
                0.9398978463702066
            ]
        },
        {
            "positions": [
                -2.524635949870691,
                -1.2763518675667676,
                1.8232767939483483,
                0.1336215186681724,
                0.5194929422670826,
                1.1623938670168776
            ]
        },
        {
            "positions": [
                -2.5261771291241892,
                -1.2665391951599303,
                1.858372317224965,
                0.030626412476886244,
                0.5361371732558499,
                1.3848898876635487
            ]
        },
        {
            "positions": [
                -2.527718308377688,
                -1.2567265227530933,
                1.893467840501582,
                -0.07236869371440013,
                0.5527814042446172,
                1.6073859083102198
            ]
        },
        {
            "positions": [
                -2.5292594876311862,
                -1.2469138503462562,
                1.9285633637781987,
                -0.17536379990568626,
                0.5694256352333844,
                1.8298819289568904
            ]
        },
        {
            "positions": [
                -2.5258613281697064,
                -1.2389756465026673,
                1.942845521569236,
                -0.24381707776978095,
                0.5802574921795125,
                1.971260081165398
            ]
        },
        {
            "positions": [
                -2.522463168708227,
                -1.2310374426590782,
                1.957127679360273,
                -0.3122703556338756,
                0.5910893491256407,
                2.1126382333739055
            ]
        },
        {
            "positions": [
                -2.5129473884630436,
                -1.2174453661434947,
                1.9674488859371515,
                -0.41507381336632065,
                0.6060467537129371,
                2.3167523077159875
            ]
        },
        {
            "positions": [
                -2.50343160821786,
                -1.2038532896279113,
                1.97777009251403,
                -0.5178772710987657,
                0.6210041583002336,
                2.5208663820580695
            ]
        },
        {
            "positions": [
                -2.493915827972677,
                -1.190261213112328,
                1.9880912990909083,
                -0.6206807288312106,
                0.6359615628875301,
                2.7249804564001514
            ]
        },
        {
            "positions": [
                -2.4844000477274935,
                -1.1766691365967445,
                1.9984125056677868,
                -0.7234841865636557,
                0.6509189674748266,
                2.9290945307422334
            ]
        },
        {
            "positions": [
                -2.47488426748231,
                -1.163077060081161,
                2.0087337122446653,
                -0.8262876442961007,
                0.665876372062123,
                3.1332086050843153
            ]
        }
    ]
}