{
    "goal": {
        "global_pose": {
            "orientation": {
                "w": 0.7047431493862688,
                "x": -0.7094548369677653,
                "y": 0.0024358444001904,
                "z": -0.0022348060817251984
            },
            "position": {
                "x": -0.39052492380142206,
                "y": 0.3671506643295288,
                "z": 0.19426114857196808
            }
        },
        "name": "move_to_magneteinheit_D"
    },
    "id": "ProjEST_move_to_magneteinheit_D_64",
    "joint_names": [
        "shoulder_pan_joint",
        "shoulder_lift_joint",
        "elbow_joint",
        "wrist_1_joint",
        "wrist_2_joint",
        "wrist_3_joint"
    ],
    "metrics": {
        "cart_traj_len": 4.551070456381558,
        "distance_elbow_joint": 3.8272952719747244,
        "distance_shoulder_lift_joint": 2.6082819366523133,
        "distance_shoulder_pan_joint": 3.5929654487439513,
        "distance_wrist_1_joint": 2.2183480377888847,
        "distance_wrist_2_joint": 0.6252632838700257,
        "distance_wrist_3_joint": 5.821757890895222,
        "smoothness": 0.7776446635342077,
        "time": 0.227516066,
        "traj_len": 4.323645668868475,
        "weighted_distance": 5.760298514259003
    },
    "planner": "ProjEST",
    "start": {
        "state": {
            "elbow_joint": 0.7495348899011973,
            "shoulder_lift_joint": -0.6476975780737697,
            "shoulder_pan_joint": -2.711696901376276,
            "wrist_1_joint": -0.07506478080974305,
            "wrist_2_joint": 0.4329665971545858,
            "wrist_3_joint": 3.1361499051832524
        }
    },
    "waypoints": [
        {
            "positions": [
                -2.711696901376276,
                -0.6476975780737697,
                0.7495348899011973,
                -0.07506478080974305,
                0.4329665971545858,
                3.1361499051832524
            ]
        },
        {
            "positions": [
                -2.773865935180778,
                -0.6806027399682875,
                0.8137171917946359,
                -0.08413940523173782,
                0.39485388013331957,
                2.974799008759497
            ]
        },
        {
            "positions": [
                -2.83603496898528,
                -0.7135079018628052,
                0.8778994936880744,
                -0.0932140296537326,
                0.3567411631120533,
                2.8134481123357418
            ]
        },
        {
            "positions": [
                -2.8982040027897824,
                -0.746413063757323,
                0.942081795581513,
                -0.10228865407572738,
                0.31862844609078705,
                2.6520972159119864
            ]
        },
        {
            "positions": [
                -2.960373036594284,
                -0.7793182256518407,
                1.0062640974749515,
                -0.11136327849772215,
                0.2805157290695208,
                2.490746319488231
            ]
        },
        {
            "positions": [
                -2.8545514245523402,
                -0.9159627073029598,
                1.0148817792331601,
                -0.07759888721406047,
                0.26569691360500236,
                2.554314556205658
            ]
        },
        {
            "positions": [
                -2.7487298125103963,
                -1.052607188954079,
                1.023499460991369,
                -0.04383449593039879,
                0.2508780981404839,
                2.617882792923085
            ]
        },
        {
            "positions": [
                -2.642908200468452,
                -1.1892516706051979,
                1.0321171427495777,
                -0.010070104646737105,
                0.2360592826759654,
                2.681451029640512
            ]
        },
        {
            "positions": [
                -2.537086588426508,
                -1.325896152256317,
                1.0407348245077863,
                0.023694286636924577,
                0.2212404672114469,
                2.745019266357939
            ]
        },
        {
            "positions": [
                -2.431264976384564,
                -1.462540633907436,
                1.0493525062659952,
                0.05745867792058626,
                0.20642165174692845,
                2.808587503075366
            ]
        },
        {
            "positions": [
                -2.32544336434262,
                -1.599185115558555,
                1.0579701880242038,
                0.09122306920424794,
                0.19160283628240998,
                2.8721557397927926
            ]
        },
        {
            "positions": [
                -2.219621752300676,
                -1.735829597209674,
                1.0665878697824127,
                0.12498746048790965,
                0.17678402081789152,
                2.9357239765102197
            ]
        },
        {
            "positions": [
                -2.113800140258732,
                -1.8724740788607932,
                1.0752055515406214,
                0.1587518517715713,
                0.16196520535337303,
                2.9992922132276467
            ]
        },
        {
            "positions": [
                -2.0079785282167877,
                -2.0091185605119124,
                1.08382323329883,
                0.19251624305523302,
                0.14714638988885453,
                3.062860449945074
            ]
        },
        {
            "positions": [
                -1.902156916174844,
                -2.145763042163031,
                1.0924409150570389,
                0.22628063433889467,
                0.1323275744243361,
                3.1264286866625004
            ]
        },
        {
            "positions": [
                -1.7963353041328998,
                -2.2824075238141504,
                1.1010585968152475,
                0.2600450256225564,
                0.1175087589598176,
                3.1899969233799275
            ]
        },
        {
            "positions": [
                -1.7354936123997902,
                -2.2658455621369415,
                1.0354774733558068,
                0.3263471296207844,
                0.1202653930272295,
                3.022894141648873
            ]
        },
        {
            "positions": [
                -1.6746519206666806,
                -2.249283600459733,
                0.9698963498963662,
                0.3926492336190124,
                0.12302202709464138,
                2.8557913599178186
            ]
        },
        {
            "positions": [
                -1.613810228933571,
                -2.2327216387825244,
                0.9043152264369255,
                0.4589513376172404,
                0.12577866116205327,
                2.688688578186764
            ]
        },
        {
            "positions": [
                -1.5529685372004614,
                -2.216159677105316,
                0.8387341029774849,
                0.5252534416154684,
                0.12853529522946516,
                2.52158579645571
            ]
        },
        {
            "positions": [
                -1.4921268454673517,
                -2.1995977154281072,
                0.7731529795180443,
                0.5915555456136965,
                0.13129192929687705,
                2.3544830147246554
            ]
        },
        {
            "positions": [
                -1.4312851537342421,
                -2.183035753750899,
                0.7075718560586035,
                0.6578576496119244,
                0.13404856336428894,
                2.1873802329936014
            ]
        },
        {
            "positions": [
                -1.3704434620011325,
                -2.16647379207369,
                0.6419907325991628,
                0.7241597536101525,
                0.13680519743170083,
                2.0202774512625465
            ]
        },
        {
            "positions": [
                -1.309601770268023,
                -2.1499118303964817,
                0.5764096091397222,
                0.7904618576083805,
                0.13956183149911272,
                1.8531746695314923
            ]
        },
        {
            "positions": [
                -1.2487600785349136,
                -2.133349868719273,
                0.5108284856802815,
                0.8567639616066085,
                0.1423184655665246,
                1.6860718878004377
            ]
        },
        {
            "positions": [
                -1.1879183868018037,
                -2.1167879070420645,
                0.44524736222084094,
                0.9230660656048365,
                0.1450750996339365,
                1.5189691060693835
            ]
        },
        {
            "positions": [
                -1.1270766950686943,
                -2.1002259453648557,
                0.37966623876140015,
                0.9893681696030646,
                0.1478317337013484,
                1.351866324338329
            ]
        },
        {
            "positions": [
                -1.0662350033355845,
                -2.0836639836876474,
                0.3140851153019596,
                1.0556702736012924,
                0.15058836776876028,
                1.184763542607275
            ]
        },
        {
            "positions": [
                -1.0053933116024751,
                -2.0671020220104386,
                0.24850399184251892,
                1.1219723775995205,
                0.15334500183617217,
                1.0176607608762205
            ]
        },
        {
            "positions": [
                -0.9445516198693654,
                -2.05054006033323,
                0.18292286838307814,
                1.1882744815977486,
                0.15610163590358406,
                0.8505579791451656
            ]
        },
        {
            "positions": [
                -0.8837099281362558,
                -2.0339780986560214,
                0.11734174492363758,
                1.2545765855959767,
                0.15885826997099595,
                0.6834551974141116
            ]
        },
        {
            "positions": [
                -0.8228682364031463,
                -2.017416136978813,
                0.0517606214641968,
                1.3208786895942046,
                0.16161490403840784,
                0.5163524156830572
            ]
        },
        {
            "positions": [
                -0.7620265446700367,
                -2.0008541753016043,
                -0.013820501995243761,
                1.3871807935924325,
                0.16437153810581973,
                0.3492496339520028
            ]
        },
        {
            "positions": [
                -0.7011848529369271,
                -1.9842922136243957,
                -0.07940162545468454,
                1.4534828975906606,
                0.16712817217323162,
                0.18214685222094795
            ]
        },
        {
            "positions": [
                -0.6403431612038175,
                -1.967730251947187,
                -0.1449827489141251,
                1.5197850015888887,
                0.1698848062406435,
                0.01504407048989398
            ]
        },
        {
            "positions": [
                -0.5795014694707079,
                -1.9511682902699785,
                -0.21056387237356566,
                1.5860871055871166,
                0.1726414403080554,
                -0.15205871124116044
            ]
        },
        {
            "positions": [
                -0.5186597777375983,
                -1.93460632859277,
                -0.27614499583300645,
                1.6523892095853447,
                0.17539807437546728,
                -0.31916149297221486
            ]
        },
        {
            "positions": [
                -0.4578180860044887,
                -1.9180443669155613,
                -0.34172611929244723,
                1.7186913135835729,
                0.17815470844287917,
                -0.4862642747032693
            ]
        },
        {
            "positions": [
                -0.3969763942713791,
                -1.9014824052383528,
                -0.4073072427518878,
                1.7849934175818007,
                0.18091134251029106,
                -0.6533670564343235
            ]
        },
        {
            "positions": [
                -0.3418538781507686,
                -1.9556106661268549,
                -0.5694408734208694,
                1.7551387699329437,
                0.1947251663494421,
                -0.5982233185238228
            ]
        },
        {
            "positions": [
                -0.28673136203015814,
                -2.009738927015357,
                -0.7315745040898509,
                1.725284122284087,
                0.20853899018859312,
                -0.5430795806133223
            ]
        },
        {
            "positions": [
                -0.23160884590954764,
                -2.0638671879038593,
                -0.8937081347588324,
                1.6954294746352299,
                0.22235281402774412,
                -0.48793584270282164
            ]
        },
        {
            "positions": [
                -0.17648632978893716,
                -2.117995448792361,
                -1.055841765427814,
                1.665574826986373,
                0.23616663786689515,
                -0.4327921047923211
            ]
        },
        {
            "positions": [
                -0.12136381366832666,
                -2.1721237096808634,
                -1.2179753960967954,
                1.635720179337516,
                0.24998046170604618,
                -0.37764836688182046
            ]
        },
        {
            "positions": [
                -0.06624129754771618,
                -2.2262519705693653,
                -1.380109026765777,
                1.6058655316886592,
                0.2637942855451972,
                -0.3225046289713199
            ]
        },
        {
            "positions": [
                -0.01111878142710565,
                -2.2803802314578676,
                -1.5422426574347585,
                1.5760108840398022,
                0.2776081093843482,
                -0.26736089106081923
            ]
        },
        {
            "positions": [
                0.04400373469350477,
                -2.3345084923463695,
                -1.70437628810374,
                1.5461562363909453,
                0.29142193322349924,
                -0.2122171531503187
            ]
        },
        {
            "positions": [
                0.0991262508141153,
                -2.388636753234872,
                -1.8665099187727217,
                1.5163015887420883,
                0.30523575706265027,
                -0.15707341523981805
            ]
        },
        {
            "positions": [
                0.004196242108267967,
                -2.353472578455,
                -2.0359109352636233,
                1.5219685938026448,
                0.2645429412051753,
                -0.11125805513990233
            ]
        },
        {
            "positions": [
                -0.09073376659757937,
                -2.3183084036751276,
                -2.2053119517545245,
                1.5276355988632015,
                0.22385012534770032,
                -0.06544269503998662
            ]
        },
        {
            "positions": [
                -0.18566377530342668,
                -2.2831442288952557,
                -2.374712968245426,
                1.533302603923758,
                0.18315730949022535,
                -0.01962733494007092
            ]
        }
    ]
}