{
    "goal": {
        "global_pose": {
            "orientation": {
                "w": -0.4816463035849501,
                "x": 0.5182115481033762,
                "y": 0.4908360881923453,
                "z": -0.5084816262002911
            },
            "position": {
                "x": -0.8240239810943604,
                "y": -0.300875300988555,
                "z": 0.16403168439865112
            }
        },
        "name": "move_to_storage_C"
    },
    "id": "ProjEST_move_to_storage_C_83",
    "joint_names": [
        "shoulder_pan_joint",
        "shoulder_lift_joint",
        "elbow_joint",
        "wrist_1_joint",
        "wrist_2_joint",
        "wrist_3_joint"
    ],
    "metrics": {
        "cart_traj_len": 0.577359694991252,
        "distance_elbow_joint": 0.25984349025175746,
        "distance_shoulder_lift_joint": 0.19010146981583698,
        "distance_shoulder_pan_joint": 0.49439035713019797,
        "distance_wrist_1_joint": 0.083091246826977,
        "distance_wrist_2_joint": 1.0755347223230038,
        "distance_wrist_3_joint": 0.05798365696253205,
        "smoothness": 0.0,
        "time": 0.034260652,
        "traj_len": 1.4700152867607552,
        "weighted_distance": 1.8535204952698392
    },
    "planner": "ProjEST",
    "start": {
        "state": {
            "elbow_joint": 2.010868315001653,
            "shoulder_lift_joint": -1.1634956873357014,
            "shoulder_pan_joint": -2.4736205022346103,
            "wrist_1_joint": -0.8367026794713948,
            "wrist_2_joint": 0.6746043897044093,
            "wrist_3_joint": 3.1335220948105738
        }
    },
    "waypoints": [
        {
            "positions": [
                -2.4736205022346103,
                -1.1634956873357014,
                2.010868315001653,
                -0.8367026794713948,
                0.6746043897044093,
                3.1335220948105738
            ]
        },
        {
            "positions": [
                -2.556018895089643,
                -1.131812109033062,
                1.96756106662636,
                -0.8228541383335652,
                0.8538601767582432,
                3.1431860376376624
            ]
        },
        {
            "positions": [
                -2.638417287944676,
                -1.1001285307304225,
                1.9242538182510673,
                -0.8090055971957357,
                1.0331159638120773,
                3.152849980464751
            ]
        },
        {
            "positions": [
                -2.720815680799709,
                -1.0684449524277828,
                1.8809465698757744,
                -0.7951570560579062,
                1.2123717508659113,
                3.16251392329184
            ]
        },
        {
            "positions": [
                -2.8032140736547424,
                -1.0367613741251434,
                1.8376393215004814,
                -0.7813085149200768,
                1.3916275379197451,
                3.1721778661189286
            ]
        },
        {
            "positions": [
                -2.8856124665097753,
                -1.005077795822504,
                1.7943320731251886,
                -0.7674599737822473,
                1.5708833249735792,
                3.181841808946017
            ]
        },
        {
            "positions": [
                -2.9680108593648082,
                -0.9733942175198644,
                1.7510248247498956,
                -0.7536114326444178,
                1.7501391120274132,
                3.191505751773106
            ]
        }
    ]
}