{
    "goal": {
        "global_pose": {
            "orientation": {
                "w": 0.005598929693374612,
                "x": 0.007748599140229565,
                "y": 0.7110244013736278,
                "z": -0.7031023480610252
            },
            "position": {
                "x": 0.1141497679147869,
                "y": -0.7141253447532654,
                "z": 0.3711530566215515
            }
        },
        "name": "move_to_auspresseinheit_B"
    },
    "id": "ProjEST_move_to_auspresseinheit_B_5",
    "joint_names": [
        "shoulder_pan_joint",
        "shoulder_lift_joint",
        "elbow_joint",
        "wrist_1_joint",
        "wrist_2_joint",
        "wrist_3_joint"
    ],
    "metrics": {
        "cart_traj_len": 0.5644302864998216,
        "distance_elbow_joint": 0.06443523191392586,
        "distance_shoulder_lift_joint": 0.2949334622116795,
        "distance_shoulder_pan_joint": 0.5768256972319992,
        "distance_wrist_1_joint": 0.335587476248001,
        "distance_wrist_2_joint": 0.993299754997639,
        "distance_wrist_3_joint": 0.0065772835866986235,
        "smoothness": 3.806478935924272e-16,
        "time": 1.460284599,
        "traj_len": 1.5072023441429299,
        "weighted_distance": 1.9009736201770344
    },
    "planner": "ProjEST",
    "start": {
        "state": {
            "elbow_joint": 2.019306165916698,
            "shoulder_lift_joint": -1.1220205098164344,
            "shoulder_pan_joint": -1.095207207618794,
            "wrist_1_joint": -0.8559671824921639,
            "wrist_2_joint": 0.47596387242952726,
            "wrist_3_joint": 3.159081874673826
        }
    },
    "waypoints": [
        {
            "positions": [
                -1.095207207618794,
                -1.1220205098164344,
                2.019306165916698,
                -0.8559671824921639,
                0.47596387242952726,
                3.159081874673826
            ]
        },
        {
            "positions": [
                -1.191344823824127,
                -1.1711760868517143,
                2.0085669605977103,
                -0.8000359364508304,
                0.6415138315958004,
                3.1579856607427095
            ]
        },
        {
            "positions": [
                -1.2874824400294604,
                -1.2203316638869943,
                1.9978277552787227,
                -0.7441046904094969,
                0.8070637907620736,
                3.156889446811593
            ]
        },
        {
            "positions": [
                -1.3836200562347936,
                -1.2694872409222742,
                1.987088549959735,
                -0.6881734443681633,
                0.9726137499283467,
                3.1557932328804768
            ]
        },
        {
            "positions": [
                -1.4797576724401267,
                -1.318642817957554,
                1.9763493446407474,
                -0.6322421983268298,
                1.13816370909462,
                3.15469701894936
            ]
        },
        {
            "positions": [
                -1.57589528864546,
                -1.367798394992834,
                1.9656101393217598,
                -0.5763109522854963,
                1.3037136682608932,
                3.1536008050182436
            ]
        },
        {
            "positions": [
                -1.6720329048507931,
                -1.416953972028114,
                1.9548709340027721,
                -0.5203797062441629,
                1.4692636274271662,
                3.152504591087127
            ]
        }
    ]
}