{
    "goal": {
        "global_pose": {
            "orientation": {
                "w": 0.005598929693374612,
                "x": 0.007748599140229565,
                "y": 0.7110244013736278,
                "z": -0.7031023480610252
            },
            "position": {
                "x": -0.8858502320852131,
                "y": -0.7141253447532654,
                "z": 0.3711530566215515
            }
        },
        "name": "move_to_auspresseinheit_C"
    },
    "id": "ProjEST_move_to_auspresseinheit_C_24",
    "joint_names": [
        "shoulder_pan_joint",
        "shoulder_lift_joint",
        "elbow_joint",
        "wrist_1_joint",
        "wrist_2_joint",
        "wrist_3_joint"
    ],
    "metrics": {
        "cart_traj_len": 0.4933172523848304,
        "distance_elbow_joint": 1.0039574925687385,
        "distance_shoulder_lift_joint": 0.3264290314772297,
        "distance_shoulder_pan_joint": 0.2557347748717924,
        "distance_wrist_1_joint": 0.6832217838033843,
        "distance_wrist_2_joint": 1.3212570926638612,
        "distance_wrist_3_joint": 0.05648449549385104,
        "smoothness": 9.689219149575433e-16,
        "time": 2.830639843,
        "traj_len": 1.909734188540085,
        "weighted_distance": 2.400944093129577
    },
    "planner": "ProjEST",
    "start": {
        "state": {
            "elbow_joint": 1.752795957773711,
            "shoulder_lift_joint": -0.9740617694225064,
            "shoulder_pan_joint": -2.967991417825858,
            "wrist_1_joint": -0.7595177689806859,
            "wrist_2_joint": 1.7443932448377395,
            "wrist_3_joint": 3.199131542505932
        }
    },
    "waypoints": [
        {
            "positions": [
                -2.967991417825858,
                -0.9740617694225064,
                1.752795957773711,
                -0.7595177689806859,
                1.7443932448377395,
                3.199131542505932
            ]
        },
        {
            "positions": [
                -2.9424179403386788,
                -0.9414188662747834,
                1.6524002085168372,
                -0.6911955906003475,
                1.6122675355713534,
                3.193483092956547
            ]
        },
        {
            "positions": [
                -2.9168444628514996,
                -0.9087759631270605,
                1.5520044592599633,
                -0.622873412220009,
                1.4801418263049673,
                3.187834643407162
            ]
        },
        {
            "positions": [
                -2.8912709853643204,
                -0.8761330599793375,
                1.4516087100030897,
                -0.5545512338396706,
                1.3480161170385812,
                3.1821861938577767
            ]
        },
        {
            "positions": [
                -2.865697507877141,
                -0.8434901568316145,
                1.3512129607462158,
                -0.4862290554593322,
                1.215890407772195,
                3.1765377443083915
            ]
        },
        {
            "positions": [
                -2.840124030389962,
                -0.8108472536838915,
                1.2508172114893419,
                -0.41790687707899377,
                1.083764698505809,
                3.1708892947590064
            ]
        },
        {
            "positions": [
                -2.8145505529027823,
                -0.7782043505361687,
                1.150421462232468,
                -0.3495846986986553,
                0.9516389892394228,
                3.1652408452096217
            ]
        },
        {
            "positions": [
                -2.788977075415603,
                -0.7455614473884457,
                1.0500257129755943,
                -0.28126252031831694,
                0.8195132799730368,
                3.1595923956602365
            ]
        },
        {
            "positions": [
                -2.763403597928424,
                -0.7129185442407227,
                0.9496299637187203,
                -0.2129403419379785,
                0.6873875707066506,
                3.1539439461108514
            ]
        },
        {
            "positions": [
                -2.7378301204412447,
                -0.6802756410929998,
                0.8492342144618464,
                -0.14461816355764,
                0.5552618614402645,
                3.1482954965614662
            ]
        },
        {
            "positions": [
                -2.7122566429540655,
                -0.6476327379452768,
                0.7488384652049725,
                -0.07629598517730163,
                0.42313615217387834,
                3.142647047012081
            ]
        }
    ]
}