{
    "goal": {
        "global_pose": {
            "orientation": {
                "w": 0.5084816262002911,
                "x": -0.4908360881923452,
                "y": 0.5182115481033761,
                "z": -0.48164630358495003
            },
            "position": {
                "x": 0.5540239810943604,
                "y": -0.46912469901144505,
                "z": 0.16403168439865112
            }
        },
        "name": "move_to_storage_B"
    },
    "id": "ProjEST_move_to_storage_B_141",
    "joint_names": [
        "shoulder_pan_joint",
        "shoulder_lift_joint",
        "elbow_joint",
        "wrist_1_joint",
        "wrist_2_joint",
        "wrist_3_joint"
    ],
    "metrics": {
        "cart_traj_len": 0.6785839525072395,
        "distance_elbow_joint": 0.35818174471891795,
        "distance_shoulder_lift_joint": 0.46150587854377356,
        "distance_shoulder_pan_joint": 0.3867842048160738,
        "distance_wrist_1_joint": 3.024841278084341,
        "distance_wrist_2_joint": 2.702180902994166,
        "distance_wrist_3_joint": 3.1166518687111426,
        "smoothness": 0.04685742686742938,
        "time": 0.12432196300000001,
        "traj_len": 3.170196504614251,
        "weighted_distance": 4.691531924261969
    },
    "planner": "ProjEST",
    "start": {
        "state": {
            "elbow_joint": 1.6649325706314817,
            "shoulder_lift_joint": -0.6616388048112454,
            "shoulder_pan_joint": -0.9139837860083814,
            "wrist_1_joint": 2.146757197745094,
            "wrist_2_joint": -2.234196043158733,
            "wrist_3_joint": 0.005471033829999897
        }
    },
    "waypoints": [
        {
            "positions": [
                -0.9139837860083814,
                -0.6616388048112454,
                1.6649325706314817,
                2.146757197745094,
                -2.234196043158733,
                0.005471033829999897
            ]
        },
        {
            "positions": [
                -0.8629817684007564,
                -0.6838937969716121,
                1.6978136305267997,
                2.1185923549862995,
                -2.1996606996084846,
                -0.04611232062424433
            ]
        },
        {
            "positions": [
                -0.8119797507931312,
                -0.7061487891319789,
                1.7306946904221174,
                2.090427512227505,
                -2.165125356058237,
                -0.09769567507848854
            ]
        },
        {
            "positions": [
                -0.8233709575771642,
                -0.7228286249009005,
                1.7423914754192487,
                1.9716870485248348,
                -2.05980094742249,
                -0.21823508147059473
            ]
        },
        {
            "positions": [
                -0.8347621643611971,
                -0.7395084606698221,
                1.75408826041638,
                1.8529465848221647,
                -1.9544765387867433,
                -0.3387744878627009
            ]
        },
        {
            "positions": [
                -0.84615337114523,
                -0.7561882964387436,
                1.7657850454135113,
                1.7342061211194948,
                -1.8491521301509963,
                -0.45931389425480706
            ]
        },
        {
            "positions": [
                -0.857544577929263,
                -0.7728681322076653,
                1.7774818304106426,
                1.6154656574168247,
                -1.7438277215152496,
                -0.5798533006469133
            ]
        },
        {
            "positions": [
                -0.8689357847132959,
                -0.7895479679765869,
                1.7891786154077738,
                1.4967251937141546,
                -1.6385033128795028,
                -0.7003927070390195
            ]
        },
        {
            "positions": [
                -0.8803269914973288,
                -0.8062278037455085,
                1.8008754004049052,
                1.3779847300114847,
                -1.533178904243756,
                -0.8209321134311256
            ]
        },
        {
            "positions": [
                -0.8917181982813619,
                -0.8229076395144301,
                1.8125721854020365,
                1.2592442663088144,
                -1.4278544956080093,
                -0.9414715198232319
            ]
        },
        {
            "positions": [
                -0.9031094050653948,
                -0.8395874752833516,
                1.8242689703991677,
                1.1405038026061445,
                -1.3225300869722623,
                -1.062010926215338
            ]
        },
        {
            "positions": [
                -0.9145006118494278,
                -0.8562673110522733,
                1.8359657553962991,
                1.0217633389034744,
                -1.2172056783365157,
                -1.182550332607444
            ]
        },
        {
            "positions": [
                -0.9258918186334607,
                -0.8729471468211949,
                1.8476625403934304,
                0.9030228752008043,
                -1.1118812697007687,
                -1.3030897389995504
            ]
        },
        {
            "positions": [
                -0.9372830254174936,
                -0.8896269825901165,
                1.8593593253905616,
                0.7842824114981342,
                -1.006556861065022,
                -1.4236291453916565
            ]
        },
        {
            "positions": [
                -0.9486742322015266,
                -0.9063068183590381,
                1.8710561103876928,
                0.6655419477954643,
                -0.9012324524292752,
                -1.5441685517837627
            ]
        },
        {
            "positions": [
                -0.9600654389855595,
                -0.9229866541279597,
                1.8827528953848243,
                0.5468014840927939,
                -0.7959080437935282,
                -1.6647079581758688
            ]
        },
        {
            "positions": [
                -0.9714566457695925,
                -0.9396664898968814,
                1.8944496803819555,
                0.42806102039012384,
                -0.6905836351577814,
                -1.7852473645679752
            ]
        },
        {
            "positions": [
                -0.9828478525536254,
                -0.9563463256658029,
                1.9061464653790867,
                0.30932055668745395,
                -0.5852592265220347,
                -1.905786770960081
            ]
        },
        {
            "positions": [
                -0.9942390593376583,
                -0.9730261614347245,
                1.917843250376218,
                0.19058009298478384,
                -0.4799348178862879,
                -2.0263261773521877
            ]
        },
        {
            "positions": [
                -1.0056302661216914,
                -0.9897059972036462,
                1.9295400353733494,
                0.07183962928211374,
                -0.3746104092505409,
                -2.146865583744294
            ]
        },
        {
            "positions": [
                -1.0170214729057243,
                -1.0063858329725677,
                1.9412368203704806,
                -0.04690083442055615,
                -0.26928600061479435,
                -2.2674049901363995
            ]
        },
        {
            "positions": [
                -1.0284126796897572,
                -1.0230656687414892,
                1.9529336053676118,
                -0.16564129812322648,
                -0.16396159197904758,
                -2.387944396528506
            ]
        },
        {
            "positions": [
                -1.0398038864737902,
                -1.039745504510411,
                1.9646303903647433,
                -0.28438176182589636,
                -0.05863718334330059,
                -2.5084838029206122
            ]
        },
        {
            "positions": [
                -1.0511950932578231,
                -1.0564253402793324,
                1.9763271753618745,
                -0.40312222552856625,
                0.046687225292445955,
                -2.629023209312718
            ]
        },
        {
            "positions": [
                -1.062586300041856,
                -1.0731051760482542,
                1.9880239603590057,
                -0.5218626892312366,
                0.15201163392819295,
                -2.7495626157048245
            ]
        },
        {
            "positions": [
                -1.073977506825889,
                -1.0897850118171757,
                1.9997207453561372,
                -0.6406031529339065,
                0.25733604256393994,
                -2.8701020220969307
            ]
        },
        {
            "positions": [
                -1.085368713609922,
                -1.1064648475860972,
                2.011417530353268,
                -0.7593436166365763,
                0.3626604511996865,
                -2.990641428489037
            ]
        },
        {
            "positions": [
                -1.0967599203939549,
                -1.123144683355019,
                2.0231143153503997,
                -0.8780840803392468,
                0.46798485983543325,
                -3.111180834881143
            ]
        }
    ]
}