{
    "goal": {
        "global_pose": {
            "orientation": {
                "w": 0.005598929693374612,
                "x": 0.007748599140229565,
                "y": 0.7110244013736278,
                "z": -0.7031023480610252
            },
            "position": {
                "x": 0.1141497679147869,
                "y": -0.7141253447532654,
                "z": 0.3711530566215515
            }
        },
        "name": "move_to_auspresseinheit_B"
    },
    "id": "ProjEST_move_to_auspresseinheit_B_133",
    "joint_names": [
        "shoulder_pan_joint",
        "shoulder_lift_joint",
        "elbow_joint",
        "wrist_1_joint",
        "wrist_2_joint",
        "wrist_3_joint"
    ],
    "metrics": {
        "cart_traj_len": 0.5637812399402975,
        "distance_elbow_joint": 0.06307128685961416,
        "distance_shoulder_lift_joint": 0.29414008913040735,
        "distance_shoulder_pan_joint": 0.5762323848429041,
        "distance_wrist_1_joint": 0.33258037963592335,
        "distance_wrist_2_joint": 0.9951607217109377,
        "distance_wrist_3_joint": 0.004886885928772067,
        "smoothness": 5.075305295617109e-16,
        "time": 0.560969661,
        "traj_len": 1.5053477166782956,
        "weighted_distance": 1.8983115185113753
    },
    "planner": "ProjEST",
    "start": {
        "state": {
            "elbow_joint": 2.019306165916698,
            "shoulder_lift_joint": -1.1220205098164344,
            "shoulder_pan_joint": -1.095207207618794,
            "wrist_1_joint": -0.8559671824921639,
            "wrist_2_joint": 0.47596387242952726,
            "wrist_3_joint": 3.159081874673826
        }
    },
    "waypoints": [
        {
            "positions": [
                -1.095207207618794,
                -1.1220205098164344,
                2.019306165916698,
                -0.8559671824921639,
                0.47596387242952726,
                3.159081874673826
            ]
        },
        {
            "positions": [
                -1.1912459384259446,
                -1.1710438580048357,
                2.008794284773429,
                -0.80053711921951,
                0.6418239927146836,
                3.1582673936856973
            ]
        },
        {
            "positions": [
                -1.2872846692330953,
                -1.220067206193237,
                1.9982824036301599,
                -0.7451070559468561,
                0.8076841129998398,
                3.1574529126975683
            ]
        },
        {
            "positions": [
                -1.3833234000402461,
                -1.2690905543816382,
                1.987770522486891,
                -0.6896769926742021,
                0.9735442332849962,
                3.15663843170944
            ]
        },
        {
            "positions": [
                -1.4793621308473965,
                -1.3181139025700392,
                1.977258641343622,
                -0.6342469294015483,
                1.1394043535701524,
                3.1558239507213113
            ]
        },
        {
            "positions": [
                -1.5754008616545474,
                -1.3671372507584405,
                1.9667467602003528,
                -0.5788168661288944,
                1.3052644738553087,
                3.1550094697331823
            ]
        },
        {
            "positions": [
                -1.671439592461698,
                -1.4161605989468418,
                1.9562348790570838,
                -0.5233868028562405,
                1.471124594140465,
                3.1541949887450538
            ]
        }
    ]
}