{
    "goal": {
        "global_pose": {
            "orientation": {
                "w": -0.00223480608172531,
                "x": 0.0024358444001904467,
                "y": 0.7094548369677653,
                "z": -0.704743149386269
            },
            "position": {
                "x": -0.37947507619857795,
                "y": -0.6371506643295288,
                "z": 0.19426114857196808
            }
        },
        "name": "move_to_magneteinheit_C"
    },
    "id": "ProjEST_move_to_magneteinheit_C_145",
    "joint_names": [
        "shoulder_pan_joint",
        "shoulder_lift_joint",
        "elbow_joint",
        "wrist_1_joint",
        "wrist_2_joint",
        "wrist_3_joint"
    ],
    "metrics": {
        "cart_traj_len": 1.134268936943374,
        "distance_elbow_joint": 0.41241886891952495,
        "distance_shoulder_lift_joint": 0.8763097706717677,
        "distance_shoulder_pan_joint": 1.3734999908755943,
        "distance_wrist_1_joint": 1.4439731320145814,
        "distance_wrist_2_joint": 2.2616902055546158,
        "distance_wrist_3_joint": 3.0191464761004836,
        "smoothness": 1.0000238219203197,
        "time": 0.83304141,
        "traj_len": 3.0638274174856144,
        "weighted_distance": 4.373899259688857
    },
    "planner": "ProjEST",
    "start": {
        "state": {
            "elbow_joint": 1.9565354006590394,
            "shoulder_lift_joint": -1.4165861576513559,
            "shoulder_pan_joint": -1.6717766223277177,
            "wrist_1_joint": -0.5286633288215096,
            "wrist_2_joint": 1.4727565892594296,
            "wrist_3_joint": 3.1593482883155493
        }
    },
    "waypoints": [
        {
            "positions": [
                -1.6717766223277177,
                -1.4165861576513559,
                1.9565354006590394,
                -0.5286633288215096,
                1.4727565892594296,
                3.1593482883155493
            ]
        },
        {
            "positions": [
                -1.6961016555320223,
                -1.4945033421471774,
                1.9463015647531094,
                -0.4321375321679909,
                1.3877760241807977,
                3.0632359080610008
            ]
        },
        {
            "positions": [
                -1.7204266887363269,
                -1.5724205266429991,
                1.9360677288471795,
                -0.3356117355144722,
                1.3027954591021658,
                2.967123527806452
            ]
        },
        {
            "positions": [
                -1.7447517219406314,
                -1.6503377111388207,
                1.9258338929412497,
                -0.23908593886095347,
                1.2178148940235338,
                2.8710111475519033
            ]
        },
        {
            "positions": [
                -1.769076755144936,
                -1.7282548956346422,
                1.9156000570353198,
                -0.1425601422074348,
                1.1328343289449019,
                2.774898767297355
            ]
        },
        {
            "positions": [
                -1.8681651600888671,
                -1.700762133321436,
                1.9019069690488952,
                -0.124674094859667,
                1.013586844440362,
                2.6614486026134156
            ]
        },
        {
            "positions": [
                -1.967253565032798,
                -1.67326937100823,
                1.888213881062471,
                -0.10678804751189921,
                0.8943393599358219,
                2.5479984379294764
            ]
        },
        {
            "positions": [
                -2.066341969976729,
                -1.6457766086950238,
                1.8745207930760464,
                -0.08890200016413141,
                0.775091875431282,
                2.4345482732455372
            ]
        },
        {
            "positions": [
                -2.16543037492066,
                -1.6182838463818179,
                1.8608277050896218,
                -0.07101595281636362,
                0.655844390926742,
                2.321098108561598
            ]
        },
        {
            "positions": [
                -2.2645187798645914,
                -1.5907910840686117,
                1.8471346171031975,
                -0.053129905468595834,
                0.536596906422202,
                2.2076479438776584
            ]
        },
        {
            "positions": [
                -2.3636071848085223,
                -1.5632983217554055,
                1.833441529116773,
                -0.035243858120828045,
                0.4173494219176621,
                2.0941977791937196
            ]
        },
        {
            "positions": [
                -2.462695589752453,
                -1.5358055594421995,
                1.8197484411303484,
                -0.017357810773060256,
                0.2981019374131222,
                1.9807476145097802
            ]
        },
        {
            "positions": [
                -2.561783994696384,
                -1.5083127971289934,
                1.8060553531439238,
                0.0005282365747075468,
                0.17885445290858204,
                1.8672974498258408
            ]
        },
        {
            "positions": [
                -2.6608723996403154,
                -1.4808200348157874,
                1.7923622651574995,
                0.01841428392247535,
                0.059606968404042115,
                1.7538472851419016
            ]
        },
        {
            "positions": [
                -2.7599608045842463,
                -1.4533272725025812,
                1.778669177171075,
                0.03630033127024311,
                -0.05964051610049774,
                1.6403971204579624
            ]
        },
        {
            "positions": [
                -2.7314292237223396,
                -1.4243559315469392,
                1.802124441714231,
                -0.05160061592203978,
                0.013288793918971142,
                1.7904166512822521
            ]
        },
        {
            "positions": [
                -2.702897642860433,
                -1.3953845905912972,
                1.825579706257387,
                -0.13950156311432266,
                0.08621810393844002,
                1.9404361821065417
            ]
        },
        {
            "positions": [
                -2.6743660619985268,
                -1.3664132496356551,
                1.8490349708005431,
                -0.22740251030660552,
                0.15914741395790888,
                2.090455712930831
            ]
        },
        {
            "positions": [
                -2.64583448113662,
                -1.3374419086800131,
                1.8724902353436992,
                -0.31530345749888844,
                0.23207672397737777,
                2.240475243755121
            ]
        },
        {
            "positions": [
                -2.6173029002747135,
                -1.3084705677243709,
                1.8959454998868552,
                -0.4032044046911713,
                0.3050060339968466,
                2.3904947745794107
            ]
        },
        {
            "positions": [
                -2.588771319412807,
                -1.2794992267687288,
                1.9194007644300113,
                -0.49110535188345417,
                0.37793534401631546,
                2.5405143054037005
            ]
        },
        {
            "positions": [
                -2.5602397385509,
                -1.2505278858130868,
                1.9428560289731673,
                -0.5790062990757371,
                0.4508646540357843,
                2.6905338362279902
            ]
        },
        {
            "positions": [
                -2.531708157688994,
                -1.2215565448574448,
                1.9663112935163234,
                -0.66690724626802,
                0.5237939640552534,
                2.84055336705228
            ]
        },
        {
            "positions": [
                -2.5031765768270873,
                -1.1925852039018028,
                1.9897665580594794,
                -0.7548081934603028,
                0.5967232740747221,
                2.9905728978765698
            ]
        },
        {
            "positions": [
                -2.4746449959651806,
                -1.1636138629461608,
                2.0132218226026355,
                -0.8427091406525857,
                0.669652584094191,
                3.140592428700859
            ]
        }
    ]
}