{
    "goal": {
        "global_pose": {
            "orientation": {
                "w": 0.005598929693374612,
                "x": 0.007748599140229565,
                "y": 0.7110244013736278,
                "z": -0.7031023480610252
            },
            "position": {
                "x": -0.8858502320852131,
                "y": -0.7141253447532654,
                "z": 0.3711530566215515
            }
        },
        "name": "move_to_auspresseinheit_C"
    },
    "id": "ProjEST_move_to_auspresseinheit_C_80",
    "joint_names": [
        "shoulder_pan_joint",
        "shoulder_lift_joint",
        "elbow_joint",
        "wrist_1_joint",
        "wrist_2_joint",
        "wrist_3_joint"
    ],
    "metrics": {
        "cart_traj_len": 0.4932531161768298,
        "distance_elbow_joint": 1.0133670864370705,
        "distance_shoulder_lift_joint": 0.3318080874830336,
        "distance_shoulder_pan_joint": 0.25578708550651985,
        "distance_wrist_1_joint": 0.7067439479907726,
        "distance_wrist_2_joint": 1.3191608547965457,
        "distance_wrist_3_joint": 0.07444973618745099,
        "smoothness": 8.074349282788172e-16,
        "time": 1.215306262,
        "traj_len": 1.9238806611641464,
        "weighted_distance": 2.4240711774953336
    },
    "planner": "ProjEST",
    "start": {
        "state": {
            "elbow_joint": 1.752795957773711,
            "shoulder_lift_joint": -0.9740617694225064,
            "shoulder_pan_joint": -2.967991417825858,
            "wrist_1_joint": -0.7595177689806859,
            "wrist_2_joint": 1.7443932448377395,
            "wrist_3_joint": 3.199131542505932
        }
    },
    "waypoints": [
        {
            "positions": [
                -2.967991417825858,
                -0.9740617694225064,
                1.752795957773711,
                -0.7595177689806859,
                1.7443932448377395,
                3.199131542505932
            ]
        },
        {
            "positions": [
                -2.942412709275206,
                -0.9408809606742031,
                1.651459249130004,
                -0.6888433741816087,
                1.6124771593580849,
                3.191686568887187
            ]
        },
        {
            "positions": [
                -2.916834000724554,
                -0.9077001519258997,
                1.550122540486297,
                -0.6181689793825313,
                1.4805610738784303,
                3.1842415952684417
            ]
        },
        {
            "positions": [
                -2.891255292173902,
                -0.8745193431775964,
                1.44878583184259,
                -0.5474945845834541,
                1.348644988398776,
                3.176796621649697
            ]
        },
        {
            "positions": [
                -2.86567658362325,
                -0.841338534429293,
                1.3474491231988828,
                -0.47682018978437685,
                1.216728902919121,
                3.169351648030952
            ]
        },
        {
            "positions": [
                -2.840097875072598,
                -0.8081577256809896,
                1.2461124145551759,
                -0.4061457949852996,
                1.0848128174394667,
                3.1619066744122066
            ]
        },
        {
            "positions": [
                -2.8145191665219462,
                -0.7749769169326863,
                1.144775705911469,
                -0.3354714001862224,
                0.9528967319598122,
                3.1544617007934614
            ]
        },
        {
            "positions": [
                -2.788940457971294,
                -0.7417961081843829,
                1.0434389972677618,
                -0.2647970053871451,
                0.8209806464801576,
                3.1470167271747163
            ]
        },
        {
            "positions": [
                -2.763361749420642,
                -0.7086152994360795,
                0.9421022886240547,
                -0.1941226105880678,
                0.6890645610005028,
                3.1395717535559715
            ]
        },
        {
            "positions": [
                -2.73778304086999,
                -0.6754344906877763,
                0.8407655799803476,
                -0.12344821578899057,
                0.5571484755208485,
                3.1321267799372263
            ]
        },
        {
            "positions": [
                -2.712204332319338,
                -0.6422536819394729,
                0.7394288713366406,
                -0.052773820989913324,
                0.4252323900411939,
                3.124681806318481
            ]
        }
    ]
}