{
    "goal": {
        "global_pose": {
            "orientation": {
                "w": 0.5084816262002911,
                "x": -0.4908360881923452,
                "y": 0.5182115481033761,
                "z": -0.48164630358495003
            },
            "position": {
                "x": 0.5540239810943604,
                "y": -0.46912469901144505,
                "z": 0.16403168439865112
            }
        },
        "name": "move_to_storage_B"
    },
    "id": "ProjEST_move_to_storage_B_33",
    "joint_names": [
        "shoulder_pan_joint",
        "shoulder_lift_joint",
        "elbow_joint",
        "wrist_1_joint",
        "wrist_2_joint",
        "wrist_3_joint"
    ],
    "metrics": {
        "cart_traj_len": 0.8063693269448898,
        "distance_elbow_joint": 0.357660639951056,
        "distance_shoulder_lift_joint": 0.45953736427194314,
        "distance_shoulder_pan_joint": 0.48264947030500627,
        "distance_wrist_1_joint": 3.0113375208272415,
        "distance_wrist_2_joint": 2.700499028855031,
        "distance_wrist_3_joint": 3.1548412347787758,
        "smoothness": 0.07519674083341046,
        "time": 0.109823863,
        "traj_len": 3.1884989037145766,
        "weighted_distance": 4.71041869457789
    },
    "planner": "ProjEST",
    "start": {
        "state": {
            "elbow_joint": 1.6649325706314817,
            "shoulder_lift_joint": -0.6616388048112454,
            "shoulder_pan_joint": -0.9139837860083814,
            "wrist_1_joint": 2.146757197745094,
            "wrist_2_joint": -2.234196043158733,
            "wrist_3_joint": 0.005471033829999897
        }
    },
    "waypoints": [
        {
            "positions": [
                -0.9139837860083814,
                -0.6616388048112454,
                1.6649325706314817,
                2.146757197745094,
                -2.234196043158733,
                0.005471033829999897
            ]
        },
        {
            "positions": [
                -0.8638458194780434,
                -0.7243433802777415,
                1.6641799237956776,
                2.0845667532763215,
                -2.127669517575619,
                0.012415400172927362
            ]
        },
        {
            "positions": [
                -0.8137078529477055,
                -0.7870479557442375,
                1.6634272769598735,
                2.022376308807549,
                -2.0211429919925044,
                0.019359766515854825
            ]
        },
        {
            "positions": [
                -0.7635698864173676,
                -0.8497525312107336,
                1.6626746301240694,
                1.9601858643387762,
                -1.9146164664093903,
                0.026304132858782293
            ]
        },
        {
            "positions": [
                -0.7774130351971172,
                -0.8610618494554192,
                1.6774830759342212,
                1.8424872731962376,
                -1.81541148923832,
                -0.10427953946413411
            ]
        },
        {
            "positions": [
                -0.7912561839768669,
                -0.8723711677001048,
                1.692291521744373,
                1.7247886820536993,
                -1.7162065120672496,
                -0.2348632117870505
            ]
        },
        {
            "positions": [
                -0.8050993327566166,
                -0.8836804859447904,
                1.7070999675545249,
                1.6070900909111607,
                -1.6170015348961793,
                -0.3654468841099669
            ]
        },
        {
            "positions": [
                -0.8189424815363663,
                -0.894989804189476,
                1.7219084133646767,
                1.4893914997686224,
                -1.517796557725109,
                -0.4960305564328833
            ]
        },
        {
            "positions": [
                -0.832785630316116,
                -0.9062991224341617,
                1.7367168591748285,
                1.3716929086260836,
                -1.4185915805540386,
                -0.6266142287557998
            ]
        },
        {
            "positions": [
                -0.8466287790958656,
                -0.9176084406788473,
                1.7515253049849804,
                1.2539943174835453,
                -1.3193866033829682,
                -0.7571979010787161
            ]
        },
        {
            "positions": [
                -0.8604719278756153,
                -0.9289177589235329,
                1.766333750795132,
                1.1362957263410067,
                -1.220181626211898,
                -0.8877815734016326
            ]
        },
        {
            "positions": [
                -0.874315076655365,
                -0.9402270771682185,
                1.7811421966052838,
                1.0185971351984684,
                -1.1209766490408277,
                -1.018365245724549
            ]
        },
        {
            "positions": [
                -0.8881582254351147,
                -0.9515363954129041,
                1.7959506424154357,
                0.9008985440559298,
                -1.0217716718697574,
                -1.1489489180474652
            ]
        },
        {
            "positions": [
                -0.9020013742148645,
                -0.9628457136575899,
                1.8107590882255875,
                0.7831999529133913,
                -0.9225666946986869,
                -1.2795325903703818
            ]
        },
        {
            "positions": [
                -0.9158445229946142,
                -0.9741550319022754,
                1.8255675340357393,
                0.665501361770853,
                -0.8233617175276167,
                -1.410116262693298
            ]
        },
        {
            "positions": [
                -0.9296876717743638,
                -0.9854643501469611,
                1.8403759798458912,
                0.5478027706283144,
                -0.7241567403565463,
                -1.5406999350162145
            ]
        },
        {
            "positions": [
                -0.9435308205541135,
                -0.9967736683916466,
                1.855184425656043,
                0.43010417948577606,
                -0.624951763185476,
                -1.6712836073391308
            ]
        },
        {
            "positions": [
                -0.9573739693338632,
                -1.0080829866363323,
                1.8699928714661949,
                0.3124055883432373,
                -0.5257467860144056,
                -1.8018672796620474
            ]
        },
        {
            "positions": [
                -0.9712171181136129,
                -1.0193923048810178,
                1.8848013172763467,
                0.19470699720069895,
                -0.42654180884333526,
                -1.9324509519849637
            ]
        },
        {
            "positions": [
                -0.9850602668933626,
                -1.0307016231257036,
                1.8996097630864985,
                0.07700840605816062,
                -0.3273368316722651,
                -2.06303462430788
            ]
        },
        {
            "positions": [
                -0.9989034156731122,
                -1.042010941370389,
                1.9144182088966504,
                -0.04069018508437816,
                -0.22813185450119455,
                -2.1936182966307967
            ]
        },
        {
            "positions": [
                -1.012746564452862,
                -1.0533202596150748,
                1.929226654706802,
                -0.1583887762269165,
                -0.12892687733012442,
                -2.324201968953713
            ]
        },
        {
            "positions": [
                -1.0265897132326116,
                -1.0646295778597603,
                1.9440351005169538,
                -0.27608736736945483,
                -0.02972190015905407,
                -2.4547856412766293
            ]
        },
        {
            "positions": [
                -1.0404328620123613,
                -1.075938896104446,
                1.9588435463271057,
                -0.3937859585119936,
                0.0694830770120165,
                -2.585369313599546
            ]
        },
        {
            "positions": [
                -1.054276010792111,
                -1.0872482143491315,
                1.9736519921372575,
                -0.5114845496545319,
                0.16868805418308686,
                -2.715952985922462
            ]
        },
        {
            "positions": [
                -1.0681191595718607,
                -1.0985575325938173,
                1.9884604379474093,
                -0.6291831407970703,
                0.267893031354157,
                -2.846536658245378
            ]
        },
        {
            "positions": [
                -1.0819623083516103,
                -1.109866850838503,
                2.003268883757561,
                -0.746881731939609,
                0.36709800852522756,
                -2.977120330568295
            ]
        },
        {
            "positions": [
                -1.09580545713136,
                -1.1211761690831885,
                2.018077329567713,
                -0.8645803230821475,
                0.4663029856962977,
                -3.1077040028912113
            ]
        }
    ]
}