{
    "goal": {
        "global_pose": {
            "orientation": {
                "w": -0.4816463035849501,
                "x": 0.5182115481033762,
                "y": 0.4908360881923453,
                "z": -0.5084816262002911
            },
            "position": {
                "x": -0.8240239810943604,
                "y": 0.19912469901144506,
                "z": 0.16403168439865112
            }
        },
        "name": "move_to_storage_D"
    },
    "id": "ProjEST_move_to_storage_D_23",
    "joint_names": [
        "shoulder_pan_joint",
        "shoulder_lift_joint",
        "elbow_joint",
        "wrist_1_joint",
        "wrist_2_joint",
        "wrist_3_joint"
    ],
    "metrics": {
        "cart_traj_len": 1.751419588475726,
        "distance_elbow_joint": 0.7673431699642881,
        "distance_shoulder_lift_joint": 0.19543198037739895,
        "distance_shoulder_pan_joint": 1.8639063556315159,
        "distance_wrist_1_joint": 3.828370445357607,
        "distance_wrist_2_joint": 3.056025279821837,
        "distance_wrist_3_joint": 4.113562139335807,
        "smoothness": 0.3995073441839549,
        "time": 0.212237295,
        "traj_len": 3.7181499930057225,
        "weighted_distance": 5.379234088077922
    },
    "planner": "ProjEST",
    "start": {
        "state": {
            "elbow_joint": -2.384821997420982,
            "shoulder_lift_joint": -2.2788054674887404,
            "shoulder_pan_joint": -0.18546946417610016,
            "wrist_1_joint": 1.4845937964226739,
            "wrist_2_joint": 0.1789877726866377,
            "wrist_3_joint": 0.03710572555276528
        }
    },
    "waypoints": [
        {
            "positions": [
                -0.18546946417610016,
                -2.2788054674887404,
                -2.384821997420982,
                1.4845937964226739,
                0.1789877726866377,
                0.03710572555276528
            ]
        },
        {
            "positions": [
                -0.07345090875716155,
                -2.281228659454198,
                -2.3113496042611774,
                1.4109663566328612,
                0.25024261245437995,
                0.09253862419147549
            ]
        },
        {
            "positions": [
                0.03856764666177706,
                -2.283651851419656,
                -2.237877211101373,
                1.3373389168430485,
                0.3214974522221222,
                0.1479715228301857
            ]
        },
        {
            "positions": [
                0.15058620208071566,
                -2.2860750433851136,
                -2.1644048179415685,
                1.2637114770532358,
                0.3927522919898645,
                0.2034044214688959
            ]
        },
        {
            "positions": [
                0.2626047574996543,
                -2.288498235350571,
                -2.090932424781764,
                1.1900840372634232,
                0.46400713175760677,
                0.2588373201076061
            ]
        },
        {
            "positions": [
                0.3746233129185929,
                -2.290921427316029,
                -2.0174600316219595,
                1.1164565974736103,
                0.535261971525349,
                0.31427021874631633
            ]
        },
        {
            "positions": [
                0.4866418683375315,
                -2.293344619281487,
                -1.943987638462155,
                1.0428291576837976,
                0.6065168112930912,
                0.3697031173850265
            ]
        },
        {
            "positions": [
                0.5986604237564701,
                -2.2957678112469444,
                -1.8705152453023504,
                0.9692017178939849,
                0.6777716510608336,
                0.42513601602373674
            ]
        },
        {
            "positions": [
                0.7106789791754087,
                -2.2981910032124024,
                -1.797042852142546,
                0.8955742781041722,
                0.7490264908285758,
                0.4805689146624469
            ]
        },
        {
            "positions": [
                0.8226975345943475,
                -2.30061419517786,
                -1.7235704589827414,
                0.8219468383143594,
                0.820281330596318,
                0.5360018133011571
            ]
        },
        {
            "positions": [
                0.7910034843402338,
                -2.2941837043375535,
                -1.7274997786688913,
                0.7046978202680894,
                0.7308468223773492,
                0.4021252928719936
            ]
        },
        {
            "positions": [
                0.7593094340861202,
                -2.287753213497247,
                -1.7314290983550413,
                0.5874488022218193,
                0.6414123141583805,
                0.2682487724428301
            ]
        },
        {
            "positions": [
                0.7276153838320066,
                -2.28132272265694,
                -1.7353584180411912,
                0.4701997841755492,
                0.5519778059394117,
                0.1343722520136666
            ]
        },
        {
            "positions": [
                0.695921333577893,
                -2.2748922318166334,
                -1.739287737727341,
                0.3529507661292791,
                0.46254329772044295,
                0.0004957315845030008
            ]
        },
        {
            "positions": [
                0.6642272833237793,
                -2.268461740976327,
                -1.7432170574134909,
                0.23570174808300903,
                0.3731087895014742,
                -0.13338078884466043
            ]
        },
        {
            "positions": [
                0.6325332330696657,
                -2.2620312501360202,
                -1.747146377099641,
                0.11845273003673895,
                0.2836742812825054,
                -0.26725730927382396
            ]
        },
        {
            "positions": [
                0.6008391828155522,
                -2.2556007592957137,
                -1.7510756967857908,
                0.0012037119904688698,
                0.19423977306353668,
                -0.4011338297029875
            ]
        },
        {
            "positions": [
                0.5691451325614385,
                -2.249170268455407,
                -1.7550050164719406,
                -0.11604530605580121,
                0.10480526484456787,
                -0.5350103501321511
            ]
        },
        {
            "positions": [
                0.5374510823073249,
                -2.2427397776151,
                -1.7589343361580907,
                -0.23329432410207118,
                0.015370756625599058,
                -0.6688868705613146
            ]
        },
        {
            "positions": [
                0.5057570320532112,
                -2.2363092867747936,
                -1.7628636558442405,
                -0.3505433421483414,
                -0.07406375159336964,
                -0.802763390990478
            ]
        },
        {
            "positions": [
                0.47406298179909756,
                -2.229878795934487,
                -1.7667929755303904,
                -0.46779236019461135,
                -0.16349825981233845,
                -0.9366399114196416
            ]
        },
        {
            "positions": [
                0.44236893154498397,
                -2.2234483050941805,
                -1.7707222952165405,
                -0.5850413782408815,
                -0.25293276803130726,
                -1.0705164318488052
            ]
        },
        {
            "positions": [
                0.4106748812908703,
                -2.217017814253874,
                -1.7746516149026903,
                -0.7022903962871515,
                -0.34236727625027596,
                -1.2043929522779688
            ]
        },
        {
            "positions": [
                0.3789808310367567,
                -2.210587323413567,
                -1.7785809345888401,
                -0.8195394143334217,
                -0.43180178446924466,
                -1.338269472707132
            ]
        },
        {
            "positions": [
                0.347286780782643,
                -2.2041568325732603,
                -1.78251025427499,
                -0.9367884323796919,
                -0.5212362926882136,
                -1.4721459931362957
            ]
        },
        {
            "positions": [
                0.31559273052852943,
                -2.197726341732954,
                -1.78643957396114,
                -1.054037450425962,
                -0.6106708009071823,
                -1.6060225135654593
            ]
        },
        {
            "positions": [
                0.2838986802744158,
                -2.1912958508926472,
                -1.79036889364729,
                -1.171286468472232,
                -0.7001053091261512,
                -1.739899033994623
            ]
        },
        {
            "positions": [
                0.25220463002030225,
                -2.1848653600523407,
                -1.7942982133334398,
                -1.288535486518502,
                -0.7895398173451199,
                -1.8737755544237862
            ]
        },
        {
            "positions": [
                0.22051057976618849,
                -2.1784348692120337,
                -1.7982275330195898,
                -1.4057845045647723,
                -0.8789743255640888,
                -2.00765207485295
            ]
        },
        {
            "positions": [
                0.18881652951207495,
                -2.172004378371727,
                -1.8021568527057397,
                -1.5230335226110423,
                -0.9684088337830573,
                -2.141528595282113
            ]
        },
        {
            "positions": [
                0.1571224792579613,
                -2.1655738875314205,
                -1.8060861723918895,
                -1.6402825406573127,
                -1.0578433420020263,
                -2.275405115711277
            ]
        },
        {
            "positions": [
                0.12542842900384765,
                -2.159143396691114,
                -1.8100154920780396,
                -1.7575315587035822,
                -1.1472778502209948,
                -2.4092816361404403
            ]
        },
        {
            "positions": [
                0.093734378749734,
                -2.1527129058508074,
                -1.8139448117641894,
                -1.8747805767498527,
                -1.2367123584399637,
                -2.543158156569604
            ]
        },
        {
            "positions": [
                0.06204032849562047,
                -2.146282415010501,
                -1.8178741314503393,
                -1.9920295947961226,
                -1.3261468666589327,
                -2.677034676998767
            ]
        },
        {
            "positions": [
                0.03034627824150682,
                -2.139851924170194,
                -1.8218034511364891,
                -2.109278612842393,
                -1.4155813748779016,
                -2.8109111974279313
            ]
        },
        {
            "positions": [
                -0.0013477720126068293,
                -2.1334214333298873,
                -1.8257327708226392,
                -2.2265276308886626,
                -1.50501588309687,
                -2.9447877178570945
            ]
        },
        {
            "positions": [
                -0.03304182226672048,
                -2.1269909424895808,
                -1.829662090508789,
                -2.343776648934933,
                -1.5944503913158388,
                -3.078664238286258
            ]
        }
    ]
}