{
    "goal": {
        "global_pose": {
            "orientation": {
                "w": 0.005598929693374612,
                "x": 0.007748599140229565,
                "y": 0.7110244013736278,
                "z": -0.7031023480610252
            },
            "position": {
                "x": -0.8858502320852131,
                "y": -0.7141253447532654,
                "z": 0.3711530566215515
            }
        },
        "name": "move_to_auspresseinheit_C"
    },
    "id": "ProjEST_move_to_auspresseinheit_C_67",
    "joint_names": [
        "shoulder_pan_joint",
        "shoulder_lift_joint",
        "elbow_joint",
        "wrist_1_joint",
        "wrist_2_joint",
        "wrist_3_joint"
    ],
    "metrics": {
        "cart_traj_len": 0.4937307262377393,
        "distance_elbow_joint": 1.013207066065755,
        "distance_shoulder_lift_joint": 0.330688513930664,
        "distance_shoulder_pan_joint": 0.256384047132193,
        "distance_wrist_1_joint": 0.711400876160705,
        "distance_wrist_2_joint": 1.306542684394095,
        "distance_wrist_3_joint": 0.07977356123691548,
        "smoothness": 6.459479416000911e-16,
        "time": 0.173591825,
        "traj_len": 1.9230176153432208,
        "weighted_distance": 2.4239404761563264
    },
    "planner": "ProjEST",
    "start": {
        "state": {
            "elbow_joint": 1.752795957773711,
            "shoulder_lift_joint": -0.9740617694225064,
            "shoulder_pan_joint": -2.967991417825858,
            "wrist_1_joint": -0.7595177689806859,
            "wrist_2_joint": 1.7443932448377395,
            "wrist_3_joint": 3.199131542505932
        }
    },
    "waypoints": [
        {
            "positions": [
                -2.967991417825858,
                -0.9740617694225064,
                1.752795957773711,
                -0.7595177689806859,
                1.7443932448377395,
                3.199131542505932
            ]
        },
        {
            "positions": [
                -2.9423530131126387,
                -0.9409929180294401,
                1.6514752511671356,
                -0.6883776813646154,
                1.61373897639833,
                3.1911541863822404
            ]
        },
        {
            "positions": [
                -2.9167146083994195,
                -0.9079240666363736,
                1.55015454456056,
                -0.6172375937485449,
                1.4830847079589204,
                3.183176830258549
            ]
        },
        {
            "positions": [
                -2.8910762036862,
                -0.8748552152433072,
                1.4488338379539847,
                -0.5460975061324744,
                1.352430439519511,
                3.1751994741348577
            ]
        },
        {
            "positions": [
                -2.8654377989729807,
                -0.8417863638502409,
                1.3475131313474091,
                -0.4749574185164039,
                1.2217761710801014,
                3.167222118011166
            ]
        },
        {
            "positions": [
                -2.8397993942597615,
                -0.8087175124571744,
                1.2461924247408336,
                -0.4038173309003334,
                1.091121902640692,
                3.159244761887474
            ]
        },
        {
            "positions": [
                -2.8141609895465423,
                -0.775648661064108,
                1.144871718134258,
                -0.3326772432842629,
                0.9604676342012824,
                3.151267405763783
            ]
        },
        {
            "positions": [
                -2.788522584833323,
                -0.7425798096710416,
                1.0435510115276827,
                -0.2615371556681924,
                0.829813365761873,
                3.1432900496400915
            ]
        },
        {
            "positions": [
                -2.7628841801201034,
                -0.7095109582779753,
                0.942230304921107,
                -0.19039706805212187,
                0.6991590973224635,
                3.1353126935163997
            ]
        },
        {
            "positions": [
                -2.737245775406884,
                -0.6764421068849088,
                0.8409095983145315,
                -0.11925698043605137,
                0.5685048288830539,
                3.127335337392708
            ]
        },
        {
            "positions": [
                -2.711607370693665,
                -0.6433732554918424,
                0.7395888917079559,
                -0.04811689281998085,
                0.4378505604436444,
                3.1193579812690166
            ]
        }
    ]
}