{
    "goal": {
        "global_pose": {
            "orientation": {
                "w": 0.7047431493862688,
                "x": -0.7094548369677653,
                "y": 0.0024358444001904,
                "z": -0.0022348060817251984
            },
            "position": {
                "x": -0.39052492380142206,
                "y": 0.3671506643295288,
                "z": 0.19426114857196808
            }
        },
        "name": "move_to_magneteinheit_D"
    },
    "id": "ProjEST_move_to_magneteinheit_D_23",
    "joint_names": [
        "shoulder_pan_joint",
        "shoulder_lift_joint",
        "elbow_joint",
        "wrist_1_joint",
        "wrist_2_joint",
        "wrist_3_joint"
    ],
    "metrics": {
        "cart_traj_len": 6.365454672114828,
        "distance_elbow_joint": 5.255439900953703,
        "distance_shoulder_lift_joint": 2.536439072028241,
        "distance_shoulder_pan_joint": 3.33174415329474,
        "distance_wrist_1_joint": 2.120770445204555,
        "distance_wrist_2_joint": 2.816726033376052,
        "distance_wrist_3_joint": 6.263175892489553,
        "smoothness": 0.5500883758881304,
        "time": 0.18377815900000002,
        "traj_len": 4.72485930979398,
        "weighted_distance": 6.30778437812411
    },
    "planner": "ProjEST",
    "start": {
        "state": {
            "elbow_joint": 0.7495348899011973,
            "shoulder_lift_joint": -0.6476975780737697,
            "shoulder_pan_joint": -2.711696901376276,
            "wrist_1_joint": -0.07506478080974305,
            "wrist_2_joint": 0.4329665971545858,
            "wrist_3_joint": 3.1361499051832524
        }
    },
    "waypoints": [
        {
            "positions": [
                -2.711696901376276,
                -0.6476975780737697,
                0.7495348899011973,
                -0.07506478080974305,
                0.4329665971545858,
                3.1361499051832524
            ]
        },
        {
            "positions": [
                -2.737101035699709,
                -0.6868633617689691,
                0.810957803821648,
                -0.14582084215550636,
                0.3771041815759921,
                3.019669262973906
            ]
        },
        {
            "positions": [
                -2.762505170023142,
                -0.7260291454641685,
                0.8723807177420986,
                -0.21657690350126968,
                0.3212417659973984,
                2.9031886207645603
            ]
        },
        {
            "positions": [
                -2.787909304346575,
                -0.7651949291593678,
                0.9338036316625491,
                -0.28733296484703297,
                0.2653793504188047,
                2.786707978555214
            ]
        },
        {
            "positions": [
                -2.8133134386700083,
                -0.8043607128545672,
                0.9952265455829997,
                -0.3580890261927963,
                0.209516934840211,
                2.670227336345868
            ]
        },
        {
            "positions": [
                -2.838717572993441,
                -0.8435264965497666,
                1.0566494595034504,
                -0.4288450875385596,
                0.15365451926161733,
                2.553746694136522
            ]
        },
        {
            "positions": [
                -2.8538248246810176,
                -0.9598766334415711,
                0.9871204315864875,
                -0.480141481050831,
                0.09778152344699852,
                2.4889314654697303
            ]
        },
        {
            "positions": [
                -2.868932076368594,
                -1.0762267703333757,
                0.9175914036695247,
                -0.5314378745631023,
                0.041908527632379705,
                2.4241162368029388
            ]
        },
        {
            "positions": [
                -2.8840393280561707,
                -1.19257690722518,
                0.8480623757525619,
                -0.5827342680753738,
                -0.013964468182239093,
                2.359301008136147
            ]
        },
        {
            "positions": [
                -2.8991465797437472,
                -1.3089270441169845,
                0.7785333478355991,
                -0.6340306615876451,
                -0.06983746399685792,
                2.2944857794693556
            ]
        },
        {
            "positions": [
                -2.9142538314313238,
                -1.425277181008789,
                0.7090043199186363,
                -0.6853270550999164,
                -0.12571045981147672,
                2.229670550802564
            ]
        },
        {
            "positions": [
                -2.9293610831189003,
                -1.5416273179005935,
                0.6394752920016735,
                -0.7366234486121879,
                -0.1815834556260955,
                2.164855322135773
            ]
        },
        {
            "positions": [
                -2.944468334806477,
                -1.6579774547923978,
                0.5699462640847107,
                -0.7879198421244593,
                -0.2374564514407143,
                2.1000400934689814
            ]
        },
        {
            "positions": [
                -2.9595755864940534,
                -1.7743275916842025,
                0.5004172361677479,
                -0.8392162356367306,
                -0.29332944725533316,
                2.03522486480219
            ]
        },
        {
            "positions": [
                -2.97468283818163,
                -1.890677728576007,
                0.4308882082507851,
                -0.8905126291490021,
                -0.34920244306995196,
                1.9704096361353982
            ]
        },
        {
            "positions": [
                -2.9897900898692065,
                -2.007027865467811,
                0.3613591803338223,
                -0.9418090226612734,
                -0.40507543888457076,
                1.9055944074686066
            ]
        },
        {
            "positions": [
                -3.004897341556783,
                -2.123378002359616,
                0.2918301524168595,
                -0.9931054161735449,
                -0.4609484346991895,
                1.840779178801815
            ]
        },
        {
            "positions": [
                -2.9226389339650822,
                -2.0579961126726705,
                0.36141395686290023,
                -1.037245391545458,
                -0.4034507757466772,
                1.7715287808908955
            ]
        },
        {
            "positions": [
                -2.8403805263733815,
                -1.9926142229857247,
                0.43099776130894096,
                -1.0813853669173714,
                -0.34595311679416496,
                1.7022783829799757
            ]
        },
        {
            "positions": [
                -2.7581221187816807,
                -1.9272323332987793,
                0.5005815657549816,
                -1.1255253422892846,
                -0.28845545784165266,
                1.633027985069056
            ]
        },
        {
            "positions": [
                -2.67586371118998,
                -1.8618504436118337,
                0.5701653702010223,
                -1.1696653176611977,
                -0.23095779888914036,
                1.5637775871581363
            ]
        },
        {
            "positions": [
                -2.593605303598279,
                -1.7964685539248881,
                0.639749174647063,
                -1.213805293033111,
                -0.17346013993662812,
                1.4945271892472167
            ]
        },
        {
            "positions": [
                -2.511346896006578,
                -1.7310866642379426,
                0.7093329790931038,
                -1.2579452684050243,
                -0.11596248098411582,
                1.4252767913362971
            ]
        },
        {
            "positions": [
                -2.4290884884148776,
                -1.665704774550997,
                0.7789167835391444,
                -1.3020852437769375,
                -0.058464822031603525,
                1.3560263934253773
            ]
        },
        {
            "positions": [
                -2.3468300808231763,
                -1.6003228848640516,
                0.8485005879851852,
                -1.3462252191488506,
                -0.0009671630790912267,
                1.2867759955144575
            ]
        },
        {
            "positions": [
                -2.2645716732314756,
                -1.5349409951771058,
                0.918084392431226,
                -1.390365194520764,
                0.05653049587342113,
                1.217525597603538
            ]
        },
        {
            "positions": [
                -2.182313265639775,
                -1.4695591054901604,
                0.9876681968772666,
                -1.4345051698926772,
                0.11402815482593326,
                1.1482751996926184
            ]
        },
        {
            "positions": [
                -2.100054858048074,
                -1.4041772158032149,
                1.0572520013233073,
                -1.4786451452645903,
                0.17152581377844556,
                1.0790248017816986
            ]
        },
        {
            "positions": [
                -2.005724631670598,
                -1.41346010995424,
                0.9308941135571913,
                -1.5006396691736863,
                0.19369047711395623,
                0.9745803607880927
            ]
        },
        {
            "positions": [
                -1.9113944052931215,
                -1.422743004105265,
                0.8045362257910753,
                -1.522634193082782,
                0.2158551404494669,
                0.8701359197944868
            ]
        },
        {
            "positions": [
                -1.8170641789156452,
                -1.4320258982562903,
                0.6781783380249593,
                -1.544628716991878,
                0.23801980378497758,
                0.7656914788008808
            ]
        },
        {
            "positions": [
                -1.722733952538169,
                -1.4413087924073154,
                0.5518204502588433,
                -1.5666232409009737,
                0.26018446712048826,
                0.661247037807275
            ]
        },
        {
            "positions": [
                -1.628403726160693,
                -1.4505916865583406,
                0.4254625624927273,
                -1.5886177648100697,
                0.28234913045599896,
                0.5568025968136692
            ]
        },
        {
            "positions": [
                -1.5340734997832166,
                -1.4598745807093656,
                0.2991046747266113,
                -1.6106122887191656,
                0.3045137937915096,
                0.4523581558200632
            ]
        },
        {
            "positions": [
                -1.4397432734057403,
                -1.4691574748603908,
                0.17274678696049528,
                -1.6326068126282614,
                0.32667845712702026,
                0.3479137148264574
            ]
        },
        {
            "positions": [
                -1.3454130470282641,
                -1.4784403690114158,
                0.046388899194379274,
                -1.6546013365373573,
                0.34884312046253096,
                0.24346927383285155
            ]
        },
        {
            "positions": [
                -1.251082820650788,
                -1.487723263162441,
                -0.07996898857173673,
                -1.676595860446453,
                0.37100778379804167,
                0.1390248328392456
            ]
        },
        {
            "positions": [
                -1.1567525942733117,
                -1.497006157313466,
                -0.20632687633785274,
                -1.698590384355549,
                0.3931724471335523,
                0.03458039184563977
            ]
        },
        {
            "positions": [
                -1.0624223678958353,
                -1.5062890514644913,
                -0.33268476410396897,
                -1.720584908264645,
                0.415337110469063,
                -0.06986404914796629
            ]
        },
        {
            "positions": [
                -0.9680921415183592,
                -1.5155719456155163,
                -0.45904265187008475,
                -1.7425794321737407,
                0.43750177380457367,
                -0.17430849014157213
            ]
        },
        {
            "positions": [
                -0.8737619151408829,
                -1.5248548397665416,
                -0.585400539636201,
                -1.7645739560828366,
                0.45966643714008437,
                -0.27875293113517796
            ]
        },
        {
            "positions": [
                -0.7794316887634067,
                -1.5341377339175666,
                -0.7117584274023168,
                -1.7865684799919324,
                0.481831100475595,
                -0.3831973721287838
            ]
        },
        {
            "positions": [
                -0.6851014623859304,
                -1.5434206280685918,
                -0.838116315168433,
                -1.8085630039010283,
                0.5039957638111057,
                -0.48764181312238986
            ]
        },
        {
            "positions": [
                -0.5907712360084543,
                -1.5527035222196168,
                -0.9644742029345488,
                -1.8305575278101243,
                0.5261604271466164,
                -0.5920862541159955
            ]
        },
        {
            "positions": [
                -0.4964410096309779,
                -1.561986416370642,
                -1.090832090700665,
                -1.8525520517192202,
                0.5483250904821271,
                -0.6965306951096015
            ]
        },
        {
            "positions": [
                -0.4021107832535018,
                -1.571269310521667,
                -1.2171899784667808,
                -1.874546575628316,
                0.5704897538176377,
                -0.8009751361032074
            ]
        },
        {
            "positions": [
                -0.30778055687602546,
                -1.5805522046726923,
                -1.343547866232897,
                -1.896541099537412,
                0.5926544171531485,
                -0.9054195770968134
            ]
        },
        {
            "positions": [
                -0.21345033049854933,
                -1.5898350988237173,
                -1.4699057539990128,
                -1.9185356234465076,
                0.6148190804886591,
                -1.009864018090419
            ]
        },
        {
            "positions": [
                -0.11912010412107299,
                -1.5991179929747426,
                -1.596263641765129,
                -1.9405301473556036,
                0.6369837438241698,
                -1.1143084590840249
            ]
        },
        {
            "positions": [
                -0.1110388114259263,
                -1.6098371425458238,
                -1.657444076933247,
                -1.9630776230638614,
                0.5907911240180597,
                -1.2445704595732694
            ]
        },
        {
            "positions": [
                -0.1029575187307796,
                -1.6205562921169048,
                -1.7186245121013648,
                -1.9856250987721193,
                0.5445985042119497,
                -1.3748324600625137
            ]
        },
        {
            "positions": [
                -0.0948762260356329,
                -1.631275441687986,
                -1.7798049472694828,
                -2.008172574480377,
                0.49840588440583955,
                -1.5050944605517582
            ]
        },
        {
            "positions": [
                -0.09012971839974471,
                -1.644901508014038,
                -1.855318706076019,
                -2.0351752908173038,
                0.4336533982257179,
                -1.6779004462215041
            ]
        },
        {
            "positions": [
                -0.0853832107638565,
                -1.6585275743400896,
                -1.9308324648825552,
                -2.0621780071542304,
                0.3689009120455963,
                -1.85070643189125
            ]
        },
        {
            "positions": [
                -0.0806367031279683,
                -1.6721536406661415,
                -2.0063462236890914,
                -2.089180723491157,
                0.3041484258654747,
                -2.0235124175609958
            ]
        },
        {
            "positions": [
                -0.07589019549208012,
                -1.6857797069921934,
                -2.0818599824956276,
                -2.1161834398280837,
                0.23939593968535305,
                -2.196318403230742
            ]
        },
        {
            "positions": [
                -0.08922933572911414,
                -1.697407374012076,
                -2.1391932770493005,
                -2.1340044023427596,
                0.16515647418930687,
                -2.3664943439527484
            ]
        },
        {
            "positions": [
                -0.10256847596614815,
                -1.7090350410319588,
                -2.196526571602973,
                -2.151825364857435,
                0.09091700869326069,
                -2.5366702846747544
            ]
        },
        {
            "positions": [
                -0.11590761620318217,
                -1.7206627080518415,
                -2.253859866156646,
                -2.169646327372111,
                0.016677543197214484,
                -2.706846225396761
            ]
        },
        {
            "positions": [
                -0.13908066498265864,
                -1.7290201643642977,
                -2.289517302116131,
                -2.17837596025284,
                -0.05151333092677372,
                -2.846906146033273
            ]
        },
        {
            "positions": [
                -0.16225371376213513,
                -1.7373776206767542,
                -2.3251747380756163,
                -2.187105593133569,
                -0.11970420505076193,
                -2.986966066669785
            ]
        },
        {
            "positions": [
                -0.1854267625416116,
                -1.7457350769892104,
                -2.3608321740351013,
                -2.1958352260142977,
                -0.18789507917475015,
                -3.1270259873062973
            ]
        }
    ]
}