{
    "goal": {
        "global_pose": {
            "orientation": {
                "w": -0.4816463035849501,
                "x": 0.5182115481033762,
                "y": 0.4908360881923453,
                "z": -0.5084816262002911
            },
            "position": {
                "x": -0.8240239810943604,
                "y": 0.19912469901144506,
                "z": 0.16403168439865112
            }
        },
        "name": "move_to_storage_D"
    },
    "id": "ProjEST_move_to_storage_D_36",
    "joint_names": [
        "shoulder_pan_joint",
        "shoulder_lift_joint",
        "elbow_joint",
        "wrist_1_joint",
        "wrist_2_joint",
        "wrist_3_joint"
    ],
    "metrics": {
        "cart_traj_len": 3.7360418580591404,
        "distance_elbow_joint": 4.214355248160927,
        "distance_shoulder_lift_joint": 1.2633574325225203,
        "distance_shoulder_pan_joint": 2.8118222329395817,
        "distance_wrist_1_joint": 2.4767469949759136,
        "distance_wrist_2_joint": 1.009895057836733,
        "distance_wrist_3_joint": 3.1469729613010498,
        "smoothness": 0.1882726337940927,
        "time": 0.234148124,
        "traj_len": 3.8630493043367586,
        "weighted_distance": 4.970285495135211
    },
    "planner": "ProjEST",
    "start": {
        "state": {
            "elbow_joint": -2.384821997420982,
            "shoulder_lift_joint": -2.2788054674887404,
            "shoulder_pan_joint": -0.18546946417610016,
            "wrist_1_joint": 1.4845937964226739,
            "wrist_2_joint": 0.1789877726866377,
            "wrist_3_joint": 0.03710572555276528
        }
    },
    "waypoints": [
        {
            "positions": [
                -0.18546946417610016,
                -2.2788054674887404,
                -2.384821997420982,
                1.4845937964226739,
                0.1789877726866377,
                0.03710572555276528
            ]
        },
        {
            "positions": [
                -0.06483662200970423,
                -2.2314037869338668,
                -2.3487035646553966,
                1.5334170994956713,
                0.14376698419023098,
                0.04929107730341266
            ]
        },
        {
            "positions": [
                0.055796220156691695,
                -2.184002106378993,
                -2.3125851318898114,
                1.5822404025686687,
                0.10854619569382423,
                0.06147642905406003
            ]
        },
        {
            "positions": [
                0.12876090784392824,
                -2.1518693037057277,
                -2.19775080323889,
                1.523997080261247,
                0.13595043977998986,
                0.1414217025674655
            ]
        },
        {
            "positions": [
                0.20172559553116481,
                -2.1197365010324623,
                -2.082916474587969,
                1.4657537579538253,
                0.1633546838661555,
                0.22136697608087097
            ]
        },
        {
            "positions": [
                0.2746902832184014,
                -2.0876036983591963,
                -1.9680821459370479,
                1.4075104356464034,
                0.19075892795232113,
                0.3013122495942765
            ]
        },
        {
            "positions": [
                0.3476549709056379,
                -2.055470895685931,
                -1.8532478172861266,
                1.3492671133389817,
                0.21816317203848679,
                0.3812575231076819
            ]
        },
        {
            "positions": [
                0.42061965859287453,
                -2.0233380930126654,
                -1.7384134886352056,
                1.29102379103156,
                0.2455674161246524,
                0.46120279662108743
            ]
        },
        {
            "positions": [
                0.49358434628011105,
                -1.9912052903394,
                -1.6235791599842844,
                1.2327804687241382,
                0.27297166021081803,
                0.5411480701344928
            ]
        },
        {
            "positions": [
                0.5665490339673477,
                -1.9590724876661345,
                -1.5087448313333631,
                1.1745371464167165,
                0.3003759042969837,
                0.6210933436478984
            ]
        },
        {
            "positions": [
                0.6395137216545842,
                -1.9269396849928688,
                -1.3939105026824419,
                1.1162938241092948,
                0.3277801483831493,
                0.7010386171613038
            ]
        },
        {
            "positions": [
                0.7124784093418208,
                -1.8948068823196034,
                -1.2790761740315209,
                1.058050501801873,
                0.355184392469315,
                0.7809838906747094
            ]
        },
        {
            "positions": [
                0.7854430970290573,
                -1.8626740796463377,
                -1.1642418453805996,
                0.9998071794944513,
                0.3825886365554806,
                0.8609291641881148
            ]
        },
        {
            "positions": [
                0.858407784716294,
                -1.8305412769730722,
                -1.0494075167296784,
                0.9415638571870295,
                0.40999288064164624,
                0.9408744377015203
            ]
        },
        {
            "positions": [
                0.9313724724035305,
                -1.7984084742998068,
                -0.9345731880787573,
                0.8833205348796078,
                0.43739712472781184,
                1.0208197112149258
            ]
        },
        {
            "positions": [
                1.0043371600907671,
                -1.766275671626541,
                -0.8197388594278361,
                0.825077212572186,
                0.4648013688139775,
                1.1007649847283312
            ]
        },
        {
            "positions": [
                1.0773018477780036,
                -1.7341428689532756,
                -0.7049045307769151,
                0.7668338902647643,
                0.49220561290014314,
                1.1807102582417368
            ]
        },
        {
            "positions": [
                1.1502665354652404,
                -1.70201006628001,
                -0.5900702021259938,
                0.7085905679573425,
                0.5196098569863088,
                1.2606555317551424
            ]
        },
        {
            "positions": [
                1.2232312231524767,
                -1.6698772636067445,
                -0.47523587347507257,
                0.6503472456499209,
                0.5470141010724744,
                1.3406008052685476
            ]
        },
        {
            "positions": [
                1.2961959108397132,
                -1.637744460933479,
                -0.36040154482415154,
                0.5921039233424992,
                0.57441834515864,
                1.4205460787819528
            ]
        },
        {
            "positions": [
                1.36916059852695,
                -1.6056116582602136,
                -0.2455672161732303,
                0.5338606010350773,
                0.6018225892448057,
                1.500491352295359
            ]
        },
        {
            "positions": [
                1.4421252862141865,
                -1.5734788555869479,
                -0.13073288752230905,
                0.4756172787276556,
                0.6292268333309714,
                1.580436625808764
            ]
        },
        {
            "positions": [
                1.515089973901423,
                -1.5413460529136824,
                -0.015898558871387802,
                0.4173739564202339,
                0.6566310774171369,
                1.6603818993221697
            ]
        },
        {
            "positions": [
                1.5880546615886595,
                -1.509213250240417,
                0.098935769779533,
                0.3591306341128122,
                0.6840353215033026,
                1.740327172835575
            ]
        },
        {
            "positions": [
                1.6610193492758962,
                -1.4770804475671513,
                0.2137700984304547,
                0.3008873118053903,
                0.7114395655894683,
                1.8202724463489806
            ]
        },
        {
            "positions": [
                1.7339840369631327,
                -1.4449476448938858,
                0.3286044270813755,
                0.24264398949796862,
                0.7388438096756338,
                1.9002177198623862
            ]
        },
        {
            "positions": [
                1.8069487246503693,
                -1.4128148422206204,
                0.44343875573229674,
                0.18440066719054693,
                0.7662480537617995,
                1.9801629933757914
            ]
        },
        {
            "positions": [
                1.8799134123376058,
                -1.380682039547355,
                0.558273084383218,
                0.12615734488312524,
                0.793652297847965,
                2.060108266889197
            ]
        },
        {
            "positions": [
                1.9528781000248425,
                -1.348549236874089,
                0.6731074130341392,
                0.06791402257570334,
                0.8210565419341307,
                2.1400535404026026
            ]
        },
        {
            "positions": [
                2.025842787712079,
                -1.3164164342008235,
                0.7879417416850605,
                0.009670700268281651,
                0.8484607860202964,
                2.219998813916008
            ]
        },
        {
            "positions": [
                2.0988074753993153,
                -1.284283631527558,
                0.9027760703359813,
                -0.048572622039140034,
                0.8758650301064621,
                2.2999440874294135
            ]
        },
        {
            "positions": [
                2.171772163086552,
                -1.2521508288542926,
                1.0176103989869025,
                -0.10681594434656172,
                0.9032692741926276,
                2.3798893609428187
            ]
        },
        {
            "positions": [
                2.244736850773789,
                -1.220018026181027,
                1.1324447276378238,
                -0.16505926665398363,
                0.9306735182787933,
                2.4598346344562247
            ]
        },
        {
            "positions": [
                2.317701538461025,
                -1.1878852235077615,
                1.2472790562887448,
                -0.22330258896140526,
                0.9580777623649589,
                2.53977990796963
            ]
        },
        {
            "positions": [
                2.369143410178101,
                -1.1591456920841712,
                1.3443214220306114,
                -0.3188954885113794,
                0.9730647480604231,
                2.6471630377836606
            ]
        },
        {
            "positions": [
                2.4205852818951774,
                -1.130406160660581,
                1.4413637877724779,
                -0.41448838806135346,
                0.9880517337558872,
                2.7545461675976917
            ]
        },
        {
            "positions": [
                2.4720271536122533,
                -1.1016666292369908,
                1.5384061535143445,
                -0.5100812876113276,
                1.0030387194513513,
                2.8619292974117228
            ]
        },
        {
            "positions": [
                2.5234690253293293,
                -1.0729270978134005,
                1.6354485192562112,
                -0.6056741871613016,
                1.0180257051468153,
                2.9693124272257534
            ]
        },
        {
            "positions": [
                2.5749108970464056,
                -1.0441875663898104,
                1.7324908849980778,
                -0.7012670867112758,
                1.0330126908422796,
                3.076695557039784
            ]
        },
        {
            "positions": [
                2.6263527687634816,
                -1.01544803496622,
                1.8295332507399442,
                -0.7968599862612499,
                1.0479996765377437,
                3.184078686853815
            ]
        }
    ]
}