{
    "goal": {
        "global_pose": {
            "orientation": {
                "w": 0.7047431493862688,
                "x": -0.7094548369677653,
                "y": 0.0024358444001904,
                "z": -0.0022348060817251984
            },
            "position": {
                "x": -0.39052492380142206,
                "y": 0.3671506643295288,
                "z": 0.19426114857196808
            }
        },
        "name": "move_to_magneteinheit_D"
    },
    "id": "ProjEST_move_to_magneteinheit_D_33",
    "joint_names": [
        "shoulder_pan_joint",
        "shoulder_lift_joint",
        "elbow_joint",
        "wrist_1_joint",
        "wrist_2_joint",
        "wrist_3_joint"
    ],
    "metrics": {
        "cart_traj_len": 4.645283421585602,
        "distance_elbow_joint": 3.1217422196222278,
        "distance_shoulder_lift_joint": 2.1196874392805127,
        "distance_shoulder_pan_joint": 3.3632684967040207,
        "distance_wrist_1_joint": 3.5883339489373087,
        "distance_wrist_2_joint": 2.5816580102279074,
        "distance_wrist_3_joint": 3.275535441808335,
        "smoothness": 0.4160123744922253,
        "time": 1.2918243569999999,
        "traj_len": 4.248555702421744,
        "weighted_distance": 5.547187431425242
    },
    "planner": "ProjEST",
    "start": {
        "state": {
            "elbow_joint": 0.7495348899011973,
            "shoulder_lift_joint": -0.6476975780737697,
            "shoulder_pan_joint": -2.711696901376276,
            "wrist_1_joint": -0.07506478080974305,
            "wrist_2_joint": 0.4329665971545858,
            "wrist_3_joint": 3.1361499051832524
        }
    },
    "waypoints": [
        {
            "positions": [
                -2.711696901376276,
                -0.6476975780737697,
                0.7495348899011973,
                -0.07506478080974305,
                0.4329665971545858,
                3.1361499051832524
            ]
        },
        {
            "positions": [
                -2.7313064528665643,
                -0.616949842937926,
                0.6673159650405708,
                -0.1555176468066423,
                0.5007737513443536,
                3.0385748529618444
            ]
        },
        {
            "positions": [
                -2.7509160043568524,
                -0.5862021078020823,
                0.5850970401799442,
                -0.23597051280354153,
                0.5685809055341214,
                2.940999800740436
            ]
        },
        {
            "positions": [
                -2.77052555584714,
                -0.5554543726662384,
                0.5028781153193178,
                -0.3164233788004408,
                0.6363880597238892,
                2.843424748519028
            ]
        },
        {
            "positions": [
                -2.790135107337428,
                -0.5247066375303947,
                0.42065919045869127,
                -0.39687624479734,
                0.7041952139136571,
                2.7458496962976198
            ]
        },
        {
            "positions": [
                -2.809744658827716,
                -0.493958902394551,
                0.33844026559806467,
                -0.4773291107942393,
                0.7720023681034249,
                2.6482746440762113
            ]
        },
        {
            "positions": [
                -2.8293542103180043,
                -0.46321116725870726,
                0.2562213407374382,
                -0.5577819767911385,
                0.8398095222931927,
                2.550699591854803
            ]
        },
        {
            "positions": [
                -2.856676715441276,
                -0.45350918023712755,
                0.18619600570411393,
                -0.6290144735424555,
                0.9371707818934727,
                2.466788516666752
            ]
        },
        {
            "positions": [
                -2.883999220564548,
                -0.4438071932155478,
                0.11617067067078965,
                -0.7002469702937726,
                1.0345320414937527,
                2.3828774414787004
            ]
        },
        {
            "positions": [
                -2.91132172568782,
                -0.4341052061939681,
                0.04614533563746537,
                -0.7714794670450897,
                1.1318933010940326,
                2.2989663662906485
            ]
        },
        {
            "positions": [
                -2.9386442308110925,
                -0.4244032191723884,
                -0.023879999395858886,
                -0.8427119637964068,
                1.2292545606943124,
                2.215055291102597
            ]
        },
        {
            "positions": [
                -2.9659667359343644,
                -0.4147012321508086,
                -0.0939053344291832,
                -0.9139444605477239,
                1.3266158202945924,
                2.1311442159145457
            ]
        },
        {
            "positions": [
                -2.9932892410576364,
                -0.4049992451292289,
                -0.16393066946250745,
                -0.985176957299041,
                1.4239770798948723,
                2.0472331407264943
            ]
        },
        {
            "positions": [
                -2.895360723181684,
                -0.4511675684809234,
                -0.20964817435407296,
                -0.8990529880190152,
                1.3767096847409186,
                1.9839173808033583
            ]
        },
        {
            "positions": [
                -2.7974322053057317,
                -0.49733589183261784,
                -0.25536567924563847,
                -0.8129290187389895,
                1.3294422895869646,
                1.9206016208802223
            ]
        },
        {
            "positions": [
                -2.6995036874297793,
                -0.5435042151843124,
                -0.3010831841372039,
                -0.7268050494589637,
                1.282174894433011,
                1.8572858609570866
            ]
        },
        {
            "positions": [
                -2.601575169553827,
                -0.5896725385360068,
                -0.3468006890287694,
                -0.640681080178938,
                1.234907499279057,
                1.7939701010339506
            ]
        },
        {
            "positions": [
                -2.5036466516778746,
                -0.6358408618877012,
                -0.39251819392033493,
                -0.5545571108989122,
                1.1876401041251032,
                1.7306543411108146
            ]
        },
        {
            "positions": [
                -2.405718133801922,
                -0.6820091852393957,
                -0.43823569881190044,
                -0.4684331416188865,
                1.1403727089711495,
                1.6673385811876786
            ]
        },
        {
            "positions": [
                -2.3077896159259694,
                -0.7281775085910902,
                -0.48395320370346595,
                -0.38230917233886075,
                1.0931053138171958,
                1.6040228212645427
            ]
        },
        {
            "positions": [
                -2.209861098050017,
                -0.7743458319427845,
                -0.5296707085950314,
                -0.296185203058835,
                1.0458379186632418,
                1.540707061341407
            ]
        },
        {
            "positions": [
                -2.1119325801740647,
                -0.820514155294479,
                -0.5753882134865969,
                -0.21006123377880925,
                0.9985705235092881,
                1.477391301418271
            ]
        },
        {
            "positions": [
                -2.0140040622981124,
                -0.8666824786461735,
                -0.6211057183781624,
                -0.1239372644987835,
                0.9513031283553343,
                1.414075541495135
            ]
        },
        {
            "positions": [
                -1.9160755444221602,
                -0.9128508019978679,
                -0.6668232232697279,
                -0.03781329521875787,
                0.9040357332013804,
                1.3507597815719992
            ]
        },
        {
            "positions": [
                -1.8181470265462076,
                -0.9590191253495625,
                -0.7125407281612934,
                0.04831067406126799,
                0.8567683380474266,
                1.287444021648863
            ]
        },
        {
            "positions": [
                -1.7202185086702553,
                -1.0051874487012569,
                -0.7582582330528589,
                0.13443464334129374,
                0.8095009428934727,
                1.2241282617257272
            ]
        },
        {
            "positions": [
                -1.622289990794303,
                -1.0513557720529514,
                -0.8039757379444245,
                0.22055861262131948,
                0.762233547739519,
                1.160812501802591
            ]
        },
        {
            "positions": [
                -1.5243614729183506,
                -1.097524095404646,
                -0.8496932428359899,
                0.30668258190134523,
                0.7149661525855652,
                1.0974967418794552
            ]
        },
        {
            "positions": [
                -1.4264329550423982,
                -1.1436924187563402,
                -0.8954107477275554,
                0.392806551181371,
                0.6676987574316113,
                1.0341809819563192
            ]
        },
        {
            "positions": [
                -1.3285044371664458,
                -1.1898607421080347,
                -0.9411282526191209,
                0.4789305204613967,
                0.6204313622776576,
                0.9708652220331835
            ]
        },
        {
            "positions": [
                -1.2305759192904935,
                -1.236029065459729,
                -0.9868457575106864,
                0.5650544897414225,
                0.5731639671237038,
                0.9075494621100475
            ]
        },
        {
            "positions": [
                -1.1326474014145411,
                -1.2821973888114235,
                -1.0325632624022518,
                0.6511784590214482,
                0.5258965719697499,
                0.8442337021869115
            ]
        },
        {
            "positions": [
                -1.0347188835385888,
                -1.328365712163118,
                -1.0782807672938173,
                0.737302428301474,
                0.4786291768157962,
                0.7809179422637755
            ]
        },
        {
            "positions": [
                -0.9367903656626364,
                -1.3745340355148126,
                -1.123998272185383,
                0.8234263975814995,
                0.43136178166184236,
                0.7176021823406398
            ]
        },
        {
            "positions": [
                -0.838861847786684,
                -1.420702358866507,
                -1.1697157770769482,
                0.9095503668615252,
                0.3840943865078885,
                0.6542864224175038
            ]
        },
        {
            "positions": [
                -0.7409333299107312,
                -1.4668706822182016,
                -1.2154332819685139,
                0.9956743361415514,
                0.33682699135393457,
                0.5909706624943676
            ]
        },
        {
            "positions": [
                -0.6430048120347789,
                -1.5130390055698961,
                -1.2611507868600795,
                1.081798305421577,
                0.28955959619998084,
                0.5276549025712316
            ]
        },
        {
            "positions": [
                -0.5450762941588265,
                -1.5592073289215906,
                -1.3068682917516448,
                1.1679222747016027,
                0.2422922010460271,
                0.46433914264809584
            ]
        },
        {
            "positions": [
                -0.44714777628287417,
                -1.6053756522732847,
                -1.3525857966432104,
                1.2540462439816285,
                0.19502480589207316,
                0.40102338272495985
            ]
        },
        {
            "positions": [
                -0.3492192584069218,
                -1.6515439756249792,
                -1.398303301534776,
                1.3401702132616542,
                0.14775741073811943,
                0.33770762280182387
            ]
        },
        {
            "positions": [
                -0.25129074053096945,
                -1.6977122989766738,
                -1.4440208064263413,
                1.42629418254168,
                0.1004900155841657,
                0.2743918628786879
            ]
        },
        {
            "positions": [
                -0.1533622226550171,
                -1.7438806223283683,
                -1.489738311317907,
                1.5124181518217057,
                0.05322262043021175,
                0.21107610295555213
            ]
        },
        {
            "positions": [
                -0.055433704779064855,
                -1.7900489456800628,
                -1.5354558162094722,
                1.5985421211017314,
                0.005955225276257997,
                0.14776034303241603
            ]
        },
        {
            "positions": [
                -0.05374763104477165,
                -1.8845355972259652,
                -1.7314132309946226,
                1.6014435543878327,
                0.029424013592124217,
                0.09253567060424167
            ]
        },
        {
            "positions": [
                -0.052061557310478436,
                -1.9790222487718676,
                -1.927370645779773,
                1.6043449876739337,
                0.052892801907990436,
                0.03731099817606731
            ]
        },
        {
            "positions": [
                -0.05037548357618522,
                -2.07350890031777,
                -2.1233280605649236,
                1.6072464209600348,
                0.07636159022385666,
                -0.017913674252107048
            ]
        },
        {
            "positions": [
                -0.04868940984189202,
                -2.1679955518636724,
                -2.319285475350074,
                1.610147854246136,
                0.09983037853972287,
                -0.07313834668028142
            ]
        },
        {
            "positions": [
                -0.11722757274535024,
                -2.2249919516644363,
                -2.345746402535552,
                1.568699373794719,
                0.13920563834249428,
                -0.040014751707881574
            ]
        },
        {
            "positions": [
                -0.18576573564880847,
                -2.2819883514652006,
                -2.3722073297210304,
                1.527250893343302,
                0.17858089814526568,
                -0.0068911567354817335
            ]
        }
    ]
}