{
    "goal": {
        "global_pose": {
            "orientation": {
                "w": 0.7047431493862688,
                "x": -0.7094548369677653,
                "y": 0.0024358444001904,
                "z": -0.0022348060817251984
            },
            "position": {
                "x": -0.39052492380142206,
                "y": 0.3671506643295288,
                "z": 0.19426114857196808
            }
        },
        "name": "move_to_magneteinheit_D"
    },
    "id": "ProjEST_move_to_magneteinheit_D_36",
    "joint_names": [
        "shoulder_pan_joint",
        "shoulder_lift_joint",
        "elbow_joint",
        "wrist_1_joint",
        "wrist_2_joint",
        "wrist_3_joint"
    ],
    "metrics": {
        "cart_traj_len": 6.7218430587316025,
        "distance_elbow_joint": 3.908943680274563,
        "distance_shoulder_lift_joint": 2.8461062149289447,
        "distance_shoulder_pan_joint": 5.066181851668909,
        "distance_wrist_1_joint": 2.2057119589485565,
        "distance_wrist_2_joint": 1.6125169274911628,
        "distance_wrist_3_joint": 0.7861025692442358,
        "smoothness": 1.1536991414548579,
        "time": 0.099694699,
        "traj_len": 4.052846308775645,
        "weighted_distance": 4.6707598126519585
    },
    "planner": "ProjEST",
    "start": {
        "state": {
            "elbow_joint": 0.7495348899011973,
            "shoulder_lift_joint": -0.6476975780737697,
            "shoulder_pan_joint": -2.711696901376276,
            "wrist_1_joint": -0.07506478080974305,
            "wrist_2_joint": 0.4329665971545858,
            "wrist_3_joint": 3.1361499051832524
        }
    },
    "waypoints": [
        {
            "positions": [
                -2.711696901376276,
                -0.6476975780737697,
                0.7495348899011973,
                -0.07506478080974305,
                0.4329665971545858,
                3.1361499051832524
            ]
        },
        {
            "positions": [
                -2.76745696672213,
                -0.5516512680811417,
                0.6088797550751791,
                -0.10020258416283936,
                0.4328943327568719,
                3.1042684648244343
            ]
        },
        {
            "positions": [
                -2.823217032067984,
                -0.45560495808851376,
                0.4682246202491609,
                -0.12534038751593568,
                0.43282206835915804,
                3.0723870244656166
            ]
        },
        {
            "positions": [
                -2.878977097413838,
                -0.3595586480958858,
                0.3275694854231427,
                -0.150478190869032,
                0.43274980396144413,
                3.040505584106799
            ]
        },
        {
            "positions": [
                -2.9347371627596917,
                -0.2635123381032578,
                0.18691435059712452,
                -0.1756159942221283,
                0.43267753956373023,
                3.008624143747981
            ]
        },
        {
            "positions": [
                -2.8924437748517224,
                -0.37889240911716215,
                0.28614404522356945,
                -0.16173505446994735,
                0.3632551102430725,
                2.9699696195336927
            ]
        },
        {
            "positions": [
                -2.8501503869437528,
                -0.49427248013106645,
                0.38537373985001433,
                -0.14785411471776636,
                0.29383268092241477,
                2.9313150953194045
            ]
        },
        {
            "positions": [
                -2.807856999035783,
                -0.6096525511449707,
                0.48460343447645926,
                -0.13397317496558536,
                0.22441025160175704,
                2.892660571105116
            ]
        },
        {
            "positions": [
                -2.765563611127814,
                -0.7250326221588751,
                0.5838331291029042,
                -0.1200922352134044,
                0.1549878222810993,
                2.8540060468908277
            ]
        },
        {
            "positions": [
                -2.620468908595665,
                -0.7853895292020866,
                0.5061132441931129,
                -0.1856727961489119,
                0.12148884512654148,
                2.849617871215913
            ]
        },
        {
            "positions": [
                -2.475374206063517,
                -0.8457464362452981,
                0.4283933592833217,
                -0.2512533570844194,
                0.08798986797198365,
                2.845229695540998
            ]
        },
        {
            "positions": [
                -2.330279503531368,
                -0.9061033432885096,
                0.35067347437353047,
                -0.3168339180199269,
                0.05449089081742582,
                2.8408415198660832
            ]
        },
        {
            "positions": [
                -2.1851848009992194,
                -0.9664602503317211,
                0.27295358946373915,
                -0.3824144789554344,
                0.020991913662867984,
                2.836453344191168
            ]
        },
        {
            "positions": [
                -2.0400900984670707,
                -1.0268171573749327,
                0.1952337045539479,
                -0.4479950398909419,
                -0.01250706349168984,
                2.8320651685162535
            ]
        },
        {
            "positions": [
                -1.8949953959349224,
                -1.0871740644181442,
                0.11751381964415669,
                -0.5135756008264494,
                -0.046006040646247665,
                2.8276769928413388
            ]
        },
        {
            "positions": [
                -1.7499006934027734,
                -1.1475309714613557,
                0.03979393473436532,
                -0.579156161761957,
                -0.07950501780080552,
                2.8232888171664237
            ]
        },
        {
            "positions": [
                -1.604805990870625,
                -1.2078878785045672,
                -0.03792595017542588,
                -0.6447367226974644,
                -0.11300399495536334,
                2.818900641491509
            ]
        },
        {
            "positions": [
                -1.4597112883384764,
                -1.2682447855477788,
                -0.11564583508521709,
                -0.7103172836329719,
                -0.14650297210992114,
                2.814512465816594
            ]
        },
        {
            "positions": [
                -1.3146165858063277,
                -1.3286016925909903,
                -0.1933657199950084,
                -0.7758978445684794,
                -0.180001949264479,
                2.810124290141679
            ]
        },
        {
            "positions": [
                -1.1695218832741792,
                -1.3889585996342018,
                -0.2710856049047996,
                -0.8414784055039869,
                -0.21350092641903684,
                2.8057361144667645
            ]
        },
        {
            "positions": [
                -1.0244271807420307,
                -1.4493155066774133,
                -0.3488054898145908,
                -0.9070589664394944,
                -0.24699990357359464,
                2.8013479387918494
            ]
        },
        {
            "positions": [
                -0.8793324782098819,
                -1.5096724137206248,
                -0.42652537472438223,
                -0.9726395273750019,
                -0.2804988807281525,
                2.7969597631169347
            ]
        },
        {
            "positions": [
                -0.734237775677733,
                -1.5700293207638363,
                -0.5042452596341735,
                -1.0382200883105095,
                -0.31399785788271034,
                2.7925715874420196
            ]
        },
        {
            "positions": [
                -0.5891430731455847,
                -1.6303862278070478,
                -0.5819651445439646,
                -1.1038006492460168,
                -0.34749683503726814,
                2.788183411767105
            ]
        },
        {
            "positions": [
                -0.44404837061343594,
                -1.6907431348502593,
                -0.659685029453756,
                -1.1693812101815244,
                -0.380995812191826,
                2.7837952360921903
            ]
        },
        {
            "positions": [
                -0.2989536680812872,
                -1.751100041893471,
                -0.7374049143635473,
                -1.234961771117032,
                -0.41449478934638384,
                2.779407060417275
            ]
        },
        {
            "positions": [
                -0.15385896554913892,
                -1.8114569489366823,
                -0.8151247992733384,
                -1.3005423320525393,
                -0.4479937665009416,
                2.7750188847423605
            ]
        },
        {
            "positions": [
                -0.008764263016990181,
                -1.871813855979894,
                -0.8928446841831297,
                -1.366122892988047,
                -0.48149274365549943,
                2.7706307090674454
            ]
        },
        {
            "positions": [
                0.13633043951515855,
                -1.9321707630231053,
                -0.970564569092921,
                -1.4317034539235545,
                -0.5149917208100573,
                2.7662425333925307
            ]
        },
        {
            "positions": [
                0.28142514204730684,
                -1.992527670066317,
                -1.048284454002712,
                -1.4972840148590618,
                -0.5484906979646151,
                2.761854357717616
            ]
        },
        {
            "positions": [
                0.4265198445794556,
                -2.0528845771095283,
                -1.1260043389125034,
                -1.5628645757945694,
                -0.581989675119173,
                2.757466182042701
            ]
        },
        {
            "positions": [
                0.5716145471116043,
                -2.11324148415274,
                -1.2037242238222947,
                -1.628445136730077,
                -0.6154886522737308,
                2.753078006367786
            ]
        },
        {
            "positions": [
                0.7167092496437526,
                -2.1735983911959513,
                -1.2814441087320858,
                -1.6940256976655843,
                -0.6489876294282886,
                2.748689830692871
            ]
        },
        {
            "positions": [
                0.8618039521759011,
                -2.233955298239163,
                -1.3591639936418771,
                -1.7596062586010919,
                -0.6824866065828464,
                2.7443016550179564
            ]
        },
        {
            "positions": [
                0.7571439046409112,
                -2.1848074967569104,
                -1.4598047176138702,
                -1.800618554915068,
                -0.6327802342074733,
                2.7837270869258504
            ]
        },
        {
            "positions": [
                0.6524838571059214,
                -2.1356596952746574,
                -1.560445441585863,
                -1.8416308512290438,
                -0.5830738618321003,
                2.8231525188337443
            ]
        },
        {
            "positions": [
                0.5478238095709316,
                -2.0865118937924043,
                -1.661086165557856,
                -1.8826431475430199,
                -0.5333674894567273,
                2.8625779507416382
            ]
        },
        {
            "positions": [
                0.44316376203594166,
                -2.0373640923101517,
                -1.761726889529849,
                -1.9236554438569957,
                -0.4836611170813542,
                2.902003382649532
            ]
        },
        {
            "positions": [
                0.33850371450095185,
                -1.9882162908278989,
                -1.862367613501842,
                -1.9646677401709718,
                -0.4339547447059811,
                2.941428814557426
            ]
        },
        {
            "positions": [
                0.23384366696596204,
                -1.939068489345646,
                -1.963008337473835,
                -2.005680036484948,
                -0.38424837233060805,
                2.9808542464653205
            ]
        },
        {
            "positions": [
                0.12918361943097223,
                -1.8899206878633932,
                -2.063649061445828,
                -2.0466923327989237,
                -0.334541999955235,
                3.0202796783732144
            ]
        },
        {
            "positions": [
                0.0245235718959822,
                -1.8407728863811403,
                -2.1642897854178207,
                -2.0877046291129,
                -0.2848356275798619,
                3.0597051102811084
            ]
        },
        {
            "positions": [
                -0.08013647563900761,
                -1.7916250848988875,
                -2.264930509389814,
                -2.128716925426876,
                -0.23512925520448885,
                3.0991305421890023
            ]
        },
        {
            "positions": [
                -0.1847965231739975,
                -1.7424772834166347,
                -2.365571233361807,
                -2.1697292217408517,
                -0.18542288282911576,
                3.1385559740968962
            ]
        }
    ]
}