{
    "goal": {
        "global_pose": {
            "orientation": {
                "w": 0.5084816217422485,
                "x": -0.49083608388900757,
                "y": 0.5182115435600281,
                "z": -0.4816462993621826
            },
            "position": {
                "x": 0.5540239810943604,
                "y": 0.030875300988554955,
                "z": 0.16403168439865112
            }
        },
        "name": "move_to_storage_A"
    },
    "id": "ProjEST_move_to_storage_A_22",
    "joint_names": [
        "shoulder_pan_joint",
        "shoulder_lift_joint",
        "elbow_joint",
        "wrist_1_joint",
        "wrist_2_joint",
        "wrist_3_joint"
    ],
    "metrics": {
        "cart_traj_len": 0.35237611610051145,
        "distance_elbow_joint": 0.45074551751635505,
        "distance_shoulder_lift_joint": 0.23401170570571828,
        "distance_shoulder_pan_joint": 0.45853798357151376,
        "distance_wrist_1_joint": 0.2500361086221695,
        "distance_wrist_2_joint": 1.1067518169491861,
        "distance_wrist_3_joint": 0.10848226556518803,
        "smoothness": 4.440892133664971e-16,
        "time": 0.034963257,
        "traj_len": 1.615105382917824,
        "weighted_distance": 2.0450716013459926
    },
    "planner": "ProjEST",
    "start": {
        "state": {
            "elbow_joint": 1.9715474177455299,
            "shoulder_lift_joint": -1.139484666580328,
            "shoulder_pan_joint": 0.12281154398918248,
            "wrist_1_joint": -0.7804687475355282,
            "wrist_2_joint": 0.12958649657246987,
            "wrist_3_joint": -3.1924925159053466
        }
    },
    "waypoints": [
        {
            "positions": [
                0.12281154398918248,
                -1.139484666580328,
                1.9715474177455299,
                -0.7804687475355282,
                0.12958649657246987,
                -3.1924925159053466
            ]
        },
        {
            "positions": [
                0.05730611776468052,
                -1.1729149102525736,
                2.0359396345335807,
                -0.8161881916244096,
                0.28769389899378217,
                -3.176995049396034
            ]
        },
        {
            "positions": [
                -0.008199308459821447,
                -1.206345153924819,
                2.100331851321631,
                -0.8519076357132909,
                0.44580130141509455,
                -3.1614975828867213
            ]
        },
        {
            "positions": [
                -0.0737047346843234,
                -1.2397753975970645,
                2.164724068109682,
                -0.8876270798021723,
                0.6039087038364068,
                -3.146000116377409
            ]
        },
        {
            "positions": [
                -0.13921016090882538,
                -1.2732056412693098,
                2.229116284897733,
                -0.9233465238910536,
                0.7620161062577192,
                -3.130502649868096
            ]
        },
        {
            "positions": [
                -0.20471558713332738,
                -1.3066358849415554,
                2.2935085016857837,
                -0.9590659679799349,
                0.9201235086790316,
                -3.1150051833587837
            ]
        },
        {
            "positions": [
                -0.2702210133578293,
                -1.3400661286138007,
                2.357900718473834,
                -0.9947854120688163,
                1.0782309111003439,
                -3.099507716849471
            ]
        },
        {
            "positions": [
                -0.3357264395823313,
                -1.3734963722860463,
                2.422292935261885,
                -1.0305048561576977,
                1.2363383135216561,
                -3.0840102503401585
            ]
        }
    ]
}