{
    "goal": {
        "global_pose": {
            "orientation": {
                "w": 0.5084816217422485,
                "x": -0.49083608388900757,
                "y": 0.5182115435600281,
                "z": -0.4816462993621826
            },
            "position": {
                "x": 0.5540239810943604,
                "y": 0.030875300988554955,
                "z": 0.16403168439865112
            }
        },
        "name": "move_to_storage_A"
    },
    "id": "ProjEST_move_to_storage_A_45",
    "joint_names": [
        "shoulder_pan_joint",
        "shoulder_lift_joint",
        "elbow_joint",
        "wrist_1_joint",
        "wrist_2_joint",
        "wrist_3_joint"
    ],
    "metrics": {
        "cart_traj_len": 0.3534605514666395,
        "distance_elbow_joint": 0.44910481253685486,
        "distance_shoulder_lift_joint": 0.2351228072574496,
        "distance_shoulder_pan_joint": 0.46151018728726484,
        "distance_wrist_1_joint": 0.23760791685783966,
        "distance_wrist_2_joint": 1.1028344883588175,
        "distance_wrist_3_joint": 0.10069082207047941,
        "smoothness": 0.0,
        "time": 0.069799002,
        "traj_len": 1.6083752778405622,
        "weighted_distance": 2.031919064265681
    },
    "planner": "ProjEST",
    "start": {
        "state": {
            "elbow_joint": 1.9715474177455299,
            "shoulder_lift_joint": -1.139484666580328,
            "shoulder_pan_joint": 0.12281154398918248,
            "wrist_1_joint": -0.7804687475355282,
            "wrist_2_joint": 0.12958649657246987,
            "wrist_3_joint": -3.1924925159053466
        }
    },
    "waypoints": [
        {
            "positions": [
                0.12281154398918248,
                -1.139484666580328,
                1.9715474177455299,
                -0.7804687475355282,
                0.12958649657246987,
                -3.1924925159053466
            ]
        },
        {
            "positions": [
                0.05688151723385894,
                -1.173073639045678,
                2.035705248107938,
                -0.8144127356580767,
                0.2871342806237295,
                -3.178108112752421
            ]
        },
        {
            "positions": [
                -0.009048509521464604,
                -1.206662611511028,
                2.0998630784703454,
                -0.8483567237806252,
                0.44468206467498916,
                -3.1637237095994952
            ]
        },
        {
            "positions": [
                -0.07497853627678816,
                -1.240251583976378,
                2.1640209088327533,
                -0.8823007119031737,
                0.6022298487262487,
                -3.14933930644657
            ]
        },
        {
            "positions": [
                -0.1409085630321117,
                -1.2738405564417277,
                2.2281787391951613,
                -0.9162447000257223,
                0.7597776327775084,
                -3.134954903293644
            ]
        },
        {
            "positions": [
                -0.20683858978743525,
                -1.3074295289070776,
                2.2923365695575693,
                -0.9501886881482708,
                0.9173254168287681,
                -3.1205705001407185
            ]
        },
        {
            "positions": [
                -0.2727686165427588,
                -1.3410185013724276,
                2.356494399919977,
                -0.9841326762708194,
                1.0748732008800277,
                -3.1061860969877926
            ]
        },
        {
            "positions": [
                -0.33869864329808236,
                -1.3746074738377776,
                2.4206522302823847,
                -1.0180766643933679,
                1.2324209849312873,
                -3.091801693834867
            ]
        }
    ]
}