{
    "goal": {
        "global_pose": {
            "orientation": {
                "w": 0.7047431468963623,
                "x": -0.7094548344612122,
                "y": 0.0024358443915843964,
                "z": -0.0022348060738295317
            },
            "position": {
                "x": 0.6094750761985779,
                "y": 0.3671506643295288,
                "z": 0.19426114857196808
            }
        },
        "name": "move_to_magneteinheit_A"
    },
    "id": "ProjEST_move_to_magneteinheit_A_88",
    "joint_names": [
        "shoulder_pan_joint",
        "shoulder_lift_joint",
        "elbow_joint",
        "wrist_1_joint",
        "wrist_2_joint",
        "wrist_3_joint"
    ],
    "metrics": {
        "cart_traj_len": 1.0544223849488559,
        "distance_elbow_joint": 0.3780896604632509,
        "distance_shoulder_lift_joint": 0.36977947687716295,
        "distance_shoulder_pan_joint": 1.2422255584227753,
        "distance_wrist_1_joint": 2.190628921276998,
        "distance_wrist_2_joint": 1.69955902267786,
        "distance_wrist_3_joint": 1.2397594504211926,
        "smoothness": 1.8698493194378823e-16,
        "time": 0.049159793,
        "traj_len": 2.6683406997868993,
        "weighted_distance": 3.6728393559937365
    },
    "planner": "ProjEST",
    "start": {
        "state": {
            "elbow_joint": 1.5739458966750683,
            "shoulder_lift_joint": -1.4977259741207325,
            "shoulder_pan_joint": -1.1188672016454206,
            "wrist_1_joint": 1.494575848278785,
            "wrist_2_joint": -1.5706037134824402,
            "wrist_3_joint": -2.0226957942261072
        }
    },
    "waypoints": [
        {
            "positions": [
                -1.1188672016454206,
                -1.4977259741207325,
                1.5739458966750683,
                1.494575848278785,
                -1.5706037134824402,
                -2.0226957942261072
            ]
        },
        {
            "positions": [
                -1.0498546706219332,
                -1.477182669849779,
                1.5949508778119157,
                1.372874241541174,
                -1.4761837677781147,
                -2.091571319249507
            ]
        },
        {
            "positions": [
                -0.9808421395984457,
                -1.4566393655788255,
                1.6159558589487628,
                1.251172634803563,
                -1.3817638220737891,
                -2.1604468442729066
            ]
        },
        {
            "positions": [
                -0.9118296085749581,
                -1.436096061307872,
                1.6369608400856102,
                1.129471028065952,
                -1.2873438763694636,
                -2.2293223692963062
            ]
        },
        {
            "positions": [
                -0.8428170775514706,
                -1.4155527570369184,
                1.6579658212224575,
                1.007769421328341,
                -1.192923930665138,
                -2.2981978943197054
            ]
        },
        {
            "positions": [
                -0.773804546527983,
                -1.395009452765965,
                1.6789708023593046,
                0.8860678145907299,
                -1.0985039849608125,
                -2.367073419343105
            ]
        },
        {
            "positions": [
                -0.7047920155044956,
                -1.3744661484950116,
                1.699975783496152,
                0.764366207853119,
                -1.004084039256487,
                -2.4359489443665048
            ]
        },
        {
            "positions": [
                -0.6357794844810081,
                -1.353922844224058,
                1.7209807646329993,
                0.6426646011155079,
                -0.9096640935521613,
                -2.5048244693899044
            ]
        },
        {
            "positions": [
                -0.5667669534575206,
                -1.3333795399531045,
                1.7419857457698464,
                0.5209629943778971,
                -0.8152441478478357,
                -2.573699994413304
            ]
        },
        {
            "positions": [
                -0.497754422434033,
                -1.312836235682151,
                1.7629907269066938,
                0.39926138764028596,
                -0.7208242021435102,
                -2.6425755194367033
            ]
        },
        {
            "positions": [
                -0.4287418914105454,
                -1.2922929314111975,
                1.7839957080435411,
                0.27755978090267486,
                -0.6264042564391846,
                -2.7114510444601034
            ]
        },
        {
            "positions": [
                -0.35972936038705794,
                -1.271749627140244,
                1.8050006891803883,
                0.15585817416506376,
                -0.531984310734859,
                -2.7803265694835027
            ]
        },
        {
            "positions": [
                -0.29071682936357046,
                -1.2512063228692905,
                1.8260056703172356,
                0.0341565674274531,
                -0.43756436503053364,
                -2.8492020945069023
            ]
        },
        {
            "positions": [
                -0.22170429834008298,
                -1.230663018598337,
                1.847010651454083,
                -0.087545039310158,
                -0.3431444193262079,
                -2.918077619530302
            ]
        },
        {
            "positions": [
                -0.1526917673165954,
                -1.2101197143273836,
                1.86801563259093,
                -0.2092466460477691,
                -0.24872447362188232,
                -2.9869531445537016
            ]
        },
        {
            "positions": [
                -0.0836792362931078,
                -1.18957641005643,
                1.8890206137277774,
                -0.3309482527853802,
                -0.15430452791755678,
                -3.0558286695771013
            ]
        },
        {
            "positions": [
                -0.01466670526962055,
                -1.1690331057854766,
                1.9100255948646248,
                -0.45264985952299086,
                -0.05988458221323123,
                -3.1247041946005005
            ]
        },
        {
            "positions": [
                0.05434582575386715,
                -1.148489801514523,
                1.9310305760014719,
                -0.574351466260602,
                0.03453536349109432,
                -3.1935797196239
            ]
        },
        {
            "positions": [
                0.12335835677735457,
                -1.1279464972435695,
                1.9520355571383192,
                -0.696053072998213,
                0.12895530919541992,
                -3.2624552446473
            ]
        }
    ]
}