{
    "goal": {
        "global_pose": {
            "orientation": {
                "w": 0.005598929693374612,
                "x": 0.007748599140229565,
                "y": 0.7110244013736278,
                "z": -0.7031023480610252
            },
            "position": {
                "x": 0.1141497679147869,
                "y": -0.7141253447532654,
                "z": 0.3711530566215515
            }
        },
        "name": "move_to_auspresseinheit_B"
    },
    "id": "ProjEST_move_to_auspresseinheit_B_122",
    "joint_names": [
        "shoulder_pan_joint",
        "shoulder_lift_joint",
        "elbow_joint",
        "wrist_1_joint",
        "wrist_2_joint",
        "wrist_3_joint"
    ],
    "metrics": {
        "cart_traj_len": 0.564324127907671,
        "distance_elbow_joint": 0.06128437676482612,
        "distance_shoulder_lift_joint": 0.29491039462532553,
        "distance_shoulder_pan_joint": 0.5774858738938182,
        "distance_wrist_1_joint": 0.3250668199218757,
        "distance_wrist_2_joint": 0.9915646559994247,
        "distance_wrist_3_joint": 0.005504020997173065,
        "smoothness": 5.075305255429287e-16,
        "time": 0.149095384,
        "traj_len": 1.5019374628134299,
        "weighted_distance": 1.8930017591428936
    },
    "planner": "ProjEST",
    "start": {
        "state": {
            "elbow_joint": 2.019306165916698,
            "shoulder_lift_joint": -1.1220205098164344,
            "shoulder_pan_joint": -1.095207207618794,
            "wrist_1_joint": -0.8559671824921639,
            "wrist_2_joint": 0.47596387242952726,
            "wrist_3_joint": 3.159081874673826
        }
    },
    "waypoints": [
        {
            "positions": [
                -1.095207207618794,
                -1.1220205098164344,
                2.019306165916698,
                -0.8559671824921639,
                0.47596387242952726,
                3.159081874673826
            ]
        },
        {
            "positions": [
                -1.1914548532677638,
                -1.1711722422539887,
                2.00909210312256,
                -0.8017893791718512,
                0.6412246484294314,
                3.1581645378409635
            ]
        },
        {
            "positions": [
                -1.2877024989167334,
                -1.2203239746915429,
                1.9988780403284225,
                -0.7476115758515386,
                0.8064854244293355,
                3.1572472010081016
            ]
        },
        {
            "positions": [
                -1.383950144565703,
                -1.2694757071290972,
                1.988663977534285,
                -0.6934337725312261,
                0.9717462004292396,
                3.1563298641752393
            ]
        },
        {
            "positions": [
                -1.4801977902146728,
                -1.3186274395666515,
                1.9784499147401473,
                -0.6392559692109134,
                1.1370069764291437,
                3.155412527342377
            ]
        },
        {
            "positions": [
                -1.5764454358636426,
                -1.3677791720042056,
                1.9682358519460095,
                -0.5850781658906008,
                1.3022677524290478,
                3.154495190509515
            ]
        },
        {
            "positions": [
                -1.6726930815126122,
                -1.41693090444176,
                1.9580217891518719,
                -0.5309003625702882,
                1.4675285284289519,
                3.1535778536766528
            ]
        }
    ]
}