{
    "goal": {
        "global_pose": {
            "orientation": {
                "w": -0.00223480608172531,
                "x": 0.0024358444001904467,
                "y": 0.7094548369677653,
                "z": -0.704743149386269
            },
            "position": {
                "x": -0.37947507619857795,
                "y": -0.6371506643295288,
                "z": 0.19426114857196808
            }
        },
        "name": "move_to_magneteinheit_C"
    },
    "id": "ProjEST_move_to_magneteinheit_C_47",
    "joint_names": [
        "shoulder_pan_joint",
        "shoulder_lift_joint",
        "elbow_joint",
        "wrist_1_joint",
        "wrist_2_joint",
        "wrist_3_joint"
    ],
    "metrics": {
        "cart_traj_len": 0.9666061629171216,
        "distance_elbow_joint": 0.5292747722058881,
        "distance_shoulder_lift_joint": 0.5584715006972389,
        "distance_shoulder_pan_joint": 0.9346165770902535,
        "distance_wrist_1_joint": 2.1337315555981426,
        "distance_wrist_2_joint": 1.3696294916061524,
        "distance_wrist_3_joint": 5.7137912452220405,
        "smoothness": 0.8310097829109095,
        "time": 0.552575916,
        "traj_len": 3.3525386116224998,
        "weighted_distance": 5.115707055732188
    },
    "planner": "ProjEST",
    "start": {
        "state": {
            "elbow_joint": 1.9565354006590394,
            "shoulder_lift_joint": -1.4165861576513559,
            "shoulder_pan_joint": -1.6717766223277177,
            "wrist_1_joint": -0.5286633288215096,
            "wrist_2_joint": 1.4727565892594296,
            "wrist_3_joint": 3.1593482883155493
        }
    },
    "waypoints": [
        {
            "positions": [
                -1.6717766223277177,
                -1.4165861576513559,
                1.9565354006590394,
                -0.5286633288215096,
                1.4727565892594296,
                3.1593482883155493
            ]
        },
        {
            "positions": [
                -1.6838512269604684,
                -1.4471326311753694,
                1.9115151287345693,
                -0.425676416315397,
                1.443809392302164,
                3.0407450463253936
            ]
        },
        {
            "positions": [
                -1.6959258315932189,
                -1.477679104699383,
                1.866494856810099,
                -0.3226895038092844,
                1.414862195344898,
                2.9221418043352374
            ]
        },
        {
            "positions": [
                -1.7080004362259695,
                -1.5082255782233962,
                1.8214745848856289,
                -0.21970259130317188,
                1.3859149983876324,
                2.8035385623450817
            ]
        },
        {
            "positions": [
                -1.72007504085872,
                -1.5387720517474097,
                1.7764543129611585,
                -0.1167156787970593,
                1.3569678014303665,
                2.6849353203549255
            ]
        },
        {
            "positions": [
                -1.7321496454914707,
                -1.5693185252714232,
                1.7314340410366884,
                -0.013728766290946798,
                1.3280206044731009,
                2.56633207836477
            ]
        },
        {
            "positions": [
                -1.7994681817568177,
                -1.5620684723738412,
                1.7374933151445637,
                0.02020706888116825,
                1.2499864068990296,
                2.375853025807112
            ]
        },
        {
            "positions": [
                -1.8667867180221644,
                -1.554818419476259,
                1.743552589252439,
                0.0541429040532833,
                1.1719522093249581,
                2.185373973249454
            ]
        },
        {
            "positions": [
                -1.9341052542875115,
                -1.5475683665786772,
                1.7496118633603144,
                0.08807873922539836,
                1.0939180117508869,
                1.9948949206917965
            ]
        },
        {
            "positions": [
                -2.0014237905528582,
                -1.5403183136810952,
                1.7556711374681897,
                0.1220145743975134,
                1.0158838141768154,
                1.804415868134139
            ]
        },
        {
            "positions": [
                -2.0687423268182052,
                -1.533068260783513,
                1.761730411576065,
                0.15595040956962847,
                0.9378496166027441,
                1.6139368155764808
            ]
        },
        {
            "positions": [
                -2.1360608630835523,
                -1.525818207885931,
                1.7677896856839403,
                0.1898862447417435,
                0.8598154190286729,
                1.4234577630188232
            ]
        },
        {
            "positions": [
                -2.2033793993488993,
                -1.518568154988349,
                1.7738489597918157,
                0.22382207991385858,
                0.7817812214546014,
                1.2329787104611654
            ]
        },
        {
            "positions": [
                -2.270697935614246,
                -1.511318102090767,
                1.779908233899691,
                0.25775791508597357,
                0.7037470238805301,
                1.0424996579035077
            ]
        },
        {
            "positions": [
                -2.338016471879593,
                -1.5040680491931848,
                1.7859675080075663,
                0.29169375025808864,
                0.6257128263064587,
                0.8520206053458499
            ]
        },
        {
            "positions": [
                -2.40533500814494,
                -1.496817996295603,
                1.7920267821154416,
                0.3256295854302037,
                0.5476786287323874,
                0.661541552788192
            ]
        },
        {
            "positions": [
                -2.472653544410287,
                -1.489567943398021,
                1.798086056223317,
                0.3595654206023188,
                0.4696444311583161,
                0.47106250023053464
            ]
        },
        {
            "positions": [
                -2.539972080675634,
                -1.4823178905004388,
                1.8041453303311923,
                0.3935012557744338,
                0.39161023358424474,
                0.2805834476728767
            ]
        },
        {
            "positions": [
                -2.5354775115911385,
                -1.4579412218677017,
                1.8259052597587013,
                0.30288893079036466,
                0.41767360823975463,
                0.4970045170565136
            ]
        },
        {
            "positions": [
                -2.530982942506643,
                -1.4335645532349646,
                1.8476651891862104,
                0.21227660580629554,
                0.44373698289526453,
                0.7134255864401506
            ]
        },
        {
            "positions": [
                -2.526488373422147,
                -1.4091878846022272,
                1.8694251186137196,
                0.12166428082222641,
                0.46980035755077443,
                0.9298466558237874
            ]
        },
        {
            "positions": [
                -2.5219938043376517,
                -1.38481121596949,
                1.8911850480412287,
                0.031051955838157286,
                0.4958637322062844,
                1.1462677252074245
            ]
        },
        {
            "positions": [
                -2.5174992352531564,
                -1.360434547336753,
                1.9129449774687377,
                -0.05956036914591184,
                0.5219271068617943,
                1.3626887945910613
            ]
        },
        {
            "positions": [
                -2.5130046661686607,
                -1.3360578787040158,
                1.9347049068962467,
                -0.15017269412998097,
                0.5479904815173042,
                1.5791098639746983
            ]
        },
        {
            "positions": [
                -2.508510097084165,
                -1.3116812100712787,
                1.9564648363237558,
                -0.2407850191140501,
                0.5740538561728141,
                1.7955309333583354
            ]
        },
        {
            "positions": [
                -2.5040155279996696,
                -1.2873045414385413,
                1.978224765751265,
                -0.3313973440981192,
                0.600117230828324,
                2.0119520027419724
            ]
        },
        {
            "positions": [
                -2.4995209589151743,
                -1.2629278728058042,
                1.999984695178774,
                -0.42200966908218834,
                0.6261806054838339,
                2.2283730721256094
            ]
        },
        {
            "positions": [
                -2.4950263898306786,
                -1.238551204173067,
                2.021744624606283,
                -0.5126219940662575,
                0.6522439801393438,
                2.444794141509246
            ]
        },
        {
            "positions": [
                -2.4878679138648847,
                -1.2135606001801287,
                2.017123681601636,
                -0.6144365677867603,
                0.6615271099313,
                2.6683993784235787
            ]
        },
        {
            "positions": [
                -2.4807094378990904,
                -1.18856999618719,
                2.012502738596988,
                -0.7162511415072629,
                0.6708102397232563,
                2.8920046153379118
            ]
        },
        {
            "positions": [
                -2.4735509619332965,
                -1.1635793921942517,
                2.0078817955923407,
                -0.8180657152277656,
                0.6800933695152125,
                3.1156098522522444
            ]
        }
    ]
}