{
    "goal": {
        "global_pose": {
            "orientation": {
                "w": -0.4816463035849501,
                "x": 0.5182115481033762,
                "y": 0.4908360881923453,
                "z": -0.5084816262002911
            },
            "position": {
                "x": -0.8240239810943604,
                "y": -0.300875300988555,
                "z": 0.16403168439865112
            }
        },
        "name": "move_to_storage_C"
    },
    "id": "ProjEST_move_to_storage_C_33",
    "joint_names": [
        "shoulder_pan_joint",
        "shoulder_lift_joint",
        "elbow_joint",
        "wrist_1_joint",
        "wrist_2_joint",
        "wrist_3_joint"
    ],
    "metrics": {
        "cart_traj_len": 0.576959463824827,
        "distance_elbow_joint": 0.2585034831300901,
        "distance_shoulder_lift_joint": 0.18839490231653,
        "distance_shoulder_pan_joint": 0.4962286085832468,
        "distance_wrist_1_joint": 0.08609206031122418,
        "distance_wrist_2_joint": 1.063397681889073,
        "distance_wrist_3_joint": 0.057944801786052214,
        "smoothness": 2.5376526478085547e-16,
        "time": 0.065011527,
        "traj_len": 1.4664793002344818,
        "weighted_distance": 1.8482264157263355
    },
    "planner": "ProjEST",
    "start": {
        "state": {
            "elbow_joint": 2.010868315001653,
            "shoulder_lift_joint": -1.1634956873357014,
            "shoulder_pan_joint": -2.4736205022346103,
            "wrist_1_joint": -0.8367026794713948,
            "wrist_2_joint": 0.6746043897044093,
            "wrist_3_joint": 3.1335220948105738
        }
    },
    "waypoints": [
        {
            "positions": [
                -2.4736205022346103,
                -1.1634956873357014,
                2.010868315001653,
                -0.8367026794713948,
                0.6746043897044093,
                3.1335220948105738
            ]
        },
        {
            "positions": [
                -2.556325270331818,
                -1.132096536949613,
                1.967784401146638,
                -0.8223540027528574,
                0.8518373366859214,
                3.143179561774916
            ]
        },
        {
            "positions": [
                -2.6390300384290257,
                -1.1006973865635248,
                1.9247004872916231,
                -0.8080053260343201,
                1.0290702836674335,
                3.152837028739258
            ]
        },
        {
            "positions": [
                -2.721734806526234,
                -1.0692982361774364,
                1.8816165734366082,
                -0.7936566493157826,
                1.2063032306489458,
                3.1624944957035996
            ]
        },
        {
            "positions": [
                -2.8044395746234416,
                -1.0378990857913482,
                1.838532659581593,
                -0.7793079725972453,
                1.3835361776304578,
                3.1721519626679417
            ]
        },
        {
            "positions": [
                -2.8871443427206493,
                -1.0064999354052597,
                1.795448745726578,
                -0.7649592958787079,
                1.5607691246119701,
                3.181809429632284
            ]
        },
        {
            "positions": [
                -2.969849110817857,
                -0.9751007850191714,
                1.752364831871563,
                -0.7506106191601706,
                1.738002071593482,
                3.191466896596626
            ]
        }
    ]
}