{
    "goal": {
        "global_pose": {
            "orientation": {
                "w": -0.4816463035849501,
                "x": 0.5182115481033762,
                "y": 0.4908360881923453,
                "z": -0.5084816262002911
            },
            "position": {
                "x": -0.8240239810943604,
                "y": -0.300875300988555,
                "z": 0.16403168439865112
            }
        },
        "name": "move_to_storage_C"
    },
    "id": "ProjEST_move_to_storage_C_26",
    "joint_names": [
        "shoulder_pan_joint",
        "shoulder_lift_joint",
        "elbow_joint",
        "wrist_1_joint",
        "wrist_2_joint",
        "wrist_3_joint"
    ],
    "metrics": {
        "cart_traj_len": 0.577127477372838,
        "distance_elbow_joint": 0.25559187207278367,
        "distance_shoulder_lift_joint": 0.18977155183588157,
        "distance_shoulder_pan_joint": 0.4957953245013256,
        "distance_wrist_1_joint": 0.06510953094445593,
        "distance_wrist_2_joint": 1.0610577941956585,
        "distance_wrist_3_joint": 0.06992649799904926,
        "smoothness": 5.075305295617109e-16,
        "time": 0.187545522,
        "traj_len": 1.4619345305276685,
        "weighted_distance": 1.8447961656203016
    },
    "planner": "ProjEST",
    "start": {
        "state": {
            "elbow_joint": 2.010868315001653,
            "shoulder_lift_joint": -1.1634956873357014,
            "shoulder_pan_joint": -2.4736205022346103,
            "wrist_1_joint": -0.8367026794713948,
            "wrist_2_joint": 0.6746043897044093,
            "wrist_3_joint": 3.1335220948105738
        }
    },
    "waypoints": [
        {
            "positions": [
                -2.4736205022346103,
                -1.1634956873357014,
                2.010868315001653,
                -0.8367026794713948,
                0.6746043897044093,
                3.1335220948105738
            ]
        },
        {
            "positions": [
                -2.5562530563181647,
                -1.1318670953630545,
                1.9682696696561892,
                -0.8258510909806521,
                0.8514473554036857,
                3.145176511143749
            ]
        },
        {
            "positions": [
                -2.6388856104017187,
                -1.1002385033904076,
                1.9256710243107251,
                -0.8149995024899095,
                1.0282903211029621,
                3.1568309274769235
            ]
        },
        {
            "positions": [
                -2.721518164485273,
                -1.0686099114177607,
                1.8830723789652613,
                -0.8041479139991667,
                1.2051332868022384,
                3.168485343810098
            ]
        },
        {
            "positions": [
                -2.8041507185688275,
                -1.0369813194451136,
                1.8404737336197974,
                -0.7932963255084241,
                1.381976252501515,
                3.1801397601432733
            ]
        },
        {
            "positions": [
                -2.8867832726523814,
                -1.0053527274724667,
                1.7978750882743333,
                -0.7824447370176815,
                1.5588192182007914,
                3.1917941764764484
            ]
        },
        {
            "positions": [
                -2.969415826735936,
                -0.9737241354998198,
                1.7552764429288694,
                -0.7715931485269388,
                1.7356621839000679,
                3.203448592809623
            ]
        }
    ]
}