{
    "goal": {
        "global_pose": {
            "orientation": {
                "w": 0.7031023502349854,
                "x": -0.7110244035720825,
                "y": 0.007748599164187908,
                "z": 0.005598929710686207
            },
            "position": {
                "x": 0.11585023208521307,
                "y": 0.44412534475326537,
                "z": 0.3711530566215515
            }
        },
        "name": "move_to_auspresseinheit_A"
    },
    "id": "ProjEST_move_to_auspresseinheit_A_125",
    "joint_names": [
        "shoulder_pan_joint",
        "shoulder_lift_joint",
        "elbow_joint",
        "wrist_1_joint",
        "wrist_2_joint",
        "wrist_3_joint"
    ],
    "metrics": {
        "cart_traj_len": 0.6980423600097275,
        "distance_elbow_joint": 0.42673321297056743,
        "distance_shoulder_lift_joint": 1.5057717036275873,
        "distance_shoulder_pan_joint": 1.0431641790643467,
        "distance_wrist_1_joint": 0.5666164051875768,
        "distance_wrist_2_joint": 0.5272259284171639,
        "distance_wrist_3_joint": 0.7051886009359971,
        "smoothness": 1.064929526579442,
        "time": 0.19819748399999998,
        "traj_len": 2.185108699859858,
        "weighted_distance": 2.6979472874168566
    },
    "planner": "ProjEST",
    "start": {
        "state": {
            "elbow_joint": 2.4225747245308327,
            "shoulder_lift_joint": -1.373653427065438,
            "shoulder_pan_joint": -0.33786330853087027,
            "wrist_1_joint": -1.0288602302712604,
            "wrist_2_joint": 1.23302299562683,
            "wrist_3_joint": -3.094021725338297
        }
    },
    "waypoints": [
        {
            "positions": [
                -0.33786330853087027,
                -1.373653427065438,
                2.4225747245308327,
                -1.0288602302712604,
                1.23302299562683,
                -3.094021725338297
            ]
        },
        {
            "positions": [
                -0.2775246030494872,
                -1.5193012944513236,
                2.450952985635076,
                -0.9492462366875853,
                1.200884482420136,
                -3.0473539125562543
            ]
        },
        {
            "positions": [
                -0.21718589756810405,
                -1.6649491618372092,
                2.4793312467393194,
                -0.8696322431039103,
                1.1687459692134419,
                -3.0006860997742115
            ]
        },
        {
            "positions": [
                -0.15684719208672096,
                -1.8105970292230946,
                2.5077095078435625,
                -0.7900182495202351,
                1.1366074560067478,
                -2.9540182869921687
            ]
        },
        {
            "positions": [
                -0.09650848660533784,
                -1.9562448966089803,
                2.536087768947806,
                -0.7104042559365601,
                1.1044689428000538,
                -2.907350474210126
            ]
        },
        {
            "positions": [
                -0.03616978112395469,
                -2.101892763994866,
                2.564466030052049,
                -0.6307902623528849,
                1.0723304295933596,
                -2.860682661428083
            ]
        },
        {
            "positions": [
                0.024168924357428345,
                -2.2475406313807516,
                2.592844291156293,
                -0.5511762687692099,
                1.0401919163866655,
                -2.8140148486460403
            ]
        },
        {
            "positions": [
                0.0845076298388115,
                -2.393188498766637,
                2.621222552260536,
                -0.47156227518553484,
                1.0080534031799715,
                -2.7673470358639976
            ]
        },
        {
            "positions": [
                0.187973169954589,
                -2.3121490601122394,
                2.5832083213870587,
                -0.47000920016855957,
                0.9576773471849206,
                -2.8304326877742803
            ]
        },
        {
            "positions": [
                0.2914387100703665,
                -2.231109621457841,
                2.545194090513581,
                -0.4684561251515843,
                0.9073012911898697,
                -2.8935183396845634
            ]
        },
        {
            "positions": [
                0.394904250186144,
                -2.150070182803443,
                2.507179859640104,
                -0.46690305013460903,
                0.8569252351948188,
                -2.9566039915948465
            ]
        },
        {
            "positions": [
                0.49836979030192147,
                -2.069030744149045,
                2.4691656287666266,
                -0.46534997511763376,
                0.8065491791997679,
                -3.0196896435051293
            ]
        },
        {
            "positions": [
                0.6018353304176991,
                -1.9879913054946472,
                2.431151397893149,
                -0.4637969001006585,
                0.756173123204717,
                -3.082775295415412
            ]
        },
        {
            "positions": [
                0.7053008705334765,
                -1.9069518668402492,
                2.3931371670196717,
                -0.4622438250836832,
                0.7057970672096661,
                -3.145860947325695
            ]
        }
    ]
}