{
    "goal": {
        "global_pose": {
            "orientation": {
                "w": 0.7047431468963623,
                "x": -0.7094548344612122,
                "y": 0.0024358443915843964,
                "z": -0.0022348060738295317
            },
            "position": {
                "x": 0.6094750761985779,
                "y": 0.3671506643295288,
                "z": 0.19426114857196808
            }
        },
        "name": "move_to_magneteinheit_A"
    },
    "id": "ProjEST_move_to_magneteinheit_A_11",
    "joint_names": [
        "shoulder_pan_joint",
        "shoulder_lift_joint",
        "elbow_joint",
        "wrist_1_joint",
        "wrist_2_joint",
        "wrist_3_joint"
    ],
    "metrics": {
        "cart_traj_len": 1.0525934483201083,
        "distance_elbow_joint": 0.4127291929056405,
        "distance_shoulder_lift_joint": 0.3502099031567527,
        "distance_shoulder_pan_joint": 1.2409398066788453,
        "distance_wrist_1_joint": 2.3528932756762613,
        "distance_wrist_2_joint": 1.694527789470899,
        "distance_wrist_3_joint": 1.1063722760044397,
        "smoothness": 0.0,
        "time": 0.164606167,
        "traj_len": 2.6753826350436003,
        "weighted_distance": 3.663036699386027
    },
    "planner": "ProjEST",
    "start": {
        "state": {
            "elbow_joint": 1.5739458966750683,
            "shoulder_lift_joint": -1.4977259741207325,
            "shoulder_pan_joint": -1.1188672016454206,
            "wrist_1_joint": 1.494575848278785,
            "wrist_2_joint": -1.5706037134824402,
            "wrist_3_joint": -2.0226957942261072
        }
    },
    "waypoints": [
        {
            "positions": [
                -1.1188672016454206,
                -1.4977259741207325,
                1.5739458966750683,
                1.494575848278785,
                -1.5706037134824402,
                -2.0226957942261072
            ]
        },
        {
            "positions": [
                -1.053554580241271,
                -1.4792938739545876,
                1.5956684857753651,
                1.3707393600852975,
                -1.4814180403523929,
                -2.0809259140158147
            ]
        },
        {
            "positions": [
                -0.9882419588371212,
                -1.4608617737884428,
                1.6173910748756621,
                1.24690287189181,
                -1.3922323672223456,
                -2.1391560338055218
            ]
        },
        {
            "positions": [
                -0.9229293374329715,
                -1.442429673622298,
                1.639113663975959,
                1.1230663836983226,
                -1.3030466940922982,
                -2.1973861535952293
            ]
        },
        {
            "positions": [
                -0.8576167160288217,
                -1.423997573456153,
                1.6608362530762557,
                0.9992298955048353,
                -1.213861020962251,
                -2.2556162733849368
            ]
        },
        {
            "positions": [
                -0.7923040946246719,
                -1.405565473290008,
                1.6825588421765527,
                0.8753934073113478,
                -1.1246753478322036,
                -2.313846393174644
            ]
        },
        {
            "positions": [
                -0.7269914732205222,
                -1.3871333731238633,
                1.7042814312768495,
                0.7515569191178604,
                -1.0354896747021565,
                -2.3720765129643513
            ]
        },
        {
            "positions": [
                -0.6616788518163724,
                -1.3687012729577184,
                1.7260040203771463,
                0.627720430924373,
                -0.946304001572109,
                -2.430306632754059
            ]
        },
        {
            "positions": [
                -0.5963662304122227,
                -1.3502691727915734,
                1.7477266094774433,
                0.5038839427308855,
                -0.8571183284420617,
                -2.488536752543766
            ]
        },
        {
            "positions": [
                -0.5310536090080729,
                -1.3318370726254285,
                1.76944919857774,
                0.3800474545373982,
                -0.7679326553120144,
                -2.5467668723334733
            ]
        },
        {
            "positions": [
                -0.46574098760392313,
                -1.3134049724592838,
                1.791171787678037,
                0.2562109663439107,
                -0.678746982181967,
                -2.604996992123181
            ]
        },
        {
            "positions": [
                -0.4004283661997733,
                -1.2949728722931388,
                1.8128943767783339,
                0.13237447815042303,
                -0.5895613090519197,
                -2.663227111912888
            ]
        },
        {
            "positions": [
                -0.33511574479562367,
                -1.276540772126994,
                1.8346169658786307,
                0.008537989956935776,
                -0.5003756359218725,
                -2.7214572317025953
            ]
        },
        {
            "positions": [
                -0.26980312339147383,
                -1.258108671960849,
                1.8563395549789277,
                -0.1152984982365517,
                -0.4111899627918252,
                -2.779687351492303
            ]
        },
        {
            "positions": [
                -0.2044905019873242,
                -1.2396765717947043,
                1.8780621440792244,
                -0.23913498643003894,
                -0.32200428966177785,
                -2.83791747128201
            ]
        },
        {
            "positions": [
                -0.13917788058317437,
                -1.2212444716285593,
                1.8997847331795215,
                -0.36297147462352664,
                -0.23281861653173053,
                -2.8961475910717174
            ]
        },
        {
            "positions": [
                -0.07386525917902476,
                -1.2028123714624144,
                1.9215073222798182,
                -0.4868079628170139,
                -0.1436329434016832,
                -2.954377710861425
            ]
        },
        {
            "positions": [
                -0.008552637774874805,
                -1.1843802712962694,
                1.943229911380115,
                -0.6106444510105014,
                -0.05444727027163587,
                -3.0126078306511324
            ]
        },
        {
            "positions": [
                0.056759983629274924,
                -1.1659481711301247,
                1.964952500480412,
                -0.7344809392039886,
                0.034738402858411455,
                -3.0708379504408394
            ]
        },
        {
            "positions": [
                0.12207260503342456,
                -1.1475160709639798,
                1.9866750895807088,
                -0.8583174273974764,
                0.12392407598845888,
                -3.129068070230547
            ]
        }
    ]
}