{
    "goal": {
        "global_pose": {
            "orientation": {
                "w": -0.4816463035849501,
                "x": 0.5182115481033762,
                "y": 0.4908360881923453,
                "z": -0.5084816262002911
            },
            "position": {
                "x": -0.8240239810943604,
                "y": -0.300875300988555,
                "z": 0.16403168439865112
            }
        },
        "name": "move_to_storage_C"
    },
    "id": "ProjEST_move_to_storage_C_138",
    "joint_names": [
        "shoulder_pan_joint",
        "shoulder_lift_joint",
        "elbow_joint",
        "wrist_1_joint",
        "wrist_2_joint",
        "wrist_3_joint"
    ],
    "metrics": {
        "cart_traj_len": 0.5760887546808438,
        "distance_elbow_joint": 0.25868581301602056,
        "distance_shoulder_lift_joint": 0.18813642509828565,
        "distance_shoulder_pan_joint": 0.4943196408479342,
        "distance_wrist_1_joint": 0.0851723413826514,
        "distance_wrist_2_joint": 1.069108408494282,
        "distance_wrist_3_joint": 0.06323113475515862,
        "smoothness": 2.5376526478085547e-16,
        "time": 0.016751903,
        "traj_len": 1.4692357753588539,
        "weighted_distance": 1.8545610755598163
    },
    "planner": "ProjEST",
    "start": {
        "state": {
            "elbow_joint": 2.010868315001653,
            "shoulder_lift_joint": -1.1634956873357014,
            "shoulder_pan_joint": -2.4736205022346103,
            "wrist_1_joint": -0.8367026794713948,
            "wrist_2_joint": 0.6746043897044093,
            "wrist_3_joint": 3.1335220948105738
        }
    },
    "waypoints": [
        {
            "positions": [
                -2.4736205022346103,
                -1.1634956873357014,
                2.010868315001653,
                -0.8367026794713948,
                0.6746043897044093,
                3.1335220948105738
            ]
        },
        {
            "positions": [
                -2.556007109042599,
                -1.1321396164859872,
                1.9677540128323163,
                -0.8225072892409528,
                0.8527891244534562,
                3.144060617269767
            ]
        },
        {
            "positions": [
                -2.6383937158505884,
                -1.100783545636273,
                1.9246397106629796,
                -0.8083118990105109,
                1.0309738592025033,
                3.15459913972896
            ]
        },
        {
            "positions": [
                -2.7207803226585776,
                -1.0694274747865586,
                1.8815254084936428,
                -0.794116508780069,
                1.2091585939515501,
                3.165137662188153
            ]
        },
        {
            "positions": [
                -2.8031669294665664,
                -1.0380714039368444,
                1.838411106324306,
                -0.7799211185496272,
                1.3873433287005972,
                3.175676184647346
            ]
        },
        {
            "positions": [
                -2.8855535362745552,
                -1.0067153330871301,
                1.7952968041549693,
                -0.7657257283191853,
                1.5655280634496442,
                3.186214707106539
            ]
        },
        {
            "positions": [
                -2.9679401430825445,
                -0.9753592622374158,
                1.7521825019856325,
                -0.7515303380887434,
                1.743712798198691,
                3.1967532295657324
            ]
        }
    ]
}