{
    "goal": {
        "global_pose": {
            "orientation": {
                "w": -0.4816463035849501,
                "x": 0.5182115481033762,
                "y": 0.4908360881923453,
                "z": -0.5084816262002911
            },
            "position": {
                "x": -0.8240239810943604,
                "y": 0.19912469901144506,
                "z": 0.16403168439865112
            }
        },
        "name": "move_to_storage_D"
    },
    "id": "ProjEST_move_to_storage_D_35",
    "joint_names": [
        "shoulder_pan_joint",
        "shoulder_lift_joint",
        "elbow_joint",
        "wrist_1_joint",
        "wrist_2_joint",
        "wrist_3_joint"
    ],
    "metrics": {
        "cart_traj_len": 4.0838477843461725,
        "distance_elbow_joint": 4.210125973773484,
        "distance_shoulder_lift_joint": 1.2642453538251568,
        "distance_shoulder_pan_joint": 2.812088246138474,
        "distance_wrist_1_joint": 2.664927353990076,
        "distance_wrist_2_joint": 1.8131944981336814,
        "distance_wrist_3_joint": 3.127337006139588,
        "smoothness": 0.19832517384010762,
        "time": 0.124392168,
        "traj_len": 3.9864669109376103,
        "weighted_distance": 5.159914175294333
    },
    "planner": "ProjEST",
    "start": {
        "state": {
            "elbow_joint": -2.384821997420982,
            "shoulder_lift_joint": -2.2788054674887404,
            "shoulder_pan_joint": -0.18546946417610016,
            "wrist_1_joint": 1.4845937964226739,
            "wrist_2_joint": 0.1789877726866377,
            "wrist_3_joint": 0.03710572555276528
        }
    },
    "waypoints": [
        {
            "positions": [
                -0.18546946417610016,
                -2.2788054674887404,
                -2.384821997420982,
                1.4845937964226739,
                0.1789877726866377,
                0.03710572555276528
            ]
        },
        {
            "positions": [
                -0.11191034660618342,
                -2.2669293943201856,
                -2.249688808243867,
                1.4044969911395913,
                0.2291722739922868,
                0.006584563845676954
            ]
        },
        {
            "positions": [
                -0.03835122903626667,
                -2.2550533211516304,
                -2.114555619066752,
                1.3244001858565086,
                0.2793567752979359,
                -0.02393659786141137
            ]
        },
        {
            "positions": [
                0.03520788853365006,
                -2.2431772479830756,
                -1.9794224298896368,
                1.244303380573426,
                0.32954127660358495,
                -0.05445775956849969
            ]
        },
        {
            "positions": [
                0.10876700610356682,
                -2.231301174814521,
                -1.8442892407125218,
                1.1642065752903434,
                0.379725777909234,
                -0.08497892127558801
            ]
        },
        {
            "positions": [
                0.18232612367348355,
                -2.2194251016459656,
                -1.7091560515354067,
                1.0841097700072608,
                0.4299102792148831,
                -0.11550008298267633
            ]
        },
        {
            "positions": [
                0.2558852412434003,
                -2.207549028477411,
                -1.5740228623582917,
                1.0040129647241782,
                0.4800947805205322,
                -0.14602124468976466
            ]
        },
        {
            "positions": [
                0.3294443588133171,
                -2.195672955308856,
                -1.4388896731811764,
                0.9239161594410956,
                0.5302792818261813,
                -0.176542406396853
            ]
        },
        {
            "positions": [
                0.4030034763832338,
                -2.183796882140301,
                -1.3037564840040614,
                0.8438193541580131,
                0.5804637831318303,
                -0.2070635681039413
            ]
        },
        {
            "positions": [
                0.47656259395315054,
                -2.171920808971746,
                -1.1686232948269464,
                0.7637225488749305,
                0.6306482844374794,
                -0.23758472981102965
            ]
        },
        {
            "positions": [
                0.5501217115230672,
                -2.1600447358031913,
                -1.0334901056498313,
                0.6836257435918479,
                0.6808327857431286,
                -0.268105891518118
            ]
        },
        {
            "positions": [
                0.6236808290929841,
                -2.148168662634636,
                -0.8983569164727163,
                0.6035289383087653,
                0.7310172870487777,
                -0.29862705322520633
            ]
        },
        {
            "positions": [
                0.6972399466629007,
                -2.1362925894660814,
                -0.7632237272956013,
                0.5234321330256827,
                0.7812017883544267,
                -0.3291482149322946
            ]
        },
        {
            "positions": [
                0.7707990642328175,
                -2.1244165162975266,
                -0.6280905381184863,
                0.4433353277426002,
                0.8313862896600758,
                -0.3596693766393829
            ]
        },
        {
            "positions": [
                0.8443581818027344,
                -2.1125404431289714,
                -0.492957348941371,
                0.3632385224595174,
                0.8815707909657249,
                -0.3901905383464713
            ]
        },
        {
            "positions": [
                0.9179172993726512,
                -2.1006643699604166,
                -0.35782415976425597,
                0.283141717176435,
                0.931755292271374,
                -0.4207117000535596
            ]
        },
        {
            "positions": [
                0.9914764169425678,
                -2.0887882967918614,
                -0.22269097058714094,
                0.2030449118933524,
                0.981939793577023,
                -0.4512328617606479
            ]
        },
        {
            "positions": [
                1.0650355345124844,
                -2.0769122236233066,
                -0.08755778141002635,
                0.12294810661026978,
                1.032124294882672,
                -0.4817540234677362
            ]
        },
        {
            "positions": [
                1.1385946520824013,
                -2.065036150454752,
                0.04757540776708913,
                0.042851301327187175,
                1.0823087961883213,
                -0.5122751851748246
            ]
        },
        {
            "positions": [
                1.2121537696523181,
                -2.0531600772861966,
                0.18270859694420416,
                -0.03724550395589543,
                1.1324932974939703,
                -0.5427963468819129
            ]
        },
        {
            "positions": [
                1.2857128872222348,
                -2.041284004117642,
                0.3178417861213192,
                -0.11734230923897804,
                1.1826777987996195,
                -0.5733175085890012
            ]
        },
        {
            "positions": [
                1.3592720047921514,
                -2.029407930949087,
                0.4529749752984342,
                -0.19743911452206064,
                1.2328623001052685,
                -0.6038386702960895
            ]
        },
        {
            "positions": [
                1.4328311223620684,
                -2.017531857780532,
                0.5881081644755493,
                -0.27753591980514325,
                1.2830468014109178,
                -0.6343598320031779
            ]
        },
        {
            "positions": [
                1.506390239931985,
                -2.005655784611977,
                0.7232413536526643,
                -0.3576327250882259,
                1.3332313027165668,
                -0.6648809937102662
            ]
        },
        {
            "positions": [
                1.5642047862817183,
                -1.9605739390136825,
                0.7949045477575708,
                -0.34241827566041716,
                1.2968645506262746,
                -0.8276426258539387
            ]
        },
        {
            "positions": [
                1.6220193326314516,
                -1.9154920934153878,
                0.8665677418624773,
                -0.3272038262326084,
                1.2604977985359824,
                -0.9904042579976111
            ]
        },
        {
            "positions": [
                1.6798338789811849,
                -1.8704102478170932,
                0.9382309359673838,
                -0.3119893768047997,
                1.2241310464456903,
                -1.1531658901412836
            ]
        },
        {
            "positions": [
                1.7376484253309181,
                -1.8253284022187983,
                1.0098941300722903,
                -0.29677492737699096,
                1.1877642943553979,
                -1.315927522284956
            ]
        },
        {
            "positions": [
                1.7954629716806516,
                -1.7802465566205037,
                1.0815573241771967,
                -0.2815604779491822,
                1.1513975422651057,
                -1.4786891544286287
            ]
        },
        {
            "positions": [
                1.8532775180303847,
                -1.735164711022209,
                1.1532205182821034,
                -0.26634602852137346,
                1.1150307901748135,
                -1.641450786572301
            ]
        },
        {
            "positions": [
                1.9110920643801181,
                -1.6900828654239144,
                1.2248837123870098,
                -0.25113157909356476,
                1.0786640380845214,
                -1.8042124187159734
            ]
        },
        {
            "positions": [
                1.9689066107298514,
                -1.6450010198256197,
                1.2965469064919164,
                -0.235917129665756,
                1.0422972859942292,
                -1.966974050859646
            ]
        },
        {
            "positions": [
                2.0267211570795847,
                -1.599919174227325,
                1.3682101005968228,
                -0.22070268023794726,
                1.005930533903937,
                -2.1297356830033185
            ]
        },
        {
            "positions": [
                2.084535703429318,
                -1.5548373286290302,
                1.4398732947017294,
                -0.2054882308101385,
                0.9695637818136447,
                -2.292497315146991
            ]
        },
        {
            "positions": [
                2.142350249779051,
                -1.5097554830307356,
                1.5115364888066358,
                -0.19027378138232978,
                0.9331970297233525,
                -2.4552589472906634
            ]
        },
        {
            "positions": [
                2.2001647961287842,
                -1.464673637432441,
                1.5831996829115424,
                -0.17505933195452103,
                0.8968302776330603,
                -2.6180205794343356
            ]
        },
        {
            "positions": [
                2.2579793424785177,
                -1.4195917918341463,
                1.6548628770164489,
                -0.1598448825267123,
                0.8604635255427682,
                -2.7807822115780083
            ]
        },
        {
            "positions": [
                2.3194192490591603,
                -1.3520865121390524,
                1.6832697269057915,
                -0.26399704751298925,
                0.8914940573644271,
                -2.832357056412811
            ]
        },
        {
            "positions": [
                2.3808591556398033,
                -1.2845812324439587,
                1.711676576795134,
                -0.36814921249926613,
                0.922524589186086,
                -2.883931901247613
            ]
        },
        {
            "positions": [
                2.442299062220446,
                -1.217075952748865,
                1.740083426684477,
                -0.4723013774855431,
                0.953555121007745,
                -2.9355067460824156
            ]
        },
        {
            "positions": [
                2.5037389688010885,
                -1.1495706730537711,
                1.7684902765738195,
                -0.57645354247182,
                0.9845856528294039,
                -2.987081590917218
            ]
        },
        {
            "positions": [
                2.5651788753817315,
                -1.0820653933586772,
                1.7968971264631621,
                -0.6806057074580969,
                1.015616184651063,
                -3.0386564357520203
            ]
        },
        {
            "positions": [
                2.626618781962374,
                -1.0145601136635836,
                1.8253039763525047,
                -0.7847578724443739,
                1.0466467164727218,
                -3.090231280586823
            ]
        }
    ]
}