{
    "goal": {
        "global_pose": {
            "orientation": {
                "w": 0.7031023480610252,
                "x": -0.7110244013736278,
                "y": 0.0077485991402295624,
                "z": 0.005598929693374583
            },
            "position": {
                "x": -0.8841497679147869,
                "y": 0.44412534475326537,
                "z": 0.3711530566215515
            }
        },
        "name": "move_to_auspresseinheit_D"
    },
    "id": "ProjEST_move_to_auspresseinheit_D_29",
    "joint_names": [
        "shoulder_pan_joint",
        "shoulder_lift_joint",
        "elbow_joint",
        "wrist_1_joint",
        "wrist_2_joint",
        "wrist_3_joint"
    ],
    "metrics": {
        "cart_traj_len": 0.916439002978109,
        "distance_elbow_joint": 0.48495407710559846,
        "distance_shoulder_lift_joint": 0.4021710167076077,
        "distance_shoulder_pan_joint": 0.24389221513134718,
        "distance_wrist_1_joint": 3.3235024225722674,
        "distance_wrist_2_joint": 3.6568620866909014,
        "distance_wrist_3_joint": 4.241703369941997,
        "smoothness": 0.17775252932904823,
        "time": 0.24714774499999997,
        "traj_len": 3.5146956039107735,
        "weighted_distance": 5.27416879112689
    },
    "planner": "ProjEST",
    "start": {
        "state": {
            "elbow_joint": 1.8268400409724999,
            "shoulder_lift_joint": -1.0144045787793008,
            "shoulder_pan_joint": 2.6280239544362485,
            "wrist_1_joint": -0.790705565816056,
            "wrist_2_joint": 1.0573557467365533,
            "wrist_3_joint": 3.1851377467193758
        }
    },
    "waypoints": [
        {
            "positions": [
                2.6280239544362485,
                -1.0144045787793008,
                1.8268400409724999,
                -0.790705565816056,
                1.0573557467365533,
                3.1851377467193758
            ]
        },
        {
            "positions": [
                2.6221177407356837,
                -1.0167623854699652,
                1.8177575738555987,
                -0.7045031562972207,
                0.9362615803295762,
                3.0243696830062614
            ]
        },
        {
            "positions": [
                2.6162115270351194,
                -1.0191201921606299,
                1.8086751067386975,
                -0.6183007467783854,
                0.8151674139225991,
                2.8636016192931475
            ]
        },
        {
            "positions": [
                2.6103053133345546,
                -1.0214779988512943,
                1.7995926396217965,
                -0.53209833725955,
                0.6940732475156219,
                2.702833555580033
            ]
        },
        {
            "positions": [
                2.6043990996339903,
                -1.0238358055419587,
                1.7905101725048953,
                -0.44589592774071474,
                0.5729790811086448,
                2.5420654918669188
            ]
        },
        {
            "positions": [
                2.5984928859334255,
                -1.0261936122326232,
                1.781427705387994,
                -0.3596935182218794,
                0.4518849147016678,
                2.3812974281538044
            ]
        },
        {
            "positions": [
                2.592586672232861,
                -1.0285514189232878,
                1.772345238271093,
                -0.27349110870304405,
                0.3307907482946907,
                2.22052936444069
            ]
        },
        {
            "positions": [
                2.5866804585322964,
                -1.0309092256139523,
                1.7632627711541917,
                -0.18728869918420876,
                0.20969658188771345,
                2.059761300727576
            ]
        },
        {
            "positions": [
                2.5807742448317317,
                -1.0332670323046167,
                1.7541803040372905,
                -0.10108628966537347,
                0.08860241548073644,
                1.8989932370144618
            ]
        },
        {
            "positions": [
                2.5748680311311674,
                -1.0356248389952811,
                1.7450978369203896,
                -0.014883880146538075,
                -0.03249175092624079,
                1.7382251733013474
            ]
        },
        {
            "positions": [
                2.5689618174306026,
                -1.0379826456859458,
                1.7360153698034884,
                0.07131852937229721,
                -0.1535859173332177,
                1.5774571095882333
            ]
        },
        {
            "positions": [
                2.5630556037300383,
                -1.0403404523766102,
                1.7269329026865872,
                0.1575209388911326,
                -0.27468008374019504,
                1.416689045875119
            ]
        },
        {
            "positions": [
                2.5571493900294735,
                -1.0426982590672746,
                1.717850435569686,
                0.2437233484099679,
                -0.39577425014717194,
                1.2559209821620045
            ]
        },
        {
            "positions": [
                2.551243176328909,
                -1.045056065757939,
                1.7087679684527848,
                0.3299257579288031,
                -0.5168684165541491,
                1.0951529184488904
            ]
        },
        {
            "positions": [
                2.5453369626283444,
                -1.0474138724486037,
                1.6996855013358836,
                0.4161281674476385,
                -0.6379625829611264,
                0.934384854735776
            ]
        },
        {
            "positions": [
                2.53943074892778,
                -1.0497716791392682,
                1.6906030342189826,
                0.5023305769664739,
                -0.7590567493681033,
                0.7736167910226617
            ]
        },
        {
            "positions": [
                2.5335245352272153,
                -1.0521294858299326,
                1.6815205671020814,
                0.588532986485309,
                -0.8801509157750804,
                0.6128487273095478
            ]
        },
        {
            "positions": [
                2.5276183215266506,
                -1.054487292520597,
                1.6724380999851802,
                0.6747353960041444,
                -1.0012450821820575,
                0.4520806635964334
            ]
        },
        {
            "positions": [
                2.5217121078260862,
                -1.0568450992112617,
                1.663355632868279,
                0.7609378055229798,
                -1.1223392485890349,
                0.29131259988331903
            ]
        },
        {
            "positions": [
                2.5158058941255215,
                -1.0592029059019261,
                1.6542731657513778,
                0.847140215041815,
                -1.2434334149960118,
                0.13054453617020467
            ]
        },
        {
            "positions": [
                2.509899680424957,
                -1.0615607125925905,
                1.6451906986344769,
                0.9333426245606504,
                -1.3645275814029887,
                -0.030223527542909245
            ]
        },
        {
            "positions": [
                2.5039934667243924,
                -1.063918519283255,
                1.6361082315175757,
                1.0195450340794856,
                -1.485621747809966,
                -0.1909915912560236
            ]
        },
        {
            "positions": [
                2.498087253023828,
                -1.0662763259739196,
                1.6270257644006745,
                1.1057474435983212,
                -1.6067159142169434,
                -0.35175965496913797
            ]
        },
        {
            "positions": [
                2.4921810393232633,
                -1.068634132664584,
                1.6179432972837733,
                1.1919498531171564,
                -1.7278100806239203,
                -0.5125277186822521
            ]
        },
        {
            "positions": [
                2.5041865171030815,
                -1.0299739701287702,
                1.5872702602374542,
                1.3409328535214957,
                -1.8246652205495233,
                -0.452079062622211
            ]
        },
        {
            "positions": [
                2.5161919948828992,
                -0.9913138075929564,
                1.5565972231911351,
                1.4899158539258353,
                -1.9215203604751263,
                -0.39163040656216985
            ]
        },
        {
            "positions": [
                2.5281974726627174,
                -0.9526536450571426,
                1.525924186144816,
                1.6388988543301746,
                -2.0183755004007295,
                -0.3311817505021287
            ]
        },
        {
            "positions": [
                2.540202950442535,
                -0.9139934825213287,
                1.495251149098497,
                1.7878818547345139,
                -2.1152306403263323,
                -0.2707330944420876
            ]
        },
        {
            "positions": [
                2.5522084282223534,
                -0.8753333199855149,
                1.4645781120521777,
                1.9368648551388534,
                -2.2120857802519356,
                -0.2102844383820464
            ]
        },
        {
            "positions": [
                2.564213906002171,
                -0.8366731574497012,
                1.4339050750058586,
                2.085847855543193,
                -2.3089409201775384,
                -0.14983578232200528
            ]
        },
        {
            "positions": [
                2.5762193837819893,
                -0.7980129949138872,
                1.4032320379595395,
                2.234830855947532,
                -2.4057960601031416,
                -0.0893871262619641
            ]
        },
        {
            "positions": [
                2.588224861561807,
                -0.7593528323780735,
                1.3725590009132205,
                2.3838138563518716,
                -2.5026512000287444,
                -0.028938470201923028
            ]
        },
        {
            "positions": [
                2.6002303393416253,
                -0.7206926698422597,
                1.3418859638669014,
                2.532796856756211,
                -2.5995063399543477,
                0.03151018585811817
            ]
        }
    ]
}