{
    "goal": {
        "global_pose": {
            "orientation": {
                "w": 0.005598929693374612,
                "x": 0.007748599140229565,
                "y": 0.7110244013736278,
                "z": -0.7031023480610252
            },
            "position": {
                "x": -0.8858502320852131,
                "y": -0.7141253447532654,
                "z": 0.3711530566215515
            }
        },
        "name": "move_to_auspresseinheit_C"
    },
    "id": "ProjEST_move_to_auspresseinheit_C_55",
    "joint_names": [
        "shoulder_pan_joint",
        "shoulder_lift_joint",
        "elbow_joint",
        "wrist_1_joint",
        "wrist_2_joint",
        "wrist_3_joint"
    ],
    "metrics": {
        "cart_traj_len": 0.4933576021298354,
        "distance_elbow_joint": 1.007554068070169,
        "distance_shoulder_lift_joint": 0.32834615509233933,
        "distance_shoulder_pan_joint": 0.2558891722060723,
        "distance_wrist_1_joint": 0.6933453022947502,
        "distance_wrist_2_joint": 1.3161773808723307,
        "distance_wrist_3_joint": 0.07265790763313174,
        "smoothness": 3.2297397335745243e-16,
        "time": 0.014117172,
        "traj_len": 1.916760283960619,
        "weighted_distance": 2.414292543293405
    },
    "planner": "ProjEST",
    "start": {
        "state": {
            "elbow_joint": 1.752795957773711,
            "shoulder_lift_joint": -0.9740617694225064,
            "shoulder_pan_joint": -2.967991417825858,
            "wrist_1_joint": -0.7595177689806859,
            "wrist_2_joint": 1.7443932448377395,
            "wrist_3_joint": 3.199131542505932
        }
    },
    "waypoints": [
        {
            "positions": [
                -2.967991417825858,
                -0.9740617694225064,
                1.752795957773711,
                -0.7595177689806859,
                1.7443932448377395,
                3.199131542505932
            ]
        },
        {
            "positions": [
                -2.9424025006052505,
                -0.9412271539132725,
                1.6520405509666942,
                -0.6901832387512109,
                1.6127755067505065,
                3.1918657517426188
            ]
        },
        {
            "positions": [
                -2.9168135833846436,
                -0.9083925384040386,
                1.5512851441596773,
                -0.6208487085217358,
                1.4811577686632733,
                3.184599960979306
            ]
        },
        {
            "positions": [
                -2.891224666164036,
                -0.8755579228948046,
                1.4505297373526604,
                -0.5515141782922608,
                1.3495400305760403,
                3.1773341702159925
            ]
        },
        {
            "positions": [
                -2.865635748943429,
                -0.8427233073855707,
                1.3497743305456436,
                -0.4821796480627858,
                1.2179222924888071,
                3.1700683794526796
            ]
        },
        {
            "positions": [
                -2.840046831722822,
                -0.8098886918763368,
                1.2490189237386267,
                -0.4128451178333108,
                1.0863045544015741,
                3.1628025886893663
            ]
        },
        {
            "positions": [
                -2.8144579145022144,
                -0.7770540763671029,
                1.1482635169316098,
                -0.3435105876038358,
                0.954686816314341,
                3.155536797926053
            ]
        },
        {
            "positions": [
                -2.7888689972816074,
                -0.7442194608578689,
                1.0475081101245929,
                -0.2741760573743608,
                0.8230690782271081,
                3.14827100716274
            ]
        },
        {
            "positions": [
                -2.763280080061,
                -0.7113848453486349,
                0.946752703317576,
                -0.20484152714488568,
                0.691451340139875,
                3.1410052163994266
            ]
        },
        {
            "positions": [
                -2.737691162840393,
                -0.678550229839401,
                0.8459972965105591,
                -0.13550699691541068,
                0.5598336020526418,
                3.1337394256361137
            ]
        },
        {
            "positions": [
                -2.7121022456197856,
                -0.6457156143301671,
                0.7452418897035422,
                -0.06617246668593571,
                0.42821586396540867,
                3.1264736348728004
            ]
        }
    ]
}