{
    "goal": {
        "global_pose": {
            "orientation": {
                "w": 0.7047431493862688,
                "x": -0.7094548369677653,
                "y": 0.0024358444001904,
                "z": -0.0022348060817251984
            },
            "position": {
                "x": -0.39052492380142206,
                "y": 0.3671506643295288,
                "z": 0.19426114857196808
            }
        },
        "name": "move_to_magneteinheit_D"
    },
    "id": "ProjEST_move_to_magneteinheit_D_101",
    "joint_names": [
        "shoulder_pan_joint",
        "shoulder_lift_joint",
        "elbow_joint",
        "wrist_1_joint",
        "wrist_2_joint",
        "wrist_3_joint"
    ],
    "metrics": {
        "cart_traj_len": 4.030966351668677,
        "distance_elbow_joint": 3.260481576179115,
        "distance_shoulder_lift_joint": 1.6847020323820714,
        "distance_shoulder_pan_joint": 5.310980702725368,
        "distance_wrist_1_joint": 4.4391925605206515,
        "distance_wrist_2_joint": 2.481399194059458,
        "distance_wrist_3_joint": 3.152092168002308,
        "smoothness": 0.43933740269389543,
        "time": 0.204368446,
        "traj_len": 4.508752403256245,
        "weighted_distance": 5.792549035135887
    },
    "planner": "ProjEST",
    "start": {
        "state": {
            "elbow_joint": 0.7495348899011973,
            "shoulder_lift_joint": -0.6476975780737697,
            "shoulder_pan_joint": -2.711696901376276,
            "wrist_1_joint": -0.07506478080974305,
            "wrist_2_joint": 0.4329665971545858,
            "wrist_3_joint": 3.1361499051832524
        }
    },
    "waypoints": [
        {
            "positions": [
                -2.711696901376276,
                -0.6476975780737697,
                0.7495348899011973,
                -0.07506478080974305,
                0.4329665971545858,
                3.1361499051832524
            ]
        },
        {
            "positions": [
                -2.7179267785177434,
                -0.6392144449214351,
                0.7139533552222005,
                0.05464670442899558,
                0.4866514655060766,
                2.99771554069282
            ]
        },
        {
            "positions": [
                -2.7241566556592103,
                -0.6307313117691006,
                0.6783718205432036,
                0.1843581896677342,
                0.5403363338575673,
                2.8592811762023884
            ]
        },
        {
            "positions": [
                -2.7303865328006776,
                -0.622248178616766,
                0.6427902858642067,
                0.31406967490647286,
                0.5940212022090581,
                2.720846811711956
            ]
        },
        {
            "positions": [
                -2.7181992570400393,
                -0.6294996790602827,
                0.6150176849695228,
                0.43515961403074654,
                0.6443638943669787,
                2.5878120653193606
            ]
        },
        {
            "positions": [
                -2.706011981279401,
                -0.6367511795037993,
                0.5872450840748388,
                0.5562495531550202,
                0.6947065865248993,
                2.4547773189267654
            ]
        },
        {
            "positions": [
                -2.6938247055187627,
                -0.6440026799473161,
                0.5594724831801549,
                0.6773394922792939,
                0.7450492786828199,
                2.32174257253417
            ]
        },
        {
            "positions": [
                -2.6816374297581245,
                -0.6512541803908328,
                0.5316998822854709,
                0.7984294314035676,
                0.7953919708407404,
                2.1887078261415747
            ]
        },
        {
            "positions": [
                -2.669450153997486,
                -0.6585056808343495,
                0.5039272813907869,
                0.9195193705278413,
                0.8457346629986611,
                2.055673079748979
            ]
        },
        {
            "positions": [
                -2.657262878236848,
                -0.6657571812778662,
                0.476154680496103,
                1.040609309652115,
                0.8960773551565817,
                1.9226383333563837
            ]
        },
        {
            "positions": [
                -2.6017076264167045,
                -0.7312530004193438,
                0.43017942794053393,
                1.1002405123704637,
                0.933311625070068,
                1.8056560608887147
            ]
        },
        {
            "positions": [
                -2.546152374596561,
                -0.7967488195608213,
                0.3842041753849649,
                1.1598717150888123,
                0.9705458949835545,
                1.6886737884210459
            ]
        },
        {
            "positions": [
                -2.4905971227764176,
                -0.862244638702299,
                0.33822892282939576,
                1.219502917807161,
                1.0077801648970408,
                1.5716915159533769
            ]
        },
        {
            "positions": [
                -2.4350418709562742,
                -0.9277404578437765,
                0.2922536702738267,
                1.2791341205255096,
                1.0450144348105272,
                1.4547092434857078
            ]
        },
        {
            "positions": [
                -2.379486619136131,
                -0.9932362769852541,
                0.24627841771825765,
                1.3387653232438583,
                1.0822487047240137,
                1.337726971018039
            ]
        },
        {
            "positions": [
                -2.3239313673159874,
                -1.0587320961267317,
                0.2003031651626886,
                1.398396525962207,
                1.1194829746375,
                1.2207446985503703
            ]
        },
        {
            "positions": [
                -2.268376115495844,
                -1.124227915268209,
                0.15432791260711953,
                1.4580277286805556,
                1.1567172445509863,
                1.1037624260827013
            ]
        },
        {
            "positions": [
                -2.2128208636757005,
                -1.1897237344096867,
                0.10835266005155042,
                1.5176589313989044,
                1.1939515144644728,
                0.9867801536150322
            ]
        },
        {
            "positions": [
                -2.157265611855557,
                -1.2552195535511643,
                0.06237740749598136,
                1.577290134117253,
                1.231185784377959,
                0.8697978811473632
            ]
        },
        {
            "positions": [
                -2.1017103600354137,
                -1.320715372692642,
                0.016402154940412278,
                1.6369213368356017,
                1.2684200542914454,
                0.7528156086796945
            ]
        },
        {
            "positions": [
                -1.96464552777117,
                -1.3283552501030382,
                -0.08609207420544765,
                1.691415918214984,
                1.2115256296615622,
                0.7299068031810064
            ]
        },
        {
            "positions": [
                -1.8275806955069265,
                -1.3359951275134345,
                -0.18858630335130758,
                1.7459104995943664,
                1.1546312050316787,
                0.7069979976823182
            ]
        },
        {
            "positions": [
                -1.690515863242683,
                -1.343635004923831,
                -0.2910805324971675,
                1.8004050809737486,
                1.0977367804017955,
                0.6840891921836301
            ]
        },
        {
            "positions": [
                -1.5534510309784395,
                -1.3512748823342273,
                -0.3935747616430274,
                1.854899662353131,
                1.040842355771912,
                0.6611803866849418
            ]
        },
        {
            "positions": [
                -1.416386198714196,
                -1.3589147597446236,
                -0.49606899078888733,
                1.9093942437325133,
                0.9839479311420287,
                0.6382715811862537
            ]
        },
        {
            "positions": [
                -1.2793213664499525,
                -1.36655463715502,
                -0.5985632199347473,
                1.9638888251118956,
                0.9270535065121454,
                0.6153627756875655
            ]
        },
        {
            "positions": [
                -1.1422565341857087,
                -1.3741945145654162,
                -0.7010574490806072,
                2.018383406491278,
                0.870159081882262,
                0.5924539701888774
            ]
        },
        {
            "positions": [
                -1.0051917019214653,
                -1.3818343919758127,
                -0.8035516782264671,
                2.0728779878706605,
                0.8132646572523787,
                0.5695451646901892
            ]
        },
        {
            "positions": [
                -0.8681268696572217,
                -1.389474269386209,
                -0.906045907372327,
                2.1273725692500425,
                0.7563702326224953,
                0.546636359191501
            ]
        },
        {
            "positions": [
                -0.7310620373929781,
                -1.3971141467966053,
                -1.008540136518187,
                2.181867150629425,
                0.6994758079926119,
                0.5237275536928128
            ]
        },
        {
            "positions": [
                -0.5939972051287348,
                -1.4047540242070016,
                -1.111034365664047,
                2.2363617320088074,
                0.6425813833627286,
                0.5008187481941246
            ]
        },
        {
            "positions": [
                -0.4569323728644912,
                -1.4123939016173979,
                -1.2135285948099068,
                2.29085631338819,
                0.5856869587328453,
                0.47790994269543646
            ]
        },
        {
            "positions": [
                -0.3198675406002478,
                -1.4200337790277944,
                -1.3160228239557668,
                2.345350894767572,
                0.528792534102962,
                0.4550011371967483
            ]
        },
        {
            "positions": [
                -0.18280270833600398,
                -1.4276736564381907,
                -1.4185170531016267,
                2.3998454761469543,
                0.47189810947307853,
                0.4320923316980601
            ]
        },
        {
            "positions": [
                -0.045737876071760386,
                -1.435313533848587,
                -1.5210112822474866,
                2.4543400575263368,
                0.4150036848431953,
                0.4091835261993719
            ]
        },
        {
            "positions": [
                0.09132695619248299,
                -1.4429534112589832,
                -1.6235055113933465,
                2.508834638905719,
                0.3581092602133119,
                0.3862747207006838
            ]
        },
        {
            "positions": [
                0.2283917884567268,
                -1.4505932886693798,
                -1.7259997405392065,
                2.5633292202851012,
                0.30121483558342843,
                0.36336591520199557
            ]
        },
        {
            "positions": [
                0.3654566207209702,
                -1.458233166079776,
                -1.8284939696850664,
                2.6178238016644837,
                0.24432041095354506,
                0.34045710970330745
            ]
        },
        {
            "positions": [
                0.5025214529852136,
                -1.4658730434901723,
                -1.9309881988309263,
                2.6723183830438657,
                0.1874259863236618,
                0.31754830420461927
            ]
        },
        {
            "positions": [
                0.6395862852494574,
                -1.4735129209005686,
                -2.0334824279767862,
                2.7268129644232486,
                0.13053156169377833,
                0.29463949870593104
            ]
        },
        {
            "positions": [
                0.7766511175137008,
                -1.481152798310965,
                -2.135976657122646,
                2.7813075458026306,
                0.07363713706389508,
                0.2717306932072429
            ]
        },
        {
            "positions": [
                0.9137159497779441,
                -1.4887926757213612,
                -2.238470886268506,
                2.8358021271820126,
                0.01674271243401182,
                0.24882188770855473
            ]
        },
        {
            "positions": [
                1.050780782042188,
                -1.4964325531317577,
                -2.3409651154143662,
                2.8902967085613955,
                -0.04015171219587166,
                0.2259130822098665
            ]
        },
        {
            "positions": [
                1.1878456143064313,
                -1.504072430542154,
                -2.443459344560226,
                2.9447912899407775,
                -0.09704613682575491,
                0.20300427671117838
            ]
        },
        {
            "positions": [
                1.0629311666524446,
                -1.5747477379057613,
                -2.437324131676799,
                2.815760699961675,
                -0.07154799629799127,
                0.18310004584479375
            ]
        },
        {
            "positions": [
                0.9380167189984578,
                -1.6454230452693686,
                -2.4311889187933726,
                2.686730109982572,
                -0.046049855770227625,
                0.16319581497840913
            ]
        },
        {
            "positions": [
                0.8131022713444711,
                -1.7160983526329756,
                -2.4250537059099457,
                2.557699520003469,
                -0.02055171524246399,
                0.1432915841120245
            ]
        },
        {
            "positions": [
                0.6881878236904843,
                -1.7867736599965829,
                -2.4189184930265193,
                2.428668930024366,
                0.004946425285299663,
                0.12338735324563986
            ]
        },
        {
            "positions": [
                0.5632733760364975,
                -1.8574489673601902,
                -2.4127832801430924,
                2.2996383400452634,
                0.03044456581306329,
                0.10348312237925524
            ]
        },
        {
            "positions": [
                0.4383589283825108,
                -1.9281242747237974,
                -2.406648067259666,
                2.1706077500661607,
                0.05594270634082693,
                0.08357889151287062
            ]
        },
        {
            "positions": [
                0.31344448072852404,
                -1.9987995820874047,
                -2.400512854376239,
                2.0415771600870576,
                0.0814408468685906,
                0.06367466064648597
            ]
        },
        {
            "positions": [
                0.1885300330745372,
                -2.069474889451012,
                -2.3943776414928126,
                1.9125465701079547,
                0.10693898739635424,
                0.043770429780101344
            ]
        },
        {
            "positions": [
                0.06361558542055046,
                -2.140150196814619,
                -2.3882424286093857,
                1.7835159801288516,
                0.13243712792411788,
                0.02386619891371672
            ]
        },
        {
            "positions": [
                -0.06129886223343628,
                -2.210825504178226,
                -2.3821072157259593,
                1.654485390149749,
                0.1579352684518815,
                0.003961968047332093
            ]
        },
        {
            "positions": [
                -0.18621330988742302,
                -2.2815008115418336,
                -2.3759720028425324,
                1.525454800170646,
                0.18343340897964516,
                -0.015942262819052536
            ]
        }
    ]
}