{
    "goal": {
        "global_pose": {
            "orientation": {
                "w": 0.005598929693374612,
                "x": 0.007748599140229565,
                "y": 0.7110244013736278,
                "z": -0.7031023480610252
            },
            "position": {
                "x": -0.8858502320852131,
                "y": -0.7141253447532654,
                "z": 0.3711530566215515
            }
        },
        "name": "move_to_auspresseinheit_C"
    },
    "id": "ProjEST_move_to_auspresseinheit_C_40",
    "joint_names": [
        "shoulder_pan_joint",
        "shoulder_lift_joint",
        "elbow_joint",
        "wrist_1_joint",
        "wrist_2_joint",
        "wrist_3_joint"
    ],
    "metrics": {
        "cart_traj_len": 0.4921231858949129,
        "distance_elbow_joint": 0.9897489715436223,
        "distance_shoulder_lift_joint": 0.31965939471542026,
        "distance_shoulder_pan_joint": 0.25548171232367967,
        "distance_wrist_1_joint": 0.6557473620350496,
        "distance_wrist_2_joint": 1.313191030227613,
        "distance_wrist_3_joint": 0.034956897193471725,
        "smoothness": 0.0,
        "time": 0.723831581,
        "traj_len": 1.8891229097226194,
        "weighted_distance": 2.368045091354568
    },
    "planner": "ProjEST",
    "start": {
        "state": {
            "elbow_joint": 1.752795957773711,
            "shoulder_lift_joint": -0.9740617694225064,
            "shoulder_pan_joint": -2.967991417825858,
            "wrist_1_joint": -0.7595177689806859,
            "wrist_2_joint": 1.7443932448377395,
            "wrist_3_joint": 3.199131542505932
        }
    },
    "waypoints": [
        {
            "positions": [
                -2.967991417825858,
                -0.9740617694225064,
                1.752795957773711,
                -0.7595177689806859,
                1.7443932448377395,
                3.199131542505932
            ]
        },
        {
            "positions": [
                -2.94244324659349,
                -0.9420958299509644,
                1.6538210606193489,
                -0.693943032777181,
                1.613074141814978,
                3.195635852786585
            ]
        },
        {
            "positions": [
                -2.916895075361122,
                -0.9101298904794224,
                1.5548461634649866,
                -0.628368296573676,
                1.481755038792217,
                3.1921401630672377
            ]
        },
        {
            "positions": [
                -2.891346904128754,
                -0.8781639510078804,
                1.4558712663106244,
                -0.562793560370171,
                1.3504359357694555,
                3.1886444733478907
            ]
        },
        {
            "positions": [
                -2.865798732896386,
                -0.8461980115363383,
                1.356896369156262,
                -0.4972188241666661,
                1.2191168327466944,
                3.1851487836285433
            ]
        },
        {
            "positions": [
                -2.840250561664018,
                -0.8142320720647963,
                1.2579214720018999,
                -0.4316440879631611,
                1.087797729723933,
                3.1816530939091963
            ]
        },
        {
            "positions": [
                -2.81470239043165,
                -0.7822661325932543,
                1.1589465748475378,
                -0.36606935175965616,
                0.9564786267011717,
                3.1781574041898493
            ]
        },
        {
            "positions": [
                -2.789154219199282,
                -0.7503001931217123,
                1.0599716776931756,
                -0.30049461555615126,
                0.8251595236784104,
                3.174661714470502
            ]
        },
        {
            "positions": [
                -2.7636060479669142,
                -0.7183342536501702,
                0.9609967805388132,
                -0.23491987935264624,
                0.693840420655649,
                3.171166024751155
            ]
        },
        {
            "positions": [
                -2.7380578767345463,
                -0.6863683141786282,
                0.8620218833844511,
                -0.1693451431491413,
                0.5625213176328876,
                3.1676703350318074
            ]
        },
        {
            "positions": [
                -2.7125097055021783,
                -0.6544023747070862,
                0.7630469862300888,
                -0.10377040694563633,
                0.4312022146101263,
                3.1641746453124604
            ]
        }
    ]
}