{
    "goal": {
        "global_pose": {
            "orientation": {
                "w": 0.7031023480610252,
                "x": -0.7110244013736278,
                "y": 0.0077485991402295624,
                "z": 0.005598929693374583
            },
            "position": {
                "x": -0.8841497679147869,
                "y": 0.44412534475326537,
                "z": 0.3711530566215515
            }
        },
        "name": "move_to_auspresseinheit_D"
    },
    "id": "ProjEST_move_to_auspresseinheit_D_13",
    "joint_names": [
        "shoulder_pan_joint",
        "shoulder_lift_joint",
        "elbow_joint",
        "wrist_1_joint",
        "wrist_2_joint",
        "wrist_3_joint"
    ],
    "metrics": {
        "cart_traj_len": 3.581446423664163,
        "distance_elbow_joint": 3.1841101454708696,
        "distance_shoulder_lift_joint": 1.3973699264574284,
        "distance_shoulder_pan_joint": 2.7974205887502106,
        "distance_wrist_1_joint": 1.9001413220847674,
        "distance_wrist_2_joint": 1.6543331550684126,
        "distance_wrist_3_joint": 3.096014016339087,
        "smoothness": 0.09063376610261217,
        "time": 0.12118483799999999,
        "traj_len": 3.7455826187885344,
        "weighted_distance": 4.876052877482167
    },
    "planner": "ProjEST",
    "start": {
        "state": {
            "elbow_joint": 1.8268400409724999,
            "shoulder_lift_joint": -1.0144045787793008,
            "shoulder_pan_joint": 2.6280239544362485,
            "wrist_1_joint": -0.790705565816056,
            "wrist_2_joint": 1.0573557467365533,
            "wrist_3_joint": 3.1851377467193758
        }
    },
    "waypoints": [
        {
            "positions": [
                2.6280239544362485,
                -1.0144045787793008,
                1.8268400409724999,
                -0.790705565816056,
                1.0573557467365533,
                3.1851377467193758
            ]
        },
        {
            "positions": [
                2.5994054971342764,
                -1.030405772400374,
                1.711877540384518,
                -0.8155463638834429,
                0.941846357368782,
                3.1206568431898876
            ]
        },
        {
            "positions": [
                2.5707870398323047,
                -1.046406966021447,
                1.5969150397965357,
                -0.8403871619508299,
                0.8263369680010106,
                3.056175939660399
            ]
        },
        {
            "positions": [
                2.5421685825303326,
                -1.0624081596425201,
                1.4819525392085537,
                -0.8652279600182168,
                0.7108275786332392,
                2.9916950361309107
            ]
        },
        {
            "positions": [
                2.5135501252283605,
                -1.0784093532635932,
                1.3669900386205716,
                -0.8900687580856037,
                0.5953181892654679,
                2.9272141326014225
            ]
        },
        {
            "positions": [
                2.4849316679263884,
                -1.0944105468846663,
                1.2520275380325896,
                -0.9149095561529906,
                0.47980879989769654,
                2.8627332290719343
            ]
        },
        {
            "positions": [
                2.4563132106244168,
                -1.1104117405057394,
                1.1370650374446076,
                -0.9397503542203776,
                0.3642994105299252,
                2.7982523255424456
            ]
        },
        {
            "positions": [
                2.4276947533224447,
                -1.1264129341268125,
                1.0221025368566257,
                -0.9645911522877646,
                0.24879002116215376,
                2.7337714220129574
            ]
        },
        {
            "positions": [
                2.3990762960204726,
                -1.1424141277478856,
                0.9071400362686435,
                -0.9894319503551515,
                0.13328063179438243,
                2.669290518483469
            ]
        },
        {
            "positions": [
                2.3704578387185005,
                -1.1584153213689588,
                0.7921775356806613,
                -1.0142727484225385,
                0.01777124242661099,
                2.6048096149539806
            ]
        },
        {
            "positions": [
                2.341839381416529,
                -1.1744165149900319,
                0.6772150350926796,
                -1.0391135464899253,
                -0.09773814694116023,
                2.5403287114244923
            ]
        },
        {
            "positions": [
                2.3132209241145567,
                -1.190417708611105,
                0.5622525345046974,
                -1.0639543445573123,
                -0.21324753630893173,
                2.475847807895004
            ]
        },
        {
            "positions": [
                2.2177356334057676,
                -1.2373929700197828,
                0.48842474069688707,
                -1.0013815544287157,
                -0.19848869507728062,
                2.384050727990592
            ]
        },
        {
            "positions": [
                2.1222503426969785,
                -1.2843682314284606,
                0.4145969468890768,
                -0.9388087643001192,
                -0.1837298538456295,
                2.29225364808618
            ]
        },
        {
            "positions": [
                2.026765051988189,
                -1.3313434928371386,
                0.34076915308126643,
                -0.8762359741715227,
                -0.1689710126139784,
                2.200456568181768
            ]
        },
        {
            "positions": [
                1.9312797612794,
                -1.3783187542458164,
                0.26694135927345614,
                -0.813663184042926,
                -0.1542121713823273,
                2.1086594882773557
            ]
        },
        {
            "positions": [
                1.8357944705706108,
                -1.4252940156544942,
                0.1931135654656458,
                -0.7510903939143295,
                -0.13945333015067618,
                2.0168624083729436
            ]
        },
        {
            "positions": [
                1.7403091798618215,
                -1.4722692770631722,
                0.1192857716578355,
                -0.688517603785733,
                -0.12469448891902506,
                1.9250653284685315
            ]
        },
        {
            "positions": [
                1.6448238891530325,
                -1.5192445384718498,
                0.045457977850025255,
                -0.6259448136571364,
                -0.10993564768737395,
                1.8332682485641194
            ]
        },
        {
            "positions": [
                1.5493385984442432,
                -1.5662197998805278,
                -0.028369815957785094,
                -0.5633720235285399,
                -0.09517680645572282,
                1.7414711686597073
            ]
        },
        {
            "positions": [
                1.453853307735454,
                -1.6131950612892056,
                -0.10219760976559533,
                -0.5007992333999434,
                -0.08041796522407171,
                1.6496740887552952
            ]
        },
        {
            "positions": [
                1.3583680170266648,
                -1.6601703226978834,
                -0.1760254035734058,
                -0.43822644327134674,
                -0.0656591239924206,
                1.557877008850883
            ]
        },
        {
            "positions": [
                1.2628827263178757,
                -1.7071455841065615,
                -0.24985319738121603,
                -0.37565365314275023,
                -0.050900282760769494,
                1.466079928946471
            ]
        },
        {
            "positions": [
                1.1673974356090864,
                -1.7541208455152393,
                -0.3236809911890264,
                -0.3130808630141536,
                -0.036141441529118384,
                1.3742828490420589
            ]
        },
        {
            "positions": [
                1.0719121449002973,
                -1.801096106923917,
                -0.3975087849968366,
                -0.2505080728855571,
                -0.021382600297467275,
                1.2824857691376468
            ]
        },
        {
            "positions": [
                0.9764268541915082,
                -1.8480713683325949,
                -0.47133657880464686,
                -0.1879352827569606,
                -0.006623759065816165,
                1.1906886892332347
            ]
        },
        {
            "positions": [
                0.8809415634827191,
                -1.8950466297412727,
                -0.5451643726124571,
                -0.12536249262836408,
                0.008135082165834917,
                1.0988916093288228
            ]
        },
        {
            "positions": [
                0.7854562727739296,
                -1.9420218911499507,
                -0.6189921664202676,
                -0.06278970249976745,
                0.022893923397486082,
                1.0070945294244105
            ]
        },
        {
            "positions": [
                0.6899709820651405,
                -1.9889971525586285,
                -0.6928199602280778,
                -0.00021691237117082984,
                0.03765276462913719,
                0.9152974495199984
            ]
        },
        {
            "positions": [
                0.5944856913563514,
                -2.0359724139673063,
                -0.766647754035888,
                0.06235587775742557,
                0.0524116058607883,
                0.8235003696155863
            ]
        },
        {
            "positions": [
                0.49900040064756235,
                -2.0829476753759844,
                -0.8404755478436983,
                0.1249286678860222,
                0.06717044709243936,
                0.7317032897111742
            ]
        },
        {
            "positions": [
                0.4035151099387728,
                -2.129922936784662,
                -0.914303341651509,
                0.18750145801461882,
                0.08192928832409052,
                0.639906209806762
            ]
        },
        {
            "positions": [
                0.30802981922998374,
                -2.17689819819334,
                -0.9881311354593192,
                0.25007424814321544,
                0.09668812955574163,
                0.54810912990235
            ]
        },
        {
            "positions": [
                0.21254452852119465,
                -2.223873459602018,
                -1.0619589292671294,
                0.31264703827181184,
                0.11144697078739274,
                0.45631204999793784
            ]
        },
        {
            "positions": [
                0.11705923781240557,
                -2.2708487210106956,
                -1.1357867230749397,
                0.37521982840040846,
                0.12620581201904385,
                0.36451497009352574
            ]
        },
        {
            "positions": [
                0.021573947103616042,
                -2.3178239824193736,
                -1.2096145168827501,
                0.4377926185290051,
                0.14096465325069496,
                0.27271789018911363
            ]
        },
        {
            "positions": [
                -0.07391134360517304,
                -2.3647992438280516,
                -1.2834423106905604,
                0.5003654086576015,
                0.15572349448234607,
                0.18092081028470153
            ]
        },
        {
            "positions": [
                -0.16939663431396207,
                -2.411774505236729,
                -1.3572701044983706,
                0.5629381987861982,
                0.17048233571399718,
                0.08912373038028965
            ]
        }
    ]
}