{
    "goal": {
        "global_pose": {
            "orientation": {
                "w": 0.7047431468963623,
                "x": -0.7094548344612122,
                "y": 0.0024358443915843964,
                "z": -0.0022348060738295317
            },
            "position": {
                "x": 0.6094750761985779,
                "y": 0.3671506643295288,
                "z": 0.19426114857196808
            }
        },
        "name": "move_to_magneteinheit_A"
    },
    "id": "ProjEST_move_to_magneteinheit_A_52",
    "joint_names": [
        "shoulder_pan_joint",
        "shoulder_lift_joint",
        "elbow_joint",
        "wrist_1_joint",
        "wrist_2_joint",
        "wrist_3_joint"
    ],
    "metrics": {
        "cart_traj_len": 1.0532812883598162,
        "distance_elbow_joint": 0.4132359539900592,
        "distance_shoulder_lift_joint": 0.3504182932264335,
        "distance_shoulder_pan_joint": 1.2421410225438276,
        "distance_wrist_1_joint": 2.3546988337359283,
        "distance_wrist_2_joint": 1.6920203957551407,
        "distance_wrist_3_joint": 1.0900446050296226,
        "smoothness": 0.0,
        "time": 0.152594818,
        "traj_len": 2.672556660630605,
        "weighted_distance": 3.6564145749396806
    },
    "planner": "ProjEST",
    "start": {
        "state": {
            "elbow_joint": 1.5739458966750683,
            "shoulder_lift_joint": -1.4977259741207325,
            "shoulder_pan_joint": -1.1188672016454206,
            "wrist_1_joint": 1.494575848278785,
            "wrist_2_joint": -1.5706037134824402,
            "wrist_3_joint": -2.0226957942261072
        }
    },
    "waypoints": [
        {
            "positions": [
                -1.1188672016454206,
                -1.4977259741207325,
                1.5739458966750683,
                1.494575848278785,
                -1.5706037134824402,
                -2.0226957942261072
            ]
        },
        {
            "positions": [
                -1.0534913583536403,
                -1.4792829060561834,
                1.5956951574113873,
                1.3706443307137361,
                -1.481550008442696,
                -2.0800665629118766
            ]
        },
        {
            "positions": [
                -0.9881155150618599,
                -1.4608398379916343,
                1.6174444181477061,
                1.2467128131486873,
                -1.3924963034029516,
                -2.1374373315976465
            ]
        },
        {
            "positions": [
                -0.9227396717700794,
                -1.4423967699270852,
                1.6391936788840251,
                1.1227812955836385,
                -1.3034425983632074,
                -2.194808100283416
            ]
        },
        {
            "positions": [
                -0.8573638284782991,
                -1.423953701862536,
                1.660942939620344,
                0.9988497780185897,
                -1.2143888933234632,
                -2.2521788689691857
            ]
        },
        {
            "positions": [
                -0.7919879851865186,
                -1.4055106337979868,
                1.682692200356663,
                0.8749182604535407,
                -1.125335188283719,
                -2.309549637654955
            ]
        },
        {
            "positions": [
                -0.7266121418947382,
                -1.3870675657334377,
                1.7044414610929817,
                0.7509867428884919,
                -1.0362814832439748,
                -2.366920406340725
            ]
        },
        {
            "positions": [
                -0.6612362986029579,
                -1.3686244976688886,
                1.7261907218293007,
                0.627055225323443,
                -0.9472277782042305,
                -2.4242911750264944
            ]
        },
        {
            "positions": [
                -0.5958604553111775,
                -1.3501814296043395,
                1.7479399825656197,
                0.5031237077583942,
                -0.8581740731644862,
                -2.4816619437122642
            ]
        },
        {
            "positions": [
                -0.530484612019397,
                -1.3317383615397904,
                1.7696892433019384,
                0.37919219019334527,
                -0.769120368124742,
                -2.5390327123980336
            ]
        },
        {
            "positions": [
                -0.46510876872761664,
                -1.313295293475241,
                1.7914385040382574,
                0.25526067262829644,
                -0.6800666630849977,
                -2.5964034810838035
            ]
        },
        {
            "positions": [
                -0.39973292543583616,
                -1.294852225410692,
                1.8131877647745762,
                0.1313291550632476,
                -0.5910129580452534,
                -2.653774249769573
            ]
        },
        {
            "positions": [
                -0.3343570821440559,
                -1.276409157346143,
                1.8349370255108952,
                0.0073976374981987725,
                -0.5019592530055093,
                -2.7111450184553423
            ]
        },
        {
            "positions": [
                -0.26898123885227543,
                -1.2579660892815938,
                1.8566862862472142,
                -0.11653388006685028,
                -0.41290554796576484,
                -2.768515787141112
            ]
        },
        {
            "positions": [
                -0.20360539556049506,
                -1.2395230212170447,
                1.878435546983533,
                -0.2404653976318989,
                -0.32385184292602087,
                -2.825886555826882
            ]
        },
        {
            "positions": [
                -0.13822955226871458,
                -1.2210799531524956,
                1.900184807719852,
                -0.36439691519694795,
                -0.23479813788627646,
                -2.8832573245126514
            ]
        },
        {
            "positions": [
                -0.07285370897693433,
                -1.2026368850879465,
                1.9219340684561708,
                -0.48832843276199656,
                -0.14574443284653227,
                -2.9406280931984208
            ]
        },
        {
            "positions": [
                -0.0074778656851537395,
                -1.1841938170233972,
                1.9436833291924898,
                -0.6122599503270456,
                -0.056690727806787855,
                -2.9979988618841906
            ]
        },
        {
            "positions": [
                0.05789797760662663,
                -1.1657507489588481,
                1.9654325899288085,
                -0.7361914678920944,
                0.032362977232956114,
                -3.0553696305699605
            ]
        },
        {
            "positions": [
                0.12327382089840695,
                -1.147307680894299,
                1.9871818506651275,
                -0.8601229854571432,
                0.12141668227270061,
                -3.11274039925573
            ]
        }
    ]
}