{
    "goal": {
        "global_pose": {
            "orientation": {
                "w": -0.00223480608172531,
                "x": 0.0024358444001904467,
                "y": 0.7094548369677653,
                "z": -0.704743149386269
            },
            "position": {
                "x": 0.6205249238014221,
                "y": -0.6371506643295288,
                "z": 0.19426114857196808
            }
        },
        "name": "move_to_magneteinheit_B"
    },
    "id": "ProjEST_move_to_magneteinheit_B_106",
    "joint_names": [
        "shoulder_pan_joint",
        "shoulder_lift_joint",
        "elbow_joint",
        "wrist_1_joint",
        "wrist_2_joint",
        "wrist_3_joint"
    ],
    "metrics": {
        "cart_traj_len": 1.453377530478193,
        "distance_elbow_joint": 0.7266247143611848,
        "distance_shoulder_lift_joint": 1.2469994459882834,
        "distance_shoulder_pan_joint": 1.6221581006727488,
        "distance_wrist_1_joint": 2.6130857407109818,
        "distance_wrist_2_joint": 2.9332870422679256,
        "distance_wrist_3_joint": 3.1381049721387386,
        "smoothness": 2.2204460511749907e-16,
        "time": 0.150935523,
        "traj_len": 3.5043201931529984,
        "weighted_distance": 4.909464608630583
    },
    "planner": "ProjEST",
    "start": {
        "state": {
            "elbow_joint": 2.3935871308073637,
            "shoulder_lift_joint": -1.9085141043777403,
            "shoulder_pan_joint": 0.7066247067284167,
            "wrist_1_joint": -0.46782909355067076,
            "wrist_2_joint": 0.7096259085804283,
            "wrist_3_joint": -3.1358149275257428
        }
    },
    "waypoints": [
        {
            "positions": [
                0.7066247067284167,
                -1.9085141043777403,
                2.3935871308073637,
                -0.46782909355067076,
                0.7096259085804283,
                -3.1358149275257428
            ]
        },
        {
            "positions": [
                0.6542970260615538,
                -1.868288315797473,
                2.370147623892487,
                -0.3835360051406391,
                0.6150037459266242,
                -3.034585734876106
            ]
        },
        {
            "positions": [
                0.6019693453946909,
                -1.828062527217206,
                2.34670811697761,
                -0.29924291673060743,
                0.5203815832728202,
                -2.9333565422264694
            ]
        },
        {
            "positions": [
                0.5496416647278282,
                -1.7878367386369387,
                2.323268610062733,
                -0.21494982832057574,
                0.4257594206190161,
                -2.8321273495768327
            ]
        },
        {
            "positions": [
                0.4973139840609653,
                -1.7476109500566714,
                2.299829103147856,
                -0.1306567399105441,
                0.3311372579652121,
                -2.730898156927196
            ]
        },
        {
            "positions": [
                0.4449863033941024,
                -1.7073851614764042,
                2.276389596232979,
                -0.046363651500512415,
                0.23651509531140802,
                -2.6296689642775593
            ]
        },
        {
            "positions": [
                0.3926586227272395,
                -1.6671593728961371,
                2.252950089318102,
                0.037929436909519276,
                0.14189293265760394,
                -2.5284397716279225
            ]
        },
        {
            "positions": [
                0.3403309420603767,
                -1.6269335843158699,
                2.229510582403225,
                0.12222252531955086,
                0.04727077000379998,
                -2.4272105789782854
            ]
        },
        {
            "positions": [
                0.2880032613935138,
                -1.5867077957356026,
                2.206071075488348,
                0.20651561372958255,
                -0.0473513926500041,
                -2.3259813863286487
            ]
        },
        {
            "positions": [
                0.2356755807266509,
                -1.5464820071553353,
                2.182631568573471,
                0.29080870213961435,
                -0.14197355530380817,
                -2.224752193679012
            ]
        },
        {
            "positions": [
                0.18334790005978807,
                -1.5062562185750683,
                2.1591920616585947,
                0.37510179054964593,
                -0.23659571795761225,
                -2.1235230010293753
            ]
        },
        {
            "positions": [
                0.13102021939292519,
                -1.466030429994801,
                2.1357525547437177,
                0.4593948789596776,
                -0.3312178806114162,
                -2.0222938083797386
            ]
        },
        {
            "positions": [
                0.0786925387260623,
                -1.4258046414145338,
                2.1123130478288408,
                0.5436879673697093,
                -0.4258400432652204,
                -1.9210646157301021
            ]
        },
        {
            "positions": [
                0.026364858059199414,
                -1.3855788528342665,
                2.088873540913964,
                0.627981055779741,
                -0.5204622059190244,
                -1.8198354230804652
            ]
        },
        {
            "positions": [
                -0.02596282260766336,
                -1.3453530642539993,
                2.065434033999087,
                0.7122741441897724,
                -0.6150843685728283,
                -1.7186062304308285
            ]
        },
        {
            "positions": [
                -0.07829050327452625,
                -1.3051272756737322,
                2.04199452708421,
                0.7965672325998043,
                -0.7097065312266325,
                -1.6173770377811918
            ]
        },
        {
            "positions": [
                -0.13061818394138913,
                -1.264901487093465,
                2.018555020169333,
                0.8808603210098358,
                -0.8043286938804365,
                -1.516147845131555
            ]
        },
        {
            "positions": [
                -0.1829458646082519,
                -1.224675698513198,
                1.995115513254456,
                0.9651534094198675,
                -0.8989508565342405,
                -1.4149186524819184
            ]
        },
        {
            "positions": [
                -0.2352735452751149,
                -1.1844499099329306,
                1.971676006339579,
                1.0494464978298994,
                -0.9935730191880446,
                -1.3136894598322815
            ]
        },
        {
            "positions": [
                -0.2876012259419777,
                -1.1442241213526634,
                1.9482364994247021,
                1.1337395862399309,
                -1.0881951818418485,
                -1.2124602671826448
            ]
        },
        {
            "positions": [
                -0.33992890660884056,
                -1.1039983327723961,
                1.9247969925098252,
                1.2180326746499626,
                -1.182817344495653,
                -1.1112310745330083
            ]
        },
        {
            "positions": [
                -0.39225658727570345,
                -1.0637725441921289,
                1.9013574855949482,
                1.302325763059994,
                -1.2774395071494569,
                -1.0100018818833716
            ]
        },
        {
            "positions": [
                -0.44458426794256634,
                -1.0235467556118616,
                1.8779179786800713,
                1.386618851470026,
                -1.3720616698032608,
                -0.9087726892337344
            ]
        },
        {
            "positions": [
                -0.4969119486094292,
                -0.9833209670315946,
                1.8544784717651943,
                1.4709119398800576,
                -1.4666838324570648,
                -0.8075434965840977
            ]
        },
        {
            "positions": [
                -0.5492396292762921,
                -0.9430951784513274,
                1.8310389648503174,
                1.5552050282900893,
                -1.5613059951108692,
                -0.7063143039344615
            ]
        },
        {
            "positions": [
                -0.6015673099431548,
                -0.9028693898710602,
                1.8075994579354404,
                1.6394981167001208,
                -1.6559281577646732,
                -0.6050851112848248
            ]
        },
        {
            "positions": [
                -0.6538949906100179,
                -0.862643601290793,
                1.7841599510205635,
                1.7237912051101527,
                -1.7505503204184771,
                -0.5038559186351876
            ]
        },
        {
            "positions": [
                -0.7062226712768805,
                -0.8224178127105257,
                1.7607204441056865,
                1.8080842935201842,
                -1.845172483072281,
                -0.40262672598555094
            ]
        },
        {
            "positions": [
                -0.7585503519437434,
                -0.7821920241302585,
                1.7372809371908098,
                1.8923773819302157,
                -1.939794645726085,
                -0.30139753333591424
            ]
        },
        {
            "positions": [
                -0.8108780326106063,
                -0.7419662355499914,
                1.7138414302759328,
                1.9766704703402476,
                -2.034416808379889,
                -0.20016834068627798
            ]
        },
        {
            "positions": [
                -0.8632057132774692,
                -0.7017404469697242,
                1.6904019233610559,
                2.0609635587502795,
                -2.1290389710336934,
                -0.09893914803664083
            ]
        },
        {
            "positions": [
                -0.9155333939443321,
                -0.661514658389457,
                1.666962416446179,
                2.145256647160311,
                -2.2236611336874974,
                0.0022900446129959754
            ]
        }
    ]
}