{
    "goal": {
        "global_pose": {
            "orientation": {
                "w": -0.00223480608172531,
                "x": 0.0024358444001904467,
                "y": 0.7094548369677653,
                "z": -0.704743149386269
            },
            "position": {
                "x": 0.6205249238014221,
                "y": -0.6371506643295288,
                "z": 0.19426114857196808
            }
        },
        "name": "move_to_magneteinheit_B"
    },
    "id": "ProjEST_move_to_magneteinheit_B_73",
    "joint_names": [
        "shoulder_pan_joint",
        "shoulder_lift_joint",
        "elbow_joint",
        "wrist_1_joint",
        "wrist_2_joint",
        "wrist_3_joint"
    ],
    "metrics": {
        "cart_traj_len": 1.4527116816057852,
        "distance_elbow_joint": 0.7292324392620764,
        "distance_shoulder_lift_joint": 1.2487707614471557,
        "distance_shoulder_pan_joint": 1.620711619193797,
        "distance_wrist_1_joint": 2.607327748986888,
        "distance_wrist_2_joint": 2.9416944911238203,
        "distance_wrist_3_joint": 3.132242561074373,
        "smoothness": 4.440892102948537e-16,
        "time": 0.326836926,
        "traj_len": 3.5042801858710027,
        "weighted_distance": 4.908511687196798
    },
    "planner": "ProjEST",
    "start": {
        "state": {
            "elbow_joint": 2.3935871308073637,
            "shoulder_lift_joint": -1.9085141043777403,
            "shoulder_pan_joint": 0.7066247067284167,
            "wrist_1_joint": -0.46782909355067076,
            "wrist_2_joint": 0.7096259085804283,
            "wrist_3_joint": -3.1358149275257428
        }
    },
    "waypoints": [
        {
            "positions": [
                0.7066247067284167,
                -1.9085141043777403,
                2.3935871308073637,
                -0.46782909355067076,
                0.7096259085804283,
                -3.1358149275257428
            ]
        },
        {
            "positions": [
                0.6543436867544232,
                -1.8682311765891224,
                2.3700635037343933,
                -0.38372174680915827,
                0.6147325378990147,
                -3.0347748449104404
            ]
        },
        {
            "positions": [
                0.6020626667804299,
                -1.8279482488005043,
                2.3465398766614234,
                -0.2996144000676457,
                0.5198391672176012,
                -2.933734762295138
            ]
        },
        {
            "positions": [
                0.5497816468064364,
                -1.7876653210118865,
                2.323016249588453,
                -0.21550705332613324,
                0.42494579653618764,
                -2.8326946796798356
            ]
        },
        {
            "positions": [
                0.4975006268324429,
                -1.7473823932232686,
                2.299492622515483,
                -0.13139970658462075,
                0.33005242585477407,
                -2.731654597064533
            ]
        },
        {
            "positions": [
                0.44521960685844947,
                -1.7070994654346507,
                2.2759689954425126,
                -0.0472923598431082,
                0.2351590551733605,
                -2.6306145144492312
            ]
        },
        {
            "positions": [
                0.39293858688445604,
                -1.6668165376460327,
                2.2524453683695427,
                0.03681498689840429,
                0.14026568449194698,
                -2.529574431833929
            ]
        },
        {
            "positions": [
                0.34065756691046256,
                -1.6265336098574148,
                2.2289217412965723,
                0.12092233363991683,
                0.045372313810533416,
                -2.4285343492186264
            ]
        },
        {
            "positions": [
                0.28837654693646914,
                -1.586250682068797,
                2.205398114223602,
                0.20502968038142927,
                -0.049521056870880154,
                -2.327494266603324
            ]
        },
        {
            "positions": [
                0.23609552696247565,
                -1.5459677542801789,
                2.181874487150632,
                0.2891370271229419,
                -0.14441442755229383,
                -2.2264541839880216
            ]
        },
        {
            "positions": [
                0.18381450698848223,
                -1.505684826491561,
                2.1583508600776615,
                0.37324437386445436,
                -0.2393077982337073,
                -2.1254141013727192
            ]
        },
        {
            "positions": [
                0.13153348701448875,
                -1.4654018987029431,
                2.1348272330046916,
                0.4573517206059669,
                -0.33420116891512086,
                -2.024374018757417
            ]
        },
        {
            "positions": [
                0.07925246704049538,
                -1.4251189709143253,
                2.111303605931721,
                0.5414590673474793,
                -0.4290945395965343,
                -1.9233339361421145
            ]
        },
        {
            "positions": [
                0.026971447066501897,
                -1.3848360431257072,
                2.087779978858751,
                0.6255664140889918,
                -0.523987910277948,
                -1.822293853526812
            ]
        },
        {
            "positions": [
                -0.025309572907491584,
                -1.3445531153370893,
                2.064256351785781,
                0.7096737608305044,
                -0.6188812809593615,
                -1.7212537709115099
            ]
        },
        {
            "positions": [
                -0.07759059288148507,
                -1.3042701875484712,
                2.040732724712811,
                0.7937811075720169,
                -0.7137746516407751,
                -1.6202136882962075
            ]
        },
        {
            "positions": [
                -0.12987161285547844,
                -1.2639872597598534,
                2.0172090976398405,
                0.8778884543135292,
                -0.8086680223221886,
                -1.519173605680905
            ]
        },
        {
            "positions": [
                -0.1821526328294718,
                -1.2237043319712355,
                1.9936854705668703,
                0.9619958010550418,
                -0.903561393003602,
                -1.418133523065603
            ]
        },
        {
            "positions": [
                -0.2344336528034654,
                -1.1834214041826177,
                1.9701618434939001,
                1.0461031477965546,
                -0.998454763685016,
                -1.3170934404503003
            ]
        },
        {
            "positions": [
                -0.2867146727774589,
                -1.1431384763939998,
                1.9466382164209297,
                1.1302104945380669,
                -1.0933481343664293,
                -1.2160533578349981
            ]
        },
        {
            "positions": [
                -0.33899569275145225,
                -1.102855548605382,
                1.9231145893479598,
                1.2143178412795794,
                -1.1882415050478428,
                -1.1150132752196957
            ]
        },
        {
            "positions": [
                -0.3912767127254456,
                -1.0625726208167638,
                1.8995909622749894,
                1.2984251880210917,
                -1.2831348757292562,
                -1.0139731926043933
            ]
        },
        {
            "positions": [
                -0.4435577326994392,
                -1.0222896930281458,
                1.8760673352020192,
                1.3825325347626045,
                -1.3780282464106701,
                -0.9129331099890909
            ]
        },
        {
            "positions": [
                -0.4958387526734326,
                -0.982006765239528,
                1.852543708129049,
                1.4666398815041168,
                -1.4729216170920836,
                -0.8118930273737885
            ]
        },
        {
            "positions": [
                -0.548119772647426,
                -0.94172383745091,
                1.8290200810560788,
                1.5507472282456294,
                -1.567814987773497,
                -0.7108529447584861
            ]
        },
        {
            "positions": [
                -0.6004007926214195,
                -0.9014409096622922,
                1.8054964539831087,
                1.6348545749871417,
                -1.6627083584549105,
                -0.6098128621431842
            ]
        },
        {
            "positions": [
                -0.6526818125954129,
                -0.8611579818736741,
                1.7819728269101383,
                1.7189619217286545,
                -1.7576017291363244,
                -0.5087727795278814
            ]
        },
        {
            "positions": [
                -0.7049628325694065,
                -0.8208750540850562,
                1.7584491998371683,
                1.8030692684701668,
                -1.8524950998177379,
                -0.4077326969125794
            ]
        },
        {
            "positions": [
                -0.7572438525433999,
                -0.7805921262964384,
                1.734925572764198,
                1.8871766152116796,
                -1.9473884704991513,
                -0.306692614297277
            ]
        },
        {
            "positions": [
                -0.8095248725173932,
                -0.7403091985078205,
                1.711401945691228,
                1.9712839619531919,
                -2.0422818411805648,
                -0.20565253168197462
            ]
        },
        {
            "positions": [
                -0.8618058924913868,
                -0.7000262707192024,
                1.6878783186182575,
                2.0553913086947047,
                -2.1371752118619787,
                -0.10461244906667222
            ]
        },
        {
            "positions": [
                -0.9140869124653802,
                -0.6597433429305846,
                1.6643546915452874,
                2.139498655436217,
                -2.232068582543392,
                -0.003572366451369927
            ]
        }
    ]
}