{
    "goal": {
        "global_pose": {
            "orientation": {
                "w": 0.005598929693374612,
                "x": 0.007748599140229565,
                "y": 0.7110244013736278,
                "z": -0.7031023480610252
            },
            "position": {
                "x": -0.8858502320852131,
                "y": -0.7141253447532654,
                "z": 0.3711530566215515
            }
        },
        "name": "move_to_auspresseinheit_C"
    },
    "id": "ProjEST_move_to_auspresseinheit_C_84",
    "joint_names": [
        "shoulder_pan_joint",
        "shoulder_lift_joint",
        "elbow_joint",
        "wrist_1_joint",
        "wrist_2_joint",
        "wrist_3_joint"
    ],
    "metrics": {
        "cart_traj_len": 0.4926617396455237,
        "distance_elbow_joint": 0.9977858704361106,
        "distance_shoulder_lift_joint": 0.3242231966169671,
        "distance_shoulder_pan_joint": 0.2560208664514585,
        "distance_wrist_1_joint": 0.6729682597260889,
        "distance_wrist_2_joint": 1.319396239912575,
        "distance_wrist_3_joint": 0.05754008273503031,
        "smoothness": 0.0,
        "time": 0.08763043200000001,
        "traj_len": 1.9047137621905896,
        "weighted_distance": 2.394865169688464
    },
    "planner": "ProjEST",
    "start": {
        "state": {
            "elbow_joint": 1.752795957773711,
            "shoulder_lift_joint": -0.9740617694225064,
            "shoulder_pan_joint": -2.967991417825858,
            "wrist_1_joint": -0.7595177689806859,
            "wrist_2_joint": 1.7443932448377395,
            "wrist_3_joint": 3.199131542505932
        }
    },
    "waypoints": [
        {
            "positions": [
                -2.967991417825858,
                -0.9740617694225064,
                1.752795957773711,
                -0.7595177689806859,
                1.7443932448377395,
                3.199131542505932
            ]
        },
        {
            "positions": [
                -2.942389331180712,
                -0.9416394497608097,
                1.6530173707301001,
                -0.692220943008077,
                1.612453620846482,
                3.193377534232429
            ]
        },
        {
            "positions": [
                -2.9167872445355663,
                -0.909217130099113,
                1.553238783686489,
                -0.6249241170354681,
                1.4805139968552246,
                3.187623525958926
            ]
        },
        {
            "positions": [
                -2.8911851578904204,
                -0.8767948104374164,
                1.453460196642878,
                -0.5576272910628592,
                1.348574372863967,
                3.1818695176854233
            ]
        },
        {
            "positions": [
                -2.8655830712452746,
                -0.8443724907757196,
                1.353681609599267,
                -0.49033046509025036,
                1.2166347488727096,
                3.17611550941192
            ]
        },
        {
            "positions": [
                -2.8399809846001287,
                -0.8119501711140229,
                1.2539030225556558,
                -0.42303363911764147,
                1.084695124881452,
                3.1703615011384167
            ]
        },
        {
            "positions": [
                -2.814378897954983,
                -0.7795278514523262,
                1.1541244355120448,
                -0.3557368131450326,
                0.9527555008901946,
                3.164607492864914
            ]
        },
        {
            "positions": [
                -2.788776811309837,
                -0.7471055317906294,
                1.0543458484684338,
                -0.28843998717242375,
                0.8208158768989371,
                3.158853484591411
            ]
        },
        {
            "positions": [
                -2.763174724664691,
                -0.7146832121289328,
                0.9545672614248226,
                -0.2211431611998148,
                0.6888762529076795,
                3.153099476317908
            ]
        },
        {
            "positions": [
                -2.7375726380195453,
                -0.682260892467236,
                0.8547886743812116,
                -0.15384633522720592,
                0.5569366289164219,
                3.1473454680444046
            ]
        },
        {
            "positions": [
                -2.7119705513743995,
                -0.6498385728055394,
                0.7550100873376006,
                -0.08654950925459702,
                0.4249970049251647,
                3.141591459770902
            ]
        }
    ]
}