{
    "goal": {
        "global_pose": {
            "orientation": {
                "w": -0.00223480608172531,
                "x": 0.0024358444001904467,
                "y": 0.7094548369677653,
                "z": -0.704743149386269
            },
            "position": {
                "x": -0.37947507619857795,
                "y": -0.6371506643295288,
                "z": 0.19426114857196808
            }
        },
        "name": "move_to_magneteinheit_C"
    },
    "id": "ProjEST_move_to_magneteinheit_C_117",
    "joint_names": [
        "shoulder_pan_joint",
        "shoulder_lift_joint",
        "elbow_joint",
        "wrist_1_joint",
        "wrist_2_joint",
        "wrist_3_joint"
    ],
    "metrics": {
        "cart_traj_len": 1.625574862815701,
        "distance_elbow_joint": 0.12227113101521514,
        "distance_shoulder_lift_joint": 0.5052584129315796,
        "distance_shoulder_pan_joint": 2.142615744396537,
        "distance_wrist_1_joint": 0.9004941482409796,
        "distance_wrist_2_joint": 0.8011146563927621,
        "distance_wrist_3_joint": 0.1802798079854866,
        "smoothness": 1.7409846163037206,
        "time": 0.976879461,
        "traj_len": 2.1568574132201137,
        "weighted_distance": 2.5911777865610217
    },
    "planner": "ProjEST",
    "start": {
        "state": {
            "elbow_joint": 1.9565354006590394,
            "shoulder_lift_joint": -1.4165861576513559,
            "shoulder_pan_joint": -1.6717766223277177,
            "wrist_1_joint": -0.5286633288215096,
            "wrist_2_joint": 1.4727565892594296,
            "wrist_3_joint": 3.1593482883155493
        }
    },
    "waypoints": [
        {
            "positions": [
                -1.6717766223277177,
                -1.4165861576513559,
                1.9565354006590394,
                -0.5286633288215096,
                1.4727565892594296,
                3.1593482883155493
            ]
        },
        {
            "positions": [
                -1.5377323602862876,
                -1.4416732521522864,
                1.9491204527453885,
                -0.46736046022090716,
                1.3838937889711087,
                3.137018072781773
            ]
        },
        {
            "positions": [
                -1.4036880982448574,
                -1.4667603466532169,
                1.9417055048317373,
                -0.40605759162030475,
                1.2950309886827878,
                3.1146878572479966
            ]
        },
        {
            "positions": [
                -1.2696438362034272,
                -1.4918474411541476,
                1.9342905569180864,
                -0.34475472301970234,
                1.2061681883944668,
                3.0923576417142207
            ]
        },
        {
            "positions": [
                -1.135599574161997,
                -1.516934535655078,
                1.9268756090044352,
                -0.2834518544190999,
                1.1173053881061459,
                3.0700274261804443
            ]
        },
        {
            "positions": [
                -1.001555312120567,
                -1.5420216301560086,
                1.9194606610907843,
                -0.2221489858184975,
                1.028442587817825,
                3.047697210646668
            ]
        },
        {
            "positions": [
                -1.1856046163942402,
                -1.4945437626026428,
                1.9301102100216543,
                -0.29639646147324344,
                0.9838425059489303,
                3.0562758019362435
            ]
        },
        {
            "positions": [
                -1.3696539206679135,
                -1.4470658950492767,
                1.9407597589525243,
                -0.3706439371279894,
                0.9392424240800356,
                3.0648543932258194
            ]
        },
        {
            "positions": [
                -1.5537032249415867,
                -1.399588027495911,
                1.9514093078833943,
                -0.44489141278273536,
                0.8946423422111409,
                3.073432984515395
            ]
        },
        {
            "positions": [
                -1.73775252921526,
                -1.3521101599425451,
                1.9620588568142643,
                -0.5191388884374812,
                0.8500422603422462,
                3.0820115758049704
            ]
        },
        {
            "positions": [
                -1.9218018334889333,
                -1.3046322923891793,
                1.9727084057451343,
                -0.5933863640922272,
                0.8054421784733515,
                3.0905901670945464
            ]
        },
        {
            "positions": [
                -2.1058511377626066,
                -1.2571544248358135,
                1.9833579546760043,
                -0.6676338397469732,
                0.7608420966044569,
                3.099168758384122
            ]
        },
        {
            "positions": [
                -2.28990044203628,
                -1.2096765572824475,
                1.9940075036068743,
                -0.7418813154017191,
                0.7162420147355621,
                3.107747349673698
            ]
        },
        {
            "positions": [
                -2.473949746309953,
                -1.1621986897290817,
                2.0046570525377443,
                -0.8161287910564651,
                0.6716419328666675,
                3.1163259409632733
            ]
        }
    ]
}