{
    "goal": {
        "global_pose": {
            "orientation": {
                "w": -0.00223480608172531,
                "x": 0.0024358444001904467,
                "y": 0.7094548369677653,
                "z": -0.704743149386269
            },
            "position": {
                "x": 0.6205249238014221,
                "y": -0.6371506643295288,
                "z": 0.19426114857196808
            }
        },
        "name": "move_to_magneteinheit_B"
    },
    "id": "ProjEST_move_to_magneteinheit_B_63",
    "joint_names": [
        "shoulder_pan_joint",
        "shoulder_lift_joint",
        "elbow_joint",
        "wrist_1_joint",
        "wrist_2_joint",
        "wrist_3_joint"
    ],
    "metrics": {
        "cart_traj_len": 1.452696442267327,
        "distance_elbow_joint": 0.7318061482770757,
        "distance_shoulder_lift_joint": 1.2489962506418908,
        "distance_shoulder_pan_joint": 1.6201397004621199,
        "distance_wrist_1_joint": 2.604453024863344,
        "distance_wrist_2_joint": 2.9400798674793274,
        "distance_wrist_3_joint": 3.135877363015109,
        "smoothness": 4.718447868532788e-16,
        "time": 0.212006178,
        "traj_len": 3.504476045679135,
        "weighted_distance": 4.908934708581054
    },
    "planner": "ProjEST",
    "start": {
        "state": {
            "elbow_joint": 2.3935871308073637,
            "shoulder_lift_joint": -1.9085141043777403,
            "shoulder_pan_joint": 0.7066247067284167,
            "wrist_1_joint": -0.46782909355067076,
            "wrist_2_joint": 0.7096259085804283,
            "wrist_3_joint": -3.1358149275257428
        }
    },
    "waypoints": [
        {
            "positions": [
                0.7066247067284167,
                -1.9085141043777403,
                2.3935871308073637,
                -0.46782909355067076,
                0.7096259085804283,
                -3.1358149275257428
            ]
        },
        {
            "positions": [
                0.6543621357457676,
                -1.868223902744131,
                2.369980480862942,
                -0.3838144798454016,
                0.614784622532708,
                -3.034657593234933
            ]
        },
        {
            "positions": [
                0.6020995647631187,
                -1.8279337011105214,
                2.34637383091852,
                -0.29979986614013243,
                0.5199433364849878,
                -2.933500258944123
            ]
        },
        {
            "positions": [
                0.5498369937804697,
                -1.7876434994769121,
                2.322767180974098,
                -0.21578525243486324,
                0.42510205043726756,
                -2.8323429246533127
            ]
        },
        {
            "positions": [
                0.4975744227978206,
                -1.7473532978433028,
                2.2991605310296768,
                -0.1317706387295941,
                0.3302607643895473,
                -2.731185590362503
            ]
        },
        {
            "positions": [
                0.4453118518151716,
                -1.7070630962096933,
                2.275553881085255,
                -0.04775602502432491,
                0.23541947834182714,
                -2.630028256071693
            ]
        },
        {
            "positions": [
                0.39304928083252255,
                -1.666772894576084,
                2.251947231140833,
                0.03625858868094428,
                0.14057819229410684,
                -2.528870921780883
            ]
        },
        {
            "positions": [
                0.3407867098498735,
                -1.6264826929424747,
                2.228340581196411,
                0.12027320238621336,
                0.0457369062463866,
                -2.4277135874900733
            ]
        },
        {
            "positions": [
                0.2885241388672245,
                -1.5861924913088652,
                2.2047339312519894,
                0.20428781609148255,
                -0.04910437980133364,
                -2.326556253199263
            ]
        },
        {
            "positions": [
                0.23626156788457542,
                -1.545902289675256,
                2.1811272813075675,
                0.28830242979675175,
                -0.14394566584905388,
                -2.225398918908453
            ]
        },
        {
            "positions": [
                0.18399899690192645,
                -1.5056120880416466,
                2.1575206313631456,
                0.37231704350202094,
                -0.238786951896774,
                -2.1242415846176432
            ]
        },
        {
            "positions": [
                0.13173642591927737,
                -1.465321886408037,
                2.133913981418724,
                0.45633165720729013,
                -0.3336282379444945,
                -2.023084250326833
            ]
        },
        {
            "positions": [
                0.0794738549366284,
                -1.4250316847744278,
                2.1103073314743024,
                0.5403462709125593,
                -0.4284695239922146,
                -1.9219269160360233
            ]
        },
        {
            "positions": [
                0.027211283953979315,
                -1.3847414831408185,
                2.0867006815298805,
                0.6243608846178283,
                -0.523310810039935,
                -1.8207695817452132
            ]
        },
        {
            "positions": [
                -0.025051287028669655,
                -1.344451281507209,
                2.0630940315854587,
                0.7083754983230974,
                -0.6181520960876551,
                -1.7196122474544033
            ]
        },
        {
            "positions": [
                -0.07731385801131874,
                -1.3041610798735994,
                2.039487381641037,
                0.7923901120283667,
                -0.7129933821353752,
                -1.6184549131635932
            ]
        },
        {
            "positions": [
                -0.1295764289939677,
                -1.2638708782399903,
                2.015880731696615,
                0.8764047257336358,
                -0.8078346681830956,
                -1.5172975788727834
            ]
        },
        {
            "positions": [
                -0.18183899997661668,
                -1.2235806766063808,
                1.9922740817521931,
                0.9604193394389049,
                -0.9026759542308157,
                -1.4161402445819735
            ]
        },
        {
            "positions": [
                -0.23410157095926587,
                -1.1832904749727713,
                1.9686674318077713,
                1.0444339531441742,
                -0.997517240278536,
                -1.3149829102911632
            ]
        },
        {
            "positions": [
                -0.28636414194191484,
                -1.143000273339162,
                1.9450607818633496,
                1.1284485668494433,
                -1.0923585263262563,
                -1.2138255760003533
            ]
        },
        {
            "positions": [
                -0.3386267129245638,
                -1.1027100717055527,
                1.9214541319189278,
                1.2124631805547126,
                -1.1871998123739762,
                -1.1126682417095437
            ]
        },
        {
            "positions": [
                -0.3908892839072128,
                -1.0624198700719434,
                1.8978474819745061,
                1.2964777942599817,
                -1.2820410984216966,
                -1.0115109074187338
            ]
        },
        {
            "positions": [
                -0.443151854889862,
                -1.0221296684383339,
                1.8742408320300843,
                1.380492407965251,
                -1.3768823844694174,
                -0.9103535731279235
            ]
        },
        {
            "positions": [
                -0.49541442587251094,
                -0.9818394668047246,
                1.8506341820856624,
                1.46450702167052,
                -1.4717236705171373,
                -0.8091962388371137
            ]
        },
        {
            "positions": [
                -0.5476769968551599,
                -0.9415492651711151,
                1.8270275321412406,
                1.5485216353757894,
                -1.5665649565648576,
                -0.7080389045463038
            ]
        },
        {
            "positions": [
                -0.5999395678378089,
                -0.9012590635375057,
                1.8034208821968187,
                1.6325362490810584,
                -1.6614062426125775,
                -0.6068815702554939
            ]
        },
        {
            "positions": [
                -0.6522021388204581,
                -0.8609688619038964,
                1.7798142322523969,
                1.7165508627863275,
                -1.7562475286602983,
                -0.5057242359646836
            ]
        },
        {
            "positions": [
                -0.704464709803107,
                -0.8206786602702869,
                1.7562075823079752,
                1.8005654764915966,
                -1.8510888147080182,
                -0.40456690167387377
            ]
        },
        {
            "positions": [
                -0.756727280785756,
                -0.7803884586366776,
                1.7326009323635536,
                1.8845800901968657,
                -1.9459301007557386,
                -0.3034095673830639
            ]
        },
        {
            "positions": [
                -0.808989851768405,
                -0.7400982570030683,
                1.7089942824191318,
                1.9685947039021348,
                -2.0407713868034585,
                -0.20225223309225404
            ]
        },
        {
            "positions": [
                -0.8612524227510542,
                -0.6998080553694588,
                1.68538763247471,
                2.0526093176074043,
                -2.135612672851179,
                -0.10109489880144373
            ]
        },
        {
            "positions": [
                -0.9135149937337033,
                -0.6595178537358496,
                1.661780982530288,
                2.1366239313126734,
                -2.230453958898899,
                6.243548936593441e-05
            ]
        }
    ]
}