{
    "goal": {
        "global_pose": {
            "orientation": {
                "w": 0.7031023480610252,
                "x": -0.7110244013736278,
                "y": 0.0077485991402295624,
                "z": 0.005598929693374583
            },
            "position": {
                "x": -0.8841497679147869,
                "y": 0.44412534475326537,
                "z": 0.3711530566215515
            }
        },
        "name": "move_to_auspresseinheit_D"
    },
    "id": "ProjEST_move_to_auspresseinheit_D_15",
    "joint_names": [
        "shoulder_pan_joint",
        "shoulder_lift_joint",
        "elbow_joint",
        "wrist_1_joint",
        "wrist_2_joint",
        "wrist_3_joint"
    ],
    "metrics": {
        "cart_traj_len": 3.0496409106979283,
        "distance_elbow_joint": 3.4226529577848632,
        "distance_shoulder_lift_joint": 1.3902857444320533,
        "distance_shoulder_pan_joint": 2.7972123737955927,
        "distance_wrist_1_joint": 1.8328573425616344,
        "distance_wrist_2_joint": 0.8984060956887328,
        "distance_wrist_3_joint": 3.0541888549346554,
        "smoothness": 0.05103712361123109,
        "time": 0.18971523799999998,
        "traj_len": 3.6600004602728586,
        "weighted_distance": 4.715426228594527
    },
    "planner": "ProjEST",
    "start": {
        "state": {
            "elbow_joint": 1.8268400409724999,
            "shoulder_lift_joint": -1.0144045787793008,
            "shoulder_pan_joint": 2.6280239544362485,
            "wrist_1_joint": -0.790705565816056,
            "wrist_2_joint": 1.0573557467365533,
            "wrist_3_joint": 3.1851377467193758
        }
    },
    "waypoints": [
        {
            "positions": [
                2.6280239544362485,
                -1.0144045787793008,
                1.8268400409724999,
                -0.790705565816056,
                1.0573557467365533,
                3.1851377467193758
            ]
        },
        {
            "positions": [
                2.562956748916292,
                -1.0926212055465723,
                1.8381443094002197,
                -0.6336952651368469,
                1.0193576350095144,
                3.1491101490552826
            ]
        },
        {
            "positions": [
                2.4978895433963353,
                -1.1708378323138438,
                1.8494485778279395,
                -0.47668496445763786,
                0.9813595232824753,
                3.113082551391189
            ]
        },
        {
            "positions": [
                2.4328223378763787,
                -1.2490544590811152,
                1.8607528462556593,
                -0.3196746637784289,
                0.9433614115554364,
                3.077054953727096
            ]
        },
        {
            "positions": [
                2.367755132356422,
                -1.3272710858483867,
                1.872057114683379,
                -0.16266436309921972,
                0.9053632998283974,
                3.041027356063003
            ]
        },
        {
            "positions": [
                2.3026879268364655,
                -1.4054877126156582,
                1.883361383111099,
                -0.005654062420010764,
                0.8673651881013584,
                3.0049997583989096
            ]
        },
        {
            "positions": [
                2.237620721316509,
                -1.4837043393829297,
                1.8946656515388187,
                0.1513562382591982,
                0.8293670763743195,
                2.968972160734816
            ]
        },
        {
            "positions": [
                2.1725535157965523,
                -1.5619209661502012,
                1.9059699199665385,
                0.30836653893840715,
                0.7913689646472806,
                2.932944563070723
            ]
        },
        {
            "positions": [
                2.1074863102765957,
                -1.6401375929174726,
                1.9172741883942583,
                0.46537683961761656,
                0.7533708529202414,
                2.89691696540663
            ]
        },
        {
            "positions": [
                2.042419104756639,
                -1.718354219684744,
                1.9285784568219781,
                0.6223871402968255,
                0.7153727411932025,
                2.860889367742536
            ]
        },
        {
            "positions": [
                1.9773518992366825,
                -1.7965708464520156,
                1.939882725249698,
                0.7793974409760345,
                0.6773746294661636,
                2.824861770078443
            ]
        },
        {
            "positions": [
                1.8914902864928413,
                -1.8208956255223891,
                1.8074983143093912,
                0.7688872675452527,
                0.6566376303294298,
                2.717105254946694
            ]
        },
        {
            "positions": [
                1.8056286737490004,
                -1.8452204045927627,
                1.6751139033690847,
                0.758377094114471,
                0.6359006311926961,
                2.609348739814945
            ]
        },
        {
            "positions": [
                1.7197670610051592,
                -1.8695451836631363,
                1.5427294924287782,
                0.7478669206836892,
                0.6151636320559624,
                2.5015922246831965
            ]
        },
        {
            "positions": [
                1.6339054482613182,
                -1.8938699627335098,
                1.4103450814884715,
                0.7373567472529076,
                0.5944266329192286,
                2.3938357095514475
            ]
        },
        {
            "positions": [
                1.548043835517477,
                -1.9181947418038834,
                1.2779606705481648,
                0.7268465738221258,
                0.5736896337824949,
                2.2860791944196985
            ]
        },
        {
            "positions": [
                1.4621822227736359,
                -1.942519520874257,
                1.1455762596078582,
                0.716336400391344,
                0.5529526346457612,
                2.1783226792879495
            ]
        },
        {
            "positions": [
                1.3763206100297949,
                -1.9668442999446305,
                1.0131918486675515,
                0.7058262269605623,
                0.5322156355090275,
                2.0705661641562005
            ]
        },
        {
            "positions": [
                1.2904589972859537,
                -1.9911690790150038,
                0.880807437727245,
                0.6953160535297805,
                0.5114786363722937,
                1.9628096490244518
            ]
        },
        {
            "positions": [
                1.2045973845421125,
                -2.0154938580853776,
                0.7484230267869385,
                0.6848058800989989,
                0.49074163723555997,
                1.855053133892703
            ]
        },
        {
            "positions": [
                1.1187357717982715,
                -2.039818637155751,
                0.6160386158466316,
                0.6742957066682171,
                0.47000463809882626,
                1.747296618760954
            ]
        },
        {
            "positions": [
                1.0328741590544304,
                -2.0641434162261247,
                0.48365420490632505,
                0.6637855332374354,
                0.44926763896209254,
                1.639540103629205
            ]
        },
        {
            "positions": [
                0.9470125463105892,
                -2.088468195296498,
                0.35126979396601854,
                0.6532753598066536,
                0.42853063982535883,
                1.5317835884974562
            ]
        },
        {
            "positions": [
                0.8611509335667482,
                -2.1127929743668714,
                0.2188853830257118,
                0.6427651863758719,
                0.40779364068862506,
                1.4240270733657072
            ]
        },
        {
            "positions": [
                0.775289320822907,
                -2.137117753437245,
                0.08650097208540508,
                0.6322550129450901,
                0.38705664155189135,
                1.3162705582339582
            ]
        },
        {
            "positions": [
                0.6894277080790661,
                -2.1614425325076185,
                -0.045883438854901204,
                0.6217448395143084,
                0.36631964241515763,
                1.2085140431022094
            ]
        },
        {
            "positions": [
                0.6035660953352249,
                -2.185767311577992,
                -0.17826784979520793,
                0.6112346660835266,
                0.34558264327842386,
                1.1007575279704604
            ]
        },
        {
            "positions": [
                0.5177044825913837,
                -2.2100920906483656,
                -0.31065226073551466,
                0.6007244926527449,
                0.32484564414169015,
                0.9930010128387114
            ]
        },
        {
            "positions": [
                0.4318428698475427,
                -2.234416869718739,
                -0.44303667167582095,
                0.5902143192219632,
                0.30410864500495643,
                0.8852444977069629
            ]
        },
        {
            "positions": [
                0.34598125710370153,
                -2.2587416487891128,
                -0.5754210826161281,
                0.5797041457911815,
                0.2833716458682227,
                0.7774879825752139
            ]
        },
        {
            "positions": [
                0.26011964435986035,
                -2.2830664278594863,
                -0.7078054935564349,
                0.5691939723603997,
                0.26263464673148895,
                0.6697314674434649
            ]
        },
        {
            "positions": [
                0.17425803161601938,
                -2.30739120692986,
                -0.8401899044967411,
                0.5586837989296181,
                0.24189764759475524,
                0.5619749523117159
            ]
        },
        {
            "positions": [
                0.0883964188721782,
                -2.3317159860002334,
                -0.9725743154370479,
                0.5481736254988363,
                0.22116064845802152,
                0.4542184371799669
            ]
        },
        {
            "positions": [
                0.0025348061283370082,
                -2.356040765070607,
                -1.1049587263773546,
                0.5376634520680545,
                0.20042364932128776,
                0.3464619220482179
            ]
        },
        {
            "positions": [
                -0.08332680661550418,
                -2.3803655441409806,
                -1.2373431373176609,
                0.5271532786372728,
                0.1796866501845541,
                0.23870540691646935
            ]
        },
        {
            "positions": [
                -0.16918841935934534,
                -2.404690323211354,
                -1.3697275482579674,
                0.516643105206491,
                0.15894965104782027,
                0.1309488917847204
            ]
        }
    ]
}