{
    "goal": {
        "global_pose": {
            "orientation": {
                "w": 0.7047431468963623,
                "x": -0.7094548344612122,
                "y": 0.0024358443915843964,
                "z": -0.0022348060738295317
            },
            "position": {
                "x": 0.6094750761985779,
                "y": 0.3671506643295288,
                "z": 0.19426114857196808
            }
        },
        "name": "move_to_magneteinheit_A"
    },
    "id": "ProjEST_move_to_magneteinheit_A_102",
    "joint_names": [
        "shoulder_pan_joint",
        "shoulder_lift_joint",
        "elbow_joint",
        "wrist_1_joint",
        "wrist_2_joint",
        "wrist_3_joint"
    ],
    "metrics": {
        "cart_traj_len": 1.1940025097496425,
        "distance_elbow_joint": 0.44203147023069556,
        "distance_shoulder_lift_joint": 0.7112313524542184,
        "distance_shoulder_pan_joint": 1.2425239569676996,
        "distance_wrist_1_joint": 0.5066467946739863,
        "distance_wrist_2_joint": 1.4314136873977252,
        "distance_wrist_3_joint": 1.9376719457023743,
        "smoothness": 3.657205271811157e-16,
        "time": 0.08058717900000001,
        "traj_len": 2.504300143238965,
        "weighted_distance": 3.476337667848617
    },
    "planner": "ProjEST",
    "start": {
        "state": {
            "elbow_joint": 1.5739458966750683,
            "shoulder_lift_joint": -1.4977259741207325,
            "shoulder_pan_joint": -1.1188672016454206,
            "wrist_1_joint": 1.494575848278785,
            "wrist_2_joint": -1.5706037134824402,
            "wrist_3_joint": -2.0226957942261072
        }
    },
    "waypoints": [
        {
            "positions": [
                -1.1188672016454206,
                -1.4977259741207325,
                1.5739458966750683,
                1.494575848278785,
                -1.5706037134824402,
                -2.0226957942261072
            ]
        },
        {
            "positions": [
                -1.0412094543349395,
                -1.4532740145923437,
                1.6015728635644868,
                1.5262412729459092,
                -1.4811403580200824,
                -1.901591297619709
            ]
        },
        {
            "positions": [
                -0.9635517070244581,
                -1.4088220550639552,
                1.6291998304539053,
                1.5579066976130334,
                -1.3916770025577245,
                -1.7804868010133104
            ]
        },
        {
            "positions": [
                -0.885893959713977,
                -1.3643700955355667,
                1.6568267973433237,
                1.5895721222801573,
                -1.3022136470953667,
                -1.659382304406912
            ]
        },
        {
            "positions": [
                -0.8082362124034957,
                -1.3199181360071779,
                1.6844537642327422,
                1.6212375469472815,
                -1.2127502916330088,
                -1.5382778078005137
            ]
        },
        {
            "positions": [
                -0.7305784650930145,
                -1.2754661764787891,
                1.7120807311221606,
                1.6529029716144057,
                -1.123286936170651,
                -1.4171733111941154
            ]
        },
        {
            "positions": [
                -0.6529207177825334,
                -1.2310142169504006,
                1.739707698011579,
                1.6845683962815299,
                -1.0338235807082934,
                -1.2960688145877168
            ]
        },
        {
            "positions": [
                -0.5752629704720521,
                -1.186562257422012,
                1.7673346649009978,
                1.716233820948654,
                -0.9443602252459354,
                -1.1749643179813185
            ]
        },
        {
            "positions": [
                -0.49760522316157085,
                -1.1421102978936233,
                1.7949616317904162,
                1.7478992456157783,
                -0.8548968697835776,
                -1.0538598213749202
            ]
        },
        {
            "positions": [
                -0.4199474758510896,
                -1.0976583383652345,
                1.8225885986798347,
                1.7795646702829022,
                -0.7654335143212198,
                -0.9327553247685216
            ]
        },
        {
            "positions": [
                -0.34228972854060835,
                -1.053206378836846,
                1.8502155655692532,
                1.8112300949500264,
                -0.6759701588588619,
                -0.8116508281621233
            ]
        },
        {
            "positions": [
                -0.2646319812301272,
                -1.0087544193084574,
                1.8778425324586716,
                1.8428955196171506,
                -0.5865068033965041,
                -0.690546331555725
            ]
        },
        {
            "positions": [
                -0.18697423391964596,
                -0.9643024597800687,
                1.90546949934809,
                1.8745609442842748,
                -0.49704344793414634,
                -0.5694418349493264
            ]
        },
        {
            "positions": [
                -0.10931648660916471,
                -0.91985050025168,
                1.9330964662375085,
                1.906226368951399,
                -0.4075800924717885,
                -0.4483373383429281
            ]
        },
        {
            "positions": [
                -0.03165873929868357,
                -0.8753985407232914,
                1.960723433126927,
                1.937891793618523,
                -0.31811673700943066,
                -0.3272328417365298
            ]
        },
        {
            "positions": [
                0.04599900801179779,
                -0.8309465811949027,
                1.9883504000163454,
                1.9695572182856471,
                -0.22865338154707282,
                -0.20612834513013123
            ]
        },
        {
            "positions": [
                0.12365675532227896,
                -0.7864946216665141,
                2.015977366905764,
                2.0012226429527713,
                -0.1391900260847149,
                -0.08502384852373297
            ]
        }
    ]
}