{
    "goal": {
        "global_pose": {
            "orientation": {
                "w": 0.5084816217422485,
                "x": -0.49083608388900757,
                "y": 0.5182115435600281,
                "z": -0.4816462993621826
            },
            "position": {
                "x": 0.5540239810943604,
                "y": 0.030875300988554955,
                "z": 0.16403168439865112
            }
        },
        "name": "move_to_storage_A"
    },
    "id": "ProjEST_move_to_storage_A_44",
    "joint_names": [
        "shoulder_pan_joint",
        "shoulder_lift_joint",
        "elbow_joint",
        "wrist_1_joint",
        "wrist_2_joint",
        "wrist_3_joint"
    ],
    "metrics": {
        "cart_traj_len": 0.35263741455219216,
        "distance_elbow_joint": 0.446983534736634,
        "distance_shoulder_lift_joint": 0.23337327586876522,
        "distance_shoulder_pan_joint": 0.46081490942414655,
        "distance_wrist_1_joint": 0.23575257810841566,
        "distance_wrist_2_joint": 1.0981166527064903,
        "distance_wrist_3_joint": 0.09912667734032432,
        "smoothness": 0.0,
        "time": 0.038241881000000005,
        "traj_len": 1.604421275159606,
        "weighted_distance": 2.0263983353922126
    },
    "planner": "ProjEST",
    "start": {
        "state": {
            "elbow_joint": 1.9715474177455299,
            "shoulder_lift_joint": -1.139484666580328,
            "shoulder_pan_joint": 0.12281154398918248,
            "wrist_1_joint": -0.7804687475355282,
            "wrist_2_joint": 0.12958649657246987,
            "wrist_3_joint": -3.1924925159053466
        }
    },
    "waypoints": [
        {
            "positions": [
                0.12281154398918248,
                -1.139484666580328,
                1.9715474177455299,
                -0.7804687475355282,
                0.12958649657246987,
                -3.1924925159053466
            ]
        },
        {
            "positions": [
                0.05698084264287584,
                -1.1728237059901516,
                2.035402208422192,
                -0.8141476872653018,
                0.28646030410196854,
                -3.178331561999586
            ]
        },
        {
            "positions": [
                -0.008849858703430802,
                -1.2061627453999753,
                2.099256999098854,
                -0.8478266269950755,
                0.4433341116314672,
                -3.1641706080938254
            ]
        },
        {
            "positions": [
                -0.07468056004973744,
                -1.239501784809799,
                2.163111789775516,
                -0.8815055667248491,
                0.6002079191609658,
                -3.150009654188065
            ]
        },
        {
            "positions": [
                -0.14051126139604408,
                -1.2728408242196223,
                2.226966580452178,
                -0.9151845064546229,
                0.7570817266904645,
                -3.135848700282304
            ]
        },
        {
            "positions": [
                -0.20634196274235078,
                -1.306179863629446,
                2.29082137112884,
                -0.9488634461843966,
                0.9139555342199631,
                -3.1216877463765433
            ]
        },
        {
            "positions": [
                -0.27217266408865737,
                -1.3395189030392696,
                2.354676161805502,
                -0.9825423859141702,
                1.0708293417494616,
                -3.107526792470783
            ]
        },
        {
            "positions": [
                -0.33800336543496406,
                -1.3728579424490932,
                2.418530952482164,
                -1.0162213256439439,
                1.2277031492789603,
                -3.0933658385650222
            ]
        }
    ]
}