{
    "goal": {
        "global_pose": {
            "orientation": {
                "w": 0.005598929693374612,
                "x": 0.007748599140229565,
                "y": 0.7110244013736278,
                "z": -0.7031023480610252
            },
            "position": {
                "x": 0.1141497679147869,
                "y": -0.7141253447532654,
                "z": 0.3711530566215515
            }
        },
        "name": "move_to_auspresseinheit_B"
    },
    "id": "ProjEST_move_to_auspresseinheit_B_101",
    "joint_names": [
        "shoulder_pan_joint",
        "shoulder_lift_joint",
        "elbow_joint",
        "wrist_1_joint",
        "wrist_2_joint",
        "wrist_3_joint"
    ],
    "metrics": {
        "cart_traj_len": 0.5652493195660613,
        "distance_elbow_joint": 0.06504285197738913,
        "distance_shoulder_lift_joint": 0.29351253197886207,
        "distance_shoulder_pan_joint": 0.5791885204837943,
        "distance_wrist_1_joint": 0.3350524969694052,
        "distance_wrist_2_joint": 0.98581000104907,
        "distance_wrist_3_joint": 0.001309920580705004,
        "smoothness": 2.5376526478085547e-16,
        "time": 0.149036301,
        "traj_len": 1.5033018070365065,
        "weighted_distance": 1.8929867041844513
    },
    "planner": "ProjEST",
    "start": {
        "state": {
            "elbow_joint": 2.019306165916698,
            "shoulder_lift_joint": -1.1220205098164344,
            "shoulder_pan_joint": -1.095207207618794,
            "wrist_1_joint": -0.8559671824921639,
            "wrist_2_joint": 0.47596387242952726,
            "wrist_3_joint": 3.159081874673826
        }
    },
    "waypoints": [
        {
            "positions": [
                -1.095207207618794,
                -1.1220205098164344,
                2.019306165916698,
                -0.8559671824921639,
                0.47596387242952726,
                3.159081874673826
            ]
        },
        {
            "positions": [
                -1.1917386276994264,
                -1.1709392651462447,
                2.008465690587133,
                -0.8001250996639296,
                0.6402655392710389,
                3.15930019477061
            ]
        },
        {
            "positions": [
                -1.2882700477800588,
                -1.2198580204760552,
                1.9976252152575682,
                -0.7442830168356954,
                0.8045672061125506,
                3.1595185148673943
            ]
        },
        {
            "positions": [
                -1.384801467860691,
                -1.2687767758058655,
                1.9867847399280034,
                -0.6884409340074613,
                0.9688688729540622,
                3.1597368349641783
            ]
        },
        {
            "positions": [
                -1.4813328879413235,
                -1.3176955311356757,
                1.9759442645984386,
                -0.6325988511792271,
                1.1331705397955738,
                3.1599551550609624
            ]
        },
        {
            "positions": [
                -1.5778643080219559,
                -1.3666142864654862,
                1.9651037892688736,
                -0.5767567683509929,
                1.2974722066370856,
                3.160173475157747
            ]
        },
        {
            "positions": [
                -1.6743957281025883,
                -1.4155330417952965,
                1.9542633139393089,
                -0.5209146855227587,
                1.4617738734785972,
                3.160391795254531
            ]
        }
    ]
}