{
    "goal": {
        "global_pose": {
            "orientation": {
                "w": 0.7047431493862688,
                "x": -0.7094548369677653,
                "y": 0.0024358444001904,
                "z": -0.0022348060817251984
            },
            "position": {
                "x": -0.39052492380142206,
                "y": 0.3671506643295288,
                "z": 0.19426114857196808
            }
        },
        "name": "move_to_magneteinheit_D"
    },
    "id": "ProjEST_move_to_magneteinheit_D_72",
    "joint_names": [
        "shoulder_pan_joint",
        "shoulder_lift_joint",
        "elbow_joint",
        "wrist_1_joint",
        "wrist_2_joint",
        "wrist_3_joint"
    ],
    "metrics": {
        "cart_traj_len": 4.654675317892597,
        "distance_elbow_joint": 3.756717185679828,
        "distance_shoulder_lift_joint": 1.6316335030242923,
        "distance_shoulder_pan_joint": 2.9316906203671333,
        "distance_wrist_1_joint": 5.0196677156093426,
        "distance_wrist_2_joint": 0.3130780967297159,
        "distance_wrist_3_joint": 3.1310276655974647,
        "smoothness": 0.27804656704820796,
        "time": 0.571865547,
        "traj_len": 4.0968054368016755,
        "weighted_distance": 5.32715833541127
    },
    "planner": "ProjEST",
    "start": {
        "state": {
            "elbow_joint": 0.7495348899011973,
            "shoulder_lift_joint": -0.6476975780737697,
            "shoulder_pan_joint": -2.711696901376276,
            "wrist_1_joint": -0.07506478080974305,
            "wrist_2_joint": 0.4329665971545858,
            "wrist_3_joint": 3.1361499051832524
        }
    },
    "waypoints": [
        {
            "positions": [
                -2.711696901376276,
                -0.6476975780737697,
                0.7495348899011973,
                -0.07506478080974305,
                0.4329665971545858,
                3.1361499051832524
            ]
        },
        {
            "positions": [
                -2.7272305943530566,
                -0.6637523993309952,
                0.781122074028997,
                -0.24008354086186923,
                0.4143696712641809,
                3.085769885837586
            ]
        },
        {
            "positions": [
                -2.7427642873298366,
                -0.6798072205882207,
                0.8127092581567967,
                -0.4051023009139954,
                0.39577274537377605,
                3.035389866491919
            ]
        },
        {
            "positions": [
                -2.758297980306617,
                -0.6958620418454462,
                0.8442964422845964,
                -0.5701210609661216,
                0.37717581948337114,
                2.9850098471462525
            ]
        },
        {
            "positions": [
                -2.772992910819527,
                -0.7199604765744064,
                0.883746515699052,
                -0.7817466437367591,
                0.35461741777300093,
                2.9040961043836666
            ]
        },
        {
            "positions": [
                -2.7789566225329883,
                -0.748461866984496,
                0.9198605512179935,
                -0.9842759471653793,
                0.33502939049640845,
                2.8013901617561925
            ]
        },
        {
            "positions": [
                -2.7849203342464497,
                -0.7769632573945857,
                0.9559745867369349,
                -1.1868052505939994,
                0.31544136321981603,
                2.6986842191287184
            ]
        },
        {
            "positions": [
                -2.7908840459599116,
                -0.8054646478046753,
                0.9920886222558762,
                -1.3893345540226196,
                0.29585333594322355,
                2.5959782765012447
            ]
        },
        {
            "positions": [
                -2.796847757673373,
                -0.833966038214765,
                1.0282026577748178,
                -1.5918638574512398,
                0.2762653086666311,
                2.4932723338737706
            ]
        },
        {
            "positions": [
                -2.8028114693868345,
                -0.8624674286248546,
                1.064316693293759,
                -1.7943931608798598,
                0.25667728139003865,
                2.3905663912462964
            ]
        },
        {
            "positions": [
                -2.7176181058656175,
                -0.905548581133846,
                0.9779538970858436,
                -1.6999258085512567,
                0.25332435002575904,
                2.3166012252452153
            ]
        },
        {
            "positions": [
                -2.6324247423444005,
                -0.9486297336428373,
                0.891591100877928,
                -1.605458456222654,
                0.2499714186614794,
                2.242636059244134
            ]
        },
        {
            "positions": [
                -2.5472313788231835,
                -0.9917108861518287,
                0.8052283046700126,
                -1.510991103894051,
                0.24661848729719976,
                2.1686708932430534
            ]
        },
        {
            "positions": [
                -2.4620380153019665,
                -1.03479203866082,
                0.718865508462097,
                -1.4165237515654479,
                0.24326555593292012,
                2.0947057272419722
            ]
        },
        {
            "positions": [
                -2.3768446517807496,
                -1.0778731911698114,
                0.6325027122541815,
                -1.322056399236845,
                0.2399126245686405,
                2.020740561240891
            ]
        },
        {
            "positions": [
                -2.2916512882595326,
                -1.1209543436788025,
                0.546139916046266,
                -1.227589046908242,
                0.23655969320436088,
                1.9467753952398101
            ]
        },
        {
            "positions": [
                -2.2064579247383156,
                -1.164035496187794,
                0.45977711983835046,
                -1.1331216945796392,
                0.23320676184008124,
                1.8728102292387292
            ]
        },
        {
            "positions": [
                -2.1212645612170986,
                -1.2071166486967853,
                0.3734143236304349,
                -1.0386543422510361,
                0.2298538304758016,
                1.798845063237648
            ]
        },
        {
            "positions": [
                -2.0360711976958816,
                -1.2501978012057766,
                0.2870515274225194,
                -0.9441869899224332,
                0.226500899111522,
                1.7248798972365669
            ]
        },
        {
            "positions": [
                -1.9508778341746649,
                -1.293278953714768,
                0.20068873121460384,
                -0.8497196375938303,
                0.22314796774724235,
                1.650914731235486
            ]
        },
        {
            "positions": [
                -1.8656844706534481,
                -1.3363601062237593,
                0.1143259350066883,
                -0.7552522852652273,
                0.21979503638296272,
                1.576949565234405
            ]
        },
        {
            "positions": [
                -1.7804911071322311,
                -1.3794412587327507,
                0.02796313879877288,
                -0.6607849329366242,
                0.2164421050186831,
                1.5029843992333238
            ]
        },
        {
            "positions": [
                -1.6952977436110142,
                -1.422522411241742,
                -0.05839965740914277,
                -0.5663175806080214,
                0.21308917365440347,
                1.4290192332322427
            ]
        },
        {
            "positions": [
                -1.6101043800897972,
                -1.4656035637507334,
                -0.1447624536170582,
                -0.47185022827941836,
                0.20973624229012383,
                1.3550540672311617
            ]
        },
        {
            "positions": [
                -1.5249110165685802,
                -1.5086847162597246,
                -0.23112524982497384,
                -0.37738287595081554,
                0.20638331092584422,
                1.2810889012300808
            ]
        },
        {
            "positions": [
                -1.4397176530473632,
                -1.5517658687687161,
                -0.31748804603288927,
                -0.2829155236222125,
                0.20303037956156458,
                1.2071237352289996
            ]
        },
        {
            "positions": [
                -1.3545242895261462,
                -1.5948470212777073,
                -0.4038508422408047,
                -0.18844817129360947,
                0.19967744819728495,
                1.1331585692279185
            ]
        },
        {
            "positions": [
                -1.2693309260049292,
                -1.6379281737866989,
                -0.49021363844872035,
                -0.09398081896500665,
                0.19632451683300534,
                1.0591934032268375
            ]
        },
        {
            "positions": [
                -1.1841375624837123,
                -1.68100932629569,
                -0.5765764346566358,
                0.00048653336359638644,
                0.1929715854687257,
                0.9852282372257566
            ]
        },
        {
            "positions": [
                -1.0989441989624953,
                -1.7240904788046814,
                -0.6629392308645514,
                0.0949538856921992,
                0.18961865410444606,
                0.9112630712246754
            ]
        },
        {
            "positions": [
                -1.0137508354412785,
                -1.7671716313136727,
                -0.7493020270724668,
                0.18942123802080224,
                0.18626572274016645,
                0.8372979052235943
            ]
        },
        {
            "positions": [
                -0.9285574719200616,
                -1.810252783822664,
                -0.8356648232803825,
                0.2838885903494053,
                0.1829127913758868,
                0.7633327392225133
            ]
        },
        {
            "positions": [
                -0.8433641083988446,
                -1.8533339363316554,
                -0.9220276194882979,
                0.3783559426780083,
                0.17955986001160718,
                0.6893675732214324
            ]
        },
        {
            "positions": [
                -0.7581707448776278,
                -1.8964150888406468,
                -1.0083904156962133,
                0.47282329500661135,
                0.17620692864732757,
                0.6154024072203512
            ]
        },
        {
            "positions": [
                -0.6729773813564108,
                -1.9394962413496382,
                -1.0947532119041288,
                0.567290647335214,
                0.17285399728304793,
                0.5414372412192701
            ]
        },
        {
            "positions": [
                -0.5877840178351939,
                -1.9825773938586295,
                -1.1811160081120446,
                0.661757999663817,
                0.1695010659187683,
                0.4674720752181891
            ]
        },
        {
            "positions": [
                -0.5025906543139769,
                -2.0256585463676204,
                -1.26747880431996,
                0.75622535199242,
                0.16614813455448868,
                0.3935069092171082
            ]
        },
        {
            "positions": [
                -0.4173972907927599,
                -2.068739698876612,
                -1.3538416005278755,
                0.8506927043210231,
                0.16279520319020904,
                0.319541743216027
            ]
        },
        {
            "positions": [
                -0.3322039272715429,
                -2.1118208513856036,
                -1.440204396735791,
                0.9451600566496261,
                0.1594422718259294,
                0.24557657721494586
            ]
        },
        {
            "positions": [
                -0.24701056375032593,
                -2.1549020038945947,
                -1.5265671929437068,
                1.0396274089782287,
                0.1560893404616498,
                0.17161141121386514
            ]
        },
        {
            "positions": [
                -0.16181720022910895,
                -2.197983156403586,
                -1.6129299891516222,
                1.1340947613068317,
                0.15273640909737013,
                0.09764624521278398
            ]
        },
        {
            "positions": [
                -0.07662383670789175,
                -2.2410643089125775,
                -1.6992927853595376,
                1.228562113635435,
                0.14938347773309052,
                0.023681079211702857
            ]
        },
        {
            "positions": [
                -0.07381211605625167,
                -2.2696705982797516,
                -1.9319122318524018,
                1.334269365450897,
                0.15123545939711097,
                0.010537243755453285
            ]
        },
        {
            "positions": [
                -0.12960046556924787,
                -2.2745008396889066,
                -2.1547654604229542,
                1.4201077700551308,
                0.16505695721921115,
                0.01324474584028657
            ]
        },
        {
            "positions": [
                -0.18538881508224406,
                -2.279331081098062,
                -2.377618688993507,
                1.5059461746593645,
                0.17887845504131134,
                0.015952247925119855
            ]
        }
    ]
}