{
    "goal": {
        "global_pose": {
            "orientation": {
                "w": 0.5084816217422485,
                "x": -0.49083608388900757,
                "y": 0.5182115435600281,
                "z": -0.4816462993621826
            },
            "position": {
                "x": 0.5540239810943604,
                "y": 0.030875300988554955,
                "z": 0.16403168439865112
            }
        },
        "name": "move_to_storage_A"
    },
    "id": "ProjEST_move_to_storage_A_83",
    "joint_names": [
        "shoulder_pan_joint",
        "shoulder_lift_joint",
        "elbow_joint",
        "wrist_1_joint",
        "wrist_2_joint",
        "wrist_3_joint"
    ],
    "metrics": {
        "cart_traj_len": 0.35319637950377814,
        "distance_elbow_joint": 0.45181634365600143,
        "distance_shoulder_lift_joint": 0.23209303646180568,
        "distance_shoulder_pan_joint": 0.462687376515395,
        "distance_wrist_1_joint": 0.25349953876492204,
        "distance_wrist_2_joint": 1.0945385595688069,
        "distance_wrist_3_joint": 0.1083391111251033,
        "smoothness": 1.776356832919533e-15,
        "time": 0.070057585,
        "traj_len": 1.6133734738404604,
        "weighted_distance": 2.0414921715931142
    },
    "planner": "ProjEST",
    "start": {
        "state": {
            "elbow_joint": 1.9715474177455299,
            "shoulder_lift_joint": -1.139484666580328,
            "shoulder_pan_joint": 0.12281154398918248,
            "wrist_1_joint": -0.7804687475355282,
            "wrist_2_joint": 0.12958649657246987,
            "wrist_3_joint": -3.1924925159053466
        }
    },
    "waypoints": [
        {
            "positions": [
                0.12281154398918248,
                -1.139484666580328,
                1.9715474177455299,
                -0.7804687475355282,
                0.12958649657246987,
                -3.1924925159053466
            ]
        },
        {
            "positions": [
                0.05671334734412606,
                -1.1726408146463003,
                2.036092609696387,
                -0.8166829673590885,
                0.28594914793944226,
                -3.1770155000303317
            ]
        },
        {
            "positions": [
                -0.009384849300930365,
                -1.2057969627122724,
                2.1006378016472445,
                -0.8528971871826487,
                0.4423117993064146,
                -3.161538484155317
            ]
        },
        {
            "positions": [
                -0.07548304594598679,
                -1.2389531107782448,
                2.1651829935981017,
                -0.889111407006209,
                0.5986744506733871,
                -3.146061468280302
            ]
        },
        {
            "positions": [
                -0.1415812425910432,
                -1.2721092588442169,
                2.229728185548959,
                -0.9253256268297694,
                0.7550371020403595,
                -3.1305844524052877
            ]
        },
        {
            "positions": [
                -0.20767943923609966,
                -1.3052654069101892,
                2.2942733774998167,
                -0.9615398466533296,
                0.9113997534073319,
                -3.115107436530273
            ]
        },
        {
            "positions": [
                -0.27377763588115606,
                -1.3384215549761613,
                2.358818569450674,
                -0.9977540664768899,
                1.0677624047743042,
                -3.099630420655258
            ]
        },
        {
            "positions": [
                -0.3398758325262125,
                -1.3715777030421337,
                2.4233637614015313,
                -1.0339682863004502,
                1.2241250561412766,
                -3.0841534047802432
            ]
        }
    ]
}