{
    "goal": {
        "global_pose": {
            "orientation": {
                "w": -0.00223480608172531,
                "x": 0.0024358444001904467,
                "y": 0.7094548369677653,
                "z": -0.704743149386269
            },
            "position": {
                "x": 0.6205249238014221,
                "y": -0.6371506643295288,
                "z": 0.19426114857196808
            }
        },
        "name": "move_to_magneteinheit_B"
    },
    "id": "ProjEST_move_to_magneteinheit_B_145",
    "joint_names": [
        "shoulder_pan_joint",
        "shoulder_lift_joint",
        "elbow_joint",
        "wrist_1_joint",
        "wrist_2_joint",
        "wrist_3_joint"
    ],
    "metrics": {
        "cart_traj_len": 3.8853928410091707,
        "distance_elbow_joint": 4.063822147344279,
        "distance_shoulder_lift_joint": 1.830759579363075,
        "distance_shoulder_pan_joint": 3.1433273574034803,
        "distance_wrist_1_joint": 1.4444468175036196,
        "distance_wrist_2_joint": 2.893950341048557,
        "distance_wrist_3_joint": 5.389558065763,
        "smoothness": 0.47865379127988494,
        "time": 1.684206696,
        "traj_len": 4.331958484153099,
        "weighted_distance": 5.820943016256403
    },
    "planner": "ProjEST",
    "start": {
        "state": {
            "elbow_joint": 2.3935871308073637,
            "shoulder_lift_joint": -1.9085141043777403,
            "shoulder_pan_joint": 0.7066247067284167,
            "wrist_1_joint": -0.46782909355067076,
            "wrist_2_joint": 0.7096259085804283,
            "wrist_3_joint": -3.1358149275257428
        }
    },
    "waypoints": [
        {
            "positions": [
                0.7066247067284167,
                -1.9085141043777403,
                2.3935871308073637,
                -0.46782909355067076,
                0.7096259085804283,
                -3.1358149275257428
            ]
        },
        {
            "positions": [
                0.6124670654412844,
                -1.8899620355673052,
                2.3727492786702924,
                -0.3191964297366461,
                0.6704077126331489,
                -3.0850191655907584
            ]
        },
        {
            "positions": [
                0.5183094241541522,
                -1.87140996675687,
                2.3519114265332206,
                -0.1705637659226214,
                0.6311895166858695,
                -3.0342234036557745
            ]
        },
        {
            "positions": [
                0.4241517828670198,
                -1.852857897946435,
                2.3310735743961493,
                -0.021931102108596723,
                0.5919713207385902,
                -2.98342764172079
            ]
        },
        {
            "positions": [
                0.4592701867256629,
                -1.8307125966659743,
                2.209116364062159,
                -0.018050360293385324,
                0.5417203827134325,
                -2.8248118549429413
            ]
        },
        {
            "positions": [
                0.49438859058430595,
                -1.8085672953855136,
                2.087159153728169,
                -0.014169618478173924,
                0.49146944468827475,
                -2.6661960681650925
            ]
        },
        {
            "positions": [
                0.529506994442949,
                -1.786421994105053,
                1.965201943394179,
                -0.010288876662962526,
                0.44121850666311707,
                -2.507580281387243
            ]
        },
        {
            "positions": [
                0.5646253983015921,
                -1.7642766928245923,
                1.8432447330601889,
                -0.006408134847751126,
                0.39096756863795934,
                -2.3489644946093944
            ]
        },
        {
            "positions": [
                0.5997438021602352,
                -1.7421313915441317,
                1.7212875227261988,
                -0.002527393032539727,
                0.34071663061280166,
                -2.1903487078315456
            ]
        },
        {
            "positions": [
                0.6348622060188782,
                -1.719986090263671,
                1.5993303123922087,
                0.0013533487826716713,
                0.290465692587644,
                -2.0317329210536963
            ]
        },
        {
            "positions": [
                0.6699806098775212,
                -1.6978407889832106,
                1.4773731020582186,
                0.00523409059788307,
                0.2402147545624863,
                -1.8731171342758477
            ]
        },
        {
            "positions": [
                0.7050990137361643,
                -1.67569548770275,
                1.3554158917242285,
                0.009114832413094472,
                0.18996381653732858,
                -1.7145013474979987
            ]
        },
        {
            "positions": [
                0.7402174175948073,
                -1.6535501864222892,
                1.2334586813902384,
                0.01299557422830587,
                0.1397128785121709,
                -1.5558855607201498
            ]
        },
        {
            "positions": [
                0.7753358214534505,
                -1.6314048851418286,
                1.1115014710562483,
                0.01687631604351727,
                0.08946194048701317,
                -1.3972697739423008
            ]
        },
        {
            "positions": [
                0.8104542253120934,
                -1.609259583861368,
                0.9895442607222582,
                0.020757057858728667,
                0.03921100246185549,
                -1.238653987164452
            ]
        },
        {
            "positions": [
                0.8455726291707366,
                -1.5871142825809073,
                0.8675870503882681,
                0.024637799673940065,
                -0.011039935563302183,
                -1.080038200386603
            ]
        },
        {
            "positions": [
                0.8806910330293796,
                -1.5649689813004466,
                0.745629840054278,
                0.028518541489151464,
                -0.06129087358845986,
                -0.9214224136087541
            ]
        },
        {
            "positions": [
                0.9158094368880225,
                -1.542823680019986,
                0.6236726297202879,
                0.03239928330436286,
                -0.11154181161361754,
                -0.7628066268309053
            ]
        },
        {
            "positions": [
                0.9509278407466656,
                -1.5206783787395253,
                0.501715419386298,
                0.036280025119574254,
                -0.1617927496387752,
                -0.6041908400530565
            ]
        },
        {
            "positions": [
                0.9860462446053088,
                -1.4985330774590646,
                0.3797582090523077,
                0.040160766934785666,
                -0.212043687663933,
                -0.4455750532752072
            ]
        },
        {
            "positions": [
                1.0211646484639518,
                -1.476387776178604,
                0.2578009987183174,
                0.04404150874999706,
                -0.2622946256890907,
                -0.28695926649735837
            ]
        },
        {
            "positions": [
                1.0562830523225948,
                -1.4542424748981433,
                0.13584378838432754,
                0.04792225056520846,
                -0.31254556371424835,
                -0.12834347971950955
            ]
        },
        {
            "positions": [
                1.091401456181238,
                -1.4320971736176826,
                0.013886578050337661,
                0.051802992380419854,
                -0.3627965017394059,
                0.030272307058339276
            ]
        },
        {
            "positions": [
                1.1265198600398811,
                -1.409951872337222,
                -0.10807063228365266,
                0.05568373419563126,
                -0.4130474397645638,
                0.18888809383618854
            ]
        },
        {
            "positions": [
                1.161638263898524,
                -1.3878065710567613,
                -0.23002784261764297,
                0.05956447601084265,
                -0.4632983777897215,
                0.34750388061403736
            ]
        },
        {
            "positions": [
                1.196756667757167,
                -1.3656612697763009,
                -0.35198505295163285,
                0.06344521782605406,
                -0.5135493158148792,
                0.5061196673918862
            ]
        },
        {
            "positions": [
                1.2318750716158102,
                -1.3435159684958402,
                -0.4739422632856227,
                0.06732595964126545,
                -0.5638002538400368,
                0.664735454169735
            ]
        },
        {
            "positions": [
                1.2669934754744534,
                -1.3213706672153793,
                -0.595899473619613,
                0.07120670145647685,
                -0.6140511918651945,
                0.8233512409475843
            ]
        },
        {
            "positions": [
                1.3021118793330961,
                -1.2992253659349189,
                -0.7178566839536034,
                0.07508744327168826,
                -0.6643021298903522,
                0.9819670277254331
            ]
        },
        {
            "positions": [
                1.3372302831917393,
                -1.2770800646544582,
                -0.8398138942875933,
                0.07896818508689965,
                -0.7145530679155099,
                1.140582814503282
            ]
        },
        {
            "positions": [
                1.4394548262929345,
                -1.3291137481759094,
                -0.8810494339225201,
                0.12486355117014022,
                -0.6313006406055034,
                1.0916864236616688
            ]
        },
        {
            "positions": [
                1.54167936939413,
                -1.3811474316973609,
                -0.9222849735574469,
                0.17075891725338077,
                -0.548048213295497,
                1.0427900328200554
            ]
        },
        {
            "positions": [
                1.6439039124953254,
                -1.433181115218812,
                -0.9635205131923736,
                0.21665428333662134,
                -0.46479578598549054,
                0.9938936419784423
            ]
        },
        {
            "positions": [
                1.7461284555965206,
                -1.4852147987402633,
                -1.0047560528273005,
                0.2625496494198619,
                -0.3815433586754841,
                0.944997251136829
            ]
        },
        {
            "positions": [
                1.8483529986977159,
                -1.5372484822617145,
                -1.0459915924622272,
                0.3084450155031025,
                -0.2982909313654777,
                0.8961008602952159
            ]
        },
        {
            "positions": [
                1.9505775417989113,
                -1.589282165783166,
                -1.087227132097154,
                0.35434038158634307,
                -0.2150385040554712,
                0.8472044694536026
            ]
        },
        {
            "positions": [
                2.0528020849001067,
                -1.6413158493046172,
                -1.128462671732081,
                0.4002357476695836,
                -0.13178607674546483,
                0.7983080786119894
            ]
        },
        {
            "positions": [
                2.155026628001302,
                -1.6933495328260686,
                -1.1696982113670076,
                0.4461311137528242,
                -0.04853364943545835,
                0.7494116877703761
            ]
        },
        {
            "positions": [
                2.257251171102497,
                -1.7453832163475198,
                -1.2109337510019345,
                0.49202647983606473,
                0.034718777874548135,
                0.7005152969287629
            ]
        },
        {
            "positions": [
                2.3594757142036924,
                -1.797416899868971,
                -1.252169290636861,
                0.5379218459193054,
                0.1179712051845545,
                0.6516189060871497
            ]
        },
        {
            "positions": [
                2.461700257304888,
                -1.8494505833904222,
                -1.293404830271788,
                0.5838172120025459,
                0.201223632494561,
                0.6027225152455364
            ]
        },
        {
            "positions": [
                2.5639248004060833,
                -1.9014842669118737,
                -1.3346403699067149,
                0.6297125780857864,
                0.28447605980456747,
                0.5538261244039233
            ]
        },
        {
            "positions": [
                2.6661493435072785,
                -1.9535179504333249,
                -1.3758759095416415,
                0.675607944169027,
                0.36772848711457384,
                0.5049297335623101
            ]
        },
        {
            "positions": [
                2.768373886608474,
                -2.0055516339547763,
                -1.4171114491765684,
                0.7215033102522675,
                0.4509809144245802,
                0.45603334272069684
            ]
        },
        {
            "positions": [
                2.8705984297096694,
                -2.0575853174762275,
                -1.458346988811495,
                0.7673986763355082,
                0.5342333417345868,
                0.4071369518790836
            ]
        },
        {
            "positions": [
                2.9728229728108646,
                -2.1096190009976787,
                -1.499582528446422,
                0.8132940424187487,
                0.6174857690445932,
                0.3582405610374704
            ]
        },
        {
            "positions": [
                2.894777161911305,
                -2.201315651821822,
                -1.5422456504690454,
                0.8541249628022988,
                0.583052637146464,
                0.27553604347043
            ]
        },
        {
            "positions": [
                2.8167313510117453,
                -2.2930123026459652,
                -1.5849087724916688,
                0.8949558831858488,
                0.5486195052483349,
                0.19283152590338962
            ]
        },
        {
            "positions": [
                2.7386855401121855,
                -2.384708953470108,
                -1.627571894514292,
                0.935786803569399,
                0.5141863733502058,
                0.11012700833634925
            ]
        },
        {
            "positions": [
                2.660639729212626,
                -2.4764056042942513,
                -1.6702350165369155,
                0.9766177239529491,
                0.47975324145207665,
                0.027422490769308874
            ]
        }
    ]
}