{
    "goal": {
        "global_pose": {
            "orientation": {
                "w": 0.7047431468963623,
                "x": -0.7094548344612122,
                "y": 0.0024358443915843964,
                "z": -0.0022348060738295317
            },
            "position": {
                "x": 0.6094750761985779,
                "y": 0.3671506643295288,
                "z": 0.19426114857196808
            }
        },
        "name": "move_to_magneteinheit_A"
    },
    "id": "ProjEST_move_to_magneteinheit_A_91",
    "joint_names": [
        "shoulder_pan_joint",
        "shoulder_lift_joint",
        "elbow_joint",
        "wrist_1_joint",
        "wrist_2_joint",
        "wrist_3_joint"
    ],
    "metrics": {
        "cart_traj_len": 1.0530240389667735,
        "distance_elbow_joint": 0.41040509759486077,
        "distance_shoulder_lift_joint": 0.3524229721736729,
        "distance_shoulder_pan_joint": 1.2409317053460573,
        "distance_wrist_1_joint": 2.333529680064432,
        "distance_wrist_2_joint": 1.7000242437188764,
        "distance_wrist_3_joint": 1.113353829971861,
        "smoothness": 8.88178426732994e-16,
        "time": 0.11389371300000001,
        "traj_len": 2.6740732093324895,
        "weighted_distance": 3.6620935423056564
    },
    "planner": "ProjEST",
    "start": {
        "state": {
            "elbow_joint": 1.5739458966750683,
            "shoulder_lift_joint": -1.4977259741207325,
            "shoulder_pan_joint": -1.1188672016454206,
            "wrist_1_joint": 1.494575848278785,
            "wrist_2_joint": -1.5706037134824402,
            "wrist_3_joint": -2.0226957942261072
        }
    },
    "waypoints": [
        {
            "positions": [
                -1.1188672016454206,
                -1.4977259741207325,
                1.5739458966750683,
                1.494575848278785,
                -1.5706037134824402,
                -2.0226957942261072
            ]
        },
        {
            "positions": [
                -1.053555006627207,
                -1.4791773966379076,
                1.5955461649695346,
                1.3717584966964464,
                -1.48112875328671,
                -2.081293364224626
            ]
        },
        {
            "positions": [
                -0.9882428116089935,
                -1.4606288191550827,
                1.617146433264001,
                1.248941145114108,
                -1.3916537930909796,
                -2.1398909342231454
            ]
        },
        {
            "positions": [
                -0.92293061659078,
                -1.4420802416722578,
                1.6387467015584674,
                1.1261237935317694,
                -1.3021788328952493,
                -2.198488504221664
            ]
        },
        {
            "positions": [
                -0.8576184215725664,
                -1.4235316641894329,
                1.6603469698529338,
                1.0033064419494309,
                -1.212703872699519,
                -2.257086074220183
            ]
        },
        {
            "positions": [
                -0.792306226554353,
                -1.404983086706608,
                1.6819472381474,
                0.8804890903670924,
                -1.1232289125037886,
                -2.3156836442187023
            ]
        },
        {
            "positions": [
                -0.7269940315361394,
                -1.386434509223783,
                1.7035475064418666,
                0.7576717387847539,
                -1.033753952308058,
                -2.374281214217221
            ]
        },
        {
            "positions": [
                -0.6616818365179258,
                -1.3678859317409582,
                1.7251477747363329,
                0.6348543872024154,
                -0.9442789921123279,
                -2.43287878421574
            ]
        },
        {
            "positions": [
                -0.5963696414997123,
                -1.3493373542581333,
                1.7467480430307991,
                0.5120370356200769,
                -0.8548040319165976,
                -2.4914763542142593
            ]
        },
        {
            "positions": [
                -0.5310574464814988,
                -1.3307887767753086,
                1.7683483113252656,
                0.38921968403773843,
                -0.7653290717208673,
                -2.550073924212778
            ]
        },
        {
            "positions": [
                -0.46574525146328527,
                -1.3122401992924837,
                1.7899485796197319,
                0.2664023324553999,
                -0.6758541115251369,
                -2.608671494211297
            ]
        },
        {
            "positions": [
                -0.40043305644507166,
                -1.2936916218096588,
                1.8115488479141983,
                0.14358498087306115,
                -0.5863791513294064,
                -2.6672690642098162
            ]
        },
        {
            "positions": [
                -0.33512086142685815,
                -1.275143044326834,
                1.8331491162086646,
                0.020767629290722844,
                -0.49690419113367623,
                -2.725866634208335
            ]
        },
        {
            "positions": [
                -0.26980866640864454,
                -1.256594466844009,
                1.854749384503131,
                -0.10204972229161591,
                -0.4074292309379457,
                -2.7844642042068544
            ]
        },
        {
            "positions": [
                -0.20449647139043103,
                -1.238045889361184,
                1.8763496527975974,
                -0.22486707387395422,
                -0.3179542707422156,
                -2.843061774205373
            ]
        },
        {
            "positions": [
                -0.13918427637221742,
                -1.2194973118783592,
                1.8979499210920636,
                -0.34768442545629274,
                -0.22847931054648507,
                -2.9016593442038925
            ]
        },
        {
            "positions": [
                -0.07387208135400392,
                -1.2009487343955343,
                1.91955018938653,
                -0.4705017770386313,
                -0.13900435035075498,
                -2.9602569142024113
            ]
        },
        {
            "positions": [
                -0.008559886335790301,
                -1.1824001569127094,
                1.9411504576809964,
                -0.5933191286209698,
                -0.049529390155024444,
                -3.01885448420093
            ]
        },
        {
            "positions": [
                0.05675230868242309,
                -1.1638515794298845,
                1.9627507259754626,
                -0.7161364802033081,
                0.03994557004070565,
                -3.0774520541994494
            ]
        },
        {
            "positions": [
                0.12206450370063669,
                -1.1453030019470596,
                1.9843509942699291,
                -0.8389538317856466,
                0.1294205302364362,
                -3.1360496241979683
            ]
        }
    ]
}