{
    "goal": {
        "global_pose": {
            "orientation": {
                "w": 0.5084816262002911,
                "x": -0.4908360881923452,
                "y": 0.5182115481033761,
                "z": -0.48164630358495003
            },
            "position": {
                "x": 0.5540239810943604,
                "y": -0.46912469901144505,
                "z": 0.16403168439865112
            }
        },
        "name": "move_to_storage_B"
    },
    "id": "ProjEST_move_to_storage_B_79",
    "joint_names": [
        "shoulder_pan_joint",
        "shoulder_lift_joint",
        "elbow_joint",
        "wrist_1_joint",
        "wrist_2_joint",
        "wrist_3_joint"
    ],
    "metrics": {
        "cart_traj_len": 2.207530241108787,
        "distance_elbow_joint": 0.47909932523167975,
        "distance_shoulder_lift_joint": 1.758157975230632,
        "distance_shoulder_pan_joint": 1.8623247379976036,
        "distance_wrist_1_joint": 2.989503593684622,
        "distance_wrist_2_joint": 2.7134302276381153,
        "distance_wrist_3_joint": 3.141643103629869,
        "smoothness": 0.23438810885168396,
        "time": 0.143295925,
        "traj_len": 3.597799183308113,
        "weighted_distance": 4.993033045353795
    },
    "planner": "ProjEST",
    "start": {
        "state": {
            "elbow_joint": 1.6649325706314817,
            "shoulder_lift_joint": -0.6616388048112454,
            "shoulder_pan_joint": -0.9139837860083814,
            "wrist_1_joint": 2.146757197745094,
            "wrist_2_joint": -2.234196043158733,
            "wrist_3_joint": 0.005471033829999897
        }
    },
    "waypoints": [
        {
            "positions": [
                -0.9139837860083814,
                -0.6616388048112454,
                1.6649325706314817,
                2.146757197745094,
                -2.234196043158733,
                0.005471033829999897
            ]
        },
        {
            "positions": [
                -0.857858072666183,
                -0.7793501979840295,
                1.6895258387835226,
                2.058965077623904,
                -2.1627391586059033,
                0.0076430728114435555
            ]
        },
        {
            "positions": [
                -0.8017323593239846,
                -0.8970615911568136,
                1.7141191069355635,
                1.9711729575027142,
                -2.091282274053074,
                0.009815111792887212
            ]
        },
        {
            "positions": [
                -0.7456066459817863,
                -1.0147729843295978,
                1.7387123750876043,
                1.883380837381524,
                -2.0198253895002445,
                0.011987150774330869
            ]
        },
        {
            "positions": [
                -0.6894809326395879,
                -1.132484377502382,
                1.7633056432396452,
                1.795588717260334,
                -1.948368504947415,
                0.014159189755774529
            ]
        },
        {
            "positions": [
                -0.6333552192973895,
                -1.250195770675166,
                1.787898911391686,
                1.707796597139144,
                -1.8769116203945857,
                0.016331228737218186
            ]
        },
        {
            "positions": [
                -0.5400541793986836,
                -1.3368286448817843,
                1.7772962906169194,
                1.5787030149275227,
                -1.8186900577624996,
                0.016153512490116057
            ]
        },
        {
            "positions": [
                -0.4467531394999777,
                -1.4234615190884026,
                1.766693669842153,
                1.4496094327159017,
                -1.7604684951304137,
                0.01597579624301393
            ]
        },
        {
            "positions": [
                -0.3534520996012718,
                -1.5100943932950208,
                1.7560910490673862,
                1.3205158505042804,
                -1.7022469324983276,
                0.015798079995911804
            ]
        },
        {
            "positions": [
                -0.2601510597025659,
                -1.596727267501639,
                1.7454884282926195,
                1.1914222682926594,
                -1.6440253698662415,
                0.015620363748809676
            ]
        },
        {
            "positions": [
                -0.16685001980385994,
                -1.6833601417082573,
                1.734885807517853,
                1.0623286860810381,
                -1.5858038072341554,
                0.015442647501707547
            ]
        },
        {
            "positions": [
                -0.07354897990515402,
                -1.7699930159148756,
                1.7242831867430863,
                0.9332351038694169,
                -1.5275822446020695,
                0.01526493125460542
            ]
        },
        {
            "positions": [
                -0.11797897694403991,
                -1.7417406783441363,
                1.7370013284745156,
                0.8560185169212019,
                -1.4403293563811368,
                0.1513395665259114
            ]
        },
        {
            "positions": [
                -0.1624089739829258,
                -1.7134883407733972,
                1.749719470205945,
                0.7788019299729869,
                -1.353076468160204,
                0.2874142017972174
            ]
        },
        {
            "positions": [
                -0.2068389710218117,
                -1.6852360032026579,
                1.7624376119373744,
                0.7015853430247719,
                -1.2658235799392714,
                0.4234888370685234
            ]
        },
        {
            "positions": [
                -0.25126896806069754,
                -1.6569836656319188,
                1.7751557536688038,
                0.624368756076557,
                -1.1785706917183387,
                0.5595634723398293
            ]
        },
        {
            "positions": [
                -0.2956989650995835,
                -1.6287313280611795,
                1.7878738954002331,
                0.5471521691283421,
                -1.091317803497406,
                0.6956381076111353
            ]
        },
        {
            "positions": [
                -0.3401289621384694,
                -1.6004789904904404,
                1.8005920371316626,
                0.46993558218012704,
                -1.0040649152764733,
                0.8317127428824413
            ]
        },
        {
            "positions": [
                -0.3845589591773553,
                -1.572226652919701,
                1.8133101788630919,
                0.392718995231912,
                -0.9168120270555404,
                0.9677873781537474
            ]
        },
        {
            "positions": [
                -0.4289889562162411,
                -1.543974315348962,
                1.8260283205945214,
                0.31550240828369713,
                -0.8295591388346079,
                1.1038620134250532
            ]
        },
        {
            "positions": [
                -0.47341895325512706,
                -1.5157219777782227,
                1.8387464623259506,
                0.23828582133548204,
                -0.7423062506136751,
                1.2399366486963594
            ]
        },
        {
            "positions": [
                -0.5178489502940129,
                -1.4874696402074834,
                1.8514646040573801,
                0.16106923438726717,
                -0.6550533623927424,
                1.3760112839676653
            ]
        },
        {
            "positions": [
                -0.5622789473328988,
                -1.4592173026367443,
                1.8641827457888094,
                0.08385264743905207,
                -0.5678004741718097,
                1.5120859192389713
            ]
        },
        {
            "positions": [
                -0.6067089443717848,
                -1.430964965066005,
                1.8769008875202389,
                0.006636060490837203,
                -0.480547585950877,
                1.6481605545102773
            ]
        },
        {
            "positions": [
                -0.6511389414106705,
                -1.402712627495266,
                1.8896190292516681,
                -0.07058052645737778,
                -0.3932946977299443,
                1.7842351897815831
            ]
        },
        {
            "positions": [
                -0.6955689384495565,
                -1.3744602899245266,
                1.9023371709830976,
                -0.14779711340559287,
                -0.3060418095090114,
                1.9203098250528894
            ]
        },
        {
            "positions": [
                -0.7399989354884424,
                -1.3462079523537875,
                1.915055312714527,
                -0.22501370035380774,
                -0.21878892128807892,
                2.0563844603241956
            ]
        },
        {
            "positions": [
                -0.7844289325273281,
                -1.3179556147830482,
                1.9277734544459564,
                -0.3022302873020226,
                -0.13153603306714623,
                2.1924590955955012
            ]
        },
        {
            "positions": [
                -0.8288589295662141,
                -1.289703277212309,
                1.9404915961773856,
                -0.3794468742502377,
                -0.04428314484621354,
                2.3285337308668073
            ]
        },
        {
            "positions": [
                -0.8732889266051,
                -1.2614509396415698,
                1.9532097379088151,
                -0.4566634611984528,
                0.04296974337471937,
                2.4646083661381137
            ]
        },
        {
            "positions": [
                -0.917718923643986,
                -1.2331986020708305,
                1.9659278796402444,
                -0.5338800481466677,
                0.13022263159565206,
                2.6006830014094193
            ]
        },
        {
            "positions": [
                -0.9621489206828717,
                -1.2049462645000915,
                1.9786460213716737,
                -0.6110966350948825,
                0.21747551981658475,
                2.7367576366807254
            ]
        },
        {
            "positions": [
                -1.0065789177217577,
                -1.1766939269293522,
                1.9913641631031032,
                -0.6883132220430976,
                0.3047284080375172,
                2.8728322719520314
            ]
        },
        {
            "positions": [
                -1.0510089147606436,
                -1.148441589358613,
                2.0040823048345326,
                -0.7655298089913127,
                0.39198129625845013,
                3.0089069072233374
            ]
        },
        {
            "positions": [
                -1.0954389117995296,
                -1.1201892517878738,
                2.016800446565962,
                -0.8427463959395276,
                0.47923418447938293,
                3.1449815424946435
            ]
        }
    ]
}