{
    "goal": {
        "global_pose": {
            "orientation": {
                "w": -0.4816463035849501,
                "x": 0.5182115481033762,
                "y": 0.4908360881923453,
                "z": -0.5084816262002911
            },
            "position": {
                "x": -0.8240239810943604,
                "y": -0.300875300988555,
                "z": 0.16403168439865112
            }
        },
        "name": "move_to_storage_C"
    },
    "id": "ProjEST_move_to_storage_C_85",
    "joint_names": [
        "shoulder_pan_joint",
        "shoulder_lift_joint",
        "elbow_joint",
        "wrist_1_joint",
        "wrist_2_joint",
        "wrist_3_joint"
    ],
    "metrics": {
        "cart_traj_len": 0.5763993452524614,
        "distance_elbow_joint": 0.2551342908505725,
        "distance_shoulder_lift_joint": 0.18909668849591488,
        "distance_shoulder_pan_joint": 0.49526660195196737,
        "distance_wrist_1_joint": 0.07028709920865728,
        "distance_wrist_2_joint": 1.064204882648994,
        "distance_wrist_3_joint": 0.06857687553252356,
        "smoothness": 0.0,
        "time": 0.087104553,
        "traj_len": 1.4637508116782136,
        "weighted_distance": 1.8477586886851127
    },
    "planner": "ProjEST",
    "start": {
        "state": {
            "elbow_joint": 2.010868315001653,
            "shoulder_lift_joint": -1.1634956873357014,
            "shoulder_pan_joint": -2.4736205022346103,
            "wrist_1_joint": -0.8367026794713948,
            "wrist_2_joint": 0.6746043897044093,
            "wrist_3_joint": 3.1335220948105738
        }
    },
    "waypoints": [
        {
            "positions": [
                -2.4736205022346103,
                -1.1634956873357014,
                2.010868315001653,
                -0.8367026794713948,
                0.6746043897044093,
                3.1335220948105738
            ]
        },
        {
            "positions": [
                -2.5561649358932717,
                -1.1319795725863822,
                1.9683459331932243,
                -0.8249881629366186,
                0.8519718701459082,
                3.1449515740659946
            ]
        },
        {
            "positions": [
                -2.6387093695519326,
                -1.1004634578370631,
                1.9258235513847957,
                -0.8132736464018423,
                1.0293393505874073,
                3.156381053321415
            ]
        },
        {
            "positions": [
                -2.721253803210594,
                -1.068947343087744,
                1.8833011695763668,
                -0.8015591298670661,
                1.2067068310289062,
                3.1678105325768353
            ]
        },
        {
            "positions": [
                -2.8037982368692553,
                -1.0374312283384248,
                1.840778787767938,
                -0.78984461333229,
                1.3840743114704053,
                3.179240011832256
            ]
        },
        {
            "positions": [
                -2.8863426705279163,
                -1.0059151135891056,
                1.7982564059595094,
                -0.7781300967975137,
                1.5614417919119044,
                3.190669491087677
            ]
        },
        {
            "positions": [
                -2.9688871041865776,
                -0.9743989988397865,
                1.7557340241510806,
                -0.7664155802627375,
                1.7388092723534032,
                3.2020989703430973
            ]
        }
    ]
}