{
    "goal": {
        "global_pose": {
            "orientation": {
                "w": 0.7047431493862688,
                "x": -0.7094548369677653,
                "y": 0.0024358444001904,
                "z": -0.0022348060817251984
            },
            "position": {
                "x": -0.39052492380142206,
                "y": 0.3671506643295288,
                "z": 0.19426114857196808
            }
        },
        "name": "move_to_magneteinheit_D"
    },
    "id": "ProjEST_move_to_magneteinheit_D_17",
    "joint_names": [
        "shoulder_pan_joint",
        "shoulder_lift_joint",
        "elbow_joint",
        "wrist_1_joint",
        "wrist_2_joint",
        "wrist_3_joint"
    ],
    "metrics": {
        "cart_traj_len": 4.165942844742284,
        "distance_elbow_joint": 3.147996261191878,
        "distance_shoulder_lift_joint": 1.625040537678741,
        "distance_shoulder_pan_joint": 3.065801108731737,
        "distance_wrist_1_joint": 1.5162693116199681,
        "distance_wrist_2_joint": 0.3554923047170533,
        "distance_wrist_3_joint": 3.073296380780285,
        "smoothness": 0.29272607286161634,
        "time": 0.604786553,
        "traj_len": 3.575457439925647,
        "weighted_distance": 4.5609483972763
    },
    "planner": "ProjEST",
    "start": {
        "state": {
            "elbow_joint": 0.7495348899011973,
            "shoulder_lift_joint": -0.6476975780737697,
            "shoulder_pan_joint": -2.711696901376276,
            "wrist_1_joint": -0.07506478080974305,
            "wrist_2_joint": 0.4329665971545858,
            "wrist_3_joint": 3.1361499051832524
        }
    },
    "waypoints": [
        {
            "positions": [
                -2.711696901376276,
                -0.6476975780737697,
                0.7495348899011973,
                -0.07506478080974305,
                0.4329665971545858,
                3.1361499051832524
            ]
        },
        {
            "positions": [
                -2.725044002020601,
                -0.7177981397095099,
                0.7278853885288188,
                -0.0050911142944742825,
                0.40700946548432715,
                2.9803381905705884
            ]
        },
        {
            "positions": [
                -2.6805388476949537,
                -0.8361753926527306,
                0.6263047198720257,
                0.03576832200754754,
                0.46149227868305576,
                2.996236096039636
            ]
        },
        {
            "positions": [
                -2.578687812567505,
                -0.8749301008197734,
                0.5235452262129413,
                0.06696298099968112,
                0.4591518790394118,
                2.888180269525417
            ]
        },
        {
            "positions": [
                -2.476836777440056,
                -0.9136848089868163,
                0.42078573255385676,
                0.0981576399918147,
                0.4568114793957678,
                2.780124443011198
            ]
        },
        {
            "positions": [
                -2.374985742312607,
                -0.9524395171538591,
                0.31802623889477233,
                0.1293522989839483,
                0.45447107975212386,
                2.672068616496979
            ]
        },
        {
            "positions": [
                -2.273134707185158,
                -0.991194225320902,
                0.21526674523568784,
                0.16054695797608187,
                0.45213068010847984,
                2.56401278998276
            ]
        },
        {
            "positions": [
                -2.1712836720577093,
                -1.0299489334879448,
                0.11250725157660335,
                0.19174161696821548,
                0.4497902804648359,
                2.455956963468541
            ]
        },
        {
            "positions": [
                -2.0694326369302605,
                -1.0687036416549878,
                0.009747757917518918,
                0.22293627596034907,
                0.4474498808211919,
                2.347901136954322
            ]
        },
        {
            "positions": [
                -1.9675816018028116,
                -1.1074583498220307,
                -0.09301173574156563,
                0.2541309349524827,
                0.44510948117754795,
                2.239845310440103
            ]
        },
        {
            "positions": [
                -1.8657305666753627,
                -1.1462130579890735,
                -0.19577122940065006,
                0.2853255939446162,
                0.442769081533904,
                2.131789483925884
            ]
        },
        {
            "positions": [
                -1.763879531547914,
                -1.1849677661561162,
                -0.2985307230597345,
                0.31652025293674985,
                0.44042868189026,
                2.023733657411665
            ]
        },
        {
            "positions": [
                -1.6620284964204652,
                -1.2237224743231592,
                -0.40129021671881904,
                0.34771491192888343,
                0.438088282246616,
                1.9156778308974463
            ]
        },
        {
            "positions": [
                -1.5601774612930164,
                -1.2624771824902021,
                -0.5040497103779036,
                0.378909570921017,
                0.43574788260297204,
                1.8076220043832272
            ]
        },
        {
            "positions": [
                -1.4583264261655675,
                -1.3012318906572449,
                -0.6068092040369879,
                0.4101042299131506,
                0.43340748295932807,
                1.6995661778690083
            ]
        },
        {
            "positions": [
                -1.3564753910381186,
                -1.3399865988242876,
                -0.7095686976960724,
                0.4412988889052842,
                0.4310670833156841,
                1.5915103513547892
            ]
        },
        {
            "positions": [
                -1.2546243559106698,
                -1.3787413069913308,
                -0.812328191355157,
                0.4724935478974178,
                0.42872668367204014,
                1.4834545248405702
            ]
        },
        {
            "positions": [
                -1.152773320783221,
                -1.4174960151583735,
                -0.9150876850142413,
                0.5036882068895514,
                0.4263862840283962,
                1.3753986983263513
            ]
        },
        {
            "positions": [
                -1.050922285655772,
                -1.4562507233254163,
                -1.0178471786733259,
                0.5348828658816849,
                0.42404588438475216,
                1.2673428718121325
            ]
        },
        {
            "positions": [
                -0.9490712505283232,
                -1.4950054314924592,
                -1.1206066723324104,
                0.5660775248738186,
                0.4217054847411082,
                1.1592870452979134
            ]
        },
        {
            "positions": [
                -0.8472202154008746,
                -1.533760139659502,
                -1.2233661659914947,
                0.5972721838659522,
                0.41936508509746423,
                1.0512312187836945
            ]
        },
        {
            "positions": [
                -0.7453691802734255,
                -1.572514847826545,
                -1.3261256596505793,
                0.6284668428580857,
                0.41702468545382027,
                0.9431753922694757
            ]
        },
        {
            "positions": [
                -0.6435181451459768,
                -1.6112695559935877,
                -1.4288851533096638,
                0.6596615018502193,
                0.4146842858101763,
                0.8351195657552566
            ]
        },
        {
            "positions": [
                -0.541667110018528,
                -1.6500242641606304,
                -1.531644646968748,
                0.6908561608423529,
                0.41234388616653234,
                0.7270637392410375
            ]
        },
        {
            "positions": [
                -0.4398160748910791,
                -1.6887789723276736,
                -1.634404140627833,
                0.7220508198344865,
                0.4100034865228883,
                0.6190079127268184
            ]
        },
        {
            "positions": [
                -0.33796503976363024,
                -1.7275336804947163,
                -1.7371636342869174,
                0.7532454788266201,
                0.40766308687924435,
                0.5109520862125994
            ]
        },
        {
            "positions": [
                -0.23611400463618137,
                -1.766288388661759,
                -1.8399231279460015,
                0.7844401378187537,
                0.4053226872356004,
                0.4028962596983807
            ]
        },
        {
            "positions": [
                -0.13426296950873245,
                -1.805043096828802,
                -1.942682621605086,
                0.8156347968108872,
                0.4029822875919564,
                0.29484043318416175
            ]
        },
        {
            "positions": [
                -0.09322899544067242,
                -1.8697957130640008,
                -2.0127728421585047,
                0.9030227782244425,
                0.36607065149266516,
                0.2665984644308119
            ]
        },
        {
            "positions": [
                -0.052195021372612393,
                -1.9345483292991996,
                -2.0828630627119233,
                0.9904107596379979,
                0.3291590153933739,
                0.2383564956774621
            ]
        },
        {
            "positions": [
                -0.01116104730455239,
                -1.9993009455343982,
                -2.1529532832653424,
                1.077798741051553,
                0.2922473792940826,
                0.21011452692411225
            ]
        },
        {
            "positions": [
                0.029872926763507668,
                -2.064053561769597,
                -2.223043503818761,
                1.1651867224651085,
                0.2553357431947913,
                0.1818725581707624
            ]
        },
        {
            "positions": [
                0.07090690083156767,
                -2.1288061780047958,
                -2.2931337243721797,
                1.2525747038786637,
                0.21842410709550003,
                0.15363058941741256
            ]
        },
        {
            "positions": [
                -0.05734465178605405,
                -2.200772146878653,
                -2.34579754783143,
                1.3468896173444445,
                0.20243201296524485,
                0.12413996237923766
            ]
        },
        {
            "positions": [
                -0.1855962044036758,
                -2.2727381157525106,
                -2.3984613712906806,
                1.441204530810225,
                0.18643991883498967,
                0.09464933534106275
            ]
        }
    ]
}