{
    "goal": {
        "global_pose": {
            "orientation": {
                "w": 0.7031023502349854,
                "x": -0.7110244035720825,
                "y": 0.007748599164187908,
                "z": 0.005598929710686207
            },
            "position": {
                "x": 0.11585023208521307,
                "y": 0.44412534475326537,
                "z": 0.3711530566215515
            }
        },
        "name": "move_to_auspresseinheit_A"
    },
    "id": "ProjEST_move_to_auspresseinheit_A_128",
    "joint_names": [
        "shoulder_pan_joint",
        "shoulder_lift_joint",
        "elbow_joint",
        "wrist_1_joint",
        "wrist_2_joint",
        "wrist_3_joint"
    ],
    "metrics": {
        "cart_traj_len": 0.6740107210911565,
        "distance_elbow_joint": 0.4577933426955014,
        "distance_shoulder_lift_joint": 0.5372537273059466,
        "distance_shoulder_pan_joint": 1.04139524593817,
        "distance_wrist_1_joint": 1.3099101820067323,
        "distance_wrist_2_joint": 0.527378368134813,
        "distance_wrist_3_joint": 0.2507997695646278,
        "smoothness": 0.9852808321459303,
        "time": 0.18383983199999998,
        "traj_len": 2.0308940483554996,
        "weighted_distance": 2.542325456135896
    },
    "planner": "ProjEST",
    "start": {
        "state": {
            "elbow_joint": 2.4225747245308327,
            "shoulder_lift_joint": -1.373653427065438,
            "shoulder_pan_joint": -0.33786330853087027,
            "wrist_1_joint": -1.0288602302712604,
            "wrist_2_joint": 1.23302299562683,
            "wrist_3_joint": -3.094021725338297
        }
    },
    "waypoints": [
        {
            "positions": [
                -0.33786330853087027,
                -1.373653427065438,
                2.4225747245308327,
                -1.0288602302712604,
                1.23302299562683,
                -3.094021725338297
            ]
        },
        {
            "positions": [
                -0.334012491522869,
                -1.4502161172795174,
                2.4585092399795476,
                -0.8737168652471456,
                1.1589733833931735,
                -3.0753409321080634
            ]
        },
        {
            "positions": [
                -0.3301616745148677,
                -1.5267788074935968,
                2.494443755428263,
                -0.718573500223031,
                1.084923771159517,
                -3.0566601388778296
            ]
        },
        {
            "positions": [
                -0.3263108575068664,
                -1.6033414977076763,
                2.530378270876978,
                -0.5634301351989163,
                1.0108741589258607,
                -3.037979345647596
            ]
        },
        {
            "positions": [
                -0.3224600404988651,
                -1.6799041879217556,
                2.566312786325693,
                -0.40828677017480164,
                0.9368245466922043,
                -3.0192985524173617
            ]
        },
        {
            "positions": [
                -0.31860922349086385,
                -1.756466878135835,
                2.6022473017744083,
                -0.2531434051506868,
                0.8627749344585478,
                -3.000617759187128
            ]
        },
        {
            "positions": [
                -0.3147584064828626,
                -1.8330295683499145,
                2.6381818172231233,
                -0.09800004012657215,
                0.7887253222248914,
                -2.981936965956894
            ]
        },
        {
            "positions": [
                -0.11110033770483008,
                -1.8486050855542084,
                2.589744567222481,
                -0.17381003849898097,
                0.7721091832783166,
                -3.0096799679935393
            ]
        },
        {
            "positions": [
                0.09255773107320242,
                -1.8641806027585024,
                2.541307317221839,
                -0.24962003687138978,
                0.7554930443317417,
                -3.037422970030184
            ]
        },
        {
            "positions": [
                0.2962157998512349,
                -1.8797561199627966,
                2.492870067221197,
                -0.32543003524379854,
                0.7388769053851667,
                -3.065165972066829
            ]
        },
        {
            "positions": [
                0.4998738686292674,
                -1.8953316371670905,
                2.4444328172205547,
                -0.4012400336162074,
                0.7222607664385918,
                -3.092908974103474
            ]
        },
        {
            "positions": [
                0.7035319374072998,
                -1.9109071543713845,
                2.3959955672199125,
                -0.4770500319886162,
                0.705644627492017,
                -3.120651976140119
            ]
        }
    ]
}