{
    "goal": {
        "global_pose": {
            "orientation": {
                "w": 0.7031023502349854,
                "x": -0.7110244035720825,
                "y": 0.007748599164187908,
                "z": 0.005598929710686207
            },
            "position": {
                "x": 0.11585023208521307,
                "y": 0.44412534475326537,
                "z": 0.3711530566215515
            }
        },
        "name": "move_to_auspresseinheit_A"
    },
    "id": "ProjEST_move_to_auspresseinheit_A_60",
    "joint_names": [
        "shoulder_pan_joint",
        "shoulder_lift_joint",
        "elbow_joint",
        "wrist_1_joint",
        "wrist_2_joint",
        "wrist_3_joint"
    ],
    "metrics": {
        "cart_traj_len": 0.8767509512296221,
        "distance_elbow_joint": 0.5094066666310906,
        "distance_shoulder_lift_joint": 0.5341571254923323,
        "distance_shoulder_pan_joint": 1.0460096537951888,
        "distance_wrist_1_joint": 0.9217403134323275,
        "distance_wrist_2_joint": 0.5127173470810115,
        "distance_wrist_3_joint": 2.43967755100588,
        "smoothness": 1.1140869836685645,
        "time": 0.6941118669999999,
        "traj_len": 2.442070567661351,
        "weighted_distance": 3.503929425653852
    },
    "planner": "ProjEST",
    "start": {
        "state": {
            "elbow_joint": 2.4225747245308327,
            "shoulder_lift_joint": -1.373653427065438,
            "shoulder_pan_joint": -0.33786330853087027,
            "wrist_1_joint": -1.0288602302712604,
            "wrist_2_joint": 1.23302299562683,
            "wrist_3_joint": -3.094021725338297
        }
    },
    "waypoints": [
        {
            "positions": [
                -0.33786330853087027,
                -1.373653427065438,
                2.4225747245308327,
                -1.0288602302712604,
                1.23302299562683,
                -3.094021725338297
            ]
        },
        {
            "positions": [
                -0.31512195330351006,
                -1.4378690430690555,
                2.3889355567948685,
                -0.9361163736557307,
                1.2036232627895622,
                -2.9436323699402487
            ]
        },
        {
            "positions": [
                -0.29238059807614986,
                -1.5020846590726729,
                2.3552963890589043,
                -0.8433725170402011,
                1.1742235299522945,
                -2.7932430145422003
            ]
        },
        {
            "positions": [
                -0.26963924284878965,
                -1.5663002750762904,
                2.32165722132294,
                -0.7506286604246715,
                1.1448237971150268,
                -2.642853659144152
            ]
        },
        {
            "positions": [
                -0.24689788762142945,
                -1.630515891079908,
                2.288018053586976,
                -0.6578848038091418,
                1.115424064277759,
                -2.492464303746103
            ]
        },
        {
            "positions": [
                -0.22415653239406924,
                -1.6947315070835256,
                2.254378885851011,
                -0.5651409471936122,
                1.0860243314404912,
                -2.3420749483480545
            ]
        },
        {
            "positions": [
                -0.20141517716670904,
                -1.7589471230871432,
                2.220739718115047,
                -0.47239709057808243,
                1.0566245986032234,
                -2.191685592950006
            ]
        },
        {
            "positions": [
                -0.17867382193934883,
                -1.8231627390907605,
                2.187100550379083,
                -0.3796532339625528,
                1.0272248657659557,
                -2.0412962375519577
            ]
        },
        {
            "positions": [
                -0.15593246671198863,
                -1.8873783550943781,
                2.1534613826431186,
                -0.28690937734702315,
                0.997825132928688,
                -1.8909068821539092
            ]
        },
        {
            "positions": [
                -0.03991676017275614,
                -1.8902598793663337,
                2.1860722113201225,
                -0.31083100180556206,
                0.9603133122932699,
                -2.05768630504991
            ]
        },
        {
            "positions": [
                0.07609894636647635,
                -1.893141403638289,
                2.218683039997127,
                -0.33475262626410096,
                0.9228014916578519,
                -2.224465727945911
            ]
        },
        {
            "positions": [
                0.19211465290570884,
                -1.8960229279102445,
                2.251293868674131,
                -0.3586742507226398,
                0.8852896710224337,
                -2.391245150841912
            ]
        },
        {
            "positions": [
                0.3081303594449413,
                -1.8989044521821998,
                2.2839046973511348,
                -0.3825958751811787,
                0.8477778503870156,
                -2.558024573737913
            ]
        },
        {
            "positions": [
                0.42414606598417387,
                -1.9017859764541554,
                2.3165155260281387,
                -0.4065174996397176,
                0.8102660297515976,
                -2.7248039966339137
            ]
        },
        {
            "positions": [
                0.5401617725234062,
                -1.9046675007261107,
                2.349126354705143,
                -0.4304391240982565,
                0.7727542091161794,
                -2.8915834195299146
            ]
        },
        {
            "positions": [
                0.6561774790626388,
                -1.9075490249980662,
                2.381737183382147,
                -0.4543607485567954,
                0.7352423884807613,
                -3.0583628424259155
            ]
        },
        {
            "positions": [
                0.7081463452643187,
                -1.9078105525577702,
                2.393754707386495,
                -0.46669883785511335,
                0.7203056485458185,
                -3.1274695899754015
            ]
        }
    ]
}