{
    "goal": {
        "global_pose": {
            "orientation": {
                "w": 0.005598929693374612,
                "x": 0.007748599140229565,
                "y": 0.7110244013736278,
                "z": -0.7031023480610252
            },
            "position": {
                "x": -0.8858502320852131,
                "y": -0.7141253447532654,
                "z": 0.3711530566215515
            }
        },
        "name": "move_to_auspresseinheit_C"
    },
    "id": "ProjEST_move_to_auspresseinheit_C_54",
    "joint_names": [
        "shoulder_pan_joint",
        "shoulder_lift_joint",
        "elbow_joint",
        "wrist_1_joint",
        "wrist_2_joint",
        "wrist_3_joint"
    ],
    "metrics": {
        "cart_traj_len": 0.49403053918159545,
        "distance_elbow_joint": 1.0118849282828466,
        "distance_shoulder_lift_joint": 0.3300815170004191,
        "distance_shoulder_pan_joint": 0.2563001944278316,
        "distance_wrist_1_joint": 0.702102543203624,
        "distance_wrist_2_joint": 1.3061016869801636,
        "distance_wrist_3_joint": 0.08027172387852843,
        "smoothness": 3.2297397335745243e-16,
        "time": 2.2375272689999997,
        "traj_len": 1.9200892150557518,
        "weighted_distance": 2.419812032310414
    },
    "planner": "ProjEST",
    "start": {
        "state": {
            "elbow_joint": 1.752795957773711,
            "shoulder_lift_joint": -0.9740617694225064,
            "shoulder_pan_joint": -2.967991417825858,
            "wrist_1_joint": -0.7595177689806859,
            "wrist_2_joint": 1.7443932448377395,
            "wrist_3_joint": 3.199131542505932
        }
    },
    "waypoints": [
        {
            "positions": [
                -2.967991417825858,
                -0.9740617694225064,
                1.752795957773711,
                -0.7595177689806859,
                1.7443932448377395,
                3.199131542505932
            ]
        },
        {
            "positions": [
                -2.942361398383075,
                -0.9410536177224645,
                1.6516074649454264,
                -0.6893075146603235,
                1.6137830761397232,
                3.1911043701180795
            ]
        },
        {
            "positions": [
                -2.9167313789402916,
                -0.9080454660224226,
                1.5504189721171417,
                -0.6190972603399612,
                1.4831729074417068,
                3.1830771977302263
            ]
        },
        {
            "positions": [
                -2.8911013594975086,
                -0.8750373143223807,
                1.449230479288857,
                -0.5488870060195987,
                1.3525627387436905,
                3.1750500253423737
            ]
        },
        {
            "positions": [
                -2.865471340054725,
                -0.8420291626223388,
                1.3480419864605724,
                -0.4786767516992363,
                1.2219525700456741,
                3.1670228529545206
            ]
        },
        {
            "positions": [
                -2.839841320611942,
                -0.8090210109222968,
                1.2468534936322877,
                -0.4084664973788739,
                1.0913424013476578,
                3.158995680566668
            ]
        },
        {
            "positions": [
                -2.814211301169159,
                -0.776012859222255,
                1.1456650008040032,
                -0.33825624305851154,
                0.9607322326496414,
                3.1509685081788152
            ]
        },
        {
            "positions": [
                -2.7885812817263758,
                -0.743004707522213,
                1.0444765079757186,
                -0.26804598873814917,
                0.830122063951625,
                3.142941335790962
            ]
        },
        {
            "positions": [
                -2.762951262283593,
                -0.7099965558221711,
                0.9432880151474338,
                -0.19783573441778668,
                0.6995118952536086,
                3.1349141634031095
            ]
        },
        {
            "positions": [
                -2.7373212428408094,
                -0.6769884041221292,
                0.8420995223191492,
                -0.12762548009742436,
                0.5689017265555922,
                3.1268869910152564
            ]
        },
        {
            "positions": [
                -2.7116912233980264,
                -0.6439802524220873,
                0.7409110294908645,
                -0.05741522577706189,
                0.43829155785757595,
                3.1188598186274037
            ]
        }
    ]
}