{
    "goal": {
        "global_pose": {
            "orientation": {
                "w": -0.00223480608172531,
                "x": 0.0024358444001904467,
                "y": 0.7094548369677653,
                "z": -0.704743149386269
            },
            "position": {
                "x": -0.37947507619857795,
                "y": -0.6371506643295288,
                "z": 0.19426114857196808
            }
        },
        "name": "move_to_magneteinheit_C"
    },
    "id": "ProjEST_move_to_magneteinheit_C_70",
    "joint_names": [
        "shoulder_pan_joint",
        "shoulder_lift_joint",
        "elbow_joint",
        "wrist_1_joint",
        "wrist_2_joint",
        "wrist_3_joint"
    ],
    "metrics": {
        "cart_traj_len": 1.9073931783092635,
        "distance_elbow_joint": 1.0038104743469676,
        "distance_shoulder_lift_joint": 0.9559032668061627,
        "distance_shoulder_pan_joint": 1.697378384924276,
        "distance_wrist_1_joint": 2.2235355518528794,
        "distance_wrist_2_joint": 3.018315949599713,
        "distance_wrist_3_joint": 2.0678822908015926,
        "smoothness": 1.1156615022983079,
        "time": 1.2462751939999999,
        "traj_len": 3.3116198330019095,
        "weighted_distance": 4.510481349189615
    },
    "planner": "ProjEST",
    "start": {
        "state": {
            "elbow_joint": 1.9565354006590394,
            "shoulder_lift_joint": -1.4165861576513559,
            "shoulder_pan_joint": -1.6717766223277177,
            "wrist_1_joint": -0.5286633288215096,
            "wrist_2_joint": 1.4727565892594296,
            "wrist_3_joint": 3.1593482883155493
        }
    },
    "waypoints": [
        {
            "positions": [
                -1.6717766223277177,
                -1.4165861576513559,
                1.9565354006590394,
                -0.5286633288215096,
                1.4727565892594296,
                3.1593482883155493
            ]
        },
        {
            "positions": [
                -1.545649731885093,
                -1.3626666867461958,
                2.0020631906432818,
                -0.5264137106532962,
                1.579289547552626,
                3.1007373628293164
            ]
        },
        {
            "positions": [
                -1.4195228414424685,
                -1.3087472158410356,
                2.047590980627524,
                -0.524164092485083,
                1.6858225058458225,
                3.042126437343083
            ]
        },
        {
            "positions": [
                -1.409653671108545,
                -1.337089520096096,
                2.007914615276048,
                -0.47561970274663445,
                1.5264058800749738,
                2.9641048800374463
            ]
        },
        {
            "positions": [
                -1.3997845007746215,
                -1.3654318243511563,
                1.9682382499245714,
                -0.42707531300818596,
                1.366989254304125,
                2.886083322731809
            ]
        },
        {
            "positions": [
                -1.389915330440698,
                -1.3937741286062166,
                1.9285618845730952,
                -0.3785309232697375,
                1.2075726285332766,
                2.808061765426172
            ]
        },
        {
            "positions": [
                -1.3800461601067744,
                -1.422116432861277,
                1.888885519221619,
                -0.32998653353128893,
                1.048156002762428,
                2.730040208120535
            ]
        },
        {
            "positions": [
                -1.3701769897728509,
                -1.4504587371163375,
                1.8492091538701425,
                -0.2814421437928404,
                0.8887393769915792,
                2.652018650814898
            ]
        },
        {
            "positions": [
                -1.360307819438927,
                -1.4788010413713977,
                1.8095327885186663,
                -0.2328977540543919,
                0.7293227512207306,
                2.573997093509261
            ]
        },
        {
            "positions": [
                -1.3504386491050036,
                -1.5071433456264582,
                1.76985642316719,
                -0.18435336431594335,
                0.5699061254498818,
                2.495975536203624
            ]
        },
        {
            "positions": [
                -1.34056947877108,
                -1.5354856498815186,
                1.7301800578157138,
                -0.13580897457749486,
                0.41048949967903336,
                2.417953978897987
            ]
        },
        {
            "positions": [
                -1.3307003084371565,
                -1.563827954136579,
                1.6905036924642374,
                -0.08726458483904631,
                0.25107287390818467,
                2.3399324215923496
            ]
        },
        {
            "positions": [
                -1.320831138103233,
                -1.5921702583916393,
                1.650827327112761,
                -0.03872019510059782,
                0.09165624813733597,
                2.2619108642867127
            ]
        },
        {
            "positions": [
                -1.3109619677693094,
                -1.6205125626466996,
                1.6111509617612847,
                0.00982419463785067,
                -0.0677603776335125,
                2.183889306981076
            ]
        },
        {
            "positions": [
                -1.3010927974353859,
                -1.64885486690176,
                1.5714745964098085,
                0.0583685843762992,
                -0.22717700340436114,
                2.1058677496754385
            ]
        },
        {
            "positions": [
                -1.4573424085074334,
                -1.5885632850702398,
                1.6004696068209765,
                0.10522383013479478,
                -0.19178921436847812,
                2.148949952701302
            ]
        },
        {
            "positions": [
                -1.613592019579481,
                -1.5282717032387194,
                1.6294646172321445,
                0.15207907589329034,
                -0.1564014253325951,
                2.192032155727165
            ]
        },
        {
            "positions": [
                -1.7698416306515288,
                -1.4679801214071992,
                1.6584596276433126,
                0.19893432165178593,
                -0.12101363629671205,
                2.2351143587530284
            ]
        },
        {
            "positions": [
                -1.9260912417235763,
                -1.407688539575679,
                1.6874546380544806,
                0.24578956741028152,
                -0.08562584726082903,
                2.2781965617788913
            ]
        },
        {
            "positions": [
                -2.0823408527956238,
                -1.347396957744159,
                1.7164496484656486,
                0.2926448131687771,
                -0.05023805822494601,
                2.3212787648047546
            ]
        },
        {
            "positions": [
                -2.2385904638676717,
                -1.2871053759126387,
                1.7454446588768167,
                0.33950005892727264,
                -0.014850269189062959,
                2.364360967830618
            ]
        },
        {
            "positions": [
                -2.394840074939719,
                -1.2268137940811183,
                1.7744396692879847,
                0.38635530468576823,
                0.020537519846820063,
                2.407443170856481
            ]
        },
        {
            "positions": [
                -2.5510896860117667,
                -1.1665222122495982,
                1.8034346796991527,
                0.4332105504442638,
                0.055925308882703084,
                2.4505253738823445
            ]
        },
        {
            "positions": [
                -2.5480942460122833,
                -1.1635972198967217,
                1.8294759944403969,
                0.2832825686023449,
                0.13237727053309145,
                2.5335973885886798
            ]
        },
        {
            "positions": [
                -2.5450988060128,
                -1.1606722275438452,
                1.855517309181641,
                0.13335458676042605,
                0.2088292321834798,
                2.616669403295015
            ]
        },
        {
            "positions": [
                -2.542103366013316,
                -1.1577472351909686,
                1.881558623922885,
                -0.01657339508149286,
                0.2852811938338681,
                2.6997414180013504
            ]
        },
        {
            "positions": [
                -2.5391079260138327,
                -1.154822242838092,
                1.9075999386641291,
                -0.16650137692341171,
                0.3617331554842565,
                2.7828134327076857
            ]
        },
        {
            "positions": [
                -2.5361124860143494,
                -1.1518972504852156,
                1.9336412534053733,
                -0.3164293587653306,
                0.4381851171346448,
                2.865885447414021
            ]
        },
        {
            "positions": [
                -2.5155389955283005,
                -1.155563602991407,
                1.9584652044604407,
                -0.4871032798911678,
                0.5138145848760222,
                2.9506801322216543
            ]
        },
        {
            "positions": [
                -2.494965505042252,
                -1.159229955497598,
                1.9832891555155083,
                -0.657777201017005,
                0.5894440526173994,
                3.035474817029287
            ]
        },
        {
            "positions": [
                -2.4743920145562033,
                -1.1628963080037893,
                2.0081131065705757,
                -0.8284511221428422,
                0.6650735203587768,
                3.1202695018369204
            ]
        }
    ]
}