{
    "goal": {
        "global_pose": {
            "orientation": {
                "w": 0.5084816262002911,
                "x": -0.4908360881923452,
                "y": 0.5182115481033761,
                "z": -0.48164630358495003
            },
            "position": {
                "x": 0.5540239810943604,
                "y": -0.46912469901144505,
                "z": 0.16403168439865112
            }
        },
        "name": "move_to_storage_B"
    },
    "id": "ProjEST_move_to_storage_B_48",
    "joint_names": [
        "shoulder_pan_joint",
        "shoulder_lift_joint",
        "elbow_joint",
        "wrist_1_joint",
        "wrist_2_joint",
        "wrist_3_joint"
    ],
    "metrics": {
        "cart_traj_len": 2.5035823057772304,
        "distance_elbow_joint": 1.8971710967942716,
        "distance_shoulder_lift_joint": 0.46109567036093924,
        "distance_shoulder_pan_joint": 2.0972058331245638,
        "distance_wrist_1_joint": 3.3446489852417414,
        "distance_wrist_2_joint": 2.7112345569596297,
        "distance_wrist_3_joint": 4.978564070829243,
        "smoothness": 0.37200877931064624,
        "time": 0.065675665,
        "traj_len": 3.935723594627854,
        "weighted_distance": 5.612747268243088
    },
    "planner": "ProjEST",
    "start": {
        "state": {
            "elbow_joint": 1.6649325706314817,
            "shoulder_lift_joint": -0.6616388048112454,
            "shoulder_pan_joint": -0.9139837860083814,
            "wrist_1_joint": 2.146757197745094,
            "wrist_2_joint": -2.234196043158733,
            "wrist_3_joint": 0.005471033829999897
        }
    },
    "waypoints": [
        {
            "positions": [
                -0.9139837860083814,
                -0.6616388048112454,
                1.6649325706314817,
                2.146757197745094,
                -2.234196043158733,
                0.005471033829999897
            ]
        },
        {
            "positions": [
                -0.8402869037609226,
                -0.6922583824967016,
                1.6054769169753744,
                2.1605210182850407,
                -2.109626974337241,
                0.07645965060348421
            ]
        },
        {
            "positions": [
                -0.7665900215134639,
                -0.7228779601821579,
                1.5460212633192671,
                2.1742848388249874,
                -1.985057905515749,
                0.1474482673769685
            ]
        },
        {
            "positions": [
                -0.6928931392660052,
                -0.7534975378676141,
                1.4865656096631599,
                2.1880486593649335,
                -1.860488836694257,
                0.21843688415045281
            ]
        },
        {
            "positions": [
                -0.6191962570185464,
                -0.7841171155530704,
                1.4271099560070528,
                2.20181247990488,
                -1.735919767872765,
                0.28942550092393715
            ]
        },
        {
            "positions": [
                -0.5454993747710877,
                -0.8147366932385266,
                1.3676543023509455,
                2.215576300444827,
                -1.611350699051273,
                0.36041411769742143
            ]
        },
        {
            "positions": [
                -0.47180249252362894,
                -0.8453562709239828,
                1.3081986486948383,
                2.2293401209847734,
                -1.486781630229781,
                0.43140273447090577
            ]
        },
        {
            "positions": [
                -0.3981056102761702,
                -0.8759758486094391,
                1.248742995038731,
                2.2431039415247196,
                -1.3622125614082892,
                0.5023913512443899
            ]
        },
        {
            "positions": [
                -0.32440872802871146,
                -0.9065954262948953,
                1.1892873413826237,
                2.256867762064666,
                -1.237643492586797,
                0.5733799680178744
            ]
        },
        {
            "positions": [
                -0.2507118457812527,
                -0.9372150039803515,
                1.1298316877265164,
                2.270631582604613,
                -1.1130744237653052,
                0.6443685847913586
            ]
        },
        {
            "positions": [
                -0.17701496353379398,
                -0.9678345816658078,
                1.0703760340704092,
                2.2843954031445595,
                -0.988505354943813,
                0.715357201564843
            ]
        },
        {
            "positions": [
                -0.10331808128633524,
                -0.998454159351264,
                1.0109203804143019,
                2.2981592236845056,
                -0.8639362861223212,
                0.7863458183383273
            ]
        },
        {
            "positions": [
                -0.0296211990388765,
                -1.0290737370367204,
                0.9514647267581947,
                2.3119230442244523,
                -0.7393672173008292,
                0.8573344351118116
            ]
        },
        {
            "positions": [
                0.04407568320858224,
                -1.0596933147221765,
                0.8920090731020875,
                2.325686864764399,
                -0.6147981484793372,
                0.9283230518852958
            ]
        },
        {
            "positions": [
                0.0018850771379303535,
                -1.0620281725166212,
                0.9336478730748607,
                2.208438001126531,
                -0.5743597535800693,
                0.7781114943751497
            ]
        },
        {
            "positions": [
                -0.04030552893272153,
                -1.064363030311066,
                0.9752866730476341,
                2.091189137488663,
                -0.5339213586808013,
                0.6278999368650036
            ]
        },
        {
            "positions": [
                -0.08249613500337341,
                -1.0666978881055107,
                1.0169254730204074,
                1.9739402738507947,
                -0.49348296378153333,
                0.47768837935485736
            ]
        },
        {
            "positions": [
                -0.1246867410740253,
                -1.0690327458999556,
                1.0585642729931806,
                1.8566914102129268,
                -0.4530445688822653,
                0.32747682184471116
            ]
        },
        {
            "positions": [
                -0.16687734714467717,
                -1.0713676036944002,
                1.1002030729659538,
                1.739442546575059,
                -0.41260617398299737,
                0.17726526433456502
            ]
        },
        {
            "positions": [
                -0.20906795321532906,
                -1.073702461488845,
                1.141841872938727,
                1.6221936829371908,
                -0.3721677790837294,
                0.027053706824418877
            ]
        },
        {
            "positions": [
                -0.25125855928598095,
                -1.0760373192832897,
                1.1834806729115002,
                1.5049448192993227,
                -0.3317293841844614,
                -0.12315785068572738
            ]
        },
        {
            "positions": [
                -0.29344916535663285,
                -1.0783721770777346,
                1.2251194728842734,
                1.3876959556614548,
                -0.2912909892851934,
                -0.2733694081958735
            ]
        },
        {
            "positions": [
                -0.33563977142728474,
                -1.0807070348721792,
                1.2667582728570466,
                1.2704470920235869,
                -0.25085259438592544,
                -0.42358096570601966
            ]
        },
        {
            "positions": [
                -0.3778303774979366,
                -1.0830418926666239,
                1.30839707282982,
                1.1531982283857187,
                -0.21041419948665752,
                -0.5737925232161658
            ]
        },
        {
            "positions": [
                -0.42002098356858847,
                -1.0853767504610687,
                1.3500358728025932,
                1.0359493647478508,
                -0.16997580458738953,
                -0.724004080726312
            ]
        },
        {
            "positions": [
                -0.46221158963924036,
                -1.0877116082555134,
                1.3916746727753664,
                0.9187005011099827,
                -0.12953740968812155,
                -0.8742156382364581
            ]
        },
        {
            "positions": [
                -0.5044021957098923,
                -1.0900464660499583,
                1.4333134727481398,
                0.8014516374721148,
                -0.08909901478885351,
                -1.0244271957466042
            ]
        },
        {
            "positions": [
                -0.5465928017805441,
                -1.092381323844403,
                1.474952272720913,
                0.6842027738342467,
                -0.04866061988958559,
                -1.1746387532567506
            ]
        },
        {
            "positions": [
                -0.5887834078511961,
                -1.0947161816388478,
                1.5165910726936862,
                0.5669539101963785,
                -0.00822222499031755,
                -1.3248503107668967
            ]
        },
        {
            "positions": [
                -0.6309740139218479,
                -1.0970510394332924,
                1.5582298726664594,
                0.4497050465585106,
                0.032216169908950376,
                -1.4750618682770429
            ]
        },
        {
            "positions": [
                -0.6731646199924999,
                -1.0993858972277373,
                1.5998686726392326,
                0.3324561829206425,
                0.07265456480821841,
                -1.625273425787189
            ]
        },
        {
            "positions": [
                -0.7153552260631517,
                -1.101720755022182,
                1.6415074726120058,
                0.2152073192827748,
                0.11309295970748634,
                -1.7754849832973352
            ]
        },
        {
            "positions": [
                -0.7575458321338037,
                -1.1040556128166266,
                1.683146272584779,
                0.09795845564490646,
                0.15353135460675438,
                -1.9256965408074818
            ]
        },
        {
            "positions": [
                -0.7997364382044554,
                -1.1063904706110714,
                1.7247850725575522,
                -0.019290407992961445,
                0.1939697495060222,
                -2.0759080983176275
            ]
        },
        {
            "positions": [
                -0.8419270442751073,
                -1.108725328405516,
                1.7664238725303256,
                -0.1365392716308298,
                0.23440814440529023,
                -2.226119655827774
            ]
        },
        {
            "positions": [
                -0.8841176503457592,
                -1.111060186199961,
                1.8080626725030988,
                -0.25378813526869726,
                0.27484653930455816,
                -2.3763312133379197
            ]
        },
        {
            "positions": [
                -0.9263082564164111,
                -1.1133950439944056,
                1.8497014724758722,
                -0.3710369989065656,
                0.3152849342038262,
                -2.5265427708480663
            ]
        },
        {
            "positions": [
                -0.968498862487063,
                -1.1157299017888505,
                1.8913402724486452,
                -0.4882858625444335,
                0.3557233291030941,
                -2.676754328358212
            ]
        },
        {
            "positions": [
                -1.010689468557715,
                -1.118064759583295,
                1.9329790724214186,
                -0.6055347261823019,
                0.39616172400236227,
                -2.8269658858683586
            ]
        },
        {
            "positions": [
                -1.0528800746283669,
                -1.12039961737774,
                1.9746178723941918,
                -0.7227835898201693,
                0.4366001189016302,
                -2.9771774433785043
            ]
        },
        {
            "positions": [
                -1.0950706806990187,
                -1.1227344751721846,
                2.016256672366965,
                -0.8400324534580378,
                0.47703851380089823,
                -3.127389000888651
            ]
        }
    ]
}