{
    "goal": {
        "global_pose": {
            "orientation": {
                "w": -0.00223480608172531,
                "x": 0.0024358444001904467,
                "y": 0.7094548369677653,
                "z": -0.704743149386269
            },
            "position": {
                "x": -0.37947507619857795,
                "y": -0.6371506643295288,
                "z": 0.19426114857196808
            }
        },
        "name": "move_to_magneteinheit_C"
    },
    "id": "ProjEST_move_to_magneteinheit_C_111",
    "joint_names": [
        "shoulder_pan_joint",
        "shoulder_lift_joint",
        "elbow_joint",
        "wrist_1_joint",
        "wrist_2_joint",
        "wrist_3_joint"
    ],
    "metrics": {
        "cart_traj_len": 0.8390425137142155,
        "distance_elbow_joint": 0.1402389417362957,
        "distance_shoulder_lift_joint": 0.35204752808924034,
        "distance_shoulder_pan_joint": 1.2687509455718273,
        "distance_wrist_1_joint": 2.668068743657331,
        "distance_wrist_2_joint": 2.478346061289312,
        "distance_wrist_3_joint": 1.8692519144599142,
        "smoothness": 1.1110042452118944,
        "time": 1.3198127069999999,
        "traj_len": 2.9625502754896704,
        "weighted_distance": 4.202573350778115
    },
    "planner": "ProjEST",
    "start": {
        "state": {
            "elbow_joint": 1.9565354006590394,
            "shoulder_lift_joint": -1.4165861576513559,
            "shoulder_pan_joint": -1.6717766223277177,
            "wrist_1_joint": -0.5286633288215096,
            "wrist_2_joint": 1.4727565892594296,
            "wrist_3_joint": 3.1593482883155493
        }
    },
    "waypoints": [
        {
            "positions": [
                -1.6717766223277177,
                -1.4165861576513559,
                1.9565354006590394,
                -0.5286633288215096,
                1.4727565892594296,
                3.1593482883155493
            ]
        },
        {
            "positions": [
                -1.7207599940156648,
                -1.4265247473454958,
                1.9488722990050698,
                -0.5246426667518973,
                1.3552019311252612,
                3.0033065591727954
            ]
        },
        {
            "positions": [
                -1.769743365703612,
                -1.4364633370396358,
                1.9412091973511003,
                -0.520622004682285,
                1.2376472729910926,
                2.847264830030041
            ]
        },
        {
            "positions": [
                -1.818726737391559,
                -1.4464019267337758,
                1.9335460956971307,
                -0.5166013426126729,
                1.1200926148569241,
                2.6912231008872873
            ]
        },
        {
            "positions": [
                -1.867710109079506,
                -1.4563405164279157,
                1.9258829940431612,
                -0.5125806805430606,
                1.0025379567227557,
                2.535181371744533
            ]
        },
        {
            "positions": [
                -1.9166934807674532,
                -1.4662791061220557,
                1.9182198923891915,
                -0.5085600184734483,
                0.8849832985885872,
                2.3791396426017792
            ]
        },
        {
            "positions": [
                -2.0045258749020336,
                -1.4382400123184285,
                1.928892318893775,
                -0.3786713517352077,
                0.7682446094275253,
                2.35947164987625
            ]
        },
        {
            "positions": [
                -2.0923582690366143,
                -1.4102009185148012,
                1.9395647453983584,
                -0.24878268499696704,
                0.6515059202664634,
                2.3398036571507204
            ]
        },
        {
            "positions": [
                -2.1801906631711945,
                -1.382161824711174,
                1.9502371719029419,
                -0.11889401825872642,
                0.5347672311054015,
                2.320135664425191
            ]
        },
        {
            "positions": [
                -2.2680230573057747,
                -1.3541227309075468,
                1.9609095984075253,
                0.010994648479514257,
                0.4180285419443396,
                2.3004676716996615
            ]
        },
        {
            "positions": [
                -2.3558554514403554,
                -1.3260836371039195,
                1.9715820249121085,
                0.14088331521775488,
                0.3012898527832776,
                2.280799678974132
            ]
        },
        {
            "positions": [
                -2.443687845574936,
                -1.2980445433002923,
                1.982254451416692,
                0.2707719819559955,
                0.1845511636222158,
                2.2611316862486026
            ]
        },
        {
            "positions": [
                -2.5315202397095162,
                -1.270005449496665,
                1.9929268779212754,
                0.40066064869423623,
                0.0678124744611538,
                2.241463693523073
            ]
        },
        {
            "positions": [
                -2.6193526338440964,
                -1.2419663556930378,
                2.003599304425859,
                0.5305493154324769,
                -0.04892621469990799,
                2.2217957007975437
            ]
        },
        {
            "positions": [
                -2.707185027978677,
                -1.2139272618894106,
                2.0142717309304423,
                0.6604379821707174,
                -0.16566490386097005,
                2.2021277080720143
            ]
        },
        {
            "positions": [
                -2.6812580790985807,
                -1.2083714024020888,
                2.013619331494309,
                0.49610826743015013,
                -0.07233995184220203,
                2.3034645229849455
            ]
        },
        {
            "positions": [
                -2.6553311302184843,
                -1.202815542914767,
                2.0129669320581765,
                0.3317785526895829,
                0.020985000176565988,
                2.4048013378978763
            ]
        },
        {
            "positions": [
                -2.629404181338388,
                -1.1972596834274454,
                2.0123145326220433,
                0.16744883794901566,
                0.11430995219533402,
                2.5061381528108075
            ]
        },
        {
            "positions": [
                -2.6034772324582915,
                -1.1917038239401236,
                2.01166213318591,
                0.0031191232084484266,
                0.20763490421410202,
                2.6074749677237383
            ]
        },
        {
            "positions": [
                -2.5775502835781947,
                -1.1861479644528021,
                2.0110097337497774,
                -0.16121059153211892,
                0.30095985623287014,
                2.7088117826366696
            ]
        },
        {
            "positions": [
                -2.5516233346980983,
                -1.1805921049654804,
                2.0103573343136443,
                -0.32554030627268604,
                0.3942848082516381,
                2.8101485975496003
            ]
        },
        {
            "positions": [
                -2.525696385818002,
                -1.1750362454781587,
                2.009704934877511,
                -0.4898700210132534,
                0.4876097602704062,
                2.9114854124625316
            ]
        },
        {
            "positions": [
                -2.4997694369379055,
                -1.169480385990837,
                2.0090525354413784,
                -0.6541997357538205,
                0.5809347122891741,
                3.0128222273754623
            ]
        },
        {
            "positions": [
                -2.473842488057809,
                -1.1639245265035152,
                2.0084001360052453,
                -0.8185294504943879,
                0.6742596643079423,
                3.1141590422883936
            ]
        }
    ]
}