{
    "goal": {
        "global_pose": {
            "orientation": {
                "w": -0.00223480608172531,
                "x": 0.0024358444001904467,
                "y": 0.7094548369677653,
                "z": -0.704743149386269
            },
            "position": {
                "x": -0.37947507619857795,
                "y": -0.6371506643295288,
                "z": 0.19426114857196808
            }
        },
        "name": "move_to_magneteinheit_C"
    },
    "id": "ProjEST_move_to_magneteinheit_C_20",
    "joint_names": [
        "shoulder_pan_joint",
        "shoulder_lift_joint",
        "elbow_joint",
        "wrist_1_joint",
        "wrist_2_joint",
        "wrist_3_joint"
    ],
    "metrics": {
        "cart_traj_len": 1.4937468638651894,
        "distance_elbow_joint": 1.6418378210576736,
        "distance_shoulder_lift_joint": 0.9057855608376286,
        "distance_shoulder_pan_joint": 2.3255595582634134,
        "distance_wrist_1_joint": 5.995219228928534,
        "distance_wrist_2_joint": 4.013788760144854,
        "distance_wrist_3_joint": 4.138561312274643,
        "smoothness": 0.8019695753227084,
        "time": 1.4241186590000001,
        "traj_len": 4.361278739258332,
        "weighted_distance": 6.107936055258718
    },
    "planner": "ProjEST",
    "start": {
        "state": {
            "elbow_joint": 1.9565354006590394,
            "shoulder_lift_joint": -1.4165861576513559,
            "shoulder_pan_joint": -1.6717766223277177,
            "wrist_1_joint": -0.5286633288215096,
            "wrist_2_joint": 1.4727565892594296,
            "wrist_3_joint": 3.1593482883155493
        }
    },
    "waypoints": [
        {
            "positions": [
                -1.6717766223277177,
                -1.4165861576513559,
                1.9565354006590394,
                -0.5286633288215096,
                1.4727565892594296,
                3.1593482883155493
            ]
        },
        {
            "positions": [
                -1.6291340939516523,
                -1.4186133962551817,
                1.9418971452794742,
                -0.48496399666155676,
                1.4385370720952393,
                3.114529911311179
            ]
        },
        {
            "positions": [
                -1.6892561635410788,
                -1.4310913173599633,
                1.9744769531268427,
                -0.37701514437170464,
                1.3475214944684473,
                3.035968274673939
            ]
        },
        {
            "positions": [
                -1.7493782331305054,
                -1.443569238464745,
                2.007056760974211,
                -0.2690662920818525,
                1.2565059168416552,
                2.9574066380366992
            ]
        },
        {
            "positions": [
                -1.809500302719932,
                -1.4560471595695266,
                2.03963656882158,
                -0.16111743979200033,
                1.1654903392148632,
                2.8788450013994593
            ]
        },
        {
            "positions": [
                -1.8696223723093586,
                -1.4685250806743082,
                2.0722163766689485,
                -0.0531685875021482,
                1.0744747615880712,
                2.80028336476222
            ]
        },
        {
            "positions": [
                -1.929744441898785,
                -1.4810030017790898,
                2.1047961845163172,
                0.054780264787703925,
                0.9834591839612792,
                2.72172172812498
            ]
        },
        {
            "positions": [
                -1.9898665114882117,
                -1.4934809228838715,
                2.1373759923636855,
                0.1627291170775561,
                0.8924436063344872,
                2.64316009148774
            ]
        },
        {
            "positions": [
                -2.0499885810776384,
                -1.5059588439886529,
                2.169955800211054,
                0.27067796936740807,
                0.8014280287076951,
                2.5645984548505
            ]
        },
        {
            "positions": [
                -2.110110650667065,
                -1.5184367650934345,
                2.202535608058423,
                0.37862682165726036,
                0.7104124510809031,
                2.48603681821326
            ]
        },
        {
            "positions": [
                -2.1702327202564913,
                -1.5309146861982161,
                2.235115415905791,
                0.48657567394711243,
                0.6193968734541111,
                2.4074751815760207
            ]
        },
        {
            "positions": [
                -2.2303547898459177,
                -1.5433926073029978,
                2.26769522375316,
                0.5945245262369646,
                0.5283812958273191,
                2.3289135449387803
            ]
        },
        {
            "positions": [
                -2.290476859435344,
                -1.5558705284077794,
                2.3002750316005285,
                0.7024733785268166,
                0.43736571820052705,
                2.250351908301541
            ]
        },
        {
            "positions": [
                -2.350598929024771,
                -1.568348449512561,
                2.3328548394478967,
                0.810422230816669,
                0.34635014057373503,
                2.171790271664301
            ]
        },
        {
            "positions": [
                -2.4107209986141975,
                -1.5808263706173427,
                2.3654346472952654,
                0.9183710831065209,
                0.255334562946943,
                2.093228635027061
            ]
        },
        {
            "positions": [
                -2.470843068203624,
                -1.5933042917221243,
                2.398014455142634,
                1.0263199353963728,
                0.164318985320151,
                2.0146669983898216
            ]
        },
        {
            "positions": [
                -2.5309651377930504,
                -1.605782212826906,
                2.4305942629900024,
                1.1342687876862252,
                0.07330340769335919,
                1.9361053617525814
            ]
        },
        {
            "positions": [
                -2.5910872073824773,
                -1.6182601339316875,
                2.463174070837371,
                1.2422176399760776,
                -0.017712169933433053,
                1.8575437251153415
            ]
        },
        {
            "positions": [
                -2.651209276971904,
                -1.6307380550364692,
                2.4957538786847397,
                1.3501664922659296,
                -0.10872774756022507,
                1.7789820884781016
            ]
        },
        {
            "positions": [
                -2.7113313465613302,
                -1.6432159761412508,
                2.5283336865321084,
                1.4581153445557815,
                -0.1997433251870171,
                1.7004204518408619
            ]
        },
        {
            "positions": [
                -2.7714534161507567,
                -1.6556938972460324,
                2.5609134943794767,
                1.5660641968456335,
                -0.2907589028138091,
                1.621858815203622
            ]
        },
        {
            "positions": [
                -2.8315754857401836,
                -1.6681718183508139,
                2.5934933022268454,
                1.6740130491354859,
                -0.38177448044060114,
                1.543297178566382
            ]
        },
        {
            "positions": [
                -2.89169755532961,
                -1.6806497394555957,
                2.6260731100742136,
                1.7819619014253378,
                -0.47279005806739316,
                1.4647355419291421
            ]
        },
        {
            "positions": [
                -2.9518196249190365,
                -1.6931276605603771,
                2.6586529179215823,
                1.8899107537151898,
                -0.5638056356941852,
                1.3861739052919024
            ]
        },
        {
            "positions": [
                -3.011941694508463,
                -1.7056055816651587,
                2.691232725768951,
                1.9978596060050422,
                -0.654821213320977,
                1.3076122686546625
            ]
        },
        {
            "positions": [
                -3.07206376409789,
                -1.7180835027699404,
                2.7238125336163197,
                2.1058084582948946,
                -0.7458367909477692,
                1.2290506320174226
            ]
        },
        {
            "positions": [
                -3.1321858336873163,
                -1.730561423874722,
                2.756392341463688,
                2.2137573105847466,
                -0.8368523685745615,
                1.1504889953801827
            ]
        },
        {
            "positions": [
                -3.1923079032767427,
                -1.7430393449795036,
                2.7889721493110566,
                2.3217061628745985,
                -0.9278679462013533,
                1.071927358742943
            ]
        },
        {
            "positions": [
                -3.1610147197740357,
                -1.717850980913874,
                2.7550536901090337,
                2.1849735656036233,
                -0.8577303712150892,
                1.161107375382162
            ]
        },
        {
            "positions": [
                -3.129721536271329,
                -1.6926626168482444,
                2.7211352309070107,
                2.0482409683326486,
                -0.7875927962288252,
                1.250287392021381
            ]
        },
        {
            "positions": [
                -3.098428352768622,
                -1.6674742527826147,
                2.687216771704988,
                1.9115083710616734,
                -0.7174552212425611,
                1.3394674086606
            ]
        },
        {
            "positions": [
                -3.0671351692659155,
                -1.6422858887169853,
                2.653298312502965,
                1.7747757737906984,
                -0.6473176462562971,
                1.428647425299819
            ]
        },
        {
            "positions": [
                -3.0358419857632084,
                -1.6170975246513557,
                2.6193798533009423,
                1.6380431765197234,
                -0.577180071270033,
                1.5178274419390378
            ]
        },
        {
            "positions": [
                -3.004548802260502,
                -1.591909160585726,
                2.5854613940989193,
                1.5013105792487484,
                -0.507042496283769,
                1.607007458578257
            ]
        },
        {
            "positions": [
                -2.9732556187577948,
                -1.5667207965200964,
                2.5515429348968963,
                1.3645779819777732,
                -0.4369049212975048,
                1.6961874752174761
            ]
        },
        {
            "positions": [
                -2.941962435255088,
                -1.5415324324544668,
                2.517624475694874,
                1.2278453847067983,
                -0.36676734631124075,
                1.7853674918566949
            ]
        },
        {
            "positions": [
                -2.910669251752381,
                -1.5163440683888372,
                2.483706016492851,
                1.0911127874358233,
                -0.2966297713249767,
                1.874547508495914
            ]
        },
        {
            "positions": [
                -2.879376068249674,
                -1.4911557043232075,
                2.449787557290828,
                0.9543801901648483,
                -0.22649219633871265,
                1.963727525135133
            ]
        },
        {
            "positions": [
                -2.8480828847469675,
                -1.4659673402575781,
                2.415869098088805,
                0.8176475928938731,
                -0.1563546213524486,
                2.052907541774352
            ]
        },
        {
            "positions": [
                -2.8167897012442604,
                -1.4407789761919485,
                2.3819506388867824,
                0.6809149956228984,
                -0.08621704636618455,
                2.142087558413571
            ]
        },
        {
            "positions": [
                -2.785496517741554,
                -1.4155906121263189,
                2.3480321796847594,
                0.5441823983519234,
                -0.016079471379920607,
                2.23126757505279
            ]
        },
        {
            "positions": [
                -2.754203334238847,
                -1.3904022480606892,
                2.3141137204827364,
                0.40744980108094797,
                0.054058103606343666,
                2.320447591692009
            ]
        },
        {
            "positions": [
                -2.7229101507361397,
                -1.3652138839950596,
                2.2801952612807135,
                0.2707172038099732,
                0.12419567859260772,
                2.409627608331228
            ]
        },
        {
            "positions": [
                -2.691616967233433,
                -1.34002551992943,
                2.2462768020786905,
                0.13398460653899802,
                0.19433325357887177,
                2.498807624970447
            ]
        },
        {
            "positions": [
                -2.6603237837307265,
                -1.3148371558638003,
                2.212358342876668,
                -0.002747990731976735,
                0.2644708285651356,
                2.587987641609666
            ]
        },
        {
            "positions": [
                -2.6290306002280195,
                -1.2896487917981707,
                2.178439883674645,
                -0.13948058800295193,
                0.33460840355139987,
                2.677167658248885
            ]
        },
        {
            "positions": [
                -2.5977374167253124,
                -1.264460427732541,
                2.144521424472622,
                -0.27621318527392713,
                0.4047459785376639,
                2.766347674888104
            ]
        },
        {
            "positions": [
                -2.566444233222606,
                -1.2392720636669114,
                2.1106029652705995,
                -0.4129457825449019,
                0.47488355352392797,
                2.855527691527323
            ]
        },
        {
            "positions": [
                -2.535151049719899,
                -1.214083699601282,
                2.0766845060685766,
                -0.5496783798158766,
                0.545021128510192,
                2.9447077081665416
            ]
        },
        {
            "positions": [
                -2.503857866217192,
                -1.1888953355356524,
                2.0427660468665536,
                -0.6864109770868523,
                0.6151587034964561,
                3.033887724805761
            ]
        },
        {
            "positions": [
                -2.472564682714485,
                -1.1637069714700228,
                2.0088475876645306,
                -0.8231435743578271,
                0.68529627848272,
                3.12306774144498
            ]
        }
    ]
}