{
    "goal": {
        "global_pose": {
            "orientation": {
                "w": 0.7047431468963623,
                "x": -0.7094548344612122,
                "y": 0.0024358443915843964,
                "z": -0.0022348060738295317
            },
            "position": {
                "x": 0.6094750761985779,
                "y": 0.3671506643295288,
                "z": 0.19426114857196808
            }
        },
        "name": "move_to_magneteinheit_A"
    },
    "id": "ProjEST_move_to_magneteinheit_A_27",
    "joint_names": [
        "shoulder_pan_joint",
        "shoulder_lift_joint",
        "elbow_joint",
        "wrist_1_joint",
        "wrist_2_joint",
        "wrist_3_joint"
    ],
    "metrics": {
        "cart_traj_len": 1.0531473100846052,
        "distance_elbow_joint": 0.40234615624074377,
        "distance_shoulder_lift_joint": 0.3549928181482671,
        "distance_shoulder_pan_joint": 1.2423722297119246,
        "distance_wrist_1_joint": 2.299319385001781,
        "distance_wrist_2_joint": 1.7027326291159999,
        "distance_wrist_3_joint": 1.1429955479731957,
        "smoothness": 0.0,
        "time": 0.295863035,
        "traj_len": 2.6729681565989356,
        "weighted_distance": 3.6650786998720895
    },
    "planner": "ProjEST",
    "start": {
        "state": {
            "elbow_joint": 1.5739458966750683,
            "shoulder_lift_joint": -1.4977259741207325,
            "shoulder_pan_joint": -1.1188672016454206,
            "wrist_1_joint": 1.494575848278785,
            "wrist_2_joint": -1.5706037134824402,
            "wrist_3_joint": -2.0226957942261072
        }
    },
    "waypoints": [
        {
            "positions": [
                -1.1188672016454206,
                -1.4977259741207325,
                1.5739458966750683,
                1.494575848278785,
                -1.5706037134824402,
                -2.0226957942261072
            ]
        },
        {
            "positions": [
                -1.0534791895553193,
                -1.479042141586613,
                1.5951220101614232,
                1.3735590385418492,
                -1.4809862066868613,
                -2.082853454645749
            ]
        },
        {
            "positions": [
                -0.988091177465218,
                -1.4603583090524939,
                1.6162981236477783,
                1.2525422288049133,
                -1.3913686998912824,
                -2.143011115065391
            ]
        },
        {
            "positions": [
                -0.9227031653751168,
                -1.4416744765183744,
                1.637474237134133,
                1.1315254190679775,
                -1.3017511930957033,
                -2.203168775485033
            ]
        },
        {
            "positions": [
                -0.8573151532850154,
                -1.4229906439842552,
                1.6586503506204882,
                1.0105086093310418,
                -1.2121336863001244,
                -2.2633264359046747
            ]
        },
        {
            "positions": [
                -0.7919271411949143,
                -1.4043068114501358,
                1.679826464106843,
                0.8894917995941058,
                -1.1225161795045455,
                -2.3234840963243166
            ]
        },
        {
            "positions": [
                -0.7265391291048129,
                -1.3856229789160166,
                1.701002577593198,
                0.76847498985717,
                -1.0328986727089666,
                -2.3836417567439585
            ]
        },
        {
            "positions": [
                -0.6611511170147115,
                -1.3669391463818972,
                1.722178691079553,
                0.6474581801202343,
                -0.9432811659133876,
                -2.4437994171636004
            ]
        },
        {
            "positions": [
                -0.5957631049246103,
                -1.348255313847778,
                1.7433548045659077,
                0.5264413703832984,
                -0.8536636591178087,
                -2.5039570775832423
            ]
        },
        {
            "positions": [
                -0.530375092834509,
                -1.3295714813136585,
                1.7645309180522628,
                0.40542456064636245,
                -0.7640461523222298,
                -2.564114738002884
            ]
        },
        {
            "positions": [
                -0.46498708074440775,
                -1.3108876487795393,
                1.7857070315386177,
                0.2844077509094267,
                -0.6744286455266508,
                -2.624272398422526
            ]
        },
        {
            "positions": [
                -0.3995990686543064,
                -1.29220381624542,
                1.8068831450249727,
                0.16339094117249076,
                -0.5848111387310718,
                -2.684430058842168
            ]
        },
        {
            "positions": [
                -0.33421105656420513,
                -1.2735199837113007,
                1.8280592585113276,
                0.04237413143555502,
                -0.49519363193549304,
                -2.7445877192618098
            ]
        },
        {
            "positions": [
                -0.26882304447410377,
                -1.2548361511771813,
                1.8492353719976826,
                -0.07864267830138094,
                -0.4055761251399139,
                -2.8047453796814517
            ]
        },
        {
            "positions": [
                -0.2034350323840025,
                -1.236152318643062,
                1.8704114854840375,
                -0.19965948803831646,
                -0.31595861834433503,
                -2.8649030401010935
            ]
        },
        {
            "positions": [
                -0.13804702029390115,
                -1.2174684861089426,
                1.8915875989703923,
                -0.3206762977752524,
                -0.22634111154875614,
                -2.9250607005207354
            ]
        },
        {
            "positions": [
                -0.07265900820379989,
                -1.1987846535748234,
                1.9127637124567474,
                -0.44169310751218815,
                -0.13672360475317724,
                -2.9852183609403773
            ]
        },
        {
            "positions": [
                -0.007270996113698525,
                -1.180100821040704,
                1.9339398259431022,
                -0.5627099172491243,
                -0.047106097957598125,
                -3.045376021360019
            ]
        },
        {
            "positions": [
                0.05811701597640262,
                -1.1614169885065846,
                1.955115939429457,
                -0.6837267269860601,
                0.04251140883798055,
                -3.105533681779661
            ]
        },
        {
            "positions": [
                0.12350502806650393,
                -1.1427331559724654,
                1.9762920529158121,
                -0.8047435367229959,
                0.13212891563355963,
                -3.165691342199303
            ]
        }
    ]
}