{
    "goal": {
        "global_pose": {
            "orientation": {
                "w": 0.7031023480610252,
                "x": -0.7110244013736278,
                "y": 0.0077485991402295624,
                "z": 0.005598929693374583
            },
            "position": {
                "x": -0.8841497679147869,
                "y": 0.44412534475326537,
                "z": 0.3711530566215515
            }
        },
        "name": "move_to_auspresseinheit_D"
    },
    "id": "ProjEST_move_to_auspresseinheit_D_57",
    "joint_names": [
        "shoulder_pan_joint",
        "shoulder_lift_joint",
        "elbow_joint",
        "wrist_1_joint",
        "wrist_2_joint",
        "wrist_3_joint"
    ],
    "metrics": {
        "cart_traj_len": 3.99491094864417,
        "distance_elbow_joint": 3.174432927760922,
        "distance_shoulder_lift_joint": 1.9502132394554978,
        "distance_shoulder_pan_joint": 2.7964524193551386,
        "distance_wrist_1_joint": 2.5175257887231006,
        "distance_wrist_2_joint": 1.1069679623689694,
        "distance_wrist_3_joint": 4.94197977740094,
        "smoothness": 0.1776442041985892,
        "time": 0.062850923,
        "traj_len": 4.060489147265951,
        "weighted_distance": 5.476862735267202
    },
    "planner": "ProjEST",
    "start": {
        "state": {
            "elbow_joint": 1.8268400409724999,
            "shoulder_lift_joint": -1.0144045787793008,
            "shoulder_pan_joint": 2.6280239544362485,
            "wrist_1_joint": -0.790705565816056,
            "wrist_2_joint": 1.0573557467365533,
            "wrist_3_joint": 3.1851377467193758
        }
    },
    "waypoints": [
        {
            "positions": [
                2.6280239544362485,
                -1.0144045787793008,
                1.8268400409724999,
                -0.790705565816056,
                1.0573557467365533,
                3.1851377467193758
            ]
        },
        {
            "positions": [
                2.620556662194567,
                -0.9983592275946513,
                1.7412477202184231,
                -0.8237271080130725,
                1.0638287746813047,
                2.947179921898545
            ]
        },
        {
            "positions": [
                2.613089369952885,
                -0.9823138764100019,
                1.6556553994643461,
                -0.8567486502100888,
                1.070301802626056,
                2.7092220970777143
            ]
        },
        {
            "positions": [
                2.605622077711203,
                -0.9662685252253524,
                1.5700630787102694,
                -0.8897701924071053,
                1.0767748305708074,
                2.4712642722568834
            ]
        },
        {
            "positions": [
                2.5981547854695215,
                -0.950223174040703,
                1.4844707579561924,
                -0.9227917346041217,
                1.0832478585155587,
                2.2333064474360524
            ]
        },
        {
            "positions": [
                2.59068749322784,
                -0.9341778228560537,
                1.3988784372021157,
                -0.9558132768011381,
                1.08972088646031,
                1.9953486226152217
            ]
        },
        {
            "positions": [
                2.5832202009861582,
                -0.9181324716714042,
                1.313286116448039,
                -0.9888348189981546,
                1.0961939144050614,
                1.757390797794391
            ]
        },
        {
            "positions": [
                2.5757529087444766,
                -0.9020871204867548,
                1.227693795693962,
                -1.021856361195171,
                1.1026669423498128,
                1.5194329729735603
            ]
        },
        {
            "positions": [
                2.568285616502795,
                -0.8860417693021053,
                1.142101474939885,
                -1.0548779033921873,
                1.1091399702945641,
                1.2814751481527296
            ]
        },
        {
            "positions": [
                2.560818324261113,
                -0.8699964181174559,
                1.0565091541858083,
                -1.087899445589204,
                1.1156129982393157,
                1.0435173233318986
            ]
        },
        {
            "positions": [
                2.5533510320194313,
                -0.8539510669328064,
                0.9709168334317315,
                -1.1209209877862203,
                1.122086026184067,
                0.8055594985110677
            ]
        },
        {
            "positions": [
                2.5458837397777496,
                -0.837905715748157,
                0.8853245126776547,
                -1.1539425299832367,
                1.1285590541288184,
                0.5676016736902372
            ]
        },
        {
            "positions": [
                2.538416447536068,
                -0.8218603645635075,
                0.7997321919235778,
                -1.1869640721802532,
                1.1350320820735698,
                0.32964384886940623
            ]
        },
        {
            "positions": [
                2.5309491552943864,
                -0.8058150133788582,
                0.7141398711695011,
                -1.2199856143772696,
                1.1415051100183211,
                0.09168602404857573
            ]
        },
        {
            "positions": [
                2.5234818630527047,
                -0.7897696621942087,
                0.6285475504154241,
                -1.253007156574286,
                1.1479781379630725,
                -0.1462718007722552
            ]
        },
        {
            "positions": [
                2.5160145708110226,
                -0.7737243110095593,
                0.5429552296613473,
                -1.2860286987713023,
                1.1544511659078238,
                -0.3842296255930857
            ]
        },
        {
            "positions": [
                2.508547278569341,
                -0.7576789598249098,
                0.4573629089072704,
                -1.319050240968319,
                1.1609241938525752,
                -0.6221874504139167
            ]
        },
        {
            "positions": [
                2.5010799863276594,
                -0.7416336086402604,
                0.3717705881531936,
                -1.3520717831653353,
                1.1673972217973265,
                -0.8601452752347479
            ]
        },
        {
            "positions": [
                2.3984065843566382,
                -0.8061506189985856,
                0.30564122373236224,
                -1.2768348765740345,
                1.1290538953623959,
                -0.8256569384867934
            ]
        },
        {
            "positions": [
                2.295733182385617,
                -0.870667629356911,
                0.23951185931153088,
                -1.2015979699827337,
                1.0907105689274652,
                -0.7911686017388389
            ]
        },
        {
            "positions": [
                2.193059780414596,
                -0.9351846397152362,
                0.17338249489069954,
                -1.1263610633914327,
                1.0523672424925348,
                -0.7566802649908844
            ]
        },
        {
            "positions": [
                2.0903863784435748,
                -0.9997016500735616,
                0.10725313046986817,
                -1.051124156800132,
                1.0140239160576041,
                -0.7221919282429299
            ]
        },
        {
            "positions": [
                1.9877129764725536,
                -1.0642186604318868,
                0.041123766049036836,
                -0.9758872502088312,
                0.9756805896226735,
                -0.6877035914949753
            ]
        },
        {
            "positions": [
                1.8850395745015325,
                -1.128735670790212,
                -0.025005598371794502,
                -0.9006503436175304,
                0.9373372631877428,
                -0.6532152547470207
            ]
        },
        {
            "positions": [
                1.7823661725305113,
                -1.1932526811485373,
                -0.09113496279262578,
                -0.8254134370262296,
                0.8989939367528121,
                -0.6187269179990662
            ]
        },
        {
            "positions": [
                1.6796927705594902,
                -1.2577696915068626,
                -0.15726432721345723,
                -0.7501765304349287,
                0.8606506103178815,
                -0.5842385812511117
            ]
        },
        {
            "positions": [
                1.577019368588469,
                -1.3222867018651878,
                -0.22339369163428852,
                -0.6749396238436279,
                0.8223072838829509,
                -0.5497502445031572
            ]
        },
        {
            "positions": [
                1.4743459666174479,
                -1.3868037122235133,
                -0.2895230560551199,
                -0.5997027172523272,
                0.7839639574480204,
                -0.5152619077552026
            ]
        },
        {
            "positions": [
                1.3716725646464267,
                -1.4513207225818385,
                -0.3556524204759512,
                -0.5244658106610264,
                0.7456206310130897,
                -0.48077357100724816
            ]
        },
        {
            "positions": [
                1.2689991626754056,
                -1.515837732940164,
                -0.4217817848967826,
                -0.4492289040697255,
                0.7072773045781591,
                -0.44628523425929356
            ]
        },
        {
            "positions": [
                1.1663257607043844,
                -1.5803547432984892,
                -0.48791114931761387,
                -0.3739919974784247,
                0.6689339781432284,
                -0.4117968975113391
            ]
        },
        {
            "positions": [
                1.0636523587333633,
                -1.6448717536568145,
                -0.5540405137384452,
                -0.29875509088712393,
                0.6305906517082979,
                -0.3773085607633846
            ]
        },
        {
            "positions": [
                0.9609789567623424,
                -1.7093887640151397,
                -0.6201698781592764,
                -0.22351818429582315,
                0.5922473252733673,
                -0.3428202240154301
            ]
        },
        {
            "positions": [
                0.858305554791321,
                -1.773905774373465,
                -0.686299242580108,
                -0.14828127770452215,
                0.5539039988384366,
                -0.3083318872674755
            ]
        },
        {
            "positions": [
                0.7556321528202998,
                -1.8384227847317902,
                -0.7524286070009392,
                -0.07304437111322137,
                0.515560672403506,
                -0.2738435505195209
            ]
        },
        {
            "positions": [
                0.6529587508492787,
                -1.9029397950901155,
                -0.8185579714217706,
                0.002192535478079405,
                0.47721734596857535,
                -0.23935521377156643
            ]
        },
        {
            "positions": [
                0.5502853488782578,
                -1.9674568054484407,
                -0.8846873358426017,
                0.07742944206938018,
                0.4388740195336448,
                -0.20486687702361195
            ]
        },
        {
            "positions": [
                0.4476119469072364,
                -2.031973815806766,
                -0.9508167002634333,
                0.15266634866068096,
                0.40053069309871414,
                -0.17037854027565735
            ]
        },
        {
            "positions": [
                0.34493854493621523,
                -2.096490826165091,
                -1.0169460646842645,
                0.22790325525198174,
                0.3621873666637835,
                -0.13589020352770287
            ]
        },
        {
            "positions": [
                0.24226514296519408,
                -2.1610078365234164,
                -1.083075429105096,
                0.3031401618432825,
                0.32384404022885294,
                -0.10140186677974838
            ]
        },
        {
            "positions": [
                0.13959174099417293,
                -2.2255248468817417,
                -1.149204793525927,
                0.3783770684345833,
                0.2855007137939223,
                -0.06691353003179379
            ]
        },
        {
            "positions": [
                0.03691833902315178,
                -2.2900418572400674,
                -1.2153341579467587,
                0.4536139750258843,
                0.24715738735899162,
                -0.03242519328383919
            ]
        },
        {
            "positions": [
                -0.06575506294786937,
                -2.3545588675983926,
                -1.2814635223675899,
                0.5288508816171851,
                0.20881406092406096,
                0.0020631434641152913
            ]
        },
        {
            "positions": [
                -0.16842846491889044,
                -2.419075877956718,
                -1.3475928867884213,
                0.6040877882084857,
                0.17047073448913042,
                0.03655148021206973
            ]
        }
    ]
}