{
    "goal": {
        "global_pose": {
            "orientation": {
                "w": 0.005598929693374612,
                "x": 0.007748599140229565,
                "y": 0.7110244013736278,
                "z": -0.7031023480610252
            },
            "position": {
                "x": -0.8858502320852131,
                "y": -0.7141253447532654,
                "z": 0.3711530566215515
            }
        },
        "name": "move_to_auspresseinheit_C"
    },
    "id": "ProjEST_move_to_auspresseinheit_C_66",
    "joint_names": [
        "shoulder_pan_joint",
        "shoulder_lift_joint",
        "elbow_joint",
        "wrist_1_joint",
        "wrist_2_joint",
        "wrist_3_joint"
    ],
    "metrics": {
        "cart_traj_len": 0.49207108438184827,
        "distance_elbow_joint": 0.9922419839045133,
        "distance_shoulder_lift_joint": 0.3215254594792064,
        "distance_shoulder_pan_joint": 0.2556053806321561,
        "distance_wrist_1_joint": 0.6610313646871118,
        "distance_wrist_2_joint": 1.3171246454707828,
        "distance_wrist_3_joint": 0.04309313062705744,
        "smoothness": 1.1304088990788627e-15,
        "time": 1.270472162,
        "traj_len": 1.8948936552748357,
        "weighted_distance": 2.378016870464303
    },
    "planner": "ProjEST",
    "start": {
        "state": {
            "elbow_joint": 1.752795957773711,
            "shoulder_lift_joint": -0.9740617694225064,
            "shoulder_pan_joint": -2.967991417825858,
            "wrist_1_joint": -0.7595177689806859,
            "wrist_2_joint": 1.7443932448377395,
            "wrist_3_joint": 3.199131542505932
        }
    },
    "waypoints": [
        {
            "positions": [
                -2.967991417825858,
                -0.9740617694225064,
                1.752795957773711,
                -0.7595177689806859,
                1.7443932448377395,
                3.199131542505932
            ]
        },
        {
            "positions": [
                -2.942430879762642,
                -0.9419092234745858,
                1.6535717593832597,
                -0.6934146325119748,
                1.6126807802906613,
                3.1948222294432265
            ]
        },
        {
            "positions": [
                -2.916870341699427,
                -0.9097566775266651,
                1.5543475609928084,
                -0.6273114960432635,
                1.480968315743583,
                3.190512916380521
            ]
        },
        {
            "positions": [
                -2.891309803636211,
                -0.8776041315787445,
                1.4551233626023572,
                -0.5612083595745524,
                1.3492558511965047,
                3.1862036033178147
            ]
        },
        {
            "positions": [
                -2.8657492655729957,
                -0.8454515856308239,
                1.3558991642119058,
                -0.4951052231058412,
                1.2175433866494263,
                3.181894290255109
            ]
        },
        {
            "positions": [
                -2.84018872750978,
                -0.8132990396829032,
                1.2566749658214544,
                -0.42900208663713,
                1.085830922102348,
                3.1775849771924034
            ]
        },
        {
            "positions": [
                -2.814628189446564,
                -0.7811464937349826,
                1.157450767431003,
                -0.36289895016841883,
                0.9541184575552698,
                3.1732756641296977
            ]
        },
        {
            "positions": [
                -2.7890676513833488,
                -0.748993947787062,
                1.058226569040552,
                -0.2967958136997077,
                0.8224059930081916,
                3.168966351066992
            ]
        },
        {
            "positions": [
                -2.763507113320133,
                -0.7168414018391414,
                0.9590023706501004,
                -0.2306926772309965,
                0.6906935284611133,
                3.164657038004286
            ]
        },
        {
            "positions": [
                -2.7379465752569176,
                -0.6846888558912206,
                0.859778172259649,
                -0.16458954076228527,
                0.5589810639140349,
                3.1603477249415803
            ]
        },
        {
            "positions": [
                -2.712386037193702,
                -0.6525363099433,
                0.7605539738691978,
                -0.09848640429357418,
                0.42726859936695666,
                3.1560384118788747
            ]
        }
    ]
}