{
    "goal": {
        "global_pose": {
            "orientation": {
                "w": 0.005598929693374612,
                "x": 0.007748599140229565,
                "y": 0.7110244013736278,
                "z": -0.7031023480610252
            },
            "position": {
                "x": 0.1141497679147869,
                "y": -0.7141253447532654,
                "z": 0.3711530566215515
            }
        },
        "name": "move_to_auspresseinheit_B"
    },
    "id": "ProjEST_move_to_auspresseinheit_B_24",
    "joint_names": [
        "shoulder_pan_joint",
        "shoulder_lift_joint",
        "elbow_joint",
        "wrist_1_joint",
        "wrist_2_joint",
        "wrist_3_joint"
    ],
    "metrics": {
        "cart_traj_len": 0.5646667310882799,
        "distance_elbow_joint": 0.06170812874760312,
        "distance_shoulder_lift_joint": 0.29433792319208796,
        "distance_shoulder_pan_joint": 0.5791178019745249,
        "distance_wrist_1_joint": 0.3260637746835162,
        "distance_wrist_2_joint": 0.9851192986283615,
        "distance_wrist_3_joint": 0.0003456377067201366,
        "smoothness": 0.0,
        "time": 0.341240075,
        "traj_len": 1.4988971161933742,
        "weighted_distance": 1.8864164210635286
    },
    "planner": "ProjEST",
    "start": {
        "state": {
            "elbow_joint": 2.019306165916698,
            "shoulder_lift_joint": -1.1220205098164344,
            "shoulder_pan_joint": -1.095207207618794,
            "wrist_1_joint": -0.8559671824921639,
            "wrist_2_joint": 0.47596387242952726,
            "wrist_3_joint": 3.159081874673826
        }
    },
    "waypoints": [
        {
            "positions": [
                -1.095207207618794,
                -1.1220205098164344,
                2.019306165916698,
                -0.8559671824921639,
                0.47596387242952726,
                3.159081874673826
            ]
        },
        {
            "positions": [
                -1.1917268412812148,
                -1.1710768303484491,
                2.0090214777920976,
                -0.8016232200449112,
                0.6401504222009209,
                3.1590242683893726
            ]
        },
        {
            "positions": [
                -1.2882464749436355,
                -1.2201331508804638,
                1.998736789667497,
                -0.7472792575976585,
                0.8043369719723144,
                3.1589666621049193
            ]
        },
        {
            "positions": [
                -1.3847661086060565,
                -1.2691894714124783,
                1.9884521015428964,
                -0.6929352951504058,
                0.968523521743708,
                3.158909055820466
            ]
        },
        {
            "positions": [
                -1.481285742268477,
                -1.318245791944493,
                1.9781674134182958,
                -0.638591332703153,
                1.1327100715151015,
                3.1588514495360123
            ]
        },
        {
            "positions": [
                -1.577805375930898,
                -1.3673021124765077,
                1.9678827252936955,
                -0.5842473702559003,
                1.2968966212864952,
                3.158793843251559
            ]
        },
        {
            "positions": [
                -1.6743250095933189,
                -1.4163584330085224,
                1.9575980371690949,
                -0.5299034078086476,
                1.4610831710578887,
                3.1587362369671057
            ]
        }
    ]
}