{
    "goal": {
        "global_pose": {
            "orientation": {
                "w": -0.00223480608172531,
                "x": 0.0024358444001904467,
                "y": 0.7094548369677653,
                "z": -0.704743149386269
            },
            "position": {
                "x": 0.6205249238014221,
                "y": -0.6371506643295288,
                "z": 0.19426114857196808
            }
        },
        "name": "move_to_magneteinheit_B"
    },
    "id": "ProjEST_move_to_magneteinheit_B_22",
    "joint_names": [
        "shoulder_pan_joint",
        "shoulder_lift_joint",
        "elbow_joint",
        "wrist_1_joint",
        "wrist_2_joint",
        "wrist_3_joint"
    ],
    "metrics": {
        "cart_traj_len": 1.4535069144083737,
        "distance_elbow_joint": 0.7308416555792032,
        "distance_shoulder_lift_joint": 1.2485472107453708,
        "distance_shoulder_pan_joint": 1.621986818614177,
        "distance_wrist_1_joint": 2.6055745435871183,
        "distance_wrist_2_joint": 2.9330373887573367,
        "distance_wrist_3_joint": 3.140543859792573,
        "smoothness": 2.4980018173577986e-16,
        "time": 0.143576483,
        "traj_len": 3.504358925263761,
        "weighted_distance": 4.909198623910564
    },
    "planner": "ProjEST",
    "start": {
        "state": {
            "elbow_joint": 2.3935871308073637,
            "shoulder_lift_joint": -1.9085141043777403,
            "shoulder_pan_joint": 0.7066247067284167,
            "wrist_1_joint": -0.46782909355067076,
            "wrist_2_joint": 0.7096259085804283,
            "wrist_3_joint": -3.1358149275257428
        }
    },
    "waypoints": [
        {
            "positions": [
                0.7066247067284167,
                -1.9085141043777403,
                2.3935871308073637,
                -0.46782909355067076,
                0.7096259085804283,
                -3.1358149275257428
            ]
        },
        {
            "positions": [
                0.6543025512892497,
                -1.8682383879020832,
                2.370011593530615,
                -0.383778301822054,
                0.6150117992656755,
                -3.034507061080821
            ]
        },
        {
            "positions": [
                0.6019803958500827,
                -1.827962671426426,
                2.3464360562538666,
                -0.29972751009343734,
                0.5203976899509227,
                -2.9331991946358995
            ]
        },
        {
            "positions": [
                0.5496582404109157,
                -1.787686954950769,
                2.322860518977118,
                -0.2156767183648206,
                0.4257835806361699,
                -2.8318913281909777
            ]
        },
        {
            "positions": [
                0.49733608497174875,
                -1.7474112384751117,
                2.29928498170037,
                -0.13162592663620387,
                0.3311694713214171,
                -2.730583461746056
            ]
        },
        {
            "positions": [
                0.44501392953258173,
                -1.7071355219994546,
                2.2757094444236214,
                -0.04757513490758719,
                0.23655536200666433,
                -2.6292755953011344
            ]
        },
        {
            "positions": [
                0.3926917740934147,
                -1.6668598055237975,
                2.252133907146873,
                0.036475656821029545,
                0.1419412526919115,
                -2.5279677288562126
            ]
        },
        {
            "positions": [
                0.3403696186542477,
                -1.6265840890481404,
                2.2285583698701243,
                0.12052644854964628,
                0.04732714337715871,
                -2.4266598624112907
            ]
        },
        {
            "positions": [
                0.28804746321508073,
                -1.5863083725724834,
                2.204982832593376,
                0.20457724027826302,
                -0.04728696593759407,
                -2.3253519959663693
            ]
        },
        {
            "positions": [
                0.23572530777591366,
                -1.546032656096826,
                2.1814072953166272,
                0.28862803200687975,
                -0.14190107525234696,
                -2.2240441295214475
            ]
        },
        {
            "positions": [
                0.18340315233674676,
                -1.5057569396211692,
                2.1578317580398787,
                0.3726788237354964,
                -0.23651518456709963,
                -2.1227362630765256
            ]
        },
        {
            "positions": [
                0.13108099689757968,
                -1.4654812231455119,
                2.13425622076313,
                0.4567296154641132,
                -0.3311292938818525,
                -2.0214283966316042
            ]
        },
        {
            "positions": [
                0.07875884145841272,
                -1.4252055066698548,
                2.110680683486382,
                0.5407804071927298,
                -0.4257434031966053,
                -1.9201205301866824
            ]
        },
        {
            "positions": [
                0.026436686019245648,
                -1.3849297901941977,
                2.0871051462096335,
                0.6248311989213466,
                -0.5203575125113581,
                -1.8188126637417605
            ]
        },
        {
            "positions": [
                -0.025885469419921314,
                -1.3446540737185406,
                2.063529608932885,
                0.7088819906499633,
                -0.6149716218261109,
                -1.717504797296839
            ]
        },
        {
            "positions": [
                -0.07820762485908839,
                -1.3043783572428835,
                2.0399540716561364,
                0.7929327823785799,
                -0.7095857311408637,
                -1.616196930851917
            ]
        },
        {
            "positions": [
                -0.13052978029825524,
                -1.2641026407672262,
                2.016378534379388,
                0.8769835741071967,
                -0.8041998404556164,
                -1.5148890644069957
            ]
        },
        {
            "positions": [
                -0.1828519357374222,
                -1.2238269242915694,
                1.9928029971026393,
                0.9610343658358134,
                -0.8988139497703692,
                -1.413581197962074
            ]
        },
        {
            "positions": [
                -0.23517409117658938,
                -1.183551207815912,
                1.9692274598258908,
                1.0450851575644302,
                -0.9934280590851222,
                -1.312273331517152
            ]
        },
        {
            "positions": [
                -0.28749624661575635,
                -1.143275491340255,
                1.9456519225491424,
                1.1291359492930468,
                -1.0880421683998747,
                -1.2109654650722304
            ]
        },
        {
            "positions": [
                -0.3398184020549232,
                -1.1029997748645979,
                1.9220763852723939,
                1.2131867410216635,
                -1.1826562777146274,
                -1.109657598627309
            ]
        },
        {
            "positions": [
                -0.39214055749409027,
                -1.0627240583889408,
                1.8985008479956456,
                1.29723753275028,
                -1.2772703870293802,
                -1.008349732182387
            ]
        },
        {
            "positions": [
                -0.44446271293325734,
                -1.0224483419132837,
                1.874925310718897,
                1.3812883244788972,
                -1.3718844963441335,
                -0.9070418657374653
            ]
        },
        {
            "positions": [
                -0.4967848683724244,
                -0.9821726254376265,
                1.8513497734421485,
                1.4653391162075138,
                -1.4664986056588862,
                -0.8057339992925434
            ]
        },
        {
            "positions": [
                -0.5491070238115913,
                -0.9418969089619693,
                1.8277742361654,
                1.5493899079361304,
                -1.561112714973639,
                -0.704426132847622
            ]
        },
        {
            "positions": [
                -0.6014291792507583,
                -0.9016211924863122,
                1.8041986988886514,
                1.6334406996647468,
                -1.6557268242883914,
                -0.6031182664027002
            ]
        },
        {
            "positions": [
                -0.6537513346899254,
                -0.8613454760106551,
                1.7806231616119028,
                1.717491491393364,
                -1.7503409336031446,
                -0.5018103999577783
            ]
        },
        {
            "positions": [
                -0.7060734901290923,
                -0.8210697595349981,
                1.7570476243351545,
                1.8015422831219805,
                -1.8449550429178974,
                -0.4005025335128569
            ]
        },
        {
            "positions": [
                -0.7583956455682593,
                -0.780794043059341,
                1.7334720870584062,
                1.8855930748505974,
                -1.9395691522326501,
                -0.29919466706793507
            ]
        },
        {
            "positions": [
                -0.8107178010074262,
                -0.7405183265836839,
                1.7098965497816576,
                1.9696438665792138,
                -2.034183261547403,
                -0.19788680062301367
            ]
        },
        {
            "positions": [
                -0.8630399564465935,
                -0.7002426101080266,
                1.686321012504909,
                2.0536946583078306,
                -2.1287973708621557,
                -0.09657893417809138
            ]
        },
        {
            "positions": [
                -0.9153621118857603,
                -0.6599668936323696,
                1.6627454752281605,
                2.1377454500364474,
                -2.2234114801769085,
                0.004728932266830185
            ]
        }
    ]
}