{
    "goal": {
        "global_pose": {
            "orientation": {
                "w": 0.7047431468963623,
                "x": -0.7094548344612122,
                "y": 0.0024358443915843964,
                "z": -0.0022348060738295317
            },
            "position": {
                "x": 0.6094750761985779,
                "y": 0.3671506643295288,
                "z": 0.19426114857196808
            }
        },
        "name": "move_to_magneteinheit_A"
    },
    "id": "ProjEST_move_to_magneteinheit_A_112",
    "joint_names": [
        "shoulder_pan_joint",
        "shoulder_lift_joint",
        "elbow_joint",
        "wrist_1_joint",
        "wrist_2_joint",
        "wrist_3_joint"
    ],
    "metrics": {
        "cart_traj_len": 1.0521559159883573,
        "distance_elbow_joint": 0.4138543498511731,
        "distance_shoulder_lift_joint": 0.3499063236460107,
        "distance_shoulder_pan_joint": 1.2400372684785699,
        "distance_wrist_1_joint": 2.3568699413999883,
        "distance_wrist_2_joint": 1.6886606825265151,
        "distance_wrist_3_joint": 1.0919088582619447,
        "smoothness": 0.0,
        "time": 0.080128529,
        "traj_len": 2.6723093803233566,
        "weighted_distance": 3.6565811579417455
    },
    "planner": "ProjEST",
    "start": {
        "state": {
            "elbow_joint": 1.5739458966750683,
            "shoulder_lift_joint": -1.4977259741207325,
            "shoulder_pan_joint": -1.1188672016454206,
            "wrist_1_joint": 1.494575848278785,
            "wrist_2_joint": -1.5706037134824402,
            "wrist_3_joint": -2.0226957942261072
        }
    },
    "waypoints": [
        {
            "positions": [
                -1.1188672016454206,
                -1.4977259741207325,
                1.5739458966750683,
                1.494575848278785,
                -1.5706037134824402,
                -2.0226957942261072
            ]
        },
        {
            "positions": [
                -1.0536020822518117,
                -1.479309851823574,
                1.5957277045619722,
                1.370530061889312,
                -1.4817268354547288,
                -2.0801646815030517
            ]
        },
        {
            "positions": [
                -0.9883369628582028,
                -1.4608937295264155,
                1.617509512448876,
                1.2464842754998389,
                -1.3928499574270177,
                -2.137633568779996
            ]
        },
        {
            "positions": [
                -0.9230718434645938,
                -1.442477607229257,
                1.63929132033578,
                1.1224384891103658,
                -1.3039730793993063,
                -2.1951024560569405
            ]
        },
        {
            "positions": [
                -0.8578067240709849,
                -1.4240614849320987,
                1.6610731282226838,
                0.9983927027208928,
                -1.215096201371595,
                -2.252571343333885
            ]
        },
        {
            "positions": [
                -0.7925416046773759,
                -1.40564536263494,
                1.6828549361095875,
                0.8743469163314197,
                -1.1262193233438835,
                -2.3100402306108294
            ]
        },
        {
            "positions": [
                -0.727276485283767,
                -1.3872292403377817,
                1.7046367439964913,
                0.7503011299419466,
                -1.0373424453161721,
                -2.367509117887774
            ]
        },
        {
            "positions": [
                -0.6620113658901581,
                -1.3688131180406233,
                1.7264185518833952,
                0.6262553435524736,
                -0.948465567288461,
                -2.4249780051647183
            ]
        },
        {
            "positions": [
                -0.5967462464965492,
                -1.350396995743465,
                1.748200359770299,
                0.5022095571630005,
                -0.8595886892607497,
                -2.4824468924416627
            ]
        },
        {
            "positions": [
                -0.5314811271029402,
                -1.3319808734463063,
                1.769982167657203,
                0.3781637707735275,
                -0.7707118112330383,
                -2.5399157797186076
            ]
        },
        {
            "positions": [
                -0.46621600770933125,
                -1.313564751149148,
                1.7917639755441068,
                0.2541179843840544,
                -0.6818349332053271,
                -2.597384666995552
            ]
        },
        {
            "positions": [
                -0.40095088831572223,
                -1.2951486288519893,
                1.8135457834310107,
                0.13007219799458114,
                -0.5929580551776156,
                -2.6548535542724965
            ]
        },
        {
            "positions": [
                -0.33568576892211344,
                -1.276732506554831,
                1.8353275913179146,
                0.006026411605108306,
                -0.5040811771499043,
                -2.712322441549441
            ]
        },
        {
            "positions": [
                -0.2704206495285044,
                -1.2583163842576726,
                1.8571093992048184,
                -0.11801937478436497,
                -0.4152042991221929,
                -2.7697913288263853
            ]
        },
        {
            "positions": [
                -0.20515553013489551,
                -1.2399002619605142,
                1.8788912070917223,
                -0.2420651611738378,
                -0.32632742109448176,
                -2.82726021610333
            ]
        },
        {
            "positions": [
                -0.1398904107412865,
                -1.2214841396633556,
                1.9006730149786262,
                -0.3661109475633111,
                -0.23745054306677038,
                -2.884729103380274
            ]
        },
        {
            "positions": [
                -0.0746252913476777,
                -1.2030680173661972,
                1.9224548228655298,
                -0.4901567339527839,
                -0.14857366503905922,
                -2.9421979906572187
            ]
        },
        {
            "positions": [
                -0.009360171954068575,
                -1.1846518950690386,
                1.9442366307524337,
                -0.6142025203422572,
                -0.05969678701134762,
                -2.999666877934163
            ]
        },
        {
            "positions": [
                0.05590494743954033,
                -1.1662357727718802,
                1.9660184386393376,
                -0.73824830673173,
                0.02918009101636354,
                -3.0571357652111075
            ]
        },
        {
            "positions": [
                0.12117006683314922,
                -1.1478196504747218,
                1.9878002465262414,
                -0.8622940931212032,
                0.11805696904407492,
                -3.114604652488052
            ]
        }
    ]
}