{
    "goal": {
        "global_pose": {
            "orientation": {
                "w": 0.5084816217422485,
                "x": -0.49083608388900757,
                "y": 0.5182115435600281,
                "z": -0.4816462993621826
            },
            "position": {
                "x": 0.5540239810943604,
                "y": 0.030875300988554955,
                "z": 0.16403168439865112
            }
        },
        "name": "move_to_storage_A"
    },
    "id": "ProjEST_move_to_storage_A_99",
    "joint_names": [
        "shoulder_pan_joint",
        "shoulder_lift_joint",
        "elbow_joint",
        "wrist_1_joint",
        "wrist_2_joint",
        "wrist_3_joint"
    ],
    "metrics": {
        "cart_traj_len": 0.3538148554156832,
        "distance_elbow_joint": 0.4513643915093448,
        "distance_shoulder_lift_joint": 0.23458514376065365,
        "distance_shoulder_pan_joint": 0.4592114677365335,
        "distance_wrist_1_joint": 0.2535282559359485,
        "distance_wrist_2_joint": 1.1148093094665161,
        "distance_wrist_3_joint": 0.10572859363705511,
        "smoothness": 8.881784197001252e-16,
        "time": 0.070689191,
        "traj_len": 1.6184026575750707,
        "weighted_distance": 2.0491515109241254
    },
    "planner": "ProjEST",
    "start": {
        "state": {
            "elbow_joint": 1.9715474177455299,
            "shoulder_lift_joint": -1.139484666580328,
            "shoulder_pan_joint": 0.12281154398918248,
            "wrist_1_joint": -0.7804687475355282,
            "wrist_2_joint": 0.12958649657246987,
            "wrist_3_joint": -3.1924925159053466
        }
    },
    "waypoints": [
        {
            "positions": [
                0.12281154398918248,
                -1.139484666580328,
                1.9715474177455299,
                -0.7804687475355282,
                0.12958649657246987,
                -3.1924925159053466
            ]
        },
        {
            "positions": [
                0.05720990574110628,
                -1.1729968299747071,
                2.0360280451040076,
                -0.8166870698120923,
                0.28884496935340076,
                -3.177388431100053
            ]
        },
        {
            "positions": [
                -0.008391732506969923,
                -1.2065089933690862,
                2.1005086724624857,
                -0.8529053920886563,
                0.4481034421343316,
                -3.162284346294759
            ]
        },
        {
            "positions": [
                -0.07399337075504614,
                -1.2400211567634654,
                2.1649892998209634,
                -0.8891237143652204,
                0.6073619149152626,
                -3.1471802614894657
            ]
        },
        {
            "positions": [
                -0.13959500900312233,
                -1.2735333201578443,
                2.229469927179441,
                -0.9253420366417845,
                0.7666203876961935,
                -3.1320761766841723
            ]
        },
        {
            "positions": [
                -0.20519664725119857,
                -1.3070454835522234,
                2.2939505545379193,
                -0.9615603589183486,
                0.9258788604771244,
                -3.116972091878879
            ]
        },
        {
            "positions": [
                -0.27079828549927476,
                -1.3405576469466025,
                2.358431181896397,
                -0.9977786811949126,
                1.0851373332580552,
                -3.101868007073585
            ]
        },
        {
            "positions": [
                -0.336399923747351,
                -1.3740698103409816,
                2.4229118092548747,
                -1.0339970034714767,
                1.2443958060389861,
                -3.0867639222682914
            ]
        }
    ]
}