{
    "goal": {
        "global_pose": {
            "orientation": {
                "w": -0.00223480608172531,
                "x": 0.0024358444001904467,
                "y": 0.7094548369677653,
                "z": -0.704743149386269
            },
            "position": {
                "x": -0.37947507619857795,
                "y": -0.6371506643295288,
                "z": 0.19426114857196808
            }
        },
        "name": "move_to_magneteinheit_C"
    },
    "id": "ProjEST_move_to_magneteinheit_C_93",
    "joint_names": [
        "shoulder_pan_joint",
        "shoulder_lift_joint",
        "elbow_joint",
        "wrist_1_joint",
        "wrist_2_joint",
        "wrist_3_joint"
    ],
    "metrics": {
        "cart_traj_len": 1.6537603971060708,
        "distance_elbow_joint": 1.165356384828851,
        "distance_shoulder_lift_joint": 0.7683246171572227,
        "distance_shoulder_pan_joint": 1.348199605165623,
        "distance_wrist_1_joint": 0.4632288523760266,
        "distance_wrist_2_joint": 0.8693028034523613,
        "distance_wrist_3_joint": 2.5045354729489295,
        "smoothness": 1.0772435977372279,
        "time": 2.0779999229999997,
        "traj_len": 2.6681356292229625,
        "weighted_distance": 3.668862267468658
    },
    "planner": "ProjEST",
    "start": {
        "state": {
            "elbow_joint": 1.9565354006590394,
            "shoulder_lift_joint": -1.4165861576513559,
            "shoulder_pan_joint": -1.6717766223277177,
            "wrist_1_joint": -0.5286633288215096,
            "wrist_2_joint": 1.4727565892594296,
            "wrist_3_joint": 3.1593482883155493
        }
    },
    "waypoints": [
        {
            "positions": [
                -1.6717766223277177,
                -1.4165861576513559,
                1.9565354006590394,
                -0.5286633288215096,
                1.4727565892594296,
                3.1593482883155493
            ]
        },
        {
            "positions": [
                -1.665078105841304,
                -1.4124072085945625,
                1.9671686137787359,
                -0.5182357353888074,
                1.3637215963764757,
                3.033051441833453
            ]
        },
        {
            "positions": [
                -1.6583795893548905,
                -1.4082282595377689,
                1.977801826898432,
                -0.5078081419561051,
                1.254686603493522,
                2.906754595351357
            ]
        },
        {
            "positions": [
                -1.6096611812976689,
                -1.422009144380859,
                1.92549252651629,
                -0.5261197661974665,
                1.1902353851891243,
                2.8078595159753914
            ]
        },
        {
            "positions": [
                -1.5609427732404473,
                -1.435790029223949,
                1.873183226134148,
                -0.5444313904388277,
                1.1257841668847266,
                2.7089644365994254
            ]
        },
        {
            "positions": [
                -1.5122243651832257,
                -1.449570914067039,
                1.820873925752006,
                -0.5627430146801891,
                1.061332948580329,
                2.61006935722346
            ]
        },
        {
            "positions": [
                -1.5050531969871568,
                -1.4928232761034843,
                1.7699824530982722,
                -0.5985836222692178,
                0.9800565541297052,
                2.4686755945875998
            ]
        },
        {
            "positions": [
                -1.497882028791088,
                -1.5360756381399296,
                1.7190909804445385,
                -0.6344242298582466,
                0.8987801596790815,
                2.3272818319517397
            ]
        },
        {
            "positions": [
                -1.490710860595019,
                -1.5793280001763748,
                1.6681995077908045,
                -0.6702648374472754,
                0.8175037652284578,
                2.1858880693158795
            ]
        },
        {
            "positions": [
                -1.4835396923989501,
                -1.62258036221282,
                1.6173080351370708,
                -0.7061054450363042,
                0.7362273707778342,
                2.0444943066800194
            ]
        },
        {
            "positions": [
                -1.4763685242028812,
                -1.6658327242492654,
                1.566416562483337,
                -0.741946052625333,
                0.6549509763272104,
                1.9031005440441595
            ]
        },
        {
            "positions": [
                -1.6299755978702046,
                -1.665358395199527,
                1.6507558430317575,
                -0.7646480123025017,
                0.65238482408949,
                1.991817780149327
            ]
        },
        {
            "positions": [
                -1.783582671537528,
                -1.6648840661497886,
                1.735095123580178,
                -0.7873499719796704,
                0.6498186718517693,
                2.0805350162544944
            ]
        },
        {
            "positions": [
                -1.9371897452048512,
                -1.6644097371000501,
                1.8194344041285984,
                -0.8100519316568391,
                0.6472525196140488,
                2.1692522523596622
            ]
        },
        {
            "positions": [
                -2.0907968188721746,
                -1.6639354080503117,
                1.9037736846770188,
                -0.8327538913340078,
                0.6446863673763283,
                2.2579694884648296
            ]
        },
        {
            "positions": [
                -2.244403892539498,
                -1.6634610790005733,
                1.9881129652254392,
                -0.8554558510111766,
                0.6421202151386078,
                2.346686724569997
            ]
        },
        {
            "positions": [
                -2.3980109662068214,
                -1.6629867499508348,
                2.0724522457738597,
                -0.8781578106883453,
                0.6395540629008872,
                2.4354039606751643
            ]
        },
        {
            "positions": [
                -2.551618039874145,
                -1.6625124209010964,
                2.15679152632228,
                -0.900859770365514,
                0.6369879106631667,
                2.524121196780332
            ]
        },
        {
            "positions": [
                -2.532232542031764,
                -1.537751933155104,
                2.121209093738425,
                -0.8885292610902107,
                0.6453714418771913,
                2.680937965765674
            ]
        },
        {
            "positions": [
                -2.5128470441893835,
                -1.4129914454091113,
                2.0856266611545697,
                -0.8761987518149074,
                0.653754973091216,
                2.837754734751016
            ]
        },
        {
            "positions": [
                -2.4934615463470027,
                -1.2882309576631188,
                2.050044228570715,
                -0.863868242539604,
                0.6621385043052406,
                2.9945715037363576
            ]
        },
        {
            "positions": [
                -2.474076048504622,
                -1.1634704699171263,
                2.01446179598686,
                -0.8515377332643007,
                0.6705220355192651,
                3.1513882727216993
            ]
        }
    ]
}