{
    "goal": {
        "global_pose": {
            "orientation": {
                "w": 0.7047431493862688,
                "x": -0.7094548369677653,
                "y": 0.0024358444001904,
                "z": -0.0022348060817251984
            },
            "position": {
                "x": -0.39052492380142206,
                "y": 0.3671506643295288,
                "z": 0.19426114857196808
            }
        },
        "name": "move_to_magneteinheit_D"
    },
    "id": "ProjEST_move_to_magneteinheit_D_86",
    "joint_names": [
        "shoulder_pan_joint",
        "shoulder_lift_joint",
        "elbow_joint",
        "wrist_1_joint",
        "wrist_2_joint",
        "wrist_3_joint"
    ],
    "metrics": {
        "cart_traj_len": 4.257846523732176,
        "distance_elbow_joint": 3.1400462764075856,
        "distance_shoulder_lift_joint": 1.630123911754842,
        "distance_shoulder_pan_joint": 2.8671834569669414,
        "distance_wrist_1_joint": 1.6462579322782256,
        "distance_wrist_2_joint": 0.5566090157581791,
        "distance_wrist_3_joint": 5.335990471097226,
        "smoothness": 0.3422256783323293,
        "time": 0.329188729,
        "traj_len": 3.8956656766543767,
        "weighted_distance": 5.296325042375502
    },
    "planner": "ProjEST",
    "start": {
        "state": {
            "elbow_joint": 0.7495348899011973,
            "shoulder_lift_joint": -0.6476975780737697,
            "shoulder_pan_joint": -2.711696901376276,
            "wrist_1_joint": -0.07506478080974305,
            "wrist_2_joint": 0.4329665971545858,
            "wrist_3_joint": 3.1361499051832524
        }
    },
    "waypoints": [
        {
            "positions": [
                -2.711696901376276,
                -0.6476975780737697,
                0.7495348899011973,
                -0.07506478080974305,
                0.4329665971545858,
                3.1361499051832524
            ]
        },
        {
            "positions": [
                -2.7122959996683877,
                -0.709657382410375,
                0.7088663500185591,
                -0.0907090287436771,
                0.4564690539217344,
                3.1073080083162656
            ]
        },
        {
            "positions": [
                -2.711770547904809,
                -0.781297682343118,
                0.645788824851994,
                -0.12345050122344883,
                0.4929413026885435,
                3.0561481999864317
            ]
        },
        {
            "positions": [
                -2.6154928649644047,
                -0.8137386928922714,
                0.5524181372187642,
                -0.11201872280334746,
                0.4784838778325681,
                2.908746938763009
            ]
        },
        {
            "positions": [
                -2.5192151820240003,
                -0.8461797034414247,
                0.45904744958553445,
                -0.10058694438324609,
                0.46402645297659273,
                2.7613456775395866
            ]
        },
        {
            "positions": [
                -2.422937499083596,
                -0.878620713990578,
                0.36567676195230464,
                -0.08915516596314471,
                0.4495690281206173,
                2.613944416316164
            ]
        },
        {
            "positions": [
                -2.3266598161431915,
                -0.9110617245397313,
                0.2723060743190749,
                -0.07772338754304334,
                0.4351116032646419,
                2.466543155092741
            ]
        },
        {
            "positions": [
                -2.230382133202787,
                -0.9435027350888847,
                0.17893538668584508,
                -0.06629160912294196,
                0.4206541784086665,
                2.3191418938693182
            ]
        },
        {
            "positions": [
                -2.1341044502623827,
                -0.975943745638038,
                0.08556469905261532,
                -0.05485983070284059,
                0.4061967535526911,
                2.1717406326458955
            ]
        },
        {
            "positions": [
                -2.0378267673219783,
                -1.0083847561871913,
                -0.007805988580614431,
                -0.043428052282739216,
                0.3917393286967157,
                2.0243393714224727
            ]
        },
        {
            "positions": [
                -1.9415490843815737,
                -1.0408257667363445,
                -0.10117667621384419,
                -0.03199627386263784,
                0.37728190384074023,
                1.8769381101990503
            ]
        },
        {
            "positions": [
                -1.845271401441169,
                -1.073266777285498,
                -0.19454736384707405,
                -0.020564495442536454,
                0.36282447898476483,
                1.7295368489756273
            ]
        },
        {
            "positions": [
                -1.7489937185007647,
                -1.1057077878346513,
                -0.2879180514803038,
                -0.009132717022435094,
                0.34836705412878943,
                1.5821355877522048
            ]
        },
        {
            "positions": [
                -1.6527160355603605,
                -1.1381487983838046,
                -0.38128873911353345,
                0.00229906139766628,
                0.333909629272814,
                1.4347343265287822
            ]
        },
        {
            "positions": [
                -1.5564383526199561,
                -1.170589808932958,
                -0.4746594267467633,
                0.013730839817767654,
                0.31945220441683864,
                1.2873330653053596
            ]
        },
        {
            "positions": [
                -1.4601606696795515,
                -1.2030308194821113,
                -0.5680301143799932,
                0.025162618237869028,
                0.3049947795608632,
                1.1399318040819366
            ]
        },
        {
            "positions": [
                -1.363882986739147,
                -1.2354718300312646,
                -0.6614008020132228,
                0.0365943966579704,
                0.2905373547048878,
                0.992530542858514
            ]
        },
        {
            "positions": [
                -1.2676053037987427,
                -1.267912840580418,
                -0.7547714896464525,
                0.048026175078071776,
                0.2760799298489124,
                0.8451292816350913
            ]
        },
        {
            "positions": [
                -1.1713276208583383,
                -1.3003538511295711,
                -0.8481421772796823,
                0.05945795349817315,
                0.261622504992937,
                0.6977280204116689
            ]
        },
        {
            "positions": [
                -1.075049937917934,
                -1.3327948616787246,
                -0.941512864912912,
                0.0708897319182745,
                0.24716508013696156,
                0.5503267591882461
            ]
        },
        {
            "positions": [
                -0.9787722549775293,
                -1.3652358722278781,
                -1.034883552546142,
                0.08232151033837593,
                0.23270765528098614,
                0.4029254979648229
            ]
        },
        {
            "positions": [
                -0.8824945720371249,
                -1.3976768827770312,
                -1.1282542401793716,
                0.09375328875847727,
                0.21825023042501074,
                0.25552423674140057
            ]
        },
        {
            "positions": [
                -0.7862168890967205,
                -1.4301178933261847,
                -1.2216249278126017,
                0.10518506717857865,
                0.20379280556903534,
                0.10812297551797778
            ]
        },
        {
            "positions": [
                -0.6899392061563159,
                -1.462558903875338,
                -1.3149956154458313,
                0.11661684559868002,
                0.1893353807130599,
                -0.039278285705445004
            ]
        },
        {
            "positions": [
                -0.5936615232159119,
                -1.4949999144244912,
                -1.408366303079061,
                0.1280486240187814,
                0.1748779558570845,
                -0.18667954692886735
            ]
        },
        {
            "positions": [
                -0.4973838402755075,
                -1.5274409249736447,
                -1.5017369907122906,
                0.13948040243888274,
                0.1604205310011091,
                -0.33408080815229013
            ]
        },
        {
            "positions": [
                -0.40110615733510313,
                -1.5598819355227977,
                -1.5951076783455207,
                0.15091218085898414,
                0.1459631061451337,
                -0.4814820693757125
            ]
        },
        {
            "positions": [
                -0.3048284743946983,
                -1.5923229460719512,
                -1.6884783659787503,
                0.16234395927908554,
                0.13150568128915824,
                -0.6288833305991357
            ]
        },
        {
            "positions": [
                -0.2085507914542939,
                -1.6247639566211047,
                -1.7818490536119804,
                0.1737757376991869,
                0.11704825643318284,
                -0.7762845918225585
            ]
        },
        {
            "positions": [
                -0.1122731085138895,
                -1.657204967170258,
                -1.87521974124521,
                0.1852075161192883,
                0.10259083157720744,
                -0.9236858530459808
            ]
        },
        {
            "positions": [
                -0.015995425573485073,
                -1.6896459777194113,
                -1.9685904288784395,
                0.1966392945393896,
                0.08813340672123204,
                -1.0710871142694036
            ]
        },
        {
            "positions": [
                -0.020703480106028457,
                -1.7536369905681448,
                -2.015341711009314,
                0.3342263561811219,
                0.09489104983120217,
                -0.9563922976834188
            ]
        },
        {
            "positions": [
                -0.02541153463857184,
                -1.8176280034168784,
                -2.062092993140188,
                0.4718134178228542,
                0.10164869294117228,
                -0.841697481097434
            ]
        },
        {
            "positions": [
                -0.03011958917111523,
                -1.881619016265612,
                -2.1088442752710623,
                0.6094004794645864,
                0.10840633605114239,
                -0.7270026645114492
            ]
        },
        {
            "positions": [
                -0.03482764370365861,
                -1.9456100291143454,
                -2.1555955574019365,
                0.7469875411063187,
                0.11516397916111251,
                -0.6123078479254644
            ]
        },
        {
            "positions": [
                -0.039535698236201997,
                -2.009601041963079,
                -2.2023468395328107,
                0.884574602748051,
                0.12192162227108264,
                -0.49761303133947954
            ]
        },
        {
            "positions": [
                -0.044243752768745384,
                -2.0735920548118125,
                -2.249098121663685,
                1.0221616643897833,
                0.12867926538105273,
                -0.38291821475349486
            ]
        },
        {
            "positions": [
                -0.04895180730128877,
                -2.1375830676605463,
                -2.295849403794559,
                1.1597487260315156,
                0.13543690849102286,
                -0.26822339816750995
            ]
        },
        {
            "positions": [
                -0.05365986183383215,
                -2.20157408050928,
                -2.3426006859254334,
                1.2973357876732479,
                0.14219455160099298,
                -0.15352858158152527
            ]
        },
        {
            "positions": [
                -0.05836791636637554,
                -2.2655650933580134,
                -2.3893519680563076,
                1.4349228493149802,
                0.1489521947109631,
                -0.03883376499554037
            ]
        },
        {
            "positions": [
                -0.18627921015341284,
                -2.2778214898286118,
                -2.3881925496062273,
                1.474421710641071,
                0.1799598209781419,
                0.057666337375166875
            ]
        }
    ]
}