{
    "goal": {
        "global_pose": {
            "orientation": {
                "w": -0.00223480608172531,
                "x": 0.0024358444001904467,
                "y": 0.7094548369677653,
                "z": -0.704743149386269
            },
            "position": {
                "x": 0.6205249238014221,
                "y": -0.6371506643295288,
                "z": 0.19426114857196808
            }
        },
        "name": "move_to_magneteinheit_B"
    },
    "id": "ProjEST_move_to_magneteinheit_B_40",
    "joint_names": [
        "shoulder_pan_joint",
        "shoulder_lift_joint",
        "elbow_joint",
        "wrist_1_joint",
        "wrist_2_joint",
        "wrist_3_joint"
    ],
    "metrics": {
        "cart_traj_len": 1.4545502110265411,
        "distance_elbow_joint": 0.7291618670916151,
        "distance_shoulder_lift_joint": 1.2465038440508085,
        "distance_shoulder_pan_joint": 1.6206345559576771,
        "distance_wrist_1_joint": 2.6191476705706602,
        "distance_wrist_2_joint": 2.948843329540455,
        "distance_wrist_3_joint": 3.143704353231145,
        "smoothness": 1.3457248813978723e-16,
        "time": 0.041670909,
        "traj_len": 3.508275305679752,
        "weighted_distance": 4.915627663586388
    },
    "planner": "ProjEST",
    "start": {
        "state": {
            "elbow_joint": 2.3935871308073637,
            "shoulder_lift_joint": -1.9085141043777403,
            "shoulder_pan_joint": 0.7066247067284167,
            "wrist_1_joint": -0.46782909355067076,
            "wrist_2_joint": 0.7096259085804283,
            "wrist_3_joint": -3.1358149275257428
        }
    },
    "waypoints": [
        {
            "positions": [
                0.7066247067284167,
                -1.9085141043777403,
                2.3935871308073637,
                -0.46782909355067076,
                0.7096259085804283,
                -3.1358149275257428
            ]
        },
        {
            "positions": [
                0.6559798768547394,
                -1.8695608592511526,
                2.3708008224607506,
                -0.38598072884533763,
                0.617474554532289,
                -3.0375741664872695
            ]
        },
        {
            "positions": [
                0.6053350469810619,
                -1.8306076141245646,
                2.348014514114138,
                -0.3041323641400045,
                0.5253232004841498,
                -2.9393334054487963
            ]
        },
        {
            "positions": [
                0.5546902171073844,
                -1.791654368997977,
                2.325228205767525,
                -0.22228399943467136,
                0.43317184643601064,
                -2.841092644410323
            ]
        },
        {
            "positions": [
                0.5040453872337071,
                -1.7527011238713892,
                2.3024418974209118,
                -0.14043563472933823,
                0.3410204923878714,
                -2.74285188337185
            ]
        },
        {
            "positions": [
                0.45340055736002965,
                -1.7137478787448015,
                2.2796555890742987,
                -0.0585872700240051,
                0.24886913833973218,
                -2.6446111223333766
            ]
        },
        {
            "positions": [
                0.40275572748635224,
                -1.6747946336182138,
                2.256869280727686,
                0.02326109468132803,
                0.156717784291593,
                -2.546370361294903
            ]
        },
        {
            "positions": [
                0.35211089761267483,
                -1.6358413884916259,
                2.234082972381073,
                0.10510945938666111,
                0.06456643024345377,
                -2.4481296002564297
            ]
        },
        {
            "positions": [
                0.3014660677389974,
                -1.5968881433650381,
                2.21129666403446,
                0.1869578240919943,
                -0.02758492380468547,
                -2.3498888392179564
            ]
        },
        {
            "positions": [
                0.25082123786532,
                -1.5579348982384504,
                2.188510355687847,
                0.2688061887973275,
                -0.1197362778528247,
                -2.251648078179483
            ]
        },
        {
            "positions": [
                0.2001764079916426,
                -1.5189816531118625,
                2.165724047341234,
                0.35065455350266056,
                -0.21188763190096394,
                -2.15340731714101
            ]
        },
        {
            "positions": [
                0.14953157811796525,
                -1.4800284079852748,
                2.142937738994621,
                0.43250291820799364,
                -0.30403898594910317,
                -2.0551665561025367
            ]
        },
        {
            "positions": [
                0.09888674824428778,
                -1.441075162858687,
                2.120151430648008,
                0.5143512829133268,
                -0.3961903399972423,
                -1.9569257950640635
            ]
        },
        {
            "positions": [
                0.048241918370610315,
                -1.4021219177320994,
                2.097365122301395,
                0.59619964761866,
                -0.48834169404538164,
                -1.8586850340255903
            ]
        },
        {
            "positions": [
                -0.00240291150306704,
                -1.3631686726055117,
                2.074578813954782,
                0.6780480123239929,
                -0.5804930480935208,
                -1.7604442729871168
            ]
        },
        {
            "positions": [
                -0.053047741376744395,
                -1.3242154274789237,
                2.0517925056081694,
                0.7598963770293261,
                -0.6726444021416601,
                -1.6622035119486436
            ]
        },
        {
            "positions": [
                -0.10369257125042186,
                -1.285262182352336,
                2.0290061972615563,
                0.8417447417346593,
                -0.7647957561897992,
                -1.5639627509101703
            ]
        },
        {
            "positions": [
                -0.15433740112409933,
                -1.2463089372257483,
                2.006219888914943,
                0.9235931064399925,
                -0.8569471102379383,
                -1.465721989871697
            ]
        },
        {
            "positions": [
                -0.20498223099777668,
                -1.2073556920991604,
                1.9834335805683303,
                1.0054414711453257,
                -0.9490984642860777,
                -1.3674812288332239
            ]
        },
        {
            "positions": [
                -0.25562706087145404,
                -1.1684024469725727,
                1.9606472722217172,
                1.0872898358506586,
                -1.041249818334217,
                -1.2692404677947504
            ]
        },
        {
            "positions": [
                -0.3062718907451315,
                -1.129449201845985,
                1.9378609638751043,
                1.1691382005559918,
                -1.133401172382356,
                -1.1709997067562772
            ]
        },
        {
            "positions": [
                -0.35691672061880897,
                -1.0904959567193973,
                1.9150746555284912,
                1.250986565261325,
                -1.2255525264304952,
                -1.072758945717804
            ]
        },
        {
            "positions": [
                -0.4075615504924862,
                -1.0515427115928095,
                1.8922883471818783,
                1.332834929966658,
                -1.3177038804786347,
                -0.9745181846793307
            ]
        },
        {
            "positions": [
                -0.4582063803661637,
                -1.0125894664662216,
                1.8695020388352654,
                1.4146832946719912,
                -1.4098552345267739,
                -0.8762774236408575
            ]
        },
        {
            "positions": [
                -0.5088512102398411,
                -0.9736362213396339,
                1.8467157304886523,
                1.4965316593773244,
                -1.502006588574913,
                -0.7780366626023842
            ]
        },
        {
            "positions": [
                -0.5594960401135186,
                -0.9346829762130462,
                1.8239294221420395,
                1.5783800240826573,
                -1.594157942623052,
                -0.679795901563911
            ]
        },
        {
            "positions": [
                -0.6101408699871961,
                -0.8957297310864585,
                1.8011431137954266,
                1.6602283887879907,
                -1.6863092966711917,
                -0.5815551405254378
            ]
        },
        {
            "positions": [
                -0.6607856998608733,
                -0.8567764859598705,
                1.7783568054488135,
                1.7420767534933237,
                -1.7784606507193308,
                -0.4833143794869641
            ]
        },
        {
            "positions": [
                -0.7114305297345508,
                -0.8178232408332828,
                1.7555704971022004,
                1.8239251181986567,
                -1.87061200476747,
                -0.38507361844849086
            ]
        },
        {
            "positions": [
                -0.7620753596082283,
                -0.7788699957066951,
                1.7327841887555875,
                1.90577348290399,
                -1.962763358815609,
                -0.2868328574100176
            ]
        },
        {
            "positions": [
                -0.8127201894819055,
                -0.7399167505801072,
                1.7099978804089746,
                1.987621847609323,
                -2.0549147128637486,
                -0.1885920963715444
            ]
        },
        {
            "positions": [
                -0.863365019355583,
                -0.7009635054535195,
                1.6872115720623615,
                2.0694702123146564,
                -2.1470660669118877,
                -0.09035133533307116
            ]
        },
        {
            "positions": [
                -0.9140098492292603,
                -0.6620102603269319,
                1.6644252637157486,
                2.1513185770199894,
                -2.239217420960027,
                0.007889425705401876
            ]
        }
    ]
}