{
    "goal": {
        "global_pose": {
            "orientation": {
                "w": 0.7031023480610252,
                "x": -0.7110244013736278,
                "y": 0.0077485991402295624,
                "z": 0.005598929693374583
            },
            "position": {
                "x": -0.8841497679147869,
                "y": 0.44412534475326537,
                "z": 0.3711530566215515
            }
        },
        "name": "move_to_auspresseinheit_D"
    },
    "id": "ProjEST_move_to_auspresseinheit_D_117",
    "joint_names": [
        "shoulder_pan_joint",
        "shoulder_lift_joint",
        "elbow_joint",
        "wrist_1_joint",
        "wrist_2_joint",
        "wrist_3_joint"
    ],
    "metrics": {
        "cart_traj_len": 3.1511141571859427,
        "distance_elbow_joint": 3.1951036194370017,
        "distance_shoulder_lift_joint": 1.3915929465651544,
        "distance_shoulder_pan_joint": 2.7971862869019732,
        "distance_wrist_1_joint": 1.3301603163819151,
        "distance_wrist_2_joint": 2.3028761306806125,
        "distance_wrist_3_joint": 3.071719318253604,
        "smoothness": 0.114167123211558,
        "time": 0.08590120600000001,
        "traj_len": 3.7534835310975136,
        "weighted_distance": 4.8851933126325715
    },
    "planner": "ProjEST",
    "start": {
        "state": {
            "elbow_joint": 1.8268400409724999,
            "shoulder_lift_joint": -1.0144045787793008,
            "shoulder_pan_joint": 2.6280239544362485,
            "wrist_1_joint": -0.790705565816056,
            "wrist_2_joint": 1.0573557467365533,
            "wrist_3_joint": 3.1851377467193758
        }
    },
    "waypoints": [
        {
            "positions": [
                2.6280239544362485,
                -1.0144045787793008,
                1.8268400409724999,
                -0.790705565816056,
                1.0573557467365533,
                3.1851377467193758
            ]
        },
        {
            "positions": [
                2.5823593961164755,
                -1.0641909749174752,
                1.7870059330523718,
                -0.7456248339415075,
                0.9878908461071317,
                3.0519998174810716
            ]
        },
        {
            "positions": [
                2.5366948377967025,
                -1.1139773710556495,
                1.7471718251322437,
                -0.7005441020669588,
                0.9184259454777102,
                2.918861888242768
            ]
        },
        {
            "positions": [
                2.4910302794769295,
                -1.163763767193824,
                1.7073377172121156,
                -0.6554633701924103,
                0.8489610448482886,
                2.785723959004464
            ]
        },
        {
            "positions": [
                2.4453657211571564,
                -1.2135501633319983,
                1.6675036092919875,
                -0.6103826383178618,
                0.779496144218867,
                2.6525860297661596
            ]
        },
        {
            "positions": [
                2.3997011628373834,
                -1.2633365594701726,
                1.6276695013718594,
                -0.5653019064433131,
                0.7100312435894456,
                2.5194481005278555
            ]
        },
        {
            "positions": [
                2.3540366045176104,
                -1.313122955608347,
                1.5878353934517313,
                -0.5202211745687646,
                0.6405663429600239,
                2.3863101712895514
            ]
        },
        {
            "positions": [
                2.3083720461978374,
                -1.3629093517465214,
                1.548001285531603,
                -0.475140442694216,
                0.5711014423306023,
                2.2531722420512477
            ]
        },
        {
            "positions": [
                2.2627074878780644,
                -1.4126957478846958,
                1.5081671776114751,
                -0.4300597108196675,
                0.5016365417011808,
                2.1200343128129435
            ]
        },
        {
            "positions": [
                2.2170429295582914,
                -1.4624821440228701,
                1.4683330696913468,
                -0.38497897894511884,
                0.4321716410717592,
                1.9868963835746394
            ]
        },
        {
            "positions": [
                2.171378371238519,
                -1.5122685401610445,
                1.428498961771219,
                -0.3398982470705703,
                0.36270674044233775,
                1.8537584543363355
            ]
        },
        {
            "positions": [
                2.125713812918746,
                -1.5620549362992189,
                1.3886648538510906,
                -0.29481751519602173,
                0.29324183981291607,
                1.7206205250980313
            ]
        },
        {
            "positions": [
                2.080049254598973,
                -1.6118413324373932,
                1.3488307459309627,
                -0.2497367833214732,
                0.22377693918349462,
                1.5874825958597272
            ]
        },
        {
            "positions": [
                2.0343846962792,
                -1.6616277285755676,
                1.3089966380108344,
                -0.20465605144692467,
                0.15431203855407305,
                1.4543446666214233
            ]
        },
        {
            "positions": [
                1.9887201379594266,
                -1.711414124713742,
                1.2691625300907063,
                -0.15957531957237603,
                0.08484713792465137,
                1.3212067373831191
            ]
        },
        {
            "positions": [
                1.9430555796396538,
                -1.7612005208519164,
                1.2293284221705782,
                -0.1144945876978275,
                0.015382237295229917,
                1.188068808144815
            ]
        },
        {
            "positions": [
                1.8973910213198808,
                -1.8109869169900907,
                1.1894943142504504,
                -0.06941385582327897,
                -0.05408266333419176,
                1.0549308789065113
            ]
        },
        {
            "positions": [
                1.8517264630001078,
                -1.860773313128265,
                1.149660206330322,
                -0.02433312394873044,
                -0.12354756396361322,
                0.9217929496682071
            ]
        },
        {
            "positions": [
                1.8060619046803348,
                -1.9105597092664395,
                1.109826098410194,
                0.020747607925818312,
                -0.1930124645930349,
                0.788655020429903
            ]
        },
        {
            "positions": [
                1.7603973463605618,
                -1.9603461054046138,
                1.0699919904900659,
                0.06582833980036684,
                -0.26247736522245635,
                0.6555170911915988
            ]
        },
        {
            "positions": [
                1.7147327880407888,
                -2.010132501542788,
                1.0301578825699378,
                0.11090907167491537,
                -0.3319422658518778,
                0.5223791619532951
            ]
        },
        {
            "positions": [
                1.6690682297210158,
                -2.0599188976809626,
                0.9903237746498098,
                0.1559898035494639,
                -0.4014071664812995,
                0.389241232714991
            ]
        },
        {
            "positions": [
                1.6234036714012428,
                -2.109705293819137,
                0.9504896667296816,
                0.20107053542401254,
                -0.47087206711072116,
                0.25610330347668686
            ]
        },
        {
            "positions": [
                1.5777391130814697,
                -2.1594916899573113,
                0.9106555588095535,
                0.24615126729856102,
                -0.5403369677401426,
                0.12296537423838276
            ]
        },
        {
            "positions": [
                1.4529604383995272,
                -2.1770992496278216,
                0.7478756204328353,
                0.2671015161033681,
                -0.4899667237255771,
                0.1222834495403393
            ]
        },
        {
            "positions": [
                1.3281817637175846,
                -2.194706809298332,
                0.5850956820561171,
                0.2880517649081751,
                -0.43959647971101157,
                0.12160152484229583
            ]
        },
        {
            "positions": [
                1.2034030890356422,
                -2.2123143689688423,
                0.42231574367939884,
                0.30900201371298214,
                -0.389226235696446,
                0.12091960014425238
            ]
        },
        {
            "positions": [
                1.0786244143536996,
                -2.2299219286393526,
                0.2595358053026806,
                0.3299522625177892,
                -0.3388559916818805,
                0.12023767544620892
            ]
        },
        {
            "positions": [
                0.953845739671757,
                -2.247529488309863,
                0.09675586692596228,
                0.35090251132259626,
                -0.28848574766731494,
                0.11955575074816545
            ]
        },
        {
            "positions": [
                0.8290670649898145,
                -2.265137047980373,
                -0.06602407145075584,
                0.3718527601274033,
                -0.23811550365274942,
                0.11887382605012199
            ]
        },
        {
            "positions": [
                0.7042883903078719,
                -2.2827446076508835,
                -0.22880400982747418,
                0.3928030089322103,
                -0.1877452596381839,
                0.11819190135207852
            ]
        },
        {
            "positions": [
                0.5795097156259295,
                -2.3003521673213934,
                -0.3915839482041923,
                0.4137532577370174,
                -0.13737501562361837,
                0.11750997665403506
            ]
        },
        {
            "positions": [
                0.45473104094398686,
                -2.3179597269919037,
                -0.5543638865809108,
                0.43470350654182444,
                -0.08700477160905279,
                0.11682805195599161
            ]
        },
        {
            "positions": [
                0.32995236626204427,
                -2.335567286662414,
                -0.717143824957629,
                0.4556537553466315,
                -0.036634527594487265,
                0.11614612725794814
            ]
        },
        {
            "positions": [
                0.20517369158010168,
                -2.3531748463329243,
                -0.8799237633343471,
                0.47660400415143855,
                0.013735716420078203,
                0.11546420255990468
            ]
        },
        {
            "positions": [
                0.08039501689815931,
                -2.3707824060034346,
                -1.0427037017110652,
                0.49755425295624556,
                0.06410596043464378,
                0.11478227786186122
            ]
        },
        {
            "positions": [
                -0.04438365778378328,
                -2.388389965673945,
                -1.2054836400877837,
                0.5185045017610526,
                0.11447620444920936,
                0.11410035316381775
            ]
        },
        {
            "positions": [
                -0.16916233246572582,
                -2.405997525344455,
                -1.368263578464502,
                0.5394547505658597,
                0.16484644846377483,
                0.1134184284657743
            ]
        }
    ]
}