{
    "goal": {
        "global_pose": {
            "orientation": {
                "w": 0.7031023502349854,
                "x": -0.7110244035720825,
                "y": 0.007748599164187908,
                "z": 0.005598929710686207
            },
            "position": {
                "x": 0.11585023208521307,
                "y": 0.44412534475326537,
                "z": 0.3711530566215515
            }
        },
        "name": "move_to_auspresseinheit_A"
    },
    "id": "ProjEST_move_to_auspresseinheit_A_113",
    "joint_names": [
        "shoulder_pan_joint",
        "shoulder_lift_joint",
        "elbow_joint",
        "wrist_1_joint",
        "wrist_2_joint",
        "wrist_3_joint"
    ],
    "metrics": {
        "cart_traj_len": 0.6948531310900926,
        "distance_elbow_joint": 0.1164331484305774,
        "distance_shoulder_lift_joint": 0.6072867883144564,
        "distance_shoulder_pan_joint": 1.0451380974298679,
        "distance_wrist_1_joint": 1.3161456993318503,
        "distance_wrist_2_joint": 0.8519925656656427,
        "distance_wrist_3_joint": 1.0759919705446377,
        "smoothness": 1.3584350124967994,
        "time": 0.544974728,
        "traj_len": 2.2389703592761188,
        "weighted_distance": 3.055013989461227
    },
    "planner": "ProjEST",
    "start": {
        "state": {
            "elbow_joint": 2.4225747245308327,
            "shoulder_lift_joint": -1.373653427065438,
            "shoulder_pan_joint": -0.33786330853087027,
            "wrist_1_joint": -1.0288602302712604,
            "wrist_2_joint": 1.23302299562683,
            "wrist_3_joint": -3.094021725338297
        }
    },
    "waypoints": [
        {
            "positions": [
                -0.33786330853087027,
                -1.373653427065438,
                2.4225747245308327,
                -1.0288602302712604,
                1.23302299562683,
                -3.094021725338297
            ]
        },
        {
            "positions": [
                -0.2552410293831267,
                -1.430635726606143,
                2.4151156301405248,
                -0.9344236294540015,
                1.1644633454323727,
                -3.042288152556069
            ]
        },
        {
            "positions": [
                -0.17261875023538314,
                -1.4876180261468477,
                2.407656535750217,
                -0.8399870286367426,
                1.0959036952379158,
                -2.9905545797738413
            ]
        },
        {
            "positions": [
                -0.08999647108763958,
                -1.5446003256875527,
                2.400197441359909,
                -0.7455504278194838,
                1.0273440450434586,
                -2.9388210069916134
            ]
        },
        {
            "positions": [
                -0.007374191939896024,
                -1.6015826252282577,
                2.392738346969601,
                -0.6511138270022248,
                0.9587843948490014,
                -2.8870874342093855
            ]
        },
        {
            "positions": [
                0.07524808720784754,
                -1.6585649247689624,
                2.385279252579293,
                -0.556677226184966,
                0.8902247446545444,
                -2.8353538614271576
            ]
        },
        {
            "positions": [
                0.1578703663555911,
                -1.7155472243096672,
                2.377820158188985,
                -0.46224062536770705,
                0.8216650944600872,
                -2.7836202886449293
            ]
        },
        {
            "positions": [
                0.24049264550333466,
                -1.7725295238503722,
                2.370361063798677,
                -0.36780402455044825,
                0.7531054442656301,
                -2.7318867158627014
            ]
        },
        {
            "positions": [
                0.3231149246510782,
                -1.8295118233910772,
                2.362901969408369,
                -0.27336742373318923,
                0.6845457940711729,
                -2.6801531430804735
            ]
        },
        {
            "positions": [
                0.4057372037988218,
                -1.886494122931782,
                2.355442875018061,
                -0.17893082291593043,
                0.6159861438767158,
                -2.6284195702982456
            ]
        },
        {
            "positions": [
                0.4883594829465653,
                -1.943476422472487,
                2.3479837806277533,
                -0.08449422209867152,
                0.5474264936822587,
                -2.5766859975160177
            ]
        },
        {
            "positions": [
                0.5430883094346733,
                -1.9341104742456352,
                2.3584443317596278,
                -0.177439144888487,
                0.5890255096125265,
                -2.7163500581966074
            ]
        },
        {
            "positions": [
                0.5978171359227813,
                -1.9247445260187832,
                2.3689048828915023,
                -0.2703840676783025,
                0.6306245255427945,
                -2.856014118877197
            ]
        },
        {
            "positions": [
                0.6525459624108894,
                -1.9153785777919314,
                2.3793654340233767,
                -0.36332899046811795,
                0.6722235414730624,
                -2.9956781795577863
            ]
        },
        {
            "positions": [
                0.7072747888989974,
                -1.9060126295650797,
                2.3898259851552512,
                -0.45627391325793343,
                0.7138225574033302,
                -3.135342240238376
            ]
        }
    ]
}