{
    "goal": {
        "global_pose": {
            "orientation": {
                "w": -0.4816463035849501,
                "x": 0.5182115481033762,
                "y": 0.4908360881923453,
                "z": -0.5084816262002911
            },
            "position": {
                "x": -0.8240239810943604,
                "y": 0.19912469901144506,
                "z": 0.16403168439865112
            }
        },
        "name": "move_to_storage_D"
    },
    "id": "ProjEST_move_to_storage_D_48",
    "joint_names": [
        "shoulder_pan_joint",
        "shoulder_lift_joint",
        "elbow_joint",
        "wrist_1_joint",
        "wrist_2_joint",
        "wrist_3_joint"
    ],
    "metrics": {
        "cart_traj_len": 2.6189732703515025,
        "distance_elbow_joint": 0.5566727208218993,
        "distance_shoulder_lift_joint": 0.42522511032350474,
        "distance_shoulder_pan_joint": 3.4394598850022815,
        "distance_wrist_1_joint": 3.8345920710908548,
        "distance_wrist_2_joint": 1.7905537387852297,
        "distance_wrist_3_joint": 3.131478482027841,
        "smoothness": 0.20905484852917516,
        "time": 0.094596302,
        "traj_len": 3.630149033862331,
        "weighted_distance": 5.006604116762517
    },
    "planner": "ProjEST",
    "start": {
        "state": {
            "elbow_joint": -2.384821997420982,
            "shoulder_lift_joint": -2.2788054674887404,
            "shoulder_pan_joint": -0.18546946417610016,
            "wrist_1_joint": 1.4845937964226739,
            "wrist_2_joint": 0.1789877726866377,
            "wrist_3_joint": 0.03710572555276528
        }
    },
    "waypoints": [
        {
            "positions": [
                -0.18546946417610016,
                -2.2788054674887404,
                -2.384821997420982,
                1.4845937964226739,
                0.1789877726866377,
                0.03710572555276528
            ]
        },
        {
            "positions": [
                -0.05727575161508211,
                -2.2581501782801374,
                -2.349954645888559,
                1.3951657947996623,
                0.12949500684084042,
                -0.008729797003795822
            ]
        },
        {
            "positions": [
                0.07091796094593594,
                -2.2374948890715345,
                -2.3150872943561356,
                1.305737793176651,
                0.0800022409950431,
                -0.05456531956035692
            ]
        },
        {
            "positions": [
                0.19911167350695397,
                -2.2168395998629316,
                -2.2802199428237127,
                1.2163097915536394,
                0.03050947514924579,
                -0.10040084211691802
            ]
        },
        {
            "positions": [
                0.32730538606797205,
                -2.1961843106543286,
                -2.2453525912912897,
                1.1268817899306278,
                -0.018983290696551497,
                -0.1462363646734791
            ]
        },
        {
            "positions": [
                0.45549909862899013,
                -2.1755290214457257,
                -2.210485239758867,
                1.0374537883076163,
                -0.06847605654234884,
                -0.19207188723004023
            ]
        },
        {
            "positions": [
                0.5836928111900082,
                -2.1548737322371228,
                -2.1756178882264434,
                0.9480257866846049,
                -0.11796882238814613,
                -0.23790740978660133
            ]
        },
        {
            "positions": [
                0.7118865237510261,
                -2.1342184430285203,
                -2.1407505366940205,
                0.8585977850615933,
                -0.16746158823394344,
                -0.28374293234316245
            ]
        },
        {
            "positions": [
                0.8400802363120443,
                -2.1135631538199173,
                -2.1058831851615976,
                0.7691697834385819,
                -0.2169543540797407,
                -0.32957845489972354
            ]
        },
        {
            "positions": [
                0.9682739488730625,
                -2.0929078646113144,
                -2.071015833629174,
                0.6797417818155703,
                -0.26644711992553805,
                -0.3754139774562847
            ]
        },
        {
            "positions": [
                1.0964676614340805,
                -2.0722525754027115,
                -2.0361484820967513,
                0.5903137801925589,
                -0.31593988577133536,
                -0.4212495000128458
            ]
        },
        {
            "positions": [
                1.2246613739950984,
                -2.0515972861941085,
                -2.0012811305643283,
                0.5008857785695473,
                -0.3654326516171327,
                -0.46708502256940687
            ]
        },
        {
            "positions": [
                1.3528550865561164,
                -2.0309419969855056,
                -1.9664137790319052,
                0.41145777694653596,
                -0.41492541746293,
                -0.512920545125968
            ]
        },
        {
            "positions": [
                1.4810487991171346,
                -2.0102867077769027,
                -1.931546427499482,
                0.3220297753235244,
                -0.4644181833087273,
                -0.5587560676825291
            ]
        },
        {
            "positions": [
                1.6092425116781526,
                -1.9896314185682997,
                -1.896679075967059,
                0.23260177370051288,
                -0.5139109491545246,
                -0.6045915902390901
            ]
        },
        {
            "positions": [
                1.5309211826711038,
                -1.9961100405398742,
                -1.8934157521876316,
                0.10962081901628934,
                -0.5661802356756707,
                -0.7231525981550895
            ]
        },
        {
            "positions": [
                1.4525998536640548,
                -2.0025886625114486,
                -1.890152428408204,
                -0.013360135667934203,
                -0.6184495221968168,
                -0.8417136060710888
            ]
        },
        {
            "positions": [
                1.3742785246570057,
                -2.0090672844830233,
                -1.8868891046287768,
                -0.13634109035215775,
                -0.6707188087179629,
                -0.9602746139870881
            ]
        },
        {
            "positions": [
                1.295957195649957,
                -2.0155459064545975,
                -1.8836257808493493,
                -0.2593220450363813,
                -0.722988095239109,
                -1.0788356219030875
            ]
        },
        {
            "positions": [
                1.2176358666429081,
                -2.022024528426172,
                -1.8803624570699218,
                -0.38230299972060483,
                -0.775257381760255,
                -1.1973966298190866
            ]
        },
        {
            "positions": [
                1.139314537635859,
                -2.0285031503977464,
                -1.8770991332904943,
                -0.5052839544048284,
                -0.8275266682814011,
                -1.3159576377350861
            ]
        },
        {
            "positions": [
                1.06099320862881,
                -2.034981772369321,
                -1.873835809511067,
                -0.628264909089052,
                -0.8797959548025471,
                -1.4345186456510852
            ]
        },
        {
            "positions": [
                0.9826718796217613,
                -2.0414603943408958,
                -1.8705724857316395,
                -0.7512458637732755,
                -0.9320652413236933,
                -1.5530796535670848
            ]
        },
        {
            "positions": [
                0.9043505506147124,
                -2.04793901631247,
                -1.867309161952212,
                -0.874226818457499,
                -0.9843345278448393,
                -1.6716406614830839
            ]
        },
        {
            "positions": [
                0.8260292216076635,
                -2.0544176382840447,
                -1.8640458381727845,
                -0.9972077731417226,
                -1.0366038143659855,
                -1.7902016693990832
            ]
        },
        {
            "positions": [
                0.7477078926006144,
                -2.060896260255619,
                -1.8607825143933572,
                -1.1201887278259464,
                -1.0888731008871315,
                -1.9087626773150828
            ]
        },
        {
            "positions": [
                0.6693865635935656,
                -2.0673748822271936,
                -1.8575191906139297,
                -1.2431696825101697,
                -1.1411423874082776,
                -2.0273236852310816
            ]
        },
        {
            "positions": [
                0.5910652345865166,
                -2.073853504198768,
                -1.8542558668345022,
                -1.3661506371943934,
                -1.1934116739294236,
                -2.1458846931470816
            ]
        },
        {
            "positions": [
                0.5127439055794678,
                -2.0803321261703425,
                -1.8509925430550747,
                -1.4891315918786168,
                -1.2456809604505699,
                -2.2644457010630807
            ]
        },
        {
            "positions": [
                0.4344225765724188,
                -2.086810748141917,
                -1.8477292192756474,
                -1.6121125465628405,
                -1.297950246971716,
                -2.38300670897908
            ]
        },
        {
            "positions": [
                0.35610124756537,
                -2.0932893701134914,
                -1.8444658954962199,
                -1.7350935012470639,
                -1.350219533492862,
                -2.501567716895079
            ]
        },
        {
            "positions": [
                0.27777991855832096,
                -2.099767992085066,
                -1.8412025717167924,
                -1.8580744559312876,
                -1.4024888200140082,
                -2.6201287248110785
            ]
        },
        {
            "positions": [
                0.19945858955127216,
                -2.1062466140566403,
                -1.8379392479373649,
                -1.981055410615511,
                -1.454758106535154,
                -2.7386897327270776
            ]
        },
        {
            "positions": [
                0.12113726054422314,
                -2.112725236028215,
                -1.8346759241579376,
                -2.1040363652997347,
                -1.5070273930563003,
                -2.857250740643077
            ]
        },
        {
            "positions": [
                0.042815931537174334,
                -2.119203857999789,
                -1.83141260037851,
                -2.227017319983958,
                -1.5592966795774463,
                -2.9758117485590763
            ]
        },
        {
            "positions": [
                -0.03550539746987474,
                -2.125682479971364,
                -1.8281492765990826,
                -2.349998274668182,
                -1.6115659660985924,
                -3.094372756475076
            ]
        }
    ]
}