{
    "goal": {
        "global_pose": {
            "orientation": {
                "w": 0.7047431493862688,
                "x": -0.7094548369677653,
                "y": 0.0024358444001904,
                "z": -0.0022348060817251984
            },
            "position": {
                "x": -0.39052492380142206,
                "y": 0.3671506643295288,
                "z": 0.19426114857196808
            }
        },
        "name": "move_to_magneteinheit_D"
    },
    "id": "ProjEST_move_to_magneteinheit_D_24",
    "joint_names": [
        "shoulder_pan_joint",
        "shoulder_lift_joint",
        "elbow_joint",
        "wrist_1_joint",
        "wrist_2_joint",
        "wrist_3_joint"
    ],
    "metrics": {
        "cart_traj_len": 6.268491662737854,
        "distance_elbow_joint": 6.235564141411841,
        "distance_shoulder_lift_joint": 1.9033569673541684,
        "distance_shoulder_pan_joint": 4.795407686686065,
        "distance_wrist_1_joint": 3.3193040374335263,
        "distance_wrist_2_joint": 1.1723768297964952,
        "distance_wrist_3_joint": 3.1250820087388362,
        "smoothness": 0.7919189653323839,
        "time": 0.350765258,
        "traj_len": 4.533331189249353,
        "weighted_distance": 5.594008987848396
    },
    "planner": "ProjEST",
    "start": {
        "state": {
            "elbow_joint": 0.7495348899011973,
            "shoulder_lift_joint": -0.6476975780737697,
            "shoulder_pan_joint": -2.711696901376276,
            "wrist_1_joint": -0.07506478080974305,
            "wrist_2_joint": 0.4329665971545858,
            "wrist_3_joint": 3.1361499051832524
        }
    },
    "waypoints": [
        {
            "positions": [
                -2.711696901376276,
                -0.6476975780737697,
                0.7495348899011973,
                -0.07506478080974305,
                0.4329665971545858,
                3.1361499051832524
            ]
        },
        {
            "positions": [
                -2.738155194600904,
                -0.6770942131558415,
                0.7824796142669377,
                -0.17295128362891718,
                0.44664740657712426,
                2.9800424681567907
            ]
        },
        {
            "positions": [
                -2.7646134878255317,
                -0.7064908482379134,
                0.815424338632678,
                -0.2708377864480913,
                0.46032821599966267,
                2.823935031130329
            ]
        },
        {
            "positions": [
                -2.7910717810501597,
                -0.7358874833199852,
                0.8483690629984183,
                -0.36872428926726547,
                0.47400902542220114,
                2.6678275941038674
            ]
        },
        {
            "positions": [
                -2.8175300742747877,
                -0.7652841184020571,
                0.8813137873641587,
                -0.4666107920864396,
                0.4876898348447396,
                2.511720157077406
            ]
        },
        {
            "positions": [
                -2.8439883674994153,
                -0.7946807534841289,
                0.914258511729899,
                -0.5644972949056137,
                0.5013706442672781,
                2.3556127200509445
            ]
        },
        {
            "positions": [
                -2.8704466607240433,
                -0.8240773885662007,
                0.9472032360956393,
                -0.662383797724788,
                0.5150514536898164,
                2.199505283024483
            ]
        },
        {
            "positions": [
                -2.896904953948671,
                -0.8534740236482725,
                0.9801479604613796,
                -0.7602703005439619,
                0.5287322631123549,
                2.0433978459980215
            ]
        },
        {
            "positions": [
                -2.923363247173299,
                -0.8828706587303444,
                1.01309268482712,
                -0.8581568033631362,
                0.5424130725348933,
                1.8872904089715596
            ]
        },
        {
            "positions": [
                -2.8057219518272367,
                -0.9378911686426747,
                0.9193826006167856,
                -0.8064119824771714,
                0.5240957964747371,
                1.8326580724302037
            ]
        },
        {
            "positions": [
                -2.688080656481175,
                -0.9929116785550051,
                0.8256725164064511,
                -0.7546671615912066,
                0.5057785204145809,
                1.778025735888848
            ]
        },
        {
            "positions": [
                -2.570439361135113,
                -1.0479321884673354,
                0.7319624321961167,
                -0.7029223407052418,
                0.48746124435442467,
                1.7233933993474921
            ]
        },
        {
            "positions": [
                -2.4527980657890507,
                -1.1029526983796658,
                0.6382523479857822,
                -0.6511775198192771,
                0.46914396829426847,
                1.6687610628061362
            ]
        },
        {
            "positions": [
                -2.335156770442989,
                -1.157973208291996,
                0.5445422637754477,
                -0.5994326989333123,
                0.4508266922341122,
                1.6141287262647803
            ]
        },
        {
            "positions": [
                -2.217515475096927,
                -1.2129937182043264,
                0.45083217956511323,
                -0.5476878780473475,
                0.432509416173956,
                1.5594963897234246
            ]
        },
        {
            "positions": [
                -2.0998741797508647,
                -1.2680142281166566,
                0.3571220953547787,
                -0.4959430571613828,
                0.4141921401137998,
                1.5048640531820687
            ]
        },
        {
            "positions": [
                -1.982232884404803,
                -1.323034738028987,
                0.26341201114444435,
                -0.4441982362754181,
                0.3958748640536436,
                1.450231716640713
            ]
        },
        {
            "positions": [
                -1.8645915890587408,
                -1.3780552479413175,
                0.1697019269341098,
                -0.3924534153894533,
                0.37755758799348726,
                1.3955993800993571
            ]
        },
        {
            "positions": [
                -1.7469502937126788,
                -1.4330757578536477,
                0.07599184272377535,
                -0.34070859450348856,
                0.35924031193333106,
                1.3409670435580012
            ]
        },
        {
            "positions": [
                -1.6293089983666167,
                -1.4880962677659781,
                -0.017718241486559094,
                -0.2889637736175238,
                0.34092303587317485,
                1.2863347070166453
            ]
        },
        {
            "positions": [
                -1.511667703020555,
                -1.5431167776783083,
                -0.11142832569689354,
                -0.23721895273155902,
                0.32260575981301864,
                1.2317023704752894
            ]
        },
        {
            "positions": [
                -1.394026407674493,
                -1.5981372875906388,
                -0.20513840990722798,
                -0.18547413184559436,
                0.30428848375286244,
                1.1770700339339337
            ]
        },
        {
            "positions": [
                -1.2763851123284307,
                -1.6531577975029692,
                -0.29884849411756265,
                -0.13372931095962948,
                0.2859712076927062,
                1.1224376973925778
            ]
        },
        {
            "positions": [
                -1.1587438169823687,
                -1.7081783074152994,
                -0.39255857832789687,
                -0.0819844900736647,
                0.26765393163254997,
                1.0678053608512221
            ]
        },
        {
            "positions": [
                -1.0411025216363068,
                -1.7631988173276296,
                -0.4862686625382313,
                -0.030239669187700047,
                0.24933665557239376,
                1.0131730243098662
            ]
        },
        {
            "positions": [
                -0.9234612262902449,
                -1.81821932723996,
                -0.5799787467485658,
                0.021505151698264724,
                0.2310193795122375,
                0.9585406877685104
            ]
        },
        {
            "positions": [
                -0.8058199309441827,
                -1.8732398371522905,
                -0.6736888309589004,
                0.0732499725842296,
                0.21270210345208124,
                0.9039083512271545
            ]
        },
        {
            "positions": [
                -0.688178635598121,
                -1.928260347064621,
                -0.7673989151692349,
                0.12499479347019427,
                0.19438482739192503,
                0.8492760146857987
            ]
        },
        {
            "positions": [
                -0.5705373402520588,
                -1.983280856976951,
                -0.8611089993795693,
                0.17673961435615904,
                0.17606755133176882,
                0.7946436781444428
            ]
        },
        {
            "positions": [
                -0.4528960449059971,
                -2.0383013668892813,
                -0.9548190835899035,
                0.2284844352421238,
                0.15775027527161262,
                0.7400113416030871
            ]
        },
        {
            "positions": [
                -0.3352547495599345,
                -2.0933218768016117,
                -1.0485291678002382,
                0.2802292561280886,
                0.13943299921145635,
                0.6853790050617312
            ]
        },
        {
            "positions": [
                -0.21761345421387257,
                -2.148342386713942,
                -1.1422392520105726,
                0.3319740770140534,
                0.12111572315130016,
                0.6307466685203753
            ]
        },
        {
            "positions": [
                -0.1308115048727486,
                -2.172374752044498,
                -1.0257479917508436,
                0.4432945609987486,
                0.09429553445896476,
                0.6346307236166783
            ]
        },
        {
            "positions": [
                -0.04400955553162461,
                -2.1964071173750535,
                -0.9092567314911147,
                0.5546150449834438,
                0.06747534576662934,
                0.6385147787129813
            ]
        },
        {
            "positions": [
                0.04279239380949934,
                -2.220439482705609,
                -0.7927654712313859,
                0.665935528968139,
                0.04065515707429394,
                0.6423988338092843
            ]
        },
        {
            "positions": [
                0.12959434315062335,
                -2.2444718480361647,
                -0.6762742109716569,
                0.7772560129528342,
                0.013834968381958523,
                0.6462828889055874
            ]
        },
        {
            "positions": [
                0.2163962924917473,
                -2.2685042133667204,
                -0.5597829507119279,
                0.8885764969375294,
                -0.012985220310376869,
                0.6501669440018903
            ]
        },
        {
            "positions": [
                0.30319824183287125,
                -2.2925365786972756,
                -0.44329169045219896,
                0.9998969809222245,
                -0.039805409002712275,
                0.6540509990981934
            ]
        },
        {
            "positions": [
                0.3900001911739953,
                -2.316568944027831,
                -0.32680043019246996,
                1.1112174649069197,
                -0.06662559769504771,
                0.6579350541944964
            ]
        },
        {
            "positions": [
                0.47680214051511927,
                -2.340601309358387,
                -0.21030916993274096,
                1.222537948891615,
                -0.09344578638738311,
                0.6618191092907995
            ]
        },
        {
            "positions": [
                0.5636040898562433,
                -2.3646336746889425,
                -0.09381790967301185,
                1.3338584328763101,
                -0.12026597507971852,
                0.6657031643871024
            ]
        },
        {
            "positions": [
                0.6504060391973672,
                -2.388666040019498,
                0.022673350586716934,
                1.4451789168610052,
                -0.1470861637720539,
                0.6695872194834055
            ]
        },
        {
            "positions": [
                0.7372079885384912,
                -2.4126984053500538,
                0.13916461084644594,
                1.5564994008457005,
                -0.17390635246438935,
                0.6734712745797085
            ]
        },
        {
            "positions": [
                0.6602771464403867,
                -2.40116872701023,
                -0.07210793471948818,
                1.5463697499564257,
                -0.14502210834631385,
                0.6253917607449895
            ]
        },
        {
            "positions": [
                0.5833463043422822,
                -2.389639048670406,
                -0.2833804802854223,
                1.536240099067151,
                -0.11613786422823835,
                0.5773122469102705
            ]
        },
        {
            "positions": [
                0.5064154622441777,
                -2.3781093703305825,
                -0.4946530258513564,
                1.5261104481778762,
                -0.08725362011016286,
                0.5292327330755515
            ]
        },
        {
            "positions": [
                0.4294846201460731,
                -2.366579691990759,
                -0.7059255714172905,
                1.5159807972886017,
                -0.05836937599208736,
                0.48115321924083265
            ]
        },
        {
            "positions": [
                0.3525537780479685,
                -2.3550500136509354,
                -0.9171981169832246,
                1.505851146399327,
                -0.02948513187401186,
                0.4330737054061137
            ]
        },
        {
            "positions": [
                0.275622935949864,
                -2.3435203353111116,
                -1.1284706625491587,
                1.4957214955100522,
                -0.0006008877559363635,
                0.3849941915713947
            ]
        },
        {
            "positions": [
                0.19869209385175945,
                -2.331990656971288,
                -1.3397432081150928,
                1.4855918446207774,
                0.028283356362139134,
                0.3369146777366757
            ]
        },
        {
            "positions": [
                0.12176125175365493,
                -2.320460978631464,
                -1.551015753681027,
                1.4754621937315027,
                0.05716760048021463,
                0.2888351639019568
            ]
        },
        {
            "positions": [
                0.044830409655550296,
                -2.3089313002916407,
                -1.762288299246961,
                1.4653325428422281,
                0.08605184459829013,
                0.24075565006723781
            ]
        },
        {
            "positions": [
                -0.03210043244255423,
                -2.297401621951817,
                -1.9735608448128952,
                1.4552028919529534,
                0.11493608871636563,
                0.19267613623251884
            ]
        },
        {
            "positions": [
                -0.10903127454065875,
                -2.285871943611993,
                -2.184833390378829,
                1.4450732410636786,
                0.14382033283444112,
                0.1445966223977999
            ]
        },
        {
            "positions": [
                -0.18596211663876325,
                -2.2743422652721694,
                -2.3961059359447634,
                1.4349435901744039,
                0.17270457695251662,
                0.09651710856308095
            ]
        }
    ]
}