{
    "goal": {
        "global_pose": {
            "orientation": {
                "w": 0.7031023480610252,
                "x": -0.7110244013736278,
                "y": 0.0077485991402295624,
                "z": 0.005598929693374583
            },
            "position": {
                "x": -0.8841497679147869,
                "y": 0.44412534475326537,
                "z": 0.3711530566215515
            }
        },
        "name": "move_to_auspresseinheit_D"
    },
    "id": "ProjEST_move_to_auspresseinheit_D_14",
    "joint_names": [
        "shoulder_pan_joint",
        "shoulder_lift_joint",
        "elbow_joint",
        "wrist_1_joint",
        "wrist_2_joint",
        "wrist_3_joint"
    ],
    "metrics": {
        "cart_traj_len": 0.8028876657009464,
        "distance_elbow_joint": 0.4790005144401208,
        "distance_shoulder_lift_joint": 0.28971520196480216,
        "distance_shoulder_pan_joint": 0.03980171859928472,
        "distance_wrist_1_joint": 3.3420405773911526,
        "distance_wrist_2_joint": 3.6570555717891158,
        "distance_wrist_3_joint": 3.129087931101679,
        "smoothness": 0.003948136192069338,
        "time": 2.4111395339999997,
        "traj_len": 3.3070684170857665,
        "weighted_distance": 4.918736984904741
    },
    "planner": "ProjEST",
    "start": {
        "state": {
            "elbow_joint": 1.8268400409724999,
            "shoulder_lift_joint": -1.0144045787793008,
            "shoulder_pan_joint": 2.6280239544362485,
            "wrist_1_joint": -0.790705565816056,
            "wrist_2_joint": 1.0573557467365533,
            "wrist_3_joint": 3.1851377467193758
        }
    },
    "waypoints": [
        {
            "positions": [
                2.6280239544362485,
                -1.0144045787793008,
                1.8268400409724999,
                -0.790705565816056,
                1.0573557467365533,
                3.1851377467193758
            ]
        },
        {
            "positions": [
                2.6267318832745574,
                -1.0092594857035733,
                1.8151089130782492,
                -0.6677563794222962,
                0.9275040204276122,
                3.0724561341049013
            ]
        },
        {
            "positions": [
                2.6254398121128664,
                -1.0041143926278457,
                1.8033777851839985,
                -0.5448071930285363,
                0.797652294118671,
                2.9597745214904267
            ]
        },
        {
            "positions": [
                2.6241477409511753,
                -0.9989692995521182,
                1.7916466572897476,
                -0.42185800663477646,
                0.6678005678097297,
                2.8470929088759522
            ]
        },
        {
            "positions": [
                2.6228556697894843,
                -0.9938242064763907,
                1.779915529395497,
                -0.2989088202410166,
                0.5379488415007886,
                2.7344112962614777
            ]
        },
        {
            "positions": [
                2.621563598627793,
                -0.9886791134006632,
                1.7681844015012462,
                -0.17595963384725677,
                0.4080971151918473,
                2.621729683647003
            ]
        },
        {
            "positions": [
                2.620271527466102,
                -0.9835340203249356,
                1.7564532736069955,
                -0.05301044745349692,
                0.2782453888829062,
                2.509048071032529
            ]
        },
        {
            "positions": [
                2.6189794563044106,
                -0.9783889272492081,
                1.7447221457127446,
                0.06993873894026281,
                0.14839366257396502,
                2.396366458418054
            ]
        },
        {
            "positions": [
                2.6176873851427196,
                -0.9732438341734806,
                1.732991017818494,
                0.19288792533402277,
                0.018541936265023873,
                2.28368484580358
            ]
        },
        {
            "positions": [
                2.6163953139810285,
                -0.9680987410977531,
                1.7212598899242433,
                0.3158371117277825,
                -0.11130979004391728,
                2.171003233189105
            ]
        },
        {
            "positions": [
                2.6151032428193375,
                -0.9629536480220255,
                1.7095287620299926,
                0.43878629812154246,
                -0.24116151635285865,
                2.058321620574631
            ]
        },
        {
            "positions": [
                2.6138111716576464,
                -0.957808554946298,
                1.6977976341357417,
                0.5617354845153022,
                -0.3710132426617998,
                1.9456400079601566
            ]
        },
        {
            "positions": [
                2.6125191004959554,
                -0.9526634618705705,
                1.686066506241491,
                0.6846846709090622,
                -0.500864968970741,
                1.832958395345682
            ]
        },
        {
            "positions": [
                2.6112270293342643,
                -0.947518368794843,
                1.6743353783472403,
                0.8076338573028219,
                -0.6307166952796821,
                1.7202767827312075
            ]
        },
        {
            "positions": [
                2.6099349581725733,
                -0.9423732757191156,
                1.6626042504529897,
                0.9305830436965816,
                -0.7605684215886233,
                1.607595170116733
            ]
        },
        {
            "positions": [
                2.608642887010882,
                -0.937228182643388,
                1.650873122558739,
                1.0535322300903414,
                -0.8904201478975644,
                1.4949135575022587
            ]
        },
        {
            "positions": [
                2.607350815849191,
                -0.9320830895676605,
                1.639141994664488,
                1.1764814164841015,
                -1.0202718742065056,
                1.382231944887784
            ]
        },
        {
            "positions": [
                2.6060587446875,
                -0.926937996491933,
                1.6274108667702374,
                1.2994306028778613,
                -1.150123600515447,
                1.2695503322733097
            ]
        },
        {
            "positions": [
                2.604766673525809,
                -0.9217929034162055,
                1.6156797388759867,
                1.422379789271621,
                -1.2799753268243879,
                1.156868719658835
            ]
        },
        {
            "positions": [
                2.603474602364118,
                -0.9166478103404779,
                1.603948610981736,
                1.5453289756653807,
                -1.4098270531333292,
                1.044187107044361
            ]
        },
        {
            "positions": [
                2.6021825312024265,
                -0.9115027172647504,
                1.5922174830874851,
                1.668278162059141,
                -1.5396787794422706,
                0.931505494429886
            ]
        },
        {
            "positions": [
                2.6008904600407354,
                -0.9063576241890229,
                1.5804863551932344,
                1.7912273484529007,
                -1.6695305057512115,
                0.8188238818154119
            ]
        },
        {
            "positions": [
                2.5995983888790444,
                -0.9012125311132954,
                1.5687552272989838,
                1.9141765348466604,
                -1.799382232060153,
                0.7061422692009374
            ]
        },
        {
            "positions": [
                2.5983063177173533,
                -0.8960674380375678,
                1.557024099404733,
                2.03712572124042,
                -1.9292339583690938,
                0.5934606565864629
            ]
        },
        {
            "positions": [
                2.5970142465556623,
                -0.8909223449618403,
                1.5452929715104822,
                2.16007490763418,
                -2.059085684678035,
                0.48077904397198834
            ]
        },
        {
            "positions": [
                2.595722175393971,
                -0.8857772518861128,
                1.5335618436162315,
                2.2830240940279403,
                -2.1889374109869766,
                0.3680974313575138
            ]
        },
        {
            "positions": [
                2.59443010423228,
                -0.8806321588103853,
                1.5218307157219808,
                2.4059732804216996,
                -2.3187891372959175,
                0.2554158187430394
            ]
        },
        {
            "positions": [
                2.5964993936973855,
                -0.828651231478423,
                1.4638336526587803,
                2.454427190806165,
                -2.4124260332147993,
                0.18896048436792512
            ]
        },
        {
            "positions": [
                2.5985686831624912,
                -0.7766703041464609,
                1.4058365895955796,
                2.502881101190631,
                -2.5060629291336807,
                0.12250514999281079
            ]
        },
        {
            "positions": [
                2.6006379726275966,
                -0.7246893768144986,
                1.347839526532379,
                2.5513350115750963,
                -2.5996998250525625,
                0.05604981561769646
            ]
        }
    ]
}