{
    "goal": {
        "global_pose": {
            "orientation": {
                "w": -0.00223480608172531,
                "x": 0.0024358444001904467,
                "y": 0.7094548369677653,
                "z": -0.704743149386269
            },
            "position": {
                "x": 0.6205249238014221,
                "y": -0.6371506643295288,
                "z": 0.19426114857196808
            }
        },
        "name": "move_to_magneteinheit_B"
    },
    "id": "ProjEST_move_to_magneteinheit_B_69",
    "joint_names": [
        "shoulder_pan_joint",
        "shoulder_lift_joint",
        "elbow_joint",
        "wrist_1_joint",
        "wrist_2_joint",
        "wrist_3_joint"
    ],
    "metrics": {
        "cart_traj_len": 3.5965688522952908,
        "distance_elbow_joint": 4.125420099806837,
        "distance_shoulder_lift_joint": 0.6000637569623348,
        "distance_shoulder_pan_joint": 2.059054327324327,
        "distance_wrist_1_joint": 2.599706251653397,
        "distance_wrist_2_joint": 1.2791732343778397,
        "distance_wrist_3_joint": 6.332649758602343,
        "smoothness": 0.16656133775430715,
        "time": 2.116100108,
        "traj_len": 4.122628703718911,
        "weighted_distance": 5.791394169970042
    },
    "planner": "ProjEST",
    "start": {
        "state": {
            "elbow_joint": 2.3935871308073637,
            "shoulder_lift_joint": -1.9085141043777403,
            "shoulder_pan_joint": 0.7066247067284167,
            "wrist_1_joint": -0.46782909355067076,
            "wrist_2_joint": 0.7096259085804283,
            "wrist_3_joint": -3.1358149275257428
        }
    },
    "waypoints": [
        {
            "positions": [
                0.7066247067284167,
                -1.9085141043777403,
                2.3935871308073637,
                -0.46782909355067076,
                0.7096259085804283,
                -3.1358149275257428
            ]
        },
        {
            "positions": [
                0.7455306245725779,
                -1.9092022201876448,
                2.368599397481996,
                -0.3634826801324917,
                0.625999052465225,
                -3.021073391259707
            ]
        },
        {
            "positions": [
                0.784436542416739,
                -1.9098903359975496,
                2.3436116641566276,
                -0.2591362667143126,
                0.5423721963500217,
                -2.906331854993671
            ]
        },
        {
            "positions": [
                0.8233424602609002,
                -1.9105784518074542,
                2.3186239308312597,
                -0.15478985329613354,
                0.4587453402348184,
                -2.7915903187276356
            ]
        },
        {
            "positions": [
                0.8422678504257016,
                -1.9339367843766981,
                2.234612702414269,
                -0.15905917180205992,
                0.46154459460906183,
                -2.5615581497736386
            ]
        },
        {
            "positions": [
                0.861193240590503,
                -1.9572951169459418,
                2.1506014739972783,
                -0.16332849030798632,
                0.46434384898330533,
                -2.3315259808196416
            ]
        },
        {
            "positions": [
                0.8801186307553044,
                -1.9806534495151857,
                2.0665902455802874,
                -0.1675978088139127,
                0.4671431033575488,
                -2.1014938118656445
            ]
        },
        {
            "positions": [
                0.8990440209201057,
                -2.0040117820844294,
                1.9825790171632969,
                -0.17186712731983908,
                0.46994235773179227,
                -1.8714616429116477
            ]
        },
        {
            "positions": [
                0.9179694110849071,
                -2.027370114653673,
                1.898567788746306,
                -0.1761364458257655,
                0.4727416121060357,
                -1.6414294739576507
            ]
        },
        {
            "positions": [
                0.9368948012497085,
                -2.0507284472229173,
                1.8145565603293154,
                -0.18040576433169186,
                0.4755408664802792,
                -1.4113973050036537
            ]
        },
        {
            "positions": [
                0.9558201914145099,
                -2.074086779792161,
                1.7305453319123245,
                -0.18467508283761824,
                0.47834012085452265,
                -1.1813651360496567
            ]
        },
        {
            "positions": [
                1.0105264599431532,
                -2.0687242044012026,
                1.6205352692208619,
                -0.25818148505200755,
                0.47936835849163156,
                -1.036403260353375
            ]
        },
        {
            "positions": [
                1.0652327284717964,
                -2.063361629010244,
                1.5105252065293993,
                -0.3316878872663969,
                0.4803965961287404,
                -0.8914413846570934
            ]
        },
        {
            "positions": [
                1.1199389970004396,
                -2.0579990536192856,
                1.4005151438379364,
                -0.4051942894807863,
                0.4814248337658493,
                -0.7464795089608118
            ]
        },
        {
            "positions": [
                1.1746452655290829,
                -2.052636478228327,
                1.2905050811464738,
                -0.4787006916951756,
                0.48245307140295823,
                -0.6015176332645303
            ]
        },
        {
            "positions": [
                1.2293515340577261,
                -2.0472739028373685,
                1.1804950184550111,
                -0.5522070939095649,
                0.48348130904006714,
                -0.45655575756824884
            ]
        },
        {
            "positions": [
                1.2840578025863694,
                -2.04191132744641,
                1.0704849557635483,
                -0.6257134961239543,
                0.484509546677176,
                -0.3115938818719671
            ]
        },
        {
            "positions": [
                1.3387640711150126,
                -2.0365487520554515,
                0.9604748930720857,
                -0.6992198983383435,
                0.4855377843142849,
                -0.16663200617568563
            ]
        },
        {
            "positions": [
                1.3934703396436559,
                -2.0311861766644927,
                0.850464830380623,
                -0.772726300552733,
                0.4865660219513938,
                -0.021670130479404026
            ]
        },
        {
            "positions": [
                1.448176608172299,
                -2.0258236012735344,
                0.7404547676891604,
                -0.8462327027671223,
                0.48759425958850267,
                0.12329174521687758
            ]
        },
        {
            "positions": [
                1.5028828767009423,
                -2.0204610258825757,
                0.6304447049976978,
                -0.9197391049815116,
                0.4886224972256116,
                0.26825362091315896
            ]
        },
        {
            "positions": [
                1.5575891452295856,
                -2.0150984504916174,
                0.5204346423062349,
                -0.9932455071959009,
                0.4896507348627205,
                0.41321549660944057
            ]
        },
        {
            "positions": [
                1.612295413758229,
                -2.0097358751006587,
                0.4104245796147721,
                -1.0667519094102902,
                0.49067897249982934,
                0.5581773723057224
            ]
        },
        {
            "positions": [
                1.6670016822868723,
                -2.0043732997097004,
                0.30041451692330945,
                -1.1402583116246796,
                0.49170721013693824,
                0.703139248002004
            ]
        },
        {
            "positions": [
                1.7217079508155155,
                -1.9990107243187416,
                0.19040445423184682,
                -1.2137647138390688,
                0.49273544777404715,
                0.8481011236982854
            ]
        },
        {
            "positions": [
                1.7764142193441588,
                -1.9936481489277833,
                0.08039439154038419,
                -1.2872711160534582,
                0.493763685411156,
                0.993062999394567
            ]
        },
        {
            "positions": [
                1.831120487872802,
                -1.9882855735368248,
                -0.029615671151078438,
                -1.3607775182678477,
                0.4947919230482649,
                1.1380248750908486
            ]
        },
        {
            "positions": [
                1.8858267564014453,
                -1.9829229981458663,
                -0.13962573384254107,
                -1.4342839204822369,
                0.4958201606853738,
                1.2829867507871302
            ]
        },
        {
            "positions": [
                1.9405330249300885,
                -1.9775604227549077,
                -0.2496357965340037,
                -1.5077903226966263,
                0.49684839832248273,
                1.4279486264834118
            ]
        },
        {
            "positions": [
                1.9952392934587315,
                -1.9721978473639492,
                -0.3596458592254663,
                -1.5812967249110155,
                0.4978766359595916,
                1.572910502179693
            ]
        },
        {
            "positions": [
                2.049945561987375,
                -1.9668352719729907,
                -0.46965592191692895,
                -1.654803127125405,
                0.4989048735967005,
                1.7178723778759746
            ]
        },
        {
            "positions": [
                2.1046518305160182,
                -1.9614726965820322,
                -0.5796659846083916,
                -1.728309529339794,
                0.4999331112338094,
                1.8628342535722562
            ]
        },
        {
            "positions": [
                2.1593580990446615,
                -1.9561101211910736,
                -0.6896760472998547,
                -1.8018159315541835,
                0.5009613488709183,
                2.007796129268538
            ]
        },
        {
            "positions": [
                2.2140643675733047,
                -1.9507475458001151,
                -0.7996861099913173,
                -1.875322333768573,
                0.5019895865080272,
                2.15275800496482
            ]
        },
        {
            "positions": [
                2.268770636101948,
                -1.9453849704091566,
                -0.9096961726827804,
                -1.9488287359829624,
                0.5030178241451361,
                2.297719880661101
            ]
        },
        {
            "positions": [
                2.323476904630591,
                -1.940022395018198,
                -1.019706235374243,
                -2.0223351381973513,
                0.504046061782245,
                2.4426817563573833
            ]
        },
        {
            "positions": [
                2.3781831731592344,
                -1.9346598196272395,
                -1.1297162980657056,
                -2.095841540411741,
                0.5050742994193539,
                2.5876436320536644
            ]
        },
        {
            "positions": [
                2.4328894416878777,
                -1.929297244236281,
                -1.2397263607571682,
                -2.16934794262613,
                0.5061025370564627,
                2.7326055077499456
            ]
        },
        {
            "positions": [
                2.487595710216521,
                -1.9239346688453225,
                -1.3497364234486309,
                -2.242854344840519,
                0.5071307746935716,
                2.8775673834462276
            ]
        },
        {
            "positions": [
                2.542301978745164,
                -1.918572093454364,
                -1.4597464861400935,
                -2.316360747054909,
                0.5081590123306805,
                3.0225292591425097
            ]
        },
        {
            "positions": [
                2.5970082472738074,
                -1.9132095180634054,
                -1.5697565488315561,
                -2.389867149269298,
                0.5091872499677894,
                3.167491134838791
            ]
        },
        {
            "positions": [
                2.626117419801422,
                -1.9613774832787467,
                -1.6004317991260146,
                -2.402627469640695,
                0.32109037550323943,
                3.166253432635055
            ]
        },
        {
            "positions": [
                2.655226592329037,
                -2.009545448494088,
                -1.631107049420473,
                -2.415387790012092,
                0.13299350103868945,
                3.16501573043132
            ]
        },
        {
            "positions": [
                2.6843357648566517,
                -2.057713413709429,
                -1.6617822997149312,
                -2.428148110383489,
                -0.05510337342586058,
                3.1637780282275845
            ]
        },
        {
            "positions": [
                2.713444937384266,
                -2.1058813789247703,
                -1.6924575500093897,
                -2.4409084307548863,
                -0.24320024789041053,
                3.1625403260238487
            ]
        },
        {
            "positions": [
                2.687327889050027,
                -2.146352358403667,
                -1.6727698405143476,
                -2.44118264772494,
                -0.3559318771109399,
                3.1503438823124164
            ]
        },
        {
            "positions": [
                2.6612108407157886,
                -2.186823337882564,
                -1.6530821310193056,
                -2.441456864694993,
                -0.4686635063314692,
                3.138147438600984
            ]
        }
    ]
}