{
    "goal": {
        "global_pose": {
            "orientation": {
                "w": 0.7047431468963623,
                "x": -0.7094548344612122,
                "y": 0.0024358443915843964,
                "z": -0.0022348060738295317
            },
            "position": {
                "x": 0.6094750761985779,
                "y": 0.3671506643295288,
                "z": 0.19426114857196808
            }
        },
        "name": "move_to_magneteinheit_A"
    },
    "id": "ProjEST_move_to_magneteinheit_A_120",
    "joint_names": [
        "shoulder_pan_joint",
        "shoulder_lift_joint",
        "elbow_joint",
        "wrist_1_joint",
        "wrist_2_joint",
        "wrist_3_joint"
    ],
    "metrics": {
        "cart_traj_len": 1.05399339669233,
        "distance_elbow_joint": 0.3872040523631355,
        "distance_shoulder_lift_joint": 0.3654356059782473,
        "distance_shoulder_pan_joint": 1.2414518463141664,
        "distance_wrist_1_joint": 2.2304954319232726,
        "distance_wrist_2_joint": 1.6949229218368853,
        "distance_wrist_3_joint": 1.2095042342698212,
        "smoothness": 1.8698493194378823e-16,
        "time": 0.060751581,
        "traj_len": 2.6700213655859626,
        "weighted_distance": 3.6706186011332385
    },
    "planner": "ProjEST",
    "start": {
        "state": {
            "elbow_joint": 1.5739458966750683,
            "shoulder_lift_joint": -1.4977259741207325,
            "shoulder_pan_joint": -1.1188672016454206,
            "wrist_1_joint": 1.494575848278785,
            "wrist_2_joint": -1.5706037134824402,
            "wrist_3_joint": -2.0226957942261072
        }
    },
    "waypoints": [
        {
            "positions": [
                -1.1188672016454206,
                -1.4977259741207325,
                1.5739458966750683,
                1.494575848278785,
                -1.5706037134824402,
                -2.0226957942261072
            ]
        },
        {
            "positions": [
                -1.049897654627967,
                -1.47742399601083,
                1.5954572329174648,
                1.3706594353941588,
                -1.4764413289359466,
                -2.089890473907764
            ]
        },
        {
            "positions": [
                -0.9809281076105133,
                -1.4571220179009272,
                1.6169685691598612,
                1.2467430225095324,
                -1.382278944389453,
                -2.1570851535894207
            ]
        },
        {
            "positions": [
                -0.9119585605930596,
                -1.4368200397910247,
                1.6384799054022576,
                1.1228266096249062,
                -1.2881165598429594,
                -2.2242798332710776
            ]
        },
        {
            "positions": [
                -0.842989013575606,
                -1.416518061681122,
                1.659991241644654,
                0.99891019674028,
                -1.1939541752964657,
                -2.291474512952734
            ]
        },
        {
            "positions": [
                -0.7740194665581521,
                -1.3962160835712194,
                1.6815025778870505,
                0.8749937838556536,
                -1.0997917907499721,
                -2.358669192634391
            ]
        },
        {
            "positions": [
                -0.7050499195406985,
                -1.3759141054613166,
                1.703013914129447,
                0.7510773709710274,
                -1.0056294062034785,
                -2.4258638723160475
            ]
        },
        {
            "positions": [
                -0.6360803725232449,
                -1.3556121273514141,
                1.7245252503718433,
                0.6271609580864012,
                -0.9114670216569848,
                -2.4930585519977044
            ]
        },
        {
            "positions": [
                -0.5671108255057912,
                -1.3353101492415114,
                1.7460365866142395,
                0.503244545201775,
                -0.8173046371104912,
                -2.5602532316793614
            ]
        },
        {
            "positions": [
                -0.49814127848833745,
                -1.3150081711316088,
                1.767547922856636,
                0.3793281323171487,
                -0.7231422525639976,
                -2.627447911361018
            ]
        },
        {
            "positions": [
                -0.4291717314708837,
                -1.2947061930217063,
                1.7890592590990324,
                0.2554117194325223,
                -0.6289798680175039,
                -2.6946425910426743
            ]
        },
        {
            "positions": [
                -0.36020218445343,
                -1.2744042149118036,
                1.8105705953414288,
                0.1314953065478961,
                -0.5348174834710102,
                -2.7618372707243313
            ]
        },
        {
            "positions": [
                -0.2912326374359764,
                -1.254102236801901,
                1.8320819315838253,
                0.007578893663269914,
                -0.4406550989245168,
                -2.829031950405988
            ]
        },
        {
            "positions": [
                -0.22226309041852266,
                -1.2338002586919983,
                1.8535932678262217,
                -0.11633751922135627,
                -0.346492714378023,
                -2.8962266300876447
            ]
        },
        {
            "positions": [
                -0.15329354340106904,
                -1.2134982805820957,
                1.8751046040686181,
                -0.24025393210598267,
                -0.25233032983152937,
                -2.9634213097693016
            ]
        },
        {
            "positions": [
                -0.08432399638361532,
                -1.193196302472193,
                1.8966159403110145,
                -0.36417034499060885,
                -0.15816794528503575,
                -3.0306159894509586
            ]
        },
        {
            "positions": [
                -0.015354449366161704,
                -1.1728943243622905,
                1.918127276553411,
                -0.48808675787523503,
                -0.06400556073854213,
                -3.097810669132615
            ]
        },
        {
            "positions": [
                0.05361509765129213,
                -1.152592346252388,
                1.9396386127958074,
                -0.6120031707598612,
                0.030156823807951483,
                -3.1650053488142715
            ]
        },
        {
            "positions": [
                0.12258464466874573,
                -1.1322903681424852,
                1.9611499490382038,
                -0.7359195836444878,
                0.12431920835444503,
                -3.2322000284959285
            ]
        }
    ]
}