{
    "goal": {
        "global_pose": {
            "orientation": {
                "w": 0.5084816217422485,
                "x": -0.49083608388900757,
                "y": 0.5182115435600281,
                "z": -0.4816462993621826
            },
            "position": {
                "x": 0.5540239810943604,
                "y": 0.030875300988554955,
                "z": 0.16403168439865112
            }
        },
        "name": "move_to_storage_A"
    },
    "id": "ProjEST_move_to_storage_A_15",
    "joint_names": [
        "shoulder_pan_joint",
        "shoulder_lift_joint",
        "elbow_joint",
        "wrist_1_joint",
        "wrist_2_joint",
        "wrist_3_joint"
    ],
    "metrics": {
        "cart_traj_len": 0.35299604118591266,
        "distance_elbow_joint": 0.45204040097430553,
        "distance_shoulder_lift_joint": 0.23506928454475284,
        "distance_shoulder_pan_joint": 0.4627192940847689,
        "distance_wrist_1_joint": 0.25079905277218495,
        "distance_wrist_2_joint": 1.0943081268397132,
        "distance_wrist_3_joint": 0.1026535576189409,
        "smoothness": 8.881784197001252e-16,
        "time": 0.022767281,
        "traj_len": 1.6117039792823824,
        "weighted_distance": 2.0366649237624843
    },
    "planner": "ProjEST",
    "start": {
        "state": {
            "elbow_joint": 1.9715474177455299,
            "shoulder_lift_joint": -1.139484666580328,
            "shoulder_pan_joint": 0.12281154398918248,
            "wrist_1_joint": -0.7804687475355282,
            "wrist_2_joint": 0.12958649657246987,
            "wrist_3_joint": -3.1924925159053466
        }
    },
    "waypoints": [
        {
            "positions": [
                0.12281154398918248,
                -1.139484666580328,
                1.9715474177455299,
                -0.7804687475355282,
                0.12958649657246987,
                -3.1924925159053466
            ]
        },
        {
            "positions": [
                0.056708787691358356,
                -1.173065992943864,
                2.0361246178847163,
                -0.8162971836458404,
                0.2859162289781432,
                -3.1778277219597837
            ]
        },
        {
            "positions": [
                -0.009393968606465769,
                -1.2066473193074003,
                2.1007018180239028,
                -0.8521256197561524,
                0.44224596138381655,
                -3.1631629280142204
            ]
        },
        {
            "positions": [
                -0.07549672490428991,
                -1.2402286456709364,
                2.165279018163089,
                -0.8879540558664646,
                0.5985756937894899,
                -3.1484981340686575
            ]
        },
        {
            "positions": [
                -0.14159948120211402,
                -1.2738099720344724,
                2.2298562183022756,
                -0.9237824919767768,
                0.7549054261951633,
                -3.1338333401230947
            ]
        },
        {
            "positions": [
                -0.20770223749993816,
                -1.3073912983980085,
                2.2944334184414625,
                -0.9596109280870888,
                0.9112351586008367,
                -3.119168546177532
            ]
        },
        {
            "positions": [
                -0.2738049937977623,
                -1.3409726247615448,
                2.359010618580649,
                -0.995439364197401,
                1.0675648910065099,
                -3.1045037522319685
            ]
        },
        {
            "positions": [
                -0.33990775009558644,
                -1.3745539511250808,
                2.4235878187198354,
                -1.0312678003077131,
                1.2238946234121832,
                -3.0898389582864056
            ]
        }
    ]
}