{
    "goal": {
        "global_pose": {
            "orientation": {
                "w": 0.5084816262002911,
                "x": -0.4908360881923452,
                "y": 0.5182115481033761,
                "z": -0.48164630358495003
            },
            "position": {
                "x": 0.5540239810943604,
                "y": -0.46912469901144505,
                "z": 0.16403168439865112
            }
        },
        "name": "move_to_storage_B"
    },
    "id": "ProjEST_move_to_storage_B_88",
    "joint_names": [
        "shoulder_pan_joint",
        "shoulder_lift_joint",
        "elbow_joint",
        "wrist_1_joint",
        "wrist_2_joint",
        "wrist_3_joint"
    ],
    "metrics": {
        "cart_traj_len": 0.7789920340614808,
        "distance_elbow_joint": 0.349646041178586,
        "distance_shoulder_lift_joint": 0.4588935111216088,
        "distance_shoulder_pan_joint": 0.5487297730537498,
        "distance_wrist_1_joint": 2.9847563745516537,
        "distance_wrist_2_joint": 2.6990900722886257,
        "distance_wrist_3_joint": 3.138804003587381,
        "smoothness": 0.04643724562482329,
        "time": 0.144582868,
        "traj_len": 3.190598654763962,
        "weighted_distance": 4.705462169627618
    },
    "planner": "ProjEST",
    "start": {
        "state": {
            "elbow_joint": 1.6649325706314817,
            "shoulder_lift_joint": -0.6616388048112454,
            "shoulder_pan_joint": -0.9139837860083814,
            "wrist_1_joint": 2.146757197745094,
            "wrist_2_joint": -2.234196043158733,
            "wrist_3_joint": 0.005471033829999897
        }
    },
    "waypoints": [
        {
            "positions": [
                -0.9139837860083814,
                -0.6616388048112454,
                1.6649325706314817,
                2.146757197745094,
                -2.234196043158733,
                0.005471033829999897
            ]
        },
        {
            "positions": [
                -0.8224603055076274,
                -0.7307079030846436,
                1.6730002975079135,
                2.0865170969992066,
                -2.1662437226035927,
                -0.08897562407125295
            ]
        },
        {
            "positions": [
                -0.7309368250068733,
                -0.7997770013580419,
                1.6810680243843454,
                2.0262769962533196,
                -2.0982914020484524,
                -0.18342228197250582
            ]
        },
        {
            "positions": [
                -0.7461736088423834,
                -0.8131418061319924,
                1.6949642988604172,
                1.9069321557091579,
                -1.991492009082688,
                -0.3063352272968756
            ]
        },
        {
            "positions": [
                -0.7614103926778935,
                -0.8265066109059429,
                1.708860573336489,
                1.7875873151649964,
                -1.8846926161169237,
                -0.4292481726212454
            ]
        },
        {
            "positions": [
                -0.7766471765134035,
                -0.8398714156798934,
                1.7227568478125608,
                1.6682424746208346,
                -1.7778932231511593,
                -0.5521611179456152
            ]
        },
        {
            "positions": [
                -0.7918839603489136,
                -0.853236220453844,
                1.7366531222886326,
                1.5488976340766731,
                -1.671093830185395,
                -0.675074063269985
            ]
        },
        {
            "positions": [
                -0.8071207441844237,
                -0.8666010252277945,
                1.7505493967647043,
                1.4295527935325114,
                -1.5642944372196306,
                -0.7979870085943548
            ]
        },
        {
            "positions": [
                -0.8223575280199338,
                -0.879965830001745,
                1.7644456712407761,
                1.3102079529883497,
                -1.4574950442538661,
                -0.9208999539187246
            ]
        },
        {
            "positions": [
                -0.8375943118554439,
                -0.8933306347756955,
                1.7783419457168477,
                1.190863112444188,
                -1.3506956512881017,
                -1.0438128992430944
            ]
        },
        {
            "positions": [
                -0.8528310956909538,
                -0.9066954395496459,
                1.7922382201929195,
                1.0715182719000265,
                -1.2438962583223374,
                -1.1667258445674642
            ]
        },
        {
            "positions": [
                -0.8680678795264639,
                -0.9200602443235965,
                1.8061344946689912,
                0.9521734313558647,
                -1.137096865356573,
                -1.289638789891834
            ]
        },
        {
            "positions": [
                -0.883304663361974,
                -0.933425049097547,
                1.820030769145063,
                0.832828590811703,
                -1.0302974723908085,
                -1.4125517352162038
            ]
        },
        {
            "positions": [
                -0.8985414471974841,
                -0.9467898538714975,
                1.8339270436211348,
                0.7134837502675415,
                -0.9234980794250442,
                -1.5354646805405736
            ]
        },
        {
            "positions": [
                -0.9137782310329942,
                -0.960154658645448,
                1.8478233180972066,
                0.5941389097233798,
                -0.8166986864592798,
                -1.6583776258649434
            ]
        },
        {
            "positions": [
                -0.9290150148685042,
                -0.9735194634193985,
                1.8617195925732783,
                0.4747940691792183,
                -0.7098992934935155,
                -1.7812905711893132
            ]
        },
        {
            "positions": [
                -0.9442517987040143,
                -0.9868842681933491,
                1.8756158670493501,
                0.35544922863505635,
                -0.6030999005277509,
                -1.904203516513683
            ]
        },
        {
            "positions": [
                -0.9594885825395244,
                -1.0002490729672995,
                1.889512141525422,
                0.23610438809089485,
                -0.4963005075619866,
                -2.027116461838053
            ]
        },
        {
            "positions": [
                -0.9747253663750344,
                -1.01361387774125,
                1.9034084160014937,
                0.11675954754673334,
                -0.3895011145962224,
                -2.150029407162423
            ]
        },
        {
            "positions": [
                -0.9899621502105445,
                -1.0269786825152005,
                1.9173046904775655,
                -0.002585292997428379,
                -0.2827017216304577,
                -2.2729423524867927
            ]
        },
        {
            "positions": [
                -1.0051989340460545,
                -1.040343487289151,
                1.931200964953637,
                -0.1219301335415901,
                -0.17590232866469346,
                -2.3958552978111625
            ]
        },
        {
            "positions": [
                -1.0204357178815646,
                -1.0537082920631016,
                1.9450972394297088,
                -0.24127497408575183,
                -0.069102935698929,
                -2.5187682431355323
            ]
        },
        {
            "positions": [
                -1.0356725017170747,
                -1.067073096837052,
                1.9589935139057806,
                -0.36061981462991355,
                0.03769645726683546,
                -2.641681188459902
            ]
        },
        {
            "positions": [
                -1.0509092855525848,
                -1.0804379016110026,
                1.9728897883818524,
                -0.47996465517407527,
                0.14449585023259948,
                -2.764594133784272
            ]
        },
        {
            "positions": [
                -1.0661460693880949,
                -1.0938027063849531,
                1.9867860628579241,
                -0.5993094957182366,
                0.25129524319836394,
                -2.8875070791086417
            ]
        },
        {
            "positions": [
                -1.081382853223605,
                -1.1071675111589037,
                2.000682337333996,
                -0.7186543362623983,
                0.3580946361641284,
                -3.0104200244330115
            ]
        },
        {
            "positions": [
                -1.096619637059115,
                -1.1205323159328542,
                2.0145786118100677,
                -0.8379991768065598,
                0.46489402912989286,
                -3.1333329697573813
            ]
        }
    ]
}