{
    "goal": {
        "global_pose": {
            "orientation": {
                "w": 0.5084816217422485,
                "x": -0.49083608388900757,
                "y": 0.5182115435600281,
                "z": -0.4816462993621826
            },
            "position": {
                "x": 0.5540239810943604,
                "y": 0.030875300988554955,
                "z": 0.16403168439865112
            }
        },
        "name": "move_to_storage_A"
    },
    "id": "ProjEST_move_to_storage_A_141",
    "joint_names": [
        "shoulder_pan_joint",
        "shoulder_lift_joint",
        "elbow_joint",
        "wrist_1_joint",
        "wrist_2_joint",
        "wrist_3_joint"
    ],
    "metrics": {
        "cart_traj_len": 0.3536849917080811,
        "distance_elbow_joint": 0.45144635654878895,
        "distance_shoulder_lift_joint": 0.23305327706255152,
        "distance_shoulder_pan_joint": 0.4625172853875972,
        "distance_wrist_1_joint": 0.25313979105300966,
        "distance_wrist_2_joint": 1.099129541842692,
        "distance_wrist_3_joint": 0.1081139150939916,
        "smoothness": 6.661338165333112e-16,
        "time": 0.087014014,
        "traj_len": 1.6147446135499666,
        "weighted_distance": 2.0435012429828165
    },
    "planner": "ProjEST",
    "start": {
        "state": {
            "elbow_joint": 1.9715474177455299,
            "shoulder_lift_joint": -1.139484666580328,
            "shoulder_pan_joint": 0.12281154398918248,
            "wrist_1_joint": -0.7804687475355282,
            "wrist_2_joint": 0.12958649657246987,
            "wrist_3_joint": -3.1924925159053466
        }
    },
    "waypoints": [
        {
            "positions": [
                0.12281154398918248,
                -1.139484666580328,
                1.9715474177455299,
                -0.7804687475355282,
                0.12958649657246987,
                -3.1924925159053466
            ]
        },
        {
            "positions": [
                0.056737646076668605,
                -1.172777991874978,
                2.036039754395357,
                -0.8166315748288153,
                0.2866050025499973,
                -3.1770476708919193
            ]
        },
        {
            "positions": [
                -0.009336251835845272,
                -1.2060713171696285,
                2.1005320910451837,
                -0.8527944021221023,
                0.44362350852752475,
                -3.1616028258784916
            ]
        },
        {
            "positions": [
                -0.07541014974835916,
                -1.2393646424642786,
                2.165024427695011,
                -0.8889572294153895,
                0.6006420145050523,
                -3.1461579808650644
            ]
        },
        {
            "positions": [
                -0.14148404766087302,
                -1.272657967758929,
                2.229516764344838,
                -0.9251200567086766,
                0.7576605204825797,
                -3.130713135851637
            ]
        },
        {
            "positions": [
                -0.20755794557338691,
                -1.305951293053579,
                2.294009100994665,
                -0.9612828840019636,
                0.9146790264601072,
                -3.11526829083821
            ]
        },
        {
            "positions": [
                -0.2736318434859008,
                -1.3392446183482294,
                2.3585014376444917,
                -0.9974457112952507,
                1.0716975324376345,
                -3.099823445824782
            ]
        },
        {
            "positions": [
                -0.3397057413984147,
                -1.3725379436428795,
                2.422993774294319,
                -1.0336085385885379,
                1.228716038415162,
                -3.084378600811355
            ]
        }
    ]
}