{
    "goal": {
        "global_pose": {
            "orientation": {
                "w": -0.4816463035849501,
                "x": 0.5182115481033762,
                "y": 0.4908360881923453,
                "z": -0.5084816262002911
            },
            "position": {
                "x": -0.8240239810943604,
                "y": -0.300875300988555,
                "z": 0.16403168439865112
            }
        },
        "name": "move_to_storage_C"
    },
    "id": "ProjEST_move_to_storage_C_122",
    "joint_names": [
        "shoulder_pan_joint",
        "shoulder_lift_joint",
        "elbow_joint",
        "wrist_1_joint",
        "wrist_2_joint",
        "wrist_3_joint"
    ],
    "metrics": {
        "cart_traj_len": 0.577463656366758,
        "distance_elbow_joint": 0.25836161745435304,
        "distance_shoulder_lift_joint": 0.19075470799339345,
        "distance_shoulder_pan_joint": 0.49358086809896307,
        "distance_wrist_1_joint": 0.070433999403959,
        "distance_wrist_2_joint": 1.0780248092730838,
        "distance_wrist_3_joint": 0.0737583347646571,
        "smoothness": 0.0,
        "time": 0.010937366,
        "traj_len": 1.471364787191949,
        "weighted_distance": 1.860346692204108
    },
    "planner": "ProjEST",
    "start": {
        "state": {
            "elbow_joint": 2.010868315001653,
            "shoulder_lift_joint": -1.1634956873357014,
            "shoulder_pan_joint": -2.4736205022346103,
            "wrist_1_joint": -0.8367026794713948,
            "wrist_2_joint": 0.6746043897044093,
            "wrist_3_joint": 3.1335220948105738
        }
    },
    "waypoints": [
        {
            "positions": [
                -2.4736205022346103,
                -1.1634956873357014,
                2.010868315001653,
                -0.8367026794713948,
                0.6746043897044093,
                3.1335220948105738
            ]
        },
        {
            "positions": [
                -2.555883980251104,
                -1.1317032360034691,
                1.9678080454259277,
                -0.8249636795707349,
                0.8542751912499232,
                3.145815150604683
            ]
        },
        {
            "positions": [
                -2.638147458267598,
                -1.0999107846712368,
                1.924747775850202,
                -0.8132246796700751,
                1.033945992795437,
                3.1581082063987926
            ]
        },
        {
            "positions": [
                -2.720410936284092,
                -1.0681183333390047,
                1.8816875062744765,
                -0.8014856797694152,
                1.2136167943409513,
                3.170401262192902
            ]
        },
        {
            "positions": [
                -2.8026744143005855,
                -1.0363258820067724,
                1.838627236698751,
                -0.7897466798687555,
                1.393287595886465,
                3.182694317987012
            ]
        },
        {
            "positions": [
                -2.8849378923170796,
                -1.0045334306745402,
                1.7955669671230257,
                -0.7780076799680956,
                1.5729583974319792,
                3.1949873737811214
            ]
        },
        {
            "positions": [
                -2.9672013703335733,
                -0.972740979342308,
                1.7525066975473,
                -0.7662686800674358,
                1.7526291989774931,
                3.207280429575231
            ]
        }
    ]
}