{
    "goal": {
        "global_pose": {
            "orientation": {
                "w": 0.7047431468963623,
                "x": -0.7094548344612122,
                "y": 0.0024358443915843964,
                "z": -0.0022348060738295317
            },
            "position": {
                "x": 0.6094750761985779,
                "y": 0.3671506643295288,
                "z": 0.19426114857196808
            }
        },
        "name": "move_to_magneteinheit_A"
    },
    "id": "ProjEST_move_to_magneteinheit_A_24",
    "joint_names": [
        "shoulder_pan_joint",
        "shoulder_lift_joint",
        "elbow_joint",
        "wrist_1_joint",
        "wrist_2_joint",
        "wrist_3_joint"
    ],
    "metrics": {
        "cart_traj_len": 1.0535707645070518,
        "distance_elbow_joint": 0.39145649315729525,
        "distance_shoulder_lift_joint": 0.36210275536190983,
        "distance_shoulder_pan_joint": 1.2419381348505734,
        "distance_wrist_1_joint": 2.232952327947837,
        "distance_wrist_2_joint": 1.7084762213528508,
        "distance_wrist_3_joint": 1.2062897983149576,
        "smoothness": 0.0,
        "time": 0.08767705199999999,
        "traj_len": 2.67267950397825,
        "weighted_distance": 3.67385681225004
    },
    "planner": "ProjEST",
    "start": {
        "state": {
            "elbow_joint": 1.5739458966750683,
            "shoulder_lift_joint": -1.4977259741207325,
            "shoulder_pan_joint": -1.1188672016454206,
            "wrist_1_joint": 1.494575848278785,
            "wrist_2_joint": -1.5706037134824402,
            "wrist_3_joint": -2.0226957942261072
        }
    },
    "waypoints": [
        {
            "positions": [
                -1.1188672016454206,
                -1.4977259741207325,
                1.5739458966750683,
                1.494575848278785,
                -1.5706037134824402,
                -2.0226957942261072
            ]
        },
        {
            "positions": [
                -1.0535020366532852,
                -1.4786679343648426,
                1.5945488699991366,
                1.3770520415446883,
                -1.480683912358606,
                -2.086184730979526
            ]
        },
        {
            "positions": [
                -0.9881368716611498,
                -1.4596098946089524,
                1.6151518433232046,
                1.2595282348105916,
                -1.3907641112347717,
                -2.149673667732945
            ]
        },
        {
            "positions": [
                -0.9227717066690143,
                -1.4405518548530625,
                1.6357548166472728,
                1.142004428076495,
                -1.3008443101109375,
                -2.2131626044863637
            ]
        },
        {
            "positions": [
                -0.8574065416768789,
                -1.4214938150971725,
                1.656357789971341,
                1.0244806213423983,
                -1.2109245089871032,
                -2.2766515412397825
            ]
        },
        {
            "positions": [
                -0.7920413766847434,
                -1.4024357753412826,
                1.676960763295409,
                0.9069568146083016,
                -1.121004707863269,
                -2.3401404779932014
            ]
        },
        {
            "positions": [
                -0.726676211692608,
                -1.3833777355853925,
                1.6975637366194773,
                0.7894330078742049,
                -1.0310849067394348,
                -2.40362941474662
            ]
        },
        {
            "positions": [
                -0.6613110467004726,
                -1.3643196958295025,
                1.7181667099435456,
                0.6719092011401082,
                -0.9411651056156005,
                -2.467118351500039
            ]
        },
        {
            "positions": [
                -0.5959458817083372,
                -1.3452616560736126,
                1.7387696832676136,
                0.5543853944060115,
                -0.8512453044917663,
                -2.530607288253458
            ]
        },
        {
            "positions": [
                -0.5305807167162017,
                -1.3262036163177227,
                1.7593726565916818,
                0.43686158767191485,
                -0.7613255033679319,
                -2.5940962250068766
            ]
        },
        {
            "positions": [
                -0.46521555172406626,
                -1.3071455765618325,
                1.77997562991575,
                0.31933778093781817,
                -0.6714057022440977,
                -2.6575851617602955
            ]
        },
        {
            "positions": [
                -0.39985038673193074,
                -1.2880875368059426,
                1.8005786032398183,
                0.2018139742037215,
                -0.5814859011202633,
                -2.7210740985137143
            ]
        },
        {
            "positions": [
                -0.33448522173979545,
                -1.2690294970500526,
                1.8211815765638864,
                0.08429016746962481,
                -0.4915660999964293,
                -2.784563035267133
            ]
        },
        {
            "positions": [
                -0.26912005674765993,
                -1.2499714572941625,
                1.8417845498879546,
                -0.03323363926447187,
                -0.40164629887259484,
                -2.848051972020552
            ]
        },
        {
            "positions": [
                -0.20375489175552453,
                -1.2309134175382725,
                1.8623875232120226,
                -0.15075744599856855,
                -0.3117264977487608,
                -2.9115409087739708
            ]
        },
        {
            "positions": [
                -0.138389726763389,
                -1.2118553777823826,
                1.8829904965360909,
                -0.26828125273266523,
                -0.22180669662492636,
                -2.9750298455273896
            ]
        },
        {
            "positions": [
                -0.07302456177125372,
                -1.1927973380264927,
                1.903593469860159,
                -0.3858050594667619,
                -0.13188689550109234,
                -3.0385187822808084
            ]
        },
        {
            "positions": [
                -0.007659396779118088,
                -1.1737392982706027,
                1.9241964431842273,
                -0.5033288662008586,
                -0.041967094377257874,
                -3.1020077190342272
            ]
        },
        {
            "positions": [
                0.05770576821301732,
                -1.1546812585147126,
                1.9447994165082954,
                -0.6208526729349553,
                0.04795270674657637,
                -3.165496655787646
            ]
        },
        {
            "positions": [
                0.12307093320515265,
                -1.1356232187588227,
                1.9654023898323636,
                -0.7383764796690518,
                0.13787250787041067,
                -3.228985592541065
            ]
        }
    ]
}