{
    "goal": {
        "global_pose": {
            "orientation": {
                "w": 0.7047431468963623,
                "x": -0.7094548344612122,
                "y": 0.0024358443915843964,
                "z": -0.0022348060738295317
            },
            "position": {
                "x": 0.6094750761985779,
                "y": 0.3671506643295288,
                "z": 0.19426114857196808
            }
        },
        "name": "move_to_magneteinheit_A"
    },
    "id": "ProjEST_move_to_magneteinheit_A_31",
    "joint_names": [
        "shoulder_pan_joint",
        "shoulder_lift_joint",
        "elbow_joint",
        "wrist_1_joint",
        "wrist_2_joint",
        "wrist_3_joint"
    ],
    "metrics": {
        "cart_traj_len": 1.0536743893170306,
        "distance_elbow_joint": 0.38828776869814274,
        "distance_shoulder_lift_joint": 0.3633597727828717,
        "distance_shoulder_pan_joint": 1.2421429553892183,
        "distance_wrist_1_joint": 2.2329228360557174,
        "distance_wrist_2_joint": 1.701244776353998,
        "distance_wrist_3_joint": 1.2073754885950252,
        "smoothness": 2.6645352801989826e-16,
        "time": 0.029856213,
        "traj_len": 2.6712045219104756,
        "weighted_distance": 3.6720909830061044
    },
    "planner": "ProjEST",
    "start": {
        "state": {
            "elbow_joint": 1.5739458966750683,
            "shoulder_lift_joint": -1.4977259741207325,
            "shoulder_pan_joint": -1.1188672016454206,
            "wrist_1_joint": 1.494575848278785,
            "wrist_2_joint": -1.5706037134824402,
            "wrist_3_joint": -2.0226957942261072
        }
    },
    "waypoints": [
        {
            "positions": [
                -1.1188672016454206,
                -1.4977259741207325,
                1.5739458966750683,
                1.494575848278785,
                -1.5706037134824402,
                -2.0226957942261072
            ]
        },
        {
            "positions": [
                -1.0534912566249355,
                -1.478601775553213,
                1.5943820950276022,
                1.3770535937495367,
                -1.4810645147269665,
                -2.086241872573214
            ]
        },
        {
            "positions": [
                -0.9881153116044503,
                -1.4594775769856934,
                1.614818293380136,
                1.2595313392202885,
                -1.391525315971493,
                -2.1497879509203206
            ]
        },
        {
            "positions": [
                -0.9227393665839652,
                -1.440353378418174,
                1.63525449173267,
                1.1420090846910402,
                -1.3019861172160194,
                -2.213334029267427
            ]
        },
        {
            "positions": [
                -0.85736342156348,
                -1.4212291798506542,
                1.6556906900852038,
                1.0244868301617918,
                -1.212446918460546,
                -2.2768801076145335
            ]
        },
        {
            "positions": [
                -0.7919874765429948,
                -1.4021049812831348,
                1.6761268884377374,
                0.9069645756325436,
                -1.1229077197050723,
                -2.34042618596164
            ]
        },
        {
            "positions": [
                -0.7266115315225097,
                -1.382980782715615,
                1.6965630867902712,
                0.7894423211032953,
                -1.0333685209495989,
                -2.403972264308747
            ]
        },
        {
            "positions": [
                -0.6612355865020245,
                -1.3638565841480956,
                1.716999285142805,
                0.671920066574047,
                -0.9438293221941252,
                -2.467518342655853
            ]
        },
        {
            "positions": [
                -0.5958596414815392,
                -1.344732385580576,
                1.737435483495339,
                0.5543978120447988,
                -0.8542901234386516,
                -2.53106442100296
            ]
        },
        {
            "positions": [
                -0.5304836964610541,
                -1.3256081870130565,
                1.7578716818478728,
                0.4368755575155505,
                -0.7647509246831781,
                -2.5946104993500665
            ]
        },
        {
            "positions": [
                -0.46510775144056893,
                -1.3064839884455368,
                1.7783078802004066,
                0.31935330298630227,
                -0.6752117259277045,
                -2.658156577697173
            ]
        },
        {
            "positions": [
                -0.39973180642008377,
                -1.2873597898780174,
                1.7987440785529405,
                0.2018310484570538,
                -0.5856725271722308,
                -2.72170265604428
            ]
        },
        {
            "positions": [
                -0.3343558613995986,
                -1.2682355913104977,
                1.8191802769054743,
                0.08430879392780555,
                -0.4961333284167573,
                -2.785248734391386
            ]
        },
        {
            "positions": [
                -0.26897991637911334,
                -1.2491113927429782,
                1.8396164752580082,
                -0.0332134606014427,
                -0.4065941296612836,
                -2.8487948127384928
            ]
        },
        {
            "positions": [
                -0.2036039713586283,
                -1.2299871941754588,
                1.860052673610542,
                -0.15073571513069095,
                -0.31705493090581016,
                -2.9123408910855995
            ]
        },
        {
            "positions": [
                -0.13822802633814302,
                -1.210862995607939,
                1.8804888719630757,
                -0.2682579696599392,
                -0.2275157321503365,
                -2.975886969432706
            ]
        },
        {
            "positions": [
                -0.07285208131765786,
                -1.1917387970404194,
                1.9009250703156095,
                -0.38578022418918745,
                -0.13797653339486304,
                -3.039433047779813
            ]
        },
        {
            "positions": [
                -0.0074761362971726975,
                -1.1726145984729,
                1.9213612686681434,
                -0.5033024787184359,
                -0.04843733463938937,
                -3.102979126126919
            ]
        },
        {
            "positions": [
                0.05789980872331246,
                -1.1534903999053805,
                1.9417974670206772,
                -0.620824733247684,
                0.041101864116084075,
                -3.1665252044740257
            ]
        },
        {
            "positions": [
                0.12327575374379772,
                -1.1343662013378608,
                1.962233665373211,
                -0.7383469877769323,
                0.13064106287155772,
                -3.2300712828211324
            ]
        }
    ]
}