{
    "goal": {
        "global_pose": {
            "orientation": {
                "w": 0.005598929693374612,
                "x": 0.007748599140229565,
                "y": 0.7110244013736278,
                "z": -0.7031023480610252
            },
            "position": {
                "x": -0.8858502320852131,
                "y": -0.7141253447532654,
                "z": 0.3711530566215515
            }
        },
        "name": "move_to_auspresseinheit_C"
    },
    "id": "ProjEST_move_to_auspresseinheit_C_124",
    "joint_names": [
        "shoulder_pan_joint",
        "shoulder_lift_joint",
        "elbow_joint",
        "wrist_1_joint",
        "wrist_2_joint",
        "wrist_3_joint"
    ],
    "metrics": {
        "cart_traj_len": 0.49296996173333324,
        "distance_elbow_joint": 1.0033094789996495,
        "distance_shoulder_lift_joint": 0.3268158999782015,
        "distance_shoulder_pan_joint": 0.2558116384412217,
        "distance_wrist_1_joint": 0.6826804798757125,
        "distance_wrist_2_joint": 1.3183401290515886,
        "distance_wrist_3_joint": 0.055480535119948104,
        "smoothness": 1.6148698667872622e-16,
        "time": 0.141391809,
        "traj_len": 1.9085172677935933,
        "weighted_distance": 2.3988371851031323
    },
    "planner": "ProjEST",
    "start": {
        "state": {
            "elbow_joint": 1.752795957773711,
            "shoulder_lift_joint": -0.9740617694225064,
            "shoulder_pan_joint": -2.967991417825858,
            "wrist_1_joint": -0.7595177689806859,
            "wrist_2_joint": 1.7443932448377395,
            "wrist_3_joint": 3.199131542505932
        }
    },
    "waypoints": [
        {
            "positions": [
                -2.967991417825858,
                -0.9740617694225064,
                1.752795957773711,
                -0.7595177689806859,
                1.7443932448377395,
                3.199131542505932
            ]
        },
        {
            "positions": [
                -2.942410253981736,
                -0.9413801794246863,
                1.6524650098737461,
                -0.6912497209931147,
                1.6125592319325806,
                3.193583488993937
            ]
        },
        {
            "positions": [
                -2.9168290901376137,
                -0.9086985894268661,
                1.5521340619737811,
                -0.6229816730055434,
                1.4807252190274218,
                3.1880354354819427
            ]
        },
        {
            "positions": [
                -2.8912479262934916,
                -0.876016999429046,
                1.4518031140738163,
                -0.5547136250179722,
                1.3488912061222629,
                3.1824873819699477
            ]
        },
        {
            "positions": [
                -2.8656667624493695,
                -0.8433354094312259,
                1.3514721661738514,
                -0.4864455770304009,
                1.2170571932171041,
                3.176939328457953
            ]
        },
        {
            "positions": [
                -2.8400855986052473,
                -0.8106538194334056,
                1.2511412182738864,
                -0.4181775290428297,
                1.0852231803119452,
                3.1713912749459583
            ]
        },
        {
            "positions": [
                -2.8145044347611248,
                -0.7779722294355855,
                1.1508102703739214,
                -0.34990948105525843,
                0.9533891674067864,
                3.1658432214339634
            ]
        },
        {
            "positions": [
                -2.7889232709170027,
                -0.7452906394377654,
                1.0504793224739566,
                -0.28164143306768724,
                0.8215551545016275,
                3.1602951679219684
            ]
        },
        {
            "positions": [
                -2.7633421070728805,
                -0.7126090494399453,
                0.9501483745739915,
                -0.21337338508011594,
                0.6897211415964686,
                3.1547471144099735
            ]
        },
        {
            "positions": [
                -2.7377609432287584,
                -0.6799274594421251,
                0.8498174266740265,
                -0.1451053370925447,
                0.5578871286913096,
                3.149199060897979
            ]
        },
        {
            "positions": [
                -2.7121797793846363,
                -0.647245869444305,
                0.7494864787740615,
                -0.07683728910497346,
                0.426053115786151,
                3.143651007385984
            ]
        }
    ]
}