{
    "goal": {
        "global_pose": {
            "orientation": {
                "w": 0.7031023480610252,
                "x": -0.7110244013736278,
                "y": 0.0077485991402295624,
                "z": 0.005598929693374583
            },
            "position": {
                "x": -0.8841497679147869,
                "y": 0.44412534475326537,
                "z": 0.3711530566215515
            }
        },
        "name": "move_to_auspresseinheit_D"
    },
    "id": "ProjEST_move_to_auspresseinheit_D_141",
    "joint_names": [
        "shoulder_pan_joint",
        "shoulder_lift_joint",
        "elbow_joint",
        "wrist_1_joint",
        "wrist_2_joint",
        "wrist_3_joint"
    ],
    "metrics": {
        "cart_traj_len": 3.6507976521837957,
        "distance_elbow_joint": 3.182376624922748,
        "distance_shoulder_lift_joint": 1.399471269007147,
        "distance_shoulder_pan_joint": 2.79745058704112,
        "distance_wrist_1_joint": 2.970172656092159,
        "distance_wrist_2_joint": 0.9785222098999575,
        "distance_wrist_3_joint": 5.280101105120989,
        "smoothness": 0.27849316926289,
        "time": 0.09664450499999999,
        "traj_len": 4.075302988991631,
        "weighted_distance": 5.578260618536769
    },
    "planner": "ProjEST",
    "start": {
        "state": {
            "elbow_joint": 1.8268400409724999,
            "shoulder_lift_joint": -1.0144045787793008,
            "shoulder_pan_joint": 2.6280239544362485,
            "wrist_1_joint": -0.790705565816056,
            "wrist_2_joint": 1.0573557467365533,
            "wrist_3_joint": 3.1851377467193758
        }
    },
    "waypoints": [
        {
            "positions": [
                2.6280239544362485,
                -1.0144045787793008,
                1.8268400409724999,
                -0.790705565816056,
                1.0573557467365533,
                3.1851377467193758
            ]
        },
        {
            "positions": [
                2.6021284336093022,
                -1.0322392825944664,
                1.7344435639509874,
                -0.7159777255821786,
                1.0252141479798829,
                3.0406087100565466
            ]
        },
        {
            "positions": [
                2.5762329127823556,
                -1.050073986409632,
                1.642047086929475,
                -0.6412498853483012,
                0.9930725492232124,
                2.896079673393717
            ]
        },
        {
            "positions": [
                2.5503373919554093,
                -1.0679086902247976,
                1.5496506099079628,
                -0.5665220451144237,
                0.9609309504665421,
                2.751550636730888
            ]
        },
        {
            "positions": [
                2.524441871128463,
                -1.0857433940399632,
                1.4572541328864503,
                -0.49179420488054637,
                0.9287893517098716,
                2.607021600068059
            ]
        },
        {
            "positions": [
                2.498546350301517,
                -1.1035780978551288,
                1.364857655864938,
                -0.4170663646466689,
                0.8966477529532012,
                2.4624925634052293
            ]
        },
        {
            "positions": [
                2.47265082947457,
                -1.1214128016702944,
                1.2724611788434257,
                -0.3423385244127915,
                0.8645061541965309,
                2.3179635267424
            ]
        },
        {
            "positions": [
                2.446755308647624,
                -1.13924750548546,
                1.1800647018219133,
                -0.2676106841789141,
                0.8323645554398604,
                2.173434490079571
            ]
        },
        {
            "positions": [
                2.4208597878206777,
                -1.1570822093006257,
                1.0876682248004008,
                -0.19288284394503674,
                0.80022295668319,
                2.0289054534167414
            ]
        },
        {
            "positions": [
                2.394964266993731,
                -1.1749169131157913,
                0.9952717477788883,
                -0.11815500371115928,
                0.7680813579265195,
                1.8843764167539123
            ]
        },
        {
            "positions": [
                2.3690687461667848,
                -1.1927516169309569,
                0.902875270757376,
                -0.043427163477281816,
                0.7359397591698491,
                1.739847380091083
            ]
        },
        {
            "positions": [
                2.3431732253398385,
                -1.2105863207461225,
                0.8104787937358637,
                0.031300676756595536,
                0.7037981604131788,
                1.595318343428254
            ]
        },
        {
            "positions": [
                2.3172777045128923,
                -1.228421024561288,
                0.7180823167143513,
                0.106028516990473,
                0.6716565616565084,
                1.4507893067654247
            ]
        },
        {
            "positions": [
                2.2913821836859456,
                -1.246255728376454,
                0.6256858396928389,
                0.18075635722435035,
                0.639514962899838,
                1.3062602701025954
            ]
        },
        {
            "positions": [
                2.2654866628589994,
                -1.2640904321916193,
                0.5332893626713264,
                0.2554841974582278,
                0.6073733641431676,
                1.1617312334397658
            ]
        },
        {
            "positions": [
                2.2395911420320527,
                -1.2819251360067851,
                0.440892885649814,
                0.33021203769210516,
                0.5752317653864971,
                1.0172021967769367
            ]
        },
        {
            "positions": [
                2.2136956212051064,
                -1.2997598398219505,
                0.34849640862830156,
                0.4049398779259825,
                0.5430901666298267,
                0.8726731601141076
            ]
        },
        {
            "positions": [
                2.18780010037816,
                -1.3175945436371164,
                0.25609993160678934,
                0.47966771815985987,
                0.5109485678731563,
                0.7281441234512784
            ]
        },
        {
            "positions": [
                2.161904579551214,
                -1.335429247452282,
                0.1637034545852767,
                0.5543955583937374,
                0.4788069691164859,
                0.5836150867884489
            ]
        },
        {
            "positions": [
                2.1360090587242677,
                -1.3532639512674476,
                0.07130697756376447,
                0.6291233986276148,
                0.44666537035981546,
                0.43908605012561974
            ]
        },
        {
            "positions": [
                2.110113537897321,
                -1.3710986550826132,
                -0.021089499457747962,
                0.7038512388614924,
                0.414523771603145,
                0.2945570134627902
            ]
        },
        {
            "positions": [
                2.084218017070375,
                -1.3889333588977788,
                -0.1134859764792604,
                0.7785790790953697,
                0.3823821728464747,
                0.15002797679996105
            ]
        },
        {
            "positions": [
                2.058322496243428,
                -1.4067680627129444,
                -0.2058824535007724,
                0.8533069193292471,
                0.35024057408980425,
                0.005498940137132369
            ]
        },
        {
            "positions": [
                2.032426975416482,
                -1.42460276652811,
                -0.29827893052228527,
                0.9280347595631246,
                0.3180989753331338,
                -0.1390300965256972
            ]
        },
        {
            "positions": [
                2.0065314545895356,
                -1.4424374703432756,
                -0.39067540754379726,
                1.002762599797002,
                0.2859573765764635,
                -0.2835591331885263
            ]
        },
        {
            "positions": [
                1.9806359337625894,
                -1.4602721741584412,
                -0.4830718845653097,
                1.0774904400308791,
                0.25381577781979303,
                -0.42808816985135545
            ]
        },
        {
            "positions": [
                1.9547404129356427,
                -1.4781068779736068,
                -0.5754683615868221,
                1.1522182802647567,
                0.2216741790631226,
                -0.572617206514185
            ]
        },
        {
            "positions": [
                1.9288448921086965,
                -1.4959415817887725,
                -0.6678648386083346,
                1.2269461204986343,
                0.18953258030645226,
                -0.7171462431770141
            ]
        },
        {
            "positions": [
                1.9029493712817502,
                -1.513776285603938,
                -0.760261315629847,
                1.3016739607325116,
                0.1573909815497817,
                -0.8616752798398442
            ]
        },
        {
            "positions": [
                1.8770538504548038,
                -1.5316109894191037,
                -0.8526577926513597,
                1.3764018009663892,
                0.12524938279311143,
                -1.0062043165026728
            ]
        },
        {
            "positions": [
                1.7308766730933984,
                -1.594629907873914,
                -0.8885777063155661,
                1.3190399945871238,
                0.12856480036143403,
                -0.9284358135098912
            ]
        },
        {
            "positions": [
                1.5846994957319929,
                -1.6576488263287241,
                -0.9244976199797726,
                1.2616781882078587,
                0.1318802179297566,
                -0.8506673105171096
            ]
        },
        {
            "positions": [
                1.4385223183705875,
                -1.7206677447835346,
                -0.9604175336439791,
                1.2043163818285936,
                0.1351956354980792,
                -0.772898807524328
            ]
        },
        {
            "positions": [
                1.2923451410091822,
                -1.7836866632383448,
                -0.9963374473081856,
                1.1469545754493282,
                0.1385110530664018,
                -0.6951303045315465
            ]
        },
        {
            "positions": [
                1.1461679636477766,
                -1.846705581693155,
                -1.0322573609723922,
                1.0895927690700629,
                0.14182647063472437,
                -0.6173618015387647
            ]
        },
        {
            "positions": [
                0.9999907862863712,
                -1.9097245001479655,
                -1.0681772746365985,
                1.0322309626907977,
                0.14514188820304696,
                -0.5395932985459833
            ]
        },
        {
            "positions": [
                0.8538136089249657,
                -1.9727434186027757,
                -1.104097188300805,
                0.9748691563115325,
                0.14845730577136956,
                -0.46182479555320155
            ]
        },
        {
            "positions": [
                0.7076364315635604,
                -2.035762337057586,
                -1.1400171019650116,
                0.9175073499322672,
                0.15177272333969213,
                -0.38405629256041995
            ]
        },
        {
            "positions": [
                0.5614592542021548,
                -2.0987812555123964,
                -1.1759370156292182,
                0.860145543553002,
                0.15508814090801473,
                -0.30628778956763825
            ]
        },
        {
            "positions": [
                0.41528207684074947,
                -2.1618001739672064,
                -1.2118569292934245,
                0.8027837371737367,
                0.1584035584763373,
                -0.22851928657485665
            ]
        },
        {
            "positions": [
                0.2691048994793439,
                -2.224819092422017,
                -1.247776842957631,
                0.7454219307944715,
                0.1617189760446599,
                -0.15075078358207517
            ]
        },
        {
            "positions": [
                0.12292772211793856,
                -2.2878380108768273,
                -1.2836967566218376,
                0.6880601244152063,
                0.1650343936129825,
                -0.07298228058929357
            ]
        },
        {
            "positions": [
                -0.023249455243467,
                -2.3508569293316377,
                -1.319616670286044,
                0.630698318035941,
                0.1683498111813051,
                0.0047862224034882495
            ]
        },
        {
            "positions": [
                -0.16942663260487226,
                -2.4138758477864477,
                -1.3555365839502505,
                0.5733365116566758,
                0.17166522874962767,
                0.08255472539626965
            ]
        }
    ]
}