{
    "goal": {
        "global_pose": {
            "orientation": {
                "w": -0.4816463035849501,
                "x": 0.5182115481033762,
                "y": 0.4908360881923453,
                "z": -0.5084816262002911
            },
            "position": {
                "x": -0.8240239810943604,
                "y": -0.300875300988555,
                "z": 0.16403168439865112
            }
        },
        "name": "move_to_storage_C"
    },
    "id": "ProjEST_move_to_storage_C_61",
    "joint_names": [
        "shoulder_pan_joint",
        "shoulder_lift_joint",
        "elbow_joint",
        "wrist_1_joint",
        "wrist_2_joint",
        "wrist_3_joint"
    ],
    "metrics": {
        "cart_traj_len": 0.5771127987243168,
        "distance_elbow_joint": 0.2602035138896446,
        "distance_shoulder_lift_joint": 0.18967784086047668,
        "distance_shoulder_pan_joint": 0.49533505844330694,
        "distance_wrist_1_joint": 0.08598097837986085,
        "distance_wrist_2_joint": 1.0658179759268975,
        "distance_wrist_3_joint": 0.06989193986852404,
        "smoothness": 5.075305295617109e-16,
        "time": 0.143779981,
        "traj_len": 1.472041883700566,
        "weighted_distance": 1.8597016269855005
    },
    "planner": "ProjEST",
    "start": {
        "state": {
            "elbow_joint": 2.010868315001653,
            "shoulder_lift_joint": -1.1634956873357014,
            "shoulder_pan_joint": -2.4736205022346103,
            "wrist_1_joint": -0.8367026794713948,
            "wrist_2_joint": 0.6746043897044093,
            "wrist_3_joint": 3.1335220948105738
        }
    },
    "waypoints": [
        {
            "positions": [
                -2.4736205022346103,
                -1.1634956873357014,
                2.010868315001653,
                -0.8367026794713948,
                0.6746043897044093,
                3.1335220948105738
            ]
        },
        {
            "positions": [
                -2.556176345308495,
                -1.1318827138589553,
                1.9675010626867122,
                -0.8223725164080846,
                0.8522407190255589,
                3.1451707514553275
            ]
        },
        {
            "positions": [
                -2.638732188382379,
                -1.1002697403822093,
                1.9241338103717716,
                -0.8080423533447745,
                1.0298770483467083,
                3.1568194081000818
            ]
        },
        {
            "positions": [
                -2.7212880314562637,
                -1.068656766905463,
                1.880766558056831,
                -0.7937121902814643,
                1.207513377667858,
                3.168468064744836
            ]
        },
        {
            "positions": [
                -2.8038438745301484,
                -1.0370437934287169,
                1.83739930574189,
                -0.7793820272181542,
                1.3851497069890075,
                3.18011672138959
            ]
        },
        {
            "positions": [
                -2.8863997176040326,
                -1.0054308199519708,
                1.7940320534269492,
                -0.765051864154844,
                1.5627860363101571,
                3.1917653780343436
            ]
        },
        {
            "positions": [
                -2.968955560677917,
                -0.9738178464752247,
                1.7506648011120085,
                -0.7507217010915339,
                1.7404223656313067,
                3.203414034679098
            ]
        }
    ]
}