{
    "goal": {
        "global_pose": {
            "orientation": {
                "w": 0.5084816217422485,
                "x": -0.49083608388900757,
                "y": 0.5182115435600281,
                "z": -0.4816462993621826
            },
            "position": {
                "x": 0.5540239810943604,
                "y": 0.030875300988554955,
                "z": 0.16403168439865112
            }
        },
        "name": "move_to_storage_A"
    },
    "id": "ProjEST_move_to_storage_A_67",
    "joint_names": [
        "shoulder_pan_joint",
        "shoulder_lift_joint",
        "elbow_joint",
        "wrist_1_joint",
        "wrist_2_joint",
        "wrist_3_joint"
    ],
    "metrics": {
        "cart_traj_len": 0.353454750106524,
        "distance_elbow_joint": 0.4503889336160367,
        "distance_shoulder_lift_joint": 0.23628612121499737,
        "distance_shoulder_pan_joint": 0.4620203075576191,
        "distance_wrist_1_joint": 0.2389206738314139,
        "distance_wrist_2_joint": 1.10152259798559,
        "distance_wrist_3_joint": 0.10309382886198382,
        "smoothness": 1.998401446083499e-15,
        "time": 0.145862247,
        "traj_len": 1.6100411370731,
        "weighted_distance": 2.03441966973597
    },
    "planner": "ProjEST",
    "start": {
        "state": {
            "elbow_joint": 1.9715474177455299,
            "shoulder_lift_joint": -1.139484666580328,
            "shoulder_pan_joint": 0.12281154398918248,
            "wrist_1_joint": -0.7804687475355282,
            "wrist_2_joint": 0.12958649657246987,
            "wrist_3_joint": -3.1924925159053466
        }
    },
    "waypoints": [
        {
            "positions": [
                0.12281154398918248,
                -1.139484666580328,
                1.9715474177455299,
                -0.7804687475355282,
                0.12958649657246987,
                -3.1924925159053466
            ]
        },
        {
            "positions": [
                0.056808642909522616,
                -1.173239826753899,
                2.0358886939763923,
                -0.8146002723685873,
                0.2869468677132685,
                -3.17776482606792
            ]
        },
        {
            "positions": [
                -0.009194258170137248,
                -1.20699498692747,
                2.1002299702072547,
                -0.8487317972016465,
                0.4443072388540671,
                -3.163037136230494
            ]
        },
        {
            "positions": [
                -0.07519715924979711,
                -1.2407501471010411,
                2.164571246438117,
                -0.8828633220347055,
                0.6016676099948657,
                -3.1483094463930676
            ]
        },
        {
            "positions": [
                -0.14120006032945698,
                -1.2745053072746122,
                2.2289125226689794,
                -0.9169948468677647,
                0.7590279811356643,
                -3.1335817565556416
            ]
        },
        {
            "positions": [
                -0.20720296140911687,
                -1.3082604674481833,
                2.293253798899842,
                -0.9511263717008238,
                0.916388352276463,
                -3.118854066718215
            ]
        },
        {
            "positions": [
                -0.2732058624887767,
                -1.3420156276217543,
                2.357595075130704,
                -0.985257896533883,
                1.0737487234172614,
                -3.104126376880789
            ]
        },
        {
            "positions": [
                -0.3392087635684366,
                -1.3757707877953254,
                2.4219363513615666,
                -1.019389421366942,
                1.23110909455806,
                -3.0893986870433627
            ]
        }
    ]
}