{
    "goal": {
        "global_pose": {
            "orientation": {
                "w": 0.7031023480610252,
                "x": -0.7110244013736278,
                "y": 0.0077485991402295624,
                "z": 0.005598929693374583
            },
            "position": {
                "x": -0.8841497679147869,
                "y": 0.44412534475326537,
                "z": 0.3711530566215515
            }
        },
        "name": "move_to_auspresseinheit_D"
    },
    "id": "ProjEST_move_to_auspresseinheit_D_41",
    "joint_names": [
        "shoulder_pan_joint",
        "shoulder_lift_joint",
        "elbow_joint",
        "wrist_1_joint",
        "wrist_2_joint",
        "wrist_3_joint"
    ],
    "metrics": {
        "cart_traj_len": 1.7466753203852918,
        "distance_elbow_joint": 1.848485727324673,
        "distance_shoulder_lift_joint": 2.074953224116191,
        "distance_shoulder_pan_joint": 1.1950098214447986,
        "distance_wrist_1_joint": 4.198956256882251,
        "distance_wrist_2_joint": 3.657789274086064,
        "distance_wrist_3_joint": 8.168595797621773,
        "smoothness": 0.3890056085468027,
        "time": 0.299620447,
        "traj_len": 4.598237716938496,
        "weighted_distance": 6.73332957961272
    },
    "planner": "ProjEST",
    "start": {
        "state": {
            "elbow_joint": 1.8268400409724999,
            "shoulder_lift_joint": -1.0144045787793008,
            "shoulder_pan_joint": 2.6280239544362485,
            "wrist_1_joint": -0.790705565816056,
            "wrist_2_joint": 1.0573557467365533,
            "wrist_3_joint": 3.1851377467193758
        }
    },
    "waypoints": [
        {
            "positions": [
                2.6280239544362485,
                -1.0144045787793008,
                1.8268400409724999,
                -0.790705565816056,
                1.0573557467365533,
                3.1851377467193758
            ]
        },
        {
            "positions": [
                2.643386134348107,
                -1.0378319982940967,
                1.8447721580753198,
                -0.691728349616412,
                0.9687285870517748,
                3.0361017788043823
            ]
        },
        {
            "positions": [
                2.6587483142599657,
                -1.0612594178088925,
                1.8627042751781397,
                -0.5927511334167682,
                0.8801014273669963,
                2.8870658108893887
            ]
        },
        {
            "positions": [
                2.674110494171824,
                -1.0846868373236884,
                1.8806363922809597,
                -0.49377391721712427,
                0.7914742676822177,
                2.7380298429743952
            ]
        },
        {
            "positions": [
                2.6894726740836825,
                -1.1081142568384843,
                1.8985685093837796,
                -0.3947967010174804,
                0.7028471079974392,
                2.5889938750594017
            ]
        },
        {
            "positions": [
                2.7048348539955414,
                -1.1315416763532802,
                1.9165006264865994,
                -0.29581948481783643,
                0.6142199483126606,
                2.439957907144408
            ]
        },
        {
            "positions": [
                2.7201970339073998,
                -1.154969095868076,
                1.9344327435894193,
                -0.19684226861819254,
                0.5255927886278821,
                2.290921939229415
            ]
        },
        {
            "positions": [
                2.735559213819258,
                -1.1783965153828722,
                1.9523648606922392,
                -0.09786505241854859,
                0.43696562894310353,
                2.141885971314421
            ]
        },
        {
            "positions": [
                2.750921393731117,
                -1.201823934897668,
                1.9702969777950592,
                0.0011121637810952434,
                0.348338469258325,
                1.9928500033994279
            ]
        },
        {
            "positions": [
                2.7662835736429754,
                -1.225251354412464,
                1.9882290948978791,
                0.10008937998073919,
                0.2597113095735465,
                1.8438140354844343
            ]
        },
        {
            "positions": [
                2.781645753554834,
                -1.2486787739272598,
                2.006161212000699,
                0.19906659618038314,
                0.17108414988876786,
                1.6947780675694408
            ]
        },
        {
            "positions": [
                2.797007933466692,
                -1.2721061934420557,
                2.024093329103519,
                0.2980438123800271,
                0.08245699020398922,
                1.5457420996544473
            ]
        },
        {
            "positions": [
                2.812370113378551,
                -1.2955336129568515,
                2.0420254462063387,
                0.3970210285796709,
                -0.006170169480789189,
                1.396706131739454
            ]
        },
        {
            "positions": [
                2.8277322932904094,
                -1.3189610324716474,
                2.0599575633091587,
                0.495998244779315,
                -0.09479732916556793,
                1.2476701638244603
            ]
        },
        {
            "positions": [
                2.843094473202268,
                -1.3423884519864433,
                2.0778896804119786,
                0.5949754609789588,
                -0.18342448885034623,
                1.098634195909467
            ]
        },
        {
            "positions": [
                2.8584566531141267,
                -1.3658158715012392,
                2.0958217975147986,
                0.6939526771786029,
                -0.272051648535125,
                0.9495982279944735
            ]
        },
        {
            "positions": [
                2.873818833025985,
                -1.389243291016035,
                2.1137539146176185,
                0.7929298933782465,
                -0.3606788082199033,
                0.80056226007948
            ]
        },
        {
            "positions": [
                2.8891810129378435,
                -1.412670710530831,
                2.1316860317204385,
                0.8919071095778905,
                -0.449305967904682,
                0.6515262921644864
            ]
        },
        {
            "positions": [
                2.9045431928497023,
                -1.4360981300456268,
                2.1496181488232584,
                0.9908843257775344,
                -0.5379331275894603,
                0.5024903242494929
            ]
        },
        {
            "positions": [
                2.9199053727615607,
                -1.4595255495604227,
                2.1675502659260784,
                1.0898615419771784,
                -0.6265602872742391,
                0.3534543563344994
            ]
        },
        {
            "positions": [
                2.935267552673419,
                -1.4829529690752188,
                2.1854823830288983,
                1.1888387581768223,
                -0.7151874469590176,
                0.20441838841950588
            ]
        },
        {
            "positions": [
                2.950629732585278,
                -1.5063803885900147,
                2.2034145001317182,
                1.2878159743764666,
                -0.8038146066437963,
                0.05538242050451192
            ]
        },
        {
            "positions": [
                2.9659919124971363,
                -1.5298078081048105,
                2.221346617234538,
                1.3867931905761102,
                -0.8924417663285749,
                -0.09365354741048115
            ]
        },
        {
            "positions": [
                2.9813540924089947,
                -1.5532352276196064,
                2.239278734337358,
                1.4857704067757542,
                -0.9810689260133532,
                -0.24268951532547467
            ]
        },
        {
            "positions": [
                2.996716272320853,
                -1.5766626471344023,
                2.257210851440178,
                1.5847476229753978,
                -1.0696960856981317,
                -0.39172548324046774
            ]
        },
        {
            "positions": [
                3.012078452232712,
                -1.6000900666491982,
                2.275142968542998,
                1.6837248391750423,
                -1.1583232453829106,
                -0.5407614511554617
            ]
        },
        {
            "positions": [
                3.0274406321445704,
                -1.623517486163994,
                2.293075085645818,
                1.782702055374686,
                -1.2469504050676892,
                -0.6897974190704552
            ]
        },
        {
            "positions": [
                3.042802812056429,
                -1.64694490567879,
                2.3110072027486375,
                1.8816792715743296,
                -1.3355775647524673,
                -0.8388333869854487
            ]
        },
        {
            "positions": [
                3.0581649919682876,
                -1.6703723251935858,
                2.3289393198514574,
                1.9806564877739736,
                -1.4242047244372458,
                -0.9878693549004418
            ]
        },
        {
            "positions": [
                3.073527171880146,
                -1.693799744708382,
                2.3468714369542774,
                2.0796337039736175,
                -1.5128318841220247,
                -1.1369053228154358
            ]
        },
        {
            "positions": [
                3.0888893517920044,
                -1.7172271642231776,
                2.3648035540570973,
                2.178610920173262,
                -1.6014590438068033,
                -1.2859412907304288
            ]
        },
        {
            "positions": [
                3.1042515317038633,
                -1.7406545837379737,
                2.3827356711599172,
                2.2775881363729056,
                -1.6900862034915813,
                -1.4349772586454228
            ]
        },
        {
            "positions": [
                3.1196137116157217,
                -1.7640820032527693,
                2.400667788262737,
                2.376565352572549,
                -1.7787133631763599,
                -1.5840132265604159
            ]
        },
        {
            "positions": [
                3.1349758915275805,
                -1.7875094227675654,
                2.418599905365557,
                2.4755425687721937,
                -1.8673405228611388,
                -1.7330491944754098
            ]
        },
        {
            "positions": [
                3.150338071439439,
                -1.810936842282361,
                2.436532022468377,
                2.5745197849718373,
                -1.9559676825459174,
                -1.882085162390403
            ]
        },
        {
            "positions": [
                3.1657002513512973,
                -1.8343642617971572,
                2.454464139571197,
                2.673497001171481,
                -2.044594842230696,
                -2.031121130305396
            ]
        },
        {
            "positions": [
                3.1810624312631557,
                -1.8577916813119528,
                2.472396256674017,
                2.7724742173711245,
                -2.133222001915474,
                -2.18015709822039
            ]
        },
        {
            "positions": [
                3.1964246111750145,
                -1.881219100826749,
                2.490328373776837,
                2.871451433570769,
                -2.221849161600253,
                -2.329193066135384
            ]
        },
        {
            "positions": [
                3.211786791086873,
                -1.9046465203415448,
                2.508260490879657,
                2.970428649770413,
                -2.3104763212850314,
                -2.4782290340503765
            ]
        },
        {
            "positions": [
                3.1735838545372372,
                -1.830602065181923,
                2.4353189110410622,
                2.9430647721894267,
                -2.3285986466640614,
                -2.3216522204971253
            ]
        },
        {
            "positions": [
                3.135380917987601,
                -1.7565576100223015,
                2.362377331202467,
                2.9157008946084404,
                -2.3467209720430913,
                -2.165075406943874
            ]
        },
        {
            "positions": [
                3.0971779814379654,
                -1.6825131548626797,
                2.2894357513638726,
                2.888337017027454,
                -2.364843297422121,
                -2.0084985933906228
            ]
        },
        {
            "positions": [
                3.0589750448883293,
                -1.608468699703058,
                2.216494171525278,
                2.860973139446468,
                -2.382965622801151,
                -1.8519217798373713
            ]
        },
        {
            "positions": [
                3.0207721083386936,
                -1.5344242445434364,
                2.1435525916866833,
                2.833609261865482,
                -2.401087948180181,
                -1.69534496628412
            ]
        },
        {
            "positions": [
                2.9825691717890574,
                -1.4603797893838146,
                2.0706110118480883,
                2.8062453842844954,
                -2.419210273559211,
                -1.5387681527308685
            ]
        },
        {
            "positions": [
                2.9443662352394218,
                -1.386335334224193,
                1.9976694320094937,
                2.778881506703509,
                -2.437332598938241,
                -1.3821913391776173
            ]
        },
        {
            "positions": [
                2.906163298689786,
                -1.3122908790645713,
                1.9247278521708988,
                2.7515176291225227,
                -2.455454924317271,
                -1.225614525624366
            ]
        },
        {
            "positions": [
                2.86796036214015,
                -1.2382464239049495,
                1.851786272332304,
                2.7241537515415364,
                -2.473577249696301,
                -1.0690377120711148
            ]
        },
        {
            "positions": [
                2.8297574255905142,
                -1.164201968745328,
                1.7788446924937094,
                2.69678987396055,
                -2.491699575075331,
                -0.9124608985178635
            ]
        },
        {
            "positions": [
                2.791554489040878,
                -1.0901575135857062,
                1.7059031126551145,
                2.6694259963795637,
                -2.509821900454361,
                -0.755884084964612
            ]
        },
        {
            "positions": [
                2.7533515524912424,
                -1.0161130584260847,
                1.6329615328165197,
                2.6420621187985773,
                -2.527944225833391,
                -0.5993072714113608
            ]
        },
        {
            "positions": [
                2.7151486159416063,
                -0.9420686032664629,
                1.560019952977925,
                2.6146982412175914,
                -2.5460665512124208,
                -0.44273045785810927
            ]
        },
        {
            "positions": [
                2.6769456793919706,
                -0.8680241481068411,
                1.4870783731393302,
                2.587334363636605,
                -2.5641888765914507,
                -0.286153644304858
            ]
        },
        {
            "positions": [
                2.638742742842335,
                -0.7939796929472196,
                1.4141367933007356,
                2.5599704860556187,
                -2.5823112019704806,
                -0.12957683075160675
            ]
        },
        {
            "positions": [
                2.6005398062926988,
                -0.7199352377875977,
                1.3411952134621408,
                2.5326066084746324,
                -2.6004335273495105,
                0.026999982801644534
            ]
        }
    ]
}