{
    "goal": {
        "global_pose": {
            "orientation": {
                "w": 0.7047431468963623,
                "x": -0.7094548344612122,
                "y": 0.0024358443915843964,
                "z": -0.0022348060738295317
            },
            "position": {
                "x": 0.6094750761985779,
                "y": 0.3671506643295288,
                "z": 0.19426114857196808
            }
        },
        "name": "move_to_magneteinheit_A"
    },
    "id": "ProjEST_move_to_magneteinheit_A_62",
    "joint_names": [
        "shoulder_pan_joint",
        "shoulder_lift_joint",
        "elbow_joint",
        "wrist_1_joint",
        "wrist_2_joint",
        "wrist_3_joint"
    ],
    "metrics": {
        "cart_traj_len": 1.053745329986795,
        "distance_elbow_joint": 0.40625162824407246,
        "distance_shoulder_lift_joint": 0.35382483780584595,
        "distance_shoulder_pan_joint": 1.2429616470051055,
        "distance_wrist_1_joint": 2.313281975275591,
        "distance_wrist_2_joint": 1.7061618299866093,
        "distance_wrist_3_joint": 1.1358467212077294,
        "smoothness": 2.6645352801989826e-16,
        "time": 0.18140398100000002,
        "traj_len": 2.675505305456327,
        "weighted_distance": 3.667351344935826
    },
    "planner": "ProjEST",
    "start": {
        "state": {
            "elbow_joint": 1.5739458966750683,
            "shoulder_lift_joint": -1.4977259741207325,
            "shoulder_pan_joint": -1.1188672016454206,
            "wrist_1_joint": 1.494575848278785,
            "wrist_2_joint": -1.5706037134824402,
            "wrist_3_joint": -2.0226957942261072
        }
    },
    "waypoints": [
        {
            "positions": [
                -1.1188672016454206,
                -1.4977259741207325,
                1.5739458966750683,
                1.494575848278785,
                -1.5706037134824402,
                -2.0226957942261072
            ]
        },
        {
            "positions": [
                -1.0534481675925202,
                -1.4791036142362144,
                1.5953275613194933,
                1.3728241653695434,
                -1.4808057224305133,
                -2.0824772006054615
            ]
        },
        {
            "positions": [
                -0.9880291335396201,
                -1.460481254351696,
                1.616709225963918,
                1.2510724824603017,
                -1.3910077313785867,
                -2.1422586069848157
            ]
        },
        {
            "positions": [
                -0.9226100994867198,
                -1.441858894467178,
                1.638090890608343,
                1.1293207995510601,
                -1.3012097403266598,
                -2.2020400133641695
            ]
        },
        {
            "positions": [
                -0.8571910654338195,
                -1.4232365345826596,
                1.6594725552527678,
                1.0075691166418186,
                -1.211411749274733,
                -2.261821419743524
            ]
        },
        {
            "positions": [
                -0.7917720313809192,
                -1.4046141746981415,
                1.6808542198971927,
                0.8858174337325769,
                -1.1216137582228063,
                -2.321602826122878
            ]
        },
        {
            "positions": [
                -0.726352997328019,
                -1.3859918148136232,
                1.7022358845416174,
                0.7640657508233353,
                -1.0318157671708794,
                -2.3813842325022323
            ]
        },
        {
            "positions": [
                -0.6609339632751187,
                -1.367369454929105,
                1.7236175491860424,
                0.6423140679140936,
                -0.9420177761189527,
                -2.4411656388815866
            ]
        },
        {
            "positions": [
                -0.5955149292222184,
                -1.3487470950445868,
                1.7449992138304673,
                0.5205623850048521,
                -0.8522197850670258,
                -2.500947045260941
            ]
        },
        {
            "positions": [
                -0.5300958951693181,
                -1.3301247351600687,
                1.7663808784748922,
                0.3988107020956104,
                -0.762421794015099,
                -2.560728451640295
            ]
        },
        {
            "positions": [
                -0.4646768611164178,
                -1.3115023752755504,
                1.787762543119317,
                0.2770590191863689,
                -0.6726238029631723,
                -2.620509858019649
            ]
        },
        {
            "positions": [
                -0.3992578270635174,
                -1.2928800153910323,
                1.8091442077637419,
                0.15530733627712712,
                -0.5828258119112454,
                -2.680291264399003
            ]
        },
        {
            "positions": [
                -0.33383879301061725,
                -1.274257655506514,
                1.8305258724081668,
                0.033555653367885574,
                -0.4930278208593186,
                -2.7400726707783574
            ]
        },
        {
            "positions": [
                -0.26841975895771686,
                -1.2556352956219958,
                1.8519075370525915,
                -0.08819602954135619,
                -0.40322982980739175,
                -2.7998540771577116
            ]
        },
        {
            "positions": [
                -0.2030007249048167,
                -1.2370129357374777,
                1.8732892016970164,
                -0.20994771245059773,
                -0.3134318387554651,
                -2.859635483537066
            ]
        },
        {
            "positions": [
                -0.1375816908519163,
                -1.2183905758529594,
                1.8946708663414413,
                -0.3316993953598395,
                -0.22363384770353822,
                -2.91941688991642
            ]
        },
        {
            "positions": [
                -0.07216265679901612,
                -1.199768215968441,
                1.9160525309858663,
                -0.4534510782690808,
                -0.13383585665161135,
                -2.979198296295774
            ]
        },
        {
            "positions": [
                -0.006743622746115729,
                -1.181145856083923,
                1.9374341956302912,
                -0.5752027611783228,
                -0.04403786559968448,
                -3.038979702675128
            ]
        },
        {
            "positions": [
                0.05867541130678444,
                -1.1625234961994049,
                1.9588158602747159,
                -0.6969544440875641,
                0.04576012545224217,
                -3.0987611090544824
            ]
        },
        {
            "positions": [
                0.12409444535968485,
                -1.1439011363148865,
                1.9801975249191408,
                -0.8187061269968057,
                0.13555811650416902,
                -3.1585425154338367
            ]
        }
    ]
}