{
    "goal": {
        "global_pose": {
            "orientation": {
                "w": 0.7047431468963623,
                "x": -0.7094548344612122,
                "y": 0.0024358443915843964,
                "z": -0.0022348060738295317
            },
            "position": {
                "x": 0.6094750761985779,
                "y": 0.3671506643295288,
                "z": 0.19426114857196808
            }
        },
        "name": "move_to_magneteinheit_A"
    },
    "id": "ProjEST_move_to_magneteinheit_A_57",
    "joint_names": [
        "shoulder_pan_joint",
        "shoulder_lift_joint",
        "elbow_joint",
        "wrist_1_joint",
        "wrist_2_joint",
        "wrist_3_joint"
    ],
    "metrics": {
        "cart_traj_len": 1.0527960642651988,
        "distance_elbow_joint": 0.41110048051245696,
        "distance_shoulder_lift_joint": 0.3502792735296625,
        "distance_shoulder_pan_joint": 1.242325275581171,
        "distance_wrist_1_joint": 2.333975140585676,
        "distance_wrist_2_joint": 1.703573020299182,
        "distance_wrist_3_joint": 1.1076316237337247,
        "smoothness": 2.6645352801989826e-16,
        "time": 0.07495808300000001,
        "traj_len": 2.673739855378955,
        "weighted_distance": 3.660832722563841
    },
    "planner": "ProjEST",
    "start": {
        "state": {
            "elbow_joint": 1.5739458966750683,
            "shoulder_lift_joint": -1.4977259741207325,
            "shoulder_pan_joint": -1.1188672016454206,
            "wrist_1_joint": 1.494575848278785,
            "wrist_2_joint": -1.5706037134824402,
            "wrist_3_joint": -2.0226957942261072
        }
    },
    "waypoints": [
        {
            "positions": [
                -1.1188672016454206,
                -1.4977259741207325,
                1.5739458966750683,
                1.494575848278785,
                -1.5706037134824402,
                -2.0226957942261072
            ]
        },
        {
            "positions": [
                -1.053481660825359,
                -1.4792902228823293,
                1.5955827640704607,
                1.3717350514058546,
                -1.480941975571957,
                -2.080992195475251
            ]
        },
        {
            "positions": [
                -0.9880961200052973,
                -1.460854471643926,
                1.6172196314658533,
                1.2488942545329245,
                -1.3912802376614737,
                -2.139288596724394
            ]
        },
        {
            "positions": [
                -0.9227105791852358,
                -1.4424187204055225,
                1.6388564988612457,
                1.126053457659994,
                -1.3016184997509905,
                -2.1975849979735376
            ]
        },
        {
            "positions": [
                -0.8573250383651742,
                -1.4239829691671193,
                1.6604933662566381,
                1.0032126607870637,
                -1.2119567618405072,
                -2.2558813992226807
            ]
        },
        {
            "positions": [
                -0.7919394975451125,
                -1.405547217928716,
                1.6821302336520307,
                0.8803718639141334,
                -1.122295023930024,
                -2.3141778004718243
            ]
        },
        {
            "positions": [
                -0.726553956725051,
                -1.3871114666903128,
                1.7037671010474231,
                0.7575310670412031,
                -1.0326332860195406,
                -2.3724742017209675
            ]
        },
        {
            "positions": [
                -0.6611684159049893,
                -1.3686757154519094,
                1.7254039684428157,
                0.6346902701682727,
                -0.9429715481090575,
                -2.430770602970111
            ]
        },
        {
            "positions": [
                -0.5957828750849277,
                -1.3502399642135061,
                1.7470408358382081,
                0.5118494732953425,
                -0.8533098101985742,
                -2.4890670042192546
            ]
        },
        {
            "positions": [
                -0.530397334264866,
                -1.3318042129751029,
                1.7686777032336005,
                0.3890086764224121,
                -0.763648072288091,
                -2.547363405468398
            ]
        },
        {
            "positions": [
                -0.46501179344480437,
                -1.3133684617366996,
                1.7903145706289931,
                0.26616787954948173,
                -0.6739863343776077,
                -2.6056598067175414
            ]
        },
        {
            "positions": [
                -0.3996262526247427,
                -1.2949327104982964,
                1.8119514380243855,
                0.14332708267655137,
                -0.5843245964671243,
                -2.6639562079666845
            ]
        },
        {
            "positions": [
                -0.3342407118046812,
                -1.2764969592598931,
                1.833588305419778,
                0.020486285803621218,
                -0.49466285855664127,
                -2.722252609215828
            ]
        },
        {
            "positions": [
                -0.26885517098461953,
                -1.2580612080214897,
                1.8552251728151705,
                -0.10235451106930915,
                -0.4050011206461579,
                -2.7805490104649717
            ]
        },
        {
            "positions": [
                -0.20346963016455788,
                -1.2396254567830864,
                1.876862040210563,
                -0.22519530794223952,
                -0.31533938273567474,
                -2.838845411714115
            ]
        },
        {
            "positions": [
                -0.13808408934449623,
                -1.2211897055446832,
                1.8984989076059553,
                -0.3480361048151699,
                -0.22567764482519137,
                -2.8971418129632585
            ]
        },
        {
            "positions": [
                -0.07269854852443469,
                -1.20275395430628,
                1.920135775001348,
                -0.47087690168810004,
                -0.13601590691470822,
                -2.9554382142124016
            ]
        },
        {
            "positions": [
                -0.007313007704373042,
                -1.1843182030678765,
                1.9417726423967403,
                -0.5937176985610304,
                -0.04635416900422484,
                -3.013734615461545
            ]
        },
        {
            "positions": [
                0.05807253311568861,
                -1.1658824518294733,
                1.963409509792133,
                -0.7165584954339608,
                0.04330756890625831,
                -3.072031016710689
            ]
        },
        {
            "positions": [
                0.12345807393575033,
                -1.14744670059107,
                1.9850463771875253,
                -0.8393992923068913,
                0.1329693068167417,
                -3.130327417959832
            ]
        }
    ]
}