{
    "goal": {
        "global_pose": {
            "orientation": {
                "w": 0.7031023480610252,
                "x": -0.7110244013736278,
                "y": 0.0077485991402295624,
                "z": 0.005598929693374583
            },
            "position": {
                "x": -0.8841497679147869,
                "y": 0.44412534475326537,
                "z": 0.3711530566215515
            }
        },
        "name": "move_to_auspresseinheit_D"
    },
    "id": "ProjEST_move_to_auspresseinheit_D_137",
    "joint_names": [
        "shoulder_pan_joint",
        "shoulder_lift_joint",
        "elbow_joint",
        "wrist_1_joint",
        "wrist_2_joint",
        "wrist_3_joint"
    ],
    "metrics": {
        "cart_traj_len": 3.7994183502383327,
        "distance_elbow_joint": 3.028259386418402,
        "distance_shoulder_lift_joint": 1.2279051882037746,
        "distance_shoulder_pan_joint": 2.7970447541244114,
        "distance_wrist_1_joint": 2.2953798292189873,
        "distance_wrist_2_joint": 1.2283496448269002,
        "distance_wrist_3_joint": 6.3037624673279975,
        "smoothness": 0.06383355091550381,
        "time": 0.086335648,
        "traj_len": 4.108613059186819,
        "weighted_distance": 5.745603160576125
    },
    "planner": "ProjEST",
    "start": {
        "state": {
            "elbow_joint": 1.8268400409724999,
            "shoulder_lift_joint": -1.0144045787793008,
            "shoulder_pan_joint": 2.6280239544362485,
            "wrist_1_joint": -0.790705565816056,
            "wrist_2_joint": 1.0573557467365533,
            "wrist_3_joint": 3.1851377467193758
        }
    },
    "waypoints": [
        {
            "positions": [
                2.6280239544362485,
                -1.0144045787793008,
                1.8268400409724999,
                -0.790705565816056,
                1.0573557467365533,
                3.1851377467193758
            ]
        },
        {
            "positions": [
                2.6275009430354572,
                -1.0154831859984093,
                1.7547264364421131,
                -0.76079062079318,
                1.001175914754127,
                3.047088630309602
            ]
        },
        {
            "positions": [
                2.6269779316346664,
                -1.0165617932175175,
                1.6826128319117264,
                -0.7308756757703042,
                0.9449960827717008,
                2.9090395138998284
            ]
        },
        {
            "positions": [
                2.626454920233875,
                -1.0176404004366257,
                1.6104992273813397,
                -0.7009607307474284,
                0.8888162507892746,
                2.7709903974900545
            ]
        },
        {
            "positions": [
                2.625931908833084,
                -1.0187190076557342,
                1.538385622850953,
                -0.6710457857245524,
                0.8326364188068484,
                2.6329412810802806
            ]
        },
        {
            "positions": [
                2.5560580911200526,
                -1.0493087766389178,
                1.4698904986435315,
                -0.7254387869527396,
                0.8075456608844185,
                2.489152131038058
            ]
        },
        {
            "positions": [
                2.4861842734070216,
                -1.0798985456221013,
                1.4013953744361103,
                -0.7798317881809267,
                0.7824549029619886,
                2.3453629809958354
            ]
        },
        {
            "positions": [
                2.4163104556939903,
                -1.1104883146052849,
                1.3329002502286889,
                -0.8342247894091137,
                0.7573641450395587,
                2.201573830953613
            ]
        },
        {
            "positions": [
                2.3464366379809594,
                -1.1410780835884684,
                1.2644051260212674,
                -0.8886177906373008,
                0.7322733871171287,
                2.05778468091139
            ]
        },
        {
            "positions": [
                2.276562820267928,
                -1.1716678525716517,
                1.1959100018138462,
                -0.943010791865488,
                0.7071826291946989,
                1.9139955308691676
            ]
        },
        {
            "positions": [
                2.206689002554897,
                -1.2022576215548353,
                1.1274148776064248,
                -0.997403793093675,
                0.682091871272269,
                1.770206380826945
            ]
        },
        {
            "positions": [
                2.1368151848418657,
                -1.2328473905380188,
                1.0589197533990036,
                -1.051796794321862,
                0.6570011133498391,
                1.6264172307847227
            ]
        },
        {
            "positions": [
                2.0669413671288344,
                -1.2634371595212024,
                0.990424629191582,
                -1.1061897955500493,
                0.6319103554274093,
                1.4826280807425
            ]
        },
        {
            "positions": [
                1.9970675494158034,
                -1.294026928504386,
                0.9219295049841607,
                -1.1605827967782363,
                0.6068195975049793,
                1.3388389307002775
            ]
        },
        {
            "positions": [
                1.927193731702772,
                -1.3246166974875695,
                0.8534343807767394,
                -1.2149757980064235,
                0.5817288395825495,
                1.195049780658055
            ]
        },
        {
            "positions": [
                1.857319913989741,
                -1.355206466470753,
                0.784939256569318,
                -1.2693687992346105,
                0.5566380816601195,
                1.0512606306158323
            ]
        },
        {
            "positions": [
                1.7874460962767098,
                -1.3857962354539366,
                0.7164441323618967,
                -1.3237618004627976,
                0.5315473237376898,
                0.9074714805736097
            ]
        },
        {
            "positions": [
                1.7175722785636787,
                -1.4163860044371201,
                0.6479490081544753,
                -1.3781548016909846,
                0.5064565658152598,
                0.7636823305313871
            ]
        },
        {
            "positions": [
                1.6476984608506475,
                -1.4469757734203035,
                0.579453883947054,
                -1.4325478029191716,
                0.4813658078928299,
                0.6198931804891648
            ]
        },
        {
            "positions": [
                1.5778246431376164,
                -1.4775655424034873,
                0.5109587597396326,
                -1.4869408041473589,
                0.4562750499704,
                0.47610403044694216
            ]
        },
        {
            "positions": [
                1.507950825424585,
                -1.5081553113866706,
                0.44246363553221113,
                -1.541333805375546,
                0.4311842920479701,
                0.33231488040471957
            ]
        },
        {
            "positions": [
                1.4380770077115541,
                -1.5387450803698541,
                0.3739685113247899,
                -1.5957268066037331,
                0.4060935341255402,
                0.18852573036249698
            ]
        },
        {
            "positions": [
                1.3682031899985228,
                -1.5693348493530377,
                0.3054733871173685,
                -1.6501198078319201,
                0.3810027762031103,
                0.04473658032027439
            ]
        },
        {
            "positions": [
                1.2983293722854916,
                -1.5999246183362212,
                0.23697826290994728,
                -1.7045128090601072,
                0.3559120182806805,
                -0.0990525697219482
            ]
        },
        {
            "positions": [
                1.2284555545724605,
                -1.6305143873194048,
                0.16848313870252585,
                -1.7589058102882944,
                0.33082126035825055,
                -0.2428417197641708
            ]
        },
        {
            "positions": [
                1.1585817368594293,
                -1.6611041563025883,
                0.09998801449510442,
                -1.8132988115164816,
                0.3057305024358207,
                -0.3866308698063934
            ]
        },
        {
            "positions": [
                1.088707919146398,
                -1.691693925285772,
                0.031492890287682984,
                -1.8676918127446687,
                0.2806397445133907,
                -0.530420019848616
            ]
        },
        {
            "positions": [
                1.018834101433367,
                -1.7222836942689552,
                -0.037002233919738003,
                -1.9220848139728557,
                0.2555489865909609,
                -0.6742091698908381
            ]
        },
        {
            "positions": [
                0.9489602837203359,
                -1.752873463252139,
                -0.10549735812715944,
                -1.9764778152010427,
                0.23045822866853105,
                -0.8179983199330612
            ]
        },
        {
            "positions": [
                0.8790864660073046,
                -1.7834632322353223,
                -0.17399248233458087,
                -2.03087081642923,
                0.20536747074610107,
                -0.9617874699752837
            ]
        },
        {
            "positions": [
                0.8092126482942734,
                -1.814053001218506,
                -0.2424876065420023,
                -2.0852638176574168,
                0.1802767128236712,
                -1.1055766200175063
            ]
        },
        {
            "positions": [
                0.7393388305812421,
                -1.8446427702016894,
                -0.31098273074942373,
                -2.139656818885604,
                0.15518595490124132,
                -1.249365770059729
            ]
        },
        {
            "positions": [
                0.6694650128682111,
                -1.875232539184873,
                -0.37947785495684494,
                -2.194049820113791,
                0.13009519697881144,
                -1.393154920101951
            ]
        },
        {
            "positions": [
                0.5995911951551798,
                -1.9058223081680565,
                -0.44797297916426637,
                -2.2484428213419783,
                0.10500443905638157,
                -1.5369440701441741
            ]
        },
        {
            "positions": [
                0.5297173774421489,
                -1.93641207715124,
                -0.5164681033716878,
                -2.3028358225701653,
                0.0799136811339517,
                -1.6807332201863963
            ]
        },
        {
            "positions": [
                0.4598435597291175,
                -1.9670018461344236,
                -0.584963227579109,
                -2.3572288237983523,
                0.05482292321152171,
                -1.8245223702286193
            ]
        },
        {
            "positions": [
                0.38996974201608614,
                -1.9975916151176072,
                -0.6534583517865307,
                -2.4116218250265398,
                0.02973216528909184,
                -1.9683115202708414
            ]
        },
        {
            "positions": [
                0.3200959243030552,
                -2.0281813841007903,
                -0.7219534759939514,
                -2.4660148262547263,
                0.004641407366661965,
                -2.1121006703130636
            ]
        },
        {
            "positions": [
                0.2502221065900243,
                -2.058771153083974,
                -0.7904486002013731,
                -2.520407827482914,
                -0.02044935055576791,
                -2.2558898203552866
            ]
        },
        {
            "positions": [
                0.18034828887699295,
                -2.089360922067158,
                -0.8589437244087943,
                -2.574800828711101,
                -0.04554010847819778,
                -2.3996789703975097
            ]
        },
        {
            "positions": [
                0.11047447116396159,
                -2.1199506910503416,
                -0.927438848616216,
                -2.629193829939288,
                -0.07063086640062777,
                -2.543468120439732
            ]
        },
        {
            "positions": [
                0.040600653450930224,
                -2.150540460033525,
                -0.9959339728236372,
                -2.6835868311674753,
                -0.09572162432305764,
                -2.687257270481955
            ]
        },
        {
            "positions": [
                -0.029273164262100693,
                -2.1811302290167083,
                -1.0644290970310584,
                -2.737979832395662,
                -0.1208123822454874,
                -2.831046420524177
            ]
        },
        {
            "positions": [
                -0.09914698197513161,
                -2.211719997999892,
                -1.13292422123848,
                -2.7923728336238494,
                -0.1459031401679174,
                -2.974835570566399
            ]
        },
        {
            "positions": [
                -0.16902079968816316,
                -2.2423097669830754,
                -1.2014193454459012,
                -2.8467658348520364,
                -0.1709938980903472,
                -3.118624720608622
            ]
        }
    ]
}