{
    "goal": {
        "global_pose": {
            "orientation": {
                "w": -0.4816463035849501,
                "x": 0.5182115481033762,
                "y": 0.4908360881923453,
                "z": -0.5084816262002911
            },
            "position": {
                "x": -0.8240239810943604,
                "y": -0.300875300988555,
                "z": 0.16403168439865112
            }
        },
        "name": "move_to_storage_C"
    },
    "id": "ProjEST_move_to_storage_C_112",
    "joint_names": [
        "shoulder_pan_joint",
        "shoulder_lift_joint",
        "elbow_joint",
        "wrist_1_joint",
        "wrist_2_joint",
        "wrist_3_joint"
    ],
    "metrics": {
        "cart_traj_len": 0.576714010167202,
        "distance_elbow_joint": 0.25895498813967355,
        "distance_shoulder_lift_joint": 0.18976150384146384,
        "distance_shoulder_pan_joint": 0.495933165680678,
        "distance_wrist_1_joint": 0.08533241192119934,
        "distance_wrist_2_joint": 1.0602917701111925,
        "distance_wrist_3_joint": 0.058662310777287896,
        "smoothness": 0.0,
        "time": 0.21123668,
        "traj_len": 1.4659250152963128,
        "weighted_distance": 1.8471288406763786
    },
    "planner": "ProjEST",
    "start": {
        "state": {
            "elbow_joint": 2.010868315001653,
            "shoulder_lift_joint": -1.1634956873357014,
            "shoulder_pan_joint": -2.4736205022346103,
            "wrist_1_joint": -0.8367026794713948,
            "wrist_2_joint": 0.6746043897044093,
            "wrist_3_joint": 3.1335220948105738
        }
    },
    "waypoints": [
        {
            "positions": [
                -2.4736205022346103,
                -1.1634956873357014,
                2.010868315001653,
                -0.8367026794713948,
                0.6746043897044093,
                3.1335220948105738
            ]
        },
        {
            "positions": [
                -2.5562760298480565,
                -1.1318687700287908,
                1.9677091503117075,
                -0.8224806108178615,
                0.8513196847229414,
                3.1432991466067883
            ]
        },
        {
            "positions": [
                -2.638931557461503,
                -1.1002418527218802,
                1.9245499856217618,
                -0.8082585421643284,
                1.0280349797414734,
                3.153076198403003
            ]
        },
        {
            "positions": [
                -2.7215870850749493,
                -1.0686149354149694,
                1.8813908209318164,
                -0.7940364735107951,
                1.2047502747600056,
                3.162853250199218
            ]
        },
        {
            "positions": [
                -2.8042426126883955,
                -1.0369880181080589,
                1.8382316562418708,
                -0.7798144048572618,
                1.3814655697785376,
                3.1726303019954325
            ]
        },
        {
            "positions": [
                -2.886898140301842,
                -1.0053611008011483,
                1.7950724915519252,
                -0.7655923362037287,
                1.5581808647970696,
                3.182407353791647
            ]
        },
        {
            "positions": [
                -2.9695536679152883,
                -0.9737341834942376,
                1.7519133268619795,
                -0.7513702675501954,
                1.7348961598156016,
                3.1921844055878617
            ]
        }
    ]
}