{
    "goal": {
        "global_pose": {
            "orientation": {
                "w": -0.4816463035849501,
                "x": 0.5182115481033762,
                "y": 0.4908360881923453,
                "z": -0.5084816262002911
            },
            "position": {
                "x": -0.8240239810943604,
                "y": 0.19912469901144506,
                "z": 0.16403168439865112
            }
        },
        "name": "move_to_storage_D"
    },
    "id": "ProjEST_move_to_storage_D_27",
    "joint_names": [
        "shoulder_pan_joint",
        "shoulder_lift_joint",
        "elbow_joint",
        "wrist_1_joint",
        "wrist_2_joint",
        "wrist_3_joint"
    ],
    "metrics": {
        "cart_traj_len": 0.6127761695977239,
        "distance_elbow_joint": 0.6729498000386547,
        "distance_shoulder_lift_joint": 0.15099607357227418,
        "distance_shoulder_pan_joint": 0.43397239705908447,
        "distance_wrist_1_joint": 4.0414802627064095,
        "distance_wrist_2_joint": 2.1311444947192997,
        "distance_wrist_3_joint": 3.4839468801849174,
        "smoothness": 0.819027854630862,
        "time": 0.10463513599999999,
        "traj_len": 3.303708508370652,
        "weighted_distance": 4.904590546220569
    },
    "planner": "ProjEST",
    "start": {
        "state": {
            "elbow_joint": -2.384821997420982,
            "shoulder_lift_joint": -2.2788054674887404,
            "shoulder_pan_joint": -0.18546946417610016,
            "wrist_1_joint": 1.4845937964226739,
            "wrist_2_joint": 0.1789877726866377,
            "wrist_3_joint": 0.03710572555276528
        }
    },
    "waypoints": [
        {
            "positions": [
                -0.18546946417610016,
                -2.2788054674887404,
                -2.384821997420982,
                1.4845937964226739,
                0.1789877726866377,
                0.03710572555276528
            ]
        },
        {
            "positions": [
                -0.16967283888435658,
                -2.2404234299999377,
                -2.413755166167099,
                1.5372065057895008,
                0.2657249339062982,
                -0.04685635782221866
            ]
        },
        {
            "positions": [
                -0.153876213592613,
                -2.202041392511135,
                -2.4426883349132162,
                1.5898192151563277,
                0.35246209512595866,
                -0.1308184411972026
            ]
        },
        {
            "positions": [
                -0.08863029696043778,
                -2.1838295010861097,
                -2.422435693106263,
                1.5301152540263463,
                0.3083304011766515,
                -0.036385996994637196
            ]
        },
        {
            "positions": [
                -0.023384380328262566,
                -2.165617609661085,
                -2.4021830512993096,
                1.4704112928963649,
                0.26419870722734434,
                0.0580464472079282
            ]
        },
        {
            "positions": [
                0.04186153630391265,
                -2.14740571823606,
                -2.381930409492356,
                1.4107073317663834,
                0.22006701327803718,
                0.1524788914104936
            ]
        },
        {
            "positions": [
                0.10710745293608788,
                -2.1291938268110346,
                -2.361677767685403,
                1.351003370636402,
                0.17593531932873002,
                0.246911335613059
            ]
        },
        {
            "positions": [
                0.10095982337317932,
                -2.129133634076488,
                -2.3384572070193768,
                1.1902451532688876,
                0.09849430209034958,
                0.374663202422828
            ]
        },
        {
            "positions": [
                0.09481219381027077,
                -2.1290734413419417,
                -2.3152366463533505,
                1.0294869359013734,
                0.02105328485196914,
                0.502415069232597
            ]
        },
        {
            "positions": [
                0.08866456424736222,
                -2.129013248607395,
                -2.2920160856873237,
                0.868728718533859,
                -0.056387732386411316,
                0.6301669360423661
            ]
        },
        {
            "positions": [
                0.08251693468445366,
                -2.1289530558728487,
                -2.2687955250212974,
                0.7079705011663447,
                -0.13382874962479174,
                0.7579188028521351
            ]
        },
        {
            "positions": [
                0.0763693051215451,
                -2.128892863138302,
                -2.245574964355271,
                0.5472122837988305,
                -0.21126976686317223,
                0.8856706696619041
            ]
        },
        {
            "positions": [
                0.07022167555863655,
                -2.128832670403756,
                -2.222354403689245,
                0.3864540664313162,
                -0.28871078410155265,
                1.0134225364716731
            ]
        },
        {
            "positions": [
                0.064074045995728,
                -2.1287724776692096,
                -2.199133843023218,
                0.2256958490638017,
                -0.36615180133993314,
                1.1411744032814424
            ]
        },
        {
            "positions": [
                0.05792641643281944,
                -2.128712284934663,
                -2.175913282357192,
                0.06493763169628752,
                -0.4435928185783135,
                1.2689262700912112
            ]
        },
        {
            "positions": [
                0.05177878686991088,
                -2.1286520922001166,
                -2.1526927216911655,
                -0.09582058567122687,
                -0.5210338358166942,
                1.3966781369009804
            ]
        },
        {
            "positions": [
                0.045631157307002325,
                -2.12859189946557,
                -2.1294721610251393,
                -0.25657880303874103,
                -0.5984748530550745,
                1.5244300037107492
            ]
        },
        {
            "positions": [
                0.03948352774409376,
                -2.1285317067310237,
                -2.1062516003591125,
                -0.4173370204062554,
                -0.6759158702934549,
                1.6521818705205185
            ]
        },
        {
            "positions": [
                0.03333589818118522,
                -2.128471513996477,
                -2.0830310396930862,
                -0.5780952377737696,
                -0.7533568875318353,
                1.7799337373302873
            ]
        },
        {
            "positions": [
                0.027188268618276668,
                -2.1284113212619307,
                -2.05981047902706,
                -0.738853455141284,
                -0.8307979047702156,
                1.9076856041400563
            ]
        },
        {
            "positions": [
                0.0210406390553681,
                -2.128351128527384,
                -2.0365899183610336,
                -0.8996116725087986,
                -0.9082389220085962,
                2.0354374709498257
            ]
        },
        {
            "positions": [
                0.014893009492459544,
                -2.1282909357928377,
                -2.013369357695007,
                -1.0603698898763128,
                -0.9856799392469766,
                2.1631893377595945
            ]
        },
        {
            "positions": [
                0.008745379929551003,
                -2.128230743058291,
                -1.9901487970289806,
                -1.221128107243827,
                -1.063120956485357,
                2.2909412045693633
            ]
        },
        {
            "positions": [
                0.0025977503666424484,
                -2.1281705503237447,
                -1.9669282363629543,
                -1.381886324611341,
                -1.1405619737237376,
                2.4186930713791326
            ]
        },
        {
            "positions": [
                -0.0035498791962661203,
                -2.1281103575891986,
                -1.9437076756969278,
                -1.5426445419788557,
                -1.2180029909621182,
                2.546444938188902
            ]
        },
        {
            "positions": [
                -0.009697508759174675,
                -2.128050164854652,
                -1.9204871150309015,
                -1.7034027593463699,
                -1.2954440082004985,
                2.6741968049986706
            ]
        },
        {
            "positions": [
                -0.01584513832208323,
                -2.1279899721201057,
                -1.897266554364875,
                -1.864160976713884,
                -1.372885025438879,
                2.8019486718084394
            ]
        },
        {
            "positions": [
                -0.021992767884991785,
                -2.127929779385559,
                -1.8740459936988487,
                -2.024919194081398,
                -1.4503260426772593,
                2.9297005386182087
            ]
        },
        {
            "positions": [
                -0.028140397447900353,
                -2.1278695866510127,
                -1.8508254330328224,
                -2.185677411448913,
                -1.5277670599156399,
                3.057452405427978
            ]
        },
        {
            "positions": [
                -0.03428802701080888,
                -2.127809393916466,
                -1.827604872366796,
                -2.346435628816427,
                -1.6052080771540203,
                3.1852042722377467
            ]
        }
    ]
}