{
    "goal": {
        "global_pose": {
            "orientation": {
                "w": 0.5084816217422485,
                "x": -0.49083608388900757,
                "y": 0.5182115435600281,
                "z": -0.4816462993621826
            },
            "position": {
                "x": 0.5540239810943604,
                "y": 0.030875300988554955,
                "z": 0.16403168439865112
            }
        },
        "name": "move_to_storage_A"
    },
    "id": "ProjEST_move_to_storage_A_56",
    "joint_names": [
        "shoulder_pan_joint",
        "shoulder_lift_joint",
        "elbow_joint",
        "wrist_1_joint",
        "wrist_2_joint",
        "wrist_3_joint"
    ],
    "metrics": {
        "cart_traj_len": 0.353506641469751,
        "distance_elbow_joint": 0.450909809853139,
        "distance_shoulder_lift_joint": 0.23615658826867092,
        "distance_shoulder_pan_joint": 0.45938892944207205,
        "distance_wrist_1_joint": 0.24253740607968488,
        "distance_wrist_2_joint": 1.1131173110620263,
        "distance_wrist_3_joint": 0.10101355768461806,
        "smoothness": 2.5535129421729586e-15,
        "time": 0.035596501,
        "traj_len": 1.6134198469060095,
        "weighted_distance": 2.0398052443557346
    },
    "planner": "ProjEST",
    "start": {
        "state": {
            "elbow_joint": 1.9715474177455299,
            "shoulder_lift_joint": -1.139484666580328,
            "shoulder_pan_joint": 0.12281154398918248,
            "wrist_1_joint": -0.7804687475355282,
            "wrist_2_joint": 0.12958649657246987,
            "wrist_3_joint": -3.1924925159053466
        }
    },
    "waypoints": [
        {
            "positions": [
                0.12281154398918248,
                -1.139484666580328,
                1.9715474177455299,
                -0.7804687475355282,
                0.12958649657246987,
                -3.1924925159053466
            ]
        },
        {
            "positions": [
                0.05718455406888648,
                -1.173221322047281,
                2.035963104867407,
                -0.8151169484040546,
                0.2886032552956165,
                -3.178062007664687
            ]
        },
        {
            "positions": [
                -0.008442435851409524,
                -1.206957977514234,
                2.100378791989284,
                -0.8497651492725811,
                0.44762001401876306,
                -3.163631499424027
            ]
        },
        {
            "positions": [
                -0.07406942577170553,
                -1.240694632981187,
                2.164794479111161,
                -0.8844133501411074,
                0.6066367727419096,
                -3.1492009911833674
            ]
        },
        {
            "positions": [
                -0.13969641569200153,
                -1.27443128844814,
                2.2292101662330377,
                -0.9190615510096338,
                0.7656535314650563,
                -3.1347704829427077
            ]
        },
        {
            "positions": [
                -0.20532340561229756,
                -1.3081679439150928,
                2.2936258533549148,
                -0.9537097518781603,
                0.924670290188203,
                -3.120339974702048
            ]
        },
        {
            "positions": [
                -0.27095039553259354,
                -1.341904599382046,
                2.358041540476792,
                -0.9883579527466866,
                1.0836870489113495,
                -3.105909466461388
            ]
        },
        {
            "positions": [
                -0.33657738545288957,
                -1.375641254848999,
                2.422457227598669,
                -1.023006153615213,
                1.242703807634496,
                -3.0914789582207285
            ]
        }
    ]
}