{
    "goal": {
        "global_pose": {
            "orientation": {
                "w": 0.7047431493862688,
                "x": -0.7094548369677653,
                "y": 0.0024358444001904,
                "z": -0.0022348060817251984
            },
            "position": {
                "x": -0.39052492380142206,
                "y": 0.3671506643295288,
                "z": 0.19426114857196808
            }
        },
        "name": "move_to_magneteinheit_D"
    },
    "id": "ProjEST_move_to_magneteinheit_D_119",
    "joint_names": [
        "shoulder_pan_joint",
        "shoulder_lift_joint",
        "elbow_joint",
        "wrist_1_joint",
        "wrist_2_joint",
        "wrist_3_joint"
    ],
    "metrics": {
        "cart_traj_len": 5.160045535586246,
        "distance_elbow_joint": 3.7867507365539614,
        "distance_shoulder_lift_joint": 1.6284227070391348,
        "distance_shoulder_pan_joint": 3.221172537102918,
        "distance_wrist_1_joint": 2.934073198013988,
        "distance_wrist_2_joint": 0.7941828736751473,
        "distance_wrist_3_joint": 5.323922813527762,
        "smoothness": 0.35070263768483323,
        "time": 0.412243823,
        "traj_len": 4.20577280246008,
        "weighted_distance": 5.662563603586063
    },
    "planner": "ProjEST",
    "start": {
        "state": {
            "elbow_joint": 0.7495348899011973,
            "shoulder_lift_joint": -0.6476975780737697,
            "shoulder_pan_joint": -2.711696901376276,
            "wrist_1_joint": -0.07506478080974305,
            "wrist_2_joint": 0.4329665971545858,
            "wrist_3_joint": 3.1361499051832524
        }
    },
    "waypoints": [
        {
            "positions": [
                -2.711696901376276,
                -0.6476975780737697,
                0.7495348899011973,
                -0.07506478080974305,
                0.4329665971545858,
                3.1361499051832524
            ]
        },
        {
            "positions": [
                -2.7293990431058788,
                -0.6918985202473568,
                0.8033079119209372,
                -0.16812978286788688,
                0.40191423500511375,
                3.013772487951961
            ]
        },
        {
            "positions": [
                -2.747101184835481,
                -0.7360994624209438,
                0.857080933940677,
                -0.2611947849260307,
                0.3708618728556417,
                2.89139507072067
            ]
        },
        {
            "positions": [
                -2.764803326565083,
                -0.780300404594531,
                0.9108539559604169,
                -0.35425978698417454,
                0.3398095107061697,
                2.7690176534893784
            ]
        },
        {
            "positions": [
                -2.7825054682946857,
                -0.8245013467681179,
                0.9646269779801566,
                -0.44732478904231837,
                0.30875714855669767,
                2.646640236258087
            ]
        },
        {
            "positions": [
                -2.8002076100242883,
                -0.8687022889417051,
                1.0183999999998965,
                -0.5403897911004623,
                0.2777047864072256,
                2.524262819026796
            ]
        },
        {
            "positions": [
                -2.8179097517538905,
                -0.9129032311152921,
                1.0721730220196364,
                -0.633454793158606,
                0.24665242425775358,
                2.4018854017955045
            ]
        },
        {
            "positions": [
                -2.6981807059546687,
                -0.9642590230798652,
                1.006751125207703,
                -0.6394150451240157,
                0.253484306468616,
                2.257779139782583
            ]
        },
        {
            "positions": [
                -2.5784516601554466,
                -1.0156148150444382,
                0.9413292283957699,
                -0.6453752970894255,
                0.26031618867947853,
                2.1136728777696616
            ]
        },
        {
            "positions": [
                -2.458722614356225,
                -1.0669706070090113,
                0.8759073315838366,
                -0.6513355490548353,
                0.267148070890341,
                1.9695666157567404
            ]
        },
        {
            "positions": [
                -2.338993568557003,
                -1.1183263989735843,
                0.8104854347719035,
                -0.6572958010202451,
                0.27397995310120343,
                1.825460353743819
            ]
        },
        {
            "positions": [
                -2.219264522757781,
                -1.1696821909381574,
                0.7450635379599702,
                -0.6632560529856548,
                0.28081183531206594,
                1.6813540917308976
            ]
        },
        {
            "positions": [
                -2.0995354769585592,
                -1.2210379829027302,
                0.6796416411480369,
                -0.6692163049510647,
                0.2876437175229284,
                1.5372478297179764
            ]
        },
        {
            "positions": [
                -1.9798064311593373,
                -1.2723937748673033,
                0.6142197443361037,
                -0.6751765569164744,
                0.29447559973379084,
                1.3931415677050547
            ]
        },
        {
            "positions": [
                -1.8600773853601156,
                -1.3237495668318764,
                0.5487978475241705,
                -0.6811368088818842,
                0.30130748194465334,
                1.2490353056921335
            ]
        },
        {
            "positions": [
                -1.7403483395608936,
                -1.3751053587964495,
                0.48337595071223727,
                -0.6870970608472939,
                0.3081393641555158,
                1.104929043679212
            ]
        },
        {
            "positions": [
                -1.6206192937616717,
                -1.4264611507610225,
                0.41795405390030393,
                -0.6930573128127038,
                0.3149712463663783,
                0.9608227816662906
            ]
        },
        {
            "positions": [
                -1.50089024796245,
                -1.4778169427255956,
                0.3525321570883707,
                -0.6990175647781135,
                0.3218031285772407,
                0.8167165196533694
            ]
        },
        {
            "positions": [
                -1.381161202163228,
                -1.5291727346901687,
                0.2871102602764375,
                -0.7049778167435232,
                0.3286350107881032,
                0.672610257640448
            ]
        },
        {
            "positions": [
                -1.2614321563640063,
                -1.5805285266547415,
                0.22168836346450427,
                -0.7109380687089331,
                0.33546689299896565,
                0.5285039956275268
            ]
        },
        {
            "positions": [
                -1.1417031105647841,
                -1.6318843186193148,
                0.15626646665257093,
                -0.7168983206743429,
                0.34229877520982815,
                0.38439773361460494
            ]
        },
        {
            "positions": [
                -1.0219740647655624,
                -1.6832401105838877,
                0.09084456984063771,
                -0.7228585726397526,
                0.3491306574206906,
                0.24029147160168396
            ]
        },
        {
            "positions": [
                -0.9022450189663407,
                -1.7345959025484605,
                0.0254226730287046,
                -0.7288188246051623,
                0.35596253963155305,
                0.09618520958876253
            ]
        },
        {
            "positions": [
                -0.7825159731671185,
                -1.7859516945130338,
                -0.03999922378322873,
                -0.7347790765705722,
                0.36279442184241556,
                -0.047921052424158894
            ]
        },
        {
            "positions": [
                -0.6627869273678968,
                -1.8373074864776067,
                -0.10542112059516184,
                -0.7407393285359819,
                0.369626304053278,
                -0.19202731443708032
            ]
        },
        {
            "positions": [
                -0.5430578815686751,
                -1.8886632784421797,
                -0.17084301740709518,
                -0.7466995805013917,
                0.37645818626414046,
                -0.3361335764500013
            ]
        },
        {
            "positions": [
                -0.4233288357694529,
                -1.9400190704067528,
                -0.2362649142190285,
                -0.7526598324668015,
                0.38329006847500297,
                -0.4802398384629232
            ]
        },
        {
            "positions": [
                -0.3035997899702312,
                -1.9913748623713259,
                -0.3016868110309616,
                -0.7586200844322113,
                0.3901219506858654,
                -0.6243461004758442
            ]
        },
        {
            "positions": [
                -0.18387074417100946,
                -2.042730654335899,
                -0.36710870784289495,
                -0.764580336397621,
                0.39695383289672787,
                -0.7684523624887656
            ]
        },
        {
            "positions": [
                -0.06414169837178729,
                -2.094086446300472,
                -0.4325306046548283,
                -0.7705405883630307,
                0.40378571510759037,
                -0.912558624501687
            ]
        },
        {
            "positions": [
                0.05558734742743426,
                -2.145442238265045,
                -0.4979525014667615,
                -0.7765008403284406,
                0.4106175973184528,
                -1.0566648865146084
            ]
        },
        {
            "positions": [
                0.05355346983048446,
                -2.150073863742803,
                -0.6346471212803579,
                -0.6276728616864932,
                0.38451394200742933,
                -0.9853883870758563
            ]
        },
        {
            "positions": [
                0.05151959223353466,
                -2.154705489220561,
                -0.7713417410939545,
                -0.4788448830445457,
                0.35841028669640584,
                -0.9141118876371043
            ]
        },
        {
            "positions": [
                0.04948571463658486,
                -2.1593371146983187,
                -0.908036360907551,
                -0.33001690440259823,
                0.33230663138538236,
                -0.8428353881983521
            ]
        },
        {
            "positions": [
                0.04745183703963506,
                -2.1639687401760765,
                -1.0447309807211473,
                -0.18118892576065082,
                0.30620297607435887,
                -0.7715588887596001
            ]
        },
        {
            "positions": [
                0.045417959442685264,
                -2.1686003656538344,
                -1.181425600534744,
                -0.0323609471187033,
                0.28009932076333544,
                -0.7002823893208479
            ]
        },
        {
            "positions": [
                0.043384081845735466,
                -2.1732319911315923,
                -1.3181202203483404,
                0.11646703152324411,
                0.2539956654523119,
                -0.6290058898820958
            ]
        },
        {
            "positions": [
                0.041350204248785674,
                -2.1778636166093497,
                -1.4548148401619367,
                0.2652950101651914,
                0.22789201014128843,
                -0.5577293904433438
            ]
        },
        {
            "positions": [
                0.039316326651835876,
                -2.1824952420871075,
                -1.5915094599755335,
                0.41412298880713894,
                0.20178835483026494,
                -0.48645289100459166
            ]
        },
        {
            "positions": [
                0.03728244905488608,
                -2.1871268675648654,
                -1.7282040797891298,
                0.5629509674490862,
                0.17568469951924148,
                -0.41517639156583963
            ]
        },
        {
            "positions": [
                0.03524857145793628,
                -2.1917584930426233,
                -1.8648986996027266,
                0.711778946091034,
                0.149581044208218,
                -0.3438998921270874
            ]
        },
        {
            "positions": [
                0.03321469386098648,
                -2.196390118520381,
                -2.001593319416323,
                0.8606069247329813,
                0.1234773888971945,
                -0.27262339268833535
            ]
        },
        {
            "positions": [
                0.031180816264036678,
                -2.201021743998139,
                -2.1382879392299197,
                1.0094349033749288,
                0.09737373358617102,
                -0.20134689324958321
            ]
        },
        {
            "positions": [
                0.029146938667086883,
                -2.205653369475897,
                -2.274982559043516,
                1.158262882016876,
                0.07127007827514753,
                -0.13007039381083124
            ]
        },
        {
            "positions": [
                -0.040416377976273246,
                -2.2281025270636827,
                -2.3252708013608245,
                1.2665638420535894,
                0.10160822434311742,
                -0.057615301171003885
            ]
        },
        {
            "positions": [
                -0.10997969461963338,
                -2.2505516846514686,
                -2.375559043678133,
                1.3748648020903027,
                0.1319463704110873,
                0.014839791468823457
            ]
        },
        {
            "positions": [
                -0.18587524011654544,
                -2.2761202851129045,
                -2.391939582415886,
                1.4561362981668495,
                0.17582608694945834,
                0.0744431353152964
            ]
        }
    ]
}