{
    "goal": {
        "global_pose": {
            "orientation": {
                "w": 0.5084816217422485,
                "x": -0.49083608388900757,
                "y": 0.5182115435600281,
                "z": -0.4816462993621826
            },
            "position": {
                "x": 0.5540239810943604,
                "y": 0.030875300988554955,
                "z": 0.16403168439865112
            }
        },
        "name": "move_to_storage_A"
    },
    "id": "ProjEST_move_to_storage_A_92",
    "joint_names": [
        "shoulder_pan_joint",
        "shoulder_lift_joint",
        "elbow_joint",
        "wrist_1_joint",
        "wrist_2_joint",
        "wrist_3_joint"
    ],
    "metrics": {
        "cart_traj_len": 0.3532873889524336,
        "distance_elbow_joint": 0.4509386663465098,
        "distance_shoulder_lift_joint": 0.2364392832390525,
        "distance_shoulder_pan_joint": 0.46437204838923174,
        "distance_wrist_1_joint": 0.24359106007387343,
        "distance_wrist_2_joint": 1.0899631817692788,
        "distance_wrist_3_joint": 0.09998865772513321,
        "smoothness": 4.440892133664971e-16,
        "time": 0.051992415,
        "traj_len": 1.6078846033043166,
        "weighted_distance": 2.029488717592807
    },
    "planner": "ProjEST",
    "start": {
        "state": {
            "elbow_joint": 1.9715474177455299,
            "shoulder_lift_joint": -1.139484666580328,
            "shoulder_pan_joint": 0.12281154398918248,
            "wrist_1_joint": -0.7804687475355282,
            "wrist_2_joint": 0.12958649657246987,
            "wrist_3_joint": -3.1924925159053466
        }
    },
    "waypoints": [
        {
            "positions": [
                0.12281154398918248,
                -1.139484666580328,
                1.9715474177455299,
                -0.7804687475355282,
                0.12958649657246987,
                -3.1924925159053466
            ]
        },
        {
            "positions": [
                0.05647267993357795,
                -1.1732617070430498,
                2.035967227223603,
                -0.8152674704032244,
                0.2852955225395097,
                -3.178208421944613
            ]
        },
        {
            "positions": [
                -0.009866184122026583,
                -1.2070387475057716,
                2.1003870367016755,
                -0.8500661932709206,
                0.44100454850654947,
                -3.16392432798388
            ]
        },
        {
            "positions": [
                -0.0762050481776311,
                -1.2408157879684933,
                2.1648068461797485,
                -0.8848649161386168,
                0.5967135744735893,
                -3.1496402340231464
            ]
        },
        {
            "positions": [
                -0.14254391223323565,
                -1.2745928284312151,
                2.229226655657821,
                -0.919663639006313,
                0.7524226004406291,
                -3.1353561400624135
            ]
        },
        {
            "positions": [
                -0.20888277628884022,
                -1.308369868893937,
                2.293646465135894,
                -0.9544623618740092,
                0.908131626407669,
                -3.12107204610168
            ]
        },
        {
            "positions": [
                -0.2752216403444447,
                -1.3421469093566587,
                2.3580662746139667,
                -0.9892610847417054,
                1.0638406523747088,
                -3.1067879521409467
            ]
        },
        {
            "positions": [
                -0.34156050440004926,
                -1.3759239498193805,
                2.4224860840920397,
                -1.0240598076094016,
                1.2195496783417485,
                -3.0925038581802133
            ]
        }
    ]
}