{
    "goal": {
        "global_pose": {
            "orientation": {
                "w": 0.7031023502349854,
                "x": -0.7110244035720825,
                "y": 0.007748599164187908,
                "z": 0.005598929710686207
            },
            "position": {
                "x": 0.11585023208521307,
                "y": 0.44412534475326537,
                "z": 0.3711530566215515
            }
        },
        "name": "move_to_auspresseinheit_A"
    },
    "id": "ProjEST_move_to_auspresseinheit_A_28",
    "joint_names": [
        "shoulder_pan_joint",
        "shoulder_lift_joint",
        "elbow_joint",
        "wrist_1_joint",
        "wrist_2_joint",
        "wrist_3_joint"
    ],
    "metrics": {
        "cart_traj_len": 1.1335303295163055,
        "distance_elbow_joint": 0.38559750252310065,
        "distance_shoulder_lift_joint": 0.6550559066206827,
        "distance_shoulder_pan_joint": 1.043230039624927,
        "distance_wrist_1_joint": 0.6513463723935649,
        "distance_wrist_2_joint": 0.7955531907702237,
        "distance_wrist_3_joint": 1.9122690661431734,
        "smoothness": 0.9456353532434817,
        "time": 0.289825294,
        "traj_len": 2.3330349500330407,
        "weighted_distance": 3.2732995239552714
    },
    "planner": "ProjEST",
    "start": {
        "state": {
            "elbow_joint": 2.4225747245308327,
            "shoulder_lift_joint": -1.373653427065438,
            "shoulder_pan_joint": -0.33786330853087027,
            "wrist_1_joint": -1.0288602302712604,
            "wrist_2_joint": 1.23302299562683,
            "wrist_3_joint": -3.094021725338297
        }
    },
    "waypoints": [
        {
            "positions": [
                -0.33786330853087027,
                -1.373653427065438,
                2.4225747245308327,
                -1.0288602302712604,
                1.23302299562683,
                -3.094021725338297
            ]
        },
        {
            "positions": [
                -0.3347209243053129,
                -1.4926324235487127,
                2.3814107908461226,
                -1.0392493490208778,
                1.2594072092563855,
                -2.9052413536291852
            ]
        },
        {
            "positions": [
                -0.33157854007975557,
                -1.6116114200319875,
                2.340246857161412,
                -1.0496384677704953,
                1.285791422885941,
                -2.716460981920073
            ]
        },
        {
            "positions": [
                -0.32843615585419816,
                -1.7305904165152624,
                2.299082923476702,
                -1.0600275865201125,
                1.3121756365154966,
                -2.527680610210961
            ]
        },
        {
            "positions": [
                -0.3252937716286408,
                -1.8495694129985372,
                2.2579189897919916,
                -1.07041670526973,
                1.3385598501450522,
                -2.338900238501849
            ]
        },
        {
            "positions": [
                -0.32215138740308347,
                -1.968548409481812,
                2.2167550561072815,
                -1.0808058240193474,
                1.3649440637746078,
                -2.1501198667927373
            ]
        },
        {
            "positions": [
                -0.21358899799459347,
                -1.9621155525095455,
                2.236261720765906,
                -1.0177882973985413,
                1.2952520531546687,
                -2.2529793848792834
            ]
        },
        {
            "positions": [
                -0.10502660858610349,
                -1.955682695537279,
                2.25576838542453,
                -0.954770770777735,
                1.2255600425347297,
                -2.35583890296583
            ]
        },
        {
            "positions": [
                0.0035357808223864806,
                -1.9492498385650128,
                2.2752750500831542,
                -0.8917532441569287,
                1.1558680319147905,
                -2.458698421052376
            ]
        },
        {
            "positions": [
                0.11209817023087648,
                -1.9428169815927463,
                2.2947817147417786,
                -0.8287357175361225,
                1.0861760212948515,
                -2.5615579391389223
            ]
        },
        {
            "positions": [
                0.22066055963936648,
                -1.9363841246204798,
                2.3142883794004026,
                -0.7657181909153161,
                1.0164840106749125,
                -2.664417457225469
            ]
        },
        {
            "positions": [
                0.32922294904785643,
                -1.9299512676482133,
                2.333795044059027,
                -0.70270066429451,
                0.9467920000549734,
                -2.767276975312015
            ]
        },
        {
            "positions": [
                0.4377853384563465,
                -1.923518410675947,
                2.3533017087176513,
                -0.6396831376737038,
                0.8770999894350343,
                -2.870136493398561
            ]
        },
        {
            "positions": [
                0.5463477278648364,
                -1.9170855537036806,
                2.3728083733762753,
                -0.5766656110528975,
                0.8074079788150953,
                -2.9729960114851073
            ]
        },
        {
            "positions": [
                0.6549101172733265,
                -1.9106526967314141,
                2.3923150380348996,
                -0.5136480844320912,
                0.7377159681951562,
                -3.075855529571654
            ]
        },
        {
            "positions": [
                0.7053667310940568,
                -1.9083874852775033,
                2.396532890206831,
                -0.4814050453738696,
                0.7013119411521619,
                -3.1184870743903508
            ]
        }
    ]
}