{
    "goal": {
        "global_pose": {
            "orientation": {
                "w": -0.00223480608172531,
                "x": 0.0024358444001904467,
                "y": 0.7094548369677653,
                "z": -0.704743149386269
            },
            "position": {
                "x": 0.6205249238014221,
                "y": -0.6371506643295288,
                "z": 0.19426114857196808
            }
        },
        "name": "move_to_magneteinheit_B"
    },
    "id": "ProjEST_move_to_magneteinheit_B_149",
    "joint_names": [
        "shoulder_pan_joint",
        "shoulder_lift_joint",
        "elbow_joint",
        "wrist_1_joint",
        "wrist_2_joint",
        "wrist_3_joint"
    ],
    "metrics": {
        "cart_traj_len": 1.45370883852125,
        "distance_elbow_joint": 0.7307058149894305,
        "distance_shoulder_lift_joint": 1.2482479880332324,
        "distance_shoulder_pan_joint": 1.6214046768144876,
        "distance_wrist_1_joint": 2.6085630491857,
        "distance_wrist_2_joint": 2.9435914746003,
        "distance_wrist_3_joint": 3.133605902785282,
        "smoothness": 6.459479437363414e-16,
        "time": 0.355671395,
        "traj_len": 3.505156045942667,
        "weighted_distance": 4.909733723509351
    },
    "planner": "ProjEST",
    "start": {
        "state": {
            "elbow_joint": 2.3935871308073637,
            "shoulder_lift_joint": -1.9085141043777403,
            "shoulder_pan_joint": 0.7066247067284167,
            "wrist_1_joint": -0.46782909355067076,
            "wrist_2_joint": 0.7096259085804283,
            "wrist_3_joint": -3.1358149275257428
        }
    },
    "waypoints": [
        {
            "positions": [
                0.7066247067284167,
                -1.9085141043777403,
                2.3935871308073637,
                -0.46782909355067076,
                0.7096259085804283,
                -3.1358149275257428
            ]
        },
        {
            "positions": [
                0.6559558105779639,
                -1.8695063547517017,
                2.370752574088944,
                -0.38631149826361766,
                0.6176386749991689,
                -3.037889743063703
            ]
        },
        {
            "positions": [
                0.6052869144275113,
                -1.8304986051256633,
                2.3479180173705245,
                -0.3047939029765645,
                0.5256514414179095,
                -2.9399645586016625
            ]
        },
        {
            "positions": [
                0.5546180182770585,
                -1.7914908554996247,
                2.3250834606521047,
                -0.22327630768951137,
                0.43366420783665016,
                -2.8420393741396226
            ]
        },
        {
            "positions": [
                0.5039491221266057,
                -1.7524831058735861,
                2.302248903933685,
                -0.14175871240245824,
                0.3416769742553908,
                -2.7441141896775827
            ]
        },
        {
            "positions": [
                0.45328022597615303,
                -1.7134753562475478,
                2.279414347215265,
                -0.060241117115405085,
                0.2496897406741314,
                -2.6461890052155423
            ]
        },
        {
            "positions": [
                0.40261132982570025,
                -1.6744676066215092,
                2.2565797904968456,
                0.021276478171648017,
                0.15770250709287204,
                -2.5482638207535024
            ]
        },
        {
            "positions": [
                0.3519424336752475,
                -1.6354598569954706,
                2.233745233778426,
                0.10279407345870112,
                0.06571527351161266,
                -2.4503386362914625
            ]
        },
        {
            "positions": [
                0.3012735375247948,
                -1.5964521073694322,
                2.210910677060006,
                0.18431166874575428,
                -0.026271960069646716,
                -2.352413451829422
            ]
        },
        {
            "positions": [
                0.2506046413743421,
                -1.5574443577433936,
                2.188076120341586,
                0.26582926403280743,
                -0.11825919365090609,
                -2.2544882673673823
            ]
        },
        {
            "positions": [
                0.19993574522388935,
                -1.518436608117355,
                2.1652415636231668,
                0.3473468593198606,
                -0.21024642723216547,
                -2.1565630829053424
            ]
        },
        {
            "positions": [
                0.14926684907343657,
                -1.4794288584913167,
                2.142407006904747,
                0.42886445460691364,
                -0.30223366081342495,
                -2.058637898443302
            ]
        },
        {
            "positions": [
                0.09859795292298379,
                -1.440421108865278,
                2.119572450186327,
                0.5103820498939668,
                -0.3942208943946842,
                -1.9607127139812621
            ]
        },
        {
            "positions": [
                0.04792905677253112,
                -1.4014133592392395,
                2.0967378934679077,
                0.5918996451810199,
                -0.4862081279759435,
                -1.862787529519222
            ]
        },
        {
            "positions": [
                -0.00273983937792166,
                -1.3624056096132011,
                2.073903336749488,
                0.6734172404680729,
                -0.578195361557203,
                -1.7648623450571819
            ]
        },
        {
            "positions": [
                -0.05340873552837433,
                -1.3233978599871625,
                2.051068780031068,
                0.7549348357551262,
                -0.6701825951384625,
                -1.666937160595142
            ]
        },
        {
            "positions": [
                -0.10407763167882711,
                -1.284390110361124,
                2.0282342233126487,
                0.8364524310421793,
                -0.7621698287197217,
                -1.5690119761331018
            ]
        },
        {
            "positions": [
                -0.1547465278292799,
                -1.2453823607350856,
                2.005399666594229,
                0.9179700263292323,
                -0.854157062300981,
                -1.4710867916710617
            ]
        },
        {
            "positions": [
                -0.20541542397973256,
                -1.206374611109047,
                1.982565109875809,
                0.9994876216162856,
                -0.9461442958822405,
                -1.3731616072090218
            ]
        },
        {
            "positions": [
                -0.25608432013018534,
                -1.1673668614830084,
                1.9597305531573894,
                1.0810052169033386,
                -1.0381315294635,
                -1.2752364227469817
            ]
        },
        {
            "positions": [
                -0.306753216280638,
                -1.12835911185697,
                1.9368959964389696,
                1.1625228121903919,
                -1.1301187630447593,
                -1.1773112382849416
            ]
        },
        {
            "positions": [
                -0.3574221124310909,
                -1.0893513622309314,
                1.91406143972055,
                1.244040407477445,
                -1.2221059966260186,
                -1.0793860538229016
            ]
        },
        {
            "positions": [
                -0.40809100858154357,
                -1.0503436126048928,
                1.8912268830021302,
                1.325558002764498,
                -1.3140932302072783,
                -0.9814608693608613
            ]
        },
        {
            "positions": [
                -0.45875990473199624,
                -1.0113358629788545,
                1.8683923262837105,
                1.4070755980515512,
                -1.4060804637885376,
                -0.8835356848988214
            ]
        },
        {
            "positions": [
                -0.5094288008824491,
                -0.9723281133528159,
                1.845557769565291,
                1.4885931933386043,
                -1.4980676973697968,
                -0.7856105004367815
            ]
        },
        {
            "positions": [
                -0.5600976970329018,
                -0.9333203637267774,
                1.822723212846871,
                1.5701107886256573,
                -1.590054930951056,
                -0.6876853159747411
            ]
        },
        {
            "positions": [
                -0.6107665931833545,
                -0.8943126141007389,
                1.7998886561284513,
                1.6516283839127106,
                -1.6820421645323154,
                -0.5897601315127012
            ]
        },
        {
            "positions": [
                -0.6614354893338071,
                -0.8553048644747003,
                1.7770540994100317,
                1.7331459791997639,
                -1.774029398113575,
                -0.49183494705066133
            ]
        },
        {
            "positions": [
                -0.71210438548426,
                -0.816297114848662,
                1.754219542691612,
                1.8146635744868167,
                -1.8660166316948343,
                -0.393909762588621
            ]
        },
        {
            "positions": [
                -0.7627732816347127,
                -0.7772893652226234,
                1.7313849859731922,
                1.89618116977387,
                -1.9580038652760936,
                -0.2959845781265811
            ]
        },
        {
            "positions": [
                -0.8134421777851654,
                -0.7382816155965848,
                1.7085504292547726,
                1.9776987650609232,
                -2.0499910988573533,
                -0.19805939366454117
            ]
        },
        {
            "positions": [
                -0.8641110739356183,
                -0.6992738659705464,
                1.685715872536353,
                2.059216360347976,
                -2.1419783324386126,
                -0.10013420920250082
            ]
        },
        {
            "positions": [
                -0.914779970086071,
                -0.6602661163445078,
                1.6628813158179332,
                2.1407339556350293,
                -2.233965566019872,
                -0.0022090247404611013
            ]
        }
    ]
}