{
    "goal": {
        "global_pose": {
            "orientation": {
                "w": 0.5084816262002911,
                "x": -0.4908360881923452,
                "y": 0.5182115481033761,
                "z": -0.48164630358495003
            },
            "position": {
                "x": 0.5540239810943604,
                "y": -0.46912469901144505,
                "z": 0.16403168439865112
            }
        },
        "name": "move_to_storage_B"
    },
    "id": "ProjEST_move_to_storage_B_89",
    "joint_names": [
        "shoulder_pan_joint",
        "shoulder_lift_joint",
        "elbow_joint",
        "wrist_1_joint",
        "wrist_2_joint",
        "wrist_3_joint"
    ],
    "metrics": {
        "cart_traj_len": 0.7667212254616025,
        "distance_elbow_joint": 0.3594737083446711,
        "distance_shoulder_lift_joint": 0.46171102455835933,
        "distance_shoulder_pan_joint": 0.4641176010344835,
        "distance_wrist_1_joint": 3.0263023712361283,
        "distance_wrist_2_joint": 2.70706595072692,
        "distance_wrist_3_joint": 3.6383474359112045,
        "smoothness": 0.460611024406967,
        "time": 0.128822783,
        "traj_len": 3.264508859202525,
        "weighted_distance": 4.864882453420352
    },
    "planner": "ProjEST",
    "start": {
        "state": {
            "elbow_joint": 1.6649325706314817,
            "shoulder_lift_joint": -0.6616388048112454,
            "shoulder_pan_joint": -0.9139837860083814,
            "wrist_1_joint": 2.146757197745094,
            "wrist_2_joint": -2.234196043158733,
            "wrist_3_joint": 0.005471033829999897
        }
    },
    "waypoints": [
        {
            "positions": [
                -0.9139837860083814,
                -0.6616388048112454,
                1.6649325706314817,
                2.146757197745094,
                -2.234196043158733,
                0.005471033829999897
            ]
        },
        {
            "positions": [
                -0.8434204692272551,
                -0.73301788207189,
                1.6692668852795172,
                2.1279904641911314,
                -2.1834517234323254,
                0.13892713443282784
            ]
        },
        {
            "positions": [
                -0.7728571524461287,
                -0.8043969593325346,
                1.6736011999275524,
                2.109223730637168,
                -2.1327074037059175,
                0.2723832350356558
            ]
        },
        {
            "positions": [
                -0.7852798819642914,
                -0.8166643774108835,
                1.6870937029678832,
                1.9942710804783912,
                -2.0324928917338365,
                0.1427126490854424
            ]
        },
        {
            "positions": [
                -0.7977026114824541,
                -0.8289317954892323,
                1.700586206008214,
                1.8793184303196142,
                -1.9322783797617555,
                0.013042063135228987
            ]
        },
        {
            "positions": [
                -0.810125341000617,
                -0.8411992135675812,
                1.7140787090485448,
                1.764365780160837,
                -1.8320638677896746,
                -0.11662852281498443
            ]
        },
        {
            "positions": [
                -0.8225480705187797,
                -0.8534666316459301,
                1.7275712120888755,
                1.64941313000206,
                -1.7318493558175936,
                -0.24629910876519784
            ]
        },
        {
            "positions": [
                -0.8349708000369424,
                -0.8657340497242789,
                1.7410637151292063,
                1.534460479843283,
                -1.6316348438455126,
                -0.37596969471541125
            ]
        },
        {
            "positions": [
                -0.847393529555105,
                -0.8780014678026278,
                1.754556218169537,
                1.419507829684506,
                -1.5314203318734319,
                -0.5056402806656246
            ]
        },
        {
            "positions": [
                -0.8598162590732679,
                -0.8902688858809765,
                1.768048721209868,
                1.304555179525729,
                -1.4312058199013509,
                -0.635310866615838
            ]
        },
        {
            "positions": [
                -0.8722389885914306,
                -0.9025363039593254,
                1.7815412242501987,
                1.1896025293669519,
                -1.33099130792927,
                -0.7649814525660514
            ]
        },
        {
            "positions": [
                -0.8846617181095933,
                -0.9148037220376742,
                1.7950337272905295,
                1.0746498792081751,
                -1.2307767959571891,
                -0.8946520385162648
            ]
        },
        {
            "positions": [
                -0.897084447627756,
                -0.9270711401160231,
                1.8085262303308602,
                0.9596972290493979,
                -1.130562283985108,
                -1.0243226244664783
            ]
        },
        {
            "positions": [
                -0.9095071771459187,
                -0.939338558194372,
                1.822018733371191,
                0.8447445788906209,
                -1.0303477720130272,
                -1.1539932104166917
            ]
        },
        {
            "positions": [
                -0.9219299066640815,
                -0.9516059762727208,
                1.8355112364115218,
                0.729791928731844,
                -0.9301332600409462,
                -1.283663796366905
            ]
        },
        {
            "positions": [
                -0.9343526361822442,
                -0.9638733943510697,
                1.8490037394518526,
                0.614839278573067,
                -0.8299187480688652,
                -1.4133343823171185
            ]
        },
        {
            "positions": [
                -0.9467753657004069,
                -0.9761408124294185,
                1.8624962424921834,
                0.49988662841429,
                -0.7297042360967843,
                -1.543004968267332
            ]
        },
        {
            "positions": [
                -0.9591980952185696,
                -0.9884082305077674,
                1.8759887455325142,
                0.384933978255513,
                -0.6294897241247035,
                -1.672675554217545
            ]
        },
        {
            "positions": [
                -0.9716208247367324,
                -1.0006756485861161,
                1.889481248572845,
                0.2699813280967358,
                -0.5292752121526223,
                -1.8023461401677587
            ]
        },
        {
            "positions": [
                -0.9840435542548951,
                -1.012943066664465,
                1.9029737516131757,
                0.15502867793795883,
                -0.42906070018054154,
                -1.9320167261179724
            ]
        },
        {
            "positions": [
                -0.9964662837730578,
                -1.0252104847428138,
                1.9164662546535065,
                0.040076027779182066,
                -0.32884618820846057,
                -2.0616873120681856
            ]
        },
        {
            "positions": [
                -1.0088890132912205,
                -1.0374779028211627,
                1.9299587576938373,
                -0.07487662237959514,
                -0.2286316762363796,
                -2.1913578980183988
            ]
        },
        {
            "positions": [
                -1.0213117428093832,
                -1.0497453208995116,
                1.943451260734168,
                -0.18982927253837234,
                -0.1284171642642984,
                -2.3210284839686124
            ]
        },
        {
            "positions": [
                -1.033734472327546,
                -1.0620127389778604,
                1.9569437637744989,
                -0.3047819226971491,
                -0.028202652292217856,
                -2.450699069918826
            ]
        },
        {
            "positions": [
                -1.0461572018457086,
                -1.0742801570562093,
                1.9704362668148296,
                -0.4197345728559263,
                0.07201185967986312,
                -2.580369655869039
            ]
        },
        {
            "positions": [
                -1.0585799313638713,
                -1.0865475751345581,
                1.9839287698551604,
                -0.5346872230147031,
                0.1722263716519441,
                -2.7100402418192524
            ]
        },
        {
            "positions": [
                -1.0710026608820342,
                -1.098814993212907,
                1.9974212728954912,
                -0.6496398731734803,
                0.2724408836240251,
                -2.839710827769466
            ]
        },
        {
            "positions": [
                -1.083425390400197,
                -1.1110824112912558,
                2.0109137759358218,
                -0.7645925233322575,
                0.37265539559610605,
                -2.9693814137196797
            ]
        },
        {
            "positions": [
                -1.0958481199183596,
                -1.1233498293696047,
                2.0244062789761528,
                -0.8795451734910341,
                0.47286990756818714,
                -3.099051999669893
            ]
        }
    ]
}