{
    "goal": {
        "global_pose": {
            "orientation": {
                "w": -0.4816463035849501,
                "x": 0.5182115481033762,
                "y": 0.4908360881923453,
                "z": -0.5084816262002911
            },
            "position": {
                "x": -0.8240239810943604,
                "y": -0.300875300988555,
                "z": 0.16403168439865112
            }
        },
        "name": "move_to_storage_C"
    },
    "id": "ProjEST_move_to_storage_C_105",
    "joint_names": [
        "shoulder_pan_joint",
        "shoulder_lift_joint",
        "elbow_joint",
        "wrist_1_joint",
        "wrist_2_joint",
        "wrist_3_joint"
    ],
    "metrics": {
        "cart_traj_len": 0.5762727330442361,
        "distance_elbow_joint": 0.257073915102654,
        "distance_shoulder_lift_joint": 0.1897247217074498,
        "distance_shoulder_pan_joint": 0.4947530372878699,
        "distance_wrist_1_joint": 0.07108557381528502,
        "distance_wrist_2_joint": 1.0603477693701544,
        "distance_wrist_3_joint": 0.07018705505767553,
        "smoothness": 0.0,
        "time": 0.021558709000000002,
        "traj_len": 1.463957674368043,
        "weighted_distance": 1.8479663215659206
    },
    "planner": "ProjEST",
    "start": {
        "state": {
            "elbow_joint": 2.010868315001653,
            "shoulder_lift_joint": -1.1634956873357014,
            "shoulder_pan_joint": -2.4736205022346103,
            "wrist_1_joint": -0.8367026794713948,
            "wrist_2_joint": 0.6746043897044093,
            "wrist_3_joint": 3.1335220948105738
        }
    },
    "waypoints": [
        {
            "positions": [
                -2.4736205022346103,
                -1.1634956873357014,
                2.010868315001653,
                -0.8367026794713948,
                0.6746043897044093,
                3.1335220948105738
            ]
        },
        {
            "positions": [
                -2.5560793417825884,
                -1.1318749003844597,
                1.968022662484544,
                -0.824855083835514,
                0.8513290179327684,
                3.1452199373201863
            ]
        },
        {
            "positions": [
                -2.638538181330567,
                -1.1002541134332182,
                1.925177009967435,
                -0.8130074881996331,
                1.0280536461611274,
                3.156917779829799
            ]
        },
        {
            "positions": [
                -2.7209970208785452,
                -1.0686333264819765,
                1.882331357450326,
                -0.8011598925637522,
                1.2047782743894864,
                3.1686156223394115
            ]
        },
        {
            "positions": [
                -2.8034558604265234,
                -1.0370125395307348,
                1.8394857049332172,
                -0.7893122969278714,
                1.3815029026178456,
                3.180313464849024
            ]
        },
        {
            "positions": [
                -2.885914699974502,
                -1.0053917525794933,
                1.7966400524161081,
                -0.7774647012919906,
                1.5582275308462048,
                3.1920113073586367
            ]
        },
        {
            "positions": [
                -2.96837353952248,
                -0.9737709656282516,
                1.753794399898999,
                -0.7656171056561097,
                1.7349521590745636,
                3.2037091498682493
            ]
        }
    ]
}