{
    "goal": {
        "global_pose": {
            "orientation": {
                "w": -0.00223480608172531,
                "x": 0.0024358444001904467,
                "y": 0.7094548369677653,
                "z": -0.704743149386269
            },
            "position": {
                "x": -0.37947507619857795,
                "y": -0.6371506643295288,
                "z": 0.19426114857196808
            }
        },
        "name": "move_to_magneteinheit_C"
    },
    "id": "ProjEST_move_to_magneteinheit_C_17",
    "joint_names": [
        "shoulder_pan_joint",
        "shoulder_lift_joint",
        "elbow_joint",
        "wrist_1_joint",
        "wrist_2_joint",
        "wrist_3_joint"
    ],
    "metrics": {
        "cart_traj_len": 0.8192608621524038,
        "distance_elbow_joint": 0.0955924718282617,
        "distance_shoulder_lift_joint": 0.47902296813872947,
        "distance_shoulder_pan_joint": 1.093406159696983,
        "distance_wrist_1_joint": 0.36859900805632595,
        "distance_wrist_2_joint": 0.9469885694215519,
        "distance_wrist_3_joint": 1.1077020801819368,
        "smoothness": 1.7698124104421216,
        "time": 0.8842901160000001,
        "traj_len": 2.022699003145003,
        "weighted_distance": 2.760851860416553
    },
    "planner": "ProjEST",
    "start": {
        "state": {
            "elbow_joint": 1.9565354006590394,
            "shoulder_lift_joint": -1.4165861576513559,
            "shoulder_pan_joint": -1.6717766223277177,
            "wrist_1_joint": -0.5286633288215096,
            "wrist_2_joint": 1.4727565892594296,
            "wrist_3_joint": 3.1593482883155493
        }
    },
    "waypoints": [
        {
            "positions": [
                -1.6717766223277177,
                -1.4165861576513559,
                1.9565354006590394,
                -0.5286633288215096,
                1.4727565892594296,
                3.1593482883155493
            ]
        },
        {
            "positions": [
                -1.5987348542379065,
                -1.4727493892299444,
                1.9780401562769312,
                -0.510786244867815,
                1.448308327169939,
                3.145722802587012
            ]
        },
        {
            "positions": [
                -1.5256930861480955,
                -1.5289126208085329,
                1.999544911894823,
                -0.4929091609141204,
                1.4238600650804485,
                3.1320973168584745
            ]
        },
        {
            "positions": [
                -1.5722441102172438,
                -1.50303571854809,
                1.995875720446532,
                -0.539086130404976,
                1.2872626877724167,
                3.041220480490175
            ]
        },
        {
            "positions": [
                -1.6187951342863918,
                -1.4771588162876472,
                1.992206528998241,
                -0.5852630998958316,
                1.150665310464385,
                2.950343644121875
            ]
        },
        {
            "positions": [
                -1.6653461583555398,
                -1.4512819140272044,
                1.98853733754995,
                -0.6314400693866871,
                1.0140679331563534,
                2.8594668077535754
            ]
        },
        {
            "positions": [
                -1.711897182424688,
                -1.4254050117667618,
                1.984868146101659,
                -0.6776170388775427,
                0.8774705558483216,
                2.7685899713852753
            ]
        },
        {
            "positions": [
                -1.7584482064938363,
                -1.399528109506319,
                1.981198954653368,
                -0.7237940083683982,
                0.7408731785402897,
                2.6777131350169756
            ]
        },
        {
            "positions": [
                -1.8049992305629843,
                -1.3736512072458762,
                1.977529763205077,
                -0.7699709778592538,
                0.604275801232258,
                2.586836298648676
            ]
        },
        {
            "positions": [
                -1.9720033503386023,
                -1.3207924343911523,
                1.98517171618076,
                -0.7839167336602046,
                0.6239027465808531,
                2.720633821277442
            ]
        },
        {
            "positions": [
                -2.1390074701142203,
                -1.2679336615364283,
                1.992813669156443,
                -0.7978624894611555,
                0.6435296919294481,
                2.8544313439062075
            ]
        },
        {
            "positions": [
                -2.306011589889838,
                -1.2150748886817042,
                2.000455622132126,
                -0.8118082452621064,
                0.6631566372780431,
                2.9882288665349734
            ]
        },
        {
            "positions": [
                -2.4730157096654564,
                -1.1622161158269804,
                2.008097575107809,
                -0.8257540010630572,
                0.6827835826266382,
                3.1220263891637394
            ]
        }
    ]
}