{
    "goal": {
        "global_pose": {
            "orientation": {
                "w": 0.005598929693374612,
                "x": 0.007748599140229565,
                "y": 0.7110244013736278,
                "z": -0.7031023480610252
            },
            "position": {
                "x": -0.8858502320852131,
                "y": -0.7141253447532654,
                "z": 0.3711530566215515
            }
        },
        "name": "move_to_auspresseinheit_C"
    },
    "id": "ProjEST_move_to_auspresseinheit_C_70",
    "joint_names": [
        "shoulder_pan_joint",
        "shoulder_lift_joint",
        "elbow_joint",
        "wrist_1_joint",
        "wrist_2_joint",
        "wrist_3_joint"
    ],
    "metrics": {
        "cart_traj_len": 0.4917743726317261,
        "distance_elbow_joint": 0.9864403697868138,
        "distance_shoulder_lift_joint": 0.31859689357616405,
        "distance_shoulder_pan_joint": 0.2566786976349209,
        "distance_wrist_1_joint": 0.660029446871275,
        "distance_wrist_2_joint": 1.3017561487184304,
        "distance_wrist_3_joint": 0.04892484077580406,
        "smoothness": 1.6148698667872622e-16,
        "time": 0.28445684,
        "traj_len": 1.8900863465364242,
        "weighted_distance": 2.3731965098796017
    },
    "planner": "ProjEST",
    "start": {
        "state": {
            "elbow_joint": 1.752795957773711,
            "shoulder_lift_joint": -0.9740617694225064,
            "shoulder_pan_joint": -2.967991417825858,
            "wrist_1_joint": -0.7595177689806859,
            "wrist_2_joint": 1.7443932448377395,
            "wrist_3_joint": 3.199131542505932
        }
    },
    "waypoints": [
        {
            "positions": [
                -2.967991417825858,
                -0.9740617694225064,
                1.752795957773711,
                -0.7595177689806859,
                1.7443932448377395,
                3.199131542505932
            ]
        },
        {
            "positions": [
                -2.9423235480623657,
                -0.94220208006489,
                1.6541519207950297,
                -0.6935148242935584,
                1.6142176299658964,
                3.1942390584283515
            ]
        },
        {
            "positions": [
                -2.916655678298874,
                -0.9103423907072736,
                1.5555078838163483,
                -0.627511879606431,
                1.4840420150940534,
                3.1893465743507714
            ]
        },
        {
            "positions": [
                -2.8909878085353817,
                -0.8784827013496572,
                1.456863846837667,
                -0.5615089349193034,
                1.3538664002222105,
                3.184454090273191
            ]
        },
        {
            "positions": [
                -2.8653199387718895,
                -0.8466230119920408,
                1.3582198098589855,
                -0.4955059902321759,
                1.2236907853503673,
                3.1795616061956107
            ]
        },
        {
            "positions": [
                -2.8396520690083973,
                -0.8147633226344244,
                1.259575772880304,
                -0.4295030455450484,
                1.0935151704785242,
                3.17466912211803
            ]
        },
        {
            "positions": [
                -2.8139841992449055,
                -0.782903633276808,
                1.160931735901623,
                -0.36350010085792095,
                0.9633395556066813,
                3.1697766380404495
            ]
        },
        {
            "positions": [
                -2.7883163294814133,
                -0.7510439439191916,
                1.0622876989229415,
                -0.2974971561707935,
                0.8331639407348383,
                3.1648841539628694
            ]
        },
        {
            "positions": [
                -2.762648459717921,
                -0.7191842545615752,
                0.96364366194426,
                -0.2314942114836659,
                0.7029883258629952,
                3.159991669885289
            ]
        },
        {
            "positions": [
                -2.7369805899544293,
                -0.6873245652039588,
                0.8649996249655787,
                -0.16549126679653847,
                0.572812710991152,
                3.1550991858077087
            ]
        },
        {
            "positions": [
                -2.711312720190937,
                -0.6554648758463424,
                0.7663555879868973,
                -0.09948832210941094,
                0.4426370961193091,
                3.150206701730128
            ]
        }
    ]
}