{
    "goal": {
        "global_pose": {
            "orientation": {
                "w": -0.4816463035849501,
                "x": 0.5182115481033762,
                "y": 0.4908360881923453,
                "z": -0.5084816262002911
            },
            "position": {
                "x": -0.8240239810943604,
                "y": -0.300875300988555,
                "z": 0.16403168439865112
            }
        },
        "name": "move_to_storage_C"
    },
    "id": "ProjEST_move_to_storage_C_37",
    "joint_names": [
        "shoulder_pan_joint",
        "shoulder_lift_joint",
        "elbow_joint",
        "wrist_1_joint",
        "wrist_2_joint",
        "wrist_3_joint"
    ],
    "metrics": {
        "cart_traj_len": 0.5770764466554403,
        "distance_elbow_joint": 0.2599213395400388,
        "distance_shoulder_lift_joint": 0.18898228937234518,
        "distance_shoulder_pan_joint": 0.4950545351771205,
        "distance_wrist_1_joint": 0.08663475379685515,
        "distance_wrist_2_joint": 1.069844813114345,
        "distance_wrist_3_joint": 0.07320068350371889,
        "smoothness": 0.0,
        "time": 0.015915325,
        "traj_len": 1.47432642739131,
        "weighted_distance": 1.8645426646829677
    },
    "planner": "ProjEST",
    "start": {
        "state": {
            "elbow_joint": 2.010868315001653,
            "shoulder_lift_joint": -1.1634956873357014,
            "shoulder_pan_joint": -2.4736205022346103,
            "wrist_1_joint": -0.8367026794713948,
            "wrist_2_joint": 0.6746043897044093,
            "wrist_3_joint": 3.1335220948105738
        }
    },
    "waypoints": [
        {
            "positions": [
                -2.4736205022346103,
                -1.1634956873357014,
                2.010868315001653,
                -0.8367026794713948,
                0.6746043897044093,
                3.1335220948105738
            ]
        },
        {
            "positions": [
                -2.556129591430797,
                -1.1319986391069772,
                1.96754809174498,
                -0.8222635538385856,
                0.8529118585568001,
                3.14572220872786
            ]
        },
        {
            "positions": [
                -2.638638680626984,
                -1.100501590878253,
                1.9242278684883067,
                -0.8078244282057764,
                1.031219327409191,
                3.1579223226451467
            ]
        },
        {
            "positions": [
                -2.7211477698231707,
                -1.069004542649529,
                1.8809076452316336,
                -0.7933853025729671,
                1.2095267962615819,
                3.1701224365624334
            ]
        },
        {
            "positions": [
                -2.803656859019357,
                -1.0375074944208047,
                1.8375874219749606,
                -0.778946176940158,
                1.3878342651139726,
                3.1823225504797197
            ]
        },
        {
            "positions": [
                -2.886165948215544,
                -1.0060104461920805,
                1.7942671987182874,
                -0.7645070513073489,
                1.5661417339663635,
                3.194522664397006
            ]
        },
        {
            "positions": [
                -2.9686750374117308,
                -0.9745133979633562,
                1.7509469754616143,
                -0.7500679256745396,
                1.7444492028187544,
                3.2067227783142926
            ]
        }
    ]
}