{
    "goal": {
        "global_pose": {
            "orientation": {
                "w": -0.00223480608172531,
                "x": 0.0024358444001904467,
                "y": 0.7094548369677653,
                "z": -0.704743149386269
            },
            "position": {
                "x": 0.6205249238014221,
                "y": -0.6371506643295288,
                "z": 0.19426114857196808
            }
        },
        "name": "move_to_magneteinheit_B"
    },
    "id": "ProjEST_move_to_magneteinheit_B_75",
    "joint_names": [
        "shoulder_pan_joint",
        "shoulder_lift_joint",
        "elbow_joint",
        "wrist_1_joint",
        "wrist_2_joint",
        "wrist_3_joint"
    ],
    "metrics": {
        "cart_traj_len": 4.080336141738878,
        "distance_elbow_joint": 5.762487131467841,
        "distance_shoulder_lift_joint": 1.1138173562151625,
        "distance_shoulder_pan_joint": 3.079549032193241,
        "distance_wrist_1_joint": 2.7886704857504974,
        "distance_wrist_2_joint": 2.774391792026419,
        "distance_wrist_3_joint": 6.291674546923515,
        "smoothness": 0.37265547671533394,
        "time": 3.172783499,
        "traj_len": 4.670180975570077,
        "weighted_distance": 6.321155093509461
    },
    "planner": "ProjEST",
    "start": {
        "state": {
            "elbow_joint": 2.3935871308073637,
            "shoulder_lift_joint": -1.9085141043777403,
            "shoulder_pan_joint": 0.7066247067284167,
            "wrist_1_joint": -0.46782909355067076,
            "wrist_2_joint": 0.7096259085804283,
            "wrist_3_joint": -3.1358149275257428
        }
    },
    "waypoints": [
        {
            "positions": [
                0.7066247067284167,
                -1.9085141043777403,
                2.3935871308073637,
                -0.46782909355067076,
                0.7096259085804283,
                -3.1358149275257428
            ]
        },
        {
            "positions": [
                0.6209108890505816,
                -1.9164636266825863,
                2.401784044994628,
                -0.37666309300335543,
                0.683901974248032,
                -3.0621043023125547
            ]
        },
        {
            "positions": [
                0.5351970713727464,
                -1.924413148987432,
                2.4099809591818926,
                -0.28549709245604016,
                0.6581780399156356,
                -2.988393677099367
            ]
        },
        {
            "positions": [
                0.44948325369491127,
                -1.9323626712922781,
                2.418177873369157,
                -0.19433109190872483,
                0.6324541055832393,
                -2.914683051886179
            ]
        },
        {
            "positions": [
                0.3476029930966648,
                -1.9328841593359376,
                2.3678126150608967,
                -0.15510242915920608,
                0.5786507427600344,
                -2.7748393770237683
            ]
        },
        {
            "positions": [
                0.24572273249841833,
                -1.933405647379597,
                2.317447356752636,
                -0.11587376640968731,
                0.5248473799368294,
                -2.634995702161357
            ]
        },
        {
            "positions": [
                0.14384247190017188,
                -1.9339271354232566,
                2.2670820984443756,
                -0.07664510366016855,
                0.4710440171136245,
                -2.4951520272989463
            ]
        },
        {
            "positions": [
                0.20225153159641668,
                -1.923734140913985,
                2.1512027994744463,
                -0.12431413761368372,
                0.42849986213753993,
                -2.3746423058516832
            ]
        },
        {
            "positions": [
                0.26066059129266145,
                -1.9135411464047136,
                2.0353235005045174,
                -0.1719831715671989,
                0.38595570716145533,
                -2.2541325844044207
            ]
        },
        {
            "positions": [
                0.3190696509889062,
                -1.903348151895442,
                1.9194442015345883,
                -0.21965220552071404,
                0.3434115521853708,
                -2.1336228629571576
            ]
        },
        {
            "positions": [
                0.37747871068515104,
                -1.8931551573861705,
                1.8035649025646592,
                -0.26732123947422926,
                0.30086739720928624,
                -2.0131131415098946
            ]
        },
        {
            "positions": [
                0.4358877703813958,
                -1.8829621628768989,
                1.68768560359473,
                -0.3149902734277444,
                0.2583232422332017,
                -1.892603420062632
            ]
        },
        {
            "positions": [
                0.4942968300776406,
                -1.8727691683676275,
                1.571806304624801,
                -0.3626593073812595,
                0.21577908725711714,
                -1.772093698615369
            ]
        },
        {
            "positions": [
                0.5527058897738855,
                -1.862576173858356,
                1.4559270056548717,
                -0.4103283413347748,
                0.17323493228103254,
                -1.651583977168106
            ]
        },
        {
            "positions": [
                0.6111149494701302,
                -1.8523831793490844,
                1.3400477066849428,
                -0.4579973752882899,
                0.130690777304948,
                -1.5310742557208434
            ]
        },
        {
            "positions": [
                0.6695240091663749,
                -1.8421901848398128,
                1.2241684077150137,
                -0.5056664092418051,
                0.08814662232886344,
                -1.4105645342735804
            ]
        },
        {
            "positions": [
                0.7279330688626197,
                -1.8319971903305414,
                1.1082891087450846,
                -0.5533354431953202,
                0.0456024673527789,
                -1.2900548128263176
            ]
        },
        {
            "positions": [
                0.7863421285588645,
                -1.8218041958212698,
                0.9924098097751552,
                -0.6010044771488354,
                0.0030583123766942943,
                -1.1695450913790546
            ]
        },
        {
            "positions": [
                0.8447511882551092,
                -1.8116112013119983,
                0.8765305108052264,
                -0.6486735111023505,
                -0.0394858425993902,
                -1.049035369931792
            ]
        },
        {
            "positions": [
                0.9031602479513541,
                -1.801418206802727,
                0.7606512118352973,
                -0.6963425450558657,
                -0.08202999757547474,
                -0.928525648484529
            ]
        },
        {
            "positions": [
                0.961569307647599,
                -1.7912252122934553,
                0.644771912865368,
                -0.744011579009381,
                -0.1245741525515594,
                -0.808015927037266
            ]
        },
        {
            "positions": [
                1.0199783673438436,
                -1.7810322177841837,
                0.5288926138954391,
                -0.791680612962896,
                -0.16711830752764384,
                -0.6875062055900032
            ]
        },
        {
            "positions": [
                1.0783874270400886,
                -1.7708392232749122,
                0.41301331492550974,
                -0.8393496469164112,
                -0.2096624625037285,
                -0.5669964841427404
            ]
        },
        {
            "positions": [
                1.1367964867363332,
                -1.7606462287656408,
                0.29713401595558087,
                -0.8870186808699264,
                -0.25220661747981293,
                -0.4464867626954776
            ]
        },
        {
            "positions": [
                1.195205546432578,
                -1.7504532342563692,
                0.18125471698565176,
                -0.9346877148234416,
                -0.2947507724558976,
                -0.3259770412482146
            ]
        },
        {
            "positions": [
                1.253614606128823,
                -1.7402602397470976,
                0.06537541801572244,
                -0.9823567487769568,
                -0.33729492743198214,
                -0.20546731980095156
            ]
        },
        {
            "positions": [
                1.3120236658250675,
                -1.730067245237826,
                -0.05050388095420644,
                -1.030025782730472,
                -0.3798390824080667,
                -0.08495759835368899
            ]
        },
        {
            "positions": [
                1.3704327255213125,
                -1.7198742507285547,
                -0.16638317992413576,
                -1.077694816683987,
                -0.42238323738415123,
                0.03555212309357403
            ]
        },
        {
            "positions": [
                1.4288417852175572,
                -1.7096812562192831,
                -0.2822624788940651,
                -1.1253638506375023,
                -0.4649273923602359,
                0.15606184454083705
            ]
        },
        {
            "positions": [
                1.487250844913802,
                -1.6994882617100115,
                -0.39814177786399396,
                -1.1730328845910176,
                -0.5074715473363205,
                0.27657156598810007
            ]
        },
        {
            "positions": [
                1.5456599046100465,
                -1.6892952672007402,
                -0.5140210768339228,
                -1.2207019185445325,
                -0.5500157023124048,
                0.3970812874353622
            ]
        },
        {
            "positions": [
                1.6040689643062915,
                -1.6791022726914686,
                -0.6299003758038522,
                -1.2683709524980478,
                -0.5925598572884894,
                0.5175910088826252
            ]
        },
        {
            "positions": [
                1.6624780240025363,
                -1.668909278182197,
                -0.745779674773781,
                -1.3160399864515628,
                -0.6351040122645739,
                0.6381007303298882
            ]
        },
        {
            "positions": [
                1.720887083698781,
                -1.6587162836729255,
                -0.8616589737437104,
                -1.3637090204050781,
                -0.6776481672406587,
                0.7586104517771513
            ]
        },
        {
            "positions": [
                1.779296143395026,
                -1.6485232891636539,
                -0.9775382727136397,
                -1.4113780543585934,
                -0.7201923222167432,
                0.8791201732244143
            ]
        },
        {
            "positions": [
                1.8377052030912706,
                -1.6383302946543825,
                -1.0934175716835681,
                -1.4590470883121083,
                -0.7627364771928276,
                0.9996298946716768
            ]
        },
        {
            "positions": [
                1.8961142627875154,
                -1.628137300145111,
                -1.2092968706534974,
                -1.5067161222656236,
                -0.8052806321689121,
                1.1201396161189399
            ]
        },
        {
            "positions": [
                1.9545233224837602,
                -1.6179443056358394,
                -1.3251761696234268,
                -1.5543851562191389,
                -0.8478247871449969,
                1.2406493375662024
            ]
        },
        {
            "positions": [
                2.012932382180005,
                -1.607751311126568,
                -1.441055468593356,
                -1.602054190172654,
                -0.8903689421210814,
                1.3611590590134655
            ]
        },
        {
            "positions": [
                2.07134144187625,
                -1.5975583166172964,
                -1.556934767563285,
                -1.6497232241261692,
                -0.932913097097166,
                1.4816687804607285
            ]
        },
        {
            "positions": [
                2.1297505015724947,
                -1.5873653221080248,
                -1.6728140665332139,
                -1.6973922580796843,
                -0.9754572520732503,
                1.602178501907991
            ]
        },
        {
            "positions": [
                2.1881595612687397,
                -1.5771723275987535,
                -1.7886933655031427,
                -1.7450612920331994,
                -1.018001407049335,
                1.722688223355254
            ]
        },
        {
            "positions": [
                2.246568620964984,
                -1.566979333089482,
                -1.904572664473072,
                -1.7927303259867147,
                -1.0605455620254196,
                1.843197944802517
            ]
        },
        {
            "positions": [
                2.304977680661229,
                -1.5567863385802103,
                -2.0204519634430014,
                -1.8403993599402297,
                -1.1030897170015042,
                1.96370766624978
            ]
        },
        {
            "positions": [
                2.363386740357474,
                -1.5465933440709387,
                -2.1363312624129307,
                -1.888068393893745,
                -1.1456338719775887,
                2.084217387697043
            ]
        },
        {
            "positions": [
                2.4217958000537188,
                -1.5364003495616672,
                -2.252210561382859,
                -1.93573742784726,
                -1.1881780269536732,
                2.2047271091443053
            ]
        },
        {
            "positions": [
                2.4802048597499633,
                -1.5262073550523958,
                -2.3680898603527885,
                -1.9834064618007752,
                -1.2307221819297578,
                2.3252368305915683
            ]
        },
        {
            "positions": [
                2.5386139194462083,
                -1.5160143605431242,
                -2.483969159322718,
                -2.0310754957542905,
                -1.2732663369058423,
                2.4457465520388313
            ]
        },
        {
            "positions": [
                2.5508134544281043,
                -1.5830635155720756,
                -2.4003942237013,
                -2.075381106130878,
                -1.1941163822518275,
                2.5167578587747252
            ]
        },
        {
            "positions": [
                2.56301298941,
                -1.650112670601027,
                -2.3168192880798824,
                -2.119686716507465,
                -1.1149664275978126,
                2.587769165510619
            ]
        },
        {
            "positions": [
                2.5752125243918966,
                -1.7171618256299783,
                -2.2332443524584646,
                -2.1639923268840526,
                -1.0358164729437975,
                2.6587804722465127
            ]
        },
        {
            "positions": [
                2.5874120593737926,
                -1.78421098065893,
                -2.149669416837047,
                -2.2082979372606397,
                -0.9566665182897827,
                2.7297917789824067
            ]
        },
        {
            "positions": [
                2.5996115943556886,
                -1.8512601356878813,
                -2.0660944812156297,
                -2.2526035476372273,
                -0.8775165636357678,
                2.8008030857183006
            ]
        },
        {
            "positions": [
                2.6118111293375845,
                -1.9183092907168326,
                -1.982519545594212,
                -2.296909158013815,
                -0.7983666089817529,
                2.8718143924541946
            ]
        },
        {
            "positions": [
                2.6240106643194805,
                -1.985358445745784,
                -1.8989446099727942,
                -2.341214768390402,
                -0.7192166543277381,
                2.942825699190088
            ]
        },
        {
            "positions": [
                2.636210199301377,
                -2.0524076007747354,
                -1.8153696743513765,
                -2.3855203787669894,
                -0.640066699673723,
                3.013837005925982
            ]
        },
        {
            "positions": [
                2.648409734283273,
                -2.1194567558036868,
                -1.7317947387299588,
                -2.4298259891435765,
                -0.5609167450197081,
                3.084848312661876
            ]
        },
        {
            "positions": [
                2.660609269265169,
                -2.186505910832638,
                -1.648219803108541,
                -2.474131599520164,
                -0.48176679036569325,
                3.15585961939777
            ]
        }
    ]
}