{
    "goal": {
        "global_pose": {
            "orientation": {
                "w": -0.4816463035849501,
                "x": 0.5182115481033762,
                "y": 0.4908360881923453,
                "z": -0.5084816262002911
            },
            "position": {
                "x": -0.8240239810943604,
                "y": 0.19912469901144506,
                "z": 0.16403168439865112
            }
        },
        "name": "move_to_storage_D"
    },
    "id": "ProjEST_move_to_storage_D_97",
    "joint_names": [
        "shoulder_pan_joint",
        "shoulder_lift_joint",
        "elbow_joint",
        "wrist_1_joint",
        "wrist_2_joint",
        "wrist_3_joint"
    ],
    "metrics": {
        "cart_traj_len": 3.426006919981888,
        "distance_elbow_joint": 4.2096152192788745,
        "distance_shoulder_lift_joint": 1.2643326835061652,
        "distance_shoulder_pan_joint": 2.81443561747482,
        "distance_wrist_1_joint": 2.263701713142688,
        "distance_wrist_2_joint": 0.9851710951156821,
        "distance_wrist_3_joint": 3.1468615946130423,
        "smoothness": 0.005047711513320141,
        "time": 0.04367401,
        "traj_len": 3.831986159047456,
        "weighted_distance": 4.922063989894456
    },
    "planner": "ProjEST",
    "start": {
        "state": {
            "elbow_joint": -2.384821997420982,
            "shoulder_lift_joint": -2.2788054674887404,
            "shoulder_pan_joint": -0.18546946417610016,
            "wrist_1_joint": 1.4845937964226739,
            "wrist_2_joint": 0.1789877726866377,
            "wrist_3_joint": 0.03710572555276528
        }
    },
    "waypoints": [
        {
            "positions": [
                -0.18546946417610016,
                -2.2788054674887404,
                -2.384821997420982,
                1.4845937964226739,
                0.1789877726866377,
                0.03710572555276528
            ]
        },
        {
            "positions": [
                -0.061478043170560076,
                -2.2240397668706957,
                -2.2430328398836576,
                1.4364956572887746,
                0.17661229098247472,
                0.05191646925012092
            ]
        },
        {
            "positions": [
                0.06251337783498001,
                -2.1692740662526506,
                -2.101243682346334,
                1.3883975181548753,
                0.17423680927831173,
                0.06672721294747656
            ]
        },
        {
            "positions": [
                0.18650479884052007,
                -2.114508365634606,
                -1.9594545248090096,
                1.340299379020976,
                0.17186132757414876,
                0.08153795664483221
            ]
        },
        {
            "positions": [
                0.3104962198460602,
                -2.059742665016561,
                -1.8176653672716856,
                1.2922012398870768,
                0.16948584586998577,
                0.09634870034218784
            ]
        },
        {
            "positions": [
                0.43448764085160024,
                -2.0049769643985162,
                -1.6758762097343616,
                1.2441031007531775,
                0.16711036416582278,
                0.11115944403954348
            ]
        },
        {
            "positions": [
                0.5584790618571402,
                -1.9502112637804716,
                -1.5340870521970373,
                1.1960049616192783,
                0.1647348824616598,
                0.12597018773689914
            ]
        },
        {
            "positions": [
                0.6824704828626804,
                -1.8954455631624265,
                -1.3922978946597133,
                1.147906822485379,
                0.16235940075749683,
                0.14078093143425477
            ]
        },
        {
            "positions": [
                0.8064619038682206,
                -1.8406798625443819,
                -1.2505087371223893,
                1.0998086833514797,
                0.15998391905333384,
                0.15559167513161043
            ]
        },
        {
            "positions": [
                0.9304533248737608,
                -1.785914161926337,
                -1.108719579585065,
                1.0517105442175803,
                0.15760843734917085,
                0.1704024188289661
            ]
        },
        {
            "positions": [
                1.0544447458793007,
                -1.7311484613082921,
                -0.966930422047741,
                1.0036124050836812,
                0.15523295564500786,
                0.1852131625263217
            ]
        },
        {
            "positions": [
                1.1784361668848409,
                -1.6763827606902475,
                -0.825141264510417,
                0.9555142659497818,
                0.15285747394084487,
                0.20002390622367736
            ]
        },
        {
            "positions": [
                1.3024275878903808,
                -1.6216170600722026,
                -0.683352106973093,
                0.9074161268158826,
                0.1504819922366819,
                0.214834649921033
            ]
        },
        {
            "positions": [
                1.4264190088959212,
                -1.5668513594541578,
                -0.5415629494357688,
                0.8593179876819833,
                0.14810651053251891,
                0.22964539361838865
            ]
        },
        {
            "positions": [
                1.5504104299014612,
                -1.512085658836113,
                -0.39977379189844475,
                0.811219848548084,
                0.14573102882835592,
                0.24445613731574428
            ]
        },
        {
            "positions": [
                1.674401850907001,
                -1.457319958218068,
                -0.25798463436112096,
                0.7631217094141848,
                0.14335554712419296,
                0.2592668810130999
            ]
        },
        {
            "positions": [
                1.7983932719125413,
                -1.4025542576000234,
                -0.11619547682379672,
                0.7150235702802854,
                0.14098006542002994,
                0.27407762471045555
            ]
        },
        {
            "positions": [
                1.9223846929180812,
                -1.3477885569819785,
                0.025593680713527522,
                0.6669254311463862,
                0.13860458371586698,
                0.2888883684078112
            ]
        },
        {
            "positions": [
                2.0463761139236216,
                -1.2930228563639337,
                0.16738283825085176,
                0.6188272920124869,
                0.136229102011704,
                0.30369911210516687
            ]
        },
        {
            "positions": [
                2.1703675349291616,
                -1.2382571557458888,
                0.30917199578817556,
                0.5707291528785876,
                0.133853620307541,
                0.3185098558025225
            ]
        },
        {
            "positions": [
                2.2943589559347015,
                -1.1834914551278441,
                0.4509611533254998,
                0.5226310137446883,
                0.13147813860337804,
                0.3333205994998781
            ]
        },
        {
            "positions": [
                2.418350376940242,
                -1.1287257545097993,
                0.592750310862824,
                0.4745328746107891,
                0.12910265689921505,
                0.34813134319723377
            ]
        },
        {
            "positions": [
                2.542341797945782,
                -1.0739600538917544,
                0.7345394684001476,
                0.42643473547688987,
                0.12672717519505206,
                0.3629420868945894
            ]
        },
        {
            "positions": [
                2.5477558201553405,
                -1.0702420995224307,
                0.8026803279912568,
                0.3510883197145833,
                0.18503408129655807,
                0.5392561639740405
            ]
        },
        {
            "positions": [
                2.553169842364899,
                -1.0665241451531071,
                0.8708211875823659,
                0.27574190395227677,
                0.24334098739806412,
                0.7155702410534917
            ]
        },
        {
            "positions": [
                2.558583864574458,
                -1.0628061907837834,
                0.938962047173475,
                0.20039548818997022,
                0.30164789349957016,
                0.8918843181329428
            ]
        },
        {
            "positions": [
                2.5639978867840165,
                -1.0590882364144596,
                1.007102906764584,
                0.12504907242766367,
                0.3599547996010762,
                1.068198395212394
            ]
        },
        {
            "positions": [
                2.569411908993575,
                -1.0553702820451358,
                1.0752437663556933,
                0.049702656665357114,
                0.4182617057025822,
                1.244512472291845
            ]
        },
        {
            "positions": [
                2.574825931203134,
                -1.051652327675812,
                1.1433846259468023,
                -0.025643759096949437,
                0.47656861180408827,
                1.4208265493712962
            ]
        },
        {
            "positions": [
                2.5802399534126925,
                -1.0479343733064885,
                1.2115254855379116,
                -0.10099017485925604,
                0.5348755179055943,
                1.5971406264507473
            ]
        },
        {
            "positions": [
                2.585653975622251,
                -1.0442164189371648,
                1.2796663451290207,
                -0.17633659062156254,
                0.5931824240071003,
                1.7734547035301984
            ]
        },
        {
            "positions": [
                2.5910679978318094,
                -1.040498464567841,
                1.3478072047201297,
                -0.25168300638386903,
                0.6514893301086063,
                1.9497687806096495
            ]
        },
        {
            "positions": [
                2.596482020041368,
                -1.0367805101985175,
                1.415948064311239,
                -0.32702942214617564,
                0.7097962362101123,
                2.1260828576891004
            ]
        },
        {
            "positions": [
                2.6018960422509267,
                -1.0330625558291937,
                1.484088923902348,
                -0.40237583790848225,
                0.7681031423116184,
                2.302396934768552
            ]
        },
        {
            "positions": [
                2.6073100644604854,
                -1.02934460145987,
                1.5522297834934573,
                -0.47772225367078874,
                0.8264100484131245,
                2.478711011848003
            ]
        },
        {
            "positions": [
                2.612724086670044,
                -1.0256266470905462,
                1.6203706430845664,
                -0.5530686694330953,
                0.8847169545146305,
                2.655025088927454
            ]
        },
        {
            "positions": [
                2.6181381088796027,
                -1.0219086927212224,
                1.6885115026756754,
                -0.628415085195402,
                0.9430238606161365,
                2.831339166006905
            ]
        },
        {
            "positions": [
                2.6235521310891614,
                -1.0181907383518989,
                1.7566523622667847,
                -0.7037615009577085,
                1.0013307667176425,
                3.0076532430863567
            ]
        },
        {
            "positions": [
                2.62896615329872,
                -1.0144727839825751,
                1.8247932218578937,
                -0.7791079167200149,
                1.0596376728191486,
                3.183967320165807
            ]
        }
    ]
}