{
    "goal": {
        "global_pose": {
            "orientation": {
                "w": 0.7031023502349854,
                "x": -0.7110244035720825,
                "y": 0.007748599164187908,
                "z": 0.005598929710686207
            },
            "position": {
                "x": 0.11585023208521307,
                "y": 0.44412534475326537,
                "z": 0.3711530566215515
            }
        },
        "name": "move_to_auspresseinheit_A"
    },
    "id": "ProjEST_move_to_auspresseinheit_A_46",
    "joint_names": [
        "shoulder_pan_joint",
        "shoulder_lift_joint",
        "elbow_joint",
        "wrist_1_joint",
        "wrist_2_joint",
        "wrist_3_joint"
    ],
    "metrics": {
        "cart_traj_len": 3.166384584850685,
        "distance_elbow_joint": 1.3951105355224325,
        "distance_shoulder_lift_joint": 3.4818538586704144,
        "distance_shoulder_pan_joint": 4.3910764199629275,
        "distance_wrist_1_joint": 4.155090570990883,
        "distance_wrist_2_joint": 1.2245247065128806,
        "distance_wrist_3_joint": 0.34891510101460765,
        "smoothness": 1.3511398451093324,
        "time": 0.748088117,
        "traj_len": 3.8725406637857462,
        "weighted_distance": 4.5906444724251
    },
    "planner": "ProjEST",
    "start": {
        "state": {
            "elbow_joint": 2.4225747245308327,
            "shoulder_lift_joint": -1.373653427065438,
            "shoulder_pan_joint": -0.33786330853087027,
            "wrist_1_joint": -1.0288602302712604,
            "wrist_2_joint": 1.23302299562683,
            "wrist_3_joint": -3.094021725338297
        }
    },
    "waypoints": [
        {
            "positions": [
                -0.33786330853087027,
                -1.373653427065438,
                2.4225747245308327,
                -1.0288602302712604,
                1.23302299562683,
                -3.094021725338297
            ]
        },
        {
            "positions": [
                -0.24301338679101703,
                -1.4664580445847784,
                2.4130882375014133,
                -0.9666839842582111,
                1.1358104717036983,
                -3.0824194822178055
            ]
        },
        {
            "positions": [
                -0.1481634650511638,
                -1.5592626621041188,
                2.4036017504719944,
                -0.9045077382451617,
                1.038597947780567,
                -3.0708172390973134
            ]
        },
        {
            "positions": [
                -0.05331354331131055,
                -1.6520672796234592,
                2.394115263442575,
                -0.8423314922321125,
                0.9413854238574354,
                -3.059214995976822
            ]
        },
        {
            "positions": [
                0.041536378428542686,
                -1.7448718971427997,
                2.384628776413156,
                -0.7801552462190631,
                0.8441728999343039,
                -3.04761275285633
            ]
        },
        {
            "positions": [
                0.13638630016839598,
                -1.83767651466214,
                2.375142289383737,
                -0.7179790002060138,
                0.7469603760111723,
                -3.036010509735838
            ]
        },
        {
            "positions": [
                0.23123622190824916,
                -1.9304811321814805,
                2.365655802354318,
                -0.6558027541929645,
                0.6497478520880409,
                -3.0244082666153465
            ]
        },
        {
            "positions": [
                0.32608614364810246,
                -2.023285749700821,
                2.3561693153248986,
                -0.5936265081799151,
                0.5525353281649092,
                -3.012806023494855
            ]
        },
        {
            "positions": [
                0.42093606538795564,
                -2.1160903672201616,
                2.3466828282954797,
                -0.5314502621668658,
                0.45532280424177773,
                -3.0012037803743628
            ]
        },
        {
            "positions": [
                0.515785987127809,
                -2.208894984739502,
                2.3371963412660604,
                -0.46927401615381653,
                0.3581102803186463,
                -2.989601537253871
            ]
        },
        {
            "positions": [
                0.4041723247754465,
                -2.110751985155784,
                2.2955376329746326,
                -0.34974606717263934,
                0.36066198232874774,
                -3.0024303195434516
            ]
        },
        {
            "positions": [
                0.2925586624230841,
                -2.012608985572066,
                2.253878924683205,
                -0.23021811819146218,
                0.36321368433884926,
                -3.0152591018330326
            ]
        },
        {
            "positions": [
                0.18094500007072162,
                -1.9144659859883482,
                2.2122202163917772,
                -0.11069016921028496,
                0.3657653863489507,
                -3.028087884122613
            ]
        },
        {
            "positions": [
                0.0693313377183592,
                -1.8163229864046304,
                2.1705615081003495,
                0.008837779770892173,
                0.3683170883590522,
                -3.040916666412194
            ]
        },
        {
            "positions": [
                -0.042282324634003166,
                -1.7181799868209127,
                2.128902799808922,
                0.12836572875206936,
                0.3708687903691537,
                -3.0537454487017746
            ]
        },
        {
            "positions": [
                -0.15389598698636575,
                -1.6200369872371945,
                2.087244091517494,
                0.2478936777332466,
                0.3734204923792552,
                -3.066574230991355
            ]
        },
        {
            "positions": [
                -0.2655096493387281,
                -1.5218939876534767,
                2.0455853832260664,
                0.36742162671442374,
                0.37597219438935664,
                -3.079403013280936
            ]
        },
        {
            "positions": [
                -0.3771233116910906,
                -1.423750988069759,
                2.0039266749346387,
                0.4869495756956009,
                0.37852389639945816,
                -3.0922317955705165
            ]
        },
        {
            "positions": [
                -0.48873697404345307,
                -1.3256079884860412,
                1.962267966643211,
                0.6064775246767782,
                0.3810755984095596,
                -3.1050605778600975
            ]
        },
        {
            "positions": [
                -0.6003506363958153,
                -1.2274649889023233,
                1.9206092583517833,
                0.7260054736579553,
                0.3836273004196611,
                -3.117889360149678
            ]
        },
        {
            "positions": [
                -0.7119642987481778,
                -1.1293219893186053,
                1.8789505500603556,
                0.8455334226391324,
                0.3861790024297626,
                -3.1307181424392585
            ]
        },
        {
            "positions": [
                -0.8235779611005405,
                -1.0311789897348873,
                1.8372918417689277,
                0.9650613716203098,
                0.38873070443986407,
                -3.1435469247288395
            ]
        },
        {
            "positions": [
                -0.9351916234529027,
                -0.9330359901511696,
                1.7956331334775,
                1.084589320601487,
                0.39128240644996554,
                -3.15637570701842
            ]
        },
        {
            "positions": [
                -1.0468052858052652,
                -0.8348929905674516,
                1.7539744251860723,
                1.204117269582664,
                0.39383410846006706,
                -3.169204489308001
            ]
        },
        {
            "positions": [
                -1.1584189481576277,
                -0.7367499909837338,
                1.7123157168946446,
                1.3236452185638412,
                0.3963858104701685,
                -3.1820332715975814
            ]
        },
        {
            "positions": [
                -1.0342041355563736,
                -0.8150478114664393,
                1.7579724854203942,
                1.2034728770867893,
                0.41714157454038014,
                -3.17856239302515
            ]
        },
        {
            "positions": [
                -0.9099893229551195,
                -0.8933456319491448,
                1.8036292539461438,
                1.0833005356097372,
                0.43789733861059177,
                -3.1750915144527188
            ]
        },
        {
            "positions": [
                -0.7857745103538654,
                -0.9716434524318504,
                1.8492860224718934,
                0.9631281941326852,
                0.4586531026808034,
                -3.171620635880287
            ]
        },
        {
            "positions": [
                -0.6615596977526114,
                -1.0499412729145559,
                1.894942790997643,
                0.8429558526556333,
                0.479408866751015,
                -3.1681497573078556
            ]
        },
        {
            "positions": [
                -0.5373448851513574,
                -1.1282390933972613,
                1.9405995595233927,
                0.7227835111785813,
                0.5001646308212266,
                -3.1646788787354243
            ]
        },
        {
            "positions": [
                -0.41313007255010314,
                -1.2065369138799669,
                1.9862563280491423,
                0.6026111697015293,
                0.5209203948914383,
                -3.161208000162993
            ]
        },
        {
            "positions": [
                -0.28891525994884915,
                -1.2848347343626725,
                2.031913096574892,
                0.48243882822447726,
                0.5416761589616499,
                -3.1577371215905616
            ]
        },
        {
            "positions": [
                -0.16470044734759504,
                -1.3631325548453779,
                2.0775698651006413,
                0.36226648674742534,
                0.5624319230318615,
                -3.15426624301813
            ]
        },
        {
            "positions": [
                -0.040485634746340926,
                -1.4414303753280833,
                2.123226633626391,
                0.24209414527037332,
                0.5831876871020731,
                -3.1507953644456985
            ]
        },
        {
            "positions": [
                0.08372917785491296,
                -1.5197281958107887,
                2.168883402152141,
                0.1219218037933214,
                0.6039434511722848,
                -3.147324485873267
            ]
        },
        {
            "positions": [
                0.20794399045616707,
                -1.5980260162934943,
                2.2145401706778904,
                0.00174946231626949,
                0.6246992152424964,
                -3.143853607300836
            ]
        },
        {
            "positions": [
                0.3321588030574214,
                -1.6763238367762,
                2.26019693920364,
                -0.11842287916078265,
                0.6454549793127081,
                -3.1403827287284045
            ]
        },
        {
            "positions": [
                0.4563736156586755,
                -1.7546216572589053,
                2.3058537077293897,
                -0.23859522063783478,
                0.6662107433829197,
                -3.1369118501559727
            ]
        },
        {
            "positions": [
                0.5805884282599294,
                -1.832919477741611,
                2.3515104762551395,
                -0.3587675621148867,
                0.6869665074531314,
                -3.1334409715835414
            ]
        },
        {
            "positions": [
                0.7048032408611834,
                -1.9112172982243163,
                2.397167244780889,
                -0.47893990359193866,
                0.707722271523343,
                -3.12997009301111
            ]
        }
    ]
}