{
    "goal": {
        "global_pose": {
            "orientation": {
                "w": 0.005598929693374612,
                "x": 0.007748599140229565,
                "y": 0.7110244013736278,
                "z": -0.7031023480610252
            },
            "position": {
                "x": 0.1141497679147869,
                "y": -0.7141253447532654,
                "z": 0.3711530566215515
            }
        },
        "name": "move_to_auspresseinheit_B"
    },
    "id": "ProjEST_move_to_auspresseinheit_B_23",
    "joint_names": [
        "shoulder_pan_joint",
        "shoulder_lift_joint",
        "elbow_joint",
        "wrist_1_joint",
        "wrist_2_joint",
        "wrist_3_joint"
    ],
    "metrics": {
        "cart_traj_len": 0.564666647430807,
        "distance_elbow_joint": 0.0601829953833084,
        "distance_shoulder_lift_joint": 0.2948726059444535,
        "distance_shoulder_pan_joint": 0.576373942308595,
        "distance_wrist_1_joint": 0.3163903323996883,
        "distance_wrist_2_joint": 0.9973814322018157,
        "distance_wrist_3_joint": 0.004261157169786145,
        "smoothness": 0.0,
        "time": 0.155777233,
        "traj_len": 1.4998208110996616,
        "weighted_distance": 1.8899091365324214
    },
    "planner": "ProjEST",
    "start": {
        "state": {
            "elbow_joint": 2.019306165916698,
            "shoulder_lift_joint": -1.1220205098164344,
            "shoulder_pan_joint": -1.095207207618794,
            "wrist_1_joint": -0.8559671824921639,
            "wrist_2_joint": 0.47596387242952726,
            "wrist_3_joint": 3.159081874673826
        }
    },
    "waypoints": [
        {
            "positions": [
                -1.095207207618794,
                -1.1220205098164344,
                2.019306165916698,
                -0.8559671824921639,
                0.47596387242952726,
                3.159081874673826
            ]
        },
        {
            "positions": [
                -1.191269531336893,
                -1.17116594414051,
                2.0092756666861464,
                -0.8032354604255492,
                0.6421941111298299,
                3.158371681812195
            ]
        },
        {
            "positions": [
                -1.2873318550549924,
                -1.2203113784645856,
                1.999245167455595,
                -0.7505037383589345,
                0.8084243498301324,
                3.1576614889505636
            ]
        },
        {
            "positions": [
                -1.3833941787730915,
                -1.2694568127886612,
                1.9892146682250438,
                -0.6977720162923198,
                0.9746545885304352,
                3.1569512960889328
            ]
        },
        {
            "positions": [
                -1.4794565024911905,
                -1.3186022471127368,
                1.9791841689944925,
                -0.645040294225705,
                1.1408848272307377,
                3.156241103227302
            ]
        },
        {
            "positions": [
                -1.5755188262092898,
                -1.3677476814368124,
                1.969153669763941,
                -0.5923085721590903,
                1.3071150659310404,
                3.1555309103656706
            ]
        },
        {
            "positions": [
                -1.671581149927389,
                -1.416893115760888,
                1.9591231705333896,
                -0.5395768500924756,
                1.473345304631343,
                3.1548207175040397
            ]
        }
    ]
}