{
    "goal": {
        "global_pose": {
            "orientation": {
                "w": 0.5084816217422485,
                "x": -0.49083608388900757,
                "y": 0.5182115435600281,
                "z": -0.4816462993621826
            },
            "position": {
                "x": 0.5540239810943604,
                "y": 0.030875300988554955,
                "z": 0.16403168439865112
            }
        },
        "name": "move_to_storage_A"
    },
    "id": "ProjEST_move_to_storage_A_87",
    "joint_names": [
        "shoulder_pan_joint",
        "shoulder_lift_joint",
        "elbow_joint",
        "wrist_1_joint",
        "wrist_2_joint",
        "wrist_3_joint"
    ],
    "metrics": {
        "cart_traj_len": 0.35362653263719745,
        "distance_elbow_joint": 0.4490559721947385,
        "distance_shoulder_lift_joint": 0.23386186522707408,
        "distance_shoulder_pan_joint": 0.4637455369571991,
        "distance_wrist_1_joint": 0.23874281104590367,
        "distance_wrist_2_joint": 1.093847516943629,
        "distance_wrist_3_joint": 0.10489469859587652,
        "smoothness": 2.4424906540308274e-15,
        "time": 0.067595518,
        "traj_len": 1.6075286625638812,
        "weighted_distance": 2.03138576497565
    },
    "planner": "ProjEST",
    "start": {
        "state": {
            "elbow_joint": 1.9715474177455299,
            "shoulder_lift_joint": -1.139484666580328,
            "shoulder_pan_joint": 0.12281154398918248,
            "wrist_1_joint": -0.7804687475355282,
            "wrist_2_joint": 0.12958649657246987,
            "wrist_3_joint": -3.1924925159053466
        }
    },
    "waypoints": [
        {
            "positions": [
                0.12281154398918248,
                -1.139484666580328,
                1.9715474177455299,
                -0.7804687475355282,
                0.12958649657246987,
                -3.1924925159053466
            ]
        },
        {
            "positions": [
                0.056562181566725475,
                -1.17289350446991,
                2.035698270916207,
                -0.8145748633992287,
                0.2858504275644169,
                -3.1775075589630783
            ]
        },
        {
            "positions": [
                -0.009687180855731531,
                -1.206302342359492,
                2.0998491240868837,
                -0.8486809792629293,
                0.44211435855636394,
                -3.1625226020208106
            ]
        },
        {
            "positions": [
                -0.07593654327818855,
                -1.2397111802490741,
                2.1639999772575607,
                -0.8827870951266298,
                0.598378289548311,
                -3.1475376450785424
            ]
        },
        {
            "positions": [
                -0.14218590570064554,
                -1.273120018138656,
                2.2281508304282376,
                -0.9168932109903303,
                0.754642220540258,
                -3.132552688136274
            ]
        },
        {
            "positions": [
                -0.2084352681231026,
                -1.306528856028238,
                2.2923016835989145,
                -0.9509993268540309,
                0.9109061515322051,
                -3.117567731194006
            ]
        },
        {
            "positions": [
                -0.2746846305455596,
                -1.33993769391782,
                2.3564525367695914,
                -0.9851054427177313,
                1.067170082524152,
                -3.1025827742517382
            ]
        },
        {
            "positions": [
                -0.34093399296801663,
                -1.373346531807402,
                2.4206033899402684,
                -1.0192115585814319,
                1.223434013516099,
                -3.08759781730947
            ]
        }
    ]
}