{
    "goal": {
        "global_pose": {
            "orientation": {
                "w": 0.7031023480610252,
                "x": -0.7110244013736278,
                "y": 0.0077485991402295624,
                "z": 0.005598929693374583
            },
            "position": {
                "x": -0.8841497679147869,
                "y": 0.44412534475326537,
                "z": 0.3711530566215515
            }
        },
        "name": "move_to_auspresseinheit_D"
    },
    "id": "ProjEST_move_to_auspresseinheit_D_36",
    "joint_names": [
        "shoulder_pan_joint",
        "shoulder_lift_joint",
        "elbow_joint",
        "wrist_1_joint",
        "wrist_2_joint",
        "wrist_3_joint"
    ],
    "metrics": {
        "cart_traj_len": 0.8896480738457544,
        "distance_elbow_joint": 0.47821434987906075,
        "distance_shoulder_lift_joint": 0.28833591302998673,
        "distance_shoulder_pan_joint": 0.2619788394270488,
        "distance_wrist_1_joint": 3.3417977539828816,
        "distance_wrist_2_joint": 3.6551522994076175,
        "distance_wrist_3_joint": 3.1308235604818573,
        "smoothness": 0.0144311048798684,
        "time": 2.140177983,
        "traj_len": 3.340105195380596,
        "weighted_distance": 4.9411435812535
    },
    "planner": "ProjEST",
    "start": {
        "state": {
            "elbow_joint": 1.8268400409724999,
            "shoulder_lift_joint": -1.0144045787793008,
            "shoulder_pan_joint": 2.6280239544362485,
            "wrist_1_joint": -0.790705565816056,
            "wrist_2_joint": 1.0573557467365533,
            "wrist_3_joint": 3.1851377467193758
        }
    },
    "waypoints": [
        {
            "positions": [
                2.6280239544362485,
                -1.0144045787793008,
                1.8268400409724999,
                -0.790705565816056,
                1.0573557467365533,
                3.1851377467193758
            ]
        },
        {
            "positions": [
                2.6325427652664137,
                -1.009291379272665,
                1.8119261503206041,
                -0.6677826745967215,
                0.9233043276274814,
                3.071056130141545
            ]
        },
        {
            "positions": [
                2.6370615760965794,
                -1.0041781797660292,
                1.7970122596687084,
                -0.5448597833773869,
                0.7892529085184095,
                2.956974513563714
            ]
        },
        {
            "positions": [
                2.6415803869267447,
                -0.9990649802593933,
                1.7820983690168126,
                -0.42193689215805236,
                0.6552014894093376,
                2.8428928969858833
            ]
        },
        {
            "positions": [
                2.6460991977569104,
                -0.9939517807527575,
                1.767184478364917,
                -0.29901400093871777,
                0.5211500703002657,
                2.7288112804080527
            ]
        },
        {
            "positions": [
                2.6506180085870756,
                -0.9888385812461216,
                1.7522705877130214,
                -0.17609110971938324,
                0.3870986511911939,
                2.614729663830222
            ]
        },
        {
            "positions": [
                2.655136819417241,
                -0.9837253817394858,
                1.7373566970611256,
                -0.053168218500048714,
                0.253047232082122,
                2.5006480472523913
            ]
        },
        {
            "positions": [
                2.6596556302474066,
                -0.97861218223285,
                1.7224428064092299,
                0.06975467271928582,
                0.11899581297305017,
                2.38656643067456
            ]
        },
        {
            "positions": [
                2.664174441077572,
                -0.973498982726214,
                1.7075289157573341,
                0.19267756393862046,
                -0.01505560613602186,
                2.2724848140967295
            ]
        },
        {
            "positions": [
                2.668693251907737,
                -0.9683857832195782,
                1.6926150251054384,
                0.315600455157955,
                -0.14910702524509367,
                2.158403197518899
            ]
        },
        {
            "positions": [
                2.673212062737903,
                -0.9632725837129423,
                1.6777011344535429,
                0.4385233463772895,
                -0.2831584443541655,
                2.0443215809410678
            ]
        },
        {
            "positions": [
                2.677730873568068,
                -0.9581593842063065,
                1.662787243801647,
                0.561446237596624,
                -0.4172098634632373,
                1.9302399643632373
            ]
        },
        {
            "positions": [
                2.6822496843982337,
                -0.9530461846996707,
                1.6478733531497514,
                0.6843691288159586,
                -0.5512612825723093,
                1.8161583477854064
            ]
        },
        {
            "positions": [
                2.686768495228399,
                -0.9479329851930349,
                1.6329594624978556,
                0.8072920200352931,
                -0.6853127016813811,
                1.7020767312075757
            ]
        },
        {
            "positions": [
                2.6912873060585643,
                -0.942819785686399,
                1.6180455718459599,
                0.9302149112546276,
                -0.819364120790453,
                1.587995114629745
            ]
        },
        {
            "positions": [
                2.69580611688873,
                -0.9377065861797632,
                1.6031316811940641,
                1.053137802473962,
                -0.9534155398995248,
                1.4739134980519144
            ]
        },
        {
            "positions": [
                2.700324927718895,
                -0.9325933866731273,
                1.5882177905421684,
                1.176060693693297,
                -1.087466959008597,
                1.3598318814740833
            ]
        },
        {
            "positions": [
                2.704843738549061,
                -0.9274801871664915,
                1.5733038998902726,
                1.2989835849126312,
                -1.2215183781176688,
                1.2457502648962526
            ]
        },
        {
            "positions": [
                2.709362549379226,
                -0.9223669876598557,
                1.5583900092383771,
                1.421906476131966,
                -1.3555697972267406,
                1.131668648318422
            ]
        },
        {
            "positions": [
                2.7138813602093914,
                -0.9172537881532199,
                1.5434761185864814,
                1.5448293673513003,
                -1.4896212163358125,
                1.0175870317405913
            ]
        },
        {
            "positions": [
                2.718400171039557,
                -0.912140588646584,
                1.5285622279345856,
                1.667752258570635,
                -1.6236726354448843,
                0.9035054151627602
            ]
        },
        {
            "positions": [
                2.7229189818697224,
                -0.9070273891399482,
                1.5136483372826899,
                1.7906751497899693,
                -1.757724054553956,
                0.7894237985849295
            ]
        },
        {
            "positions": [
                2.7274377926998876,
                -0.9019141896333123,
                1.4987344466307944,
                1.913598041009304,
                -1.891775473663028,
                0.6753421820070988
            ]
        },
        {
            "positions": [
                2.7319566035300533,
                -0.8968009901266765,
                1.4838205559788986,
                2.0365209322286386,
                -2.0258268927720997,
                0.5612605654292682
            ]
        },
        {
            "positions": [
                2.7364754143602186,
                -0.8916877906200407,
                1.4689066653270029,
                2.1594438234479734,
                -2.159878311881172,
                0.44717894885143705
            ]
        },
        {
            "positions": [
                2.7409942251903843,
                -0.8865745911134048,
                1.4539927746751071,
                2.282366714667308,
                -2.2939297309902438,
                0.3330973322736064
            ]
        },
        {
            "positions": [
                2.7455130360205495,
                -0.881461391606769,
                1.4390788840232114,
                2.4052896058866424,
                -2.4279811500993156,
                0.21901571569577566
            ]
        },
        {
            "positions": [
                2.6973497834063003,
                -0.8296638163209507,
                1.4089278197132873,
                2.4538904666467034,
                -2.4845862842898985,
                0.16411520587635675
            ]
        },
        {
            "positions": [
                2.649186530792051,
                -0.7778662410351324,
                1.3787767554033632,
                2.5024913274067644,
                -2.5411914184804814,
                0.10921469605693784
            ]
        },
        {
            "positions": [
                2.6010232781778018,
                -0.7260686657493141,
                1.348625691093439,
                2.5510921881668254,
                -2.5977965526710642,
                0.05431418623751894
            ]
        }
    ]
}