{
    "goal": {
        "global_pose": {
            "orientation": {
                "w": 0.5084816217422485,
                "x": -0.49083608388900757,
                "y": 0.5182115435600281,
                "z": -0.4816462993621826
            },
            "position": {
                "x": 0.5540239810943604,
                "y": 0.030875300988554955,
                "z": 0.16403168439865112
            }
        },
        "name": "move_to_storage_A"
    },
    "id": "ProjEST_move_to_storage_A_10",
    "joint_names": [
        "shoulder_pan_joint",
        "shoulder_lift_joint",
        "elbow_joint",
        "wrist_1_joint",
        "wrist_2_joint",
        "wrist_3_joint"
    ],
    "metrics": {
        "cart_traj_len": 0.3520267090152152,
        "distance_elbow_joint": 0.45163372419554415,
        "distance_shoulder_lift_joint": 0.23433496923784514,
        "distance_shoulder_pan_joint": 0.4608921537551215,
        "distance_wrist_1_joint": 0.2522718581169999,
        "distance_wrist_2_joint": 1.0942919329383756,
        "distance_wrist_3_joint": 0.09636950711442527,
        "smoothness": 2.2204460668324854e-16,
        "time": 0.035201004,
        "traj_len": 1.6092837367469763,
        "weighted_distance": 2.032017950374095
    },
    "planner": "ProjEST",
    "start": {
        "state": {
            "elbow_joint": 1.9715474177455299,
            "shoulder_lift_joint": -1.139484666580328,
            "shoulder_pan_joint": 0.12281154398918248,
            "wrist_1_joint": -0.7804687475355282,
            "wrist_2_joint": 0.12958649657246987,
            "wrist_3_joint": -3.1924925159053466
        }
    },
    "waypoints": [
        {
            "positions": [
                0.12281154398918248,
                -1.139484666580328,
                1.9715474177455299,
                -0.7804687475355282,
                0.12958649657246987,
                -3.1924925159053466
            ]
        },
        {
            "positions": [
                0.05696980773845084,
                -1.172961090757163,
                2.036066521202036,
                -0.8165075844093853,
                0.2859139155636664,
                -3.178725443460429
            ]
        },
        {
            "positions": [
                -0.008871928512280802,
                -1.206437514933998,
                2.1005856246585424,
                -0.8525464212832424,
                0.4422413345548629,
                -3.1649583710155107
            ]
        },
        {
            "positions": [
                -0.07471366476301244,
                -1.2399139391108331,
                2.1651047281150486,
                -0.8885852581570995,
                0.5985687535460594,
                -3.151191298570593
            ]
        },
        {
            "positions": [
                -0.14055540101374409,
                -1.273390363287668,
                2.229623831571555,
                -0.9246240950309568,
                0.754896172537256,
                -3.137424226125675
            ]
        },
        {
            "positions": [
                -0.20639713726447573,
                -1.306866787464503,
                2.2941429350280615,
                -0.9606629319048139,
                0.9112235915284527,
                -3.123657153680757
            ]
        },
        {
            "positions": [
                -0.27223887351520737,
                -1.340343211641338,
                2.358662038484568,
                -0.996701768778671,
                1.067551010519649,
                -3.109890081235839
            ]
        },
        {
            "positions": [
                -0.338080609765939,
                -1.3738196358181731,
                2.423181141941074,
                -1.0327406056525281,
                1.2238784295108456,
                -3.0961230087909213
            ]
        }
    ]
}