{
    "goal": {
        "global_pose": {
            "orientation": {
                "w": 0.005598929693374612,
                "x": 0.007748599140229565,
                "y": 0.7110244013736278,
                "z": -0.7031023480610252
            },
            "position": {
                "x": -0.8858502320852131,
                "y": -0.7141253447532654,
                "z": 0.3711530566215515
            }
        },
        "name": "move_to_auspresseinheit_C"
    },
    "id": "ProjEST_move_to_auspresseinheit_C_69",
    "joint_names": [
        "shoulder_pan_joint",
        "shoulder_lift_joint",
        "elbow_joint",
        "wrist_1_joint",
        "wrist_2_joint",
        "wrist_3_joint"
    ],
    "metrics": {
        "cart_traj_len": 0.49184486100507885,
        "distance_elbow_joint": 0.98782595047696,
        "distance_shoulder_lift_joint": 0.318863729526077,
        "distance_shoulder_pan_joint": 0.25624290694844776,
        "distance_wrist_1_joint": 0.6611273979538318,
        "distance_wrist_2_joint": 1.3067116976592248,
        "distance_wrist_3_joint": 0.054937113542713245,
        "smoothness": 0.0,
        "time": 0.045626055,
        "traj_len": 1.8935967881540292,
        "weighted_distance": 2.3797945539070673
    },
    "planner": "ProjEST",
    "start": {
        "state": {
            "elbow_joint": 1.752795957773711,
            "shoulder_lift_joint": -0.9740617694225064,
            "shoulder_pan_joint": -2.967991417825858,
            "wrist_1_joint": -0.7595177689806859,
            "wrist_2_joint": 1.7443932448377395,
            "wrist_3_joint": 3.199131542505932
        }
    },
    "waypoints": [
        {
            "positions": [
                -2.967991417825858,
                -0.9740617694225064,
                1.752795957773711,
                -0.7595177689806859,
                1.7443932448377395,
                3.199131542505932
            ]
        },
        {
            "positions": [
                -2.9423671271310132,
                -0.9421753964698988,
                1.6540133627260152,
                -0.6934050291853027,
                1.613722075071817,
                3.1936378311516607
            ]
        },
        {
            "positions": [
                -2.9167428364361685,
                -0.910289023517291,
                1.555230767678319,
                -0.6272922893899195,
                1.4830509053058945,
                3.1881441197973897
            ]
        },
        {
            "positions": [
                -2.8911185457413238,
                -0.8784026505646834,
                1.456448172630623,
                -0.5611795495945364,
                1.352379735539972,
                3.182650408443118
            ]
        },
        {
            "positions": [
                -2.865494255046479,
                -0.8465162776120756,
                1.3576655775829272,
                -0.4950668097991532,
                1.2217085657740494,
                3.1771566970888467
            ]
        },
        {
            "positions": [
                -2.8398699643516343,
                -0.8146299046594679,
                1.2588829825352312,
                -0.42895407000377,
                1.0910373960081272,
                3.1716629857345753
            ]
        },
        {
            "positions": [
                -2.814245673656789,
                -0.7827435317068603,
                1.1601003874875353,
                -0.3628413302083868,
                0.9603662262422047,
                3.1661692743803043
            ]
        },
        {
            "positions": [
                -2.7886213829619444,
                -0.7508571587542525,
                1.0613177924398391,
                -0.2967285904130037,
                0.8296950564762822,
                3.160675563026033
            ]
        },
        {
            "positions": [
                -2.7629970922670997,
                -0.7189707858016448,
                0.9625351973921431,
                -0.23061585061762047,
                0.6990238867103595,
                3.1551818516717614
            ]
        },
        {
            "positions": [
                -2.737372801572255,
                -0.6870844128490372,
                0.8637526023444471,
                -0.16450311082223723,
                0.5683527169444371,
                3.1496881403174903
            ]
        },
        {
            "positions": [
                -2.71174851087741,
                -0.6551980398964294,
                0.7649700072967511,
                -0.09839037102685409,
                0.4376815471785147,
                3.144194428963219
            ]
        }
    ]
}