{
    "goal": {
        "global_pose": {
            "orientation": {
                "w": 0.005598929693374612,
                "x": 0.007748599140229565,
                "y": 0.7110244013736278,
                "z": -0.7031023480610252
            },
            "position": {
                "x": 0.1141497679147869,
                "y": -0.7141253447532654,
                "z": 0.3711530566215515
            }
        },
        "name": "move_to_auspresseinheit_B"
    },
    "id": "ProjEST_move_to_auspresseinheit_B_124",
    "joint_names": [
        "shoulder_pan_joint",
        "shoulder_lift_joint",
        "elbow_joint",
        "wrist_1_joint",
        "wrist_2_joint",
        "wrist_3_joint"
    ],
    "metrics": {
        "cart_traj_len": 0.5648149827848199,
        "distance_elbow_joint": 0.059648448713173874,
        "distance_shoulder_lift_joint": 0.2951423483801774,
        "distance_shoulder_pan_joint": 0.5791476130634226,
        "distance_wrist_1_joint": 0.3199639767788769,
        "distance_wrist_2_joint": 0.9876176062748352,
        "distance_wrist_3_joint": 0.0052375748874227135,
        "smoothness": 5.075305255429287e-16,
        "time": 0.21290920800000002,
        "traj_len": 1.498918799701274,
        "weighted_distance": 1.8880715825747885
    },
    "planner": "ProjEST",
    "start": {
        "state": {
            "elbow_joint": 2.019306165916698,
            "shoulder_lift_joint": -1.1220205098164344,
            "shoulder_pan_joint": -1.095207207618794,
            "wrist_1_joint": -0.8559671824921639,
            "wrist_2_joint": 0.47596387242952726,
            "wrist_3_joint": 3.159081874673826
        }
    },
    "waypoints": [
        {
            "positions": [
                -1.095207207618794,
                -1.1220205098164344,
                2.019306165916698,
                -0.8559671824921639,
                0.47596387242952726,
                3.159081874673826
            ]
        },
        {
            "positions": [
                -1.191731809796031,
                -1.1712109012131307,
                2.0093647577978357,
                -0.8026398530290177,
                0.6405668068086665,
                3.158208945525922
            ]
        },
        {
            "positions": [
                -1.2882564119732682,
                -1.2204012926098269,
                1.9994233496789733,
                -0.7493125235658715,
                0.8051697411878056,
                3.1573360163780184
            ]
        },
        {
            "positions": [
                -1.3847810141505053,
                -1.2695916840065231,
                1.989481941560111,
                -0.6959851941027254,
                0.9697726755669449,
                3.1564630872301143
            ]
        },
        {
            "positions": [
                -1.4813056163277423,
                -1.3187820754032193,
                1.9795405334412488,
                -0.6426578646395793,
                1.134375609946084,
                3.1555901580822106
            ]
        },
        {
            "positions": [
                -1.5778302185049795,
                -1.3679724667999156,
                1.9695991253223863,
                -0.5893305351764331,
                1.2989785443252233,
                3.154717228934307
            ]
        },
        {
            "positions": [
                -1.6743548206822165,
                -1.4171628581966118,
                1.959657717203524,
                -0.536003205713287,
                1.4635814787043624,
                3.153844299786403
            ]
        }
    ]
}