{
    "goal": {
        "global_pose": {
            "orientation": {
                "w": -0.00223480608172531,
                "x": 0.0024358444001904467,
                "y": 0.7094548369677653,
                "z": -0.704743149386269
            },
            "position": {
                "x": 0.6205249238014221,
                "y": -0.6371506643295288,
                "z": 0.19426114857196808
            }
        },
        "name": "move_to_magneteinheit_B"
    },
    "id": "ProjEST_move_to_magneteinheit_B_116",
    "joint_names": [
        "shoulder_pan_joint",
        "shoulder_lift_joint",
        "elbow_joint",
        "wrist_1_joint",
        "wrist_2_joint",
        "wrist_3_joint"
    ],
    "metrics": {
        "cart_traj_len": 3.231069739196859,
        "distance_elbow_joint": 4.057348618187113,
        "distance_shoulder_lift_joint": 0.5739838648924886,
        "distance_shoulder_pan_joint": 2.393425409605787,
        "distance_wrist_1_joint": 1.8667000619218994,
        "distance_wrist_2_joint": 0.46885733182950223,
        "distance_wrist_3_joint": 3.1346185556104462,
        "smoothness": 0.20091001248872478,
        "time": 4.983838152,
        "traj_len": 3.5348173703951438,
        "weighted_distance": 4.593444061596868
    },
    "planner": "ProjEST",
    "start": {
        "state": {
            "elbow_joint": 2.3935871308073637,
            "shoulder_lift_joint": -1.9085141043777403,
            "shoulder_pan_joint": 0.7066247067284167,
            "wrist_1_joint": -0.46782909355067076,
            "wrist_2_joint": 0.7096259085804283,
            "wrist_3_joint": -3.1358149275257428
        }
    },
    "waypoints": [
        {
            "positions": [
                0.7066247067284167,
                -1.9085141043777403,
                2.3935871308073637,
                -0.46782909355067076,
                0.7096259085804283,
                -3.1358149275257428
            ]
        },
        {
            "positions": [
                0.688038508993455,
                -1.9402851789021653,
                2.36139453491138,
                -0.35029258036671884,
                0.6717541726864996,
                -2.9779944776271967
            ]
        },
        {
            "positions": [
                0.6694523112584932,
                -1.9720562534265906,
                2.3292019390153955,
                -0.23275606718276692,
                0.633882436792571,
                -2.8201740277286507
            ]
        },
        {
            "positions": [
                0.6508661135235315,
                -2.003827327951016,
                2.297009343119411,
                -0.115219553998815,
                0.5960107008986422,
                -2.6623535778301046
            ]
        },
        {
            "positions": [
                0.6322799157885698,
                -2.0355984024754408,
                2.2648167472234273,
                0.002316959185136913,
                0.5581389650047135,
                -2.5045331279315586
            ]
        },
        {
            "positions": [
                0.6136937180536081,
                -2.067369476999866,
                2.2326241513274434,
                0.11985347236908889,
                0.5202672291107848,
                -2.3467126780330125
            ]
        },
        {
            "positions": [
                0.5951075203186463,
                -2.0991405515242914,
                2.200431555431459,
                0.23738998555304072,
                0.48239549321685615,
                -2.1888922281344665
            ]
        },
        {
            "positions": [
                0.6938999079510005,
                -2.100394723353198,
                2.036062670059888,
                0.27894227856033477,
                0.48782419713636554,
                -2.1099257770698263
            ]
        },
        {
            "positions": [
                0.7926922955833546,
                -2.1016488951821044,
                1.8716937846883166,
                0.32049457156762884,
                0.4932529010558749,
                -2.030959326005186
            ]
        },
        {
            "positions": [
                0.8914846832157088,
                -2.1029030670110105,
                1.7073248993167454,
                0.3620468645749229,
                0.4986816049753843,
                -1.9519928749405457
            ]
        },
        {
            "positions": [
                0.990277070848063,
                -2.104157238839917,
                1.542956013945174,
                0.403599157582217,
                0.5041103088948936,
                -1.8730264238759053
            ]
        },
        {
            "positions": [
                1.089069458480417,
                -2.1054114106688235,
                1.3785871285736027,
                0.445151450589511,
                0.5095390128144031,
                -1.7940599728112652
            ]
        },
        {
            "positions": [
                1.1878618461127712,
                -2.10666558249773,
                1.2142182432020314,
                0.48670374359680507,
                0.5149677167339124,
                -1.715093521746625
            ]
        },
        {
            "positions": [
                1.2866542337451254,
                -2.1079197543266366,
                1.0498493578304602,
                0.5282560366040991,
                0.5203964206534218,
                -1.6361270706819848
            ]
        },
        {
            "positions": [
                1.3854466213774796,
                -2.109173926155543,
                0.8854804724588887,
                0.5698083296113933,
                0.5258251245729312,
                -1.5571606196173444
            ]
        },
        {
            "positions": [
                1.4842390090098339,
                -2.110428097984449,
                0.7211115870873175,
                0.6113606226186873,
                0.5312538284924405,
                -1.478194168552704
            ]
        },
        {
            "positions": [
                1.583031396642188,
                -2.1116822698133557,
                0.5567427017157462,
                0.6529129156259813,
                0.53668253241195,
                -1.3992277174880638
            ]
        },
        {
            "positions": [
                1.6818237842745423,
                -2.1129364416422622,
                0.392373816344175,
                0.6944652086332754,
                0.5421112363314593,
                -1.3202612664234237
            ]
        },
        {
            "positions": [
                1.780616171906896,
                -2.1141906134711688,
                0.22800493097260377,
                0.7360175016405694,
                0.5475399402509686,
                -1.2412948153587835
            ]
        },
        {
            "positions": [
                1.8794085595392507,
                -2.1154447853000753,
                0.06363604560103253,
                0.7775697946478636,
                0.5529686441704781,
                -1.162328364294143
            ]
        },
        {
            "positions": [
                1.9782009471716044,
                -2.1166989571289814,
                -0.1007328397705387,
                0.8191220876551576,
                0.5583973480899874,
                -1.083361913229503
            ]
        },
        {
            "positions": [
                2.0769933348039586,
                -2.117953128957888,
                -0.26510172514210995,
                0.8606743806624516,
                0.5638260520094968,
                -1.0043954621648628
            ]
        },
        {
            "positions": [
                2.175785722436313,
                -2.1192073007867944,
                -0.4294706105136816,
                0.9022266736697457,
                0.5692547559290062,
                -0.9254290111002224
            ]
        },
        {
            "positions": [
                2.274578110068667,
                -2.120461472615701,
                -0.5938394958852524,
                0.9437789666770398,
                0.5746834598485155,
                -0.8464625600355822
            ]
        },
        {
            "positions": [
                2.3733704977010213,
                -2.1217156444446075,
                -0.7582083812568241,
                0.9853312596843339,
                0.580112163768025,
                -0.7674961089709418
            ]
        },
        {
            "positions": [
                2.4721628853333755,
                -2.122969816273514,
                -0.9225772666283953,
                1.026883552691628,
                0.5855408676875343,
                -0.6885296579063016
            ]
        },
        {
            "positions": [
                2.5709552729657297,
                -2.12422398810242,
                -1.0869461519999666,
                1.068435845698922,
                0.5909695716070437,
                -0.6095632068416614
            ]
        },
        {
            "positions": [
                2.669747660598084,
                -2.1254781599313266,
                -1.2513150373715378,
                1.109988138706216,
                0.5963982755265531,
                -0.530596755777021
            ]
        },
        {
            "positions": [
                2.768540048230438,
                -2.126732331760233,
                -1.415683922743109,
                1.15154043171351,
                0.6018269794460624,
                -0.45163030471238075
            ]
        },
        {
            "positions": [
                2.7474045503696183,
                -2.1928284920848036,
                -1.5159708562351981,
                1.1768309505151733,
                0.5663424388326663,
                -0.37527117004708155
            ]
        },
        {
            "positions": [
                2.7262690525087985,
                -2.2589246524093745,
                -1.6162577897272872,
                1.2021214693168365,
                0.5308578982192702,
                -0.29891203538178235
            ]
        },
        {
            "positions": [
                2.699172386688181,
                -2.3480530604633456,
                -1.6394984204518597,
                1.129294326917086,
                0.5088800891802612,
                -0.18103860786742418
            ]
        },
        {
            "positions": [
                2.672075720867563,
                -2.437181468517317,
                -1.6627390511764322,
                1.0564671845173357,
                0.48690228014125203,
                -0.06316518035306601
            ]
        },
        {
            "positions": [
                2.660064352946213,
                -2.482497969270229,
                -1.6637614873797502,
                1.0053719702624442,
                0.47963154920933865,
                -0.001196371915295774
            ]
        }
    ]
}