{
    "goal": {
        "global_pose": {
            "orientation": {
                "w": -0.4816463035849501,
                "x": 0.5182115481033762,
                "y": 0.4908360881923453,
                "z": -0.5084816262002911
            },
            "position": {
                "x": -0.8240239810943604,
                "y": -0.300875300988555,
                "z": 0.16403168439865112
            }
        },
        "name": "move_to_storage_C"
    },
    "id": "ProjEST_move_to_storage_C_1",
    "joint_names": [
        "shoulder_pan_joint",
        "shoulder_lift_joint",
        "elbow_joint",
        "wrist_1_joint",
        "wrist_2_joint",
        "wrist_3_joint"
    ],
    "metrics": {
        "cart_traj_len": 0.5767615527727605,
        "distance_elbow_joint": 0.2560052389091467,
        "distance_shoulder_lift_joint": 0.190282638528255,
        "distance_shoulder_pan_joint": 0.49414539881678987,
        "distance_wrist_1_joint": 0.06562967502738126,
        "distance_wrist_2_joint": 1.0701715267397098,
        "distance_wrist_3_joint": 0.057266742719124686,
        "smoothness": 5.075305295617109e-16,
        "time": 0.405819573,
        "traj_len": 1.460650957874744,
        "weighted_distance": 1.8395205646977006
    },
    "planner": "ProjEST",
    "start": {
        "state": {
            "elbow_joint": 2.010868315001653,
            "shoulder_lift_joint": -1.1634956873357014,
            "shoulder_pan_joint": -2.4736205022346103,
            "wrist_1_joint": -0.8367026794713948,
            "wrist_2_joint": 0.6746043897044093,
            "wrist_3_joint": 3.1335220948105738
        }
    },
    "waypoints": [
        {
            "positions": [
                -2.4736205022346103,
                -1.1634956873357014,
                2.010868315001653,
                -0.8367026794713948,
                0.6746043897044093,
                3.1335220948105738
            ]
        },
        {
            "positions": [
                -2.5559780687040754,
                -1.1317819142476588,
                1.968200775183462,
                -0.8257644003001645,
                0.8529663108276943,
                3.1430665519304277
            ]
        },
        {
            "positions": [
                -2.63833563517354,
                -1.1000681411596165,
                1.9255332353652708,
                -0.8148261211289344,
                1.0313282319509791,
                3.152611009050282
            ]
        },
        {
            "positions": [
                -2.720693201643005,
                -1.068354368071574,
                1.8828656955470797,
                -0.8038878419577041,
                1.209690153074264,
                3.162155466170136
            ]
        },
        {
            "positions": [
                -2.8030507681124703,
                -1.0366405949835313,
                1.8401981557288887,
                -0.7929495627864739,
                1.388052074197549,
                3.17169992328999
            ]
        },
        {
            "positions": [
                -2.885408334581935,
                -1.004926821895489,
                1.7975306159106974,
                -0.7820112836152437,
                1.566413995320834,
                3.1812443804098445
            ]
        },
        {
            "positions": [
                -2.9677659010514,
                -0.9732130488074464,
                1.7548630760925064,
                -0.7710730044440135,
                1.744775916444119,
                3.1907888375296984
            ]
        }
    ]
}