{
    "goal": {
        "global_pose": {
            "orientation": {
                "w": 0.7047431468963623,
                "x": -0.7094548344612122,
                "y": 0.0024358443915843964,
                "z": -0.0022348060738295317
            },
            "position": {
                "x": 0.6094750761985779,
                "y": 0.3671506643295288,
                "z": 0.19426114857196808
            }
        },
        "name": "move_to_magneteinheit_A"
    },
    "id": "ProjEST_move_to_magneteinheit_A_132",
    "joint_names": [
        "shoulder_pan_joint",
        "shoulder_lift_joint",
        "elbow_joint",
        "wrist_1_joint",
        "wrist_2_joint",
        "wrist_3_joint"
    ],
    "metrics": {
        "cart_traj_len": 1.0528625938332508,
        "distance_elbow_joint": 0.3862167894035202,
        "distance_shoulder_lift_joint": 0.36392501153710044,
        "distance_shoulder_pan_joint": 1.240865522523356,
        "distance_wrist_1_joint": 2.2301415166498004,
        "distance_wrist_2_joint": 1.69501433799237,
        "distance_wrist_3_joint": 1.2038861026770653,
        "smoothness": 1.8698493194378823e-16,
        "time": 0.054685631,
        "traj_len": 2.668342047186457,
        "weighted_distance": 3.6678300588739807
    },
    "planner": "ProjEST",
    "start": {
        "state": {
            "elbow_joint": 1.5739458966750683,
            "shoulder_lift_joint": -1.4977259741207325,
            "shoulder_pan_joint": -1.1188672016454206,
            "wrist_1_joint": 1.494575848278785,
            "wrist_2_joint": -1.5706037134824402,
            "wrist_3_joint": -2.0226957942261072
        }
    },
    "waypoints": [
        {
            "positions": [
                -1.1188672016454206,
                -1.4977259741207325,
                1.5739458966750683,
                1.494575848278785,
                -1.5706037134824402,
                -2.0226957942261072
            ]
        },
        {
            "positions": [
                -1.049930228171901,
                -1.477507917924227,
                1.5954023849752639,
                1.3706790973537961,
                -1.4764362502606418,
                -2.089578355485944
            ]
        },
        {
            "positions": [
                -0.9809932546983811,
                -1.4572898617277212,
                1.6168588732754594,
                1.2467823464288073,
                -1.3822687870388435,
                -2.156460916745781
            ]
        },
        {
            "positions": [
                -0.9120562812248614,
                -1.4370718055312157,
                1.6383153615756552,
                1.1228855955038184,
                -1.2881013238170453,
                -2.223343478005618
            ]
        },
        {
            "positions": [
                -0.8431193077513415,
                -1.4168537493347102,
                1.6597718498758507,
                0.9989888445788293,
                -1.193933860595247,
                -2.290226039265455
            ]
        },
        {
            "positions": [
                -0.7741823342778218,
                -1.3966356931382047,
                1.6812283381760462,
                0.8750920936538404,
                -1.0997663973734486,
                -2.357108600525292
            ]
        },
        {
            "positions": [
                -0.705245360804302,
                -1.376417636941699,
                1.7026848264762418,
                0.7511953427288516,
                -1.0055989341516502,
                -2.423991161785129
            ]
        },
        {
            "positions": [
                -0.6363083873307822,
                -1.3561995807451934,
                1.7241413147764373,
                0.6272985918038626,
                -0.9114314709298519,
                -2.490873723044966
            ]
        },
        {
            "positions": [
                -0.5673714138572624,
                -1.335981524548688,
                1.7455978030766328,
                0.5034018408788737,
                -0.8172640077080536,
                -2.557756284304803
            ]
        },
        {
            "positions": [
                -0.4984344403837426,
                -1.3157634683521824,
                1.7670542913768283,
                0.37950508995388477,
                -0.7230965444862553,
                -2.6246388455646397
            ]
        },
        {
            "positions": [
                -0.42949746691022284,
                -1.2955454121556766,
                1.788510779677024,
                0.2556083390288959,
                -0.6289290812644569,
                -2.691521406824477
            ]
        },
        {
            "positions": [
                -0.36056049343670304,
                -1.2753273559591711,
                1.8099672679772196,
                0.13171158810390682,
                -0.5347616180426584,
                -2.758403968084314
            ]
        },
        {
            "positions": [
                -0.29162351996318336,
                -1.2551092997626656,
                1.8314237562774152,
                0.007814837178918177,
                -0.4405941548208603,
                -2.825286529344151
            ]
        },
        {
            "positions": [
                -0.22268654648966357,
                -1.2348912435661599,
                1.8528802445776107,
                -0.11608191374607091,
                -0.3464266915990619,
                -2.892169090603988
            ]
        },
        {
            "positions": [
                -0.15374957301614367,
                -1.2146731873696544,
                1.8743367328778062,
                -0.23997866467105977,
                -0.25225922837726356,
                -2.959051651863825
            ]
        },
        {
            "positions": [
                -0.08481259954262388,
                -1.1944551311731488,
                1.895793221178002,
                -0.36387541559604886,
                -0.1580917651554652,
                -3.0259342131236617
            ]
        },
        {
            "positions": [
                -0.0158756260691042,
                -1.1742370749766433,
                1.9172497094781975,
                -0.4877721665210375,
                -0.06392430193366705,
                -3.0928167743834987
            ]
        },
        {
            "positions": [
                0.05306134740441548,
                -1.1540190187801376,
                1.938706197778393,
                -0.6116689174460264,
                0.030243161288131315,
                -3.1596993356433356
            ]
        },
        {
            "positions": [
                0.12199832087793529,
                -1.133800962583632,
                1.9601626860785886,
                -0.7355656683710153,
                0.12441062450992972,
                -3.2265818969031725
            ]
        }
    ]
}