{
    "goal": {
        "global_pose": {
            "orientation": {
                "w": -0.00223480608172531,
                "x": 0.0024358444001904467,
                "y": 0.7094548369677653,
                "z": -0.704743149386269
            },
            "position": {
                "x": -0.37947507619857795,
                "y": -0.6371506643295288,
                "z": 0.19426114857196808
            }
        },
        "name": "move_to_magneteinheit_C"
    },
    "id": "ProjEST_move_to_magneteinheit_C_144",
    "joint_names": [
        "shoulder_pan_joint",
        "shoulder_lift_joint",
        "elbow_joint",
        "wrist_1_joint",
        "wrist_2_joint",
        "wrist_3_joint"
    ],
    "metrics": {
        "cart_traj_len": 2.162512463440708,
        "distance_elbow_joint": 0.25474914410332783,
        "distance_shoulder_lift_joint": 1.0684334998741352,
        "distance_shoulder_pan_joint": 2.4816532731415464,
        "distance_wrist_1_joint": 0.2985515444373219,
        "distance_wrist_2_joint": 2.3419619808450776,
        "distance_wrist_3_joint": 1.6779916499276104,
        "smoothness": 1.1985394267811567,
        "time": 1.802074989,
        "traj_len": 2.8501475562379257,
        "weighted_distance": 3.7576372785923122
    },
    "planner": "ProjEST",
    "start": {
        "state": {
            "elbow_joint": 1.9565354006590394,
            "shoulder_lift_joint": -1.4165861576513559,
            "shoulder_pan_joint": -1.6717766223277177,
            "wrist_1_joint": -0.5286633288215096,
            "wrist_2_joint": 1.4727565892594296,
            "wrist_3_joint": 3.1593482883155493
        }
    },
    "waypoints": [
        {
            "positions": [
                -1.6717766223277177,
                -1.4165861576513559,
                1.9565354006590394,
                -0.5286633288215096,
                1.4727565892594296,
                3.1593482883155493
            ]
        },
        {
            "positions": [
                -1.5961129906348794,
                -1.4296710335044027,
                1.9465945097316437,
                -0.5256317551262382,
                1.4805784927524293,
                3.097032369748283
            ]
        },
        {
            "positions": [
                -1.5196681683337383,
                -1.4690065045154068,
                1.937295172912718,
                -0.5463471473346236,
                1.3233803649043405,
                3.0175662983224485
            ]
        },
        {
            "positions": [
                -1.4432233460325972,
                -1.508341975526411,
                1.927995836093792,
                -0.567062539543009,
                1.1661822370562516,
                2.938100226896614
            ]
        },
        {
            "positions": [
                -1.366778523731456,
                -1.5476774465374148,
                1.9186964992748665,
                -0.5877779317513945,
                1.0089841092081628,
                2.8586341554707793
            ]
        },
        {
            "positions": [
                -1.290333701430315,
                -1.5870129175484189,
                1.9093971624559407,
                -0.6084933239597798,
                0.8517859813600741,
                2.7791680840449446
            ]
        },
        {
            "positions": [
                -1.2138888791291738,
                -1.626348388559423,
                1.900097825637015,
                -0.6292087161681653,
                0.6945878535119854,
                2.69970201261911
            ]
        },
        {
            "positions": [
                -1.1374440568280326,
                -1.665683859570427,
                1.890798488818089,
                -0.6499241083765508,
                0.5373897256638966,
                2.6202359411932754
            ]
        },
        {
            "positions": [
                -1.0609992345268915,
                -1.7050193305814312,
                1.8814991519991633,
                -0.6706395005849362,
                0.3801915978158079,
                2.540769869767441
            ]
        },
        {
            "positions": [
                -0.9845544122257504,
                -1.744354801592435,
                1.8721998151802377,
                -0.6913548927933216,
                0.22299346996771896,
                2.461303798341606
            ]
        },
        {
            "positions": [
                -0.9081095899246092,
                -1.7836902726034392,
                1.862900478361312,
                -0.7120702850017071,
                0.06579534211963023,
                2.3818377269157716
            ]
        },
        {
            "positions": [
                -0.8316647676234681,
                -1.8230257436144433,
                1.853601141542386,
                -0.7327856772100925,
                -0.09140278572845856,
                2.302371655489937
            ]
        },
        {
            "positions": [
                -0.9808958056632223,
                -1.762844478713439,
                1.8674024947229928,
                -0.7408189543608376,
                -0.022115622194713996,
                2.3770093843173914
            ]
        },
        {
            "positions": [
                -1.1301268437029766,
                -1.7026632138124345,
                1.8812038479035997,
                -0.7488522315115826,
                0.047171541339030565,
                2.451647113144846
            ]
        },
        {
            "positions": [
                -1.279357881742731,
                -1.6424819489114302,
                1.8950052010842064,
                -0.7568855086623278,
                0.11645870487277513,
                2.5262848419723
            ]
        },
        {
            "positions": [
                -1.4285889197824853,
                -1.582300684010426,
                1.9088065542648132,
                -0.7649187858130729,
                0.1857458684065197,
                2.6009225707997543
            ]
        },
        {
            "positions": [
                -1.5778199578222392,
                -1.5221194191094216,
                1.9226079074454199,
                -0.772952062963818,
                0.2550330319402643,
                2.6755602996272088
            ]
        },
        {
            "positions": [
                -1.7270509958619935,
                -1.461938154208417,
                1.9364092606260268,
                -0.7809853401145631,
                0.3243201954740088,
                2.750198028454663
            ]
        },
        {
            "positions": [
                -1.8762820339017479,
                -1.4017568893074128,
                1.9502106138066335,
                -0.7890186172653082,
                0.3936073590077534,
                2.8248357572821177
            ]
        },
        {
            "positions": [
                -2.025513071941502,
                -1.3415756244064085,
                1.9640119669872402,
                -0.7970518944160534,
                0.46289452254149793,
                2.8994734861095717
            ]
        },
        {
            "positions": [
                -2.1747441099812566,
                -1.2813943595054043,
                1.9778133201678472,
                -0.8050851715667985,
                0.5321816860752426,
                2.974111214937026
            ]
        },
        {
            "positions": [
                -2.3239751480210105,
                -1.2212130946044,
                1.9916146733484539,
                -0.8131184487175436,
                0.601468849608987,
                3.0487489437644806
            ]
        },
        {
            "positions": [
                -2.473206186060765,
                -1.1610318297033955,
                2.0054160265290606,
                -0.8211517258682887,
                0.6707560131427316,
                3.123386672591935
            ]
        }
    ]
}