{
    "goal": {
        "global_pose": {
            "orientation": {
                "w": -0.4816463035849501,
                "x": 0.5182115481033762,
                "y": 0.4908360881923453,
                "z": -0.5084816262002911
            },
            "position": {
                "x": -0.8240239810943604,
                "y": 0.19912469901144506,
                "z": 0.16403168439865112
            }
        },
        "name": "move_to_storage_D"
    },
    "id": "ProjEST_move_to_storage_D_75",
    "joint_names": [
        "shoulder_pan_joint",
        "shoulder_lift_joint",
        "elbow_joint",
        "wrist_1_joint",
        "wrist_2_joint",
        "wrist_3_joint"
    ],
    "metrics": {
        "cart_traj_len": 3.599964229036517,
        "distance_elbow_joint": 4.208430358556318,
        "distance_shoulder_lift_joint": 1.2652346785411175,
        "distance_shoulder_pan_joint": 2.8138150639679727,
        "distance_wrist_1_joint": 2.2668725364108884,
        "distance_wrist_2_joint": 0.8971529699739693,
        "distance_wrist_3_joint": 3.171763431320692,
        "smoothness": 0.15716560703992863,
        "time": 0.137398605,
        "traj_len": 3.8240383155469244,
        "weighted_distance": 4.912313244063046
    },
    "planner": "ProjEST",
    "start": {
        "state": {
            "elbow_joint": -2.384821997420982,
            "shoulder_lift_joint": -2.2788054674887404,
            "shoulder_pan_joint": -0.18546946417610016,
            "wrist_1_joint": 1.4845937964226739,
            "wrist_2_joint": 0.1789877726866377,
            "wrist_3_joint": 0.03710572555276528
        }
    },
    "waypoints": [
        {
            "positions": [
                -0.18546946417610016,
                -2.2788054674887404,
                -2.384821997420982,
                1.4845937964226739,
                0.1789877726866377,
                0.03710572555276528
            ]
        },
        {
            "positions": [
                -0.15436795535133213,
                -2.2560209227993626,
                -2.374485510078368,
                1.4791248424750212,
                0.16807151198816822,
                0.020146160756346867
            ]
        },
        {
            "positions": [
                -0.07138698615013608,
                -2.2245521567159074,
                -2.2467642410543367,
                1.4273938747455923,
                0.1803692989760151,
                0.10517687829880495
            ]
        },
        {
            "positions": [
                0.011593983051059964,
                -2.1930833906324523,
                -2.1190429720303054,
                1.3756629070161637,
                0.192667085963862,
                0.19020759584126304
            ]
        },
        {
            "positions": [
                0.09457495225225598,
                -2.161614624548997,
                -1.9913217030062742,
                1.3239319392867348,
                0.2049648729517089,
                0.27523831338372107
            ]
        },
        {
            "positions": [
                0.17755592145345206,
                -2.130145858465542,
                -1.863600433982243,
                1.272200971557306,
                0.2172626599395558,
                0.3602690309261792
            ]
        },
        {
            "positions": [
                0.2605368906546481,
                -2.0986770923820868,
                -1.7358791649582115,
                1.2204700038278773,
                0.22956044692740268,
                0.44529974846863724
            ]
        },
        {
            "positions": [
                0.3435178598558441,
                -2.0672083262986316,
                -1.6081578959341802,
                1.1687390360984484,
                0.24185823391524958,
                0.5303304660110953
            ]
        },
        {
            "positions": [
                0.4264988290570401,
                -2.0357395602151764,
                -1.480436626910149,
                1.1170080683690196,
                0.25415602090309647,
                0.6153611835535534
            ]
        },
        {
            "positions": [
                0.5094797982582362,
                -2.0042707941317213,
                -1.3527153578861177,
                1.0652771006395907,
                0.26645380789094336,
                0.7003919010960116
            ]
        },
        {
            "positions": [
                0.5924607674594322,
                -1.972802028048266,
                -1.2249940888620865,
                1.013546132910162,
                0.27875159487879025,
                0.7854226186384695
            ]
        },
        {
            "positions": [
                0.6754417366606282,
                -1.941333261964811,
                -1.097272819838055,
                0.9618151651807332,
                0.29104938186663715,
                0.8704533361809277
            ]
        },
        {
            "positions": [
                0.7584227058618243,
                -1.9098644958813558,
                -0.9695515508140238,
                0.9100841974513044,
                0.30334716885448404,
                0.9554840537233857
            ]
        },
        {
            "positions": [
                0.8414036750630203,
                -1.8783957297979006,
                -0.8418302817899925,
                0.8583532297218756,
                0.31564495584233093,
                1.0405147712658438
            ]
        },
        {
            "positions": [
                0.9243846442642163,
                -1.8469269637144454,
                -0.7141090127659613,
                0.8066222619924468,
                0.3279427428301778,
                1.1255454888083019
            ]
        },
        {
            "positions": [
                1.0073656134654123,
                -1.8154581976309903,
                -0.58638774374193,
                0.754891294263018,
                0.3402405298180247,
                1.21057620635076
            ]
        },
        {
            "positions": [
                1.0903465826666083,
                -1.783989431547535,
                -0.4586664747178988,
                0.7031603265335893,
                0.35253831680587155,
                1.295606923893218
            ]
        },
        {
            "positions": [
                1.1733275518678046,
                -1.75252066546408,
                -0.33094520569386754,
                0.6514293588041603,
                0.3648361037937185,
                1.3806376414356762
            ]
        },
        {
            "positions": [
                1.2563085210690004,
                -1.7210518993806248,
                -0.2032239366698363,
                0.5996983910747316,
                0.3771338907815654,
                1.465668358978134
            ]
        },
        {
            "positions": [
                1.3392894902701964,
                -1.6895831332971696,
                -0.07550266764580504,
                0.5479674233453028,
                0.3894316777694123,
                1.5506990765205921
            ]
        },
        {
            "positions": [
                1.4222704594713924,
                -1.6581143672137144,
                0.052218601378226204,
                0.49623645561587404,
                0.4017294647572592,
                1.6357297940630502
            ]
        },
        {
            "positions": [
                1.5052514286725887,
                -1.6266456011302592,
                0.1799398704022579,
                0.44450548788644517,
                0.4140272517451061,
                1.7207605116055085
            ]
        },
        {
            "positions": [
                1.5882323978737847,
                -1.595176835046804,
                0.30766113942628914,
                0.3927745201570163,
                0.42632503873295297,
                1.8057912291479665
            ]
        },
        {
            "positions": [
                1.6712133670749807,
                -1.563708068963349,
                0.4353824084503204,
                0.34104355242758766,
                0.43862282572079986,
                1.8908219466904246
            ]
        },
        {
            "positions": [
                1.7541943362761765,
                -1.5322393028798937,
                0.5631036774743516,
                0.2893125846981588,
                0.45092061270864675,
                1.9758526642328824
            ]
        },
        {
            "positions": [
                1.8371753054773727,
                -1.5007705367964386,
                0.6908249464983829,
                0.23758161696872993,
                0.46321839969649364,
                2.0608833817753407
            ]
        },
        {
            "positions": [
                1.920156274678569,
                -1.4693017707129834,
                0.8185462155224141,
                0.18585064923930128,
                0.47551618668434054,
                2.1459140993177988
            ]
        },
        {
            "positions": [
                2.003137243879765,
                -1.4378330046295282,
                0.9462674845464454,
                0.1341196815098724,
                0.48781397367218743,
                2.230944816860257
            ]
        },
        {
            "positions": [
                2.059974367144502,
                -1.3992637122948095,
                1.0260257460545263,
                0.05081073410095542,
                0.5393134507259584,
                2.316763472353017
            ]
        },
        {
            "positions": [
                2.116811490409239,
                -1.360694419960091,
                1.1057840075626073,
                -0.03249821330796157,
                0.5908129277797294,
                2.4025821278457773
            ]
        },
        {
            "positions": [
                2.173648613673976,
                -1.3221251276253723,
                1.1855422690706883,
                -0.11580716071687852,
                0.6423124048335003,
                2.4884007833385375
            ]
        },
        {
            "positions": [
                2.230485736938713,
                -1.2835558352906535,
                1.2653005305787692,
                -0.19911610812579555,
                0.6938118818872714,
                2.5742194388312982
            ]
        },
        {
            "positions": [
                2.28732286020345,
                -1.2449865429559348,
                1.3450587920868502,
                -0.2824250555347125,
                0.7453113589410423,
                2.6600380943240585
            ]
        },
        {
            "positions": [
                2.344159983468187,
                -1.2064172506212163,
                1.424817053594931,
                -0.36573400294362945,
                0.7968108359948132,
                2.7458567498168187
            ]
        },
        {
            "positions": [
                2.400997106732924,
                -1.1678479582864976,
                1.5045753151030121,
                -0.4490429503525465,
                0.8483103130485843,
                2.831675405309579
            ]
        },
        {
            "positions": [
                2.457834229997661,
                -1.1292786659517788,
                1.584333576611093,
                -0.5323518977614635,
                0.8998097901023552,
                2.9174940608023396
            ]
        },
        {
            "positions": [
                2.514671353262398,
                -1.09070937361706,
                1.664091838119174,
                -0.6156608451703804,
                0.9513092671561263,
                3.0033127162951
            ]
        },
        {
            "positions": [
                2.571508476527135,
                -1.0521400812823416,
                1.7438500996272548,
                -0.6989697925792974,
                1.0028087442098972,
                3.08913137178786
            ]
        },
        {
            "positions": [
                2.628345599791872,
                -1.0135707889476229,
                1.8236083611353358,
                -0.7822787399882144,
                1.054308221263668,
                3.1749500272806204
            ]
        }
    ]
}