{
    "goal": {
        "global_pose": {
            "orientation": {
                "w": 0.7047431468963623,
                "x": -0.7094548344612122,
                "y": 0.0024358443915843964,
                "z": -0.0022348060738295317
            },
            "position": {
                "x": 0.6094750761985779,
                "y": 0.3671506643295288,
                "z": 0.19426114857196808
            }
        },
        "name": "move_to_magneteinheit_A"
    },
    "id": "ProjEST_move_to_magneteinheit_A_137",
    "joint_names": [
        "shoulder_pan_joint",
        "shoulder_lift_joint",
        "elbow_joint",
        "wrist_1_joint",
        "wrist_2_joint",
        "wrist_3_joint"
    ],
    "metrics": {
        "cart_traj_len": 1.0529369108248927,
        "distance_elbow_joint": 0.40738925726000774,
        "distance_shoulder_lift_joint": 0.35350548202357346,
        "distance_shoulder_pan_joint": 1.2410747181660917,
        "distance_wrist_1_joint": 2.32848071288762,
        "distance_wrist_2_joint": 1.692196287045056,
        "distance_wrist_3_joint": 1.112616703705958,
        "smoothness": 0.0,
        "time": 0.084653748,
        "traj_len": 2.6711913374163796,
        "weighted_distance": 3.658028645108305
    },
    "planner": "ProjEST",
    "start": {
        "state": {
            "elbow_joint": 1.5739458966750683,
            "shoulder_lift_joint": -1.4977259741207325,
            "shoulder_pan_joint": -1.1188672016454206,
            "wrist_1_joint": 1.494575848278785,
            "wrist_2_joint": -1.5706037134824402,
            "wrist_3_joint": -2.0226957942261072
        }
    },
    "waypoints": [
        {
            "positions": [
                -1.1188672016454206,
                -1.4977259741207325,
                1.5739458966750683,
                1.494575848278785,
                -1.5706037134824402,
                -2.0226957942261072
            ]
        },
        {
            "positions": [
                -1.053547479636679,
                -1.4791204224352812,
                1.5953874365308582,
                1.3720242318110154,
                -1.4815407510063847,
                -2.081254568105368
            ]
        },
        {
            "positions": [
                -0.9882277576279372,
                -1.46051487074983,
                1.6168289763866481,
                1.249472615343246,
                -1.392477788530329,
                -2.1398133419846292
            ]
        },
        {
            "positions": [
                -0.9229080356191957,
                -1.4419093190643788,
                1.638270516242438,
                1.1269209988754767,
                -1.3034148260542735,
                -2.19837211586389
            ]
        },
        {
            "positions": [
                -0.857588313610454,
                -1.4233037673789275,
                1.659712056098228,
                1.0043693824077071,
                -1.214351863578218,
                -2.256930889743151
            ]
        },
        {
            "positions": [
                -0.7922685916017123,
                -1.4046982156934764,
                1.6811535959540178,
                0.8818177659399377,
                -1.1252889011021623,
                -2.315489663622412
            ]
        },
        {
            "positions": [
                -0.7269488695929707,
                -1.386092664008025,
                1.7025951358098077,
                0.7592661494721682,
                -1.0362259386261068,
                -2.374048437501673
            ]
        },
        {
            "positions": [
                -0.661629147584229,
                -1.3674871123225738,
                1.7240366756655976,
                0.6367145330043987,
                -0.9471629761500512,
                -2.432607211380934
            ]
        },
        {
            "positions": [
                -0.5963094255754873,
                -1.3488815606371227,
                1.7454782155213873,
                0.5141629165366293,
                -0.8581000136739956,
                -2.491165985260195
            ]
        },
        {
            "positions": [
                -0.5309897035667457,
                -1.3302760089516714,
                1.7669197553771774,
                0.3916113000688599,
                -0.7690370511979401,
                -2.5497247591394556
            ]
        },
        {
            "positions": [
                -0.465669981558004,
                -1.3116704572662201,
                1.788361295232967,
                0.26905968360109034,
                -0.6799740887218845,
                -2.6082835330187164
            ]
        },
        {
            "positions": [
                -0.4003502595492623,
                -1.2930649055807688,
                1.8098028350887572,
                0.14650806713332076,
                -0.5909111262458289,
                -2.6668423068979776
            ]
        },
        {
            "positions": [
                -0.3350305375405207,
                -1.2744593538953177,
                1.8312443749445468,
                0.02395645066555141,
                -0.5018481637697734,
                -2.7254010807772384
            ]
        },
        {
            "positions": [
                -0.2697108155317789,
                -1.2558538022098664,
                1.8526859148003367,
                -0.09859516580221817,
                -0.41278520129371765,
                -2.7839598546564996
            ]
        },
        {
            "positions": [
                -0.2043910935230373,
                -1.2372482505244151,
                1.8741274546561266,
                -0.22114678226998752,
                -0.32372223881766216,
                -2.8425186285357604
            ]
        },
        {
            "positions": [
                -0.1390713715142956,
                -1.218642698838964,
                1.8955689945119165,
                -0.3436983987377571,
                -0.23465927634160644,
                -2.901077402415021
            ]
        },
        {
            "positions": [
                -0.0737516495055539,
                -1.2000371471535127,
                1.9170105343677064,
                -0.46625001520552645,
                -0.14559631386555094,
                -2.9596361762942824
            ]
        },
        {
            "positions": [
                -0.00843192749681232,
                -1.1814315954680614,
                1.9384520742234963,
                -0.5888016316732962,
                -0.056533351389495445,
                -3.0181949501735432
            ]
        },
        {
            "positions": [
                0.05688779451192927,
                -1.1628260437826103,
                1.9598936140792862,
                -0.7113532481410652,
                0.03252961108656005,
                -3.0767537240528045
            ]
        },
        {
            "positions": [
                0.12220751652067119,
                -1.144220492097159,
                1.981335153935076,
                -0.8339048646088347,
                0.12159257356261581,
                -3.1353124979320652
            ]
        }
    ]
}