{
    "goal": {
        "global_pose": {
            "orientation": {
                "w": -0.4816463035849501,
                "x": 0.5182115481033762,
                "y": 0.4908360881923453,
                "z": -0.5084816262002911
            },
            "position": {
                "x": -0.8240239810943604,
                "y": 0.19912469901144506,
                "z": 0.16403168439865112
            }
        },
        "name": "move_to_storage_D"
    },
    "id": "ProjEST_move_to_storage_D_37",
    "joint_names": [
        "shoulder_pan_joint",
        "shoulder_lift_joint",
        "elbow_joint",
        "wrist_1_joint",
        "wrist_2_joint",
        "wrist_3_joint"
    ],
    "metrics": {
        "cart_traj_len": 3.8168762466458217,
        "distance_elbow_joint": 4.2079936514783505,
        "distance_shoulder_lift_joint": 1.264508582974099,
        "distance_shoulder_pan_joint": 2.81359651416135,
        "distance_wrist_1_joint": 2.26212230136173,
        "distance_wrist_2_joint": 0.8743475956664125,
        "distance_wrist_3_joint": 3.131139086919397,
        "smoothness": 2.8047739659715643e-16,
        "time": 0.078342106,
        "traj_len": 3.814932205500032,
        "weighted_distance": 4.894124620749688
    },
    "planner": "ProjEST",
    "start": {
        "state": {
            "elbow_joint": -2.384821997420982,
            "shoulder_lift_joint": -2.2788054674887404,
            "shoulder_pan_joint": -0.18546946417610016,
            "wrist_1_joint": 1.4845937964226739,
            "wrist_2_joint": 0.1789877726866377,
            "wrist_3_joint": 0.03710572555276528
        }
    },
    "waypoints": [
        {
            "positions": [
                -0.18546946417610016,
                -2.2788054674887404,
                -2.384821997420982,
                1.4845937964226739,
                0.1789877726866377,
                0.03710572555276528
            ]
        },
        {
            "positions": [
                -0.1011875766373895,
                -2.2444765601394865,
                -2.257571487873815,
                1.4094533339046431,
                0.1955540310814356,
                -0.01899120649584015
            ]
        },
        {
            "positions": [
                -0.016905689098678844,
                -2.210147652790232,
                -2.130320978326648,
                1.3343128713866126,
                0.21212028947623351,
                -0.07508813854444557
            ]
        },
        {
            "positions": [
                0.06737619844003179,
                -2.1758187454409783,
                -2.003070468779481,
                1.2591724088685818,
                0.22868654787103143,
                -0.131185070593051
            ]
        },
        {
            "positions": [
                0.15165808597874247,
                -2.1414898380917244,
                -1.875819959232314,
                1.1840319463505513,
                0.24525280626582932,
                -0.18728200264165643
            ]
        },
        {
            "positions": [
                0.23593997351745316,
                -2.10716093074247,
                -1.7485694496851472,
                1.1088914838325206,
                0.2618190646606272,
                -0.24337893469026187
            ]
        },
        {
            "positions": [
                0.32022186105616374,
                -2.0728320233932163,
                -1.6213189401379802,
                1.0337510213144898,
                0.2783853230554251,
                -0.29947586673886734
            ]
        },
        {
            "positions": [
                0.40450374859487453,
                -2.0385031160439624,
                -1.4940684305908132,
                0.9586105587964592,
                0.29495158145022304,
                -0.3555727987874728
            ]
        },
        {
            "positions": [
                0.4887856361335851,
                -2.004174208694708,
                -1.3668179210436462,
                0.8834700962784285,
                0.3115178398450209,
                -0.41166973083607816
            ]
        },
        {
            "positions": [
                0.5730675236722957,
                -1.9698453013454542,
                -1.2395674114964792,
                0.8083296337603978,
                0.3280840982398189,
                -0.4677666628846836
            ]
        },
        {
            "positions": [
                0.6573494112110065,
                -1.9355163939962001,
                -1.1123169019493122,
                0.733189171242367,
                0.34465035663461674,
                -0.523863594933289
            ]
        },
        {
            "positions": [
                0.7416312987497171,
                -1.9011874866469463,
                -0.9850663924021454,
                0.6580487087243365,
                0.3612166150294146,
                -0.5799605269818945
            ]
        },
        {
            "positions": [
                0.8259131862884277,
                -1.8668585792976922,
                -0.8578158828549785,
                0.5829082462063058,
                0.3777828734242126,
                -0.6360574590304999
            ]
        },
        {
            "positions": [
                0.9101950738271385,
                -1.8325296719484383,
                -0.7305653733078115,
                0.5077677836882751,
                0.39434913181901043,
                -0.6921543910791054
            ]
        },
        {
            "positions": [
                0.9944769613658493,
                -1.7982007645991842,
                -0.6033148637606445,
                0.4326273211702445,
                0.4109153902138084,
                -0.7482513231277108
            ]
        },
        {
            "positions": [
                1.0787588489045599,
                -1.7638718572499301,
                -0.4760643542134775,
                0.35748685865221375,
                0.42748164860860627,
                -0.8043482551763163
            ]
        },
        {
            "positions": [
                1.1630407364432704,
                -1.7295429499006763,
                -0.3488138446663105,
                0.2823463961341832,
                0.44404790700340413,
                -0.8604451872249216
            ]
        },
        {
            "positions": [
                1.247322623981981,
                -1.6952140425514222,
                -0.22156333511914372,
                0.20720593361615247,
                0.460614165398202,
                -0.916542119273527
            ]
        },
        {
            "positions": [
                1.3316045115206918,
                -1.660885135202168,
                -0.09431282557197651,
                0.13206547109812172,
                0.47718042379299996,
                -0.9726390513221325
            ]
        },
        {
            "positions": [
                1.4158863990594024,
                -1.6265562278529142,
                0.03293768397519026,
                0.056925008580091196,
                0.4937466821877978,
                -1.0287359833707377
            ]
        },
        {
            "positions": [
                1.5001682865981132,
                -1.59222732050366,
                0.16018819352235747,
                -0.018215453937939774,
                0.5103129405825958,
                -1.0848329154193432
            ]
        },
        {
            "positions": [
                1.5844501741368238,
                -1.557898413154406,
                0.28743870306952424,
                -0.0933559164559703,
                0.5268791989773937,
                -1.1409298474679486
            ]
        },
        {
            "positions": [
                1.6687320616755343,
                -1.5235695058051522,
                0.414689212616691,
                -0.16849637897400083,
                0.5434454573721915,
                -1.1970267795165541
            ]
        },
        {
            "positions": [
                1.7530139492142451,
                -1.489240598455898,
                0.5419397221638582,
                -0.24363684149203158,
                0.5600117157669895,
                -1.2531237115651597
            ]
        },
        {
            "positions": [
                1.8372958367529555,
                -1.454911691106644,
                0.669190231711025,
                -0.3187773040100623,
                0.5765779741617874,
                -1.309220643613765
            ]
        },
        {
            "positions": [
                1.9215777242916663,
                -1.42058278375739,
                0.7964407412581918,
                -0.39391776652809285,
                0.5931442325565853,
                -1.3653175756623703
            ]
        },
        {
            "positions": [
                2.005859611830377,
                -1.386253876408136,
                0.923691250805359,
                -0.4690582290461236,
                0.6097104909513832,
                -1.4214145077109759
            ]
        },
        {
            "positions": [
                2.0901414993690874,
                -1.351924969058882,
                1.0509417603525257,
                -0.5441986915641541,
                0.626276749346181,
                -1.4775114397595812
            ]
        },
        {
            "positions": [
                2.1744233869077987,
                -1.317596061709628,
                1.178192269899693,
                -0.6193391540821849,
                0.642843007740979,
                -1.5336083718081868
            ]
        },
        {
            "positions": [
                2.258705274446509,
                -1.283267154360374,
                1.3054427794468597,
                -0.6944796166002154,
                0.6594092661357769,
                -1.589705303856792
            ]
        },
        {
            "positions": [
                2.3048829963888515,
                -1.2496458706296574,
                1.3701588887731733,
                -0.7048607276425705,
                0.708650028912936,
                -1.777746311045522
            ]
        },
        {
            "positions": [
                2.351060718331194,
                -1.2160245868989408,
                1.4348749980994868,
                -0.7152418386849256,
                0.7578907916900952,
                -1.965787318234252
            ]
        },
        {
            "positions": [
                2.397238440273537,
                -1.1824033031682242,
                1.4995911074258006,
                -0.7256229497272808,
                0.8071315544672544,
                -2.153828325422982
            ]
        },
        {
            "positions": [
                2.4434161622158794,
                -1.1487820194375078,
                1.5643072167521141,
                -0.7360040607696359,
                0.8563723172444135,
                -2.3418693326117124
            ]
        },
        {
            "positions": [
                2.489593884158222,
                -1.1151607357067912,
                1.6290233260784277,
                -0.7463851718119909,
                0.9056130800215727,
                -2.529910339800442
            ]
        },
        {
            "positions": [
                2.535771606100565,
                -1.0815394519760746,
                1.6937394354047415,
                -0.7567662828543461,
                0.9548538427987319,
                -2.7179513469891723
            ]
        },
        {
            "positions": [
                2.5819493280429073,
                -1.047918168245358,
                1.758455544731055,
                -0.7671473938967013,
                1.004094605575891,
                -2.9059923541779025
            ]
        },
        {
            "positions": [
                2.62812704998525,
                -1.0142968845146414,
                1.8231716540573686,
                -0.7775285049390563,
                1.0533353683530502,
                -3.094033361366632
            ]
        }
    ]
}