{
    "goal": {
        "global_pose": {
            "orientation": {
                "w": 0.7031023502349854,
                "x": -0.7110244035720825,
                "y": 0.007748599164187908,
                "z": 0.005598929710686207
            },
            "position": {
                "x": 0.11585023208521307,
                "y": 0.44412534475326537,
                "z": 0.3711530566215515
            }
        },
        "name": "move_to_auspresseinheit_A"
    },
    "id": "ProjEST_move_to_auspresseinheit_A_126",
    "joint_names": [
        "shoulder_pan_joint",
        "shoulder_lift_joint",
        "elbow_joint",
        "wrist_1_joint",
        "wrist_2_joint",
        "wrist_3_joint"
    ],
    "metrics": {
        "cart_traj_len": 0.7470872856636463,
        "distance_elbow_joint": 0.19192612791933295,
        "distance_shoulder_lift_joint": 0.6739802843723492,
        "distance_shoulder_pan_joint": 1.0461763354867604,
        "distance_wrist_1_joint": 0.5765106240543227,
        "distance_wrist_2_joint": 0.5190637667079392,
        "distance_wrist_3_joint": 1.6528329364673948,
        "smoothness": 0.904680340208498,
        "time": 0.939045509,
        "traj_len": 2.158816822939848,
        "weighted_distance": 3.010270808200676
    },
    "planner": "ProjEST",
    "start": {
        "state": {
            "elbow_joint": 2.4225747245308327,
            "shoulder_lift_joint": -1.373653427065438,
            "shoulder_pan_joint": -0.33786330853087027,
            "wrist_1_joint": -1.0288602302712604,
            "wrist_2_joint": 1.23302299562683,
            "wrist_3_joint": -3.094021725338297
        }
    },
    "waypoints": [
        {
            "positions": [
                -0.33786330853087027,
                -1.373653427065438,
                2.4225747245308327,
                -1.0288602302712604,
                1.23302299562683,
                -3.094021725338297
            ]
        },
        {
            "positions": [
                -0.2643308328136677,
                -1.4490503256610685,
                2.4087239645947705,
                -0.9620762212439975,
                1.1687101850110904,
                -2.992983353150595
            ]
        },
        {
            "positions": [
                -0.19079835709646514,
                -1.5244472242566989,
                2.3948732046587082,
                -0.8952922122167347,
                1.1043973743953508,
                -2.8919449809628937
            ]
        },
        {
            "positions": [
                -0.11726588137926258,
                -1.5998441228523295,
                2.381022444722646,
                -0.8285082031894719,
                1.0400845637796114,
                -2.7909066087751917
            ]
        },
        {
            "positions": [
                -0.04373340566206002,
                -1.67524102144796,
                2.367171684786584,
                -0.761724194162209,
                0.9757717531638719,
                -2.6898682365874897
            ]
        },
        {
            "positions": [
                0.02979907005514254,
                -1.7506379200435904,
                2.3533209248505216,
                -0.6949401851349462,
                0.9114589425481323,
                -2.5888298643997882
            ]
        },
        {
            "positions": [
                0.1033315457723451,
                -1.826034818639221,
                2.3394701649144594,
                -0.6281561761076834,
                0.8471461319323929,
                -2.4877914922120863
            ]
        },
        {
            "positions": [
                0.17686402148954766,
                -1.9014317172348516,
                2.325619404978397,
                -0.5613721670804206,
                0.7828333213166534,
                -2.3867531200243848
            ]
        },
        {
            "positions": [
                0.25039649720675017,
                -1.976828615830482,
                2.311768645042335,
                -0.4945881580531577,
                0.7185205107009138,
                -2.285714747836683
            ]
        },
        {
            "positions": [
                0.3357215389829855,
                -1.9696365856722293,
                2.3368396006572776,
                -0.48263403319995896,
                0.718437417583368,
                -2.454494227251051
            ]
        },
        {
            "positions": [
                0.4210465807592209,
                -1.962444555513977,
                2.3619105562722207,
                -0.47067990834676027,
                0.7183543244658223,
                -2.6232737066654193
            ]
        },
        {
            "positions": [
                0.5063716225354563,
                -1.9552525253557242,
                2.3869815118871633,
                -0.4587257834935615,
                0.7182712313482764,
                -2.7920531860797873
            ]
        },
        {
            "positions": [
                0.6073423247456732,
                -1.9306380227894504,
                2.389935102680167,
                -0.4619138721318735,
                0.7161152301335836,
                -2.9611469464411253
            ]
        },
        {
            "positions": [
                0.70831302695589,
                -1.9060235202231768,
                2.39288869347317,
                -0.46510196077018545,
                0.7139592289188907,
                -3.1302407068024634
            ]
        }
    ]
}