{
    "goal": {
        "global_pose": {
            "orientation": {
                "w": -0.00223480608172531,
                "x": 0.0024358444001904467,
                "y": 0.7094548369677653,
                "z": -0.704743149386269
            },
            "position": {
                "x": 0.6205249238014221,
                "y": -0.6371506643295288,
                "z": 0.19426114857196808
            }
        },
        "name": "move_to_magneteinheit_B"
    },
    "id": "ProjEST_move_to_magneteinheit_B_129",
    "joint_names": [
        "shoulder_pan_joint",
        "shoulder_lift_joint",
        "elbow_joint",
        "wrist_1_joint",
        "wrist_2_joint",
        "wrist_3_joint"
    ],
    "metrics": {
        "cart_traj_len": 3.5109425164888806,
        "distance_elbow_joint": 4.386698717794703,
        "distance_shoulder_lift_joint": 0.7640018377961837,
        "distance_shoulder_pan_joint": 2.1765819363867265,
        "distance_wrist_1_joint": 2.000746362336836,
        "distance_wrist_2_joint": 1.3401091493207844,
        "distance_wrist_3_joint": 6.2984711429890865,
        "smoothness": 0.13361405344063848,
        "time": 1.265795231,
        "traj_len": 4.119054399570892,
        "weighted_distance": 5.736236304778607
    },
    "planner": "ProjEST",
    "start": {
        "state": {
            "elbow_joint": 2.3935871308073637,
            "shoulder_lift_joint": -1.9085141043777403,
            "shoulder_pan_joint": 0.7066247067284167,
            "wrist_1_joint": -0.46782909355067076,
            "wrist_2_joint": 0.7096259085804283,
            "wrist_3_joint": -3.1358149275257428
        }
    },
    "waypoints": [
        {
            "positions": [
                0.7066247067284167,
                -1.9085141043777403,
                2.3935871308073637,
                -0.46782909355067076,
                0.7096259085804283,
                -3.1358149275257428
            ]
        },
        {
            "positions": [
                0.764506020692504,
                -1.9499051704355883,
                2.3993723118360064,
                -0.4701773842226206,
                0.7282881740434738,
                -2.9591540465054527
            ]
        },
        {
            "positions": [
                0.8223873346565913,
                -1.9912962364934366,
                2.405157492864649,
                -0.4725256748945704,
                0.7469504395065194,
                -2.782493165485163
            ]
        },
        {
            "positions": [
                0.8802686486206786,
                -2.0326873025512846,
                2.4109426738932918,
                -0.4748739655665203,
                0.7656127049695649,
                -2.605832284464873
            ]
        },
        {
            "positions": [
                0.9381499625847658,
                -2.0740783686091326,
                2.4167278549219344,
                -0.47722225623847014,
                0.7842749704326104,
                -2.429171403444583
            ]
        },
        {
            "positions": [
                1.0095368736114831,
                -2.064366584488846,
                2.2534628531870182,
                -0.48090959536929834,
                0.7498416466810879,
                -2.3197060489315744
            ]
        },
        {
            "positions": [
                1.0809237846382005,
                -2.054654800368559,
                2.0901978514521025,
                -0.48459693450012653,
                0.7154083229295654,
                -2.2102406944185664
            ]
        },
        {
            "positions": [
                1.1523106956649178,
                -2.0449430162482725,
                1.9269328497171863,
                -0.4882842736309547,
                0.6809749991780429,
                -2.1007753399055584
            ]
        },
        {
            "positions": [
                1.2236976066916352,
                -2.0352312321279857,
                1.7636678479822703,
                -0.4919716127617829,
                0.6465416754265204,
                -1.99130998539255
            ]
        },
        {
            "positions": [
                1.2950845177183523,
                -2.025519448007699,
                1.6004028462473543,
                -0.4956589518926111,
                0.6121083516749979,
                -1.8818446308795416
            ]
        },
        {
            "positions": [
                1.3664714287450697,
                -2.0158076638874123,
                1.4371378445124383,
                -0.4993462910234393,
                0.5776750279234755,
                -1.7723792763665336
            ]
        },
        {
            "positions": [
                1.437858339771787,
                -2.0060958797671256,
                1.273872842777522,
                -0.5030336301542675,
                0.5432417041719528,
                -1.6629139218535252
            ]
        },
        {
            "positions": [
                1.5092452507985044,
                -1.9963840956468388,
                1.1106078410426061,
                -0.5067209692850957,
                0.5088083804204304,
                -1.5534485673405172
            ]
        },
        {
            "positions": [
                1.5806321618252217,
                -1.986672311526552,
                0.9473428393076901,
                -0.5104083084159239,
                0.47437505666890795,
                -1.443983212827509
            ]
        },
        {
            "positions": [
                1.652019072851939,
                -1.9769605274062654,
                0.7840778375727742,
                -0.5140956475467521,
                0.43994173291738536,
                -1.3345178583145005
            ]
        },
        {
            "positions": [
                1.7234059838786564,
                -1.9672487432859787,
                0.6208128358378582,
                -0.5177829866775803,
                0.4055084091658629,
                -1.2250525038014926
            ]
        },
        {
            "positions": [
                1.7947928949053735,
                -1.957536959165692,
                0.4575478341029422,
                -0.5214703258084084,
                0.3710750854143404,
                -1.1155871492884843
            ]
        },
        {
            "positions": [
                1.866179805932091,
                -1.9478251750454052,
                0.294282832368026,
                -0.5251576649392367,
                0.3366417616628179,
                -1.006121794775476
            ]
        },
        {
            "positions": [
                1.9375667169588082,
                -1.9381133909251183,
                0.1310178306331098,
                -0.5288450040700647,
                0.30220843791129537,
                -0.8966564402624677
            ]
        },
        {
            "positions": [
                2.008953627985526,
                -1.9284016068048315,
                -0.03224717110180597,
                -0.5325323432008929,
                0.26777511415977295,
                -0.7871910857494597
            ]
        },
        {
            "positions": [
                2.080340539012243,
                -1.9186898226845448,
                -0.19551217283672218,
                -0.5362196823317211,
                0.23334179040825043,
                -0.6777257312364513
            ]
        },
        {
            "positions": [
                2.15172745003896,
                -1.908978038564258,
                -0.3587771745716384,
                -0.5399070214625493,
                0.1989084666567279,
                -0.5682603767234431
            ]
        },
        {
            "positions": [
                2.2231143610656776,
                -1.8992662544439713,
                -0.5220421763065541,
                -0.5435943605933775,
                0.16447514290520548,
                -0.4587950222104351
            ]
        },
        {
            "positions": [
                2.294501272092395,
                -1.8895544703236846,
                -0.6853071780414699,
                -0.5472816997242057,
                0.13004181915368285,
                -0.3493296676974267
            ]
        },
        {
            "positions": [
                2.3658881831191123,
                -1.879842686203398,
                -0.8485721797763861,
                -0.5509690388550339,
                0.09560849540216032,
                -0.23986431318441825
            ]
        },
        {
            "positions": [
                2.4372750941458294,
                -1.8701309020831112,
                -1.0118371815113019,
                -0.5546563779858621,
                0.061175171650637905,
                -0.13039895867141027
            ]
        },
        {
            "positions": [
                2.508662005172547,
                -1.8604191179628244,
                -1.175102183246218,
                -0.5583437171166903,
                0.02674184789911538,
                -0.020933604158402286
            ]
        },
        {
            "positions": [
                2.5800489161992646,
                -1.8507073338425377,
                -1.3383671849811343,
                -0.5620310562475185,
                -0.007691475852407148,
                0.08853175035460614
            ]
        },
        {
            "positions": [
                2.6514358272259813,
                -1.840995549722251,
                -1.50163218671605,
                -0.5657183953783467,
                -0.042124799603929564,
                0.19799710486761413
            ]
        },
        {
            "positions": [
                2.722822738252699,
                -1.8312837656019643,
                -1.6648971884509658,
                -0.5694057345091749,
                -0.07655812335545206,
                0.30746245938062267
            ]
        },
        {
            "positions": [
                2.734766105228392,
                -1.8468964836774044,
                -1.6905060235910598,
                -0.6276019452913779,
                -0.09169828397097923,
                0.3920507930215114
            ]
        },
        {
            "positions": [
                2.7467094722040852,
                -1.8625092017528444,
                -1.716114858731154,
                -0.6857981560735811,
                -0.10683844458650639,
                0.47663912666240016
            ]
        },
        {
            "positions": [
                2.7517852676897303,
                -1.8895143524291602,
                -1.7324198618034221,
                -0.813223550259372,
                -0.13581447803528301,
                0.6662737243735198
            ]
        },
        {
            "positions": [
                2.7568610631753754,
                -1.916519503105476,
                -1.7487248648756901,
                -0.9406489444451629,
                -0.16479051148405965,
                0.8559083220846395
            ]
        },
        {
            "positions": [
                2.761936858661021,
                -1.943524653781792,
                -1.7650298679479584,
                -1.068074338630954,
                -0.19376654493283627,
                1.045542919795759
            ]
        },
        {
            "positions": [
                2.767012654146666,
                -1.9705298044581079,
                -1.7813348710202264,
                -1.195499732816745,
                -0.2227425783816129,
                1.2351775175068789
            ]
        },
        {
            "positions": [
                2.772088449632311,
                -1.9975349551344237,
                -1.7976398740924944,
                -1.3229251270025357,
                -0.2517186118303895,
                1.4248121152179984
            ]
        },
        {
            "positions": [
                2.759741983689774,
                -2.018578486359442,
                -1.7810631780185275,
                -1.4502196079897547,
                -0.27721489018656753,
                1.6179059041341484
            ]
        },
        {
            "positions": [
                2.747395517747237,
                -2.03962201758446,
                -1.764486481944561,
                -1.5775140889769736,
                -0.30271116854274555,
                1.810999693050298
            ]
        },
        {
            "positions": [
                2.7350490518047,
                -2.060665548809478,
                -1.747909785870594,
                -1.7048085699641926,
                -0.32820744689892356,
                2.0040934819664478
            ]
        },
        {
            "positions": [
                2.722702585862163,
                -2.0817090800344964,
                -1.7313330897966275,
                -1.8321030509514118,
                -0.3537037252551016,
                2.1971872708825977
            ]
        },
        {
            "positions": [
                2.7103561199196267,
                -2.1027526112595147,
                -1.7147563937226606,
                -1.9593975319386308,
                -0.3792000036112796,
                2.3902810597987476
            ]
        },
        {
            "positions": [
                2.6980096539770897,
                -2.1237961424845326,
                -1.698179697648694,
                -2.08669201292585,
                -0.40469628196745766,
                2.5833748487148975
            ]
        },
        {
            "positions": [
                2.6856631880345527,
                -2.144839673709551,
                -1.6816030015747272,
                -2.213986493913069,
                -0.4301925603236357,
                2.776468637631047
            ]
        },
        {
            "positions": [
                2.6733167220920158,
                -2.165883204934569,
                -1.6650263055007606,
                -2.341280974900288,
                -0.4556888386798137,
                2.969562426547197
            ]
        },
        {
            "positions": [
                2.660970256149479,
                -2.186926736159587,
                -1.6484496094267937,
                -2.468575455887507,
                -0.4811851170359917,
                3.162656215463347
            ]
        }
    ]
}