{
    "goal": {
        "global_pose": {
            "orientation": {
                "w": 0.7031023502349854,
                "x": -0.7110244035720825,
                "y": 0.007748599164187908,
                "z": 0.005598929710686207
            },
            "position": {
                "x": 0.11585023208521307,
                "y": 0.44412534475326537,
                "z": 0.3711530566215515
            }
        },
        "name": "move_to_auspresseinheit_A"
    },
    "id": "ProjEST_move_to_auspresseinheit_A_99",
    "joint_names": [
        "shoulder_pan_joint",
        "shoulder_lift_joint",
        "elbow_joint",
        "wrist_1_joint",
        "wrist_2_joint",
        "wrist_3_joint"
    ],
    "metrics": {
        "cart_traj_len": 1.1527031207818803,
        "distance_elbow_joint": 0.7796842304836842,
        "distance_shoulder_lift_joint": 1.3502250294103306,
        "distance_shoulder_pan_joint": 1.0409021153045712,
        "distance_wrist_1_joint": 2.795752906471362,
        "distance_wrist_2_joint": 1.2887639587776936,
        "distance_wrist_3_joint": 6.180779008601339,
        "smoothness": 0.8015479672093075,
        "time": 0.286056882,
        "traj_len": 3.665529600078137,
        "weighted_distance": 5.466459743883671
    },
    "planner": "ProjEST",
    "start": {
        "state": {
            "elbow_joint": 2.4225747245308327,
            "shoulder_lift_joint": -1.373653427065438,
            "shoulder_pan_joint": -0.33786330853087027,
            "wrist_1_joint": -1.0288602302712604,
            "wrist_2_joint": 1.23302299562683,
            "wrist_3_joint": -3.094021725338297
        }
    },
    "waypoints": [
        {
            "positions": [
                -0.33786330853087027,
                -1.373653427065438,
                2.4225747245308327,
                -1.0288602302712604,
                1.23302299562683,
                -3.094021725338297
            ]
        },
        {
            "positions": [
                -0.31350421229358805,
                -1.4233197987221002,
                2.4013301395427358,
                -0.9406719702450561,
                1.1849940276759527,
                -2.9320971873471158
            ]
        },
        {
            "positions": [
                -0.2891451160563058,
                -1.4729861703787628,
                2.380085554554639,
                -0.8524837102188518,
                1.1369650597250756,
                -2.7701726493559344
            ]
        },
        {
            "positions": [
                -0.26478601981902355,
                -1.5226525420354253,
                2.358840969566542,
                -0.7642954501926476,
                1.0889360917741984,
                -2.608248111364753
            ]
        },
        {
            "positions": [
                -0.24042692358174134,
                -1.5723189136920876,
                2.337596384578445,
                -0.6761071901664433,
                1.040907123823321,
                -2.446323573373572
            ]
        },
        {
            "positions": [
                -0.21606782734445912,
                -1.6219852853487502,
                2.316351799590348,
                -0.587918930140239,
                0.9928781558724438,
                -2.284399035382391
            ]
        },
        {
            "positions": [
                -0.19170873110717687,
                -1.6716516570054125,
                2.2951072146022513,
                -0.4997306701140348,
                0.9448491879215666,
                -2.1224744973912095
            ]
        },
        {
            "positions": [
                -0.16734963486989465,
                -1.721318028662075,
                2.2738626296141544,
                -0.41154241008783055,
                0.8968202199706894,
                -1.9605499594000282
            ]
        },
        {
            "positions": [
                -0.1429905386326124,
                -1.7709844003187374,
                2.2526180446260575,
                -0.32335415006162627,
                0.8487912520198121,
                -1.7986254214088468
            ]
        },
        {
            "positions": [
                -0.11863144239533019,
                -1.8206507719754,
                2.231373459637961,
                -0.235165890035422,
                0.8007622840689349,
                -1.6367008834176655
            ]
        },
        {
            "positions": [
                -0.09427234615804794,
                -1.8703171436320623,
                2.210128874649864,
                -0.1469776300092177,
                0.7527333161180576,
                -1.4747763454264844
            ]
        },
        {
            "positions": [
                -0.0699132499207657,
                -1.9199835152887248,
                2.1888842896617673,
                -0.05878936998301343,
                0.7047043481671804,
                -1.3128518074353028
            ]
        },
        {
            "positions": [
                -0.04555415368348348,
                -1.9696498869453871,
                2.1676397046736704,
                0.02939889004319074,
                0.6566753802163032,
                -1.1509272694441217
            ]
        },
        {
            "positions": [
                -0.021195057446201204,
                -2.01931625860205,
                2.1463951196855735,
                0.11758715006939502,
                0.6086464122654259,
                -0.9890027314529402
            ]
        },
        {
            "positions": [
                0.0031640387910809586,
                -2.068982630258712,
                2.1251505346974766,
                0.2057754100955993,
                0.5606174443145487,
                -0.8270781934617593
            ]
        },
        {
            "positions": [
                0.027523135028363233,
                -2.1186490019153745,
                2.1039059497093797,
                0.2939636701218036,
                0.5125884763636714,
                -0.6651536554705775
            ]
        },
        {
            "positions": [
                0.05188223126564545,
                -2.168315373572037,
                2.082661364721283,
                0.38215193014800786,
                0.46455950841279425,
                -0.5032291174793966
            ]
        },
        {
            "positions": [
                0.07624132750292772,
                -2.217981745228699,
                2.061416779733186,
                0.47034019017421214,
                0.41653054046191706,
                -0.34130457948821524
            ]
        },
        {
            "positions": [
                0.10060042374020989,
                -2.2676481168853617,
                2.040172194745089,
                0.5585284502004164,
                0.3685015725110399,
                -0.1793800414970339
            ]
        },
        {
            "positions": [
                0.12495951997749216,
                -2.3173144885420243,
                2.018927609756992,
                0.6467167102266207,
                0.3204726045601626,
                -0.017455503505852565
            ]
        },
        {
            "positions": [
                0.16435490683462636,
                -2.293659901298302,
                2.047378242948799,
                0.5764567463527251,
                0.34226943110129265,
                -0.21336120220457286
            ]
        },
        {
            "positions": [
                0.20375029369176056,
                -2.2700053140545804,
                2.075828876140606,
                0.5061967824788296,
                0.36406625764242273,
                -0.40926690090329315
            ]
        },
        {
            "positions": [
                0.24314568054889474,
                -2.2463507268108582,
                2.1042795093324127,
                0.4359368186049341,
                0.3858630841835528,
                -0.6051725996020135
            ]
        },
        {
            "positions": [
                0.2825410674060289,
                -2.2226961395671365,
                2.1327301425242196,
                0.3656768547310386,
                0.4076599107246829,
                -0.8010782983007337
            ]
        },
        {
            "positions": [
                0.3219364542631631,
                -2.1990415523234144,
                2.1611807757160264,
                0.29541689085714307,
                0.429456737265813,
                -0.9969839969994541
            ]
        },
        {
            "positions": [
                0.3613318411202973,
                -2.175386965079692,
                2.1896314089078333,
                0.22515692698324752,
                0.45125356380694304,
                -1.1928896956981745
            ]
        },
        {
            "positions": [
                0.4007272279774315,
                -2.1517323778359705,
                2.21808204209964,
                0.15489696310935208,
                0.47305039034807317,
                -1.3887953943968945
            ]
        },
        {
            "positions": [
                0.4401226148345657,
                -2.1280777905922483,
                2.2465326752914474,
                0.08463699923545653,
                0.49484721688920325,
                -1.584701093095615
            ]
        },
        {
            "positions": [
                0.4795180016916999,
                -2.104423203348526,
                2.2749833084832543,
                0.014377035361560986,
                0.5166440434303333,
                -1.7806067917943351
            ]
        },
        {
            "positions": [
                0.5189133885488341,
                -2.0807686161048045,
                2.303433941675061,
                -0.05588292851233456,
                0.5384408699714633,
                -1.9765124904930556
            ]
        },
        {
            "positions": [
                0.5583087754059682,
                -2.0571140288610823,
                2.331884574866868,
                -0.12614289238623,
                0.5602376965125935,
                -2.172418189191776
            ]
        },
        {
            "positions": [
                0.5977041622631025,
                -2.0334594416173606,
                2.360335208058675,
                -0.19640285626012566,
                0.5820345230537236,
                -2.3683238878904964
            ]
        },
        {
            "positions": [
                0.6370995491202366,
                -2.0098048543736384,
                2.3887858412504817,
                -0.2666628201340211,
                0.6038313495948536,
                -2.5642295865892164
            ]
        },
        {
            "positions": [
                0.6590793016713914,
                -1.9767867431185189,
                2.3908454693225996,
                -0.33559496533830113,
                0.6347829571536319,
                -2.7500424878177276
            ]
        },
        {
            "positions": [
                0.6810590542225462,
                -1.9437686318633995,
                2.392905097394718,
                -0.4045271105425812,
                0.6657345647124102,
                -2.9358553890462384
            ]
        },
        {
            "positions": [
                0.703038806773701,
                -1.91075052060828,
                2.394964725466836,
                -0.4734592557468613,
                0.6966861722711885,
                -3.1216682902747497
            ]
        }
    ]
}