{
    "goal": {
        "global_pose": {
            "orientation": {
                "w": 0.7047431468963623,
                "x": -0.7094548344612122,
                "y": 0.0024358443915843964,
                "z": -0.0022348060738295317
            },
            "position": {
                "x": 0.6094750761985779,
                "y": 0.3671506643295288,
                "z": 0.19426114857196808
            }
        },
        "name": "move_to_magneteinheit_A"
    },
    "id": "ProjEST_move_to_magneteinheit_A_84",
    "joint_names": [
        "shoulder_pan_joint",
        "shoulder_lift_joint",
        "elbow_joint",
        "wrist_1_joint",
        "wrist_2_joint",
        "wrist_3_joint"
    ],
    "metrics": {
        "cart_traj_len": 1.0527228672207962,
        "distance_elbow_joint": 0.4065599166533229,
        "distance_shoulder_lift_joint": 0.3535900244799597,
        "distance_shoulder_pan_joint": 1.2414372269718181,
        "distance_wrist_1_joint": 2.3165777707934248,
        "distance_wrist_2_joint": 1.69073888207037,
        "distance_wrist_3_joint": 1.1414941913259709,
        "smoothness": 8.881784267329942e-17,
        "time": 0.038933553,
        "traj_len": 2.674022814467907,
        "weighted_distance": 3.666156440716981
    },
    "planner": "ProjEST",
    "start": {
        "state": {
            "elbow_joint": 1.5739458966750683,
            "shoulder_lift_joint": -1.4977259741207325,
            "shoulder_pan_joint": -1.1188672016454206,
            "wrist_1_joint": 1.494575848278785,
            "wrist_2_joint": -1.5706037134824402,
            "wrist_3_joint": -2.0226957942261072
        }
    },
    "waypoints": [
        {
            "positions": [
                -1.1188672016454206,
                -1.4977259741207325,
                1.5739458966750683,
                1.494575848278785,
                -1.5706037134824402,
                -2.0226957942261072
            ]
        },
        {
            "positions": [
                -1.0535284002258514,
                -1.4791159728323136,
                1.5953437870252432,
                1.372650702447552,
                -1.4816174565313682,
                -2.0827744358748426
            ]
        },
        {
            "positions": [
                -0.9881895988062819,
                -1.4605059715438946,
                1.6167416773754182,
                1.2507255566163193,
                -1.392631199580296,
                -2.142853077523578
            ]
        },
        {
            "positions": [
                -0.9228507973867125,
                -1.4418959702554757,
                1.638139567725593,
                1.1288004107850864,
                -1.3036449426292238,
                -2.2029317191723132
            ]
        },
        {
            "positions": [
                -0.8575119959671431,
                -1.4232859689670567,
                1.6595374580757678,
                1.0068752649538535,
                -1.2146586856781518,
                -2.2630103608210486
            ]
        },
        {
            "positions": [
                -0.7921731945475738,
                -1.4046759676786378,
                1.6809353484259428,
                0.8849501191226206,
                -1.1256724287270798,
                -2.323089002469784
            ]
        },
        {
            "positions": [
                -0.7268343931280044,
                -1.3860659663902188,
                1.7023332387761176,
                0.7630249732913877,
                -1.0366861717760076,
                -2.3831676441185192
            ]
        },
        {
            "positions": [
                -0.6614955917084351,
                -1.3674559651018,
                1.7237311291262927,
                0.6410998274601548,
                -0.9476999148249355,
                -2.4432462857672546
            ]
        },
        {
            "positions": [
                -0.5961567902888657,
                -1.348845963813381,
                1.7451290194764675,
                0.519174681628922,
                -0.8587136578738634,
                -2.5033249274159894
            ]
        },
        {
            "positions": [
                -0.5308179888692963,
                -1.330235962524962,
                1.7665269098266423,
                0.39724953579768907,
                -0.7697274009227913,
                -2.563403569064725
            ]
        },
        {
            "positions": [
                -0.46547918744972694,
                -1.3116259612365433,
                1.7879248001768173,
                0.27532438996645614,
                -0.6807411439717193,
                -2.62348221071346
            ]
        },
        {
            "positions": [
                -0.40014038603015745,
                -1.2930159599481241,
                1.8093226905269921,
                0.1533992441352232,
                -0.591754887020647,
                -2.683560852362196
            ]
        },
        {
            "positions": [
                -0.3348015846105882,
                -1.2744059586597054,
                1.830720580877167,
                0.031474098303990505,
                -0.5027686300695751,
                -2.7436394940109308
            ]
        },
        {
            "positions": [
                -0.2694627831910187,
                -1.2557959573712865,
                1.852118471227342,
                -0.09045104752724242,
                -0.41378237311850286,
                -2.803718135659666
            ]
        },
        {
            "positions": [
                -0.20412398177144941,
                -1.2371859560828675,
                1.8735163615775168,
                -0.21237619335847535,
                -0.32479611616743087,
                -2.8637967773084014
            ]
        },
        {
            "positions": [
                -0.13878518035188003,
                -1.2185759547944486,
                1.8949142519276916,
                -0.3343013391897083,
                -0.23580985921635866,
                -2.9238754189571368
            ]
        },
        {
            "positions": [
                -0.07344637893231076,
                -1.1999659535060296,
                1.9163121422778666,
                -0.456226485020941,
                -0.14682360226528668,
                -2.983954060605872
            ]
        },
        {
            "positions": [
                -0.00810757751274127,
                -1.1813559522176107,
                1.9377100326280414,
                -0.5781516308521739,
                -0.05783734531421447,
                -3.0440327022546074
            ]
        },
        {
            "positions": [
                0.057231223906828,
                -1.1627459509291918,
                1.9591079229782165,
                -0.7000767766834068,
                0.031148911636857513,
                -3.1041113439033428
            ]
        },
        {
            "positions": [
                0.12257002532639755,
                -1.1441359496407728,
                1.9805058133283913,
                -0.8220019225146399,
                0.12013516858792973,
                -3.164189985552078
            ]
        }
    ]
}