{
    "goal": {
        "global_pose": {
            "orientation": {
                "w": 0.7047431493862688,
                "x": -0.7094548369677653,
                "y": 0.0024358444001904,
                "z": -0.0022348060817251984
            },
            "position": {
                "x": -0.39052492380142206,
                "y": 0.3671506643295288,
                "z": 0.19426114857196808
            }
        },
        "name": "move_to_magneteinheit_D"
    },
    "id": "ProjEST_move_to_magneteinheit_D_91",
    "joint_names": [
        "shoulder_pan_joint",
        "shoulder_lift_joint",
        "elbow_joint",
        "wrist_1_joint",
        "wrist_2_joint",
        "wrist_3_joint"
    ],
    "metrics": {
        "cart_traj_len": 4.959664462339893,
        "distance_elbow_joint": 3.4274433347190247,
        "distance_shoulder_lift_joint": 2.390814492435317,
        "distance_shoulder_pan_joint": 4.340319246247776,
        "distance_wrist_1_joint": 5.250864657021438,
        "distance_wrist_2_joint": 3.8642266066330864,
        "distance_wrist_3_joint": 7.702292981364175,
        "smoothness": 0.7757652544837249,
        "time": 0.20678708899999998,
        "traj_len": 5.193838784408005,
        "weighted_distance": 7.17604616378711
    },
    "planner": "ProjEST",
    "start": {
        "state": {
            "elbow_joint": 0.7495348899011973,
            "shoulder_lift_joint": -0.6476975780737697,
            "shoulder_pan_joint": -2.711696901376276,
            "wrist_1_joint": -0.07506478080974305,
            "wrist_2_joint": 0.4329665971545858,
            "wrist_3_joint": 3.1361499051832524
        }
    },
    "waypoints": [
        {
            "positions": [
                -2.711696901376276,
                -0.6476975780737697,
                0.7495348899011973,
                -0.07506478080974305,
                0.4329665971545858,
                3.1361499051832524
            ]
        },
        {
            "positions": [
                -2.7103378333235773,
                -0.7646821094231774,
                0.7382594065090037,
                -0.004651840253287354,
                0.48639478686514626,
                3.0350487662512853
            ]
        },
        {
            "positions": [
                -2.7089787652708783,
                -0.881666640772585,
                0.72698392311681,
                0.06576110030316834,
                0.5398229765757068,
                2.933947627319318
            ]
        },
        {
            "positions": [
                -2.70761969721818,
                -0.9986511721219927,
                0.7157084397246164,
                0.13617404085962403,
                0.5932511662862672,
                2.8328464883873505
            ]
        },
        {
            "positions": [
                -2.706260629165481,
                -1.1156357034714004,
                0.7044329563324228,
                0.20658698141607973,
                0.6466793559968277,
                2.7317453494553834
            ]
        },
        {
            "positions": [
                -2.704901561112782,
                -1.2326202348208082,
                0.6931574729402292,
                0.2769999219725355,
                0.7001075457073882,
                2.6306442105234162
            ]
        },
        {
            "positions": [
                -2.703542493060083,
                -1.3496047661702157,
                0.6818819895480356,
                0.3474128625289911,
                0.7535357354179486,
                2.529543071591449
            ]
        },
        {
            "positions": [
                -2.7021834250073846,
                -1.4665892975196235,
                0.6706065061558419,
                0.41782580308544687,
                0.8069639251285091,
                2.4284419326594815
            ]
        },
        {
            "positions": [
                -2.7008243569546857,
                -1.583573828869031,
                0.6593310227636483,
                0.4882387436419025,
                0.8603921148390695,
                2.3273407937275143
            ]
        },
        {
            "positions": [
                -2.699465288901987,
                -1.7005583602184389,
                0.6480555393714547,
                0.5586516841983582,
                0.91382030454963,
                2.226239654795547
            ]
        },
        {
            "positions": [
                -2.610879431218572,
                -1.7267647414863097,
                0.6131744931585231,
                0.49068742635346757,
                0.9004961908554394,
                2.0622232728656265
            ]
        },
        {
            "positions": [
                -2.522293573535158,
                -1.7529711227541804,
                0.5782934469455917,
                0.42272316850857694,
                0.8871720771612489,
                1.8982068909357057
            ]
        },
        {
            "positions": [
                -2.4337077158517433,
                -1.7791775040220512,
                0.5434124007326602,
                0.35475891066368637,
                0.8738479634670583,
                1.734190509005785
            ]
        },
        {
            "positions": [
                -2.345121858168329,
                -1.805383885289922,
                0.5085313545197286,
                0.28679465281879574,
                0.8605238497728678,
                1.5701741270758642
            ]
        },
        {
            "positions": [
                -2.2565360004849144,
                -1.8315902665577928,
                0.4736503083067972,
                0.2188303949739051,
                0.8471997360786772,
                1.4061577451459435
            ]
        },
        {
            "positions": [
                -2.1679501428015,
                -1.8577966478256636,
                0.4387692620938657,
                0.15086613712901448,
                0.8338756223844865,
                1.2421413632160228
            ]
        },
        {
            "positions": [
                -2.0793642851180856,
                -1.8840030290935343,
                0.4038882158809342,
                0.0829018792841239,
                0.820551508690296,
                1.078124981286102
            ]
        },
        {
            "positions": [
                -1.990778427434671,
                -1.9102094103614051,
                0.3690071696680027,
                0.014937621439233273,
                0.8072273949961054,
                0.914108599356181
            ]
        },
        {
            "positions": [
                -1.9021925697512565,
                -1.936415791629276,
                0.3341261234550712,
                -0.05302663640565741,
                0.7939032813019149,
                0.7500922174262603
            ]
        },
        {
            "positions": [
                -1.813606712067842,
                -1.9626221728971465,
                0.2992450772421397,
                -0.12099089425054799,
                0.7805791676077243,
                0.5860758354963396
            ]
        },
        {
            "positions": [
                -1.7250208543844274,
                -1.9888285541650172,
                0.2643640310292082,
                -0.18895515209543867,
                0.7672550539135337,
                0.4220594535664186
            ]
        },
        {
            "positions": [
                -1.6364349967010132,
                -2.015034935432888,
                0.22948298481627677,
                -0.25691940994032925,
                0.7539309402193431,
                0.2580430716364981
            ]
        },
        {
            "positions": [
                -1.5478491390175986,
                -2.041241316700759,
                0.19460193860334524,
                -0.3248836677852198,
                0.7406068265251525,
                0.09402668970657713
            ]
        },
        {
            "positions": [
                -1.4592632813341844,
                -2.0674476979686296,
                0.15972089239041376,
                -0.3928479256301104,
                0.727282712830962,
                -0.06998969222334317
            ]
        },
        {
            "positions": [
                -1.3706774236507697,
                -2.0936540792365004,
                0.12483984617748223,
                -0.4608121834750012,
                0.7139585991367714,
                -0.23400607415326435
            ]
        },
        {
            "positions": [
                -1.282091565967355,
                -2.119860460504371,
                0.0899587999645507,
                -0.5287764413198917,
                0.7006344854425808,
                -0.3980224560831851
            ]
        },
        {
            "positions": [
                -1.1935057082839409,
                -2.146066841772242,
                0.055077753751619274,
                -0.5967406991647823,
                0.6873103717483903,
                -0.5620388380131058
            ]
        },
        {
            "positions": [
                -1.1049198506005262,
                -2.1722732230401127,
                0.02019670753868774,
                -0.664704957009673,
                0.6739862580541996,
                -0.7260552199430266
            ]
        },
        {
            "positions": [
                -1.016333992917112,
                -2.1984796043079835,
                -0.01468433867424368,
                -0.7326692148545635,
                0.6606621443600091,
                -0.8900716018729473
            ]
        },
        {
            "positions": [
                -0.9277481352336974,
                -2.2246859855758543,
                -0.049565384887175226,
                -0.8006334726994542,
                0.6473380306658185,
                -1.054087983802868
            ]
        },
        {
            "positions": [
                -0.8819721232388578,
                -2.194719480292051,
                -0.15020351363164824,
                -0.8747944503287711,
                0.5944853762857939,
                -1.1433315803404152
            ]
        },
        {
            "positions": [
                -0.836196111244018,
                -2.164752975008248,
                -0.2508416423761212,
                -0.948955427958088,
                0.5416327219057693,
                -1.2325751768779623
            ]
        },
        {
            "positions": [
                -0.7904200992491783,
                -2.1347864697244447,
                -0.35147977112059425,
                -1.023116405587405,
                0.48878006752574477,
                -1.3218187734155094
            ]
        },
        {
            "positions": [
                -0.7446440872543387,
                -2.104819964440641,
                -0.45211789986506723,
                -1.0972773832167217,
                0.43592741314572014,
                -1.4110623699530565
            ]
        },
        {
            "positions": [
                -0.6988680752594991,
                -2.074853459156838,
                -0.5527560286095402,
                -1.1714383608460386,
                0.3830747587656956,
                -1.5003059664906035
            ]
        },
        {
            "positions": [
                -0.6530920632646594,
                -2.0448869538730348,
                -0.6533941573540133,
                -1.2455993384753556,
                0.33022210438567096,
                -1.5895495630281506
            ]
        },
        {
            "positions": [
                -0.6073160512698197,
                -2.0149204485892316,
                -0.7540322860984863,
                -1.3197603161046725,
                0.2773694500056464,
                -1.6787931595656977
            ]
        },
        {
            "positions": [
                -0.5615400392749801,
                -1.9849539433054284,
                -0.8546704148429592,
                -1.3939212937339893,
                0.22451679562562177,
                -1.7680367561032448
            ]
        },
        {
            "positions": [
                -0.5157640272801405,
                -1.9549874380216252,
                -0.9553085435874323,
                -1.4680822713633064,
                0.1716641412455972,
                -1.857280352640792
            ]
        },
        {
            "positions": [
                -0.46998801528530076,
                -1.9250209327378218,
                -1.0559466723319053,
                -1.5422432489926232,
                0.11881148686557264,
                -1.946523949178339
            ]
        },
        {
            "positions": [
                -0.42421200329046105,
                -1.8950544274540186,
                -1.1565848010763786,
                -1.6164042266219403,
                0.0659588324855479,
                -2.0357675457158866
            ]
        },
        {
            "positions": [
                -0.37843599129562144,
                -1.8650879221702155,
                -1.2572229298208515,
                -1.6905652042512571,
                0.013106178105523392,
                -2.1250111422534337
            ]
        },
        {
            "positions": [
                -0.3326599793007817,
                -1.835121416886412,
                -1.3578610585653246,
                -1.7647261818805742,
                -0.03974647627450123,
                -2.214254738790981
            ]
        },
        {
            "positions": [
                -0.2868839673059421,
                -1.8051549116026089,
                -1.4584991873097974,
                -1.8388871595098908,
                -0.09259913065452574,
                -2.303498335328528
            ]
        },
        {
            "positions": [
                -0.2411079553111024,
                -1.7751884063188057,
                -1.5591373160542705,
                -1.9130481371392078,
                -0.14545178503455047,
                -2.392741931866075
            ]
        },
        {
            "positions": [
                -0.1953319433162628,
                -1.7452219010350025,
                -1.6597754447987434,
                -1.9872091147685247,
                -0.19830443941457498,
                -2.481985528403622
            ]
        },
        {
            "positions": [
                -0.14955593132142309,
                -1.7152553957511991,
                -1.7604135735432165,
                -2.0613700923978415,
                -0.2511570937945996,
                -2.571229124941169
            ]
        },
        {
            "positions": [
                -0.10377991932658348,
                -1.685288890467396,
                -1.8610517022876896,
                -2.1355310700271586,
                -0.3040097481746241,
                -2.6604727214787163
            ]
        },
        {
            "positions": [
                -0.058003907331743765,
                -1.6553223851835925,
                -1.9616898310321627,
                -2.2096920476564756,
                -0.35686240255464874,
                -2.7497163180162634
            ]
        },
        {
            "positions": [
                -0.01222789533690416,
                -1.6253558798997894,
                -2.0623279597766353,
                -2.2838530252857923,
                -0.40971505693467325,
                -2.8389599145538105
            ]
        },
        {
            "positions": [
                0.033548116657935556,
                -1.5953893746159862,
                -2.1629660885211086,
                -2.3580140029151093,
                -0.46256771131469787,
                -2.9282035110913576
            ]
        },
        {
            "positions": [
                0.10239371157264977,
                -1.61269509865786,
                -2.197744089795192,
                -2.438857541961811,
                -0.3481676938163263,
                -2.852488783758176
            ]
        },
        {
            "positions": [
                0.171239306487364,
                -1.630000822699734,
                -2.232522091069275,
                -2.5197010810085123,
                -0.23376767631795473,
                -2.776774056424994
            ]
        },
        {
            "positions": [
                0.2400849014020782,
                -1.6473065467416081,
                -2.2673000923433584,
                -2.600544620055214,
                -0.11936765881958317,
                -2.701059329091812
            ]
        },
        {
            "positions": [
                0.3089304963167924,
                -1.664612270783482,
                -2.3020780936174416,
                -2.6813881591019157,
                -0.00496764132121158,
                -2.62534460175863
            ]
        },
        {
            "positions": [
                0.37777609123150663,
                -1.681917994825356,
                -2.336856094891525,
                -2.762231698148617,
                0.10943237617715995,
                -2.5496298744254484
            ]
        },
        {
            "positions": [
                0.44662168614622083,
                -1.69922371886723,
                -2.3716340961656086,
                -2.8430752371953183,
                0.22383239367553154,
                -2.4739151470922667
            ]
        },
        {
            "positions": [
                0.5154672810609351,
                -1.7165294429091038,
                -2.406412097439692,
                -2.92391877624202,
                0.338232411173903,
                -2.398200419759085
            ]
        },
        {
            "positions": [
                0.5843128759756493,
                -1.733835166950978,
                -2.441190098713775,
                -3.0047623152887217,
                0.4526324286722747,
                -2.3224856924259027
            ]
        },
        {
            "positions": [
                0.6531584708903635,
                -1.7511408909928519,
                -2.4759680999878584,
                -3.085605854335423,
                0.5670324461706463,
                -2.246770965092721
            ]
        },
        {
            "positions": [
                0.7220040658050777,
                -1.7684466150347258,
                -2.5107461012619416,
                -3.1664493933821247,
                0.6814324636690179,
                -2.1710562377595393
            ]
        },
        {
            "positions": [
                0.6313422378984359,
                -1.7672993916792632,
                -2.494029866906353,
                -3.0772446819388395,
                0.595133992830018,
                -2.259135466935314
            ]
        },
        {
            "positions": [
                0.540680409991794,
                -1.7661521683238004,
                -2.4773136325507643,
                -2.9880399704955543,
                0.5088355219910181,
                -2.347214696111089
            ]
        },
        {
            "positions": [
                0.4500185820851522,
                -1.7650049449683378,
                -2.4605973981951754,
                -2.898835259052269,
                0.4225370511520183,
                -2.4352939252868633
            ]
        },
        {
            "positions": [
                0.3593567541785103,
                -1.7638577216128752,
                -2.443881163839587,
                -2.809630547608984,
                0.33623858031301834,
                -2.523373154462638
            ]
        },
        {
            "positions": [
                0.26869492627186853,
                -1.7627104982574124,
                -2.4271649294839985,
                -2.7204258361656986,
                0.2499401094740185,
                -2.611452383638413
            ]
        },
        {
            "positions": [
                0.17803309836522674,
                -1.7615632749019499,
                -2.4104486951284096,
                -2.6312211247224133,
                0.16364163863501868,
                -2.6995316128141877
            ]
        },
        {
            "positions": [
                0.08737127045858495,
                -1.7604160515464873,
                -2.393732460772821,
                -2.542016413279128,
                0.0773431677960188,
                -2.787610841989962
            ]
        },
        {
            "positions": [
                -0.003290557448057063,
                -1.7592688281910247,
                -2.3770162264172323,
                -2.452811701835843,
                -0.0089553030429812,
                -2.875690071165737
            ]
        },
        {
            "positions": [
                -0.09395238535469885,
                -1.758121604835562,
                -2.360299992061644,
                -2.3636069903925576,
                -0.09525377388198097,
                -2.9637693003415118
            ]
        },
        {
            "positions": [
                -0.1846142132613407,
                -1.7569743814800993,
                -2.343583757706055,
                -2.2744022789492724,
                -0.18155224472098083,
                -3.0518485295172866
            ]
        }
    ]
}