{
    "goal": {
        "global_pose": {
            "orientation": {
                "w": 0.7047431493862688,
                "x": -0.7094548369677653,
                "y": 0.0024358444001904,
                "z": -0.0022348060817251984
            },
            "position": {
                "x": -0.39052492380142206,
                "y": 0.3671506643295288,
                "z": 0.19426114857196808
            }
        },
        "name": "move_to_magneteinheit_D"
    },
    "id": "ProjEST_move_to_magneteinheit_D_116",
    "joint_names": [
        "shoulder_pan_joint",
        "shoulder_lift_joint",
        "elbow_joint",
        "wrist_1_joint",
        "wrist_2_joint",
        "wrist_3_joint"
    ],
    "metrics": {
        "cart_traj_len": 4.746723637084049,
        "distance_elbow_joint": 3.111734547233969,
        "distance_shoulder_lift_joint": 1.2142521328025693,
        "distance_shoulder_pan_joint": 3.612151476709271,
        "distance_wrist_1_joint": 2.624564692303644,
        "distance_wrist_2_joint": 0.8874803217266349,
        "distance_wrist_3_joint": 0.5507943009107445,
        "smoothness": 0.6739048154254813,
        "time": 0.725082692,
        "traj_len": 3.4642426981501786,
        "weighted_distance": 4.076102438302869
    },
    "planner": "ProjEST",
    "start": {
        "state": {
            "elbow_joint": 0.7495348899011973,
            "shoulder_lift_joint": -0.6476975780737697,
            "shoulder_pan_joint": -2.711696901376276,
            "wrist_1_joint": -0.07506478080974305,
            "wrist_2_joint": 0.4329665971545858,
            "wrist_3_joint": 3.1361499051832524
        }
    },
    "waypoints": [
        {
            "positions": [
                -2.711696901376276,
                -0.6476975780737697,
                0.7495348899011973,
                -0.07506478080974305,
                0.4329665971545858,
                3.1361499051832524
            ]
        },
        {
            "positions": [
                -2.7916185114051757,
                -0.6503667005112028,
                0.6485680972908521,
                -0.02934181225210819,
                0.3768584918682059,
                3.090616704621615
            ]
        },
        {
            "positions": [
                -2.8715401214340748,
                -0.6530358229486358,
                0.5476013046805068,
                0.016381156305526667,
                0.32075038658182603,
                3.0450835040599777
            ]
        },
        {
            "positions": [
                -2.9514617314629743,
                -0.6557049453860688,
                0.4466345120701617,
                0.062104124863161525,
                0.26464228129544615,
                2.9995503034983404
            ]
        },
        {
            "positions": [
                -3.031383341491874,
                -0.6583740678235019,
                0.34566771945981645,
                0.10782709342079638,
                0.20853417600906626,
                2.954017102936703
            ]
        },
        {
            "positions": [
                -2.897955645026289,
                -0.7007760975710907,
                0.24556819642217703,
                0.026671408326845406,
                0.18584415205892527,
                2.9499668137341812
            ]
        },
        {
            "positions": [
                -2.764527948560704,
                -0.7431781273186795,
                0.1454686733845376,
                -0.05448427676710557,
                0.16315412810878427,
                2.94591652453166
            ]
        },
        {
            "positions": [
                -2.631100252095119,
                -0.7855801570662683,
                0.045369150346898146,
                -0.13563996186105656,
                0.14046410415864327,
                2.941866235329138
            ]
        },
        {
            "positions": [
                -2.497672555629534,
                -0.827982186813857,
                -0.05473037269074127,
                -0.21679564695500753,
                0.11777408020850227,
                2.9378159461266167
            ]
        },
        {
            "positions": [
                -2.364244859163949,
                -0.8703842165614458,
                -0.15482989572838068,
                -0.2979513320489585,
                0.09508405625836128,
                2.933765656924095
            ]
        },
        {
            "positions": [
                -2.230817162698364,
                -0.9127862463090346,
                -0.25492941876602015,
                -0.3791070171429095,
                0.07239403230822028,
                2.9297153677215735
            ]
        },
        {
            "positions": [
                -2.097389466232779,
                -0.9551882760566234,
                -0.3550289418036596,
                -0.46026270223686055,
                0.049704008358079255,
                2.9256650785190517
            ]
        },
        {
            "positions": [
                -1.9639617697671945,
                -0.9975903058042122,
                -0.455128464841299,
                -0.5414183873308114,
                0.027013984407938285,
                2.92161478931653
            ]
        },
        {
            "positions": [
                -1.8305340733016096,
                -1.0399923355518008,
                -0.5552279878789385,
                -0.6225740724247626,
                0.00432396045779726,
                2.9175645001140085
            ]
        },
        {
            "positions": [
                -1.6971063768360246,
                -1.0823943652993897,
                -0.6553275109165778,
                -0.7037297575187134,
                -0.01836606349234371,
                2.9135142109114867
            ]
        },
        {
            "positions": [
                -1.5636786803704397,
                -1.1247963950469784,
                -0.7554270339542172,
                -0.7848854426126644,
                -0.041056087442484734,
                2.9094639217089653
            ]
        },
        {
            "positions": [
                -1.4302509839048547,
                -1.167198424794567,
                -0.8555265569918568,
                -0.8660411277066153,
                -0.0637461113926257,
                2.9054136325064435
            ]
        },
        {
            "positions": [
                -1.29682328743927,
                -1.209600454542156,
                -0.9556260800294961,
                -0.9471968128005663,
                -0.08643613534276667,
                2.901363343303922
            ]
        },
        {
            "positions": [
                -1.1633955909736848,
                -1.2520024842897448,
                -1.0557256030671356,
                -1.0283524978945175,
                -0.10912615929290775,
                2.8973130541014003
            ]
        },
        {
            "positions": [
                -1.0299678945081001,
                -1.2944045140373335,
                -1.1558251261047752,
                -1.1095081829884683,
                -0.13181618324304872,
                2.893262764898879
            ]
        },
        {
            "positions": [
                -0.8965401980425152,
                -1.3368065437849221,
                -1.2559246491424143,
                -1.1906638680824193,
                -0.1545062071931897,
                2.889212475696357
            ]
        },
        {
            "positions": [
                -0.7631125015769302,
                -1.379208573532511,
                -1.3560241721800539,
                -1.2718195531763703,
                -0.17719623114333066,
                2.8851621864938353
            ]
        },
        {
            "positions": [
                -0.6296848051113453,
                -1.4216106032801,
                -1.4561236952176935,
                -1.3529752382703215,
                -0.19988625509347174,
                2.881111897291314
            ]
        },
        {
            "positions": [
                -0.49625710864576034,
                -1.4640126330276886,
                -1.5562232182553326,
                -1.4341309233642723,
                -0.2225762790436127,
                2.877061608088792
            ]
        },
        {
            "positions": [
                -0.3628294121801754,
                -1.5064146627752772,
                -1.6563227412929722,
                -1.5152866084582233,
                -0.24526630299375368,
                2.8730113188862707
            ]
        },
        {
            "positions": [
                -0.22940171571459045,
                -1.5488166925228661,
                -1.7564222643306113,
                -1.5964422935521743,
                -0.26795632694389465,
                2.868961029683749
            ]
        },
        {
            "positions": [
                -0.0959740192490055,
                -1.591218722270455,
                -1.856521787368251,
                -1.6775979786461253,
                -0.29064635089403573,
                2.8649107404812275
            ]
        },
        {
            "positions": [
                0.03745367721657959,
                -1.6336207520180437,
                -1.9566213104058905,
                -1.7587536637400762,
                -0.3133363748441767,
                2.8608604512787057
            ]
        },
        {
            "positions": [
                0.029093257828689687,
                -1.6577524458333701,
                -2.0296031182272474,
                -1.855812843581987,
                -0.3036753825809946,
                2.9382932220404125
            ]
        },
        {
            "positions": [
                0.020732838440799782,
                -1.6818841396486963,
                -2.102584926048604,
                -1.9528720234238977,
                -0.2940143903178124,
                3.015725992802119
            ]
        },
        {
            "positions": [
                -0.02246638585965894,
                -1.722311698285665,
                -2.1791800448784495,
                -2.0541191705167745,
                -0.28439275612650805,
                3.0215285480265526
            ]
        },
        {
            "positions": [
                -0.06566561016011765,
                -1.762739256922634,
                -2.2557751637082957,
                -2.155366317609651,
                -0.2747711219352037,
                3.0273311032509858
            ]
        },
        {
            "positions": [
                -0.10886483446057638,
                -1.8031668155596026,
                -2.3323702825381414,
                -2.2566134647025278,
                -0.26514948774389935,
                3.0331336584754194
            ]
        },
        {
            "positions": [
                -0.1475195875646085,
                -1.7737753679012345,
                -2.3472849699354565,
                -2.2179973347276376,
                -0.21865425643010183,
                3.0847494783801617
            ]
        },
        {
            "positions": [
                -0.18617434066864064,
                -1.7443839202428661,
                -2.3621996573327717,
                -2.1793812047527474,
                -0.17215902511630432,
                3.1363652982849035
            ]
        }
    ]
}