{
    "goal": {
        "global_pose": {
            "orientation": {
                "w": 0.7031023480610252,
                "x": -0.7110244013736278,
                "y": 0.0077485991402295624,
                "z": 0.005598929693374583
            },
            "position": {
                "x": -0.8841497679147869,
                "y": 0.44412534475326537,
                "z": 0.3711530566215515
            }
        },
        "name": "move_to_auspresseinheit_D"
    },
    "id": "ProjEST_move_to_auspresseinheit_D_131",
    "joint_names": [
        "shoulder_pan_joint",
        "shoulder_lift_joint",
        "elbow_joint",
        "wrist_1_joint",
        "wrist_2_joint",
        "wrist_3_joint"
    ],
    "metrics": {
        "cart_traj_len": 3.9327804794136636,
        "distance_elbow_joint": 3.020966524662253,
        "distance_shoulder_lift_joint": 1.2310964150060215,
        "distance_shoulder_pan_joint": 2.796747636961409,
        "distance_wrist_1_joint": 2.873245882112022,
        "distance_wrist_2_joint": 1.2240100866003432,
        "distance_wrist_3_joint": 0.06867003844839648,
        "smoothness": 0.08578997582868762,
        "time": 0.09030960099999999,
        "traj_len": 3.34884108070097,
        "weighted_distance": 3.9305639073038363
    },
    "planner": "ProjEST",
    "start": {
        "state": {
            "elbow_joint": 1.8268400409724999,
            "shoulder_lift_joint": -1.0144045787793008,
            "shoulder_pan_joint": 2.6280239544362485,
            "wrist_1_joint": -0.790705565816056,
            "wrist_2_joint": 1.0573557467365533,
            "wrist_3_joint": 3.1851377467193758
        }
    },
    "waypoints": [
        {
            "positions": [
                2.6280239544362485,
                -1.0144045787793008,
                1.8268400409724999,
                -0.790705565816056,
                1.0573557467365533,
                3.1851377467193758
            ]
        },
        {
            "positions": [
                2.5375092382031554,
                -1.0331084854493904,
                1.6159507350324582,
                -0.7618176742615532,
                1.0363382323717367,
                3.1822299455924306
            ]
        },
        {
            "positions": [
                2.4469945219700624,
                -1.05181239211948,
                1.4050614290924166,
                -0.7329297827070504,
                1.0153207180069201,
                3.1793221444654853
            ]
        },
        {
            "positions": [
                2.3564798057369694,
                -1.0705162987895696,
                1.194172123152375,
                -0.7040418911525477,
                0.9943032036421036,
                3.17641434333854
            ]
        },
        {
            "positions": [
                2.2659650895038763,
                -1.089220205459659,
                0.9832828172123331,
                -0.6751539995980449,
                0.973285689277287,
                3.173506542211595
            ]
        },
        {
            "positions": [
                2.1754503732707833,
                -1.1079241121297485,
                0.7723935112722913,
                -0.6462661080435421,
                0.9522681749124704,
                3.1705987410846497
            ]
        },
        {
            "positions": [
                2.0849356570376902,
                -1.126628018799838,
                0.5615042053322499,
                -0.6173782164890393,
                0.9312506605476538,
                3.1676909399577045
            ]
        },
        {
            "positions": [
                1.9944209408045972,
                -1.1453319254699277,
                0.350614899392208,
                -0.5884903249345366,
                0.9102331461828372,
                3.1647831388307592
            ]
        },
        {
            "positions": [
                1.9039062245715044,
                -1.1640358321400173,
                0.1397255934521664,
                -0.5596024333800338,
                0.8892156318180207,
                3.161875337703814
            ]
        },
        {
            "positions": [
                1.8133915083384111,
                -1.1827397388101069,
                -0.07116371248787545,
                -0.530714541825531,
                0.868198117453204,
                3.158967536576869
            ]
        },
        {
            "positions": [
                1.722876792105318,
                -1.2014436454801964,
                -0.2820530184279173,
                -0.5018266502710282,
                0.8471806030883874,
                3.1560597354499236
            ]
        },
        {
            "positions": [
                1.6323620758722253,
                -1.2201475521502858,
                -0.4929423243679585,
                -0.47293875871652546,
                0.8261630887235708,
                3.1531519343229784
            ]
        },
        {
            "positions": [
                1.5418473596391322,
                -1.2388514588203754,
                -0.7038316303080001,
                -0.4440508671620227,
                0.8051455743587543,
                3.150244133196033
            ]
        },
        {
            "positions": [
                1.4513326434060392,
                -1.257555365490465,
                -0.9147209362480422,
                -0.4151629756075199,
                0.7841280599939376,
                3.147336332069088
            ]
        },
        {
            "positions": [
                1.3608179271729461,
                -1.2762592721605546,
                -1.125610242188084,
                -0.38627508405301714,
                0.7631105456291211,
                3.1444285309421427
            ]
        },
        {
            "positions": [
                1.2652215765668144,
                -1.3368368797621026,
                -1.1298925072819381,
                -0.5405760465748286,
                0.7050002402858141,
                3.1461760823590903
            ]
        },
        {
            "positions": [
                1.169625225960683,
                -1.3974144873636505,
                -1.1341747723757922,
                -0.6948770090966401,
                0.6468899349425072,
                3.1479236337760383
            ]
        },
        {
            "positions": [
                1.0740288753545513,
                -1.4579920949651985,
                -1.1384570374696463,
                -0.8491779716184515,
                0.5887796295992003,
                3.149671185192986
            ]
        },
        {
            "positions": [
                0.9784325247484196,
                -1.5185697025667464,
                -1.1427393025635004,
                -1.003478934140263,
                0.5306693242558933,
                3.1514187366099335
            ]
        },
        {
            "positions": [
                0.8828361741422879,
                -1.5791473101682945,
                -1.1470215676573545,
                -1.1577798966620745,
                0.47255901891258634,
                3.153166288026881
            ]
        },
        {
            "positions": [
                0.7872398235361563,
                -1.6397249177698425,
                -1.1513038327512086,
                -1.312080859183886,
                0.4144487135692794,
                3.1549138394438287
            ]
        },
        {
            "positions": [
                0.6916434729300247,
                -1.7003025253713906,
                -1.1555860978450627,
                -1.4663818217056974,
                0.3563384082259725,
                3.156661390860777
            ]
        },
        {
            "positions": [
                0.596047122323893,
                -1.7608801329729384,
                -1.1598683629389168,
                -1.6206827842275089,
                0.29822810288266555,
                3.1584089422777244
            ]
        },
        {
            "positions": [
                0.5004507717177613,
                -1.8214577405744863,
                -1.164150628032771,
                -1.7749837467493204,
                0.24011779753935858,
                3.160156493694672
            ]
        },
        {
            "positions": [
                0.4048544211116297,
                -1.8820353481760344,
                -1.168432893126625,
                -1.9292847092711318,
                0.1820074921960516,
                3.16190404511162
            ]
        },
        {
            "positions": [
                0.30925807050549814,
                -1.9426129557775824,
                -1.1727151582204791,
                -2.0835856717929433,
                0.12389718685274476,
                3.1636515965285676
            ]
        },
        {
            "positions": [
                0.21366171989936644,
                -2.0031905633791305,
                -1.1769974233143332,
                -2.237886634314755,
                0.06578688150943779,
                3.1653991479455152
            ]
        },
        {
            "positions": [
                0.11806536929323475,
                -2.063768170980678,
                -1.1812796884081873,
                -2.3921875968365667,
                0.007676576166130822,
                3.167146699362463
            ]
        },
        {
            "positions": [
                0.02246901868710327,
                -2.124345778582226,
                -1.1855619535020414,
                -2.5464885593583775,
                -0.050433729177176034,
                3.1688942507794104
            ]
        },
        {
            "positions": [
                -0.07312733191902843,
                -2.1849233861837742,
                -1.1898442185958955,
                -2.700789521880189,
                -0.108544034520483,
                3.1706418021963585
            ]
        },
        {
            "positions": [
                -0.16872368252516015,
                -2.2455009937853223,
                -1.1941264836897496,
                -2.8550904844020004,
                -0.1666543398637899,
                3.172389353613306
            ]
        }
    ]
}