{
    "goal": {
        "global_pose": {
            "orientation": {
                "w": -0.4816463035849501,
                "x": 0.5182115481033762,
                "y": 0.4908360881923453,
                "z": -0.5084816262002911
            },
            "position": {
                "x": -0.8240239810943604,
                "y": 0.19912469901144506,
                "z": 0.16403168439865112
            }
        },
        "name": "move_to_storage_D"
    },
    "id": "ProjEST_move_to_storage_D_49",
    "joint_names": [
        "shoulder_pan_joint",
        "shoulder_lift_joint",
        "elbow_joint",
        "wrist_1_joint",
        "wrist_2_joint",
        "wrist_3_joint"
    ],
    "metrics": {
        "cart_traj_len": 3.8397006664004163,
        "distance_elbow_joint": 4.209927784108063,
        "distance_shoulder_lift_joint": 1.264862006374456,
        "distance_shoulder_pan_joint": 2.8138888580465182,
        "distance_wrist_1_joint": 2.268445351267906,
        "distance_wrist_2_joint": 0.8730798856743255,
        "distance_wrist_3_joint": 3.137215771129329,
        "smoothness": 8.198570032292218e-16,
        "time": 0.148212246,
        "traj_len": 3.8167289210265642,
        "weighted_distance": 4.897282556255202
    },
    "planner": "ProjEST",
    "start": {
        "state": {
            "elbow_joint": -2.384821997420982,
            "shoulder_lift_joint": -2.2788054674887404,
            "shoulder_pan_joint": -0.18546946417610016,
            "wrist_1_joint": 1.4845937964226739,
            "wrist_2_joint": 0.1789877726866377,
            "wrist_3_joint": 0.03710572555276528
        }
    },
    "waypoints": [
        {
            "positions": [
                -0.18546946417610016,
                -2.2788054674887404,
                -2.384821997420982,
                1.4845937964226739,
                0.1789877726866377,
                0.03710572555276528
            ]
        },
        {
            "positions": [
                -0.08777618217497989,
                -2.2356561252970426,
                -2.2818632495143074,
                1.4355397894055215,
                0.2151371988733412,
                0.088476695332422
            ]
        },
        {
            "positions": [
                0.009917099826140391,
                -2.1925067831053444,
                -2.1789045016076325,
                1.3864857823883692,
                0.25128662506004473,
                0.13984766511207872
            ]
        },
        {
            "positions": [
                0.10761038182726068,
                -2.1493574409136467,
                -2.075945753700958,
                1.337431775371217,
                0.2874360512467482,
                0.19121863489173546
            ]
        },
        {
            "positions": [
                0.20530366382838094,
                -2.1062080987219485,
                -1.9729870057942833,
                1.2883777683540647,
                0.32358547743345173,
                0.24258960467139218
            ]
        },
        {
            "positions": [
                0.3029969458295012,
                -2.0630587565302507,
                -1.8700282578876086,
                1.2393237613369124,
                0.35973490362015526,
                0.2939605744510489
            ]
        },
        {
            "positions": [
                0.4006902278306215,
                -2.019909414338553,
                -1.7670695099809341,
                1.19026975431976,
                0.3958843298068587,
                0.3453315442307056
            ]
        },
        {
            "positions": [
                0.4983835098317418,
                -1.9767600721468548,
                -1.6641107620742595,
                1.1412157473026077,
                0.4320337559935622,
                0.39670251401036233
            ]
        },
        {
            "positions": [
                0.596076791832862,
                -1.9336107299551568,
                -1.5611520141675848,
                1.0921617402854553,
                0.4681831821802658,
                0.44807348379001904
            ]
        },
        {
            "positions": [
                0.6937700738339823,
                -1.8904613877634588,
                -1.4581932662609103,
                1.043107733268303,
                0.5043326083669692,
                0.49944445356967576
            ]
        },
        {
            "positions": [
                0.7914633558351025,
                -1.847312045571761,
                -1.3552345183542356,
                0.9940537262511507,
                0.5404820345536727,
                0.5508154233493325
            ]
        },
        {
            "positions": [
                0.889156637836223,
                -1.804162703380063,
                -1.2522757704475607,
                0.9449997192339984,
                0.5766314607403763,
                0.6021863931289893
            ]
        },
        {
            "positions": [
                0.9868499198373433,
                -1.7610133611883652,
                -1.1493170225408862,
                0.8959457122168462,
                0.6127808869270798,
                0.653557362908646
            ]
        },
        {
            "positions": [
                1.0845432018384635,
                -1.7178640189966672,
                -1.0463582746342115,
                0.8468917051996938,
                0.6489303131137834,
                0.7049283326883027
            ]
        },
        {
            "positions": [
                1.1822364838395838,
                -1.6747146768049692,
                -0.943399526727537,
                0.7978376981825415,
                0.6850797393004867,
                0.7562993024679594
            ]
        },
        {
            "positions": [
                1.2799297658407043,
                -1.6315653346132712,
                -0.8404407788208621,
                0.7487836911653891,
                0.7212291654871903,
                0.8076702722476162
            ]
        },
        {
            "positions": [
                1.3776230478418243,
                -1.5884159924215733,
                -0.7374820309141876,
                0.6997296841482369,
                0.7573785916738938,
                0.8590412420272728
            ]
        },
        {
            "positions": [
                1.4753163298429448,
                -1.5452666502298755,
                -0.6345232830075129,
                0.6506756771310845,
                0.7935280178605973,
                0.9104122118069297
            ]
        },
        {
            "positions": [
                1.5730096118440648,
                -1.5021173080381776,
                -0.5315645351008385,
                0.6016216701139323,
                0.8296774440473008,
                0.9617831815865863
            ]
        },
        {
            "positions": [
                1.6707028938451853,
                -1.4589679658464796,
                -0.42860578719416353,
                0.5525676630967798,
                0.8658268702340043,
                1.0131541513662432
            ]
        },
        {
            "positions": [
                1.7683961758463054,
                -1.4158186236547816,
                -0.3256470392874893,
                0.5035136560796276,
                0.9019762964207078,
                1.0645251211459
            ]
        },
        {
            "positions": [
                1.8660894578474259,
                -1.3726692814630836,
                -0.22268829138081442,
                0.45445964906247527,
                0.9381257226074113,
                1.1158960909255566
            ]
        },
        {
            "positions": [
                1.910932395260543,
                -1.3515677626190366,
                -0.10222981620035002,
                0.38161781353849245,
                0.9448281894164438,
                1.236979938323
            ]
        },
        {
            "positions": [
                1.9557753326736602,
                -1.3304662437749897,
                0.018228658980114387,
                0.3087759780145097,
                0.9515306562254763,
                1.3580637857204434
            ]
        },
        {
            "positions": [
                2.0006182700867776,
                -1.3093647249309426,
                0.13868713416057882,
                0.23593414249052685,
                0.9582331230345087,
                1.4791476331178868
            ]
        },
        {
            "positions": [
                2.0454612074998946,
                -1.2882632060868955,
                0.2591456093410432,
                0.1630923069665441,
                0.9649355898435412,
                1.6002314805153302
            ]
        },
        {
            "positions": [
                2.090304144913012,
                -1.2671616872428486,
                0.3796040845215077,
                0.09025047144256126,
                0.9716380566525736,
                1.7213153279127735
            ]
        },
        {
            "positions": [
                2.1351470823261294,
                -1.2460601683988015,
                0.5000625597019721,
                0.01740863591857844,
                0.978340523461606,
                1.8423991753102171
            ]
        },
        {
            "positions": [
                2.1799900197392463,
                -1.2249586495547544,
                0.6205210348824364,
                -0.05543319960540427,
                0.9850429902706386,
                1.9634830227076603
            ]
        },
        {
            "positions": [
                2.2248329571523637,
                -1.2038571307107075,
                0.7409795100629009,
                -0.1282750351293871,
                0.991745457079671,
                2.084566870105104
            ]
        },
        {
            "positions": [
                2.2696758945654807,
                -1.1827556118666605,
                0.8614379852433653,
                -0.20111687065336992,
                0.9984479238887035,
                2.2056507175025475
            ]
        },
        {
            "positions": [
                2.314518831978598,
                -1.1616540930226136,
                0.9818964604238298,
                -0.27395870617735274,
                1.005150390697736,
                2.326734564899991
            ]
        },
        {
            "positions": [
                2.3593617693917155,
                -1.1405525741785665,
                1.102354935604294,
                -0.34680054170133556,
                1.0118528575067685,
                2.4478184122974342
            ]
        },
        {
            "positions": [
                2.4042047068048324,
                -1.1194510553345194,
                1.2228134107847586,
                -0.4196423772253184,
                1.018555324315801,
                2.5689022596948776
            ]
        },
        {
            "positions": [
                2.4490476442179494,
                -1.0983495364904725,
                1.3432718859652228,
                -0.492484212749301,
                1.0252577911248333,
                2.689986107092321
            ]
        },
        {
            "positions": [
                2.493890581631067,
                -1.0772480176464254,
                1.4637303611456873,
                -0.5653260482732838,
                1.0319602579338658,
                2.8110699544897644
            ]
        },
        {
            "positions": [
                2.538733519044184,
                -1.0561464988023783,
                1.5841888363261516,
                -0.6381678837972666,
                1.0386627247428983,
                2.9321538018872078
            ]
        },
        {
            "positions": [
                2.583576456457301,
                -1.0350449799583314,
                1.704647311506616,
                -0.7110097193212495,
                1.0453651915519306,
                3.053237649284651
            ]
        },
        {
            "positions": [
                2.6284193938704186,
                -1.0139434611142844,
                1.8251057866870803,
                -0.7838515548452322,
                1.0520676583609632,
                3.1743214966820945
            ]
        }
    ]
}