{
    "goal": {
        "global_pose": {
            "orientation": {
                "w": 0.7047431493862688,
                "x": -0.7094548369677653,
                "y": 0.0024358444001904,
                "z": -0.0022348060817251984
            },
            "position": {
                "x": -0.39052492380142206,
                "y": 0.3671506643295288,
                "z": 0.19426114857196808
            }
        },
        "name": "move_to_magneteinheit_D"
    },
    "id": "ProjEST_move_to_magneteinheit_D_50",
    "joint_names": [
        "shoulder_pan_joint",
        "shoulder_lift_joint",
        "elbow_joint",
        "wrist_1_joint",
        "wrist_2_joint",
        "wrist_3_joint"
    ],
    "metrics": {
        "cart_traj_len": 3.859790193324033,
        "distance_elbow_joint": 3.145115512760775,
        "distance_shoulder_lift_joint": 1.6270568013919466,
        "distance_shoulder_pan_joint": 3.513547256516533,
        "distance_wrist_1_joint": 2.910816816802299,
        "distance_wrist_2_joint": 1.4083939042935918,
        "distance_wrist_3_joint": 3.0571904558174268,
        "smoothness": 0.34106441801138293,
        "time": 0.16091162,
        "traj_len": 3.957539734176092,
        "weighted_distance": 5.108396263047074
    },
    "planner": "ProjEST",
    "start": {
        "state": {
            "elbow_joint": 0.7495348899011973,
            "shoulder_lift_joint": -0.6476975780737697,
            "shoulder_pan_joint": -2.711696901376276,
            "wrist_1_joint": -0.07506478080974305,
            "wrist_2_joint": 0.4329665971545858,
            "wrist_3_joint": 3.1361499051832524
        }
    },
    "waypoints": [
        {
            "positions": [
                -2.711696901376276,
                -0.6476975780737697,
                0.7495348899011973,
                -0.07506478080974305,
                0.4329665971545858,
                3.1361499051832524
            ]
        },
        {
            "positions": [
                -2.6950436414611723,
                -0.6621845542057677,
                0.7336607448769235,
                0.11061107920222626,
                0.4833991131523117,
                3.050363457892013
            ]
        },
        {
            "positions": [
                -2.678390381546068,
                -0.6766715303377656,
                0.7177865998526495,
                0.2962869392141956,
                0.5338316291500376,
                2.964577010600774
            ]
        },
        {
            "positions": [
                -2.661737121630964,
                -0.6911585064697636,
                0.7019124548283756,
                0.48196279922616486,
                0.5842641451477635,
                2.878790563309535
            ]
        },
        {
            "positions": [
                -2.64508386171586,
                -0.7056454826017616,
                0.6860383098041016,
                0.6676386592381343,
                0.6346966611454894,
                2.7930041160182957
            ]
        },
        {
            "positions": [
                -2.6284306018007557,
                -0.7201324587337595,
                0.6701641647798278,
                0.8533145192501037,
                0.6851291771432153,
                2.7072176687270564
            ]
        },
        {
            "positions": [
                -2.611777341885652,
                -0.7346194348657575,
                0.6542900197555538,
                1.0389903792620727,
                0.7355616931409412,
                2.6214312214358175
            ]
        },
        {
            "positions": [
                -2.595124081970548,
                -0.7491064109977555,
                0.6384158747312799,
                1.2246662392740422,
                0.7859942091386671,
                2.5356447741445782
            ]
        },
        {
            "positions": [
                -2.5784708220554435,
                -0.7635933871297534,
                0.6225417297070059,
                1.4103420992860114,
                0.8364267251363929,
                2.449858326853339
            ]
        },
        {
            "positions": [
                -2.5618175621403396,
                -0.7780803632617515,
                0.6066675846827321,
                1.5960179592979808,
                0.8868592411341188,
                2.3640718795620996
            ]
        },
        {
            "positions": [
                -2.545672954988412,
                -0.799614096237382,
                0.5828624283855268,
                1.6904663634051287,
                0.9138169519558677,
                2.2490422322635304
            ]
        },
        {
            "positions": [
                -2.529528347836485,
                -0.8211478292130125,
                0.5590572720883215,
                1.7849147675122765,
                0.9407746627776166,
                2.134012584964961
            ]
        },
        {
            "positions": [
                -2.5133837406845574,
                -0.8426815621886431,
                0.5352521157911161,
                1.8793631716194241,
                0.9677323735993654,
                2.018982937666392
            ]
        },
        {
            "positions": [
                -2.49723913353263,
                -0.8642152951642736,
                0.5114469594939108,
                1.973811575726572,
                0.9946900844211142,
                1.9039532903678225
            ]
        },
        {
            "positions": [
                -2.474923799632009,
                -0.9055520055261406,
                0.4655388248384113,
                1.972157486104538,
                0.9980582343310467,
                1.6957218251139035
            ]
        },
        {
            "positions": [
                -2.4526084657313882,
                -0.9468887158880076,
                0.41963069018291177,
                1.9705033964825038,
                1.001426384240979,
                1.4874903598599847
            ]
        },
        {
            "positions": [
                -2.430293131830768,
                -0.9882254262498746,
                0.3737225555274123,
                1.9688493068604698,
                1.0047945341509115,
                1.2792588946060657
            ]
        },
        {
            "positions": [
                -2.407977797930147,
                -1.0295621366117416,
                0.32781442087191276,
                1.9671952172384357,
                1.008162684060844,
                1.0710274293521467
            ]
        },
        {
            "positions": [
                -2.284476493752194,
                -1.073191517263545,
                0.20751170182705986,
                1.9359606191821794,
                0.9816815292611798,
                1.0320396179557776
            ]
        },
        {
            "positions": [
                -2.160975189574241,
                -1.1168208979153484,
                0.08720898278220698,
                1.9047260211259232,
                0.9552003744615157,
                0.9930518065594085
            ]
        },
        {
            "positions": [
                -2.037473885396288,
                -1.160450278567152,
                -0.033093736262645834,
                1.8734914230696669,
                0.9287192196618516,
                0.9540639951630394
            ]
        },
        {
            "positions": [
                -1.913972581218335,
                -1.2040796592189553,
                -0.1533964553074988,
                1.8422568250134106,
                0.9022380648621874,
                0.9150761837666703
            ]
        },
        {
            "positions": [
                -1.790471277040382,
                -1.2477090398707587,
                -0.27369917435235164,
                1.8110222269571543,
                0.8757569100625233,
                0.8760883723703013
            ]
        },
        {
            "positions": [
                -1.666969972862429,
                -1.2913384205225622,
                -0.39400189339720443,
                1.779787628900898,
                0.8492757552628591,
                0.8371005609739323
            ]
        },
        {
            "positions": [
                -1.5434686686844759,
                -1.3349678011743658,
                -0.5143046124420574,
                1.7485530308446418,
                0.822794600463195,
                0.7981127495775632
            ]
        },
        {
            "positions": [
                -1.419967364506523,
                -1.378597181826169,
                -0.6346073314869103,
                1.7173184327883855,
                0.7963134456635308,
                0.7591249381811941
            ]
        },
        {
            "positions": [
                -1.2964660603285698,
                -1.4222265624779724,
                -0.7549100505317632,
                1.6860838347321292,
                0.7698322908638666,
                0.720137126784825
            ]
        },
        {
            "positions": [
                -1.172964756150617,
                -1.465855943129776,
                -0.8752127695766161,
                1.6548492366758731,
                0.7433511360642026,
                0.681149315388456
            ]
        },
        {
            "positions": [
                -1.0494634519726638,
                -1.5094853237815795,
                -0.995515488621469,
                1.6236146386196166,
                0.7168699812645384,
                0.6421615039920869
            ]
        },
        {
            "positions": [
                -0.9259621477947109,
                -1.5531147044333828,
                -1.1158182076663217,
                1.5923800405633606,
                0.6903888264648743,
                0.6031736925957178
            ]
        },
        {
            "positions": [
                -0.8024608436167577,
                -1.5967440850851862,
                -1.2361209267111748,
                1.561145442507104,
                0.6639076716652101,
                0.5641858811993488
            ]
        },
        {
            "positions": [
                -0.6789595394388046,
                -1.6403734657369897,
                -1.3564236457560277,
                1.529910844450848,
                0.637426516865546,
                0.5251980698029797
            ]
        },
        {
            "positions": [
                -0.5554582352608517,
                -1.6840028463887933,
                -1.4767263648008804,
                1.4986762463945917,
                0.6109453620658818,
                0.4862102584066106
            ]
        },
        {
            "positions": [
                -0.43195693108289857,
                -1.7276322270405966,
                -1.5970290838457335,
                1.4674416483383355,
                0.5844642072662176,
                0.4472224470102415
            ]
        },
        {
            "positions": [
                -0.30845562690494566,
                -1.7712616076924,
                -1.7173318028905864,
                1.4362070502820792,
                0.5579830524665534,
                0.4082346356138724
            ]
        },
        {
            "positions": [
                -0.18495432272699253,
                -1.8148909883442035,
                -1.837634521935439,
                1.404972452225823,
                0.5315018976668893,
                0.3692468242175033
            ]
        },
        {
            "positions": [
                -0.061453018549039395,
                -1.858520368996007,
                -1.9579372409802922,
                1.3737378541695666,
                0.5050207428672252,
                0.33025901282113435
            ]
        },
        {
            "positions": [
                0.06204828562891329,
                -1.9021497496478104,
                -2.0782399600251447,
                1.3425032561133103,
                0.47853958806756114,
                0.29127120142476526
            ]
        },
        {
            "positions": [
                0.18554958980686642,
                -1.9457791302996137,
                -2.198542679069998,
                1.311268658057054,
                0.45205843326789696,
                0.25228339002839617
            ]
        },
        {
            "positions": [
                0.3090508939848194,
                -1.9894085109514172,
                -2.3188453981148505,
                1.2800340600007978,
                0.4255772784682328,
                0.21329557863202708
            ]
        },
        {
            "positions": [
                0.18585102869596004,
                -2.060744978079992,
                -2.3380292043010322,
                1.3220747961358497,
                0.36292417551955225,
                0.1797115463154775
            ]
        },
        {
            "positions": [
                0.06265116340710072,
                -2.132081445208567,
                -2.3572130104872144,
                1.3641155322709015,
                0.3002710725708717,
                0.14612751399892793
            ]
        },
        {
            "positions": [
                -0.06054870188175859,
                -2.203417912337142,
                -2.376396816673396,
                1.4061562684059532,
                0.23761796962219117,
                0.11254348168237835
            ]
        },
        {
            "positions": [
                -0.18374856717061794,
                -2.2747543794657163,
                -2.395580622859578,
                1.448197004541005,
                0.17496486667351063,
                0.07895944936582877
            ]
        }
    ]
}