{
    "goal": {
        "global_pose": {
            "orientation": {
                "w": 0.5084816217422485,
                "x": -0.49083608388900757,
                "y": 0.5182115435600281,
                "z": -0.4816462993621826
            },
            "position": {
                "x": 0.5540239810943604,
                "y": 0.030875300988554955,
                "z": 0.16403168439865112
            }
        },
        "name": "move_to_storage_A"
    },
    "id": "ProjEST_move_to_storage_A_128",
    "joint_names": [
        "shoulder_pan_joint",
        "shoulder_lift_joint",
        "elbow_joint",
        "wrist_1_joint",
        "wrist_2_joint",
        "wrist_3_joint"
    ],
    "metrics": {
        "cart_traj_len": 0.3524899932783775,
        "distance_elbow_joint": 0.45435218679886624,
        "distance_shoulder_lift_joint": 0.2334900519447991,
        "distance_shoulder_pan_joint": 0.46116682323676456,
        "distance_wrist_1_joint": 0.26041637102238335,
        "distance_wrist_2_joint": 1.0969098450697774,
        "distance_wrist_3_joint": 0.09864074153499258,
        "smoothness": 0.0,
        "time": 0.031640382,
        "traj_len": 1.6139938102754865,
        "weighted_distance": 2.039505753551514
    },
    "planner": "ProjEST",
    "start": {
        "state": {
            "elbow_joint": 1.9715474177455299,
            "shoulder_lift_joint": -1.139484666580328,
            "shoulder_pan_joint": 0.12281154398918248,
            "wrist_1_joint": -0.7804687475355282,
            "wrist_2_joint": 0.12958649657246987,
            "wrist_3_joint": -3.1924925159053466
        }
    },
    "waypoints": [
        {
            "positions": [
                0.12281154398918248,
                -1.139484666580328,
                1.9715474177455299,
                -0.7804687475355282,
                0.12958649657246987,
                -3.1924925159053466
            ]
        },
        {
            "positions": [
                0.05693056924107326,
                -1.1728403882867278,
                2.0364548730025107,
                -0.8176710862530115,
                0.28628790301100954,
                -3.1784009814003475
            ]
        },
        {
            "positions": [
                -0.008950405507035963,
                -1.2061961099931278,
                2.1013623282594915,
                -0.8548734249704949,
                0.4429893094495492,
                -3.1643094468953485
            ]
        },
        {
            "positions": [
                -0.07483138025514519,
                -1.2395518316995275,
                2.1662697835164724,
                -0.8920757636879781,
                0.5996907158880889,
                -3.1502179123903495
            ]
        },
        {
            "positions": [
                -0.1407123550032544,
                -1.2729075534059275,
                2.231177238773453,
                -0.9292781024054615,
                0.7563921223266286,
                -3.136126377885351
            ]
        },
        {
            "positions": [
                -0.20659332975136363,
                -1.3062632751123273,
                2.2960846940304345,
                -0.9664804411229448,
                0.9130935287651682,
                -3.122034843380352
            ]
        },
        {
            "positions": [
                -0.27247430449947285,
                -1.3396189968187273,
                2.3609921492874153,
                -1.0036827798404282,
                1.0697949352037077,
                -3.107943308875353
            ]
        },
        {
            "positions": [
                -0.3383552792475821,
                -1.372974718525127,
                2.425899604544396,
                -1.0408851185579115,
                1.2264963416422474,
                -3.093851774370354
            ]
        }
    ]
}