{
    "goal": {
        "global_pose": {
            "orientation": {
                "w": 0.005598929693374612,
                "x": 0.007748599140229565,
                "y": 0.7110244013736278,
                "z": -0.7031023480610252
            },
            "position": {
                "x": -0.8858502320852131,
                "y": -0.7141253447532654,
                "z": 0.3711530566215515
            }
        },
        "name": "move_to_auspresseinheit_C"
    },
    "id": "ProjEST_move_to_auspresseinheit_C_59",
    "joint_names": [
        "shoulder_pan_joint",
        "shoulder_lift_joint",
        "elbow_joint",
        "wrist_1_joint",
        "wrist_2_joint",
        "wrist_3_joint"
    ],
    "metrics": {
        "cart_traj_len": 0.4925901505851952,
        "distance_elbow_joint": 0.9893558015365753,
        "distance_shoulder_lift_joint": 0.3192064414221635,
        "distance_shoulder_pan_joint": 0.2568206451518895,
        "distance_wrist_1_joint": 0.6633620583760313,
        "distance_wrist_2_joint": 1.3048001553829927,
        "distance_wrist_3_joint": 0.05455807520249456,
        "smoothness": 4.844609574787718e-16,
        "time": 0.36381051200000003,
        "traj_len": 1.894228913587834,
        "weighted_distance": 2.3802061972098465
    },
    "planner": "ProjEST",
    "start": {
        "state": {
            "elbow_joint": 1.752795957773711,
            "shoulder_lift_joint": -0.9740617694225064,
            "shoulder_pan_joint": -2.967991417825858,
            "wrist_1_joint": -0.7595177689806859,
            "wrist_2_joint": 1.7443932448377395,
            "wrist_3_joint": 3.199131542505932
        }
    },
    "waypoints": [
        {
            "positions": [
                -2.967991417825858,
                -0.9740617694225064,
                1.752795957773711,
                -0.7595177689806859,
                1.7443932448377395,
                3.199131542505932
            ]
        },
        {
            "positions": [
                -2.942309353310669,
                -0.94214112528029,
                1.6538603776200536,
                -0.6931815631430828,
                1.6139132292994403,
                3.193675734985683
            ]
        },
        {
            "positions": [
                -2.91662728879548,
                -0.9102204811380737,
                1.554924797466396,
                -0.6268453573054796,
                1.483433213761141,
                3.188219927465433
            ]
        },
        {
            "positions": [
                -2.890945224280291,
                -0.8782998369958575,
                1.4559892173127384,
                -0.5605091514678765,
                1.3529531982228418,
                3.1827641199451837
            ]
        },
        {
            "positions": [
                -2.865263159765102,
                -0.846379192853641,
                1.357053637159081,
                -0.49417294563027336,
                1.2224731826845425,
                3.1773083124249344
            ]
        },
        {
            "positions": [
                -2.839581095249913,
                -0.8144585487114246,
                1.2581180570054236,
                -0.42783673979267023,
                1.091993167146243,
                3.1718525049046846
            ]
        },
        {
            "positions": [
                -2.8138990307347242,
                -0.7825379045692084,
                1.159182476851766,
                -0.3615005339550671,
                0.9615131516079439,
                3.1663966973844353
            ]
        },
        {
            "positions": [
                -2.7882169662195353,
                -0.7506172604269921,
                1.0602468966981085,
                -0.295164328117464,
                0.8310331360696447,
                3.160940889864186
            ]
        },
        {
            "positions": [
                -2.7625349017043463,
                -0.7186966162847757,
                0.9613113165444508,
                -0.22882812227986082,
                0.7005531205313453,
                3.1554850823439367
            ]
        },
        {
            "positions": [
                -2.7368528371891574,
                -0.6867759721425593,
                0.8623757363907933,
                -0.1624919164422577,
                0.5700731049930461,
                3.150029274823687
            ]
        },
        {
            "positions": [
                -2.7111707726739684,
                -0.654855328000343,
                0.7634401562371358,
                -0.09615571060465458,
                0.4395930894547469,
                3.1445734673034376
            ]
        }
    ]
}