{
    "goal": {
        "global_pose": {
            "orientation": {
                "w": 0.5084816262002911,
                "x": -0.4908360881923452,
                "y": 0.5182115481033761,
                "z": -0.48164630358495003
            },
            "position": {
                "x": 0.5540239810943604,
                "y": -0.46912469901144505,
                "z": 0.16403168439865112
            }
        },
        "name": "move_to_storage_B"
    },
    "id": "ProjEST_move_to_storage_B_8",
    "joint_names": [
        "shoulder_pan_joint",
        "shoulder_lift_joint",
        "elbow_joint",
        "wrist_1_joint",
        "wrist_2_joint",
        "wrist_3_joint"
    ],
    "metrics": {
        "cart_traj_len": 0.8478347066461678,
        "distance_elbow_joint": 0.3695864361442809,
        "distance_shoulder_lift_joint": 0.6895324588150682,
        "distance_shoulder_pan_joint": 0.34810542451465787,
        "distance_wrist_1_joint": 3.074646389502151,
        "distance_wrist_2_joint": 2.8579051138321874,
        "distance_wrist_3_joint": 3.470699685695425,
        "smoothness": 0.5793792935144229,
        "time": 0.10246275399999999,
        "traj_len": 3.287928756604037,
        "weighted_distance": 4.866664811061982
    },
    "planner": "ProjEST",
    "start": {
        "state": {
            "elbow_joint": 1.6649325706314817,
            "shoulder_lift_joint": -0.6616388048112454,
            "shoulder_pan_joint": -0.9139837860083814,
            "wrist_1_joint": 2.146757197745094,
            "wrist_2_joint": -2.234196043158733,
            "wrist_3_joint": 0.005471033829999897
        }
    },
    "waypoints": [
        {
            "positions": [
                -0.9139837860083814,
                -0.6616388048112454,
                1.6649325706314817,
                2.146757197745094,
                -2.234196043158733,
                0.005471033829999897
            ]
        },
        {
            "positions": [
                -0.8867703180997427,
                -0.6898909312411055,
                1.671584813409557,
                2.1588379244805878,
                -2.1923463735111697,
                -0.05392091430211472
            ]
        },
        {
            "positions": [
                -0.8306911955928733,
                -0.7582679077331576,
                1.6642883648584594,
                2.1848786903903834,
                -2.07909617964141,
                -0.15285089578783262
            ]
        },
        {
            "positions": [
                -0.8381977673748848,
                -0.7782044598956734,
                1.670305591534106,
                2.0726975894916757,
                -1.9695213606188924,
                -0.02535658415818498
            ]
        },
        {
            "positions": [
                -0.8457043391568964,
                -0.7981410120581892,
                1.676322818209753,
                1.960516488592968,
                -1.859946541596375,
                0.10213772747146266
            ]
        },
        {
            "positions": [
                -0.8532109109389079,
                -0.818077564220705,
                1.6823400448853996,
                1.8483353876942603,
                -1.7503717225738573,
                0.2296320391011103
            ]
        },
        {
            "positions": [
                -0.8607174827209194,
                -0.8380141163832209,
                1.6883572715610464,
                1.7361542867955526,
                -1.64079690355134,
                0.35712635073075794
            ]
        },
        {
            "positions": [
                -0.8682240545029309,
                -0.8579506685457368,
                1.694374498236693,
                1.6239731858968447,
                -1.5312220845288222,
                0.4846206623604056
            ]
        },
        {
            "positions": [
                -0.8757306262849425,
                -0.8778872207082525,
                1.7003917249123397,
                1.511792084998137,
                -1.4216472655063046,
                0.6121149739900532
            ]
        },
        {
            "positions": [
                -0.8832371980669541,
                -0.8978237728707683,
                1.7064089515879866,
                1.399610984099429,
                -1.312072446483787,
                0.739609285619701
            ]
        },
        {
            "positions": [
                -0.8907437698489656,
                -0.9177603250332842,
                1.7124261782636332,
                1.2874298832007216,
                -1.2024976274612698,
                0.8671035972493485
            ]
        },
        {
            "positions": [
                -0.8982503416309772,
                -0.9376968771958001,
                1.71844340493928,
                1.1752487823020137,
                -1.0929228084387521,
                0.9945979088789961
            ]
        },
        {
            "positions": [
                -0.9057569134129887,
                -0.9576334293583159,
                1.7244606316149267,
                1.063067681403306,
                -0.9833479894162345,
                1.1220922205086437
            ]
        },
        {
            "positions": [
                -0.9132634851950002,
                -0.9775699815208316,
                1.7304778582905735,
                0.9508865805045983,
                -0.873773170393717,
                1.2495865321382915
            ]
        },
        {
            "positions": [
                -0.9207700569770118,
                -0.9975065336833475,
                1.7364950849662202,
                0.8387054796058906,
                -0.7641983513711994,
                1.377080843767939
            ]
        },
        {
            "positions": [
                -0.9282766287590233,
                -1.0174430858458634,
                1.7425123116418668,
                0.7265243787071829,
                -0.654623532348682,
                1.5045751553975864
            ]
        },
        {
            "positions": [
                -0.9357832005410348,
                -1.037379638008379,
                1.7485295383175137,
                0.614343277808475,
                -0.5450487133261641,
                1.6320694670272347
            ]
        },
        {
            "positions": [
                -0.9432897723230463,
                -1.057316190170895,
                1.7545467649931603,
                0.5021621769097675,
                -0.4354738943036467,
                1.759563778656882
            ]
        },
        {
            "positions": [
                -0.9507963441050579,
                -1.0772527423334108,
                1.7605639916688072,
                0.3899810760110598,
                -0.32589907528112927,
                1.8870580902865295
            ]
        },
        {
            "positions": [
                -0.9583029158870695,
                -1.0971892944959267,
                1.7665812183444538,
                0.2777999751123519,
                -0.21632425625861162,
                2.0145524019161773
            ]
        },
        {
            "positions": [
                -0.965809487669081,
                -1.1171258466584426,
                1.7725984450201007,
                0.16561887421364396,
                -0.1067494372360942,
                2.1420467135458248
            ]
        },
        {
            "positions": [
                -0.9733160594510926,
                -1.1370623988209583,
                1.7786156716957473,
                0.05343777331493671,
                0.002825381786423442,
                2.269541025175472
            ]
        },
        {
            "positions": [
                -0.9808226312331041,
                -1.1569989509834742,
                1.784632898371394,
                -0.05874332758377143,
                0.11240020080894109,
                2.39703533680512
            ]
        },
        {
            "positions": [
                -0.9883292030151156,
                -1.17693550314599,
                1.7906501250470408,
                -0.17092442848247913,
                0.22197501983145873,
                2.524529648434768
            ]
        },
        {
            "positions": [
                -0.9958357747971271,
                -1.1968720553085057,
                1.7966673517226874,
                -0.2831055293811868,
                0.33154983885397593,
                2.6520239600644153
            ]
        },
        {
            "positions": [
                -1.0033423465791387,
                -1.2168086074710216,
                1.8026845783983343,
                -0.3952866302798945,
                0.4411246578764936,
                2.779518271694063
            ]
        },
        {
            "positions": [
                -1.0108489183611502,
                -1.2367451596335375,
                1.808701805073981,
                -0.507467731178602,
                0.5506994768990111,
                2.9070125833237106
            ]
        },
        {
            "positions": [
                -1.0390672888047745,
                -1.1986031249692788,
                1.8791099066071764,
                -0.6221938896078941,
                0.5263629456408636,
                2.9911840089790602
            ]
        },
        {
            "positions": [
                -1.0672856592483988,
                -1.16046109030502,
                1.949518008140372,
                -0.7369200480371862,
                0.5020264143827161,
                3.0753554346344103
            ]
        },
        {
            "positions": [
                -1.095504029692023,
                -1.1223190556407614,
                2.0199261096735674,
                -0.8516462064664785,
                0.47768988312456867,
                3.15952686028976
            ]
        }
    ]
}