{
    "goal": {
        "global_pose": {
            "orientation": {
                "w": 0.005598929693374612,
                "x": 0.007748599140229565,
                "y": 0.7110244013736278,
                "z": -0.7031023480610252
            },
            "position": {
                "x": -0.8858502320852131,
                "y": -0.7141253447532654,
                "z": 0.3711530566215515
            }
        },
        "name": "move_to_auspresseinheit_C"
    },
    "id": "ProjEST_move_to_auspresseinheit_C_108",
    "joint_names": [
        "shoulder_pan_joint",
        "shoulder_lift_joint",
        "elbow_joint",
        "wrist_1_joint",
        "wrist_2_joint",
        "wrist_3_joint"
    ],
    "metrics": {
        "cart_traj_len": 0.4950793195757184,
        "distance_elbow_joint": 1.020688270946749,
        "distance_shoulder_lift_joint": 0.3348533193575771,
        "distance_shoulder_pan_joint": 0.2566895184604565,
        "distance_wrist_1_joint": 0.7142552935437924,
        "distance_wrist_2_joint": 1.3192352773933937,
        "distance_wrist_3_joint": 0.08839614421629882,
        "smoothness": 4.844609574787718e-16,
        "time": 0.040145241,
        "traj_len": 1.9323865617205755,
        "weighted_distance": 2.438114165351584
    },
    "planner": "ProjEST",
    "start": {
        "state": {
            "elbow_joint": 1.752795957773711,
            "shoulder_lift_joint": -0.9740617694225064,
            "shoulder_pan_joint": -2.967991417825858,
            "wrist_1_joint": -0.7595177689806859,
            "wrist_2_joint": 1.7443932448377395,
            "wrist_3_joint": 3.199131542505932
        }
    },
    "waypoints": [
        {
            "positions": [
                -2.967991417825858,
                -0.9740617694225064,
                1.752795957773711,
                -0.7595177689806859,
                1.7443932448377395,
                3.199131542505932
            ]
        },
        {
            "positions": [
                -2.9423224659798124,
                -0.9405764374867487,
                1.6507271306790363,
                -0.6880922396263067,
                1.6124697170984001,
                3.190291928084302
            ]
        },
        {
            "positions": [
                -2.916653514133767,
                -0.907091105550991,
                1.5486583035843613,
                -0.6166667102719274,
                1.4805461893590608,
                3.1814523136626724
            ]
        },
        {
            "positions": [
                -2.890984562287721,
                -0.8736057736152333,
                1.4465894764896863,
                -0.5452411809175481,
                1.3486226616197214,
                3.1726126992410424
            ]
        },
        {
            "positions": [
                -2.8653156104416753,
                -0.8401204416794756,
                1.3445206493950115,
                -0.47381565156316896,
                1.216699133880382,
                3.1637730848194128
            ]
        },
        {
            "positions": [
                -2.8396466585956297,
                -0.8066351097437179,
                1.2424518223003367,
                -0.4023901222087897,
                1.0847756061410427,
                3.1549334703977827
            ]
        },
        {
            "positions": [
                -2.813977706749584,
                -0.7731497778079601,
                1.1403829952056617,
                -0.3309645928544105,
                0.9528520784017033,
                3.1460938559761527
            ]
        },
        {
            "positions": [
                -2.7883087549035386,
                -0.7396644458722025,
                1.0383141681109866,
                -0.2595390635000313,
                0.8209285506623639,
                3.137254241554523
            ]
        },
        {
            "positions": [
                -2.7626398030574926,
                -0.7061791139364447,
                0.9362453410163118,
                -0.18811353414565202,
                0.6890050229230245,
                3.128414627132893
            ]
        },
        {
            "positions": [
                -2.736970851211447,
                -0.6726937820006871,
                0.8341765139216369,
                -0.11668800479127273,
                0.5570814951836851,
                3.1195750127112634
            ]
        },
        {
            "positions": [
                -2.7113018993654014,
                -0.6392084500649293,
                0.732107686826962,
                -0.045262475436893546,
                0.42515796744434575,
                3.1107353982896333
            ]
        }
    ]
}