{
    "goal": {
        "global_pose": {
            "orientation": {
                "w": -0.4816463035849501,
                "x": 0.5182115481033762,
                "y": 0.4908360881923453,
                "z": -0.5084816262002911
            },
            "position": {
                "x": -0.8240239810943604,
                "y": 0.19912469901144506,
                "z": 0.16403168439865112
            }
        },
        "name": "move_to_storage_D"
    },
    "id": "ProjEST_move_to_storage_D_78",
    "joint_names": [
        "shoulder_pan_joint",
        "shoulder_lift_joint",
        "elbow_joint",
        "wrist_1_joint",
        "wrist_2_joint",
        "wrist_3_joint"
    ],
    "metrics": {
        "cart_traj_len": 3.951611708992374,
        "distance_elbow_joint": 4.210720751941361,
        "distance_shoulder_lift_joint": 1.2654960129898116,
        "distance_shoulder_pan_joint": 2.814796844236658,
        "distance_wrist_1_joint": 2.2779344555643326,
        "distance_wrist_2_joint": 0.88419198173526,
        "distance_wrist_3_joint": 3.1277130556907564,
        "smoothness": 2.960594734630217e-16,
        "time": 0.236198177,
        "traj_len": 3.818488326832777,
        "weighted_distance": 4.898816760283986
    },
    "planner": "ProjEST",
    "start": {
        "state": {
            "elbow_joint": -2.384821997420982,
            "shoulder_lift_joint": -2.2788054674887404,
            "shoulder_pan_joint": -0.18546946417610016,
            "wrist_1_joint": 1.4845937964226739,
            "wrist_2_joint": 0.1789877726866377,
            "wrist_3_joint": 0.03710572555276528
        }
    },
    "waypoints": [
        {
            "positions": [
                -0.18546946417610016,
                -2.2788054674887404,
                -2.384821997420982,
                1.4845937964226739,
                0.1789877726866377,
                0.03710572555276528
            ]
        },
        {
            "positions": [
                -0.09822794071047768,
                -2.238608148649222,
                -2.2706933005660326,
                1.4136478494838511,
                0.20701247152940308,
                -0.01704956674149563
            ]
        },
        {
            "positions": [
                -0.01098641724485519,
                -2.1984108298097036,
                -2.156564603711083,
                1.3427019025450286,
                0.23503717037216848,
                -0.07120485903575655
            ]
        },
        {
            "positions": [
                0.07625510622076725,
                -2.158213510970185,
                -2.0424359068561335,
                1.271755955606206,
                0.26306186921493385,
                -0.12536015133001743
            ]
        },
        {
            "positions": [
                0.16349662968638978,
                -2.118016192130667,
                -1.9283072100011838,
                1.2008100086673834,
                0.2910865680576992,
                -0.17951544362427835
            ]
        },
        {
            "positions": [
                0.25073815315201226,
                -2.077818873291148,
                -1.8141785131462345,
                1.1298640617285607,
                0.31911126690046465,
                -0.2336707359185393
            ]
        },
        {
            "positions": [
                0.33797967661763467,
                -2.0376215544516296,
                -1.7000498162912847,
                1.0589181147897382,
                0.34713596574323,
                -0.2878260282128002
            ]
        },
        {
            "positions": [
                0.4252212000832572,
                -1.9974242356121112,
                -1.5859211194363354,
                0.9879721678509155,
                0.3751606645859954,
                -0.34198132050706115
            ]
        },
        {
            "positions": [
                0.5124627235488797,
                -1.9572269167725929,
                -1.4717924225813859,
                0.9170262209120928,
                0.40318536342876077,
                -0.396136612801322
            ]
        },
        {
            "positions": [
                0.5997042470145022,
                -1.9170295979330745,
                -1.3576637257264363,
                0.8460802739732702,
                0.43121006227152614,
                -0.4502919050955829
            ]
        },
        {
            "positions": [
                0.6869457704801247,
                -1.876832279093556,
                -1.2435350288714868,
                0.7751343270344476,
                0.4592347611142915,
                -0.5044471973898439
            ]
        },
        {
            "positions": [
                0.774187293945747,
                -1.8366349602540377,
                -1.1294063320165373,
                0.704188380095625,
                0.4872594599570569,
                -0.5586024896841048
            ]
        },
        {
            "positions": [
                0.8614288174113696,
                -1.7964376414145191,
                -1.0152776351615878,
                0.6332424331568024,
                0.5152841587998223,
                -0.6127577819783656
            ]
        },
        {
            "positions": [
                0.9486703408769921,
                -1.7562403225750007,
                -0.9011489383066382,
                0.5622964862179798,
                0.5433088576425877,
                -0.6669130742726266
            ]
        },
        {
            "positions": [
                1.0359118643426146,
                -1.7160430037354821,
                -0.7870202414516887,
                0.49135053927915706,
                0.5713335564853531,
                -0.7210683665668876
            ]
        },
        {
            "positions": [
                1.1231533878082371,
                -1.6758456848959637,
                -0.6728915445967392,
                0.42040459234033434,
                0.5993582553281185,
                -0.7752236588611484
            ]
        },
        {
            "positions": [
                1.2103949112738597,
                -1.6356483660564454,
                -0.5587628477417899,
                0.34945864540151184,
                0.6273829541708839,
                -0.8293789511554093
            ]
        },
        {
            "positions": [
                1.297636434739482,
                -1.595451047216927,
                -0.44463415088684055,
                0.27851269846268933,
                0.6554076530136492,
                -0.8835342434496701
            ]
        },
        {
            "positions": [
                1.3848779582051045,
                -1.5552537283774086,
                -0.3305054540318908,
                0.2075667515238666,
                0.6834323518564146,
                -0.9376895357439311
            ]
        },
        {
            "positions": [
                1.472119481670727,
                -1.5150564095378902,
                -0.2163767571769415,
                0.1366208045850441,
                0.71145705069918,
                -0.9918448280381921
            ]
        },
        {
            "positions": [
                1.5593610051363496,
                -1.4748590906983716,
                -0.10224806032199174,
                0.06567485764622139,
                0.7394817495419453,
                -1.046000120332453
            ]
        },
        {
            "positions": [
                1.646602528601972,
                -1.4346617718588532,
                0.011880636532957567,
                -0.005271089292601339,
                0.7675064483847107,
                -1.1001554126267137
            ]
        },
        {
            "positions": [
                1.7338440520675944,
                -1.3944644530193349,
                0.12600933338790732,
                -0.07621703623142384,
                0.7955311472274761,
                -1.1543107049209747
            ]
        },
        {
            "positions": [
                1.8210855755332171,
                -1.3542671341798163,
                0.24013803024285707,
                -0.14716298317024656,
                0.8235558460702416,
                -1.2084659972152356
            ]
        },
        {
            "positions": [
                1.9083270989988392,
                -1.3140698153402979,
                0.3542667270978064,
                -0.21810893010906907,
                0.8515805449130068,
                -1.2626212895094964
            ]
        },
        {
            "positions": [
                1.9955686224644618,
                -1.2738724965007795,
                0.4683954239527557,
                -0.28905487704789157,
                0.8796052437557722,
                -1.3167765818037573
            ]
        },
        {
            "positions": [
                2.0828101459300843,
                -1.2336751776612611,
                0.5825241208077054,
                -0.3600008239867143,
                0.9076299425985377,
                -1.3709318740980183
            ]
        },
        {
            "positions": [
                2.170051669395707,
                -1.1934778588217427,
                0.6966528176626547,
                -0.430946770925537,
                0.9356546414413031,
                -1.425087166392279
            ]
        },
        {
            "positions": [
                2.2572931928613293,
                -1.1532805399822241,
                0.8107815145176045,
                -0.5018927178643597,
                0.9636793402840684,
                -1.4792424586865403
            ]
        },
        {
            "positions": [
                2.344534716326952,
                -1.1130832211427057,
                0.9249102113725538,
                -0.572838664803182,
                0.9917040391268338,
                -1.533397750980801
            ]
        },
        {
            "positions": [
                2.3920216294914898,
                -1.1011574819711227,
                1.0126346935805763,
                -0.6093834244399208,
                1.0101819704050494,
                -1.6851223034232432
            ]
        },
        {
            "positions": [
                2.4395085426560277,
                -1.0892317427995395,
                1.100359175788599,
                -0.6459281840766595,
                1.0286599016832652,
                -1.8368468558656854
            ]
        },
        {
            "positions": [
                2.4666255194281033,
                -1.078385701613738,
                1.2040076870359964,
                -0.6669871090859453,
                1.0335913092173554,
                -2.0159554950474434
            ]
        },
        {
            "positions": [
                2.4937424962001793,
                -1.0675396604279364,
                1.3076561982833936,
                -0.6880460340952311,
                1.038522716751446,
                -2.1950641342292014
            ]
        },
        {
            "positions": [
                2.520859472972255,
                -1.0566936192421348,
                1.411304709530791,
                -0.7091049591045169,
                1.0434541242855362,
                -2.374172773410959
            ]
        },
        {
            "positions": [
                2.547976449744331,
                -1.0458475780563334,
                1.514953220778188,
                -0.7301638841138026,
                1.0483855318196267,
                -2.553281412592717
            ]
        },
        {
            "positions": [
                2.5750934265164065,
                -1.0350015368705319,
                1.6186017320255854,
                -0.7512228091230884,
                1.053316939353717,
                -2.732390051774475
            ]
        },
        {
            "positions": [
                2.6022104032884825,
                -1.0241554956847303,
                1.7222502432729825,
                -0.7722817341323742,
                1.0582483468878074,
                -2.911498690956233
            ]
        },
        {
            "positions": [
                2.629327380060558,
                -1.0133094544989287,
                1.8258987545203798,
                -0.79334065914166,
                1.0631797544218977,
                -3.090607330137991
            ]
        }
    ]
}