{
    "goal": {
        "global_pose": {
            "orientation": {
                "w": -0.00223480608172531,
                "x": 0.0024358444001904467,
                "y": 0.7094548369677653,
                "z": -0.704743149386269
            },
            "position": {
                "x": 0.6205249238014221,
                "y": -0.6371506643295288,
                "z": 0.19426114857196808
            }
        },
        "name": "move_to_magneteinheit_B"
    },
    "id": "ProjEST_move_to_magneteinheit_B_13",
    "joint_names": [
        "shoulder_pan_joint",
        "shoulder_lift_joint",
        "elbow_joint",
        "wrist_1_joint",
        "wrist_2_joint",
        "wrist_3_joint"
    ],
    "metrics": {
        "cart_traj_len": 3.8719298520448318,
        "distance_elbow_joint": 4.048392459264184,
        "distance_shoulder_lift_joint": 0.31249033433229534,
        "distance_shoulder_pan_joint": 2.24017890623102,
        "distance_wrist_1_joint": 2.430078894009273,
        "distance_wrist_2_joint": 2.546668385846083,
        "distance_wrist_3_joint": 6.269988346477571,
        "smoothness": 0.18290966384309137,
        "time": 0.361425048,
        "traj_len": 4.2246653507893885,
        "weighted_distance": 5.946807656127019
    },
    "planner": "ProjEST",
    "start": {
        "state": {
            "elbow_joint": 2.3935871308073637,
            "shoulder_lift_joint": -1.9085141043777403,
            "shoulder_pan_joint": 0.7066247067284167,
            "wrist_1_joint": -0.46782909355067076,
            "wrist_2_joint": 0.7096259085804283,
            "wrist_3_joint": -3.1358149275257428
        }
    },
    "waypoints": [
        {
            "positions": [
                0.7066247067284167,
                -1.9085141043777403,
                2.3935871308073637,
                -0.46782909355067076,
                0.7096259085804283,
                -3.1358149275257428
            ]
        },
        {
            "positions": [
                0.7476710270488717,
                -1.9068153948156696,
                2.3864963723438803,
                -0.3994427735344013,
                0.6620441645416411,
                -3.1019330190766268
            ]
        },
        {
            "positions": [
                0.7887173473693266,
                -1.905116685253599,
                2.3794056138803974,
                -0.33105645351813173,
                0.6144624205028537,
                -3.068051110627511
            ]
        },
        {
            "positions": [
                0.8505676122231798,
                -1.9057559619411255,
                2.2947630635751253,
                -0.28552836003885185,
                0.5814046356189304,
                -2.9472644962650527
            ]
        },
        {
            "positions": [
                0.9124178770770328,
                -1.9063952386286518,
                2.2101205132698536,
                -0.240000266559572,
                0.5483468507350072,
                -2.826477881902594
            ]
        },
        {
            "positions": [
                0.9754904391638554,
                -1.9158125241327406,
                2.098185063359864,
                -0.27941712558153675,
                0.5718602466430381,
                -2.6781584220649783
            ]
        },
        {
            "positions": [
                1.038563001250678,
                -1.9252298096368294,
                1.9862496134498742,
                -0.31883398460350154,
                0.5953736425510692,
                -2.5298389622273625
            ]
        },
        {
            "positions": [
                1.1016355633375006,
                -1.9346470951409183,
                1.8743141635398843,
                -0.35825084362546633,
                0.6188870384591001,
                -2.381519502389746
            ]
        },
        {
            "positions": [
                1.1647081254243232,
                -1.944064380645007,
                1.7623787136298947,
                -0.3976677026474311,
                0.642400434367131,
                -2.2332000425521303
            ]
        },
        {
            "positions": [
                1.2277806875111459,
                -1.953481666149096,
                1.6504432637199051,
                -0.4370845616693959,
                0.6659138302751619,
                -2.0848805827145145
            ]
        },
        {
            "positions": [
                1.2908532495979683,
                -1.9628989516531847,
                1.5385078138099153,
                -0.4765014206913607,
                0.6894272261831929,
                -1.9365611228768986
            ]
        },
        {
            "positions": [
                1.353925811684791,
                -1.9723162371572736,
                1.4265723638999255,
                -0.5159182797133255,
                0.7129406220912239,
                -1.7882416630392826
            ]
        },
        {
            "positions": [
                1.4169983737716136,
                -1.9817335226613624,
                1.3146369139899359,
                -0.5553351387352903,
                0.7364540179992548,
                -1.6399222032016667
            ]
        },
        {
            "positions": [
                1.480070935858436,
                -1.9911508081654512,
                1.2027014640799463,
                -0.5947519977572551,
                0.7599674139072857,
                -1.4916027433640506
            ]
        },
        {
            "positions": [
                1.5431434979452587,
                -2.00056809366954,
                1.0907660141699564,
                -0.6341688567792199,
                0.7834808098153168,
                -1.3432832835264346
            ]
        },
        {
            "positions": [
                1.6062160600320814,
                -2.009985379173629,
                0.9788305642599668,
                -0.6735857158011846,
                0.8069942057233477,
                -1.194963823688819
            ]
        },
        {
            "positions": [
                1.6692886221189038,
                -2.0194026646777177,
                0.866895114349977,
                -0.7130025748231494,
                0.8305076016313786,
                -1.0466443638512029
            ]
        },
        {
            "positions": [
                1.7323611842057265,
                -2.0288199501818065,
                0.7549596644399874,
                -0.7524194338451142,
                0.8540209975394095,
                -0.8983249040135868
            ]
        },
        {
            "positions": [
                1.7954337462925491,
                -2.0382372356858953,
                0.6430242145299976,
                -0.791836292867079,
                0.8775343934474404,
                -0.7500054441759709
            ]
        },
        {
            "positions": [
                1.8585063083793716,
                -2.047654521189984,
                0.5310887646200078,
                -0.8312531518890438,
                0.9010477893554715,
                -0.6016859843383551
            ]
        },
        {
            "positions": [
                1.9215788704661942,
                -2.057071806694073,
                0.41915331471001815,
                -0.8706700109110086,
                0.9245611852635024,
                -0.4533665245007392
            ]
        },
        {
            "positions": [
                1.9846514325530167,
                -2.066489092198162,
                0.3072178648000288,
                -0.9100868699329733,
                0.9480745811715333,
                -0.30504706466312337
            ]
        },
        {
            "positions": [
                2.0477239946398393,
                -2.0759063777022506,
                0.19528241489003895,
                -0.9495037289549382,
                0.9715879770795643,
                -0.15672760482550707
            ]
        },
        {
            "positions": [
                2.1107965567266618,
                -2.0853236632063394,
                0.08334696498004934,
                -0.988920587976903,
                0.9951013729875953,
                -0.00840814498789122
            ]
        },
        {
            "positions": [
                2.1738691188134847,
                -2.0947409487104283,
                -0.028588484929940705,
                -1.0283374469988678,
                1.0186147688956262,
                0.13991131484972508
            ]
        },
        {
            "positions": [
                2.2369416809003075,
                -2.104158234214517,
                -0.1405239348399303,
                -1.0677543060208325,
                1.042128164803657,
                0.2882307746873405
            ]
        },
        {
            "positions": [
                2.30001424298713,
                -2.113575519718606,
                -0.2524593847499199,
                -1.1071711650427973,
                1.065641560711688,
                0.43655023452495634
            ]
        },
        {
            "positions": [
                2.3630868050739524,
                -2.1229928052226947,
                -0.36439483465990996,
                -1.1465880240647621,
                1.0891549566197192,
                0.5848696943625726
            ]
        },
        {
            "positions": [
                2.426159367160775,
                -2.1324100907267836,
                -0.47633028456989956,
                -1.186004883086727,
                1.1126683525277499,
                0.7331891542001885
            ]
        },
        {
            "positions": [
                2.4892319292475973,
                -2.1418273762308724,
                -0.5882657344798892,
                -1.2254217421086917,
                1.136181748435781,
                0.8815086140378043
            ]
        },
        {
            "positions": [
                2.55230449133442,
                -2.151244661734961,
                -0.7002011843898788,
                -1.2648386011306565,
                1.1596951443438117,
                1.0298280738754206
            ]
        },
        {
            "positions": [
                2.6153770534212426,
                -2.16066194723905,
                -0.8121366342998684,
                -1.3042554601526213,
                1.1832085402518429,
                1.1781475337130365
            ]
        },
        {
            "positions": [
                2.6784496155080655,
                -2.170079232743139,
                -0.9240720842098584,
                -1.343672319174586,
                1.2067219361598738,
                1.3264669935506523
            ]
        },
        {
            "positions": [
                2.741522177594888,
                -2.1794965182472277,
                -1.0360075341198478,
                -1.3830891781965509,
                1.2302353320679047,
                1.4747864533882682
            ]
        },
        {
            "positions": [
                2.7539919307291667,
                -2.183558256758367,
                -1.0816458427138078,
                -1.4586077387877217,
                1.1348436403522382,
                1.5950551158766304
            ]
        },
        {
            "positions": [
                2.7664616838634455,
                -2.187619995269506,
                -1.1272841513077678,
                -1.5341262993788924,
                1.0394519486365716,
                1.7153237783649928
            ]
        },
        {
            "positions": [
                2.7789314369977247,
                -2.1916817337806456,
                -1.1729224599017278,
                -1.609644859970063,
                0.9440602569209051,
                1.835592440853355
            ]
        },
        {
            "positions": [
                2.7914011901320035,
                -2.1957434722917846,
                -1.2185607684956878,
                -1.6851634205612338,
                0.8486685652052385,
                1.9558611033417175
            ]
        },
        {
            "positions": [
                2.8038709432662823,
                -2.199805210802924,
                -1.2641990770896478,
                -1.7606819811524046,
                0.753276873489572,
                2.0761297658300797
            ]
        },
        {
            "positions": [
                2.788426219675999,
                -2.1982669662546845,
                -1.3063196177539251,
                -1.8352787303280171,
                0.6203550744441249,
                2.1913228886538825
            ]
        },
        {
            "positions": [
                2.7729814960857158,
                -2.1967287217064446,
                -1.3484401584182024,
                -1.9098754795036297,
                0.48743327539867787,
                2.3065160114776853
            ]
        },
        {
            "positions": [
                2.7575367724954325,
                -2.195190477158205,
                -1.3905606990824797,
                -1.9844722286792422,
                0.3545114763532308,
                2.421709134301488
            ]
        },
        {
            "positions": [
                2.7420920489051497,
                -2.1936522326099652,
                -1.4326812397467572,
                -2.0590689778548548,
                0.22158967730778378,
                2.536902257125291
            ]
        },
        {
            "positions": [
                2.7266473253148664,
                -2.1921139880617257,
                -1.4748017804110345,
                -2.1336657270304675,
                0.0886678782623368,
                2.6520953799490936
            ]
        },
        {
            "positions": [
                2.711202601724583,
                -2.1905757435134863,
                -1.5169223210753118,
                -2.20826247620608,
                -0.0442539207831103,
                2.7672885027728964
            ]
        },
        {
            "positions": [
                2.6957578781343,
                -2.1890374989652464,
                -1.559042861739589,
                -2.282859225381692,
                -0.1771757198285574,
                2.882481625596699
            ]
        },
        {
            "positions": [
                2.6803131545440166,
                -2.187499254417007,
                -1.6011634024038663,
                -2.357455974557305,
                -0.3100975188740045,
                2.997674748420502
            ]
        },
        {
            "positions": [
                2.6706257140585725,
                -2.186450037780551,
                -1.6279843654303425,
                -2.399853154067525,
                -0.3916815167369322,
                3.065924083686167
            ]
        },
        {
            "positions": [
                2.660938273573128,
                -2.185400821144095,
                -1.654805328456819,
                -2.442250333577746,
                -0.47326551459985994,
                3.134173418951832
            ]
        }
    ]
}