{
    "goal": {
        "global_pose": {
            "orientation": {
                "w": 0.005598929693374612,
                "x": 0.007748599140229565,
                "y": 0.7110244013736278,
                "z": -0.7031023480610252
            },
            "position": {
                "x": -0.8858502320852131,
                "y": -0.7141253447532654,
                "z": 0.3711530566215515
            }
        },
        "name": "move_to_auspresseinheit_C"
    },
    "id": "ProjEST_move_to_auspresseinheit_C_81",
    "joint_names": [
        "shoulder_pan_joint",
        "shoulder_lift_joint",
        "elbow_joint",
        "wrist_1_joint",
        "wrist_2_joint",
        "wrist_3_joint"
    ],
    "metrics": {
        "cart_traj_len": 0.4934929362632579,
        "distance_elbow_joint": 0.9943070649943658,
        "distance_shoulder_lift_joint": 0.32133653028022735,
        "distance_shoulder_pan_joint": 0.25724720005131907,
        "distance_wrist_1_joint": 0.6706797611475006,
        "distance_wrist_2_joint": 1.3020944044919411,
        "distance_wrist_3_joint": 0.0629336522650954,
        "smoothness": 1.6148698667872622e-16,
        "time": 0.162956975,
        "traj_len": 1.899631178210773,
        "weighted_distance": 2.3889830646951187
    },
    "planner": "ProjEST",
    "start": {
        "state": {
            "elbow_joint": 1.752795957773711,
            "shoulder_lift_joint": -0.9740617694225064,
            "shoulder_pan_joint": -2.967991417825858,
            "wrist_1_joint": -0.7595177689806859,
            "wrist_2_joint": 1.7443932448377395,
            "wrist_3_joint": 3.199131542505932
        }
    },
    "waypoints": [
        {
            "positions": [
                -2.967991417825858,
                -0.9740617694225064,
                1.752795957773711,
                -0.7595177689806859,
                1.7443932448377395,
                3.199131542505932
            ]
        },
        {
            "positions": [
                -2.942266697820726,
                -0.9419281163944837,
                1.6533652512742745,
                -0.6924497928659359,
                1.6141838043885455,
                3.1928381772794228
            ]
        },
        {
            "positions": [
                -2.9165419778155943,
                -0.909794463366461,
                1.553934544774838,
                -0.6253818167511858,
                1.4839743639393512,
                3.186544812052913
            ]
        },
        {
            "positions": [
                -2.890817257810462,
                -0.8776608103384382,
                1.4545038382754014,
                -0.5583138406364357,
                1.3537649234901572,
                3.1802514468264036
            ]
        },
        {
            "positions": [
                -2.8650925378053302,
                -0.8455271573104155,
                1.3550731317759648,
                -0.49124586452168567,
                1.223555483040963,
                3.173958081599894
            ]
        },
        {
            "positions": [
                -2.8393678178001984,
                -0.8133935042823928,
                1.2556424252765281,
                -0.4241778884069356,
                1.093346042591769,
                3.1676647163733844
            ]
        },
        {
            "positions": [
                -2.8136430977950666,
                -0.78125985125437,
                1.1562117187770915,
                -0.3571099122921855,
                0.9631366021425748,
                3.161371351146875
            ]
        },
        {
            "positions": [
                -2.787918377789935,
                -0.7491261982263473,
                1.056781012277655,
                -0.2900419361774355,
                0.8329271616933808,
                3.1550779859203653
            ]
        },
        {
            "positions": [
                -2.7621936577848025,
                -0.7169925451983246,
                0.9573503057782184,
                -0.22297396006268544,
                0.7027177212441866,
                3.148784620693856
            ]
        },
        {
            "positions": [
                -2.7364689377796707,
                -0.6848588921703018,
                0.8579195992787818,
                -0.1559059839479353,
                0.5725082807949924,
                3.142491255467346
            ]
        },
        {
            "positions": [
                -2.710744217774539,
                -0.6527252391422791,
                0.7584888927793453,
                -0.08883800783318527,
                0.44229884034579825,
                3.1361978902408367
            ]
        }
    ]
}