{
    "goal": {
        "global_pose": {
            "orientation": {
                "w": -0.4816463035849501,
                "x": 0.5182115481033762,
                "y": 0.4908360881923453,
                "z": -0.5084816262002911
            },
            "position": {
                "x": -0.8240239810943604,
                "y": -0.300875300988555,
                "z": 0.16403168439865112
            }
        },
        "name": "move_to_storage_C"
    },
    "id": "ProjEST_move_to_storage_C_113",
    "joint_names": [
        "shoulder_pan_joint",
        "shoulder_lift_joint",
        "elbow_joint",
        "wrist_1_joint",
        "wrist_2_joint",
        "wrist_3_joint"
    ],
    "metrics": {
        "cart_traj_len": 0.5776080282051487,
        "distance_elbow_joint": 0.2619166041792611,
        "distance_shoulder_lift_joint": 0.18981208460914067,
        "distance_shoulder_pan_joint": 0.49524924395472203,
        "distance_wrist_1_joint": 0.08979108994963658,
        "distance_wrist_2_joint": 1.068876460598763,
        "distance_wrist_3_joint": 0.06028809902019194,
        "smoothness": 0.0,
        "time": 0.15418810800000002,
        "traj_len": 1.4717111069471873,
        "weighted_distance": 1.856118889214939
    },
    "planner": "ProjEST",
    "start": {
        "state": {
            "elbow_joint": 2.010868315001653,
            "shoulder_lift_joint": -1.1634956873357014,
            "shoulder_pan_joint": -2.4736205022346103,
            "wrist_1_joint": -0.8367026794713948,
            "wrist_2_joint": 0.6746043897044093,
            "wrist_3_joint": 3.1335220948105738
        }
    },
    "waypoints": [
        {
            "positions": [
                -2.4736205022346103,
                -1.1634956873357014,
                2.010868315001653,
                -0.8367026794713948,
                0.6746043897044093,
                3.1335220948105738
            ]
        },
        {
            "positions": [
                -2.556162042893731,
                -1.1318603399008447,
                1.967215547638443,
                -0.821737497813122,
                0.8527504664708698,
                3.143570111313939
            ]
        },
        {
            "positions": [
                -2.638703583552851,
                -1.100224992465988,
                1.9235627802752326,
                -0.8067723161548492,
                1.0308965432373303,
                3.1536181278173046
            ]
        },
        {
            "positions": [
                -2.721245124211971,
                -1.068589645031131,
                1.8799100129120225,
                -0.7918071344965765,
                1.2090426200037907,
                3.1636661443206697
            ]
        },
        {
            "positions": [
                -2.8037866648710916,
                -1.0369542975962742,
                1.8362572455488124,
                -0.7768419528383037,
                1.3871886967702514,
                3.173714160824035
            ]
        },
        {
            "positions": [
                -2.886328205530212,
                -1.0053189501614175,
                1.792604478185602,
                -0.7618767711800309,
                1.565334773536712,
                3.1837621773274005
            ]
        },
        {
            "positions": [
                -2.9688697461893323,
                -0.9736836027265607,
                1.748951710822392,
                -0.7469115895217582,
                1.7434808503031725,
                3.1938101938307657
            ]
        }
    ]
}