{
    "goal": {
        "global_pose": {
            "orientation": {
                "w": 0.005598929693374612,
                "x": 0.007748599140229565,
                "y": 0.7110244013736278,
                "z": -0.7031023480610252
            },
            "position": {
                "x": -0.8858502320852131,
                "y": -0.7141253447532654,
                "z": 0.3711530566215515
            }
        },
        "name": "move_to_auspresseinheit_C"
    },
    "id": "ProjEST_move_to_auspresseinheit_C_60",
    "joint_names": [
        "shoulder_pan_joint",
        "shoulder_lift_joint",
        "elbow_joint",
        "wrist_1_joint",
        "wrist_2_joint",
        "wrist_3_joint"
    ],
    "metrics": {
        "cart_traj_len": 0.4936670974776882,
        "distance_elbow_joint": 1.0148282343052175,
        "distance_shoulder_lift_joint": 0.33207157654707986,
        "distance_shoulder_pan_joint": 0.25546820391087444,
        "distance_wrist_1_joint": 0.7041284313375566,
        "distance_wrist_2_joint": 1.317193814582904,
        "distance_wrist_3_joint": 0.07066188669225593,
        "smoothness": 1.6148698667872622e-16,
        "time": 0.026528612,
        "traj_len": 1.9220697561160178,
        "weighted_distance": 2.420123585001572
    },
    "planner": "ProjEST",
    "start": {
        "state": {
            "elbow_joint": 1.752795957773711,
            "shoulder_lift_joint": -0.9740617694225064,
            "shoulder_pan_joint": -2.967991417825858,
            "wrist_1_joint": -0.7595177689806859,
            "wrist_2_joint": 1.7443932448377395,
            "wrist_3_joint": 3.199131542505932
        }
    },
    "waypoints": [
        {
            "positions": [
                -2.967991417825858,
                -0.9740617694225064,
                1.752795957773711,
                -0.7595177689806859,
                1.7443932448377395,
                3.199131542505932
            ]
        },
        {
            "positions": [
                -2.9424445974347706,
                -0.9408546117677985,
                1.6513131343431893,
                -0.6891049258469303,
                1.612673863379449,
                3.1920653538367065
            ]
        },
        {
            "positions": [
                -2.9168977770436832,
                -0.9076474541130904,
                1.5498303109126677,
                -0.6186920827131746,
                1.4809544819211586,
                3.184999165167481
            ]
        },
        {
            "positions": [
                -2.8913509566525954,
                -0.8744402964583825,
                1.4483474874821458,
                -0.5482792395794189,
                1.3492351004628682,
                3.1779329764982553
            ]
        },
        {
            "positions": [
                -2.865804136261508,
                -0.8412331388036745,
                1.346864664051624,
                -0.47786639644566326,
                1.2175157190045778,
                3.1708667878290298
            ]
        },
        {
            "positions": [
                -2.8402573158704207,
                -0.8080259811489665,
                1.2453818406211024,
                -0.4074535533119076,
                1.0857963375462876,
                3.163800599159804
            ]
        },
        {
            "positions": [
                -2.8147104954793334,
                -0.7748188234942586,
                1.1438990171905807,
                -0.3370407101781519,
                0.954076956087997,
                3.1567344104905786
            ]
        },
        {
            "positions": [
                -2.789163675088246,
                -0.7416116658395505,
                1.042416193760059,
                -0.2666278670443963,
                0.8223575746297067,
                3.149668221821353
            ]
        },
        {
            "positions": [
                -2.7636168546971582,
                -0.7084045081848425,
                0.9409333703295371,
                -0.1962150239106406,
                0.6906381931714163,
                3.1426020331521274
            ]
        },
        {
            "positions": [
                -2.738070034306071,
                -0.6751973505301345,
                0.8394505468990153,
                -0.12580218077688488,
                0.5589188117131259,
                3.135535844482902
            ]
        },
        {
            "positions": [
                -2.7125232139149835,
                -0.6419901928754266,
                0.7379677234684936,
                -0.05538933764312922,
                0.42719943025483537,
                3.128469655813676
            ]
        }
    ]
}