{
    "goal": {
        "global_pose": {
            "orientation": {
                "w": 0.005598929693374612,
                "x": 0.007748599140229565,
                "y": 0.7110244013736278,
                "z": -0.7031023480610252
            },
            "position": {
                "x": -0.8858502320852131,
                "y": -0.7141253447532654,
                "z": 0.3711530566215515
            }
        },
        "name": "move_to_auspresseinheit_C"
    },
    "id": "ProjEST_move_to_auspresseinheit_C_121",
    "joint_names": [
        "shoulder_pan_joint",
        "shoulder_lift_joint",
        "elbow_joint",
        "wrist_1_joint",
        "wrist_2_joint",
        "wrist_3_joint"
    ],
    "metrics": {
        "cart_traj_len": 0.49286735822980804,
        "distance_elbow_joint": 1.007011609305394,
        "distance_shoulder_lift_joint": 0.32811085112054417,
        "distance_shoulder_pan_joint": 0.2558628716310012,
        "distance_wrist_1_joint": 0.6976745458273217,
        "distance_wrist_2_joint": 1.3051879735421563,
        "distance_wrist_3_joint": 0.07460476553329531,
        "smoothness": 1.291895885757589e-15,
        "time": 0.871339324,
        "traj_len": 1.9153204998014592,
        "weighted_distance": 2.41257635472865
    },
    "planner": "ProjEST",
    "start": {
        "state": {
            "elbow_joint": 1.752795957773711,
            "shoulder_lift_joint": -0.9740617694225064,
            "shoulder_pan_joint": -2.967991417825858,
            "wrist_1_joint": -0.7595177689806859,
            "wrist_2_joint": 1.7443932448377395,
            "wrist_3_joint": 3.199131542505932
        }
    },
    "waypoints": [
        {
            "positions": [
                -2.967991417825858,
                -0.9740617694225064,
                1.752795957773711,
                -0.7595177689806859,
                1.7443932448377395,
                3.199131542505932
            ]
        },
        {
            "positions": [
                -2.942405130662758,
                -0.941250684310452,
                1.6520947968431716,
                -0.6897503143979538,
                1.6138744474835238,
                3.1916710659526024
            ]
        },
        {
            "positions": [
                -2.916818843499658,
                -0.9084395991983976,
                1.5513936359126324,
                -0.6199828598152216,
                1.4833556501293081,
                3.184210589399273
            ]
        },
        {
            "positions": [
                -2.8912325563365577,
                -0.8756285140863432,
                1.4506924749820929,
                -0.5502154052324895,
                1.3528368527750927,
                3.1767501128459434
            ]
        },
        {
            "positions": [
                -2.8656462691734577,
                -0.8428174289742888,
                1.3499913140515534,
                -0.48044795064975726,
                1.2223180554208768,
                3.169289636292614
            ]
        },
        {
            "positions": [
                -2.8400599820103576,
                -0.8100063438622344,
                1.249290153121014,
                -0.4106804960670251,
                1.0917992580666613,
                3.1618291597392845
            ]
        },
        {
            "positions": [
                -2.814473694847257,
                -0.7771952587501799,
                1.1485889921904748,
                -0.34091304148429297,
                0.9612804607124458,
                3.1543686831859548
            ]
        },
        {
            "positions": [
                -2.788887407684157,
                -0.7443841736381256,
                1.0478878312599353,
                -0.2711455869015608,
                0.8307616633582301,
                3.1469082066326255
            ]
        },
        {
            "positions": [
                -2.763301120521057,
                -0.7115730885260712,
                0.9471866703293959,
                -0.20137813231882862,
                0.7002428660040143,
                3.139447730079296
            ]
        },
        {
            "positions": [
                -2.737714833357957,
                -0.6787620034140167,
                0.8464855093988565,
                -0.13161067773609647,
                0.5697240686497989,
                3.1319872535259665
            ]
        },
        {
            "positions": [
                -2.7121285461948568,
                -0.6459509183019623,
                0.7457843484683172,
                -0.061843223153364275,
                0.4392052712955833,
                3.124526776972637
            ]
        }
    ]
}