{
    "goal": {
        "global_pose": {
            "orientation": {
                "w": 0.5084816262002911,
                "x": -0.4908360881923452,
                "y": 0.5182115481033761,
                "z": -0.48164630358495003
            },
            "position": {
                "x": 0.5540239810943604,
                "y": -0.46912469901144505,
                "z": 0.16403168439865112
            }
        },
        "name": "move_to_storage_B"
    },
    "id": "ProjEST_move_to_storage_B_26",
    "joint_names": [
        "shoulder_pan_joint",
        "shoulder_lift_joint",
        "elbow_joint",
        "wrist_1_joint",
        "wrist_2_joint",
        "wrist_3_joint"
    ],
    "metrics": {
        "cart_traj_len": 2.6939347032649077,
        "distance_elbow_joint": 2.699577228466704,
        "distance_shoulder_lift_joint": 0.4592350503034377,
        "distance_shoulder_pan_joint": 2.1031498491555842,
        "distance_wrist_1_joint": 3.1086379075826063,
        "distance_wrist_2_joint": 2.7079454699143617,
        "distance_wrist_3_joint": 4.606096212926133,
        "smoothness": 0.36171247639107884,
        "time": 0.08914646,
        "traj_len": 3.960384036725331,
        "weighted_distance": 5.541968740591926
    },
    "planner": "ProjEST",
    "start": {
        "state": {
            "elbow_joint": 1.6649325706314817,
            "shoulder_lift_joint": -0.6616388048112454,
            "shoulder_pan_joint": -0.9139837860083814,
            "wrist_1_joint": 2.146757197745094,
            "wrist_2_joint": -2.234196043158733,
            "wrist_3_joint": 0.005471033829999897
        }
    },
    "waypoints": [
        {
            "positions": [
                -0.9139837860083814,
                -0.6616388048112454,
                1.6649325706314817,
                2.146757197745094,
                -2.234196043158733,
                0.005471033829999897
            ]
        },
        {
            "positions": [
                -0.8179579714212835,
                -0.7011933915016973,
                1.5474851568210604,
                2.1529448582044437,
                -2.1725848085986486,
                -0.06780313914898711
            ]
        },
        {
            "positions": [
                -0.7219321568341857,
                -0.7407479781921492,
                1.430037743010639,
                2.1591325186637933,
                -2.1109735740385642,
                -0.14107731212797414
            ]
        },
        {
            "positions": [
                -0.6259063422470879,
                -0.7803025648826012,
                1.312590329200218,
                2.1653201791231425,
                -2.04936233947848,
                -0.21435148510696111
            ]
        },
        {
            "positions": [
                -0.5298805276599899,
                -0.8198571515730531,
                1.1951429153897966,
                2.171507839582492,
                -1.9877511049183954,
                -0.28762565808594814
            ]
        },
        {
            "positions": [
                -0.43385471307289214,
                -0.859411738263505,
                1.0776955015793752,
                2.1776955000418416,
                -1.926139870358311,
                -0.3608998310649351
            ]
        },
        {
            "positions": [
                -0.33782889848579434,
                -0.898966324953957,
                0.960248087768954,
                2.1838831605011912,
                -1.8645286357982267,
                -0.4341740040439221
            ]
        },
        {
            "positions": [
                -0.24180308389869654,
                -0.9385209116444089,
                0.8428006739585326,
                2.190070820960541,
                -1.8029174012381424,
                -0.5074481770229091
            ]
        },
        {
            "positions": [
                -0.1457772693115985,
                -0.9780754983348608,
                0.7253532601481113,
                2.19625848141989,
                -1.7413061666780578,
                -0.5807223500018962
            ]
        },
        {
            "positions": [
                -0.04975145472450071,
                -1.0176300850253128,
                0.6079058463376901,
                2.2024461418792396,
                -1.6796949321179735,
                -0.6539965229808832
            ]
        },
        {
            "positions": [
                0.04627435986259709,
                -1.0571846717157647,
                0.49045843252726873,
                2.208633802338589,
                -1.6180836975578892,
                -0.7272706959598702
            ]
        },
        {
            "positions": [
                0.008177969753110234,
                -1.0593076444957286,
                0.5412952022060185,
                2.107075092238952,
                -1.5483559267474385,
                -0.5981588798553281
            ]
        },
        {
            "positions": [
                -0.029918420356376624,
                -1.0614306172756927,
                0.5921319718847682,
                2.005516382139315,
                -1.4786281559369878,
                -0.46904706375078603
            ]
        },
        {
            "positions": [
                -0.0680148104658635,
                -1.0635535900556565,
                0.6429687415635179,
                1.903957672039678,
                -1.4089003851265371,
                -0.33993524764624394
            ]
        },
        {
            "positions": [
                -0.10611120057535034,
                -1.0656765628356204,
                0.6938055112422676,
                1.8023989619400411,
                -1.3391726143160865,
                -0.2108234315417019
            ]
        },
        {
            "positions": [
                -0.14420759068483718,
                -1.0677995356155845,
                0.7446422809210174,
                1.700840251840404,
                -1.269444843505636,
                -0.08171161543715988
            ]
        },
        {
            "positions": [
                -0.18230398079432408,
                -1.0699225083955484,
                0.7954790505997671,
                1.5992815417407669,
                -1.1997170726951853,
                0.047400200667382264
            ]
        },
        {
            "positions": [
                -0.22040037090381093,
                -1.0720454811755122,
                0.8463158202785168,
                1.4977228316411297,
                -1.1299893018847347,
                0.1765120167719243
            ]
        },
        {
            "positions": [
                -0.25849676101329777,
                -1.0741684539554763,
                0.8971525899572665,
                1.396164121541493,
                -1.060261531074284,
                0.30562383287646633
            ]
        },
        {
            "positions": [
                -0.2965931511227846,
                -1.0762914267354402,
                0.9479893596360163,
                1.294605411441856,
                -0.9905337602638334,
                0.43473564898100825
            ]
        },
        {
            "positions": [
                -0.33468954123227146,
                -1.078414399515404,
                0.998826129314766,
                1.1930467013422188,
                -0.9208059894533828,
                0.5638474650855504
            ]
        },
        {
            "positions": [
                -0.3727859313417583,
                -1.0805373722953682,
                1.0496628989935157,
                1.091487991242582,
                -0.8510782186429321,
                0.6929592811900923
            ]
        },
        {
            "positions": [
                -0.41088232145124526,
                -1.082660345075332,
                1.1004996686722657,
                0.9899292811429445,
                -0.7813504478324814,
                0.8220710972946347
            ]
        },
        {
            "positions": [
                -0.4489787115607321,
                -1.084783317855296,
                1.1513364383510152,
                0.8883705710433076,
                -0.7116226770220307,
                0.9511829133991766
            ]
        },
        {
            "positions": [
                -0.48707510167021895,
                -1.08690629063526,
                1.2021732080297651,
                0.7868118609436705,
                -0.6418949062115802,
                1.0802947295037186
            ]
        },
        {
            "positions": [
                -0.5251714917797058,
                -1.0890292634152239,
                1.2530099777085146,
                0.6852531508440336,
                -0.5721671354011295,
                1.2094065456082608
            ]
        },
        {
            "positions": [
                -0.5632678818891926,
                -1.0911522361951878,
                1.3038467473872646,
                0.5836944407443967,
                -0.5024393645906788,
                1.338518361712803
            ]
        },
        {
            "positions": [
                -0.6013642719986795,
                -1.0932752089751518,
                1.354683517066014,
                0.48213573064475956,
                -0.43271159378022817,
                1.4676301778173446
            ]
        },
        {
            "positions": [
                -0.6394606621081663,
                -1.0953981817551157,
                1.405520286744764,
                0.38057702054512266,
                -0.3629838229697777,
                1.5967419939218868
            ]
        },
        {
            "positions": [
                -0.6775570522176532,
                -1.0975211545350796,
                1.4563570564235135,
                0.27901831044548553,
                -0.29325605215932704,
                1.725853810026429
            ]
        },
        {
            "positions": [
                -0.71565344232714,
                -1.0996441273150437,
                1.5071938261022633,
                0.1774596003458484,
                -0.22352828134887637,
                1.854965626130971
            ]
        },
        {
            "positions": [
                -0.7537498324366269,
                -1.1017671000950076,
                1.558030595781013,
                0.07590089024621172,
                -0.1538005105384257,
                1.9840774422355127
            ]
        },
        {
            "positions": [
                -0.7918462225461137,
                -1.1038900728749714,
                1.6088673654597627,
                -0.025657819853425412,
                -0.08407273972797502,
                2.113189258340055
            ]
        },
        {
            "positions": [
                -0.8299426126556008,
                -1.1060130456549355,
                1.6597041351385127,
                -0.12721652995306298,
                -0.014344968917524348,
                2.2423010744445975
            ]
        },
        {
            "positions": [
                -0.8680390027650876,
                -1.1081360184348994,
                1.7105409048172624,
                -0.2287752400527001,
                0.055382801892926325,
                2.3714128905491396
            ]
        },
        {
            "positions": [
                -0.9061353928745745,
                -1.1102589912148633,
                1.7613776744960121,
                -0.3303339501523368,
                0.125110572703377,
                2.5005247066536813
            ]
        },
        {
            "positions": [
                -0.9442317829840613,
                -1.1123819639948274,
                1.8122144441747619,
                -0.4318926602519739,
                0.19483834351382767,
                2.6296365227582235
            ]
        },
        {
            "positions": [
                -0.9823281730935481,
                -1.1145049367747912,
                1.8630512138535116,
                -0.533451370351611,
                0.26456611432427835,
                2.7587483388627656
            ]
        },
        {
            "positions": [
                -1.020424563203035,
                -1.116627909554755,
                1.9138879835322613,
                -0.6350100804512482,
                0.3342938851347288,
                2.8878601549673077
            ]
        },
        {
            "positions": [
                -1.058520953312522,
                -1.1187508823347192,
                1.964724753211011,
                -0.7365687905508849,
                0.4040216559451797,
                3.0169719710718494
            ]
        },
        {
            "positions": [
                -1.0966173434220088,
                -1.120873855114683,
                2.0155615228897608,
                -0.838127500650522,
                0.47374942675563003,
                3.1460837871763916
            ]
        }
    ]
}