{
    "goal": {
        "global_pose": {
            "orientation": {
                "w": 0.7047431468963623,
                "x": -0.7094548344612122,
                "y": 0.0024358443915843964,
                "z": -0.0022348060738295317
            },
            "position": {
                "x": 0.6094750761985779,
                "y": 0.3671506643295288,
                "z": 0.19426114857196808
            }
        },
        "name": "move_to_magneteinheit_A"
    },
    "id": "ProjEST_move_to_magneteinheit_A_123",
    "joint_names": [
        "shoulder_pan_joint",
        "shoulder_lift_joint",
        "elbow_joint",
        "wrist_1_joint",
        "wrist_2_joint",
        "wrist_3_joint"
    ],
    "metrics": {
        "cart_traj_len": 1.0532602712219947,
        "distance_elbow_joint": 0.4161971436344203,
        "distance_shoulder_lift_joint": 0.34938073434669326,
        "distance_shoulder_pan_joint": 1.2419139942108652,
        "distance_wrist_1_joint": 2.35257245906077,
        "distance_wrist_2_joint": 1.7041957306219229,
        "distance_wrist_3_joint": 1.1032386089432853,
        "smoothness": 0.0,
        "time": 0.383488302,
        "traj_len": 2.6772184578061533,
        "weighted_distance": 3.6647979587403205
    },
    "planner": "ProjEST",
    "start": {
        "state": {
            "elbow_joint": 1.5739458966750683,
            "shoulder_lift_joint": -1.4977259741207325,
            "shoulder_pan_joint": -1.1188672016454206,
            "wrist_1_joint": 1.494575848278785,
            "wrist_2_joint": -1.5706037134824402,
            "wrist_3_joint": -2.0226957942261072
        }
    },
    "waypoints": [
        {
            "positions": [
                -1.1188672016454206,
                -1.4977259741207325,
                1.5739458966750683,
                1.494575848278785,
                -1.5706037134824402,
                -2.0226957942261072
            ]
        },
        {
            "positions": [
                -1.0535033072132698,
                -1.479337514418275,
                1.5958510094979326,
                1.3707562451703235,
                -1.4809092013444443,
                -2.0807609841704906
            ]
        },
        {
            "positions": [
                -0.988139412781119,
                -1.4609490547158175,
                1.6177561223207968,
                1.2469366420618617,
                -1.3912146892064483,
                -2.138826174114874
            ]
        },
        {
            "positions": [
                -0.9227755183489682,
                -1.44256059501336,
                1.639661235143661,
                1.1231170389534002,
                -1.3015201770684524,
                -2.1968913640592573
            ]
        },
        {
            "positions": [
                -0.8574116239168175,
                -1.4241721353109023,
                1.6615663479665252,
                0.9992974358449387,
                -1.2118256649304564,
                -2.254956554003641
            ]
        },
        {
            "positions": [
                -0.7920477294846666,
                -1.4057836756084447,
                1.6834714607893895,
                0.8754778327364771,
                -1.1221311527924605,
                -2.3130217439480245
            ]
        },
        {
            "positions": [
                -0.7266838350525158,
                -1.3873952159059872,
                1.7053765736122537,
                0.7516582296280155,
                -1.0324366406544647,
                -2.371086933892408
            ]
        },
        {
            "positions": [
                -0.661319940620365,
                -1.3690067562035297,
                1.727281686435118,
                0.6278386265195539,
                -0.9427421285164687,
                -2.4291521238367912
            ]
        },
        {
            "positions": [
                -0.5959560461882143,
                -1.3506182965010722,
                1.7491867992579822,
                0.5040190234110923,
                -0.8530476163784727,
                -2.4872173137811746
            ]
        },
        {
            "positions": [
                -0.5305921517560634,
                -1.3322298367986147,
                1.7710919120808464,
                0.38019942030263065,
                -0.7633531042404768,
                -2.545282503725558
            ]
        },
        {
            "positions": [
                -0.4652282573239127,
                -1.313841377096157,
                1.7929970249037106,
                0.25637981719416914,
                -0.6736585921024809,
                -2.6033476936699413
            ]
        },
        {
            "positions": [
                -0.39986436289176175,
                -1.2954529173936995,
                1.8149021377265748,
                0.1325602140857074,
                -0.5839640799644849,
                -2.661412883614325
            ]
        },
        {
            "positions": [
                -0.334500468459611,
                -1.277064457691242,
                1.836807250549439,
                0.0087406109772461,
                -0.494269567826489,
                -2.7194780735587085
            ]
        },
        {
            "positions": [
                -0.26913657402746016,
                -1.2586759979887845,
                1.8587123633723033,
                -0.11507899213121564,
                -0.40457505568849306,
                -2.777543263503092
            ]
        },
        {
            "positions": [
                -0.20377267959530942,
                -1.240287538286327,
                1.8806174761951675,
                -0.23889859523967716,
                -0.3148805435504971,
                -2.8356084534474753
            ]
        },
        {
            "positions": [
                -0.13840878516315858,
                -1.2218990785838693,
                1.9025225890180317,
                -0.3627181983481389,
                -0.22518603141250115,
                -2.8936736433918586
            ]
        },
        {
            "positions": [
                -0.07304489073100795,
                -1.203510618881412,
                1.924427701840896,
                -0.4865378014566004,
                -0.1354915192745052,
                -2.9517388333362424
            ]
        },
        {
            "positions": [
                -0.007680996298857101,
                -1.1851221591789542,
                1.9463328146637602,
                -0.6103574045650622,
                -0.04579700713650925,
                -3.009804023280626
            ]
        },
        {
            "positions": [
                0.05768289813329375,
                -1.1667336994764967,
                1.9682379274866244,
                -0.7341770076735237,
                0.0438975050014867,
                -3.067869213225009
            ]
        },
        {
            "positions": [
                0.12304679256544468,
                -1.1483452397740392,
                1.9901430403094886,
                -0.8579966107819853,
                0.13359201713948274,
                -3.1259344031693925
            ]
        }
    ]
}