{
    "goal": {
        "global_pose": {
            "orientation": {
                "w": 0.7047431493862688,
                "x": -0.7094548369677653,
                "y": 0.0024358444001904,
                "z": -0.0022348060817251984
            },
            "position": {
                "x": -0.39052492380142206,
                "y": 0.3671506643295288,
                "z": 0.19426114857196808
            }
        },
        "name": "move_to_magneteinheit_D"
    },
    "id": "ProjEST_move_to_magneteinheit_D_78",
    "joint_names": [
        "shoulder_pan_joint",
        "shoulder_lift_joint",
        "elbow_joint",
        "wrist_1_joint",
        "wrist_2_joint",
        "wrist_3_joint"
    ],
    "metrics": {
        "cart_traj_len": 4.709487107911939,
        "distance_elbow_joint": 3.143480619894866,
        "distance_shoulder_lift_joint": 1.9924139841141677,
        "distance_shoulder_pan_joint": 4.461591164397329,
        "distance_wrist_1_joint": 1.5292635064629276,
        "distance_wrist_2_joint": 0.31222510152929117,
        "distance_wrist_3_joint": 3.054639551248936,
        "smoothness": 0.386780812006245,
        "time": 0.537474358,
        "traj_len": 3.807047928204676,
        "weighted_distance": 4.737550172624836
    },
    "planner": "ProjEST",
    "start": {
        "state": {
            "elbow_joint": 0.7495348899011973,
            "shoulder_lift_joint": -0.6476975780737697,
            "shoulder_pan_joint": -2.711696901376276,
            "wrist_1_joint": -0.07506478080974305,
            "wrist_2_joint": 0.4329665971545858,
            "wrist_3_joint": 3.1361499051832524
        }
    },
    "waypoints": [
        {
            "positions": [
                -2.711696901376276,
                -0.6476975780737697,
                0.7495348899011973,
                -0.07506478080974305,
                0.4329665971545858,
                3.1361499051832524
            ]
        },
        {
            "positions": [
                -2.725999181743985,
                -0.6197153033179659,
                0.6718062742417228,
                -0.06322672589436731,
                0.394111204356709,
                2.9744058036982755
            ]
        },
        {
            "positions": [
                -2.7393602799832384,
                -0.5888331921470965,
                0.5826126300305621,
                -0.05104395763800011,
                0.35069227746614917,
                2.7849923494929323
            ]
        },
        {
            "positions": [
                -2.7527213782224917,
                -0.557951080976227,
                0.49341898581940147,
                -0.03886118938163291,
                0.30727335057558935,
                2.5955788952875896
            ]
        },
        {
            "positions": [
                -2.7660824764617447,
                -0.5270689698053577,
                0.4042253416082408,
                -0.026678421125265715,
                0.26385442368502954,
                2.4061654410822464
            ]
        },
        {
            "positions": [
                -2.779443574700998,
                -0.4961868586344883,
                0.3150316973970801,
                -0.014495652868898506,
                0.22043549679446972,
                2.2167519868769032
            ]
        },
        {
            "positions": [
                -2.7928046729402514,
                -0.4653047474636189,
                0.22583805318591943,
                -0.0023128846125313116,
                0.17701656990390993,
                2.0273385326715605
            ]
        },
        {
            "positions": [
                -2.653060264369668,
                -0.5158140200667096,
                0.12958828483464124,
                0.02455142604743716,
                0.1760327995456089,
                1.9586746464893994
            ]
        },
        {
            "positions": [
                -2.513315855799085,
                -0.5663232926698003,
                0.033338516483363057,
                0.05141573670740563,
                0.1750490291873079,
                1.8900107603072382
            ]
        },
        {
            "positions": [
                -2.3735714472285014,
                -0.6168325652728911,
                -0.06291125186791507,
                0.0782800473673741,
                0.17406525882900686,
                1.821346874125077
            ]
        },
        {
            "positions": [
                -2.2338270386579184,
                -0.6673418378759819,
                -0.15916102021919332,
                0.10514435802734257,
                0.17308148847070587,
                1.7526829879429158
            ]
        },
        {
            "positions": [
                -2.094082630087335,
                -0.7178511104790726,
                -0.2554107885704715,
                0.13200866868731104,
                0.17209771811240485,
                1.6840191017607546
            ]
        },
        {
            "positions": [
                -1.954338221516752,
                -0.7683603830821633,
                -0.3516605569217496,
                0.15887297934727948,
                0.17111394775410382,
                1.6153552155785935
            ]
        },
        {
            "positions": [
                -1.8145938129461685,
                -0.818869655685254,
                -0.4479103252730279,
                0.18573729000724798,
                0.1701301773958028,
                1.5466913293964324
            ]
        },
        {
            "positions": [
                -1.6748494043755853,
                -0.8693789282883448,
                -0.5441600936243061,
                0.21260160066721645,
                0.16914640703750178,
                1.478027443214271
            ]
        },
        {
            "positions": [
                -1.535104995805002,
                -0.9198882008914355,
                -0.6404098619755841,
                0.2394659113271849,
                0.16816263667920076,
                1.4093635570321101
            ]
        },
        {
            "positions": [
                -1.3953605872344186,
                -0.9703974734945262,
                -0.7366596303268624,
                0.2663302219871534,
                0.16717886632089976,
                1.3406996708499488
            ]
        },
        {
            "positions": [
                -1.2556161786638356,
                -1.020906746097617,
                -0.8329093986781406,
                0.29319453264712186,
                0.16619509596259874,
                1.2720357846677877
            ]
        },
        {
            "positions": [
                -1.1158717700932523,
                -1.0714160187007078,
                -0.9291591670294186,
                0.3200588433070903,
                0.16521132560429772,
                1.2033718984856265
            ]
        },
        {
            "positions": [
                -0.9761273615226689,
                -1.1219252913037985,
                -1.025408935380697,
                0.3469231539670588,
                0.1642275552459967,
                1.1347080123034652
            ]
        },
        {
            "positions": [
                -0.8363829529520854,
                -1.1724345639068892,
                -1.1216587037319752,
                0.3737874646270273,
                0.16324378488769567,
                1.066044126121304
            ]
        },
        {
            "positions": [
                -0.6966385443815026,
                -1.2229438365099798,
                -1.2179084720832531,
                0.4006517752869957,
                0.16226001452939465,
                0.9973802399391429
            ]
        },
        {
            "positions": [
                -0.5568941358109192,
                -1.2734531091130707,
                -1.3141582404345316,
                0.4275160859469642,
                0.16127624417109365,
                0.9287163537569818
            ]
        },
        {
            "positions": [
                -0.4171497272403357,
                -1.3239623817161614,
                -1.4104080087858097,
                0.4543803966069327,
                0.16029247381279263,
                0.8600524675748205
            ]
        },
        {
            "positions": [
                -0.2774053186697527,
                -1.3744716543192521,
                -1.5066577771370877,
                0.4812447072669011,
                0.1593087034544916,
                0.7913885813926596
            ]
        },
        {
            "positions": [
                -0.13766091009916925,
                -1.4249809269223428,
                -1.602907545488366,
                0.5081090179268696,
                0.15832493309619058,
                0.7227246952104982
            ]
        },
        {
            "positions": [
                0.0020834984714142024,
                -1.4754901995254337,
                -1.6991573138396443,
                0.5349733285868381,
                0.15734116273788956,
                0.6540608090283371
            ]
        },
        {
            "positions": [
                0.14182790704199721,
                -1.5259994721285244,
                -1.7954070821909223,
                0.5618376392468065,
                0.15635739237958854,
                0.585396922846176
            ]
        },
        {
            "positions": [
                0.2815723156125802,
                -1.576508744731615,
                -1.8916568505422007,
                0.588701949906775,
                0.15537362202128752,
                0.5167330366640148
            ]
        },
        {
            "positions": [
                0.4213167241831637,
                -1.627018017334706,
                -1.9879066188934786,
                0.6155662605667435,
                0.15438985166298652,
                0.4480691504818535
            ]
        },
        {
            "positions": [
                0.5610611327537467,
                -1.6775272899377967,
                -2.0841563872447564,
                0.6424305712267119,
                0.1534060813046855,
                0.37940526429969235
            ]
        },
        {
            "positions": [
                0.70080554132433,
                -1.7280365625408873,
                -2.1804061555960352,
                0.6692948818866804,
                0.15242231094638448,
                0.3107413781175312
            ]
        },
        {
            "positions": [
                0.5741093729573625,
                -1.8062207537447086,
                -2.2109118090814115,
                0.7814240024247524,
                0.15694814170654023,
                0.2779940889485007
            ]
        },
        {
            "positions": [
                0.447413204590395,
                -1.8844049449485296,
                -2.2414174625667873,
                0.8935531229628245,
                0.16147397246669598,
                0.24524679977947017
            ]
        },
        {
            "positions": [
                0.3207170362234275,
                -1.9625891361523509,
                -2.2719231160521636,
                1.0056822435008965,
                0.16599980322685173,
                0.21249951061043965
            ]
        },
        {
            "positions": [
                0.19402086785646,
                -2.040773327356172,
                -2.30242876953754,
                1.1178113640389686,
                0.17052563398700749,
                0.17975222144140912
            ]
        },
        {
            "positions": [
                0.06732469948949249,
                -2.118957518559993,
                -2.332934423022916,
                1.2299404845770407,
                0.17505146474716324,
                0.1470049322723786
            ]
        },
        {
            "positions": [
                -0.05937146887747502,
                -2.1971417097638146,
                -2.363440076508292,
                1.3420696051151126,
                0.179577295507319,
                0.11425764310334807
            ]
        },
        {
            "positions": [
                -0.18606763724444253,
                -2.2753259009676357,
                -2.393945729993668,
                1.4541987256531848,
                0.18410312626747474,
                0.08151035393431755
            ]
        }
    ]
}