{
    "goal": {
        "global_pose": {
            "orientation": {
                "w": -0.4816463035849501,
                "x": 0.5182115481033762,
                "y": 0.4908360881923453,
                "z": -0.5084816262002911
            },
            "position": {
                "x": -0.8240239810943604,
                "y": 0.19912469901144506,
                "z": 0.16403168439865112
            }
        },
        "name": "move_to_storage_D"
    },
    "id": "ProjEST_move_to_storage_D_1",
    "joint_names": [
        "shoulder_pan_joint",
        "shoulder_lift_joint",
        "elbow_joint",
        "wrist_1_joint",
        "wrist_2_joint",
        "wrist_3_joint"
    ],
    "metrics": {
        "cart_traj_len": 3.3281973836720256,
        "distance_elbow_joint": 4.209859837215223,
        "distance_shoulder_lift_joint": 1.347223129059204,
        "distance_shoulder_pan_joint": 3.08203999577089,
        "distance_wrist_1_joint": 2.272705385621668,
        "distance_wrist_2_joint": 1.252223437023575,
        "distance_wrist_3_joint": 3.1536892290663245,
        "smoothness": 0.03971058986796655,
        "time": 0.110964363,
        "traj_len": 3.9137885755054374,
        "weighted_distance": 5.014982382275613
    },
    "planner": "ProjEST",
    "start": {
        "state": {
            "elbow_joint": -2.384821997420982,
            "shoulder_lift_joint": -2.2788054674887404,
            "shoulder_pan_joint": -0.18546946417610016,
            "wrist_1_joint": 1.4845937964226739,
            "wrist_2_joint": 0.1789877726866377,
            "wrist_3_joint": 0.03710572555276528
        }
    },
    "waypoints": [
        {
            "positions": [
                -0.18546946417610016,
                -2.2788054674887404,
                -2.384821997420982,
                1.4845937964226739,
                0.1789877726866377,
                0.03710572555276528
            ]
        },
        {
            "positions": [
                -0.057315097065173404,
                -2.222035064772486,
                -2.2570435817418284,
                1.463511023459953,
                0.17068135430564652,
                0.09037465789267729
            ]
        },
        {
            "positions": [
                0.07083927004575336,
                -2.165264662056232,
                -2.1292651660626745,
                1.4424282504972326,
                0.16237493592465535,
                0.1436435902325893
            ]
        },
        {
            "positions": [
                0.19899363715668011,
                -2.108494259339978,
                -2.001486750383521,
                1.4213454775345118,
                0.15406851754366416,
                0.19691252257250133
            ]
        },
        {
            "positions": [
                0.3271480042676069,
                -2.051723856623724,
                -1.873708334704367,
                1.4002627045717913,
                0.14576209916267296,
                0.25018145491241334
            ]
        },
        {
            "positions": [
                0.45530237137853363,
                -1.9949534539074696,
                -1.7459299190252136,
                1.3791799316090705,
                0.1374556807816818,
                0.3034503872523253
            ]
        },
        {
            "positions": [
                0.5834567384894604,
                -1.9381830511912157,
                -1.6181515033460598,
                1.3580971586463497,
                0.12914926240069063,
                0.35671931959223735
            ]
        },
        {
            "positions": [
                0.7116111056003871,
                -1.8814126484749614,
                -1.4903730876669061,
                1.3370143856836292,
                0.12084284401969943,
                0.4099882519321494
            ]
        },
        {
            "positions": [
                0.839765472711314,
                -1.8246422457587073,
                -1.3625946719877524,
                1.3159316127209084,
                0.11253642563870825,
                0.46325718427206136
            ]
        },
        {
            "positions": [
                0.9679198398222408,
                -1.7678718430424532,
                -1.2348162563085987,
                1.2948488397581879,
                0.10423000725771707,
                0.5165261166119735
            ]
        },
        {
            "positions": [
                1.0960742069331675,
                -1.711101440326199,
                -1.107037840629445,
                1.2737660667954671,
                0.09592358887672589,
                0.5697950489518854
            ]
        },
        {
            "positions": [
                1.2242285740440941,
                -1.654331037609945,
                -0.9792594249502913,
                1.2526832938327463,
                0.0876171704957347,
                0.6230639812917974
            ]
        },
        {
            "positions": [
                1.352382941155021,
                -1.5975606348936908,
                -0.8514810092711378,
                1.2316005208700258,
                0.07931075211474353,
                0.6763329136317094
            ]
        },
        {
            "positions": [
                1.4805373082659476,
                -1.5407902321774367,
                -0.7237025935919841,
                1.210517747907305,
                0.07100433373375235,
                0.7296018459716214
            ]
        },
        {
            "positions": [
                1.6086916753768745,
                -1.4840198294611824,
                -0.5959241779128301,
                1.1894349749445845,
                0.06269791535276115,
                0.7828707783115335
            ]
        },
        {
            "positions": [
                1.7368460424878012,
                -1.4272494267449285,
                -0.46814576223367665,
                1.1683522019818637,
                0.05439149697176998,
                0.8361397106514454
            ]
        },
        {
            "positions": [
                1.865000409598728,
                -1.3704790240286742,
                -0.34036734655452294,
                1.147269429019143,
                0.04608507859077879,
                0.8894086429913575
            ]
        },
        {
            "positions": [
                1.9931547767096545,
                -1.3137086213124203,
                -0.21258893087536945,
                1.1261866560564224,
                0.03777866020978762,
                0.9426775753312695
            ]
        },
        {
            "positions": [
                2.1213091438205818,
                -1.256938218596166,
                -0.08481051519621552,
                1.1051038830937017,
                0.02947224182879643,
                0.9959465076711815
            ]
        },
        {
            "positions": [
                2.249463510931508,
                -1.2001678158799118,
                0.04296790048293797,
                1.0840211101309811,
                0.021165823447805238,
                1.0492154400110936
            ]
        },
        {
            "positions": [
                2.377617878042435,
                -1.1433974131636577,
                0.1707463161620919,
                1.0629383371682604,
                0.012859405066814072,
                1.1024843723510056
            ]
        },
        {
            "positions": [
                2.5057722451533615,
                -1.0866270104474036,
                0.2985247318412454,
                1.0418555642055396,
                0.004552986685822907,
                1.1557533046909176
            ]
        },
        {
            "positions": [
                2.6339266122642884,
                -1.0298566077311495,
                0.42630314752039933,
                1.0207727912428188,
                -0.0037534316951683133,
                1.2090222370308297
            ]
        },
        {
            "positions": [
                2.7620809793752152,
                -0.9730862050148954,
                0.5540815631995526,
                0.9996900182800983,
                -0.012059850076159489,
                1.2622911693707417
            ]
        },
        {
            "positions": [
                2.7536753823614917,
                -0.9756801966764803,
                0.6335163304867206,
                0.887952417812655,
                0.0542636383151391,
                1.3828226559487635
            ]
        },
        {
            "positions": [
                2.7452697853477686,
                -0.9782741883380653,
                0.7129510977738887,
                0.7762148173452117,
                0.12058712670643769,
                1.5033541425267853
            ]
        },
        {
            "positions": [
                2.736864188334045,
                -0.9808681799996503,
                0.7923858650610566,
                0.6644772168777685,
                0.1869106150977363,
                1.623885629104807
            ]
        },
        {
            "positions": [
                2.7284585913203214,
                -0.9834621716612353,
                0.8718206323482246,
                0.5527396164103252,
                0.25323410348903486,
                1.7444171156828288
            ]
        },
        {
            "positions": [
                2.7200529943065983,
                -0.9860561633228202,
                0.9512553996353926,
                0.4410020159428819,
                0.31955759188033345,
                1.8649486022608506
            ]
        },
        {
            "positions": [
                2.7116473972928747,
                -0.9886501549844051,
                1.0306901669225605,
                0.3292644154754387,
                0.38588108027163204,
                1.9854800888388722
            ]
        },
        {
            "positions": [
                2.703241800279151,
                -0.9912441466459901,
                1.1101249342097286,
                0.21752681500799542,
                0.45220456866293063,
                2.106011575416894
            ]
        },
        {
            "positions": [
                2.694836203265428,
                -0.9938381383075751,
                1.1895597014968966,
                0.10578921454055212,
                0.5185280570542292,
                2.226543061994916
            ]
        },
        {
            "positions": [
                2.6864306062517045,
                -0.99643212996916,
                1.2689944687840646,
                -0.005948385926891175,
                0.5848515454455279,
                2.3470745485729374
            ]
        },
        {
            "positions": [
                2.678025009237981,
                -0.999026121630745,
                1.3484292360712327,
                -0.11768598639433447,
                0.6511750338368264,
                2.4676060351509594
            ]
        },
        {
            "positions": [
                2.6696194122242574,
                -1.00162011329233,
                1.4278640033584007,
                -0.22942358686177777,
                0.7174985222281249,
                2.588137521728981
            ]
        },
        {
            "positions": [
                2.6612138152105342,
                -1.0042141049539148,
                1.5072987706455687,
                -0.34116118732922085,
                0.7838220106194236,
                2.7086690083070026
            ]
        },
        {
            "positions": [
                2.6528082181968107,
                -1.0068080966154997,
                1.5867335379327365,
                -0.45289878779666415,
                0.8501454990107222,
                2.8292004948850247
            ]
        },
        {
            "positions": [
                2.644402621183087,
                -1.0094020882770849,
                1.6661683052199046,
                -0.5646363882641074,
                0.9164689874020208,
                2.9497319814630463
            ]
        },
        {
            "positions": [
                2.635997024169364,
                -1.0119960799386698,
                1.7456030725070726,
                -0.6763739887315507,
                0.9827924757933193,
                3.070263468041068
            ]
        },
        {
            "positions": [
                2.6275914271556404,
                -1.0145900716002547,
                1.8250378397942406,
                -0.788111589198994,
                1.049115964184618,
                3.19079495461909
            ]
        }
    ]
}