{
    "goal": {
        "global_pose": {
            "orientation": {
                "w": 0.7031023502349854,
                "x": -0.7110244035720825,
                "y": 0.007748599164187908,
                "z": 0.005598929710686207
            },
            "position": {
                "x": 0.11585023208521307,
                "y": 0.44412534475326537,
                "z": 0.3711530566215515
            }
        },
        "name": "move_to_auspresseinheit_A"
    },
    "id": "ProjEST_move_to_auspresseinheit_A_143",
    "joint_names": [
        "shoulder_pan_joint",
        "shoulder_lift_joint",
        "elbow_joint",
        "wrist_1_joint",
        "wrist_2_joint",
        "wrist_3_joint"
    ],
    "metrics": {
        "cart_traj_len": 2.6879509530287518,
        "distance_elbow_joint": 2.877975168157466,
        "distance_shoulder_lift_joint": 0.7021074297568124,
        "distance_shoulder_pan_joint": 2.7665900981142375,
        "distance_wrist_1_joint": 2.365039167208593,
        "distance_wrist_2_joint": 0.6066382162066833,
        "distance_wrist_3_joint": 3.6308986492556437,
        "smoothness": 0.49630340000251566,
        "time": 0.26506979399999997,
        "traj_len": 3.5985064580599873,
        "weighted_distance": 4.814844069191234
    },
    "planner": "ProjEST",
    "start": {
        "state": {
            "elbow_joint": 2.4225747245308327,
            "shoulder_lift_joint": -1.373653427065438,
            "shoulder_pan_joint": -0.33786330853087027,
            "wrist_1_joint": -1.0288602302712604,
            "wrist_2_joint": 1.23302299562683,
            "wrist_3_joint": -3.094021725338297
        }
    },
    "waypoints": [
        {
            "positions": [
                -0.33786330853087027,
                -1.373653427065438,
                2.4225747245308327,
                -1.0288602302712604,
                1.23302299562683,
                -3.094021725338297
            ]
        },
        {
            "positions": [
                -0.3836209790439488,
                -1.3802094862957677,
                2.310641063711279,
                -0.9157785518211664,
                1.2267928217721322,
                -2.9843191615868987
            ]
        },
        {
            "positions": [
                -0.4293786495570273,
                -1.3867655455260974,
                2.198707402891725,
                -0.8026968733710724,
                1.2205626479174347,
                -2.8746165978355
            ]
        },
        {
            "positions": [
                -0.47513632007010587,
                -1.3933216047564272,
                2.086773742072171,
                -0.6896151949209784,
                1.214332474062737,
                -2.7649140340841014
            ]
        },
        {
            "positions": [
                -0.5208939905831844,
                -1.3998776639867567,
                1.9748400812526172,
                -0.5765335164708845,
                1.2081023002080395,
                -2.655211470332703
            ]
        },
        {
            "positions": [
                -0.5666516610962629,
                -1.4064337232170865,
                1.8629064204330632,
                -0.4634518380207905,
                1.2018721263533418,
                -2.5455089065813046
            ]
        },
        {
            "positions": [
                -0.6124093316093415,
                -1.4129897824474162,
                1.7509727596135094,
                -0.3503701595706965,
                1.1956419524986441,
                -2.435806342829906
            ]
        },
        {
            "positions": [
                -0.65816700212242,
                -1.419545841677746,
                1.6390390987939556,
                -0.23728848112060263,
                1.1894117786439466,
                -2.3261037790785073
            ]
        },
        {
            "positions": [
                -0.7039246726354985,
                -1.4261019009080758,
                1.5271054379744018,
                -0.12420680267050854,
                1.183181604789249,
                -2.216401215327109
            ]
        },
        {
            "positions": [
                -0.7496823431485771,
                -1.4326579601384055,
                1.4151717771548478,
                -0.011125124220414673,
                1.1769514309345512,
                -2.1066986515757105
            ]
        },
        {
            "positions": [
                -0.7954400136616555,
                -1.4392140193687353,
                1.303238116335294,
                0.10195655422967942,
                1.1707212570798537,
                -1.9969960878243118
            ]
        },
        {
            "positions": [
                -0.841197684174734,
                -1.4457700785990648,
                1.1913044555157402,
                0.2150382326797733,
                1.164491083225156,
                -1.8872935240729134
            ]
        },
        {
            "positions": [
                -0.8869553546878126,
                -1.4523261378293946,
                1.0793707946961861,
                0.3281199111298674,
                1.1582609093704586,
                -1.7775909603215148
            ]
        },
        {
            "positions": [
                -0.932713025200891,
                -1.4588821970597243,
                0.9674371338766322,
                0.4412015895799613,
                1.1520307355157609,
                -1.6678883965701163
            ]
        },
        {
            "positions": [
                -0.7552598527489087,
                -1.5115432301241523,
                1.0475851085214438,
                0.4386914506575808,
                1.1137454120958585,
                -1.6310778225251457
            ]
        },
        {
            "positions": [
                -0.5778066802969264,
                -1.5642042631885804,
                1.1277330831662553,
                0.4361813117352003,
                1.0754600886759562,
                -1.594267248480175
            ]
        },
        {
            "positions": [
                -0.40035350784494417,
                -1.6168652962530083,
                1.207881057811067,
                0.4336711728128198,
                1.037174765256054,
                -1.557456674435204
            ]
        },
        {
            "positions": [
                -0.22290033539296183,
                -1.6695263293174365,
                1.2880290324558785,
                0.4311610338904393,
                0.9988894418361515,
                -1.5206461003902334
            ]
        },
        {
            "positions": [
                -0.04544716294097961,
                -1.7221873623818644,
                1.36817700710069,
                0.42865089496805875,
                0.9606041184162492,
                -1.4838355263452627
            ]
        },
        {
            "positions": [
                0.13200600951100272,
                -1.7748483954462924,
                1.4483249817455017,
                0.42614075604567825,
                0.9223187949963468,
                -1.447024952300292
            ]
        },
        {
            "positions": [
                0.30945918196298483,
                -1.8275094285107205,
                1.5284729563903132,
                0.42363061712329775,
                0.8840334715764445,
                -1.4102143782553214
            ]
        },
        {
            "positions": [
                0.4869123544149674,
                -1.8801704615751484,
                1.6086209310351247,
                0.42112047820091725,
                0.8457481481565421,
                -1.3734038042103505
            ]
        },
        {
            "positions": [
                0.6643655268669495,
                -1.9328314946395766,
                1.6887689056799364,
                0.41861033927853675,
                0.8074628247366398,
                -1.3365932301653798
            ]
        },
        {
            "positions": [
                0.8418186993189318,
                -1.9854925277040045,
                1.768916880324748,
                0.41610020035615625,
                0.7691775013167375,
                -1.299782656120409
            ]
        },
        {
            "positions": [
                0.8680874936185108,
                -1.9865967338719153,
                1.845460085361387,
                0.35591660813871606,
                0.7489469542399251,
                -1.4554969028932567
            ]
        },
        {
            "positions": [
                0.8943562879180897,
                -1.987700940039826,
                1.9220032903980262,
                0.2957330159212759,
                0.7287164071631127,
                -1.6112111496661043
            ]
        },
        {
            "positions": [
                0.9206250822176687,
                -1.9888051462077367,
                1.9985464954346652,
                0.2355494237038357,
                0.7084858600863002,
                -1.766925396438952
            ]
        },
        {
            "positions": [
                0.9468938765172477,
                -1.9899093523756475,
                2.0750897004713043,
                0.1753658314863955,
                0.6882553130094878,
                -1.9226396432117996
            ]
        },
        {
            "positions": [
                0.9731626708168266,
                -1.9910135585435582,
                2.1516329055079435,
                0.11518223926895531,
                0.6680247659326755,
                -2.078353889984647
            ]
        },
        {
            "positions": [
                0.935124774290871,
                -1.9781249477004508,
                2.1959398636159264,
                0.022182266181833346,
                0.672385727458769,
                -2.256317825297732
            ]
        },
        {
            "positions": [
                0.8970868777649156,
                -1.9652363368573433,
                2.2402468217239093,
                -0.07081770690528862,
                0.6767466889848626,
                -2.434281760610817
            ]
        },
        {
            "positions": [
                0.8590489812389601,
                -1.952347726014236,
                2.2845537798318922,
                -0.1638176799924106,
                0.6811076505109561,
                -2.6122456959239018
            ]
        },
        {
            "positions": [
                0.8210110847130045,
                -1.9394591151711285,
                2.328860737939875,
                -0.2568176530795325,
                0.6854686120370497,
                -2.7902096312369866
            ]
        },
        {
            "positions": [
                0.7641545350516663,
                -1.9228626877179973,
                2.359567724659886,
                -0.35529670542847114,
                0.6975666822411271,
                -2.9633259336975755
            ]
        },
        {
            "positions": [
                0.7072979853903281,
                -1.9062662602648661,
                2.390274711379897,
                -0.4537757577774097,
                0.7096647524452043,
                -3.1364422361581648
            ]
        }
    ]
}