{
    "goal": {
        "global_pose": {
            "orientation": {
                "w": 0.7047431493862688,
                "x": -0.7094548369677653,
                "y": 0.0024358444001904,
                "z": -0.0022348060817251984
            },
            "position": {
                "x": -0.39052492380142206,
                "y": 0.3671506643295288,
                "z": 0.19426114857196808
            }
        },
        "name": "move_to_magneteinheit_D"
    },
    "id": "ProjEST_move_to_magneteinheit_D_4",
    "joint_names": [
        "shoulder_pan_joint",
        "shoulder_lift_joint",
        "elbow_joint",
        "wrist_1_joint",
        "wrist_2_joint",
        "wrist_3_joint"
    ],
    "metrics": {
        "cart_traj_len": 4.434366162957506,
        "distance_elbow_joint": 3.1155752588028496,
        "distance_shoulder_lift_joint": 1.0941748051367548,
        "distance_shoulder_pan_joint": 3.720558806818453,
        "distance_wrist_1_joint": 2.081554481768854,
        "distance_wrist_2_joint": 1.535274253368223,
        "distance_wrist_3_joint": 3.0830959525482875,
        "smoothness": 0.5630567405954054,
        "time": 0.7364780670000001,
        "traj_len": 3.8249488308268162,
        "weighted_distance": 4.940977048993151
    },
    "planner": "ProjEST",
    "start": {
        "state": {
            "elbow_joint": 0.7495348899011973,
            "shoulder_lift_joint": -0.6476975780737697,
            "shoulder_pan_joint": -2.711696901376276,
            "wrist_1_joint": -0.07506478080974305,
            "wrist_2_joint": 0.4329665971545858,
            "wrist_3_joint": 3.1361499051832524
        }
    },
    "waypoints": [
        {
            "positions": [
                -2.711696901376276,
                -0.6476975780737697,
                0.7495348899011973,
                -0.07506478080974305,
                0.4329665971545858,
                3.1361499051832524
            ]
        },
        {
            "positions": [
                -2.768988984002198,
                -0.7519804018525648,
                0.6731346926281399,
                -0.10873608852902567,
                0.4208209464634478,
                3.2361733133257804
            ]
        },
        {
            "positions": [
                -2.82628106662812,
                -0.8562632256313598,
                0.5967344953550824,
                -0.14240739624830828,
                0.40867529577230977,
                3.336196721468309
            ]
        },
        {
            "positions": [
                -2.701322718239644,
                -0.8730412567197844,
                0.49889241927701544,
                -0.20611601650138667,
                0.42720189332045755,
                3.2741453825076756
            ]
        },
        {
            "positions": [
                -2.5763643698511673,
                -0.889819287808209,
                0.4010503431989485,
                -0.2698246367544651,
                0.4457284908686054,
                3.2120940435470424
            ]
        },
        {
            "positions": [
                -2.451406021462691,
                -0.9065973188966335,
                0.3032082671208815,
                -0.33353325700754344,
                0.46425508841675317,
                3.1500427045864092
            ]
        },
        {
            "positions": [
                -2.3264476730742145,
                -0.9233753499850581,
                0.20536619104281456,
                -0.3972418772606219,
                0.48278168596490095,
                3.087991365625776
            ]
        },
        {
            "positions": [
                -2.2014893246857383,
                -0.9401533810734827,
                0.10752411496474756,
                -0.4609504975137003,
                0.5013082835130488,
                3.025940026665143
            ]
        },
        {
            "positions": [
                -2.0765309762972617,
                -0.9569314121619072,
                0.009682038886680622,
                -0.5246591177667786,
                0.5198348810611966,
                2.9638886877045096
            ]
        },
        {
            "positions": [
                -1.9515726279087853,
                -0.9737094432503318,
                -0.08816003719138643,
                -0.5883677380198571,
                0.5383614786093444,
                2.9018373487438764
            ]
        },
        {
            "positions": [
                -1.8266142795203089,
                -0.9904874743387564,
                -0.18600211326945326,
                -0.6520763582729354,
                0.5568880761574921,
                2.8397860097832432
            ]
        },
        {
            "positions": [
                -1.7016559311318327,
                -1.0072655054271809,
                -0.2838441893475202,
                -0.715784978526014,
                0.57541467370564,
                2.7777346708226105
            ]
        },
        {
            "positions": [
                -1.576697582743356,
                -1.0240435365156055,
                -0.38168626542558726,
                -0.7794935987790923,
                0.5939412712537878,
                2.715683331861977
            ]
        },
        {
            "positions": [
                -1.4517392343548796,
                -1.04082156760403,
                -0.4795283415036542,
                -0.8432022190321706,
                0.6124678688019356,
                2.653631992901344
            ]
        },
        {
            "positions": [
                -1.3267808859664034,
                -1.0575995986924547,
                -0.5773704175817211,
                -0.906910839285249,
                0.6309944663500834,
                2.591580653940711
            ]
        },
        {
            "positions": [
                -1.2018225375779268,
                -1.0743776297808791,
                -0.6752124936597881,
                -0.9706194595383275,
                0.6495210638982312,
                2.5295293149800777
            ]
        },
        {
            "positions": [
                -1.0768641891894504,
                -1.0911556608693038,
                -0.7730545697378552,
                -1.034328079791406,
                0.6680476614463791,
                2.467477976019444
            ]
        },
        {
            "positions": [
                -0.9519058408009742,
                -1.1079336919577283,
                -0.870896645815922,
                -1.0980367000444842,
                0.6865742589945267,
                2.4054266370588113
            ]
        },
        {
            "positions": [
                -0.8269474924124975,
                -1.124711723046153,
                -0.9687387218939889,
                -1.1617453202975627,
                0.7051008565426746,
                2.343375298098178
            ]
        },
        {
            "positions": [
                -0.7019891440240209,
                -1.1414897541345774,
                -1.066580797972056,
                -1.2254539405506413,
                0.7236274540908224,
                2.281323959137545
            ]
        },
        {
            "positions": [
                -0.5770307956355452,
                -1.1582677852230021,
                -1.1644228740501228,
                -1.2891625608037196,
                0.7421540516389702,
                2.2192726201769117
            ]
        },
        {
            "positions": [
                -0.4520724472470685,
                -1.1750458163114266,
                -1.26226495012819,
                -1.352871181056798,
                0.760680649187118,
                2.1572212812162785
            ]
        },
        {
            "positions": [
                -0.3271140988585919,
                -1.1918238473998513,
                -1.360107026206257,
                -1.4165798013098765,
                0.7792072467352658,
                2.0951699422556453
            ]
        },
        {
            "positions": [
                -0.2021557504701157,
                -1.2086018784882757,
                -1.4579491022843238,
                -1.4802884215629546,
                0.7977338442834135,
                2.033118603295012
            ]
        },
        {
            "positions": [
                -0.07719740208163905,
                -1.2253799095767004,
                -1.5557911783623908,
                -1.5439970418160331,
                0.8162604418315613,
                1.971067264334379
            ]
        },
        {
            "positions": [
                0.04776094630683714,
                -1.2421579406651249,
                -1.6536332544404577,
                -1.6077056620691117,
                0.8347870393797092,
                1.9090159253737458
            ]
        },
        {
            "positions": [
                0.17271929469531333,
                -1.2589359717535493,
                -1.7514753305185247,
                -1.6714142823221898,
                0.8533136369278569,
                1.8469645864131126
            ]
        },
        {
            "positions": [
                0.2976776430837901,
                -1.275714002841974,
                -1.8493174065965914,
                -1.7351229025752684,
                0.8718402344760048,
                1.7849132474524794
            ]
        },
        {
            "positions": [
                0.255922448830483,
                -1.3169444033199742,
                -1.8979429819635278,
                -1.7765291428572825,
                0.7848178891432968,
                1.9035173658197295
            ]
        },
        {
            "positions": [
                0.21416725457717592,
                -1.3581748037979744,
                -1.9465685573304643,
                -1.8179353831392966,
                0.6977955438105887,
                2.0221214841869797
            ]
        },
        {
            "positions": [
                0.17241206032386885,
                -1.3994052042759746,
                -1.9951941326974008,
                -1.859341623421311,
                0.6107731984778808,
                2.1407256025542303
            ]
        },
        {
            "positions": [
                0.13065686607056176,
                -1.4406356047539748,
                -2.043819708064337,
                -1.900747863703325,
                0.5237508531451727,
                2.2593297209214804
            ]
        },
        {
            "positions": [
                0.08890167181725467,
                -1.481866005231975,
                -2.0924452834312737,
                -1.9421541039853392,
                0.4367285078124647,
                2.3779338392887306
            ]
        },
        {
            "positions": [
                0.04714647756394763,
                -1.5230964057099752,
                -2.14107085879821,
                -1.9835603442673535,
                0.3497061624797567,
                2.496537957655981
            ]
        },
        {
            "positions": [
                0.005391283310640538,
                -1.5643268061879754,
                -2.189696434165146,
                -2.0249665845493676,
                0.2626838171470487,
                2.6151420760232313
            ]
        },
        {
            "positions": [
                -0.03636391094266653,
                -1.6055572066659756,
                -2.238322009532083,
                -2.0663728248313817,
                0.17566147181434066,
                2.7337461943904815
            ]
        },
        {
            "positions": [
                -0.07335750539972719,
                -1.639636000802113,
                -2.270251599374475,
                -2.0889344342681855,
                0.08775165915919358,
                2.8294793732178314
            ]
        },
        {
            "positions": [
                -0.11035109985678783,
                -1.67371479493825,
                -2.302181189216867,
                -2.1114960437049892,
                -0.0001581534959534947,
                2.9252125520451813
            ]
        },
        {
            "positions": [
                -0.14734469431384847,
                -1.7077935890743872,
                -2.3341107790592592,
                -2.134057653141793,
                -0.08806796615110057,
                3.020945730872531
            ]
        },
        {
            "positions": [
                -0.18433828877090913,
                -1.7418723832105245,
                -2.3660403689016514,
                -2.1566192625785967,
                -0.17597777880624763,
                3.116678909699881
            ]
        }
    ]
}