{
    "goal": {
        "global_pose": {
            "orientation": {
                "w": 0.7047431493862688,
                "x": -0.7094548369677653,
                "y": 0.0024358444001904,
                "z": -0.0022348060817251984
            },
            "position": {
                "x": -0.39052492380142206,
                "y": 0.3671506643295288,
                "z": 0.19426114857196808
            }
        },
        "name": "move_to_magneteinheit_D"
    },
    "id": "ProjEST_move_to_magneteinheit_D_22",
    "joint_names": [
        "shoulder_pan_joint",
        "shoulder_lift_joint",
        "elbow_joint",
        "wrist_1_joint",
        "wrist_2_joint",
        "wrist_3_joint"
    ],
    "metrics": {
        "cart_traj_len": 4.372126527268681,
        "distance_elbow_joint": 3.792148738087169,
        "distance_shoulder_lift_joint": 1.8895484796462407,
        "distance_shoulder_pan_joint": 3.0219597937736973,
        "distance_wrist_1_joint": 2.219562837208753,
        "distance_wrist_2_joint": 2.0859660812671663,
        "distance_wrist_3_joint": 5.382210408684179,
        "smoothness": 0.4007018145053544,
        "time": 0.488410756,
        "traj_len": 4.288519131199861,
        "weighted_distance": 5.784578297033542
    },
    "planner": "ProjEST",
    "start": {
        "state": {
            "elbow_joint": 0.7495348899011973,
            "shoulder_lift_joint": -0.6476975780737697,
            "shoulder_pan_joint": -2.711696901376276,
            "wrist_1_joint": -0.07506478080974305,
            "wrist_2_joint": 0.4329665971545858,
            "wrist_3_joint": 3.1361499051832524
        }
    },
    "waypoints": [
        {
            "positions": [
                -2.711696901376276,
                -0.6476975780737697,
                0.7495348899011973,
                -0.07506478080974305,
                0.4329665971545858,
                3.1361499051832524
            ]
        },
        {
            "positions": [
                -2.7221143303716,
                -0.7632440480643556,
                0.8341385262558385,
                -0.058854144647336834,
                0.49053066497454756,
                3.066252703033375
            ]
        },
        {
            "positions": [
                -2.7325317593669247,
                -0.8787905180549416,
                0.9187421626104797,
                -0.04264350848493061,
                0.5480947327945094,
                2.996355500883498
            ]
        },
        {
            "positions": [
                -2.7429491883622488,
                -0.9943369880455275,
                1.0033457989651209,
                -0.026432872322524392,
                0.6056588006144712,
                2.926458298733621
            ]
        },
        {
            "positions": [
                -2.753366617357573,
                -1.1098834580361134,
                1.087949435319762,
                -0.010222236160118178,
                0.6632228684344329,
                2.856561096583744
            ]
        },
        {
            "positions": [
                -2.659309362833081,
                -1.1318544762619445,
                0.9925425945669738,
                -0.07124860319475226,
                0.6835822725311448,
                2.759979445579833
            ]
        },
        {
            "positions": [
                -2.565252108308589,
                -1.1538254944877755,
                0.8971357538141856,
                -0.13227497022938633,
                0.7039416766278567,
                2.6633977945759217
            ]
        },
        {
            "positions": [
                -2.471194853784097,
                -1.1757965127136067,
                0.8017289130613974,
                -0.19330133726402043,
                0.7243010807245686,
                2.566816143572011
            ]
        },
        {
            "positions": [
                -2.377137599259605,
                -1.1977675309394378,
                0.7063220723086092,
                -0.2543277042986545,
                0.7446604848212804,
                2.4702344925680997
            ]
        },
        {
            "positions": [
                -2.2830803447351125,
                -1.2197385491652688,
                0.610915231555821,
                -0.31535407133328863,
                0.7650198889179923,
                2.373652841564189
            ]
        },
        {
            "positions": [
                -2.189023090210621,
                -1.2417095673910998,
                0.5155083908030328,
                -0.3763804383679227,
                0.7853792930147042,
                2.277071190560278
            ]
        },
        {
            "positions": [
                -2.0949658356861285,
                -1.2636805856169309,
                0.4201015500502445,
                -0.4374068054025568,
                0.8057386971114161,
                2.180489539556367
            ]
        },
        {
            "positions": [
                -2.0009085811616365,
                -1.285651603842762,
                0.32469470929745625,
                -0.4984331724371908,
                0.826098101208128,
                2.0839078885524556
            ]
        },
        {
            "positions": [
                -1.9068513266371445,
                -1.307622622068593,
                0.2292878685446681,
                -0.5594595394718249,
                0.8464575053048398,
                1.9873262375485448
            ]
        },
        {
            "positions": [
                -1.8127940721126525,
                -1.3295936402944242,
                0.13388102779187983,
                -0.6204859065064591,
                0.8668169094015518,
                1.8907445865446337
            ]
        },
        {
            "positions": [
                -1.7187368175881605,
                -1.3515646585202552,
                0.03847418703909167,
                -0.6815122735410931,
                0.8871763134982635,
                1.7941629355407227
            ]
        },
        {
            "positions": [
                -1.6246795630636686,
                -1.3735356767460862,
                -0.05693265371369649,
                -0.7425386405757272,
                0.9075357175949754,
                1.697581284536812
            ]
        },
        {
            "positions": [
                -1.5306223085391766,
                -1.3955066949719173,
                -0.15233949446648487,
                -0.8035650076103612,
                0.9278951216916873,
                1.6009996335329006
            ]
        },
        {
            "positions": [
                -1.4365650540146844,
                -1.4174777131977483,
                -0.24774633521927303,
                -0.8645913746449954,
                0.9482545257883992,
                1.5044179825289896
            ]
        },
        {
            "positions": [
                -1.3425077994901926,
                -1.4394487314235793,
                -0.3431531759720612,
                -0.9256177416796293,
                0.9686139298851111,
                1.4078363315250788
            ]
        },
        {
            "positions": [
                -1.2484505449657004,
                -1.4614197496494103,
                -0.43856001672484957,
                -0.9866441087142634,
                0.988973333981823,
                1.3112546805211678
            ]
        },
        {
            "positions": [
                -1.1543932904412084,
                -1.4833907678752416,
                -0.5339668574776377,
                -1.0476704757488975,
                1.0093327380785349,
                1.2146730295172568
            ]
        },
        {
            "positions": [
                -1.0603360359167164,
                -1.5053617861010726,
                -0.6293736982304259,
                -1.1086968427835315,
                1.0296921421752467,
                1.1180913785133457
            ]
        },
        {
            "positions": [
                -0.9662787813922245,
                -1.5273328043269037,
                -0.724780538983214,
                -1.1697232098181656,
                1.0500515462719586,
                1.0215097275094347
            ]
        },
        {
            "positions": [
                -0.8722215268677322,
                -1.5493038225527347,
                -0.8201873797360024,
                -1.2307495768527998,
                1.0704109503686705,
                0.9249280765055237
            ]
        },
        {
            "positions": [
                -0.7781642723432405,
                -1.5712748407785657,
                -0.9155942204887904,
                -1.2917759438874337,
                1.0907703544653824,
                0.8283464255016129
            ]
        },
        {
            "positions": [
                -0.6841070178187483,
                -1.593245859004397,
                -1.0110010612415787,
                -1.352802310922068,
                1.1111297585620943,
                0.7317647744977016
            ]
        },
        {
            "positions": [
                -0.5900497632942563,
                -1.615216877230228,
                -1.1064079019943671,
                -1.413828677956702,
                1.1314891626588062,
                0.6351831234937908
            ]
        },
        {
            "positions": [
                -0.4959925087697643,
                -1.637187895456059,
                -1.201814742747155,
                -1.474855044991336,
                1.151848566755518,
                0.53860147248988
            ]
        },
        {
            "positions": [
                -0.40193525424527227,
                -1.65915891368189,
                -1.2972215834999434,
                -1.53588141202597,
                1.17220797085223,
                0.4420198214859687
            ]
        },
        {
            "positions": [
                -0.34912562559363,
                -1.609482796430376,
                -1.401698021274351,
                -1.5957494343044616,
                1.0914943209799453,
                0.4536555374261827
            ]
        },
        {
            "positions": [
                -0.2963159969419877,
                -1.5598066791788616,
                -1.5061744590487587,
                -1.6556174565829531,
                1.0107806711076606,
                0.4652912533663967
            ]
        },
        {
            "positions": [
                -0.2435063682903454,
                -1.5101305619273475,
                -1.610650896823166,
                -1.7154854788614446,
                0.9300670212353758,
                0.4769269693066107
            ]
        },
        {
            "positions": [
                -0.1906967396387031,
                -1.4604544446758334,
                -1.7151273345975737,
                -1.7753535011399362,
                0.8493533713630911,
                0.48856268524682467
            ]
        },
        {
            "positions": [
                -0.1378871109870608,
                -1.410778327424319,
                -1.8196037723719813,
                -1.8352215234184277,
                0.7686397214908064,
                0.5001984011870387
            ]
        },
        {
            "positions": [
                -0.08507748233541851,
                -1.361102210172805,
                -1.9240802101463887,
                -1.8950895456969192,
                0.6879260716185216,
                0.5118341171272527
            ]
        },
        {
            "positions": [
                -0.032267853683776215,
                -1.3114260929212906,
                -2.028556647920796,
                -1.9549575679754108,
                0.6072124217462369,
                0.5234698330674667
            ]
        },
        {
            "positions": [
                0.02054177496786608,
                -1.2617499756697765,
                -2.133033085695204,
                -2.0148255902539023,
                0.5264987718739522,
                0.5351055490076807
            ]
        },
        {
            "positions": [
                0.0034745651808759034,
                -1.3023732110244972,
                -2.1540651713610752,
                -2.028356300060606,
                0.4660046276429425,
                0.7563914743023343
            ]
        },
        {
            "positions": [
                -0.013592644606114274,
                -1.3429964463792181,
                -2.1750972570269465,
                -2.04188700986731,
                0.40551048341193274,
                0.9776773995969881
            ]
        },
        {
            "positions": [
                -0.030659854393104456,
                -1.3836196817339388,
                -2.1961293426928177,
                -2.055417719674014,
                0.345016339180923,
                1.1989633248916416
            ]
        },
        {
            "positions": [
                -0.04772706418009463,
                -1.4242429170886597,
                -2.217161428358689,
                -2.068948429480718,
                0.28452219494991327,
                1.4202492501862953
            ]
        },
        {
            "positions": [
                -0.06479427396708481,
                -1.4648661524433804,
                -2.23819351402456,
                -2.082479139287422,
                0.22402805071890358,
                1.641535175480949
            ]
        },
        {
            "positions": [
                -0.081861483754075,
                -1.505489387798101,
                -2.2592255996904314,
                -2.096009849094126,
                0.16353390648789384,
                1.8628211007756024
            ]
        },
        {
            "positions": [
                -0.09892869354106516,
                -1.546112623152822,
                -2.2802576853563026,
                -2.10954055890083,
                0.10303976225688416,
                2.084107026070256
            ]
        },
        {
            "positions": [
                -0.11599590332805534,
                -1.5867358585075426,
                -2.301289771022174,
                -2.123071268707534,
                0.042545618025874365,
                2.30539295136491
            ]
        },
        {
            "positions": [
                -0.13306311311504554,
                -1.6273590938622635,
                -2.322321856688045,
                -2.136601978514238,
                -0.017948526205135318,
                2.5266788766595636
            ]
        },
        {
            "positions": [
                -0.1501303229020357,
                -1.6679823292169842,
                -2.3433539423539163,
                -2.1501326883209417,
                -0.07844267043614504,
                2.7479648019542173
            ]
        },
        {
            "positions": [
                -0.1679851167005651,
                -1.705205255456384,
                -2.3545693498513787,
                -2.1575376085200935,
                -0.1264797035767192,
                2.9390324742135423
            ]
        },
        {
            "positions": [
                -0.18583991049909449,
                -1.7424281816957834,
                -2.3657847573488415,
                -2.1649425287192456,
                -0.17451673671729337,
                3.130100146472867
            ]
        }
    ]
}