{
    "goal": {
        "global_pose": {
            "orientation": {
                "w": -0.00223480608172531,
                "x": 0.0024358444001904467,
                "y": 0.7094548369677653,
                "z": -0.704743149386269
            },
            "position": {
                "x": -0.37947507619857795,
                "y": -0.6371506643295288,
                "z": 0.19426114857196808
            }
        },
        "name": "move_to_magneteinheit_C"
    },
    "id": "ProjEST_move_to_magneteinheit_C_51",
    "joint_names": [
        "shoulder_pan_joint",
        "shoulder_lift_joint",
        "elbow_joint",
        "wrist_1_joint",
        "wrist_2_joint",
        "wrist_3_joint"
    ],
    "metrics": {
        "cart_traj_len": 0.9774480860585415,
        "distance_elbow_joint": 1.624046474611553,
        "distance_shoulder_lift_joint": 1.7327314382543726,
        "distance_shoulder_pan_joint": 0.9397579344960354,
        "distance_wrist_1_joint": 0.30103093975014705,
        "distance_wrist_2_joint": 1.1290660009362352,
        "distance_wrist_3_joint": 3.0127017092003845,
        "smoothness": 0.9855798823991381,
        "time": 0.842346656,
        "traj_len": 2.9562365428444197,
        "weighted_distance": 4.024280663216207
    },
    "planner": "ProjEST",
    "start": {
        "state": {
            "elbow_joint": 1.9565354006590394,
            "shoulder_lift_joint": -1.4165861576513559,
            "shoulder_pan_joint": -1.6717766223277177,
            "wrist_1_joint": -0.5286633288215096,
            "wrist_2_joint": 1.4727565892594296,
            "wrist_3_joint": 3.1593482883155493
        }
    },
    "waypoints": [
        {
            "positions": [
                -1.6717766223277177,
                -1.4165861576513559,
                1.9565354006590394,
                -0.5286633288215096,
                1.4727565892594296,
                3.1593482883155493
            ]
        },
        {
            "positions": [
                -1.7339626459872288,
                -1.469441117443427,
                2.0164392629310095,
                -0.5458912301013974,
                1.404161594633936,
                3.0505871999093945
            ]
        },
        {
            "positions": [
                -1.7961486696467397,
                -1.522296077235498,
                2.07634312520298,
                -0.5631191313812853,
                1.3355666000084425,
                2.94182611150324
            ]
        },
        {
            "positions": [
                -1.8583346933062508,
                -1.5751510370275694,
                2.13624698747495,
                -0.5803470326611733,
                1.266971605382949,
                2.8330650230970846
            ]
        },
        {
            "positions": [
                -1.9205207169657617,
                -1.6280059968196405,
                2.19615084974692,
                -0.5975749339410611,
                1.1983766107574554,
                2.72430393469093
            ]
        },
        {
            "positions": [
                -1.9827067406252727,
                -1.6808609566117116,
                2.2560547120188907,
                -0.6148028352209489,
                1.1297816161319618,
                2.615542846284775
            ]
        },
        {
            "positions": [
                -2.044892764284784,
                -1.7337159164037828,
                2.315958574290861,
                -0.6320307365008369,
                1.0611866215064683,
                2.5067817578786205
            ]
        },
        {
            "positions": [
                -2.1070787879442947,
                -1.7865708761958539,
                2.375862436562831,
                -0.6492586377807248,
                0.9925916268809748,
                2.3980206694724657
            ]
        },
        {
            "positions": [
                -2.1692648116038056,
                -1.839425835987925,
                2.4357662988348014,
                -0.6664865390606126,
                0.9239966322554812,
                2.289259581066311
            ]
        },
        {
            "positions": [
                -2.231450835263317,
                -1.8922807957799963,
                2.4956701611067715,
                -0.6837144403405004,
                0.8554016376299877,
                2.180498492660156
            ]
        },
        {
            "positions": [
                -2.2936368589228278,
                -1.9451357555720674,
                2.5555740233787416,
                -0.7009423416203884,
                0.7868066430044941,
                2.071737404254001
            ]
        },
        {
            "positions": [
                -2.3558228825823386,
                -1.9979907153641387,
                2.615477885650712,
                -0.7181702429002763,
                0.7182116483790006,
                1.9629763158478462
            ]
        },
        {
            "positions": [
                -2.4180089062418495,
                -2.05084567515621,
                2.6753817479226822,
                -0.7353981441801641,
                0.6496166537535071,
                1.8542152274416914
            ]
        },
        {
            "positions": [
                -2.480194929901361,
                -2.103700634948281,
                2.7352856101946528,
                -0.752626045460052,
                0.5810216591280135,
                1.7454541390355365
            ]
        },
        {
            "positions": [
                -2.5423809535608717,
                -2.156555594740352,
                2.795189472466623,
                -0.7698539467399399,
                0.51242666450252,
                1.6366930506293818
            ]
        },
        {
            "positions": [
                -2.5354655932345835,
                -2.0572793946238144,
                2.716650232186226,
                -0.7758379789231116,
                0.5293002721204525,
                1.7856976977808035
            ]
        },
        {
            "positions": [
                -2.5285502329082954,
                -1.9580031945072767,
                2.6381109919058288,
                -0.7818220111062832,
                0.5461738797383849,
                1.9347023449322251
            ]
        },
        {
            "positions": [
                -2.5216348725820072,
                -1.8587269943907392,
                2.559571751625432,
                -0.7878060432894549,
                0.5630474873563175,
                2.0837069920836466
            ]
        },
        {
            "positions": [
                -2.514719512255719,
                -1.7594507942742015,
                2.481032511345035,
                -0.7937900754726266,
                0.57992109497425,
                2.2327116392350685
            ]
        },
        {
            "positions": [
                -2.507804151929431,
                -1.660174594157664,
                2.402493271064638,
                -0.7997741076557983,
                0.5967947025921825,
                2.3817162863864905
            ]
        },
        {
            "positions": [
                -2.500888791603143,
                -1.5608983940411263,
                2.323954030784241,
                -0.8057581398389699,
                0.613668310210115,
                2.530720933537912
            ]
        },
        {
            "positions": [
                -2.4939734312768547,
                -1.4616221939245886,
                2.245414790503844,
                -0.8117421720221416,
                0.6305419178280476,
                2.6797255806893334
            ]
        },
        {
            "positions": [
                -2.4870580709505665,
                -1.3623459938080509,
                2.1668755502234474,
                -0.8177262042053133,
                0.6474155254459801,
                2.8287302278407553
            ]
        },
        {
            "positions": [
                -2.4801427106242784,
                -1.2630697936915132,
                2.0883363099430503,
                -0.823710236388485,
                0.6642891330639126,
                2.9777348749921773
            ]
        },
        {
            "positions": [
                -2.4732273502979902,
                -1.1637935935749757,
                2.0097970696626533,
                -0.8296942685716566,
                0.6811627406818451,
                3.1267395221435987
            ]
        }
    ]
}