{
    "goal": {
        "global_pose": {
            "orientation": {
                "w": -0.00223480608172531,
                "x": 0.0024358444001904467,
                "y": 0.7094548369677653,
                "z": -0.704743149386269
            },
            "position": {
                "x": -0.37947507619857795,
                "y": -0.6371506643295288,
                "z": 0.19426114857196808
            }
        },
        "name": "move_to_magneteinheit_C"
    },
    "id": "ProjEST_move_to_magneteinheit_C_109",
    "joint_names": [
        "shoulder_pan_joint",
        "shoulder_lift_joint",
        "elbow_joint",
        "wrist_1_joint",
        "wrist_2_joint",
        "wrist_3_joint"
    ],
    "metrics": {
        "cart_traj_len": 3.1537051825770215,
        "distance_elbow_joint": 0.8520324887514836,
        "distance_shoulder_lift_joint": 1.3388551915264868,
        "distance_shoulder_pan_joint": 4.809057648410782,
        "distance_wrist_1_joint": 1.404825714869107,
        "distance_wrist_2_joint": 2.7683792322798144,
        "distance_wrist_3_joint": 4.229172866562859,
        "smoothness": 0.9981904459304877,
        "time": 3.901757615,
        "traj_len": 3.9245793586575015,
        "weighted_distance": 5.294702430040348
    },
    "planner": "ProjEST",
    "start": {
        "state": {
            "elbow_joint": 1.9565354006590394,
            "shoulder_lift_joint": -1.4165861576513559,
            "shoulder_pan_joint": -1.6717766223277177,
            "wrist_1_joint": -0.5286633288215096,
            "wrist_2_joint": 1.4727565892594296,
            "wrist_3_joint": 3.1593482883155493
        }
    },
    "waypoints": [
        {
            "positions": [
                -1.6717766223277177,
                -1.4165861576513559,
                1.9565354006590394,
                -0.5286633288215096,
                1.4727565892594296,
                3.1593482883155493
            ]
        },
        {
            "positions": [
                -1.5688092320396654,
                -1.4338281476541375,
                1.9491310669677988,
                -0.5122095067369223,
                1.3614079550185936,
                3.0431749010432667
            ]
        },
        {
            "positions": [
                -1.4658418417516133,
                -1.451070137656919,
                1.9417267332765582,
                -0.495755684652335,
                1.2500593207777577,
                2.9270015137709837
            ]
        },
        {
            "positions": [
                -1.362874451463561,
                -1.4683121276597006,
                1.9343223995853174,
                -0.4793018625677477,
                1.1387106865369216,
                2.810828126498701
            ]
        },
        {
            "positions": [
                -1.2599070611755085,
                -1.4855541176624822,
                1.9269180658940768,
                -0.4628480404831604,
                1.0273620522960858,
                2.6946547392264186
            ]
        },
        {
            "positions": [
                -1.1569396708874562,
                -1.5027961076652638,
                1.9195137322028362,
                -0.4463942183985732,
                0.9160134180552497,
                2.578481351954136
            ]
        },
        {
            "positions": [
                -1.053972280599404,
                -1.5200380976680454,
                1.9121093985115953,
                -0.4299403963139859,
                0.8046647838144138,
                2.4623079646818535
            ]
        },
        {
            "positions": [
                -0.9510048903113517,
                -1.537280087670827,
                1.9047050648203547,
                -0.4134865742293986,
                0.6933161495735778,
                2.3461345774095705
            ]
        },
        {
            "positions": [
                -0.8480375000232995,
                -1.5545220776736084,
                1.8973007311291141,
                -0.3970327521448113,
                0.5819675153327418,
                2.229961190137288
            ]
        },
        {
            "positions": [
                -0.7450701097352472,
                -1.5717640676763902,
                1.8898963974378735,
                -0.38057893006022403,
                0.47061888109190586,
                2.1137878028650054
            ]
        },
        {
            "positions": [
                -0.6421027194471949,
                -1.5890060576791716,
                1.882492063746633,
                -0.36412510797563674,
                0.3592702468510698,
                1.9976144155927227
            ]
        },
        {
            "positions": [
                -0.5391353291591425,
                -1.6062480476819532,
                1.875087730055392,
                -0.34767128589104945,
                0.24792161261023393,
                1.88144102832044
            ]
        },
        {
            "positions": [
                -0.4361679388710904,
                -1.6234900376847348,
                1.8676833963641515,
                -0.3312174638064622,
                0.13657297836939786,
                1.7652676410481574
            ]
        },
        {
            "positions": [
                -0.33320054858303805,
                -1.6407320276875164,
                1.8602790626729109,
                -0.3147636417218749,
                0.025224344128562004,
                1.6490942537758748
            ]
        },
        {
            "positions": [
                -0.2302331582949857,
                -1.657974017690298,
                1.85287472898167,
                -0.29830981963728764,
                -0.08612429011227407,
                1.532920866503592
            ]
        },
        {
            "positions": [
                -0.12726576800693357,
                -1.6752160076930795,
                1.8454703952904294,
                -0.28185599755270035,
                -0.19747292435310992,
                1.4167474792313093
            ]
        },
        {
            "positions": [
                -0.02429837771888123,
                -1.6924579976958611,
                1.8380660615991888,
                -0.26540217546811307,
                -0.30882155859394606,
                1.3005740919590267
            ]
        },
        {
            "positions": [
                -0.18012107939668764,
                -1.7072942203719683,
                1.8631412902502973,
                -0.3124438254512259,
                -0.2856298126504811,
                1.4169616008817292
            ]
        },
        {
            "positions": [
                -0.3359437810744941,
                -1.7221304430480755,
                1.888216518901406,
                -0.35948547543433873,
                -0.26243806670701614,
                1.5333491098044316
            ]
        },
        {
            "positions": [
                -0.4917664827523005,
                -1.7369666657241827,
                1.9132917475525144,
                -0.40652712541745156,
                -0.2392463207635512,
                1.6497366187271338
            ]
        },
        {
            "positions": [
                -0.6475891844301069,
                -1.75180288840029,
                1.9383669762036229,
                -0.4535687754005644,
                -0.21605457482008625,
                1.7661241276498363
            ]
        },
        {
            "positions": [
                -0.8034118861079134,
                -1.7666391110763973,
                1.9634422048547315,
                -0.5006104253836773,
                -0.1928628288766213,
                1.8825116365725387
            ]
        },
        {
            "positions": [
                -0.9592345877857198,
                -1.7814753337525044,
                1.98851743350584,
                -0.5476520753667901,
                -0.16967108293315636,
                1.998899145495241
            ]
        },
        {
            "positions": [
                -1.1150572894635262,
                -1.7963115564286116,
                2.0135926621569484,
                -0.594693725349903,
                -0.14647933698969137,
                2.1152866544179436
            ]
        },
        {
            "positions": [
                -1.2708799911413327,
                -1.8111477791047188,
                2.038667890808057,
                -0.6417353753330157,
                -0.12328759104622644,
                2.231674163340646
            ]
        },
        {
            "positions": [
                -1.426702692819139,
                -1.8259840017808262,
                2.0637431194591658,
                -0.6887770253161286,
                -0.10009584510276148,
                2.3480616722633485
            ]
        },
        {
            "positions": [
                -1.5825253944969455,
                -1.8408202244569334,
                2.0888183481102742,
                -0.7358186752992415,
                -0.07690409915929652,
                2.4644491811860507
            ]
        },
        {
            "positions": [
                -1.7383480961747522,
                -1.8556564471330406,
                2.1138935767613827,
                -0.7828603252823543,
                -0.053712353215831565,
                2.580836690108753
            ]
        },
        {
            "positions": [
                -1.8941707978525584,
                -1.8704926698091477,
                2.138968805412491,
                -0.829901975265467,
                -0.030520607272366662,
                2.6972241990314556
            ]
        },
        {
            "positions": [
                -2.049993499530365,
                -1.885328892485255,
                2.1640440340635996,
                -0.8769436252485799,
                -0.0073288613289017035,
                2.813611707954158
            ]
        },
        {
            "positions": [
                -2.2058162012081715,
                -1.900165115161362,
                2.189119262714708,
                -0.9239852752316928,
                0.01586288461456331,
                2.92999921687686
            ]
        },
        {
            "positions": [
                -2.361638902885978,
                -1.9150013378374693,
                2.2141944913658165,
                -0.9710269252148057,
                0.03905463055802827,
                3.0463867257995627
            ]
        },
        {
            "positions": [
                -2.5174616045637843,
                -1.9298375605135767,
                2.2392697200169254,
                -1.0180685751979186,
                0.06224637650149317,
                3.162774234722265
            ]
        },
        {
            "positions": [
                -2.6732843062415905,
                -1.9446737831896839,
                2.264344948668034,
                -1.0651102251810314,
                0.08543812244495813,
                3.279161743644967
            ]
        },
        {
            "positions": [
                -2.829107007919397,
                -1.959510005865791,
                2.2894201773191423,
                -1.1121518751641442,
                0.10862986838842309,
                3.39554925256767
            ]
        },
        {
            "positions": [
                -2.778139754547764,
                -1.8458055282497836,
                2.2491046010374736,
                -1.0700354663327614,
                0.18996553373757594,
                3.356203036910857
            ]
        },
        {
            "positions": [
                -2.727172501176131,
                -1.7321010506337764,
                2.2087890247558053,
                -1.0279190575013786,
                0.2713011990867288,
                3.3168568212540435
            ]
        },
        {
            "positions": [
                -2.676205247804498,
                -1.618396573017769,
                2.1684734484741366,
                -0.9858026486699958,
                0.3526368644358816,
                3.2775106055972305
            ]
        },
        {
            "positions": [
                -2.6252379944328657,
                -1.5046920954017615,
                2.1281578721924683,
                -0.9436862398386131,
                0.4339725297850345,
                3.238164389940417
            ]
        },
        {
            "positions": [
                -2.5742707410612327,
                -1.390987617785754,
                2.0878422959107996,
                -0.9015698310072303,
                0.5153081951341874,
                3.198818174283604
            ]
        },
        {
            "positions": [
                -2.5233034876895997,
                -1.2772831401697469,
                2.0475267196291314,
                -0.8594534221758475,
                0.5966438604833402,
                3.1594719586267908
            ]
        },
        {
            "positions": [
                -2.4723362343179667,
                -1.1635786625537394,
                2.0072111433474626,
                -0.8173370133444647,
                0.677979525832493,
                3.120125742969978
            ]
        }
    ]
}