{
    "goal": {
        "global_pose": {
            "orientation": {
                "w": 0.7031023502349854,
                "x": -0.7110244035720825,
                "y": 0.007748599164187908,
                "z": 0.005598929710686207
            },
            "position": {
                "x": 0.11585023208521307,
                "y": 0.44412534475326537,
                "z": 0.3711530566215515
            }
        },
        "name": "move_to_auspresseinheit_A"
    },
    "id": "ProjEST_move_to_auspresseinheit_A_1",
    "joint_names": [
        "shoulder_pan_joint",
        "shoulder_lift_joint",
        "elbow_joint",
        "wrist_1_joint",
        "wrist_2_joint",
        "wrist_3_joint"
    ],
    "metrics": {
        "cart_traj_len": 2.2182979963221037,
        "distance_elbow_joint": 1.4276435740912654,
        "distance_shoulder_lift_joint": 1.3863337667075486,
        "distance_shoulder_pan_joint": 1.748161241433373,
        "distance_wrist_1_joint": 6.864914017384355,
        "distance_wrist_2_joint": 7.032746873399632,
        "distance_wrist_3_joint": 6.11986740594555,
        "smoothness": 0.5260438949562098,
        "time": 0.31309396899999997,
        "traj_len": 4.957788506881038,
        "weighted_distance": 7.121591295604996
    },
    "planner": "ProjEST",
    "start": {
        "state": {
            "elbow_joint": 2.4225747245308327,
            "shoulder_lift_joint": -1.373653427065438,
            "shoulder_pan_joint": -0.33786330853087027,
            "wrist_1_joint": -1.0288602302712604,
            "wrist_2_joint": 1.23302299562683,
            "wrist_3_joint": -3.094021725338297
        }
    },
    "waypoints": [
        {
            "positions": [
                -0.33786330853087027,
                -1.373653427065438,
                2.4225747245308327,
                -1.0288602302712604,
                1.23302299562683,
                -3.094021725338297
            ]
        },
        {
            "positions": [
                -0.34920976880426313,
                -1.3598978541598374,
                2.3990230874385263,
                -0.9088196491316862,
                1.1113117023336452,
                -2.996015865169786
            ]
        },
        {
            "positions": [
                -0.36055622907765605,
                -1.346142281254237,
                2.37547145034622,
                -0.788779067992112,
                0.9896004090404606,
                -2.8980100050012743
            ]
        },
        {
            "positions": [
                -0.371902689351049,
                -1.3323867083486365,
                2.3519198132539136,
                -0.6687384868525377,
                0.867889115747276,
                -2.800004144832763
            ]
        },
        {
            "positions": [
                -0.38324914962444184,
                -1.318631135443036,
                2.3283681761616073,
                -0.5486979057129635,
                0.7461778224540914,
                -2.7019982846642514
            ]
        },
        {
            "positions": [
                -0.3945956098978347,
                -1.3048755625374355,
                2.304816539069301,
                -0.42865732457338934,
                0.6244665291609067,
                -2.60399242449574
            ]
        },
        {
            "positions": [
                -0.40594207017122763,
                -1.291119989631835,
                2.2812649019769946,
                -0.30861674343381507,
                0.5027552358677221,
                -2.5059865643272285
            ]
        },
        {
            "positions": [
                -0.41728853044462055,
                -1.2773644167262346,
                2.2577132648846883,
                -0.1885761622942409,
                0.38104394257453744,
                -2.4079807041587173
            ]
        },
        {
            "positions": [
                -0.4286349907180134,
                -1.263608843820634,
                2.234161627792382,
                -0.06853558115466662,
                0.2593326492813527,
                -2.309974843990206
            ]
        },
        {
            "positions": [
                -0.43998145099140634,
                -1.2498532709150336,
                2.2106099907000756,
                0.05150499998490776,
                0.13762135598816805,
                -2.2119689838216945
            ]
        },
        {
            "positions": [
                -0.4513279112647992,
                -1.2360976980094331,
                2.1870583536077692,
                0.1715455811244817,
                0.015910062694983518,
                -2.113963123653183
            ]
        },
        {
            "positions": [
                -0.46267437153819213,
                -1.2223421251038327,
                2.163506716515463,
                0.2915861622640561,
                -0.10580123059820123,
                -2.0159572634846716
            ]
        },
        {
            "positions": [
                -0.474020831811585,
                -1.2085865521982322,
                2.1399550794231565,
                0.41162674340363026,
                -0.22751252389138577,
                -1.9179514033161602
            ]
        },
        {
            "positions": [
                -0.4853672920849779,
                -1.1948309792926317,
                2.11640344233085,
                0.5316673245432046,
                -0.3492238171845705,
                -1.8199455431476488
            ]
        },
        {
            "positions": [
                -0.4967137523583708,
                -1.1810754063870315,
                2.092851805238544,
                0.6517079056827786,
                -0.47093511047775505,
                -1.7219396829791376
            ]
        },
        {
            "positions": [
                -0.5080602126317637,
                -1.167319833481431,
                2.0693001681462375,
                0.771748486822353,
                -0.5926464037709398,
                -1.623933822810626
            ]
        },
        {
            "positions": [
                -0.5194066729051565,
                -1.1535642605758305,
                2.045748531053931,
                0.8917890679619271,
                -0.7143576970641246,
                -1.5259279626421147
            ]
        },
        {
            "positions": [
                -0.5307531331785494,
                -1.13980868767023,
                2.022196893961625,
                1.0118296491015013,
                -0.8360689903573091,
                -1.4279221024736033
            ]
        },
        {
            "positions": [
                -0.5420995934519424,
                -1.1260531147646295,
                1.9986452568693185,
                1.131870230241076,
                -0.9577802836504938,
                -1.3299162423050916
            ]
        },
        {
            "positions": [
                -0.5534460537253353,
                -1.112297541859029,
                1.9750936197770121,
                1.25191081138065,
                -1.0794915769436786,
                -1.2319103821365804
            ]
        },
        {
            "positions": [
                -0.5647925139987282,
                -1.0985419689534286,
                1.9515419826847058,
                1.3719513925202238,
                -1.201202870236863,
                -1.133904521968069
            ]
        },
        {
            "positions": [
                -0.576138974272121,
                -1.0847863960478281,
                1.9279903455923995,
                1.491991973659798,
                -1.3229141635300476,
                -1.0358986617995578
            ]
        },
        {
            "positions": [
                -0.5874854345455139,
                -1.0710308231422276,
                1.9044387085000931,
                1.6120325547993726,
                -1.4446254568232324,
                -0.9378928016310462
            ]
        },
        {
            "positions": [
                -0.5988318948189069,
                -1.0572752502366272,
                1.8808870714077868,
                1.7320731359389467,
                -1.5663367501164172,
                -0.839886941462535
            ]
        },
        {
            "positions": [
                -0.6101783550922997,
                -1.0435196773310267,
                1.8573354343154804,
                1.852113717078521,
                -1.6880480434096015,
                -0.7418810812940233
            ]
        },
        {
            "positions": [
                -0.6215248153656927,
                -1.0297641044254262,
                1.833783797223174,
                1.972154298218095,
                -1.8097593367027862,
                -0.6438752211255121
            ]
        },
        {
            "positions": [
                -0.6328712756390855,
                -1.0160085315198257,
                1.8102321601308677,
                2.0921948793576695,
                -1.931470629995971,
                -0.5458693609570004
            ]
        },
        {
            "positions": [
                -0.6442177359124784,
                -1.0022529586142253,
                1.7866805230385614,
                2.2122354604972436,
                -2.0531819232891557,
                -0.44786350078848924
            ]
        },
        {
            "positions": [
                -0.6555641961858714,
                -0.9884973857086248,
                1.763128885946255,
                2.332276041636818,
                -2.17489321658234,
                -0.34985764061997804
            ]
        },
        {
            "positions": [
                -0.6669106564592642,
                -0.9747418128030243,
                1.7395772488539487,
                2.452316622776392,
                -2.296604509875525,
                -0.2518517804514664
            ]
        },
        {
            "positions": [
                -0.6782571167326572,
                -0.9609862398974238,
                1.7160256117616424,
                2.572357203915966,
                -2.4183158031687095,
                -0.15384592028295474
            ]
        },
        {
            "positions": [
                -0.68960357700605,
                -0.9472306669918233,
                1.692473974669336,
                2.6923977850555407,
                -2.5400270964618943,
                -0.055840060114443535
            ]
        },
        {
            "positions": [
                -0.6459654216011065,
                -0.9772278859491338,
                1.7142721879265164,
                2.594158534991242,
                -2.4381615720459284,
                -0.15214273951199675
            ]
        },
        {
            "positions": [
                -0.602327266196163,
                -1.0072251049064442,
                1.7360704011836965,
                2.4959192849269436,
                -2.3362960476299626,
                -0.24844541890954996
            ]
        },
        {
            "positions": [
                -0.5586891107912195,
                -1.0372223238637546,
                1.7578686144408768,
                2.397680034862645,
                -2.2344305232139967,
                -0.3447480983071032
            ]
        },
        {
            "positions": [
                -0.5150509553862759,
                -1.0672195428210651,
                1.7796668276980572,
                2.2994407847983465,
                -2.132564998798031,
                -0.4410507777046564
            ]
        },
        {
            "positions": [
                -0.4714127999813324,
                -1.0972167617783755,
                1.8014650409552373,
                2.201201534734048,
                -2.030699474382065,
                -0.5373534571022096
            ]
        },
        {
            "positions": [
                -0.4277746445763889,
                -1.127213980735686,
                1.8232632542124176,
                2.1029622846697493,
                -1.9288339499660991,
                -0.6336561364997628
            ]
        },
        {
            "positions": [
                -0.3841364891714454,
                -1.1572111996929964,
                1.845061467469598,
                2.0047230346054508,
                -1.8269684255501333,
                -0.729958815897316
            ]
        },
        {
            "positions": [
                -0.34049833376650185,
                -1.187208418650307,
                1.8668596807267783,
                1.9064837845411522,
                -1.7251029011341674,
                -0.8262614952948693
            ]
        },
        {
            "positions": [
                -0.2968601783615583,
                -1.2172056376076172,
                1.8886578939839584,
                1.8082445344768536,
                -1.6232373767182016,
                -0.9225641746924225
            ]
        },
        {
            "positions": [
                -0.2532220229566148,
                -1.2472028565649278,
                1.9104561072411388,
                1.710005284412555,
                -1.5213718523022357,
                -1.0188668540899757
            ]
        },
        {
            "positions": [
                -0.2095838675516713,
                -1.2772000755222381,
                1.932254320498319,
                1.6117660343482563,
                -1.4195063278862698,
                -1.115169533487529
            ]
        },
        {
            "positions": [
                -0.16594571214672782,
                -1.3071972944795487,
                1.9540525337554993,
                1.5135267842839577,
                -1.317640803470304,
                -1.2114722128850821
            ]
        },
        {
            "positions": [
                -0.12230755674178428,
                -1.337194513436859,
                1.9758507470126796,
                1.4152875342196591,
                -1.2157752790543381,
                -1.3077748922826353
            ]
        },
        {
            "positions": [
                -0.07866940133684075,
                -1.3671917323941694,
                1.99764896026986,
                1.3170482841553606,
                -1.1139097546383723,
                -1.4040775716801885
            ]
        },
        {
            "positions": [
                -0.035031245931897215,
                -1.39718895135148,
                2.0194471735270403,
                1.218809034091062,
                -1.0120442302224064,
                -1.5003802510777418
            ]
        },
        {
            "positions": [
                0.00860690947304632,
                -1.4271861703087905,
                2.0412453867842206,
                1.1205697840267634,
                -0.9101787058064406,
                -1.596682930475295
            ]
        },
        {
            "positions": [
                0.052245064877989855,
                -1.4571833892661008,
                2.0630436000414005,
                1.0223305339624649,
                -0.8083131813904747,
                -1.6929856098728482
            ]
        },
        {
            "positions": [
                0.09588322028293339,
                -1.4871806082234111,
                2.084841813298581,
                0.9240912838981663,
                -0.7064476569745088,
                -1.7892882892704014
            ]
        },
        {
            "positions": [
                0.13952137568787693,
                -1.5171778271807217,
                2.106640026555761,
                0.8258520338338677,
                -0.604582132558543,
                -1.8855909686679546
            ]
        },
        {
            "positions": [
                0.18315953109282046,
                -1.5471750461380323,
                2.1284382398129416,
                0.7276127837695692,
                -0.5027166081425771,
                -1.9818936480655078
            ]
        },
        {
            "positions": [
                0.22679768649776388,
                -1.5771722650953426,
                2.150236453070122,
                0.6293735337052704,
                -0.40085108372661127,
                -2.078196327463061
            ]
        },
        {
            "positions": [
                0.2704358419027074,
                -1.607169484052653,
                2.172034666327302,
                0.5311342836409718,
                -0.2989855593106454,
                -2.1744990068606143
            ]
        },
        {
            "positions": [
                0.31407399730765095,
                -1.6371667030099635,
                2.193832879584482,
                0.43289503357667325,
                -0.19712003489467955,
                -2.2708016862581677
            ]
        },
        {
            "positions": [
                0.3577121527125944,
                -1.6671639219672738,
                2.2156310928416625,
                0.3346557835123747,
                -0.0952545104787137,
                -2.3671043656557207
            ]
        },
        {
            "positions": [
                0.401350308117538,
                -1.6971611409245844,
                2.237429306098843,
                0.23641653344807612,
                0.006611013937252164,
                -2.4634070450532737
            ]
        },
        {
            "positions": [
                0.44498846352248145,
                -1.7271583598818947,
                2.259227519356023,
                0.13817728338377755,
                0.10847653835321802,
                -2.559709724450827
            ]
        },
        {
            "positions": [
                0.4886266189274251,
                -1.757155578839205,
                2.2810257326132035,
                0.03993803331947898,
                0.21034206276918388,
                -2.6560124038483806
            ]
        },
        {
            "positions": [
                0.5322647743323685,
                -1.7871527977965156,
                2.302823945870384,
                -0.058301216744819584,
                0.31220758718514974,
                -2.7523150832459335
            ]
        },
        {
            "positions": [
                0.5759029297373122,
                -1.8171500167538261,
                2.324622159127564,
                -0.15654046680911815,
                0.4140731116011156,
                -2.8486177626434865
            ]
        },
        {
            "positions": [
                0.6195410851422556,
                -1.8471472357111365,
                2.346420372384744,
                -0.2547797168734167,
                0.5159386360170815,
                -2.94492044204104
            ]
        },
        {
            "positions": [
                0.6631792405471992,
                -1.8771444546684468,
                2.3682185856419244,
                -0.3530189669377153,
                0.6178041604330473,
                -3.0412231214385934
            ]
        },
        {
            "positions": [
                0.7068173959521428,
                -1.9071416736257574,
                2.390016798899105,
                -0.4512582170020138,
                0.7196696848490132,
                -3.1375258008361464
            ]
        }
    ]
}