{
    "goal": {
        "global_pose": {
            "orientation": {
                "w": 0.7031023502349854,
                "x": -0.7110244035720825,
                "y": 0.007748599164187908,
                "z": 0.005598929710686207
            },
            "position": {
                "x": 0.11585023208521307,
                "y": 0.44412534475326537,
                "z": 0.3711530566215515
            }
        },
        "name": "move_to_auspresseinheit_A"
    },
    "id": "ProjEST_move_to_auspresseinheit_A_16",
    "joint_names": [
        "shoulder_pan_joint",
        "shoulder_lift_joint",
        "elbow_joint",
        "wrist_1_joint",
        "wrist_2_joint",
        "wrist_3_joint"
    ],
    "metrics": {
        "cart_traj_len": 2.0208971218915672,
        "distance_elbow_joint": 2.024462121077307,
        "distance_shoulder_lift_joint": 1.276267392922028,
        "distance_shoulder_pan_joint": 1.7723842023629865,
        "distance_wrist_1_joint": 2.067014025470277,
        "distance_wrist_2_joint": 1.4115766021440717,
        "distance_wrist_3_joint": 4.807116673586057,
        "smoothness": 0.4034891382654296,
        "time": 0.273141713,
        "traj_len": 3.654972095319296,
        "weighted_distance": 5.143116272489782
    },
    "planner": "ProjEST",
    "start": {
        "state": {
            "elbow_joint": 2.4225747245308327,
            "shoulder_lift_joint": -1.373653427065438,
            "shoulder_pan_joint": -0.33786330853087027,
            "wrist_1_joint": -1.0288602302712604,
            "wrist_2_joint": 1.23302299562683,
            "wrist_3_joint": -3.094021725338297
        }
    },
    "waypoints": [
        {
            "positions": [
                -0.33786330853087027,
                -1.373653427065438,
                2.4225747245308327,
                -1.0288602302712604,
                1.23302299562683,
                -3.094021725338297
            ]
        },
        {
            "positions": [
                -0.25499958099900993,
                -1.424192609490771,
                2.423338862604607,
                -0.9352046311693172,
                1.2034580631320624,
                -2.96783185605339
            ]
        },
        {
            "positions": [
                -0.17213585346714957,
                -1.4747317919161043,
                2.4241030006783815,
                -0.841549032067374,
                1.1738931306372946,
                -2.8416419867684826
            ]
        },
        {
            "positions": [
                -0.08927212593528924,
                -1.5252709743414372,
                2.4248671387521563,
                -0.7478934329654308,
                1.144328198142527,
                -2.715452117483575
            ]
        },
        {
            "positions": [
                -0.006408398403428883,
                -1.5758101567667704,
                2.4256312768259307,
                -0.6542378338634876,
                1.1147632656477595,
                -2.5892622481986676
            ]
        },
        {
            "positions": [
                0.07645532912843145,
                -1.6263493391921036,
                2.426395414899705,
                -0.5605822347615443,
                1.0851983331529917,
                -2.4630723789137603
            ]
        },
        {
            "positions": [
                0.15931905666029178,
                -1.6768885216174367,
                2.4271595529734795,
                -0.46692663565960124,
                1.0556334006582242,
                -2.336882509628853
            ]
        },
        {
            "positions": [
                0.24218278419215206,
                -1.7274277040427697,
                2.4279236910472544,
                -0.37327103655765803,
                1.0260684681634566,
                -2.2106926403439457
            ]
        },
        {
            "positions": [
                0.3250465117240125,
                -1.7779668864681029,
                2.4286878291210288,
                -0.2796154374557148,
                0.996503535668689,
                -2.0845027710590385
            ]
        },
        {
            "positions": [
                0.40791023925587283,
                -1.828506068893436,
                2.429451967194803,
                -0.18595983835377172,
                0.9669386031739213,
                -1.958312901774131
            ]
        },
        {
            "positions": [
                0.49077396678773316,
                -1.8790452513187692,
                2.4302161052685776,
                -0.0923042392518284,
                0.9373736706791538,
                -1.8321230324892237
            ]
        },
        {
            "positions": [
                0.5736376943195935,
                -1.9295844337441022,
                2.4309802433423524,
                0.0013513598501146973,
                0.9078087381843862,
                -1.7059331632043164
            ]
        },
        {
            "positions": [
                0.6565014218514538,
                -1.9801236161694353,
                2.431744381416127,
                0.09500695895205791,
                0.8782438056896185,
                -1.579743293919409
            ]
        },
        {
            "positions": [
                0.7393651493833142,
                -2.0306627985947685,
                2.432508519489901,
                0.18866255805400117,
                0.8486788731948509,
                -1.4535534246345017
            ]
        },
        {
            "positions": [
                0.7861582012917108,
                -2.052011716822739,
                2.4097647344564983,
                0.23660395073201607,
                0.819407207284194,
                -1.3686254092716594
            ]
        },
        {
            "positions": [
                0.8329512532001073,
                -2.07336063505071,
                2.3870209494230954,
                0.28454534341003096,
                0.7901355413735371,
                -1.2836973939088172
            ]
        },
        {
            "positions": [
                0.848073471544366,
                -2.040381090791713,
                2.2511392932643544,
                0.2726088923596617,
                0.710926416277673,
                -1.1804433959601344
            ]
        },
        {
            "positions": [
                0.8631956898886246,
                -2.0074015465327157,
                2.1152576371056133,
                0.2606724413092924,
                0.6317172911818087,
                -1.0771893980114517
            ]
        },
        {
            "positions": [
                0.8783179082328832,
                -1.9744220022737187,
                1.9793759809468725,
                0.24873599025892312,
                0.5525081660859447,
                -0.9739354000627689
            ]
        },
        {
            "positions": [
                0.8934401265771419,
                -1.9414424580147216,
                1.8434943247881317,
                0.23679953920855384,
                0.4732990409900804,
                -0.8706814021140862
            ]
        },
        {
            "positions": [
                0.9085623449214005,
                -1.9084629137557245,
                1.7076126686293907,
                0.22486308815818457,
                0.39408991589421627,
                -0.7674274041654034
            ]
        },
        {
            "positions": [
                0.8807424414500474,
                -1.8615420046520341,
                1.607063074498769,
                0.17906751252056016,
                0.34884359340619847,
                -0.7473476501791523
            ]
        },
        {
            "positions": [
                0.8529225379786944,
                -1.814621095548344,
                1.5065134803681473,
                0.13327193688293576,
                0.3035972709181807,
                -0.7272678961929011
            ]
        },
        {
            "positions": [
                0.8251026345073413,
                -1.7677001864446535,
                1.4059638862375257,
                0.08747636124531133,
                0.2583509484301629,
                -0.7071881422066499
            ]
        },
        {
            "positions": [
                0.7628234552002555,
                -1.7513355130987993,
                1.4426704958872405,
                0.08017481656694167,
                0.28072940390536333,
                -0.8910440269314863
            ]
        },
        {
            "positions": [
                0.7005442758931696,
                -1.734970839752945,
                1.4793771055369556,
                0.07287327188857202,
                0.30310785938056384,
                -1.0748999116563227
            ]
        },
        {
            "positions": [
                0.6382650965860837,
                -1.7186061664070909,
                1.5160837151866704,
                0.06557172721020237,
                0.3254863148557643,
                -1.258755796381159
            ]
        },
        {
            "positions": [
                0.5759859172789978,
                -1.7022414930612366,
                1.5527903248363852,
                0.058270182531832714,
                0.34786477033096475,
                -1.4426116811059955
            ]
        },
        {
            "positions": [
                0.5679947969486085,
                -1.719405342691981,
                1.634970960355509,
                0.040395607808133685,
                0.3850475963930805,
                -1.6009888153763903
            ]
        },
        {
            "positions": [
                0.5600036766182191,
                -1.7365691923227256,
                1.7171515958746328,
                0.022521033084434663,
                0.42223042245519626,
                -1.759365949646785
            ]
        },
        {
            "positions": [
                0.5570170093719597,
                -1.7569324212930444,
                1.810050112572113,
                -0.007491552895031416,
                0.4633391498601051,
                -1.9400804447955915
            ]
        },
        {
            "positions": [
                0.5540303421257002,
                -1.7772956502633634,
                1.902948629269593,
                -0.037504138874497495,
                0.5044478772650139,
                -2.120794939944398
            ]
        },
        {
            "positions": [
                0.5510436748794407,
                -1.7976588792336825,
                1.995847145967073,
                -0.06751672485396358,
                0.5455566046699228,
                -2.3015094350932044
            ]
        },
        {
            "positions": [
                0.5480570076331813,
                -1.8180221082040013,
                2.088745662664553,
                -0.09752931083342965,
                0.5866653320748316,
                -2.482223930242011
            ]
        },
        {
            "positions": [
                0.5450703403869219,
                -1.8383853371743202,
                2.181644179362033,
                -0.12754189681289574,
                0.6277740594797405,
                -2.6629384253908177
            ]
        },
        {
            "positions": [
                0.5420836731406624,
                -1.8587485661446392,
                2.274542696059513,
                -0.15755448279236184,
                0.6688827868846494,
                -2.843652920539624
            ]
        },
        {
            "positions": [
                0.5952436321839883,
                -1.8750598894325994,
                2.314344323740805,
                -0.2613906913212262,
                0.6776736923822888,
                -2.9382590245801024
            ]
        },
        {
            "positions": [
                0.6484035912273142,
                -1.8913712127205593,
                2.3541459514220966,
                -0.3652268998500906,
                0.6864645978799283,
                -3.032865128620581
            ]
        },
        {
            "positions": [
                0.7015635502706401,
                -1.9076825360085194,
                2.3939475791033886,
                -0.46906310837895504,
                0.6952555033775677,
                -3.127471232661059
            ]
        }
    ]
}