{
    "goal": {
        "global_pose": {
            "orientation": {
                "w": 0.5084816217422485,
                "x": -0.49083608388900757,
                "y": 0.5182115435600281,
                "z": -0.4816462993621826
            },
            "position": {
                "x": 0.5540239810943604,
                "y": 0.030875300988554955,
                "z": 0.16403168439865112
            }
        },
        "name": "move_to_storage_A"
    },
    "id": "ProjEST_move_to_storage_A_27",
    "joint_names": [
        "shoulder_pan_joint",
        "shoulder_lift_joint",
        "elbow_joint",
        "wrist_1_joint",
        "wrist_2_joint",
        "wrist_3_joint"
    ],
    "metrics": {
        "cart_traj_len": 0.3529140923419728,
        "distance_elbow_joint": 0.45108034632926275,
        "distance_shoulder_lift_joint": 0.23490050030882337,
        "distance_shoulder_pan_joint": 0.4587639448186034,
        "distance_wrist_1_joint": 0.24823194078978317,
        "distance_wrist_2_joint": 1.1104691394155477,
        "distance_wrist_3_joint": 0.10803276930900596,
        "smoothness": 4.440892133664971e-16,
        "time": 0.077244889,
        "traj_len": 1.616007005235753,
        "weighted_distance": 2.0460315881712017
    },
    "planner": "ProjEST",
    "start": {
        "state": {
            "elbow_joint": 1.9715474177455299,
            "shoulder_lift_joint": -1.139484666580328,
            "shoulder_pan_joint": 0.12281154398918248,
            "wrist_1_joint": -0.7804687475355282,
            "wrist_2_joint": 0.12958649657246987,
            "wrist_3_joint": -3.1924925159053466
        }
    },
    "waypoints": [
        {
            "positions": [
                0.12281154398918248,
                -1.139484666580328,
                1.9715474177455299,
                -0.7804687475355282,
                0.12958649657246987,
                -3.1924925159053466
            ]
        },
        {
            "positions": [
                0.057273837586524864,
                -1.17304188091016,
                2.0359874672211387,
                -0.81593045336264,
                0.2882249450604053,
                -3.177059263146917
            ]
        },
        {
            "positions": [
                -0.008263868816132752,
                -1.2065990952399919,
                2.100427516696748,
                -0.851392159189752,
                0.4468633935483407,
                -3.161626010388488
            ]
        },
        {
            "positions": [
                -0.07380157521879038,
                -1.2401563095698238,
                2.1648675661723566,
                -0.8868538650168638,
                0.6055018420362761,
                -3.1461927576300583
            ]
        },
        {
            "positions": [
                -0.13933928162144799,
                -1.2737135238996555,
                2.229307615647966,
                -0.9223155708439758,
                0.7641402905242115,
                -3.130759504871629
            ]
        },
        {
            "positions": [
                -0.20487698802410564,
                -1.3072707382294875,
                2.2937476651235746,
                -0.9577772766710876,
                0.922778739012147,
                -3.1153262521131992
            ]
        },
        {
            "positions": [
                -0.27041469442676325,
                -1.3408279525593194,
                2.3581877145991834,
                -0.9932389824981995,
                1.0814171875000822,
                -3.09989299935477
            ]
        },
        {
            "positions": [
                -0.3359524008294209,
                -1.3743851668891514,
                2.4226277640747926,
                -1.0287006883253114,
                1.2400556359880177,
                -3.0844597465963406
            ]
        }
    ]
}