{
    "goal": {
        "global_pose": {
            "orientation": {
                "w": 0.005598929693374612,
                "x": 0.007748599140229565,
                "y": 0.7110244013736278,
                "z": -0.7031023480610252
            },
            "position": {
                "x": 0.1141497679147869,
                "y": -0.7141253447532654,
                "z": 0.3711530566215515
            }
        },
        "name": "move_to_auspresseinheit_B"
    },
    "id": "ProjEST_move_to_auspresseinheit_B_116",
    "joint_names": [
        "shoulder_pan_joint",
        "shoulder_lift_joint",
        "elbow_joint",
        "wrist_1_joint",
        "wrist_2_joint",
        "wrist_3_joint"
    ],
    "metrics": {
        "cart_traj_len": 0.5646548121600224,
        "distance_elbow_joint": 0.06205230109287596,
        "distance_shoulder_lift_joint": 0.2956204370001829,
        "distance_shoulder_pan_joint": 0.5768899805447223,
        "distance_wrist_1_joint": 0.32220734935038065,
        "distance_wrist_2_joint": 0.9909816152468998,
        "distance_wrist_3_joint": 0.00264490657138694,
        "smoothness": 5.075305255429287e-16,
        "time": 0.048975546,
        "traj_len": 1.5001321907773488,
        "weighted_distance": 1.8891467300203293
    },
    "planner": "ProjEST",
    "start": {
        "state": {
            "elbow_joint": 2.019306165916698,
            "shoulder_lift_joint": -1.1220205098164344,
            "shoulder_pan_joint": -1.095207207618794,
            "wrist_1_joint": -0.8559671824921639,
            "wrist_2_joint": 0.47596387242952726,
            "wrist_3_joint": 3.159081874673826
        }
    },
    "waypoints": [
        {
            "positions": [
                -1.095207207618794,
                -1.1220205098164344,
                2.019306165916698,
                -0.8559671824921639,
                0.47596387242952726,
                3.159081874673826
            ]
        },
        {
            "positions": [
                -1.191355537709581,
                -1.1712905826497981,
                2.008964115734552,
                -0.8022659576004337,
                0.6411274749706772,
                3.158641056911928
            ]
        },
        {
            "positions": [
                -1.287503867800368,
                -1.220560655483162,
                1.998622065552406,
                -0.7485647327087036,
                0.8062910775118272,
                3.1582002391500303
            ]
        },
        {
            "positions": [
                -1.3836521978911551,
                -1.269830728316526,
                1.98828001537026,
                -0.6948635078169736,
                0.9714546800529771,
                3.1577594213881324
            ]
        },
        {
            "positions": [
                -1.4798005279819422,
                -1.3191008011498897,
                1.977937965188114,
                -0.6411622829252435,
                1.1366182825941271,
                3.1573186036262344
            ]
        },
        {
            "positions": [
                -1.5759488580727292,
                -1.3683708739832534,
                1.967595915005968,
                -0.5874610580335133,
                1.3017818851352772,
                3.156877785864337
            ]
        },
        {
            "positions": [
                -1.6720971881635163,
                -1.4176409468166173,
                1.957253864823822,
                -0.5337598331417832,
                1.466945487676427,
                3.156436968102439
            ]
        }
    ]
}