{
    "goal": {
        "global_pose": {
            "orientation": {
                "w": 0.7031023480610252,
                "x": -0.7110244013736278,
                "y": 0.0077485991402295624,
                "z": 0.005598929693374583
            },
            "position": {
                "x": -0.8841497679147869,
                "y": 0.44412534475326537,
                "z": 0.3711530566215515
            }
        },
        "name": "move_to_auspresseinheit_D"
    },
    "id": "ProjEST_move_to_auspresseinheit_D_40",
    "joint_names": [
        "shoulder_pan_joint",
        "shoulder_lift_joint",
        "elbow_joint",
        "wrist_1_joint",
        "wrist_2_joint",
        "wrist_3_joint"
    ],
    "metrics": {
        "cart_traj_len": 3.8734161997961256,
        "distance_elbow_joint": 3.169480512772676,
        "distance_shoulder_lift_joint": 1.5534811414060052,
        "distance_shoulder_pan_joint": 2.8556818789010463,
        "distance_wrist_1_joint": 1.8456254550443794,
        "distance_wrist_2_joint": 0.90075237025417,
        "distance_wrist_3_joint": 3.1474145133955984,
        "smoothness": 0.20841323774169357,
        "time": 0.049952843999999996,
        "traj_len": 3.6704816947880112,
        "weighted_distance": 4.744854341690967
    },
    "planner": "ProjEST",
    "start": {
        "state": {
            "elbow_joint": 1.8268400409724999,
            "shoulder_lift_joint": -1.0144045787793008,
            "shoulder_pan_joint": 2.6280239544362485,
            "wrist_1_joint": -0.790705565816056,
            "wrist_2_joint": 1.0573557467365533,
            "wrist_3_joint": 3.1851377467193758
        }
    },
    "waypoints": [
        {
            "positions": [
                2.6280239544362485,
                -1.0144045787793008,
                1.8268400409724999,
                -0.790705565816056,
                1.0573557467365533,
                3.1851377467193758
            ]
        },
        {
            "positions": [
                2.637820897275755,
                -0.9900505241222822,
                1.6574105839105722,
                -0.8670394244360881,
                1.0507140463994973,
                3.1066211610829337
            ]
        },
        {
            "positions": [
                2.647617840115262,
                -0.9656964694652636,
                1.4879811268486445,
                -0.9433732830561201,
                1.0440723460624413,
                3.0281045754464913
            ]
        },
        {
            "positions": [
                2.6574147829547687,
                -0.941342414808245,
                1.3185516697867166,
                -1.0197071416761523,
                1.0374306457253852,
                2.949587989810049
            ]
        },
        {
            "positions": [
                2.569093187630315,
                -0.9876055078530872,
                1.235389415362126,
                -0.9691876454516435,
                1.0099047935615415,
                2.8585922161698534
            ]
        },
        {
            "positions": [
                2.480771592305861,
                -1.0338686008979294,
                1.1522271609375359,
                -0.9186681492271346,
                0.9823789413976977,
                2.767596442529657
            ]
        },
        {
            "positions": [
                2.392449996981407,
                -1.0801316939427714,
                1.0690649065129456,
                -0.8681486530026258,
                0.9548530892338538,
                2.6766006688894612
            ]
        },
        {
            "positions": [
                2.304128401656953,
                -1.1263947869876136,
                0.9859026520883551,
                -0.8176291567781169,
                0.92732723707001,
                2.585604895249265
            ]
        },
        {
            "positions": [
                2.215806806332499,
                -1.1726578800324559,
                0.9027403976637648,
                -0.7671096605536081,
                0.8998013849061661,
                2.494609121609069
            ]
        },
        {
            "positions": [
                2.127485211008045,
                -1.218920973077298,
                0.8195781432391744,
                -0.7165901643290993,
                0.8722755327423224,
                2.4036133479688733
            ]
        },
        {
            "positions": [
                2.039163615683591,
                -1.2651840661221403,
                0.7364158888145841,
                -0.6660706681045904,
                0.8447496805784785,
                2.3126175743286774
            ]
        },
        {
            "positions": [
                1.9508420203591372,
                -1.3114471591669823,
                0.6532536343899937,
                -0.6155511718800815,
                0.8172238284146347,
                2.221621800688481
            ]
        },
        {
            "positions": [
                1.8625204250346834,
                -1.3577102522118245,
                0.5700913799654034,
                -0.5650316756555727,
                0.789697976250791,
                2.130626027048285
            ]
        },
        {
            "positions": [
                1.7741988297102294,
                -1.4039733452566667,
                0.486929125540813,
                -0.5145121794310639,
                0.7621721240869471,
                2.039630253408089
            ]
        },
        {
            "positions": [
                1.6858772343857753,
                -1.4502364383015087,
                0.40376687111622267,
                -0.46399268320655496,
                0.7346462719231033,
                1.9486344797678932
            ]
        },
        {
            "positions": [
                1.5975556390613215,
                -1.496499531346351,
                0.3206046166916323,
                -0.41347318698204616,
                0.7071204197592595,
                1.857638706127697
            ]
        },
        {
            "positions": [
                1.5092340437368676,
                -1.5427626243911932,
                0.23744236226704185,
                -0.36295369075753725,
                0.6795945675954157,
                1.766642932487501
            ]
        },
        {
            "positions": [
                1.4209124484124136,
                -1.5890257174360354,
                0.1542801078424516,
                -0.31243419453302845,
                0.6520687154315719,
                1.6756471588473052
            ]
        },
        {
            "positions": [
                1.3325908530879595,
                -1.6352888104808776,
                0.07111785341786137,
                -0.26191469830851954,
                0.6245428632677281,
                1.5846513852071091
            ]
        },
        {
            "positions": [
                1.2442692577635057,
                -1.6815519035257198,
                -0.0120444010067291,
                -0.21139520208401075,
                0.5970170111038843,
                1.493655611566913
            ]
        },
        {
            "positions": [
                1.155947662439052,
                -1.727814996570562,
                -0.09520665543131956,
                -0.16087570585950195,
                0.5694911589400404,
                1.402659837926717
            ]
        },
        {
            "positions": [
                1.0676260671145978,
                -1.774078089615404,
                -0.1783689098559098,
                -0.11035620963499304,
                0.5419653067761967,
                1.311664064286521
            ]
        },
        {
            "positions": [
                0.9793044717901438,
                -1.8203411826602462,
                -0.26153116428050005,
                -0.059836713410484244,
                0.5144394546123529,
                1.220668290646325
            ]
        },
        {
            "positions": [
                0.89098287646569,
                -1.8666042757050882,
                -0.3446934187050905,
                -0.009317217185975446,
                0.486913602448509,
                1.129672517006129
            ]
        },
        {
            "positions": [
                0.8026612811412361,
                -1.9128673687499305,
                -0.427855673129681,
                0.041202279038533574,
                0.4593877502846653,
                1.038676743365933
            ]
        },
        {
            "positions": [
                0.7143396858167821,
                -1.9591304617947727,
                -0.5110179275542712,
                0.09172177526304237,
                0.43186189812082143,
                0.9476809697257371
            ]
        },
        {
            "positions": [
                0.626018090492328,
                -2.005393554839615,
                -0.5941801819788615,
                0.14224127148755117,
                0.4043360459569776,
                0.8566851960855408
            ]
        },
        {
            "positions": [
                0.5376964951678742,
                -2.051656647884457,
                -0.6773424364034519,
                0.19276076771205997,
                0.37681019379313385,
                0.765689422445345
            ]
        },
        {
            "positions": [
                0.4493748998434204,
                -2.0979197409292993,
                -0.7605046908280424,
                0.24328026393656876,
                0.34928434162929,
                0.6746936488051491
            ]
        },
        {
            "positions": [
                0.36105330451896656,
                -2.144182833974141,
                -0.8436669452526329,
                0.2937997601610778,
                0.32175848946544616,
                0.5836978751649529
            ]
        },
        {
            "positions": [
                0.2727317091945123,
                -2.1904459270189838,
                -0.9268291996772229,
                0.3443192563855866,
                0.2942326373016023,
                0.492702101524757
            ]
        },
        {
            "positions": [
                0.18441011387005846,
                -2.2367090200638255,
                -1.0099914541018133,
                0.3948387526100954,
                0.2667067851377586,
                0.4017063278845612
            ]
        },
        {
            "positions": [
                0.09608851854560463,
                -2.282972113108668,
                -1.0931537085264038,
                0.4453582488346042,
                0.23918093297391474,
                0.3107105542443649
            ]
        },
        {
            "positions": [
                0.007766923221150357,
                -2.32923520615351,
                -1.1763159629509938,
                0.4958777450591132,
                0.2116550808100709,
                0.21971478060416905
            ]
        },
        {
            "positions": [
                -0.08055467210330347,
                -2.375498299198352,
                -1.2594782173755843,
                0.546397241283622,
                0.18412922864622716,
                0.12871900696397276
            ]
        },
        {
            "positions": [
                -0.16887626742775746,
                -2.4217613922431944,
                -1.342640471800175,
                0.5969167375081308,
                0.1566033764823833,
                0.037723233323776875
            ]
        }
    ]
}