{
    "goal": {
        "global_pose": {
            "orientation": {
                "w": 0.5084816217422485,
                "x": -0.49083608388900757,
                "y": 0.5182115435600281,
                "z": -0.4816462993621826
            },
            "position": {
                "x": 0.5540239810943604,
                "y": 0.030875300988554955,
                "z": 0.16403168439865112
            }
        },
        "name": "move_to_storage_A"
    },
    "id": "ProjEST_move_to_storage_A_105",
    "joint_names": [
        "shoulder_pan_joint",
        "shoulder_lift_joint",
        "elbow_joint",
        "wrist_1_joint",
        "wrist_2_joint",
        "wrist_3_joint"
    ],
    "metrics": {
        "cart_traj_len": 0.35269454929302413,
        "distance_elbow_joint": 0.44895499073664924,
        "distance_shoulder_lift_joint": 0.23569484392376272,
        "distance_shoulder_pan_joint": 0.4617780503331802,
        "distance_wrist_1_joint": 0.2397613863654272,
        "distance_wrist_2_joint": 1.095804731271202,
        "distance_wrist_3_joint": 0.09442093529384721,
        "smoothness": 9.992007159366741e-16,
        "time": 0.053660150999999996,
        "traj_len": 1.60512147139214,
        "weighted_distance": 2.0250488700642246
    },
    "planner": "ProjEST",
    "start": {
        "state": {
            "elbow_joint": 1.9715474177455299,
            "shoulder_lift_joint": -1.139484666580328,
            "shoulder_pan_joint": 0.12281154398918248,
            "wrist_1_joint": -0.7804687475355282,
            "wrist_2_joint": 0.12958649657246987,
            "wrist_3_joint": -3.1924925159053466
        }
    },
    "waypoints": [
        {
            "positions": [
                0.12281154398918248,
                -1.139484666580328,
                1.9715474177455299,
                -0.7804687475355282,
                0.12958649657246987,
                -3.1924925159053466
            ]
        },
        {
            "positions": [
                0.05684325108444245,
                -1.173155358569437,
                2.0356838449936228,
                -0.8147203741591607,
                0.28613002961121303,
                -3.1790038108633683
            ]
        },
        {
            "positions": [
                -0.00912504182029758,
                -1.206826050558546,
                2.099820272241715,
                -0.8489720007827931,
                0.44267356264995616,
                -3.1655151058213904
            ]
        },
        {
            "positions": [
                -0.0750933347250376,
                -1.240496742547655,
                2.163956699489808,
                -0.8832236274064256,
                0.5992170956886994,
                -3.152026400779412
            ]
        },
        {
            "positions": [
                -0.14106162762977764,
                -1.2741674345367637,
                2.228093126737901,
                -0.917475254030058,
                0.7557606287274425,
                -3.138537695737434
            ]
        },
        {
            "positions": [
                -0.2070299205345177,
                -1.3078381265258727,
                2.292229553985994,
                -0.9517268806536905,
                0.9123041617661858,
                -3.1250489906954555
            ]
        },
        {
            "positions": [
                -0.2729982134392577,
                -1.3415088185149817,
                2.3563659812340862,
                -0.985978507277323,
                1.0688476948049288,
                -3.1115602856534776
            ]
        },
        {
            "positions": [
                -0.3389665063439977,
                -1.3751795105040907,
                2.420502408482179,
                -1.0202301339009554,
                1.225391227843672,
                -3.0980715806114993
            ]
        }
    ]
}