{
    "goal": {
        "global_pose": {
            "orientation": {
                "w": 0.7031023502349854,
                "x": -0.7110244035720825,
                "y": 0.007748599164187908,
                "z": 0.005598929710686207
            },
            "position": {
                "x": 0.11585023208521307,
                "y": 0.44412534475326537,
                "z": 0.3711530566215515
            }
        },
        "name": "move_to_auspresseinheit_A"
    },
    "id": "ProjEST_move_to_auspresseinheit_A_13",
    "joint_names": [
        "shoulder_pan_joint",
        "shoulder_lift_joint",
        "elbow_joint",
        "wrist_1_joint",
        "wrist_2_joint",
        "wrist_3_joint"
    ],
    "metrics": {
        "cart_traj_len": 2.3284024915931223,
        "distance_elbow_joint": 4.734521584992952,
        "distance_shoulder_lift_joint": 1.435225725822501,
        "distance_shoulder_pan_joint": 1.0411005834942832,
        "distance_wrist_1_joint": 1.1720137772820844,
        "distance_wrist_2_joint": 1.533824696137024,
        "distance_wrist_3_joint": 2.34613127591388,
        "smoothness": 0.7661948199925535,
        "time": 0.469517737,
        "traj_len": 3.5018306132139982,
        "weighted_distance": 4.434063448902101
    },
    "planner": "ProjEST",
    "start": {
        "state": {
            "elbow_joint": 2.4225747245308327,
            "shoulder_lift_joint": -1.373653427065438,
            "shoulder_pan_joint": -0.33786330853087027,
            "wrist_1_joint": -1.0288602302712604,
            "wrist_2_joint": 1.23302299562683,
            "wrist_3_joint": -3.094021725338297
        }
    },
    "waypoints": [
        {
            "positions": [
                -0.33786330853087027,
                -1.373653427065438,
                2.4225747245308327,
                -1.0288602302712604,
                1.23302299562683,
                -3.094021725338297
            ]
        },
        {
            "positions": [
                -0.3064564395974534,
                -1.3505440135202342,
                2.273691582827861,
                -0.9745021200787438,
                1.1684715724358041,
                -3.021948498667495
            ]
        },
        {
            "positions": [
                -0.27504957066403657,
                -1.3274345999750303,
                2.124808441124889,
                -0.9201440098862271,
                1.1039201492447783,
                -2.9498752719966927
            ]
        },
        {
            "positions": [
                -0.2436427017306197,
                -1.3043251864298266,
                1.9759252994219172,
                -0.8657858996937106,
                1.0393687260537523,
                -2.8778020453258906
            ]
        },
        {
            "positions": [
                -0.21223583279720284,
                -1.281215772884623,
                1.8270421577189453,
                -0.8114277895011939,
                0.9748173028627265,
                -2.805728818655089
            ]
        },
        {
            "positions": [
                -0.180828963863786,
                -1.2581063593394193,
                1.6781590160159734,
                -0.7570696793086773,
                0.9102658796717007,
                -2.7336555919842866
            ]
        },
        {
            "positions": [
                -0.14942209493036912,
                -1.2349969457942156,
                1.5292758743130017,
                -0.7027115691161607,
                0.8457144564806749,
                -2.6615823653134845
            ]
        },
        {
            "positions": [
                -0.11801522599695227,
                -1.2118875322490117,
                1.3803927326100298,
                -0.648353458923644,
                0.7811630332896491,
                -2.5895091386426823
            ]
        },
        {
            "positions": [
                -0.08660835706353542,
                -1.188778118703808,
                1.231509590907058,
                -0.5939953487311274,
                0.7166116100986232,
                -2.51743591197188
            ]
        },
        {
            "positions": [
                -0.05520148813011855,
                -1.1656687051586043,
                1.082626449204086,
                -0.5396372385386108,
                0.6520601869075974,
                -2.445362685301078
            ]
        },
        {
            "positions": [
                -0.023794619196701727,
                -1.1425592916134004,
                0.9337433075011141,
                -0.4852791283460942,
                0.5875087637165715,
                -2.3732894586302757
            ]
        },
        {
            "positions": [
                0.007612249736715149,
                -1.1194498780681967,
                0.7848601657981424,
                -0.43092101815357753,
                0.5229573405255457,
                -2.301216231959474
            ]
        },
        {
            "positions": [
                0.039019118670132025,
                -1.096340464522993,
                0.6359770240951705,
                -0.37656290796106096,
                0.45840591733451985,
                -2.2291430052886714
            ]
        },
        {
            "positions": [
                0.07042598760354885,
                -1.0732310509777894,
                0.48709388239219864,
                -0.32220479776854427,
                0.39385449414349394,
                -2.1570697786178696
            ]
        },
        {
            "positions": [
                0.10183285653696572,
                -1.0501216374325857,
                0.33821074068922696,
                -0.2678466875760277,
                0.32930307095246814,
                -2.0849965519470675
            ]
        },
        {
            "positions": [
                0.13323972547038254,
                -1.0270122238873818,
                0.18932759898625484,
                -0.213488577383511,
                0.2647516477614422,
                -2.0129233252762653
            ]
        },
        {
            "positions": [
                0.1646465944037994,
                -1.003902810342178,
                0.040444457283283025,
                -0.15913046719099447,
                0.20020022457041636,
                -1.940850098605463
            ]
        },
        {
            "positions": [
                0.1889874691364709,
                -1.0860428777067996,
                0.23629421642204917,
                -0.1603653948361152,
                0.23515189738090486,
                -1.9844157058314316
            ]
        },
        {
            "positions": [
                0.2133283438691424,
                -1.1681829450714212,
                0.4321439755608153,
                -0.16160032248123596,
                0.2701035701913933,
                -2.0279813130574
            ]
        },
        {
            "positions": [
                0.23766921860181392,
                -1.2503230124360427,
                0.6279937346995815,
                -0.1628352501263567,
                0.3050552430018818,
                -2.0715469202833683
            ]
        },
        {
            "positions": [
                0.26201009333448544,
                -1.3324630798006643,
                0.8238434938383477,
                -0.16407017777147742,
                0.3400069158123703,
                -2.1151125275093365
            ]
        },
        {
            "positions": [
                0.28635096806715693,
                -1.4146031471652858,
                1.0196932529771139,
                -0.16530510541659815,
                0.3749585886228588,
                -2.1586781347353052
            ]
        },
        {
            "positions": [
                0.3106918427998284,
                -1.4967432145299076,
                1.21554301211588,
                -0.16654003306171888,
                0.4099102614333473,
                -2.2022437419612735
            ]
        },
        {
            "positions": [
                0.33503271753249997,
                -1.5788832818945289,
                1.4113927712546461,
                -0.16777496070683964,
                0.4448619342438358,
                -2.2458093491872417
            ]
        },
        {
            "positions": [
                0.35937359226517146,
                -1.6610233492591506,
                1.6072425303934121,
                -0.16900988835196037,
                0.47981360705432424,
                -2.2893749564132104
            ]
        },
        {
            "positions": [
                0.38371446699784295,
                -1.7431634166237722,
                1.8030922895321784,
                -0.1702448159970811,
                0.5147652798648128,
                -2.3329405636391787
            ]
        },
        {
            "positions": [
                0.4080553417305145,
                -1.8253034839883937,
                1.9989420486709446,
                -0.17147974364220187,
                0.5497169526753012,
                -2.376506170865147
            ]
        },
        {
            "positions": [
                0.43239621646318593,
                -1.9074435513530152,
                2.1947918078097106,
                -0.1727146712873226,
                0.5846686254857897,
                -2.4200717780911156
            ]
        },
        {
            "positions": [
                0.4567370911958575,
                -1.9895836187176368,
                2.390641566948477,
                -0.17394959893244333,
                0.6196202982962782,
                -2.463637385317084
            ]
        },
        {
            "positions": [
                0.5183621371377464,
                -1.9696350435366912,
                2.391190118968529,
                -0.24581581954753567,
                0.6400157611349654,
                -2.63118047593444
            ]
        },
        {
            "positions": [
                0.5799871830796353,
                -1.9496864683557455,
                2.3917386709885817,
                -0.317682040162628,
                0.6604112239736526,
                -2.7987235665517964
            ]
        },
        {
            "positions": [
                0.641612229021524,
                -1.9297378931748,
                2.3922872230086343,
                -0.3895482607777204,
                0.6808066868123397,
                -2.966266657169153
            ]
        },
        {
            "positions": [
                0.7032372749634129,
                -1.9097893179938543,
                2.3928357750286864,
                -0.46141448139281277,
                0.7012021496510269,
                -3.133809747786509
            ]
        }
    ]
}