{
    "goal": {
        "global_pose": {
            "orientation": {
                "w": -0.4816463035849501,
                "x": 0.5182115481033762,
                "y": 0.4908360881923453,
                "z": -0.5084816262002911
            },
            "position": {
                "x": -0.8240239810943604,
                "y": -0.300875300988555,
                "z": 0.16403168439865112
            }
        },
        "name": "move_to_storage_C"
    },
    "id": "ProjEST_move_to_storage_C_57",
    "joint_names": [
        "shoulder_pan_joint",
        "shoulder_lift_joint",
        "elbow_joint",
        "wrist_1_joint",
        "wrist_2_joint",
        "wrist_3_joint"
    ],
    "metrics": {
        "cart_traj_len": 0.5766665451325683,
        "distance_elbow_joint": 0.25861119533694166,
        "distance_shoulder_lift_joint": 0.18924764639839553,
        "distance_shoulder_pan_joint": 0.49581539953003917,
        "distance_wrist_1_joint": 0.08492939789443055,
        "distance_wrist_2_joint": 1.0619707021819162,
        "distance_wrist_3_joint": 0.06781629551317714,
        "smoothness": 2.5376526478085547e-16,
        "time": 0.02508136,
        "traj_len": 1.4691462271860143,
        "weighted_distance": 1.8549725949343836
    },
    "planner": "ProjEST",
    "start": {
        "state": {
            "elbow_joint": 2.010868315001653,
            "shoulder_lift_joint": -1.1634956873357014,
            "shoulder_pan_joint": -2.4736205022346103,
            "wrist_1_joint": -0.8367026794713948,
            "wrist_2_joint": 0.6746043897044093,
            "wrist_3_joint": 3.1335220948105738
        }
    },
    "waypoints": [
        {
            "positions": [
                -2.4736205022346103,
                -1.1634956873357014,
                2.010868315001653,
                -0.8367026794713948,
                0.6746043897044093,
                3.1335220948105738
            ]
        },
        {
            "positions": [
                -2.5562564021562837,
                -1.1319544129359689,
                1.9677664491121627,
                -0.822547779822323,
                0.8515995067347286,
                3.1448248107294368
            ]
        },
        {
            "positions": [
                -2.6388923020779567,
                -1.1004131385362363,
                1.9246645832226725,
                -0.8083928801732513,
                1.028594623765048,
                3.1561275266482993
            ]
        },
        {
            "positions": [
                -2.7215282019996296,
                -1.0688718641365036,
                1.8815627173331824,
                -0.7942379805241795,
                1.2055897407953675,
                3.1674302425671623
            ]
        },
        {
            "positions": [
                -2.804164101921303,
                -1.037330589736771,
                1.838460851443692,
                -0.7800830808751077,
                1.3825848578256867,
                3.1787329584860253
            ]
        },
        {
            "positions": [
                -2.8868000018429765,
                -1.0057893153370385,
                1.7953589855542016,
                -0.765928181226036,
                1.5595799748560062,
                3.190035674404888
            ]
        },
        {
            "positions": [
                -2.9694359017646494,
                -0.9742480409373059,
                1.7522571196647114,
                -0.7517732815769642,
                1.7365750918863254,
                3.201338390323751
            ]
        }
    ]
}