{
    "goal": {
        "global_pose": {
            "orientation": {
                "w": 0.005598929693374612,
                "x": 0.007748599140229565,
                "y": 0.7110244013736278,
                "z": -0.7031023480610252
            },
            "position": {
                "x": 0.1141497679147869,
                "y": -0.7141253447532654,
                "z": 0.3711530566215515
            }
        },
        "name": "move_to_auspresseinheit_B"
    },
    "id": "ProjEST_move_to_auspresseinheit_B_66",
    "joint_names": [
        "shoulder_pan_joint",
        "shoulder_lift_joint",
        "elbow_joint",
        "wrist_1_joint",
        "wrist_2_joint",
        "wrist_3_joint"
    ],
    "metrics": {
        "cart_traj_len": 0.5655649866034903,
        "distance_elbow_joint": 0.06550581581126735,
        "distance_shoulder_lift_joint": 0.2947335677011669,
        "distance_shoulder_pan_joint": 0.5788881227275071,
        "distance_wrist_1_joint": 0.33619415805689756,
        "distance_wrist_2_joint": 0.987542320233622,
        "distance_wrist_3_joint": 0.004510850660154109,
        "smoothness": 0.0,
        "time": 0.04208333,
        "traj_len": 1.5057804737711984,
        "weighted_distance": 1.8974016482551719
    },
    "planner": "ProjEST",
    "start": {
        "state": {
            "elbow_joint": 2.019306165916698,
            "shoulder_lift_joint": -1.1220205098164344,
            "shoulder_pan_joint": -1.095207207618794,
            "wrist_1_joint": -0.8559671824921639,
            "wrist_2_joint": 0.47596387242952726,
            "wrist_3_joint": 3.159081874673826
        }
    },
    "waypoints": [
        {
            "positions": [
                -1.095207207618794,
                -1.1220205098164344,
                2.019306165916698,
                -0.8559671824921639,
                0.47596387242952726,
                3.159081874673826
            ]
        },
        {
            "positions": [
                -1.1916885614067119,
                -1.1711427710999622,
                2.0083885299481534,
                -0.7999348228160142,
                0.640554259135131,
                3.1583300662304667
            ]
        },
        {
            "positions": [
                -1.2881699151946298,
                -1.22026503238349,
                1.9974708939796089,
                -0.7439024631398646,
                0.8051446458407345,
                3.1575782577871077
            ]
        },
        {
            "positions": [
                -1.3846512689825476,
                -1.2693872936670179,
                1.9865532580110643,
                -0.6878701034637151,
                0.9697350325463383,
                3.1568264493437486
            ]
        },
        {
            "positions": [
                -1.4811326227704653,
                -1.3185095549505457,
                1.9756356220425197,
                -0.6318377437875655,
                1.1343254192519419,
                3.15607464090039
            ]
        },
        {
            "positions": [
                -1.5776139765583832,
                -1.3676318162340735,
                1.9647179860739752,
                -0.5758053841114159,
                1.2989158059575456,
                3.155322832457031
            ]
        },
        {
            "positions": [
                -1.674095330346301,
                -1.4167540775176013,
                1.9538003501054306,
                -0.5197730244352663,
                1.4635061926631492,
                3.1545710240136717
            ]
        }
    ]
}