{
    "goal": {
        "global_pose": {
            "orientation": {
                "w": 0.005598929693374612,
                "x": 0.007748599140229565,
                "y": 0.7110244013736278,
                "z": -0.7031023480610252
            },
            "position": {
                "x": 0.1141497679147869,
                "y": -0.7141253447532654,
                "z": 0.3711530566215515
            }
        },
        "name": "move_to_auspresseinheit_B"
    },
    "id": "ProjEST_move_to_auspresseinheit_B_106",
    "joint_names": [
        "shoulder_pan_joint",
        "shoulder_lift_joint",
        "elbow_joint",
        "wrist_1_joint",
        "wrist_2_joint",
        "wrist_3_joint"
    ],
    "metrics": {
        "cart_traj_len": 0.564589271465047,
        "distance_elbow_joint": 0.062351386948737986,
        "distance_shoulder_lift_joint": 0.29473505304569825,
        "distance_shoulder_pan_joint": 0.5766986697700829,
        "distance_wrist_1_joint": 0.32425887195917735,
        "distance_wrist_2_joint": 0.9935990906613654,
        "distance_wrist_3_joint": 0.0011759389763419392,
        "smoothness": 2.5376526478085547e-16,
        "time": 0.15658038600000002,
        "traj_len": 1.5009393763111833,
        "weighted_distance": 1.8902457120529674
    },
    "planner": "ProjEST",
    "start": {
        "state": {
            "elbow_joint": 2.019306165916698,
            "shoulder_lift_joint": -1.1220205098164344,
            "shoulder_pan_joint": -1.095207207618794,
            "wrist_1_joint": -0.8559671824921639,
            "wrist_2_joint": 0.47596387242952726,
            "wrist_3_joint": 3.159081874673826
        }
    },
    "waypoints": [
        {
            "positions": [
                -1.095207207618794,
                -1.1220205098164344,
                2.019306165916698,
                -0.8559671824921639,
                0.47596387242952726,
                3.159081874673826
            ]
        },
        {
            "positions": [
                -1.1913236525804745,
                -1.1711430186573841,
                2.0089142680919085,
                -0.8019240371656343,
                0.6415637208730882,
                3.1588858848444357
            ]
        },
        {
            "positions": [
                -1.287440097542155,
                -1.2202655274983338,
                1.9985223702671187,
                -0.7478808918391048,
                0.807163569316649,
                3.158689895015045
            ]
        },
        {
            "positions": [
                -1.3835565425038354,
                -1.2693880363392835,
                1.988130472442329,
                -0.6938377465125751,
                0.97276341776021,
                3.158493905185655
            ]
        },
        {
            "positions": [
                -1.479672987465516,
                -1.3185105451802333,
                1.9777385746175393,
                -0.6397946011860456,
                1.1383632662037708,
                3.1582979153562647
            ]
        },
        {
            "positions": [
                -1.5757894324271964,
                -1.367633054021183,
                1.9673466767927497,
                -0.585751455859516,
                1.3039631146473318,
                3.158101925526874
            ]
        },
        {
            "positions": [
                -1.6719058773888769,
                -1.4167555628621327,
                1.95695477896796,
                -0.5317083105329865,
                1.4695629630908926,
                3.157905935697484
            ]
        }
    ]
}