{
    "goal": {
        "global_pose": {
            "orientation": {
                "w": -0.00223480608172531,
                "x": 0.0024358444001904467,
                "y": 0.7094548369677653,
                "z": -0.704743149386269
            },
            "position": {
                "x": 0.6205249238014221,
                "y": -0.6371506643295288,
                "z": 0.19426114857196808
            }
        },
        "name": "move_to_magneteinheit_B"
    },
    "id": "ProjEST_move_to_magneteinheit_B_53",
    "joint_names": [
        "shoulder_pan_joint",
        "shoulder_lift_joint",
        "elbow_joint",
        "wrist_1_joint",
        "wrist_2_joint",
        "wrist_3_joint"
    ],
    "metrics": {
        "cart_traj_len": 3.9391863012391,
        "distance_elbow_joint": 4.367403275655223,
        "distance_shoulder_lift_joint": 2.0976449442068414,
        "distance_shoulder_pan_joint": 2.328936842689086,
        "distance_wrist_1_joint": 1.5826460682042323,
        "distance_wrist_2_joint": 0.5797216648162815,
        "distance_wrist_3_joint": 3.1562574656363442,
        "smoothness": 0.39942229139600227,
        "time": 2.198140111,
        "traj_len": 3.756675426651603,
        "weighted_distance": 4.752630106109796
    },
    "planner": "ProjEST",
    "start": {
        "state": {
            "elbow_joint": 2.3935871308073637,
            "shoulder_lift_joint": -1.9085141043777403,
            "shoulder_pan_joint": 0.7066247067284167,
            "wrist_1_joint": -0.46782909355067076,
            "wrist_2_joint": 0.7096259085804283,
            "wrist_3_joint": -3.1358149275257428
        }
    },
    "waypoints": [
        {
            "positions": [
                0.7066247067284167,
                -1.9085141043777403,
                2.3935871308073637,
                -0.46782909355067076,
                0.7096259085804283,
                -3.1358149275257428
            ]
        },
        {
            "positions": [
                0.5538708458645403,
                -1.9393472775714584,
                2.401887097752989,
                -0.5318509747517046,
                0.6833167083341476,
                -3.107400234531559
            ]
        },
        {
            "positions": [
                0.5566990872406299,
                -1.896916762084545,
                2.2055896831425126,
                -0.5148602765424699,
                0.6645312233876133,
                -3.0098613704852024
            ]
        },
        {
            "positions": [
                0.5595273286167194,
                -1.8544862465976317,
                2.009292268532036,
                -0.49786957833323514,
                0.645745738441079,
                -2.9123225064388465
            ]
        },
        {
            "positions": [
                0.562355569992809,
                -1.8120557311107182,
                1.812994853921559,
                -0.48087888012400043,
                0.6269602534945447,
                -2.8147836423924906
            ]
        },
        {
            "positions": [
                0.5651838113688986,
                -1.7696252156238048,
                1.6166974393110825,
                -0.46388818191476566,
                0.6081747685480102,
                -2.717244778346134
            ]
        },
        {
            "positions": [
                0.5680120527449881,
                -1.7271947001368915,
                1.4204000247006057,
                -0.44689748370553095,
                0.5893892836014759,
                -2.619705914299778
            ]
        },
        {
            "positions": [
                0.5708402941210777,
                -1.6847641846499781,
                1.224102610090129,
                -0.42990678549629624,
                0.5706037986549416,
                -2.522167050253422
            ]
        },
        {
            "positions": [
                0.5736685354971673,
                -1.6423336691630648,
                1.0278051954796523,
                -0.4129160872870615,
                0.5518183137084073,
                -2.424628186207066
            ]
        },
        {
            "positions": [
                0.5764967768732568,
                -1.5999031536761512,
                0.8315077808691758,
                -0.3959253890778267,
                0.533032828761873,
                -2.3270893221607096
            ]
        },
        {
            "positions": [
                0.5793250182493465,
                -1.5574726381892379,
                0.635210366258699,
                -0.378934690868592,
                0.5142473438153385,
                -2.2295504581143533
            ]
        },
        {
            "positions": [
                0.5821532596254361,
                -1.5150421227023245,
                0.4389129516482222,
                -0.3619439926593573,
                0.49546185886880423,
                -2.1320115940679973
            ]
        },
        {
            "positions": [
                0.5849815010015256,
                -1.472611607215411,
                0.24261553703774563,
                -0.3449532944501225,
                0.4766763739222699,
                -2.0344727300216414
            ]
        },
        {
            "positions": [
                0.5878097423776152,
                -1.4301810917284978,
                0.04631812242726907,
                -0.3279625962408878,
                0.4578908889757356,
                -1.936933865975285
            ]
        },
        {
            "positions": [
                0.5906379837537048,
                -1.3877505762415843,
                -0.14997929218320794,
                -0.31097189803165304,
                0.4391054040292013,
                -1.839395001928929
            ]
        },
        {
            "positions": [
                0.5934662251297943,
                -1.345320060754671,
                -0.3462767067936845,
                -0.2939811998224183,
                0.4203199190826669,
                -1.7418561378825728
            ]
        },
        {
            "positions": [
                0.5962944665058839,
                -1.3028895452677576,
                -0.5425741214041611,
                -0.27699050161318356,
                0.4015344341361326,
                -1.6443172738362166
            ]
        },
        {
            "positions": [
                0.5991227078819735,
                -1.260459029780844,
                -0.7388715360146376,
                -0.25999980340394885,
                0.3827489491895983,
                -1.5467784097898605
            ]
        },
        {
            "positions": [
                0.601950949258063,
                -1.2180285142939309,
                -0.9351689506251146,
                -0.24300910519471414,
                0.3639634642430639,
                -1.4492395457435043
            ]
        },
        {
            "positions": [
                0.6047791906341526,
                -1.1755979988070173,
                -1.1314663652355912,
                -0.22601840698547937,
                0.3451779792965296,
                -1.3517006816971482
            ]
        },
        {
            "positions": [
                0.7441435140794587,
                -1.2249592435814076,
                -1.1768556520654327,
                -0.1548838211542335,
                0.35695897294088386,
                -1.2822703370237338
            ]
        },
        {
            "positions": [
                0.8835078375247647,
                -1.274320488355798,
                -1.2222449388952743,
                -0.08374923532298761,
                0.3687399665852381,
                -1.2128399923503195
            ]
        },
        {
            "positions": [
                1.0228721609700706,
                -1.323681733130188,
                -1.2676342257251159,
                -0.012614649491741708,
                0.3805209602295924,
                -1.1434096476769051
            ]
        },
        {
            "positions": [
                1.1622364844153767,
                -1.3730429779045783,
                -1.3130235125549574,
                0.05851993633950414,
                0.3923019538739467,
                -1.073979303003491
            ]
        },
        {
            "positions": [
                1.3016008078606827,
                -1.4224042226789686,
                -1.358412799384799,
                0.12965452217075002,
                0.40408294751830093,
                -1.0045489583300766
            ]
        },
        {
            "positions": [
                1.4409651313059888,
                -1.471765467453359,
                -1.4038020862146405,
                0.20078910800199595,
                0.41586394116265524,
                -0.9351186136566623
            ]
        },
        {
            "positions": [
                1.5803294547512947,
                -1.521126712227749,
                -1.4491913730444819,
                0.27192369383324183,
                0.4276449348070095,
                -0.8656882689832479
            ]
        },
        {
            "positions": [
                1.7196937781966009,
                -1.5704879570021393,
                -1.4945806598743236,
                0.34305827966448765,
                0.43942592845136375,
                -0.7962579243098337
            ]
        },
        {
            "positions": [
                1.8590581016419068,
                -1.6198492017765296,
                -1.539969946704165,
                0.41419286549573353,
                0.451206922095718,
                -0.7268275796364194
            ]
        },
        {
            "positions": [
                1.9984224250872127,
                -1.6692104465509199,
                -1.5853592335340065,
                0.4853274513269794,
                0.46298791574007225,
                -0.6573972349630051
            ]
        },
        {
            "positions": [
                2.137786748532519,
                -1.7185716913253102,
                -1.630748520363848,
                0.5564620371582253,
                0.47476890938442656,
                -0.5879668902895908
            ]
        },
        {
            "positions": [
                2.277151071977825,
                -1.7679329360997005,
                -1.6761378071936899,
                0.6275966229894713,
                0.4865499030287809,
                -0.5185365456161763
            ]
        },
        {
            "positions": [
                2.416515395423131,
                -1.8172941808740908,
                -1.7215270940235312,
                0.6987312088207172,
                0.4983308966731351,
                -0.4491062009427621
            ]
        },
        {
            "positions": [
                2.555879718868437,
                -1.8666554256484809,
                -1.7669163808533728,
                0.769865794651963,
                0.5101118903174894,
                -0.37967585626934774
            ]
        },
        {
            "positions": [
                2.695244042313743,
                -1.9160166704228712,
                -1.8123056676832143,
                0.8410003804832089,
                0.5218928839618436,
                -0.31024551159593344
            ]
        },
        {
            "positions": [
                2.686541595969741,
                -2.056677625581078,
                -1.7760780318648663,
                0.87744358842528,
                0.5122531762450764,
                -0.2275734991693
            ]
        },
        {
            "positions": [
                2.677839149625739,
                -2.1973385807392853,
                -1.7398503960465184,
                0.913886796367351,
                0.5026134685283092,
                -0.14490148674266656
            ]
        },
        {
            "positions": [
                2.6691367032817372,
                -2.3379995358974925,
                -1.7036227602281702,
                0.950330004309422,
                0.492973760811542,
                -0.06222947431603312
            ]
        },
        {
            "positions": [
                2.6604342569377355,
                -2.4786604910556997,
                -1.6673951244098222,
                0.9867732122514932,
                0.4833340530947748,
                0.020442538110600327
            ]
        }
    ]
}