{
    "goal": {
        "global_pose": {
            "orientation": {
                "w": -0.4816463035849501,
                "x": 0.5182115481033762,
                "y": 0.4908360881923453,
                "z": -0.5084816262002911
            },
            "position": {
                "x": -0.8240239810943604,
                "y": -0.300875300988555,
                "z": 0.16403168439865112
            }
        },
        "name": "move_to_storage_C"
    },
    "id": "ProjEST_move_to_storage_C_55",
    "joint_names": [
        "shoulder_pan_joint",
        "shoulder_lift_joint",
        "elbow_joint",
        "wrist_1_joint",
        "wrist_2_joint",
        "wrist_3_joint"
    ],
    "metrics": {
        "cart_traj_len": 0.5775169831783095,
        "distance_elbow_joint": 0.2604696913766975,
        "distance_shoulder_lift_joint": 0.19007297874408646,
        "distance_shoulder_pan_joint": 0.49584496289070623,
        "distance_wrist_1_joint": 0.08556533328645777,
        "distance_wrist_2_joint": 1.064265565735976,
        "distance_wrist_3_joint": 0.06824757592850572,
        "smoothness": 0.0,
        "time": 0.074496595,
        "traj_len": 1.4712124618702866,
        "weighted_distance": 1.8576307918533959
    },
    "planner": "ProjEST",
    "start": {
        "state": {
            "elbow_joint": 2.010868315001653,
            "shoulder_lift_joint": -1.1634956873357014,
            "shoulder_pan_joint": -2.4736205022346103,
            "wrist_1_joint": -0.8367026794713948,
            "wrist_2_joint": 0.6746043897044093,
            "wrist_3_joint": 3.1335220948105738
        }
    },
    "waypoints": [
        {
            "positions": [
                -2.4736205022346103,
                -1.1634956873357014,
                2.010868315001653,
                -0.8367026794713948,
                0.6746043897044093,
                3.1335220948105738
            ]
        },
        {
            "positions": [
                -2.5562613293830614,
                -1.1318168575450203,
                1.9674566997722036,
                -0.8224417905903185,
                0.8519819839937386,
                3.144896690798658
            ]
        },
        {
            "positions": [
                -2.6389021565315125,
                -1.1001380277543393,
                1.924045084542754,
                -0.8081809017092422,
                1.029359578283068,
                3.156271286786742
            ]
        },
        {
            "positions": [
                -2.7215429836799636,
                -1.0684591979636582,
                1.8806334693133042,
                -0.7939200128281658,
                1.2067371725723972,
                3.167645882774827
            ]
        },
        {
            "positions": [
                -2.8041838108284143,
                -1.036780368172977,
                1.8372218540838547,
                -0.7796591239470896,
                1.3841147668617266,
                3.179020478762911
            ]
        },
        {
            "positions": [
                -2.8868246379768654,
                -1.005101538382296,
                1.7938102388544053,
                -0.7653982350660133,
                1.561492361151056,
                3.1903950747509953
            ]
        },
        {
            "positions": [
                -2.9694654651253165,
                -0.973422708591615,
                1.7503986236249556,
                -0.751137346184937,
                1.7388699554403853,
                3.2017696707390795
            ]
        }
    ]
}