{
    "goal": {
        "global_pose": {
            "orientation": {
                "w": 0.005598929693374612,
                "x": 0.007748599140229565,
                "y": 0.7110244013736278,
                "z": -0.7031023480610252
            },
            "position": {
                "x": 0.1141497679147869,
                "y": -0.7141253447532654,
                "z": 0.3711530566215515
            }
        },
        "name": "move_to_auspresseinheit_B"
    },
    "id": "ProjEST_move_to_auspresseinheit_B_38",
    "joint_names": [
        "shoulder_pan_joint",
        "shoulder_lift_joint",
        "elbow_joint",
        "wrist_1_joint",
        "wrist_2_joint",
        "wrist_3_joint"
    ],
    "metrics": {
        "cart_traj_len": 0.564052999917348,
        "distance_elbow_joint": 0.06376871230070869,
        "distance_shoulder_lift_joint": 0.2947108821196287,
        "distance_shoulder_pan_joint": 0.577407129817445,
        "distance_wrist_1_joint": 0.334276232149346,
        "distance_wrist_2_joint": 0.9885451428554419,
        "distance_wrist_3_joint": 0.0038258891134992368,
        "smoothness": 5.075305255429287e-16,
        "time": 0.047721694,
        "traj_len": 1.5041721937185482,
        "weighted_distance": 1.8955229203541317
    },
    "planner": "ProjEST",
    "start": {
        "state": {
            "elbow_joint": 2.019306165916698,
            "shoulder_lift_joint": -1.1220205098164344,
            "shoulder_pan_joint": -1.095207207618794,
            "wrist_1_joint": -0.8559671824921639,
            "wrist_2_joint": 0.47596387242952726,
            "wrist_3_joint": 3.159081874673826
        }
    },
    "waypoints": [
        {
            "positions": [
                -1.095207207618794,
                -1.1220205098164344,
                2.019306165916698,
                -0.8559671824921639,
                0.47596387242952726,
                3.159081874673826
            ]
        },
        {
            "positions": [
                -1.1914417292550348,
                -1.1711389901697058,
                2.008678047199913,
                -0.8002544771339395,
                0.6407213962387676,
                3.1584442264882426
            ]
        },
        {
            "positions": [
                -1.2876762508912756,
                -1.2202574705229774,
                1.9980499284831283,
                -0.7445417717757152,
                0.8054789200480079,
                3.1578065783026594
            ]
        },
        {
            "positions": [
                -1.3839107725275164,
                -1.2693759508762488,
                1.9874218097663436,
                -0.6888290664174909,
                0.9702364438572482,
                3.1571689301170762
            ]
        },
        {
            "positions": [
                -1.4801452941637572,
                -1.3184944312295201,
                1.976793691049559,
                -0.6331163610592665,
                1.1349939676664884,
                3.156531281931493
            ]
        },
        {
            "positions": [
                -1.5763798157999982,
                -1.3676129115827917,
                1.966165572332774,
                -0.5774036557010422,
                1.2997514914757289,
                3.15589363374591
            ]
        },
        {
            "positions": [
                -1.672614337436239,
                -1.4167313919360631,
                1.9555374536159893,
                -0.5216909503428179,
                1.4645090152849691,
                3.1552559855603266
            ]
        }
    ]
}