{
    "goal": {
        "global_pose": {
            "orientation": {
                "w": 0.7047431468963623,
                "x": -0.7094548344612122,
                "y": 0.0024358443915843964,
                "z": -0.0022348060738295317
            },
            "position": {
                "x": 0.6094750761985779,
                "y": 0.3671506643295288,
                "z": 0.19426114857196808
            }
        },
        "name": "move_to_magneteinheit_A"
    },
    "id": "ProjEST_move_to_magneteinheit_A_20",
    "joint_names": [
        "shoulder_pan_joint",
        "shoulder_lift_joint",
        "elbow_joint",
        "wrist_1_joint",
        "wrist_2_joint",
        "wrist_3_joint"
    ],
    "metrics": {
        "cart_traj_len": 1.0536129974346267,
        "distance_elbow_joint": 0.4093231985963577,
        "distance_shoulder_lift_joint": 0.35244529778990064,
        "distance_shoulder_pan_joint": 1.242409790872725,
        "distance_wrist_1_joint": 2.3343637588945763,
        "distance_wrist_2_joint": 1.701680130844343,
        "distance_wrist_3_joint": 1.1258277263431968,
        "smoothness": 4.440892133664971e-16,
        "time": 0.12723836,
        "traj_len": 2.6769478708673238,
        "weighted_distance": 3.6679352837483936
    },
    "planner": "ProjEST",
    "start": {
        "state": {
            "elbow_joint": 1.5739458966750683,
            "shoulder_lift_joint": -1.4977259741207325,
            "shoulder_pan_joint": -1.1188672016454206,
            "wrist_1_joint": 1.494575848278785,
            "wrist_2_joint": -1.5706037134824402,
            "wrist_3_joint": -2.0226957942261072
        }
    },
    "waypoints": [
        {
            "positions": [
                -1.1188672016454206,
                -1.4977259741207325,
                1.5739458966750683,
                1.494575848278785,
                -1.5706037134824402,
                -2.0226957942261072
            ]
        },
        {
            "positions": [
                -1.0534772126521192,
                -1.4791762216054745,
                1.595489222916982,
                1.3717145978106493,
                -1.4810416013327379,
                -2.0819498850862757
            ]
        },
        {
            "positions": [
                -0.9880872236588181,
                -1.4606264690902167,
                1.6170325491588955,
                1.2488533473425139,
                -1.3914794891830358,
                -2.1412039759464436
            ]
        },
        {
            "positions": [
                -0.9226972346655167,
                -1.4420767165749586,
                1.638575875400809,
                1.1259920968743782,
                -1.3019173770333334,
                -2.200458066806612
            ]
        },
        {
            "positions": [
                -0.8573072456722154,
                -1.4235269640597008,
                1.6601192016427226,
                1.0031308464062425,
                -1.212355264883631,
                -2.2597121576667805
            ]
        },
        {
            "positions": [
                -0.7919172566789141,
                -1.4049772115444428,
                1.6816625278846362,
                0.880269595938107,
                -1.122793152733929,
                -2.3189662485269484
            ]
        },
        {
            "positions": [
                -0.7265272676856127,
                -1.386427459029185,
                1.7032058541265498,
                0.7574083454699715,
                -1.0332310405842267,
                -2.378220339387117
            ]
        },
        {
            "positions": [
                -0.6611372786923115,
                -1.367877706513927,
                1.7247491803684634,
                0.6345470950018359,
                -0.9436689284345244,
                -2.437474430247285
            ]
        },
        {
            "positions": [
                -0.5957472896990101,
                -1.3493279539986691,
                1.7462925066103767,
                0.5116858445337003,
                -0.8541068162848221,
                -2.4967285211074532
            ]
        },
        {
            "positions": [
                -0.5303573007057089,
                -1.330778201483411,
                1.7678358328522905,
                0.3888245940655648,
                -0.7645447041351199,
                -2.5559826119676217
            ]
        },
        {
            "positions": [
                -0.46496731171240757,
                -1.3122284489681533,
                1.7893791590942039,
                0.2659633435974291,
                -0.6749825919854177,
                -2.6152367028277896
            ]
        },
        {
            "positions": [
                -0.3995773227191062,
                -1.2936786964528952,
                1.8109224853361177,
                0.14310209312929345,
                -0.5854204798357153,
                -2.674490793687958
            ]
        },
        {
            "positions": [
                -0.3341873337258049,
                -1.2751289439376374,
                1.832465811578031,
                0.020240842661158,
                -0.4958583676860131,
                -2.733744884548126
            ]
        },
        {
            "positions": [
                -0.2687973447325035,
                -1.2565791914223794,
                1.8540091378199446,
                -0.10262040780697768,
                -0.40629625553631077,
                -2.7929989754082944
            ]
        },
        {
            "positions": [
                -0.20340735573920232,
                -1.2380294389071216,
                1.8755524640618582,
                -0.22548165827511313,
                -0.31673414338660866,
                -2.852253066268463
            ]
        },
        {
            "positions": [
                -0.13801736674590093,
                -1.2194796863918635,
                1.8970957903037717,
                -0.348342908743249,
                -0.22717203123690632,
                -2.9115071571286313
            ]
        },
        {
            "positions": [
                -0.07262737775259964,
                -1.2009299338766057,
                1.9186391165456853,
                -0.4712041592113845,
                -0.137609919087204,
                -2.9707612479887993
            ]
        },
        {
            "positions": [
                -0.007237388759298247,
                -1.1823801813613477,
                1.9401824427875989,
                -0.5940654096795199,
                -0.04804780693750166,
                -3.0300153388489677
            ]
        },
        {
            "positions": [
                0.05815260023400293,
                -1.1638304288460897,
                1.9617257690295125,
                -0.7169266601476554,
                0.04151430521220045,
                -3.0892694297091357
            ]
        },
        {
            "positions": [
                0.12354258922730443,
                -1.1452806763308319,
                1.983269095271426,
                -0.8397879106157911,
                0.1310764173619027,
                -3.148523520569304
            ]
        }
    ]
}