{
    "goal": {
        "global_pose": {
            "orientation": {
                "w": 0.5084816262002911,
                "x": -0.4908360881923452,
                "y": 0.5182115481033761,
                "z": -0.48164630358495003
            },
            "position": {
                "x": 0.5540239810943604,
                "y": -0.46912469901144505,
                "z": 0.16403168439865112
            }
        },
        "name": "move_to_storage_B"
    },
    "id": "ProjEST_move_to_storage_B_137",
    "joint_names": [
        "shoulder_pan_joint",
        "shoulder_lift_joint",
        "elbow_joint",
        "wrist_1_joint",
        "wrist_2_joint",
        "wrist_3_joint"
    ],
    "metrics": {
        "cart_traj_len": 1.5206818146456091,
        "distance_elbow_joint": 0.35416900022766495,
        "distance_shoulder_lift_joint": 0.6714953477302374,
        "distance_shoulder_pan_joint": 1.4861045401503974,
        "distance_wrist_1_joint": 2.9928749704441744,
        "distance_wrist_2_joint": 2.721730854971049,
        "distance_wrist_3_joint": 3.7301117981304914,
        "smoothness": 0.20065420471984532,
        "time": 0.121434132,
        "traj_len": 3.457815280152197,
        "weighted_distance": 5.013114394598454
    },
    "planner": "ProjEST",
    "start": {
        "state": {
            "elbow_joint": 1.6649325706314817,
            "shoulder_lift_joint": -0.6616388048112454,
            "shoulder_pan_joint": -0.9139837860083814,
            "wrist_1_joint": 2.146757197745094,
            "wrist_2_joint": -2.234196043158733,
            "wrist_3_joint": 0.005471033829999897
        }
    },
    "waypoints": [
        {
            "positions": [
                -0.9139837860083814,
                -0.6616388048112454,
                1.6649325706314817,
                2.146757197745094,
                -2.234196043158733,
                0.005471033829999897
            ]
        },
        {
            "positions": [
                -0.8486332099402516,
                -0.7182469235939455,
                1.6892740430726016,
                2.0567387212672363,
                -2.133243642567406,
                -0.02359892366899105
            ]
        },
        {
            "positions": [
                -0.7832826338721218,
                -0.7748550423766456,
                1.7136155155137216,
                1.9667202447893781,
                -2.0322912419760795,
                -0.052668881167982
            ]
        },
        {
            "positions": [
                -0.717932057803992,
                -0.8314631611593457,
                1.7379569879548418,
                1.8767017683115204,
                -1.9313388413847528,
                -0.08173883866697293
            ]
        },
        {
            "positions": [
                -0.6525814817358623,
                -0.8880712799420459,
                1.7622984603959617,
                1.7866832918336624,
                -1.830386440793426,
                -0.11080879616596388
            ]
        },
        {
            "positions": [
                -0.5872309056677325,
                -0.944679398724746,
                1.7866399328370817,
                1.6966648153558044,
                -1.7294340402020993,
                -0.13987875366495484
            ]
        },
        {
            "positions": [
                -0.5218803295996027,
                -1.0012875175074463,
                1.8109814052782016,
                1.6066463388779466,
                -1.6284816396107726,
                -0.16894871116394578
            ]
        },
        {
            "positions": [
                -0.456529753531473,
                -1.0578956362901462,
                1.8353228777193216,
                1.5166278624000884,
                -1.527529239019446,
                -0.19801866866293671
            ]
        },
        {
            "positions": [
                -0.3911791774633432,
                -1.1145037550728465,
                1.8596643501604417,
                1.4266093859222306,
                -1.4265768384281192,
                -0.22708862616192768
            ]
        },
        {
            "positions": [
                -0.3258286013952134,
                -1.1711118738555466,
                1.8840058226015617,
                1.3365909094443724,
                -1.3256244378367925,
                -0.2561585836609186
            ]
        },
        {
            "positions": [
                -0.26047802532708364,
                -1.2277199926382467,
                1.9083472950426816,
                1.2465724329665147,
                -1.2246720372454658,
                -0.28522854115990953
            ]
        },
        {
            "positions": [
                -0.3001255862541836,
                -1.2227002707380925,
                1.913621308176799,
                1.14692051841101,
                -1.1431383777665238,
                -0.1214470067246437
            ]
        },
        {
            "positions": [
                -0.33977314718128365,
                -1.2176805488379385,
                1.9188953213109163,
                1.0472686038555057,
                -1.0616047182875818,
                0.04233452771062213
            ]
        },
        {
            "positions": [
                -0.37942070810838363,
                -1.2126608269377843,
                1.9241693344450337,
                0.9476166893000011,
                -0.9800710588086398,
                0.2061160621458879
            ]
        },
        {
            "positions": [
                -0.41906826903548366,
                -1.2076411050376303,
                1.9294433475791513,
                0.8479647747444966,
                -0.8985373993296977,
                0.3698975965811538
            ]
        },
        {
            "positions": [
                -0.45871582996258364,
                -1.2026213831374761,
                1.9347173607132686,
                0.7483128601889921,
                -0.8170037398507557,
                0.5336791310164195
            ]
        },
        {
            "positions": [
                -0.4983633908896836,
                -1.1976016612373221,
                1.939991373847386,
                0.6486609456334875,
                -0.7354700803718137,
                0.6974606654516853
            ]
        },
        {
            "positions": [
                -0.5380109518167836,
                -1.192581939337168,
                1.9452653869815033,
                0.549009031077983,
                -0.6539364208928717,
                0.861242199886951
            ]
        },
        {
            "positions": [
                -0.5776585127438836,
                -1.187562217437014,
                1.9505394001156207,
                0.44935711652247856,
                -0.5724027614139297,
                1.025023734322217
            ]
        },
        {
            "positions": [
                -0.6173060736709837,
                -1.1825424955368598,
                1.955813413249738,
                0.34970520196697397,
                -0.4908691019349877,
                1.1888052687574828
            ]
        },
        {
            "positions": [
                -0.6569536345980835,
                -1.1775227736367058,
                1.9610874263838554,
                0.2500532874114695,
                -0.4093354424560457,
                1.3525868031927486
            ]
        },
        {
            "positions": [
                -0.6966011955251836,
                -1.1725030517365516,
                1.966361439517973,
                0.15040137285596478,
                -0.3278017829771035,
                1.5163683376280146
            ]
        },
        {
            "positions": [
                -0.7362487564522836,
                -1.1674833298363976,
                1.9716354526520903,
                0.050749458300460404,
                -0.24626812349816163,
                1.6801498720632801
            ]
        },
        {
            "positions": [
                -0.7758963173793837,
                -1.1624636079362434,
                1.9769094657862076,
                -0.04890245625504419,
                -0.16473446401921943,
                1.8439314064985461
            ]
        },
        {
            "positions": [
                -0.8155438783064836,
                -1.1574438860360894,
                1.982183478920325,
                -0.14855437081054856,
                -0.08320080454027767,
                2.007712940933812
            ]
        },
        {
            "positions": [
                -0.8551914392335837,
                -1.1524241641359352,
                1.9874574920544423,
                -0.24820628536605316,
                -0.0016671450613354732,
                2.171494475369078
            ]
        },
        {
            "positions": [
                -0.8948390001606836,
                -1.1474044422357812,
                1.9927315051885597,
                -0.34785819992155753,
                0.0798665144176065,
                2.335276009804344
            ]
        },
        {
            "positions": [
                -0.9344865610877836,
                -1.142384720335627,
                1.998005518322677,
                -0.4475101144770621,
                0.16140017389654848,
                2.49905754423961
            ]
        },
        {
            "positions": [
                -0.9741341220148836,
                -1.137364998435473,
                2.0032795314567946,
                -0.5471620290325667,
                0.24293383337549046,
                2.6628390786748755
            ]
        },
        {
            "positions": [
                -1.0137816829419837,
                -1.1323452765353188,
                2.008553544590912,
                -0.6468139435880713,
                0.32446749285443266,
                2.8266206131101415
            ]
        },
        {
            "positions": [
                -1.0534292438690835,
                -1.1273255546351648,
                2.0138275577250293,
                -0.7464658581435757,
                0.4060011523333744,
                2.990402147545407
            ]
        },
        {
            "positions": [
                -1.0930768047961836,
                -1.1223058327350106,
                2.0191015708591467,
                -0.8461177726990801,
                0.4875348118123167,
                3.154183681980673
            ]
        }
    ]
}