{
    "goal": {
        "global_pose": {
            "orientation": {
                "w": 0.005598929693374612,
                "x": 0.007748599140229565,
                "y": 0.7110244013736278,
                "z": -0.7031023480610252
            },
            "position": {
                "x": -0.8858502320852131,
                "y": -0.7141253447532654,
                "z": 0.3711530566215515
            }
        },
        "name": "move_to_auspresseinheit_C"
    },
    "id": "ProjEST_move_to_auspresseinheit_C_37",
    "joint_names": [
        "shoulder_pan_joint",
        "shoulder_lift_joint",
        "elbow_joint",
        "wrist_1_joint",
        "wrist_2_joint",
        "wrist_3_joint"
    ],
    "metrics": {
        "cart_traj_len": 0.4940008479466072,
        "distance_elbow_joint": 1.0198488820379197,
        "distance_shoulder_lift_joint": 0.3343832580414434,
        "distance_shoulder_pan_joint": 0.25542167848820174,
        "distance_wrist_1_joint": 0.7141403953289454,
        "distance_wrist_2_joint": 1.3182722973505405,
        "distance_wrist_3_joint": 0.08706597486867285,
        "smoothness": 3.2297397080004555e-16,
        "time": 0.100896381,
        "traj_len": 1.9310961876912613,
        "weighted_distance": 2.436324512156079
    },
    "planner": "ProjEST",
    "start": {
        "state": {
            "elbow_joint": 1.752795957773711,
            "shoulder_lift_joint": -0.9740617694225064,
            "shoulder_pan_joint": -2.967991417825858,
            "wrist_1_joint": -0.7595177689806859,
            "wrist_2_joint": 1.7443932448377395,
            "wrist_3_joint": 3.199131542505932
        }
    },
    "waypoints": [
        {
            "positions": [
                -2.967991417825858,
                -0.9740617694225064,
                1.752795957773711,
                -0.7595177689806859,
                1.7443932448377395,
                3.199131542505932
            ]
        },
        {
            "positions": [
                -2.9424492499770376,
                -0.9406234436183621,
                1.6508110695699192,
                -0.6881037294477914,
                1.6125660151026855,
                3.190424945019065
            ]
        },
        {
            "positions": [
                -2.9169070821282177,
                -0.9071851178142177,
                1.548826181366127,
                -0.6166896899148968,
                1.4807387853676315,
                3.1817183475321977
            ]
        },
        {
            "positions": [
                -2.8913649142793973,
                -0.8737467920100734,
                1.4468412931623353,
                -0.5452756503820023,
                1.3489115556325775,
                3.17301175004533
            ]
        },
        {
            "positions": [
                -2.8658227464305774,
                -0.840308466205929,
                1.3448564049585432,
                -0.4738616108491078,
                1.2170843258975232,
                3.164305152558463
            ]
        },
        {
            "positions": [
                -2.840280578581757,
                -0.8068701404017847,
                1.2428715167547513,
                -0.4024475713162132,
                1.0852570961624692,
                3.1555985550715957
            ]
        },
        {
            "positions": [
                -2.8147384107329367,
                -0.7734318145976404,
                1.1408866285509593,
                -0.3310335317833187,
                0.9534298664274152,
                3.1468919575847285
            ]
        },
        {
            "positions": [
                -2.789196242884117,
                -0.739993488793496,
                1.0389017403471674,
                -0.2596194922504242,
                0.8216026366923612,
                3.1381853600978613
            ]
        },
        {
            "positions": [
                -2.7636540750352965,
                -0.7065551629893516,
                0.9369168521433753,
                -0.18820545271752964,
                0.689775406957307,
                3.1294787626109937
            ]
        },
        {
            "positions": [
                -2.7381119071864766,
                -0.6731168371852074,
                0.8349319639395834,
                -0.11679141318463504,
                0.557948177222253,
                3.1207721651241265
            ]
        },
        {
            "positions": [
                -2.712569739337656,
                -0.639678511381063,
                0.7329470757357913,
                -0.04537737365174055,
                0.426120947487199,
                3.1120655676372593
            ]
        }
    ]
}