{
    "goal": {
        "global_pose": {
            "orientation": {
                "w": -0.4816463035849501,
                "x": 0.5182115481033762,
                "y": 0.4908360881923453,
                "z": -0.5084816262002911
            },
            "position": {
                "x": -0.8240239810943604,
                "y": 0.19912469901144506,
                "z": 0.16403168439865112
            }
        },
        "name": "move_to_storage_D"
    },
    "id": "ProjEST_move_to_storage_D_40",
    "joint_names": [
        "shoulder_pan_joint",
        "shoulder_lift_joint",
        "elbow_joint",
        "wrist_1_joint",
        "wrist_2_joint",
        "wrist_3_joint"
    ],
    "metrics": {
        "cart_traj_len": 0.681703936708815,
        "distance_elbow_joint": 0.5785422680634962,
        "distance_shoulder_lift_joint": 0.37154021071587184,
        "distance_shoulder_pan_joint": 0.37154925077154244,
        "distance_wrist_1_joint": 4.365227169016459,
        "distance_wrist_2_joint": 1.8397464089885367,
        "distance_wrist_3_joint": 3.3882909598265307,
        "smoothness": 0.5044913801006538,
        "time": 0.088549974,
        "traj_len": 3.3037700082454946,
        "weighted_distance": 4.888399714123272
    },
    "planner": "ProjEST",
    "start": {
        "state": {
            "elbow_joint": -2.384821997420982,
            "shoulder_lift_joint": -2.2788054674887404,
            "shoulder_pan_joint": -0.18546946417610016,
            "wrist_1_joint": 1.4845937964226739,
            "wrist_2_joint": 0.1789877726866377,
            "wrist_3_joint": 0.03710572555276528
        }
    },
    "waypoints": [
        {
            "positions": [
                -0.18546946417610016,
                -2.2788054674887404,
                -2.384821997420982,
                1.4845937964226739,
                0.1789877726866377,
                0.03710572555276528
            ]
        },
        {
            "positions": [
                -0.09853180350951289,
                -2.1917281593413396,
                -2.388723940562047,
                1.5748669187475797,
                0.18786355128022583,
                -0.0022415353638211497
            ]
        },
        {
            "positions": [
                -0.01159414284292562,
                -2.1046508511939384,
                -2.3926258837031127,
                1.6651400410724853,
                0.19673932987381393,
                -0.041588796280407576
            ]
        },
        {
            "positions": [
                0.07534351782366167,
                -2.0175735430465376,
                -2.396527826844178,
                1.755413163397391,
                0.20561510846740205,
                -0.08093605719699401
            ]
        },
        {
            "positions": [
                0.07108443056320855,
                -2.0218161694416787,
                -2.3747264253580123,
                1.5979359402419395,
                0.13587975949787234,
                0.04484275730595877
            ]
        },
        {
            "positions": [
                0.06682534330275544,
                -2.02605879583682,
                -2.352925023871847,
                1.4404587170864878,
                0.06614441052834263,
                0.17062157180891155
            ]
        },
        {
            "positions": [
                0.06256625604230233,
                -2.030301422231961,
                -2.3311236223856815,
                1.2829814939310362,
                -0.003590938441187047,
                0.2964003863118644
            ]
        },
        {
            "positions": [
                0.05830716878184921,
                -2.0345440486271023,
                -2.3093222208995163,
                1.1255042707755845,
                -0.07332628741071678,
                0.4221792008148171
            ]
        },
        {
            "positions": [
                0.05404808152139609,
                -2.038786675022243,
                -2.2875208194133507,
                0.968027047620133,
                -0.1430616363802465,
                0.5479580153177699
            ]
        },
        {
            "positions": [
                0.04978899426094298,
                -2.043029301417384,
                -2.2657194179271856,
                0.8105498244646814,
                -0.21279698534977615,
                0.6737368298207227
            ]
        },
        {
            "positions": [
                0.045529907000489866,
                -2.0472719278125253,
                -2.24391801644102,
                0.6530726013092298,
                -0.28253233431930586,
                0.7995156443236753
            ]
        },
        {
            "positions": [
                0.041270819740036754,
                -2.0515145542076665,
                -2.222116614954855,
                0.4955953781537781,
                -0.3522676832888356,
                0.9252944588266282
            ]
        },
        {
            "positions": [
                0.03701173247958364,
                -2.0557571806028077,
                -2.200315213468689,
                0.33811815499832654,
                -0.4220030322583652,
                1.051073273329581
            ]
        },
        {
            "positions": [
                0.03275264521913052,
                -2.059999806997949,
                -2.178513811982524,
                0.180640931842875,
                -0.49173838122789504,
                1.176852087832534
            ]
        },
        {
            "positions": [
                0.028493557958677418,
                -2.06424243339309,
                -2.1567124104963584,
                0.023163708687423457,
                -0.5614737301974246,
                1.3026309023354865
            ]
        },
        {
            "positions": [
                0.0242344706982243,
                -2.068485059788231,
                -2.1349110090101933,
                -0.1343135144680283,
                -0.6312090791669543,
                1.4284097168384395
            ]
        },
        {
            "positions": [
                0.019975383437771187,
                -2.072727686183372,
                -2.1131096075240277,
                -0.29179073762347985,
                -0.700944428136484,
                1.5541885313413921
            ]
        },
        {
            "positions": [
                0.015716296177318075,
                -2.076970312578513,
                -2.0913082060378625,
                -0.4492679607789314,
                -0.7706797771060138,
                1.6799673458443447
            ]
        },
        {
            "positions": [
                0.01145720891686497,
                -2.0812129389736542,
                -2.069506804551697,
                -0.6067451839343829,
                -0.8404151260755435,
                1.8057461603472975
            ]
        },
        {
            "positions": [
                0.007198121656411843,
                -2.0854555653687954,
                -2.0477054030655317,
                -0.7642224070898349,
                -0.9101504750450733,
                1.9315249748502505
            ]
        },
        {
            "positions": [
                0.002939034395958731,
                -2.0896981917639366,
                -2.025904001579366,
                -0.9216996302452864,
                -0.9798858240146029,
                2.057303789353203
            ]
        },
        {
            "positions": [
                -0.001320052864494381,
                -2.0939408181590777,
                -2.004102600093201,
                -1.079176853400738,
                -1.0496211729841325,
                2.1830826038561555
            ]
        },
        {
            "positions": [
                -0.005579140124947493,
                -2.098183444554219,
                -1.9823011986070354,
                -1.2366540765561895,
                -1.119356521953662,
                2.3088614183591085
            ]
        },
        {
            "positions": [
                -0.00983822738540062,
                -2.10242607094936,
                -1.96049979712087,
                -1.394131299711641,
                -1.1890918709231921,
                2.4346402328620615
            ]
        },
        {
            "positions": [
                -0.014097314645853731,
                -2.1066686973445012,
                -1.9386983956347046,
                -1.5516085228670926,
                -1.2588272198927217,
                2.560419047365014
            ]
        },
        {
            "positions": [
                -0.01835640190630683,
                -2.110911323739642,
                -1.9168969941485392,
                -1.7090857460225441,
                -1.3285625688622513,
                2.6861978618679667
            ]
        },
        {
            "positions": [
                -0.02261548916675994,
                -2.115153950134783,
                -1.8950955926623738,
                -1.8665629691779957,
                -1.398297917831781,
                2.8119766763709193
            ]
        },
        {
            "positions": [
                -0.026874576427213068,
                -2.1193965765299243,
                -1.8732941911762084,
                -2.0240401923334477,
                -1.4680332668013107,
                2.9377554908738728
            ]
        },
        {
            "positions": [
                -0.03113366368766618,
                -2.1236392029250655,
                -1.851492789690043,
                -2.181517415488899,
                -1.5377686157708406,
                3.0635343053768254
            ]
        },
        {
            "positions": [
                -0.03539275094811929,
                -2.1278818293202066,
                -1.8296913882038777,
                -2.338994638644351,
                -1.6075039647403702,
                3.189313119879778
            ]
        }
    ]
}