{
    "goal": {
        "global_pose": {
            "orientation": {
                "w": 0.7031023480610252,
                "x": -0.7110244013736278,
                "y": 0.0077485991402295624,
                "z": 0.005598929693374583
            },
            "position": {
                "x": -0.8841497679147869,
                "y": 0.44412534475326537,
                "z": 0.3711530566215515
            }
        },
        "name": "move_to_auspresseinheit_D"
    },
    "id": "ProjEST_move_to_auspresseinheit_D_82",
    "joint_names": [
        "shoulder_pan_joint",
        "shoulder_lift_joint",
        "elbow_joint",
        "wrist_1_joint",
        "wrist_2_joint",
        "wrist_3_joint"
    ],
    "metrics": {
        "cart_traj_len": 3.8229622669817664,
        "distance_elbow_joint": 3.1993668552623005,
        "distance_shoulder_lift_joint": 1.3884830925115041,
        "distance_shoulder_pan_joint": 2.9717704566165177,
        "distance_wrist_1_joint": 3.507298528320309,
        "distance_wrist_2_joint": 1.5944922792493164,
        "distance_wrist_3_joint": 3.041538056836856,
        "smoothness": 0.21436911851509463,
        "time": 0.095452432,
        "traj_len": 3.962694697904041,
        "weighted_distance": 5.1853462941292685
    },
    "planner": "ProjEST",
    "start": {
        "state": {
            "elbow_joint": 1.8268400409724999,
            "shoulder_lift_joint": -1.0144045787793008,
            "shoulder_pan_joint": 2.6280239544362485,
            "wrist_1_joint": -0.790705565816056,
            "wrist_2_joint": 1.0573557467365533,
            "wrist_3_joint": 3.1851377467193758
        }
    },
    "waypoints": [
        {
            "positions": [
                2.6280239544362485,
                -1.0144045787793008,
                1.8268400409724999,
                -0.790705565816056,
                1.0573557467365533,
                3.1851377467193758
            ]
        },
        {
            "positions": [
                2.635345707205252,
                -1.0359925303365993,
                1.7120322475449745,
                -0.8824167839058799,
                0.9534179972115688,
                3.147822038923182
            ]
        },
        {
            "positions": [
                2.6426674599742563,
                -1.0575804818938976,
                1.597224454117449,
                -0.9741280019957038,
                0.8494802476865845,
                3.1105063311269885
            ]
        },
        {
            "positions": [
                2.64998921274326,
                -1.079168433451196,
                1.4824166606899236,
                -1.0658392200855278,
                0.7455424981616,
                3.073190623330795
            ]
        },
        {
            "positions": [
                2.6573109655122638,
                -1.1007563850084945,
                1.3676088672623983,
                -1.1575504381753516,
                0.6416047486366157,
                3.035874915534601
            ]
        },
        {
            "positions": [
                2.664632718281268,
                -1.122344336565793,
                1.2528010738348727,
                -1.2492616562651755,
                0.5376669991116311,
                2.9985592077384076
            ]
        },
        {
            "positions": [
                2.6719544710502716,
                -1.1439322881230913,
                1.1379932804073474,
                -1.3409728743549993,
                0.4337292495866467,
                2.9612434999422135
            ]
        },
        {
            "positions": [
                2.6792762238192753,
                -1.1655202396803896,
                1.023185486979822,
                -1.4326840924448234,
                0.32979150006166225,
                2.92392779214602
            ]
        },
        {
            "positions": [
                2.6865979765882795,
                -1.1871081912376882,
                0.9083776935522966,
                -1.5243953105346473,
                0.2258537505366779,
                2.886612084349826
            ]
        },
        {
            "positions": [
                2.693919729357283,
                -1.2086961427949867,
                0.7935699001247711,
                -1.6161065286244711,
                0.12191600101169342,
                2.8492963765536325
            ]
        },
        {
            "positions": [
                2.701241482126287,
                -1.230284094352285,
                0.6787621066972456,
                -1.7078177467142952,
                0.01797825148670884,
                2.811980668757439
            ]
        },
        {
            "positions": [
                2.708563234895291,
                -1.2518720459095833,
                0.5639543132697205,
                -1.799528964804119,
                -0.0859594980382754,
                2.7746649609612453
            ]
        },
        {
            "positions": [
                2.7158849876642948,
                -1.2734599974668819,
                0.44914651984219484,
                -1.891240182893943,
                -0.18989724756325976,
                2.7373492531650516
            ]
        },
        {
            "positions": [
                2.616439835133658,
                -1.3124057793228792,
                0.38633019797557433,
                -1.8082483238855835,
                -0.17792347911672524,
                2.6479096130518607
            ]
        },
        {
            "positions": [
                2.5169946826030207,
                -1.3513515611788767,
                0.32351387610895377,
                -1.7252564648772242,
                -0.16594971067019068,
                2.55846997293867
            ]
        },
        {
            "positions": [
                2.417549530072384,
                -1.390297343034874,
                0.26069755424233326,
                -1.6422646058688648,
                -0.15397594222365615,
                2.4690303328254792
            ]
        },
        {
            "positions": [
                2.318104377541747,
                -1.4292431248908712,
                0.19788123237571276,
                -1.5592727468605054,
                -0.1420021737771216,
                2.3795906927122887
            ]
        },
        {
            "positions": [
                2.21865922501111,
                -1.4681889067468687,
                0.1350649105090922,
                -1.476280887852146,
                -0.13002840533058707,
                2.290151052599098
            ]
        },
        {
            "positions": [
                2.119214072480473,
                -1.507134688602866,
                0.07224858864247169,
                -1.3932890288437867,
                -0.11805463688405253,
                2.2007114124859073
            ]
        },
        {
            "positions": [
                2.0197689199498363,
                -1.5460804704588633,
                0.009432266775851128,
                -1.3102971698354273,
                -0.10608086843751799,
                2.1112717723727163
            ]
        },
        {
            "positions": [
                1.920323767419199,
                -1.5850262523148606,
                -0.05338405509076932,
                -1.227305310827068,
                -0.09410709999098345,
                2.021832132259526
            ]
        },
        {
            "positions": [
                1.8208786148885623,
                -1.623972034170858,
                -0.11620037695738988,
                -1.1443134518187086,
                -0.0821333315444489,
                1.932392492146335
            ]
        },
        {
            "positions": [
                1.7214334623579253,
                -1.6629178160268554,
                -0.17901669882401045,
                -1.0613215928103492,
                -0.07015956309791437,
                1.842952852033144
            ]
        },
        {
            "positions": [
                1.6219883098272885,
                -1.7018635978828527,
                -0.2418330206906309,
                -0.9783297338019898,
                -0.05818579465137985,
                1.7535132119199535
            ]
        },
        {
            "positions": [
                1.5225431572966515,
                -1.74080937973885,
                -0.30464934255725146,
                -0.8953378747936305,
                -0.0462120262048453,
                1.6640735718067627
            ]
        },
        {
            "positions": [
                1.4230980047660144,
                -1.7797551615948475,
                -0.367465664423872,
                -0.8123460157852711,
                -0.03423825775831077,
                1.574633931693572
            ]
        },
        {
            "positions": [
                1.3236528522353774,
                -1.8187009434508448,
                -0.4302819862904926,
                -0.7293541567769117,
                -0.022264489311776214,
                1.485194291580381
            ]
        },
        {
            "positions": [
                1.2242076997047404,
                -1.857646725306842,
                -0.49309830815711314,
                -0.6463622977685524,
                -0.01029072086524166,
                1.3957546514671904
            ]
        },
        {
            "positions": [
                1.1247625471741036,
                -1.8965925071628393,
                -0.5559146300237334,
                -0.563370438760193,
                0.001683047581292868,
                1.3063150113539996
            ]
        },
        {
            "positions": [
                1.0253173946434668,
                -1.9355382890188366,
                -0.6187309518903539,
                -0.48037857975183385,
                0.013656816027827368,
                1.2168753712408091
            ]
        },
        {
            "positions": [
                0.9258722421128296,
                -1.9744840708748341,
                -0.6815472737569745,
                -0.39738672074347425,
                0.02563058447436195,
                1.1274357311276182
            ]
        },
        {
            "positions": [
                0.8264270895821928,
                -2.013429852730831,
                -0.744363595623595,
                -0.3143948617351149,
                0.03760435292089648,
                1.0379960910144275
            ]
        },
        {
            "positions": [
                0.7269819370515558,
                -2.052375634586829,
                -0.8071799174902157,
                -0.2314030027267555,
                0.04957812136743103,
                0.9485564509012365
            ]
        },
        {
            "positions": [
                0.627536784520919,
                -2.091321416442826,
                -0.8699962393568361,
                -0.14841114371839614,
                0.06155188981396553,
                0.859116810788046
            ]
        },
        {
            "positions": [
                0.5280916319902822,
                -2.1302671982988235,
                -0.9328125612234566,
                -0.06541928471003677,
                0.07352565826050006,
                0.7696771706748553
            ]
        },
        {
            "positions": [
                0.42864647945964496,
                -2.169212980154821,
                -0.9956288830900772,
                0.017572574298322596,
                0.08549942670703464,
                0.6802375305616644
            ]
        },
        {
            "positions": [
                0.32920132692900816,
                -2.208158762010818,
                -1.0584452049566977,
                0.10056443330668197,
                0.09747319515356917,
                0.5907978904484739
            ]
        },
        {
            "positions": [
                0.22975617439837137,
                -2.2471045438668154,
                -1.1212615268233181,
                0.18355629231504134,
                0.1094469636001037,
                0.5013582503352834
            ]
        },
        {
            "positions": [
                0.13031102186773413,
                -2.2860503257228126,
                -1.1840778486899388,
                0.2665481513234007,
                0.12142073204663822,
                0.4119186102220924
            ]
        },
        {
            "positions": [
                0.03086586933709734,
                -2.3249961075788104,
                -1.2468941705565593,
                0.3495400103317601,
                0.13339450049317275,
                0.3224789701089015
            ]
        },
        {
            "positions": [
                -0.0685792831935399,
                -2.3639418894348077,
                -1.30971049242318,
                0.43253186934011945,
                0.14536826893970733,
                0.23303932999571053
            ]
        },
        {
            "positions": [
                -0.1680244357241766,
                -2.402887671290805,
                -1.3725268142898004,
                0.5155237283484786,
                0.1573420373862419,
                0.14359968988251987
            ]
        }
    ]
}