{
    "goal": {
        "global_pose": {
            "orientation": {
                "w": 0.7031023502349854,
                "x": -0.7110244035720825,
                "y": 0.007748599164187908,
                "z": 0.005598929710686207
            },
            "position": {
                "x": 0.11585023208521307,
                "y": 0.44412534475326537,
                "z": 0.3711530566215515
            }
        },
        "name": "move_to_auspresseinheit_A"
    },
    "id": "ProjEST_move_to_auspresseinheit_A_129",
    "joint_names": [
        "shoulder_pan_joint",
        "shoulder_lift_joint",
        "elbow_joint",
        "wrist_1_joint",
        "wrist_2_joint",
        "wrist_3_joint"
    ],
    "metrics": {
        "cart_traj_len": 6.691421214727056,
        "distance_elbow_joint": 4.8443351692786845,
        "distance_shoulder_lift_joint": 2.0213067395711737,
        "distance_shoulder_pan_joint": 8.029884669775873,
        "distance_wrist_1_joint": 4.961754851618089,
        "distance_wrist_2_joint": 5.375064164479469,
        "distance_wrist_3_joint": 6.000815382552627,
        "smoothness": 0.5660509952057873,
        "time": 0.298181021,
        "traj_len": 5.588663612821577,
        "weighted_distance": 7.3192629928483015
    },
    "planner": "ProjEST",
    "start": {
        "state": {
            "elbow_joint": 2.4225747245308327,
            "shoulder_lift_joint": -1.373653427065438,
            "shoulder_pan_joint": -0.33786330853087027,
            "wrist_1_joint": -1.0288602302712604,
            "wrist_2_joint": 1.23302299562683,
            "wrist_3_joint": -3.094021725338297
        }
    },
    "waypoints": [
        {
            "positions": [
                -0.33786330853087027,
                -1.373653427065438,
                2.4225747245308327,
                -1.0288602302712604,
                1.23302299562683,
                -3.094021725338297
            ]
        },
        {
            "positions": [
                -0.2610867163516588,
                -1.3996399297965607,
                2.3037889242474106,
                -1.017247091374602,
                1.2284772648654607,
                -2.937281913967743
            ]
        },
        {
            "positions": [
                -0.1843101241724473,
                -1.4256264325276837,
                2.185003123963988,
                -1.0056339524779432,
                1.2239315341040913,
                -2.780542102597189
            ]
        },
        {
            "positions": [
                -0.10753353199323584,
                -1.4516129352588065,
                2.066217323680566,
                -0.9940208135812846,
                1.219385803342722,
                -2.6238022912266348
            ]
        },
        {
            "positions": [
                -0.03075693981402433,
                -1.4775994379899295,
                1.9474315233971435,
                -0.982407674684626,
                1.2148400725813528,
                -2.4670624798560805
            ]
        },
        {
            "positions": [
                0.046019652365187125,
                -1.5035859407210523,
                1.8286457231137212,
                -0.9707945357879674,
                1.2102943418199834,
                -2.3103226684855267
            ]
        },
        {
            "positions": [
                0.12279624454439858,
                -1.5295724434521754,
                1.709859922830299,
                -0.9591813968913088,
                1.2057486110586142,
                -2.1535828571149724
            ]
        },
        {
            "positions": [
                0.1995728367236101,
                -1.5555589461832982,
                1.5910741225468767,
                -0.9475682579946502,
                1.2012028802972448,
                -1.9968430457444184
            ]
        },
        {
            "positions": [
                0.2763494289028216,
                -1.581545448914421,
                1.4722883222634544,
                -0.9359551190979916,
                1.1966571495358755,
                -1.8401032343738644
            ]
        },
        {
            "positions": [
                0.353126021082033,
                -1.607531951645544,
                1.3535025219800323,
                -0.9243419802013331,
                1.1921114187745063,
                -1.6833634230033103
            ]
        },
        {
            "positions": [
                0.4299026132612445,
                -1.6335184543766668,
                1.23471672169661,
                -0.9127288413046745,
                1.1875656880131369,
                -1.5266236116327563
            ]
        },
        {
            "positions": [
                0.5066792054404561,
                -1.6595049571077898,
                1.1159309214131876,
                -0.9011157024080159,
                1.1830199572517677,
                -1.369883800262202
            ]
        },
        {
            "positions": [
                0.5834557976196675,
                -1.6854914598389126,
                0.9971451211297655,
                -0.8895025635113573,
                1.1784742264903985,
                -1.213143988891648
            ]
        },
        {
            "positions": [
                0.6602323897988791,
                -1.7114779625700356,
                0.8783593208463429,
                -0.8778894246146987,
                1.173928495729029,
                -1.056404177521094
            ]
        },
        {
            "positions": [
                0.7370089819780905,
                -1.7374644653011584,
                0.7595735205629208,
                -0.86627628571804,
                1.1693827649676598,
                -0.8996643661505397
            ]
        },
        {
            "positions": [
                0.8137855741573021,
                -1.7634509680322812,
                0.6407877202794985,
                -0.8546631468213814,
                1.1648370342062906,
                -0.7429245547799854
            ]
        },
        {
            "positions": [
                0.8905621663365135,
                -1.7894374707634042,
                0.5220019199960764,
                -0.8430500079247228,
                1.1602913034449212,
                -0.5861847434094316
            ]
        },
        {
            "positions": [
                0.9673387585157249,
                -1.815423973494527,
                0.40321611971265403,
                -0.8314368690280642,
                1.155745572683552,
                -0.42944493203887735
            ]
        },
        {
            "positions": [
                1.0441153506949363,
                -1.8414104762256498,
                0.2844303194292319,
                -0.8198237301314056,
                1.1511998419221825,
                -0.27270512066832353
            ]
        },
        {
            "positions": [
                1.120891942874148,
                -1.8673969789567728,
                0.16564451914580927,
                -0.808210591234747,
                1.1466541111608133,
                -0.11596530929776919
            ]
        },
        {
            "positions": [
                1.018118817679921,
                -1.8455360747762173,
                0.2364336177581639,
                -0.7333136236209622,
                1.0622835989312536,
                -0.1486708253668778
            ]
        },
        {
            "positions": [
                0.9153456924856939,
                -1.8236751705956618,
                0.30722271637051857,
                -0.6584166560071774,
                0.9779130867016941,
                -0.1813763414359864
            ]
        },
        {
            "positions": [
                0.8125725672914668,
                -1.801814266415106,
                0.3780118149828732,
                -0.5835196883933925,
                0.8935425744721344,
                -0.21408185750509506
            ]
        },
        {
            "positions": [
                0.7097994420972398,
                -1.7799533622345505,
                0.4488009135952278,
                -0.5086227207796077,
                0.8091720622425748,
                -0.24678737357420366
            ]
        },
        {
            "positions": [
                0.6070263169030127,
                -1.758092458053995,
                0.5195900122075825,
                -0.4337257531658228,
                0.7248015500130152,
                -0.2794928896433123
            ]
        },
        {
            "positions": [
                0.5042531917087856,
                -1.7362315538734392,
                0.5903791108199371,
                -0.35882878555203795,
                0.6404310377834554,
                -0.3121984057124209
            ]
        },
        {
            "positions": [
                0.4014800665145586,
                -1.7143706496928837,
                0.6611682094322917,
                -0.2839318179382532,
                0.5560605255538958,
                -0.3449039217815295
            ]
        },
        {
            "positions": [
                0.2987069413203315,
                -1.6925097455123281,
                0.7319573080446463,
                -0.20903485032446834,
                0.47169001332433624,
                -0.37760943785063816
            ]
        },
        {
            "positions": [
                0.1959338161261045,
                -1.6706488413317726,
                0.802746406657001,
                -0.1341378827106834,
                0.38731950109477653,
                -0.4103149539197468
            ]
        },
        {
            "positions": [
                0.0931606909318774,
                -1.648787937151217,
                0.8735355052693556,
                -0.05924091509689855,
                0.30294898886521693,
                -0.44302046998885536
            ]
        },
        {
            "positions": [
                -0.00961243426234959,
                -1.6269270329706613,
                0.9443246038817104,
                0.015656052516886287,
                0.21857847663565722,
                -0.475725986057964
            ]
        },
        {
            "positions": [
                -0.1123855594565768,
                -1.6050661287901058,
                1.015113702494065,
                0.09055302013067112,
                0.1342079644060976,
                -0.5084315021270727
            ]
        },
        {
            "positions": [
                -0.21515868465080357,
                -1.5832052246095503,
                1.0859028011064196,
                0.16544998774445585,
                0.04983745217653812,
                -0.5411370181961812
            ]
        },
        {
            "positions": [
                -0.3179318098450308,
                -1.5613443204289947,
                1.1566918997187743,
                0.2403469553582407,
                -0.03453306005302159,
                -0.5738425342652899
            ]
        },
        {
            "positions": [
                -0.42070493503925777,
                -1.539483416248439,
                1.227480998331129,
                0.31524392297202564,
                -0.1189035722825813,
                -0.6065480503343985
            ]
        },
        {
            "positions": [
                -0.523478060233485,
                -1.5176225120678835,
                1.2982700969434835,
                0.39014089058581036,
                -0.2032740845121408,
                -0.6392535664035071
            ]
        },
        {
            "positions": [
                -0.626251185427712,
                -1.495761607887328,
                1.3690591955558382,
                0.4650378581995953,
                -0.2876445967417005,
                -0.6719590824726157
            ]
        },
        {
            "positions": [
                -0.729024310621939,
                -1.4739007037067724,
                1.439848294168193,
                0.5399348258133803,
                -0.3720151089712602,
                -0.7046645985417244
            ]
        },
        {
            "positions": [
                -0.8317974358161662,
                -1.4520397995262169,
                1.5106373927805474,
                0.614831793427165,
                -0.4563856212008197,
                -0.737370114610833
            ]
        },
        {
            "positions": [
                -0.9345705610103932,
                -1.4301788953456611,
                1.5814264913929021,
                0.6897287610409499,
                -0.5407561334303794,
                -0.7700756306799416
            ]
        },
        {
            "positions": [
                -1.0373436862046201,
                -1.4083179911651056,
                1.6522155900052569,
                0.7646257286547347,
                -0.6251266456599391,
                -0.8027811467490502
            ]
        },
        {
            "positions": [
                -1.1401168113988471,
                -1.38645708698455,
                1.7230046886176116,
                0.8395226962685196,
                -0.7094971578894989,
                -0.8354866628181589
            ]
        },
        {
            "positions": [
                -1.2428899365930746,
                -1.3645961828039943,
                1.793793787229966,
                0.9144196638823046,
                -0.7938676701190583,
                -0.8681921788872675
            ]
        },
        {
            "positions": [
                -1.3456630617873016,
                -1.3427352786234388,
                1.8645828858423208,
                0.9893166314960893,
                -0.8782381823486181,
                -0.9008976949563761
            ]
        },
        {
            "positions": [
                -1.4484361869815285,
                -1.3208743744428832,
                1.9353719844546755,
                1.0642135991098742,
                -0.9626086945781775,
                -0.9336032110254847
            ]
        },
        {
            "positions": [
                -1.551209312175755,
                -1.2990134702623277,
                2.00616108306703,
                1.1391105667236587,
                -1.046979206807737,
                -0.9663087270945933
            ]
        },
        {
            "positions": [
                -1.6539824373699825,
                -1.2771525660817722,
                2.0769501816793845,
                1.2140075343374435,
                -1.1313497190372965,
                -0.9990142431637019
            ]
        },
        {
            "positions": [
                -1.7567555625642095,
                -1.2552916619012167,
                2.147739280291739,
                1.2889045019512284,
                -1.2157202312668565,
                -1.0317197592328105
            ]
        },
        {
            "positions": [
                -1.8595286877584365,
                -1.2334307577206611,
                2.218528378904094,
                1.3638014695650134,
                -1.300090743496416,
                -1.0644252753019192
            ]
        },
        {
            "positions": [
                -1.9623018129526635,
                -1.2115698535401054,
                2.2893174775164487,
                1.4386984371787983,
                -1.384461255725976,
                -1.0971307913710278
            ]
        },
        {
            "positions": [
                -2.0650749381468905,
                -1.1897089493595498,
                2.360106576128803,
                1.5135954047925833,
                -1.4688317679555354,
                -1.1298363074401365
            ]
        },
        {
            "positions": [
                -2.167848063341118,
                -1.167848045178994,
                2.4308956747411576,
                1.5884923724063678,
                -1.5532022801850949,
                -1.162541823509245
            ]
        },
        {
            "positions": [
                -2.270621188535345,
                -1.1459871409984386,
                2.5016847733535124,
                1.6633893400201527,
                -1.6375727924146548,
                -1.1952473395783538
            ]
        },
        {
            "positions": [
                -2.373394313729572,
                -1.124126236817883,
                2.572473871965867,
                1.7382863076339379,
                -1.7219433046442143,
                -1.2279528556474624
            ]
        },
        {
            "positions": [
                -2.2594371595900484,
                -1.1531741051712516,
                2.565785886370549,
                1.657004518237164,
                -1.6323100504142727,
                -1.298722167505329
            ]
        },
        {
            "positions": [
                -2.145480005450525,
                -1.18222197352462,
                2.5590979007752304,
                1.5757227288403903,
                -1.542676796184331,
                -1.3694914793631958
            ]
        },
        {
            "positions": [
                -2.0315228513110015,
                -1.2112698418779886,
                2.5524099151799122,
                1.4944409394436164,
                -1.4530435419543892,
                -1.4402607912210623
            ]
        },
        {
            "positions": [
                -1.9175656971714778,
                -1.240317710231357,
                2.545721929584594,
                1.4131591500468428,
                -1.3634102877244476,
                -1.511030103078929
            ]
        },
        {
            "positions": [
                -1.8036085430319544,
                -1.2693655785847255,
                2.539033943989276,
                1.331877360650069,
                -1.273777033494506,
                -1.5817994149367958
            ]
        },
        {
            "positions": [
                -1.689651388892431,
                -1.298413446938094,
                2.5323459583939574,
                1.2505955712532952,
                -1.1841437792645642,
                -1.6525687267946623
            ]
        },
        {
            "positions": [
                -1.5756942347529073,
                -1.3274613152914625,
                2.5256579727986392,
                1.1693137818565216,
                -1.0945105250346225,
                -1.723338038652529
            ]
        },
        {
            "positions": [
                -1.4617370806133838,
                -1.3565091836448309,
                2.518969987203321,
                1.0880319924597477,
                -1.004877270804681,
                -1.7941073505103957
            ]
        },
        {
            "positions": [
                -1.3477799264738604,
                -1.3855570519981995,
                2.5122820016080025,
                1.0067502030629738,
                -0.9152440165747392,
                -1.8648766623682622
            ]
        },
        {
            "positions": [
                -1.233822772334337,
                -1.4146049203515678,
                2.5055940160126844,
                0.9254684136662,
                -0.8256107623447976,
                -1.935645974226129
            ]
        },
        {
            "positions": [
                -1.1198656181948135,
                -1.4436527887049362,
                2.4989060304173663,
                0.8441866242694263,
                -0.7359775081148558,
                -2.0064152860839957
            ]
        },
        {
            "positions": [
                -1.00590846405529,
                -1.4727006570583048,
                2.4922180448220477,
                0.7629048348726525,
                -0.6463442538849142,
                -2.077184597941862
            ]
        },
        {
            "positions": [
                -0.8919513099157663,
                -1.5017485254116734,
                2.4855300592267295,
                0.6816230454758787,
                -0.5567109996549724,
                -2.147953909799729
            ]
        },
        {
            "positions": [
                -0.7779941557762429,
                -1.5307963937650417,
                2.4788420736314114,
                0.600341256079105,
                -0.4670777454250308,
                -2.2187232216575956
            ]
        },
        {
            "positions": [
                -0.6640370016367192,
                -1.5598442621184103,
                2.4721540880360933,
                0.5190594666823309,
                -0.37744449119508894,
                -2.289492533515462
            ]
        },
        {
            "positions": [
                -0.550079847497196,
                -1.5888921304717787,
                2.4654661024407747,
                0.4377776772855573,
                -0.28781123696514754,
                -2.360261845373329
            ]
        },
        {
            "positions": [
                -0.4361226933576723,
                -1.6179399988251473,
                2.4587781168454566,
                0.3564958878887834,
                -0.1981779827352057,
                -2.431031157231196
            ]
        },
        {
            "positions": [
                -0.32216553921814883,
                -1.6469878671785156,
                2.4520901312501384,
                0.27521409849200973,
                -0.10854472850526409,
                -2.501800469089062
            ]
        },
        {
            "positions": [
                -0.20820838507862538,
                -1.6760357355318842,
                2.44540214565482,
                0.19393230909523584,
                -0.01891147427532225,
                -2.572569780946929
            ]
        },
        {
            "positions": [
                -0.09425123093910193,
                -1.7050836038852526,
                2.4387141600595017,
                0.11265051969846218,
                0.07072177995461915,
                -2.6433390928047955
            ]
        },
        {
            "positions": [
                0.019705923200421527,
                -1.7341314722386212,
                2.4320261744641836,
                0.0313687303016883,
                0.16035503418456099,
                -2.7141084046626625
            ]
        },
        {
            "positions": [
                0.13366307733994498,
                -1.7631793405919896,
                2.4253381888688654,
                -0.049913059095085366,
                0.2499882884145026,
                -2.784877716520529
            ]
        },
        {
            "positions": [
                0.24762023147946888,
                -1.7922272089453581,
                2.418650203273547,
                -0.13119484849185925,
                0.3396215426444442,
                -2.855647028378396
            ]
        },
        {
            "positions": [
                0.3615773856189919,
                -1.8212750772987265,
                2.4119622176782287,
                -0.2124766378886329,
                0.42925479687438584,
                -2.926416340236262
            ]
        },
        {
            "positions": [
                0.4755345397585158,
                -1.850322945652095,
                2.4052742320829106,
                -0.2937584272854066,
                0.5188880511043279,
                -2.997185652094129
            ]
        },
        {
            "positions": [
                0.5894916938980392,
                -1.8793708140054637,
                2.398586246487592,
                -0.37504021668218046,
                0.6085213053342695,
                -3.067954963951996
            ]
        },
        {
            "positions": [
                0.7034488480375626,
                -1.908418682358832,
                2.391898260892274,
                -0.45632200607895446,
                0.6981545595642112,
                -3.1387242758098624
            ]
        }
    ]
}