{
    "goal": {
        "global_pose": {
            "orientation": {
                "w": -0.4816463035849501,
                "x": 0.5182115481033762,
                "y": 0.4908360881923453,
                "z": -0.5084816262002911
            },
            "position": {
                "x": -0.8240239810943604,
                "y": 0.19912469901144506,
                "z": 0.16403168439865112
            }
        },
        "name": "move_to_storage_D"
    },
    "id": "ProjEST_move_to_storage_D_34",
    "joint_names": [
        "shoulder_pan_joint",
        "shoulder_lift_joint",
        "elbow_joint",
        "wrist_1_joint",
        "wrist_2_joint",
        "wrist_3_joint"
    ],
    "metrics": {
        "cart_traj_len": 3.826488729622027,
        "distance_elbow_joint": 4.20833971335758,
        "distance_shoulder_lift_joint": 1.2659987707198646,
        "distance_shoulder_pan_joint": 2.812139477907261,
        "distance_wrist_1_joint": 2.3036539631381974,
        "distance_wrist_2_joint": 0.8683630959835854,
        "distance_wrist_3_joint": 3.4448357092869073,
        "smoothness": 0.12240448877656245,
        "time": 0.152527176,
        "traj_len": 3.8604832249853636,
        "weighted_distance": 4.996500696296257
    },
    "planner": "ProjEST",
    "start": {
        "state": {
            "elbow_joint": -2.384821997420982,
            "shoulder_lift_joint": -2.2788054674887404,
            "shoulder_pan_joint": -0.18546946417610016,
            "wrist_1_joint": 1.4845937964226739,
            "wrist_2_joint": 0.1789877726866377,
            "wrist_3_joint": 0.03710572555276528
        }
    },
    "waypoints": [
        {
            "positions": [
                -0.18546946417610016,
                -2.2788054674887404,
                -2.384821997420982,
                1.4845937964226739,
                0.1789877726866377,
                0.03710572555276528
            ]
        },
        {
            "positions": [
                -0.041477475230795646,
                -2.2354620759088366,
                -2.2884196581564247,
                1.490850718868037,
                0.20301458670791447,
                -0.012537059403190894
            ]
        },
        {
            "positions": [
                0.10251451371450887,
                -2.1921186843289324,
                -2.192017318891867,
                1.4971076413134004,
                0.22704140072919127,
                -0.062179844359147064
            ]
        },
        {
            "positions": [
                0.2465065026598134,
                -2.1487752927490287,
                -2.09561497962731,
                1.5033645637587636,
                0.25106821475046803,
                -0.11182262931510324
            ]
        },
        {
            "positions": [
                0.3158515039540828,
                -2.1171734922609633,
                -1.9829623552105256,
                1.437242055200604,
                0.27206259148355144,
                -0.025822861867425384
            ]
        },
        {
            "positions": [
                0.3851965052483522,
                -2.0855716917728984,
                -1.8703097307937415,
                1.3711195466424446,
                0.2930569682166348,
                0.060176905580252474
            ]
        },
        {
            "positions": [
                0.4545415065426216,
                -2.053969891284833,
                -1.7576571063769573,
                1.304997038084285,
                0.3140513449497182,
                0.1461766730279303
            ]
        },
        {
            "positions": [
                0.5238865078368911,
                -2.022368090796768,
                -1.6450044819601732,
                1.2388745295261256,
                0.3350457216828016,
                0.2321764404756082
            ]
        },
        {
            "positions": [
                0.5932315091311604,
                -1.9907662903087027,
                -1.532351857543389,
                1.172752020967966,
                0.356040098415885,
                0.31817620792328605
            ]
        },
        {
            "positions": [
                0.6625765104254298,
                -1.9591644898206375,
                -1.4196992331266047,
                1.1066295124098067,
                0.3770344751489684,
                0.40417597537096384
            ]
        },
        {
            "positions": [
                0.7319215117196992,
                -1.9275626893325724,
                -1.3070466087098207,
                1.040507003851647,
                0.3980288518820517,
                0.49017574281864174
            ]
        },
        {
            "positions": [
                0.8012665130139687,
                -1.895960888844507,
                -1.1943939842930367,
                0.9743844952934877,
                0.4190232286151352,
                0.5761755102663196
            ]
        },
        {
            "positions": [
                0.870611514308238,
                -1.8643590883564418,
                -1.0817413598762524,
                0.9082619867353282,
                0.44001760534821854,
                0.6621752777139973
            ]
        },
        {
            "positions": [
                0.9399565156025074,
                -1.8327572878683767,
                -0.9690887354594682,
                0.8421394781771687,
                0.46101198208130195,
                0.7481750451616753
            ]
        },
        {
            "positions": [
                1.0093015168967767,
                -1.8011554873803115,
                -0.8564361110426841,
                0.7760169696190092,
                0.4820063588143853,
                0.8341748126093531
            ]
        },
        {
            "positions": [
                1.0786465181910463,
                -1.7695536868922463,
                -0.7437834866258999,
                0.7098944610608496,
                0.5030007355474687,
                0.9201745800570309
            ]
        },
        {
            "positions": [
                1.1479915194853156,
                -1.737951886404181,
                -0.6311308622091159,
                0.6437719525026903,
                0.5239951122805521,
                1.0061743475047087
            ]
        },
        {
            "positions": [
                1.217336520779585,
                -1.7063500859161158,
                -0.5184782377923316,
                0.5776494439445307,
                0.5449894890136355,
                1.0921741149523867
            ]
        },
        {
            "positions": [
                1.2866815220738543,
                -1.6747482854280507,
                -0.40582561337554757,
                0.5115269353863713,
                0.5659838657467189,
                1.1781738824000645
            ]
        },
        {
            "positions": [
                1.356026523368124,
                -1.6431464849399853,
                -0.2931729889587633,
                0.4454044268282118,
                0.5869782424798022,
                1.2641736498477425
            ]
        },
        {
            "positions": [
                1.4253715246623933,
                -1.6115446844519203,
                -0.18052036454197906,
                0.3792819182700522,
                0.6079726192128856,
                1.35017341729542
            ]
        },
        {
            "positions": [
                1.4947165259566626,
                -1.579942883963855,
                -0.06786774012519503,
                0.3131594097118928,
                0.6289669959459689,
                1.4361731847430979
            ]
        },
        {
            "positions": [
                1.5640615272509322,
                -1.5483410834757898,
                0.04478488429158922,
                0.24703690115373322,
                0.6499613726790525,
                1.522172952190776
            ]
        },
        {
            "positions": [
                1.6334065285452015,
                -1.5167392829877246,
                0.15743750870837347,
                0.18091439259557385,
                0.6709557494121359,
                1.6081727196384539
            ]
        },
        {
            "positions": [
                1.7027515298394709,
                -1.4851374824996593,
                0.2700901331251573,
                0.11479188403741425,
                0.6919501261452192,
                1.6941724870861317
            ]
        },
        {
            "positions": [
                1.7720965311337402,
                -1.4535356820115943,
                0.38274275754194154,
                0.04866937547925487,
                0.7129445028783026,
                1.7801722545338095
            ]
        },
        {
            "positions": [
                1.8414415324280098,
                -1.421933881523529,
                0.49539538195872623,
                -0.017453133078904726,
                0.733938879611386,
                1.8661720219814875
            ]
        },
        {
            "positions": [
                1.9107865337222791,
                -1.3903320810354638,
                0.60804800637551,
                -0.08357564163706432,
                0.7549332563444694,
                1.952171789429165
            ]
        },
        {
            "positions": [
                1.9801315350165485,
                -1.3587302805473986,
                0.7207006307922943,
                -0.1496981501952237,
                0.7759276330775527,
                2.038171556876843
            ]
        },
        {
            "positions": [
                2.049476536310818,
                -1.3271284800593333,
                0.8333532552090781,
                -0.21582065875338308,
                0.7969220098106361,
                2.1241713243245206
            ]
        },
        {
            "positions": [
                2.118821537605087,
                -1.295526679571268,
                0.9460058796258628,
                -0.2819431673115427,
                0.8179163865437196,
                2.210171091772199
            ]
        },
        {
            "positions": [
                2.1881665388993565,
                -1.263924879083203,
                1.0586585040426466,
                -0.3480656758697023,
                0.8389107632768029,
                2.2961708592198766
            ]
        },
        {
            "positions": [
                2.257511540193626,
                -1.2323230785951378,
                1.1713111284594309,
                -0.41418818442786165,
                0.8599051400098864,
                2.382170626667554
            ]
        },
        {
            "positions": [
                2.3268565414878952,
                -1.2007212781070726,
                1.2839637528762147,
                -0.480310692986021,
                0.8808995167429697,
                2.468170394115232
            ]
        },
        {
            "positions": [
                2.396201542782165,
                -1.1691194776190073,
                1.3966163772929994,
                -0.5464332015441808,
                0.9018938934760532,
                2.55417016156291
            ]
        },
        {
            "positions": [
                2.4655465440764344,
                -1.137517677130942,
                1.5092690017097832,
                -0.61255571010234,
                0.9228882702091366,
                2.6401699290105882
            ]
        },
        {
            "positions": [
                2.5348915453707037,
                -1.105915876642877,
                1.6219216261265674,
                -0.6786782186604996,
                0.9438826469422199,
                2.726169696458266
            ]
        },
        {
            "positions": [
                2.565484368157523,
                -1.0748794833515432,
                1.6891203227299108,
                -0.712958356454781,
                0.9783720541848876,
                2.878808039340156
            ]
        },
        {
            "positions": [
                2.596077190944342,
                -1.0438430900602096,
                1.756319019333254,
                -0.7472384942490625,
                1.0128614614275553,
                3.031446382222046
            ]
        },
        {
            "positions": [
                2.626670013731161,
                -1.0128066967688758,
                1.8235177159365974,
                -0.7815186320433439,
                1.047350868670223,
                3.184084725103936
            ]
        }
    ]
}