{
    "goal": {
        "global_pose": {
            "orientation": {
                "w": -0.4816463035849501,
                "x": 0.5182115481033762,
                "y": 0.4908360881923453,
                "z": -0.5084816262002911
            },
            "position": {
                "x": -0.8240239810943604,
                "y": 0.19912469901144506,
                "z": 0.16403168439865112
            }
        },
        "name": "move_to_storage_D"
    },
    "id": "ProjEST_move_to_storage_D_2",
    "joint_names": [
        "shoulder_pan_joint",
        "shoulder_lift_joint",
        "elbow_joint",
        "wrist_1_joint",
        "wrist_2_joint",
        "wrist_3_joint"
    ],
    "metrics": {
        "cart_traj_len": 3.4019405960053577,
        "distance_elbow_joint": 2.3892250158498367,
        "distance_shoulder_lift_joint": 2.1588029981377077,
        "distance_shoulder_pan_joint": 2.3656315174786804,
        "distance_wrist_1_joint": 3.83439386691716,
        "distance_wrist_2_joint": 2.84987732700141,
        "distance_wrist_3_joint": 3.1162109034428123,
        "smoothness": 0.30918306966402676,
        "time": 0.14026745699999998,
        "traj_len": 4.08829324154073,
        "weighted_distance": 5.443421224710778
    },
    "planner": "ProjEST",
    "start": {
        "state": {
            "elbow_joint": -2.384821997420982,
            "shoulder_lift_joint": -2.2788054674887404,
            "shoulder_pan_joint": -0.18546946417610016,
            "wrist_1_joint": 1.4845937964226739,
            "wrist_2_joint": 0.1789877726866377,
            "wrist_3_joint": 0.03710572555276528
        }
    },
    "waypoints": [
        {
            "positions": [
                -0.18546946417610016,
                -2.2788054674887404,
                -2.384821997420982,
                1.4845937964226739,
                0.1789877726866377,
                0.03710572555276528
            ]
        },
        {
            "positions": [
                -0.1576227353112421,
                -2.261301387012847,
                -2.3811149874128894,
                1.4897712035813635,
                0.194609185503486,
                0.003168820599790491
            ]
        },
        {
            "positions": [
                -0.08076310474049378,
                -2.1902038469734166,
                -2.2893098147227953,
                1.4121955652987137,
                0.22697974557546807,
                -0.02352920061888382
            ]
        },
        {
            "positions": [
                -0.003903474169745458,
                -2.1191063069339857,
                -2.197504642032701,
                1.334619927016064,
                0.25935030564745015,
                -0.05022722183755813
            ]
        },
        {
            "positions": [
                0.07295615640100286,
                -2.0480087668945552,
                -2.105699469342607,
                1.2570442887334141,
                0.29172086571943223,
                -0.07692524305623244
            ]
        },
        {
            "positions": [
                0.14981578697175119,
                -1.9769112268551248,
                -2.013894296652513,
                1.1794686504507643,
                0.3240914257914143,
                -0.10362326427490676
            ]
        },
        {
            "positions": [
                0.22667541754249948,
                -1.905813686815694,
                -1.9220891239624185,
                1.1018930121681145,
                0.3564619858633964,
                -0.13032128549358107
            ]
        },
        {
            "positions": [
                0.30353504811324783,
                -1.8347161467762634,
                -1.8302839512723241,
                1.0243173738854645,
                0.38883254593537847,
                -0.15701930671225536
            ]
        },
        {
            "positions": [
                0.3803946786839962,
                -1.763618606736833,
                -1.73847877858223,
                0.9467417356028147,
                0.42120310600736055,
                -0.18371732793092968
            ]
        },
        {
            "positions": [
                0.4572543092547445,
                -1.6925210666974022,
                -1.6466736058921358,
                0.8691660973201649,
                0.45357366607934263,
                -0.210415349149604
            ]
        },
        {
            "positions": [
                0.5341139398254928,
                -1.6214235266579715,
                -1.5548684332020417,
                0.7915904590375151,
                0.4859442261513247,
                -0.23711337036827831
            ]
        },
        {
            "positions": [
                0.6109735703962411,
                -1.550325986618541,
                -1.4630632605119476,
                0.7140148207548653,
                0.5183147862233068,
                -0.2638113915869526
            ]
        },
        {
            "positions": [
                0.6878332009669894,
                -1.4792284465791103,
                -1.3712580878218532,
                0.6364391824722154,
                0.5506853462952889,
                -0.2905094128056269
            ]
        },
        {
            "positions": [
                0.7646928315377377,
                -1.4081309065396796,
                -1.279452915131759,
                0.5588635441895656,
                0.5830559063672709,
                -0.3172074340243012
            ]
        },
        {
            "positions": [
                0.841552462108486,
                -1.3370333665002492,
                -1.187647742441665,
                0.4812879059069157,
                0.615426466439253,
                -0.3439054552429755
            ]
        },
        {
            "positions": [
                0.9184120926792345,
                -1.2659358264608185,
                -1.0958425697515706,
                0.40371226762426593,
                0.6477970265112352,
                -0.3706034764616498
            ]
        },
        {
            "positions": [
                0.9952717232499828,
                -1.194838286421388,
                -1.0040373970614764,
                0.32613662934161614,
                0.6801675865832172,
                -0.39730149768032413
            ]
        },
        {
            "positions": [
                1.072131353820731,
                -1.1237407463819573,
                -0.9122322243713822,
                0.24856099105896634,
                0.7125381466551993,
                -0.42399951889899845
            ]
        },
        {
            "positions": [
                1.0310931797658478,
                -1.1609162381238434,
                -0.946181677808428,
                0.15270890782800067,
                0.6267482595058346,
                -0.5223367655282966
            ]
        },
        {
            "positions": [
                0.9900550057109646,
                -1.1980917298657294,
                -0.9801311312454738,
                0.05685682459703503,
                0.5409583723564697,
                -0.6206740121575947
            ]
        },
        {
            "positions": [
                0.9490168316560813,
                -1.2352672216076157,
                -1.0140805846825196,
                -0.03899525863393066,
                0.45516848520710496,
                -0.7190112587868926
            ]
        },
        {
            "positions": [
                0.9079786576011981,
                -1.2724427133495018,
                -1.0480300381195653,
                -0.13484734186489628,
                0.3693785980577402,
                -0.8173485054161908
            ]
        },
        {
            "positions": [
                0.8669404835463148,
                -1.3096182050913878,
                -1.0819794915566112,
                -0.23069942509586194,
                0.2835887109083754,
                -0.9156857520454889
            ]
        },
        {
            "positions": [
                0.8259023094914315,
                -1.3467936968332739,
                -1.115928944993657,
                -0.32655150832682767,
                0.1977988237590106,
                -1.014022998674787
            ]
        },
        {
            "positions": [
                0.7848641354365482,
                -1.38396918857516,
                -1.1498783984307028,
                -0.4224035915577933,
                0.11200893660964584,
                -1.1123602453040848
            ]
        },
        {
            "positions": [
                0.743825961381665,
                -1.4211446803170462,
                -1.1838278518677485,
                -0.5182556747887589,
                0.026219049460281085,
                -1.210697491933383
            ]
        },
        {
            "positions": [
                0.7027877873267818,
                -1.458320172058932,
                -1.2177773053047942,
                -0.6141077580197246,
                -0.05957083768908367,
                -1.3090347385626813
            ]
        },
        {
            "positions": [
                0.6617496132718985,
                -1.4954956638008183,
                -1.2517267587418401,
                -0.7099598412506902,
                -0.14536072483844853,
                -1.4073719851919793
            ]
        },
        {
            "positions": [
                0.6207114392170152,
                -1.5326711555427044,
                -1.285676212178886,
                -0.805811924481656,
                -0.23115061198781328,
                -1.5057092318212772
            ]
        },
        {
            "positions": [
                0.5796732651621319,
                -1.5698466472845904,
                -1.3196256656159318,
                -0.9016640077126217,
                -0.31694049913717814,
                -1.6040464784505755
            ]
        },
        {
            "positions": [
                0.5386350911072487,
                -1.6070221390264765,
                -1.3535751190529774,
                -0.9975160909435872,
                -0.4027303862865429,
                -1.7023837250798735
            ]
        },
        {
            "positions": [
                0.4975969170523654,
                -1.6441976307683626,
                -1.3875245724900234,
                -1.093368174174553,
                -0.48852027343590765,
                -1.8007209717091714
            ]
        },
        {
            "positions": [
                0.4565587429974821,
                -1.6813731225102488,
                -1.4214740259270693,
                -1.1892202574055186,
                -0.5743101605852724,
                -1.8990582183384697
            ]
        },
        {
            "positions": [
                0.4155205689425989,
                -1.718548614252135,
                -1.455423479364115,
                -1.2850723406364841,
                -0.6601000477346372,
                -1.9973954649677677
            ]
        },
        {
            "positions": [
                0.3744823948877156,
                -1.755724105994021,
                -1.4893729328011607,
                -1.38092442386745,
                -0.7458899348840021,
                -2.0957327115970656
            ]
        },
        {
            "positions": [
                0.3334442208328324,
                -1.792899597735907,
                -1.5233223862382066,
                -1.4767765070984156,
                -0.8316798220333667,
                -2.194069958226364
            ]
        },
        {
            "positions": [
                0.2924060467779491,
                -1.830075089477793,
                -1.5572718396752525,
                -1.5726285903293813,
                -0.9174697091827316,
                -2.292407204855662
            ]
        },
        {
            "positions": [
                0.25136787272306593,
                -1.8672505812196794,
                -1.591221293112298,
                -1.6684806735603468,
                -1.0032595963320965,
                -2.3907444514849603
            ]
        },
        {
            "positions": [
                0.21032969866818263,
                -1.9044260729615654,
                -1.625170746549344,
                -1.7643327567913127,
                -1.0890494834814612,
                -2.4890816981142585
            ]
        },
        {
            "positions": [
                0.16929152461329944,
                -1.9416015647034515,
                -1.6591201999863898,
                -1.8601848400222782,
                -1.174839370630826,
                -2.587418944743556
            ]
        },
        {
            "positions": [
                0.12825335055841602,
                -1.9787770564453377,
                -1.6930696534234355,
                -1.9560369232532442,
                -1.2606292577801907,
                -2.685756191372854
            ]
        },
        {
            "positions": [
                0.08721517650353283,
                -2.0159525481872236,
                -1.7270191068604812,
                -2.0518890064842097,
                -1.3464191449295555,
                -2.7840934380021523
            ]
        },
        {
            "positions": [
                0.04617700244864964,
                -2.05312803992911,
                -1.7609685602975271,
                -2.147741089715175,
                -1.4322090320789203,
                -2.8824306846314505
            ]
        },
        {
            "positions": [
                0.005138828393766337,
                -2.0903035316709957,
                -1.794918013734573,
                -2.2435931729461407,
                -1.517998919228285,
                -2.9807679312607487
            ]
        },
        {
            "positions": [
                -0.03589934566111694,
                -2.127479023412882,
                -1.8288674671716187,
                -2.3394452561771066,
                -1.60378880637765,
                -3.0791051778900465
            ]
        }
    ]
}