{
    "goal": {
        "global_pose": {
            "orientation": {
                "w": -0.4816463035849501,
                "x": 0.5182115481033762,
                "y": 0.4908360881923453,
                "z": -0.5084816262002911
            },
            "position": {
                "x": -0.8240239810943604,
                "y": 0.19912469901144506,
                "z": 0.16403168439865112
            }
        },
        "name": "move_to_storage_D"
    },
    "id": "ProjEST_move_to_storage_D_90",
    "joint_names": [
        "shoulder_pan_joint",
        "shoulder_lift_joint",
        "elbow_joint",
        "wrist_1_joint",
        "wrist_2_joint",
        "wrist_3_joint"
    ],
    "metrics": {
        "cart_traj_len": 4.1738914663167614,
        "distance_elbow_joint": 4.375291755218063,
        "distance_shoulder_lift_joint": 1.26503641569883,
        "distance_shoulder_pan_joint": 2.8411707473067294,
        "distance_wrist_1_joint": 2.5957958158932968,
        "distance_wrist_2_joint": 3.4673350613759073,
        "distance_wrist_3_joint": 4.96009073209093,
        "smoothness": 0.1886792812222064,
        "time": 0.12021394399999999,
        "traj_len": 4.416414895317667,
        "weighted_distance": 5.957183299935871
    },
    "planner": "ProjEST",
    "start": {
        "state": {
            "elbow_joint": -2.384821997420982,
            "shoulder_lift_joint": -2.2788054674887404,
            "shoulder_pan_joint": -0.18546946417610016,
            "wrist_1_joint": 1.4845937964226739,
            "wrist_2_joint": 0.1789877726866377,
            "wrist_3_joint": 0.03710572555276528
        }
    },
    "waypoints": [
        {
            "positions": [
                -0.18546946417610016,
                -2.2788054674887404,
                -2.384821997420982,
                1.4845937964226739,
                0.1789877726866377,
                0.03710572555276528
            ]
        },
        {
            "positions": [
                -0.1084318430069457,
                -2.255275086424093,
                -2.2664056591869848,
                1.4143323831215884,
                0.24911634440875746,
                0.00781525854095957
            ]
        },
        {
            "positions": [
                -0.031394221837791225,
                -2.2317447053594455,
                -2.1479893209529877,
                1.3440709698205027,
                0.31924491613087724,
                -0.021475208470846135
            ]
        },
        {
            "positions": [
                0.045643399331363216,
                -2.2082143242947976,
                -2.029572982718991,
                1.2738095565194172,
                0.38937348785299697,
                -0.05076567548265184
            ]
        },
        {
            "positions": [
                0.12268102050051771,
                -2.18468394323015,
                -1.911156644484994,
                1.2035481432183315,
                0.4595020595751167,
                -0.08005614249445756
            ]
        },
        {
            "positions": [
                0.19971864166967213,
                -2.1611535621655027,
                -1.7927403062509968,
                1.133286729917246,
                0.5296306312972364,
                -0.10934660950626324
            ]
        },
        {
            "positions": [
                0.2767562628388266,
                -2.1376231811008553,
                -1.6743239680169997,
                1.0630253166161605,
                0.5997592030193561,
                -0.13863707651806895
            ]
        },
        {
            "positions": [
                0.3537938840079811,
                -2.1140928000362074,
                -1.5559076297830028,
                0.9927639033150748,
                0.669887774741476,
                -0.16792754352987466
            ]
        },
        {
            "positions": [
                0.4308315051771356,
                -2.09056241897156,
                -1.4374912915490057,
                0.9225024900139892,
                0.7400163464635957,
                -0.19721801054168037
            ]
        },
        {
            "positions": [
                0.50786912634629,
                -2.0670320379069125,
                -1.3190749533150086,
                0.8522410767129036,
                0.8101449181857154,
                -0.2265084775534861
            ]
        },
        {
            "positions": [
                0.5849067475154444,
                -2.043501656842265,
                -1.2006586150810117,
                0.7819796634118181,
                0.8802734899078352,
                -0.2557989445652918
            ]
        },
        {
            "positions": [
                0.6619443686845989,
                -2.0199712757776176,
                -1.0822422768470146,
                0.7117182501107324,
                0.950402061629955,
                -0.28508941157709755
            ]
        },
        {
            "positions": [
                0.7389819898537533,
                -1.9964408947129697,
                -0.9638259386130177,
                0.6414568368096469,
                1.0205306333520747,
                -0.3143798785889032
            ]
        },
        {
            "positions": [
                0.8160196110229079,
                -1.9729105136483223,
                -0.8454096003790206,
                0.5711954235085613,
                1.0906592050741946,
                -0.3436703456007089
            ]
        },
        {
            "positions": [
                0.8930572321920625,
                -1.9493801325836748,
                -0.7269932621450237,
                0.5009340102074759,
                1.1607877767963142,
                -0.3729608126125146
            ]
        },
        {
            "positions": [
                0.9700948533612168,
                -1.9258497515190272,
                -0.6085769239110266,
                0.43067259690639026,
                1.230916348518434,
                -0.40225127962432033
            ]
        },
        {
            "positions": [
                1.0471324745303714,
                -1.9023193704543797,
                -0.49016058567702947,
                0.36041118360530455,
                1.3010449202405538,
                -0.43154174663612604
            ]
        },
        {
            "positions": [
                1.1241700956995258,
                -1.878788989389732,
                -0.3717442474430328,
                0.29014977030421907,
                1.3711734919626735,
                -0.4608322136479317
            ]
        },
        {
            "positions": [
                1.2012077168686803,
                -1.8552586083250846,
                -0.25332790920903525,
                0.21988835700313336,
                1.4413020636847933,
                -0.4901226806597375
            ]
        },
        {
            "positions": [
                1.2782453380378347,
                -1.8317282272604372,
                -0.13491157097503859,
                0.14962694370204788,
                1.5114306354069131,
                -0.5194131476715431
            ]
        },
        {
            "positions": [
                1.355282959206989,
                -1.8081978461957895,
                -0.016495232741041477,
                0.07936553040096239,
                1.5815592071290328,
                -0.5487036146833488
            ]
        },
        {
            "positions": [
                1.4323205803761436,
                -1.784667465131142,
                0.10192110549295563,
                0.009104117099876907,
                1.6516877788511524,
                -0.5779940816951545
            ]
        },
        {
            "positions": [
                1.5093582015452982,
                -1.7611370840664944,
                0.22033744372695274,
                -0.06115729620120902,
                1.7218163505732724,
                -0.6072845487069604
            ]
        },
        {
            "positions": [
                1.5863958227144526,
                -1.737606703001847,
                0.33875378196094985,
                -0.1314187095022945,
                1.791944922295392,
                -0.636575015718766
            ]
        },
        {
            "positions": [
                1.663433443883607,
                -1.7140763219371993,
                0.4571701201949465,
                -0.20168012280338,
                1.8620734940175117,
                -0.6658654827305717
            ]
        },
        {
            "positions": [
                1.7404710650527615,
                -1.6905459408725518,
                0.5755864584289436,
                -0.2719415361044655,
                1.9322020657396315,
                -0.6951559497423774
            ]
        },
        {
            "positions": [
                1.8175086862219159,
                -1.6670155598079042,
                0.6940027966629407,
                -0.3422029494055512,
                2.002330637461751,
                -0.7244464167541831
            ]
        },
        {
            "positions": [
                1.8945463073910704,
                -1.6434851787432567,
                0.8124191348969378,
                -0.41246436270663667,
                2.072459209183871,
                -0.7537368837659888
            ]
        },
        {
            "positions": [
                1.971583928560225,
                -1.6199547976786093,
                0.9308354731309345,
                -0.48272577600772215,
                2.142587780905991,
                -0.7830273507777945
            ]
        },
        {
            "positions": [
                2.048621549729379,
                -1.5964244166139616,
                1.0492518113649316,
                -0.5529871893088076,
                2.21271635262811,
                -0.8123178177896002
            ]
        },
        {
            "positions": [
                2.1256591708985337,
                -1.572894035549314,
                1.1676681495989287,
                -0.6232486026098933,
                2.28284492435023,
                -0.8416082848014059
            ]
        },
        {
            "positions": [
                2.2026967920676883,
                -1.5493636544846665,
                1.2860844878329258,
                -0.693510015910979,
                2.35297349607235,
                -0.8708987518132116
            ]
        },
        {
            "positions": [
                2.239284108815073,
                -1.522770315073101,
                1.3379301201052514,
                -0.7148540322558794,
                2.3009297700208218,
                -0.6740061587817376
            ]
        },
        {
            "positions": [
                2.2758714255624573,
                -1.4961769756615353,
                1.389775752377577,
                -0.7361980486007796,
                2.2488860439692937,
                -0.47711356575026365
            ]
        },
        {
            "positions": [
                2.3124587423098415,
                -1.4695836362499697,
                1.4416213846499026,
                -0.75754206494568,
                2.1968423179177656,
                -0.28022097271878965
            ]
        },
        {
            "positions": [
                2.349046059057226,
                -1.442990296838404,
                1.4934670169222282,
                -0.7788860812905803,
                2.1447985918662376,
                -0.08332837968731566
            ]
        },
        {
            "positions": [
                2.385633375804611,
                -1.4163969574268385,
                1.5453126491945537,
                -0.8002300976354806,
                2.0927548658147095,
                0.11356421334415834
            ]
        },
        {
            "positions": [
                2.422220692551995,
                -1.3898036180152729,
                1.5971582814668792,
                -0.8215741139803809,
                2.0407111397631814,
                0.31045680637563233
            ]
        },
        {
            "positions": [
                2.4588080092993794,
                -1.3632102786037072,
                1.6490039137392047,
                -0.8429181303252813,
                1.9886674137116533,
                0.5073493994071063
            ]
        },
        {
            "positions": [
                2.495395326046764,
                -1.3366169391921416,
                1.7008495460115303,
                -0.8642621466701815,
                1.9366236876601253,
                0.7042419924385803
            ]
        },
        {
            "positions": [
                2.5319826427941488,
                -1.310023599780576,
                1.7526951782838558,
                -0.8856061630150819,
                1.8845799616085972,
                0.9011345854700543
            ]
        },
        {
            "positions": [
                2.568569959541533,
                -1.2834302603690104,
                1.8045408105561815,
                -0.9069501793599822,
                1.8325362355570691,
                1.0980271785015283
            ]
        },
        {
            "positions": [
                2.6051572762889172,
                -1.2568369209574448,
                1.8563864428285068,
                -0.9282941957048825,
                1.780492509505541,
                1.294919771533002
            ]
        },
        {
            "positions": [
                2.641744593036302,
                -1.2302435815458792,
                1.9082320751008326,
                -0.9496382120497828,
                1.728448783454013,
                1.4918123645644763
            ]
        },
        {
            "positions": [
                2.640000006774511,
                -1.2031842653263831,
                1.8979523647638015,
                -0.9294427361221776,
                1.6448457052825307,
                1.7029842568578846
            ]
        },
        {
            "positions": [
                2.63825542051272,
                -1.176124949106887,
                1.8876726544267701,
                -0.9092472601945725,
                1.5612426271110487,
                1.914156149151293
            ]
        },
        {
            "positions": [
                2.636510834250929,
                -1.149065632887391,
                1.877392944089739,
                -0.8890517842669673,
                1.4776395489395664,
                2.1253280414447016
            ]
        },
        {
            "positions": [
                2.6347662479891385,
                -1.1220063166678949,
                1.8671132337527077,
                -0.8688563083393621,
                1.3940364707680843,
                2.33649993373811
            ]
        },
        {
            "positions": [
                2.6330216617273474,
                -1.0949470004483985,
                1.8568335234156765,
                -0.8486608324117568,
                1.310433392596602,
                2.547671826031518
            ]
        },
        {
            "positions": [
                2.6312770754655563,
                -1.0678876842289025,
                1.8465538130786454,
                -0.8284653564841516,
                1.2268303144251198,
                2.7588437183249264
            ]
        },
        {
            "positions": [
                2.6295324892037657,
                -1.0408283680094064,
                1.836274102741614,
                -0.8082698805565465,
                1.1432272362536375,
                2.970015610618335
            ]
        },
        {
            "positions": [
                2.6277879029419746,
                -1.0137690517899103,
                1.825994392404583,
                -0.7880744046289413,
                1.0596241580821555,
                3.1811875029117433
            ]
        }
    ]
}