{
    "goal": {
        "global_pose": {
            "orientation": {
                "w": -0.00223480608172531,
                "x": 0.0024358444001904467,
                "y": 0.7094548369677653,
                "z": -0.704743149386269
            },
            "position": {
                "x": 0.6205249238014221,
                "y": -0.6371506643295288,
                "z": 0.19426114857196808
            }
        },
        "name": "move_to_magneteinheit_B"
    },
    "id": "ProjEST_move_to_magneteinheit_B_134",
    "joint_names": [
        "shoulder_pan_joint",
        "shoulder_lift_joint",
        "elbow_joint",
        "wrist_1_joint",
        "wrist_2_joint",
        "wrist_3_joint"
    ],
    "metrics": {
        "cart_traj_len": 4.398570530763902,
        "distance_elbow_joint": 4.210693678255481,
        "distance_shoulder_lift_joint": 1.3923089592319353,
        "distance_shoulder_pan_joint": 3.2814275868916303,
        "distance_wrist_1_joint": 2.723581581930816,
        "distance_wrist_2_joint": 1.409372903740496,
        "distance_wrist_3_joint": 5.938131882666207,
        "smoothness": 0.31136041192385144,
        "time": 4.354539507,
        "traj_len": 4.353793356685244,
        "weighted_distance": 5.913098582276495
    },
    "planner": "ProjEST",
    "start": {
        "state": {
            "elbow_joint": 2.3935871308073637,
            "shoulder_lift_joint": -1.9085141043777403,
            "shoulder_pan_joint": 0.7066247067284167,
            "wrist_1_joint": -0.46782909355067076,
            "wrist_2_joint": 0.7096259085804283,
            "wrist_3_joint": -3.1358149275257428
        }
    },
    "waypoints": [
        {
            "positions": [
                0.7066247067284167,
                -1.9085141043777403,
                2.3935871308073637,
                -0.46782909355067076,
                0.7096259085804283,
                -3.1358149275257428
            ]
        },
        {
            "positions": [
                0.6298295350430796,
                -1.916064734823809,
                2.384827711944311,
                -0.40569743453158114,
                0.7168905321071881,
                -2.9484017894474333
            ]
        },
        {
            "positions": [
                0.5530343633577426,
                -1.9236153652698775,
                2.376068293081259,
                -0.3435657755124915,
                0.7241551556339481,
                -2.7609886513691237
            ]
        },
        {
            "positions": [
                0.47623919167240547,
                -1.9311659957159462,
                2.3673088742182062,
                -0.2814341164934019,
                0.7314197791607079,
                -2.5735755132908142
            ]
        },
        {
            "positions": [
                0.39944401998706835,
                -1.9387166261620146,
                2.3585494553551536,
                -0.21930245747431223,
                0.7386844026874677,
                -2.3861623752125043
            ]
        },
        {
            "positions": [
                0.32264884830173124,
                -1.9462672566080832,
                2.3497900364921014,
                -0.15717079845522258,
                0.7459490262142277,
                -2.198749237134195
            ]
        },
        {
            "positions": [
                0.24585367661639418,
                -1.9538178870541518,
                2.3410306176290487,
                -0.09503913943613296,
                0.7532136497409875,
                -2.0113360990558853
            ]
        },
        {
            "positions": [
                0.18660587627594954,
                -1.921958227619401,
                2.2493102279548456,
                -0.09392080107869026,
                0.7866974427008342,
                -1.8339450193888405
            ]
        },
        {
            "positions": [
                0.1273580759355049,
                -1.89009856818465,
                2.157589838280642,
                -0.09280246272124756,
                0.8201812356606808,
                -1.6565539397217957
            ]
        },
        {
            "positions": [
                0.14821613413285029,
                -1.8571283453909908,
                2.01437857037098,
                -0.15178809370736254,
                0.8015537401118934,
                -1.5574166074786637
            ]
        },
        {
            "positions": [
                0.16907419233019566,
                -1.8241581225973316,
                1.871167302461318,
                -0.2107737246934775,
                0.782926244563106,
                -1.458279275235532
            ]
        },
        {
            "positions": [
                0.18993225052754104,
                -1.7911878998036723,
                1.727956034551656,
                -0.2697593556795925,
                0.7642987490143186,
                -1.3591419429924
            ]
        },
        {
            "positions": [
                0.21079030872488638,
                -1.758217677010013,
                1.584744766641994,
                -0.32874498666570745,
                0.7456712534655312,
                -1.2600046107492684
            ]
        },
        {
            "positions": [
                0.23164836692223173,
                -1.7252474542163538,
                1.441533498732332,
                -0.3877306176518224,
                0.7270437579167438,
                -1.1608672785061365
            ]
        },
        {
            "positions": [
                0.2525064251195771,
                -1.6922772314226946,
                1.2983222308226698,
                -0.44671624863793746,
                0.7084162623679564,
                -1.0617299462630045
            ]
        },
        {
            "positions": [
                0.2733644833169225,
                -1.6593070086290354,
                1.1551109629130079,
                -0.5057018796240523,
                0.6897887668191691,
                -0.9625926140198728
            ]
        },
        {
            "positions": [
                0.29422254151426785,
                -1.626336785835376,
                1.0118996950033459,
                -0.5646875106101673,
                0.6711612712703816,
                -0.8634552817767409
            ]
        },
        {
            "positions": [
                0.3150805997116132,
                -1.5933665630417169,
                0.8686884270936839,
                -0.6236731415962823,
                0.6525337757215943,
                -0.7643179495336091
            ]
        },
        {
            "positions": [
                0.3359386579089586,
                -1.5603963402480576,
                0.7254771591840219,
                -0.6826587725823973,
                0.6339062801728069,
                -0.6651806172904773
            ]
        },
        {
            "positions": [
                0.3567967161063039,
                -1.5274261174543984,
                0.5822658912743599,
                -0.7416444035685122,
                0.6152787846240195,
                -0.5660432850473456
            ]
        },
        {
            "positions": [
                0.37765477430364935,
                -1.4944558946607391,
                0.4390546233646977,
                -0.8006300345546273,
                0.5966512890752321,
                -0.46690595280421365
            ]
        },
        {
            "positions": [
                0.3985128325009947,
                -1.46148567186708,
                0.2958433554550357,
                -0.8596156655407422,
                0.5780237935264447,
                -0.3677686205610817
            ]
        },
        {
            "positions": [
                0.41937089069834005,
                -1.4285154490734207,
                0.15263208754537372,
                -0.9186012965268572,
                0.5593962979776573,
                -0.26863128831795
            ]
        },
        {
            "positions": [
                0.4402289488956854,
                -1.3955452262797614,
                0.009420819635711675,
                -0.9775869275129722,
                0.5407688024288699,
                -0.1694939560748181
            ]
        },
        {
            "positions": [
                0.5404205729106817,
                -1.415701360170497,
                -0.06647891601310073,
                -1.036006787832045,
                0.49713851337637494,
                -0.251591005696152
            ]
        },
        {
            "positions": [
                0.640612196925678,
                -1.435857494061233,
                -0.14237865166191313,
                -1.0944266481511176,
                0.4535082243238799,
                -0.3336880553174859
            ]
        },
        {
            "positions": [
                0.7408038209406742,
                -1.4560136279519686,
                -0.21827838731072552,
                -1.1528465084701904,
                0.4098779352713849,
                -0.41578510493881976
            ]
        },
        {
            "positions": [
                0.8409954449556705,
                -1.4761697618427045,
                -0.29417812295953794,
                -1.211266368789263,
                0.36624764621888983,
                -0.49788215456015367
            ]
        },
        {
            "positions": [
                0.9411870689706667,
                -1.4963258957334402,
                -0.37007785860835035,
                -1.269686229108336,
                0.32261735716639484,
                -0.5799792041814875
            ]
        },
        {
            "positions": [
                1.041378692985663,
                -1.516482029624176,
                -0.4459775942571627,
                -1.3281060894274086,
                0.27898706811389984,
                -0.6620762538028214
            ]
        },
        {
            "positions": [
                1.1415703170006593,
                -1.5366381635149118,
                -0.5218773299059751,
                -1.3865259497464815,
                0.23535677906140479,
                -0.7441733034241553
            ]
        },
        {
            "positions": [
                1.2417619410156555,
                -1.5567942974056477,
                -0.5977770655547876,
                -1.4449458100655541,
                0.1917264900089098,
                -0.8262703530454892
            ]
        },
        {
            "positions": [
                1.3419535650306518,
                -1.5769504312963833,
                -0.6736768012036001,
                -1.503365670384627,
                0.14809620095641474,
                -0.9083674026668231
            ]
        },
        {
            "positions": [
                1.442145189045648,
                -1.597106565187119,
                -0.7495765368524123,
                -1.5617855307036996,
                0.10446591190391974,
                -0.9904644522881569
            ]
        },
        {
            "positions": [
                1.5423368130606443,
                -1.617262699077855,
                -0.8254762725012248,
                -1.6202053910227723,
                0.06083562285142469,
                -1.072561501909491
            ]
        },
        {
            "positions": [
                1.6425284370756406,
                -1.6374188329685906,
                -0.901376008150037,
                -1.678625251341845,
                0.017205333798929745,
                -1.1546585515308248
            ]
        },
        {
            "positions": [
                1.7427200610906368,
                -1.6575749668593263,
                -0.9772757437988495,
                -1.7370451116609178,
                -0.026424955253565252,
                -1.2367556011521585
            ]
        },
        {
            "positions": [
                1.842911685105633,
                -1.6777311007500622,
                -1.053175479447662,
                -1.7954649719799907,
                -0.07005524430606036,
                -1.3188526507734926
            ]
        },
        {
            "positions": [
                1.9431033091206293,
                -1.697887234640798,
                -1.1290752150964745,
                -1.8538848322990633,
                -0.11368553335855536,
                -1.4009497003948266
            ]
        },
        {
            "positions": [
                2.0432949331356256,
                -1.7180433685315337,
                -1.2049749507452867,
                -1.912304692618136,
                -0.15731582241105035,
                -1.4830467500161604
            ]
        },
        {
            "positions": [
                2.143486557150622,
                -1.7381995024222694,
                -1.280874686394099,
                -1.9707245529372086,
                -0.20094611146354535,
                -1.5651437996374942
            ]
        },
        {
            "positions": [
                2.243678181165618,
                -1.7583556363130053,
                -1.3567744220429117,
                -2.0291444132562817,
                -0.24457640051604046,
                -1.6472408492588282
            ]
        },
        {
            "positions": [
                2.3438698051806144,
                -1.778511770203741,
                -1.432674157691724,
                -2.0875642735753543,
                -0.28820668956853546,
                -1.729337898880162
            ]
        },
        {
            "positions": [
                2.4440614291956106,
                -1.7986679040944769,
                -1.5085738933405364,
                -2.145984133894427,
                -0.33183697862103045,
                -1.8114349485014958
            ]
        },
        {
            "positions": [
                2.544253053210607,
                -1.8188240379852125,
                -1.5844736289893486,
                -2.2044039942134996,
                -0.37546726767352545,
                -1.8935319981228298
            ]
        },
        {
            "positions": [
                2.644444677225603,
                -1.8389801718759484,
                -1.6603733646381613,
                -2.2628238545325727,
                -0.41909755672602056,
                -1.9756290477441638
            ]
        },
        {
            "positions": [
                2.7446363012405994,
                -1.859136305766684,
                -1.7362731002869736,
                -2.3212437148516454,
                -0.46272784577851556,
                -2.0577260973654976
            ]
        },
        {
            "positions": [
                2.727659755081875,
                -1.9241645930255262,
                -1.720106410854745,
                -2.345266454645844,
                -0.4659095448227248,
                -2.2744418513504185
            ]
        },
        {
            "positions": [
                2.71068320892315,
                -1.9891928802843684,
                -1.7039397214225165,
                -2.3692891944400434,
                -0.469091243866934,
                -2.4911576053353395
            ]
        },
        {
            "positions": [
                2.6937066627644253,
                -2.0542211675432105,
                -1.687773031990288,
                -2.393311934234242,
                -0.47227294291114325,
                -2.70787335932026
            ]
        },
        {
            "positions": [
                2.6767301166057003,
                -2.119249454802053,
                -1.6716063425580594,
                -2.4173346740284414,
                -0.4754546419553525,
                -2.924589113305181
            ]
        },
        {
            "positions": [
                2.6597535704469757,
                -2.1842777420608948,
                -1.6554396531258309,
                -2.44135741382264,
                -0.4786363409995617,
                -3.141304867290102
            ]
        }
    ]
}