{
    "goal": {
        "global_pose": {
            "orientation": {
                "w": 0.5084816217422485,
                "x": -0.49083608388900757,
                "y": 0.5182115435600281,
                "z": -0.4816462993621826
            },
            "position": {
                "x": 0.5540239810943604,
                "y": 0.030875300988554955,
                "z": 0.16403168439865112
            }
        },
        "name": "move_to_storage_A"
    },
    "id": "ProjEST_move_to_storage_A_91",
    "joint_names": [
        "shoulder_pan_joint",
        "shoulder_lift_joint",
        "elbow_joint",
        "wrist_1_joint",
        "wrist_2_joint",
        "wrist_3_joint"
    ],
    "metrics": {
        "cart_traj_len": 0.3527268703349374,
        "distance_elbow_joint": 0.45308271662670574,
        "distance_shoulder_lift_joint": 0.23384454933828858,
        "distance_shoulder_pan_joint": 0.4621849721477029,
        "distance_wrist_1_joint": 0.2585019045308147,
        "distance_wrist_2_joint": 1.0939449214286294,
        "distance_wrist_3_joint": 0.10714958150374265,
        "smoothness": 1.5543122362334363e-15,
        "time": 0.08184504799999999,
        "traj_len": 1.6151497285316565,
        "weighted_distance": 2.0433929222111966
    },
    "planner": "ProjEST",
    "start": {
        "state": {
            "elbow_joint": 1.9715474177455299,
            "shoulder_lift_joint": -1.139484666580328,
            "shoulder_pan_joint": 0.12281154398918248,
            "wrist_1_joint": -0.7804687475355282,
            "wrist_2_joint": 0.12958649657246987,
            "wrist_3_joint": -3.1924925159053466
        }
    },
    "waypoints": [
        {
            "positions": [
                0.12281154398918248,
                -1.139484666580328,
                1.9715474177455299,
                -0.7804687475355282,
                0.12958649657246987,
                -3.1924925159053466
            ]
        },
        {
            "positions": [
                0.0567851193966535,
                -1.1728910307715121,
                2.0362735201207736,
                -0.8173975910399303,
                0.28586434249084547,
                -3.1771854328333835
            ]
        },
        {
            "positions": [
                -0.009241305195875488,
                -1.206297394962696,
                2.1009996224960172,
                -0.8543264345443324,
                0.44214218840922115,
                -3.16187834976142
            ]
        },
        {
            "positions": [
                -0.07526772978840446,
                -1.2397037591538802,
                2.165725724871261,
                -0.8912552780487345,
                0.5984200343275967,
                -3.146571266689457
            ]
        },
        {
            "positions": [
                -0.14129415438093346,
                -1.2731101233450643,
                2.2304518272465046,
                -0.9281841215531366,
                0.7546978802459724,
                -3.1312641836174935
            ]
        },
        {
            "positions": [
                -0.20732057897346245,
                -1.3065164875362485,
                2.2951779296217483,
                -0.9651129650575387,
                0.9109757261643481,
                -3.1159571005455304
            ]
        },
        {
            "positions": [
                -0.2733470035659914,
                -1.3399228517274324,
                2.359904031996992,
                -1.0020418085619407,
                1.0672535720827236,
                -3.100650017473567
            ]
        },
        {
            "positions": [
                -0.3393734281585204,
                -1.3733292159186166,
                2.4246301343722356,
                -1.0389706520663429,
                1.2235314180010992,
                -3.085342934401604
            ]
        }
    ]
}