{
    "goal": {
        "global_pose": {
            "orientation": {
                "w": 0.7047431493862688,
                "x": -0.7094548369677653,
                "y": 0.0024358444001904,
                "z": -0.0022348060817251984
            },
            "position": {
                "x": -0.39052492380142206,
                "y": 0.3671506643295288,
                "z": 0.19426114857196808
            }
        },
        "name": "move_to_magneteinheit_D"
    },
    "id": "ProjEST_move_to_magneteinheit_D_140",
    "joint_names": [
        "shoulder_pan_joint",
        "shoulder_lift_joint",
        "elbow_joint",
        "wrist_1_joint",
        "wrist_2_joint",
        "wrist_3_joint"
    ],
    "metrics": {
        "cart_traj_len": 4.57007761222187,
        "distance_elbow_joint": 4.122916879194197,
        "distance_shoulder_lift_joint": 1.632800986729754,
        "distance_shoulder_pan_joint": 3.744773413830718,
        "distance_wrist_1_joint": 3.031147569574295,
        "distance_wrist_2_joint": 1.5022146125663889,
        "distance_wrist_3_joint": 3.1281337820190713,
        "smoothness": 0.4576103206126972,
        "time": 0.77312475,
        "traj_len": 4.142702891098326,
        "weighted_distance": 5.286928880748564
    },
    "planner": "ProjEST",
    "start": {
        "state": {
            "elbow_joint": 0.7495348899011973,
            "shoulder_lift_joint": -0.6476975780737697,
            "shoulder_pan_joint": -2.711696901376276,
            "wrist_1_joint": -0.07506478080974305,
            "wrist_2_joint": 0.4329665971545858,
            "wrist_3_joint": 3.1361499051832524
        }
    },
    "waypoints": [
        {
            "positions": [
                -2.711696901376276,
                -0.6476975780737697,
                0.7495348899011973,
                -0.07506478080974305,
                0.4329665971545858,
                3.1361499051832524
            ]
        },
        {
            "positions": [
                -2.71816299433403,
                -0.7178562364337245,
                0.8000445494027797,
                -0.13783756059526345,
                0.45233309010866757,
                3.036104176226103
            ]
        },
        {
            "positions": [
                -2.7246290872917838,
                -0.7880148947936794,
                0.8505542089043622,
                -0.20061034038078385,
                0.4716995830627493,
                2.9360584472689535
            ]
        },
        {
            "positions": [
                -2.731095180249538,
                -0.8581735531536342,
                0.9010638684059447,
                -0.2633831201663043,
                0.49106607601683105,
                2.836012718311804
            ]
        },
        {
            "positions": [
                -2.737561273207292,
                -0.928332211513589,
                0.951573527907527,
                -0.32615589995182465,
                0.5104325689709128,
                2.7359669893546545
            ]
        },
        {
            "positions": [
                -2.739353981491777,
                -1.0063683025045795,
                1.0077498742538296,
                -0.39286371335081943,
                0.530663989317091,
                2.616924298437046
            ]
        },
        {
            "positions": [
                -2.7411466897762624,
                -1.0844043934955698,
                1.0639262206001323,
                -0.4595715267498143,
                0.5508954096632691,
                2.4978816075194383
            ]
        },
        {
            "positions": [
                -2.7429393980607477,
                -1.1624404844865603,
                1.1201025669464348,
                -0.5262793401488091,
                0.5711268300094473,
                2.37883891660183
            ]
        },
        {
            "positions": [
                -2.610271389801228,
                -1.189254769175353,
                1.082673994426585,
                -0.5251008348699522,
                0.5570647180983191,
                2.2149602197719864
            ]
        },
        {
            "positions": [
                -2.477603381541709,
                -1.2160690538641457,
                1.0452454219067353,
                -0.5239223295910953,
                0.543002606187191,
                2.0510815229421424
            ]
        },
        {
            "positions": [
                -2.3449353732821896,
                -1.242883338552938,
                1.0078168493868853,
                -0.5227438243122384,
                0.5289404942760628,
                1.8872028261122988
            ]
        },
        {
            "positions": [
                -2.2122673650226705,
                -1.2696976232417307,
                0.9703882768670357,
                -0.5215653190333817,
                0.5148783823649347,
                1.723324129282455
            ]
        },
        {
            "positions": [
                -2.079599356763151,
                -1.2965119079305234,
                0.9329597043471858,
                -0.5203868137545248,
                0.5008162704538065,
                1.5594454324526112
            ]
        },
        {
            "positions": [
                -1.9469313485036315,
                -1.3233261926193158,
                0.895531131827336,
                -0.5192083084756679,
                0.4867541585426784,
                1.3955667356227675
            ]
        },
        {
            "positions": [
                -1.8142633402441122,
                -1.3501404773081085,
                0.8581025593074862,
                -0.518029803196811,
                0.47269204663155023,
                1.2316880387929237
            ]
        },
        {
            "positions": [
                -1.6815953319845929,
                -1.3769547619969011,
                0.8206739867876365,
                -0.5168512979179541,
                0.45862993472042213,
                1.06780934196308
            ]
        },
        {
            "positions": [
                -1.5489273237250736,
                -1.4037690466856938,
                0.7832454142677866,
                -0.5156727926390974,
                0.44456782280929397,
                0.9039306451332361
            ]
        },
        {
            "positions": [
                -1.416259315465554,
                -1.4305833313744865,
                0.7458168417479367,
                -0.5144942873602405,
                0.4305057108981658,
                0.7400519483033923
            ]
        },
        {
            "positions": [
                -1.283591307206035,
                -1.4573976160632789,
                0.708388269228087,
                -0.5133157820813836,
                0.41644359898703764,
                0.5761732514735487
            ]
        },
        {
            "positions": [
                -1.1509232989465155,
                -1.4842119007520715,
                0.6709596967082372,
                -0.5121372768025267,
                0.4023814870759095,
                0.412294554643705
            ]
        },
        {
            "positions": [
                -1.0807643522556682,
                -1.4999947220815657,
                0.5266527591985664,
                -0.4078503542522811,
                0.3700390390606275,
                0.39509313426346976
            ]
        },
        {
            "positions": [
                -1.0106054055648208,
                -1.5157775434110599,
                0.3823458216888954,
                -0.3035634317020355,
                0.33769659104534555,
                0.3778917138832345
            ]
        },
        {
            "positions": [
                -0.9404464588739736,
                -1.531560364740554,
                0.23803888417922459,
                -0.19927650915178985,
                0.30535414303006364,
                0.36069029350299925
            ]
        },
        {
            "positions": [
                -0.8702875121831262,
                -1.5473431860700484,
                0.09373194666955365,
                -0.09498958660154422,
                0.2730116950147816,
                0.343488873122764
            ]
        },
        {
            "positions": [
                -0.800128565492279,
                -1.5631260073995425,
                -0.050574990840117184,
                0.009297335948701413,
                0.2406692469994997,
                0.3262874527425287
            ]
        },
        {
            "positions": [
                -0.7299696188014316,
                -1.5789088287290367,
                -0.19488192834978801,
                0.11358425849894704,
                0.20832679898421777,
                0.3090860323622935
            ]
        },
        {
            "positions": [
                -0.6598106721105843,
                -1.5946916500585309,
                -0.33918886585945884,
                0.21787118104919267,
                0.1759843509689358,
                0.2918846119820582
            ]
        },
        {
            "positions": [
                -0.589651725419737,
                -1.610474471388025,
                -0.4834958033691299,
                0.3221581035994383,
                0.1436419029536538,
                0.2746831916018229
            ]
        },
        {
            "positions": [
                -0.5194927787288895,
                -1.6262572927175192,
                -0.6278027408788007,
                0.42644502614968405,
                0.11129945493837184,
                0.25748177122158766
            ]
        },
        {
            "positions": [
                -0.44933383203804234,
                -1.6420401140470133,
                -0.7721096783884716,
                0.5307319486999296,
                0.07895700692308993,
                0.2402803508413524
            ]
        },
        {
            "positions": [
                -0.379174885347195,
                -1.6578229353765077,
                -0.9164166158981424,
                0.6350188712501752,
                0.04661455890780797,
                0.22307893046111715
            ]
        },
        {
            "positions": [
                -0.3090159386563478,
                -1.6736057567060019,
                -1.0607235534078132,
                0.7393057938004208,
                0.014272110892526058,
                0.2058775100808819
            ]
        },
        {
            "positions": [
                -0.23885699196550036,
                -1.689388578035496,
                -1.2050304909174843,
                0.8435927163506665,
                -0.018070337122755964,
                0.18867608970064662
            ]
        },
        {
            "positions": [
                -0.16869804527465304,
                -1.7051713993649902,
                -1.3493374284271549,
                0.9478796389009121,
                -0.050412785138037874,
                0.1714746693204114
            ]
        },
        {
            "positions": [
                -0.09853909858380594,
                -1.7209542206944843,
                -1.493644365936826,
                1.0521665614511575,
                -0.08275523315331984,
                0.15427324894017613
            ]
        },
        {
            "positions": [
                -0.028380151892958505,
                -1.7367370420239785,
                -1.637951303446497,
                1.1564534840014034,
                -0.11509768116860186,
                0.13707182855994082
            ]
        },
        {
            "positions": [
                0.04177879479788893,
                -1.7525198633534727,
                -1.7822582409561676,
                1.260740406551649,
                -0.14744012918388372,
                0.11987040817970562
            ]
        },
        {
            "positions": [
                0.11193774148873636,
                -1.768302684682967,
                -1.9265651784658386,
                1.3650273291018948,
                -0.1797825771991658,
                0.10266898779947031
            ]
        },
        {
            "positions": [
                0.18209668817958358,
                -1.784085506012461,
                -2.0708721159755092,
                1.4693142516521402,
                -0.21212502521444765,
                0.08546756741923506
            ]
        },
        {
            "positions": [
                0.2522556348704308,
                -1.7998683273419553,
                -2.2151790534851803,
                1.5736011742023859,
                -0.24446747322972961,
                0.0682661470389998
            ]
        },
        {
            "positions": [
                0.3224145815612782,
                -1.8156511486714495,
                -2.3594859909948513,
                1.6778880967526315,
                -0.2768099212450116,
                0.05106472665876455
            ]
        },
        {
            "positions": [
                0.39257352825212544,
                -1.8314339700009437,
                -2.503792928504522,
                1.7821750193028771,
                -0.30915236926029355,
                0.03386330627852929
            ]
        },
        {
            "positions": [
                0.2769699300854509,
                -1.9212468889614596,
                -2.478102187164921,
                1.7278792891461685,
                -0.2123973331719362,
                0.028693869655658896
            ]
        },
        {
            "positions": [
                0.16136633191877636,
                -2.0110598079219755,
                -2.4524114458253203,
                1.6735835589894599,
                -0.11564229708357887,
                0.0235244330327885
            ]
        },
        {
            "positions": [
                0.045762733752101825,
                -2.100872726882492,
                -2.4267207044857195,
                1.6192878288327515,
                -0.018887260995221533,
                0.018354996409918105
            ]
        },
        {
            "positions": [
                -0.06984086441457271,
                -2.1906856458430077,
                -2.4010299631461187,
                1.5649920986760428,
                0.0778677750931358,
                0.013185559787047704
            ]
        },
        {
            "positions": [
                -0.18544446258124728,
                -2.2804985648035236,
                -2.375339221806518,
                1.5106963685193342,
                0.17462281118149314,
                0.00801612316417731
            ]
        }
    ]
}