{
    "goal": {
        "global_pose": {
            "orientation": {
                "w": 0.5084816217422485,
                "x": -0.49083608388900757,
                "y": 0.5182115435600281,
                "z": -0.4816462993621826
            },
            "position": {
                "x": 0.5540239810943604,
                "y": 0.030875300988554955,
                "z": 0.16403168439865112
            }
        },
        "name": "move_to_storage_A"
    },
    "id": "ProjEST_move_to_storage_A_24",
    "joint_names": [
        "shoulder_pan_joint",
        "shoulder_lift_joint",
        "elbow_joint",
        "wrist_1_joint",
        "wrist_2_joint",
        "wrist_3_joint"
    ],
    "metrics": {
        "cart_traj_len": 0.3533412420786526,
        "distance_elbow_joint": 0.4495417092767955,
        "distance_shoulder_lift_joint": 0.23303893711247992,
        "distance_shoulder_pan_joint": 0.46345251417887395,
        "distance_wrist_1_joint": 0.24060680991294336,
        "distance_wrist_2_joint": 1.0927472770289266,
        "distance_wrist_3_joint": 0.08746653315585284,
        "smoothness": 4.440892098500626e-16,
        "time": 0.034732891,
        "traj_len": 1.6021403748317038,
        "weighted_distance": 2.0186978312564388
    },
    "planner": "ProjEST",
    "start": {
        "state": {
            "elbow_joint": 1.9715474177455299,
            "shoulder_lift_joint": -1.139484666580328,
            "shoulder_pan_joint": 0.12281154398918248,
            "wrist_1_joint": -0.7804687475355282,
            "wrist_2_joint": 0.12958649657246987,
            "wrist_3_joint": -3.1924925159053466
        }
    },
    "waypoints": [
        {
            "positions": [
                0.12281154398918248,
                -1.139484666580328,
                1.9715474177455299,
                -0.7804687475355282,
                0.12958649657246987,
                -3.1924925159053466
            ]
        },
        {
            "positions": [
                0.05660404196362906,
                -1.1727759433106824,
                2.0357676619279292,
                -0.8148411489516629,
                0.28569325043374516,
                -3.179997296883082
            ]
        },
        {
            "positions": [
                -0.009603460061924363,
                -1.2060672200410365,
                2.0999879061103286,
                -0.8492135503677978,
                0.4418000042950204,
                -3.167502077860817
            ]
        },
        {
            "positions": [
                -0.07581096208747778,
                -1.2393584967713909,
                2.164208150292728,
                -0.8835859517839325,
                0.5979067581562957,
                -3.1550068588385525
            ]
        },
        {
            "positions": [
                -0.1420184641130312,
                -1.272649773501745,
                2.2284283944751273,
                -0.9179583532000672,
                0.7540135120175709,
                -3.142511639816288
            ]
        },
        {
            "positions": [
                -0.20822596613858463,
                -1.3059410502320994,
                2.2926486386575267,
                -0.9523307546162021,
                0.9101202658788462,
                -3.130016420794023
            ]
        },
        {
            "positions": [
                -0.27443346816413805,
                -1.3392323269624535,
                2.356868882839926,
                -0.9867031560323367,
                1.0662270197401214,
                -3.1175212017717584
            ]
        },
        {
            "positions": [
                -0.34064097018969147,
                -1.372523603692808,
                2.4210891270223254,
                -1.0210755574484716,
                1.2223337736013966,
                -3.1050259827494937
            ]
        }
    ]
}