{
    "goal": {
        "global_pose": {
            "orientation": {
                "w": -0.00223480608172531,
                "x": 0.0024358444001904467,
                "y": 0.7094548369677653,
                "z": -0.704743149386269
            },
            "position": {
                "x": -0.37947507619857795,
                "y": -0.6371506643295288,
                "z": 0.19426114857196808
            }
        },
        "name": "move_to_magneteinheit_C"
    },
    "id": "ProjEST_move_to_magneteinheit_C_44",
    "joint_names": [
        "shoulder_pan_joint",
        "shoulder_lift_joint",
        "elbow_joint",
        "wrist_1_joint",
        "wrist_2_joint",
        "wrist_3_joint"
    ],
    "metrics": {
        "cart_traj_len": 1.643477306556316,
        "distance_elbow_joint": 2.7698446386215663,
        "distance_shoulder_lift_joint": 0.4545892357632886,
        "distance_shoulder_pan_joint": 0.9601256793479322,
        "distance_wrist_1_joint": 3.5813757923710012,
        "distance_wrist_2_joint": 1.127047124388865,
        "distance_wrist_3_joint": 5.141779732809368,
        "smoothness": 0.6989093617031931,
        "time": 2.989389293,
        "traj_len": 3.746299801577822,
        "weighted_distance": 5.387647407327305
    },
    "planner": "ProjEST",
    "start": {
        "state": {
            "elbow_joint": 1.9565354006590394,
            "shoulder_lift_joint": -1.4165861576513559,
            "shoulder_pan_joint": -1.6717766223277177,
            "wrist_1_joint": -0.5286633288215096,
            "wrist_2_joint": 1.4727565892594296,
            "wrist_3_joint": 3.1593482883155493
        }
    },
    "waypoints": [
        {
            "positions": [
                -1.6717766223277177,
                -1.4165861576513559,
                1.9565354006590394,
                -0.5286633288215096,
                1.4727565892594296,
                3.1593482883155493
            ]
        },
        {
            "positions": [
                -1.6700237882373128,
                -1.4667888837703469,
                1.9983330998642617,
                -0.422315475879339,
                1.5500839385564718,
                3.078318607235623
            ]
        },
        {
            "positions": [
                -1.6682709541469078,
                -1.5169916098893377,
                2.040130799069484,
                -0.3159676229371684,
                1.6274112878535139,
                2.9972889261556968
            ]
        },
        {
            "positions": [
                -1.7075483843517278,
                -1.5018652913430806,
                1.9646056539231898,
                -0.23639185126410767,
                1.5847549901314477,
                2.8624274912926766
            ]
        },
        {
            "positions": [
                -1.7468258145565478,
                -1.4867389727968232,
                1.8890805087768958,
                -0.1568160795910469,
                1.5420986924093816,
                2.7275660564296564
            ]
        },
        {
            "positions": [
                -1.786103244761368,
                -1.471612654250566,
                1.8135553636306017,
                -0.07724030791798614,
                1.4994423946873154,
                2.5927046215666363
            ]
        },
        {
            "positions": [
                -1.825380674966188,
                -1.4564863357043087,
                1.7380302184843077,
                0.002335463755074596,
                1.4567860969652493,
                2.457843186703616
            ]
        },
        {
            "positions": [
                -1.864658105171008,
                -1.4413600171580516,
                1.6625050733380136,
                0.08191123542813544,
                1.4141297992431832,
                2.322981751840596
            ]
        },
        {
            "positions": [
                -1.903935535375828,
                -1.4262336986117943,
                1.5869799281917194,
                0.16148700710119612,
                1.371473501521117,
                2.1881203169775763
            ]
        },
        {
            "positions": [
                -1.9432129655806483,
                -1.4111073800655372,
                1.5114547830454255,
                0.24106277877425697,
                1.3288172037990509,
                2.0532588821145557
            ]
        },
        {
            "positions": [
                -1.9824903957854683,
                -1.3959810615192798,
                1.4359296378991315,
                0.3206385504473176,
                1.2861609060769847,
                1.9183974472515357
            ]
        },
        {
            "positions": [
                -2.0217678259902883,
                -1.3808547429730227,
                1.3604044927528371,
                0.40021432212037844,
                1.2435046083549186,
                1.7835360123885156
            ]
        },
        {
            "positions": [
                -2.0610452561951083,
                -1.3657284244267656,
                1.2848793476065432,
                0.4797900937934393,
                1.2008483106328525,
                1.6486745775254954
            ]
        },
        {
            "positions": [
                -2.1003226863999283,
                -1.3506021058805082,
                1.209354202460249,
                0.5593658654665,
                1.1581920129107863,
                1.5138131426624752
            ]
        },
        {
            "positions": [
                -2.1396001166047482,
                -1.335475787334251,
                1.1338290573139551,
                0.6389416371395606,
                1.1155357151887202,
                1.3789517077994553
            ]
        },
        {
            "positions": [
                -2.1788775468095682,
                -1.3203494687879938,
                1.058303912167661,
                0.7185174088126214,
                1.072879417466654,
                1.2440902729364351
            ]
        },
        {
            "positions": [
                -2.2181549770143887,
                -1.3052231502417366,
                0.9827787670213668,
                0.7980931804856823,
                1.030223119744588,
                1.1092288380734148
            ]
        },
        {
            "positions": [
                -2.2574324072192087,
                -1.2900968316954793,
                0.9072536218750729,
                0.8776689521587431,
                0.9875668220225218,
                0.9743674032103948
            ]
        },
        {
            "positions": [
                -2.2967098374240287,
                -1.2749705131492222,
                0.8317284767287789,
                0.9572447238318036,
                0.9449105243004556,
                0.8395059683473747
            ]
        },
        {
            "positions": [
                -2.3359872676288487,
                -1.259844194602965,
                0.7562033315824848,
                1.0368204955048645,
                0.9022542265783895,
                0.7046445334843545
            ]
        },
        {
            "positions": [
                -2.3752646978336687,
                -1.2447178760567077,
                0.6806781864361906,
                1.1163962671779253,
                0.8595979288563234,
                0.5697830986213345
            ]
        },
        {
            "positions": [
                -2.435380755990098,
                -1.2352559484576364,
                0.7670626563312062,
                1.0992956545486923,
                0.8448308804835098,
                0.6263600812873371
            ]
        },
        {
            "positions": [
                -2.4954968141465272,
                -1.2257940208585651,
                0.8534471262262218,
                1.082195041919459,
                0.8300638321106965,
                0.6829370639533399
            ]
        },
        {
            "positions": [
                -2.5062830787103754,
                -1.2258324613469034,
                0.9442128447759586,
                0.9945599837921902,
                0.8325436981043477,
                0.8175125161752526
            ]
        },
        {
            "positions": [
                -2.5170693432742235,
                -1.2258709018352418,
                1.0349785633256954,
                0.9069249256649214,
                0.8350235640979989,
                0.9520879683971653
            ]
        },
        {
            "positions": [
                -2.527855607838072,
                -1.22590934232358,
                1.125744281875432,
                0.8192898675376528,
                0.8375034300916503,
                1.0866634206190777
            ]
        },
        {
            "positions": [
                -2.53864187240192,
                -1.2259477828119185,
                1.2165100004251688,
                0.7316548094103839,
                0.8399832960853015,
                1.2212388728409906
            ]
        },
        {
            "positions": [
                -2.5494281369657683,
                -1.2259862233002567,
                1.3072757189749056,
                0.6440197512831152,
                0.8424631620789528,
                1.3558143250629031
            ]
        },
        {
            "positions": [
                -2.5460855541710594,
                -1.2236671045126117,
                1.3780965202671323,
                0.5311059536328898,
                0.8361918831296636,
                1.5027864679141256
            ]
        },
        {
            "positions": [
                -2.542742971376351,
                -1.2213479857249667,
                1.4489173215593587,
                0.41819215598266457,
                0.8299206041803745,
                1.6497586107653484
            ]
        },
        {
            "positions": [
                -2.539400388581642,
                -1.2190288669373217,
                1.5197381228515852,
                0.3052783583324392,
                0.8236493252310852,
                1.796730753616571
            ]
        },
        {
            "positions": [
                -2.536057805786933,
                -1.216709748149677,
                1.5905589241438118,
                0.19236456068221391,
                0.8173780462817961,
                1.9437028964677936
            ]
        },
        {
            "positions": [
                -2.5327152229922247,
                -1.214390629362032,
                1.6613797254360385,
                0.0794507630319885,
                0.811106767332507,
                2.090675039319016
            ]
        },
        {
            "positions": [
                -2.529372640197516,
                -1.212071510574387,
                1.732200526728265,
                -0.0334630346182368,
                0.8048354883832178,
                2.237647182170239
            ]
        },
        {
            "positions": [
                -2.520138084934181,
                -1.2039249640198915,
                1.7780795746092242,
                -0.16453918371413742,
                0.7839991606518892,
                2.3850389254312803
            ]
        },
        {
            "positions": [
                -2.510903529670846,
                -1.195778417465396,
                1.8239586224901834,
                -0.29561533281003805,
                0.7631628329205605,
                2.532430668692322
            ]
        },
        {
            "positions": [
                -2.501668974407511,
                -1.1876318709109004,
                1.8698376703711426,
                -0.4266914819059387,
                0.7423265051892319,
                2.6798224119533636
            ]
        },
        {
            "positions": [
                -2.492434419144176,
                -1.179485324356405,
                1.9157167182521015,
                -0.5577676310018393,
                0.7214901774579033,
                2.827214155214405
            ]
        },
        {
            "positions": [
                -2.4831998638808415,
                -1.1713387778019095,
                1.9615957661330607,
                -0.68884378009774,
                0.7006538497265746,
                2.974605898475447
            ]
        },
        {
            "positions": [
                -2.4739653086175064,
                -1.163192231247414,
                2.00747481401402,
                -0.8199199291936407,
                0.679817521995246,
                3.1219976417364883
            ]
        }
    ]
}