{
    "goal": {
        "global_pose": {
            "orientation": {
                "w": 0.7047431468963623,
                "x": -0.7094548344612122,
                "y": 0.0024358443915843964,
                "z": -0.0022348060738295317
            },
            "position": {
                "x": 0.6094750761985779,
                "y": 0.3671506643295288,
                "z": 0.19426114857196808
            }
        },
        "name": "move_to_magneteinheit_A"
    },
    "id": "ProjEST_move_to_magneteinheit_A_23",
    "joint_names": [
        "shoulder_pan_joint",
        "shoulder_lift_joint",
        "elbow_joint",
        "wrist_1_joint",
        "wrist_2_joint",
        "wrist_3_joint"
    ],
    "metrics": {
        "cart_traj_len": 1.0536666091841744,
        "distance_elbow_joint": 0.3903817982854967,
        "distance_shoulder_lift_joint": 0.36242671322631237,
        "distance_shoulder_pan_joint": 1.242324246859936,
        "distance_wrist_1_joint": 2.2294292036657244,
        "distance_wrist_2_joint": 1.7080193491314735,
        "distance_wrist_3_joint": 1.2053897570983998,
        "smoothness": 5.329070560397964e-16,
        "time": 0.047801288,
        "traj_len": 2.671698161893919,
        "weighted_distance": 3.672356074138419
    },
    "planner": "ProjEST",
    "start": {
        "state": {
            "elbow_joint": 1.5739458966750683,
            "shoulder_lift_joint": -1.4977259741207325,
            "shoulder_pan_joint": -1.1188672016454206,
            "wrist_1_joint": 1.494575848278785,
            "wrist_2_joint": -1.5706037134824402,
            "wrist_3_joint": -2.0226957942261072
        }
    },
    "waypoints": [
        {
            "positions": [
                -1.1188672016454206,
                -1.4977259741207325,
                1.5739458966750683,
                1.494575848278785,
                -1.5706037134824402,
                -2.0226957942261072
            ]
        },
        {
            "positions": [
                -1.053481714968582,
                -1.4786508839509265,
                1.5944923071111472,
                1.3772374691384837,
                -1.4807079582649942,
                -2.086137360389181
            ]
        },
        {
            "positions": [
                -0.9880962282917432,
                -1.4595757937811207,
                1.6150387175472258,
                1.2598990899981823,
                -1.3908122030475483,
                -2.1495789265522545
            ]
        },
        {
            "positions": [
                -0.9227107416149044,
                -1.4405007036113147,
                1.6355851279833047,
                1.142560710857881,
                -1.3009164478301023,
                -2.2130204927153283
            ]
        },
        {
            "positions": [
                -0.8573252549380657,
                -1.4214256134415089,
                1.6561315384193835,
                1.02522233171758,
                -1.2110206926126563,
                -2.276462058878402
            ]
        },
        {
            "positions": [
                -0.791939768261227,
                -1.4023505232717028,
                1.6766779488554622,
                0.9078839525772786,
                -1.1211249373952104,
                -2.3399036250414755
            ]
        },
        {
            "positions": [
                -0.7265542815843882,
                -1.383275433101897,
                1.697224359291541,
                0.7905455734369773,
                -1.0312291821777644,
                -2.4033451912045494
            ]
        },
        {
            "positions": [
                -0.6611687949075495,
                -1.364200342932091,
                1.7177707697276197,
                0.6732071942966761,
                -0.9413334269603184,
                -2.4667867573676228
            ]
        },
        {
            "positions": [
                -0.5957833082307108,
                -1.3451252527622852,
                1.7383171801636985,
                0.5558688151563748,
                -0.8514376717428724,
                -2.5302283235306966
            ]
        },
        {
            "positions": [
                -0.530397821553872,
                -1.3260501625924792,
                1.7588635905997774,
                0.43853043601607355,
                -0.7615419165254265,
                -2.5936698896937704
            ]
        },
        {
            "positions": [
                -0.4650123348770333,
                -1.3069750724226734,
                1.779410001035856,
                0.32119205687577224,
                -0.6716461613079805,
                -2.657111455856844
            ]
        },
        {
            "positions": [
                -0.39962684820019445,
                -1.2878999822528674,
                1.7999564114719349,
                0.20385367773547092,
                -0.5817504060905345,
                -2.7205530220199177
            ]
        },
        {
            "positions": [
                -0.3342413615233558,
                -1.2688248920830616,
                1.8205028219080135,
                0.0865152985951696,
                -0.49185465087308855,
                -2.783994588182991
            ]
        },
        {
            "positions": [
                -0.26885587484651696,
                -1.2497498019132556,
                1.8410492323440923,
                -0.03082308054513172,
                -0.4019588956556426,
                -2.847436154346065
            ]
        },
        {
            "positions": [
                -0.20347038816967833,
                -1.2306747117434498,
                1.8615956427801712,
                -0.14816145968543282,
                -0.3120631404381966,
                -2.9108777205091387
            ]
        },
        {
            "positions": [
                -0.13808490149283958,
                -1.2115996215736438,
                1.88214205321625,
                -0.26549983882573436,
                -0.22216738522075063,
                -2.9743192866722126
            ]
        },
        {
            "positions": [
                -0.07269941481600095,
                -1.192524531403838,
                1.9026884636523287,
                -0.38283821796603545,
                -0.13227163000330466,
                -3.037760852835286
            ]
        },
        {
            "positions": [
                -0.007313928139162096,
                -1.173449441234032,
                1.9232348740884075,
                -0.5001765971063368,
                -0.04237587478585869,
                -3.10120241899836
            ]
        },
        {
            "positions": [
                0.05807155853767654,
                -1.154374351064226,
                1.9437812845244862,
                -0.6175149762466379,
                0.04751988043158728,
                -3.164643985161433
            ]
        },
        {
            "positions": [
                0.12345704521451538,
                -1.1352992608944201,
                1.964327694960565,
                -0.7348533553869395,
                0.1374156356490333,
                -3.228085551324507
            ]
        }
    ]
}