{
    "goal": {
        "global_pose": {
            "orientation": {
                "w": -0.00223480608172531,
                "x": 0.0024358444001904467,
                "y": 0.7094548369677653,
                "z": -0.704743149386269
            },
            "position": {
                "x": -0.37947507619857795,
                "y": -0.6371506643295288,
                "z": 0.19426114857196808
            }
        },
        "name": "move_to_magneteinheit_C"
    },
    "id": "ProjEST_move_to_magneteinheit_C_4",
    "joint_names": [
        "shoulder_pan_joint",
        "shoulder_lift_joint",
        "elbow_joint",
        "wrist_1_joint",
        "wrist_2_joint",
        "wrist_3_joint"
    ],
    "metrics": {
        "cart_traj_len": 1.4815866099863435,
        "distance_elbow_joint": 1.1974272262355137,
        "distance_shoulder_lift_joint": 0.7410856206887726,
        "distance_shoulder_pan_joint": 2.091727799640023,
        "distance_wrist_1_joint": 3.17965878857956,
        "distance_wrist_2_joint": 1.769258966582401,
        "distance_wrist_3_joint": 0.7983961664131862,
        "smoothness": 1.4221884756199041,
        "time": 1.554198719,
        "traj_len": 3.126908148337501,
        "weighted_distance": 4.04020601654517
    },
    "planner": "ProjEST",
    "start": {
        "state": {
            "elbow_joint": 1.9565354006590394,
            "shoulder_lift_joint": -1.4165861576513559,
            "shoulder_pan_joint": -1.6717766223277177,
            "wrist_1_joint": -0.5286633288215096,
            "wrist_2_joint": 1.4727565892594296,
            "wrist_3_joint": 3.1593482883155493
        }
    },
    "waypoints": [
        {
            "positions": [
                -1.6717766223277177,
                -1.4165861576513559,
                1.9565354006590394,
                -0.5286633288215096,
                1.4727565892594296,
                3.1593482883155493
            ]
        },
        {
            "positions": [
                -1.6156019751924913,
                -1.4496957719687518,
                2.0460721384566165,
                -0.5766495138053546,
                1.3996889172166462,
                3.1003777249741735
            ]
        },
        {
            "positions": [
                -1.5594273280572648,
                -1.4828053862861474,
                2.135608876254194,
                -0.6246356987891997,
                1.3266212451738628,
                3.041407161632798
            ]
        },
        {
            "positions": [
                -1.5032526809220383,
                -1.5159150006035433,
                2.225145614051771,
                -0.6726218837730447,
                1.2535535731310792,
                2.982436598291422
            ]
        },
        {
            "positions": [
                -1.4470780337868119,
                -1.5490246149209392,
                2.3146823518493482,
                -0.7206080687568897,
                1.1804859010882958,
                2.9234660349500468
            ]
        },
        {
            "positions": [
                -1.3909033866515854,
                -1.5821342292383351,
                2.4042190896469258,
                -0.7685942537407348,
                1.1074182290455123,
                2.864495471608671
            ]
        },
        {
            "positions": [
                -1.334728739516359,
                -1.6152438435557308,
                2.493755827444503,
                -0.8165804387245799,
                1.0343505570027287,
                2.8055249082672953
            ]
        },
        {
            "positions": [
                -1.2785540923811325,
                -1.6483534578731267,
                2.58329256524208,
                -0.8645666237084249,
                0.9612828849599453,
                2.7465543449259195
            ]
        },
        {
            "positions": [
                -1.3991317555150509,
                -1.6069927854411403,
                2.542306068767864,
                -0.745253171568924,
                0.8968080742304292,
                2.7544039257170536
            ]
        },
        {
            "positions": [
                -1.519709418648969,
                -1.565632113009154,
                2.501319572293648,
                -0.6259397194294233,
                0.8323332635009131,
                2.762253506508188
            ]
        },
        {
            "positions": [
                -1.6402870817828874,
                -1.5242714405771676,
                2.460333075819432,
                -0.5066262672899224,
                0.767858452771397,
                2.770103087299322
            ]
        },
        {
            "positions": [
                -1.7608647449168058,
                -1.4829107681451812,
                2.4193465793452162,
                -0.38731281515042165,
                0.7033836420418809,
                2.7779526680904567
            ]
        },
        {
            "positions": [
                -1.8814424080507242,
                -1.4415500957131948,
                2.378360082871,
                -0.26799936301092075,
                0.6389088313123648,
                2.785802248881591
            ]
        },
        {
            "positions": [
                -2.0020200711846425,
                -1.4001894232812084,
                2.337373586396784,
                -0.14868591087142002,
                0.5744340205828486,
                2.793651829672725
            ]
        },
        {
            "positions": [
                -2.122597734318561,
                -1.358828750849222,
                2.2963870899225682,
                -0.029372458731919182,
                0.5099592098533325,
                2.8015014104638594
            ]
        },
        {
            "positions": [
                -2.243175397452479,
                -1.3174680784172357,
                2.255400593448352,
                0.08994099340758155,
                0.44548439912381654,
                2.8093509912549934
            ]
        },
        {
            "positions": [
                -2.3637530605863972,
                -1.2761074059852493,
                2.2144140969741364,
                0.2092544455470824,
                0.38100958839430044,
                2.817200572046128
            ]
        },
        {
            "positions": [
                -2.4843307237203156,
                -1.234746733553263,
                2.1734276004999202,
                0.32856789768658334,
                0.31653477766478433,
                2.825050152837262
            ]
        },
        {
            "positions": [
                -2.604908386854234,
                -1.1933860611212765,
                2.1324411040257045,
                0.44788134982608385,
                0.2520599669352682,
                2.8328997336283965
            ]
        },
        {
            "positions": [
                -2.7254860499881524,
                -1.1520253886892902,
                2.0914546075514884,
                0.5671948019655848,
                0.1875851562057521,
                2.8407493144195306
            ]
        },
        {
            "positions": [
                -2.6895470054043784,
                -1.1538811388725996,
                2.080192878414077,
                0.3654813636772084,
                0.25674051813842697,
                2.882378922066666
            ]
        },
        {
            "positions": [
                -2.6536079608206045,
                -1.1557368890559088,
                2.068931149276665,
                0.163767925388832,
                0.3258958800711018,
                2.9240085297138005
            ]
        },
        {
            "positions": [
                -2.6176689162368305,
                -1.1575926392392182,
                2.0576694201392534,
                -0.0379455128995444,
                0.3950512420037767,
                2.9656381373609357
            ]
        },
        {
            "positions": [
                -2.581729871653056,
                -1.1594483894225274,
                2.046407691001842,
                -0.2396589511879208,
                0.4642066039364516,
                3.007267745008071
            ]
        },
        {
            "positions": [
                -2.545790827069282,
                -1.1613041396058368,
                2.0351459618644303,
                -0.4413723894762973,
                0.5333619658691264,
                3.048897352655206
            ]
        },
        {
            "positions": [
                -2.509851782485508,
                -1.163159889789146,
                2.0238842327270183,
                -0.6430858277646736,
                0.6025173278018013,
                3.090526960302341
            ]
        },
        {
            "positions": [
                -2.4739127379017343,
                -1.1650156399724554,
                2.012622503589607,
                -0.8447992660530501,
                0.6716726897344762,
                3.132156567949476
            ]
        }
    ]
}