{
    "goal": {
        "global_pose": {
            "orientation": {
                "w": -0.00223480608172531,
                "x": 0.0024358444001904467,
                "y": 0.7094548369677653,
                "z": -0.704743149386269
            },
            "position": {
                "x": 0.6205249238014221,
                "y": -0.6371506643295288,
                "z": 0.19426114857196808
            }
        },
        "name": "move_to_magneteinheit_B"
    },
    "id": "ProjEST_move_to_magneteinheit_B_30",
    "joint_names": [
        "shoulder_pan_joint",
        "shoulder_lift_joint",
        "elbow_joint",
        "wrist_1_joint",
        "wrist_2_joint",
        "wrist_3_joint"
    ],
    "metrics": {
        "cart_traj_len": 1.4527055366931958,
        "distance_elbow_joint": 0.7300395577412333,
        "distance_shoulder_lift_joint": 1.248200933048392,
        "distance_shoulder_pan_joint": 1.621479867885153,
        "distance_wrist_1_joint": 2.6050171471988635,
        "distance_wrist_2_joint": 2.942216454323473,
        "distance_wrist_3_joint": 3.1275951235173394,
        "smoothness": 4.163336351824667e-16,
        "time": 0.6118161,
        "traj_len": 3.503505256698561,
        "weighted_distance": 4.906829213684889
    },
    "planner": "ProjEST",
    "start": {
        "state": {
            "elbow_joint": 2.3935871308073637,
            "shoulder_lift_joint": -1.9085141043777403,
            "shoulder_pan_joint": 0.7066247067284167,
            "wrist_1_joint": -0.46782909355067076,
            "wrist_2_joint": 0.7096259085804283,
            "wrist_3_joint": -3.1358149275257428
        }
    },
    "waypoints": [
        {
            "positions": [
                0.7066247067284167,
                -1.9085141043777403,
                2.3935871308073637,
                -0.46782909355067076,
                0.7096259085804283,
                -3.1358149275257428
            ]
        },
        {
            "positions": [
                0.6543189045385731,
                -1.8682495581503729,
                2.370037467654421,
                -0.3837962823507074,
                0.6147157003764453,
                -3.03492476225099
            ]
        },
        {
            "positions": [
                0.6020131023487294,
                -1.8279850119230052,
                2.3464878045014776,
                -0.2997634711507441,
                0.5198054921724623,
                -2.934034596976237
            ]
        },
        {
            "positions": [
                0.5497073001588858,
                -1.7877204656956378,
                2.322938141348535,
                -0.21573065995078078,
                0.4248952839684793,
                -2.8331444317014842
            ]
        },
        {
            "positions": [
                0.4974014979690421,
                -1.7474559194682704,
                2.2993884781955916,
                -0.13169784875081741,
                0.3299850757644963,
                -2.732254266426731
            ]
        },
        {
            "positions": [
                0.4450956957791985,
                -1.7071913732409028,
                2.2758388150426487,
                -0.047665037550854106,
                0.23507486756051332,
                -2.6313641011519784
            ]
        },
        {
            "positions": [
                0.39278989358935484,
                -1.6669268270135353,
                2.2522891518897055,
                0.0363677736491092,
                0.14016465935653033,
                -2.5304739358772252
            ]
        },
        {
            "positions": [
                0.3404840913995112,
                -1.626662280786168,
                2.2287394887367626,
                0.12040058484907262,
                0.04525445115254734,
                -2.4295837706024725
            ]
        },
        {
            "positions": [
                0.28817828920966754,
                -1.5863977345588003,
                2.20518982558382,
                0.20443339604903593,
                -0.049655757051435656,
                -2.32869360532772
            ]
        },
        {
            "positions": [
                0.23587248701982388,
                -1.5461331883314329,
                2.1816401624308766,
                0.28846620724899935,
                -0.14456596525541876,
                -2.2278034400529667
            ]
        },
        {
            "positions": [
                0.1835666848299803,
                -1.5058686421040655,
                2.1580904992779337,
                0.37249901844896255,
                -0.23947617345940164,
                -2.126913274778214
            ]
        },
        {
            "positions": [
                0.13126088264013658,
                -1.4656040958766978,
                2.1345408361249905,
                0.45653182964892597,
                -0.33438638166338464,
                -2.026023109503461
            ]
        },
        {
            "positions": [
                0.07895508045029298,
                -1.4253395496493304,
                2.1109911729720476,
                0.5405646408488891,
                -0.42929658986736763,
                -1.9251329442287082
            ]
        },
        {
            "positions": [
                0.02664927826044927,
                -1.3850750034219628,
                2.0874415098191044,
                0.6245974520488526,
                -0.5242067980713506,
                -1.8242427789539553
            ]
        },
        {
            "positions": [
                -0.025656523929394326,
                -1.3448104571945954,
                2.0638918466661615,
                0.708630263248816,
                -0.6191170062753336,
                -1.7233526136792023
            ]
        },
        {
            "positions": [
                -0.07796232611923792,
                -1.304545910967228,
                2.0403421835132187,
                0.7926630744487793,
                -0.7140272144793166,
                -1.6224624484044494
            ]
        },
        {
            "positions": [
                -0.13026812830908163,
                -1.2642813647398605,
                2.0167925203602755,
                0.8766958856487426,
                -0.8089374226832996,
                -1.5215722831296967
            ]
        },
        {
            "positions": [
                -0.18257393049892523,
                -1.224016818512493,
                1.9932428572073326,
                0.9607286968487059,
                -0.9038476308872824,
                -1.4206821178549438
            ]
        },
        {
            "positions": [
                -0.23487973268876894,
                -1.1837522722851255,
                1.9696931940543896,
                1.0447615080486694,
                -0.9987578390912658,
                -1.3197919525801907
            ]
        },
        {
            "positions": [
                -0.28718553487861254,
                -1.143487726057758,
                1.9461435309014465,
                1.1287943192486327,
                -1.0936680472952487,
                -1.218901787305438
            ]
        },
        {
            "positions": [
                -0.33949133706845613,
                -1.1032231798303904,
                1.9225938677485035,
                1.2128271304485958,
                -1.1885782554992317,
                -1.1180116220306853
            ]
        },
        {
            "positions": [
                -0.39179713925829984,
                -1.062958633603023,
                1.8990442045955604,
                1.2968599416485591,
                -1.2834884637032142,
                -1.0171214567559326
            ]
        },
        {
            "positions": [
                -0.44410294144814355,
                -1.0226940873756556,
                1.8754945414426176,
                1.3808927528485226,
                -1.3783986719071977,
                -0.9162312914811794
            ]
        },
        {
            "positions": [
                -0.49640874363798704,
                -0.9824295411482881,
                1.8519448782896744,
                1.464925564048486,
                -1.4733088801111807,
                -0.8153411262064263
            ]
        },
        {
            "positions": [
                -0.5487145458278307,
                -0.9421649949209207,
                1.8283952151367315,
                1.548958375248449,
                -1.5682190883151637,
                -0.7144509609316736
            ]
        },
        {
            "positions": [
                -0.6010203480176742,
                -0.9019004486935531,
                1.8048455519837885,
                1.6329911864484123,
                -1.6631292965191466,
                -0.6135607956569209
            ]
        },
        {
            "positions": [
                -0.6533261502075182,
                -0.8616359024661855,
                1.7812958888308454,
                1.717023997648376,
                -1.7580395047231296,
                -0.5126706303821678
            ]
        },
        {
            "positions": [
                -0.7056319523973617,
                -0.8213713562388181,
                1.7577462256779026,
                1.8010568088483394,
                -1.8529497129271126,
                -0.41178046510741506
            ]
        },
        {
            "positions": [
                -0.7579377545872054,
                -0.7811068100114507,
                1.7341965625249594,
                1.8850896200483027,
                -1.9478599211310956,
                -0.3108902998326619
            ]
        },
        {
            "positions": [
                -0.8102435567770488,
                -0.7408422637840832,
                1.7106468993720165,
                1.969122431248266,
                -2.0427701293350786,
                -0.21000013455790922
            ]
        },
        {
            "positions": [
                -0.8625493589668926,
                -0.7005777175567156,
                1.6870972362190733,
                2.0531552424482293,
                -2.1376803375390616,
                -0.10910996928315608
            ]
        },
        {
            "positions": [
                -0.9148551611567362,
                -0.6603131713293482,
                1.6635475730661304,
                2.1371880536481926,
                -2.2325905457430446,
                -0.008219804008403438
            ]
        }
    ]
}