{
    "goal": {
        "global_pose": {
            "orientation": {
                "w": 0.7047431493862688,
                "x": -0.7094548369677653,
                "y": 0.0024358444001904,
                "z": -0.0022348060817251984
            },
            "position": {
                "x": -0.39052492380142206,
                "y": 0.3671506643295288,
                "z": 0.19426114857196808
            }
        },
        "name": "move_to_magneteinheit_D"
    },
    "id": "ProjEST_move_to_magneteinheit_D_83",
    "joint_names": [
        "shoulder_pan_joint",
        "shoulder_lift_joint",
        "elbow_joint",
        "wrist_1_joint",
        "wrist_2_joint",
        "wrist_3_joint"
    ],
    "metrics": {
        "cart_traj_len": 4.078986614160764,
        "distance_elbow_joint": 4.069037051177729,
        "distance_shoulder_lift_joint": 1.6314817340660759,
        "distance_shoulder_pan_joint": 3.0003426146319088,
        "distance_wrist_1_joint": 1.6484853733742404,
        "distance_wrist_2_joint": 1.506098234083098,
        "distance_wrist_3_joint": 3.825619996161807,
        "smoothness": 0.22400384341055932,
        "time": 0.6594508139999999,
        "traj_len": 3.9599324493600725,
        "weighted_distance": 5.1465414215058845
    },
    "planner": "ProjEST",
    "start": {
        "state": {
            "elbow_joint": 0.7495348899011973,
            "shoulder_lift_joint": -0.6476975780737697,
            "shoulder_pan_joint": -2.711696901376276,
            "wrist_1_joint": -0.07506478080974305,
            "wrist_2_joint": 0.4329665971545858,
            "wrist_3_joint": 3.1361499051832524
        }
    },
    "waypoints": [
        {
            "positions": [
                -2.711696901376276,
                -0.6476975780737697,
                0.7495348899011973,
                -0.07506478080974305,
                0.4329665971545858,
                3.1361499051832524
            ]
        },
        {
            "positions": [
                -2.7163112881100355,
                -0.7080507859368322,
                0.8232946235266353,
                0.010338003065896884,
                0.392037539736256,
                3.093238968435575
            ]
        },
        {
            "positions": [
                -2.720925674843795,
                -0.7684039937998947,
                0.8970543571520732,
                0.09574078694153682,
                0.3511084823179262,
                3.0503280316878976
            ]
        },
        {
            "positions": [
                -2.7255400615775542,
                -0.8287572016629572,
                0.9708140907775111,
                0.18114357081717675,
                0.3101794248995964,
                3.0074170949402204
            ]
        },
        {
            "positions": [
                -2.7219714533550015,
                -0.9075834582550993,
                1.0063333705205817,
                0.18540593511201617,
                0.22040631409036904,
                2.8496244553089842
            ]
        },
        {
            "positions": [
                -2.7184028451324482,
                -0.9864097148472415,
                1.0418526502636523,
                0.18966829940685562,
                0.13063320328114167,
                2.691831815677748
            ]
        },
        {
            "positions": [
                -2.7148342369098954,
                -1.0652359714393835,
                1.0773719300067228,
                0.19393066370169504,
                0.0408600924719143,
                2.5340391760465115
            ]
        },
        {
            "positions": [
                -2.7112656286873427,
                -1.1440622280315258,
                1.1128912097497932,
                0.19819302799653446,
                -0.04891301833731304,
                2.3762465364152754
            ]
        },
        {
            "positions": [
                -2.70769702046479,
                -1.2228884846236678,
                1.1484104894928637,
                0.20245539229137388,
                -0.13868612914654044,
                2.2184538967840393
            ]
        },
        {
            "positions": [
                -2.7041284122422367,
                -1.30171474121581,
                1.1839297692359343,
                0.20671775658621333,
                -0.22845923995576778,
                2.0606612571528027
            ]
        },
        {
            "positions": [
                -2.700559804019684,
                -1.3805409978079521,
                1.2194490489790049,
                0.21098012088105275,
                -0.3182323507649951,
                1.9028686175215666
            ]
        },
        {
            "positions": [
                -2.5701827498809577,
                -1.4078973324654567,
                1.1417083621825184,
                0.25942519230487915,
                -0.32419991170932516,
                1.796942911269086
            ]
        },
        {
            "positions": [
                -2.439805695742231,
                -1.4352536671229614,
                1.063967675386032,
                0.3078702637287056,
                -0.33016747265365526,
                1.6910172050166057
            ]
        },
        {
            "positions": [
                -2.309428641603505,
                -1.462610001780466,
                0.9862269885895456,
                0.356315335152532,
                -0.3361350335979853,
                1.5850914987641254
            ]
        },
        {
            "positions": [
                -2.1790515874647784,
                -1.4899663364379707,
                0.9084863017930592,
                0.40476040657635837,
                -0.34210259454231534,
                1.4791657925116448
            ]
        },
        {
            "positions": [
                -2.0486745333260523,
                -1.5173226710954753,
                0.8307456149965728,
                0.45320547800018474,
                -0.3480701554866454,
                1.3732400862591643
            ]
        },
        {
            "positions": [
                -1.918297479187326,
                -1.54467900575298,
                0.7530049282000864,
                0.5016505494240112,
                -0.3540377164309755,
                1.267314380006684
            ]
        },
        {
            "positions": [
                -1.7879204250485996,
                -1.5720353404104845,
                0.6752642414036,
                0.5500956208478376,
                -0.3600052773753055,
                1.1613886737542036
            ]
        },
        {
            "positions": [
                -1.6575433709098732,
                -1.5993916750679893,
                0.5975235546071136,
                0.598540692271664,
                -0.36597283831963556,
                1.055462967501723
            ]
        },
        {
            "positions": [
                -1.5271663167711471,
                -1.6267480097254938,
                0.5197828678106271,
                0.6469857636954904,
                -0.3719403992639656,
                0.9495372612492426
            ]
        },
        {
            "positions": [
                -1.3967892626324208,
                -1.6541043443829986,
                0.4420421810141407,
                0.6954308351193168,
                -0.3779079602082957,
                0.8436115549967622
            ]
        },
        {
            "positions": [
                -1.2664122084936942,
                -1.6814606790405031,
                0.36430149421765423,
                0.7438759065431433,
                -0.38387552115262574,
                0.7376858487442817
            ]
        },
        {
            "positions": [
                -1.136035154354968,
                -1.7088170136980079,
                0.28656080742116785,
                0.7923209779669697,
                -0.3898430820969558,
                0.6317601424918013
            ]
        },
        {
            "positions": [
                -1.0056581002162417,
                -1.7361733483555124,
                0.20882012062468136,
                0.8407660493907961,
                -0.3958106430412859,
                0.5258344362393208
            ]
        },
        {
            "positions": [
                -0.8752810460775153,
                -1.763529683013017,
                0.1310794338281951,
                0.8892111208146224,
                -0.4017782039856159,
                0.4199087299868405
            ]
        },
        {
            "positions": [
                -0.744903991938789,
                -1.7908860176705217,
                0.0533387470317086,
                0.9376561922384489,
                -0.40774576492994596,
                0.31398302373435993
            ]
        },
        {
            "positions": [
                -0.6145269378000626,
                -1.8182423523280264,
                -0.02440193976477767,
                0.9861012636622752,
                -0.413713325874276,
                0.2080573174818796
            ]
        },
        {
            "positions": [
                -0.4841498836613365,
                -1.845598686985531,
                -0.10214262656126416,
                1.0345463350861017,
                -0.4196808868186061,
                0.10213161122939907
            ]
        },
        {
            "positions": [
                -0.35377282952261035,
                -1.8729550216430355,
                -0.17988331335775065,
                1.082991406509928,
                -0.42564844776293614,
                -0.0037940950230812565
            ]
        },
        {
            "positions": [
                -0.22339577538388378,
                -1.9003113563005403,
                -0.25762400015423714,
                1.1314364779337545,
                -0.43161600870726624,
                -0.10971980127556202
            ]
        },
        {
            "positions": [
                -0.09301872124515764,
                -1.927667690958045,
                -0.3353646869507234,
                1.1798815493575807,
                -0.4375835696515963,
                -0.21564550752804212
            ]
        },
        {
            "positions": [
                0.03735833289356902,
                -1.9550240256155496,
                -0.41310537374720996,
                1.2283266207814072,
                -0.4435511305959263,
                -0.32157121378052267
            ]
        },
        {
            "positions": [
                0.033522152735225276,
                -1.982569547598393,
                -0.6061654941089492,
                1.2632028464356104,
                -0.3782384965056915,
                -0.2825989995632107
            ]
        },
        {
            "positions": [
                0.02968597257688153,
                -2.0101150695812366,
                -0.7992256144706882,
                1.2980790720898137,
                -0.31292586241545667,
                -0.24362678534589877
            ]
        },
        {
            "positions": [
                0.025849792418537784,
                -2.0376605915640806,
                -0.9922857348324274,
                1.3329552977440169,
                -0.24761322832522187,
                -0.20465457112858682
            ]
        },
        {
            "positions": [
                0.022013612260194042,
                -2.065206113546924,
                -1.1853458551941665,
                1.3678315233982201,
                -0.182300594234987,
                -0.16568235691127486
            ]
        },
        {
            "positions": [
                0.018177432101850292,
                -2.0927516355297677,
                -1.3784059755559057,
                1.4027077490524236,
                -0.11698796014475221,
                -0.1267101426939629
            ]
        },
        {
            "positions": [
                0.01434125194350655,
                -2.1202971575126113,
                -1.5714660959176447,
                1.4375839747066268,
                -0.05167532605451741,
                -0.08773792847665096
            ]
        },
        {
            "positions": [
                0.010505071785162804,
                -2.1478426794954553,
                -1.764526216279384,
                1.47246020036083,
                0.013637308035717444,
                -0.04876571425933901
            ]
        },
        {
            "positions": [
                0.006668891626819062,
                -2.175388201478299,
                -1.957586336641123,
                1.5073364260150333,
                0.0789499421259523,
                -0.009793500042027059
            ]
        },
        {
            "positions": [
                0.0028327114684753157,
                -2.2029337234611424,
                -2.1506464570028623,
                1.5422126516692365,
                0.14426257621618704,
                0.0291787141752849
            ]
        },
        {
            "positions": [
                -0.06019243470966329,
                -2.2283489196873765,
                -2.2269889190422134,
                1.5318100047041494,
                0.15818484272301137,
                0.023462397761210726
            ]
        },
        {
            "positions": [
                -0.1862427270659405,
                -2.2791793121398456,
                -2.3796738431209157,
                1.5110047107739755,
                0.18602937573665998,
                0.012029764933062384
            ]
        }
    ]
}