{
    "goal": {
        "global_pose": {
            "orientation": {
                "w": 0.7047431468963623,
                "x": -0.7094548344612122,
                "y": 0.0024358443915843964,
                "z": -0.0022348060738295317
            },
            "position": {
                "x": 0.6094750761985779,
                "y": 0.3671506643295288,
                "z": 0.19426114857196808
            }
        },
        "name": "move_to_magneteinheit_A"
    },
    "id": "ProjEST_move_to_magneteinheit_A_128",
    "joint_names": [
        "shoulder_pan_joint",
        "shoulder_lift_joint",
        "elbow_joint",
        "wrist_1_joint",
        "wrist_2_joint",
        "wrist_3_joint"
    ],
    "metrics": {
        "cart_traj_len": 1.0537628309160438,
        "distance_elbow_joint": 0.3945395679871202,
        "distance_shoulder_lift_joint": 0.3593042144608656,
        "distance_shoulder_pan_joint": 1.2430864588020143,
        "distance_wrist_1_joint": 2.2573782367091733,
        "distance_wrist_2_joint": 1.7110282124102645,
        "distance_wrist_3_joint": 1.1837117039095224,
        "smoothness": 6.217248987130958e-16,
        "time": 0.100175359,
        "traj_len": 2.673770445322291,
        "weighted_distance": 3.672176228235437
    },
    "planner": "ProjEST",
    "start": {
        "state": {
            "elbow_joint": 1.5739458966750683,
            "shoulder_lift_joint": -1.4977259741207325,
            "shoulder_pan_joint": -1.1188672016454206,
            "wrist_1_joint": 1.494575848278785,
            "wrist_2_joint": -1.5706037134824402,
            "wrist_3_joint": -2.0226957942261072
        }
    },
    "waypoints": [
        {
            "positions": [
                -1.1188672016454206,
                -1.4977259741207325,
                1.5739458966750683,
                1.494575848278785,
                -1.5706037134824402,
                -2.0226957942261072
            ]
        },
        {
            "positions": [
                -1.0534415985505778,
                -1.4788152259912133,
                1.594711137095443,
                1.3757664673993548,
                -1.4805495970397948,
                -2.084996410221345
            ]
        },
        {
            "positions": [
                -0.9880159954557349,
                -1.459904477861694,
                1.6154763775158179,
                1.2569570865199247,
                -1.3904954805971492,
                -2.147297026216583
            ]
        },
        {
            "positions": [
                -0.922590392360892,
                -1.4409937297321749,
                1.6362416179361925,
                1.1381477056404945,
                -1.3004413641545036,
                -2.209597642211821
            ]
        },
        {
            "positions": [
                -0.8571647892660492,
                -1.4220829816026554,
                1.6570068583565674,
                1.0193383247610643,
                -1.2103872477118582,
                -2.2718982582070595
            ]
        },
        {
            "positions": [
                -0.7917391861712064,
                -1.4031722334731362,
                1.677772098776942,
                0.9005289438816342,
                -1.1203331312692129,
                -2.3341988742022974
            ]
        },
        {
            "positions": [
                -0.7263135830763635,
                -1.384261485343617,
                1.6985373391973169,
                0.781719563002204,
                -1.0302790148265673,
                -2.3964994901975354
            ]
        },
        {
            "positions": [
                -0.6608879799815206,
                -1.3653507372140978,
                1.7193025796176915,
                0.6629101821227739,
                -0.9402248983839218,
                -2.4588001061927733
            ]
        },
        {
            "positions": [
                -0.5954623768866778,
                -1.3464399890845786,
                1.7400678200380664,
                0.5441008012433437,
                -0.8501707819412763,
                -2.5211007221880113
            ]
        },
        {
            "positions": [
                -0.530036773791835,
                -1.3275292409550594,
                1.760833060458441,
                0.42529142036391354,
                -0.7601166654986308,
                -2.5834013381832492
            ]
        },
        {
            "positions": [
                -0.4646111706969921,
                -1.30861849282554,
                1.7815983008788159,
                0.3064820394844834,
                -0.6700625490559853,
                -2.645701954178487
            ]
        },
        {
            "positions": [
                -0.3991855676021492,
                -1.2897077446960208,
                1.8023635412991905,
                0.187672658605053,
                -0.5800084326133397,
                -2.7080025701737256
            ]
        },
        {
            "positions": [
                -0.3337599645073064,
                -1.2707969965665016,
                1.8231287817195654,
                0.06886327772562306,
                -0.4899543161706943,
                -2.7703031861689635
            ]
        },
        {
            "positions": [
                -0.2683343614124635,
                -1.2518862484369824,
                1.84389402213994,
                -0.04994610315380732,
                -0.3999001997280487,
                -2.8326038021642015
            ]
        },
        {
            "positions": [
                -0.20290875831762067,
                -1.2329755003074632,
                1.864659262560315,
                -0.16875548403323726,
                -0.3098460832854033,
                -2.8949044181594394
            ]
        },
        {
            "positions": [
                -0.13748315522277776,
                -1.214064752177944,
                1.8854245029806895,
                -0.28756486491266764,
                -0.2197919668427577,
                -2.9572050341546774
            ]
        },
        {
            "positions": [
                -0.07205755212793497,
                -1.1951540040484248,
                1.9061897434010642,
                -0.4063742457920976,
                -0.12973785040011232,
                -3.019505650149916
            ]
        },
        {
            "positions": [
                -0.006631949033091944,
                -1.1762432559189053,
                1.926954983821439,
                -0.525183626671528,
                -0.039683733957466716,
                -3.0818062661451533
            ]
        },
        {
            "positions": [
                0.05879365406175063,
                -1.1573325077893861,
                1.947720224241814,
                -0.6439930075509579,
                0.050370382485178666,
                -3.1441068821403917
            ]
        },
        {
            "positions": [
                0.12421925715659363,
                -1.138421759659867,
                1.9684854646621885,
                -0.7628023884303885,
                0.14042449892782435,
                -3.2064074981356296
            ]
        }
    ]
}