{
    "goal": {
        "global_pose": {
            "orientation": {
                "w": 0.5084816262002911,
                "x": -0.4908360881923452,
                "y": 0.5182115481033761,
                "z": -0.48164630358495003
            },
            "position": {
                "x": 0.5540239810943604,
                "y": -0.46912469901144505,
                "z": 0.16403168439865112
            }
        },
        "name": "move_to_storage_B"
    },
    "id": "ProjEST_move_to_storage_B_99",
    "joint_names": [
        "shoulder_pan_joint",
        "shoulder_lift_joint",
        "elbow_joint",
        "wrist_1_joint",
        "wrist_2_joint",
        "wrist_3_joint"
    ],
    "metrics": {
        "cart_traj_len": 4.079681545075571,
        "distance_elbow_joint": 2.7596970834234664,
        "distance_shoulder_lift_joint": 1.3968324414941466,
        "distance_shoulder_pan_joint": 3.649038299896478,
        "distance_wrist_1_joint": 2.9813932710596394,
        "distance_wrist_2_joint": 2.703442585078335,
        "distance_wrist_3_joint": 3.1326165272225723,
        "smoothness": 0.3053614482446955,
        "time": 0.12468449499999999,
        "traj_len": 4.077133822696361,
        "weighted_distance": 5.34538016597115
    },
    "planner": "ProjEST",
    "start": {
        "state": {
            "elbow_joint": 1.6649325706314817,
            "shoulder_lift_joint": -0.6616388048112454,
            "shoulder_pan_joint": -0.9139837860083814,
            "wrist_1_joint": 2.146757197745094,
            "wrist_2_joint": -2.234196043158733,
            "wrist_3_joint": 0.005471033829999897
        }
    },
    "waypoints": [
        {
            "positions": [
                -0.9139837860083814,
                -0.6616388048112454,
                1.6649325706314817,
                2.146757197745094,
                -2.234196043158733,
                0.005471033829999897
            ]
        },
        {
            "positions": [
                -0.8386122601691515,
                -0.7019523183738117,
                1.612487357015243,
                2.0625558655683798,
                -2.1327754917401656,
                0.03728241261561368
            ]
        },
        {
            "positions": [
                -0.7632407343299217,
                -0.742265831936378,
                1.560042143399004,
                1.9783545333916654,
                -2.0313549403215982,
                0.06909379140122747
            ]
        },
        {
            "positions": [
                -0.6878692084906918,
                -0.7825793454989443,
                1.5075969297827652,
                1.894153201214951,
                -1.9299343889030307,
                0.10090517018684127
            ]
        },
        {
            "positions": [
                -0.6124976826514619,
                -0.8228928590615107,
                1.4551517161665264,
                1.8099518690382366,
                -1.8285138374844632,
                0.13271654897245502
            ]
        },
        {
            "positions": [
                -0.537126156812232,
                -0.863206372624077,
                1.4027065025502874,
                1.7257505368615222,
                -1.7270932860658958,
                0.16452792775806882
            ]
        },
        {
            "positions": [
                -0.4617546309730021,
                -0.9035198861866433,
                1.3502612889340486,
                1.6415492046848077,
                -1.6256727346473285,
                0.19633930654368262
            ]
        },
        {
            "positions": [
                -0.38638310513377216,
                -0.9438333997492097,
                1.2978160753178098,
                1.5573478725080934,
                -1.524252183228761,
                0.22815068532929642
            ]
        },
        {
            "positions": [
                -0.3110115792945424,
                -0.984146913311776,
                1.2453708617015709,
                1.473146540331379,
                -1.4228316318101935,
                0.2599620641149102
            ]
        },
        {
            "positions": [
                -0.23564005345531247,
                -1.0244604268743422,
                1.192925648085332,
                1.3889452081546647,
                -1.3214110803916261,
                0.29177344290052404
            ]
        },
        {
            "positions": [
                -0.16026852761608257,
                -1.0647739404369085,
                1.1404804344690933,
                1.3047438759779504,
                -1.2199905289730588,
                0.3235848216861378
            ]
        },
        {
            "positions": [
                -0.08489700177685267,
                -1.1050874539994748,
                1.0880352208528543,
                1.2205425438012358,
                -1.1185699775544913,
                0.3553962004717516
            ]
        },
        {
            "positions": [
                -0.009525475937622874,
                -1.1454009675620411,
                1.0355900072366158,
                1.1363412116245215,
                -1.017149426135924,
                0.3872075792573654
            ]
        },
        {
            "positions": [
                0.06584604990160692,
                -1.1857144811246074,
                0.9831447936203769,
                1.0521398794478072,
                -0.9157288747173566,
                0.4190189580429791
            ]
        },
        {
            "positions": [
                0.14121757574083704,
                -1.2260279946871737,
                0.9306995800041379,
                0.9679385472710926,
                -0.8143083232987891,
                0.45083033682859297
            ]
        },
        {
            "positions": [
                0.21658910158006683,
                -1.2663415082497402,
                0.8782543663878991,
                0.8837372150943783,
                -0.7128877718802216,
                0.48264171561420677
            ]
        },
        {
            "positions": [
                0.2919606274192966,
                -1.3066550218123063,
                0.8258091527716602,
                0.799535882917664,
                -0.6114672204616542,
                0.5144530943998205
            ]
        },
        {
            "positions": [
                0.3673321532585264,
                -1.3469685353748728,
                0.7733639391554215,
                0.7153345507409496,
                -0.5100466690430869,
                0.5462644731854343
            ]
        },
        {
            "positions": [
                0.44270367909775643,
                -1.387282048937439,
                0.7209187255391826,
                0.6311332185642351,
                -0.4086261176245194,
                0.5780758519710482
            ]
        },
        {
            "positions": [
                0.5180752049369862,
                -1.4275955625000054,
                0.6684735119229437,
                0.5469318863875208,
                -0.3072055662059521,
                0.6098872307566618
            ]
        },
        {
            "positions": [
                0.5934467307762162,
                -1.4679090760625715,
                0.6160282983067049,
                0.46273055421080644,
                -0.20578501478738476,
                0.6416986095422756
            ]
        },
        {
            "positions": [
                0.668818256615446,
                -1.508222589625138,
                0.5635830846904661,
                0.3785292220340921,
                -0.10436446336881744,
                0.6735099883278894
            ]
        },
        {
            "positions": [
                0.744189782454676,
                -1.5485361031877043,
                0.5111378710742271,
                0.29432788985737757,
                -0.002943911950249678,
                0.7053213671135032
            ]
        },
        {
            "positions": [
                0.8195613082939057,
                -1.5888496167502706,
                0.4586926574579884,
                0.21012655768066324,
                0.09847663946831765,
                0.737132745899117
            ]
        },
        {
            "positions": [
                0.7237866480141963,
                -1.5653685352725146,
                0.536365515970487,
                0.15788842613090273,
                0.11701513459088188,
                0.8571804866567898
            ]
        },
        {
            "positions": [
                0.6280119877344869,
                -1.5418874537947584,
                0.6140383744829857,
                0.10565029458114221,
                0.1355536297134461,
                0.9772282274144626
            ]
        },
        {
            "positions": [
                0.5322373274547774,
                -1.5184063723170023,
                0.6917112329954843,
                0.053412163031381715,
                0.1540921248360103,
                1.0972759681721354
            ]
        },
        {
            "positions": [
                0.436462667175068,
                -1.4949252908392463,
                0.769384091507983,
                0.0011740314816211794,
                0.17263061995857454,
                1.2173237089298081
            ]
        },
        {
            "positions": [
                0.34068800689535855,
                -1.4714442093614903,
                0.8470569500204816,
                -0.05106410006813933,
                0.19116911508113876,
                1.337371449687481
            ]
        },
        {
            "positions": [
                0.24491334661564912,
                -1.4479631278837342,
                0.9247298085329803,
                -0.10330223161789981,
                0.209707610203703,
                1.4574191904451537
            ]
        },
        {
            "positions": [
                0.14913868633593974,
                -1.424482046405978,
                1.0024026670454789,
                -0.15554036316766034,
                0.2282461053262672,
                1.5774669312028264
            ]
        },
        {
            "positions": [
                0.05336402605623025,
                -1.401000964928222,
                1.0800755255579775,
                -0.20777849471742088,
                0.24678460044883144,
                1.6975146719604992
            ]
        },
        {
            "positions": [
                -0.04241063422347924,
                -1.377519883450466,
                1.157748384070476,
                -0.2600166262671814,
                0.26532309557139566,
                1.817562412718172
            ]
        },
        {
            "positions": [
                -0.13818529450318862,
                -1.3540388019727099,
                1.2354212425829747,
                -0.3122547578169419,
                0.2838615906939599,
                1.9376101534758448
            ]
        },
        {
            "positions": [
                -0.2339599547828981,
                -1.3305577204949537,
                1.3130941010954735,
                -0.36449288936670243,
                0.3024000858165241,
                2.0576578942335173
            ]
        },
        {
            "positions": [
                -0.3297346150626075,
                -1.3070766390171977,
                1.390766959607972,
                -0.41673102091646286,
                0.32093858093908834,
                2.1777056349911903
            ]
        },
        {
            "positions": [
                -0.42550927534231686,
                -1.2835955575394418,
                1.4684398181204708,
                -0.4689691524662235,
                0.33947707606165256,
                2.2977533757488633
            ]
        },
        {
            "positions": [
                -0.5212839356220262,
                -1.2601144760616856,
                1.5461126766329694,
                -0.5212072840159839,
                0.35801557118421673,
                2.417801116506536
            ]
        },
        {
            "positions": [
                -0.6170585959017358,
                -1.2366333945839294,
                1.623785535145468,
                -0.5734454155657445,
                0.37655406630678095,
                2.5378488572642084
            ]
        },
        {
            "positions": [
                -0.7128332561814452,
                -1.2131523131061734,
                1.7014583936579668,
                -0.625683547115505,
                0.3950925614293452,
                2.6578965980218814
            ]
        },
        {
            "positions": [
                -0.8086079164611546,
                -1.1896712316284175,
                1.7791312521704652,
                -0.6779216786652654,
                0.4136310565519094,
                2.777944338779554
            ]
        },
        {
            "positions": [
                -0.9043825767408642,
                -1.1661901501506613,
                1.856804110682964,
                -0.7301598102150261,
                0.43216955167447363,
                2.897992079537227
            ]
        },
        {
            "positions": [
                -1.0001572370205734,
                -1.1427090686729051,
                1.9344769691954626,
                -0.7823979417647865,
                0.45070804679703785,
                3.0180398202948995
            ]
        },
        {
            "positions": [
                -1.095931897300283,
                -1.1192279871951492,
                2.0121498277079612,
                -0.8346360733145471,
                0.4692465419196021,
                3.1380875610525725
            ]
        }
    ]
}