{
    "goal": {
        "global_pose": {
            "orientation": {
                "w": 0.7047431468963623,
                "x": -0.7094548344612122,
                "y": 0.0024358443915843964,
                "z": -0.0022348060738295317
            },
            "position": {
                "x": 0.6094750761985779,
                "y": 0.3671506643295288,
                "z": 0.19426114857196808
            }
        },
        "name": "move_to_magneteinheit_A"
    },
    "id": "ProjEST_move_to_magneteinheit_A_127",
    "joint_names": [
        "shoulder_pan_joint",
        "shoulder_lift_joint",
        "elbow_joint",
        "wrist_1_joint",
        "wrist_2_joint",
        "wrist_3_joint"
    ],
    "metrics": {
        "cart_traj_len": 1.0534975797100985,
        "distance_elbow_joint": 0.4077309775226665,
        "distance_shoulder_lift_joint": 0.35319180739938894,
        "distance_shoulder_pan_joint": 1.2427112342594266,
        "distance_wrist_1_joint": 2.3127443709886353,
        "distance_wrist_2_joint": 1.7057843601689913,
        "distance_wrist_3_joint": 1.1319876457710314,
        "smoothness": 0.0,
        "time": 0.043295172,
        "traj_len": 2.6747243589032013,
        "weighted_distance": 3.6656042365222445
    },
    "planner": "ProjEST",
    "start": {
        "state": {
            "elbow_joint": 1.5739458966750683,
            "shoulder_lift_joint": -1.4977259741207325,
            "shoulder_pan_joint": -1.1188672016454206,
            "wrist_1_joint": 1.494575848278785,
            "wrist_2_joint": -1.5706037134824402,
            "wrist_3_joint": -2.0226957942261072
        }
    },
    "waypoints": [
        {
            "positions": [
                -1.1188672016454206,
                -1.4977259741207325,
                1.5739458966750683,
                1.494575848278785,
                -1.5706037134824402,
                -2.0226957942261072
            ]
        },
        {
            "positions": [
                -1.053461347210714,
                -1.4791369316260279,
                1.5954054218078402,
                1.3728524603320147,
                -1.4808255892630195,
                -2.082274091371951
            ]
        },
        {
            "positions": [
                -0.9880554927760073,
                -1.460547889131323,
                1.6168649469406122,
                1.2511290723852444,
                -1.391047465043599,
                -2.141852388517795
            ]
        },
        {
            "positions": [
                -0.9226496383413006,
                -1.4419588466366184,
                1.638324472073384,
                1.1294056844384741,
                -1.3012693408241784,
                -2.2014306856636385
            ]
        },
        {
            "positions": [
                -0.8572437839065941,
                -1.4233698041419138,
                1.659783997206156,
                1.0076822964917038,
                -1.2114912166047578,
                -2.261008982809482
            ]
        },
        {
            "positions": [
                -0.7918379294718874,
                -1.404780761647209,
                1.681243522338928,
                0.8859589085449336,
                -1.1217130923853373,
                -2.320587279955326
            ]
        },
        {
            "positions": [
                -0.7264320750371807,
                -1.3861917191525044,
                1.7027030474717,
                0.7642355205981634,
                -1.0319349681659167,
                -2.38016557710117
            ]
        },
        {
            "positions": [
                -0.661026220602474,
                -1.3676026766577998,
                1.7241625726044718,
                0.6425121326513931,
                -0.9421568439464961,
                -2.4397438742470134
            ]
        },
        {
            "positions": [
                -0.5956203661677674,
                -1.3490136341630952,
                1.7456220977372436,
                0.5207887447046228,
                -0.8523787197270755,
                -2.4993221713928575
            ]
        },
        {
            "positions": [
                -0.5302145117330607,
                -1.3304245916683903,
                1.7670816228700157,
                0.3990653567578526,
                -0.7626005955076549,
                -2.558900468538701
            ]
        },
        {
            "positions": [
                -0.46480865729835397,
                -1.3118355491736857,
                1.7885411480027875,
                0.2773419688110823,
                -0.6728224712882344,
                -2.6184787656845447
            ]
        },
        {
            "positions": [
                -0.39940280286364727,
                -1.293246506678981,
                1.8100006731355596,
                0.1556185808643118,
                -0.5830443470688137,
                -2.678057062830389
            ]
        },
        {
            "positions": [
                -0.3339969484289407,
                -1.2746574641842763,
                1.8314601982683314,
                0.03389519291754173,
                -0.49326622284939314,
                -2.7376353599762324
            ]
        },
        {
            "positions": [
                -0.268591093994234,
                -1.2560684216895717,
                1.8529197234011034,
                -0.08782819502922856,
                -0.4034880986299725,
                -2.797213657122076
            ]
        },
        {
            "positions": [
                -0.2031852395595274,
                -1.237479379194867,
                1.8743792485338753,
                -0.20955158297599885,
                -0.31370997441055204,
                -2.8567919542679197
            ]
        },
        {
            "positions": [
                -0.13777938512482069,
                -1.2188903367001622,
                1.895838773666647,
                -0.33127497092276914,
                -0.22393185019113138,
                -2.9163702514137637
            ]
        },
        {
            "positions": [
                -0.0723735306901141,
                -1.2003012942054576,
                1.9172982987994192,
                -0.45299835886953943,
                -0.1341537259717107,
                -2.9759485485596073
            ]
        },
        {
            "positions": [
                -0.006967676255407396,
                -1.1817122517107528,
                1.938757823932191,
                -0.5747217468163097,
                -0.04437560175229005,
                -3.0355268457054514
            ]
        },
        {
            "positions": [
                0.058438178179299305,
                -1.1631232092160482,
                1.9602173490649628,
                -0.6964451347630798,
                0.04540252246713039,
                -3.0951051428512946
            ]
        },
        {
            "positions": [
                0.12384403261400609,
                -1.1445341667213436,
                1.9816768741977349,
                -0.8181685227098502,
                0.13518064668655114,
                -3.1546834399971386
            ]
        }
    ]
}