{
    "goal": {
        "global_pose": {
            "orientation": {
                "w": -0.4816463035849501,
                "x": 0.5182115481033762,
                "y": 0.4908360881923453,
                "z": -0.5084816262002911
            },
            "position": {
                "x": -0.8240239810943604,
                "y": 0.19912469901144506,
                "z": 0.16403168439865112
            }
        },
        "name": "move_to_storage_D"
    },
    "id": "ProjEST_move_to_storage_D_120",
    "joint_names": [
        "shoulder_pan_joint",
        "shoulder_lift_joint",
        "elbow_joint",
        "wrist_1_joint",
        "wrist_2_joint",
        "wrist_3_joint"
    ],
    "metrics": {
        "cart_traj_len": 4.052897719957964,
        "distance_elbow_joint": 4.21235327597881,
        "distance_shoulder_lift_joint": 1.308789690656681,
        "distance_shoulder_pan_joint": 2.8133631033462105,
        "distance_wrist_1_joint": 2.732492750328359,
        "distance_wrist_2_joint": 0.8737066848592175,
        "distance_wrist_3_joint": 3.133313942736458,
        "smoothness": 0.09171152756217023,
        "time": 0.151650171,
        "traj_len": 3.882527456168949,
        "weighted_distance": 4.994681848583174
    },
    "planner": "ProjEST",
    "start": {
        "state": {
            "elbow_joint": -2.384821997420982,
            "shoulder_lift_joint": -2.2788054674887404,
            "shoulder_pan_joint": -0.18546946417610016,
            "wrist_1_joint": 1.4845937964226739,
            "wrist_2_joint": 0.1789877726866377,
            "wrist_3_joint": 0.03710572555276528
        }
    },
    "waypoints": [
        {
            "positions": [
                -0.18546946417610016,
                -2.2788054674887404,
                -2.384821997420982,
                1.4845937964226739,
                0.1789877726866377,
                0.03710572555276528
            ]
        },
        {
            "positions": [
                -0.12106489346919963,
                -2.2901433867590764,
                -2.259829228847618,
                1.4583065155802304,
                0.2781557335091261,
                -0.01524309294219326
            ]
        },
        {
            "positions": [
                -0.0566603227622991,
                -2.3014813060294124,
                -2.1348364602742538,
                1.432019234737787,
                0.3773236943316145,
                -0.0675919114371518
            ]
        },
        {
            "positions": [
                0.022987644009959923,
                -2.2608689392662566,
                -2.027503644933071,
                1.3502998852807904,
                0.3854388150914671,
                -0.13507591061154328
            ]
        },
        {
            "positions": [
                0.10263561078221894,
                -2.2202565725031005,
                -1.9201708295918876,
                1.268580535823794,
                0.3935539358513197,
                -0.2025599097859348
            ]
        },
        {
            "positions": [
                0.182283577554478,
                -2.1796442057399448,
                -1.8128380142507043,
                1.1868611863667975,
                0.4016690566111723,
                -0.2700439089603263
            ]
        },
        {
            "positions": [
                0.261931544326737,
                -2.139031838976789,
                -1.7055051989095213,
                1.1051418369098012,
                0.4097841773710249,
                -0.3375279081347178
            ]
        },
        {
            "positions": [
                0.34157951109899604,
                -2.098419472213633,
                -1.5981723835683381,
                1.0234224874528046,
                0.4178992981308775,
                -0.4050119073091093
            ]
        },
        {
            "positions": [
                0.4212274778712551,
                -2.057807105450477,
                -1.490839568227155,
                0.9417031379958081,
                0.4260144188907301,
                -0.4724959064835008
            ]
        },
        {
            "positions": [
                0.5008754446435142,
                -2.017194738687321,
                -1.383506752885972,
                0.8599837885388117,
                0.43412953965058265,
                -0.5399799056578922
            ]
        },
        {
            "positions": [
                0.5805234114157731,
                -1.9765823719241653,
                -1.276173937544789,
                0.7782644390818152,
                0.4422446604104353,
                -0.6074639048322837
            ]
        },
        {
            "positions": [
                0.6601713781880321,
                -1.9359700051610096,
                -1.1688411222036057,
                0.6965450896248188,
                0.45035978117028785,
                -0.6749479040066753
            ]
        },
        {
            "positions": [
                0.7398193449602912,
                -1.8953576383978537,
                -1.0615083068624225,
                0.6148257401678223,
                0.45847490193014045,
                -0.7424319031810668
            ]
        },
        {
            "positions": [
                0.8194673117325502,
                -1.8547452716346977,
                -0.9541754915212395,
                0.5331063907108259,
                0.46659002268999306,
                -0.8099159023554582
            ]
        },
        {
            "positions": [
                0.8991152785048093,
                -1.8141329048715418,
                -0.846842676180056,
                0.45138704125382934,
                0.47470514344984566,
                -0.8773999015298498
            ]
        },
        {
            "positions": [
                0.9787632452770683,
                -1.7735205381083858,
                -0.739509860838873,
                0.3696676917968329,
                0.48282026420969826,
                -0.9448839007042413
            ]
        },
        {
            "positions": [
                1.0584112120493274,
                -1.7329081713452301,
                -0.6321770454976898,
                0.28794834233983657,
                0.49093538496955086,
                -1.0123678998786327
            ]
        },
        {
            "positions": [
                1.1380591788215864,
                -1.6922958045820742,
                -0.5248442301565068,
                0.20622899288284002,
                0.49905050572940346,
                -1.0798518990530241
            ]
        },
        {
            "positions": [
                1.2177071455938453,
                -1.6516834378189182,
                -0.41751141481532383,
                0.12450964342584347,
                0.5071656264892561,
                -1.1473358982274156
            ]
        },
        {
            "positions": [
                1.2973551123661045,
                -1.6110710710557625,
                -0.3101785994741406,
                0.04279029396884715,
                0.5152807472491087,
                -1.2148198974018072
            ]
        },
        {
            "positions": [
                1.3770030791383634,
                -1.5704587042926066,
                -0.20284578413295762,
                -0.0389290554881494,
                0.5233958680089612,
                -1.2823038965761986
            ]
        },
        {
            "positions": [
                1.4566510459106223,
                -1.5298463375294507,
                -0.09551296879177462,
                -0.12064840494514573,
                0.5315109887688139,
                -1.34978789575059
            ]
        },
        {
            "positions": [
                1.5362990126828815,
                -1.489233970766295,
                0.011819846549408819,
                -0.20236775440214227,
                0.5396261095286664,
                -1.4172718949249816
            ]
        },
        {
            "positions": [
                1.6159469794551404,
                -1.448621604003139,
                0.11915266189059182,
                -0.2840871038591386,
                0.5477412302885191,
                -1.484755894099373
            ]
        },
        {
            "positions": [
                1.6955949462273994,
                -1.408009237239983,
                0.2264854772317748,
                -0.36580645331613515,
                0.5558563510483716,
                -1.5522398932737644
            ]
        },
        {
            "positions": [
                1.7752429129996588,
                -1.3673968704768271,
                0.33381829257295825,
                -0.4475258027731317,
                0.5639714718082243,
                -1.6197238924481563
            ]
        },
        {
            "positions": [
                1.8548908797719177,
                -1.3267845037136712,
                0.4411511079141417,
                -0.5292451522301282,
                0.5720865925680768,
                -1.6872078916225477
            ]
        },
        {
            "positions": [
                1.9345388465441766,
                -1.2861721369505152,
                0.5484839232553247,
                -0.6109645016871248,
                0.5802017133279295,
                -1.754691890796939
            ]
        },
        {
            "positions": [
                2.0141868133164356,
                -1.2455597701873595,
                0.6558167385965077,
                -0.6926838511441211,
                0.588316834087782,
                -1.8221758899713307
            ]
        },
        {
            "positions": [
                2.0938347800886947,
                -1.2049474034242036,
                0.7631495539376907,
                -0.7744032006011174,
                0.5964319548476347,
                -1.8896598891457221
            ]
        },
        {
            "positions": [
                2.173482746860954,
                -1.1643350366610477,
                0.8704823692788741,
                -0.8561225500581138,
                0.6045470756074872,
                -1.9571438883201135
            ]
        },
        {
            "positions": [
                2.2531307136332126,
                -1.123722669897892,
                0.9778151846200571,
                -0.9378418995151105,
                0.6126621963673398,
                -2.024627887494505
            ]
        },
        {
            "positions": [
                2.3327786804054718,
                -1.083110303134736,
                1.0851479999612401,
                -1.0195612489721069,
                0.6207773171271924,
                -2.0921118866688966
            ]
        },
        {
            "positions": [
                2.3749379602289915,
                -1.0734327532459742,
                1.191202754046467,
                -0.9869415768387386,
                0.68247976575843,
                -2.2355542195995817
            ]
        },
        {
            "positions": [
                2.4170972400525113,
                -1.0637552033572124,
                1.297257508131694,
                -0.9543219047053704,
                0.7441822143896675,
                -2.3789965525302668
            ]
        },
        {
            "positions": [
                2.459256519876031,
                -1.0540776534684506,
                1.4033122622169207,
                -0.921702232572002,
                0.805884663020905,
                -2.522438885460952
            ]
        },
        {
            "positions": [
                2.501415799699551,
                -1.0444001035796888,
                1.5093670163021478,
                -0.8890825604386338,
                0.8675871116521425,
                -2.665881218391637
            ]
        },
        {
            "positions": [
                2.543575079523071,
                -1.034722553690927,
                1.6154217703873746,
                -0.8564628883052654,
                0.9292895602833802,
                -2.8093235513223225
            ]
        },
        {
            "positions": [
                2.5857343593465907,
                -1.0250450038021652,
                1.7214765244726014,
                -0.8238432161718972,
                0.9909920089146176,
                -2.9527658842530076
            ]
        },
        {
            "positions": [
                2.6278936391701104,
                -1.0153674539134034,
                1.8275312785578284,
                -0.7912235440385289,
                1.0526944575458552,
                -3.0962082171836927
            ]
        }
    ]
}