{
    "goal": {
        "global_pose": {
            "orientation": {
                "w": -0.4816463035849501,
                "x": 0.5182115481033762,
                "y": 0.4908360881923453,
                "z": -0.5084816262002911
            },
            "position": {
                "x": -0.8240239810943604,
                "y": 0.19912469901144506,
                "z": 0.16403168439865112
            }
        },
        "name": "move_to_storage_D"
    },
    "id": "ProjEST_move_to_storage_D_29",
    "joint_names": [
        "shoulder_pan_joint",
        "shoulder_lift_joint",
        "elbow_joint",
        "wrist_1_joint",
        "wrist_2_joint",
        "wrist_3_joint"
    ],
    "metrics": {
        "cart_traj_len": 3.5846089831043844,
        "distance_elbow_joint": 4.209112080442885,
        "distance_shoulder_lift_joint": 1.26392502554806,
        "distance_shoulder_pan_joint": 2.814347146906132,
        "distance_wrist_1_joint": 2.2626533453722897,
        "distance_wrist_2_joint": 0.9115276987105164,
        "distance_wrist_3_joint": 3.130403071121546,
        "smoothness": 0.0029243765023239795,
        "time": 0.215320804,
        "traj_len": 3.819943503260411,
        "weighted_distance": 4.9017298532688764
    },
    "planner": "ProjEST",
    "start": {
        "state": {
            "elbow_joint": -2.384821997420982,
            "shoulder_lift_joint": -2.2788054674887404,
            "shoulder_pan_joint": -0.18546946417610016,
            "wrist_1_joint": 1.4845937964226739,
            "wrist_2_joint": 0.1789877726866377,
            "wrist_3_joint": 0.03710572555276528
        }
    },
    "waypoints": [
        {
            "positions": [
                -0.18546946417610016,
                -2.2788054674887404,
                -2.384821997420982,
                1.4845937964226739,
                0.1789877726866377,
                0.03710572555276528
            ]
        },
        {
            "positions": [
                -0.09174977166459043,
                -2.2439578707334977,
                -2.2379674738031365,
                1.4421640781381575,
                0.2134248099951207,
                -0.003652054909419847
            ]
        },
        {
            "positions": [
                0.0019699208469192986,
                -2.209110273978255,
                -2.0911129501852916,
                1.3997343598536414,
                0.24786184730360367,
                -0.04440983537160497
            ]
        },
        {
            "positions": [
                0.09568961335842907,
                -2.1742626772230125,
                -1.9442584265674465,
                1.357304641569125,
                0.28229888461208663,
                -0.0851676158337901
            ]
        },
        {
            "positions": [
                0.18940930586993876,
                -2.1394150804677703,
                -1.7974039029496014,
                1.3148749232846089,
                0.31673592192056965,
                -0.1259253962959752
            ]
        },
        {
            "positions": [
                0.2831289983814485,
                -2.1045674837125277,
                -1.6505493793317563,
                1.2724452050000925,
                0.3511729592290526,
                -0.16668317675816033
            ]
        },
        {
            "positions": [
                0.3768486908929583,
                -2.069719886957285,
                -1.5036948557139111,
                1.2300154867155761,
                0.3856099965375356,
                -0.20744095722034545
            ]
        },
        {
            "positions": [
                0.4705683834044679,
                -2.0348722902020424,
                -1.3568403320960662,
                1.18758576843106,
                0.4200470338460186,
                -0.24819873768253056
            ]
        },
        {
            "positions": [
                0.5642880759159776,
                -2.0000246934468,
                -1.209985808478221,
                1.1451560501465436,
                0.4544840711545016,
                -0.28895651814471573
            ]
        },
        {
            "positions": [
                0.6580077684274874,
                -1.9651770966915574,
                -1.063131284860376,
                1.1027263318620275,
                0.48892110846298453,
                -0.3297142986069008
            ]
        },
        {
            "positions": [
                0.7517274609389972,
                -1.9303294999363148,
                -0.9162767612425307,
                1.0602966135775111,
                0.5233581457714676,
                -0.37047207906908597
            ]
        },
        {
            "positions": [
                0.845447153450507,
                -1.8954819031810723,
                -0.7694222376246858,
                1.017866895292995,
                0.5577951830799505,
                -0.41122985953127106
            ]
        },
        {
            "positions": [
                0.9391668459620168,
                -1.8606343064258297,
                -0.6225677140068404,
                0.9754371770084787,
                0.5922322203884335,
                -0.4519876399934562
            ]
        },
        {
            "positions": [
                1.0328865384735264,
                -1.825786709670587,
                -0.4757131903889955,
                0.9330074587239624,
                0.6266692576969165,
                -0.4927454204556413
            ]
        },
        {
            "positions": [
                1.126606230985036,
                -1.7909391129153445,
                -0.3288586667711506,
                0.8905777404394462,
                0.6611062950053994,
                -0.5335032009178264
            ]
        },
        {
            "positions": [
                1.2203259234965458,
                -1.756091516160102,
                -0.1820041431533057,
                0.8481480221549299,
                0.6955433323138823,
                -0.5742609813800115
            ]
        },
        {
            "positions": [
                1.3140456160080556,
                -1.7212439194048594,
                -0.03514961953545992,
                0.8057183038704135,
                0.7299803696223655,
                -0.6150187618421967
            ]
        },
        {
            "positions": [
                1.4077653085195654,
                -1.6863963226496168,
                0.11170490408238498,
                0.7632885855858973,
                0.7644174069308484,
                -0.6557765423043818
            ]
        },
        {
            "positions": [
                1.501485001031075,
                -1.6515487258943744,
                0.2585594277002299,
                0.720858867301381,
                0.7988544442393314,
                -0.6965343227665669
            ]
        },
        {
            "positions": [
                1.5952046935425848,
                -1.6167011291391318,
                0.4054139513180748,
                0.6784291490168649,
                0.8332914815478143,
                -0.7372921032287519
            ]
        },
        {
            "positions": [
                1.6889243860540946,
                -1.5818535323838891,
                0.5522684749359206,
                0.6359994307323484,
                0.8677285188562973,
                -0.7780498836909372
            ]
        },
        {
            "positions": [
                1.7826440785656044,
                -1.5470059356286465,
                0.6991229985537655,
                0.5935697124478323,
                0.9021655561647803,
                -0.8188076641531222
            ]
        },
        {
            "positions": [
                1.8763637710771142,
                -1.5121583388734041,
                0.8459775221716104,
                0.551139994163316,
                0.9366025934732632,
                -0.8595654446153074
            ]
        },
        {
            "positions": [
                1.9700834635886237,
                -1.4773107421181615,
                0.9928320457894553,
                0.5087102758787998,
                0.9710396307817463,
                -0.9003232250774924
            ]
        },
        {
            "positions": [
                2.0638031561001338,
                -1.4424631453629189,
                1.139686569407301,
                0.46628055759428344,
                1.0054766680902294,
                -0.9410810055396777
            ]
        },
        {
            "positions": [
                2.1575228486116433,
                -1.4076155486076765,
                1.286541093025146,
                0.4238508393097671,
                1.0399137053987124,
                -0.9818387860018628
            ]
        },
        {
            "positions": [
                2.251242541123153,
                -1.3727679518524338,
                1.4333956166429909,
                0.381421121025251,
                1.0743507427071952,
                -1.0225965664640477
            ]
        },
        {
            "positions": [
                2.2827121362570595,
                -1.342943992693121,
                1.4659701555079,
                0.28479773186067886,
                1.073003681983032,
                -1.1951549647227755
            ]
        },
        {
            "positions": [
                2.314181731390966,
                -1.3131200335338082,
                1.4985446943728093,
                0.18817434269610672,
                1.0716566212588687,
                -1.3677133629815033
            ]
        },
        {
            "positions": [
                2.3456513265248726,
                -1.2832960743744954,
                1.5311192332377186,
                0.09155095353153458,
                1.0703095605347055,
                -1.540271761240231
            ]
        },
        {
            "positions": [
                2.377120921658779,
                -1.2534721152151826,
                1.5636937721026278,
                -0.005072435633037553,
                1.0689624998105423,
                -1.7128301594989586
            ]
        },
        {
            "positions": [
                2.4085905167926858,
                -1.2236481560558699,
                1.5962683109675373,
                -0.10169582479760969,
                1.067615439086379,
                -1.8853885577576865
            ]
        },
        {
            "positions": [
                2.4400601119265923,
                -1.193824196896557,
                1.6288428498324463,
                -0.19831921396218183,
                1.0662683783622158,
                -2.057946956016414
            ]
        },
        {
            "positions": [
                2.471529707060499,
                -1.1640002377372443,
                1.6614173886973558,
                -0.29494260312675397,
                1.0649213176380525,
                -2.2305053542751416
            ]
        },
        {
            "positions": [
                2.5029993021944055,
                -1.1341762785779315,
                1.6939919275622648,
                -0.3915659922913261,
                1.0635742569138893,
                -2.4030637525338694
            ]
        },
        {
            "positions": [
                2.534468897328312,
                -1.1043523194186187,
                1.7265664664271743,
                -0.48818938145589824,
                1.062227196189726,
                -2.575622150792597
            ]
        },
        {
            "positions": [
                2.5659384924622186,
                -1.0745283602593059,
                1.7591410052920835,
                -0.5848127706204704,
                1.0608801354655628,
                -2.748180549051325
            ]
        },
        {
            "positions": [
                2.597408087596125,
                -1.044704401099993,
                1.7917155441569927,
                -0.6814361597850425,
                1.0595330747413996,
                -2.9207389473100527
            ]
        },
        {
            "positions": [
                2.6288776827300318,
                -1.0148804419406803,
                1.824290083021902,
                -0.7780595489496146,
                1.0581860140172363,
                -3.0932973455687804
            ]
        }
    ]
}