{
    "goal": {
        "global_pose": {
            "orientation": {
                "w": -0.00223480608172531,
                "x": 0.0024358444001904467,
                "y": 0.7094548369677653,
                "z": -0.704743149386269
            },
            "position": {
                "x": 0.6205249238014221,
                "y": -0.6371506643295288,
                "z": 0.19426114857196808
            }
        },
        "name": "move_to_magneteinheit_B"
    },
    "id": "ProjEST_move_to_magneteinheit_B_43",
    "joint_names": [
        "shoulder_pan_joint",
        "shoulder_lift_joint",
        "elbow_joint",
        "wrist_1_joint",
        "wrist_2_joint",
        "wrist_3_joint"
    ],
    "metrics": {
        "cart_traj_len": 3.8374424157011484,
        "distance_elbow_joint": 4.637876071493665,
        "distance_shoulder_lift_joint": 1.3825099571372934,
        "distance_shoulder_pan_joint": 2.3846398718383988,
        "distance_wrist_1_joint": 3.360984455368686,
        "distance_wrist_2_joint": 1.1737329196511586,
        "distance_wrist_3_joint": 6.263038089490244,
        "smoothness": 0.5122630983057026,
        "time": 1.160382666,
        "traj_len": 4.382097826952229,
        "weighted_distance": 6.021924519535245
    },
    "planner": "ProjEST",
    "start": {
        "state": {
            "elbow_joint": 2.3935871308073637,
            "shoulder_lift_joint": -1.9085141043777403,
            "shoulder_pan_joint": 0.7066247067284167,
            "wrist_1_joint": -0.46782909355067076,
            "wrist_2_joint": 0.7096259085804283,
            "wrist_3_joint": -3.1358149275257428
        }
    },
    "waypoints": [
        {
            "positions": [
                0.7066247067284167,
                -1.9085141043777403,
                2.3935871308073637,
                -0.46782909355067076,
                0.7096259085804283,
                -3.1358149275257428
            ]
        },
        {
            "positions": [
                0.7670001163036319,
                -1.9075205538531295,
                2.3659569528290074,
                -0.3508776560667689,
                0.6393944763622204,
                -3.0948478086559046
            ]
        },
        {
            "positions": [
                0.827375525878847,
                -1.9065270033285189,
                2.3383267748506507,
                -0.233926218582867,
                0.5691630441440123,
                -3.0538806897860664
            ]
        },
        {
            "positions": [
                0.8591329339676543,
                -1.9030499129406584,
                2.303863720210457,
                -0.1736176470009717,
                0.5232993155684954,
                -3.018957790797674
            ]
        },
        {
            "positions": [
                0.8908903420564618,
                -1.899572822552798,
                2.269400665570263,
                -0.11330907541907642,
                0.47743558699297844,
                -2.984034891809282
            ]
        },
        {
            "positions": [
                0.9480235554605839,
                -1.8883969060294559,
                2.142219297929737,
                -0.1719115959395551,
                0.4742211831773588,
                -2.8485135257021716
            ]
        },
        {
            "positions": [
                1.005156768864706,
                -1.877220989506114,
                2.015037930289212,
                -0.23051411646003378,
                0.4710067793617391,
                -2.712992159595061
            ]
        },
        {
            "positions": [
                1.0622899822688283,
                -1.866045072982772,
                1.887856562648686,
                -0.2891166369805125,
                0.4677923755461195,
                -2.577470793487951
            ]
        },
        {
            "positions": [
                1.1194231956729506,
                -1.8548691564594302,
                1.7606751950081605,
                -0.34771915750099114,
                0.46457797173049986,
                -2.4419494273808406
            ]
        },
        {
            "positions": [
                1.1765564090770726,
                -1.8436932399360881,
                1.633493827367635,
                -0.40632167802146985,
                0.4613635679148802,
                -2.3064280612737305
            ]
        },
        {
            "positions": [
                1.2336896224811948,
                -1.8325173234127463,
                1.5063124597271091,
                -0.46492419854194855,
                0.45814916409926054,
                -2.17090669516662
            ]
        },
        {
            "positions": [
                1.2908228358853169,
                -1.8213414068894043,
                1.3791310920865836,
                -0.5235267190624273,
                0.4549347602836409,
                -2.0353853290595096
            ]
        },
        {
            "positions": [
                1.3479560492894391,
                -1.8101654903660624,
                1.251949724446058,
                -0.5821292395829059,
                0.4517203564680213,
                -1.8998639629523992
            ]
        },
        {
            "positions": [
                1.4050892626935614,
                -1.7989895738427204,
                1.1247683568055322,
                -0.6407317601033847,
                0.4485059526524016,
                -1.7643425968452888
            ]
        },
        {
            "positions": [
                1.4622224760976836,
                -1.7878136573193786,
                0.9975869891650067,
                -0.6993342806238633,
                0.44529154883678196,
                -1.6288212307381786
            ]
        },
        {
            "positions": [
                1.5193556895018057,
                -1.7766377407960365,
                0.8704056215244809,
                -0.757936801144342,
                0.4420771450211623,
                -1.4932998646310682
            ]
        },
        {
            "positions": [
                1.5764889029059277,
                -1.7654618242726947,
                0.7432242538839555,
                -0.8165393216648207,
                0.43886274120554264,
                -1.357778498523958
            ]
        },
        {
            "positions": [
                1.63362211631005,
                -1.7542859077493527,
                0.6160428862434297,
                -0.8751418421852994,
                0.43564833738992303,
                -1.2222571324168476
            ]
        },
        {
            "positions": [
                1.6907553297141722,
                -1.7431099912260108,
                0.48886151860290417,
                -0.9337443627057781,
                0.4324339335743034,
                -1.0867357663097374
            ]
        },
        {
            "positions": [
                1.7478885431182944,
                -1.7319340747026688,
                0.3616801509623784,
                -0.9923468832262569,
                0.4292195297586837,
                -0.9512144002026273
            ]
        },
        {
            "positions": [
                1.8050217565224165,
                -1.720758158179327,
                0.23449878332185303,
                -1.0509494037467353,
                0.42600512594306406,
                -0.8156930340955166
            ]
        },
        {
            "positions": [
                1.8621549699265385,
                -1.709582241655985,
                0.10731741568132724,
                -1.109551924267214,
                0.4227907221274444,
                -0.6801716679884064
            ]
        },
        {
            "positions": [
                1.919288183330661,
                -1.6984063251326431,
                -0.019863951959198545,
                -1.168154444787693,
                0.41957631831182474,
                -0.5446503018812958
            ]
        },
        {
            "positions": [
                1.976421396734783,
                -1.687230408609301,
                -0.1470453195997239,
                -1.2267569653081716,
                0.41636191449620513,
                -0.40912893577418563
            ]
        },
        {
            "positions": [
                2.0335546101389053,
                -1.6760544920859592,
                -0.2742266872402497,
                -1.2853594858286501,
                0.4131475106805855,
                -0.27360756966707545
            ]
        },
        {
            "positions": [
                2.0906878235430275,
                -1.6648785755626172,
                -0.401408054880775,
                -1.3439620063491289,
                0.4099331068649658,
                -0.13808620355996526
            ]
        },
        {
            "positions": [
                2.1478210369471498,
                -1.6537026590392754,
                -0.5285894225213013,
                -1.4025645268696076,
                0.40671870304934615,
                -0.002564837452854629
            ]
        },
        {
            "positions": [
                2.204954250351272,
                -1.6425267425159333,
                -0.6557707901618266,
                -1.4611670473900864,
                0.40350429923372655,
                0.13295652865425556
            ]
        },
        {
            "positions": [
                2.262087463755394,
                -1.6313508259925915,
                -0.782952157802352,
                -1.519769567910565,
                0.4002898954181069,
                0.26847789476136574
            ]
        },
        {
            "positions": [
                2.319220677159516,
                -1.6201749094692495,
                -0.9101335254428777,
                -1.5783720884310437,
                0.39707549160248723,
                0.40399926086847593
            ]
        },
        {
            "positions": [
                2.3763538905636383,
                -1.6089989929459074,
                -1.0373148930834035,
                -1.6369746089515225,
                0.39386108778686757,
                0.5395206269755866
            ]
        },
        {
            "positions": [
                2.43348710396776,
                -1.5978230764225656,
                -1.1644962607239289,
                -1.695577129472001,
                0.3906466839712479,
                0.6750419930826967
            ]
        },
        {
            "positions": [
                2.4906203173718824,
                -1.5866471598992238,
                -1.2916776283644547,
                -1.7541796499924798,
                0.38743228015562825,
                0.8105633591898069
            ]
        },
        {
            "positions": [
                2.5477535307760046,
                -1.5754712433758817,
                -1.41885899600498,
                -1.8127821705129583,
                0.38421787634000865,
                0.9460847252969171
            ]
        },
        {
            "positions": [
                2.604886744180127,
                -1.5642953268525397,
                -1.5460403636455062,
                -1.8713846910334373,
                0.381003472524389,
                1.0816060914040273
            ]
        },
        {
            "positions": [
                2.662019957584249,
                -1.5531194103291979,
                -1.6732217312860314,
                -1.9299872115539158,
                0.3777890687087693,
                1.2171274575111375
            ]
        },
        {
            "positions": [
                2.6424618219407323,
                -1.6286477723945405,
                -1.646293862989584,
                -2.007154670433411,
                0.3469830413300333,
                1.3721116958091888
            ]
        },
        {
            "positions": [
                2.622903686297216,
                -1.7041761344598831,
                -1.6193659946931367,
                -2.0843221293129064,
                0.3161770139512974,
                1.52709593410724
            ]
        },
        {
            "positions": [
                2.603345550653699,
                -1.7797044965252258,
                -1.5924381263966896,
                -2.1614895881924014,
                0.28537098657256144,
                1.6820801724052914
            ]
        },
        {
            "positions": [
                2.5837874150101823,
                -1.8552328585905684,
                -1.5655102581002422,
                -2.2386570470718965,
                0.25456495919382544,
                1.8370644107033427
            ]
        },
        {
            "positions": [
                2.5642292793666654,
                -1.9307612206559113,
                -1.538582389803795,
                -2.3158245059513916,
                0.2237589318150895,
                1.992048649001394
            ]
        },
        {
            "positions": [
                2.544671143723149,
                -2.0062895827212537,
                -1.5116545215073476,
                -2.3929919648308866,
                0.19295290443635352,
                2.1470328872994453
            ]
        },
        {
            "positions": [
                2.5251130080796322,
                -2.0818179447865965,
                -1.4847266532109002,
                -2.470159423710382,
                0.16214687705761754,
                2.3020171255974966
            ]
        },
        {
            "positions": [
                2.5055548724361154,
                -2.157346306851939,
                -1.457798784914453,
                -2.547326882589877,
                0.13134084967888154,
                2.457001363895548
            ]
        },
        {
            "positions": [
                2.4859967367925986,
                -2.232874668917282,
                -1.4308709166180058,
                -2.624494341469372,
                0.1005348223001456,
                2.611985602193599
            ]
        },
        {
            "positions": [
                2.466438601149082,
                -2.3084030309826247,
                -1.4039430483215585,
                -2.7016618003488677,
                0.06972879492140965,
                2.7669698404916505
            ]
        },
        {
            "positions": [
                2.4468804655055654,
                -2.383931393047967,
                -1.3770151800251111,
                -2.7788292592283628,
                0.03892276754267365,
                2.921954078789702
            ]
        },
        {
            "positions": [
                2.489701491286342,
                -2.3446707369739705,
                -1.4319873116529815,
                -2.7106404085428015,
                -0.061683188180007134,
                2.963007895424662
            ]
        },
        {
            "positions": [
                2.5325225170671186,
                -2.3054100808999745,
                -1.4869594432808517,
                -2.6424515578572407,
                -0.16228914390268792,
                3.004061712059622
            ]
        },
        {
            "positions": [
                2.575343542847895,
                -2.266149424825978,
                -1.5419315749087221,
                -2.5742627071716795,
                -0.26289509962536867,
                3.0451155286945824
            ]
        },
        {
            "positions": [
                2.6181645686286714,
                -2.226888768751982,
                -1.5969037065365925,
                -2.5060738564861187,
                -0.3635010553480495,
                3.0861693453295422
            ]
        },
        {
            "positions": [
                2.660985594409448,
                -2.1876281126779853,
                -1.6518758381644627,
                -2.4378850058005574,
                -0.4641070110707303,
                3.1272231619645026
            ]
        }
    ]
}