{
    "goal": {
        "global_pose": {
            "orientation": {
                "w": 0.5084816262002911,
                "x": -0.4908360881923452,
                "y": 0.5182115481033761,
                "z": -0.48164630358495003
            },
            "position": {
                "x": 0.5540239810943604,
                "y": -0.46912469901144505,
                "z": 0.16403168439865112
            }
        },
        "name": "move_to_storage_B"
    },
    "id": "ProjEST_move_to_storage_B_67",
    "joint_names": [
        "shoulder_pan_joint",
        "shoulder_lift_joint",
        "elbow_joint",
        "wrist_1_joint",
        "wrist_2_joint",
        "wrist_3_joint"
    ],
    "metrics": {
        "cart_traj_len": 3.0698464386326036,
        "distance_elbow_joint": 2.5509152019791683,
        "distance_shoulder_lift_joint": 1.4599396049348217,
        "distance_shoulder_pan_joint": 1.3145318760150386,
        "distance_wrist_1_joint": 2.984576769328534,
        "distance_wrist_2_joint": 2.703797787471858,
        "distance_wrist_3_joint": 3.354723457920331,
        "smoothness": 0.45551932809778206,
        "time": 0.068944622,
        "traj_len": 3.7905784120170565,
        "weighted_distance": 5.173616353218588
    },
    "planner": "ProjEST",
    "start": {
        "state": {
            "elbow_joint": 1.6649325706314817,
            "shoulder_lift_joint": -0.6616388048112454,
            "shoulder_pan_joint": -0.9139837860083814,
            "wrist_1_joint": 2.146757197745094,
            "wrist_2_joint": -2.234196043158733,
            "wrist_3_joint": 0.005471033829999897
        }
    },
    "waypoints": [
        {
            "positions": [
                -0.9139837860083814,
                -0.6616388048112454,
                1.6649325706314817,
                2.146757197745094,
                -2.234196043158733,
                0.005471033829999897
            ]
        },
        {
            "positions": [
                -0.8831961471371526,
                -0.6775450183514808,
                1.6442483067465559,
                2.140495150795145,
                -2.210033646357813,
                -0.028823790172508905
            ]
        },
        {
            "positions": [
                -0.8216208693946951,
                -0.709357445431952,
                1.6028797789767046,
                2.1279710568952455,
                -2.161708852755974,
                -0.09741343817752651
            ]
        },
        {
            "positions": [
                -0.791988670380648,
                -0.7663188401890363,
                1.5379865401240418,
                2.0859081531978707,
                -2.0617770048634863,
                -0.008793921785626019
            ]
        },
        {
            "positions": [
                -0.7623564713666009,
                -0.8232802349461206,
                1.473093301271379,
                2.043845249500496,
                -1.9618451569709985,
                0.07982559460627447
            ]
        },
        {
            "positions": [
                -0.7327242723525538,
                -0.880241629703205,
                1.4082000624187159,
                2.0017823458031216,
                -1.861913309078511,
                0.168445110998175
            ]
        },
        {
            "positions": [
                -0.7030920733385067,
                -0.9372030244602892,
                1.343306823566053,
                1.959719442105747,
                -1.7619814611860234,
                0.25706462739007546
            ]
        },
        {
            "positions": [
                -0.6734598743244595,
                -0.9941644192173735,
                1.2784135847133902,
                1.9176565384083721,
                -1.6620496132935356,
                0.34568414378197593
            ]
        },
        {
            "positions": [
                -0.6438276753104125,
                -1.051125813974458,
                1.213520345860727,
                1.8755936347109976,
                -1.562117765401048,
                0.4343036601738765
            ]
        },
        {
            "positions": [
                -0.6141954762963654,
                -1.108087208731542,
                1.1486271070080643,
                1.833530731013623,
                -1.4621859175085605,
                0.5229231765657769
            ]
        },
        {
            "positions": [
                -0.5845632772823183,
                -1.1650486034886265,
                1.0837338681554014,
                1.7914678273162483,
                -1.362254069616073,
                0.6115426929576775
            ]
        },
        {
            "positions": [
                -0.5549310782682711,
                -1.2220099982457109,
                1.0188406293027386,
                1.7494049236188736,
                -1.2623222217235852,
                0.7001622093495778
            ]
        },
        {
            "positions": [
                -0.525298879254224,
                -1.278971393002795,
                0.9539473904500756,
                1.707342019921499,
                -1.1623903738310977,
                0.7887817257414784
            ]
        },
        {
            "positions": [
                -0.49566668024017696,
                -1.3359327877598794,
                0.8890541515974126,
                1.6652791162241245,
                -1.0624585259386101,
                0.877401242133379
            ]
        },
        {
            "positions": [
                -0.46603448122612984,
                -1.3928941825169638,
                0.8241609127447498,
                1.6232162125267497,
                -0.9625266780461224,
                0.9660207585252796
            ]
        },
        {
            "positions": [
                -0.4364022822120827,
                -1.449855577274048,
                0.7592676738920869,
                1.581153308829375,
                -0.8625948301536348,
                1.05464027491718
            ]
        },
        {
            "positions": [
                -0.40677008319803565,
                -1.5068169720311324,
                0.694374435039424,
                1.5390904051320005,
                -0.7626629822611473,
                1.1432597913090805
            ]
        },
        {
            "positions": [
                -0.3771378841839885,
                -1.5637783667882168,
                0.629481196186761,
                1.497027501434626,
                -0.6627311343686595,
                1.2318793077009809
            ]
        },
        {
            "positions": [
                -0.3475056851699414,
                -1.620739761545301,
                0.5645879573340981,
                1.4549645977372512,
                -0.562799286476172,
                1.3204988240928814
            ]
        },
        {
            "positions": [
                -0.3849083739287713,
                -1.5956978291352626,
                0.6371164867681873,
                1.3403253892712166,
                -0.5111792349367072,
                1.4121951602750014
            ]
        },
        {
            "positions": [
                -0.4223110626876012,
                -1.5706558967252244,
                0.7096450162022766,
                1.225686180805182,
                -0.45955918339724244,
                1.503891496457121
            ]
        },
        {
            "positions": [
                -0.4597137514464311,
                -1.545613964315186,
                0.7821735456363658,
                1.1110469723391476,
                -0.40793913185777775,
                1.5955878326392408
            ]
        },
        {
            "positions": [
                -0.4971164402052611,
                -1.5205720319051477,
                0.854702075070455,
                0.996407763873113,
                -0.35631908031831294,
                1.6872841688213607
            ]
        },
        {
            "positions": [
                -0.5345191289640909,
                -1.4955300994951095,
                0.9272306045045443,
                0.8817685554070785,
                -0.30469902877884825,
                1.7789805050034806
            ]
        },
        {
            "positions": [
                -0.5719218177229208,
                -1.4704881670850711,
                0.9997591339386336,
                0.7671293469410441,
                -0.2530789772393835,
                1.8706768411856003
            ]
        },
        {
            "positions": [
                -0.6093245064817507,
                -1.4454462346750327,
                1.0722876633727227,
                0.6524901384750096,
                -0.2014589256999188,
                1.96237317736772
            ]
        },
        {
            "positions": [
                -0.6467271952405808,
                -1.4204043022649946,
                1.1448161928068121,
                0.5378509300089749,
                -0.149838874160454,
                2.05406951354984
            ]
        },
        {
            "positions": [
                -0.6841298839994107,
                -1.3953623698549562,
                1.2173447222409013,
                0.4232117215429405,
                -0.0982188226209893,
                2.14576584973196
            ]
        },
        {
            "positions": [
                -0.7215325727582406,
                -1.370320437444918,
                1.2898732516749907,
                0.3085725130769059,
                -0.04659877108152455,
                2.2374621859140795
            ]
        },
        {
            "positions": [
                -0.7589352615170706,
                -1.3452785050348797,
                1.3624017811090798,
                0.19393330461087133,
                0.005021280457940258,
                2.3291585220961997
            ]
        },
        {
            "positions": [
                -0.7963379502759004,
                -1.3202365726248413,
                1.434930310543169,
                0.07929409614483696,
                0.05664133199740495,
                2.420854858278319
            ]
        },
        {
            "positions": [
                -0.8337406390347304,
                -1.295194640214803,
                1.5074588399772584,
                -0.035345112321197636,
                0.10826138353686965,
                2.512551194460439
            ]
        },
        {
            "positions": [
                -0.8711433277935602,
                -1.2701527078047647,
                1.5799873694113473,
                -0.149984320787232,
                0.15988143507633434,
                2.6042475306425588
            ]
        },
        {
            "positions": [
                -0.9085460165523902,
                -1.2451107753947264,
                1.652515898845437,
                -0.2646235292532668,
                0.21150148661579915,
                2.6959438668246785
            ]
        },
        {
            "positions": [
                -0.9459487053112201,
                -1.2200688429846882,
                1.725044428279526,
                -0.3792627377193014,
                0.26312153815526396,
                2.7876402030067986
            ]
        },
        {
            "positions": [
                -0.98335139407005,
                -1.1950269105746498,
                1.7975729577136152,
                -0.4939019461853358,
                0.31474158969472865,
                2.8793365391889183
            ]
        },
        {
            "positions": [
                -1.02075408282888,
                -1.1699849781646114,
                1.8701014871477044,
                -0.6085411546513702,
                0.36636164123419335,
                2.971032875371038
            ]
        },
        {
            "positions": [
                -1.0581567715877098,
                -1.1449430457545733,
                1.9426300165817936,
                -0.7231803631174047,
                0.41798169277365804,
                3.062729211553158
            ]
        },
        {
            "positions": [
                -1.0955594603465397,
                -1.119901113344535,
                2.015158546015883,
                -0.8378195715834392,
                0.46960174431312274,
                3.154425547735278
            ]
        }
    ]
}