{
    "goal": {
        "global_pose": {
            "orientation": {
                "w": 0.005598929693374612,
                "x": 0.007748599140229565,
                "y": 0.7110244013736278,
                "z": -0.7031023480610252
            },
            "position": {
                "x": 0.1141497679147869,
                "y": -0.7141253447532654,
                "z": 0.3711530566215515
            }
        },
        "name": "move_to_auspresseinheit_B"
    },
    "id": "ProjEST_move_to_auspresseinheit_B_149",
    "joint_names": [
        "shoulder_pan_joint",
        "shoulder_lift_joint",
        "elbow_joint",
        "wrist_1_joint",
        "wrist_2_joint",
        "wrist_3_joint"
    ],
    "metrics": {
        "cart_traj_len": 0.565208685490979,
        "distance_elbow_joint": 0.060127593419018854,
        "distance_shoulder_lift_joint": 0.29662285762850593,
        "distance_shoulder_pan_joint": 0.5786210706002062,
        "distance_wrist_1_joint": 0.3181670490501075,
        "distance_wrist_2_joint": 0.9881342392750763,
        "distance_wrist_3_joint": 0.0015782718987553679,
        "smoothness": 0.0,
        "time": 0.31673715599999996,
        "traj_len": 1.4977486711299965,
        "weighted_distance": 1.8848631021892186
    },
    "planner": "ProjEST",
    "start": {
        "state": {
            "elbow_joint": 2.019306165916698,
            "shoulder_lift_joint": -1.1220205098164344,
            "shoulder_pan_joint": -1.095207207618794,
            "wrist_1_joint": -0.8559671824921639,
            "wrist_2_joint": 0.47596387242952726,
            "wrist_3_joint": 3.159081874673826
        }
    },
    "waypoints": [
        {
            "positions": [
                -1.095207207618794,
                -1.1220205098164344,
                2.019306165916698,
                -0.8559671824921639,
                0.47596387242952726,
                3.159081874673826
            ]
        },
        {
            "positions": [
                -1.1916440527188283,
                -1.1714576527545186,
                2.0092849003468616,
                -0.8029393409838126,
                0.6406529123087066,
                3.1588188293573665
            ]
        },
        {
            "positions": [
                -1.2880808978188627,
                -1.220894795692603,
                1.999263634777025,
                -0.7499114994754613,
                0.805341952187886,
                3.1585557840409075
            ]
        },
        {
            "positions": [
                -1.384517742918897,
                -1.2703319386306875,
                1.9892423692071886,
                -0.69688365796711,
                0.9700309920670653,
                3.158292738724448
            ]
        },
        {
            "positions": [
                -1.4809545880189314,
                -1.3197690815687717,
                1.9792211036373522,
                -0.6438558164587589,
                1.1347200319462447,
                3.158029693407989
            ]
        },
        {
            "positions": [
                -1.5773914331189658,
                -1.369206224506856,
                1.9691998380675155,
                -0.5908279749504075,
                1.299409071825424,
                3.15776664809153
            ]
        },
        {
            "positions": [
                -1.6738282782190002,
                -1.4186433674449404,
                1.9591785724976791,
                -0.5378001334420563,
                1.4640981117046035,
                3.1575036027750705
            ]
        }
    ]
}