{
    "goal": {
        "global_pose": {
            "orientation": {
                "w": -0.4816463035849501,
                "x": 0.5182115481033762,
                "y": 0.4908360881923453,
                "z": -0.5084816262002911
            },
            "position": {
                "x": -0.8240239810943604,
                "y": 0.19912469901144506,
                "z": 0.16403168439865112
            }
        },
        "name": "move_to_storage_D"
    },
    "id": "ProjEST_move_to_storage_D_127",
    "joint_names": [
        "shoulder_pan_joint",
        "shoulder_lift_joint",
        "elbow_joint",
        "wrist_1_joint",
        "wrist_2_joint",
        "wrist_3_joint"
    ],
    "metrics": {
        "cart_traj_len": 1.89816233382876,
        "distance_elbow_joint": 0.5558413772807984,
        "distance_shoulder_lift_joint": 1.097784262724295,
        "distance_shoulder_pan_joint": 2.883528718627673,
        "distance_wrist_1_joint": 3.8265158833660644,
        "distance_wrist_2_joint": 1.9709838008050897,
        "distance_wrist_3_joint": 4.461429390071988,
        "smoothness": 0.30541892268430576,
        "time": 0.10101442799999999,
        "traj_len": 3.8465677470799746,
        "weighted_distance": 5.432903634079206
    },
    "planner": "ProjEST",
    "start": {
        "state": {
            "elbow_joint": -2.384821997420982,
            "shoulder_lift_joint": -2.2788054674887404,
            "shoulder_pan_joint": -0.18546946417610016,
            "wrist_1_joint": 1.4845937964226739,
            "wrist_2_joint": 0.1789877726866377,
            "wrist_3_joint": 0.03710572555276528
        }
    },
    "waypoints": [
        {
            "positions": [
                -0.18546946417610016,
                -2.2788054674887404,
                -2.384821997420982,
                1.4845937964226739,
                0.1789877726866377,
                0.03710572555276528
            ]
        },
        {
            "positions": [
                -0.0590270638548841,
                -2.226700175592541,
                -2.378781310329984,
                1.3581364575616042,
                0.18688851229401407,
                0.09316921473291828
            ]
        },
        {
            "positions": [
                0.06741533646633197,
                -2.1745948836963414,
                -2.3727406232389856,
                1.2316791187005343,
                0.19478925190139046,
                0.1492327039130713
            ]
        },
        {
            "positions": [
                0.19385773678754809,
                -2.122489591800142,
                -2.3666999361479877,
                1.1052217798394643,
                0.20268999150876682,
                0.20529619309322433
            ]
        },
        {
            "positions": [
                0.3203001371087641,
                -2.070384299903943,
                -2.3606592490569898,
                0.9787644409783947,
                0.21059073111614318,
                0.2613596822733773
            ]
        },
        {
            "positions": [
                0.4467425374299803,
                -2.0182790080077435,
                -2.3546185619659914,
                0.8523071021173247,
                0.21849147072351954,
                0.31742317145353033
            ]
        },
        {
            "positions": [
                0.5731849377511964,
                -1.9661737161115438,
                -2.3485778748749935,
                0.7258497632562549,
                0.2263922103308959,
                0.37348666063368335
            ]
        },
        {
            "positions": [
                0.6996273380724125,
                -1.9140684242153445,
                -2.3425371877839956,
                0.599392424395185,
                0.2342929499382723,
                0.4295501498138364
            ]
        },
        {
            "positions": [
                0.8260697383936284,
                -1.8619631323191452,
                -2.336496500692997,
                0.47293508553411545,
                0.24219368954564865,
                0.48561363899398935
            ]
        },
        {
            "positions": [
                0.9525121387148445,
                -1.8098578404229457,
                -2.3304558136019993,
                0.34647774667304554,
                0.25009442915302504,
                0.5416771281741424
            ]
        },
        {
            "positions": [
                1.0789545390360609,
                -1.7577525485267462,
                -2.3244151265110014,
                0.22002040781197563,
                0.2579951687604014,
                0.5977406173542954
            ]
        },
        {
            "positions": [
                1.2053969393572768,
                -1.705647256630547,
                -2.318374439420003,
                0.09356306895090594,
                0.26589590836777777,
                0.6538041065344484
            ]
        },
        {
            "positions": [
                1.3318393396784929,
                -1.6535419647343474,
                -2.312333752329005,
                -0.03289426991016395,
                0.27379664797515413,
                0.7098675957146015
            ]
        },
        {
            "positions": [
                1.2792924198795281,
                -1.6717158401178052,
                -2.29374324724482,
                -0.12170303210374957,
                0.20163607391682437,
                0.5641496141795956
            ]
        },
        {
            "positions": [
                1.2267455000805636,
                -1.689889715501263,
                -2.275152742160634,
                -0.2105117942973352,
                0.12947549985849463,
                0.4184316326445897
            ]
        },
        {
            "positions": [
                1.1741985802815988,
                -1.7080635908847208,
                -2.256562237076449,
                -0.2993205564909208,
                0.05731492580016487,
                0.27271365110958384
            ]
        },
        {
            "positions": [
                1.1216516604826343,
                -1.7262374662681785,
                -2.237971731992263,
                -0.3881293186845064,
                -0.014845648258164867,
                0.12699566957457797
            ]
        },
        {
            "positions": [
                1.0691047406836696,
                -1.7444113416516362,
                -2.219381226908078,
                -0.4769380808780921,
                -0.08700622231649463,
                -0.01872231196042795
            ]
        },
        {
            "positions": [
                1.0165578208847048,
                -1.7625852170350942,
                -2.2007907218238922,
                -0.5657468430716777,
                -0.1591667963748244,
                -0.16444029349543376
            ]
        },
        {
            "positions": [
                0.9640109010857403,
                -1.780759092418552,
                -2.182200216739707,
                -0.6545556052652632,
                -0.2313273704331541,
                -0.31015827503043947
            ]
        },
        {
            "positions": [
                0.9114639812867755,
                -1.7989329678020096,
                -2.1636097116555213,
                -0.7433643674588489,
                -0.30348794449148386,
                -0.4558762565654455
            ]
        },
        {
            "positions": [
                0.8589170614878109,
                -1.8171068431854673,
                -2.145019206571336,
                -0.8321731296524345,
                -0.3756485185498135,
                -0.6015942381004513
            ]
        },
        {
            "positions": [
                0.8063701416888461,
                -1.8352807185689253,
                -2.126428701487151,
                -0.9209818918460202,
                -0.4478090926081434,
                -0.7473122196354574
            ]
        },
        {
            "positions": [
                0.7538232218898816,
                -1.853454593952383,
                -2.107838196402965,
                -1.0097906540396056,
                -0.519969666666473,
                -0.893030201170463
            ]
        },
        {
            "positions": [
                0.7012763020909168,
                -1.8716284693358407,
                -2.08924769131878,
                -1.0985994162331914,
                -0.5921302407248029,
                -1.038748182705469
            ]
        },
        {
            "positions": [
                0.6487293822919522,
                -1.8898023447192984,
                -2.070657186234594,
                -1.187408178426777,
                -0.6642908147831326,
                -1.1844661642404748
            ]
        },
        {
            "positions": [
                0.5961824624929876,
                -1.9079762201027564,
                -2.052066681150409,
                -1.2762169406203625,
                -0.7364513888414623,
                -1.3301841457754804
            ]
        },
        {
            "positions": [
                0.5436355426940229,
                -1.926150095486214,
                -2.033476176066223,
                -1.365025702813948,
                -0.8086119628997919,
                -1.4759021273104864
            ]
        },
        {
            "positions": [
                0.49108862289505817,
                -1.944323970869672,
                -2.014885670982038,
                -1.4538344650075339,
                -0.8807725369581219,
                -1.6216201088454925
            ]
        },
        {
            "positions": [
                0.4385417030960935,
                -1.9624978462531297,
                -1.9962951658978525,
                -1.5426432272011195,
                -0.9529331110164516,
                -1.7673380903804985
            ]
        },
        {
            "positions": [
                0.3859947832971289,
                -1.9806717216365874,
                -1.977704660813667,
                -1.631451989394705,
                -1.0250936850747812,
                -1.913056071915504
            ]
        },
        {
            "positions": [
                0.33344786349816424,
                -1.9988455970200452,
                -1.9591141557294816,
                -1.7202607515882904,
                -1.097254259133111,
                -2.0587740534505095
            ]
        },
        {
            "positions": [
                0.2809009436991994,
                -2.017019472403503,
                -1.940523650645296,
                -1.8090695137818764,
                -1.169414833191441,
                -2.204492034985516
            ]
        },
        {
            "positions": [
                0.22835402390023485,
                -2.0351933477869606,
                -1.9219331455611108,
                -1.8978782759754618,
                -1.2415754072497707,
                -2.3502100165205215
            ]
        },
        {
            "positions": [
                0.17580710410127032,
                -2.0533672231704188,
                -1.9033426404769251,
                -1.9866870381690473,
                -1.3137359813081002,
                -2.495927998055527
            ]
        },
        {
            "positions": [
                0.12326018430230556,
                -2.071541098553876,
                -1.88475213539274,
                -2.0754958003626327,
                -1.38589655536643,
                -2.6416459795905336
            ]
        },
        {
            "positions": [
                0.07071326450334081,
                -2.089714973937334,
                -1.8661616303085544,
                -2.1643045625562185,
                -1.45805712942476,
                -2.787363961125539
            ]
        },
        {
            "positions": [
                0.01816634470437606,
                -2.107888849320792,
                -1.847571125224369,
                -2.2531133247498043,
                -1.5302177034830895,
                -2.9330819426605457
            ]
        },
        {
            "positions": [
                -0.03438057509458851,
                -2.1260627247042496,
                -1.8289806201401835,
                -2.3419220869433897,
                -1.6023782775414193,
                -3.078799924195551
            ]
        }
    ]
}