{
    "goal": {
        "global_pose": {
            "orientation": {
                "w": 0.005598929693374612,
                "x": 0.007748599140229565,
                "y": 0.7110244013736278,
                "z": -0.7031023480610252
            },
            "position": {
                "x": 0.1141497679147869,
                "y": -0.7141253447532654,
                "z": 0.3711530566215515
            }
        },
        "name": "move_to_auspresseinheit_B"
    },
    "id": "ProjEST_move_to_auspresseinheit_B_32",
    "joint_names": [
        "shoulder_pan_joint",
        "shoulder_lift_joint",
        "elbow_joint",
        "wrist_1_joint",
        "wrist_2_joint",
        "wrist_3_joint"
    ],
    "metrics": {
        "cart_traj_len": 0.5648708003181928,
        "distance_elbow_joint": 0.06467749667195277,
        "distance_shoulder_lift_joint": 0.2953526671026532,
        "distance_shoulder_pan_joint": 0.5784205640798097,
        "distance_wrist_1_joint": 0.33643522290937034,
        "distance_wrist_2_joint": 0.9869669649788937,
        "distance_wrist_3_joint": 0.0032362916589319113,
        "smoothness": 5.075305255429287e-16,
        "time": 0.049413314,
        "traj_len": 1.505021331211492,
        "weighted_distance": 1.896039023492855
    },
    "planner": "ProjEST",
    "start": {
        "state": {
            "elbow_joint": 2.019306165916698,
            "shoulder_lift_joint": -1.1220205098164344,
            "shoulder_pan_joint": -1.095207207618794,
            "wrist_1_joint": -0.8559671824921639,
            "wrist_2_joint": 0.47596387242952726,
            "wrist_3_joint": 3.159081874673826
        }
    },
    "waypoints": [
        {
            "positions": [
                -1.095207207618794,
                -1.1220205098164344,
                2.019306165916698,
                -0.8559671824921639,
                0.47596387242952726,
                3.159081874673826
            ]
        },
        {
            "positions": [
                -1.191610634965429,
                -1.1712459543335432,
                2.008526583138039,
                -0.7998946453406022,
                0.6404583665926762,
                3.1585424927306707
            ]
        },
        {
            "positions": [
                -1.288014062312064,
                -1.2204713988506521,
                1.9977470003593805,
                -0.7438221081890404,
                0.8049528607558252,
                3.158003110787515
            ]
        },
        {
            "positions": [
                -1.384417489658699,
                -1.2696968433677611,
                1.9869674175807215,
                -0.6877495710374787,
                0.9694473549189742,
                3.15746372884436
            ]
        },
        {
            "positions": [
                -1.4808209170053337,
                -1.3189222878848699,
                1.9761878348020627,
                -0.631677033885917,
                1.133941849082123,
                3.1569243469012047
            ]
        },
        {
            "positions": [
                -1.5772243443519687,
                -1.3681477324019786,
                1.965408252023404,
                -0.5756044967343552,
                1.2984363432452721,
                3.156384964958049
            ]
        },
        {
            "positions": [
                -1.6736277716986037,
                -1.4173731769190876,
                1.9546286692447452,
                -0.5195319595827935,
                1.462930837408421,
                3.155845583014894
            ]
        }
    ]
}