{
    "goal": {
        "global_pose": {
            "orientation": {
                "w": 0.7047431468963623,
                "x": -0.7094548344612122,
                "y": 0.0024358443915843964,
                "z": -0.0022348060738295317
            },
            "position": {
                "x": 0.6094750761985779,
                "y": 0.3671506643295288,
                "z": 0.19426114857196808
            }
        },
        "name": "move_to_magneteinheit_A"
    },
    "id": "ProjEST_move_to_magneteinheit_A_107",
    "joint_names": [
        "shoulder_pan_joint",
        "shoulder_lift_joint",
        "elbow_joint",
        "wrist_1_joint",
        "wrist_2_joint",
        "wrist_3_joint"
    ],
    "metrics": {
        "cart_traj_len": 1.053284369454282,
        "distance_elbow_joint": 0.3879985724572028,
        "distance_shoulder_lift_joint": 0.36249974631660353,
        "distance_shoulder_pan_joint": 1.2424562282291485,
        "distance_wrist_1_joint": 2.2242940499792723,
        "distance_wrist_2_joint": 1.706829510918992,
        "distance_wrist_3_joint": 1.2059722065582972,
        "smoothness": 3.2722362968391296e-16,
        "time": 0.125570893,
        "traj_len": 2.6702154060037024,
        "weighted_distance": 3.6705746537121917
    },
    "planner": "ProjEST",
    "start": {
        "state": {
            "elbow_joint": 1.5739458966750683,
            "shoulder_lift_joint": -1.4977259741207325,
            "shoulder_pan_joint": -1.1188672016454206,
            "wrist_1_joint": 1.494575848278785,
            "wrist_2_joint": -1.5706037134824402,
            "wrist_3_joint": -2.0226957942261072
        }
    },
    "waypoints": [
        {
            "positions": [
                -1.1188672016454206,
                -1.4977259741207325,
                1.5739458966750683,
                1.494575848278785,
                -1.5706037134824402,
                -2.0226957942261072
            ]
        },
        {
            "positions": [
                -1.0498418556326903,
                -1.4775870993253657,
                1.5955013729226908,
                1.37100395661327,
                -1.4757798517647185,
                -2.0896942501460125
            ]
        },
        {
            "positions": [
                -0.9808165096199597,
                -1.4574482245299987,
                1.617056849170313,
                1.2474320649477548,
                -1.3809559900469968,
                -2.1566927060659182
            ]
        },
        {
            "positions": [
                -0.9117911636072292,
                -1.4373093497346319,
                1.6386123254179354,
                1.1238601732822397,
                -1.286132128329275,
                -2.2236911619858235
            ]
        },
        {
            "positions": [
                -0.8427658175944988,
                -1.417170474939265,
                1.6601678016655579,
                1.0002882816167245,
                -1.191308266611553,
                -2.290689617905729
            ]
        },
        {
            "positions": [
                -0.7737404715817683,
                -1.3970316001438983,
                1.6817232779131803,
                0.8767163899512094,
                -1.0964844048938314,
                -2.357688073825634
            ]
        },
        {
            "positions": [
                -0.7047151255690378,
                -1.3768927253485312,
                1.7032787541608025,
                0.7531444982856943,
                -1.0016605431761096,
                -2.4246865297455398
            ]
        },
        {
            "positions": [
                -0.6356897795563073,
                -1.3567538505531644,
                1.724834230408425,
                0.6295726066201791,
                -0.9068366814583878,
                -2.491684985665445
            ]
        },
        {
            "positions": [
                -0.5666644335435769,
                -1.3366149757577976,
                1.7463897066560474,
                0.506000714954664,
                -0.8120128197406661,
                -2.5586834415853503
            ]
        },
        {
            "positions": [
                -0.4976390875308464,
                -1.3164761009624306,
                1.7679451829036696,
                0.38242882328914884,
                -0.7171889580229442,
                -2.625681897505256
            ]
        },
        {
            "positions": [
                -0.42861374151811593,
                -1.2963372261670638,
                1.789500659151292,
                0.25885693162363377,
                -0.6223650963052224,
                -2.6926803534251613
            ]
        },
        {
            "positions": [
                -0.35958839550538535,
                -1.276198351371697,
                1.8110561353989145,
                0.13528503995811847,
                -0.5275412345875006,
                -2.7596788093450666
            ]
        },
        {
            "positions": [
                -0.290563049492655,
                -1.2560594765763302,
                1.832611611646537,
                0.011713148292603615,
                -0.43271737286977907,
                -2.826677265264972
            ]
        },
        {
            "positions": [
                -0.22153770347992452,
                -1.2359206017809634,
                1.8541670878941592,
                -0.11185874337291168,
                -0.3378935111520571,
                -2.893675721184877
            ]
        },
        {
            "positions": [
                -0.15251235746719405,
                -1.2157817269855964,
                1.8757225641417816,
                -0.23543063503842676,
                -0.2430696494343354,
                -2.960674177104783
            ]
        },
        {
            "positions": [
                -0.08348701145446347,
                -1.1956428521902296,
                1.897278040389404,
                -0.35900252670394206,
                -0.14824578771661345,
                -3.0276726330246886
            ]
        },
        {
            "positions": [
                -0.014461665441733107,
                -1.1755039773948628,
                1.9188335166370263,
                -0.4825744183694569,
                -0.05342192599889195,
                -3.094671088944594
            ]
        },
        {
            "positions": [
                0.05456368057099725,
                -1.1553651025994958,
                1.9403889928846487,
                -0.606146310034972,
                0.041401935718829996,
                -3.161669544864499
            ]
        },
        {
            "positions": [
                0.12358902658372786,
                -1.135226227804129,
                1.9619444691322712,
                -0.7297182017004872,
                0.13622579743655164,
                -3.2286680007844044
            ]
        }
    ]
}