{
    "goal": {
        "global_pose": {
            "orientation": {
                "w": 0.7047431493862688,
                "x": -0.7094548369677653,
                "y": 0.0024358444001904,
                "z": -0.0022348060817251984
            },
            "position": {
                "x": -0.39052492380142206,
                "y": 0.3671506643295288,
                "z": 0.19426114857196808
            }
        },
        "name": "move_to_magneteinheit_D"
    },
    "id": "ProjEST_move_to_magneteinheit_D_132",
    "joint_names": [
        "shoulder_pan_joint",
        "shoulder_lift_joint",
        "elbow_joint",
        "wrist_1_joint",
        "wrist_2_joint",
        "wrist_3_joint"
    ],
    "metrics": {
        "cart_traj_len": 4.646958209205938,
        "distance_elbow_joint": 3.495210105923091,
        "distance_shoulder_lift_joint": 1.1780917434202078,
        "distance_shoulder_pan_joint": 3.0588932176856725,
        "distance_wrist_1_joint": 2.9130253356965374,
        "distance_wrist_2_joint": 2.1941644721827585,
        "distance_wrist_3_joint": 3.3856826499103025,
        "smoothness": 1.2296158315375925,
        "time": 0.305204529,
        "traj_len": 4.02803519408887,
        "weighted_distance": 5.301284998235661
    },
    "planner": "ProjEST",
    "start": {
        "state": {
            "elbow_joint": 0.7495348899011973,
            "shoulder_lift_joint": -0.6476975780737697,
            "shoulder_pan_joint": -2.711696901376276,
            "wrist_1_joint": -0.07506478080974305,
            "wrist_2_joint": 0.4329665971545858,
            "wrist_3_joint": 3.1361499051832524
        }
    },
    "waypoints": [
        {
            "positions": [
                -2.711696901376276,
                -0.6476975780737697,
                0.7495348899011973,
                -0.07506478080974305,
                0.4329665971545858,
                3.1361499051832524
            ]
        },
        {
            "positions": [
                -2.7081325723514555,
                -0.7477850525550623,
                0.6657316373790111,
                -0.021480720313552096,
                0.5119087354954407,
                3.1828129177182087
            ]
        },
        {
            "positions": [
                -2.704568243326635,
                -0.847872527036355,
                0.581928384856825,
                0.032103340182638856,
                0.5908508738362956,
                3.229475930253165
            ]
        },
        {
            "positions": [
                -2.7010039143018147,
                -0.9479600015176477,
                0.49812513233463873,
                0.08568740067882982,
                0.6697930121771505,
                3.276138942788122
            ]
        },
        {
            "positions": [
                -2.697439585276994,
                -1.0480474759989402,
                0.41432187981245255,
                0.13927146117502076,
                0.7487351505180053,
                3.322801955323078
            ]
        },
        {
            "positions": [
                -2.6938752562521735,
                -1.148134950480233,
                0.3305186272902663,
                0.19285552167121173,
                0.8276772888588604,
                3.3694649678580344
            ]
        },
        {
            "positions": [
                -2.690310927227353,
                -1.2482224249615257,
                0.24671537476808014,
                0.2464395821674027,
                0.9066194271997152,
                3.4161279803929907
            ]
        },
        {
            "positions": [
                -2.5793247507404202,
                -1.2632927496950743,
                0.15815886154409925,
                0.18176918249848356,
                0.858039569384359,
                3.353798079584397
            ]
        },
        {
            "positions": [
                -2.468338574253487,
                -1.2783630744286232,
                0.06960234832011833,
                0.11709878282956443,
                0.8094597115690026,
                3.291468178775803
            ]
        },
        {
            "positions": [
                -2.3573523977665545,
                -1.2934333991621718,
                -0.01895416490386259,
                0.0524283831606453,
                0.7608798537536464,
                3.2291382779672095
            ]
        },
        {
            "positions": [
                -2.2463662212796214,
                -1.3085037238957204,
                -0.10751067812784348,
                -0.012242016508273834,
                0.7122999959382902,
                3.1668083771586155
            ]
        },
        {
            "positions": [
                -2.1353800447926887,
                -1.3235740486292693,
                -0.19606719135182443,
                -0.07691241617719297,
                0.6637201381229338,
                3.104478476350022
            ]
        },
        {
            "positions": [
                -2.0243938683057556,
                -1.338644373362818,
                -0.2846237045758053,
                -0.1415828158461121,
                0.6151402803075776,
                3.042148575541428
            ]
        },
        {
            "positions": [
                -1.913407691818823,
                -1.3537146980963666,
                -0.3731802177997863,
                -0.20625321551503129,
                0.5665604224922214,
                2.9798186747328343
            ]
        },
        {
            "positions": [
                -1.80242151533189,
                -1.3687850228299154,
                -0.4617367310237671,
                -0.27092361518395036,
                0.5179805646768652,
                2.9174887739242403
            ]
        },
        {
            "positions": [
                -1.6914353388449572,
                -1.383855347563464,
                -0.5502932442477481,
                -0.33559401485286944,
                0.4694007068615088,
                2.8551588731156468
            ]
        },
        {
            "positions": [
                -1.5804491623580244,
                -1.3989256722970127,
                -0.638849757471729,
                -0.4002644145217886,
                0.4208208490461525,
                2.7928289723070527
            ]
        },
        {
            "positions": [
                -1.4694629858710915,
                -1.4139959970305616,
                -0.7274062706957098,
                -0.4649348141907077,
                0.37224099123079635,
                2.730499071498459
            ]
        },
        {
            "positions": [
                -1.3584768093841586,
                -1.4290663217641102,
                -0.8159627839196908,
                -0.5296052138596269,
                0.32366113341544,
                2.6681691706898656
            ]
        },
        {
            "positions": [
                -1.247490632897226,
                -1.4441366464976588,
                -0.9045192971436715,
                -0.594275613528546,
                0.2750812756000838,
                2.6058392698812716
            ]
        },
        {
            "positions": [
                -1.1365044564102929,
                -1.4592069712312077,
                -0.9930758103676527,
                -0.6589460131974653,
                0.22650141778472743,
                2.5435093690726776
            ]
        },
        {
            "positions": [
                -1.02551827992336,
                -1.4742772959647563,
                -1.0816323235916334,
                -0.7236164128663843,
                0.1779215599693712,
                2.481179468264084
            ]
        },
        {
            "positions": [
                -0.9145321034364273,
                -1.489347620698305,
                -1.1701888368156144,
                -0.7882868125353034,
                0.12934170215401497,
                2.4188495674554904
            ]
        },
        {
            "positions": [
                -0.8035459269494942,
                -1.5044179454318538,
                -1.2587453500395955,
                -0.8529572122042227,
                0.08076184433865863,
                2.3565196666468964
            ]
        },
        {
            "positions": [
                -0.6925597504625616,
                -1.5194882701654024,
                -1.3473018632635763,
                -0.9176276118731416,
                0.0321819865233024,
                2.294189765838303
            ]
        },
        {
            "positions": [
                -0.5815735739756289,
                -1.534558594898951,
                -1.435858376487557,
                -0.9822980115420606,
                -0.016397871292053834,
                2.2318598650297092
            ]
        },
        {
            "positions": [
                -0.4705873974886958,
                -1.5496289196325,
                -1.5244148897115382,
                -1.04696841121098,
                -0.06497772910741018,
                2.169529964221115
            ]
        },
        {
            "positions": [
                -0.3596012210017627,
                -1.5646992443660486,
                -1.612971402935519,
                -1.111638810879899,
                -0.11355758692276652,
                2.107200063412521
            ]
        },
        {
            "positions": [
                -0.24861504451483007,
                -1.5797695690995972,
                -1.7015279161594998,
                -1.1763092105488182,
                -0.16213744473812253,
                2.0448701626039276
            ]
        },
        {
            "positions": [
                -0.13762886802789698,
                -1.594839893833146,
                -1.790084429383481,
                -1.2409796102177375,
                -0.21071730255347898,
                1.9825402617953338
            ]
        },
        {
            "positions": [
                -0.026642691540964474,
                -1.6099102185666947,
                -1.8786409426074615,
                -1.3056500098866564,
                -0.2592971603688351,
                1.92021036098674
            ]
        },
        {
            "positions": [
                -0.025708278768230376,
                -1.6397533137970988,
                -1.9723925990794324,
                -1.379558999295143,
                -0.27066485503375126,
                2.0788267760608483
            ]
        },
        {
            "positions": [
                -0.024773865995496275,
                -1.6695964090275028,
                -2.0661442555514036,
                -1.4534679887036295,
                -0.2820325496986674,
                2.237443191134957
            ]
        },
        {
            "positions": [
                -0.023839453222762177,
                -1.699439504257907,
                -2.1598959120233743,
                -1.527376978112116,
                -0.2934002443635836,
                2.3960596062090653
            ]
        },
        {
            "positions": [
                -0.022905040450028075,
                -1.729282599488311,
                -2.253647568495345,
                -1.6012859675206026,
                -0.30476793902849975,
                2.554676021283174
            ]
        },
        {
            "positions": [
                -0.021970627677293977,
                -1.759125694718715,
                -2.347399224967316,
                -1.6751949569290892,
                -0.3161356336934159,
                2.7132924363572823
            ]
        },
        {
            "positions": [
                -0.044188707972327976,
                -1.771663746865356,
                -2.3960510603785763,
                -1.7792631146381952,
                -0.3034071284193529,
                2.8491323227626975
            ]
        },
        {
            "positions": [
                -0.06640678826736197,
                -1.784201799011997,
                -2.4447028957898365,
                -1.8833312723473012,
                -0.2906786231452899,
                2.984972209168113
            ]
        },
        {
            "positions": [
                -0.14057197296604432,
                -1.7784683997624489,
                -2.481706464233886,
                -1.8526529017156672,
                -0.19415574074311456,
                2.9179201881358767
            ]
        },
        {
            "positions": [
                -0.21473715766472667,
                -1.7727350005129008,
                -2.518710032677935,
                -1.8219745310840332,
                -0.09763285834093921,
                2.8508681671036404
            ]
        },
        {
            "positions": [
                -0.288902342363409,
                -1.7670016012633527,
                -2.5557136011219845,
                -1.7912961604523991,
                -0.0011099759387638297,
                2.783816146071404
            ]
        },
        {
            "positions": [
                -0.26334353503826535,
                -1.7609047700800187,
                -2.5082231973970073,
                -1.8837249120298458,
                -0.04679270681122549,
                2.869783407075462
            ]
        },
        {
            "positions": [
                -0.23778472771312176,
                -1.7548079388966844,
                -2.4607327936720305,
                -1.9761536636072927,
                -0.09247543768368716,
                2.95575066807952
            ]
        },
        {
            "positions": [
                -0.21222592038797813,
                -1.7487111077133504,
                -2.413242389947053,
                -2.068582415184739,
                -0.13815816855614882,
                3.041717929083578
            ]
        },
        {
            "positions": [
                -0.1866671130628345,
                -1.7426142765300163,
                -2.365751986222076,
                -2.161011166762186,
                -0.18384089942861048,
                3.127685190087636
            ]
        }
    ]
}