{
    "goal": {
        "global_pose": {
            "orientation": {
                "w": -0.00223480608172531,
                "x": 0.0024358444001904467,
                "y": 0.7094548369677653,
                "z": -0.704743149386269
            },
            "position": {
                "x": -0.37947507619857795,
                "y": -0.6371506643295288,
                "z": 0.19426114857196808
            }
        },
        "name": "move_to_magneteinheit_C"
    },
    "id": "ProjEST_move_to_magneteinheit_C_123",
    "joint_names": [
        "shoulder_pan_joint",
        "shoulder_lift_joint",
        "elbow_joint",
        "wrist_1_joint",
        "wrist_2_joint",
        "wrist_3_joint"
    ],
    "metrics": {
        "cart_traj_len": 2.6704729526144377,
        "distance_elbow_joint": 1.618080720243043,
        "distance_shoulder_lift_joint": 0.7230617948048195,
        "distance_shoulder_pan_joint": 2.940450206988821,
        "distance_wrist_1_joint": 0.581144394687238,
        "distance_wrist_2_joint": 0.8759755527180546,
        "distance_wrist_3_joint": 4.117847599820381,
        "smoothness": 1.186365480402955,
        "time": 1.3896637490000001,
        "traj_len": 3.2949294786478145,
        "weighted_distance": 4.533141892364324
    },
    "planner": "ProjEST",
    "start": {
        "state": {
            "elbow_joint": 1.9565354006590394,
            "shoulder_lift_joint": -1.4165861576513559,
            "shoulder_pan_joint": -1.6717766223277177,
            "wrist_1_joint": -0.5286633288215096,
            "wrist_2_joint": 1.4727565892594296,
            "wrist_3_joint": 3.1593482883155493
        }
    },
    "waypoints": [
        {
            "positions": [
                -1.6717766223277177,
                -1.4165861576513559,
                1.9565354006590394,
                -0.5286633288215096,
                1.4727565892594296,
                3.1593482883155493
            ]
        },
        {
            "positions": [
                -1.6418666668930255,
                -1.437110614513397,
                1.96794824680181,
                -0.46756278765827053,
                1.4363901757423383,
                3.07589420496413
            ]
        },
        {
            "positions": [
                -1.5600003921017909,
                -1.4546529951275102,
                1.9082379858618537,
                -0.4604960759553734,
                1.3941789895733572,
                2.9092771626304663
            ]
        },
        {
            "positions": [
                -1.4781341173105562,
                -1.4721953757416237,
                1.8485277249218972,
                -0.45342936425247626,
                1.3519678034043758,
                2.7426601202968026
            ]
        },
        {
            "positions": [
                -1.3962678425193216,
                -1.489737756355737,
                1.7888174639819407,
                -0.4463626525495792,
                1.3097566172353945,
                2.5760430779631394
            ]
        },
        {
            "positions": [
                -1.314401567728087,
                -1.5072801369698503,
                1.7291072030419845,
                -0.43929594084668205,
                1.2675454310664134,
                2.4094260356294757
            ]
        },
        {
            "positions": [
                -1.2325352929368525,
                -1.5248225175839638,
                1.6693969421020283,
                -0.4322292291437849,
                1.2253342448974323,
                2.242808993295812
            ]
        },
        {
            "positions": [
                -1.1506690181456178,
                -1.542364898198077,
                1.6096866811620718,
                -0.42516251744088784,
                1.183123058728451,
                2.0761919509621483
            ]
        },
        {
            "positions": [
                -1.0688027433543832,
                -1.5599072788121904,
                1.5499764202221153,
                -0.4180958057379907,
                1.1409118725594696,
                1.9095749086284846
            ]
        },
        {
            "positions": [
                -0.9869364685631485,
                -1.5774496594263039,
                1.490266159282159,
                -0.4110290940350936,
                1.0987006863904885,
                1.742957866294821
            ]
        },
        {
            "positions": [
                -0.9050701937719139,
                -1.5949920400404172,
                1.4305558983422029,
                -0.40396238233219645,
                1.0564895002215073,
                1.5763408239611574
            ]
        },
        {
            "positions": [
                -0.8232039189806792,
                -1.6125344206545305,
                1.3708456374022464,
                -0.3968956706292993,
                1.014278314052526,
                1.4097237816274937
            ]
        },
        {
            "positions": [
                -0.7413376441894447,
                -1.630076801268644,
                1.31113537646229,
                -0.38982895892640224,
                0.9720671278835448,
                1.2431067392938302
            ]
        },
        {
            "positions": [
                -0.65947136939821,
                -1.6476191818827572,
                1.2514251155223337,
                -0.3827622472235051,
                0.9298559417145635,
                1.0764896969601665
            ]
        },
        {
            "positions": [
                -0.7918645690242195,
                -1.6478328754087674,
                1.3093895893858378,
                -0.3998466543113848,
                0.906908272587035,
                1.215976645022221
            ]
        },
        {
            "positions": [
                -0.9242577686502289,
                -1.6480465689347779,
                1.3673540632493417,
                -0.4169310613992644,
                0.8839606034595066,
                1.3554635930842753
            ]
        },
        {
            "positions": [
                -1.0566509682762384,
                -1.648260262460788,
                1.4253185371128458,
                -0.43401546848714406,
                0.861012934331978,
                1.4949505411463297
            ]
        },
        {
            "positions": [
                -1.1890441679022479,
                -1.6484739559867985,
                1.48328301097635,
                -0.4510998755750237,
                0.8380652652044495,
                1.6344374892083842
            ]
        },
        {
            "positions": [
                -1.3214373675282574,
                -1.6486876495128087,
                1.5412474848398539,
                -0.46818428266290335,
                0.815117596076921,
                1.7739244372704386
            ]
        },
        {
            "positions": [
                -1.4538305671542668,
                -1.648901343038819,
                1.599211958703358,
                -0.48526868975078297,
                0.7921699269493925,
                1.913411385332493
            ]
        },
        {
            "positions": [
                -1.586223766780276,
                -1.6491150365648293,
                1.657176432566862,
                -0.5023530968386626,
                0.7692222578218639,
                2.0528983333945474
            ]
        },
        {
            "positions": [
                -1.7186169664062856,
                -1.6493287300908397,
                1.7151409064303662,
                -0.5194375039265423,
                0.7462745886943354,
                2.192385281456602
            ]
        },
        {
            "positions": [
                -1.851010166032295,
                -1.6495424236168499,
                1.77310538029387,
                -0.5365219110144219,
                0.723326919566807,
                2.3318722295186562
            ]
        },
        {
            "positions": [
                -1.9834033656583046,
                -1.6497561171428603,
                1.8310698541573742,
                -0.5536063181023015,
                0.7003792504392784,
                2.4713591775807107
            ]
        },
        {
            "positions": [
                -2.115796565284314,
                -1.6499698106688705,
                1.8890343280208781,
                -0.5706907251901812,
                0.67743158131175,
                2.610846125642765
            ]
        },
        {
            "positions": [
                -2.2481897649103235,
                -1.650183504194881,
                1.9469988018843822,
                -0.5877751322780609,
                0.6544839121842214,
                2.7503330737048195
            ]
        },
        {
            "positions": [
                -2.380582964536333,
                -1.650397197720891,
                2.0049632757478864,
                -0.6048595393659405,
                0.6315362430566929,
                2.889820021766874
            ]
        },
        {
            "positions": [
                -2.4559014443073273,
                -1.59608996994901,
                2.039258452782931,
                -0.6225073930922407,
                0.6359931546140448,
                2.987706265160571
            ]
        },
        {
            "positions": [
                -2.5312199240783215,
                -1.541782742177129,
                2.0735536298179755,
                -0.640155246818541,
                0.6404500661713968,
                3.0855925085542686
            ]
        },
        {
            "positions": [
                -2.5030217243887205,
                -1.351464592581368,
                2.0395455155553983,
                -0.7290804035656397,
                0.6533707578717037,
                3.0985356069897163
            ]
        },
        {
            "positions": [
                -2.4748235246991195,
                -1.1611464429856069,
                2.005537401292821,
                -0.8180055603127386,
                0.6662914495720107,
                3.111478705425164
            ]
        }
    ]
}