{
    "goal": {
        "global_pose": {
            "orientation": {
                "w": 0.7047431493862688,
                "x": -0.7094548369677653,
                "y": 0.0024358444001904,
                "z": -0.0022348060817251984
            },
            "position": {
                "x": -0.39052492380142206,
                "y": 0.3671506643295288,
                "z": 0.19426114857196808
            }
        },
        "name": "move_to_magneteinheit_D"
    },
    "id": "ProjEST_move_to_magneteinheit_D_87",
    "joint_names": [
        "shoulder_pan_joint",
        "shoulder_lift_joint",
        "elbow_joint",
        "wrist_1_joint",
        "wrist_2_joint",
        "wrist_3_joint"
    ],
    "metrics": {
        "cart_traj_len": 7.432033888125575,
        "distance_elbow_joint": 5.634022089869845,
        "distance_shoulder_lift_joint": 2.783698995834376,
        "distance_shoulder_pan_joint": 7.308563310558975,
        "distance_wrist_1_joint": 9.772603518962987,
        "distance_wrist_2_joint": 2.8134452079241097,
        "distance_wrist_3_joint": 6.373824135689732,
        "smoothness": 0.6194367472082365,
        "time": 0.176568962,
        "traj_len": 5.889495501215703,
        "weighted_distance": 7.747248173197147
    },
    "planner": "ProjEST",
    "start": {
        "state": {
            "elbow_joint": 0.7495348899011973,
            "shoulder_lift_joint": -0.6476975780737697,
            "shoulder_pan_joint": -2.711696901376276,
            "wrist_1_joint": -0.07506478080974305,
            "wrist_2_joint": 0.4329665971545858,
            "wrist_3_joint": 3.1361499051832524
        }
    },
    "waypoints": [
        {
            "positions": [
                -2.711696901376276,
                -0.6476975780737697,
                0.7495348899011973,
                -0.07506478080974305,
                0.4329665971545858,
                3.1361499051832524
            ]
        },
        {
            "positions": [
                -2.742056485969333,
                -0.6322339914893652,
                0.7524189328976512,
                -0.1658357263627276,
                0.34501007877711215,
                2.9792214776735317
            ]
        },
        {
            "positions": [
                -2.77241607056239,
                -0.6167704049049606,
                0.755302975894105,
                -0.2566066719157121,
                0.25705356039963845,
                2.8222930501638115
            ]
        },
        {
            "positions": [
                -2.802775655155447,
                -0.6013068183205561,
                0.7581870188905588,
                -0.34737761746869666,
                0.1690970420221648,
                2.665364622654091
            ]
        },
        {
            "positions": [
                -2.8058022324746243,
                -0.5959116176808426,
                0.6996444030654598,
                -0.311879232993609,
                0.12411510526343139,
                2.4361773383085255
            ]
        },
        {
            "positions": [
                -2.808828809793802,
                -0.590516417041129,
                0.6411017872403609,
                -0.2763808485185213,
                0.07913316850469797,
                2.20699005396296
            ]
        },
        {
            "positions": [
                -2.811855387112979,
                -0.5851212164014155,
                0.582559171415262,
                -0.2408824640434336,
                0.034151231745964544,
                1.977802769617395
            ]
        },
        {
            "positions": [
                -2.8148819644321565,
                -0.5797260157617019,
                0.524016555590163,
                -0.20538407956834592,
                -0.010830705012768865,
                1.7486154852718299
            ]
        },
        {
            "positions": [
                -2.817908541751334,
                -0.5743308151219884,
                0.46547393976506407,
                -0.16988569509325824,
                -0.055812641771502275,
                1.5194282009262645
            ]
        },
        {
            "positions": [
                -2.820935119070511,
                -0.5689356144822748,
                0.4069313239399651,
                -0.13438731061817055,
                -0.10079457853023571,
                1.2902409165806992
            ]
        },
        {
            "positions": [
                -2.8239616963896887,
                -0.5635404138425613,
                0.34838870811486616,
                -0.09888892614308287,
                -0.14577651528896912,
                1.061053632235134
            ]
        },
        {
            "positions": [
                -2.8269882737088663,
                -0.5581452132028477,
                0.2898460922897672,
                -0.06339054166799521,
                -0.19075845204770253,
                0.8318663478895687
            ]
        },
        {
            "positions": [
                -2.7252788792656326,
                -0.5997515197030956,
                0.22108603483280914,
                -0.12876708564352723,
                -0.19539771071572964,
                0.7240689943698206
            ]
        },
        {
            "positions": [
                -2.623569484822399,
                -0.6413578262033436,
                0.15232597737585107,
                -0.19414362961905923,
                -0.20003696938375676,
                0.6162716408500726
            ]
        },
        {
            "positions": [
                -2.5218600903791653,
                -0.6829641327035916,
                0.08356591991889298,
                -0.25952017359459123,
                -0.2046762280517839,
                0.5084742873303245
            ]
        },
        {
            "positions": [
                -2.4201506959359316,
                -0.7245704392038395,
                0.014805862461934938,
                -0.3248967175701233,
                -0.209315486719811,
                0.4006769338105764
            ]
        },
        {
            "positions": [
                -2.3184413014926983,
                -0.7661767457040873,
                -0.05395419499502313,
                -0.3902732615456552,
                -0.21395474538783812,
                0.2928795802908284
            ]
        },
        {
            "positions": [
                -2.216731907049464,
                -0.8077830522043353,
                -0.12271425245198125,
                -0.4556498055211873,
                -0.21859400405586527,
                0.18508222677108022
            ]
        },
        {
            "positions": [
                -2.115022512606231,
                -0.8493893587045833,
                -0.19147430990893932,
                -0.5210263494967193,
                -0.22323326272389238,
                0.07728487325133215
            ]
        },
        {
            "positions": [
                -2.013313118162997,
                -0.8909956652048312,
                -0.26023436736589733,
                -0.5864028934722513,
                -0.2278725213919195,
                -0.03051248026841591
            ]
        },
        {
            "positions": [
                -1.9116037237197636,
                -0.9326019717050791,
                -0.32899442482285546,
                -0.6517794374477833,
                -0.2325117800599466,
                -0.13830983378816397
            ]
        },
        {
            "positions": [
                -1.80989432927653,
                -0.974208278205327,
                -0.39775448227981347,
                -0.7171559814233153,
                -0.23715103872797372,
                -0.24610718730791192
            ]
        },
        {
            "positions": [
                -1.7081849348332963,
                -1.0158145847055748,
                -0.4665145397367715,
                -0.7825325253988473,
                -0.24179029739600086,
                -0.35390454082766
            ]
        },
        {
            "positions": [
                -1.6064755403900624,
                -1.057420891205823,
                -0.5352745971937297,
                -0.8479090693743794,
                -0.24642955606402797,
                -0.46170189434740827
            ]
        },
        {
            "positions": [
                -1.504766145946829,
                -1.0990271977060708,
                -0.6040346546506877,
                -0.9132856133499114,
                -0.2510688147320551,
                -0.5694992478671563
            ]
        },
        {
            "positions": [
                -1.4030567515035952,
                -1.1406335042063187,
                -0.6727947121076459,
                -0.9786621573254434,
                -0.2557080734000822,
                -0.6772966013869044
            ]
        },
        {
            "positions": [
                -1.3013473570603615,
                -1.1822398107065668,
                -0.7415547695646039,
                -1.0440387013009755,
                -0.26034733206810934,
                -0.7850939549066525
            ]
        },
        {
            "positions": [
                -1.1996379626171279,
                -1.2238461172068145,
                -0.8103148270215619,
                -1.1094152452765074,
                -0.26498659073613645,
                -0.8928913084264005
            ]
        },
        {
            "positions": [
                -1.0979285681738942,
                -1.2654524237070626,
                -0.8790748844785199,
                -1.1747917892520394,
                -0.26962584940416356,
                -1.0006886619461486
            ]
        },
        {
            "positions": [
                -0.9962191737306607,
                -1.3070587302073104,
                -0.9478349419354781,
                -1.2401683332275715,
                -0.2742651080721907,
                -1.1084860154658966
            ]
        },
        {
            "positions": [
                -0.894509779287427,
                -1.3486650367075583,
                -1.0165949993924361,
                -1.3055448772031035,
                -0.2789043667402178,
                -1.2162833689856447
            ]
        },
        {
            "positions": [
                -0.7928003848441936,
                -1.3902713432078064,
                -1.0853550568493942,
                -1.3709214211786354,
                -0.28354362540824496,
                -1.3240807225053925
            ]
        },
        {
            "positions": [
                -0.6910909904009599,
                -1.431877649708054,
                -1.1541151143063522,
                -1.4362979651541674,
                -0.28818288407627207,
                -1.4318780760251408
            ]
        },
        {
            "positions": [
                -0.5893815959577262,
                -1.4734839562083022,
                -1.2228751717633102,
                -1.5016745091296995,
                -0.2928221427442992,
                -1.5396754295448887
            ]
        },
        {
            "positions": [
                -0.4876722015144921,
                -1.5150902627085503,
                -1.2916352292202686,
                -1.5670510531052317,
                -0.2974614014123263,
                -1.6474727830646374
            ]
        },
        {
            "positions": [
                -0.3859628070712584,
                -1.5566965692087982,
                -1.3603952866772266,
                -1.6324275970807636,
                -0.3021006600803534,
                -1.7552701365843852
            ]
        },
        {
            "positions": [
                -0.2842534126280247,
                -1.598302875709046,
                -1.4291553441341847,
                -1.6978041410562956,
                -0.3067399187483806,
                -1.8630674901041335
            ]
        },
        {
            "positions": [
                -0.1825440181847915,
                -1.639909182209294,
                -1.4979154015911427,
                -1.7631806850318277,
                -0.31137917741640764,
                -1.9708648436238814
            ]
        },
        {
            "positions": [
                -0.08083462374155781,
                -1.6815154887095418,
                -1.5666754590481007,
                -1.8285572290073597,
                -0.3160184360844348,
                -2.07866219714363
            ]
        },
        {
            "positions": [
                0.02087477070167587,
                -1.72312179520979,
                -1.635435516505059,
                -1.8939337729828916,
                -0.3206576947524619,
                -2.1864595506633773
            ]
        },
        {
            "positions": [
                0.12258416514490955,
                -1.7647281017100378,
                -1.704195573962017,
                -1.9593103169584236,
                -0.32529695342048903,
                -2.2942569041831256
            ]
        },
        {
            "positions": [
                0.22429355958814318,
                -1.8063344082102857,
                -1.7729556314189752,
                -2.0246868609339557,
                -0.32993621208851615,
                -2.402054257702874
            ]
        },
        {
            "positions": [
                0.3054580976813397,
                -1.7738183666886929,
                -1.7180767982863014,
                -1.8724241919629057,
                -0.371266559904416,
                -2.4343516950139925
            ]
        },
        {
            "positions": [
                0.3866226357745362,
                -1.7413023251671,
                -1.6631979651536277,
                -1.7201615229918557,
                -0.4125969077203159,
                -2.466649132325111
            ]
        },
        {
            "positions": [
                0.4677871738677327,
                -1.7087862836455072,
                -1.608319132020954,
                -1.5678988540208059,
                -0.4539272555362157,
                -2.49894656963623
            ]
        },
        {
            "positions": [
                0.5489517119609293,
                -1.6762702421239144,
                -1.5534402988882803,
                -1.4156361850497559,
                -0.49525760335211555,
                -2.5312440069473485
            ]
        },
        {
            "positions": [
                0.6301162500541257,
                -1.6437542006023216,
                -1.4985614657556066,
                -1.263373516078706,
                -0.5365879511680154,
                -2.563541444258467
            ]
        },
        {
            "positions": [
                0.7112807881473222,
                -1.6112381590807288,
                -1.443682632622933,
                -1.111110847107656,
                -0.5779182989839152,
                -2.595838881569586
            ]
        },
        {
            "positions": [
                0.7924453262405189,
                -1.578722117559136,
                -1.3888037994902591,
                -0.958848178136606,
                -0.6192486467998151,
                -2.628136318880705
            ]
        },
        {
            "positions": [
                0.8736098643337153,
                -1.5462060760375431,
                -1.3339249663575856,
                -0.806585509165556,
                -0.660578994615715,
                -2.6604337561918237
            ]
        },
        {
            "positions": [
                0.9547744024269118,
                -1.51369003451595,
                -1.279046133224912,
                -0.654322840194506,
                -0.7019093424316148,
                -2.6927311935029423
            ]
        },
        {
            "positions": [
                1.0359389405201083,
                -1.4811739929943575,
                -1.2241673000922382,
                -0.5020601712234563,
                -0.7432396902475147,
                -2.725028630814061
            ]
        },
        {
            "positions": [
                1.117103478613305,
                -1.4486579514727644,
                -1.1692884669595645,
                -0.34979750225240624,
                -0.7845700380634145,
                -2.7573260681251797
            ]
        },
        {
            "positions": [
                1.1982680167065014,
                -1.4161419099511718,
                -1.1144096338268907,
                -0.19753483328135624,
                -0.8259003858793144,
                -2.7896235054362983
            ]
        },
        {
            "positions": [
                1.2794325547996979,
                -1.3836258684295788,
                -1.0595308006942172,
                -0.04527216431030645,
                -0.8672307336952141,
                -2.821920942747417
            ]
        },
        {
            "positions": [
                1.3605970928928945,
                -1.351109826907986,
                -1.0046519675615433,
                0.10699050466074356,
                -0.908561081511114,
                -2.8542183800585357
            ]
        },
        {
            "positions": [
                1.441761630986091,
                -1.3185937853863932,
                -0.9497731344288696,
                0.25925317363179357,
                -0.949891429327014,
                -2.8865158173696543
            ]
        },
        {
            "positions": [
                1.5229261690792875,
                -1.2860777438648006,
                -0.894894301296196,
                0.4115158426028436,
                -0.9912217771429137,
                -2.918813254680773
            ]
        },
        {
            "positions": [
                1.604090707172484,
                -1.2535617023432075,
                -0.8400154681635223,
                0.5637785115738931,
                -1.0325521249588137,
                -2.951110691991892
            ]
        },
        {
            "positions": [
                1.6852552452656806,
                -1.2210456608216147,
                -0.7851366350308485,
                0.7160411805449436,
                -1.0738824727747136,
                -2.983408129303011
            ]
        },
        {
            "positions": [
                1.766419783358877,
                -1.1885296193000219,
                -0.7302578018981749,
                0.8683038495159936,
                -1.1152128205906133,
                -3.0157055666141295
            ]
        },
        {
            "positions": [
                1.8475843214520735,
                -1.156013577778429,
                -0.6753789687655012,
                1.0205665184870432,
                -1.156543168406513,
                -3.048003003925248
            ]
        },
        {
            "positions": [
                1.92874885954527,
                -1.1234975362568362,
                -0.6205001356328275,
                1.1728291874580932,
                -1.197873516222413,
                -3.080300441236367
            ]
        },
        {
            "positions": [
                2.0099133976384667,
                -1.0909814947352434,
                -0.5656213025001537,
                1.3250918564291432,
                -1.239203864038313,
                -3.1125978785474855
            ]
        },
        {
            "positions": [
                2.091077935731663,
                -1.0584654532136506,
                -0.51074246936748,
                1.4773545254001932,
                -1.2805342118542127,
                -3.144895315858604
            ]
        },
        {
            "positions": [
                2.000069706580229,
                -1.086388992452026,
                -0.5840230353082582,
                1.3272358893640643,
                -1.2365364358976003,
                -3.1411841592726897
            ]
        },
        {
            "positions": [
                1.909061477428795,
                -1.1143125316904015,
                -0.6573036012490363,
                1.1771172533279355,
                -1.1925386599409877,
                -3.1374730026867748
            ]
        },
        {
            "positions": [
                1.818053248277361,
                -1.1422360709287767,
                -0.7305841671898143,
                1.0269986172918069,
                -1.1485408839843754,
                -3.1337618461008603
            ]
        },
        {
            "positions": [
                1.727045019125927,
                -1.170159610167152,
                -0.8038647331305926,
                0.8768799812556779,
                -1.1045431080277628,
                -3.1300506895149454
            ]
        },
        {
            "positions": [
                1.636036789974493,
                -1.1980831494055275,
                -0.8771452990713706,
                0.7267613452195492,
                -1.0605453320711504,
                -3.126339532929031
            ]
        },
        {
            "positions": [
                1.545028560823059,
                -1.226006688643903,
                -0.9504258650121488,
                0.5766427091834204,
                -1.0165475561145378,
                -3.122628376343116
            ]
        },
        {
            "positions": [
                1.4540203316716247,
                -1.2539302278822784,
                -1.023706430952927,
                0.42652407314729146,
                -0.9725497801579254,
                -3.1189172197572015
            ]
        },
        {
            "positions": [
                1.363012102520191,
                -1.2818537671206536,
                -1.0969869968937052,
                0.2764054371111626,
                -0.9285520042013129,
                -3.1152060631712866
            ]
        },
        {
            "positions": [
                1.2720038733687569,
                -1.309777306359029,
                -1.1702675628344832,
                0.12628680107503398,
                -0.8845542282447005,
                -3.111494906585372
            ]
        },
        {
            "positions": [
                1.1809956442173228,
                -1.3377008455974044,
                -1.2435481287752612,
                -0.023831834961094867,
                -0.840556452288088,
                -3.107783749999457
            ]
        },
        {
            "positions": [
                1.0899874150658888,
                -1.3656243848357799,
                -1.3168286947160395,
                -0.17395047099722372,
                -0.7965586763314756,
                -3.1040725934135427
            ]
        },
        {
            "positions": [
                0.9989791859144548,
                -1.3935479240741553,
                -1.3901092606568175,
                -0.32406910703335234,
                -0.7525609003748631,
                -3.1003614368276278
            ]
        },
        {
            "positions": [
                0.9079709567630205,
                -1.4214714633125305,
                -1.4633898265975958,
                -0.4741877430694814,
                -0.7085631244182505,
                -3.0966502802417133
            ]
        },
        {
            "positions": [
                0.8169627276115865,
                -1.449395002550906,
                -1.536670392538374,
                -0.6243063791056103,
                -0.6645653484616381,
                -3.0929391236557984
            ]
        },
        {
            "positions": [
                0.7259544984601527,
                -1.4773185417892813,
                -1.6099509584791518,
                -0.7744250151417389,
                -0.6205675725050257,
                -3.089227967069884
            ]
        },
        {
            "positions": [
                0.6349462693087184,
                -1.5052420810276568,
                -1.68323152441993,
                -0.924543651177868,
                -0.5765697965484132,
                -3.085516810483969
            ]
        },
        {
            "positions": [
                0.5439380401572844,
                -1.5331656202660322,
                -1.7565120903607083,
                -1.0746622872139966,
                -0.5325720205918006,
                -3.0818056538980545
            ]
        },
        {
            "positions": [
                0.4529298110058506,
                -1.5610891595044074,
                -1.8297926563014864,
                -1.2247809232501252,
                -0.4885742446351883,
                -3.0780944973121396
            ]
        },
        {
            "positions": [
                0.36192158185441636,
                -1.5890126987427828,
                -1.9030732222422644,
                -1.3748995592862543,
                -0.4445764686785758,
                -3.074383340726225
            ]
        },
        {
            "positions": [
                0.27091335270298234,
                -1.6169362379811583,
                -1.9763537881830426,
                -1.525018195322383,
                -0.4005786927219632,
                -3.07067218414031
            ]
        },
        {
            "positions": [
                0.1799051235515483,
                -1.6448597772195335,
                -2.0496343541238207,
                -1.6751368313585115,
                -0.35658091676535086,
                -3.0669610275543957
            ]
        },
        {
            "positions": [
                0.0888968944001145,
                -1.6727833164579091,
                -2.122914920064599,
                -1.8252554673946406,
                -0.3125831408087384,
                -3.063249870968481
            ]
        },
        {
            "positions": [
                -0.002111334751319749,
                -1.7007068556962843,
                -2.1961954860053767,
                -1.9753741034307697,
                -0.2685853648521259,
                -3.0595387143825663
            ]
        },
        {
            "positions": [
                -0.09311956390275355,
                -1.7286303949346598,
                -2.269476051946155,
                -2.125492739466898,
                -0.22458758889551356,
                -3.0558275577966514
            ]
        },
        {
            "positions": [
                -0.18412779305418772,
                -1.7565539341730352,
                -2.3427566178869332,
                -2.275611375503027,
                -0.18058981293890086,
                -3.052116401210737
            ]
        }
    ]
}