{
    "goal": {
        "global_pose": {
            "orientation": {
                "w": 0.7031023502349854,
                "x": -0.7110244035720825,
                "y": 0.007748599164187908,
                "z": 0.005598929710686207
            },
            "position": {
                "x": 0.11585023208521307,
                "y": 0.44412534475326537,
                "z": 0.3711530566215515
            }
        },
        "name": "move_to_auspresseinheit_A"
    },
    "id": "ProjEST_move_to_auspresseinheit_A_76",
    "joint_names": [
        "shoulder_pan_joint",
        "shoulder_lift_joint",
        "elbow_joint",
        "wrist_1_joint",
        "wrist_2_joint",
        "wrist_3_joint"
    ],
    "metrics": {
        "cart_traj_len": 0.9566065902755054,
        "distance_elbow_joint": 0.9625671015710351,
        "distance_shoulder_lift_joint": 0.5444989076708471,
        "distance_shoulder_pan_joint": 1.048020726141273,
        "distance_wrist_1_joint": 2.277506725686517,
        "distance_wrist_2_joint": 0.5158140349348077,
        "distance_wrist_3_joint": 2.7472353429660803,
        "smoothness": 1.0163587731374175,
        "time": 0.213095074,
        "traj_len": 2.8452843160166896,
        "weighted_distance": 4.0476455236994315
    },
    "planner": "ProjEST",
    "start": {
        "state": {
            "elbow_joint": 2.4225747245308327,
            "shoulder_lift_joint": -1.373653427065438,
            "shoulder_pan_joint": -0.33786330853087027,
            "wrist_1_joint": -1.0288602302712604,
            "wrist_2_joint": 1.23302299562683,
            "wrist_3_joint": -3.094021725338297
        }
    },
    "waypoints": [
        {
            "positions": [
                -0.33786330853087027,
                -1.373653427065438,
                2.4225747245308327,
                -1.0288602302712604,
                1.23302299562683,
                -3.094021725338297
            ]
        },
        {
            "positions": [
                -0.29310420122512953,
                -1.4137995770376213,
                2.384310795618775,
                -0.9191661744233423,
                1.2030679089796663,
                -2.990318426316705
            ]
        },
        {
            "positions": [
                -0.2483450939193888,
                -1.4539457270098048,
                2.3460468667067174,
                -0.8094721185754241,
                1.173112822332503,
                -2.886615127295113
            ]
        },
        {
            "positions": [
                -0.20358598661364807,
                -1.4940918769819882,
                2.3077829377946593,
                -0.6997780627275059,
                1.1431577356853393,
                -2.782911828273521
            ]
        },
        {
            "positions": [
                -0.15882687930790734,
                -1.5342380269541716,
                2.2695190088826016,
                -0.5900840068795877,
                1.113202649038176,
                -2.6792085292519285
            ]
        },
        {
            "positions": [
                -0.11406777200216661,
                -1.5743841769263551,
                2.231255079970544,
                -0.4803899510316696,
                1.0832475623910123,
                -2.5755052302303367
            ]
        },
        {
            "positions": [
                -0.06930866469642588,
                -1.6145303268985385,
                2.1929911510584863,
                -0.37069589518375134,
                1.0532924757438487,
                -2.4718019312087445
            ]
        },
        {
            "positions": [
                -0.02454955739068515,
                -1.6546764768707218,
                2.154727222146428,
                -0.2610018393358333,
                1.0233373890966853,
                -2.3680986321871527
            ]
        },
        {
            "positions": [
                0.02020954991505558,
                -1.6948226268429054,
                2.1164632932343705,
                -0.15130778348791507,
                0.9933823024495216,
                -2.2643953331655604
            ]
        },
        {
            "positions": [
                0.06496865722079631,
                -1.7349687768150888,
                2.078199364322313,
                -0.041613727639996934,
                0.9634272158023581,
                -2.1606920341439686
            ]
        },
        {
            "positions": [
                0.10972776452653704,
                -1.7751149267872721,
                2.0399354354102552,
                0.0680803282079212,
                0.9334721291551946,
                -2.056988735122376
            ]
        },
        {
            "positions": [
                0.15448687183227777,
                -1.8152610767594555,
                2.001671506498197,
                0.17777438405583945,
                0.903517042508031,
                -1.9532854361007843
            ]
        },
        {
            "positions": [
                0.1992459791380185,
                -1.855407226731639,
                1.9634075775861395,
                0.2874684399037577,
                0.8735619558608675,
                -1.849582137079192
            ]
        },
        {
            "positions": [
                0.24400508644375926,
                -1.8955533767038224,
                1.9251436486740818,
                0.3971624957516756,
                0.843606869213704,
                -1.7458788380576
            ]
        },
        {
            "positions": [
                0.29110863857963426,
                -1.8980015318482242,
                1.9835822314276832,
                0.30202605842130514,
                0.8319107263353583,
                -1.9049410177657373
            ]
        },
        {
            "positions": [
                0.3382121907155093,
                -1.9004496869926257,
                2.0420208141812846,
                0.20688962109093467,
                0.8202145834570128,
                -2.0640031974738746
            ]
        },
        {
            "positions": [
                0.38531574285138426,
                -1.9028978421370275,
                2.100459396934886,
                0.1117531837605642,
                0.8085184405786672,
                -2.223065377182012
            ]
        },
        {
            "positions": [
                0.4324192949872593,
                -1.905345997281429,
                2.1588979796884873,
                0.01661674643019373,
                0.7968222977003216,
                -2.382127556890149
            ]
        },
        {
            "positions": [
                0.4795228471231343,
                -1.9077941524258308,
                2.217336562442089,
                -0.07851969090017674,
                0.785126154821976,
                -2.5411897365982865
            ]
        },
        {
            "positions": [
                0.5266263992590093,
                -1.9102423075702324,
                2.27577514519569,
                -0.1736561282305472,
                0.7734300119436305,
                -2.700251916306424
            ]
        },
        {
            "positions": [
                0.5737299513948844,
                -1.9126904627146342,
                2.3342137279492916,
                -0.2687925655609177,
                0.7617338690652848,
                -2.859314096014561
            ]
        },
        {
            "positions": [
                0.6419436845026436,
                -1.9099595267038088,
                2.3622467011688286,
                -0.3615570347364114,
                0.7394714148786535,
                -3.0021426948787724
            ]
        },
        {
            "positions": [
                0.7101574176104029,
                -1.9072285906929833,
                2.390279674388366,
                -0.45432150391190507,
                0.7172089606920222,
                -3.1449712937429832
            ]
        }
    ]
}