{
    "goal": {
        "global_pose": {
            "orientation": {
                "w": 0.7031023502349854,
                "x": -0.7110244035720825,
                "y": 0.007748599164187908,
                "z": 0.005598929710686207
            },
            "position": {
                "x": 0.11585023208521307,
                "y": 0.44412534475326537,
                "z": 0.3711530566215515
            }
        },
        "name": "move_to_auspresseinheit_A"
    },
    "id": "ProjEST_move_to_auspresseinheit_A_114",
    "joint_names": [
        "shoulder_pan_joint",
        "shoulder_lift_joint",
        "elbow_joint",
        "wrist_1_joint",
        "wrist_2_joint",
        "wrist_3_joint"
    ],
    "metrics": {
        "cart_traj_len": 0.9888886923383986,
        "distance_elbow_joint": 1.3158683417396837,
        "distance_shoulder_lift_joint": 0.534165802821781,
        "distance_shoulder_pan_joint": 1.0408434468623227,
        "distance_wrist_1_joint": 2.4693579596642543,
        "distance_wrist_2_joint": 1.6970190497424462,
        "distance_wrist_3_joint": 2.484242488754279,
        "smoothness": 0.8428601109888215,
        "time": 0.331487182,
        "traj_len": 3.0889313831137084,
        "weighted_distance": 4.321615331852203
    },
    "planner": "ProjEST",
    "start": {
        "state": {
            "elbow_joint": 2.4225747245308327,
            "shoulder_lift_joint": -1.373653427065438,
            "shoulder_pan_joint": -0.33786330853087027,
            "wrist_1_joint": -1.0288602302712604,
            "wrist_2_joint": 1.23302299562683,
            "wrist_3_joint": -3.094021725338297
        }
    },
    "waypoints": [
        {
            "positions": [
                -0.33786330853087027,
                -1.373653427065438,
                2.4225747245308327,
                -1.0288602302712604,
                1.23302299562683,
                -3.094021725338297
            ]
        },
        {
            "positions": [
                -0.3131210176913429,
                -1.3848953562001114,
                2.370715570172744,
                -0.9117560200914019,
                1.1471424679247888,
                -3.0002357483860873
            ]
        },
        {
            "positions": [
                -0.2883787268518155,
                -1.396137285334785,
                2.3188564158146545,
                -0.7946518099115434,
                1.061261940222748,
                -2.906449771433877
            ]
        },
        {
            "positions": [
                -0.2636364360122881,
                -1.4073792144694586,
                2.2669972614565657,
                -0.6775475997316849,
                0.9753814125207068,
                -2.812663794481667
            ]
        },
        {
            "positions": [
                -0.2388941451727607,
                -1.4186211436041323,
                2.215138107098477,
                -0.5604433895518265,
                0.8895008848186656,
                -2.718877817529457
            ]
        },
        {
            "positions": [
                -0.2141518543332333,
                -1.4298630727388058,
                2.1632789527403875,
                -0.443339179371968,
                0.8036203571166246,
                -2.625091840577247
            ]
        },
        {
            "positions": [
                -0.1894095634937059,
                -1.4411050018734792,
                2.1114197983822987,
                -0.3262349691921095,
                0.7177398294145835,
                -2.531305863625037
            ]
        },
        {
            "positions": [
                -0.16466727265417852,
                -1.452346931008153,
                2.05956064402421,
                -0.2091307590122512,
                0.6318593017125426,
                -2.4375198866728267
            ]
        },
        {
            "positions": [
                -0.13992498181465113,
                -1.4635888601428264,
                2.007701489666121,
                -0.09202654883239259,
                0.5459787740105014,
                -2.343733909720617
            ]
        },
        {
            "positions": [
                -0.11518269097512374,
                -1.4748307892774999,
                1.9558423353080316,
                0.025077661347465696,
                0.4600982463084604,
                -2.249947932768407
            ]
        },
        {
            "positions": [
                -0.09044040013559634,
                -1.4860727184121736,
                1.9039831809499428,
                0.14218187152732442,
                0.3742177186064193,
                -2.156161955816197
            ]
        },
        {
            "positions": [
                -0.06569810929606895,
                -1.497314647546847,
                1.852124026591854,
                0.2592860817071827,
                0.28833719090437826,
                -2.0623759788639866
            ]
        },
        {
            "positions": [
                -0.04095581845654156,
                -1.5085565766815208,
                1.8002648722337646,
                0.37639029188704143,
                0.20245666320233702,
                -1.9685900019117768
            ]
        },
        {
            "positions": [
                -0.016213527617014195,
                -1.5197985058161942,
                1.7484057178756758,
                0.49349450206689977,
                0.11657613550029616,
                -1.8748040249595668
            ]
        },
        {
            "positions": [
                0.01889958285407039,
                -1.5486958063687029,
                1.8173233122546968,
                0.4278105462876685,
                0.13206516902312226,
                -2.000403218442784
            ]
        },
        {
            "positions": [
                0.05401269332515497,
                -1.5775931069212117,
                1.886240906633718,
                0.3621265905084373,
                0.14755420254594837,
                -2.1260024119260006
            ]
        },
        {
            "positions": [
                0.08912580379623955,
                -1.6064904074737203,
                1.9551585010127392,
                0.29644263472920607,
                0.1630432360687745,
                -2.2516016054092174
            ]
        },
        {
            "positions": [
                0.12423891426732414,
                -1.635387708026229,
                2.0240760953917603,
                0.23075867894997482,
                0.1785322695916006,
                -2.377200798892434
            ]
        },
        {
            "positions": [
                0.19316883990357345,
                -1.6680891260073578,
                2.0685937880992866,
                0.14850388019942762,
                0.2400715720317645,
                -2.469216766792843
            ]
        },
        {
            "positions": [
                0.26209876553982275,
                -1.7007905439884865,
                2.113111480806813,
                0.06624908144888045,
                0.3016108744719284,
                -2.561232734693252
            ]
        },
        {
            "positions": [
                0.33102869117607203,
                -1.7334919619696154,
                2.1576291735143394,
                -0.016005717301666722,
                0.3631501769120923,
                -2.6532487025936606
            ]
        },
        {
            "positions": [
                0.39995861681232137,
                -1.766193379950744,
                2.2021468662218657,
                -0.09826051605221392,
                0.4246894793522562,
                -2.7452646704940697
            ]
        },
        {
            "positions": [
                0.4688885424485707,
                -1.798894797931873,
                2.2466645589293917,
                -0.18051531480276112,
                0.48622878179242013,
                -2.8372806383944784
            ]
        },
        {
            "positions": [
                0.5378184680848199,
                -1.831596215913002,
                2.291182251636918,
                -0.26277011355330826,
                0.547768084232584,
                -2.929296606294887
            ]
        },
        {
            "positions": [
                0.6067483937210693,
                -1.8642976338941306,
                2.3356999443444444,
                -0.34502491230385546,
                0.609307386672748,
                -3.0213125741952958
            ]
        },
        {
            "positions": [
                0.6756783193573186,
                -1.8969990518752595,
                2.3802176370519708,
                -0.42727971105440266,
                0.6708466891129119,
                -3.113328542095705
            ]
        },
        {
            "positions": [
                0.7029801383314525,
                -1.907819229887219,
                2.3901050529602026,
                -0.4535087252591939,
                0.6971483251162092,
                -3.1398288133351153
            ]
        }
    ]
}