{
    "goal": {
        "global_pose": {
            "orientation": {
                "w": -0.00223480608172531,
                "x": 0.0024358444001904467,
                "y": 0.7094548369677653,
                "z": -0.704743149386269
            },
            "position": {
                "x": -0.37947507619857795,
                "y": -0.6371506643295288,
                "z": 0.19426114857196808
            }
        },
        "name": "move_to_magneteinheit_C"
    },
    "id": "ProjEST_move_to_magneteinheit_C_46",
    "joint_names": [
        "shoulder_pan_joint",
        "shoulder_lift_joint",
        "elbow_joint",
        "wrist_1_joint",
        "wrist_2_joint",
        "wrist_3_joint"
    ],
    "metrics": {
        "cart_traj_len": 0.8450969949588594,
        "distance_elbow_joint": 1.1991088746084033,
        "distance_shoulder_lift_joint": 1.1906644783456097,
        "distance_shoulder_pan_joint": 1.194203847902028,
        "distance_wrist_1_joint": 0.3219577723551509,
        "distance_wrist_2_joint": 0.7870697261800584,
        "distance_wrist_3_joint": 0.387448541855544,
        "smoothness": 1.2614464246877832,
        "time": 0.7102186269999999,
        "traj_len": 2.253986078316988,
        "weighted_distance": 2.6390107660813156
    },
    "planner": "ProjEST",
    "start": {
        "state": {
            "elbow_joint": 1.9565354006590394,
            "shoulder_lift_joint": -1.4165861576513559,
            "shoulder_pan_joint": -1.6717766223277177,
            "wrist_1_joint": -0.5286633288215096,
            "wrist_2_joint": 1.4727565892594296,
            "wrist_3_joint": 3.1593482883155493
        }
    },
    "waypoints": [
        {
            "positions": [
                -1.6717766223277177,
                -1.4165861576513559,
                1.9565354006590394,
                -0.5286633288215096,
                1.4727565892594296,
                3.1593482883155493
            ]
        },
        {
            "positions": [
                -1.796447189385498,
                -1.47532289791851,
                2.03522153985196,
                -0.5491833554764634,
                1.4059728906655267,
                3.182246060142619
            ]
        },
        {
            "positions": [
                -1.9211177564432784,
                -1.5340596381856644,
                2.11390767904488,
                -0.569703382131417,
                1.3391891920716237,
                3.2051438319696888
            ]
        },
        {
            "positions": [
                -2.0457883235010588,
                -1.5927963784528187,
                2.1925938182378006,
                -0.5902234087863708,
                1.272405493477721,
                3.2280416037967585
            ]
        },
        {
            "positions": [
                -2.170458890558839,
                -1.6515331187199729,
                2.271279957430721,
                -0.6107434354413246,
                1.205621794883818,
                3.2509393756238287
            ]
        },
        {
            "positions": [
                -2.2951294576166195,
                -1.710269858987127,
                2.3499660966236413,
                -0.6312634620962783,
                1.138838096289915,
                3.2738371474508985
            ]
        },
        {
            "positions": [
                -2.4198000246744,
                -1.7690065992542814,
                2.428652235816562,
                -0.651783488751232,
                1.0720543976960122,
                3.2967349192779682
            ]
        },
        {
            "positions": [
                -2.54447059173218,
                -1.8277433395214358,
                2.507338375009482,
                -0.6723035154061858,
                1.0052706991021092,
                3.319632691105038
            ]
        },
        {
            "positions": [
                -2.6691411587899605,
                -1.88648007978859,
                2.5860245142024025,
                -0.6928235420611395,
                0.9384870005082062,
                3.3425304629321078
            ]
        },
        {
            "positions": [
                -2.6363346068833295,
                -1.7663516537538606,
                2.491087887358229,
                -0.7191231352470596,
                0.896353644270067,
                3.308486068392277
            ]
        },
        {
            "positions": [
                -2.6035280549766986,
                -1.6462232277191313,
                2.396151260514056,
                -0.7454227284329799,
                0.8542202880319278,
                3.2744416738524458
            ]
        },
        {
            "positions": [
                -2.570721503070068,
                -1.526094801684402,
                2.3012146336698827,
                -0.7717223216189,
                0.8120869317937887,
                3.240397279312615
            ]
        },
        {
            "positions": [
                -2.537914951163437,
                -1.4059663756496728,
                2.206278006825709,
                -0.7980219148048201,
                0.7699535755556496,
                3.2063528847727842
            ]
        },
        {
            "positions": [
                -2.505108399256806,
                -1.2858379496149435,
                2.1113413799815355,
                -0.8243215079907403,
                0.7278202193175104,
                3.172308490232953
            ]
        },
        {
            "positions": [
                -2.472301847350175,
                -1.1657095235802142,
                2.0164047531373623,
                -0.8506211011766605,
                0.6856868630793712,
                3.1382640956931223
            ]
        }
    ]
}