{
    "goal": {
        "global_pose": {
            "orientation": {
                "w": 0.7047431493862688,
                "x": -0.7094548369677653,
                "y": 0.0024358444001904,
                "z": -0.0022348060817251984
            },
            "position": {
                "x": -0.39052492380142206,
                "y": 0.3671506643295288,
                "z": 0.19426114857196808
            }
        },
        "name": "move_to_magneteinheit_D"
    },
    "id": "ProjEST_move_to_magneteinheit_D_143",
    "joint_names": [
        "shoulder_pan_joint",
        "shoulder_lift_joint",
        "elbow_joint",
        "wrist_1_joint",
        "wrist_2_joint",
        "wrist_3_joint"
    ],
    "metrics": {
        "cart_traj_len": 5.940531903684619,
        "distance_elbow_joint": 3.3823917177064478,
        "distance_shoulder_lift_joint": 1.968796934735635,
        "distance_shoulder_pan_joint": 6.43832363016519,
        "distance_wrist_1_joint": 8.043909504371804,
        "distance_wrist_2_joint": 0.7203606854017172,
        "distance_wrist_3_joint": 6.300703141529905,
        "smoothness": 0.3966456050155909,
        "time": 0.614253006,
        "traj_len": 5.182131377523221,
        "weighted_distance": 6.944073882581034
    },
    "planner": "ProjEST",
    "start": {
        "state": {
            "elbow_joint": 0.7495348899011973,
            "shoulder_lift_joint": -0.6476975780737697,
            "shoulder_pan_joint": -2.711696901376276,
            "wrist_1_joint": -0.07506478080974305,
            "wrist_2_joint": 0.4329665971545858,
            "wrist_3_joint": 3.1361499051832524
        }
    },
    "waypoints": [
        {
            "positions": [
                -2.711696901376276,
                -0.6476975780737697,
                0.7495348899011973,
                -0.07506478080974305,
                0.4329665971545858,
                3.1361499051832524
            ]
        },
        {
            "positions": [
                -2.720987675514751,
                -0.7516435199879065,
                0.6641402087521002,
                -0.2178185306011392,
                0.423972000107539,
                3.1489112098059033
            ]
        },
        {
            "positions": [
                -2.6902164224503142,
                -0.838979579645623,
                0.5799595035121975,
                -0.3360393449532571,
                0.43369072513384765,
                3.1185387111263845
            ]
        },
        {
            "positions": [
                -2.6594451693858776,
                -0.9263156393033396,
                0.49577879827229476,
                -0.454260159305375,
                0.4434094501601563,
                3.088166212446866
            ]
        },
        {
            "positions": [
                -2.628673916321441,
                -1.0136516989610562,
                0.41159809303239203,
                -0.572480973657493,
                0.453128175186465,
                3.057793713767347
            ]
        },
        {
            "positions": [
                -2.597902663257005,
                -1.1009877586187726,
                0.3274173877924893,
                -0.6907017880096109,
                0.4628469002127736,
                3.0274212150878284
            ]
        },
        {
            "positions": [
                -2.567131410192568,
                -1.1883238182764893,
                0.24323668255258657,
                -0.8089226023617289,
                0.47256562523908224,
                2.99704871640831
            ]
        },
        {
            "positions": [
                -2.5363601571281316,
                -1.2756598779342059,
                0.15905597731268384,
                -0.9271434167138467,
                0.4822843502653909,
                2.966676217728791
            ]
        },
        {
            "positions": [
                -2.4315153157487925,
                -1.2975411368320682,
                0.09472637535357878,
                -0.8546667859732344,
                0.4792906373631774,
                2.8451386340314566
            ]
        },
        {
            "positions": [
                -2.326670474369454,
                -1.3194223957299305,
                0.03039677339447372,
                -0.7821901552326221,
                0.47629692446096394,
                2.7236010503341226
            ]
        },
        {
            "positions": [
                -2.221825632990115,
                -1.3413036546277928,
                -0.03393282856463131,
                -0.7097135244920099,
                0.47330321155875044,
                2.602063466636788
            ]
        },
        {
            "positions": [
                -2.1169807916107763,
                -1.363184913525655,
                -0.0982624305237364,
                -0.6372368937513976,
                0.47030949865653693,
                2.480525882939454
            ]
        },
        {
            "positions": [
                -2.0121359502314373,
                -1.3850661724235174,
                -0.16259203248284143,
                -0.5647602630107853,
                0.4673157857543234,
                2.3589882992421196
            ]
        },
        {
            "positions": [
                -1.9072911088520987,
                -1.4069474313213797,
                -0.22692163444194646,
                -0.4922836322701731,
                0.46432207285210997,
                2.2374507155447856
            ]
        },
        {
            "positions": [
                -1.8024462674727597,
                -1.4288286902192422,
                -0.2912512364010516,
                -0.41980700152956074,
                0.46132835994989646,
                2.115913131847451
            ]
        },
        {
            "positions": [
                -1.6976014260934211,
                -1.4507099491171045,
                -0.35558083836015664,
                -0.34733037078894846,
                0.45833464704768295,
                1.994375548150117
            ]
        },
        {
            "positions": [
                -1.592756584714082,
                -1.4725912080149668,
                -0.4199104403192616,
                -0.2748537400483362,
                0.45534093414546944,
                1.8728379644527826
            ]
        },
        {
            "positions": [
                -1.4879117433347433,
                -1.494472466912829,
                -0.4842400422783667,
                -0.2023771093077239,
                0.452347221243256,
                1.7513003807554484
            ]
        },
        {
            "positions": [
                -1.3830669019554045,
                -1.5163537258106914,
                -0.5485696442374718,
                -0.12990047856711162,
                0.4493535083410425,
                1.629762797058114
            ]
        },
        {
            "positions": [
                -1.2782220605760657,
                -1.5382349847085537,
                -0.6128992461965768,
                -0.05742384782649945,
                0.446359795438829,
                1.50822521336078
            ]
        },
        {
            "positions": [
                -1.1733772191967269,
                -1.560116243606416,
                -0.6772288481556819,
                0.015052782914112939,
                0.44336608253661547,
                1.3866876296634456
            ]
        },
        {
            "positions": [
                -1.0685323778173879,
                -1.5819975025042785,
                -0.741558450114787,
                0.08752941365472522,
                0.440372369634402,
                1.2651500459661111
            ]
        },
        {
            "positions": [
                -0.9636875364380493,
                -1.6038787614021408,
                -0.8058880520738919,
                0.1600060443953374,
                0.4373786567321885,
                1.143612462268777
            ]
        },
        {
            "positions": [
                -0.8588426950587105,
                -1.625760020300003,
                -0.8702176540329971,
                0.23248267513594978,
                0.434384943829975,
                1.0220748785714429
            ]
        },
        {
            "positions": [
                -0.7539978536793717,
                -1.6476412791978654,
                -0.934547255992102,
                0.30495930587656195,
                0.43139123092776155,
                0.9005372948741086
            ]
        },
        {
            "positions": [
                -0.6491530123000329,
                -1.6695225380957277,
                -0.9988768579512071,
                0.37743593661717434,
                0.42839751802554804,
                0.7789997111767741
            ]
        },
        {
            "positions": [
                -0.5443081709206938,
                -1.69140379699359,
                -1.0632064599103122,
                0.44991256735778673,
                0.42540380512333453,
                0.6574621274794401
            ]
        },
        {
            "positions": [
                -0.43946332954135503,
                -1.7132850558914523,
                -1.1275360618694172,
                0.5223891980983989,
                0.422410092221121,
                0.5359245437821056
            ]
        },
        {
            "positions": [
                -0.33461848816201645,
                -1.7351663147893146,
                -1.1918656638285223,
                0.5948658288390111,
                0.4194163793189075,
                0.4143869600847716
            ]
        },
        {
            "positions": [
                -0.22977364678267742,
                -1.757047573687177,
                -1.2561952657876274,
                0.6673424595796235,
                0.41642266641669407,
                0.29284937638743713
            ]
        },
        {
            "positions": [
                -0.1249288054033384,
                -1.7789288325850392,
                -1.3205248677467325,
                0.7398190903202359,
                0.41342895351448056,
                0.17131179269010266
            ]
        },
        {
            "positions": [
                -0.020083964023999812,
                -1.8008100914829015,
                -1.3848544697058374,
                0.8122957210608478,
                0.4104352406122671,
                0.049774208992769076
            ]
        },
        {
            "positions": [
                0.08476087735533877,
                -1.8226913503807638,
                -1.4491840716649425,
                0.8847723518014602,
                0.4074415277100536,
                -0.0717633747045654
            ]
        },
        {
            "positions": [
                0.1896057187346778,
                -1.844572609278626,
                -1.5135136736240475,
                0.9572489825420726,
                0.4044478148078401,
                -0.19330095840189987
            ]
        },
        {
            "positions": [
                0.2944505601140168,
                -1.8664538681764886,
                -1.5778432755831526,
                1.029725613282685,
                0.4014541019056266,
                -0.31483854209923434
            ]
        },
        {
            "positions": [
                0.39929540149335585,
                -1.888335127074351,
                -1.642172877542258,
                1.1022022440232973,
                0.3984603890034131,
                -0.4363761257965688
            ]
        },
        {
            "positions": [
                0.504140242872694,
                -1.910216385972213,
                -1.7065024795013626,
                1.1746788747639094,
                0.3954666761011996,
                -0.5579137094939024
            ]
        },
        {
            "positions": [
                0.608985084252033,
                -1.9320976448700755,
                -1.7708320814604677,
                1.2471555055045216,
                0.3924729631989861,
                -0.6794512931912369
            ]
        },
        {
            "positions": [
                0.713829925631372,
                -1.9539789037679378,
                -1.835161683419573,
                1.3196321362451342,
                0.3894792502967726,
                -0.8009888768885713
            ]
        },
        {
            "positions": [
                0.8186747670107106,
                -1.9758601626658001,
                -1.899491285378678,
                1.3921087669857464,
                0.38648553739455915,
                -0.9225264605859054
            ]
        },
        {
            "positions": [
                0.9235196083900497,
                -1.9977414215636626,
                -1.9638208873377831,
                1.4645853977263585,
                0.38349182449234565,
                -1.0440640442832398
            ]
        },
        {
            "positions": [
                1.0283644497693882,
                -2.0196226804615245,
                -2.0281504892968876,
                1.5370620284669707,
                0.38049811159013214,
                -1.1656016279805739
            ]
        },
        {
            "positions": [
                1.1332092911487273,
                -2.0415039393593872,
                -2.092480091255993,
                1.6095386592075829,
                0.37750439868791863,
                -1.287139211677908
            ]
        },
        {
            "positions": [
                1.2380541325280658,
                -2.0633851982572495,
                -2.1568096932150977,
                1.6820152899481955,
                0.3745106857857052,
                -1.4086767953752428
            ]
        },
        {
            "positions": [
                1.3428989739074049,
                -2.085266457155112,
                -2.2211392951742033,
                1.7544919206888077,
                0.37151697288349167,
                -1.5302143790725768
            ]
        },
        {
            "positions": [
                1.447743815286744,
                -2.107147716052974,
                -2.285468897133308,
                1.8269685514294203,
                0.36852325998127816,
                -1.6517519627699109
            ]
        },
        {
            "positions": [
                1.552588656666082,
                -2.1290289749508364,
                -2.3497984990924135,
                1.899445182170032,
                0.3655295470790647,
                -1.773289546467245
            ]
        },
        {
            "positions": [
                1.6574334980454215,
                -2.1509102338486987,
                -2.414128101051518,
                1.9719218129106446,
                0.3625358341768512,
                -1.8948271301645798
            ]
        },
        {
            "positions": [
                1.7622783394247605,
                -2.172791492746561,
                -2.4784577030106236,
                2.044398443651257,
                0.3595421212746377,
                -2.016364713861914
            ]
        },
        {
            "positions": [
                1.6720767737646485,
                -2.1520225722600013,
                -2.4720198666706765,
                1.8451209455833129,
                0.33684714684532474,
                -2.0673000130696706
            ]
        },
        {
            "positions": [
                1.5818752081045364,
                -2.1312536517734415,
                -2.46558203033073,
                1.645843447515369,
                0.3141521724160118,
                -2.118235312277427
            ]
        },
        {
            "positions": [
                1.4916736424444244,
                -2.1104847312868817,
                -2.4591441939907828,
                1.4465659494474252,
                0.29145719798669883,
                -2.1691706114851836
            ]
        },
        {
            "positions": [
                1.4014720767843123,
                -2.089715810800322,
                -2.4527063576508357,
                1.247288451379481,
                0.2687622235573859,
                -2.2201059106929404
            ]
        },
        {
            "positions": [
                1.3112705111242002,
                -2.068946890313762,
                -2.446268521310889,
                1.0480109533115374,
                0.24606724912807293,
                -2.2710412099006967
            ]
        },
        {
            "positions": [
                1.2210689454640882,
                -2.0481779698272025,
                -2.439830684970942,
                0.8487334552435934,
                0.22337227469875998,
                -2.3219765091084534
            ]
        },
        {
            "positions": [
                1.1308673798039763,
                -2.0274090493406427,
                -2.433392848630995,
                0.6494559571756495,
                0.20067730026944702,
                -2.37291180831621
            ]
        },
        {
            "positions": [
                1.0406658141438643,
                -2.006640128854083,
                -2.426955012291048,
                0.4501784591077056,
                0.17798232584013407,
                -2.4238471075239665
            ]
        },
        {
            "positions": [
                0.9504642484837522,
                -1.9858712083675232,
                -2.420517175951101,
                0.25090096103976167,
                0.15528735141082112,
                -2.4747824067317232
            ]
        },
        {
            "positions": [
                0.8602626828236402,
                -1.9651022878809634,
                -2.414079339611154,
                0.051623462971817746,
                0.13259237698150816,
                -2.5257177059394795
            ]
        },
        {
            "positions": [
                0.7700611171635281,
                -1.9443333673944037,
                -2.4076415032712073,
                -0.14765403509612618,
                0.10989740255219516,
                -2.5766530051472367
            ]
        },
        {
            "positions": [
                0.679859551503416,
                -1.923564446907844,
                -2.40120366693126,
                -0.3469315331640699,
                0.08720242812288226,
                -2.627588304354993
            ]
        },
        {
            "positions": [
                0.589657985843304,
                -1.9027955264212841,
                -2.394765830591313,
                -0.546209031232014,
                0.06450745369356925,
                -2.6785236035627498
            ]
        },
        {
            "positions": [
                0.49945642018319214,
                -1.8820266059347244,
                -2.3883279942513664,
                -0.7454865292999577,
                0.04181247926425635,
                -2.729458902770506
            ]
        },
        {
            "positions": [
                0.40925485452307986,
                -1.8612576854481646,
                -2.3818901579114193,
                -0.9447640273679019,
                0.019117504834943344,
                -2.780394201978263
            ]
        },
        {
            "positions": [
                0.319053288862968,
                -1.8404887649616049,
                -2.3754523215714722,
                -1.1440415254358456,
                -0.0035774695943695534,
                -2.831329501186019
            ]
        },
        {
            "positions": [
                0.22885172320285596,
                -1.819719844475045,
                -2.3690144852315256,
                -1.3433190235037897,
                -0.026272444023682562,
                -2.882264800393776
            ]
        },
        {
            "positions": [
                0.1386501575427439,
                -1.7989509239884853,
                -2.3625766488915785,
                -1.5425965215717334,
                -0.04896741845299546,
                -2.9332000996015326
            ]
        },
        {
            "positions": [
                0.04844859188263184,
                -1.7781820035019256,
                -2.3561388125516314,
                -1.7418740196396776,
                -0.07166239288230847,
                -2.9841353988092894
            ]
        },
        {
            "positions": [
                -0.04175297377748022,
                -1.7574130830153658,
                -2.3497009762116847,
                -1.9411515177076213,
                -0.09435736731162137,
                -3.0350706980170457
            ]
        },
        {
            "positions": [
                -0.13195453943759217,
                -1.736644162528806,
                -2.3432631398717376,
                -2.140429015775565,
                -0.11705234174093437,
                -3.0860059972248024
            ]
        },
        {
            "positions": [
                -0.18348850166244157,
                -1.7441998523738949,
                -2.362467701527478,
                -2.1758905644513424,
                -0.17076938793142757,
                -3.1390306271013553
            ]
        }
    ]
}