{
    "goal": {
        "global_pose": {
            "orientation": {
                "w": 0.5084816262002911,
                "x": -0.4908360881923452,
                "y": 0.5182115481033761,
                "z": -0.48164630358495003
            },
            "position": {
                "x": 0.5540239810943604,
                "y": -0.46912469901144505,
                "z": 0.16403168439865112
            }
        },
        "name": "move_to_storage_B"
    },
    "id": "ProjEST_move_to_storage_B_95",
    "joint_names": [
        "shoulder_pan_joint",
        "shoulder_lift_joint",
        "elbow_joint",
        "wrist_1_joint",
        "wrist_2_joint",
        "wrist_3_joint"
    ],
    "metrics": {
        "cart_traj_len": 3.100236875108527,
        "distance_elbow_joint": 0.8700422774603427,
        "distance_shoulder_lift_joint": 1.8367177987194592,
        "distance_shoulder_pan_joint": 3.0429870716398657,
        "distance_wrist_1_joint": 2.980351141789167,
        "distance_wrist_2_joint": 2.7068237282804812,
        "distance_wrist_3_joint": 3.142379181506549,
        "smoothness": 0.278033927729477,
        "time": 0.070522966,
        "traj_len": 3.81828511237648,
        "weighted_distance": 5.152788995532284
    },
    "planner": "ProjEST",
    "start": {
        "state": {
            "elbow_joint": 1.6649325706314817,
            "shoulder_lift_joint": -0.6616388048112454,
            "shoulder_pan_joint": -0.9139837860083814,
            "wrist_1_joint": 2.146757197745094,
            "wrist_2_joint": -2.234196043158733,
            "wrist_3_joint": 0.005471033829999897
        }
    },
    "waypoints": [
        {
            "positions": [
                -0.9139837860083814,
                -0.6616388048112454,
                1.6649325706314817,
                2.146757197745094,
                -2.234196043158733,
                0.005471033829999897
            ]
        },
        {
            "positions": [
                -0.8424440616988212,
                -0.7190046542709636,
                1.651901996199942,
                2.086998924144168,
                -2.108392329039649,
                0.058728048646644576
            ]
        },
        {
            "positions": [
                -0.7709043373892612,
                -0.7763705037306818,
                1.6388714217684024,
                2.0272406505432423,
                -1.982588614920565,
                0.11198506346328926
            ]
        },
        {
            "positions": [
                -0.6993646130797011,
                -0.8337363531904,
                1.6258408473368626,
                1.9674823769423166,
                -1.856784900801481,
                0.16524207827993392
            ]
        },
        {
            "positions": [
                -0.627824888770141,
                -0.8911022026501182,
                1.6128102729053229,
                1.9077241033413908,
                -1.730981186682397,
                0.2184990930965786
            ]
        },
        {
            "positions": [
                -0.5562851644605808,
                -0.9484680521098364,
                1.599779698473783,
                1.847965829740465,
                -1.605177472563313,
                0.2717561079132233
            ]
        },
        {
            "positions": [
                -0.48474544015102083,
                -1.0058339015695545,
                1.5867491240422436,
                1.7882075561395392,
                -1.479373758444229,
                0.325013122729868
            ]
        },
        {
            "positions": [
                -0.4132057158414607,
                -1.0631997510292728,
                1.5737185496107038,
                1.7284492825386133,
                -1.3535700443251453,
                0.3782701375465126
            ]
        },
        {
            "positions": [
                -0.3416659915319006,
                -1.120565600488991,
                1.560687975179164,
                1.6686910089376876,
                -1.227766330206061,
                0.43152715236315736
            ]
        },
        {
            "positions": [
                -0.27012626722234057,
                -1.1779314499487092,
                1.5476574007476245,
                1.6089327353367617,
                -1.101962616086977,
                0.484784167179802
            ]
        },
        {
            "positions": [
                -0.19858654291278044,
                -1.2352972994084275,
                1.5346268263160847,
                1.549174461735836,
                -0.9761589019678931,
                0.5380411819964467
            ]
        },
        {
            "positions": [
                -0.1270468186032203,
                -1.2926631488681457,
                1.521596251884545,
                1.4894161881349102,
                -0.8503551878488089,
                0.5912981968130914
            ]
        },
        {
            "positions": [
                -0.0555070942936603,
                -1.350028998327864,
                1.5085656774530054,
                1.4296579145339843,
                -0.7245514737297252,
                0.6445552116297361
            ]
        },
        {
            "positions": [
                0.01603263001589983,
                -1.4073948477875822,
                1.4955351030214656,
                1.3698996409330584,
                -0.5987477596106412,
                0.6978122264463807
            ]
        },
        {
            "positions": [
                0.08757235432545996,
                -1.4647606972473004,
                1.4825045285899259,
                1.3101413673321327,
                -0.47294404549155744,
                0.7510692412630253
            ]
        },
        {
            "positions": [
                0.15911207863502008,
                -1.5221265467070184,
                1.4694739541583863,
                1.2503830937312068,
                -0.34714033137247324,
                0.80432625607967
            ]
        },
        {
            "positions": [
                0.2306518029445802,
                -1.5794923961667369,
                1.4564433797268466,
                1.1906248201302811,
                -0.22133661725338927,
                0.8575832708963148
            ]
        },
        {
            "positions": [
                0.3021915272541401,
                -1.6368582456264549,
                1.4434128052953068,
                1.1308665465293553,
                -0.09553290313430551,
                0.9108402857129594
            ]
        },
        {
            "positions": [
                0.37373125156370024,
                -1.694224095086173,
                1.430382230863767,
                1.0711082729284294,
                0.030270810984778684,
                0.9640973005296041
            ]
        },
        {
            "positions": [
                0.44527097587326037,
                -1.7515899445458913,
                1.4173516564322275,
                1.0113499993275037,
                0.15607452510386244,
                1.0173543153462488
            ]
        },
        {
            "positions": [
                0.5168107001828205,
                -1.8089557940056096,
                1.4043210820006877,
                0.9515917257265778,
                0.2818782392229466,
                1.0706113301628934
            ]
        },
        {
            "positions": [
                0.4272444454356725,
                -1.7706557490319932,
                1.4381783480467738,
                0.8524147440726528,
                0.29247543066176906,
                1.1860134904503188
            ]
        },
        {
            "positions": [
                0.3376781906885245,
                -1.7323557040583768,
                1.4720356140928599,
                0.7532377624187279,
                0.30307262210059155,
                1.3014156507377441
            ]
        },
        {
            "positions": [
                0.24811193594137648,
                -1.6940556590847604,
                1.505892880138946,
                0.6540607807648029,
                0.31366981353941403,
                1.4168178110251692
            ]
        },
        {
            "positions": [
                0.15854568119422852,
                -1.655755614111144,
                1.5397501461850318,
                0.5548837991108779,
                0.3242670049782365,
                1.5322199713125946
            ]
        },
        {
            "positions": [
                0.06897942644708044,
                -1.6174555691375276,
                1.5736074122311179,
                0.4557068174569528,
                0.334864196417059,
                1.64762213160002
            ]
        },
        {
            "positions": [
                -0.020586828300067528,
                -1.5791555241639113,
                1.607464678277204,
                0.3565298358030279,
                0.3454613878558815,
                1.763024291887445
            ]
        },
        {
            "positions": [
                -0.1101530830472155,
                -1.5408554791902949,
                1.64132194432329,
                0.2573528541491028,
                0.35605857929470397,
                1.8784264521748706
            ]
        },
        {
            "positions": [
                -0.19971933779436346,
                -1.5025554342166785,
                1.6751792103693761,
                0.15817587249517795,
                0.36665577073352645,
                1.9938286124622957
            ]
        },
        {
            "positions": [
                -0.28928559254151154,
                -1.464255389243062,
                1.709036476415462,
                0.05899889084125287,
                0.37725296217234894,
                2.1092307727497213
            ]
        },
        {
            "positions": [
                -0.3788518472886596,
                -1.4259553442694457,
                1.7428937424615483,
                -0.04017809081267221,
                0.3878501536111715,
                2.2246329330371464
            ]
        },
        {
            "positions": [
                -0.4684181020358076,
                -1.3876552992958293,
                1.7767510085076341,
                -0.13935507246659729,
                0.39844734504999396,
                2.3400350933245715
            ]
        },
        {
            "positions": [
                -0.5579843567829555,
                -1.349355254322213,
                1.8106082745537202,
                -0.23853205412052203,
                0.40904453648881645,
                2.455437253611997
            ]
        },
        {
            "positions": [
                -0.6475506115301036,
                -1.3110552093485965,
                1.8444655405998063,
                -0.337709035774447,
                0.4196417279276389,
                2.570839413899422
            ]
        },
        {
            "positions": [
                -0.7371168662772515,
                -1.2727551643749802,
                1.8783228066458924,
                -0.4368860174283722,
                0.4302389193664614,
                2.6862415741868473
            ]
        },
        {
            "positions": [
                -0.8266831210243996,
                -1.2344551194013638,
                1.9121800726919784,
                -0.5360629990822972,
                0.4408361108052839,
                2.801643734474273
            ]
        },
        {
            "positions": [
                -0.9162493757715474,
                -1.1961550744277474,
                1.9460373387380643,
                -0.6352399807362219,
                0.4514333022441064,
                2.917045894761698
            ]
        },
        {
            "positions": [
                -1.0058156305186956,
                -1.157855029454131,
                1.9798946047841504,
                -0.7344169623901471,
                0.46203049368292887,
                3.032448055049123
            ]
        },
        {
            "positions": [
                -1.0953818852658435,
                -1.1195549844805146,
                2.0137518708302364,
                -0.833593944044072,
                0.47262768512175135,
                3.1478502153365486
            ]
        }
    ]
}