{
    "goal": {
        "global_pose": {
            "orientation": {
                "w": -0.00223480608172531,
                "x": 0.0024358444001904467,
                "y": 0.7094548369677653,
                "z": -0.704743149386269
            },
            "position": {
                "x": -0.37947507619857795,
                "y": -0.6371506643295288,
                "z": 0.19426114857196808
            }
        },
        "name": "move_to_magneteinheit_C"
    },
    "id": "ProjEST_move_to_magneteinheit_C_29",
    "joint_names": [
        "shoulder_pan_joint",
        "shoulder_lift_joint",
        "elbow_joint",
        "wrist_1_joint",
        "wrist_2_joint",
        "wrist_3_joint"
    ],
    "metrics": {
        "cart_traj_len": 1.2079601726254665,
        "distance_elbow_joint": 1.0196439394642591,
        "distance_shoulder_lift_joint": 1.3772253282426237,
        "distance_shoulder_pan_joint": 0.835354215759482,
        "distance_wrist_1_joint": 1.9117209919554843,
        "distance_wrist_2_joint": 1.7479865512389687,
        "distance_wrist_3_joint": 2.6031678873781194,
        "smoothness": 1.0867606080986907,
        "time": 0.747565483,
        "traj_len": 3.0814118377845787,
        "weighted_distance": 4.284990342111593
    },
    "planner": "ProjEST",
    "start": {
        "state": {
            "elbow_joint": 1.9565354006590394,
            "shoulder_lift_joint": -1.4165861576513559,
            "shoulder_pan_joint": -1.6717766223277177,
            "wrist_1_joint": -0.5286633288215096,
            "wrist_2_joint": 1.4727565892594296,
            "wrist_3_joint": 3.1593482883155493
        }
    },
    "waypoints": [
        {
            "positions": [
                -1.6717766223277177,
                -1.4165861576513559,
                1.9565354006590394,
                -0.5286633288215096,
                1.4727565892594296,
                3.1593482883155493
            ]
        },
        {
            "positions": [
                -1.6945303272799934,
                -1.4597544055431557,
                1.9976495973082904,
                -0.4663383263625783,
                1.374645235015001,
                3.057902836018509
            ]
        },
        {
            "positions": [
                -1.7172840322322689,
                -1.5029226534349556,
                2.0387637939575414,
                -0.4040133239036471,
                1.2765338807705724,
                2.9564573837214683
            ]
        },
        {
            "positions": [
                -1.7400377371845446,
                -1.5460909013267554,
                2.0798779906067923,
                -0.34168832144471584,
                1.1784225265261437,
                2.855011931424428
            ]
        },
        {
            "positions": [
                -1.7627914421368203,
                -1.5892591492185553,
                2.1209921872560433,
                -0.27936331898578454,
                1.0803111722817151,
                2.7535664791273873
            ]
        },
        {
            "positions": [
                -1.785545147089096,
                -1.6324273971103551,
                2.1621063839052943,
                -0.2170383165268533,
                0.9821998180372864,
                2.652121026830347
            ]
        },
        {
            "positions": [
                -1.8082988520413714,
                -1.675595645002155,
                2.2032205805545457,
                -0.15471331406792205,
                0.8840884637928578,
                2.5506755745333063
            ]
        },
        {
            "positions": [
                -1.831052556993647,
                -1.7187638928939548,
                2.2443347772037967,
                -0.0923883116089908,
                0.7859771095484293,
                2.4492301222362665
            ]
        },
        {
            "positions": [
                -1.8538062619459228,
                -1.7619321407857547,
                2.2854489738530477,
                -0.030063309150059503,
                0.6878657553040005,
                2.3477846699392257
            ]
        },
        {
            "positions": [
                -1.8765599668981983,
                -1.8051003886775545,
                2.3265631705022987,
                0.03226169330887174,
                0.589754401059572,
                2.246339217642185
            ]
        },
        {
            "positions": [
                -1.899313671850474,
                -1.8482686365693544,
                2.3676773671515496,
                0.09458669576780299,
                0.49164304681514326,
                2.1448937653451448
            ]
        },
        {
            "positions": [
                -1.9220673768027496,
                -1.8914368844611542,
                2.4087915638008006,
                0.15691169822673423,
                0.39353169257071463,
                2.0434483130481045
            ]
        },
        {
            "positions": [
                -1.944821081755025,
                -1.934605132352954,
                2.4499057604500516,
                0.21923670068566548,
                0.2954203383262859,
                1.9420028607510638
            ]
        },
        {
            "positions": [
                -1.9675747867073008,
                -1.977773380244754,
                2.4910199570993026,
                0.2815617031445967,
                0.19730898408185732,
                1.8405574084540235
            ]
        },
        {
            "positions": [
                -2.01986726313278,
                -1.9213944976461732,
                2.4470950422598543,
                0.2027999570991486,
                0.24429455950189394,
                1.9320402676309767
            ]
        },
        {
            "positions": [
                -2.0721597395582596,
                -1.8650156150475927,
                2.4031701274204056,
                0.1240382110537005,
                0.29128013492193056,
                2.02352312680793
            ]
        },
        {
            "positions": [
                -2.124452215983739,
                -1.808636732449012,
                2.359245212580957,
                0.04527646500825239,
                0.3382657103419672,
                2.115005985984883
            ]
        },
        {
            "positions": [
                -2.1767446924092186,
                -1.7522578498504313,
                2.3153202977415086,
                -0.033485281037195724,
                0.3852512857620038,
                2.2064888451618363
            ]
        },
        {
            "positions": [
                -2.229037168834698,
                -1.6958789672518506,
                2.2713953829020603,
                -0.11224702708264384,
                0.4322368611820404,
                2.2979717043387895
            ]
        },
        {
            "positions": [
                -2.2813296452601777,
                -1.6395000846532701,
                2.2274704680626116,
                -0.19100877312809195,
                0.479222436602077,
                2.3894545635157427
            ]
        },
        {
            "positions": [
                -2.3336221216856567,
                -1.5831212020546894,
                2.183545553223163,
                -0.26977051917354,
                0.5262080120221135,
                2.480937422692696
            ]
        },
        {
            "positions": [
                -2.3859145981111363,
                -1.5267423194561087,
                2.1396206383837146,
                -0.34853226521898817,
                0.5731935874421503,
                2.572420281869649
            ]
        },
        {
            "positions": [
                -2.438207074536616,
                -1.4703634368575282,
                2.0956957235442664,
                -0.42729401126443634,
                0.6201791628621869,
                2.6639031410466023
            ]
        },
        {
            "positions": [
                -2.4904995509620953,
                -1.4139845542589475,
                2.0517708087048177,
                -0.5060557573098844,
                0.6671647382822234,
                2.7553860002235555
            ]
        },
        {
            "positions": [
                -2.4849557885870603,
                -1.3299014610378077,
                2.036467397161647,
                -0.6106819238215164,
                0.6662703409952132,
                2.878568805472576
            ]
        },
        {
            "positions": [
                -2.479412026212026,
                -1.245818367816668,
                2.021163985618477,
                -0.7153080903331486,
                0.6653759437082031,
                3.0017516107215965
            ]
        },
        {
            "positions": [
                -2.473868263836991,
                -1.1617352745955283,
                2.0058605740753066,
                -0.8199342568447806,
                0.6644815464211928,
                3.124934415970617
            ]
        }
    ]
}