{
    "goal": {
        "global_pose": {
            "orientation": {
                "w": -0.4816463035849501,
                "x": 0.5182115481033762,
                "y": 0.4908360881923453,
                "z": -0.5084816262002911
            },
            "position": {
                "x": -0.8240239810943604,
                "y": -0.300875300988555,
                "z": 0.16403168439865112
            }
        },
        "name": "move_to_storage_C"
    },
    "id": "ProjEST_move_to_storage_C_133",
    "joint_names": [
        "shoulder_pan_joint",
        "shoulder_lift_joint",
        "elbow_joint",
        "wrist_1_joint",
        "wrist_2_joint",
        "wrist_3_joint"
    ],
    "metrics": {
        "cart_traj_len": 0.576632921074175,
        "distance_elbow_joint": 0.25539274576203663,
        "distance_shoulder_lift_joint": 0.18985016468417915,
        "distance_shoulder_pan_joint": 0.4945292491689366,
        "distance_wrist_1_joint": 0.06588948255210558,
        "distance_wrist_2_joint": 1.068110633765571,
        "distance_wrist_3_joint": 0.05902565393437964,
        "smoothness": 7.612957943425664e-16,
        "time": 0.0142868,
        "traj_len": 1.4604101923320065,
        "weighted_distance": 1.8397960088155547
    },
    "planner": "ProjEST",
    "start": {
        "state": {
            "elbow_joint": 2.010868315001653,
            "shoulder_lift_joint": -1.1634956873357014,
            "shoulder_pan_joint": -2.4736205022346103,
            "wrist_1_joint": -0.8367026794713948,
            "wrist_2_joint": 0.6746043897044093,
            "wrist_3_joint": 3.1335220948105738
        }
    },
    "waypoints": [
        {
            "positions": [
                -2.4736205022346103,
                -1.1634956873357014,
                2.010868315001653,
                -0.8367026794713948,
                0.6746043897044093,
                3.1335220948105738
            ]
        },
        {
            "positions": [
                -2.5560420437627664,
                -1.1318539932216716,
                1.968302857374647,
                -0.8257210990460438,
                0.8526228286653378,
                3.143359703799637
            ]
        },
        {
            "positions": [
                -2.6384635852909226,
                -1.1002122991076417,
                1.9257373997476408,
                -0.8147395186206929,
                1.0306412676262662,
                3.1531973127887003
            ]
        },
        {
            "positions": [
                -2.720885126819079,
                -1.068570604993612,
                1.8831719421206348,
                -0.8037579381953419,
                1.208659706587195,
                3.1630349217777636
            ]
        },
        {
            "positions": [
                -2.8033066683472345,
                -1.036928910879582,
                1.8406064844936287,
                -0.792776357769991,
                1.3866781455481232,
                3.172872530766827
            ]
        },
        {
            "positions": [
                -2.8857282098753907,
                -1.0052872167655522,
                1.7980410268666225,
                -0.7817947773446401,
                1.564696584509052,
                3.18271013975589
            ]
        },
        {
            "positions": [
                -2.968149751403547,
                -0.9736455226515223,
                1.7554755692396165,
                -0.7708131969192892,
                1.7427150234699802,
                3.1925477487449534
            ]
        }
    ]
}