{
    "goal": {
        "global_pose": {
            "orientation": {
                "w": 0.7047431468963623,
                "x": -0.7094548344612122,
                "y": 0.0024358443915843964,
                "z": -0.0022348060738295317
            },
            "position": {
                "x": 0.6094750761985779,
                "y": 0.3671506643295288,
                "z": 0.19426114857196808
            }
        },
        "name": "move_to_magneteinheit_A"
    },
    "id": "ProjEST_move_to_magneteinheit_A_97",
    "joint_names": [
        "shoulder_pan_joint",
        "shoulder_lift_joint",
        "elbow_joint",
        "wrist_1_joint",
        "wrist_2_joint",
        "wrist_3_joint"
    ],
    "metrics": {
        "cart_traj_len": 1.0536834928612606,
        "distance_elbow_joint": 0.3865049557464597,
        "distance_shoulder_lift_joint": 0.3650288343556094,
        "distance_shoulder_pan_joint": 1.2412558082439846,
        "distance_wrist_1_joint": 2.2295447769145307,
        "distance_wrist_2_joint": 1.6983231780159063,
        "distance_wrist_3_joint": 1.207497718448543,
        "smoothness": 5.609547958313646e-16,
        "time": 0.05864968599999999,
        "traj_len": 2.669860534133765,
        "weighted_distance": 3.6702886349104147
    },
    "planner": "ProjEST",
    "start": {
        "state": {
            "elbow_joint": 1.5739458966750683,
            "shoulder_lift_joint": -1.4977259741207325,
            "shoulder_pan_joint": -1.1188672016454206,
            "wrist_1_joint": 1.494575848278785,
            "wrist_2_joint": -1.5706037134824402,
            "wrist_3_joint": -2.0226957942261072
        }
    },
    "waypoints": [
        {
            "positions": [
                -1.1188672016454206,
                -1.4977259741207325,
                1.5739458966750683,
                1.494575848278785,
                -1.5706037134824402,
                -2.0226957942261072
            ]
        },
        {
            "positions": [
                -1.049908545631866,
                -1.4774465944343098,
                1.5954183942165383,
                1.370712249561311,
                -1.47625242581489,
                -2.089779000806582
            ]
        },
        {
            "positions": [
                -0.9809498896183113,
                -1.457167214747887,
                1.6168908917580083,
                1.2468486508438372,
                -1.3819011381473396,
                -2.1568622073870563
            ]
        },
        {
            "positions": [
                -0.9119912336047565,
                -1.4368878350614642,
                1.6383633892994782,
                1.1229850521263631,
                -1.287549850479789,
                -2.223945413967531
            ]
        },
        {
            "positions": [
                -0.8430325775912019,
                -1.4166084553750415,
                1.6598358868409482,
                0.9991214534088892,
                -1.1931985628122388,
                -2.2910286205480057
            ]
        },
        {
            "positions": [
                -0.7740739215776471,
                -1.3963290756886189,
                1.6813083843824184,
                0.8752578546914154,
                -1.0988472751446885,
                -2.3581118271284804
            ]
        },
        {
            "positions": [
                -0.7051152655640924,
                -1.376049696002196,
                1.7027808819238883,
                0.7513942559739415,
                -1.0044959874771382,
                -2.4251950337089547
            ]
        },
        {
            "positions": [
                -0.6361566095505378,
                -1.3557703163157733,
                1.7242533794653583,
                0.6275306572564675,
                -0.9101446998095878,
                -2.4922782402894295
            ]
        },
        {
            "positions": [
                -0.5671979535369831,
                -1.3354909366293506,
                1.7457258770068282,
                0.5036670585389936,
                -0.8157934121420375,
                -2.559361446869904
            ]
        },
        {
            "positions": [
                -0.4982392975234283,
                -1.315211556942928,
                1.7671983745482982,
                0.37980345982151964,
                -0.7214421244744871,
                -2.6264446534503785
            ]
        },
        {
            "positions": [
                -0.42928064150987355,
                -1.294932177256505,
                1.7886708720897682,
                0.25593986110404576,
                -0.6270908368069367,
                -2.693527860030853
            ]
        },
        {
            "positions": [
                -0.3603219854963189,
                -1.2746527975700823,
                1.8101433696312381,
                0.13207626238657166,
                -0.5327395491393863,
                -2.760611066611328
            ]
        },
        {
            "positions": [
                -0.2913633294827642,
                -1.2543734178836596,
                1.831615867172708,
                0.008212663669098008,
                -0.4383882614718362,
                -2.8276942731918027
            ]
        },
        {
            "positions": [
                -0.22240467346920956,
                -1.2340940381972367,
                1.853088364714178,
                -0.11565093504837609,
                -0.34403697380428566,
                -2.894777479772277
            ]
        },
        {
            "positions": [
                -0.15344601745565478,
                -1.213814658510814,
                1.874560862255648,
                -0.23951453376584997,
                -0.24968568613673536,
                -2.9618606863527517
            ]
        },
        {
            "positions": [
                -0.0844873614421,
                -1.1935352788243914,
                1.8960333597971182,
                -0.36337813248332407,
                -0.15533439846918484,
                -3.0289438929332264
            ]
        },
        {
            "positions": [
                -0.015528705428545564,
                -1.1732558991379687,
                1.9175058573385881,
                -0.4872417312007977,
                -0.060983110801634766,
                -3.0960270995137007
            ]
        },
        {
            "positions": [
                0.05342995058500932,
                -1.1529765194515458,
                1.938978354880058,
                -0.6111053299182718,
                0.033368176865915755,
                -3.1631103060941754
            ]
        },
        {
            "positions": [
                0.1223886065985639,
                -1.132697139765123,
                1.960450852421528,
                -0.7349689286357456,
                0.12771946453346614,
                -3.23019351267465
            ]
        }
    ]
}