{
    "goal": {
        "global_pose": {
            "orientation": {
                "w": 0.7031023502349854,
                "x": -0.7110244035720825,
                "y": 0.007748599164187908,
                "z": 0.005598929710686207
            },
            "position": {
                "x": 0.11585023208521307,
                "y": 0.44412534475326537,
                "z": 0.3711530566215515
            }
        },
        "name": "move_to_auspresseinheit_A"
    },
    "id": "ProjEST_move_to_auspresseinheit_A_59",
    "joint_names": [
        "shoulder_pan_joint",
        "shoulder_lift_joint",
        "elbow_joint",
        "wrist_1_joint",
        "wrist_2_joint",
        "wrist_3_joint"
    ],
    "metrics": {
        "cart_traj_len": 0.843230450945014,
        "distance_elbow_joint": 0.15963580383547882,
        "distance_shoulder_lift_joint": 1.0381187560255034,
        "distance_shoulder_pan_joint": 1.1541668696175662,
        "distance_wrist_1_joint": 2.860822424401489,
        "distance_wrist_2_joint": 2.279257583330171,
        "distance_wrist_3_joint": 2.0869241114185852,
        "smoothness": 1.0263612962797661,
        "time": 0.763424843,
        "traj_len": 3.094983933500915,
        "weighted_distance": 4.346591052675374
    },
    "planner": "ProjEST",
    "start": {
        "state": {
            "elbow_joint": 2.4225747245308327,
            "shoulder_lift_joint": -1.373653427065438,
            "shoulder_pan_joint": -0.33786330853087027,
            "wrist_1_joint": -1.0288602302712604,
            "wrist_2_joint": 1.23302299562683,
            "wrist_3_joint": -3.094021725338297
        }
    },
    "waypoints": [
        {
            "positions": [
                -0.33786330853087027,
                -1.373653427065438,
                2.4225747245308327,
                -1.0288602302712604,
                1.23302299562683,
                -3.094021725338297
            ]
        },
        {
            "positions": [
                -0.3421484123698198,
                -1.4340898934169946,
                2.4152052336710383,
                -0.8966273875024485,
                1.1248914229015745,
                -3.0156134369814613
            ]
        },
        {
            "positions": [
                -0.34643351620876933,
                -1.4945263597685512,
                2.4078357428112436,
                -0.7643945447336367,
                1.016759850176319,
                -2.9372051486246256
            ]
        },
        {
            "positions": [
                -0.35071862004771887,
                -1.5549628261201078,
                2.4004662519514492,
                -0.6321617019648248,
                0.9086282774510636,
                -2.8587968602677902
            ]
        },
        {
            "positions": [
                -0.3550037238866684,
                -1.6153992924716645,
                2.393096761091655,
                -0.49992885919601293,
                0.800496704725808,
                -2.7803885719109545
            ]
        },
        {
            "positions": [
                -0.35928882772561793,
                -1.6758357588232213,
                2.38572727023186,
                -0.36769601642720107,
                0.6923651320005526,
                -2.7019802835541187
            ]
        },
        {
            "positions": [
                -0.36357393156456747,
                -1.736272225174778,
                2.378357779372066,
                -0.2354631736583892,
                0.5842335592752972,
                -2.623571995197283
            ]
        },
        {
            "positions": [
                -0.36785903540351694,
                -1.7967086915263346,
                2.3709882885122715,
                -0.10323033088957745,
                0.47610198655004177,
                -2.5451637068404476
            ]
        },
        {
            "positions": [
                -0.3721441392424665,
                -1.8571451578778913,
                2.363618797652477,
                0.029002511879234527,
                0.36797041382478624,
                -2.466755418483612
            ]
        },
        {
            "positions": [
                -0.376429243081416,
                -1.917581624229448,
                2.3562493067926824,
                0.16123535464804628,
                0.2598388410995308,
                -2.388347130126776
            ]
        },
        {
            "positions": [
                -0.38071434692036554,
                -1.9780180905810045,
                2.348879815932888,
                0.29346819741685826,
                0.15170726837427528,
                -2.3099388417699402
            ]
        },
        {
            "positions": [
                -0.3849994507593151,
                -2.038454556932561,
                2.3415103250730938,
                0.42570104018567,
                0.04357569564901986,
                -2.231530553413105
            ]
        },
        {
            "positions": [
                -0.3892845545982646,
                -2.098891023284118,
                2.334140834213299,
                0.557933882954482,
                -0.06455587707623556,
                -2.153122265056269
            ]
        },
        {
            "positions": [
                -0.39356965843721414,
                -2.1593274896356744,
                2.3267713433535047,
                0.6901667257232937,
                -0.172687449801491,
                -2.0747139766994334
            ]
        },
        {
            "positions": [
                -0.3020312817946123,
                -2.1382904318477354,
                2.3320907119083505,
                0.5950171033560492,
                -0.0998918549763368,
                -2.1636820069310767
            ]
        },
        {
            "positions": [
                -0.21049290515201044,
                -2.1172533740597967,
                2.3374100804631963,
                0.49986748098880474,
                -0.027096260151182605,
                -2.25265003716272
            ]
        },
        {
            "positions": [
                -0.11895452850940857,
                -2.0962163162718577,
                2.3427294490180426,
                0.40471785862156023,
                0.04569933467397161,
                -2.341618067394364
            ]
        },
        {
            "positions": [
                -0.027416151866806737,
                -2.075179258483919,
                2.3480488175728884,
                0.30956823625431573,
                0.1184949294991258,
                -2.430586097626007
            ]
        },
        {
            "positions": [
                0.06412222477579516,
                -2.05414220069598,
                2.3533681861277342,
                0.21441861388707123,
                0.19129052432428004,
                -2.5195541278576505
            ]
        },
        {
            "positions": [
                0.155660601418397,
                -2.033105142908041,
                2.35868755468258,
                0.11926899151982673,
                0.26408611914943425,
                -2.6085221580892943
            ]
        },
        {
            "positions": [
                0.2471989780609989,
                -2.0120680851201023,
                2.364006923237426,
                0.02411936915258217,
                0.33688171397458844,
                -2.6974901883209377
            ]
        },
        {
            "positions": [
                0.33873735470360067,
                -1.9910310273321632,
                2.3693262917922717,
                -0.07103025321466228,
                0.4096773087997426,
                -2.786458218552581
            ]
        },
        {
            "positions": [
                0.43027573134620256,
                -1.9699939695442243,
                2.3746456603471175,
                -0.16617987558190683,
                0.4824729036248969,
                -2.8754262487842244
            ]
        },
        {
            "positions": [
                0.5218141079888045,
                -1.9489569117562855,
                2.379965028901964,
                -0.2613294979491513,
                0.5552684984500511,
                -2.9643942790158677
            ]
        },
        {
            "positions": [
                0.6133524846314062,
                -1.9279198539683464,
                2.3852843974568096,
                -0.3564791203163957,
                0.6280640932752053,
                -3.0533623092475115
            ]
        },
        {
            "positions": [
                0.7048908612740081,
                -1.9068827961804076,
                2.3906037660116555,
                -0.4516287426836403,
                0.7008596881003595,
                -3.142330339479155
            ]
        }
    ]
}