{
    "goal": {
        "global_pose": {
            "orientation": {
                "w": 0.7047431493862688,
                "x": -0.7094548369677653,
                "y": 0.0024358444001904,
                "z": -0.0022348060817251984
            },
            "position": {
                "x": -0.39052492380142206,
                "y": 0.3671506643295288,
                "z": 0.19426114857196808
            }
        },
        "name": "move_to_magneteinheit_D"
    },
    "id": "ProjEST_move_to_magneteinheit_D_19",
    "joint_names": [
        "shoulder_pan_joint",
        "shoulder_lift_joint",
        "elbow_joint",
        "wrist_1_joint",
        "wrist_2_joint",
        "wrist_3_joint"
    ],
    "metrics": {
        "cart_traj_len": 3.9874411388571156,
        "distance_elbow_joint": 4.658621987261638,
        "distance_shoulder_lift_joint": 1.6349717153990149,
        "distance_shoulder_pan_joint": 3.044972370539699,
        "distance_wrist_1_joint": 1.6010872921292905,
        "distance_wrist_2_joint": 1.9251559881478628,
        "distance_wrist_3_joint": 4.481768016288006,
        "smoothness": 0.36178210439198155,
        "time": 0.34351979,
        "traj_len": 4.1649222525475205,
        "weighted_distance": 5.462266625002727
    },
    "planner": "ProjEST",
    "start": {
        "state": {
            "elbow_joint": 0.7495348899011973,
            "shoulder_lift_joint": -0.6476975780737697,
            "shoulder_pan_joint": -2.711696901376276,
            "wrist_1_joint": -0.07506478080974305,
            "wrist_2_joint": 0.4329665971545858,
            "wrist_3_joint": 3.1361499051832524
        }
    },
    "waypoints": [
        {
            "positions": [
                -2.711696901376276,
                -0.6476975780737697,
                0.7495348899011973,
                -0.07506478080974305,
                0.4329665971545858,
                3.1361499051832524
            ]
        },
        {
            "positions": [
                -2.7103846476621203,
                -0.711971499354662,
                0.8453863887697888,
                0.0056715307768876455,
                0.34689424974176053,
                3.0851245537467897
            ]
        },
        {
            "positions": [
                -2.7090723939479644,
                -0.7762454206355542,
                0.9412378876383802,
                0.08640784236351834,
                0.2608219023289353,
                3.034099202310327
            ]
        },
        {
            "positions": [
                -2.7077601402338085,
                -0.8405193419164464,
                1.0370893865069717,
                0.16714415395014903,
                0.17474955491611005,
                2.983073850873865
            ]
        },
        {
            "positions": [
                -2.706447886519652,
                -0.9047932631973387,
                1.1329408853755631,
                0.24788046553677973,
                0.08867720750328484,
                2.932048499437402
            ]
        },
        {
            "positions": [
                -2.7051356328054963,
                -0.9690671844782309,
                1.2287923842441546,
                0.3286167771234104,
                0.0026048600904596264,
                2.8810231480009394
            ]
        },
        {
            "positions": [
                -2.7038233790913404,
                -1.033341105759123,
                1.3246438831127463,
                0.4093530887100411,
                -0.0834674873223657,
                2.829997796564477
            ]
        },
        {
            "positions": [
                -2.7025111253771845,
                -1.0976150270400153,
                1.4204953819813377,
                0.49008940029667186,
                -0.1695398347351909,
                2.7789724451280144
            ]
        },
        {
            "positions": [
                -2.7011988716630286,
                -1.1618889483209076,
                1.5163468808499292,
                0.5708257118833026,
                -0.2556121821480161,
                2.7279470936915517
            ]
        },
        {
            "positions": [
                -2.6018649359913497,
                -1.1850025462360876,
                1.408816032250561,
                0.5705599102404892,
                -0.2724988365943957,
                2.586196794194823
            ]
        },
        {
            "positions": [
                -2.5025310003196712,
                -1.2081161441512673,
                1.3012851836511927,
                0.5702941085976758,
                -0.2893854910407753,
                2.444446494698094
            ]
        },
        {
            "positions": [
                -2.4031970646479923,
                -1.2312297420664473,
                1.1937543350518245,
                0.5700283069548625,
                -0.3062721454871549,
                2.3026961952013654
            ]
        },
        {
            "positions": [
                -2.3038631289763134,
                -1.2543433399816273,
                1.0862234864524563,
                0.5697625053120492,
                -0.32315879993353447,
                2.160945895704637
            ]
        },
        {
            "positions": [
                -2.2045291933046345,
                -1.277456937896807,
                0.978692637853088,
                0.5694967036692358,
                -0.34004545437991407,
                2.0191955962079082
            ]
        },
        {
            "positions": [
                -2.105195257632956,
                -1.300570535811987,
                0.8711617892537198,
                0.5692309020264225,
                -0.35693210882629367,
                1.8774452967111794
            ]
        },
        {
            "positions": [
                -2.005861321961277,
                -1.3236841337271668,
                0.7636309406543516,
                0.5689651003836091,
                -0.37381876327267327,
                1.7356949972144506
            ]
        },
        {
            "positions": [
                -1.9065273862895984,
                -1.3467977316423467,
                0.6561000920549833,
                0.5686992987407957,
                -0.39070541771905287,
                1.593944697717722
            ]
        },
        {
            "positions": [
                -1.8071934506179195,
                -1.3699113295575267,
                0.5485692434556151,
                0.5684334970979824,
                -0.4075920721654325,
                1.4521943982209933
            ]
        },
        {
            "positions": [
                -1.7078595149462408,
                -1.3930249274727065,
                0.44103839485624685,
                0.5681676954551691,
                -0.4244787266118121,
                1.3104440987242645
            ]
        },
        {
            "positions": [
                -1.608525579274562,
                -1.4161385253878864,
                0.3335075462568786,
                0.5679018938123557,
                -0.4413653810581917,
                1.168693799227536
            ]
        },
        {
            "positions": [
                -1.5091916436028832,
                -1.4392521233030662,
                0.22597669765751038,
                0.5676360921695424,
                -0.4582520355045713,
                1.0269434997308071
            ]
        },
        {
            "positions": [
                -1.4098577079312045,
                -1.4623657212182462,
                0.11844584905814215,
                0.567370290526729,
                -0.4751386899509508,
                0.8851932002340785
            ]
        },
        {
            "positions": [
                -1.3105237722595255,
                -1.4854793191334261,
                0.010915000458773916,
                0.5671044888839156,
                -0.4920253443973305,
                0.7434429007373495
            ]
        },
        {
            "positions": [
                -1.2111898365878468,
                -1.508592917048606,
                -0.09661584814059432,
                0.5668386872411023,
                -0.5089119988437101,
                0.6016926012406207
            ]
        },
        {
            "positions": [
                -1.1118559009161681,
                -1.5317065149637858,
                -0.20414669673996255,
                0.566572885598289,
                -0.5257986532900896,
                0.4599423017438924
            ]
        },
        {
            "positions": [
                -1.0125219652444892,
                -1.5548201128789658,
                -0.3116775453393308,
                0.5663070839554756,
                -0.5426853077364693,
                0.3181920022471636
            ]
        },
        {
            "positions": [
                -0.9131880295728103,
                -1.5779337107941456,
                -0.419208393938699,
                0.5660412823126623,
                -0.5595719621828488,
                0.1764417027504348
            ]
        },
        {
            "positions": [
                -0.8138540939011316,
                -1.6010473087093255,
                -0.5267392425380673,
                0.565775480669849,
                -0.5764586166292284,
                0.03469140325370601
            ]
        },
        {
            "positions": [
                -0.7145201582294527,
                -1.6241609066245055,
                -0.6342700911374355,
                0.5655096790270355,
                -0.593345271075608,
                -0.10705889624302278
            ]
        },
        {
            "positions": [
                -0.615186222557774,
                -1.6472745045396853,
                -0.7418009397368037,
                0.5652438773842222,
                -0.6102319255219876,
                -0.24880919573975113
            ]
        },
        {
            "positions": [
                -0.5158522868860955,
                -1.670388102454865,
                -0.849331788336172,
                0.5649780757414089,
                -0.6271185799683672,
                -0.3905594952364799
            ]
        },
        {
            "positions": [
                -0.4165183512144166,
                -1.693501700370045,
                -0.9568626369355402,
                0.5647122740985955,
                -0.6440052344147468,
                -0.5323097947332087
            ]
        },
        {
            "positions": [
                -0.3171844155427378,
                -1.716615298285225,
                -1.0643934855349082,
                0.5644464724557822,
                -0.6608918888611264,
                -0.6740600942299375
            ]
        },
        {
            "positions": [
                -0.2786255824673253,
                -1.7585441046390242,
                -1.168563971702188,
                0.6473570535093041,
                -0.5977941007179286,
                -0.6244991091789277
            ]
        },
        {
            "positions": [
                -0.24006674939191275,
                -1.8004729109928235,
                -1.272734457869468,
                0.7302676345628261,
                -0.5346963125747309,
                -0.574938124127918
            ]
        },
        {
            "positions": [
                -0.20150791631650022,
                -1.8424017173466227,
                -1.3769049440367478,
                0.813178215616348,
                -0.4715985244315332,
                -0.5253771390769082
            ]
        },
        {
            "positions": [
                -0.1629490832410877,
                -1.884330523700422,
                -1.4810754302040277,
                0.8960887966698698,
                -0.4085007362883355,
                -0.4758161540258984
            ]
        },
        {
            "positions": [
                -0.12439025016567518,
                -1.9262593300542212,
                -1.5852459163713077,
                0.9789993777233919,
                -0.3454029481451377,
                -0.42625516897488863
            ]
        },
        {
            "positions": [
                -0.08583141709026265,
                -1.9681881364080205,
                -1.6894164025385874,
                1.0619099587769136,
                -0.28230516000194006,
                -0.3766941839238789
            ]
        },
        {
            "positions": [
                -0.04727258401485014,
                -2.0101169427618197,
                -1.7935868887058675,
                1.1448205398304356,
                -0.2192073718587423,
                -0.32713319887286907
            ]
        },
        {
            "positions": [
                -0.01677038356721635,
                -2.0553189921690884,
                -1.895756921391431,
                1.227554099358256,
                -0.15357193677369635,
                -0.2694216882815934
            ]
        },
        {
            "positions": [
                0.013731816880417441,
                -2.100521041576357,
                -1.9979269540769944,
                1.3102876588860766,
                -0.08793650168865039,
                -0.21171017769031775
            ]
        },
        {
            "positions": [
                0.044234017328051226,
                -2.145723090983626,
                -2.1000969867625576,
                1.3930212184138973,
                -0.022301066603604425,
                -0.15399866709904209
            ]
        },
        {
            "positions": [
                0.07473621777568502,
                -2.1909251403908945,
                -2.2022670194481213,
                1.4757547779417177,
                0.04333436848144153,
                -0.09628715650776644
            ]
        },
        {
            "positions": [
                -0.054533407918184604,
                -2.2367972169318397,
                -2.288865067455549,
                1.4945094052031123,
                0.1068699908762328,
                -0.04939461693144324
            ]
        },
        {
            "positions": [
                -0.18380303361205425,
                -2.2826692934727846,
                -2.375463115462977,
                1.5132640324645066,
                0.17040561327102408,
                -0.002502077355120036
            ]
        }
    ]
}