{
    "goal": {
        "global_pose": {
            "orientation": {
                "w": 0.7047431468963623,
                "x": -0.7094548344612122,
                "y": 0.0024358443915843964,
                "z": -0.0022348060738295317
            },
            "position": {
                "x": 0.6094750761985779,
                "y": 0.3671506643295288,
                "z": 0.19426114857196808
            }
        },
        "name": "move_to_magneteinheit_A"
    },
    "id": "ProjEST_move_to_magneteinheit_A_100",
    "joint_names": [
        "shoulder_pan_joint",
        "shoulder_lift_joint",
        "elbow_joint",
        "wrist_1_joint",
        "wrist_2_joint",
        "wrist_3_joint"
    ],
    "metrics": {
        "cart_traj_len": 1.053106554575479,
        "distance_elbow_joint": 0.40167067651138844,
        "distance_shoulder_lift_joint": 0.35667046464463015,
        "distance_shoulder_pan_joint": 1.2414584719702848,
        "distance_wrist_1_joint": 2.2849779512311357,
        "distance_wrist_2_joint": 1.701886901967842,
        "distance_wrist_3_joint": 1.1682734929839618,
        "smoothness": 0.0,
        "time": 0.027575334,
        "traj_len": 2.674871578096646,
        "weighted_distance": 3.671287212746525
    },
    "planner": "ProjEST",
    "start": {
        "state": {
            "elbow_joint": 1.5739458966750683,
            "shoulder_lift_joint": -1.4977259741207325,
            "shoulder_pan_joint": -1.1188672016454206,
            "wrist_1_joint": 1.494575848278785,
            "wrist_2_joint": -1.5706037134824402,
            "wrist_3_joint": -2.0226957942261072
        }
    },
    "waypoints": [
        {
            "positions": [
                -1.1188672016454206,
                -1.4977259741207325,
                1.5739458966750683,
                1.494575848278785,
                -1.5706037134824402,
                -2.0226957942261072
            ]
        },
        {
            "positions": [
                -1.0535272820680373,
                -1.478953844402594,
                1.5950864585967204,
                1.3743138508455672,
                -1.4810307186420275,
                -2.0841838728042106
            ]
        },
        {
            "positions": [
                -0.9881873624906539,
                -1.4601817146844556,
                1.6162270205183724,
                1.2540518534123497,
                -1.3914577238016148,
                -2.145671951382314
            ]
        },
        {
            "positions": [
                -0.9228474429132705,
                -1.4414095849663173,
                1.6373675824400244,
                1.133789855979132,
                -1.3018847289612019,
                -2.207160029960417
            ]
        },
        {
            "positions": [
                -0.8575075233358871,
                -1.4226374552481789,
                1.6585081443616765,
                1.0135278585459142,
                -1.2123117341207892,
                -2.26864810853852
            ]
        },
        {
            "positions": [
                -0.7921676037585036,
                -1.4038653255300404,
                1.6796487062833285,
                0.8932658611126967,
                -1.1227387392803765,
                -2.3301361871166235
            ]
        },
        {
            "positions": [
                -0.7268276841811202,
                -1.385093195811902,
                1.7007892682049806,
                0.773003863679479,
                -1.0331657444399638,
                -2.391624265694727
            ]
        },
        {
            "positions": [
                -0.6614877646037368,
                -1.3663210660937635,
                1.7219298301266326,
                0.6527418662462614,
                -0.9435927495995511,
                -2.4531123442728298
            ]
        },
        {
            "positions": [
                -0.5961478450263534,
                -1.347548936375625,
                1.7430703920482844,
                0.5324798688130437,
                -0.8540197547591384,
                -2.514600422850933
            ]
        },
        {
            "positions": [
                -0.5308079254489699,
                -1.3287768066574865,
                1.7642109539699367,
                0.41221787137982613,
                -0.7644467599187257,
                -2.5760885014290364
            ]
        },
        {
            "positions": [
                -0.46546800587158654,
                -1.3100046769393483,
                1.7853515158915885,
                0.2919558739466084,
                -0.6748737650783129,
                -2.63757658000714
            ]
        },
        {
            "positions": [
                -0.40012808629420304,
                -1.2912325472212098,
                1.8064920778132407,
                0.17169387651339063,
                -0.5853007702379001,
                -2.699064658585243
            ]
        },
        {
            "positions": [
                -0.33478816671681977,
                -1.2724604175030714,
                1.8276326397348925,
                0.051431879080173104,
                -0.49572777539748736,
                -2.760552737163346
            ]
        },
        {
            "positions": [
                -0.26944824713943627,
                -1.253688287784933,
                1.8487732016565446,
                -0.06883011835304464,
                -0.40615478055707466,
                -2.8220408157414494
            ]
        },
        {
            "positions": [
                -0.204108327562053,
                -1.2349161580667944,
                1.8699137635781966,
                -0.18909211578626217,
                -0.31658178571666196,
                -2.8835288943195527
            ]
        },
        {
            "positions": [
                -0.1387684079846695,
                -1.216144028348656,
                1.8910543254998486,
                -0.30935411321948014,
                -0.22700879087624926,
                -2.945016972897656
            ]
        },
        {
            "positions": [
                -0.07342848840728622,
                -1.1973718986305175,
                1.9121948874215007,
                -0.42961611065269767,
                -0.13743579603583655,
                -3.0065050514757594
            ]
        },
        {
            "positions": [
                -0.00808856882990261,
                -1.1785997689123793,
                1.9333354493431527,
                -0.5498781080859152,
                -0.04786280119542363,
                -3.0679931300538623
            ]
        },
        {
            "positions": [
                0.05725135074748078,
                -1.1598276391942408,
                1.9544760112648047,
                -0.6701401055191327,
                0.04171019364498885,
                -3.1294812086319657
            ]
        },
        {
            "positions": [
                0.12259127032486421,
                -1.1410555094761023,
                1.9756165731864568,
                -0.7904021029523506,
                0.1312831884854018,
                -3.190969287210069
            ]
        }
    ]
}