{
    "goal": {
        "global_pose": {
            "orientation": {
                "w": 0.7031023502349854,
                "x": -0.7110244035720825,
                "y": 0.007748599164187908,
                "z": 0.005598929710686207
            },
            "position": {
                "x": 0.11585023208521307,
                "y": 0.44412534475326537,
                "z": 0.3711530566215515
            }
        },
        "name": "move_to_auspresseinheit_A"
    },
    "id": "ProjEST_move_to_auspresseinheit_A_131",
    "joint_names": [
        "shoulder_pan_joint",
        "shoulder_lift_joint",
        "elbow_joint",
        "wrist_1_joint",
        "wrist_2_joint",
        "wrist_3_joint"
    ],
    "metrics": {
        "cart_traj_len": 1.6895341377800834,
        "distance_elbow_joint": 2.0405557235509924,
        "distance_shoulder_lift_joint": 0.6219576964688709,
        "distance_shoulder_pan_joint": 1.1238853952253083,
        "distance_wrist_1_joint": 2.080842453318619,
        "distance_wrist_2_joint": 2.180577302429118,
        "distance_wrist_3_joint": 2.9255975072339684,
        "smoothness": 0.4999418154059028,
        "time": 0.533703578,
        "traj_len": 3.312614689067668,
        "weighted_distance": 4.591952836042913
    },
    "planner": "ProjEST",
    "start": {
        "state": {
            "elbow_joint": 2.4225747245308327,
            "shoulder_lift_joint": -1.373653427065438,
            "shoulder_pan_joint": -0.33786330853087027,
            "wrist_1_joint": -1.0288602302712604,
            "wrist_2_joint": 1.23302299562683,
            "wrist_3_joint": -3.094021725338297
        }
    },
    "waypoints": [
        {
            "positions": [
                -0.33786330853087027,
                -1.373653427065438,
                2.4225747245308327,
                -1.0288602302712604,
                1.23302299562683,
                -3.094021725338297
            ]
        },
        {
            "positions": [
                -0.33179676700935645,
                -1.3865716250531668,
                2.3363926407519644,
                -0.9550947575238238,
                1.1281328113596873,
                -2.9874027439906286
            ]
        },
        {
            "positions": [
                -0.32573022548784264,
                -1.3994898230408954,
                2.250210556973096,
                -0.8813292847763872,
                1.0232426270925448,
                -2.8807837626429604
            ]
        },
        {
            "positions": [
                -0.3196636839663288,
                -1.4124080210286243,
                2.164028473194228,
                -0.8075638120289506,
                0.9183524428254024,
                -2.774164781295292
            ]
        },
        {
            "positions": [
                -0.313597142444815,
                -1.425326219016353,
                2.0778463894153596,
                -0.733798339281514,
                0.8134622585582598,
                -2.6675457999476238
            ]
        },
        {
            "positions": [
                -0.3075306009233012,
                -1.4382444170040818,
                1.9916643056364913,
                -0.6600328665340773,
                0.7085720742911172,
                -2.560926818599955
            ]
        },
        {
            "positions": [
                -0.30146405940178744,
                -1.4511626149918104,
                1.905482221857623,
                -0.5862673937866407,
                0.6036818900239748,
                -2.454307837252287
            ]
        },
        {
            "positions": [
                -0.2953975178802736,
                -1.4640808129795393,
                1.8193001380787548,
                -0.5125019210392041,
                0.4987917057568322,
                -2.3476888559046185
            ]
        },
        {
            "positions": [
                -0.2893309763587598,
                -1.4769990109672682,
                1.7331180542998865,
                -0.4387364482917675,
                0.3939015214896897,
                -2.24106987455695
            ]
        },
        {
            "positions": [
                -0.283264434837246,
                -1.4899172089549968,
                1.6469359705210183,
                -0.3649709755443309,
                0.2890113372225471,
                -2.134450893209282
            ]
        },
        {
            "positions": [
                -0.2771978933157322,
                -1.5028354069427257,
                1.56075388674215,
                -0.2912055027968943,
                0.18412115295540454,
                -2.0278319118616133
            ]
        },
        {
            "positions": [
                -0.2711313517942184,
                -1.5157536049304543,
                1.4745718029632817,
                -0.21744003004945767,
                0.07923096868826218,
                -1.921212930513945
            ]
        },
        {
            "positions": [
                -0.26506481027270457,
                -1.5286718029181832,
                1.3883897191844135,
                -0.14367455730202103,
                -0.025659215578880498,
                -1.8145939491662766
            ]
        },
        {
            "positions": [
                -0.12610080122686887,
                -1.5777594121056642,
                1.4405935246436712,
                -0.07129644424890964,
                -0.041899079932445044,
                -1.7871792606230934
            ]
        },
        {
            "positions": [
                0.012863207818966826,
                -1.6268470212931452,
                1.492797330102929,
                0.0010816688042017408,
                -0.05813894428600958,
                -1.7597645720799104
            ]
        },
        {
            "positions": [
                0.15182721686480255,
                -1.6759346304806262,
                1.5450011355621864,
                0.07345978185731314,
                -0.07437880863957413,
                -1.7323498835367273
            ]
        },
        {
            "positions": [
                0.2907912259106382,
                -1.7250222396681074,
                1.5972049410214442,
                0.1458378949104245,
                -0.09061867299313867,
                -1.704935194993544
            ]
        },
        {
            "positions": [
                0.42975523495647394,
                -1.7741098488555884,
                1.649408746480702,
                0.21821600796353594,
                -0.10685853734670321,
                -1.677520506450361
            ]
        },
        {
            "positions": [
                0.5687192440023097,
                -1.8231974580430694,
                1.7016125519399596,
                0.2905941210166473,
                -0.12309840170026776,
                -1.650105817907178
            ]
        },
        {
            "positions": [
                0.595495542845239,
                -1.8420865279242526,
                1.770985482413103,
                0.23689163533959806,
                -0.05299892292314626,
                -1.7489081448565815
            ]
        },
        {
            "positions": [
                0.6222718416881684,
                -1.8609755978054359,
                1.8403584128862465,
                0.18318914966254882,
                0.01710055585397524,
                -1.8477104718059851
            ]
        },
        {
            "positions": [
                0.6490481405310977,
                -1.879864667686619,
                1.9097313433593897,
                0.12948666398549957,
                0.08720003463109677,
                -1.9465127987553887
            ]
        },
        {
            "positions": [
                0.675824439374027,
                -1.8987537375678023,
                1.979104273832533,
                0.07578417830845036,
                0.15729951340821824,
                -2.0453151257047923
            ]
        },
        {
            "positions": [
                0.7026007382169565,
                -1.9176428074489855,
                2.0484772043056765,
                0.022081692631401084,
                0.22739899218533982,
                -2.144117452654196
            ]
        },
        {
            "positions": [
                0.7293770370598858,
                -1.9365318773301687,
                2.11785013477882,
                -0.03162079304564816,
                0.2974984709624613,
                -2.2429197796035996
            ]
        },
        {
            "positions": [
                0.7377598397615222,
                -1.9442770272294791,
                2.1840085793407837,
                -0.09845954399649441,
                0.3704258288660357,
                -2.3808218562110373
            ]
        },
        {
            "positions": [
                0.7461426424631585,
                -1.9520221771287898,
                2.250167023902748,
                -0.16529829494734066,
                0.4433531867696101,
                -2.5187239328184745
            ]
        },
        {
            "positions": [
                0.7361727814053387,
                -1.94112494052741,
                2.286315377274308,
                -0.24167221646402162,
                0.5078542659276457,
                -2.6719898040413628
            ]
        },
        {
            "positions": [
                0.7262029203475189,
                -1.9302277039260303,
                2.3224637306458673,
                -0.3180461379807026,
                0.5723553450856814,
                -2.825255675264251
            ]
        },
        {
            "positions": [
                0.7162330592896989,
                -1.9193304673246505,
                2.3586120840174267,
                -0.39442005949738357,
                0.6368564242437171,
                -2.978521546487139
            ]
        },
        {
            "positions": [
                0.7062631982318791,
                -1.9084332307232708,
                2.3947604373889866,
                -0.4707939810140645,
                0.7013575034017527,
                -3.131787417710027
            ]
        }
    ]
}