{
    "goal": {
        "global_pose": {
            "orientation": {
                "w": 0.7031023480610252,
                "x": -0.7110244013736278,
                "y": 0.0077485991402295624,
                "z": 0.005598929693374583
            },
            "position": {
                "x": -0.8841497679147869,
                "y": 0.44412534475326537,
                "z": 0.3711530566215515
            }
        },
        "name": "move_to_auspresseinheit_D"
    },
    "id": "ProjEST_move_to_auspresseinheit_D_107",
    "joint_names": [
        "shoulder_pan_joint",
        "shoulder_lift_joint",
        "elbow_joint",
        "wrist_1_joint",
        "wrist_2_joint",
        "wrist_3_joint"
    ],
    "metrics": {
        "cart_traj_len": 3.820844598929356,
        "distance_elbow_joint": 3.0135958078778255,
        "distance_shoulder_lift_joint": 1.2351600832887342,
        "distance_shoulder_pan_joint": 2.796535413212993,
        "distance_wrist_1_joint": 2.0815186151452783,
        "distance_wrist_2_joint": 1.2142774514868322,
        "distance_wrist_3_joint": 5.164272040703219,
        "smoothness": 0.25006901015239374,
        "time": 0.499621753,
        "traj_len": 3.937684524148027,
        "weighted_distance": 5.397193674471341
    },
    "planner": "ProjEST",
    "start": {
        "state": {
            "elbow_joint": 1.8268400409724999,
            "shoulder_lift_joint": -1.0144045787793008,
            "shoulder_pan_joint": 2.6280239544362485,
            "wrist_1_joint": -0.790705565816056,
            "wrist_2_joint": 1.0573557467365533,
            "wrist_3_joint": 3.1851377467193758
        }
    },
    "waypoints": [
        {
            "positions": [
                2.6280239544362485,
                -1.0144045787793008,
                1.8268400409724999,
                -0.790705565816056,
                1.0573557467365533,
                3.1851377467193758
            ]
        },
        {
            "positions": [
                2.5781303807054137,
                -1.0439648775751127,
                1.7477958412952568,
                -0.8494845374928276,
                1.0137914468193476,
                3.0676598796425463
            ]
        },
        {
            "positions": [
                2.5282368069745784,
                -1.0735251763709246,
                1.6687516416180137,
                -0.9082635091695991,
                0.9702271469021422,
                2.9501820125657168
            ]
        },
        {
            "positions": [
                2.4783432332437436,
                -1.1030854751667365,
                1.5897074419407708,
                -0.9670424808463707,
                0.9266628469849365,
                2.8327041454888873
            ]
        },
        {
            "positions": [
                2.428449659512909,
                -1.1326457739625484,
                1.5106632422635278,
                -1.0258214525231422,
                0.8830985470677309,
                2.7152262784120578
            ]
        },
        {
            "positions": [
                2.378556085782074,
                -1.1622060727583603,
                1.4316190425862847,
                -1.0846004241999139,
                0.8395342471505254,
                2.5977484113352283
            ]
        },
        {
            "positions": [
                2.3286625120512388,
                -1.1917663715541722,
                1.3525748429090416,
                -1.1433793958766854,
                0.7959699472333198,
                2.4802705442583988
            ]
        },
        {
            "positions": [
                2.278768938320404,
                -1.221326670349984,
                1.2735306432317985,
                -1.2021583675534568,
                0.7524056473161143,
                2.3627926771815693
            ]
        },
        {
            "positions": [
                2.228875364589569,
                -1.250886969145796,
                1.1944864435545557,
                -1.2609373392302285,
                0.7088413473989086,
                2.2453148101047393
            ]
        },
        {
            "positions": [
                2.1789817908587343,
                -1.2804472679416081,
                1.1154422438773124,
                -1.319716310907,
                0.6652770474817029,
                2.1278369430279103
            ]
        },
        {
            "positions": [
                2.129088217127899,
                -1.3100075667374198,
                1.0363980442000695,
                -1.3784952825837715,
                0.6217127475644975,
                2.0103590759510803
            ]
        },
        {
            "positions": [
                2.0791946433970643,
                -1.339567865533232,
                0.9573538445228265,
                -1.4372742542605432,
                0.5781484476472918,
                1.892881208874251
            ]
        },
        {
            "positions": [
                2.0293010696662295,
                -1.3691281643290436,
                0.8783096448455835,
                -1.4960532259373145,
                0.5345841477300863,
                1.7754033417974215
            ]
        },
        {
            "positions": [
                1.9794074959353944,
                -1.3986884631248557,
                0.7992654451683403,
                -1.5548321976140862,
                0.49101984781288066,
                1.6579254747205918
            ]
        },
        {
            "positions": [
                1.9295139222045594,
                -1.4282487619206674,
                0.7202212454910975,
                -1.613611169290858,
                0.4474555478956751,
                1.5404476076437625
            ]
        },
        {
            "positions": [
                1.8796203484737246,
                -1.4578090607164795,
                0.6411770458138544,
                -1.6723901409676292,
                0.40389124797846954,
                1.422969740566933
            ]
        },
        {
            "positions": [
                1.8297267747428896,
                -1.4873693595122914,
                0.5621328461366113,
                -1.7311691126444009,
                0.36032694806126386,
                1.3054918734901033
            ]
        },
        {
            "positions": [
                1.7798332010120548,
                -1.5169296583081033,
                0.4830886464593682,
                -1.7899480843211726,
                0.3167626481440583,
                1.188014006413274
            ]
        },
        {
            "positions": [
                1.7299396272812197,
                -1.5464899571039152,
                0.40404444678212514,
                -1.848727055997944,
                0.2731983482268526,
                1.0705361393364443
            ]
        },
        {
            "positions": [
                1.680046053550385,
                -1.5760502558997271,
                0.32500024710488207,
                -1.9075060276747156,
                0.22963404830964718,
                0.9530582722596148
            ]
        },
        {
            "positions": [
                1.63015247981955,
                -1.605610554695539,
                0.2459560474276392,
                -1.966284999351487,
                0.18606974839244161,
                0.8355804051827853
            ]
        },
        {
            "positions": [
                1.5802589060887149,
                -1.635170853491351,
                0.16691184775039614,
                -2.025063971028259,
                0.14250544847523594,
                0.7181025381059558
            ]
        },
        {
            "positions": [
                1.53036533235788,
                -1.6647311522871628,
                0.08786764807315306,
                -2.0838429427050302,
                0.09894114855803038,
                0.6006246710291264
            ]
        },
        {
            "positions": [
                1.440950764403426,
                -1.6955118633282613,
                0.02078220517954879,
                -2.125336692086941,
                0.08547468259443522,
                0.736401458661388
            ]
        },
        {
            "positions": [
                1.351536196448972,
                -1.72629257436936,
                -0.04630323771405548,
                -2.1668304414688517,
                0.07200821663084005,
                0.8721782462936495
            ]
        },
        {
            "positions": [
                1.262121628494518,
                -1.7570732854104585,
                -0.11338868060765975,
                -2.2083241908507625,
                0.05854175066724488,
                1.007955033925911
            ]
        },
        {
            "positions": [
                1.172707060540064,
                -1.787853996451557,
                -0.18047412350126402,
                -2.2498179402326732,
                0.045075284703649715,
                1.1437318215581724
            ]
        },
        {
            "positions": [
                1.08329249258561,
                -1.8186347074926554,
                -0.2475595663948683,
                -2.291311689614584,
                0.031608818740054556,
                1.279508609190434
            ]
        },
        {
            "positions": [
                0.993877924631156,
                -1.849415418533754,
                -0.31464500928847255,
                -2.3328054389964947,
                0.018142352776459383,
                1.4152853968226955
            ]
        },
        {
            "positions": [
                0.904463356676702,
                -1.8801961295748526,
                -0.38173045218207685,
                -2.3742991883784055,
                0.0046758868128642245,
                1.551062184454957
            ]
        },
        {
            "positions": [
                0.815048788722248,
                -1.910976840615951,
                -0.4488158950756811,
                -2.4157929377603162,
                -0.008790579150730948,
                1.6868389720872186
            ]
        },
        {
            "positions": [
                0.7256342207677939,
                -1.9417575516570496,
                -0.5159013379692854,
                -2.4572866871422265,
                -0.022257045114326107,
                1.82261575971948
            ]
        },
        {
            "positions": [
                0.6362196528133399,
                -1.9725382626981482,
                -0.5829867808628897,
                -2.4987804365241373,
                -0.035723511077921266,
                1.9583925473517416
            ]
        },
        {
            "positions": [
                0.5468050848588859,
                -2.0033189737392467,
                -0.650072223756494,
                -2.540274185906048,
                -0.04918997704151645,
                2.094169334984003
            ]
        },
        {
            "positions": [
                0.4573905169044319,
                -2.034099684780345,
                -0.7171576666500982,
                -2.581767935287959,
                -0.06265644300511161,
                2.2299461226162647
            ]
        },
        {
            "positions": [
                0.36797594894997787,
                -2.0648803958214437,
                -0.7842431095437025,
                -2.6232616846698695,
                -0.0761229089687068,
                2.365722910248526
            ]
        },
        {
            "positions": [
                0.27856138099552386,
                -2.095661106862542,
                -0.8513285524373068,
                -2.6647554340517803,
                -0.08958937493230193,
                2.5014996978807877
            ]
        },
        {
            "positions": [
                0.18914681304106984,
                -2.1264418179036406,
                -0.918413995330911,
                -2.706249183433691,
                -0.10305584089589712,
                2.6372764855130493
            ]
        },
        {
            "positions": [
                0.09973224508661582,
                -2.1572225289447395,
                -0.9854994382245152,
                -2.747742932815602,
                -0.11652230685949228,
                2.773053273145311
            ]
        },
        {
            "positions": [
                0.010317677132161807,
                -2.188003239985838,
                -1.0525848811181195,
                -2.7892366821975125,
                -0.12998877282308746,
                2.9088300607775723
            ]
        },
        {
            "positions": [
                -0.07909689082229221,
                -2.2187839510269365,
                -1.1196703240117238,
                -2.8307304315794233,
                -0.1434552387866826,
                3.044606848409834
            ]
        },
        {
            "positions": [
                -0.16851145877674623,
                -2.249564662068035,
                -1.1867557669053281,
                -2.872224180961334,
                -0.15692170475027775,
                3.1803836360420954
            ]
        }
    ]
}