{
    "goal": {
        "global_pose": {
            "orientation": {
                "w": -0.4816463035849501,
                "x": 0.5182115481033762,
                "y": 0.4908360881923453,
                "z": -0.5084816262002911
            },
            "position": {
                "x": -0.8240239810943604,
                "y": -0.300875300988555,
                "z": 0.16403168439865112
            }
        },
        "name": "move_to_storage_C"
    },
    "id": "ProjEST_move_to_storage_C_84",
    "joint_names": [
        "shoulder_pan_joint",
        "shoulder_lift_joint",
        "elbow_joint",
        "wrist_1_joint",
        "wrist_2_joint",
        "wrist_3_joint"
    ],
    "metrics": {
        "cart_traj_len": 0.576805409173024,
        "distance_elbow_joint": 0.25900614161450153,
        "distance_shoulder_lift_joint": 0.19035636819777169,
        "distance_shoulder_pan_joint": 0.4951721949419774,
        "distance_wrist_1_joint": 0.07940886081635179,
        "distance_wrist_2_joint": 1.062279564504074,
        "distance_wrist_3_joint": 0.05613175363159728,
        "smoothness": 2.5376526478085547e-16,
        "time": 0.18893402799999998,
        "traj_len": 1.463678545209389,
        "weighted_distance": 1.8429071643167199
    },
    "planner": "ProjEST",
    "start": {
        "state": {
            "elbow_joint": 2.010868315001653,
            "shoulder_lift_joint": -1.1634956873357014,
            "shoulder_pan_joint": -2.4736205022346103,
            "wrist_1_joint": -0.8367026794713948,
            "wrist_2_joint": 0.6746043897044093,
            "wrist_3_joint": 3.1335220948105738
        }
    },
    "waypoints": [
        {
            "positions": [
                -2.4736205022346103,
                -1.1634956873357014,
                2.010868315001653,
                -0.8367026794713948,
                0.6746043897044093,
                3.1335220948105738
            ]
        },
        {
            "positions": [
                -2.5561492013916065,
                -1.1317696259694061,
                1.9677006247325695,
                -0.8234678693353361,
                0.8516509837884216,
                3.142877387082507
            ]
        },
        {
            "positions": [
                -2.6386779005486027,
                -1.1000435646031108,
                1.9245329344634858,
                -0.8102330591992775,
                1.0286975778724339,
                3.1522326793544395
            ]
        },
        {
            "positions": [
                -2.721206599705599,
                -1.0683175032368155,
                1.8813652441944022,
                -0.7969982490632188,
                1.2057441719564461,
                3.161587971626372
            ]
        },
        {
            "positions": [
                -2.803735298862595,
                -1.0365914418705202,
                1.8381975539253188,
                -0.7837634389271603,
                1.3827907660404586,
                3.1709432638983053
            ]
        },
        {
            "positions": [
                -2.8862639980195914,
                -1.004865380504225,
                1.7950298636562352,
                -0.7705286287911016,
                1.559837360124471,
                3.1802985561702384
            ]
        },
        {
            "positions": [
                -2.9687926971765877,
                -0.9731393191379297,
                1.7518621733871516,
                -0.757293818655043,
                1.7368839542084833,
                3.189653848442171
            ]
        }
    ]
}