{
    "goal": {
        "global_pose": {
            "orientation": {
                "w": 0.7031023502349854,
                "x": -0.7110244035720825,
                "y": 0.007748599164187908,
                "z": 0.005598929710686207
            },
            "position": {
                "x": 0.11585023208521307,
                "y": 0.44412534475326537,
                "z": 0.3711530566215515
            }
        },
        "name": "move_to_auspresseinheit_A"
    },
    "id": "ProjEST_move_to_auspresseinheit_A_147",
    "joint_names": [
        "shoulder_pan_joint",
        "shoulder_lift_joint",
        "elbow_joint",
        "wrist_1_joint",
        "wrist_2_joint",
        "wrist_3_joint"
    ],
    "metrics": {
        "cart_traj_len": 0.851940751143501,
        "distance_elbow_joint": 0.03127451237894796,
        "distance_shoulder_lift_joint": 0.5331327933097849,
        "distance_shoulder_pan_joint": 2.0226632408659513,
        "distance_wrist_1_joint": 0.8740039329484097,
        "distance_wrist_2_joint": 1.2626205507309183,
        "distance_wrist_3_joint": 0.5200805685588135,
        "smoothness": 1.109363365351154,
        "time": 0.04768421,
        "traj_len": 2.2899291689466783,
        "weighted_distance": 2.9018203286195683
    },
    "planner": "ProjEST",
    "start": {
        "state": {
            "elbow_joint": 2.4225747245308327,
            "shoulder_lift_joint": -1.373653427065438,
            "shoulder_pan_joint": -0.33786330853087027,
            "wrist_1_joint": -1.0288602302712604,
            "wrist_2_joint": 1.23302299562683,
            "wrist_3_joint": -3.094021725338297
        }
    },
    "waypoints": [
        {
            "positions": [
                -0.33786330853087027,
                -1.373653427065438,
                2.4225747245308327,
                -1.0288602302712604,
                1.23302299562683,
                -3.094021725338297
            ]
        },
        {
            "positions": [
                -0.40768751115470847,
                -1.3966874472613087,
                2.4220066624064995,
                -0.9255682012572084,
                1.1051202758267682,
                -3.0598764806729513
            ]
        },
        {
            "positions": [
                -0.4775117137785467,
                -1.4197214674571794,
                2.421438600282166,
                -0.8222761722431565,
                0.9772175560267065,
                -3.025731236007605
            ]
        },
        {
            "positions": [
                -0.5473359164023849,
                -1.4427554876530502,
                2.420870538157833,
                -0.7189841432291046,
                0.8493148362266448,
                -2.991585991342259
            ]
        },
        {
            "positions": [
                -0.617160119026223,
                -1.4657895078489211,
                2.4203024760334992,
                -0.6156921142150527,
                0.7214121164265831,
                -2.9574407466769133
            ]
        },
        {
            "positions": [
                -0.6869843216500613,
                -1.488823528044792,
                2.419734413909166,
                -0.5124000852010007,
                0.5935093966265214,
                -2.9232955020115674
            ]
        },
        {
            "positions": [
                -0.7568085242738996,
                -1.5118575482406627,
                2.4191663517848325,
                -0.4091080561869488,
                0.46560667682645973,
                -2.889150257346221
            ]
        },
        {
            "positions": [
                -0.8266327268977377,
                -1.5348915684365334,
                2.4185982896604994,
                -0.3058160271728968,
                0.337703957026398,
                -2.8550050126808753
            ]
        },
        {
            "positions": [
                -0.6075050379692972,
                -1.5880193758563461,
                2.414698564302126,
                -0.3273817028657605,
                0.39017560161646747,
                -2.8951569920953597
            ]
        },
        {
            "positions": [
                -0.38837734904085663,
                -1.641147183276159,
                2.4107988389437525,
                -0.34894737855862423,
                0.4426472462065369,
                -2.935308971509844
            ]
        },
        {
            "positions": [
                -0.16924966011241604,
                -1.6942749906959718,
                2.406899113585379,
                -0.37051305425148795,
                0.49511889079660637,
                -2.9754609509243286
            ]
        },
        {
            "positions": [
                0.04987802881602443,
                -1.7474027981157845,
                2.402999388227005,
                -0.39207872994435167,
                0.5475905353866758,
                -3.0156129303388135
            ]
        },
        {
            "positions": [
                0.269005717744465,
                -1.8005306055355974,
                2.3990996628686316,
                -0.41364440563721544,
                0.6000621799767454,
                -3.055764909753298
            ]
        },
        {
            "positions": [
                0.4881334066729056,
                -1.8536584129554101,
                2.395199937510258,
                -0.4352100813300791,
                0.6525338245668147,
                -3.0959168891677824
            ]
        },
        {
            "positions": [
                0.7072610956013461,
                -1.9067862203752228,
                2.3913002121518847,
                -0.4567757570229429,
                0.7050054691568842,
                -3.136068868582267
            ]
        }
    ]
}