{
    "goal": {
        "global_pose": {
            "orientation": {
                "w": 0.7047431493862688,
                "x": -0.7094548369677653,
                "y": 0.0024358444001904,
                "z": -0.0022348060817251984
            },
            "position": {
                "x": -0.39052492380142206,
                "y": 0.3671506643295288,
                "z": 0.19426114857196808
            }
        },
        "name": "move_to_magneteinheit_D"
    },
    "id": "ProjEST_move_to_magneteinheit_D_35",
    "joint_names": [
        "shoulder_pan_joint",
        "shoulder_lift_joint",
        "elbow_joint",
        "wrist_1_joint",
        "wrist_2_joint",
        "wrist_3_joint"
    ],
    "metrics": {
        "cart_traj_len": 4.17688369976803,
        "distance_elbow_joint": 3.3853532675021096,
        "distance_shoulder_lift_joint": 1.6296367488092662,
        "distance_shoulder_pan_joint": 2.8861758668682467,
        "distance_wrist_1_joint": 1.6049487413926096,
        "distance_wrist_2_joint": 0.914662389162745,
        "distance_wrist_3_joint": 3.1961368407667905,
        "smoothness": 0.6276812194869853,
        "time": 0.27870824,
        "traj_len": 3.6901102767399467,
        "weighted_distance": 4.74645116551205
    },
    "planner": "ProjEST",
    "start": {
        "state": {
            "elbow_joint": 0.7495348899011973,
            "shoulder_lift_joint": -0.6476975780737697,
            "shoulder_pan_joint": -2.711696901376276,
            "wrist_1_joint": -0.07506478080974305,
            "wrist_2_joint": 0.4329665971545858,
            "wrist_3_joint": 3.1361499051832524
        }
    },
    "waypoints": [
        {
            "positions": [
                -2.711696901376276,
                -0.6476975780737697,
                0.7495348899011973,
                -0.07506478080974305,
                0.4329665971545858,
                3.1361499051832524
            ]
        },
        {
            "positions": [
                -2.7237530920647517,
                -0.68866088428742,
                0.5843207354782394,
                0.027434319069585655,
                0.38442454300907036,
                3.135144767389637
            ]
        },
        {
            "positions": [
                -2.735809282753227,
                -0.7296241905010703,
                0.41910658105528137,
                0.12993341894891436,
                0.335882488863555,
                3.1341396295960218
            ]
        },
        {
            "positions": [
                -2.6334151639627126,
                -0.7700018524869193,
                0.33037494697995384,
                0.15997315183111765,
                0.34790715902405234,
                3.0271592214213596
            ]
        },
        {
            "positions": [
                -2.5310210451721984,
                -0.8103795144727683,
                0.24164331290462637,
                0.19001288471332092,
                0.3599318291845497,
                2.920178813246697
            ]
        },
        {
            "positions": [
                -2.4286269263816838,
                -0.8507571764586173,
                0.15291167882929885,
                0.22005261759552422,
                0.37195649934504704,
                2.8131984050720344
            ]
        },
        {
            "positions": [
                -2.3262328075911696,
                -0.8911348384444663,
                0.06418004475397138,
                0.2500923504777275,
                0.38398116950554445,
                2.7062179968973723
            ]
        },
        {
            "positions": [
                -2.223838688800655,
                -0.9315125004303153,
                -0.024551589321356204,
                0.2801320833599308,
                0.3960058396660418,
                2.59923758872271
            ]
        },
        {
            "positions": [
                -2.1214445700101408,
                -0.9718901624161643,
                -0.11328322339668367,
                0.3101718162421341,
                0.40803050982653916,
                2.4922571805480476
            ]
        },
        {
            "positions": [
                -2.019050451219626,
                -1.0122678244020133,
                -0.20201485747201126,
                0.3402115491243374,
                0.4200551799870365,
                2.385276772373385
            ]
        },
        {
            "positions": [
                -1.916656332429112,
                -1.0526454863878623,
                -0.2907464915473386,
                0.37025128200654067,
                0.43207985014753386,
                2.278296364198723
            ]
        },
        {
            "positions": [
                -1.8142622136385973,
                -1.0930231483737114,
                -0.3794781256226662,
                0.4002910148887439,
                0.44410452030803127,
                2.1713159560240607
            ]
        },
        {
            "positions": [
                -1.7118680948480829,
                -1.1334008103595603,
                -0.4682097596979938,
                0.43033074777094726,
                0.4561291904685286,
                2.064335547849398
            ]
        },
        {
            "positions": [
                -1.6094739760575685,
                -1.1737784723454094,
                -0.5569413937733212,
                0.4603704806531505,
                0.468153860629026,
                1.9573551396747357
            ]
        },
        {
            "positions": [
                -1.507079857267054,
                -1.2141561343312584,
                -0.6456730278486487,
                0.4904102135353538,
                0.48017853078952333,
                1.8503747315000734
            ]
        },
        {
            "positions": [
                -1.4046857384765397,
                -1.2545337963171073,
                -0.7344046619239761,
                0.520449946417557,
                0.4922032009500207,
                1.743394323325411
            ]
        },
        {
            "positions": [
                -1.302291619686025,
                -1.2949114583029564,
                -0.8231362959993038,
                0.5504896792997604,
                0.504227871110518,
                1.6364139151507486
            ]
        },
        {
            "positions": [
                -1.1998975008955108,
                -1.3352891202888053,
                -0.9118679300746311,
                0.5805294121819637,
                0.5162525412710154,
                1.5294335069760863
            ]
        },
        {
            "positions": [
                -1.0975033821049964,
                -1.3756667822746542,
                -1.0005995641499585,
                0.6105691450641669,
                0.5282772114315127,
                1.422453098801424
            ]
        },
        {
            "positions": [
                -0.9951092633144818,
                -1.4160444442605034,
                -1.0893311982252862,
                0.6406088779463703,
                0.5403018815920102,
                1.3154726906267615
            ]
        },
        {
            "positions": [
                -0.8927151445239674,
                -1.4564221062463525,
                -1.1780628323006137,
                0.6706486108285734,
                0.5523265517525076,
                1.2084922824520992
            ]
        },
        {
            "positions": [
                -0.7903210257334532,
                -1.4967997682322014,
                -1.2667944663759412,
                0.7006883437107767,
                0.5643512219130049,
                1.101511874277437
            ]
        },
        {
            "positions": [
                -0.6879269069429386,
                -1.5371774302180503,
                -1.3555261004512689,
                0.7307280765929802,
                0.5763758920735023,
                0.9945314661027744
            ]
        },
        {
            "positions": [
                -0.5855327881524244,
                -1.5775550922038994,
                -1.4442577345265963,
                0.7607678094751833,
                0.5884005622339996,
                0.8875510579281123
            ]
        },
        {
            "positions": [
                -0.48313866936190974,
                -1.6179327541897484,
                -1.5329893686019236,
                0.7908075423573866,
                0.600425232394497,
                0.7805706497534497
            ]
        },
        {
            "positions": [
                -0.3807445505713951,
                -1.6583104161755973,
                -1.6217210026772513,
                0.8208472752395899,
                0.6124499025549943,
                0.6735902415787871
            ]
        },
        {
            "positions": [
                -0.2783504317808811,
                -1.6986880781614464,
                -1.7104526367525787,
                0.8508870081217933,
                0.6244745727154917,
                0.566609833404125
            ]
        },
        {
            "positions": [
                -0.22851989077563603,
                -1.74998413171955,
                -1.804572082062261,
                0.9017665896755864,
                0.593443513688559,
                0.49188004702390214
            ]
        },
        {
            "positions": [
                -0.17868934977039097,
                -1.8012801852776537,
                -1.8986915273719434,
                0.9526461712293796,
                0.5624124546616261,
                0.4171502606436793
            ]
        },
        {
            "positions": [
                -0.1288588087651459,
                -1.8525762388357572,
                -1.9928109726816259,
                1.0035257527831727,
                0.5313813956346933,
                0.3424204742634565
            ]
        },
        {
            "positions": [
                -0.07902826775990082,
                -1.903872292393861,
                -2.086930417991308,
                1.0544053343369657,
                0.5003503366077606,
                0.2676906878832337
            ]
        },
        {
            "positions": [
                -0.029197726754655765,
                -1.9551683459519644,
                -2.1810498633009905,
                1.105284915890759,
                0.46931927758082786,
                0.19296090150301087
            ]
        },
        {
            "positions": [
                -0.04445785199907949,
                -2.0177829634078206,
                -2.2476713936178445,
                1.1824485413576307,
                0.40269735279097785,
                0.15494405520483634
            ]
        },
        {
            "positions": [
                -0.05971797724350321,
                -2.0803975808636768,
                -2.3142929239346985,
                1.2596121668245022,
                0.3360754280011279,
                0.11692720890666178
            ]
        },
        {
            "positions": [
                -0.07497810248792693,
                -2.143012198319533,
                -2.380914454251552,
                1.3367757922913739,
                0.2694535032112778,
                0.07891036260848724
            ]
        },
        {
            "positions": [
                -0.09023822773235066,
                -2.205626815775389,
                -2.447535984568406,
                1.4139394177582454,
                0.20283157842142785,
                0.04089351631031268
            ]
        },
        {
            "positions": [
                -0.10549835297677437,
                -2.2682414332312453,
                -2.51415751488526,
                1.491103043225117,
                0.13620965363157783,
                0.0028766700121381494
            ]
        },
        {
            "positions": [
                -0.18464965624737928,
                -2.277334326883036,
                -2.392496652169608,
                1.4523221258673678,
                0.17693093156744147,
                0.06574027560781505
            ]
        }
    ]
}