{
    "goal": {
        "global_pose": {
            "orientation": {
                "w": 0.7047431468963623,
                "x": -0.7094548344612122,
                "y": 0.0024358443915843964,
                "z": -0.0022348060738295317
            },
            "position": {
                "x": 0.6094750761985779,
                "y": 0.3671506643295288,
                "z": 0.19426114857196808
            }
        },
        "name": "move_to_magneteinheit_A"
    },
    "id": "ProjEST_move_to_magneteinheit_A_22",
    "joint_names": [
        "shoulder_pan_joint",
        "shoulder_lift_joint",
        "elbow_joint",
        "wrist_1_joint",
        "wrist_2_joint",
        "wrist_3_joint"
    ],
    "metrics": {
        "cart_traj_len": 1.0536290714125236,
        "distance_elbow_joint": 0.3859678105671811,
        "distance_shoulder_lift_joint": 0.3650363849447855,
        "distance_shoulder_pan_joint": 1.2417603383571676,
        "distance_wrist_1_joint": 2.226487527952396,
        "distance_wrist_2_joint": 1.6930019190170589,
        "distance_wrist_3_joint": 1.2040053142008795,
        "smoothness": 1.8698493194378823e-16,
        "time": 0.051766236,
        "traj_len": 2.6676317765087947,
        "weighted_distance": 3.666573246290149
    },
    "planner": "ProjEST",
    "start": {
        "state": {
            "elbow_joint": 1.5739458966750683,
            "shoulder_lift_joint": -1.4977259741207325,
            "shoulder_pan_joint": -1.1188672016454206,
            "wrist_1_joint": 1.494575848278785,
            "wrist_2_joint": -1.5706037134824402,
            "wrist_3_joint": -2.0226957942261072
        }
    },
    "waypoints": [
        {
            "positions": [
                -1.1188672016454206,
                -1.4977259741207325,
                1.5739458966750683,
                1.494575848278785,
                -1.5706037134824402,
                -2.0226957942261072
            ]
        },
        {
            "positions": [
                -1.0498805161811335,
                -1.4774461749571333,
                1.5953885528176894,
                1.3708820967258741,
                -1.476548051314826,
                -2.089584978348378
            ]
        },
        {
            "positions": [
                -0.9808938307168464,
                -1.457166375793534,
                1.6168312089603107,
                1.2471883451729633,
                -1.3824923891472114,
                -2.1564741624706496
            ]
        },
        {
            "positions": [
                -0.9119071452525593,
                -1.4368865766299348,
                1.6382738651029318,
                1.1234945936200522,
                -1.288436726979597,
                -2.2233633465929206
            ]
        },
        {
            "positions": [
                -0.8429204597882722,
                -1.4166067774663358,
                1.6597165212455531,
                0.9998008420671414,
                -1.1943810648119828,
                -2.2902525307151915
            ]
        },
        {
            "positions": [
                -0.7739337743239851,
                -1.3963269783027366,
                1.6811591773881742,
                0.8761070905142305,
                -1.1003254026443683,
                -2.3571417148374625
            ]
        },
        {
            "positions": [
                -0.7049470888596981,
                -1.3760471791391373,
                1.7026018335307953,
                0.7524133389613197,
                -1.006269740476754,
                -2.424030898959734
            ]
        },
        {
            "positions": [
                -0.6359604033954109,
                -1.355767379975538,
                1.7240444896734166,
                0.6287195874084087,
                -0.9122140783091395,
                -2.490920083082005
            ]
        },
        {
            "positions": [
                -0.5669737179311239,
                -1.3354875808119389,
                1.7454871458160377,
                0.5050258358554979,
                -0.8181584161415252,
                -2.557809267204276
            ]
        },
        {
            "positions": [
                -0.49798703246683684,
                -1.3152077816483398,
                1.7669298019586588,
                0.3813320843025869,
                -0.7241027539739108,
                -2.624698451326547
            ]
        },
        {
            "positions": [
                -0.42900034700254974,
                -1.2949279824847406,
                1.78837245810128,
                0.25763833274967607,
                -0.6300470918062964,
                -2.691587635448818
            ]
        },
        {
            "positions": [
                -0.36001366153826264,
                -1.2746481833211414,
                1.8098151142439012,
                0.133944581196765,
                -0.5359914296386818,
                -2.758476819571089
            ]
        },
        {
            "positions": [
                -0.29102697607397565,
                -1.2543683841575421,
                1.8312577703865225,
                0.010250829643854376,
                -0.4419357674710678,
                -2.82536600369336
            ]
        },
        {
            "positions": [
                -0.22204029060968855,
                -1.234088584993943,
                1.8527004265291436,
                -0.1134429219090567,
                -0.34788010530345326,
                -2.892255187815631
            ]
        },
        {
            "positions": [
                -0.15305360514540134,
                -1.2138087858303437,
                1.8741430826717647,
                -0.23713667346196754,
                -0.25382444313583874,
                -2.9591443719379025
            ]
        },
        {
            "positions": [
                -0.08406691968111435,
                -1.1935289866667445,
                1.895585738814386,
                -0.3608304250148786,
                -0.15976878096822444,
                -3.026033556060174
            ]
        },
        {
            "positions": [
                -0.015080234216827249,
                -1.1732491875031454,
                1.917028394957007,
                -0.48452417656778923,
                -0.06571311880061015,
                -3.092922740182445
            ]
        },
        {
            "positions": [
                0.05390645124745985,
                -1.1529693883395462,
                1.9384710510996284,
                -0.6082179281207003,
                0.028342543367004147,
                -3.159811924304716
            ]
        },
        {
            "positions": [
                0.1228931367117469,
                -1.132689589175947,
                1.9599137072422494,
                -0.731911679673611,
                0.12239820553461873,
                -3.2267011084269868
            ]
        }
    ]
}