{
    "goal": {
        "global_pose": {
            "orientation": {
                "w": -0.00223480608172531,
                "x": 0.0024358444001904467,
                "y": 0.7094548369677653,
                "z": -0.704743149386269
            },
            "position": {
                "x": -0.37947507619857795,
                "y": -0.6371506643295288,
                "z": 0.19426114857196808
            }
        },
        "name": "move_to_magneteinheit_C"
    },
    "id": "ProjEST_move_to_magneteinheit_C_37",
    "joint_names": [
        "shoulder_pan_joint",
        "shoulder_lift_joint",
        "elbow_joint",
        "wrist_1_joint",
        "wrist_2_joint",
        "wrist_3_joint"
    ],
    "metrics": {
        "cart_traj_len": 1.4542640614251339,
        "distance_elbow_joint": 0.8858116349522875,
        "distance_shoulder_lift_joint": 0.8703622709578613,
        "distance_shoulder_pan_joint": 1.931029245085667,
        "distance_wrist_1_joint": 1.4302629704559195,
        "distance_wrist_2_joint": 1.927028352750333,
        "distance_wrist_3_joint": 0.8813738353756682,
        "smoothness": 1.5468787621088453,
        "time": 0.042634766,
        "traj_len": 2.8152918693410345,
        "weighted_distance": 3.6119118626477205
    },
    "planner": "ProjEST",
    "start": {
        "state": {
            "elbow_joint": 1.9565354006590394,
            "shoulder_lift_joint": -1.4165861576513559,
            "shoulder_pan_joint": -1.6717766223277177,
            "wrist_1_joint": -0.5286633288215096,
            "wrist_2_joint": 1.4727565892594296,
            "wrist_3_joint": 3.1593482883155493
        }
    },
    "waypoints": [
        {
            "positions": [
                -1.6717766223277177,
                -1.4165861576513559,
                1.9565354006590394,
                -0.5286633288215096,
                1.4727565892594296,
                3.1593482883155493
            ]
        },
        {
            "positions": [
                -1.5502530189283208,
                -1.4494819970525437,
                1.9413813424132522,
                -0.44374069960403295,
                1.3922554995416119,
                3.167072367136061
            ]
        },
        {
            "positions": [
                -1.4287294155289239,
                -1.4823778364537312,
                1.9262272841674648,
                -0.35881807038655633,
                1.311754409823794,
                3.1747964459565727
            ]
        },
        {
            "positions": [
                -1.3072058121295271,
                -1.515273675854919,
                1.9110732259216774,
                -0.2738954411690797,
                1.2312533201059765,
                3.1825205247770847
            ]
        },
        {
            "positions": [
                -1.1856822087301302,
                -1.5481695152561068,
                1.8959191676758902,
                -0.1889728119516031,
                1.1507522303881588,
                3.1902446035975967
            ]
        },
        {
            "positions": [
                -1.2468512791906115,
                -1.567765778799646,
                1.9357011244801399,
                -0.2681198240837268,
                1.0349381913487319,
                3.1392125278207637
            ]
        },
        {
            "positions": [
                -1.3080203496510925,
                -1.5873620423431851,
                1.9754830812843898,
                -0.3472668362158505,
                0.9191241523093049,
                3.0881804520439307
            ]
        },
        {
            "positions": [
                -1.3691894201115737,
                -1.6069583058867243,
                2.0152650380886397,
                -0.4264138483479743,
                0.803310113269878,
                3.0371483762670977
            ]
        },
        {
            "positions": [
                -1.4303584905720548,
                -1.6265545694302634,
                2.0550469948928893,
                -0.5055608604800981,
                0.687496074230451,
                2.9861163004902647
            ]
        },
        {
            "positions": [
                -1.491527561032536,
                -1.6461508329738028,
                2.094828951697139,
                -0.5847078726122219,
                0.5716820351910241,
                2.9350842247134312
            ]
        },
        {
            "positions": [
                -1.552696631493017,
                -1.665747096517342,
                2.1346109085013887,
                -0.6638548847443455,
                0.45586799615159723,
                2.8840521489365982
            ]
        },
        {
            "positions": [
                -1.6138657019534983,
                -1.6853433600608811,
                2.174392865305639,
                -0.7430018968764693,
                0.34005395711217024,
                2.8330200731597652
            ]
        },
        {
            "positions": [
                -1.6750347724139794,
                -1.7049396236044203,
                2.2141748221098885,
                -0.8221489090085929,
                0.22423991807274335,
                2.7819879973829322
            ]
        },
        {
            "positions": [
                -1.7362038428744606,
                -1.7245358871479595,
                2.253956778914138,
                -0.9012959211407168,
                0.10842587903331632,
                2.7309559216060992
            ]
        },
        {
            "positions": [
                -1.872199819140068,
                -1.6335393425075087,
                2.272195765267198,
                -0.8628353290024504,
                0.1511460562026579,
                2.756609465088954
            ]
        },
        {
            "positions": [
                -2.0081957954056753,
                -1.5425427978670578,
                2.290434751620258,
                -0.8243747368641839,
                0.19386623337199946,
                2.7822630085718094
            ]
        },
        {
            "positions": [
                -2.1441917716712826,
                -1.4515462532266072,
                2.3086737379733178,
                -0.7859141447259176,
                0.23658641054134102,
                2.8079165520546643
            ]
        },
        {
            "positions": [
                -2.28018774793689,
                -1.3605497085861564,
                2.326912724326377,
                -0.7474535525876512,
                0.2793065877106826,
                2.833570095537519
            ]
        },
        {
            "positions": [
                -2.4161837242024977,
                -1.2695531639457056,
                2.345151710679437,
                -0.7089929604493848,
                0.32202676488002413,
                2.8592236390203745
            ]
        },
        {
            "positions": [
                -2.552179700468105,
                -1.1785566193052548,
                2.363390697032497,
                -0.6705323683111184,
                0.36474694204936575,
                2.8848771825032293
            ]
        },
        {
            "positions": [
                -2.5260339205514035,
                -1.1730788614324037,
                2.244149406161653,
                -0.7196942988335521,
                0.4668724685520891,
                2.963966374904894
            ]
        },
        {
            "positions": [
                -2.499888140634702,
                -1.1676011035595528,
                2.1249081152908094,
                -0.7688562293559856,
                0.5689979950548125,
                3.043055567306558
            ]
        },
        {
            "positions": [
                -2.4737423607180005,
                -1.1621233456867017,
                2.0056668244199654,
                -0.8180181598784193,
                0.6711235215575359,
                3.1221447597082226
            ]
        }
    ]
}