{
    "goal": {
        "global_pose": {
            "orientation": {
                "w": 0.7031023480610252,
                "x": -0.7110244013736278,
                "y": 0.0077485991402295624,
                "z": 0.005598929693374583
            },
            "position": {
                "x": -0.8841497679147869,
                "y": 0.44412534475326537,
                "z": 0.3711530566215515
            }
        },
        "name": "move_to_auspresseinheit_D"
    },
    "id": "ProjEST_move_to_auspresseinheit_D_77",
    "joint_names": [
        "shoulder_pan_joint",
        "shoulder_lift_joint",
        "elbow_joint",
        "wrist_1_joint",
        "wrist_2_joint",
        "wrist_3_joint"
    ],
    "metrics": {
        "cart_traj_len": 3.941580230167861,
        "distance_elbow_joint": 3.187988464356782,
        "distance_shoulder_lift_joint": 1.3961165836249374,
        "distance_shoulder_pan_joint": 2.7978471879918176,
        "distance_wrist_1_joint": 1.347176953897202,
        "distance_wrist_2_joint": 1.652239779539912,
        "distance_wrist_3_joint": 3.938770101806891,
        "smoothness": 0.16473007234714668,
        "time": 0.106470385,
        "traj_len": 3.784195960995881,
        "weighted_distance": 5.019670906371097
    },
    "planner": "ProjEST",
    "start": {
        "state": {
            "elbow_joint": 1.8268400409724999,
            "shoulder_lift_joint": -1.0144045787793008,
            "shoulder_pan_joint": 2.6280239544362485,
            "wrist_1_joint": -0.790705565816056,
            "wrist_2_joint": 1.0573557467365533,
            "wrist_3_joint": 3.1851377467193758
        }
    },
    "waypoints": [
        {
            "positions": [
                2.6280239544362485,
                -1.0144045787793008,
                1.8268400409724999,
                -0.790705565816056,
                1.0573557467365533,
                3.1851377467193758
            ]
        },
        {
            "positions": [
                2.5866780940332896,
                -1.0530380733782856,
                1.7430949125691537,
                -0.7514366535321211,
                1.008518625114319,
                3.0499362436118704
            ]
        },
        {
            "positions": [
                2.545332233630331,
                -1.0916715679772702,
                1.6593497841658076,
                -0.7121677412481862,
                0.9596815034920849,
                2.914734740504365
            ]
        },
        {
            "positions": [
                2.503986373227372,
                -1.130305062576255,
                1.5756046557624614,
                -0.6728988289642513,
                0.9108443818698507,
                2.77953323739686
            ]
        },
        {
            "positions": [
                2.462640512824413,
                -1.1689385571752398,
                1.491859527359115,
                -0.6336299166803164,
                0.8620072602476165,
                2.644331734289355
            ]
        },
        {
            "positions": [
                2.4212946524214543,
                -1.2075720517742243,
                1.408114398955769,
                -0.5943610043963815,
                0.8131701386253822,
                2.5091302311818495
            ]
        },
        {
            "positions": [
                2.379948792018495,
                -1.2462055463732091,
                1.3243692705524228,
                -0.5550920921124466,
                0.7643330170031482,
                2.373928728074344
            ]
        },
        {
            "positions": [
                2.3386029316155366,
                -1.284839040972194,
                1.2406241421490767,
                -0.5158231798285118,
                0.7154958953809138,
                2.2387272249668393
            ]
        },
        {
            "positions": [
                2.2972570712125773,
                -1.3234725355711787,
                1.1568790137457303,
                -0.4765542675445768,
                0.6666587737586797,
                2.1035257218593335
            ]
        },
        {
            "positions": [
                2.2559112108096184,
                -1.3621060301701633,
                1.0731338853423842,
                -0.43728535526064194,
                0.6178216521364455,
                1.9683242187518286
            ]
        },
        {
            "positions": [
                2.2145653504066596,
                -1.400739524769148,
                0.9893887569390382,
                -0.398016442976707,
                0.5689845305142113,
                1.8331227156443233
            ]
        },
        {
            "positions": [
                2.1732194900037007,
                -1.4393730193681327,
                0.905643628535692,
                -0.35874753069277215,
                0.5201474088919771,
                1.6979212125368182
            ]
        },
        {
            "positions": [
                2.131873629600742,
                -1.4780065139671175,
                0.8218985001323458,
                -0.31947861840883723,
                0.4713102872697429,
                1.5627197094293128
            ]
        },
        {
            "positions": [
                2.090527769197783,
                -1.5166400085661023,
                0.7381533717289996,
                -0.28020970612490237,
                0.4224731656475087,
                1.4275182063218077
            ]
        },
        {
            "positions": [
                2.049181908794824,
                -1.555273503165087,
                0.6544082433256535,
                -0.24094079384096745,
                0.3736360440252745,
                1.2923167032143026
            ]
        },
        {
            "positions": [
                2.0078360483918654,
                -1.5939069977640716,
                0.5706631149223074,
                -0.20167188155703264,
                0.3247989224030403,
                1.1571152001067975
            ]
        },
        {
            "positions": [
                1.9664901879889065,
                -1.6325404923630564,
                0.486917986518961,
                -0.1624029692730976,
                0.275961800780806,
                1.0219136969992917
            ]
        },
        {
            "positions": [
                1.9251443275859477,
                -1.6711739869620412,
                0.4031728581156149,
                -0.1231340569891628,
                0.22712467915857193,
                0.8867121938917868
            ]
        },
        {
            "positions": [
                1.8837984671829888,
                -1.7098074815610258,
                0.31942772971226874,
                -0.08386514470522788,
                0.17828755753633774,
                0.7515106907842815
            ]
        },
        {
            "positions": [
                1.84245260678003,
                -1.7484409761600106,
                0.2356826013089226,
                -0.04459623242129307,
                0.12945043591410355,
                0.6163091876767766
            ]
        },
        {
            "positions": [
                1.8011067463770707,
                -1.7870744707589954,
                0.15193747290557647,
                -0.005327320137358038,
                0.08061331429186924,
                0.4811076845692708
            ]
        },
        {
            "positions": [
                1.7597608859741118,
                -1.8257079653579802,
                0.06819234450223033,
                0.03394159214657677,
                0.03177619266963516,
                0.3459061814617659
            ]
        },
        {
            "positions": [
                1.718415025571153,
                -1.8643414599569648,
                -0.015552783901115808,
                0.07321050443051169,
                -0.01706092895259914,
                0.21070467835426054
            ]
        },
        {
            "positions": [
                1.6770691651681942,
                -1.9029749545559496,
                -0.09929791230446194,
                0.1124794167144465,
                -0.06589805057483322,
                0.07550317524675565
            ]
        },
        {
            "positions": [
                1.6357233047652353,
                -1.9416084491549344,
                -0.1830430407078083,
                0.15174832899838153,
                -0.11473517219706753,
                -0.05969832786075013
            ]
        },
        {
            "positions": [
                1.5943774443622765,
                -1.980241943753919,
                -0.26678816911115444,
                0.19101724128231634,
                -0.16357229381930183,
                -0.19489983096825503
            ]
        },
        {
            "positions": [
                1.5530315839593176,
                -2.0188754383529037,
                -0.3505332975145004,
                0.2302861535662513,
                -0.21240941544153588,
                -0.3301013340757605
            ]
        },
        {
            "positions": [
                1.3964084187306915,
                -2.0544795950848433,
                -0.4424073998662987,
                0.259939356703969,
                -0.17763899568137026,
                -0.2915985139837827
            ]
        },
        {
            "positions": [
                1.2397852535020655,
                -2.0900837518167825,
                -0.534281502218097,
                0.28959255984168675,
                -0.1428685759212046,
                -0.253095693891805
            ]
        },
        {
            "positions": [
                1.0831620882734394,
                -2.125687908548722,
                -0.6261556045698953,
                0.3192457629794045,
                -0.108098156161039,
                -0.2145928737998272
            ]
        },
        {
            "positions": [
                0.9265389230448132,
                -2.1612920652806618,
                -0.7180297069216935,
                0.34889896611712223,
                -0.07332773640087337,
                -0.17609005370784941
            ]
        },
        {
            "positions": [
                0.7699157578161872,
                -2.1968962220126014,
                -0.8099038092734918,
                0.37855216925484,
                -0.038557316640707745,
                -0.13758723361587166
            ]
        },
        {
            "positions": [
                0.6132925925875612,
                -2.2325003787445405,
                -0.90177791162529,
                0.4082053723925577,
                -0.0037868968805421233,
                -0.09908441352389391
            ]
        },
        {
            "positions": [
                0.4566694273589349,
                -2.26810453547648,
                -0.9936520139770884,
                0.43785857553027546,
                0.030983522879623526,
                -0.06058159343191616
            ]
        },
        {
            "positions": [
                0.3000462621303088,
                -2.30370869220842,
                -1.0855261163288867,
                0.4675117786679932,
                0.06575394263978915,
                -0.02207877333993835
            ]
        },
        {
            "positions": [
                0.14342309690168276,
                -2.3393128489403594,
                -1.177400218680685,
                0.4971649818057109,
                0.1005243623999548,
                0.0164240467520394
            ]
        },
        {
            "positions": [
                -0.013200068326943315,
                -2.3749170056722986,
                -1.2692743210324833,
                0.5268181849434287,
                0.1352947821601204,
                0.05492686684401715
            ]
        },
        {
            "positions": [
                -0.16982323355556936,
                -2.410521162404238,
                -1.3611484233842814,
                0.5564713880811464,
                0.17006520192028604,
                0.09342968693599489
            ]
        }
    ]
}