{
    "goal": {
        "global_pose": {
            "orientation": {
                "w": -0.4816463035849501,
                "x": 0.5182115481033762,
                "y": 0.4908360881923453,
                "z": -0.5084816262002911
            },
            "position": {
                "x": -0.8240239810943604,
                "y": 0.19912469901144506,
                "z": 0.16403168439865112
            }
        },
        "name": "move_to_storage_D"
    },
    "id": "ProjEST_move_to_storage_D_140",
    "joint_names": [
        "shoulder_pan_joint",
        "shoulder_lift_joint",
        "elbow_joint",
        "wrist_1_joint",
        "wrist_2_joint",
        "wrist_3_joint"
    ],
    "metrics": {
        "cart_traj_len": 0.5472132298314479,
        "distance_elbow_joint": 0.5931460176173764,
        "distance_shoulder_lift_joint": 0.15233295223748078,
        "distance_shoulder_pan_joint": 0.15562173271179497,
        "distance_wrist_1_joint": 3.8252902113344436,
        "distance_wrist_2_joint": 1.8103489828758752,
        "distance_wrist_3_joint": 3.158793895476045,
        "smoothness": 0.0727850612545369,
        "time": 0.060301459,
        "traj_len": 3.113765211484806,
        "weighted_distance": 4.652822882661173
    },
    "planner": "ProjEST",
    "start": {
        "state": {
            "elbow_joint": -2.384821997420982,
            "shoulder_lift_joint": -2.2788054674887404,
            "shoulder_pan_joint": -0.18546946417610016,
            "wrist_1_joint": 1.4845937964226739,
            "wrist_2_joint": 0.1789877726866377,
            "wrist_3_joint": 0.03710572555276528
        }
    },
    "waypoints": [
        {
            "positions": [
                -0.18546946417610016,
                -2.2788054674887404,
                -2.384821997420982,
                1.4845937964226739,
                0.1789877726866377,
                0.03710572555276528
            ]
        },
        {
            "positions": [
                -0.10911605709012792,
                -2.2355632199592055,
                -2.394371674681704,
                1.4606179133930475,
                0.1861330343582664,
                0.0932923705052302
            ]
        },
        {
            "positions": [
                -0.03276265000415568,
                -2.1923209724296706,
                -2.4039213519424263,
                1.4366420303634209,
                0.19327829602989505,
                0.14947901545769515
            ]
        },
        {
            "positions": [
                -0.032884104943316124,
                -2.1895772867139036,
                -2.3800027409800957,
                1.2792529284769545,
                0.11844252688270264,
                0.2764132073564916
            ]
        },
        {
            "positions": [
                -0.033005559882476575,
                -2.186833600998136,
                -2.3560841300177655,
                1.1218638265904883,
                0.04360675773551023,
                0.40334739925528806
            ]
        },
        {
            "positions": [
                -0.03312701482163702,
                -2.184089915282369,
                -2.332165519055435,
                0.9644747247040221,
                -0.03122901141168219,
                0.5302815911540846
            ]
        },
        {
            "positions": [
                -0.03324846976079747,
                -2.181346229566602,
                -2.3082469080931043,
                0.8070856228175558,
                -0.10606478055887458,
                0.657215783052881
            ]
        },
        {
            "positions": [
                -0.03336992469995791,
                -2.178602543850835,
                -2.2843282971307737,
                0.6496965209310895,
                -0.180900549706067,
                0.7841499749516776
            ]
        },
        {
            "positions": [
                -0.03349137963911836,
                -2.1758588581350677,
                -2.260409686168443,
                0.4923074190446233,
                -0.2557363188532594,
                0.911084166850474
            ]
        },
        {
            "positions": [
                -0.03361283457827881,
                -2.1731151724193007,
                -2.236491075206113,
                0.3349183171581569,
                -0.33057208800045185,
                1.0380183587492704
            ]
        },
        {
            "positions": [
                -0.03373428951743925,
                -2.1703714867035337,
                -2.2125724642437823,
                0.17752921527169074,
                -0.4054078571476442,
                1.1649525506480667
            ]
        },
        {
            "positions": [
                -0.0338557444565997,
                -2.1676278009877663,
                -2.1886538532814517,
                0.02014011338522459,
                -0.4802436262948367,
                1.2918867425468634
            ]
        },
        {
            "positions": [
                -0.033977199395760146,
                -2.1648841152719993,
                -2.1647352423191215,
                -0.1372489885012418,
                -0.555079395442029,
                1.4188209344456602
            ]
        },
        {
            "positions": [
                -0.0340986543349206,
                -2.1621404295562323,
                -2.140816631356791,
                -0.29463809038770794,
                -0.6299151645892214,
                1.5457551263444564
            ]
        },
        {
            "positions": [
                -0.03422010927408104,
                -2.159396743840465,
                -2.1168980203944603,
                -0.4520271922741743,
                -0.704750933736414,
                1.6726893182432527
            ]
        },
        {
            "positions": [
                -0.034341564213241485,
                -2.156653058124698,
                -2.0929794094321297,
                -0.6094162941606405,
                -0.7795867028836063,
                1.799623510142049
            ]
        },
        {
            "positions": [
                -0.034463019152401936,
                -2.153909372408931,
                -2.069060798469799,
                -0.7668053960471071,
                -0.8544224720307987,
                1.9265577020408458
            ]
        },
        {
            "positions": [
                -0.03458447409156238,
                -2.151165686693164,
                -2.045142187507469,
                -0.9241944979335732,
                -0.929258241177991,
                2.053491893939642
            ]
        },
        {
            "positions": [
                -0.03470592903072283,
                -2.1484220009773964,
                -2.0212235765451383,
                -1.0815835998200394,
                -1.0040940103251834,
                2.1804260858384383
            ]
        },
        {
            "positions": [
                -0.034827383969883274,
                -2.1456783152616294,
                -1.9973049655828077,
                -1.238972701706506,
                -1.078929779472376,
                2.307360277737235
            ]
        },
        {
            "positions": [
                -0.034948838909043725,
                -2.1429346295458624,
                -1.9733863546204773,
                -1.3963618035929717,
                -1.1537655486195684,
                2.434294469636032
            ]
        },
        {
            "positions": [
                -0.03507029384820417,
                -2.140190943830095,
                -1.949467743658147,
                -1.5537509054794378,
                -1.2286013177667607,
                2.561228661534828
            ]
        },
        {
            "positions": [
                -0.03519174878736461,
                -2.137447258114328,
                -1.9255491326958163,
                -1.7111400073659044,
                -1.303437086913953,
                2.688162853433625
            ]
        },
        {
            "positions": [
                -0.035313203726525064,
                -2.134703572398561,
                -1.9016305217334857,
                -1.8685291092523706,
                -1.3782728560611455,
                2.815097045332421
            ]
        },
        {
            "positions": [
                -0.03543465866568551,
                -2.131959886682794,
                -1.8777119107711553,
                -2.025918211138837,
                -1.4531086252083378,
                2.9420312372312174
            ]
        },
        {
            "positions": [
                -0.03555611360484596,
                -2.1292162009670266,
                -1.853793299808825,
                -2.1833073130253036,
                -1.5279443943555304,
                3.068965429130014
            ]
        },
        {
            "positions": [
                -0.0356775685440064,
                -2.1264725152512596,
                -1.8298746888464943,
                -2.3406964149117697,
                -1.6027801635027228,
                3.1958996210288104
            ]
        }
    ]
}