{
    "goal": {
        "global_pose": {
            "orientation": {
                "w": 0.7047431493862688,
                "x": -0.7094548369677653,
                "y": 0.0024358444001904,
                "z": -0.0022348060817251984
            },
            "position": {
                "x": -0.39052492380142206,
                "y": 0.3671506643295288,
                "z": 0.19426114857196808
            }
        },
        "name": "move_to_magneteinheit_D"
    },
    "id": "ProjEST_move_to_magneteinheit_D_146",
    "joint_names": [
        "shoulder_pan_joint",
        "shoulder_lift_joint",
        "elbow_joint",
        "wrist_1_joint",
        "wrist_2_joint",
        "wrist_3_joint"
    ],
    "metrics": {
        "cart_traj_len": 4.594939073957543,
        "distance_elbow_joint": 3.1504631217521344,
        "distance_shoulder_lift_joint": 1.1061240247767052,
        "distance_shoulder_pan_joint": 3.715228650010113,
        "distance_wrist_1_joint": 2.4727952744462116,
        "distance_wrist_2_joint": 2.038414706899965,
        "distance_wrist_3_joint": 6.209293518397435,
        "smoothness": 0.411622515756915,
        "time": 0.231767465,
        "traj_len": 4.323461494714919,
        "weighted_distance": 5.968426619673196
    },
    "planner": "ProjEST",
    "start": {
        "state": {
            "elbow_joint": 0.7495348899011973,
            "shoulder_lift_joint": -0.6476975780737697,
            "shoulder_pan_joint": -2.711696901376276,
            "wrist_1_joint": -0.07506478080974305,
            "wrist_2_joint": 0.4329665971545858,
            "wrist_3_joint": 3.1361499051832524
        }
    },
    "waypoints": [
        {
            "positions": [
                -2.711696901376276,
                -0.6476975780737697,
                0.7495348899011973,
                -0.07506478080974305,
                0.4329665971545858,
                3.1361499051832524
            ]
        },
        {
            "positions": [
                -2.7729260399656157,
                -0.8112262053968674,
                0.7632325645516442,
                -0.008205960080323066,
                0.4485332060255306,
                3.1336292243766635
            ]
        },
        {
            "positions": [
                -2.834155178554955,
                -0.9747548327199651,
                0.7769302392020911,
                0.058652860649096916,
                0.46409981489647534,
                3.1311085435700745
            ]
        },
        {
            "positions": [
                -2.744989683246299,
                -0.9827210938579319,
                0.7099445890484389,
                0.002547965398343635,
                0.4263094262760325,
                3.002461930708045
            ]
        },
        {
            "positions": [
                -2.655824187937643,
                -0.9906873549958989,
                0.6429589388947867,
                -0.053556929852409646,
                0.3885190376555897,
                2.8738153178460157
            ]
        },
        {
            "positions": [
                -2.5666586926289874,
                -0.9986536161338657,
                0.5759732887411344,
                -0.10966182510316294,
                0.35072864903514683,
                2.7451687049839864
            ]
        },
        {
            "positions": [
                -2.4774931973203316,
                -1.0066198772718327,
                0.5089876385874822,
                -0.1657667203539162,
                0.312938260414704,
                2.616522092121957
            ]
        },
        {
            "positions": [
                -2.3883277020116758,
                -1.0145861384097996,
                0.44200198843383,
                -0.2218716156046695,
                0.2751478717942612,
                2.4878754792599276
            ]
        },
        {
            "positions": [
                -2.2991622067030195,
                -1.0225523995477663,
                0.3750163382801777,
                -0.2779765108554228,
                0.23735748317381833,
                2.359228866397898
            ]
        },
        {
            "positions": [
                -2.2099967113943637,
                -1.0305186606857333,
                0.30803068812652545,
                -0.3340814061061761,
                0.1995670945533755,
                2.230582253535869
            ]
        },
        {
            "positions": [
                -2.120831216085708,
                -1.0384849218237002,
                0.24104503797287324,
                -0.39018630135692933,
                0.1617767059329327,
                2.1019356406738394
            ]
        },
        {
            "positions": [
                -2.031665720777052,
                -1.0464511829616672,
                0.17405938781922103,
                -0.44629119660768257,
                0.12398631731248988,
                1.9732890278118103
            ]
        },
        {
            "positions": [
                -1.9425002254683963,
                -1.054417444099634,
                0.10707373766556882,
                -0.5023960918584359,
                0.08619592869204706,
                1.8446424149497807
            ]
        },
        {
            "positions": [
                -1.8533347301597405,
                -1.0623837052376008,
                0.040088087511916504,
                -0.5585009871091892,
                0.04840554007160419,
                1.7159958020877513
            ]
        },
        {
            "positions": [
                -1.7641692348510845,
                -1.0703499663755678,
                -0.026897562641735706,
                -0.6146058823599425,
                0.01061515145116132,
                1.5873491892257219
            ]
        },
        {
            "positions": [
                -1.6750037395424286,
                -1.0783162275135347,
                -0.09388321279538803,
                -0.6707107776106958,
                -0.027175237169281496,
                1.4587025763636925
            ]
        },
        {
            "positions": [
                -1.5858382442337726,
                -1.0862824886515015,
                -0.16086886294904024,
                -0.7268156728614491,
                -0.06496562578972431,
                1.330055963501663
            ]
        },
        {
            "positions": [
                -1.496672748925117,
                -1.0942487497894684,
                -0.22785451310269234,
                -0.7829205681122023,
                -0.10275601441016713,
                1.2014093506396337
            ]
        },
        {
            "positions": [
                -1.4075072536164612,
                -1.1022150109274353,
                -0.29484016325634466,
                -0.8390254633629556,
                -0.14054640303060995,
                1.0727627377776043
            ]
        },
        {
            "positions": [
                -1.3183417583078052,
                -1.1101812720654023,
                -0.361825813409997,
                -0.8951303586137089,
                -0.17833679165105276,
                0.944116124915575
            ]
        },
        {
            "positions": [
                -1.2291762629991496,
                -1.118147533203369,
                -0.4288114635636491,
                -0.9512352538644621,
                -0.21612718027149558,
                0.815469512053546
            ]
        },
        {
            "positions": [
                -1.1400107676904936,
                -1.126113794341336,
                -0.4957971137173014,
                -1.0073401491152154,
                -0.2539175688919384,
                0.6868228991915162
            ]
        },
        {
            "positions": [
                -1.0508452723818378,
                -1.134080055479303,
                -0.5627827638709535,
                -1.0634450443659689,
                -0.2917079575123812,
                0.5581762863294868
            ]
        },
        {
            "positions": [
                -0.961679777073182,
                -1.1420463166172699,
                -0.6297684140246058,
                -1.119549939616722,
                -0.32949834613282414,
                0.4295296734674574
            ]
        },
        {
            "positions": [
                -0.872514281764526,
                -1.1500125777552366,
                -0.6967540641782581,
                -1.1756548348674754,
                -0.36728873475326695,
                0.300883060605428
            ]
        },
        {
            "positions": [
                -0.7833487864558699,
                -1.1579788388932035,
                -0.7637397143319102,
                -1.2317597301182288,
                -0.40507912337370977,
                0.17223644774339864
            ]
        },
        {
            "positions": [
                -0.6941832911472141,
                -1.1659451000311705,
                -0.8307253644855626,
                -1.2878646253689818,
                -0.4428695119941527,
                0.04358983488136925
            ]
        },
        {
            "positions": [
                -0.6050177958385583,
                -1.1739113611691374,
                -0.8977110146392149,
                -1.3439695206197353,
                -0.4806599006145955,
                -0.08505677798066014
            ]
        },
        {
            "positions": [
                -0.5158523005299025,
                -1.1818776223071041,
                -0.9646966647928672,
                -1.4000744158704883,
                -0.5184502892350383,
                -0.21370339084268952
            ]
        },
        {
            "positions": [
                -0.4266868052212467,
                -1.189843883445071,
                -1.0316823149465193,
                -1.4561793111212418,
                -0.5562406778554813,
                -0.3423500037047189
            ]
        },
        {
            "positions": [
                -0.33752130991259044,
                -1.197810144583038,
                -1.0986679651001716,
                -1.5122842063719952,
                -0.594031066475924,
                -0.4709966165667483
            ]
        },
        {
            "positions": [
                -0.24835581460393463,
                -1.205776405721005,
                -1.165653615253824,
                -1.5683891016227482,
                -0.6318214550963669,
                -0.5996432294287781
            ]
        },
        {
            "positions": [
                -0.15919031929527927,
                -1.2137426668589717,
                -1.2326392654074758,
                -1.6244939968735017,
                -0.6696118437168096,
                -0.7282898422908071
            ]
        },
        {
            "positions": [
                -0.07002482398662346,
                -1.2217089279969386,
                -1.2996249155611284,
                -1.6805988921242547,
                -0.7074022323372523,
                -0.8569364551528365
            ]
        },
        {
            "positions": [
                0.019140671322032343,
                -1.2296751891349056,
                -1.3666105657147805,
                -1.7367037873750082,
                -0.7451926209576952,
                -0.9855830680148658
            ]
        },
        {
            "positions": [
                0.1083061666306886,
                -1.2376414502728723,
                -1.4335962158684326,
                -1.7928086826257612,
                -0.7829830095781382,
                -1.1142296808768952
            ]
        },
        {
            "positions": [
                0.1974716619393444,
                -1.2456077114108393,
                -1.500581866022085,
                -1.8489135778765147,
                -0.8207733981985809,
                -1.2428762937389246
            ]
        },
        {
            "positions": [
                0.286637157248,
                -1.2535739725488062,
                -1.5675675161757372,
                -1.9050184731272681,
                -0.8585637868190237,
                -1.371522906600954
            ]
        },
        {
            "positions": [
                0.2562596594901919,
                -1.2935576049640138,
                -1.6303795788351578,
                -1.9379026252922238,
                -0.8021657786082258,
                -1.5121034549309758
            ]
        },
        {
            "positions": [
                0.2258821617323839,
                -1.3335412373792217,
                -1.6931916414945785,
                -1.9707867774571797,
                -0.7457677703974279,
                -1.6526840032609977
            ]
        },
        {
            "positions": [
                0.19550466397457583,
                -1.3735248697944293,
                -1.756003704153999,
                -2.0036709296221353,
                -0.68936976218663,
                -1.7932645515910195
            ]
        },
        {
            "positions": [
                0.1651271662167678,
                -1.413508502209637,
                -1.8188157668134197,
                -2.036555081787091,
                -0.6329717539758322,
                -1.9338450999210415
            ]
        },
        {
            "positions": [
                0.13474966845895975,
                -1.4534921346248446,
                -1.8816278294728406,
                -2.069439233952047,
                -0.5765737457650342,
                -2.0744256482510632
            ]
        },
        {
            "positions": [
                0.1043721707011517,
                -1.4934757670400525,
                -1.944439892132261,
                -2.1023233861170025,
                -0.5201757375542364,
                -2.215006196581085
            ]
        },
        {
            "positions": [
                0.07399467294334364,
                -1.53345939945526,
                -2.007251954791682,
                -2.1352075382819584,
                -0.46377772934343847,
                -2.3555867449111068
            ]
        },
        {
            "positions": [
                0.043617175185535595,
                -1.5734430318704677,
                -2.0700640174511022,
                -2.1680916904469143,
                -0.40737972113264054,
                -2.496167293241129
            ]
        },
        {
            "positions": [
                0.013239677427727525,
                -1.6134266642856754,
                -2.132876080110523,
                -2.20097584261187,
                -0.35098171292184266,
                -2.6367478415711507
            ]
        },
        {
            "positions": [
                -0.01713782033008049,
                -1.6534102967008832,
                -2.195688142769944,
                -2.2338599947768256,
                -0.2945837047110448,
                -2.7773283899011725
            ]
        },
        {
            "positions": [
                -0.04751531808788856,
                -1.6933939291160909,
                -2.2585002054293644,
                -2.2667441469417815,
                -0.23818569650024696,
                -2.9179089382311942
            ]
        },
        {
            "positions": [
                -0.08197170851103659,
                -1.7085008475496868,
                -2.2804095373843105,
                -2.2633239905926583,
                -0.22212574721929715,
                -2.956717606976941
            ]
        },
        {
            "positions": [
                -0.1853408797804807,
                -1.753821602850475,
                -2.346137533249149,
                -2.2530635215452883,
                -0.17394589937644772,
                -3.0731436132141825
            ]
        }
    ]
}