{
    "goal": {
        "global_pose": {
            "orientation": {
                "w": -0.00223480608172531,
                "x": 0.0024358444001904467,
                "y": 0.7094548369677653,
                "z": -0.704743149386269
            },
            "position": {
                "x": 0.6205249238014221,
                "y": -0.6371506643295288,
                "z": 0.19426114857196808
            }
        },
        "name": "move_to_magneteinheit_B"
    },
    "id": "ProjEST_move_to_magneteinheit_B_42",
    "joint_names": [
        "shoulder_pan_joint",
        "shoulder_lift_joint",
        "elbow_joint",
        "wrist_1_joint",
        "wrist_2_joint",
        "wrist_3_joint"
    ],
    "metrics": {
        "cart_traj_len": 1.4538212857491166,
        "distance_elbow_joint": 0.725118390517129,
        "distance_shoulder_lift_joint": 1.2449318667329892,
        "distance_shoulder_pan_joint": 1.621681294368051,
        "distance_wrist_1_joint": 2.6213038142816143,
        "distance_wrist_2_joint": 2.933866524400671,
        "distance_wrist_3_joint": 3.1439226561696425,
        "smoothness": 5.921189496370268e-16,
        "time": 0.022875049,
        "traj_len": 3.505827227127728,
        "weighted_distance": 4.912620502083554
    },
    "planner": "ProjEST",
    "start": {
        "state": {
            "elbow_joint": 2.3935871308073637,
            "shoulder_lift_joint": -1.9085141043777403,
            "shoulder_pan_joint": 0.7066247067284167,
            "wrist_1_joint": -0.46782909355067076,
            "wrist_2_joint": 0.7096259085804283,
            "wrist_3_joint": -3.1358149275257428
        }
    },
    "waypoints": [
        {
            "positions": [
                0.7066247067284167,
                -1.9085141043777403,
                2.3935871308073637,
                -0.46782909355067076,
                0.7096259085804283,
                -3.1358149275257428
            ]
        },
        {
            "positions": [
                0.6559471662794151,
                -1.8696099835423343,
                2.3709271811037036,
                -0.3859133493543703,
                0.6179425796929073,
                -3.0375673445204416
            ]
        },
        {
            "positions": [
                0.6052696258304135,
                -1.8307058627069284,
                2.348267231400043,
                -0.30399760515806984,
                0.5262592508053864,
                -2.93931976151514
            ]
        },
        {
            "positions": [
                0.5545920853814119,
                -1.7918017418715226,
                2.325607281696383,
                -0.2220818609617694,
                0.43457592191786537,
                -2.841072178509839
            ]
        },
        {
            "positions": [
                0.5039145449324103,
                -1.7528976210361167,
                2.3029473319927227,
                -0.14016611676546897,
                0.3428925930303444,
                -2.7428245955045374
            ]
        },
        {
            "positions": [
                0.45323700448340876,
                -1.7139935002007107,
                2.280287382289062,
                -0.05825037256916854,
                0.25120926414282346,
                -2.6445770124992363
            ]
        },
        {
            "positions": [
                0.4025594640344071,
                -1.6750893793653048,
                2.257627432585402,
                0.023665371627131948,
                0.15952593525530245,
                -2.5463294294939347
            ]
        },
        {
            "positions": [
                0.35188192358540554,
                -1.6361852585298988,
                2.234967482881742,
                0.10558111582343238,
                0.0678426063677815,
                -2.4480818464886336
            ]
        },
        {
            "positions": [
                0.30120438313640396,
                -1.5972811376944929,
                2.2123075331780813,
                0.18749686001973281,
                -0.023840722519739455,
                -2.349834263483332
            ]
        },
        {
            "positions": [
                0.2505268426874024,
                -1.5583770168590871,
                2.189647583474421,
                0.26941260421603325,
                -0.11552405140726041,
                -2.251586680478031
            ]
        },
        {
            "positions": [
                0.1998493022384008,
                -1.5194728960236812,
                2.166987633770761,
                0.3513283484123337,
                -0.20720738029478136,
                -2.1533390974727293
            ]
        },
        {
            "positions": [
                0.14917176178939917,
                -1.4805687751882752,
                2.144327684067101,
                0.4332440926086341,
                -0.2988907091823024,
                -2.055091514467428
            ]
        },
        {
            "positions": [
                0.09849422134039754,
                -1.4416646543528693,
                2.1216677343634402,
                0.5151598368049346,
                -0.3905740380698234,
                -1.9568439314621269
            ]
        },
        {
            "positions": [
                0.04781668089139601,
                -1.4027605335174633,
                2.09900778465978,
                0.5970755810012349,
                -0.48225736695734434,
                -1.8585963484568255
            ]
        },
        {
            "positions": [
                -0.0028608595576056217,
                -1.3638564126820576,
                2.07634783495612,
                0.6789913251975355,
                -0.5739406958448653,
                -1.7603487654515242
            ]
        },
        {
            "positions": [
                -0.053538400006607145,
                -1.3249522918466516,
                2.0536878852524594,
                0.7609070693938358,
                -0.6656240247323862,
                -1.6621011824462228
            ]
        },
        {
            "positions": [
                -0.10421594045560878,
                -1.2860481710112457,
                2.0310279355487992,
                0.8428228135901363,
                -0.7573073536199072,
                -1.5638535994409215
            ]
        },
        {
            "positions": [
                -0.15489348090461041,
                -1.2471440501758397,
                2.008367985845139,
                0.9247385577864369,
                -0.8489906825074282,
                -1.4656060164356202
            ]
        },
        {
            "positions": [
                -0.20557102135361194,
                -1.2082399293404338,
                1.9857080361414787,
                1.0066543019827372,
                -0.9406740113949491,
                -1.3673584334303188
            ]
        },
        {
            "positions": [
                -0.2562485618026136,
                -1.169335808505028,
                1.9630480864378184,
                1.0885700461790377,
                -1.03235734028247,
                -1.2691108504250175
            ]
        },
        {
            "positions": [
                -0.3069261022516151,
                -1.130431687669622,
                1.9403881367341582,
                1.170485790375338,
                -1.124040669169991,
                -1.1708632674197161
            ]
        },
        {
            "positions": [
                -0.35760364270061673,
                -1.0915275668342161,
                1.9177281870304979,
                1.2524015345716386,
                -1.2157239980575119,
                -1.0726156844144148
            ]
        },
        {
            "positions": [
                -0.40828118314961837,
                -1.0526234459988102,
                1.8950682373268375,
                1.334317278767939,
                -1.3074073269450333,
                -0.9743681014091137
            ]
        },
        {
            "positions": [
                -0.45895872359862,
                -1.0137193251634042,
                1.8724082876231773,
                1.4162330229642395,
                -1.3990906558325542,
                -0.8761205184038121
            ]
        },
        {
            "positions": [
                -0.5096362640476216,
                -0.9748152043279984,
                1.849748337919517,
                1.49814876716054,
                -1.4907739847200752,
                -0.777872935398511
            ]
        },
        {
            "positions": [
                -0.560313804496623,
                -0.9359110834925924,
                1.8270883882158566,
                1.5800645113568406,
                -1.5824573136075961,
                -0.6796253523932094
            ]
        },
        {
            "positions": [
                -0.6109913449456247,
                -0.8970069626571866,
                1.8044284385121965,
                1.6619802555531407,
                -1.674140642495117,
                -0.5813777693879083
            ]
        },
        {
            "positions": [
                -0.6616688853946263,
                -0.8581028418217806,
                1.781768488808536,
                1.7438959997494412,
                -1.765823971382638,
                -0.48313018638260674
            ]
        },
        {
            "positions": [
                -0.712346425843628,
                -0.8191987209863747,
                1.7591085391048757,
                1.8258117439457417,
                -1.857507300270159,
                -0.3848826033773056
            ]
        },
        {
            "positions": [
                -0.7630239662926296,
                -0.7802946001509687,
                1.7364485894012156,
                1.9077274881420423,
                -1.94919062915768,
                -0.28663502037200406
            ]
        },
        {
            "positions": [
                -0.813701506741631,
                -0.741390479315563,
                1.7137886396975552,
                1.9896432323383424,
                -2.040873958045201,
                -0.18838743736670294
            ]
        },
        {
            "positions": [
                -0.8643790471906326,
                -0.7024863584801571,
                1.6911286899938949,
                2.071558976534643,
                -2.132557286932722,
                -0.09013985436140137
            ]
        },
        {
            "positions": [
                -0.9150565876396342,
                -0.663582237644751,
                1.6684687402902347,
                2.1534747207309435,
                -2.224240615820243,
                0.008107728643899675
            ]
        }
    ]
}