{
    "goal": {
        "global_pose": {
            "orientation": {
                "w": 0.005598929693374612,
                "x": 0.007748599140229565,
                "y": 0.7110244013736278,
                "z": -0.7031023480610252
            },
            "position": {
                "x": -0.8858502320852131,
                "y": -0.7141253447532654,
                "z": 0.3711530566215515
            }
        },
        "name": "move_to_auspresseinheit_C"
    },
    "id": "ProjEST_move_to_auspresseinheit_C_68",
    "joint_names": [
        "shoulder_pan_joint",
        "shoulder_lift_joint",
        "elbow_joint",
        "wrist_1_joint",
        "wrist_2_joint",
        "wrist_3_joint"
    ],
    "metrics": {
        "cart_traj_len": 0.4919713961197141,
        "distance_elbow_joint": 0.9915839759693263,
        "distance_shoulder_lift_joint": 0.32176203774567613,
        "distance_shoulder_pan_joint": 0.2556105084569653,
        "distance_wrist_1_joint": 0.6572405398565345,
        "distance_wrist_2_joint": 1.3185385381934336,
        "distance_wrist_3_joint": 0.05106894676790752,
        "smoothness": 0.0,
        "time": 1.179199297,
        "traj_len": 1.896260674851916,
        "weighted_distance": 2.3819574972227415
    },
    "planner": "ProjEST",
    "start": {
        "state": {
            "elbow_joint": 1.752795957773711,
            "shoulder_lift_joint": -0.9740617694225064,
            "shoulder_pan_joint": -2.967991417825858,
            "wrist_1_joint": -0.7595177689806859,
            "wrist_2_joint": 1.7443932448377395,
            "wrist_3_joint": 3.199131542505932
        }
    },
    "waypoints": [
        {
            "positions": [
                -2.967991417825858,
                -0.9740617694225064,
                1.752795957773711,
                -0.7595177689806859,
                1.7443932448377395,
                3.199131542505932
            ]
        },
        {
            "positions": [
                -2.9424303669801612,
                -0.9418855656479388,
                1.6536375601767785,
                -0.6937937149950324,
                1.612539391018396,
                3.194024647829141
            ]
        },
        {
            "positions": [
                -2.916869316134465,
                -0.9097093618733713,
                1.5544791625798458,
                -0.628069661009379,
                1.4806855371990528,
                3.1889177531523507
            ]
        },
        {
            "positions": [
                -2.8913082652887683,
                -0.8775331580988036,
                1.4553207649829132,
                -0.5623456070237256,
                1.3488316833797094,
                3.18381085847556
            ]
        },
        {
            "positions": [
                -2.865747214443072,
                -0.845356954324236,
                1.3561623673859806,
                -0.4966215530380721,
                1.2169778295603662,
                3.1787039637987693
            ]
        },
        {
            "positions": [
                -2.8401861635973753,
                -0.8131807505496684,
                1.2570039697890478,
                -0.43089749905241864,
                1.0851239757410227,
                3.1735970691219784
            ]
        },
        {
            "positions": [
                -2.8146251127516786,
                -0.7810045467751008,
                1.1578455721921155,
                -0.3651734450667652,
                0.9532701219216794,
                3.1684901744451874
            ]
        },
        {
            "positions": [
                -2.7890640619059823,
                -0.7488283430005331,
                1.0586871745951827,
                -0.2994493910811118,
                0.821416268102336,
                3.163383279768397
            ]
        },
        {
            "positions": [
                -2.7635030110602856,
                -0.7166521392259655,
                0.95952877699825,
                -0.23372533709545829,
                0.6895624142829926,
                3.158276385091606
            ]
        },
        {
            "positions": [
                -2.7379419602145894,
                -0.6844759354513978,
                0.8603703794013173,
                -0.16800128310980478,
                0.5577085604636491,
                3.1531694904148155
            ]
        },
        {
            "positions": [
                -2.7123809093688926,
                -0.6522997316768303,
                0.7612119818043848,
                -0.10227722912415137,
                0.425854706644306,
                3.1480625957380246
            ]
        }
    ]
}