{
    "goal": {
        "global_pose": {
            "orientation": {
                "w": -0.4816463035849501,
                "x": 0.5182115481033762,
                "y": 0.4908360881923453,
                "z": -0.5084816262002911
            },
            "position": {
                "x": -0.8240239810943604,
                "y": 0.19912469901144506,
                "z": 0.16403168439865112
            }
        },
        "name": "move_to_storage_D"
    },
    "id": "ProjEST_move_to_storage_D_43",
    "joint_names": [
        "shoulder_pan_joint",
        "shoulder_lift_joint",
        "elbow_joint",
        "wrist_1_joint",
        "wrist_2_joint",
        "wrist_3_joint"
    ],
    "metrics": {
        "cart_traj_len": 2.3464603987231314,
        "distance_elbow_joint": 0.7942763119459588,
        "distance_shoulder_lift_joint": 2.046472859160954,
        "distance_shoulder_pan_joint": 2.5970014747853623,
        "distance_wrist_1_joint": 3.841221022781955,
        "distance_wrist_2_joint": 2.3285911698888873,
        "distance_wrist_3_joint": 6.3321202967352,
        "smoothness": 0.3683470463013722,
        "time": 0.088058359,
        "traj_len": 4.235526311486959,
        "weighted_distance": 6.064135216289257
    },
    "planner": "ProjEST",
    "start": {
        "state": {
            "elbow_joint": -2.384821997420982,
            "shoulder_lift_joint": -2.2788054674887404,
            "shoulder_pan_joint": -0.18546946417610016,
            "wrist_1_joint": 1.4845937964226739,
            "wrist_2_joint": 0.1789877726866377,
            "wrist_3_joint": 0.03710572555276528
        }
    },
    "waypoints": [
        {
            "positions": [
                -0.18546946417610016,
                -2.2788054674887404,
                -2.384821997420982,
                1.4845937964226739,
                0.1789877726866377,
                0.03710572555276528
            ]
        },
        {
            "positions": [
                -0.07383502904544417,
                -2.1852866857519295,
                -2.3355025425154095,
                1.4715551064620085,
                0.1952219437715743,
                -0.06394445243227875
            ]
        },
        {
            "positions": [
                0.010367445934740524,
                -2.118258072608819,
                -2.2936364115743504,
                1.4114359174649427,
                0.2126478398779907,
                -0.16321869602399772
            ]
        },
        {
            "positions": [
                0.09456992091492522,
                -2.051229459465708,
                -2.2517702806332918,
                1.3513167284678769,
                0.2300737359844071,
                -0.2624929396157167
            ]
        },
        {
            "positions": [
                0.17877239589510993,
                -1.984200846322597,
                -2.2099041496922327,
                1.291197539470811,
                0.24749963209082348,
                -0.36176718320743567
            ]
        },
        {
            "positions": [
                0.2629748708752946,
                -1.9171722331794863,
                -2.168038018751174,
                1.2310783504737453,
                0.2649255281972399,
                -0.4610414267991546
            ]
        },
        {
            "positions": [
                0.3471773458554793,
                -1.8501436200363757,
                -2.126171887810115,
                1.1709591614766797,
                0.2823514243036563,
                -0.5603156703908736
            ]
        },
        {
            "positions": [
                0.43137982083566406,
                -1.7831150068932649,
                -2.084305756869056,
                1.1108399724796139,
                0.29977732041007266,
                -0.6595899139825926
            ]
        },
        {
            "positions": [
                0.5155822958158488,
                -1.716086393750154,
                -2.0424396259279973,
                1.050720783482548,
                0.3172032165164891,
                -0.7588641575743116
            ]
        },
        {
            "positions": [
                0.5997847707960334,
                -1.6490577806070432,
                -2.0005734949869383,
                0.9906015944854822,
                0.33462911262290546,
                -0.8581384011660305
            ]
        },
        {
            "positions": [
                0.6839872457762182,
                -1.5820291674639324,
                -1.9587073640458794,
                0.9304824054884165,
                0.35205500872932183,
                -0.9574126447577495
            ]
        },
        {
            "positions": [
                0.7681897207564028,
                -1.5150005543208218,
                -1.9168412331048206,
                0.8703632164913507,
                0.36948090483573826,
                -1.0566868883494684
            ]
        },
        {
            "positions": [
                0.8523921957365875,
                -1.4479719411777108,
                -1.8749751021637617,
                0.8102440274942849,
                0.3869068009421546,
                -1.1559611319411873
            ]
        },
        {
            "positions": [
                0.9365946707167723,
                -1.3809433280346002,
                -1.8331089712227029,
                0.7501248384972191,
                0.40433269704857105,
                -1.2552353755329064
            ]
        },
        {
            "positions": [
                1.0207971456969571,
                -1.3139147148914891,
                -1.7912428402816438,
                0.6900056495001533,
                0.4217585931549874,
                -1.3545096191246253
            ]
        },
        {
            "positions": [
                1.1049996206771417,
                -1.2468861017483786,
                -1.749376709340585,
                0.6298864605030876,
                0.43918448926140385,
                -1.4537838627163444
            ]
        },
        {
            "positions": [
                1.1892020956573264,
                -1.1798574886052677,
                -1.7075105783995261,
                0.5697672715060218,
                0.4566103853678202,
                -1.5530581063080633
            ]
        },
        {
            "positions": [
                1.1497720984008122,
                -1.210422807323896,
                -1.7112836394616069,
                0.4753674489942379,
                0.39045010932886204,
                -1.4000917687314707
            ]
        },
        {
            "positions": [
                1.1103421011442982,
                -1.2409881260425246,
                -1.7150567005236876,
                0.3809676264824539,
                0.3242898332899038,
                -1.247125431154878
            ]
        },
        {
            "positions": [
                1.070912103887784,
                -1.271553444761153,
                -1.7188297615857684,
                0.28656780397066994,
                0.2581295572509456,
                -1.0941590935782854
            ]
        },
        {
            "positions": [
                1.03148210663127,
                -1.3021187634797815,
                -1.7226028226478491,
                0.19216798145888603,
                0.19196928121198736,
                -0.9411927560016927
            ]
        },
        {
            "positions": [
                0.9920521093747559,
                -1.3326840821984098,
                -1.72637588370993,
                0.09776815894710206,
                0.12580900517302918,
                -0.7882264184251001
            ]
        },
        {
            "positions": [
                0.9526221121182418,
                -1.3632494009170384,
                -1.7301489447720106,
                0.0033683364353180867,
                0.05964872913407099,
                -0.6352600808485075
            ]
        },
        {
            "positions": [
                0.9131921148617277,
                -1.3938147196356667,
                -1.7339220058340914,
                -0.09103148607646583,
                -0.006511546904887255,
                -0.48229374327191477
            ]
        },
        {
            "positions": [
                0.8737621176052135,
                -1.4243800383542953,
                -1.7376950668961721,
                -0.18543130858824974,
                -0.0726718229438455,
                -0.32932740569532215
            ]
        },
        {
            "positions": [
                0.8343321203486994,
                -1.4549453570729236,
                -1.741468127958253,
                -0.27983113110003377,
                -0.13883209898280374,
                -0.17636106811872931
            ]
        },
        {
            "positions": [
                0.7949021230921853,
                -1.4855106757915522,
                -1.7452411890203336,
                -0.3742309536118177,
                -0.20499237502176187,
                -0.02339473054213692
            ]
        },
        {
            "positions": [
                0.7554721258356711,
                -1.5160759945101805,
                -1.7490142500824144,
                -0.4686307761236017,
                -0.2711526510607201,
                0.12957160703445592
            ]
        },
        {
            "positions": [
                0.7160421285791572,
                -1.5466413132288088,
                -1.7527873111444952,
                -0.5630305986353856,
                -0.33731292709967825,
                0.2825379446110483
            ]
        },
        {
            "positions": [
                0.676612131322643,
                -1.5772066319474374,
                -1.756560372206576,
                -0.6574304211471695,
                -0.4034732031386366,
                0.43550428218764115
            ]
        },
        {
            "positions": [
                0.6371821340661289,
                -1.6077719506660657,
                -1.7603334332686567,
                -0.7518302436589535,
                -0.46963347917759474,
                0.5884706197642338
            ]
        },
        {
            "positions": [
                0.5977521368096147,
                -1.6383372693846943,
                -1.7641064943307374,
                -0.8462300661707376,
                -0.535793755216553,
                0.7414369573408264
            ]
        },
        {
            "positions": [
                0.5583221395531007,
                -1.6689025881033226,
                -1.767879555392818,
                -0.9406298886825213,
                -0.6019540312555112,
                0.894403294917419
            ]
        },
        {
            "positions": [
                0.5188921422965866,
                -1.6994679068219511,
                -1.7716526164548987,
                -1.0350297111943052,
                -0.6681143072944693,
                1.0473696324940116
            ]
        },
        {
            "positions": [
                0.47946214504007245,
                -1.7300332255405797,
                -1.7754256775169794,
                -1.1294295337060893,
                -0.7342745833334277,
                1.2003359700706047
            ]
        },
        {
            "positions": [
                0.44003214778355837,
                -1.7605985442592078,
                -1.7791987385790602,
                -1.2238293562178733,
                -0.8004348593723858,
                1.3533023076471968
            ]
        },
        {
            "positions": [
                0.4006021505270443,
                -1.7911638629778364,
                -1.782971799641141,
                -1.3182291787296572,
                -0.8665951354113439,
                1.5062686452237894
            ]
        },
        {
            "positions": [
                0.3611721532705302,
                -1.821729181696465,
                -1.7867448607032217,
                -1.412629001241441,
                -0.932755411450302,
                1.659234982800382
            ]
        },
        {
            "positions": [
                0.321742156014016,
                -1.8522945004150932,
                -1.7905179217653024,
                -1.5070288237532252,
                -0.9989156874892604,
                1.8122013203769751
            ]
        },
        {
            "positions": [
                0.28231215875750193,
                -1.8828598191337216,
                -1.7942909828273832,
                -1.601428646265009,
                -1.0650759635282185,
                1.9651676579535677
            ]
        },
        {
            "positions": [
                0.24288216150098785,
                -1.9134251378523501,
                -1.798064043889464,
                -1.695828468776793,
                -1.1312362395671767,
                2.11813399553016
            ]
        },
        {
            "positions": [
                0.20345216424447377,
                -1.9439904565709785,
                -1.8018371049515447,
                -1.7902282912885767,
                -1.1973965156061348,
                2.2711003331067525
            ]
        },
        {
            "positions": [
                0.16402216698795957,
                -1.974555775289607,
                -1.8056101660136255,
                -1.8846281138003609,
                -1.2635567916450934,
                2.4240666706833456
            ]
        },
        {
            "positions": [
                0.12459216973144538,
                -2.0051210940082353,
                -1.8093832270757062,
                -1.979027936312145,
                -1.3297170676840515,
                2.577033008259938
            ]
        },
        {
            "positions": [
                0.08516217247493141,
                -2.035686412726864,
                -1.813156288137787,
                -2.0734277588239287,
                -1.3958773437230096,
                2.729999345836531
            ]
        },
        {
            "positions": [
                0.04573217521841744,
                -2.066251731445492,
                -1.8169293491998677,
                -2.1678275813357124,
                -1.4620376197619678,
                2.8829656834131234
            ]
        },
        {
            "positions": [
                0.006302177961903022,
                -2.0968170501641206,
                -1.8207024102619485,
                -2.262227403847497,
                -1.5281978958009261,
                3.035932020989716
            ]
        },
        {
            "positions": [
                -0.03312781929461088,
                -2.127382368882749,
                -1.8244754713240292,
                -2.3566272263592807,
                -1.5943581718398845,
                3.188898358566308
            ]
        }
    ]
}