{
    "goal": {
        "global_pose": {
            "orientation": {
                "w": 0.005598929693374612,
                "x": 0.007748599140229565,
                "y": 0.7110244013736278,
                "z": -0.7031023480610252
            },
            "position": {
                "x": 0.1141497679147869,
                "y": -0.7141253447532654,
                "z": 0.3711530566215515
            }
        },
        "name": "move_to_auspresseinheit_B"
    },
    "id": "ProjEST_move_to_auspresseinheit_B_11",
    "joint_names": [
        "shoulder_pan_joint",
        "shoulder_lift_joint",
        "elbow_joint",
        "wrist_1_joint",
        "wrist_2_joint",
        "wrist_3_joint"
    ],
    "metrics": {
        "cart_traj_len": 0.563959820050104,
        "distance_elbow_joint": 0.06393459197231244,
        "distance_shoulder_lift_joint": 0.2943085274420614,
        "distance_shoulder_pan_joint": 0.5771340084753964,
        "distance_wrist_1_joint": 0.33168655257156154,
        "distance_wrist_2_joint": 0.9868902068413907,
        "distance_wrist_3_joint": 0.00014951026400966683,
        "smoothness": 2.5376526478085547e-16,
        "time": 0.056816746,
        "traj_len": 1.501367176132052,
        "weighted_distance": 1.8902325723327549
    },
    "planner": "ProjEST",
    "start": {
        "state": {
            "elbow_joint": 2.019306165916698,
            "shoulder_lift_joint": -1.1220205098164344,
            "shoulder_pan_joint": -1.095207207618794,
            "wrist_1_joint": -0.8559671824921639,
            "wrist_2_joint": 0.47596387242952726,
            "wrist_3_joint": 3.159081874673826
        }
    },
    "waypoints": [
        {
            "positions": [
                -1.095207207618794,
                -1.1220205098164344,
                2.019306165916698,
                -0.8559671824921639,
                0.47596387242952726,
                3.159081874673826
            ]
        },
        {
            "positions": [
                -1.1913962090313601,
                -1.1710719310567779,
                2.008650400587979,
                -0.8006860903969036,
                0.6404455735697591,
                3.1591067930511607
            ]
        },
        {
            "positions": [
                -1.287585210443926,
                -1.2201233522971215,
                1.9979946352592606,
                -0.7454049983016433,
                0.8049272747099908,
                3.1591317114284956
            ]
        },
        {
            "positions": [
                -1.3837742118564922,
                -1.2691747735374652,
                1.9873388699305417,
                -0.6901239062063831,
                0.9694089758502227,
                3.159156629805831
            ]
        },
        {
            "positions": [
                -1.479963213269058,
                -1.3182261947778087,
                1.976683104601823,
                -0.6348428141111229,
                1.1338906769904544,
                3.1591815481831658
            ]
        },
        {
            "positions": [
                -1.5761522146816245,
                -1.3672776160181521,
                1.9660273392731042,
                -0.5795617220158625,
                1.2983723781306862,
                3.1592064665605006
            ]
        },
        {
            "positions": [
                -1.6723412160941904,
                -1.4163290372584958,
                1.9553715739443855,
                -0.5242806299206023,
                1.462854079270918,
                3.1592313849378355
            ]
        }
    ]
}