Planner,Run,Success,Length_In_Joint_Space,Length_In_Cartesian_Space(Endeffector),Smoothness,Time,Weighted_Length,Shoulder_Pan_Joint,Shoulder_Lift_Joint,Elbow_Joint,Wrist_1_Joint,Wrist_2_Joint,Wrist_3_Joint
LBKPIECE,1,true,1.735365,0.344643,0.000000,0.296952,2.269024,0.134059,0.132864,0.659140,0.586376,1.447500,0.051552
LBKPIECE,2,true,1.715526,0.343139,0.000000,0.300395,2.238758,0.133549,0.126157,0.647105,0.566172,1.437259,0.032789
LBKPIECE,3,true,1.759102,0.345639,0.000000,0.284352,2.308572,0.134073,0.138123,0.669850,0.622428,1.447296,0.082670
LBKPIECE,4,true,1.727865,0.343995,0.000000,0.245578,2.256060,0.133860,0.132002,0.656294,0.575694,1.446737,0.040929
LBKPIECE,5,true,1.699965,0.343201,0.000000,0.409144,2.211381,0.134424,0.123878,0.641722,0.541855,1.437534,0.010468
LBKPIECE,6,true,1.734753,0.344220,0.000000,0.395666,2.268289,0.133911,0.133114,0.659191,0.592323,1.438213,0.052616
LBKPIECE,7,true,1.746690,0.344457,0.000000,0.181672,2.287882,0.133710,0.135830,0.664080,0.606719,1.444415,0.066171
LBKPIECE,8,true,1.710917,0.343093,0.000000,0.301867,2.228762,0.133366,0.127051,0.647197,0.549404,1.449701,0.020518
LBKPIECE,9,true,1.683482,0.342735,0.000000,0.630275,2.191279,0.134373,0.116737,0.629536,0.506273,1.433061,0.014131
LBKPIECE,10,true,1.724053,0.343474,0.000000,0.618255,2.252226,0.133683,0.128991,0.651482,0.572370,1.443871,0.041961
LBKPIECE,11,true,1.762172,0.344255,0.000000,0.191793,2.313470,0.133788,0.140019,0.670024,0.630553,1.445387,0.085476
LBKPIECE,12,true,1.695923,0.343245,0.000000,0.344663,2.204047,0.133645,0.123597,0.641513,0.527950,1.445181,0.004269
LBKPIECE,13,true,1.720167,0.344407,0.000000,0.201959,2.245413,0.134728,0.127865,0.651128,0.575984,1.431616,0.037653
LBKPIECE,14,true,1.685825,0.342619,0.000000,0.462150,2.194484,0.133552,0.116497,0.630216,0.508791,1.440943,0.012008
LBKPIECE,15,true,1.686327,0.342663,0.000000,0.455584,2.191978,0.133312,0.118449,0.633821,0.520091,1.435071,0.002953
LBKPIECE,16,true,1.745624,0.344911,0.000000,0.422747,2.286628,0.134039,0.134284,0.663142,0.612271,1.437740,0.065727
LBKPIECE,17,true,1.711602,0.343450,0.000000,0.591558,2.230287,0.132848,0.125983,0.647634,0.554359,1.447271,0.021485
LBKPIECE,18,true,1.702353,0.343388,0.000000,0.793588,2.211225,0.133716,0.126553,0.646396,0.543437,1.447733,0.000170
LBKPIECE,19,true,1.763756,0.344956,0.000000,0.502387,2.315590,0.133239,0.140358,0.672608,0.630002,1.448135,0.086492
LBKPIECE,20,true,1.733442,0.344836,0.000000,0.684388,2.266636,0.135021,0.132009,0.658093,0.596408,1.430169,0.053122
LBKPIECE,21,true,1.730407,0.344509,0.000000,0.577995,2.260681,0.133579,0.130639,0.656421,0.581923,1.449042,0.042703
LBKPIECE,22,true,1.695707,0.343435,0.000000,0.274534,2.203322,0.133223,0.122273,0.640851,0.528438,1.450506,0.000131
LBKPIECE,23,true,1.729457,0.343634,0.000000,0.225469,2.262880,0.133505,0.128910,0.653200,0.590159,1.431049,0.054197
LBKPIECE,24,true,1.711618,0.343960,0.000000,0.372873,2.230610,0.133529,0.126156,0.648128,0.554689,1.442977,0.024159
LBKPIECE,25,true,1.690033,0.343120,0.000000,0.524514,2.197195,0.134657,0.120264,0.635831,0.527289,1.432177,0.005994
LBKPIECE,26,true,1.749273,0.344340,0.000000,0.413198,2.293816,0.133847,0.135007,0.663009,0.612902,1.441647,0.073544
LBKPIECE,27,true,1.759110,0.345267,0.000000,0.265025,2.307224,0.133951,0.139721,0.671192,0.622594,1.447804,0.079206
LBKPIECE,28,true,1.699777,0.342572,0.000000,0.522822,2.213647,0.133943,0.122645,0.639701,0.544719,1.430200,0.018035
LBKPIECE,29,true,1.682018,0.342532,0.000000,0.422227,2.189498,0.134208,0.116303,0.628722,0.505467,1.429721,0.014764
LBKPIECE,30,true,1.703861,0.343912,0.000000,0.172679,2.218139,0.133744,0.123360,0.643510,0.542797,1.445264,0.014468
LBKPIECE,31,true,1.754519,0.344439,0.000000,0.415923,2.302059,0.132986,0.136741,0.666609,0.616487,1.446382,0.079133
LBKPIECE,32,true,1.686715,0.342392,0.000000,0.306243,2.195734,0.133962,0.117779,0.630665,0.507098,1.441872,0.013634
LBKPIECE,33,true,1.686219,0.342402,0.000000,0.706065,2.191722,0.133422,0.119336,0.634113,0.518642,1.433969,0.003851
LBKPIECE,34,true,1.698650,0.342792,0.000000,0.335892,2.208493,0.133244,0.122997,0.640785,0.535331,1.449416,0.003640
LBKPIECE,35,true,1.714167,0.344070,0.000000,0.446819,2.237183,0.134778,0.125503,0.646716,0.564941,1.431179,0.035251
LBKPIECE,36,true,1.708016,0.344098,0.000000,0.429634,2.224952,0.133952,0.124976,0.646489,0.554853,1.435861,0.021190
LBKPIECE,37,true,1.767224,0.344653,0.000000,0.336389,2.322109,0.133702,0.141830,0.673487,0.634417,1.444591,0.095052
LBKPIECE,38,true,1.746430,0.344022,0.000000,0.268012,2.289135,0.133222,0.135079,0.663415,0.613585,1.432896,0.071821
LBKPIECE,39,true,1.686410,0.342502,0.000000,0.348431,2.194461,0.133946,0.117382,0.631337,0.519708,1.431240,0.010366
LBKPIECE,40,true,1.723904,0.344151,0.000000,0.541577,2.252567,0.134429,0.128185,0.651157,0.574365,1.439578,0.044134
LBKPIECE,41,true,1.692741,0.343142,0.000000,0.583084,2.199063,0.134583,0.122407,0.639229,0.536214,1.431587,0.001352
LBKPIECE,42,true,1.709012,0.342801,0.000000,0.473072,2.225869,0.133271,0.126303,0.646234,0.555882,1.440179,0.018854
LBKPIECE,43,true,1.762270,0.344204,0.000000,0.489035,2.313912,0.133596,0.139414,0.669779,0.635969,1.441049,0.085788
LBKPIECE,44,true,1.739788,0.344968,0.000000,0.214682,2.275246,0.133925,0.134515,0.662645,0.595897,1.445775,0.054104
LBKPIECE,45,true,1.690785,0.342417,0.000000,0.372780,2.200554,0.133470,0.119912,0.634794,0.518772,1.438703,0.013104
LBKPIECE,46,true,1.694494,0.343221,0.000000,0.282569,2.204148,0.133111,0.121485,0.639006,0.520100,1.448361,0.009247
LBKPIECE,47,true,1.685886,0.343251,0.000000,0.101582,2.193625,0.134304,0.117853,0.632451,0.511110,1.434321,0.012174
LBKPIECE,48,true,1.683362,0.342427,0.000000,0.478010,2.191143,0.133878,0.116782,0.629746,0.508774,1.430424,0.014103
LBKPIECE,49,true,1.757300,0.344168,0.000000,0.485209,2.305561,0.133199,0.138152,0.668209,0.627960,1.441623,0.078961
LBKPIECE,50,true,1.754743,0.344547,0.000000,0.365494,2.301310,0.133885,0.137938,0.667227,0.617246,1.445993,0.076832
LBKPIECE,51,true,1.695599,0.343521,0.000000,0.173598,2.203723,0.134175,0.122503,0.640908,0.539636,1.433971,0.003865
LBKPIECE,52,true,1.694453,0.343299,0.000000,0.234033,2.202722,0.133286,0.122101,0.639832,0.521880,1.449213,0.004861
LBKPIECE,53,true,1.756011,0.344712,0.000000,0.614601,2.302307,0.133716,0.139114,0.669246,0.617546,1.448414,0.075540
LBKPIECE,54,true,1.713148,0.344122,0.000000,0.338193,2.232150,0.134108,0.127182,0.648980,0.554688,1.446913,0.023006
LBKPIECE,55,true,1.772265,0.345225,0.000000,0.317657,2.329466,0.133959,0.142570,0.675757,0.644155,1.447628,0.096853
LBKPIECE,56,true,1.761230,0.344356,0.000000,0.541341,2.312228,0.132977,0.139574,0.670382,0.624882,1.448650,0.085468
LBKPIECE,57,true,1.748751,0.344560,0.000000,0.386335,2.291957,0.134753,0.136047,0.664441,0.622875,1.427972,0.072044
LBKPIECE,58,true,1.688289,0.343108,0.000000,0.253618,2.196285,0.134631,0.119083,0.633272,0.511619,1.441706,0.010011
LBKPIECE,59,true,1.701443,0.343537,0.000000,0.242661,2.212580,0.134152,0.124120,0.642978,0.540704,1.446013,0.006942
LBKPIECE,60,true,1.703622,0.343638,0.000000,0.546512,2.218870,0.134503,0.123979,0.643340,0.550735,1.429216,0.020554
LBKPIECE,61,true,1.685896,0.342376,0.000000,0.676811,2.190664,0.133785,0.119008,0.633308,0.520359,1.435167,0.000619
LBKPIECE,62,true,1.689465,0.342226,0.000000,0.467524,2.199664,0.133822,0.118791,0.632585,0.519131,1.434830,0.015134
LBKPIECE,63,true,1.687301,0.342653,0.000000,0.585613,2.201825,0.134841,0.116446,0.628190,0.503354,1.430609,0.033543
LBKPIECE,64,true,1.698333,0.343430,0.000000,0.746535,2.209315,0.134231,0.122609,0.640977,0.542652,1.433653,0.010215
LBKPIECE,65,true,1.757311,0.345204,0.000000,0.360554,2.305231,0.134020,0.137867,0.668546,0.620916,1.448553,0.078240
LBKPIECE,66,true,1.690749,0.342918,0.000000,0.410198,2.199906,0.134600,0.119892,0.634648,0.522279,1.435750,0.011463
LBKPIECE,67,true,1.740890,0.343792,0.000000,0.395856,2.281850,0.133232,0.132341,0.659132,0.606191,1.429654,0.070148
LBKPIECE,68,true,1.688875,0.342162,0.000000,0.558533,2.202548,0.133077,0.116630,0.630147,0.510721,1.435253,0.026472
LBKPIECE,69,true,1.692188,0.343910,0.000000,0.291482,2.204247,0.134525,0.119226,0.635055,0.507900,1.446283,0.020511
LBKPIECE,70,true,1.721273,0.343712,0.000000,0.462684,2.247387,0.133745,0.127852,0.650163,0.567214,1.446866,0.036943
LBKPIECE,71,true,1.742550,0.344602,0.000000,0.554291,2.282961,0.134501,0.133772,0.660972,0.606132,1.432905,0.068197
LBKPIECE,72,true,1.750710,0.344169,0.000000,0.408558,2.295609,0.133068,0.135737,0.664280,0.610145,1.448823,0.072934
LBKPIECE,73,true,1.762493,0.345669,0.000000,0.274556,2.314000,0.134270,0.138961,0.670999,0.628182,1.447904,0.086064
LBKPIECE,74,true,1.696621,0.343790,0.000000,0.202105,2.205996,0.133772,0.122056,0.641138,0.535374,1.439846,0.006338
LBKPIECE,75,true,1.694819,0.343096,0.000000,0.529137,2.203513,0.133279,0.121307,0.639843,0.541989,1.430923,0.005072
LBKPIECE,76,true,1.681760,0.342753,0.000000,0.324218,2.190994,0.134608,0.115077,0.626915,0.501852,1.429442,0.020423
LBKPIECE,77,true,1.692425,0.342566,0.000000,0.305767,2.204351,0.132902,0.119134,0.634368,0.511357,1.449577,0.016964
LBKPIECE,78,true,1.769502,0.345043,0.000000,0.296485,2.326390,0.133210,0.140656,0.673740,0.639715,1.446396,0.097421
LBKPIECE,79,true,1.696756,0.342775,0.000000,0.679451,2.206034,0.132873,0.122145,0.639818,0.529981,1.450706,0.003460
LBKPIECE,80,true,1.768859,0.344571,0.000000,0.358050,2.326104,0.133213,0.141045,0.673386,0.640672,1.439863,0.100682
LBKPIECE,81,true,1.691968,0.343455,0.000000,0.524681,2.198047,0.134166,0.121658,0.638824,0.526625,1.440941,0.000544
LBKPIECE,82,true,1.703358,0.342907,0.000000,0.491568,2.217579,0.133513,0.124797,0.643469,0.543196,1.439871,0.016581
LBKPIECE,83,true,1.695680,0.343134,0.000000,0.769453,2.203664,0.134029,0.123535,0.640705,0.527952,1.445370,0.003740
LBKPIECE,84,true,1.752793,0.343861,0.000000,0.353526,2.298816,0.132920,0.136759,0.666057,0.624126,1.436697,0.075724
LBKPIECE,85,true,1.715989,0.343005,0.000000,0.435825,2.237240,0.133546,0.128396,0.649416,0.564078,1.441817,0.027364
LBKPIECE,86,true,1.743428,0.343786,0.000000,0.548707,2.283783,0.133483,0.133914,0.660206,0.601534,1.446223,0.064182
LBKPIECE,87,true,1.741663,0.344117,0.000000,0.503335,2.280437,0.133972,0.133827,0.661083,0.612254,1.429754,0.062498
LBKPIECE,88,true,1.714279,0.344361,0.000000,0.536049,2.234338,0.134348,0.126427,0.648632,0.560512,1.444665,0.024169
LBKPIECE,89,true,1.687427,0.342481,0.000000,0.495437,2.199592,0.134060,0.116504,0.628821,0.502274,1.442982,0.022769
LBKPIECE,90,true,1.766639,0.345311,0.000000,0.307972,2.317302,0.133347,0.142310,0.676255,0.641181,1.448141,0.079778
LBKPIECE,91,true,1.693715,0.342369,0.000000,0.204353,2.204607,0.133183,0.120174,0.635768,0.524553,1.442920,0.012073
LBKPIECE,92,true,1.688067,0.342868,0.000000,0.470174,2.198920,0.133515,0.117912,0.632758,0.511775,1.433312,0.020297
LBKPIECE,93,true,1.709287,0.343008,0.000000,0.584763,2.228868,0.133821,0.125185,0.644762,0.557447,1.432150,0.028297
LBKPIECE,94,true,1.686516,0.342718,0.000000,0.311704,2.197785,0.134353,0.117411,0.630088,0.502593,1.436458,0.023435
LBKPIECE,95,true,1.762293,0.345263,0.000000,0.537202,2.311230,0.134318,0.140914,0.673108,0.637427,1.441139,0.078771
LBKPIECE,96,true,1.686216,0.341813,0.000000,0.931870,2.196895,0.133093,0.117055,0.629746,0.508534,1.435302,0.019595
LBKPIECE,97,true,1.761372,0.344346,0.000000,0.303041,2.312178,0.133302,0.140240,0.670820,0.625259,1.447141,0.085668
LBKPIECE,98,true,1.694671,0.342651,0.000000,0.300686,2.202889,0.133367,0.121940,0.639588,0.542492,1.430728,0.003795
LBKPIECE,99,true,1.693120,0.343576,0.000000,0.360524,2.202187,0.134606,0.120851,0.636913,0.517746,1.447854,0.008686
LBKPIECE,100,true,1.763070,0.344019,0.000000,0.353547,2.316301,0.133103,0.139221,0.669235,0.628555,1.448328,0.089975
LBKPIECE,101,true,1.749007,0.344137,0.000000,0.258604,2.291988,0.134138,0.136502,0.664723,0.621462,1.431677,0.070523
LBKPIECE,102,true,1.684226,0.342705,0.000000,0.642047,2.193454,0.134243,0.116760,0.629553,0.504723,1.432773,0.018564
LBKPIECE,103,true,1.702025,0.343431,0.000000,0.520852,2.214288,0.133788,0.123905,0.642957,0.540771,1.445528,0.009941
LBKPIECE,104,true,1.721656,0.343654,0.000000,0.154177,2.248994,0.133980,0.127716,0.650502,0.579387,1.430546,0.041969
LBKPIECE,105,true,1.734568,0.344254,0.000000,0.533373,2.267583,0.133711,0.131876,0.657614,0.588522,1.449321,0.047682
LBKPIECE,106,true,1.693466,0.342745,0.000000,0.384968,2.201449,0.133464,0.121202,0.637947,0.531276,1.440601,0.003338
LBKPIECE,107,true,1.702966,0.343420,0.000000,0.241820,2.217041,0.133682,0.124250,0.644014,0.547592,1.433521,0.017032
LBKPIECE,108,true,1.736846,0.343662,0.000000,0.554444,2.273281,0.133066,0.131782,0.657332,0.592637,1.445094,0.056723
LBKPIECE,109,true,1.706334,0.343538,0.000000,0.307802,2.223402,0.134314,0.124791,0.644626,0.554553,1.429198,0.024094
LBKPIECE,110,true,1.685638,0.341955,0.000000,0.486931,2.195683,0.133060,0.116680,0.629903,0.512285,1.431532,0.017916
LBKPIECE,111,true,1.694306,0.342652,0.000000,0.381689,2.205638,0.133773,0.121189,0.636691,0.521832,1.442037,0.015150
LBKPIECE,112,true,1.689983,0.343742,0.000000,0.183216,2.199950,0.134323,0.118515,0.634062,0.507726,1.446821,0.014594
LBKPIECE,113,true,1.712956,0.343497,0.000000,0.109205,2.233067,0.133216,0.126464,0.647961,0.555701,1.445087,0.025790
LBKPIECE,114,true,1.713453,0.343381,0.000000,0.759106,2.233756,0.132969,0.126589,0.648146,0.555391,1.447299,0.025527
LBKPIECE,115,true,1.765348,0.344239,0.000000,0.116430,2.318793,0.132664,0.140347,0.671910,0.633257,1.449464,0.088812
LBKPIECE,116,true,1.738669,0.343889,0.000000,0.648909,2.277593,0.134432,0.132792,0.657977,0.600135,1.430947,0.066688
LBKPIECE,117,true,1.698390,0.343472,0.000000,0.463545,2.207631,0.133665,0.124088,0.642969,0.533708,1.444796,0.005301
LBKPIECE,118,true,1.765308,0.345097,0.000000,0.203783,2.317380,0.133157,0.141335,0.674317,0.631814,1.449251,0.086438
LBKPIECE,119,true,1.746662,0.345102,0.000000,0.810812,2.290495,0.134852,0.134086,0.662358,0.611924,1.431604,0.076005
LBKPIECE,120,true,1.693147,0.343009,0.000000,0.471967,2.202042,0.133336,0.120447,0.638134,0.536311,1.431108,0.007411
LBKPIECE,121,true,1.729985,0.343661,0.000000,0.194165,2.261797,0.133509,0.130259,0.654533,0.585792,1.440418,0.048335
LBKPIECE,122,true,1.740999,0.344668,0.000000,0.506981,2.280418,0.134153,0.132531,0.659654,0.601464,1.438789,0.064488
LBKPIECE,123,true,1.719306,0.344157,0.000000,0.326471,2.243379,0.134420,0.128709,0.652036,0.575665,1.429300,0.035884
LBKPIECE,124,true,1.692309,0.343052,0.000000,0.414235,2.203720,0.133660,0.118551,0.634488,0.522421,1.439529,0.015260
LBKPIECE,125,true,1.735840,0.344448,0.000000,0.292644,2.270423,0.133315,0.132432,0.659354,0.589555,1.444843,0.053641
LBKPIECE,126,true,1.697149,0.344000,0.000000,0.761161,2.206031,0.134635,0.123066,0.641958,0.538544,1.436511,0.005601
LBKPIECE,127,true,1.703888,0.342946,0.000000,0.504495,2.217901,0.132908,0.124674,0.644129,0.542809,1.444388,0.014327
LBKPIECE,128,true,1.684174,0.341715,0.000000,0.465970,2.195344,0.133566,0.115960,0.627308,0.504678,1.431444,0.023486
LBKPIECE,129,true,1.685438,0.341912,0.000000,0.602233,2.196483,0.133446,0.116013,0.627877,0.503690,1.439203,0.020471
LBKPIECE,130,true,1.688512,0.342611,0.000000,0.098891,2.198763,0.133936,0.117855,0.631288,0.507411,1.445095,0.015489
LBKPIECE,131,true,1.722773,0.344625,0.000000,0.178546,2.247804,0.134464,0.129099,0.653285,0.575065,1.442456,0.033577
LBKPIECE,132,true,1.704075,0.342794,0.000000,0.165548,2.220555,0.133679,0.123597,0.642089,0.550744,1.431276,0.022486
LBKPIECE,133,true,1.722872,0.343710,0.000000,0.553943,2.248322,0.134069,0.130206,0.653450,0.578256,1.436209,0.036098
LBKPIECE,134,true,1.734123,0.344755,0.000000,0.225882,2.267807,0.134165,0.131288,0.657681,0.591614,1.440718,0.051717
LBKPIECE,135,true,1.754738,0.344797,0.000000,0.224291,2.301194,0.133090,0.137091,0.668029,0.621791,1.443609,0.075495
LBKPIECE,136,true,1.695474,0.343722,0.000000,0.452825,2.204144,0.134195,0.122534,0.641029,0.534930,1.435203,0.006741
LBKPIECE,137,true,1.687922,0.343805,0.000000,0.233323,2.192791,0.134375,0.119400,0.636631,0.527635,1.430460,0.000579
LBKPIECE,138,true,1.727840,0.344340,0.000000,0.303637,2.258789,0.134673,0.130321,0.654742,0.585774,1.428923,0.050999
LBKPIECE,139,true,1.704578,0.343076,0.000000,0.241163,2.218855,0.133310,0.124347,0.643496,0.543197,1.447944,0.013294
LBKPIECE,140,true,1.740091,0.343635,0.000000,0.305068,2.278575,0.133635,0.133956,0.660226,0.605578,1.430639,0.063884
LBKPIECE,141,true,1.756461,0.344067,0.000000,0.388199,2.305222,0.133334,0.137913,0.666887,0.618115,1.447032,0.081873
LBKPIECE,142,true,1.691147,0.343655,0.000000,0.352340,2.197690,0.134790,0.121188,0.638053,0.528843,1.433191,0.003915
LBKPIECE,143,true,1.697595,0.342521,0.000000,0.455893,2.207657,0.132926,0.123044,0.640330,0.530134,1.448999,0.006395
LBKPIECE,144,true,1.710831,0.344044,0.000000,0.790942,2.229022,0.134548,0.126679,0.648358,0.563843,1.429279,0.024237
LBKPIECE,145,true,1.771132,0.345259,0.000000,0.382698,2.328683,0.133537,0.140789,0.674092,0.643193,1.447930,0.097366
LBKPIECE,146,true,1.716711,0.343532,0.000000,0.330916,2.237886,0.133636,0.128372,0.650071,0.559556,1.449446,0.026017
LBKPIECE,147,true,1.710885,0.342609,0.000000,0.791766,2.229862,0.133141,0.125886,0.646031,0.563976,1.435012,0.023083
LBKPIECE,148,true,1.717209,0.342877,0.000000,0.482313,2.241053,0.133274,0.127844,0.648812,0.563963,1.440281,0.034634
LBKPIECE,149,true,1.694967,0.342945,0.000000,0.421048,2.203657,0.133485,0.122801,0.639593,0.520604,1.450274,0.006157
LBKPIECE,150,true,1.764394,0.345415,0.000000,0.481060,2.317487,0.134376,0.140442,0.672850,0.636821,1.436354,0.092243
BKPIECE,1,true,1.696462,0.342955,0.000000,0.150095,2.207057,0.133359,0.122216,0.640371,0.539285,1.431673,0.011081
BKPIECE,2,true,1.693697,0.343421,0.000000,0.274945,2.201251,0.134187,0.121358,0.638832,0.533513,1.438052,0.002666
BKPIECE,3,true,1.691864,0.342903,0.000000,0.119199,2.203497,0.134098,0.120018,0.634337,0.506813,1.448100,0.019040
BKPIECE,4,true,1.772619,0.345517,0.000000,0.123810,2.331132,0.134399,0.142126,0.675370,0.644506,1.444061,0.101716
BKPIECE,5,true,1.725129,0.344407,0.000000,0.257769,2.251965,0.134245,0.129958,0.653918,0.572037,1.448580,0.037330
BKPIECE,6,true,1.766475,0.345250,0.000000,0.236480,2.320904,0.133666,0.140663,0.673356,0.634170,1.445167,0.093413
BKPIECE,7,true,1.688384,0.342712,0.000000,0.237203,2.198514,0.133571,0.118931,0.633286,0.507286,1.439595,0.017971
BKPIECE,8,true,1.688494,0.342614,0.000000,0.222772,2.194387,0.133026,0.119429,0.635612,0.524809,1.436763,0.001374
BKPIECE,9,true,1.751875,0.344140,0.000000,0.171649,2.298405,0.133229,0.135914,0.664551,0.614202,1.442941,0.078229
BKPIECE,10,true,1.727523,0.343815,0.000000,0.346877,2.255693,0.134261,0.130753,0.654861,0.590311,1.434795,0.039354
BKPIECE,11,true,1.751346,0.344704,0.000000,0.104969,2.297915,0.134848,0.135246,0.663784,0.625528,1.427948,0.079861
BKPIECE,12,true,1.749747,0.343511,0.000000,0.270706,2.296388,0.133384,0.134769,0.662189,0.620974,1.429786,0.080512
BKPIECE,13,true,1.692480,0.342980,0.000000,0.152875,2.199575,0.134298,0.122203,0.638519,0.529542,1.435749,0.004175
BKPIECE,14,true,1.698577,0.343021,0.000000,0.167087,2.206658,0.133079,0.124501,0.643549,0.538154,1.445739,0.000142
BKPIECE,15,true,1.689870,0.342521,0.000000,0.324169,2.198513,0.133906,0.119632,0.633975,0.516837,1.441661,0.009649
BKPIECE,16,true,1.741114,0.344634,0.000000,0.263936,2.280170,0.134208,0.133665,0.660851,0.600002,1.437814,0.064939
BKPIECE,17,true,1.700746,0.344271,0.000000,0.175696,2.213140,0.134377,0.122885,0.642165,0.531943,1.448830,0.012338
BKPIECE,18,true,1.691400,0.343714,0.000000,0.209443,2.197252,0.134697,0.121067,0.638084,0.528183,1.438708,0.000095
BKPIECE,19,true,1.701467,0.343841,0.000000,0.125165,2.213673,0.134647,0.123587,0.642177,0.538187,1.445616,0.010778
BKPIECE,20,true,1.700162,0.342619,0.000000,0.199500,2.212178,0.132866,0.122986,0.641071,0.538045,1.446032,0.009551
BKPIECE,21,true,1.727154,0.344109,0.000000,0.361214,2.256518,0.133928,0.130762,0.655724,0.585820,1.430667,0.046162
BKPIECE,22,true,1.700138,0.343433,0.000000,0.153884,2.212877,0.133881,0.122878,0.642039,0.546442,1.430546,0.014683
BKPIECE,23,true,1.710190,0.343328,0.000000,0.247079,2.227823,0.132991,0.125968,0.646977,0.551349,1.447832,0.019632
BKPIECE,24,true,1.683227,0.342872,0.000000,0.104584,2.192318,0.134076,0.115336,0.628298,0.503655,1.434421,0.017464
BKPIECE,25,true,1.736418,0.343815,0.000000,0.196955,2.272856,0.133630,0.132258,0.657679,0.593621,1.438812,0.059146
BKPIECE,26,true,1.700270,0.344157,0.000000,0.307754,2.209730,0.134071,0.124311,0.644415,0.537029,1.447222,0.003870
BKPIECE,27,true,1.700023,0.343674,0.000000,0.144844,2.211793,0.134665,0.123241,0.641221,0.535918,1.444034,0.010998
BKPIECE,28,true,1.767188,0.344613,0.000000,0.365652,2.323399,0.133932,0.139930,0.670885,0.637254,1.443934,0.097020
BKPIECE,29,true,1.688285,0.343244,0.000000,0.207168,2.198552,0.134089,0.118498,0.633307,0.508353,1.437150,0.018911
BKPIECE,30,true,1.761163,0.344783,0.000000,0.201549,2.312966,0.133795,0.139622,0.670934,0.631404,1.435172,0.090769
BKPIECE,31,true,1.690935,0.343570,0.000000,0.207277,2.199005,0.134362,0.119557,0.635674,0.518599,1.444379,0.006691
BKPIECE,32,true,1.688666,0.342482,0.000000,0.092633,2.196076,0.133461,0.119123,0.634212,0.522127,1.436307,0.006361
BKPIECE,33,true,1.713252,0.343606,0.000000,0.331737,2.233368,0.133796,0.126253,0.648313,0.571142,1.429896,0.025832
BKPIECE,34,true,1.718941,0.343595,0.000000,0.255985,2.243684,0.134394,0.128124,0.649837,0.571865,1.433585,0.036955
BKPIECE,35,true,1.708671,0.343342,0.000000,0.242413,2.225601,0.133046,0.125515,0.646332,0.550411,1.445173,0.019079
BKPIECE,36,true,1.687183,0.343544,0.000000,0.160233,2.193365,0.134033,0.118748,0.635168,0.520102,1.432905,0.005628
BKPIECE,37,true,1.696238,0.344080,0.000000,0.247398,2.206919,0.134821,0.121455,0.639881,0.537755,1.431112,0.012200
BKPIECE,38,true,1.692074,0.342861,0.000000,0.308227,2.202405,0.132972,0.120178,0.636299,0.512781,1.447073,0.013811
BKPIECE,39,true,1.693053,0.342926,0.000000,0.105321,2.204540,0.134098,0.120000,0.634848,0.513833,1.447561,0.016087
BKPIECE,40,true,1.706039,0.343281,0.000000,0.250743,2.222609,0.134120,0.125294,0.644526,0.548999,1.434839,0.022792
BKPIECE,41,true,1.727968,0.343703,0.000000,0.181455,2.259969,0.133641,0.128957,0.652825,0.584353,1.434962,0.051134
BKPIECE,42,true,1.719004,0.344591,0.000000,0.273389,2.244839,0.134892,0.126929,0.649942,0.572252,1.429837,0.041121
BKPIECE,43,true,1.763345,0.345045,0.000000,0.120895,2.315218,0.133519,0.139179,0.671487,0.637557,1.441993,0.085650
BKPIECE,44,true,1.707427,0.342704,0.000000,0.366046,2.225181,0.132955,0.124921,0.644481,0.551897,1.437878,0.023174
BKPIECE,45,true,1.698696,0.342710,0.000000,0.198644,2.209234,0.132709,0.123186,0.641430,0.533735,1.447605,0.006903
BKPIECE,46,true,1.719758,0.344236,0.000000,0.093542,2.244964,0.133561,0.127675,0.651482,0.568670,1.438730,0.037449
BKPIECE,47,true,1.754626,0.344380,0.000000,0.165946,2.299549,0.133107,0.138683,0.668940,0.620115,1.446631,0.071235
BKPIECE,48,true,1.707637,0.344322,0.000000,0.263423,2.220067,0.133856,0.127004,0.649177,0.549574,1.449726,0.006686
BKPIECE,49,true,1.739200,0.344033,0.000000,0.107606,2.279498,0.133562,0.131066,0.657402,0.602644,1.431634,0.068508
BKPIECE,50,true,1.748777,0.344604,0.000000,0.255914,2.292962,0.134464,0.135981,0.664506,0.617721,1.429366,0.076184
BKPIECE,51,true,1.698046,0.344060,0.000000,0.162674,2.210855,0.134027,0.121820,0.640153,0.521553,1.448647,0.017160
BKPIECE,52,true,1.720270,0.344272,0.000000,0.306351,2.244595,0.134486,0.128691,0.651216,0.563294,1.447703,0.033939
BKPIECE,53,true,1.716791,0.343643,0.000000,0.119127,2.237967,0.134016,0.128206,0.650338,0.569722,1.438781,0.026310
BKPIECE,54,true,1.721147,0.343552,0.000000,0.239473,2.247287,0.133968,0.128256,0.650130,0.568357,1.443677,0.037960
BKPIECE,55,true,1.753513,0.345250,0.000000,0.287392,2.300658,0.134044,0.136294,0.666682,0.618218,1.439135,0.080434
BKPIECE,56,true,1.756667,0.344732,0.000000,0.349086,2.305791,0.133412,0.136788,0.667068,0.621714,1.444716,0.082181
BKPIECE,57,true,1.713362,0.343278,0.000000,0.268758,2.232332,0.133821,0.127983,0.648681,0.557171,1.445382,0.022573
BKPIECE,58,true,1.719784,0.343177,0.000000,0.246184,2.245220,0.133835,0.128392,0.649676,0.568072,1.440081,0.037602
BKPIECE,59,true,1.692223,0.342488,0.000000,0.267279,2.205817,0.133022,0.119080,0.633537,0.504903,1.449049,0.024029
BKPIECE,60,true,1.716381,0.344516,0.000000,0.216163,2.236261,0.133858,0.127579,0.651243,0.564369,1.447303,0.021613
BKPIECE,61,true,1.714050,0.343390,0.000000,0.123661,2.233653,0.132958,0.126794,0.649014,0.564164,1.443006,0.022032
BKPIECE,62,true,1.708240,0.343032,0.000000,0.124847,2.224337,0.133025,0.125599,0.645620,0.548123,1.449965,0.015752
BKPIECE,63,true,1.745096,0.343594,0.000000,0.219652,2.286244,0.132786,0.134992,0.661986,0.601326,1.448316,0.065955
BKPIECE,64,true,1.723159,0.343604,0.000000,0.225992,2.248471,0.133253,0.130431,0.653845,0.568765,1.448389,0.034595
BKPIECE,65,true,1.712312,0.342989,0.000000,0.180878,2.234286,0.133391,0.125398,0.645736,0.560804,1.434152,0.032532
BKPIECE,66,true,1.728815,0.344683,0.000000,0.269169,2.260562,0.134784,0.129717,0.654318,0.582845,1.435776,0.051361
BKPIECE,67,true,1.695811,0.343448,0.000000,0.290540,2.205624,0.133683,0.121880,0.639416,0.522534,1.450057,0.008206
BKPIECE,68,true,1.691134,0.342646,0.000000,0.281843,2.197512,0.133319,0.121020,0.637683,0.530811,1.435893,0.001209
BKPIECE,69,true,1.686328,0.342136,0.000000,0.339516,2.195149,0.133866,0.117753,0.630701,0.514031,1.433756,0.013595
BKPIECE,70,true,1.684635,0.343015,0.000000,0.260105,2.191160,0.133923,0.116568,0.631399,0.518733,1.430283,0.007087
BKPIECE,71,true,1.692917,0.343461,0.000000,0.139358,2.203930,0.134767,0.120496,0.636067,0.518343,1.439592,0.016702
BKPIECE,72,true,1.693432,0.343657,0.000000,0.267891,2.201915,0.133911,0.120410,0.638648,0.535072,1.433696,0.005975
BKPIECE,73,true,1.756836,0.344863,0.000000,0.124893,2.307055,0.134603,0.136717,0.666508,0.630706,1.430559,0.087381
BKPIECE,74,true,1.708031,0.342930,0.000000,0.215123,2.225886,0.133856,0.125810,0.644890,0.551452,1.436980,0.024383
BKPIECE,75,true,1.766042,0.345841,0.000000,0.277205,2.318427,0.134833,0.141410,0.674469,0.639858,1.440323,0.088011
BKPIECE,76,true,1.772931,0.344849,0.000000,0.206182,2.331469,0.133986,0.143190,0.675598,0.642103,1.446459,0.101950
BKPIECE,77,true,1.687957,0.342166,0.000000,0.246303,2.193517,0.133576,0.120312,0.634869,0.522397,1.436170,0.001876
BKPIECE,78,true,1.699958,0.343273,0.000000,0.188417,2.214179,0.134268,0.121636,0.639574,0.545124,1.430900,0.018355
BKPIECE,79,true,1.737429,0.343603,0.000000,0.299315,2.275795,0.133522,0.131583,0.656840,0.598053,1.434796,0.063867
BKPIECE,80,true,1.694553,0.342861,0.000000,0.235870,2.206068,0.133803,0.119748,0.636440,0.537458,1.430358,0.013704
BKPIECE,81,true,1.700646,0.343620,0.000000,0.409927,2.213209,0.134274,0.123636,0.642684,0.543876,1.433233,0.014493
BKPIECE,82,true,1.717791,0.343640,0.000000,0.193325,2.242892,0.133917,0.127213,0.649406,0.570915,1.429866,0.039488
BKPIECE,83,true,1.732162,0.344179,0.000000,0.149309,2.264273,0.133496,0.130771,0.656188,0.585356,1.447959,0.046616
BKPIECE,84,true,1.684891,0.342004,0.000000,0.312031,2.199149,0.133376,0.114143,0.625799,0.502785,1.430895,0.031860
BKPIECE,85,true,1.705688,0.344087,0.000000,0.311185,2.221743,0.134578,0.124404,0.644847,0.552684,1.431627,0.021231
BKPIECE,86,true,1.697295,0.344102,0.000000,0.328175,2.206288,0.134205,0.122517,0.641572,0.531929,1.446210,0.004377
BKPIECE,87,true,1.709507,0.343017,0.000000,0.226862,2.226764,0.133443,0.126677,0.646842,0.554340,1.440496,0.020614
BKPIECE,88,true,1.732367,0.343879,0.000000,0.266861,2.266912,0.134332,0.131266,0.655548,0.589792,1.432308,0.057848
BKPIECE,89,true,1.691536,0.342943,0.000000,0.387763,2.202984,0.134087,0.120051,0.634737,0.510591,1.442407,0.019423
BKPIECE,90,true,1.702241,0.343576,0.000000,0.098032,2.214015,0.133876,0.124827,0.644044,0.537016,1.448502,0.009360
BKPIECE,91,true,1.691533,0.343461,0.000000,0.344917,2.198108,0.133895,0.120200,0.637738,0.531621,1.436885,0.000944
BKPIECE,92,true,1.691257,0.343400,0.000000,0.201588,2.204621,0.134344,0.117909,0.632870,0.512293,1.438163,0.024772
BKPIECE,93,true,1.710390,0.343442,0.000000,0.263339,2.230984,0.133488,0.124159,0.644836,0.557703,1.436342,0.028905
BKPIECE,94,true,1.696621,0.342647,0.000000,0.242689,2.208736,0.133588,0.121602,0.638663,0.539249,1.430101,0.015321
BKPIECE,95,true,1.693616,0.343252,0.000000,0.181649,2.201548,0.133898,0.122266,0.639329,0.524433,1.442769,0.005639
BKPIECE,96,true,1.694986,0.343512,0.000000,0.376839,2.203185,0.133465,0.121629,0.639975,0.529251,1.445517,0.003139
BKPIECE,97,true,1.776599,0.345478,0.000000,0.306895,2.334955,0.133927,0.145208,0.679998,0.651044,1.447581,0.098545
BKPIECE,98,true,1.694088,0.342594,0.000000,0.143597,2.202498,0.133585,0.121715,0.637565,0.523624,1.449452,0.003995
BKPIECE,99,true,1.701355,0.343321,0.000000,0.225766,2.212449,0.133113,0.123540,0.643377,0.544437,1.444399,0.005743
BKPIECE,100,true,1.697301,0.343953,0.000000,0.212647,2.205576,0.133747,0.123247,0.642669,0.530901,1.447700,0.002567
BKPIECE,101,true,1.724437,0.343261,0.000000,0.173849,2.253006,0.133419,0.129295,0.651757,0.572593,1.443482,0.043138
BKPIECE,102,true,1.766830,0.344931,0.000000,0.258359,2.321601,0.133422,0.140882,0.673693,0.640220,1.439022,0.094449
BKPIECE,103,true,1.723119,0.343945,0.000000,0.212715,2.251172,0.133956,0.127875,0.650795,0.572494,1.441901,0.042119
BKPIECE,104,true,1.717372,0.343856,0.000000,0.308090,2.241051,0.134489,0.127240,0.648823,0.566850,1.437838,0.034126
BKPIECE,105,true,1.748948,0.344807,0.000000,0.181982,2.289008,0.134157,0.137405,0.666686,0.615296,1.445108,0.060168
BKPIECE,106,true,1.693792,0.343686,0.000000,0.494153,2.205775,0.133908,0.119888,0.637027,0.520139,1.439570,0.018400
BKPIECE,107,true,1.765757,0.344264,0.000000,0.170688,2.319634,0.133142,0.140900,0.672107,0.633632,1.447065,0.091053
BKPIECE,108,true,1.759315,0.343948,0.000000,0.463705,2.310260,0.133026,0.138442,0.668421,0.629106,1.439379,0.086814
BKPIECE,109,true,1.710965,0.344331,0.000000,0.276538,2.227311,0.134469,0.127333,0.649098,0.553687,1.445798,0.017014
BKPIECE,110,true,1.725035,0.343834,0.000000,0.185489,2.253398,0.133959,0.129031,0.652697,0.582846,1.435220,0.041994
BKPIECE,111,true,1.745418,0.344673,0.000000,0.195315,2.285530,0.134006,0.134962,0.663840,0.616696,1.433487,0.063491
BKPIECE,112,true,1.697481,0.343798,0.000000,0.111740,2.205655,0.134242,0.123470,0.642333,0.536083,1.443243,0.002072
BKPIECE,113,true,1.729246,0.344752,0.000000,0.134618,2.256346,0.133863,0.132183,0.658566,0.582754,1.447801,0.035125
BKPIECE,114,true,1.746381,0.344684,0.000000,0.103643,2.289465,0.134922,0.134369,0.661913,0.615099,1.430389,0.073156
BKPIECE,115,true,1.706491,0.342982,0.000000,0.180337,2.220070,0.133267,0.126628,0.646420,0.547049,1.447950,0.010799
BKPIECE,116,true,1.735183,0.344183,0.000000,0.261373,2.269195,0.133107,0.132761,0.659288,0.586958,1.446068,0.052679
BKPIECE,117,true,1.732097,0.344443,0.000000,0.206178,2.265525,0.134223,0.131509,0.657337,0.591357,1.430384,0.055351
BKPIECE,118,true,1.742934,0.344440,0.000000,0.315514,2.283698,0.133475,0.133355,0.661611,0.609132,1.432160,0.068084
BKPIECE,119,true,1.734934,0.344715,0.000000,0.281446,2.268761,0.134021,0.132099,0.658449,0.587128,1.446445,0.051854
BKPIECE,120,true,1.730522,0.344462,0.000000,0.298908,2.260819,0.134166,0.132114,0.657277,0.579362,1.446343,0.045446
BKPIECE,121,true,1.690672,0.343367,0.000000,0.151961,2.202385,0.134286,0.117968,0.633391,0.518553,1.434769,0.019403
BKPIECE,122,true,1.689122,0.342310,0.000000,0.230613,2.200603,0.133883,0.118295,0.630966,0.503290,1.447167,0.019532
BKPIECE,123,true,1.745459,0.343989,0.000000,0.121826,2.285298,0.133637,0.135668,0.663393,0.612949,1.438956,0.062026
BKPIECE,124,true,1.682751,0.342684,0.000000,0.181263,2.192472,0.134074,0.114703,0.626984,0.501804,1.434692,0.019394
BKPIECE,125,true,1.760638,0.345285,0.000000,0.277579,2.307870,0.134046,0.141256,0.673445,0.629895,1.445883,0.075321
BKPIECE,126,true,1.744977,0.344548,0.000000,0.188483,2.286027,0.133948,0.134863,0.663373,0.613336,1.431210,0.068214
BKPIECE,127,true,1.691644,0.342457,0.000000,0.169864,2.199802,0.133241,0.120999,0.636832,0.523433,1.440267,0.006886
BKPIECE,128,true,1.688704,0.342422,0.000000,0.337331,2.196844,0.133450,0.118209,0.633178,0.525046,1.434320,0.007518
BKPIECE,129,true,1.693261,0.342302,0.000000,0.191059,2.201034,0.133616,0.121786,0.637744,0.534369,1.436192,0.003427
BKPIECE,130,true,1.697798,0.344092,0.000000,0.105614,2.207821,0.134380,0.123022,0.642263,0.536150,1.437608,0.009097
BKPIECE,131,true,1.690481,0.342774,0.000000,0.188916,2.198347,0.134010,0.120229,0.635084,0.516283,1.445518,0.006602
BKPIECE,132,true,1.707054,0.343423,0.000000,0.176145,2.222387,0.132914,0.124971,0.645708,0.546177,1.449736,0.014528
BKPIECE,133,true,1.684381,0.341938,0.000000,0.146319,2.189188,0.133293,0.118402,0.632105,0.518234,1.433036,0.002068
BKPIECE,134,true,1.684736,0.343251,0.000000,0.241648,2.191501,0.134628,0.117102,0.631473,0.516056,1.429864,0.009212
BKPIECE,135,true,1.722142,0.343543,0.000000,0.242568,2.249850,0.134151,0.128180,0.650602,0.579158,1.430470,0.043211
BKPIECE,136,true,1.733598,0.343691,0.000000,0.243318,2.269408,0.133607,0.130497,0.655201,0.591900,1.435366,0.058793
BKPIECE,137,true,1.686289,0.343070,0.000000,0.107607,2.194800,0.134700,0.118268,0.632084,0.511355,1.432107,0.015057
BKPIECE,138,true,1.685470,0.343103,0.000000,0.258084,2.196711,0.134310,0.116753,0.630135,0.502295,1.432200,0.025117
BKPIECE,139,true,1.729049,0.344754,0.000000,0.170872,2.257875,0.134232,0.131223,0.657401,0.588719,1.436403,0.041633
BKPIECE,140,true,1.733957,0.344261,0.000000,0.271174,2.265136,0.134357,0.133322,0.658682,0.589482,1.446775,0.043988
BKPIECE,141,true,1.734920,0.344472,0.000000,0.299755,2.266449,0.134477,0.133539,0.659541,0.593830,1.444100,0.044458
BKPIECE,142,true,1.681447,0.342464,0.000000,0.261766,2.189691,0.134100,0.115017,0.626892,0.502156,1.432870,0.016228
BKPIECE,143,true,1.696433,0.343032,0.000000,0.251626,2.205275,0.133251,0.121944,0.639867,0.533295,1.446999,0.002529
BKPIECE,144,true,1.769420,0.345078,0.000000,0.178150,2.323144,0.133994,0.143003,0.675851,0.642423,1.447425,0.088150
BKPIECE,145,true,1.722250,0.344176,0.000000,0.219963,2.249247,0.134476,0.129253,0.652729,0.576572,1.429837,0.043279
BKPIECE,146,true,1.709756,0.343339,0.000000,0.263984,2.224182,0.133133,0.127874,0.649344,0.553974,1.448131,0.010808
BKPIECE,147,true,1.720087,0.343583,0.000000,0.258981,2.247167,0.133368,0.126707,0.649409,0.572644,1.434725,0.041846
BKPIECE,148,true,1.709212,0.343721,0.000000,0.286877,2.224940,0.134023,0.127285,0.647843,0.546863,1.448695,0.016697
BKPIECE,149,true,1.762902,0.345688,0.000000,0.219343,2.313793,0.134429,0.140359,0.672591,0.628059,1.447019,0.085367
BKPIECE,150,true,1.696211,0.343821,0.000000,0.124917,2.204994,0.134620,0.122108,0.640021,0.533178,1.442722,0.004483
KPIECE,1,true,1.722172,0.344104,0.000000,0.016705,2.248313,0.133580,0.128977,0.652891,0.570724,1.441101,0.038604
KPIECE,2,true,1.758208,0.345065,0.000000,0.050039,2.305691,0.134242,0.139503,0.670110,0.622623,1.447347,0.077471
KPIECE,3,true,1.715077,0.343761,0.000000,0.067715,2.236836,0.133671,0.126703,0.649095,0.567704,1.434389,0.029927
KPIECE,4,true,1.727992,0.344555,0.000000,0.088767,2.260339,0.134871,0.128919,0.653184,0.585383,1.429408,0.054192
KPIECE,5,true,1.743528,0.343783,0.000000,0.201358,2.285080,0.133974,0.133552,0.659517,0.606229,1.437768,0.068852
KPIECE,6,true,1.751657,0.343817,0.000000,0.139957,2.296322,0.132822,0.137225,0.665704,0.610697,1.449617,0.072238
KPIECE,7,true,1.749916,0.345131,0.000000,0.363032,2.292250,0.134284,0.136640,0.666575,0.618565,1.438650,0.067493
KPIECE,8,true,1.714895,0.343569,0.000000,0.119423,2.236410,0.133172,0.126891,0.648953,0.559511,1.443524,0.028814
KPIECE,9,true,1.761899,0.344622,0.000000,0.015744,2.315233,0.133491,0.138711,0.669999,0.633949,1.434216,0.093924
KPIECE,10,true,1.683717,0.342094,0.000000,0.302883,2.188303,0.133416,0.117873,0.631676,0.518759,1.431353,0.001827
KPIECE,11,true,1.686284,0.342328,0.000000,0.090572,2.195722,0.133913,0.117012,0.630205,0.514881,1.432325,0.015217
KPIECE,12,true,1.736286,0.344413,0.000000,0.088580,2.273477,0.134604,0.131738,0.657393,0.596936,1.430965,0.063053
KPIECE,13,true,1.710425,0.343471,0.000000,0.043285,2.227349,0.133364,0.127076,0.648159,0.550958,1.447422,0.018574
KPIECE,14,true,1.717610,0.344501,0.000000,0.114383,2.239894,0.133891,0.127468,0.651110,0.565111,1.443381,0.029225
KPIECE,15,true,1.741377,0.344087,0.000000,0.107854,2.279882,0.134128,0.134190,0.660512,0.602150,1.439517,0.061899
KPIECE,16,true,1.693041,0.343185,0.000000,0.137556,2.200176,0.133132,0.121440,0.639421,0.528484,1.441920,0.001991
KPIECE,17,true,1.743762,0.345056,0.000000,0.061653,2.282475,0.134195,0.135218,0.663555,0.599564,1.446925,0.061248
KPIECE,18,true,1.730545,0.344401,0.000000,0.027493,2.260982,0.134329,0.131729,0.656405,0.578895,1.448501,0.044928
KPIECE,19,true,1.750445,0.344512,0.000000,0.142322,2.295886,0.133792,0.135404,0.664448,0.619380,1.434414,0.076620
KPIECE,20,true,1.730412,0.344230,0.000000,0.063690,2.259946,0.133320,0.132297,0.658037,0.578971,1.449341,0.042360
KPIECE,21,true,1.715403,0.344592,0.000000,0.125308,2.235556,0.134508,0.128144,0.650982,0.559208,1.443635,0.026130
KPIECE,22,true,1.749358,0.344254,0.000000,0.154028,2.292567,0.133951,0.135881,0.663595,0.611252,1.446793,0.068782
KPIECE,23,true,1.687832,0.342952,0.000000,0.102614,2.200167,0.133556,0.116519,0.631201,0.512127,1.430919,0.024457
KPIECE,24,true,1.687214,0.342235,0.000000,0.057810,2.199906,0.133065,0.116230,0.629704,0.508976,1.433512,0.025205
KPIECE,25,true,1.759597,0.344455,0.000000,0.032922,2.311031,0.133498,0.138439,0.668964,0.629027,1.436859,0.089397
KPIECE,26,true,1.707682,0.343439,0.000000,0.139351,2.222331,0.133683,0.125691,0.646222,0.554697,1.443883,0.012001
KPIECE,27,true,1.690617,0.342627,0.000000,0.026070,2.197874,0.133157,0.120292,0.636838,0.529044,1.434283,0.004569
KPIECE,28,true,1.692360,0.343571,0.000000,0.113935,2.203268,0.133951,0.119325,0.635417,0.511250,1.449218,0.014920
KPIECE,29,true,1.693171,0.343053,0.000000,0.032264,2.207079,0.134135,0.119140,0.634082,0.514802,1.439771,0.024899
KPIECE,30,true,1.685219,0.343564,0.000000,0.088690,2.191486,0.134909,0.117729,0.632587,0.516481,1.430346,0.007911
KPIECE,31,true,1.693996,0.343507,0.000000,0.045134,2.203320,0.133825,0.121131,0.638616,0.525059,1.442041,0.008949
KPIECE,32,true,1.692701,0.343744,0.000000,0.123132,2.200303,0.134483,0.121348,0.638069,0.518062,1.448509,0.004764
KPIECE,33,true,1.759896,0.345347,0.000000,0.011031,2.310583,0.134865,0.138996,0.670101,0.632256,1.432730,0.088286
KPIECE,34,true,1.691020,0.342676,0.000000,0.207434,2.200535,0.133115,0.119756,0.635183,0.512574,1.447608,0.011313
KPIECE,35,true,1.755113,0.344805,0.000000,0.059700,2.302214,0.133593,0.137621,0.668345,0.624755,1.437204,0.078903
KPIECE,36,true,1.736715,0.344863,0.000000,0.012134,2.270281,0.134130,0.133109,0.660882,0.601775,1.436347,0.049936
KPIECE,37,true,1.682721,0.342383,0.000000,0.173491,2.189290,0.133558,0.115776,0.629133,0.513108,1.431615,0.008360
KPIECE,38,true,1.687599,0.342299,0.000000,0.262769,2.196483,0.133989,0.118227,0.631273,0.511263,1.441190,0.012048
KPIECE,39,true,1.741418,0.343720,0.000000,0.074023,2.279494,0.133890,0.134396,0.660504,0.605754,1.438183,0.059810
KPIECE,40,true,1.704326,0.342680,0.000000,0.114104,2.220234,0.133270,0.123914,0.642832,0.552024,1.432689,0.019999
KPIECE,41,true,1.692182,0.343157,0.000000,0.097081,2.201118,0.134453,0.120768,0.636046,0.516886,1.446100,0.009228
KPIECE,42,true,1.696753,0.342991,0.000000,0.100796,2.206797,0.133510,0.122046,0.639517,0.532332,1.444483,0.007084
KPIECE,43,true,1.769888,0.344790,0.000000,0.133413,2.326984,0.133213,0.141783,0.674891,0.642821,1.440063,0.099733
KPIECE,44,true,1.702881,0.343196,0.000000,0.071128,2.216837,0.133763,0.123728,0.642289,0.541086,1.444398,0.014539
KPIECE,45,true,1.704921,0.342778,0.000000,0.324377,2.221397,0.133178,0.123311,0.642092,0.548005,1.440496,0.019674
KPIECE,46,true,1.717865,0.343333,0.000000,0.132355,2.241500,0.133650,0.128483,0.650062,0.563363,1.441106,0.034396
KPIECE,47,true,1.715349,0.343399,0.000000,0.127176,2.238132,0.133460,0.125917,0.646956,0.559087,1.446278,0.030724
KPIECE,48,true,1.728733,0.343596,0.000000,0.196646,2.260556,0.133717,0.130657,0.654611,0.584104,1.433360,0.052067
KPIECE,49,true,1.699942,0.342841,0.000000,0.220064,2.213164,0.134028,0.122656,0.639886,0.540940,1.437230,0.015061
KPIECE,50,true,1.706691,0.344159,0.000000,0.196566,2.220211,0.133476,0.125455,0.647205,0.546628,1.450148,0.009882
KPIECE,51,true,1.740976,0.344507,0.000000,0.014225,2.279909,0.134336,0.133919,0.660885,0.601943,1.434788,0.065127
KPIECE,52,true,1.691159,0.343206,0.000000,0.052609,2.198647,0.134271,0.119861,0.636532,0.534651,1.430025,0.004678
KPIECE,53,true,1.721046,0.343464,0.000000,0.287821,2.247351,0.133818,0.128304,0.650739,0.575502,1.434189,0.039448
KPIECE,54,true,1.754125,0.344736,0.000000,0.065707,2.300615,0.133848,0.137111,0.666561,0.615866,1.447127,0.076441
KPIECE,55,true,1.724803,0.343714,0.000000,0.302613,2.250020,0.133710,0.131272,0.654920,0.574959,1.447489,0.032597
KPIECE,56,true,1.692134,0.342470,0.000000,0.220746,2.200174,0.133370,0.121033,0.636436,0.519161,1.448351,0.004967
KPIECE,57,true,1.702037,0.343901,0.000000,0.068500,2.211591,0.134045,0.125534,0.645662,0.540974,1.448197,0.002517
KPIECE,58,true,1.698089,0.343463,0.000000,0.184165,2.210420,0.134047,0.122131,0.639457,0.525009,1.448283,0.014580
KPIECE,59,true,1.685632,0.342599,0.000000,0.093454,2.194699,0.134006,0.117286,0.630549,0.508518,1.435160,0.015836
KPIECE,60,true,1.731408,0.343757,0.000000,0.053567,2.262834,0.133893,0.131702,0.655969,0.585480,1.444292,0.046436
KPIECE,61,true,1.737182,0.344979,0.000000,0.252283,2.272930,0.134022,0.132486,0.660024,0.594503,1.439629,0.057139
KPIECE,62,true,1.723768,0.344310,0.000000,0.194157,2.249946,0.133725,0.129442,0.653613,0.569972,1.448344,0.036281
KPIECE,63,true,1.690978,0.342510,0.000000,0.082224,2.202538,0.133933,0.118537,0.632509,0.515984,1.441106,0.017338
KPIECE,64,true,1.694267,0.342615,0.000000,0.100767,2.206119,0.132812,0.120017,0.636029,0.516498,1.450450,0.014736
KPIECE,65,true,1.769515,0.345040,0.000000,0.072719,2.325629,0.133755,0.142238,0.675291,0.642484,1.439946,0.097468
KPIECE,66,true,1.682308,0.342409,0.000000,0.137894,2.189136,0.134421,0.116672,0.628731,0.506794,1.431719,0.011823
KPIECE,67,true,1.727188,0.344795,0.000000,0.346998,2.256910,0.134712,0.129999,0.654716,0.578658,1.438374,0.046717
KPIECE,68,true,1.690628,0.342741,0.000000,0.082232,2.203119,0.134160,0.118421,0.632517,0.515080,1.435665,0.022383
KPIECE,69,true,1.716214,0.344254,0.000000,0.013550,2.238130,0.134103,0.126834,0.650212,0.574019,1.430633,0.029590
KPIECE,70,true,1.727101,0.344466,0.000000,0.078729,2.256953,0.134886,0.129815,0.653888,0.583345,1.434272,0.046670
KPIECE,71,true,1.704537,0.343440,0.000000,0.170919,2.220748,0.133478,0.123675,0.643724,0.549319,1.433543,0.021706
KPIECE,72,true,1.749260,0.344985,0.000000,0.072171,2.290692,0.133894,0.137334,0.667056,0.610433,1.445457,0.065736
KPIECE,73,true,1.735031,0.344274,0.000000,0.057464,2.268381,0.134134,0.133143,0.658520,0.585422,1.448426,0.050687
KPIECE,74,true,1.718828,0.343504,0.000000,0.171547,2.245019,0.133380,0.126374,0.648995,0.574777,1.430722,0.040121
KPIECE,75,true,1.689351,0.342864,0.000000,0.042494,2.203927,0.133511,0.115948,0.629839,0.504794,1.441043,0.028774
KPIECE,76,true,1.770789,0.344936,0.000000,0.194843,2.327740,0.134183,0.142118,0.674217,0.642167,1.445505,0.097503
KPIECE,77,true,1.683558,0.341997,0.000000,0.100744,2.193311,0.133090,0.115777,0.628320,0.505014,1.433101,0.019065
KPIECE,78,true,1.748301,0.343479,0.000000,0.253825,2.293646,0.133328,0.134780,0.661685,0.613748,1.435527,0.077490
KPIECE,79,true,1.747875,0.344389,0.000000,0.060223,2.291335,0.134084,0.135963,0.664301,0.614852,1.431442,0.074428
KPIECE,80,true,1.697312,0.342604,0.000000,0.090848,2.208434,0.133481,0.122486,0.639529,0.535961,1.438475,0.010938
KPIECE,81,true,1.693210,0.343011,0.000000,0.080942,2.206740,0.133417,0.119125,0.634437,0.508149,1.449070,0.022762
KPIECE,82,true,1.717173,0.343166,0.000000,0.287221,2.242914,0.133463,0.125786,0.647132,0.570340,1.432288,0.039675
KPIECE,83,true,1.685952,0.343227,0.000000,0.055668,2.199781,0.134411,0.115127,0.628164,0.500778,1.432084,0.031870
KPIECE,84,true,1.714379,0.343253,0.000000,0.101050,2.234843,0.133963,0.127719,0.647956,0.554936,1.448550,0.025971
KPIECE,85,true,1.698681,0.343355,0.000000,0.025502,2.210828,0.134056,0.121889,0.640392,0.545886,1.430228,0.013065
KPIECE,86,true,1.701434,0.343782,0.000000,0.098323,2.214836,0.134824,0.122947,0.641634,0.546317,1.434006,0.015149
KPIECE,87,true,1.712875,0.343280,0.000000,0.058220,2.235092,0.133225,0.125270,0.646533,0.562529,1.433603,0.032781
KPIECE,88,true,1.687405,0.343307,0.000000,0.251331,2.196487,0.133954,0.117691,0.633049,0.514329,1.433739,0.014575
KPIECE,89,true,1.690777,0.342669,0.000000,0.802618,2.201608,0.133646,0.119718,0.633993,0.506068,1.448324,0.016978
KPIECE,90,true,1.685147,0.342320,0.000000,0.084790,2.196912,0.133171,0.115782,0.628867,0.504350,1.432746,0.024802
KPIECE,91,true,1.763994,0.345629,0.000000,0.025654,2.317841,0.134697,0.139225,0.671244,0.634722,1.437584,0.094203
KPIECE,92,true,1.752899,0.344451,0.000000,0.099913,2.298287,0.134243,0.137327,0.665664,0.615054,1.446319,0.074047
KPIECE,93,true,1.711987,0.343869,0.000000,0.205184,2.230773,0.134859,0.126681,0.647422,0.562423,1.436000,0.023514
KPIECE,94,true,1.738196,0.344405,0.000000,0.074911,2.275822,0.133283,0.132200,0.659482,0.596115,1.438563,0.061681
KPIECE,95,true,1.689686,0.342830,0.000000,0.101286,2.197486,0.134238,0.119730,0.634401,0.517795,1.441643,0.007233
KPIECE,96,true,1.700379,0.343760,0.000000,0.086806,2.212024,0.134229,0.123196,0.641974,0.536885,1.445137,0.009869
KPIECE,97,true,1.714033,0.343502,0.000000,0.018469,2.236645,0.134700,0.126415,0.646844,0.566534,1.428694,0.034722
KPIECE,98,true,1.761567,0.344927,0.000000,0.099827,2.312025,0.134245,0.140302,0.671195,0.628720,1.443691,0.084964
KPIECE,99,true,1.705581,0.343788,0.000000,0.071170,2.219194,0.134508,0.125102,0.645215,0.554437,1.438110,0.011634
KPIECE,100,true,1.684669,0.341904,0.000000,0.383096,2.194360,0.133122,0.116665,0.629053,0.503339,1.438094,0.017836
KPIECE,101,true,1.739598,0.344730,0.000000,0.057805,2.275043,0.133934,0.134829,0.662556,0.596297,1.443850,0.054735
KPIECE,102,true,1.687255,0.342640,0.000000,0.098629,2.194182,0.133036,0.118605,0.634104,0.517096,1.437463,0.006524
KPIECE,103,true,1.757762,0.344670,0.000000,0.111713,2.307436,0.133710,0.138208,0.668664,0.625660,1.438100,0.085386
KPIECE,104,true,1.685409,0.342399,0.000000,0.058839,2.195552,0.134211,0.117650,0.630074,0.505330,1.432160,0.021178
KPIECE,105,true,1.726422,0.343493,0.000000,0.015325,2.251727,0.133312,0.132106,0.656439,0.582155,1.445459,0.031063
KPIECE,106,true,1.723270,0.343237,0.000000,0.011938,2.249355,0.133455,0.129602,0.651896,0.571057,1.448415,0.035233
KPIECE,107,true,1.682696,0.343018,0.000000,0.120760,2.192330,0.134108,0.115047,0.628157,0.502850,1.430611,0.020692
KPIECE,108,true,1.681220,0.341983,0.000000,0.077255,2.190848,0.133109,0.114645,0.626483,0.499617,1.431600,0.021049
KPIECE,109,true,1.727242,0.344267,0.000000,0.067110,2.257108,0.133645,0.129109,0.654006,0.581785,1.440257,0.044563
KPIECE,110,true,1.729764,0.344413,0.000000,0.126307,2.259949,0.134591,0.130865,0.655945,0.591497,1.434580,0.044605
KPIECE,111,true,1.714755,0.343110,0.000000,0.350825,2.234157,0.133046,0.128454,0.649840,0.556761,1.450257,0.022028
KPIECE,112,true,1.691465,0.343095,0.000000,0.117714,2.199724,0.134638,0.120320,0.636100,0.530601,1.431659,0.007736
KPIECE,113,true,1.692236,0.343221,0.000000,0.024894,2.201601,0.134525,0.120154,0.636218,0.529303,1.432843,0.010619
KPIECE,114,true,1.695528,0.342610,0.000000,0.089986,2.207315,0.133660,0.120207,0.636680,0.538182,1.432930,0.013157
KPIECE,115,true,1.719952,0.344361,0.000000,0.071959,2.244189,0.134121,0.127569,0.651623,0.579091,1.432603,0.033228
KPIECE,116,true,1.689692,0.343125,0.000000,0.088492,2.200587,0.134216,0.117773,0.632196,0.511191,1.443030,0.016653
KPIECE,117,true,1.743845,0.344556,0.000000,0.214587,2.284087,0.134293,0.133902,0.660841,0.601858,1.446002,0.064099
KPIECE,118,true,1.735309,0.343901,0.000000,0.026793,2.270432,0.133107,0.131339,0.657210,0.591723,1.443995,0.053924
KPIECE,119,true,1.715583,0.343065,0.000000,0.154851,2.239935,0.133239,0.126089,0.647422,0.567712,1.431159,0.037606
KPIECE,120,true,1.751288,0.344324,0.000000,0.092031,2.295494,0.133024,0.136748,0.666362,0.616244,1.443225,0.071407
KPIECE,121,true,1.763948,0.344943,0.000000,0.090237,2.318125,0.134168,0.138494,0.669619,0.637289,1.438987,0.092956
KPIECE,122,true,1.685440,0.342089,0.000000,0.044995,2.192441,0.133307,0.118176,0.632018,0.516512,1.431812,0.008883
KPIECE,123,true,1.731883,0.343662,0.000000,0.157213,2.264705,0.134198,0.131793,0.656287,0.595368,1.429445,0.052328
KPIECE,124,true,1.690031,0.342554,0.000000,0.093005,2.198832,0.134036,0.119421,0.634393,0.527532,1.430519,0.010304
KPIECE,125,true,1.756327,0.343966,0.000000,0.012151,2.306288,0.133520,0.137368,0.666338,0.624973,1.435665,0.086821
KPIECE,126,true,1.706720,0.343892,0.000000,0.127154,2.222859,0.134330,0.125361,0.645986,0.553704,1.432515,0.020996
KPIECE,127,true,1.769817,0.344964,0.000000,0.090394,2.327476,0.133230,0.140400,0.673238,0.639896,1.445983,0.099507
KPIECE,128,true,1.693064,0.342333,0.000000,0.067249,2.202555,0.133316,0.120213,0.636043,0.531342,1.437666,0.007888
KPIECE,129,true,1.750847,0.344226,0.000000,0.163365,2.295881,0.133859,0.135879,0.664343,0.620458,1.436707,0.074218
KPIECE,130,true,1.694915,0.343317,0.000000,0.071560,2.207407,0.134290,0.120199,0.636131,0.520279,1.444051,0.017789
KPIECE,131,true,1.690138,0.343102,0.000000,0.253772,2.202983,0.133684,0.117943,0.632866,0.508757,1.438821,0.024494
KPIECE,132,true,1.755782,0.344436,0.000000,0.091062,2.304792,0.133459,0.136615,0.666045,0.619702,1.444308,0.082643
KPIECE,133,true,1.758676,0.345193,0.000000,0.112458,2.307726,0.134653,0.138300,0.669245,0.634364,1.434468,0.081913
KPIECE,134,true,1.752713,0.344424,0.000000,0.033447,2.301240,0.133405,0.135120,0.664744,0.623869,1.429898,0.084967
KPIECE,135,true,1.712677,0.343075,0.000000,0.349810,2.235541,0.133580,0.124612,0.644994,0.564810,1.430956,0.034309
KPIECE,136,true,1.718729,0.343033,0.000000,0.072985,2.244518,0.133893,0.127724,0.648664,0.570177,1.433491,0.040080
KPIECE,137,true,1.735292,0.344561,0.000000,0.072935,2.268989,0.133845,0.132220,0.658618,0.589338,1.446695,0.050521
KPIECE,138,true,1.695525,0.342818,0.000000,0.098749,2.205781,0.133677,0.121417,0.638306,0.534232,1.437913,0.009260
KPIECE,139,true,1.712795,0.342849,0.000000,0.135056,2.236076,0.134012,0.125268,0.644633,0.562685,1.430457,0.036613
KPIECE,140,true,1.681325,0.342412,0.000000,0.022506,2.190625,0.134419,0.114386,0.625566,0.501758,1.431227,0.019498
KPIECE,141,true,1.690010,0.342560,0.000000,0.080056,2.196949,0.133829,0.120021,0.635686,0.531564,1.431182,0.003851
KPIECE,142,true,1.717820,0.343104,0.000000,0.071941,2.243966,0.133460,0.126296,0.647550,0.569251,1.433472,0.040878
KPIECE,143,true,1.689408,0.342195,0.000000,0.182976,2.203028,0.132916,0.117193,0.630559,0.502771,1.444851,0.025806
KPIECE,144,true,1.707045,0.343876,0.000000,0.153004,2.221466,0.134660,0.126320,0.647009,0.558271,1.432846,0.014895
KPIECE,145,true,1.690462,0.342421,0.000000,0.183275,2.197092,0.133237,0.119948,0.635406,0.522782,1.445809,0.000480
KPIECE,146,true,1.758086,0.345254,0.000000,0.105603,2.305913,0.133800,0.139457,0.670809,0.618703,1.448535,0.079564
KPIECE,147,true,1.695237,0.343787,0.000000,0.095692,2.204864,0.133976,0.120823,0.639204,0.533189,1.438866,0.007771
KPIECE,148,true,1.685114,0.342758,0.000000,0.185078,2.195097,0.134167,0.116269,0.628937,0.501541,1.440094,0.018603
KPIECE,149,true,1.741850,0.343880,0.000000,0.102828,2.279241,0.133210,0.134636,0.661587,0.600587,1.447729,0.056291
KPIECE,150,true,1.697115,0.343636,0.000000,0.150101,2.206126,0.133706,0.123183,0.641697,0.526968,1.449463,0.005180
ProjEST,1,true,1.734529,0.344364,0.000000,0.063507,2.268193,0.133416,0.131498,0.658472,0.597679,1.436619,0.050906
ProjEST,2,true,1.683863,0.342778,0.000000,0.237187,2.191683,0.133799,0.115926,0.629717,0.511170,1.432661,0.012122
ProjEST,3,true,1.744367,0.344673,0.000000,0.176958,2.281327,0.133741,0.136821,0.665550,0.604121,1.447649,0.054933
ProjEST,4,true,3.160347,1.462984,0.151037,0.163122,4.591991,1.225880,0.445435,0.452468,2.856554,1.772872,3.234582
ProjEST,5,true,1.686725,0.342533,0.000000,0.041183,2.193639,0.133556,0.119290,0.633882,0.514644,1.434975,0.008695
ProjEST,6,true,1.707230,0.343116,0.000000,0.082487,2.226083,0.134101,0.124040,0.643035,0.554525,1.431581,0.027353
ProjEST,7,true,1.698021,0.343766,0.000000,0.037444,2.205791,0.133422,0.124017,0.643768,0.532955,1.448940,0.000172
ProjEST,8,true,1.735964,0.344036,0.000000,0.162961,2.271098,0.133060,0.132574,0.659068,0.590817,1.442601,0.055450
ProjEST,9,true,1.733008,0.344147,0.000000,0.288692,2.264702,0.133783,0.132962,0.658432,0.584325,1.446393,0.047421
ProjEST,10,true,1.744627,0.344342,0.000000,0.061533,2.284994,0.133246,0.134587,0.663577,0.615214,1.431934,0.065164
ProjEST,11,true,1.695380,0.342744,0.000000,0.099656,2.203177,0.133520,0.123013,0.640025,0.530223,1.445610,0.001922
ProjEST,12,true,1.759573,0.344105,0.000000,0.453326,2.311939,0.133287,0.137519,0.667555,0.632237,1.434269,0.091229
ProjEST,13,true,1.706939,0.343874,0.000000,0.030479,2.222008,0.133523,0.125424,0.646714,0.549488,1.442791,0.015701
ProjEST,14,true,1.754902,0.344360,0.000000,0.047607,2.303382,0.133124,0.136692,0.666633,0.621843,1.438737,0.082652
ProjEST,15,true,1.731183,0.343848,0.000000,0.040961,2.264516,0.134149,0.130766,0.654814,0.586249,1.437244,0.053774
ProjEST,16,true,1.691354,0.343366,0.000000,0.196523,2.198278,0.134186,0.121538,0.638669,0.529231,1.431592,0.005462
ProjEST,17,true,1.693097,0.343492,0.000000,0.041085,2.205555,0.134532,0.119361,0.634582,0.511800,1.446514,0.019790
ProjEST,18,true,1.761846,0.344720,0.000000,0.129736,2.312708,0.133817,0.140263,0.671139,0.627438,1.445815,0.085631
ProjEST,19,true,1.705288,0.344050,0.000000,0.122681,2.217480,0.134618,0.125595,0.645782,0.548055,1.446758,0.007198
ProjEST,20,true,1.727825,0.343967,0.000000,0.096132,2.258894,0.134044,0.129220,0.652871,0.580155,1.441111,0.047978
ProjEST,21,true,1.737178,0.345071,0.000000,0.114545,2.271869,0.134613,0.133304,0.660589,0.596160,1.438808,0.054316
ProjEST,22,true,1.704515,0.343003,0.000000,0.058222,2.220555,0.133124,0.123136,0.642324,0.546467,1.441618,0.018703
ProjEST,23,true,1.729439,0.343959,0.000000,0.113563,2.257370,0.133415,0.131458,0.656608,0.584625,1.449572,0.035281
ProjEST,24,true,1.742552,0.345033,0.000000,0.069812,2.281107,0.133840,0.134048,0.662361,0.597329,1.448184,0.060725
ProjEST,25,true,1.715686,0.343176,0.000000,0.242716,2.235920,0.133521,0.127527,0.648844,0.566293,1.445321,0.022072
ProjEST,26,true,1.694588,0.343784,0.000000,0.080433,2.201882,0.133518,0.121803,0.640692,0.529007,1.445565,0.001042
ProjEST,27,true,1.738633,0.344554,0.000000,0.018002,2.276586,0.133928,0.132446,0.659422,0.597884,1.436214,0.062951
ProjEST,28,true,1.690855,0.342908,0.000000,0.212968,2.197700,0.133634,0.119797,0.635832,0.523844,1.444714,0.001169
ProjEST,29,true,1.696180,0.343569,0.000000,0.088189,2.204387,0.134087,0.122072,0.640068,0.532642,1.446656,0.001500
ProjEST,30,true,1.753733,0.345337,0.000000,0.066325,2.300104,0.133852,0.136943,0.667833,0.617328,1.441679,0.077946
ProjEST,31,true,1.737436,0.344401,0.000000,0.033835,2.273278,0.134215,0.132282,0.658671,0.600785,1.437137,0.055594
ProjEST,32,true,1.718911,0.343529,0.000000,0.154250,2.242529,0.133325,0.128174,0.650399,0.562441,1.448790,0.031525
ProjEST,33,true,1.696543,0.343479,0.000000,0.060469,2.207899,0.134005,0.120633,0.638676,0.538928,1.434401,0.011616
ProjEST,34,true,1.696385,0.342626,0.000000,0.091841,2.206135,0.133616,0.122941,0.639199,0.524955,1.449670,0.007342
ProjEST,35,true,1.751384,0.344857,0.000000,0.037328,2.296519,0.133464,0.135454,0.665034,0.612132,1.448002,0.073259
ProjEST,36,true,1.765554,0.345631,0.000000,0.163795,2.316788,0.134476,0.142139,0.675038,0.635330,1.445395,0.084802
ProjEST,37,true,1.723290,0.344614,0.000000,0.137499,2.249965,0.134249,0.128751,0.652825,0.570760,1.444429,0.038715
ProjEST,38,true,1.685978,0.342521,0.000000,0.095679,2.196450,0.133535,0.116009,0.629023,0.503039,1.442997,0.017918
ProjEST,39,true,1.750527,0.344333,0.000000,0.045191,2.293971,0.133621,0.136555,0.665672,0.620221,1.438810,0.069465
ProjEST,40,true,1.772649,0.344446,0.000000,0.126408,2.329028,0.132800,0.143083,0.676399,0.648948,1.448964,0.092089
ProjEST,41,true,1.733271,0.344797,0.000000,0.083896,2.263967,0.134362,0.132869,0.659260,0.588843,1.445310,0.043583
ProjEST,42,true,1.724444,0.343603,0.000000,0.026635,2.251981,0.132891,0.129208,0.652960,0.571576,1.448003,0.039067
ProjEST,43,true,1.691672,0.343638,0.000000,0.063172,2.202951,0.134004,0.119796,0.635701,0.505899,1.447373,0.018984
ProjEST,44,true,1.753855,0.345315,0.000000,0.076449,2.302417,0.134586,0.136048,0.666330,0.623795,1.429173,0.086075
ProjEST,45,true,1.695181,0.343676,0.000000,0.106621,2.202235,0.133878,0.123017,0.641359,0.526959,1.447613,0.000814
ProjEST,46,true,1.745403,0.344246,0.000000,0.071801,2.286378,0.134168,0.134796,0.661618,0.604937,1.445670,0.065243
ProjEST,47,true,1.765398,0.344924,0.000000,0.148898,2.316227,0.133226,0.141736,0.674892,0.640581,1.444696,0.081500
ProjEST,48,true,1.724208,0.344407,0.000000,0.166431,2.252052,0.134831,0.129521,0.653362,0.580839,1.430672,0.043668
ProjEST,49,true,1.691309,0.342932,0.000000,0.044647,2.202455,0.133907,0.118293,0.633419,0.519856,1.439678,0.015374
ProjEST,50,true,1.712244,0.343484,0.000000,0.141946,2.232988,0.133864,0.126740,0.647749,0.559015,1.433385,0.031027
ProjEST,51,true,1.688035,0.343734,0.000000,0.043106,2.193604,0.134877,0.119273,0.635324,0.522764,1.434779,0.002447
ProjEST,52,true,1.748113,0.344800,0.000000,0.309889,2.291873,0.134076,0.134740,0.663914,0.618673,1.430886,0.073611
ProjEST,53,true,1.749695,0.343999,0.000000,0.124219,2.293869,0.133851,0.135820,0.663956,0.622211,1.432998,0.072597
ProjEST,54,true,1.747872,0.344572,0.000000,0.033667,2.289450,0.133601,0.135638,0.664222,0.607849,1.448825,0.064925
ProjEST,55,true,1.693319,0.343158,0.000000,0.072295,2.204527,0.133102,0.119449,0.636071,0.515719,1.449083,0.013904
ProjEST,56,true,1.695345,0.343287,0.000000,0.199781,2.204185,0.133675,0.121671,0.639499,0.532453,1.442015,0.004883
ProjEST,57,true,1.688968,0.342741,0.000000,0.123163,2.196744,0.133889,0.118747,0.633264,0.515205,1.445145,0.006362
ProjEST,58,true,1.743297,0.344412,0.000000,0.223976,2.285075,0.134603,0.132844,0.659538,0.610257,1.431453,0.070388
ProjEST,59,true,1.754815,0.344940,0.000000,0.026213,2.302426,0.134078,0.137151,0.667210,0.621353,1.438731,0.080853
ProjEST,60,true,1.706165,0.344068,0.000000,0.034883,2.221686,0.134246,0.124804,0.645953,0.556032,1.431069,0.018895
ProjEST,61,true,1.745566,0.343813,0.000000,0.098931,2.290044,0.133510,0.133357,0.660425,0.612196,1.429917,0.077594
ProjEST,62,true,1.695933,0.343947,0.000000,0.040293,2.204042,0.134194,0.123079,0.641885,0.530813,1.441631,0.004585
ProjEST,63,true,1.729585,0.343749,0.000000,0.107328,2.261332,0.133685,0.131145,0.655630,0.585082,1.434765,0.051156
ProjEST,64,true,1.688899,0.342452,0.000000,0.028342,2.200859,0.133303,0.117451,0.631053,0.504440,1.445312,0.020822
ProjEST,65,true,1.705996,0.343571,0.000000,0.147005,2.221938,0.134158,0.124821,0.644727,0.552138,1.434712,0.019867
ProjEST,66,true,1.711774,0.343733,0.000000,0.057652,2.231505,0.133990,0.126615,0.648268,0.563127,1.430028,0.028143
ProjEST,67,true,1.684370,0.342575,0.000000,0.167138,2.193556,0.133812,0.115821,0.628762,0.506003,1.436828,0.015877
ProjEST,68,true,1.737692,0.343559,0.000000,0.060499,2.274760,0.133414,0.132238,0.657103,0.591089,1.447584,0.058145
ProjEST,69,true,1.692579,0.342997,0.000000,0.011355,2.200381,0.133399,0.120531,0.637999,0.534621,1.434310,0.003962
ProjEST,70,true,1.725040,0.343671,0.000000,0.074651,2.252720,0.133593,0.129480,0.652911,0.576924,1.443649,0.039206
ProjEST,71,true,1.764508,0.344140,0.000000,0.066325,2.317455,0.132728,0.140348,0.671573,0.632075,1.448493,0.088270
ProjEST,72,true,1.740158,0.343451,0.000000,0.039497,2.278582,0.133336,0.133147,0.659534,0.610903,1.429571,0.061658
ProjEST,73,true,1.712015,0.343159,0.000000,0.097919,2.232506,0.133920,0.125527,0.646016,0.567054,1.430923,0.027555
ProjEST,74,true,1.753092,0.344778,0.000000,0.138898,2.298437,0.134171,0.137980,0.668059,0.624307,1.432457,0.076359
ProjEST,75,true,1.693491,0.343385,0.000000,0.173217,2.202730,0.133342,0.121455,0.638746,0.515947,1.448686,0.009737
ProjEST,76,true,1.709306,0.343781,0.000000,0.047231,2.224698,0.133850,0.126836,0.648044,0.552941,1.445497,0.014559
ProjEST,77,true,1.705121,0.342933,0.000000,0.065162,2.221683,0.134013,0.123954,0.642635,0.554270,1.430962,0.021603
ProjEST,78,true,1.753306,0.343925,0.000000,0.099717,2.302410,0.133927,0.136051,0.664139,0.623562,1.429355,0.087047
ProjEST,79,true,1.688154,0.341865,0.000000,0.063189,2.200294,0.133115,0.117605,0.630661,0.510731,1.434809,0.022945
ProjEST,80,true,1.689802,0.342525,0.000000,0.096049,2.198783,0.133213,0.118668,0.633353,0.512082,1.449096,0.009018
ProjEST,81,true,1.759003,0.344581,0.000000,0.104964,2.310928,0.134216,0.137945,0.667982,0.631587,1.430020,0.092344
ProjEST,82,true,1.729999,0.343623,0.000000,0.021102,2.261884,0.133541,0.130214,0.655007,0.594346,1.430702,0.049087
ProjEST,83,true,1.746774,0.344900,0.000000,0.102200,2.286154,0.134498,0.136927,0.666178,0.617591,1.434366,0.061661
ProjEST,84,true,1.697998,0.342315,0.000000,0.079576,2.209669,0.133713,0.122612,0.639418,0.544972,1.430495,0.011986
ProjEST,85,true,1.767265,0.344360,0.000000,0.080724,2.320775,0.133224,0.142002,0.673739,0.637221,1.448533,0.088507
ProjEST,86,true,1.723798,0.344194,0.000000,0.035067,2.251060,0.133847,0.129133,0.653387,0.577317,1.437118,0.040678
ProjEST,87,true,1.692437,0.343150,0.000000,0.310167,2.199046,0.133849,0.121934,0.638747,0.524243,1.443928,0.001644
ProjEST,88,true,1.705200,0.343164,0.000000,0.138641,2.223060,0.134333,0.123155,0.641634,0.552621,1.430263,0.025703
ProjEST,89,true,1.718404,0.344347,0.000000,0.171591,2.242715,0.134868,0.127900,0.650527,0.570703,1.431675,0.037240
ProjEST,90,true,1.720605,0.344010,0.000000,0.126041,2.244092,0.134376,0.129415,0.652059,0.568921,1.444877,0.030834
ProjEST,91,true,1.706941,0.343406,0.000000,0.036804,2.222295,0.132931,0.124692,0.645478,0.548731,1.447413,0.014402
ProjEST,92,true,1.752758,0.344561,0.000000,0.079813,2.296096,0.133200,0.138595,0.668878,0.616047,1.447031,0.068410
ProjEST,93,true,1.719294,0.343776,0.000000,0.062324,2.244633,0.134102,0.127092,0.648881,0.566325,1.443059,0.036511
ProjEST,94,true,1.697568,0.343723,0.000000,0.125980,2.205320,0.133624,0.124037,0.643663,0.536079,1.443053,0.001284
ProjEST,95,true,1.688774,0.343444,0.000000,0.046312,2.195916,0.134184,0.119507,0.635598,0.518805,1.436442,0.007421
ProjEST,96,true,1.738731,0.344113,0.000000,0.102056,2.274515,0.133841,0.133264,0.660075,0.606058,1.435721,0.054226
ProjEST,97,true,1.690176,0.342865,0.000000,0.029046,2.202464,0.133344,0.117341,0.631928,0.506962,1.447053,0.020068
ProjEST,98,true,1.711701,0.343719,0.000000,0.049372,2.231809,0.134485,0.125790,0.645960,0.555037,1.441280,0.027368
ProjEST,99,true,1.694811,0.343656,0.000000,0.105926,2.203687,0.134709,0.121041,0.638694,0.539272,1.432760,0.005909
ProjEST,100,true,1.711580,0.343964,0.000000,0.037027,2.228790,0.134681,0.127253,0.648534,0.562199,1.437875,0.018963
ProjEST,101,true,1.687916,0.342051,0.000000,0.120374,2.200238,0.133737,0.117802,0.630245,0.507052,1.435515,0.024710
ProjEST,102,true,1.704535,0.343795,0.000000,0.060232,2.220740,0.134339,0.123613,0.643235,0.548263,1.433992,0.021996
ProjEST,103,true,1.724782,0.343320,0.000000,0.049614,2.253721,0.133398,0.128794,0.651268,0.572648,1.445788,0.042976
ProjEST,104,true,1.699468,0.343117,0.000000,0.152895,2.213662,0.133594,0.121266,0.639580,0.544187,1.431203,0.018361
ProjEST,105,true,1.728327,0.343740,0.000000,0.030995,2.257004,0.133541,0.131563,0.656054,0.582388,1.442570,0.040998
ProjEST,106,true,1.740735,0.344332,0.000000,0.091638,2.277920,0.133371,0.134598,0.662315,0.599066,1.441923,0.058885
ProjEST,107,true,1.684246,0.342353,0.000000,0.041008,2.194308,0.134435,0.116899,0.628665,0.503926,1.431146,0.021615
ProjEST,108,true,1.757815,0.343972,0.000000,0.275857,2.307996,0.133008,0.137604,0.667541,0.629767,1.436824,0.085170
ProjEST,109,true,1.690519,0.343393,0.000000,0.156143,2.197913,0.133717,0.119553,0.636941,0.530120,1.432198,0.005324
ProjEST,110,true,1.730634,0.344013,0.000000,0.117318,2.262135,0.133597,0.130906,0.655514,0.579440,1.448554,0.047083
ProjEST,111,true,1.693860,0.342714,0.000000,0.062260,2.206514,0.133800,0.120931,0.635555,0.508408,1.449801,0.020668
ProjEST,112,true,1.753222,0.344624,0.000000,0.041986,2.300342,0.133971,0.135472,0.665109,0.628701,1.431978,0.078554
ProjEST,113,true,1.762462,0.344678,0.000000,0.055456,2.316686,0.134093,0.137849,0.668122,0.633080,1.438573,0.094554
ProjEST,114,true,1.753060,0.344475,0.000000,0.037399,2.298548,0.133190,0.136581,0.667046,0.627578,1.435120,0.073703
ProjEST,115,true,1.688999,0.342781,0.000000,0.130490,2.200040,0.133698,0.118230,0.632544,0.509210,1.439819,0.019215
ProjEST,116,true,1.687097,0.342794,0.000000,0.058520,2.199111,0.134231,0.116498,0.629665,0.507893,1.434117,0.023892
ProjEST,117,true,1.749205,0.345508,0.000000,0.159493,2.288780,0.134325,0.137837,0.668524,0.614851,1.444420,0.059762
ProjEST,118,true,1.701965,0.343534,0.000000,0.049830,2.211394,0.133124,0.125202,0.645783,0.543220,1.448360,0.000998
ProjEST,119,true,1.745275,0.344309,0.000000,0.101943,2.286189,0.133902,0.135588,0.663647,0.611273,1.433743,0.067831
ProjEST,120,true,1.697871,0.344171,0.000000,0.095066,2.206293,0.134124,0.122812,0.642359,0.534551,1.447430,0.001490
ProjEST,121,true,1.764395,0.345543,0.000000,0.036322,2.317798,0.134059,0.138977,0.671545,0.636008,1.441916,0.090585
ProjEST,122,true,1.695533,0.343121,0.000000,0.044654,2.204244,0.133920,0.122145,0.639256,0.530266,1.444904,0.004343
ProjEST,123,true,1.741839,0.344192,0.000000,0.016309,2.279746,0.133280,0.134432,0.662724,0.610591,1.433308,0.059669
ProjEST,124,true,1.686763,0.342548,0.000000,0.011329,2.195892,0.134116,0.118450,0.631456,0.504653,1.440870,0.015625
ProjEST,125,true,1.742955,0.345153,0.000000,0.049051,2.279245,0.134295,0.136096,0.664761,0.600379,1.448032,0.054328
ProjEST,126,true,1.699618,0.343401,0.000000,0.159347,2.209245,0.133615,0.123423,0.642325,0.537987,1.448625,0.002725
ProjEST,127,true,1.749768,0.345281,0.000000,0.067968,2.289899,0.133577,0.137632,0.668602,0.613506,1.448297,0.060074
ProjEST,128,true,1.693432,0.342797,0.000000,0.052025,2.201234,0.133537,0.120948,0.637275,0.525984,1.448203,0.001765
ProjEST,129,true,1.724410,0.343252,0.000000,0.050105,2.249595,0.133219,0.130384,0.653540,0.576836,1.448971,0.030640
ProjEST,130,true,1.703263,0.342578,0.000000,0.026312,2.216823,0.133045,0.124020,0.642765,0.548870,1.440477,0.011927
ProjEST,131,true,1.688962,0.342393,0.000000,0.187891,2.198104,0.133475,0.118198,0.632780,0.520944,1.436264,0.010930
ProjEST,132,true,1.763587,0.345631,0.000000,0.057019,2.315929,0.134530,0.139954,0.671891,0.628749,1.445688,0.089426
ProjEST,133,true,1.759814,0.344896,0.000000,0.089490,2.309608,0.134400,0.139656,0.669763,0.622848,1.446066,0.084214
ProjEST,134,true,1.690838,0.343006,0.000000,0.090535,2.205167,0.134026,0.117885,0.632129,0.508456,1.437503,0.028934
ProjEST,135,true,1.689086,0.342684,0.000000,0.181481,2.195521,0.133769,0.120840,0.636031,0.517399,1.440044,0.004929
ProjEST,136,true,1.737606,0.344545,0.000000,0.071277,2.270629,0.133171,0.133756,0.661848,0.597854,1.446667,0.045979
ProjEST,137,true,1.691738,0.342744,0.000000,0.313966,2.203282,0.133579,0.119422,0.634074,0.508928,1.448408,0.017569
ProjEST,138,true,1.707203,0.343094,0.000000,0.028689,2.224108,0.134240,0.124895,0.644237,0.560004,1.430220,0.020946
ProjEST,139,true,1.687378,0.342758,0.000000,0.140092,2.198417,0.134031,0.117188,0.630371,0.503322,1.442197,0.020136
ProjEST,140,true,1.720957,0.343854,0.000000,0.176211,2.244386,0.133338,0.129945,0.653428,0.564877,1.449514,0.030592
ProjEST,141,true,1.714677,0.344253,0.000000,0.084937,2.233257,0.133783,0.127911,0.650821,0.558688,1.449193,0.019720
ProjEST,142,true,1.699621,0.343946,0.000000,0.025494,2.209719,0.133852,0.123906,0.643671,0.535859,1.444562,0.006862
ProjEST,143,true,1.748179,0.344300,0.000000,0.308519,2.290875,0.133325,0.135466,0.664070,0.611553,1.443005,0.068710
ProjEST,144,true,1.693421,0.343330,0.000000,0.065939,2.200984,0.133361,0.121804,0.639871,0.528122,1.440504,0.004014
ProjEST,145,true,1.755179,0.345245,0.000000,0.083987,2.303937,0.134447,0.137121,0.667785,0.625613,1.429518,0.086171
ProjEST,146,true,1.768479,0.345428,0.000000,0.082950,2.324559,0.133458,0.140624,0.674192,0.638211,1.444226,0.096810
ProjEST,147,true,1.761570,0.344542,0.000000,0.196440,2.313995,0.133452,0.139364,0.670679,0.633723,1.434106,0.091806
ProjEST,148,true,1.703239,0.344185,0.000000,0.159659,2.214003,0.134434,0.124726,0.645334,0.549225,1.443051,0.004254
ProjEST,149,true,1.685933,0.342898,0.000000,0.033969,2.194091,0.134175,0.116759,0.630891,0.516446,1.432978,0.011122
ProjEST,150,true,1.688900,0.342826,0.000000,0.064526,2.194907,0.133396,0.120341,0.636581,0.522795,1.436106,0.003165
