Planner,Run,Success,Length_In_Joint_Space,Length_In_Cartesian_Space(Endeffector),Smoothness,Time,Weighted_Length,Shoulder_Pan_Joint,Shoulder_Lift_Joint,Elbow_Joint,Wrist_1_Joint,Wrist_2_Joint,Wrist_3_Joint
LBKPIECE,1,true,2.884028,1.430054,1.081563,0.666636,3.810942,1.059843,0.759396,1.901782,1.708800,1.278721,1.609073
LBKPIECE,2,true,4.858898,3.055289,0.548518,0.583402,6.725130,4.428440,0.681189,4.616625,4.048876,2.097924,7.735839
LBKPIECE,3,true,3.024701,1.367434,0.620847,0.376154,4.170568,1.294852,0.548207,1.436704,0.994164,2.499122,2.375768
LBKPIECE,4,true,1.923803,0.732119,0.600972,0.578112,2.557334,1.045221,0.545158,0.149903,0.568408,0.514119,0.878208
LBKPIECE,5,true,3.241024,1.889634,0.757124,0.374940,4.482568,1.313645,0.983510,1.926759,2.090955,0.880500,3.308865
LBKPIECE,6,true,1.665411,0.688295,0.000000,0.193317,1.999506,1.044590,0.531206,0.034562,0.577922,0.524125,0.061190
LBKPIECE,7,true,4.929484,1.941192,0.539397,0.351584,6.905878,5.976313,1.068123,0.801603,6.249119,3.267083,6.937570
LBKPIECE,8,true,4.359733,2.735899,0.644694,0.360369,5.960834,5.357627,0.534655,1.021634,5.003101,2.659332,4.430920
LBKPIECE,9,true,2.154906,0.667715,0.961255,0.820207,2.619972,1.043189,1.225604,0.722301,0.562018,0.522404,0.568106
LBKPIECE,10,true,3.273784,2.341027,1.075425,0.426233,3.881056,4.253083,1.789465,0.874728,0.705235,2.550612,0.544541
LBKPIECE,11,true,3.124731,2.295445,1.001856,0.262637,3.918091,2.592476,1.933687,1.646568,0.737032,0.857904,1.996277
LBKPIECE,12,true,2.684031,1.572208,0.408104,0.443854,3.718705,1.044618,0.558848,1.756491,0.548887,0.514508,2.780673
LBKPIECE,13,true,4.105948,1.141025,0.709789,0.541280,5.697633,3.538759,2.001439,0.427696,1.996417,4.181189,4.713304
LBKPIECE,14,true,1.944598,0.688700,1.052112,0.415419,2.488600,1.041535,0.754424,0.124058,0.546794,0.764428,0.550223
LBKPIECE,15,true,2.382078,0.918452,1.187078,0.275941,3.203875,1.039731,0.601875,0.656417,0.706722,1.455307,1.214246
LBKPIECE,16,true,1.666087,0.688501,0.000000,0.147125,2.000460,1.043622,0.533680,0.032205,0.577440,0.529247,0.059653
LBKPIECE,17,true,3.025596,1.585859,0.946404,0.235714,4.200878,1.044060,0.817931,1.727267,1.453073,1.183733,2.928168
LBKPIECE,18,true,1.890392,0.827769,0.767496,0.194282,2.375371,1.047521,0.735979,0.223652,0.549475,0.514584,0.502372
LBKPIECE,19,true,2.632504,2.422640,1.104517,0.422126,3.177683,2.177491,1.408058,1.196108,0.548805,0.580435,1.019177
LBKPIECE,20,true,2.583309,1.414848,1.090670,0.428684,3.558123,1.041968,0.546724,1.432056,0.544420,0.774301,2.334017
LBKPIECE,21,true,2.848640,1.618551,0.971703,0.287825,3.944208,1.043559,0.530236,1.890061,0.791869,1.067885,2.791137
LBKPIECE,22,true,2.632310,0.754047,0.919725,0.299952,3.622058,1.042151,0.531762,0.451786,2.259940,1.356532,1.286888
LBKPIECE,23,true,2.430616,1.265617,1.847905,0.309634,2.893294,1.674492,1.298686,0.546704,0.994615,1.318148,0.075247
LBKPIECE,24,true,2.477304,0.973374,0.978234,0.215246,3.298058,1.131114,0.608903,0.667299,1.373581,1.345704,1.010433
LBKPIECE,25,true,3.325700,1.742519,0.632754,0.458021,4.702318,1.041646,0.744258,2.006725,1.457418,2.026374,3.783859
LBKPIECE,26,true,2.084978,0.807636,0.598988,0.509256,2.739671,1.048132,0.533047,0.398718,0.986337,0.589466,0.791432
LBKPIECE,27,true,3.522759,1.803865,0.377138,0.446079,5.105419,1.862587,0.715114,1.702303,2.086447,0.517745,5.525637
LBKPIECE,28,true,2.912811,1.459586,1.340116,0.456526,3.874024,1.679455,1.981531,0.153845,1.668104,1.147572,1.853960
LBKPIECE,29,true,2.073750,0.730661,1.296353,0.335073,2.647271,1.046436,0.708858,0.045772,0.552219,1.738921,0.208232
LBKPIECE,30,true,2.611605,0.734513,1.067540,0.264084,3.548076,1.042191,0.529932,0.553471,1.879012,1.742402,1.073474
LBKPIECE,31,true,2.253670,0.773319,0.876521,0.547391,2.993394,1.042364,0.532981,0.540242,1.103727,0.941778,0.917937
LBKPIECE,32,true,1.665872,0.687945,0.000000,0.216339,2.000292,1.041572,0.532910,0.032876,0.575980,0.533525,0.058267
LBKPIECE,33,true,4.612993,4.215183,1.274474,0.447199,6.611059,3.228799,1.037370,3.586473,3.521673,0.906069,8.999325
LBKPIECE,34,true,3.738202,2.488938,0.833461,0.207355,5.056597,1.596282,0.637187,3.926033,2.451401,1.582898,3.780357
LBKPIECE,35,true,2.680474,1.007142,0.656345,0.333336,3.650259,1.042352,0.531693,1.182765,1.638311,1.078506,1.711316
LBKPIECE,36,true,2.360217,1.179150,2.435499,0.351671,3.111388,1.119691,0.554992,0.843448,1.066758,0.928118,1.057617
LBKPIECE,37,true,3.602940,3.166470,0.857869,1.026848,4.572578,1.751112,0.538220,3.473851,4.323272,2.185429,0.709295
LBKPIECE,38,true,4.145838,2.678372,0.398991,0.409053,5.730819,1.935099,1.750649,4.137341,1.863631,1.211817,6.289434
LBKPIECE,39,true,1.969984,0.870306,2.190359,0.425223,2.472684,1.361108,0.604700,0.054909,0.858892,0.628020,0.373209
LBKPIECE,40,true,3.572416,2.165593,0.357985,0.463393,4.916283,1.723654,0.863835,2.906005,2.290346,0.839302,4.139016
LBKPIECE,41,true,2.061314,1.126108,0.784597,0.273739,2.594183,1.189367,0.594815,0.682372,0.570668,0.513481,0.698311
LBKPIECE,42,true,1.733438,0.689504,0.306297,0.182610,2.157429,1.048423,0.534626,0.057375,0.566366,0.512711,0.285306
LBKPIECE,43,true,3.467982,1.173835,0.918862,0.659494,4.482692,2.681812,1.308373,0.315659,4.405557,2.968923,0.346575
LBKPIECE,44,true,1.751408,0.695736,0.834326,0.568722,2.153699,1.041053,0.535263,0.106328,0.669019,0.529566,0.186203
LBKPIECE,45,true,2.308391,0.847711,0.594331,0.317117,3.073633,1.044079,0.533731,0.710744,1.441413,0.520254,1.078445
LBKPIECE,46,true,2.368717,0.693310,1.267112,0.857259,3.222332,1.044594,0.530146,0.345598,1.568087,1.040274,1.082122
LBKPIECE,47,true,2.545605,0.927485,1.137305,0.292040,3.581888,1.047925,0.619925,0.726771,1.308382,0.512769,2.264332
LBKPIECE,48,true,3.047825,1.812796,1.933899,0.381320,4.173827,1.438630,0.987498,1.805212,1.127105,0.857096,3.073697
LBKPIECE,49,true,2.767614,0.763867,0.494508,0.365274,4.004452,1.046641,0.535093,0.533896,2.003757,0.708416,2.831885
LBKPIECE,50,true,2.136020,0.671878,1.345285,0.558739,2.710411,1.041732,0.733773,0.369100,1.306881,0.745329,0.365768
LBKPIECE,51,true,3.481457,1.857622,0.709410,0.391809,4.918578,1.140723,1.109435,1.871279,2.278841,1.647514,4.072753
LBKPIECE,52,true,1.919049,0.800179,0.746459,0.332684,2.485582,1.043364,0.536574,0.319713,0.545192,0.525634,0.712272
LBKPIECE,53,true,5.397462,2.276920,0.463137,0.440523,7.678010,6.612616,2.412384,1.393685,6.518336,1.090250,11.105326
LBKPIECE,54,true,2.965039,1.679388,1.075138,0.755034,4.242174,1.146694,0.598717,1.769497,0.790478,0.558036,3.928033
LBKPIECE,55,true,2.898119,1.593426,0.981662,0.177562,3.949707,1.613816,0.548169,1.602392,1.062898,1.005455,2.566366
LBKPIECE,56,true,4.210937,1.494974,0.827253,0.704904,6.245801,2.824417,0.890046,1.138583,3.648781,0.831075,8.399090
LBKPIECE,57,true,2.619190,1.493579,1.160842,0.349976,3.468481,1.041179,0.559415,1.677742,0.898757,1.094685,1.588381
LBKPIECE,58,true,2.802444,0.858783,1.125391,0.433723,4.011787,1.043259,0.533280,0.639815,0.619053,2.414871,2.603412
LBKPIECE,59,true,2.479215,0.750926,1.162302,0.342581,3.417041,1.047459,0.531865,0.546758,1.997091,0.514092,1.509241
LBKPIECE,60,true,2.029528,0.995721,0.700794,0.271122,2.630910,1.135810,0.532520,0.495961,0.575934,0.530741,0.848016
LBKPIECE,61,true,4.331533,1.326118,0.633436,0.786680,6.571875,2.219334,1.594009,0.420014,0.576933,4.053340,9.898546
LBKPIECE,62,true,3.424115,1.656047,0.223092,0.621032,4.772236,1.041911,0.547084,2.523680,2.011991,2.162109,3.437789
LBKPIECE,63,true,2.527118,1.799279,2.620814,0.559547,3.053264,1.352021,0.723632,2.099672,0.723158,0.762752,0.725093
LBKPIECE,64,true,2.162111,0.773961,1.231532,0.186499,2.868869,1.043327,0.530816,0.393315,0.878048,0.980797,0.848420
LBKPIECE,65,true,4.781808,5.917200,0.786709,0.487732,5.819637,4.934484,1.821603,6.324206,5.775752,2.792568,1.217079
LBKPIECE,66,true,3.367089,1.776469,0.529859,0.412749,4.761644,1.290725,0.590832,1.767424,2.979253,1.061392,3.647661
LBKPIECE,67,true,3.914571,5.902845,0.892280,0.525350,4.871154,1.041772,0.570029,8.154226,1.948975,0.762418,2.846441
LBKPIECE,68,true,5.214552,3.997412,0.488808,0.602680,7.378337,6.434266,0.907137,1.162655,5.796726,4.329968,8.560804
LBKPIECE,69,true,3.726188,2.064078,0.523137,0.361397,5.311142,1.247765,0.896585,2.454622,3.097582,1.149671,5.038251
LBKPIECE,70,true,3.180438,2.216560,1.022163,0.322866,4.275461,1.040211,0.692856,3.051129,1.198335,1.299267,2.833390
LBKPIECE,71,true,2.886478,1.569833,1.060005,0.377455,3.894604,1.045115,0.531599,2.276958,0.720646,1.399347,2.358093
LBKPIECE,72,true,1.989442,0.836252,0.397641,0.436889,2.662921,1.045518,0.543490,0.260833,0.561116,0.521690,1.025231
LBKPIECE,73,true,3.332893,2.089907,0.265814,0.744389,4.686159,1.644413,0.564152,2.287519,1.185548,1.186732,4.239813
LBKPIECE,74,true,2.277147,0.738832,1.405375,0.512221,2.752376,1.041666,1.399816,0.539464,0.994927,1.023805,0.185721
LBKPIECE,75,true,1.975247,0.750691,0.637861,0.521224,2.621964,1.045506,0.532397,0.291355,0.572267,0.519328,0.940750
LBKPIECE,76,true,2.292344,1.037219,1.649363,0.310685,2.885173,1.426922,1.111235,0.327937,0.958024,0.750095,0.680630
LBKPIECE,77,true,4.429269,4.012733,0.625570,0.461634,5.597230,6.317888,0.755855,2.696415,7.329200,0.656770,1.862296
LBKPIECE,78,true,4.748389,4.511571,0.620435,0.403686,6.742053,1.396733,0.683868,7.265739,1.846390,1.647254,9.707217
LBKPIECE,79,true,1.883822,0.673666,0.819383,0.531433,2.463163,1.046366,0.549083,0.032550,0.798670,0.524514,0.597601
LBKPIECE,80,true,3.272791,2.162852,0.265543,0.440560,4.367368,1.147149,0.673213,2.954423,1.885203,1.624811,2.426363
LBKPIECE,81,true,1.950562,0.681057,0.989585,0.340716,2.552460,1.043220,0.534403,0.127638,0.776119,0.712390,0.610924
LBKPIECE,82,true,5.579826,3.021389,0.446569,0.847412,8.235550,2.570730,2.997189,0.867885,7.921786,4.785711,11.991162
LBKPIECE,83,true,1.737387,0.685764,0.318368,0.598599,2.164456,1.045636,0.538047,0.067163,0.553669,0.515312,0.298688
LBKPIECE,84,true,2.996583,1.188975,0.758918,0.271747,4.275059,1.042051,0.532762,1.403884,0.838909,1.866091,3.295811
LBKPIECE,85,true,3.551846,1.721168,0.953219,0.386148,5.058428,1.046975,0.546654,2.739881,2.223842,1.368277,4.689983
LBKPIECE,86,true,4.382736,1.910145,0.678477,0.415686,6.163876,1.041793,2.399239,0.252621,7.355106,4.889354,3.270264
LBKPIECE,87,true,2.757691,1.784563,1.943902,0.278732,3.675858,1.118256,0.603096,1.794216,0.977136,1.294363,1.817790
LBKPIECE,88,true,6.460125,6.075551,0.410485,0.579723,8.506581,5.339877,5.186015,8.646165,8.766164,5.727445,8.067548
LBKPIECE,89,true,1.888468,0.763962,1.337755,0.478516,2.370650,1.097783,0.622818,0.156562,0.556106,0.768518,0.364523
LBKPIECE,90,true,3.770401,1.703559,0.672842,0.396569,5.422600,1.906116,1.056832,1.210040,2.246164,2.651041,5.145730
LBKPIECE,91,true,4.817102,3.742921,0.113944,0.343876,6.671211,3.306878,1.197587,5.042978,3.696352,2.317114,7.643560
LBKPIECE,92,true,3.557045,3.052232,0.127989,0.485966,4.478851,1.045695,0.960408,4.815006,1.650734,2.604646,1.576079
LBKPIECE,93,true,2.030623,0.797702,0.964405,0.757193,2.764495,1.047273,0.537068,0.248521,0.550880,0.511254,1.228435
LBKPIECE,94,true,3.869700,1.750761,0.786773,0.530776,5.313838,2.475992,0.530761,1.614038,5.228166,2.217128,2.908497
LBKPIECE,95,true,2.685062,2.001522,1.136902,0.273449,3.364761,1.090156,0.939357,2.301832,0.969265,0.675099,1.233848
LBKPIECE,96,true,2.419282,0.960237,1.097483,0.501178,3.331476,1.044538,0.547090,0.785273,1.174580,0.531659,1.769785
LBKPIECE,97,true,3.606669,3.293609,0.843886,0.543110,4.265693,5.691169,1.273297,2.751391,0.573914,0.822426,1.895866
LBKPIECE,98,true,4.730351,1.604080,0.580316,0.946737,6.028332,6.089220,2.778821,0.344918,6.804937,5.557014,0.801310
LBKPIECE,99,true,3.435978,1.788284,0.599984,0.654220,5.016729,1.044578,0.664532,2.632259,0.967858,0.599673,5.897047
LBKPIECE,100,true,3.417691,2.047181,0.918404,0.700834,4.276290,3.464025,0.532654,1.698413,3.703070,1.661916,0.620531
LBKPIECE,101,true,3.897006,3.578839,0.865529,0.404250,4.607683,4.415134,0.530553,4.523790,1.928983,3.461301,0.326898
LBKPIECE,102,true,3.269921,1.414749,0.414599,0.609550,4.708767,1.045256,0.552828,1.910864,1.231267,1.655495,4.296674
LBKPIECE,103,true,2.366648,0.928619,1.760052,0.448066,2.953495,1.041423,1.537281,0.638727,0.655230,0.989837,0.738522
LBKPIECE,104,true,3.615112,0.944773,1.076071,0.487621,5.263266,1.041958,0.580862,1.211084,4.664764,1.172553,4.397810
LBKPIECE,105,true,2.618590,1.039968,0.888896,0.389132,3.542078,1.045391,0.532047,1.123453,1.563303,1.059640,1.533180
LBKPIECE,106,true,2.261512,0.675739,1.141154,0.425338,3.162572,1.042796,0.532680,0.111030,1.070954,0.897480,1.459495
LBKPIECE,107,true,2.385838,0.841853,1.620567,0.224674,3.141421,1.041638,1.157089,0.108053,1.060209,1.534379,0.790856
LBKPIECE,108,true,1.666105,0.688006,0.000000,0.216631,2.000428,1.041931,0.532513,0.033968,0.577481,0.531694,0.058317
LBKPIECE,109,true,5.040823,3.995479,0.469161,0.587462,7.119042,3.304111,1.754667,4.429751,5.203459,1.368410,9.349495
LBKPIECE,110,true,3.220200,1.409884,0.884205,0.164138,4.493207,1.247919,0.533202,1.685504,0.569783,3.417117,2.916163
LBKPIECE,111,true,4.204366,2.481443,0.690486,0.611313,5.719113,6.010228,0.536172,0.908802,3.579615,1.831811,4.810069
LBKPIECE,112,true,1.667005,0.688174,0.000000,0.795579,2.003081,1.042031,0.533219,0.031950,0.575674,0.534311,0.061722
LBKPIECE,113,true,1.862681,0.689169,0.501990,0.570100,2.444891,1.047087,0.531361,0.090462,0.572286,0.521139,0.707244
LBKPIECE,114,true,3.275311,0.948369,0.905651,0.583394,4.939653,1.042013,0.602132,0.843881,1.816640,0.990113,5.432882
LBKPIECE,115,true,1.824823,0.688653,0.515771,0.409930,2.380542,1.043427,0.531982,0.040317,0.564929,0.526570,0.622752
LBKPIECE,116,true,1.923824,0.790832,1.347352,0.418147,2.431989,1.048817,0.532131,0.194909,0.829628,0.807383,0.288231
LBKPIECE,117,true,3.913338,1.190713,0.754942,0.344892,5.239387,4.652761,2.214829,0.044882,3.899093,0.767427,3.735222
LBKPIECE,118,true,4.701490,2.566150,0.570855,0.528896,6.608659,4.393638,0.532616,2.290563,7.661413,0.542612,6.683167
LBKPIECE,119,true,2.202504,0.843256,0.560080,0.817921,3.012460,1.039229,0.535974,0.448635,0.552078,0.878407,1.396704
LBKPIECE,120,true,1.756887,0.721319,0.621916,0.376410,2.152055,1.046646,0.619295,0.105680,0.569347,0.516026,0.229658
LBKPIECE,121,true,2.847214,1.569087,0.977400,0.416182,4.055627,1.045901,0.661608,1.608389,0.723251,0.516716,3.550761
LBKPIECE,122,true,2.712745,1.806949,1.299348,0.326691,3.480545,1.040829,1.919496,1.141782,0.811765,0.946783,1.498329
LBKPIECE,123,true,2.516864,0.757876,1.187238,0.166399,3.494077,1.043863,0.533402,0.468522,1.039548,1.664112,1.585155
LBKPIECE,124,true,2.053663,0.675166,1.071568,0.577890,2.717558,1.045145,0.533951,0.028202,0.552611,1.500267,0.557356
LBKPIECE,125,true,3.601539,4.296933,0.843541,0.373813,3.970418,5.200415,1.243076,4.461454,0.809438,0.529687,0.727009
LBKPIECE,126,true,3.976887,2.120003,0.606143,0.548596,5.382792,2.261555,0.603282,2.232829,3.964663,4.312434,2.440864
LBKPIECE,127,true,3.967407,3.243380,0.737808,0.592847,4.880045,5.125715,0.617676,2.264984,6.282834,1.106525,0.342581
LBKPIECE,128,true,3.417899,1.301722,1.010288,0.293513,5.126578,1.323262,0.827202,0.857686,1.015964,1.732025,5.925892
LBKPIECE,129,true,3.324768,2.376948,0.850983,0.251051,4.447644,1.043497,0.640400,3.775140,1.017272,1.445360,3.132413
LBKPIECE,130,true,2.362954,0.821953,1.197261,0.454950,3.201658,1.042090,0.651110,0.521795,1.414411,0.655647,1.298501
LBKPIECE,131,true,1.665585,0.687971,0.000000,0.433920,1.999776,1.043798,0.534763,0.032488,0.579723,0.521595,0.061806
LBKPIECE,132,true,3.127513,1.578689,1.098298,0.526340,4.080210,1.394804,1.044832,1.493649,3.722472,1.106856,1.018724
LBKPIECE,133,true,2.227973,0.753052,1.444345,0.200550,2.958914,1.044863,0.821618,0.168469,0.887940,1.178579,0.862395
LBKPIECE,134,true,1.666873,0.688851,0.000000,0.219649,2.002142,1.043879,0.531770,0.032920,0.576230,0.533450,0.060215
LBKPIECE,135,true,4.004432,4.556158,0.740850,0.485915,4.706157,6.558894,1.991129,3.730840,0.745786,0.651006,2.357823
LBKPIECE,136,true,2.942445,1.285859,1.220918,0.440215,4.195572,1.041920,0.754794,1.361723,1.065978,0.988262,3.445304
LBKPIECE,137,true,2.483437,0.843847,0.922848,0.511168,3.430151,1.044438,0.531436,0.676582,0.574148,1.657381,1.683473
LBKPIECE,138,true,2.159620,0.740179,1.082816,0.799905,2.943021,1.047051,0.535219,0.196001,0.555652,1.218313,1.111724
LBKPIECE,139,true,4.874610,2.897476,0.549549,0.594766,7.020302,4.154084,2.150080,0.684627,7.491967,0.531278,8.749785
LBKPIECE,140,true,4.132752,2.837654,0.731658,0.452664,5.753123,2.927348,0.545629,3.671183,0.885995,2.966175,6.083308
LBKPIECE,141,true,2.750480,1.420289,1.529221,0.757866,3.806606,1.045208,0.624199,1.517450,0.700930,1.130530,2.546824
LBKPIECE,142,true,4.481278,2.879176,0.476726,0.614369,6.041701,3.665407,1.955864,1.231854,5.839360,4.197806,3.191565
LBKPIECE,143,true,2.077522,0.812005,1.810502,0.289308,2.590071,1.045948,0.832460,0.264601,0.909113,1.044696,0.219281
LBKPIECE,144,true,1.666084,0.687690,0.000000,0.340031,2.001253,1.041664,0.533178,0.033255,0.576405,0.529892,0.061440
LBKPIECE,145,true,3.428121,1.263846,0.472159,0.451469,4.874656,1.043687,0.578799,1.941041,1.753383,2.613342,3.821764
LBKPIECE,146,true,4.266325,2.814128,0.481890,0.672530,6.075549,5.604943,0.105913,0.542397,3.205039,1.980753,6.762487
LBKPIECE,147,true,2.314819,0.770663,1.257519,0.500479,3.015365,1.045894,0.533808,0.558869,1.479087,1.226511,0.514220
LBKPIECE,148,true,1.666177,0.688541,0.000000,0.644221,2.000113,1.042417,0.533771,0.032571,0.576297,0.534169,0.056919
LBKPIECE,149,true,1.869032,0.720773,1.170233,0.404091,2.359647,1.043253,0.535883,0.152000,0.548642,0.900995,0.312507
LBKPIECE,150,true,1.666116,0.687639,0.000000,0.708790,2.001629,1.041033,0.531469,0.033312,0.574750,0.534926,0.060451
BKPIECE,1,true,4.284291,3.363608,0.665821,0.368285,5.291657,6.169721,0.532175,2.500691,5.599587,3.059046,0.493927
BKPIECE,2,true,2.006525,0.694819,1.430728,0.281825,2.675387,1.041257,0.651687,0.110880,0.678228,0.634855,0.909234
BKPIECE,3,true,3.314093,2.036105,0.541805,0.275876,4.524151,1.604590,0.695259,2.517897,1.422396,1.423811,3.319261
BKPIECE,4,true,1.870055,0.707516,0.845468,0.302891,2.347037,1.081670,0.782434,0.097406,0.543641,0.516069,0.475884
BKPIECE,5,true,2.971989,1.894614,1.128428,0.190889,4.050944,1.066361,0.620317,2.135708,0.808524,1.634715,2.567096
BKPIECE,6,false,0,0,0,0,0,0,0,0,0,0,0
BKPIECE,7,true,2.833176,1.034068,1.035272,0.326472,4.086000,1.040383,0.533160,0.990930,1.349088,0.907226,3.206097
BKPIECE,8,true,2.459773,0.923345,1.001052,0.222375,3.500489,1.042456,0.603123,0.649229,0.748214,0.560201,2.447262
BKPIECE,9,true,3.597274,2.535691,0.880172,0.335482,4.904309,1.929361,0.558785,3.601189,1.071094,1.519140,4.260815
BKPIECE,10,true,1.793412,0.715134,1.049256,0.201828,2.200979,1.045124,0.533573,0.146142,0.834081,0.520916,0.136491
BKPIECE,11,true,4.972579,5.440038,0.634806,0.433154,6.718990,6.841025,0.738989,1.885724,3.674825,6.428493,5.157482
BKPIECE,12,true,2.999959,2.246618,1.079864,0.280142,3.386551,5.258322,1.577679,0.161786,1.000024,0.534928,0.467013
BKPIECE,13,true,3.604212,1.863026,1.031828,0.255422,5.004718,1.048989,0.803821,3.300059,2.098779,1.519329,4.219372
BKPIECE,14,true,3.976033,2.406712,0.806987,0.289545,5.054392,3.394688,2.880772,0.442387,7.261134,1.182824,0.647037
BKPIECE,15,true,2.698900,1.182996,1.404872,0.134651,3.538244,1.119819,0.974387,0.286202,2.240890,2.331300,0.331461
BKPIECE,16,true,1.666554,0.687322,0.000000,0.304019,2.002089,1.039894,0.533346,0.032034,0.577680,0.535618,0.058830
BKPIECE,17,true,2.326274,0.892244,1.360981,0.235305,3.083177,1.041367,0.745637,0.564920,1.114005,0.910815,1.034805
BKPIECE,18,true,2.793185,0.955777,1.080818,0.300397,4.042623,1.041246,0.532132,0.693746,0.566657,1.961946,3.006156
BKPIECE,19,true,3.223439,1.639453,0.455680,0.341356,4.643335,1.217089,0.754994,1.485527,0.943153,1.752742,4.237054
BKPIECE,20,true,3.004695,1.853989,0.346609,0.342902,4.108068,1.448475,0.535945,1.685586,1.078596,1.789749,2.489841
BKPIECE,21,true,2.848426,1.518915,0.716553,0.397720,4.011046,1.042909,0.529400,1.774440,0.826939,0.731664,3.208177
BKPIECE,22,true,3.004763,0.894430,1.060946,0.184453,4.135512,1.380606,1.609276,0.266367,2.498719,0.972125,2.301507
BKPIECE,23,true,2.827533,1.703408,0.968795,0.254749,3.937272,1.044977,0.574601,1.992413,0.693388,0.565354,3.124211
BKPIECE,24,true,4.368424,1.849716,0.652521,0.386577,5.811023,6.526515,2.400981,0.540706,2.386732,2.158269,5.069926
BKPIECE,25,true,3.348683,1.659617,0.638708,0.183054,4.713400,1.131211,0.761078,1.999830,2.049055,1.591609,3.680897
BKPIECE,26,true,2.912324,1.967137,0.462058,0.293943,3.997414,1.833720,0.572910,1.557719,0.983807,0.553078,2.980400
BKPIECE,27,true,2.701184,1.419395,0.540165,0.288378,3.633495,1.040885,0.534066,1.698080,1.045578,1.095266,1.882521
BKPIECE,28,true,1.665412,0.688104,0.000000,0.294418,1.999648,1.043549,0.535037,0.031708,0.577164,0.524447,0.061691
BKPIECE,29,true,2.344873,0.813129,1.134000,0.416762,3.141184,1.043197,0.819672,0.307532,0.575508,1.711940,1.040580
BKPIECE,30,true,2.776643,1.817425,2.120532,0.170462,3.382112,2.268147,2.122267,0.202164,0.982940,1.522457,0.611770
BKPIECE,31,true,4.048033,2.284897,0.702579,0.149080,5.508130,2.560543,1.355060,2.520390,4.533335,1.414887,4.002354
BKPIECE,32,true,3.720859,3.622228,0.826329,0.381171,4.866166,6.090739,0.533560,0.705200,1.426144,1.769662,3.319487
BKPIECE,33,true,2.301256,1.788581,1.297704,0.252196,2.709702,1.041733,0.895691,1.619004,0.879300,0.552697,0.307354
BKPIECE,34,true,4.472720,1.395162,0.795944,0.171449,6.588047,1.044183,3.026027,0.996426,2.632343,3.847686,8.458555
BKPIECE,35,true,1.982608,0.724956,1.451506,0.241622,2.537887,1.068183,0.535016,0.205784,1.105752,0.627624,0.388378
BKPIECE,36,true,3.743298,1.618101,0.551544,0.223823,5.362818,1.258059,0.536421,2.109861,3.034671,2.433664,4.639602
BKPIECE,37,true,2.407411,0.886364,0.956694,0.223637,3.436335,1.042574,0.644539,0.468622,0.571104,0.695910,2.372878
BKPIECE,38,true,2.201241,0.677610,1.375928,0.160117,2.972544,1.044957,0.734506,0.043790,0.966000,1.087855,0.968352
BKPIECE,39,true,2.378582,0.763154,1.433443,0.147111,3.303009,1.044021,0.778739,0.067378,1.377954,0.904862,1.484699
BKPIECE,40,true,1.666185,0.687277,0.000000,0.192058,2.001649,1.040477,0.533135,0.032736,0.577120,0.532105,0.060600
BKPIECE,41,true,2.370931,0.667738,1.125333,0.154411,3.418399,1.043247,0.531823,0.061368,0.921292,0.984320,2.079263
BKPIECE,42,true,2.412717,1.503244,1.212366,0.394644,3.156662,1.048087,0.838550,1.277731,0.657123,0.513237,1.486475
BKPIECE,43,true,2.662229,1.587547,0.964406,0.223036,3.632856,1.043916,0.534273,1.888581,0.609485,0.521726,2.489483
BKPIECE,44,true,4.118358,3.128684,0.793302,0.291618,5.332633,4.343829,1.018079,3.181774,3.119967,2.238314,3.058909
BKPIECE,45,true,2.212709,0.799757,1.561198,0.224070,2.845477,1.042994,1.219606,0.137809,1.266820,0.523860,0.704991
BKPIECE,46,true,4.096226,2.362122,0.711964,0.215151,5.961801,4.904084,0.533376,0.641694,2.103067,0.532758,8.064087
BKPIECE,47,true,2.225371,0.731890,0.554549,0.322347,2.919557,1.040968,0.531877,0.454269,1.278575,1.000206,0.646379
BKPIECE,48,true,3.720353,2.116425,0.827502,0.360862,5.005899,3.677587,1.603511,1.233328,1.895941,1.539267,3.891393
BKPIECE,49,true,2.812391,0.819494,1.218570,0.327892,3.810462,1.044263,1.366695,0.068162,2.008940,2.241828,1.179656
BKPIECE,50,true,2.832651,1.358153,0.790399,0.308225,3.871696,1.044918,0.532380,1.661294,1.285713,1.318805,2.180802
BKPIECE,51,true,5.000259,1.706623,0.530046,0.333223,6.758715,5.874418,2.285568,0.834713,7.027328,4.310820,4.669745
BKPIECE,52,true,3.033777,1.304268,1.182321,0.215052,4.302035,1.677566,1.676205,0.224985,0.919562,1.026826,3.678657
BKPIECE,53,true,1.665726,0.687570,0.000000,0.223598,2.000679,1.040615,0.533581,0.032082,0.574388,0.534274,0.059704
BKPIECE,54,true,3.443678,1.956999,0.965142,0.249532,4.927983,1.042248,0.546507,2.857896,1.776853,0.621584,5.013831
BKPIECE,55,true,2.659558,0.839428,1.212417,0.096777,3.715261,1.044441,0.531944,0.688655,1.800874,1.085636,1.921700
BKPIECE,56,true,4.019645,2.186919,0.577710,0.213615,5.746751,1.041763,0.532015,3.979424,2.245547,2.095537,6.263260
BKPIECE,57,true,4.948336,2.066479,0.542965,0.465238,7.167666,1.680175,1.775081,0.762550,8.014120,5.632907,6.621193
BKPIECE,58,true,3.135240,1.797208,0.893371,0.199462,4.342570,1.040497,0.705110,2.586030,1.062777,0.905221,3.530096
BKPIECE,59,true,2.720891,0.926181,0.988948,0.185881,3.889003,1.044971,0.531827,0.758906,0.562034,1.851961,2.653550
BKPIECE,60,true,4.504488,3.963067,0.620458,0.453924,6.020650,5.006517,2.195049,1.720175,5.559159,1.220356,4.589153
BKPIECE,61,true,3.700678,1.758418,0.323404,0.228173,5.253533,1.040628,0.706526,2.922240,2.301012,1.845644,4.878967
BKPIECE,62,true,2.708890,1.687127,1.182271,0.402523,3.739094,1.044484,0.619304,1.767123,0.575424,0.596187,2.735564
BKPIECE,63,true,2.116398,1.210924,0.891807,0.206932,2.651925,1.106094,1.005186,0.558701,0.551749,0.513002,0.744408
BKPIECE,64,true,2.285546,0.689316,1.332805,0.222763,2.993155,1.039681,1.122526,0.175415,0.980644,1.056292,0.849161
BKPIECE,65,true,1.756330,0.706638,0.517701,0.216385,2.177304,1.046028,0.533291,0.116384,0.562692,0.559331,0.266968
BKPIECE,66,true,2.707001,1.267498,0.918841,0.166416,3.637291,1.042489,1.447511,0.856110,1.412875,0.648587,1.920283
BKPIECE,67,true,1.855747,0.717843,1.938768,0.284360,2.319759,1.042096,0.605604,0.087289,0.774758,0.705368,0.228680
BKPIECE,68,true,2.445743,0.855988,1.599237,0.182738,3.171356,1.045175,0.674263,0.581384,1.911981,1.373846,0.395008
BKPIECE,69,true,3.136750,0.957700,0.977859,0.182935,4.597989,1.041714,0.531229,1.033540,0.571871,2.591255,4.069588
BKPIECE,70,true,1.960273,0.708278,0.886426,0.216158,2.493207,1.040813,0.978466,0.073443,0.593436,0.533045,0.623466
BKPIECE,71,true,2.582462,1.018973,0.925464,0.269377,3.552277,1.043356,0.703557,0.936240,1.488581,0.533767,1.963609
BKPIECE,72,true,2.761980,2.201124,1.358924,0.200687,3.449793,1.044229,1.471640,1.926360,1.087720,1.012361,1.086226
BKPIECE,73,true,2.292149,0.707773,1.097603,0.305410,2.876801,1.044349,1.352918,0.315388,0.575859,1.484682,0.480749
BKPIECE,74,true,1.665458,0.687867,0.000000,0.235254,2.000237,1.042508,0.533235,0.031149,0.575981,0.530540,0.060338
BKPIECE,75,true,4.901351,1.310546,0.534151,0.184147,7.266194,4.604533,1.633552,0.134265,2.962338,3.565111,11.123443
BKPIECE,76,true,2.254240,0.888649,1.456051,0.107949,2.938387,1.044358,1.067095,0.359816,0.854924,0.813210,0.942194
BKPIECE,77,true,2.938045,1.516305,1.106537,0.269170,4.207745,1.043191,0.792376,1.509393,0.974279,0.527011,3.785859
BKPIECE,78,true,2.390675,1.519528,1.062961,0.224397,3.062496,1.495812,0.543599,1.291905,0.572833,0.531643,1.279538
BKPIECE,79,true,2.581022,1.528601,0.465067,0.317568,3.425952,1.043007,0.530946,1.895937,0.693375,0.614728,1.883685
BKPIECE,80,true,3.391351,2.066700,0.568589,0.200050,4.645676,1.153158,0.656359,2.698574,2.466904,1.438395,3.087872
BKPIECE,81,true,3.591892,1.904929,0.816115,0.287577,5.095134,1.040374,0.692876,3.003476,2.064707,1.206509,4.893744
BKPIECE,82,true,2.605686,0.797728,1.082265,0.181221,3.745320,1.043753,0.613510,0.253237,0.629765,1.890608,2.358725
BKPIECE,83,true,2.257351,0.786291,1.334503,0.253014,2.902597,1.041579,0.533477,0.598877,1.981214,0.532746,0.407738
BKPIECE,84,true,3.482794,1.883105,1.866146,0.200092,4.877765,1.256967,0.533849,2.520155,3.021133,0.953894,3.843855
BKPIECE,85,true,2.898282,1.014028,0.874703,0.249723,4.082427,1.043658,0.593410,1.057444,1.793431,1.351447,2.560648
BKPIECE,86,true,1.666600,0.688157,0.000000,0.292265,2.002255,1.043269,0.532030,0.033457,0.577391,0.528737,0.062671
BKPIECE,87,true,3.359442,2.179108,0.781351,0.446374,4.544038,1.667148,0.647815,2.941398,1.236059,1.460480,3.332948
BKPIECE,88,true,3.120137,1.381393,0.364441,0.258280,4.544196,1.041493,0.535715,1.569032,0.551992,1.711567,4.325452
BKPIECE,89,true,3.304847,1.740642,0.826526,0.133659,4.695127,2.227907,0.535107,1.292451,0.708014,1.902888,4.255649
BKPIECE,90,true,4.281051,3.358620,0.675107,0.506414,5.573894,6.491360,1.795393,1.387271,1.911931,2.653925,4.087521
BKPIECE,91,true,2.859738,1.034827,1.026996,0.132877,4.188862,1.046349,0.606387,0.794593,0.966445,1.126640,3.637688
BKPIECE,92,true,3.767556,1.342379,0.837840,0.296558,5.400526,1.042141,0.636072,0.483320,7.711336,1.383345,2.938260
BKPIECE,93,true,2.757110,1.477102,0.990545,0.233938,3.876455,1.044065,0.632607,1.488653,0.922243,0.525172,2.988917
BKPIECE,94,true,4.335420,2.247312,0.641124,0.328797,6.153424,4.174963,1.083788,1.729036,3.683322,0.864066,7.260688
BKPIECE,95,true,3.374354,1.491571,0.536685,0.349569,4.813108,1.044095,0.535803,2.186987,1.711710,1.747300,4.160368
BKPIECE,96,true,2.531143,0.717318,1.184028,0.289749,3.199332,1.323715,1.332301,0.217547,1.469325,1.767874,0.295923
BKPIECE,97,true,3.107214,1.942567,0.946309,0.206600,4.381429,1.043771,0.622683,2.244316,0.566924,1.378946,3.798138
BKPIECE,98,true,1.650982,0.694392,0.097501,0.228094,1.962865,1.044020,0.538800,0.042249,0.546417,0.527827,0.026428
BKPIECE,99,true,2.396392,0.748307,0.935092,0.216609,3.197418,1.041754,0.533834,0.489105,1.538133,1.337079,0.802788
BKPIECE,100,true,4.186870,2.498156,0.701531,0.213547,5.378095,6.028375,0.935082,1.432286,4.929869,1.944370,2.259894
BKPIECE,101,true,1.888629,0.694501,0.643380,0.361970,2.530288,1.042520,0.538280,0.027209,0.552863,0.529522,0.876526
BKPIECE,102,true,3.263000,2.025274,0.462088,0.164635,4.515444,1.836788,0.774330,1.336928,2.164494,1.491692,3.042940
BKPIECE,103,true,3.259226,2.238079,0.551976,0.098657,4.445536,1.395586,0.531852,1.998922,2.979365,1.272790,2.444039
BKPIECE,104,true,2.076227,0.970606,0.789180,0.136801,2.747697,1.195780,0.531696,0.409448,0.576209,0.532256,1.065327
BKPIECE,105,true,3.709065,2.202107,0.475452,0.243234,5.331571,1.665018,0.686215,2.646150,1.957791,0.893277,5.908710
BKPIECE,106,true,2.844953,1.116259,0.985445,0.522158,3.913950,1.045983,0.579880,1.367240,1.953281,1.022773,2.124599
BKPIECE,107,true,4.616595,1.506195,0.585980,0.424116,6.913669,3.240844,1.863912,0.759687,3.301582,1.109557,11.037364
BKPIECE,108,true,2.639322,0.726156,1.272337,0.268475,3.519255,1.043606,0.958175,0.156001,2.315729,1.881619,0.610892
BKPIECE,109,true,2.871554,1.055433,1.285661,0.223579,3.759028,1.044537,0.789951,0.732130,2.807251,2.666695,0.205259
BKPIECE,110,true,2.892586,1.009966,1.177380,0.388074,3.995298,1.042277,0.765255,0.751986,2.435978,1.583746,1.787814
BKPIECE,111,true,3.006648,1.551526,0.973360,0.191582,4.229934,1.043722,1.283237,1.139525,0.561043,1.733442,3.278963
BKPIECE,112,true,2.543809,1.431965,0.993135,0.255270,3.449942,1.633603,0.534683,0.920472,0.573092,0.760186,2.048928
BKPIECE,113,true,2.729639,0.824378,1.143218,0.276700,3.874752,1.040993,0.701768,0.492232,1.602171,1.266932,2.346835
BKPIECE,114,true,2.207545,0.751032,1.130585,0.182095,2.765744,1.043967,1.262564,0.635375,0.558844,0.527769,0.844736
BKPIECE,115,true,2.344921,0.728394,1.145275,0.276423,3.243957,1.044154,0.956728,0.059975,0.572604,1.278391,1.586804
BKPIECE,116,true,1.760960,0.706481,1.025580,0.301570,2.184508,1.040875,0.534155,0.029937,0.788955,0.531980,0.175080
BKPIECE,117,true,1.945998,0.747681,1.626577,0.290828,2.364572,1.044480,0.548680,0.605525,0.574368,0.797783,0.216070
BKPIECE,118,true,2.779703,0.961557,1.585916,0.273577,3.863397,1.043953,0.661817,0.831767,1.416713,1.762619,2.009877
BKPIECE,119,true,4.305327,5.676676,0.647109,0.225578,5.167017,6.496310,2.385646,4.688571,1.247983,0.520426,3.196906
BKPIECE,120,true,2.783194,1.189603,1.946082,0.282625,3.814155,1.405478,1.030346,0.436663,1.382255,1.563500,1.927928
BKPIECE,121,true,3.530275,1.939862,0.402957,0.260848,4.890800,1.533799,0.569887,2.510091,2.310130,1.930922,3.608014
BKPIECE,122,true,4.510617,6.510853,0.637538,0.258918,5.414470,6.145284,0.553393,8.116196,1.548724,0.542045,3.440023
BKPIECE,123,true,2.285704,0.764805,1.011962,0.201048,3.195330,1.047334,0.605103,0.341883,0.955802,0.518745,1.755574
BKPIECE,124,true,1.805146,0.716240,0.947988,0.306867,2.271851,1.045112,0.532713,0.099529,0.674738,0.584899,0.321559
BKPIECE,125,true,2.527465,0.940923,1.081498,0.266651,3.476084,1.047601,0.677212,0.759322,1.541404,0.571407,1.791135
BKPIECE,126,true,3.798857,2.818848,1.070519,0.106092,5.244295,1.635817,0.676950,3.517646,1.144179,2.986305,4.470415
BKPIECE,127,true,2.430592,0.784325,1.102388,0.131451,3.359473,1.044965,0.530655,0.401031,0.575281,1.908687,1.447156
BKPIECE,128,true,2.338012,1.340042,1.327219,0.230363,2.740604,2.946507,0.530555,0.413303,0.572946,0.534321,0.468670
BKPIECE,129,true,2.237488,1.182177,1.184847,0.173290,2.927523,1.043618,0.759227,0.854911,0.553762,0.579391,1.215442
BKPIECE,130,true,5.432671,3.083244,0.453657,0.335035,8.031461,5.858918,0.536049,0.396473,6.591998,3.862502,12.267973
BKPIECE,131,true,2.379851,0.950849,1.375083,0.155145,2.984647,1.173351,1.431952,0.595661,1.156583,0.524446,0.781698
BKPIECE,132,true,3.788869,1.737212,0.845198,0.250355,5.412098,1.510104,0.694948,1.789578,2.904695,2.881824,4.574378
BKPIECE,133,true,4.080492,1.256541,0.704074,0.226062,6.224030,1.044575,0.531656,1.528158,3.961616,1.042307,8.542107
BKPIECE,134,true,2.454257,0.687559,1.015159,0.261395,3.254695,1.045725,0.981537,0.369377,0.576250,2.107562,0.942926
BKPIECE,135,true,1.666126,0.688498,0.000000,0.130411,2.000753,1.043843,0.532030,0.033548,0.576895,0.529175,0.060483
BKPIECE,136,true,1.712945,0.706866,0.288221,0.253867,2.090249,1.043188,0.535152,0.095767,0.542824,0.542356,0.174892
BKPIECE,137,true,2.740834,1.175581,0.788988,0.272437,3.849529,1.342207,0.850342,0.367332,2.079210,0.518657,2.354421
BKPIECE,138,true,4.916913,3.273422,0.548672,0.197844,6.976376,1.831489,0.885954,4.528371,7.486637,1.880018,7.563567
BKPIECE,139,true,3.909946,1.921012,0.318923,0.264235,5.634348,1.385246,0.531935,2.190762,4.910891,0.990383,5.278461
BKPIECE,140,true,3.289417,2.019577,0.946748,0.302344,4.564050,1.478419,0.609157,2.413261,1.233493,1.395066,3.690865
BKPIECE,141,true,4.765416,1.796858,0.569806,0.395548,7.083907,2.104488,0.532629,1.412522,7.674426,2.172115,8.813008
BKPIECE,142,true,2.213397,0.812127,1.108071,0.387602,2.992445,1.042014,0.531971,0.557133,0.944727,0.535685,1.287594
BKPIECE,143,true,3.031974,1.133725,1.142068,0.285222,3.939747,1.045217,1.799531,0.413595,2.799831,2.740481,0.394215
BKPIECE,144,true,3.686948,1.728469,0.520795,0.216178,5.412080,1.516037,0.709216,1.756052,1.266076,2.261446,6.084754
BKPIECE,145,true,2.849549,1.751746,0.293182,0.465128,3.907771,1.566128,0.778165,1.354660,0.803597,0.887604,2.729772
BKPIECE,146,true,2.943785,2.942911,1.052465,0.372427,3.144956,4.555820,0.939455,2.016249,0.567624,0.516188,0.070533
BKPIECE,147,true,2.698400,0.793308,1.168198,0.163798,3.833856,1.042183,0.747902,0.450717,2.129973,0.534058,2.376530
BKPIECE,148,true,1.735912,0.711014,0.337710,0.120076,2.132571,1.044851,0.536846,0.121869,0.566484,0.518704,0.224639
BKPIECE,149,true,2.954710,1.190483,0.592227,0.238055,4.251956,1.042235,0.639068,1.170307,1.315750,1.092828,3.470122
BKPIECE,150,true,2.953386,1.083319,1.048037,0.235115,3.773702,1.277310,2.436559,0.941114,1.271287,1.345383,1.450835
KPIECE,1,true,2.596067,0.745044,1.114548,0.469295,3.462259,1.047177,1.976267,0.544140,0.573714,0.522571,2.075694
KPIECE,2,true,2.593950,1.021163,1.114227,0.297798,3.697415,1.736228,0.532420,0.382168,0.615653,0.597577,2.864534
KPIECE,3,true,2.459129,1.679908,1.036407,0.126566,3.121759,1.042130,0.573586,2.035595,0.563098,0.530839,1.302065
KPIECE,4,true,2.941670,1.266123,0.936392,0.658096,4.143902,1.044711,0.651250,1.566218,1.024381,1.239601,3.127260
KPIECE,5,true,1.665939,0.688269,0.000000,0.236365,2.001618,1.043220,0.529849,0.032968,0.573302,0.534208,0.061807
KPIECE,6,true,2.644857,0.656180,1.175379,0.123829,3.811532,1.043571,0.532338,0.127366,1.877691,1.173785,2.240516
KPIECE,7,true,3.113355,1.000555,1.037552,0.132261,4.418163,1.045339,0.532198,1.124163,2.598458,1.556922,2.835901
KPIECE,8,true,2.294325,0.763991,1.044288,0.166585,3.199765,1.047485,0.535308,0.395238,1.082993,0.514226,1.688677
KPIECE,9,true,3.895152,2.117049,0.619805,0.255322,5.751679,1.787418,1.018528,1.778611,0.787134,2.478568,7.321951
KPIECE,10,true,1.744670,0.674135,0.760085,0.829343,2.137405,1.044752,0.562850,0.032581,0.763309,0.519451,0.120932
KPIECE,11,true,3.236182,1.732821,1.557116,0.385736,4.386626,1.046325,0.651657,2.383464,2.449873,1.563366,2.378186
KPIECE,12,true,2.610212,2.115118,1.365111,0.387390,3.248250,1.042433,0.576431,2.748346,0.569555,0.584521,1.291921
KPIECE,13,true,2.779776,1.492291,1.079945,0.137877,3.660731,1.335216,0.752359,1.360042,1.402942,1.482340,1.394257
KPIECE,14,true,1.941274,0.716672,1.700246,0.286352,2.420330,1.044610,0.539087,0.288649,0.677925,1.025020,0.193253
KPIECE,15,true,2.925073,2.112820,1.077960,0.313570,3.683598,1.609318,0.531446,2.714991,1.375533,1.012224,1.312542
KPIECE,16,true,3.817917,1.895070,0.759728,0.291496,5.479961,1.318075,0.613278,2.958794,2.067087,1.852120,5.767136
KPIECE,17,true,2.267163,0.996117,1.684338,0.709359,2.807550,1.139090,1.063516,0.269083,2.032928,0.561439,0.073972
KPIECE,18,true,2.503165,1.329627,0.891957,0.223391,3.278637,1.047119,0.570205,1.535553,0.949536,0.792761,1.370662
KPIECE,19,true,1.783488,0.734543,1.222970,0.160873,2.198092,1.057296,0.586511,0.107190,0.691091,0.517795,0.220947
KPIECE,20,true,3.818669,2.565074,0.818157,0.468811,5.205640,2.966247,0.533463,1.573870,1.876104,4.624749,3.007801
KPIECE,21,true,2.432773,0.738821,1.187171,0.110536,3.373488,1.042241,0.533589,0.423492,1.509896,0.866196,1.542972
KPIECE,22,true,2.994998,2.370258,0.976134,0.851075,3.992193,1.046061,0.532315,3.275610,0.750004,0.514463,2.851562
KPIECE,23,true,6.388140,6.516215,0.410654,0.230018,8.263983,9.828674,1.454156,9.575101,6.485904,5.929828,7.534675
KPIECE,24,true,2.425104,1.307254,1.021363,0.313296,3.187665,1.045700,0.536652,1.406655,0.904754,0.599410,1.387958
KPIECE,25,true,3.010651,1.476514,1.062699,0.424882,4.124542,1.045416,1.188384,1.397658,1.192354,1.724946,2.515262
KPIECE,26,true,3.196954,1.154783,1.088490,0.674514,4.287385,1.045480,1.503496,0.148345,3.755371,3.129866,0.637957
KPIECE,27,true,2.248982,0.939432,1.068579,0.151306,3.022540,1.090335,0.650855,0.330607,1.134446,0.759975,1.091704
KPIECE,28,true,3.030237,1.187666,0.281084,0.123769,4.250562,1.043238,0.748401,0.824352,2.099253,2.148491,2.318599
KPIECE,29,true,5.369254,2.905973,0.462740,0.194488,7.545861,6.054722,0.702648,3.159590,4.729627,4.983090,9.199206
KPIECE,30,true,4.782034,1.418949,0.545839,0.357505,7.337184,3.518972,0.531912,0.704569,2.678816,2.579566,12.854016
KPIECE,31,true,2.151059,1.619036,1.061879,0.537601,2.454816,1.043883,1.004673,1.327741,0.576163,0.526288,0.148308
KPIECE,32,true,3.091182,1.429617,0.996713,0.551013,4.492141,1.449400,0.893692,1.133282,0.876213,0.657929,4.544890
KPIECE,33,true,2.978571,1.551259,1.619717,0.193856,4.042903,1.251364,1.139391,1.546136,1.507442,0.889371,2.538184
KPIECE,34,true,2.868661,1.162785,1.235395,0.281866,3.907506,1.044139,1.162436,0.810883,1.760247,1.623880,1.827630
KPIECE,35,true,2.302319,0.812343,1.326741,0.582807,3.066300,1.041165,0.916501,0.279508,1.490361,0.535112,1.038026
KPIECE,36,true,3.407046,1.967530,0.676185,0.211717,4.591238,1.243375,0.847144,2.471335,3.085201,1.535513,2.425393
KPIECE,37,true,1.776277,0.705477,0.905453,0.888143,2.179057,1.045659,0.735304,0.036579,0.568542,0.513557,0.255517
KPIECE,38,true,2.411178,1.315314,1.221845,0.593374,3.177151,1.045958,0.547243,1.430536,0.787504,0.512063,1.490473
KPIECE,39,true,1.811820,0.684796,0.989562,0.235158,2.202900,1.045777,0.739620,0.123792,0.654665,0.522263,0.196575
KPIECE,40,true,1.919146,0.820464,0.736812,0.547069,2.455798,1.042921,0.532950,0.245142,0.745851,0.630550,0.485709
KPIECE,41,true,2.694579,1.124543,1.010452,0.296515,3.509645,1.043072,0.546673,1.371209,1.918758,1.623993,0.757051
KPIECE,42,true,2.550371,0.991999,1.679275,0.426829,3.264875,1.040415,1.648603,0.277599,2.046764,0.873761,0.617248
KPIECE,43,true,3.768213,1.826717,0.812362,0.184241,5.063372,3.281730,0.533908,0.237490,4.481921,4.372364,1.292014
KPIECE,44,true,3.013162,1.304526,0.543701,0.511611,4.215377,1.457335,0.931910,0.790205,2.024443,1.084688,2.790565
KPIECE,45,true,1.667634,0.688247,0.000000,0.910420,2.003838,1.042540,0.532665,0.033501,0.578638,0.531588,0.062070
KPIECE,46,true,3.443812,0.767250,0.904223,0.738425,4.940316,1.618556,0.535968,0.764721,3.995378,1.338931,3.606286
KPIECE,47,true,3.861958,2.693029,0.785723,0.454170,4.829810,5.669014,0.532307,0.750632,5.847001,1.666174,0.449587
KPIECE,48,true,3.342556,2.443979,1.017830,0.178610,4.359221,1.573949,1.134045,3.297266,1.280308,1.224402,2.662709
KPIECE,49,true,3.165751,2.487181,1.088761,0.114413,3.893872,1.043584,2.584263,1.833741,1.667018,2.313511,0.579865
KPIECE,50,true,4.011614,3.186277,0.648545,0.129849,5.440211,1.401479,1.665478,3.641782,1.812220,3.453539,4.118545
KPIECE,51,true,1.667546,0.688600,0.000000,0.385641,2.004036,1.043590,0.530916,0.033429,0.576910,0.533189,0.062676
KPIECE,52,true,3.194494,1.639958,0.827651,0.284503,4.495842,1.041027,0.711529,1.802269,1.825360,1.466780,3.357829
KPIECE,53,true,3.445032,2.805227,0.658936,0.180079,4.682501,2.032514,1.112465,2.174534,2.301370,0.738531,3.508834
KPIECE,54,true,3.734791,3.162009,0.784770,0.819047,4.994289,4.782577,0.534295,2.175030,0.572300,1.346954,4.537505
KPIECE,55,true,1.665823,0.688368,0.000000,0.267567,2.000960,1.044200,0.531333,0.032822,0.575749,0.528594,0.062267
KPIECE,56,true,4.905325,4.731111,0.628042,0.361800,6.022136,2.352370,1.534333,10.039898,7.343120,0.724198,2.068293
KPIECE,57,true,2.775056,1.665427,1.062795,0.670101,3.788223,1.042333,0.725361,1.970872,0.744958,0.530082,2.687330
KPIECE,58,true,3.578734,1.302431,0.838296,0.506716,5.135939,1.425241,0.534297,1.638008,4.306537,0.542521,4.360735
KPIECE,59,true,3.049155,1.671903,0.945535,0.314532,4.011565,1.044451,1.460104,1.587553,1.723590,1.891585,1.590065
KPIECE,60,true,4.246935,5.385081,0.664487,0.648977,5.505547,1.046402,0.761962,7.857504,1.977343,2.489240,3.904005
KPIECE,61,true,2.771443,0.869554,1.080211,0.200172,4.008720,1.042389,0.615848,0.601305,0.966486,1.487276,2.967589
KPIECE,62,true,3.520602,1.243461,0.875243,0.135438,4.887384,1.337264,2.500941,0.478632,0.561412,4.102312,3.414080
KPIECE,63,true,2.264945,0.784695,0.991331,0.400132,3.160044,1.043629,0.533229,0.404959,0.806188,0.634228,1.707744
KPIECE,64,true,2.121869,0.843904,0.977378,0.756032,2.907810,1.045068,0.762131,0.185002,0.552607,0.514622,1.442899
KPIECE,65,true,1.665383,0.688609,0.000000,0.213607,1.999072,1.043900,0.532738,0.032047,0.576069,0.530769,0.057976
KPIECE,66,true,2.073019,0.900617,1.406503,0.101981,2.642492,1.366235,0.808135,0.192793,0.574364,0.600769,0.755111
KPIECE,67,true,2.487897,1.726131,1.084195,0.738219,2.817190,2.458842,1.390937,0.914699,0.576072,0.527317,0.321768
KPIECE,68,true,3.192502,1.049027,1.248749,0.682345,4.831412,1.337235,0.532157,0.522973,1.085006,1.363921,5.350775
KPIECE,69,true,2.164924,0.699123,1.016390,0.051508,2.683034,1.046462,0.965872,0.702617,0.574930,0.857189,0.539827
KPIECE,70,true,2.944360,1.757290,0.835660,0.673363,3.895451,1.042154,0.533607,2.604307,1.230208,1.242877,2.016100
KPIECE,71,true,2.140114,0.887135,0.995627,0.198530,2.810308,1.042326,0.535657,0.534948,0.552996,1.063575,0.850587
KPIECE,72,true,3.444458,2.064941,0.277402,0.404927,4.747896,1.884698,0.733744,1.795574,2.438367,1.783968,3.227941
KPIECE,73,true,5.125656,1.556434,0.499818,1.076569,7.948700,1.042395,0.811185,0.470724,6.868637,4.117986,12.961426
KPIECE,74,true,3.577129,3.139593,0.831672,0.162785,4.627895,2.334319,1.654451,2.532181,0.558281,3.369967,2.346656
KPIECE,75,true,3.519934,3.087509,0.908477,0.600889,4.486620,2.998700,0.659552,3.913234,1.057763,0.839315,2.921373
KPIECE,76,true,2.860753,1.636189,1.032674,0.156595,3.924480,1.042622,0.566289,1.850484,0.763703,1.467684,2.493126
KPIECE,77,true,2.324900,0.795857,1.408135,0.349025,3.031125,1.041489,0.974508,0.369710,1.655915,0.600437,0.763102
KPIECE,78,true,3.351877,2.236724,0.833200,0.292991,4.766577,1.045657,0.732735,2.674336,1.183995,0.895536,4.702821
KPIECE,79,true,2.298313,0.927589,1.148708,0.224892,3.057315,1.044295,0.537145,0.709424,0.668200,1.249628,1.073551
KPIECE,80,true,2.229281,0.895535,1.018520,0.184477,3.078777,1.046791,0.531550,0.567506,0.619211,0.519313,1.685324
KPIECE,81,true,2.777513,0.786314,1.112240,0.269600,3.699148,1.647924,0.535649,0.027666,2.148954,2.888610,0.465777
KPIECE,82,true,2.101783,0.763970,1.223246,0.150013,2.721012,1.046270,0.532989,0.433789,1.111151,0.711328,0.581967
KPIECE,83,true,2.826582,1.588434,1.036175,0.447421,4.028527,1.045479,0.556032,1.699829,0.571214,0.565768,3.551241
KPIECE,84,true,3.504326,1.325433,0.888576,0.065609,4.830947,2.422488,1.630451,0.550810,0.562439,3.732923,3.381192
KPIECE,85,true,2.075123,1.107326,1.855078,0.331613,2.515669,1.210127,0.681548,0.832666,0.610684,0.530454,0.440658
KPIECE,86,true,2.478566,1.170969,1.869654,0.148837,3.291292,1.346309,0.601116,0.694142,1.072374,1.241758,1.187590
KPIECE,87,true,1.677652,0.680024,0.133992,0.528334,2.030647,1.046754,0.533207,0.033486,0.576841,0.516289,0.107940
KPIECE,88,true,2.757607,0.915389,1.112560,0.253627,3.869532,1.488830,0.534295,0.534684,0.573825,2.150476,2.322289
KPIECE,89,true,3.177371,1.930477,0.889657,0.479176,4.598512,1.082584,0.643072,1.927041,1.133822,0.701525,4.607640
KPIECE,90,true,2.738956,1.354819,0.909510,1.763556,3.799656,1.045596,0.531791,1.634571,0.995107,0.649238,2.645580
KPIECE,91,true,3.287199,2.895189,0.884028,0.230702,4.154963,1.040064,0.551589,4.496159,1.337584,1.640108,1.740173
KPIECE,92,true,2.256534,0.833947,0.953351,0.271222,3.117871,1.046299,0.534650,0.510597,0.855810,0.515822,1.628769
KPIECE,93,true,2.758682,1.401182,1.012235,0.139602,3.743605,1.042335,0.533953,1.665168,0.568035,1.765446,2.035386
KPIECE,94,true,2.420992,1.391647,0.699461,0.523457,3.215591,1.385727,0.625046,0.928068,0.628030,0.737870,1.556461
KPIECE,95,true,2.562720,0.912072,1.093899,0.074788,3.524311,1.047687,1.222758,0.286402,1.076390,1.091752,1.842545
KPIECE,96,true,2.461638,0.887075,1.185799,0.594266,3.305925,1.045989,0.593897,0.748077,1.954420,0.519496,1.197781
KPIECE,97,true,2.990970,1.546011,1.060419,0.067129,4.198127,1.412064,0.858112,1.394227,0.562948,1.321678,3.396871
KPIECE,98,true,3.398734,2.044254,1.348819,0.102450,4.504357,1.428261,0.967355,2.464413,2.227951,2.416947,2.046468
KPIECE,99,true,4.076885,3.237307,0.822874,0.679353,5.346938,3.795428,1.934228,2.047174,4.654282,1.065279,3.124597
KPIECE,100,true,2.088851,0.715767,0.975195,0.508614,2.431918,1.045460,1.505595,0.489276,0.574053,0.520959,0.227957
KPIECE,101,true,3.673755,2.031167,0.229251,0.592496,5.291046,1.750680,0.877126,1.681591,2.195419,1.680056,5.311606
KPIECE,102,true,2.690457,1.242427,0.752976,0.281943,3.599652,1.179541,0.670823,1.097864,1.680841,1.180892,1.428599
KPIECE,103,true,3.147930,0.977409,0.548687,0.164252,4.502577,1.042549,0.535465,1.278988,0.556361,3.184826,3.311274
KPIECE,104,true,3.437292,4.618356,1.276490,0.184538,3.916925,3.005014,2.440201,3.279160,1.328233,1.325653,0.436717
KPIECE,105,true,2.406650,1.552339,1.398076,0.580269,2.894813,1.047644,1.292073,1.244691,1.316915,0.510216,0.380424
KPIECE,106,true,2.216617,0.731174,1.032465,0.308231,3.112386,1.047598,0.577667,0.230820,0.829696,0.511355,1.716254
KPIECE,107,true,3.322597,2.154202,0.649394,0.167247,4.581279,2.177049,0.602368,2.087561,1.446363,0.950514,3.775793
KPIECE,108,true,3.654771,3.230289,0.468043,0.296041,4.834928,3.415328,0.533601,3.149608,0.998805,1.499646,3.760364
KPIECE,109,true,3.375917,1.930732,0.732241,0.634176,4.734581,1.047184,0.724091,2.584859,1.540900,1.521027,3.978756
KPIECE,110,true,3.044527,1.863419,0.351344,0.629966,4.070982,1.323423,0.733189,2.113206,1.767359,1.127552,2.204417
KPIECE,111,true,2.032532,0.899133,0.930748,0.947957,2.682618,1.193836,0.560430,0.242452,0.546798,0.656892,0.930782
KPIECE,112,true,2.111991,0.982640,1.243084,0.933426,2.667677,1.045603,0.531441,0.582351,1.040295,0.905926,0.354887
KPIECE,113,true,4.757175,8.457299,0.682997,0.494702,5.903151,6.495446,3.148938,4.696605,3.460416,0.902554,3.926756
KPIECE,114,true,2.870440,2.668733,1.060727,0.752095,3.632167,1.046221,0.535696,3.644409,0.552993,0.520002,1.940108
KPIECE,115,true,1.985463,0.718655,1.095099,0.107427,2.380459,1.047512,1.289428,0.199948,0.574547,0.511282,0.319346
KPIECE,116,true,2.896883,0.714107,1.139087,0.049155,4.211313,1.045711,0.536218,0.188403,2.086887,1.813087,2.721627
KPIECE,117,true,2.372200,0.928114,1.010480,0.186363,3.174163,1.041509,1.002609,0.501234,1.045502,0.670472,1.366004
KPIECE,118,true,3.069601,2.106523,0.863775,0.111809,4.244918,1.042753,0.582532,2.485507,1.182526,0.843907,3.285225
KPIECE,119,true,1.790035,0.705876,0.520707,0.547598,2.278944,1.047623,0.534760,0.083628,0.576586,0.510485,0.451144
KPIECE,120,true,1.922142,0.737897,1.522661,0.181335,2.387546,1.045237,0.622758,0.245297,0.949343,0.607589,0.224408
KPIECE,121,true,2.154271,0.722154,1.424705,0.043847,2.818307,1.041596,0.595838,0.251317,1.233510,0.968787,0.549835
KPIECE,122,true,4.969549,2.494050,0.524287,0.582898,7.189851,3.683573,0.533504,1.165924,6.187029,5.442268,7.684119
KPIECE,123,true,3.181982,2.039565,1.906796,0.387859,4.404841,1.174680,0.676523,2.445515,0.692280,1.686681,3.449329
KPIECE,124,true,2.631527,1.666886,1.014194,0.415480,3.515946,1.042124,0.585747,1.865900,0.570813,0.854576,2.005776
KPIECE,125,true,3.814646,1.571598,0.773633,0.149329,5.445643,1.044219,0.662837,2.490940,0.910963,4.692573,4.749988
KPIECE,126,true,3.488838,1.489701,0.989897,0.312761,4.830756,1.475360,0.732177,2.146505,2.699079,1.772604,3.346266
KPIECE,127,true,3.432911,1.691254,0.817620,0.420303,4.854796,1.061596,0.672819,1.534124,3.655188,1.593339,3.267816
KPIECE,128,true,2.866861,1.755722,0.999644,0.160290,3.958296,1.044030,0.535827,1.941344,1.042596,0.903578,2.751519
KPIECE,129,true,2.068979,0.911384,2.308033,0.209682,2.542630,1.320647,0.644860,0.240395,1.147534,0.817716,0.109523
KPIECE,130,true,2.393081,0.725674,1.134284,0.063869,3.344949,1.046682,0.533453,0.309911,0.732167,1.479564,1.625058
KPIECE,131,true,3.295383,1.759760,0.876186,0.468700,4.522932,1.045573,0.533023,2.773600,1.237225,2.180111,3.090015
KPIECE,132,true,3.692218,2.261350,0.858113,0.573213,5.081332,2.001600,0.564901,2.780416,0.794868,3.588780,3.901908
KPIECE,133,true,2.560032,1.183043,1.536535,0.928836,3.293989,1.503177,1.126086,0.281637,2.236259,0.752868,0.653736
KPIECE,134,true,2.759599,1.511741,1.032666,0.543593,3.839076,1.046485,0.537458,1.730091,0.903230,0.576362,2.821762
KPIECE,135,true,5.157716,2.889975,0.487800,0.973354,7.557331,6.205182,1.529524,1.399523,2.716663,1.707740,13.043407
KPIECE,136,true,3.004766,1.143469,1.025570,0.194513,4.322418,2.151336,0.534680,0.407835,1.693900,0.520964,3.719905
KPIECE,137,true,2.143558,0.728022,1.600957,0.093452,2.762662,1.043976,0.548357,0.261228,1.490636,0.954459,0.296183
KPIECE,138,true,2.812734,2.292859,1.286031,0.420750,3.469144,1.041529,1.968933,1.199091,1.331810,1.948542,0.421568
KPIECE,139,true,4.359625,2.535859,0.884908,0.197283,5.748733,5.282766,0.594056,3.050846,5.567047,0.548673,3.962942
KPIECE,140,true,5.007840,3.581318,0.703966,0.373459,6.701765,3.114148,1.612631,3.261358,5.816017,8.529445,2.744864
KPIECE,141,true,1.666995,0.688969,0.000000,0.461736,2.001254,1.043835,0.532973,0.033746,0.578888,0.531605,0.057827
KPIECE,142,true,1.665653,0.687392,0.000000,0.396816,2.000670,1.041712,0.533633,0.031946,0.577912,0.528030,0.061168
KPIECE,143,true,1.998952,0.887112,0.780652,0.811833,2.542588,1.039057,0.535679,0.522525,0.551858,0.776292,0.570398
KPIECE,144,true,3.301428,3.170826,0.059239,1.668765,3.999645,1.046013,0.366650,4.819234,1.627603,2.609728,0.430200
KPIECE,145,true,3.878085,2.924941,0.773695,0.774949,5.033972,5.535498,1.796790,1.215271,0.573850,2.108785,3.809348
KPIECE,146,true,2.104665,0.689992,1.099076,0.708069,2.736218,1.042895,0.531921,0.310313,1.506858,0.524844,0.512786
KPIECE,147,true,2.741396,0.884793,1.173211,0.690271,3.648666,1.043535,0.533632,0.856404,3.770375,0.595467,0.715836
KPIECE,148,true,4.325030,4.390366,0.810301,0.445121,5.922382,1.043760,0.534551,6.204307,3.545860,1.931959,5.445451
KPIECE,149,true,2.852841,1.561383,1.232945,0.286621,3.944390,1.044106,1.170395,1.248474,0.707167,1.224788,2.743775
KPIECE,150,true,2.001555,0.679342,1.310903,0.131606,2.614787,1.042083,0.697005,0.034483,1.099332,0.535077,0.598241
ProjEST,1,true,4.377647,2.070387,0.563859,0.401567,6.501019,1.542570,0.756678,2.232183,2.724671,3.440590,8.467096
ProjEST,2,true,3.382826,0.962299,0.673470,0.368521,5.056468,1.214369,0.634394,0.575226,1.761389,2.153295,5.104838
ProjEST,3,true,2.373336,0.729869,1.389355,1.538538,3.234418,1.041602,0.677390,0.227466,1.266185,1.277621,1.142463
ProjEST,4,true,2.752163,1.567655,1.212990,0.248613,3.653063,1.302681,0.624788,1.125799,1.163429,2.108366,1.249337
ProjEST,5,true,2.521388,2.383998,1.191162,0.374223,2.851898,2.674544,0.536211,1.715501,0.555529,0.530827,0.344785
ProjEST,6,true,4.227138,2.862469,0.724935,0.205392,5.764153,1.658223,1.810518,5.128594,2.209567,0.976384,6.085406
ProjEST,7,true,3.189446,2.054058,1.080417,0.084461,4.210442,2.075026,1.000817,1.862177,1.434765,1.479061,2.320717
ProjEST,8,true,2.970318,1.731425,1.454865,0.584627,3.743682,2.525579,1.604534,0.166793,2.329329,1.530061,0.666491
ProjEST,9,true,3.094372,0.924875,1.016221,0.145263,4.436152,1.040558,0.573277,0.734959,2.306170,2.042217,2.877960
ProjEST,10,true,1.864726,0.870950,0.577218,0.058239,2.446975,1.097658,0.536005,0.052075,0.558217,0.514229,0.719018
ProjEST,11,true,2.331887,0.717880,1.116484,0.849200,3.265720,1.046634,0.534873,0.263394,1.116713,0.841644,1.634436
ProjEST,12,true,2.332977,0.734308,1.287861,1.430722,3.176430,1.044249,0.532158,0.388629,1.591811,0.716753,1.169180
ProjEST,13,true,4.532863,1.456791,0.397823,0.722122,6.555905,1.873507,1.992535,0.572986,6.502117,3.280486,6.325221
ProjEST,14,true,3.278556,3.818245,1.181612,0.283229,4.061879,1.043695,2.533835,2.067622,2.215747,2.241869,0.646158
ProjEST,15,true,2.776046,0.836205,1.016859,0.654939,4.100337,1.040151,0.580310,0.445580,0.545536,1.628925,3.465933
ProjEST,16,true,4.353173,1.885151,0.642767,0.359472,5.971891,4.431759,1.082606,0.888843,7.696353,0.684098,4.166457
ProjEST,17,true,2.874171,0.814507,1.099163,0.349938,3.938467,1.961660,0.537415,0.037760,2.124722,2.072661,1.526640
ProjEST,18,true,3.601572,1.481339,0.827531,0.721741,5.250405,2.078000,0.750547,1.283088,1.135465,1.988475,5.735748
ProjEST,19,true,1.666403,0.688068,0.000000,0.142864,2.001368,1.042114,0.532572,0.032469,0.577545,0.533372,0.058829
ProjEST,20,true,3.900807,2.873070,0.708344,0.300184,5.309115,2.200061,0.634328,3.398224,2.673537,2.323424,3.986722
ProjEST,21,true,3.220750,1.951012,0.595740,0.231963,4.318465,1.411217,0.839641,2.095478,0.833992,2.943890,2.249014
ProjEST,22,true,4.883075,2.244801,0.550338,0.095472,6.891560,3.966808,1.139560,2.286666,6.012366,3.241247,7.197778
ProjEST,23,true,2.852313,0.667191,1.060831,0.825209,4.450274,1.048201,0.532915,0.177641,0.572215,0.512407,5.292314
ProjEST,24,true,2.632377,0.851831,1.105330,0.045650,3.818580,1.091333,1.029677,0.147385,1.158298,0.511588,2.991129
ProjEST,25,true,3.181636,1.756375,0.942967,0.437034,4.521674,2.770344,0.535704,0.678122,0.923860,1.030691,4.184086
ProjEST,26,true,3.846775,2.312265,0.419885,0.249456,5.040905,1.513046,1.060525,4.522825,3.204038,1.585493,2.911755
ProjEST,27,true,2.479614,0.727617,1.149318,0.524442,3.475060,1.042898,0.892354,0.115490,1.255579,1.012345,1.829818
ProjEST,28,true,2.550960,0.995179,0.991306,0.126668,3.685380,1.047034,0.870517,0.513308,0.563844,0.514611,2.998084
ProjEST,29,true,2.371005,0.753942,1.133992,0.090368,3.359537,1.041411,0.534043,0.050577,0.968987,1.357453,1.669192
ProjEST,30,true,2.781165,1.063174,1.093323,0.113112,3.961593,1.181816,0.768562,0.735476,0.848657,1.290055,2.910313
ProjEST,31,true,2.500667,1.015201,1.087250,0.515271,3.450479,2.107373,0.533916,0.058460,0.934758,0.519938,2.098888
ProjEST,32,true,1.899720,0.801522,1.201930,0.377289,2.288939,1.047846,0.731126,0.379900,0.558371,0.711449,0.180243
ProjEST,33,true,4.507186,3.265291,0.624360,0.372356,6.201728,3.419155,0.695512,4.110423,1.136925,4.895643,6.057070
ProjEST,34,true,2.651018,1.040622,0.986341,0.083657,3.556016,1.046511,0.853200,0.865539,2.353165,0.554781,1.354702
ProjEST,35,true,3.608045,3.085454,0.173046,0.069352,4.755762,1.045596,0.491111,5.043253,2.999044,0.277736,3.161251
ProjEST,36,true,2.580301,0.695069,1.031230,0.464271,3.894523,1.044544,0.530587,0.131329,0.729790,0.663845,3.557858
ProjEST,37,true,4.998941,2.506857,0.538412,0.237350,6.827787,6.556170,2.627147,0.281584,4.884319,4.535447,6.104748
ProjEST,38,true,3.995307,3.485465,0.554502,0.141594,5.402680,3.598004,0.537465,2.826894,2.178752,2.594992,4.226368
ProjEST,39,true,3.679643,3.088752,0.879617,1.450351,4.998388,1.044549,0.550089,4.281181,0.870674,3.013121,3.780159
ProjEST,40,true,2.247447,0.860746,0.932112,0.061869,2.933832,1.042643,0.533587,0.724059,1.330709,0.614399,0.805620
ProjEST,41,true,2.872919,1.841799,0.840689,0.679434,4.107281,1.240122,0.827052,1.145010,0.948194,0.518675,3.574611
ProjEST,42,true,3.748130,3.149870,0.924349,0.749814,4.759960,1.048436,0.532349,4.478789,3.327960,4.041100,0.619842
ProjEST,43,true,3.022228,1.522286,0.932172,0.850506,4.264004,1.136329,0.839462,1.283365,2.166984,0.534553,3.173168
ProjEST,44,true,2.785945,1.724864,0.864200,0.086004,3.477559,1.568557,0.534540,2.104718,1.339285,1.436127,0.778260
ProjEST,45,true,2.210563,0.760044,0.984074,0.416982,3.133783,1.044027,0.638533,0.192583,0.570513,0.518364,1.922567
ProjEST,46,true,3.126365,1.110984,0.944936,0.073961,4.430305,2.305165,0.613409,0.127429,1.766299,1.836568,3.125289
ProjEST,47,true,1.666468,0.688400,0.000000,0.110546,2.000733,1.042169,0.533568,0.033360,0.576950,0.533268,0.057800
ProjEST,48,true,4.379725,1.363437,0.639437,0.232977,6.741927,2.991405,1.392629,0.269073,2.010172,0.776008,11.742706
ProjEST,49,true,2.104414,0.667187,1.461670,0.592320,2.759287,1.045828,0.533757,0.029922,1.095621,1.357380,0.366051
ProjEST,50,true,1.668323,0.688822,0.000000,0.108488,2.005201,1.043517,0.532471,0.032778,0.577751,0.533790,0.062994
ProjEST,51,true,1.667383,0.687309,0.000000,0.832655,2.004959,1.040251,0.531502,0.032006,0.576073,0.537048,0.063287
ProjEST,52,true,3.671090,2.987531,0.440202,0.297454,4.792317,3.056611,1.001631,2.532312,3.163681,1.119600,2.603063
ProjEST,53,true,3.385378,1.410129,0.910712,0.279113,4.825412,1.373430,0.751320,1.300219,0.842343,3.405477,3.787996
ProjEST,54,true,2.550647,0.797012,1.171547,0.346808,3.605942,1.044549,0.531143,0.487062,1.181410,1.207660,2.053976
ProjEST,55,true,3.123212,0.983349,1.004359,0.119653,4.452797,1.104474,0.669624,0.798476,2.865204,1.425614,2.891063
ProjEST,56,true,2.286541,0.783429,1.249789,0.155645,3.001885,1.046542,0.535587,0.625482,1.745128,0.513144,0.762386
ProjEST,57,true,2.413611,0.777158,1.104965,0.185940,3.403061,1.043287,0.759383,0.081402,0.984331,1.143257,1.813860
ProjEST,58,true,2.666118,0.857248,1.179449,0.347696,3.767023,1.041851,1.118684,0.240546,0.608048,1.723886,2.375171
ProjEST,59,true,3.277156,1.921885,1.255753,0.176287,4.621063,1.043631,0.570800,2.619361,0.645548,1.751893,4.108518
ProjEST,60,true,2.528995,0.809236,1.340695,0.075888,3.533271,1.042224,0.781765,0.099224,1.775835,1.081178,1.615589
ProjEST,61,true,2.609305,0.903226,1.163011,0.110564,3.367014,1.046346,0.574171,0.858650,2.711278,1.419029,0.199000
ProjEST,62,true,4.223408,3.123347,0.635050,0.301238,5.655718,2.401221,1.429907,5.043398,2.039912,1.735405,5.187328
ProjEST,63,true,2.242564,0.764396,1.245339,0.584401,3.036324,1.041423,0.538883,0.278550,0.552588,1.597718,1.019932
ProjEST,64,true,4.368073,2.771686,0.314343,0.233138,6.246863,1.571295,1.049165,3.625614,3.262743,2.461999,7.109247
ProjEST,65,true,2.729157,0.748558,1.068816,1.497377,3.879215,1.042745,0.532022,0.542438,2.247787,0.814390,2.268916
ProjEST,66,true,4.523100,1.597714,0.608571,0.217222,6.817573,3.890115,0.533012,0.405733,1.769852,3.468422,10.391298
ProjEST,67,true,3.417728,1.750481,0.910790,0.165825,4.632214,2.413134,0.719585,1.799886,2.909950,0.810032,3.028278
ProjEST,68,true,4.053770,1.311269,0.724314,0.122570,6.183341,1.044602,0.580163,1.582477,4.137099,0.513863,8.574847
ProjEST,69,true,2.790787,0.773371,1.038767,0.723977,4.120821,1.042924,0.531742,0.463237,1.436630,0.871880,3.442081
ProjEST,70,true,2.033525,0.753390,1.444676,0.088816,2.561235,1.041501,0.535441,0.366585,1.143338,0.815352,0.233007
ProjEST,71,true,1.989844,0.672474,0.968993,0.510270,2.455632,1.040049,1.038797,0.236055,0.681721,0.536790,0.426070
ProjEST,72,true,3.702807,1.962254,0.349460,0.197798,5.332311,2.197252,0.976927,1.368596,1.034061,2.579189,5.554756
ProjEST,73,true,3.403864,1.874418,0.881304,0.466640,4.779686,2.840654,0.532752,0.746739,1.275656,2.397535,3.792956
ProjEST,74,true,2.011212,0.729424,1.586444,0.250194,2.559861,1.041467,0.886140,0.027630,0.568119,1.103433,0.418183
ProjEST,75,true,2.261947,1.436203,1.328563,0.039562,2.787667,1.045316,1.869416,0.336394,0.548045,0.527831,0.789403
ProjEST,76,true,2.960644,1.944486,1.043133,0.056864,3.549270,3.549125,0.605934,0.834365,1.741237,1.978827,0.055923
ProjEST,77,true,2.047868,0.858237,2.109497,0.269307,2.641199,1.307246,0.566548,0.096672,0.868117,0.796307,0.558873
ProjEST,78,true,2.059705,0.737526,1.276870,0.058204,2.593382,1.045006,0.822624,0.221187,1.310300,0.513593,0.329677
ProjEST,79,true,3.324950,2.314212,0.778672,0.164221,4.533973,1.323281,1.139409,2.874040,0.987207,0.948294,3.783060
ProjEST,80,true,1.707941,0.701046,1.603018,0.261611,2.079151,1.066883,0.536168,0.040801,0.611551,0.529070,0.132592
ProjEST,81,true,1.861750,0.737158,0.918709,0.096217,2.360185,1.062956,0.576385,0.112911,0.705240,0.618127,0.390495
ProjEST,82,true,1.822574,0.662890,0.570278,0.355856,2.224908,1.041406,0.706615,0.221422,0.546719,0.529509,0.276104
ProjEST,83,true,1.988267,0.868853,1.359139,0.668454,2.443278,1.041897,0.893279,0.334006,0.758649,0.592997,0.332378
ProjEST,84,true,1.765127,0.730093,0.513335,0.988179,2.162203,1.048815,0.532322,0.195924,0.608312,0.509459,0.220840
ProjEST,85,true,3.621565,3.085233,0.838743,0.330907,4.579082,2.070479,1.494027,3.597043,0.627174,3.428932,1.898079
ProjEST,86,true,2.597779,1.289137,1.264314,0.689837,3.405904,1.661097,0.534656,0.583931,1.821618,1.264192,0.882960
ProjEST,87,true,3.079660,1.595207,0.912801,0.861250,4.368427,1.044202,1.004282,1.581513,1.595958,0.513796,3.744551
ProjEST,88,true,2.584486,1.224595,1.043554,0.316803,3.421620,1.937108,0.531374,0.715246,1.438014,0.525751,1.532075
ProjEST,89,true,2.590692,0.948908,1.335887,0.490296,3.664533,1.044892,1.453209,0.033372,0.577292,1.066007,2.536911
ProjEST,90,true,4.028114,1.252382,0.695093,0.065536,6.041529,1.905838,0.533292,1.200596,4.381930,0.515644,7.688399
ProjEST,91,true,3.805436,4.574920,0.777399,0.496326,4.636598,1.894566,1.557568,4.470581,4.943388,1.157176,0.458066
ProjEST,92,true,4.014107,2.171648,0.797584,0.149028,5.562833,1.103414,0.729542,2.560725,7.983465,0.623232,3.112679
ProjEST,93,true,2.268263,1.020122,2.454137,0.353931,2.869641,1.157984,1.131123,0.366221,0.906916,0.982637,0.600135
ProjEST,94,true,1.770720,0.725553,0.655679,0.211862,2.174005,1.042763,0.543387,0.172480,0.570831,0.591953,0.214033
ProjEST,95,true,2.316070,0.800026,1.217680,0.148077,3.132940,1.044958,0.531753,0.510652,1.235008,0.867495,1.174314
ProjEST,96,true,1.769903,0.710119,0.512604,0.136361,2.219542,1.042136,0.535474,0.103846,0.563166,0.545224,0.342711
ProjEST,97,true,3.199031,2.863214,1.423754,0.896379,4.027031,2.289653,0.648159,3.404553,1.016498,0.783189,2.091748
ProjEST,98,true,3.419093,2.114738,0.753677,0.226921,4.651495,1.613096,0.785001,2.631403,1.598691,1.776486,3.285518
ProjEST,99,true,2.836573,1.307079,1.112632,0.188846,3.991677,1.040361,0.717455,1.331841,1.309991,0.715647,2.930851
ProjEST,100,true,1.829027,0.666056,0.677136,0.239427,2.130102,1.044984,0.857833,0.299394,0.571566,0.522697,0.048866
ProjEST,101,true,1.665514,0.688234,0.000000,0.111489,1.999833,1.042143,0.531764,0.033405,0.573026,0.534826,0.058771
ProjEST,102,true,4.054811,2.302143,0.481278,0.087141,5.824673,1.816000,0.738765,2.857600,3.029356,1.543572,6.456198
ProjEST,103,true,4.040420,2.328676,0.840099,0.069239,5.674626,1.494900,1.054792,2.284834,5.793373,1.311174,4.385920
ProjEST,104,true,2.254483,0.770219,1.118123,0.838822,3.116051,1.046747,0.533538,0.254109,0.570882,1.298640,1.378778
ProjEST,105,true,3.756932,2.372383,0.347102,0.388267,5.440284,1.539742,0.705307,2.344030,1.300062,2.268711,5.956688
ProjEST,106,true,3.272216,1.194479,0.944820,0.134937,4.647586,2.152898,0.534311,0.774879,1.643776,1.954174,3.647356
ProjEST,107,true,3.662392,2.130609,1.449163,0.207558,5.107671,1.297084,0.789303,3.205028,2.449184,1.119027,4.553488
ProjEST,108,true,3.408552,1.533644,0.885309,0.146766,4.494981,2.871005,1.547227,0.285701,2.269143,2.972823,1.672330
ProjEST,109,true,2.148675,0.799260,0.951949,2.055574,2.905231,1.043296,0.678911,0.333876,0.563739,0.734137,1.262845
ProjEST,110,true,2.106754,0.774603,1.165097,0.234979,2.666830,1.041075,0.625015,0.274975,1.440068,0.881062,0.176218
ProjEST,111,true,3.799230,2.704069,0.775808,0.380474,5.522347,1.662489,0.924999,3.045287,0.925122,0.615451,7.260800
ProjEST,112,true,2.022002,0.896066,2.178073,0.108953,2.515452,1.349519,0.770239,0.083778,0.997086,0.533814,0.354053
ProjEST,113,true,2.421081,0.680987,1.144585,0.111378,3.444917,1.044408,0.533740,0.161116,1.059302,1.179617,1.883451
ProjEST,114,true,2.290555,1.153339,1.127296,1.784571,2.999673,1.043135,0.915055,0.821840,0.650224,0.531601,1.284786
ProjEST,115,true,3.693078,1.402445,0.840407,0.310796,5.326615,1.048263,0.958853,1.395658,4.822465,0.915625,4.497959
ProjEST,116,true,2.703831,0.771736,1.160765,0.121098,3.823721,1.047614,0.670519,0.376876,1.782958,1.338286,2.094448
ProjEST,117,true,3.015914,1.156585,0.931028,0.078620,4.410063,1.682907,0.626145,0.589449,1.309443,0.732105,4.155685
ProjEST,118,true,3.251912,1.512019,0.964748,0.342974,4.522519,2.988466,0.964481,0.295359,0.993302,1.781699,3.551622
ProjEST,119,true,1.932412,0.665048,0.677246,0.193599,2.471251,1.045434,0.769907,0.185369,0.572466,0.521677,0.639362
ProjEST,120,true,3.073652,1.526170,0.688503,0.991150,4.315239,1.044973,0.808809,1.844559,1.322167,1.001866,3.424959
ProjEST,121,true,1.925004,0.774367,0.748161,0.171274,2.494900,1.049362,0.700590,0.159375,0.563051,0.510691,0.722572
ProjEST,122,true,3.230251,1.785597,0.957626,0.196920,4.417768,2.947597,1.161230,0.796607,0.834530,1.141486,3.553070
ProjEST,123,true,2.311083,0.724236,1.219914,0.472134,2.778568,1.043357,1.910608,0.620969,0.628089,0.524919,0.613164
ProjEST,124,true,4.353776,1.935158,0.605631,0.547758,6.348210,1.614294,0.915076,2.194947,3.439235,3.678470,7.113347
ProjEST,125,true,3.710545,4.690813,0.802172,0.426611,4.931236,1.229855,0.972333,4.884232,1.751446,1.063065,3.867214
ProjEST,126,true,3.504997,1.760760,0.744259,0.691878,4.844799,1.292203,1.195705,1.779934,2.112114,2.735144,3.169905
ProjEST,127,true,3.405435,1.952355,0.660895,0.142274,4.487351,1.134196,0.640279,2.808835,3.572797,1.915224,1.525655
ProjEST,128,true,2.253534,0.851035,1.087572,0.301079,3.077170,1.043262,0.706052,0.458153,0.820993,0.530337,1.519616
ProjEST,129,true,2.643539,1.093163,1.185427,0.070420,3.542373,2.111078,0.536195,0.103565,1.668489,1.246316,1.322653
ProjEST,130,true,2.428076,0.998368,0.932083,0.551449,3.438005,1.042243,0.618267,0.702015,0.570895,0.570841,2.391294
ProjEST,131,true,1.666768,0.687692,0.000000,0.409233,2.002298,1.041334,0.533298,0.033060,0.578366,0.531399,0.060659
ProjEST,132,true,1.762684,0.711142,0.824279,0.256440,2.201437,1.052492,0.558190,0.077215,0.585139,0.513912,0.320109
ProjEST,133,true,2.610504,1.075453,1.404318,0.108573,3.330383,1.044909,1.970755,0.026846,2.745061,0.522664,0.504497
ProjEST,134,true,3.927258,2.504550,0.769013,0.183779,5.639782,2.262756,0.531038,2.801917,1.262961,2.008553,6.556134
ProjEST,135,true,2.537011,0.726103,1.041772,0.174960,3.677727,1.040564,0.530926,0.302374,1.042928,0.992942,2.526691
ProjEST,136,true,2.188639,0.720021,0.915025,0.545014,3.122628,1.044218,0.632918,0.083417,0.572016,0.526497,1.931077
ProjEST,137,true,3.975977,2.084363,0.634741,0.100855,5.571372,1.322393,0.786896,3.152262,4.487635,1.374254,4.684953
ProjEST,138,true,3.041457,2.784917,1.095865,0.193635,3.808102,1.130449,2.808016,1.765709,1.059105,0.782297,1.704887
ProjEST,139,true,2.067152,0.866902,2.078259,0.419272,2.687628,1.282241,0.676808,0.030970,0.823866,0.792105,0.667128
ProjEST,140,true,4.050544,1.061482,0.723053,0.603634,6.254466,1.042734,0.535245,1.163316,1.452046,3.167732,9.045832
ProjEST,141,true,3.000765,0.765865,1.015941,0.374729,4.172329,1.045441,0.554551,0.696152,1.463278,3.549879,1.695289
ProjEST,142,true,1.951212,0.898505,0.718768,0.380885,2.463851,1.043624,1.047194,0.046992,0.551081,0.524418,0.593918
ProjEST,143,true,2.136256,0.739042,1.317185,0.277014,2.879991,1.042674,0.622213,0.144611,1.022889,0.754541,0.976662
ProjEST,144,true,3.098986,0.746892,0.998269,0.633442,4.627302,1.046786,1.056709,0.164716,2.341836,0.520948,4.472716
ProjEST,145,true,3.871579,1.616395,0.782269,0.070840,5.374129,2.266478,0.531397,1.524165,3.891867,3.550162,3.225056
ProjEST,146,true,3.871354,1.693287,0.774272,0.338808,4.675885,5.585739,2.072509,0.769234,5.708617,0.534664,0.316620
ProjEST,147,true,2.127703,0.999596,1.727509,0.242374,2.481104,1.251854,1.274313,0.428917,0.638925,0.876391,0.056720
ProjEST,148,true,2.675025,1.619663,1.101547,0.152247,3.464631,2.800550,0.533130,0.676386,0.790507,0.652972,1.702215
ProjEST,149,true,2.549606,0.714465,1.238337,0.214055,3.564127,1.048919,0.948691,0.080279,2.132108,0.510588,1.779906
ProjEST,150,true,3.072827,1.790289,0.956847,0.290968,4.358068,1.040636,0.590152,2.278628,0.681323,0.833888,4.017639
