Planner,Run,Success,Length_In_Joint_Space,Length_In_Cartesian_Space(Endeffector),Smoothness,Time,Weighted_Length,Shoulder_Pan_Joint,Shoulder_Lift_Joint,Elbow_Joint,Wrist_1_Joint,Wrist_2_Joint,Wrist_3_Joint
LBKPIECE,1,true,1.508491,0.565724,0.000000,0.394955,1.901407,0.577860,0.293508,0.066683,0.339824,0.995358,0.002311
LBKPIECE,2,true,1.510299,0.564999,0.000000,0.268158,1.905163,0.575294,0.292857,0.067892,0.340461,1.000816,0.003684
LBKPIECE,3,true,1.501496,0.565032,0.000000,0.327882,1.893063,0.577762,0.295824,0.060377,0.319129,0.992726,0.008671
LBKPIECE,4,true,1.512844,0.564244,0.000000,0.409146,1.911347,0.574192,0.293228,0.066366,0.339653,1.005624,0.009635
LBKPIECE,5,true,1.505238,0.563864,0.000000,0.306788,1.898187,0.574981,0.293769,0.063661,0.330186,0.999103,0.004041
LBKPIECE,6,true,1.506686,0.564114,0.000000,0.401571,1.900766,0.577005,0.294130,0.064556,0.335642,0.990374,0.008395
LBKPIECE,7,true,1.505749,0.564499,0.000000,0.614338,1.897558,0.577294,0.293413,0.066427,0.338583,0.988260,0.003303
LBKPIECE,8,true,1.505808,0.564686,0.000000,0.196694,1.899096,0.574973,0.294909,0.063356,0.326833,1.002499,0.004888
LBKPIECE,9,true,1.506427,0.564280,0.000000,0.201464,1.899050,0.575185,0.293679,0.065167,0.334237,0.999274,0.001779
LBKPIECE,10,true,1.505583,0.564489,0.000000,0.481694,1.897286,0.578411,0.294571,0.065036,0.338842,0.985777,0.004147
LBKPIECE,11,true,1.506248,0.564754,0.000000,0.266209,1.900055,0.575471,0.294970,0.062721,0.327005,1.002811,0.005806
LBKPIECE,12,true,1.509983,0.565621,0.000000,0.253831,1.904954,0.577703,0.293826,0.066917,0.340146,0.994262,0.007195
LBKPIECE,13,true,1.507002,0.564912,0.000000,0.189197,1.900775,0.574663,0.295003,0.063414,0.327553,1.006509,0.003914
LBKPIECE,14,true,1.505143,0.564654,0.000000,0.218562,1.895724,0.577264,0.293410,0.066820,0.339027,0.988587,0.000349
LBKPIECE,15,true,1.503871,0.564035,0.000000,0.598849,1.896827,0.575194,0.294743,0.061828,0.323965,0.999437,0.006460
LBKPIECE,16,true,1.502564,0.563971,0.000000,0.347099,1.892858,0.577461,0.295110,0.063288,0.331853,0.986615,0.003372
LBKPIECE,17,true,1.505949,0.565297,0.000000,0.266688,1.898933,0.577621,0.293599,0.065203,0.332607,0.992252,0.006601
LBKPIECE,18,true,1.502110,0.564195,0.000000,0.354712,1.894101,0.576968,0.295278,0.061367,0.323259,0.990897,0.008564
LBKPIECE,19,true,1.509647,0.564576,0.000000,0.301144,1.904688,0.575172,0.292809,0.067127,0.339167,0.999884,0.004875
LBKPIECE,20,true,1.503296,0.564425,0.000000,0.484666,1.894339,0.575242,0.296322,0.060306,0.322567,1.004867,0.000594
LBKPIECE,21,true,1.504767,0.564759,0.000000,0.418331,1.895778,0.578176,0.294292,0.064651,0.335993,0.988763,0.002447
LBKPIECE,22,true,1.503104,0.564686,0.000000,0.208006,1.895152,0.575034,0.296337,0.059209,0.317338,1.007862,0.003540
LBKPIECE,23,true,1.499634,0.564831,0.000000,0.265675,1.888473,0.577576,0.294083,0.063133,0.323283,0.987512,0.003317
LBKPIECE,24,true,1.507772,0.564219,0.000000,0.652014,1.901426,0.574917,0.293417,0.065820,0.336354,1.000051,0.002818
LBKPIECE,25,true,1.503847,0.564035,0.000000,0.452319,1.895665,0.578397,0.295759,0.062030,0.332415,0.986333,0.006621
LBKPIECE,26,true,1.495888,0.564151,0.000000,0.438940,1.882607,0.577588,0.295198,0.058457,0.315109,0.991238,0.000091
LBKPIECE,27,true,1.508967,0.564977,0.000000,0.338634,1.904271,0.576891,0.295224,0.064714,0.335306,0.995734,0.009113
LBKPIECE,28,true,1.511759,0.564031,0.000000,0.424511,1.909583,0.573837,0.293889,0.064838,0.336516,1.008096,0.008241
LBKPIECE,29,true,1.502557,0.565468,0.000000,0.773216,1.894041,0.577853,0.295336,0.061060,0.321263,0.995875,0.006289
LBKPIECE,30,true,1.510944,0.565671,0.000000,0.388763,1.906073,0.575644,0.293051,0.066516,0.337925,1.007398,0.002419
LBKPIECE,31,true,1.503647,0.564174,0.000000,0.305320,1.893942,0.577319,0.293770,0.063917,0.334603,0.991230,0.000115
LBKPIECE,32,true,1.505421,0.565633,0.000000,0.375001,1.896645,0.579002,0.293820,0.065745,0.336396,0.988086,0.003243
LBKPIECE,33,true,1.508182,0.563778,0.000000,0.385761,1.903268,0.575818,0.294078,0.065169,0.337522,0.993752,0.008272
LBKPIECE,34,true,1.504519,0.565024,0.000000,0.131948,1.896844,0.575370,0.294039,0.063457,0.324829,1.002153,0.003728
LBKPIECE,35,true,1.511586,0.564893,0.000000,0.530755,1.908038,0.575308,0.293299,0.067584,0.340893,1.000794,0.007015
LBKPIECE,36,true,1.499343,0.564746,0.000000,0.716356,1.890251,0.577560,0.294018,0.059991,0.315480,0.992424,0.008558
LBKPIECE,37,true,1.504934,0.564283,0.000000,0.268933,1.897933,0.576946,0.294897,0.063864,0.331234,0.989682,0.008204
LBKPIECE,38,true,1.510544,0.565337,0.000000,0.590181,1.906896,0.576143,0.295398,0.063672,0.333325,1.005225,0.007980
LBKPIECE,39,true,1.505401,0.564384,0.000000,0.414971,1.898118,0.576587,0.294835,0.064289,0.332371,0.992047,0.006101
LBKPIECE,40,true,1.507575,0.564568,0.000000,0.530042,1.901233,0.577799,0.294883,0.064849,0.338585,0.990017,0.006651
LBKPIECE,41,true,1.500914,0.564274,0.000000,0.166134,1.892426,0.576906,0.296416,0.059722,0.318485,0.992376,0.008836
LBKPIECE,42,true,1.501889,0.565150,0.000000,0.402634,1.891801,0.579483,0.294549,0.062821,0.329198,0.985196,0.004423
LBKPIECE,43,true,1.513189,0.565669,0.000000,0.294737,1.911080,0.576527,0.293907,0.067113,0.340761,1.001143,0.010290
LBKPIECE,44,true,1.505373,0.564827,0.000000,0.302712,1.897884,0.577994,0.294777,0.065194,0.334486,0.986061,0.007635
LBKPIECE,45,true,1.506669,0.563969,0.000000,0.369919,1.899454,0.575984,0.293748,0.065937,0.338317,0.992576,0.003490
LBKPIECE,46,true,1.504609,0.563956,0.000000,0.407308,1.896343,0.577222,0.294454,0.063104,0.334133,0.991734,0.003201
LBKPIECE,47,true,1.509287,0.565287,0.000000,0.200601,1.903120,0.576636,0.294227,0.065659,0.338445,1.000486,0.002493
LBKPIECE,48,true,1.501893,0.564122,0.000000,0.687457,1.891873,0.576696,0.293129,0.063783,0.329471,0.991180,0.001424
LBKPIECE,49,true,1.503003,0.564301,0.000000,0.346036,1.892481,0.578559,0.295194,0.063766,0.335835,0.984699,0.000966
LBKPIECE,50,true,1.502039,0.565205,0.000000,0.398805,1.892220,0.577970,0.294471,0.063740,0.326843,0.988665,0.004433
LBKPIECE,51,true,1.508740,0.565626,0.000000,0.514193,1.902395,0.576589,0.294609,0.065500,0.335459,1.000924,0.003214
LBKPIECE,52,true,1.506982,0.564829,0.000000,0.526206,1.899655,0.577903,0.294129,0.066230,0.339598,0.988170,0.004964
LBKPIECE,53,true,1.504813,0.564458,0.000000,0.550829,1.897794,0.578194,0.295414,0.062270,0.330821,0.989183,0.008579
LBKPIECE,54,true,1.504163,0.564558,0.000000,0.349885,1.896865,0.578334,0.293747,0.062844,0.330443,0.989125,0.008012
LBKPIECE,55,true,1.509703,0.565308,0.000000,0.351847,1.905802,0.578097,0.293380,0.065440,0.337861,0.993836,0.010590
LBKPIECE,56,true,1.506476,0.564669,0.000000,0.391448,1.901283,0.575353,0.293191,0.064162,0.327729,1.000390,0.008645
LBKPIECE,57,true,1.508396,0.565501,0.000000,0.635992,1.902212,0.578314,0.293217,0.066931,0.339997,0.990440,0.006358
LBKPIECE,58,true,1.501483,0.563978,0.000000,0.418289,1.893293,0.575429,0.294993,0.059469,0.317909,1.001108,0.005544
LBKPIECE,59,true,1.497543,0.564714,0.000000,0.465379,1.885706,0.577704,0.294684,0.059610,0.315853,0.992173,0.002612
LBKPIECE,60,true,1.501223,0.565161,0.000000,0.259702,1.891531,0.578858,0.293673,0.062744,0.325465,0.987113,0.005819
LBKPIECE,61,true,1.503100,0.565203,0.000000,0.438891,1.895658,0.577218,0.295616,0.061155,0.320575,0.995852,0.008892
LBKPIECE,62,true,1.503343,0.564482,0.000000,0.272689,1.893951,0.578262,0.295695,0.063319,0.332565,0.985952,0.004246
LBKPIECE,63,true,1.497456,0.564111,0.000000,0.589280,1.885945,0.578379,0.296202,0.058802,0.317745,0.985824,0.005423
LBKPIECE,64,true,1.509127,0.564674,0.000000,0.598266,1.904474,0.574269,0.293048,0.066073,0.333757,1.004830,0.005485
LBKPIECE,65,true,1.501222,0.565095,0.000000,0.630549,1.891425,0.578765,0.294106,0.063391,0.326351,0.984638,0.006416
LBKPIECE,66,true,1.497248,0.565062,0.000000,0.447258,1.885209,0.578270,0.295296,0.059728,0.315007,0.989643,0.003806
LBKPIECE,67,true,1.496959,0.563827,0.000000,0.676907,1.885671,0.577157,0.295808,0.058862,0.314969,0.988277,0.005812
LBKPIECE,68,true,1.510930,0.564881,0.000000,0.162619,1.906826,0.575913,0.294862,0.064795,0.338151,1.003457,0.005733
LBKPIECE,69,true,1.503626,0.564420,0.000000,0.363356,1.896114,0.577635,0.294193,0.062244,0.327905,0.991377,0.007537
LBKPIECE,70,true,1.502067,0.564623,0.000000,0.819323,1.892789,0.578701,0.295336,0.062378,0.328212,0.984923,0.006655
LBKPIECE,71,true,1.511422,0.564813,0.000000,0.481009,1.907582,0.575464,0.294898,0.065955,0.339595,1.002086,0.006396
LBKPIECE,72,true,1.502322,0.565392,0.000000,0.462519,1.892448,0.579800,0.294701,0.062987,0.329649,0.984928,0.004906
LBKPIECE,73,true,1.506899,0.565073,0.000000,0.221196,1.900281,0.578783,0.294400,0.064633,0.336885,0.988650,0.007394
LBKPIECE,74,true,1.507985,0.564028,0.000000,0.430434,1.901643,0.575100,0.294312,0.064561,0.336591,1.001276,0.002181
LBKPIECE,75,true,1.502562,0.564987,0.000000,0.416208,1.894580,0.576014,0.296360,0.060135,0.317508,1.001120,0.006556
LBKPIECE,76,true,1.503195,0.563734,0.000000,0.973698,1.893299,0.577939,0.295313,0.063153,0.335738,0.985663,0.001791
LBKPIECE,77,true,1.499201,0.564188,0.000000,0.583013,1.889365,0.576906,0.296069,0.058860,0.316041,0.993394,0.006333
LBKPIECE,78,true,1.504594,0.564507,0.000000,0.266460,1.896613,0.577860,0.295553,0.063894,0.332934,0.986723,0.006839
LBKPIECE,79,true,1.507720,0.563939,0.000000,0.226198,1.903128,0.574706,0.293403,0.063897,0.331541,1.002207,0.007465
LBKPIECE,80,true,1.506927,0.565060,0.000000,0.409329,1.900537,0.578505,0.292961,0.066191,0.338010,0.987120,0.008041
LBKPIECE,81,true,1.506269,0.564110,0.000000,0.562540,1.900060,0.575586,0.294430,0.064558,0.332232,0.994935,0.007106
LBKPIECE,82,true,1.510049,0.564015,0.000000,0.329127,1.906863,0.575731,0.293440,0.065589,0.338564,0.996537,0.010389
LBKPIECE,83,true,1.505768,0.564776,0.000000,0.825836,1.899129,0.578244,0.296269,0.062443,0.331345,0.990064,0.008971
LBKPIECE,84,true,1.505580,0.564471,0.000000,0.339797,1.897884,0.577433,0.294201,0.064649,0.335483,0.990301,0.004704
LBKPIECE,85,true,1.508550,0.564348,0.000000,0.545310,1.903210,0.576013,0.293306,0.066709,0.339039,0.993867,0.006789
LBKPIECE,86,true,1.509109,0.564576,0.000000,0.285946,1.905227,0.576842,0.294096,0.064109,0.335380,0.996863,0.010119
LBKPIECE,87,true,1.504262,0.564502,0.000000,0.205703,1.894985,0.578682,0.295955,0.063692,0.335909,0.984879,0.003688
LBKPIECE,88,true,1.506098,0.565050,0.000000,0.868582,1.899183,0.574940,0.293608,0.063300,0.326593,1.007811,0.002079
LBKPIECE,89,true,1.503985,0.564309,0.000000,0.346441,1.896124,0.577524,0.295795,0.063202,0.330468,0.987119,0.007863
LBKPIECE,90,true,1.499219,0.565099,0.000000,0.481853,1.887675,0.577441,0.293618,0.062188,0.320575,0.992589,0.001247
LBKPIECE,91,true,1.504956,0.564571,0.000000,0.636955,1.895809,0.578650,0.295126,0.064660,0.338390,0.985322,0.002744
LBKPIECE,92,true,1.503263,0.565045,0.000000,0.729432,1.893531,0.579164,0.294886,0.062867,0.332031,0.988078,0.002774
LBKPIECE,93,true,1.508869,0.565571,0.000000,0.653750,1.904314,0.576799,0.294950,0.063941,0.331205,1.001053,0.008735
LBKPIECE,94,true,1.506429,0.563858,0.000000,0.294583,1.898802,0.575764,0.294124,0.064914,0.337367,0.995565,0.001595
LBKPIECE,95,true,1.506776,0.563735,0.000000,0.315530,1.900984,0.577311,0.295004,0.064541,0.337683,0.985987,0.009847
LBKPIECE,96,true,1.505613,0.564962,0.000000,0.255158,1.898428,0.578283,0.293993,0.064689,0.334169,0.988482,0.007254
LBKPIECE,97,true,1.507321,0.565199,0.000000,0.792873,1.899257,0.578146,0.295281,0.065217,0.339484,0.992101,0.001788
LBKPIECE,98,true,1.501530,0.565081,0.000000,0.621162,1.891677,0.578732,0.293901,0.063740,0.327710,0.984881,0.005629
LBKPIECE,99,true,1.508008,0.564730,0.000000,0.913914,1.901915,0.576851,0.294503,0.064516,0.336425,0.996818,0.004975
LBKPIECE,100,true,1.499519,0.564562,0.000000,0.287980,1.888645,0.578970,0.295883,0.060611,0.323242,0.984523,0.005328
LBKPIECE,101,true,1.500147,0.564570,0.000000,0.407372,1.889380,0.577879,0.293136,0.063298,0.326041,0.986896,0.003191
LBKPIECE,102,true,1.502141,0.565323,0.000000,0.428275,1.892058,0.579286,0.295350,0.063377,0.329115,0.984258,0.005041
LBKPIECE,103,true,1.505307,0.564623,0.000000,0.224772,1.896635,0.577556,0.294358,0.064259,0.335791,0.992488,0.001497
LBKPIECE,104,true,1.506326,0.564546,0.000000,0.571026,1.899305,0.575398,0.295111,0.064181,0.331132,0.999184,0.004013
LBKPIECE,105,true,1.507945,0.564825,0.000000,0.254859,1.900851,0.576727,0.294622,0.064790,0.337826,0.998354,0.001579
LBKPIECE,106,true,1.499305,0.564487,0.000000,0.296062,1.889362,0.578130,0.294193,0.060412,0.319714,0.988878,0.006590
LBKPIECE,107,true,1.506950,0.564499,0.000000,0.507317,1.900585,0.576821,0.295957,0.063502,0.333631,0.994277,0.006709
LBKPIECE,108,true,1.506963,0.564863,0.000000,0.138440,1.900152,0.575999,0.292442,0.066457,0.335269,0.997170,0.003600
LBKPIECE,109,true,1.508680,0.564953,0.000000,0.262474,1.903579,0.577977,0.294092,0.064503,0.337619,0.993970,0.007954
LBKPIECE,110,true,1.504614,0.564566,0.000000,0.337651,1.896709,0.578942,0.294173,0.064090,0.335240,0.984440,0.006979
LBKPIECE,111,true,1.497977,0.563669,0.000000,0.384137,1.887526,0.577564,0.296479,0.058734,0.317285,0.986209,0.007663
LBKPIECE,112,true,1.507478,0.564991,0.000000,0.377679,1.899626,0.577429,0.294955,0.064629,0.338451,0.996411,0.000615
LBKPIECE,113,true,1.508926,0.565611,0.000000,0.231492,1.903197,0.577950,0.293210,0.067128,0.339549,0.992293,0.006729
LBKPIECE,114,true,1.500660,0.564563,0.000000,0.654294,1.890939,0.577265,0.296685,0.058872,0.318693,0.995956,0.004510
LBKPIECE,115,true,1.511511,0.565165,0.000000,0.573921,1.907882,0.576106,0.293613,0.067835,0.341421,0.997454,0.008236
LBKPIECE,116,true,1.504498,0.563989,0.000000,0.163261,1.895521,0.576789,0.294367,0.065124,0.336379,0.988600,0.002254
LBKPIECE,117,true,1.501664,0.565703,0.000000,0.201018,1.893383,0.577449,0.295375,0.059991,0.315408,0.999043,0.007728
LBKPIECE,118,true,1.508306,0.565541,0.000000,0.310686,1.902714,0.578104,0.293588,0.065526,0.336424,0.993782,0.007564
LBKPIECE,119,true,1.504140,0.563620,0.000000,0.387030,1.895698,0.576908,0.294668,0.063424,0.334357,0.989288,0.003793
LBKPIECE,120,true,1.504784,0.565185,0.000000,0.564940,1.897527,0.578414,0.295410,0.063422,0.329656,0.988368,0.009105
LBKPIECE,121,true,1.498100,0.564107,0.000000,0.781238,1.885871,0.577040,0.295633,0.060784,0.320508,0.988983,0.001357
LBKPIECE,122,true,1.497389,0.564445,0.000000,0.507761,1.885599,0.577327,0.294011,0.060895,0.317300,0.989276,0.003366
LBKPIECE,123,true,1.501380,0.564548,0.000000,0.699624,1.890797,0.577786,0.295213,0.063113,0.328250,0.986840,0.002941
LBKPIECE,124,true,1.499861,0.564544,0.000000,0.322637,1.889928,0.577662,0.296753,0.059854,0.318825,0.989556,0.006933
LBKPIECE,125,true,1.509783,0.564868,0.000000,0.645775,1.904474,0.576072,0.293462,0.066259,0.339649,1.000078,0.003925
LBKPIECE,126,true,1.505667,0.564943,0.000000,0.341865,1.897870,0.577974,0.292603,0.066894,0.337654,0.986590,0.005317
LBKPIECE,127,true,1.500019,0.565181,0.000000,0.437585,1.890515,0.579288,0.294961,0.060200,0.319600,0.987628,0.008381
LBKPIECE,128,true,1.501443,0.564169,0.000000,0.557754,1.890663,0.578168,0.294519,0.062522,0.330773,0.987198,0.001152
LBKPIECE,129,true,1.508171,0.565507,0.000000,0.586855,1.902885,0.578124,0.293026,0.066595,0.336905,0.990371,0.009559
LBKPIECE,130,true,1.505140,0.563886,0.000000,0.404313,1.896099,0.576570,0.293919,0.065300,0.338567,0.991002,0.000089
LBKPIECE,131,true,1.504215,0.565166,0.000000,0.238102,1.896500,0.579066,0.294083,0.063500,0.330783,0.987193,0.008037
LBKPIECE,132,true,1.501942,0.565394,0.000000,0.678422,1.893426,0.579346,0.294707,0.061503,0.323480,0.987830,0.008961
LBKPIECE,133,true,1.510053,0.564443,0.000000,0.496824,1.906689,0.576056,0.293115,0.064834,0.336961,1.000347,0.008948
LBKPIECE,134,true,1.511942,0.564719,0.000000,0.380120,1.909427,0.574902,0.293138,0.067300,0.339525,1.001789,0.009315
LBKPIECE,135,true,1.501356,0.564313,0.000000,0.770670,1.891908,0.578376,0.295475,0.061398,0.326279,0.986110,0.006430
LBKPIECE,136,true,1.501133,0.564569,0.000000,0.437156,1.891299,0.577268,0.295377,0.062404,0.324210,0.988875,0.005264
LBKPIECE,137,true,1.500439,0.564703,0.000000,0.242776,1.888492,0.577729,0.294745,0.063887,0.328507,0.986323,0.000127
LBKPIECE,138,true,1.502872,0.564076,0.000000,0.528200,1.893827,0.575303,0.293614,0.062508,0.326201,1.000240,0.000759
LBKPIECE,139,true,1.505773,0.564485,0.000000,0.159572,1.896645,0.577993,0.295395,0.065165,0.340131,0.987561,0.001108
LBKPIECE,140,true,1.505658,0.564966,0.000000,0.721427,1.899091,0.577249,0.292623,0.064975,0.331648,0.993129,0.007381
LBKPIECE,141,true,1.511801,0.564179,0.000000,0.600322,1.908806,0.573420,0.293359,0.066680,0.338839,1.007330,0.005914
LBKPIECE,142,true,1.508656,0.564611,0.000000,0.476549,1.903868,0.576459,0.293670,0.064818,0.335882,0.997642,0.007573
LBKPIECE,143,true,1.501547,0.563942,0.000000,0.335048,1.891404,0.576904,0.294978,0.062230,0.327895,0.990399,0.002236
LBKPIECE,144,true,1.505347,0.564600,0.000000,0.515721,1.897555,0.577422,0.293943,0.065531,0.335446,0.988262,0.005467
LBKPIECE,145,true,1.508381,0.564673,0.000000,0.377748,1.902007,0.576726,0.295315,0.064922,0.338242,0.995843,0.004166
LBKPIECE,146,true,1.504539,0.564549,0.000000,0.207561,1.897925,0.577407,0.295566,0.062443,0.327480,0.990485,0.010259
LBKPIECE,147,true,1.506523,0.564048,0.000000,0.316700,1.899831,0.576600,0.293434,0.064845,0.336677,0.993037,0.005018
LBKPIECE,148,true,1.511525,0.564604,0.000000,0.209069,1.908789,0.574988,0.294209,0.065547,0.337403,1.003765,0.008799
LBKPIECE,149,true,1.497472,0.564768,0.000000,0.836550,1.884818,0.577497,0.295028,0.061663,0.318696,0.987656,0.001882
LBKPIECE,150,true,1.506066,0.564619,0.000000,0.624548,1.899150,0.577173,0.294435,0.064666,0.334066,0.991320,0.006575
BKPIECE,1,true,1.500141,0.565256,0.000000,0.340189,1.889783,0.578898,0.294202,0.062444,0.323050,0.985846,0.005982
BKPIECE,2,true,1.509080,0.564481,0.000000,0.280483,1.903785,0.575976,0.294571,0.064841,0.337470,0.999325,0.005140
BKPIECE,3,true,1.507920,0.564988,0.000000,0.442317,1.900776,0.577747,0.295026,0.066011,0.340345,0.990609,0.004086
BKPIECE,4,true,1.498553,0.564223,0.000000,0.406326,1.887161,0.577158,0.295697,0.059550,0.318496,0.992302,0.002459
BKPIECE,5,true,1.505309,0.565066,0.000000,0.219189,1.896668,0.579309,0.293878,0.064615,0.337722,0.987194,0.003239
BKPIECE,6,true,1.498135,0.565014,0.000000,0.354677,1.886299,0.578044,0.295774,0.059685,0.316619,0.991482,0.002806
BKPIECE,7,true,1.504819,0.563966,0.000000,0.377870,1.896816,0.577718,0.295506,0.063614,0.335406,0.986450,0.005788
BKPIECE,8,true,1.499627,0.563910,0.000000,0.220515,1.887875,0.577513,0.296003,0.060683,0.325318,0.988858,0.000506
BKPIECE,9,true,1.509751,0.564624,0.000000,0.162868,1.905523,0.576983,0.295002,0.063907,0.337461,0.997785,0.008210
BKPIECE,10,true,1.504676,0.564847,0.000000,0.206280,1.895422,0.579257,0.294841,0.064444,0.337656,0.984785,0.003066
BKPIECE,11,true,1.508632,0.565209,0.000000,0.220629,1.903563,0.578021,0.295009,0.064847,0.336525,0.992082,0.009487
BKPIECE,12,true,1.503529,0.564761,0.000000,0.362547,1.894578,0.577957,0.294363,0.064641,0.332086,0.986366,0.005187
BKPIECE,13,true,1.505711,0.564116,0.000000,0.217366,1.899484,0.575680,0.293094,0.064555,0.331217,0.995586,0.007035
BKPIECE,14,true,1.507624,0.564637,0.000000,0.303663,1.901988,0.577357,0.293650,0.066334,0.338007,0.988545,0.009037
BKPIECE,15,true,1.508144,0.565272,0.000000,0.182382,1.900733,0.577143,0.293689,0.067565,0.340992,0.992920,0.002188
BKPIECE,16,true,1.507320,0.565417,0.000000,0.230468,1.900070,0.578441,0.293202,0.066221,0.339051,0.990997,0.004101
BKPIECE,17,true,1.507642,0.564128,0.000000,0.131535,1.902069,0.577579,0.295297,0.065124,0.338947,0.986141,0.009897
BKPIECE,18,true,1.496284,0.563820,0.000000,0.181987,1.883523,0.577742,0.295761,0.058339,0.316668,0.988587,0.001769
BKPIECE,19,true,1.498287,0.563863,0.000000,0.319341,1.887575,0.576533,0.294707,0.059699,0.317191,0.992583,0.004151
BKPIECE,20,true,1.504830,0.564955,0.000000,0.381339,1.896582,0.578368,0.293895,0.065256,0.334951,0.986525,0.005518
BKPIECE,21,true,1.501193,0.564222,0.000000,0.193861,1.890346,0.577445,0.295833,0.061285,0.326951,0.991253,0.000812
BKPIECE,22,true,1.509899,0.565560,0.000000,0.168433,1.905077,0.577645,0.293717,0.067009,0.339786,0.993540,0.008098
BKPIECE,23,true,1.507199,0.564932,0.000000,0.141428,1.900498,0.578295,0.293795,0.064760,0.337803,0.991544,0.005450
BKPIECE,24,true,1.501476,0.565444,0.000000,0.255375,1.889906,0.579533,0.295363,0.062848,0.329619,0.986435,0.000631
BKPIECE,25,true,1.504958,0.565069,0.000000,0.080125,1.895832,0.577845,0.295707,0.064092,0.333839,0.991390,0.002025
BKPIECE,26,true,1.501369,0.564964,0.000000,0.308197,1.893140,0.576609,0.294188,0.060660,0.317099,0.998335,0.007217
BKPIECE,27,true,1.510200,0.564007,0.000000,0.185991,1.905589,0.574703,0.294368,0.065833,0.339842,1.001191,0.004766
BKPIECE,28,true,1.505169,0.563926,0.000000,0.137253,1.897262,0.577346,0.294824,0.064745,0.336963,0.986205,0.005451
BKPIECE,29,true,1.506629,0.565144,0.000000,0.237374,1.901062,0.577634,0.292886,0.064557,0.331780,0.993818,0.009254
BKPIECE,30,true,1.498152,0.563789,0.000000,0.277965,1.886719,0.577555,0.295930,0.059361,0.319932,0.988049,0.003634
BKPIECE,31,true,1.508813,0.565150,0.000000,0.281674,1.903718,0.577632,0.294799,0.064749,0.336509,0.994534,0.008293
BKPIECE,32,true,1.502822,0.564660,0.000000,0.283299,1.892832,0.577099,0.294472,0.064534,0.330828,0.989574,0.001968
BKPIECE,33,true,1.503951,0.564954,0.000000,0.179510,1.894549,0.577745,0.293555,0.065177,0.333613,0.989725,0.002054
BKPIECE,34,true,1.505539,0.565090,0.000000,0.247457,1.897402,0.579489,0.295224,0.064120,0.336758,0.985385,0.005671
BKPIECE,35,true,1.503025,0.564748,0.000000,0.164799,1.895180,0.577585,0.293234,0.063810,0.327262,0.989028,0.008166
BKPIECE,36,true,1.503808,0.565162,0.000000,0.156700,1.895578,0.578006,0.294287,0.063892,0.328985,0.989746,0.006523
BKPIECE,37,true,1.511421,0.564434,0.000000,0.272493,1.907110,0.574092,0.294050,0.066935,0.340722,1.005237,0.003358
BKPIECE,38,true,1.508593,0.564068,0.000000,0.322267,1.904231,0.576324,0.293625,0.064625,0.336809,0.995510,0.008961
BKPIECE,39,true,1.505586,0.564925,0.000000,0.391854,1.899630,0.577496,0.294869,0.062387,0.327648,0.994621,0.009769
BKPIECE,40,true,1.507971,0.564037,0.000000,0.156448,1.902838,0.575651,0.293515,0.065115,0.335985,0.996586,0.007123
BKPIECE,41,true,1.503097,0.564771,0.000000,0.326830,1.893383,0.578775,0.294703,0.063652,0.332858,0.985883,0.003429
BKPIECE,42,true,4.270314,4.296422,0.070493,0.333328,5.904839,3.143594,0.600999,4.131089,1.746819,2.341441,6.271642
BKPIECE,43,true,1.504537,0.564019,0.000000,0.221300,1.895062,0.578023,0.294871,0.064085,0.338549,0.987126,0.000976
BKPIECE,44,true,1.512704,0.563975,0.000000,0.208898,1.911024,0.573543,0.293460,0.066256,0.339366,1.006919,0.008728
BKPIECE,45,true,1.508759,0.563804,0.000000,0.200169,1.903918,0.575450,0.294576,0.064137,0.336906,0.998929,0.006358
BKPIECE,46,true,1.506137,0.564607,0.000000,0.222987,1.899201,0.578324,0.294745,0.065119,0.337021,0.984989,0.008251
BKPIECE,47,true,1.506433,0.564453,0.000000,0.184903,1.900397,0.576220,0.294588,0.062939,0.330323,0.998692,0.006577
BKPIECE,48,true,1.504951,0.564820,0.000000,0.302837,1.898215,0.574817,0.294407,0.062655,0.323028,1.004624,0.005346
BKPIECE,49,true,1.510824,0.565623,0.000000,0.140729,1.907416,0.577271,0.293707,0.066309,0.337758,0.997200,0.010343
BKPIECE,50,true,1.506457,0.564861,0.000000,0.144865,1.898877,0.577941,0.293718,0.066797,0.339300,0.986290,0.005366
BKPIECE,51,true,1.498402,0.564303,0.000000,0.388616,1.886786,0.575644,0.294271,0.061032,0.317091,0.996682,0.000489
BKPIECE,52,true,1.503897,0.564641,0.000000,0.249513,1.896316,0.577445,0.293444,0.064900,0.330403,0.987118,0.008394
BKPIECE,53,true,1.506436,0.565309,0.000000,0.230526,1.897841,0.578604,0.294484,0.066097,0.339655,0.988225,0.002284
BKPIECE,54,true,1.506332,0.564749,0.000000,0.165026,1.899294,0.577666,0.292919,0.066146,0.337348,0.988981,0.005976
BKPIECE,55,true,1.509764,0.565601,0.000000,0.160867,1.905432,0.577558,0.293169,0.066853,0.338058,0.994271,0.009478
BKPIECE,56,true,1.505368,0.565567,0.000000,0.235211,1.899422,0.576508,0.294162,0.061949,0.321959,1.003397,0.008158
BKPIECE,57,true,1.507391,0.565346,0.000000,0.219727,1.899370,0.577766,0.294065,0.066330,0.339653,0.993095,0.001317
BKPIECE,58,true,1.508239,0.564482,0.000000,0.324709,1.902752,0.575817,0.294154,0.065253,0.335770,0.997668,0.006122
BKPIECE,59,true,1.501098,0.564875,0.000000,0.253965,1.891929,0.578555,0.293735,0.062971,0.324983,0.984983,0.008068
BKPIECE,60,true,1.501768,0.563840,0.000000,0.368620,1.892545,0.576981,0.294474,0.062898,0.328115,0.987374,0.005466
BKPIECE,61,true,1.504175,0.564158,0.000000,0.161454,1.894277,0.577499,0.295675,0.063669,0.336129,0.989529,0.000043
BKPIECE,62,true,1.503747,0.564517,0.000000,0.211502,1.895994,0.575252,0.293291,0.063719,0.325349,0.999101,0.004543
BKPIECE,63,true,1.497116,0.564679,0.000000,0.313828,1.884286,0.577460,0.295864,0.060019,0.316463,0.990386,0.001164
BKPIECE,64,true,1.504264,0.563822,0.000000,0.191336,1.895738,0.575983,0.295369,0.062785,0.331310,0.995028,0.002336
BKPIECE,65,true,1.502918,0.565038,0.000000,0.295757,1.893986,0.577006,0.293894,0.063982,0.326718,0.992622,0.004540
BKPIECE,66,true,1.503561,0.564820,0.000000,0.156098,1.894134,0.577863,0.293651,0.065079,0.333297,0.987862,0.002944
BKPIECE,67,true,1.501350,0.564038,0.000000,0.261642,1.892416,0.577142,0.295722,0.061640,0.324232,0.987676,0.007640
BKPIECE,68,true,1.507515,0.564773,0.000000,0.355475,1.901025,0.577128,0.294423,0.066386,0.338222,0.989819,0.006626
BKPIECE,69,true,1.503216,0.565489,0.000000,0.185552,1.894805,0.577769,0.294808,0.062801,0.324550,0.993385,0.006346
BKPIECE,70,true,1.505912,0.565140,0.000000,0.187911,1.899035,0.578080,0.292756,0.065848,0.334710,0.988903,0.007475
BKPIECE,71,true,1.503007,0.564838,0.000000,0.272431,1.894154,0.577597,0.295508,0.062661,0.327073,0.990669,0.005522
BKPIECE,72,true,1.508539,0.564854,0.000000,0.376899,1.903271,0.577370,0.294480,0.064480,0.336686,0.995286,0.007390
BKPIECE,73,true,1.510839,0.564312,0.000000,0.092316,1.908612,0.573786,0.293488,0.065328,0.333374,1.006525,0.010133
BKPIECE,74,true,1.507790,0.564374,0.000000,0.309858,1.901170,0.576691,0.294171,0.065991,0.339758,0.992378,0.004441
BKPIECE,75,true,1.500897,0.564596,0.000000,0.249878,1.891121,0.577572,0.294164,0.061078,0.322827,0.993284,0.003768
BKPIECE,76,true,1.501895,0.564503,0.000000,0.342657,1.893128,0.577478,0.293429,0.062813,0.325780,0.989915,0.006275
BKPIECE,77,true,1.505614,0.564826,0.000000,0.251832,1.898991,0.577104,0.292723,0.065656,0.332664,0.990824,0.007902
BKPIECE,78,true,1.508082,0.565367,0.000000,0.090093,1.901728,0.578704,0.294089,0.065932,0.339577,0.989338,0.006672
BKPIECE,79,true,1.506159,0.563938,0.000000,0.213030,1.901074,0.574795,0.294459,0.062305,0.326525,1.001822,0.008609
BKPIECE,80,true,1.497005,0.565123,0.000000,0.166096,1.883479,0.577944,0.295745,0.060895,0.317472,0.988938,0.000030
BKPIECE,81,true,1.508119,0.565357,0.000000,0.187705,1.901450,0.576431,0.293868,0.066093,0.336084,0.998887,0.003060
BKPIECE,82,true,1.509280,0.564398,0.000000,0.286956,1.903318,0.575759,0.295222,0.064946,0.339232,1.000071,0.002696
BKPIECE,83,true,1.500184,0.563730,0.000000,0.253559,1.889608,0.576859,0.294510,0.062589,0.326385,0.986735,0.003473
BKPIECE,84,true,1.500632,0.565186,0.000000,0.298325,1.890325,0.577568,0.296434,0.060540,0.319436,0.993843,0.004076
BKPIECE,85,true,1.498606,0.565169,0.000000,0.228078,1.886861,0.578652,0.294595,0.062088,0.321044,0.985498,0.003942
BKPIECE,86,true,1.496906,0.564411,0.000000,0.199657,1.884737,0.578470,0.295920,0.059022,0.316702,0.986424,0.004190
BKPIECE,87,true,1.506212,0.564918,0.000000,0.119422,1.898931,0.578421,0.294477,0.064825,0.336475,0.988160,0.006316
BKPIECE,88,true,1.507037,0.564751,0.000000,0.186225,1.900956,0.577221,0.292524,0.066798,0.337275,0.989486,0.007855
BKPIECE,89,true,1.508794,0.565590,0.000000,0.229665,1.902722,0.577932,0.294801,0.064863,0.337159,0.996677,0.005028
BKPIECE,90,true,1.505654,0.564458,0.000000,0.166114,1.898886,0.576776,0.293962,0.063725,0.331702,0.994590,0.006240
BKPIECE,91,true,1.501790,0.565325,0.000000,0.324715,1.890776,0.579181,0.295137,0.063561,0.330019,0.985311,0.002165
BKPIECE,92,true,1.509409,0.565060,0.000000,0.131741,1.904316,0.576244,0.292709,0.065689,0.337275,1.001973,0.004427
BKPIECE,93,true,1.509212,0.565729,0.000000,0.421926,1.902595,0.577131,0.294397,0.066439,0.338939,0.998424,0.002391
BKPIECE,94,true,1.503504,0.564173,0.000000,0.219128,1.894418,0.578218,0.293507,0.063963,0.334877,0.986500,0.003460
BKPIECE,95,true,1.501975,0.565307,0.000000,0.334657,1.892880,0.578022,0.295569,0.060942,0.321688,0.994041,0.005669
BKPIECE,96,true,1.506631,0.565568,0.000000,0.271665,1.898655,0.577744,0.293514,0.065947,0.336204,0.994309,0.002220
BKPIECE,97,true,1.507443,0.565270,0.000000,0.276178,1.899599,0.577090,0.294218,0.066419,0.338508,0.994712,0.001436
BKPIECE,98,true,1.508579,0.564677,0.000000,0.122022,1.904479,0.575186,0.292499,0.065109,0.332086,1.002719,0.008212
BKPIECE,99,true,1.497887,0.564939,0.000000,0.290299,1.886245,0.577922,0.295849,0.059233,0.315162,0.991904,0.003595
BKPIECE,100,true,1.506843,0.564523,0.000000,0.371900,1.900062,0.577051,0.293318,0.066449,0.338241,0.989620,0.005898
BKPIECE,101,true,1.509366,0.565162,0.000000,0.165378,1.903750,0.578125,0.295441,0.065538,0.340640,0.991443,0.006998
BKPIECE,102,true,1.505040,0.564009,0.000000,0.344067,1.897329,0.576515,0.294094,0.064883,0.334547,0.990047,0.005059
BKPIECE,103,true,1.506424,0.565141,0.000000,0.211313,1.900492,0.578413,0.295042,0.063334,0.331689,0.990802,0.010033
BKPIECE,104,true,1.497502,0.564987,0.000000,0.226325,1.884939,0.579161,0.294397,0.060842,0.320195,0.985549,0.002369
BKPIECE,105,true,1.506724,0.565185,0.000000,0.260149,1.898907,0.577758,0.293679,0.065438,0.337283,0.993770,0.002289
BKPIECE,106,true,1.511332,0.565272,0.000000,0.201890,1.907326,0.576240,0.294047,0.066702,0.340170,1.000333,0.006633
BKPIECE,107,true,1.500659,0.564066,0.000000,0.243808,1.889956,0.577898,0.294790,0.062230,0.328041,0.986124,0.002895
BKPIECE,108,true,1.500807,0.563898,0.000000,0.114212,1.891888,0.575902,0.294461,0.061393,0.320948,0.993564,0.006152
BKPIECE,109,true,1.508831,0.565279,0.000000,0.243979,1.902646,0.577714,0.294352,0.066859,0.340635,0.991170,0.005842
BKPIECE,110,true,1.507496,0.565170,0.000000,0.180534,1.900389,0.577237,0.294801,0.065718,0.337053,0.993586,0.004148
BKPIECE,111,true,1.500061,0.563947,0.000000,0.318917,1.890408,0.574631,0.294537,0.060680,0.316872,1.000340,0.003124
BKPIECE,112,true,1.501563,0.564571,0.000000,0.506196,1.890571,0.578041,0.295035,0.063646,0.330553,0.985818,0.001598
BKPIECE,113,true,1.510939,0.565120,0.000000,0.146922,1.908068,0.576445,0.294550,0.064268,0.335241,1.002323,0.010112
BKPIECE,114,true,1.499253,0.565249,0.000000,0.165653,1.888043,0.578589,0.294196,0.062209,0.321494,0.987084,0.004185
BKPIECE,115,true,1.500815,0.565072,0.000000,0.320178,1.890892,0.576781,0.294020,0.061778,0.320009,0.996700,0.003158
BKPIECE,116,true,1.505453,0.564555,0.000000,0.128307,1.898074,0.578605,0.294453,0.064629,0.336372,0.984738,0.007592
BKPIECE,117,true,1.502523,0.564770,0.000000,0.383983,1.894556,0.578785,0.294427,0.062129,0.326352,0.986352,0.009530
BKPIECE,118,true,1.503372,0.565425,0.000000,0.288638,1.894864,0.578840,0.295319,0.062398,0.327007,0.989748,0.006815
BKPIECE,119,true,1.500593,0.564666,0.000000,0.188372,1.889711,0.577749,0.294391,0.063409,0.326620,0.986613,0.002998
BKPIECE,120,true,1.501932,0.564266,0.000000,0.312787,1.894238,0.576663,0.294937,0.060398,0.320303,0.994964,0.008536
BKPIECE,121,true,1.507168,0.564171,0.000000,0.180580,1.901505,0.577156,0.292623,0.065743,0.338095,0.989803,0.008135
BKPIECE,122,true,1.507135,0.564488,0.000000,0.195022,1.901280,0.578925,0.295181,0.063564,0.337568,0.986596,0.009623
BKPIECE,123,true,1.510231,0.565281,0.000000,0.177112,1.905083,0.576429,0.293228,0.066035,0.339253,1.002416,0.003437
BKPIECE,124,true,1.499656,0.564193,0.000000,0.239274,1.888290,0.578167,0.295118,0.060848,0.325059,0.987945,0.001833
BKPIECE,125,true,4.205697,4.445493,0.095190,0.338900,5.791625,3.361862,0.601833,4.147927,1.745357,1.552136,6.278772
BKPIECE,126,true,1.506006,0.563885,0.000000,0.182919,1.900655,0.576178,0.293687,0.063021,0.330535,0.995370,0.009264
BKPIECE,127,true,1.504987,0.564027,0.000000,0.177964,1.896540,0.577157,0.293824,0.065221,0.337455,0.988235,0.003094
BKPIECE,128,true,1.506104,0.564829,0.000000,0.189273,1.897422,0.577862,0.294797,0.065889,0.339283,0.988456,0.002061
BKPIECE,129,true,1.506227,0.565048,0.000000,0.343584,1.897933,0.577182,0.293312,0.066455,0.337497,0.992616,0.001659
BKPIECE,130,true,1.501592,0.564198,0.000000,0.146808,1.892967,0.576972,0.294310,0.061649,0.323588,0.991563,0.006696
BKPIECE,131,true,1.509263,0.564506,0.000000,0.284673,1.903884,0.576477,0.294475,0.065059,0.339265,0.997562,0.005035
BKPIECE,132,true,1.508378,0.564609,0.000000,0.100586,1.903450,0.576416,0.294586,0.065020,0.335318,0.995126,0.008737
BKPIECE,133,true,1.497333,0.564934,0.000000,0.361654,1.885014,0.578782,0.294003,0.060922,0.318924,0.986400,0.002974
BKPIECE,134,true,1.504119,0.565552,0.000000,0.202429,1.896074,0.579474,0.295095,0.063679,0.330217,0.985314,0.008595
BKPIECE,135,true,4.496055,3.214941,0.381059,0.308851,6.472368,1.320259,3.757265,1.626780,3.004842,2.338538,8.166826
BKPIECE,136,true,1.500312,0.564571,0.000000,0.304842,1.891370,0.578063,0.294003,0.060833,0.320465,0.989269,0.008305
BKPIECE,137,true,1.505769,0.564173,0.000000,0.075830,1.898258,0.577607,0.295030,0.063540,0.335922,0.990361,0.004880
BKPIECE,138,true,1.506612,0.565495,0.000000,0.244231,1.898800,0.577038,0.293094,0.066207,0.335130,0.996394,0.002018
BKPIECE,139,true,1.504878,0.564627,0.000000,0.184363,1.896350,0.578670,0.295816,0.063199,0.335048,0.987412,0.004513
BKPIECE,140,true,1.504870,0.565288,0.000000,0.223618,1.896027,0.577899,0.292973,0.065749,0.334583,0.991155,0.002274
BKPIECE,141,true,1.504961,0.564096,0.000000,0.251987,1.897346,0.578244,0.295615,0.063347,0.335181,0.985211,0.007311
BKPIECE,142,true,1.507335,0.565378,0.000000,0.314570,1.901937,0.576617,0.294912,0.062087,0.327245,1.004333,0.006864
BKPIECE,143,true,1.510544,0.564930,0.000000,0.178994,1.907499,0.575130,0.292803,0.066102,0.335098,1.003507,0.009102
BKPIECE,144,true,1.504931,0.565072,0.000000,0.203254,1.897902,0.579346,0.295545,0.062633,0.331072,0.986296,0.009924
BKPIECE,145,true,1.509664,0.565639,0.000000,0.282639,1.903802,0.577213,0.293435,0.065873,0.338869,1.000886,0.002810
BKPIECE,146,true,1.499861,0.564979,0.000000,0.140459,1.889470,0.576301,0.294481,0.061090,0.316971,0.997943,0.002799
BKPIECE,147,true,1.498704,0.564588,0.000000,0.275400,1.888834,0.577292,0.294799,0.060967,0.316283,0.988243,0.008528
BKPIECE,148,true,1.500451,0.563912,0.000000,0.270133,1.891687,0.578178,0.295175,0.060085,0.322547,0.986157,0.009212
BKPIECE,149,true,1.499533,0.565005,0.000000,0.253066,1.888479,0.577472,0.296572,0.058738,0.316599,0.997282,0.001936
BKPIECE,150,true,1.496941,0.564732,0.000000,0.212425,1.884350,0.578076,0.294135,0.061023,0.317970,0.987283,0.002346
KPIECE,1,true,1.508193,0.564575,0.000000,0.413071,1.902631,0.576790,0.294461,0.063824,0.335727,0.998062,0.005784
KPIECE,2,true,1.507217,0.564752,0.000000,0.482042,1.900616,0.577996,0.295593,0.063278,0.335875,0.993163,0.005800
KPIECE,3,true,1.504623,0.565279,0.000000,0.243147,1.896310,0.576579,0.294593,0.061886,0.325844,1.003720,0.001269
KPIECE,4,true,1.505003,0.564008,0.000000,0.225238,1.897610,0.576867,0.294099,0.064642,0.334261,0.988702,0.006464
KPIECE,5,true,1.496599,0.564527,0.000000,0.133977,1.883456,0.576943,0.294366,0.061150,0.316879,0.990227,0.000245
KPIECE,6,true,1.507777,0.564014,0.000000,0.513500,1.903340,0.576107,0.293214,0.064656,0.334673,0.994845,0.009897
KPIECE,7,true,1.510247,0.565428,0.000000,0.830850,1.905235,0.576627,0.294553,0.065881,0.338295,1.000206,0.005286
KPIECE,8,true,1.501324,0.564864,0.000000,0.012924,1.892039,0.575670,0.296024,0.060450,0.316988,1.000836,0.004006
KPIECE,9,true,1.509791,0.564715,0.000000,0.268704,1.905537,0.576592,0.293446,0.064842,0.337799,0.999776,0.007014
KPIECE,10,true,1.506727,0.565024,0.000000,0.170561,1.901262,0.574833,0.294651,0.063750,0.325581,1.003831,0.007580
KPIECE,11,true,1.507976,0.564672,0.000000,0.165974,1.903130,0.575225,0.293871,0.064542,0.331103,1.001694,0.007557
KPIECE,12,true,1.501687,0.564170,0.000000,0.114504,1.892895,0.576432,0.295876,0.061435,0.322639,0.992013,0.006668
KPIECE,13,true,1.505869,0.565582,0.000000,0.112605,1.899453,0.576866,0.293515,0.063979,0.327181,0.999099,0.007000
KPIECE,14,true,1.511658,0.564472,0.000000,0.314265,1.909709,0.573681,0.292794,0.066439,0.335473,1.007038,0.009683
KPIECE,15,true,1.498548,0.564753,0.000000,0.012421,1.887044,0.576971,0.294717,0.061071,0.317833,0.992647,0.002406
KPIECE,16,true,1.504490,0.564473,0.000000,0.122565,1.896054,0.578917,0.295759,0.063000,0.334780,0.985321,0.005715
KPIECE,17,true,1.506080,0.564197,0.000000,0.041895,1.898435,0.577849,0.295415,0.064800,0.338638,0.986012,0.005563
KPIECE,18,true,1.499850,0.565187,0.000000,0.099013,1.889648,0.577081,0.294185,0.060103,0.316218,0.998930,0.003035
KPIECE,19,true,1.504859,0.564220,0.000000,1.083426,1.897313,0.578252,0.295483,0.062354,0.333220,0.988605,0.006687
KPIECE,20,true,1.501382,0.564988,0.000000,0.075214,1.892828,0.577307,0.295565,0.059506,0.317500,0.997391,0.006880
KPIECE,21,true,1.513835,0.565311,0.000000,0.503859,1.912542,0.574823,0.293240,0.067618,0.339805,1.006106,0.010104
KPIECE,22,true,1.504341,0.564456,0.000000,0.344450,1.896875,0.578701,0.295376,0.061890,0.331038,0.988022,0.008016
KPIECE,23,true,1.510914,0.564201,0.000000,0.135692,1.907558,0.574037,0.292679,0.065589,0.337266,1.007932,0.005359
KPIECE,24,true,1.511808,0.565172,0.000000,0.560529,1.908504,0.575542,0.294679,0.065911,0.338160,1.003881,0.007392
KPIECE,25,true,1.506911,0.565473,0.000000,0.044741,1.898934,0.579121,0.294655,0.065387,0.339233,0.988831,0.003553
KPIECE,26,true,1.495683,0.564310,0.000000,0.456754,1.881884,0.578429,0.296464,0.058194,0.315945,0.987602,0.000435
KPIECE,27,true,1.500373,0.564545,0.000000,0.316038,1.890272,0.577000,0.295867,0.059299,0.318861,0.997038,0.003056
KPIECE,28,true,1.504090,0.564055,0.000000,0.204180,1.896433,0.576944,0.294378,0.063518,0.330991,0.989726,0.006728
KPIECE,29,true,1.505529,0.564553,0.000000,0.403906,1.898625,0.576892,0.292537,0.065318,0.333462,0.992122,0.006288
KPIECE,30,true,1.503614,0.564487,0.000000,0.327839,1.893382,0.579164,0.295482,0.063178,0.336608,0.985411,0.001012
KPIECE,31,true,1.502821,0.565416,0.000000,0.111915,1.892984,0.577134,0.295300,0.062502,0.324919,0.997235,0.001382
KPIECE,32,true,1.506266,0.564839,0.000000,0.106759,1.899806,0.577308,0.294379,0.065309,0.333698,0.989559,0.008584
KPIECE,33,true,1.510559,0.565573,0.000000,0.394532,1.905766,0.576561,0.294393,0.066425,0.338553,1.000109,0.005748
KPIECE,34,true,1.500291,0.564415,0.000000,0.174849,1.890673,0.574672,0.294152,0.059694,0.314492,1.006446,0.001416
KPIECE,35,true,1.502772,0.564308,0.000000,0.053979,1.895257,0.575043,0.293226,0.062106,0.321054,1.001164,0.005729
KPIECE,36,true,1.507209,0.565025,0.000000,0.075160,1.902019,0.575122,0.294823,0.062546,0.325601,1.006775,0.006811
KPIECE,37,true,1.500720,0.564448,0.000000,0.187822,1.891815,0.577580,0.296798,0.059656,0.319180,0.990272,0.008676
KPIECE,38,true,1.504068,0.564180,0.000000,0.200855,1.896182,0.577201,0.294371,0.064333,0.332202,0.987145,0.006969
KPIECE,39,true,1.505077,0.565046,0.000000,0.035537,1.896532,0.578574,0.293273,0.065035,0.336133,0.989042,0.003201
KPIECE,40,true,1.507858,0.565128,0.000000,0.390246,1.902337,0.576488,0.292572,0.066200,0.334650,0.996851,0.006875
KPIECE,41,true,1.501969,0.564826,0.000000,0.220027,1.893973,0.574795,0.293593,0.060337,0.315090,1.008060,0.004037
KPIECE,42,true,1.506864,0.565329,0.000000,0.432288,1.901154,0.576910,0.295115,0.062866,0.328150,0.999606,0.007995
KPIECE,43,true,1.504282,0.565292,0.000000,0.222116,1.897915,0.575563,0.293938,0.062748,0.320090,1.001923,0.008602
KPIECE,44,true,1.502572,0.565025,0.000000,0.184273,1.894147,0.576423,0.294376,0.061042,0.320470,1.001225,0.004188
KPIECE,45,true,1.509250,0.565284,0.000000,0.064537,1.905404,0.576806,0.294663,0.063203,0.331411,1.002186,0.009566
KPIECE,46,true,1.510825,0.564676,0.000000,0.109746,1.906462,0.575030,0.293243,0.066716,0.339942,1.003262,0.004400
KPIECE,47,true,1.508429,0.564750,0.000000,0.134917,1.902346,0.576189,0.293011,0.066837,0.338960,0.996124,0.004239
KPIECE,48,true,1.506872,0.565144,0.000000,0.061945,1.898771,0.577780,0.294833,0.066248,0.339049,0.989883,0.002869
KPIECE,49,true,1.501836,0.563973,0.000000,0.102280,1.893781,0.577727,0.294385,0.061832,0.325781,0.986458,0.009329
KPIECE,50,true,1.506593,0.564571,0.000000,0.393725,1.898821,0.578244,0.295156,0.065557,0.340272,0.985757,0.004836
KPIECE,51,true,1.504288,0.565210,0.000000,0.241443,1.895620,0.578823,0.293871,0.065281,0.334108,0.985208,0.005590
KPIECE,52,true,1.508590,0.565153,0.000000,0.187142,1.903297,0.578842,0.294749,0.064600,0.338519,0.990093,0.009042
KPIECE,53,true,1.506198,0.565352,0.000000,0.080689,1.899315,0.578195,0.295187,0.064381,0.332661,0.990310,0.007897
KPIECE,54,true,1.501573,0.565080,0.000000,0.621437,1.891452,0.578017,0.294458,0.063418,0.326478,0.988313,0.004038
KPIECE,55,true,1.506443,0.564785,0.000000,0.156215,1.899792,0.576752,0.292792,0.066013,0.334818,0.992973,0.006023
KPIECE,56,true,1.505099,0.565560,0.000000,0.605443,1.899097,0.576798,0.295395,0.061040,0.320694,1.002237,0.009159
KPIECE,57,true,1.503483,0.563909,0.000000,0.305607,1.896438,0.574834,0.294722,0.061873,0.322814,0.999238,0.006980
KPIECE,58,true,1.498645,0.564575,0.000000,0.417241,1.887761,0.576424,0.293749,0.061675,0.317453,0.993015,0.003620
KPIECE,59,true,1.495939,0.564429,0.000000,0.180278,1.882262,0.578366,0.294996,0.059711,0.317696,0.986746,0.000318
KPIECE,60,true,1.507036,0.565530,0.000000,0.225371,1.901077,0.577128,0.294118,0.064923,0.331057,0.995985,0.007947
KPIECE,61,true,1.506032,0.565358,0.000000,0.075012,1.897485,0.577246,0.293001,0.066090,0.335917,0.995356,0.000521
KPIECE,62,true,1.507172,0.564643,0.000000,0.537211,1.902043,0.577269,0.293688,0.064320,0.333441,0.992936,0.009912
KPIECE,63,true,1.504654,0.564865,0.000000,0.075730,1.896380,0.578584,0.294097,0.064407,0.334408,0.987113,0.005375
KPIECE,64,true,1.505157,0.564163,0.000000,0.089757,1.897748,0.578150,0.295341,0.063591,0.335152,0.985731,0.007534
KPIECE,65,true,1.502302,0.563703,0.000000,0.354873,1.894011,0.576657,0.295310,0.060726,0.325212,0.992859,0.006148
KPIECE,66,true,1.508782,0.564621,0.000000,0.195035,1.902548,0.576449,0.294552,0.065180,0.339187,0.998025,0.003028
KPIECE,67,true,1.504312,0.564709,0.000000,0.243436,1.896495,0.578290,0.295142,0.063759,0.331751,0.986036,0.007976
KPIECE,68,true,1.505753,0.564367,0.000000,0.041180,1.896970,0.577209,0.293828,0.066677,0.340339,0.987619,0.001622
KPIECE,69,true,1.503719,0.564084,0.000000,0.049669,1.894698,0.576734,0.293410,0.064112,0.332986,0.992134,0.001795
KPIECE,70,true,1.510925,0.564949,0.000000,0.133080,1.907709,0.575024,0.293435,0.065476,0.335373,1.006093,0.007495
KPIECE,71,true,1.505611,0.563986,0.000000,0.079825,1.897498,0.575577,0.293417,0.065575,0.336033,0.994926,0.001337
KPIECE,72,true,1.504742,0.563896,0.000000,0.287190,1.898450,0.576059,0.293562,0.063136,0.328824,0.994291,0.008375
KPIECE,73,true,1.506558,0.565140,0.000000,0.080633,1.900132,0.578818,0.293682,0.064631,0.335524,0.988865,0.008197
KPIECE,74,true,1.508656,0.565196,0.000000,0.276745,1.903915,0.576853,0.294238,0.065876,0.334967,0.994337,0.009773
KPIECE,75,true,1.512155,0.565612,0.000000,0.377430,1.909874,0.575603,0.293279,0.066551,0.336262,1.005094,0.009824
KPIECE,76,true,1.506898,0.564281,0.000000,0.576858,1.900607,0.577176,0.293086,0.066105,0.338425,0.988755,0.007194
KPIECE,77,true,1.501039,0.564601,0.000000,0.192728,1.891728,0.577518,0.293310,0.062454,0.323827,0.990329,0.005680
KPIECE,78,true,1.505855,0.564592,0.000000,0.216638,1.899742,0.577656,0.293402,0.064427,0.332971,0.989836,0.009307
KPIECE,79,true,1.502875,0.564697,0.000000,0.010863,1.895741,0.577572,0.295484,0.060184,0.321292,0.994291,0.009809
KPIECE,80,true,1.508911,0.564970,0.000000,0.015794,1.904371,0.575197,0.292340,0.065959,0.333521,1.003300,0.006497
KPIECE,81,true,1.506260,0.564602,0.000000,0.231523,1.898213,0.577925,0.294203,0.065889,0.339720,0.987487,0.003594
KPIECE,82,true,1.510450,0.565430,0.000000,0.051857,1.904443,0.576009,0.294764,0.065420,0.339052,1.006032,0.000181
KPIECE,83,true,1.501007,0.564165,0.000000,0.448435,1.890366,0.578172,0.294851,0.061627,0.328319,0.987962,0.002090
KPIECE,84,true,1.504404,0.564947,0.000000,0.218870,1.895347,0.579334,0.293608,0.064828,0.336942,0.984870,0.003650
KPIECE,85,true,1.507512,0.564941,0.000000,0.151210,1.900403,0.575769,0.294150,0.066127,0.335800,0.998348,0.002397
KPIECE,86,true,1.503451,0.564944,0.000000,0.110726,1.895473,0.578860,0.295770,0.061918,0.327728,0.987455,0.008634
KPIECE,87,true,1.510282,0.564372,0.000000,0.103834,1.907083,0.575809,0.294435,0.064767,0.336704,0.999161,0.010075
KPIECE,88,true,1.500940,0.564880,0.000000,0.156118,1.890219,0.578090,0.294405,0.063511,0.327075,0.986447,0.003293
KPIECE,89,true,1.505976,0.564723,0.000000,0.119860,1.897788,0.576656,0.294383,0.064941,0.335150,0.995182,0.001652
KPIECE,90,true,1.509378,0.565498,0.000000,0.347655,1.902838,0.576136,0.293177,0.067402,0.339596,1.000845,0.001065
KPIECE,91,true,1.504128,0.564398,0.000000,0.361750,1.894578,0.578086,0.295453,0.063457,0.335240,0.988546,0.001619
KPIECE,92,true,1.502990,0.564060,0.000000,0.138268,1.894112,0.577373,0.295729,0.062047,0.329361,0.989616,0.004852
KPIECE,93,true,1.503331,0.564862,0.000000,0.082765,1.895256,0.577444,0.293452,0.063744,0.327643,0.991092,0.006628
KPIECE,94,true,1.502369,0.563912,0.000000,0.562032,1.894294,0.577229,0.295862,0.061283,0.325627,0.988613,0.008499
KPIECE,95,true,1.501729,0.564560,0.000000,0.205809,1.893275,0.576462,0.295154,0.061298,0.320451,0.994797,0.007027
KPIECE,96,true,1.501734,0.565062,0.000000,0.193664,1.893502,0.576720,0.295055,0.059165,0.316101,1.002288,0.005878
KPIECE,97,true,1.508951,0.564999,0.000000,0.101798,1.903976,0.576860,0.295752,0.064193,0.334984,0.997084,0.008062
KPIECE,98,true,1.508227,0.565691,0.000000,0.198903,1.901452,0.578372,0.294019,0.065817,0.338617,0.993695,0.004230
KPIECE,99,true,1.499986,0.564383,0.000000,0.033356,1.889354,0.576731,0.295265,0.061187,0.321174,0.992677,0.002924
KPIECE,100,true,1.498883,0.564005,0.000000,0.281573,1.888673,0.577608,0.297015,0.058721,0.317731,0.988442,0.007132
KPIECE,101,true,1.508883,0.564691,0.000000,0.147344,1.903932,0.574500,0.294359,0.065102,0.332737,1.004564,0.005465
KPIECE,102,true,1.504668,0.565277,0.000000,0.497889,1.895358,0.578391,0.293505,0.065882,0.335983,0.988157,0.002107
KPIECE,103,true,1.503784,0.565328,0.000000,0.097899,1.894262,0.578769,0.294891,0.064471,0.332695,0.986908,0.003630
KPIECE,104,true,1.508407,0.564280,0.000000,0.235522,1.903731,0.576865,0.292868,0.066918,0.339644,0.988737,0.010259
KPIECE,105,true,1.500831,0.564685,0.000000,0.145057,1.889090,0.579210,0.295867,0.061459,0.329329,0.986423,0.000207
KPIECE,106,true,1.512842,0.565268,0.000000,0.090871,1.911053,0.575394,0.293219,0.066462,0.338181,1.005618,0.009818
KPIECE,107,true,1.513145,0.565271,0.000000,0.115891,1.910931,0.576077,0.294562,0.065910,0.340291,1.003780,0.008988
KPIECE,108,true,1.498205,0.564283,0.000000,0.242072,1.887962,0.578050,0.295959,0.059237,0.316398,0.986559,0.008414
KPIECE,109,true,1.503685,0.564594,0.000000,0.035233,1.895281,0.578212,0.296322,0.062163,0.329591,0.988131,0.006650
KPIECE,110,true,1.506157,0.564660,0.000000,0.245078,1.897337,0.577323,0.295563,0.065104,0.338377,0.991283,0.000860
KPIECE,111,true,1.506447,0.564529,0.000000,0.123964,1.900640,0.574914,0.293626,0.064346,0.328707,1.001240,0.006550
KPIECE,112,true,1.505864,0.563755,0.000000,0.180511,1.899535,0.576734,0.294186,0.063336,0.333961,0.992171,0.007238
KPIECE,113,true,1.498298,0.565150,0.000000,0.081373,1.887076,0.578551,0.295830,0.059804,0.316369,0.988898,0.005445
KPIECE,114,true,1.498482,0.564515,0.000000,0.401751,1.887501,0.577046,0.295932,0.059130,0.315491,0.993981,0.003869
KPIECE,115,true,1.501898,0.564014,0.000000,0.124267,1.892510,0.576537,0.294016,0.061732,0.326035,0.994897,0.002482
KPIECE,116,true,1.505499,0.564647,0.000000,0.097893,1.898535,0.577945,0.294282,0.064124,0.333483,0.988965,0.007729
KPIECE,117,true,1.510423,0.565154,0.000000,0.039816,1.904940,0.575103,0.293716,0.066876,0.339149,1.004793,0.001739
KPIECE,118,true,1.506442,0.565017,0.000000,0.208594,1.899027,0.578851,0.294730,0.065619,0.338554,0.984848,0.006767
KPIECE,119,true,1.500909,0.565556,0.000000,0.010648,1.889076,0.579196,0.294068,0.063586,0.328531,0.987341,0.000005
KPIECE,120,true,1.511013,0.565173,0.000000,0.751423,1.906590,0.575490,0.292753,0.067562,0.340292,1.002488,0.004574
KPIECE,121,true,1.500722,0.563872,0.000000,0.020581,1.892072,0.574354,0.294616,0.060069,0.315811,1.002672,0.004643
KPIECE,122,true,1.507118,0.564716,0.000000,0.186163,1.899719,0.575292,0.295316,0.063997,0.332831,1.003235,0.000731
KPIECE,123,true,1.500770,0.563890,0.000000,0.169476,1.892981,0.575822,0.295513,0.058774,0.315497,0.997841,0.008865
KPIECE,124,true,1.511100,0.565614,0.000000,0.451019,1.906465,0.576289,0.293683,0.067240,0.340024,1.001216,0.004973
KPIECE,125,true,1.507846,0.565046,0.000000,0.152659,1.902501,0.578298,0.293495,0.065806,0.337567,0.988527,0.009907
KPIECE,126,true,1.505706,0.565464,0.000000,0.077587,1.899636,0.575589,0.294851,0.061859,0.321502,1.006730,0.006618
KPIECE,127,true,1.504901,0.565051,0.000000,0.201718,1.897532,0.578558,0.293632,0.064059,0.332167,0.988882,0.007428
KPIECE,128,true,1.505404,0.564644,0.000000,0.144469,1.898656,0.577394,0.295528,0.063178,0.330432,0.991197,0.008511
KPIECE,129,true,1.507981,0.564240,0.000000,0.042172,1.902031,0.577045,0.295555,0.063797,0.337611,0.993900,0.006101
KPIECE,130,true,1.500108,0.564590,0.000000,0.103486,1.890558,0.578428,0.296240,0.059816,0.320129,0.987667,0.008044
KPIECE,131,true,1.504127,0.564839,0.000000,0.168856,1.895177,0.578436,0.292760,0.065791,0.335903,0.985618,0.003889
KPIECE,132,true,1.500971,0.563755,0.000000,0.085985,1.892059,0.577047,0.295602,0.060189,0.322727,0.990454,0.006896
KPIECE,133,true,1.498775,0.563688,0.000000,0.444797,1.888134,0.577200,0.294794,0.060749,0.321545,0.986901,0.005138
KPIECE,134,true,1.506563,0.564658,0.000000,0.126425,1.899726,0.577522,0.295478,0.063268,0.334055,0.993644,0.005764
KPIECE,135,true,1.496733,0.563853,0.000000,0.480688,1.883981,0.577489,0.294852,0.059867,0.319051,0.987782,0.001170
KPIECE,136,true,1.503166,0.565176,0.000000,0.107915,1.892839,0.579055,0.295747,0.063696,0.332808,0.985879,0.002322
KPIECE,137,true,1.506237,0.565106,0.000000,0.442131,1.899720,0.578594,0.294888,0.064266,0.333865,0.987951,0.009186
KPIECE,138,true,1.509947,0.565341,0.000000,0.294592,1.906011,0.576128,0.293657,0.065957,0.335040,1.000420,0.008739
KPIECE,139,true,1.503484,0.564400,0.000000,0.081337,1.893532,0.578219,0.294826,0.063843,0.335090,0.987059,0.001425
KPIECE,140,true,1.505220,0.564887,0.000000,0.516695,1.897382,0.577998,0.292651,0.065274,0.335095,0.990066,0.004605
KPIECE,141,true,1.502123,0.565174,0.000000,0.164938,1.893156,0.579475,0.294790,0.061865,0.326444,0.986375,0.007424
KPIECE,142,true,1.501275,0.563681,0.000000,0.195751,1.894384,0.575156,0.295297,0.059446,0.315468,0.997526,0.010935
KPIECE,143,true,1.504690,0.563703,0.000000,0.336673,1.898025,0.576424,0.295322,0.062584,0.329992,0.991130,0.008641
KPIECE,144,true,1.507046,0.565280,0.000000,0.347178,1.899628,0.579087,0.294194,0.065048,0.339035,0.989282,0.004541
KPIECE,145,true,1.509168,0.564165,0.000000,0.783003,1.904378,0.576465,0.294685,0.065178,0.339396,0.994056,0.007808
KPIECE,146,true,1.506923,0.564229,0.000000,0.759486,1.900152,0.578436,0.295750,0.064269,0.339585,0.985376,0.007400
KPIECE,147,true,1.507244,0.565260,0.000000,0.351144,1.900043,0.578920,0.294361,0.065338,0.339172,0.988782,0.005213
KPIECE,148,true,1.512301,0.564838,0.000000,0.143250,1.909798,0.573601,0.293907,0.066529,0.336385,1.009371,0.007260
KPIECE,149,true,1.508924,0.564409,0.000000,0.094008,1.904633,0.577581,0.295357,0.063332,0.336767,0.993625,0.010191
KPIECE,150,true,1.507777,0.564920,0.000000,0.105325,1.902481,0.577142,0.293473,0.065906,0.335668,0.992034,0.009170
ProjEST,1,true,1.506230,0.564781,0.000000,0.133704,1.899159,0.578607,0.294786,0.064919,0.337107,0.985651,0.007659
ProjEST,2,true,1.496212,0.565137,0.000000,0.265303,1.882406,0.578671,0.295392,0.060842,0.317273,0.985419,0.001054
ProjEST,3,true,1.498841,0.564247,0.000000,0.063604,1.888569,0.577654,0.296965,0.059256,0.317337,0.987790,0.007521
ProjEST,4,true,1.495953,0.563939,0.000000,0.224881,1.883464,0.576837,0.295087,0.060106,0.314957,0.987168,0.003719
ProjEST,5,true,1.497624,0.564656,0.000000,0.079795,1.887037,0.578370,0.294519,0.059707,0.315330,0.987202,0.007750
ProjEST,6,true,1.504630,0.565527,0.000000,0.286449,1.895101,0.577557,0.294785,0.064554,0.331860,0.994671,0.000484
ProjEST,7,true,1.509067,0.564039,0.000000,0.061556,1.905614,0.575109,0.293748,0.063526,0.332834,1.002880,0.009185
ProjEST,8,true,1.503110,0.564127,0.000000,0.045015,1.894943,0.578379,0.295179,0.062177,0.330237,0.985503,0.007866
ProjEST,9,true,1.507819,0.565301,0.000000,0.033912,1.901104,0.575552,0.292879,0.065710,0.333693,1.004378,0.001304
ProjEST,10,true,1.503986,0.564092,0.000000,0.264744,1.894101,0.577115,0.293437,0.066055,0.338167,0.986920,0.000279
ProjEST,11,true,1.502447,0.564677,0.000000,0.091719,1.893806,0.573886,0.294396,0.061746,0.317817,1.007674,0.001830
ProjEST,12,true,1.511248,0.564182,0.000000,0.275551,1.908571,0.575174,0.293500,0.065725,0.339115,1.001057,0.009299
ProjEST,13,true,1.505277,0.564401,0.000000,0.029537,1.898145,0.576457,0.293263,0.063594,0.331046,0.996955,0.004546
ProjEST,14,true,1.500034,0.565143,0.000000,0.240534,1.890201,0.577024,0.294616,0.061114,0.317038,0.994903,0.005408
ProjEST,15,true,1.503835,0.564072,0.000000,0.530498,1.895489,0.578486,0.294915,0.062838,0.333769,0.985433,0.006079
ProjEST,16,true,1.510058,0.565846,0.000000,0.537681,1.904171,0.576711,0.293782,0.066821,0.339003,1.001324,0.002633
ProjEST,17,true,1.503483,0.564234,0.000000,0.245891,1.893689,0.577452,0.292801,0.065860,0.336606,0.986494,0.001248
ProjEST,18,true,1.506182,0.565501,0.000000,0.122789,1.897548,0.578354,0.293952,0.065911,0.337633,0.990993,0.001739
ProjEST,19,true,1.501614,0.564671,0.000000,0.057683,1.892124,0.578990,0.294210,0.062620,0.328289,0.984476,0.006261
ProjEST,20,true,1.508659,0.564368,0.000000,0.033126,1.903842,0.576545,0.294356,0.065449,0.337687,0.993152,0.008862
ProjEST,21,true,1.504103,0.564427,0.000000,0.145453,1.894113,0.577893,0.295478,0.064514,0.336637,0.986906,0.000899
ProjEST,22,true,1.499156,0.564291,0.000000,0.385613,1.888078,0.576615,0.295368,0.059098,0.317749,0.997659,0.000981
ProjEST,23,true,1.505999,0.565064,0.000000,0.107678,1.897334,0.577126,0.294960,0.065372,0.335898,0.993407,0.001269
ProjEST,24,true,1.506189,0.564714,0.000000,0.177876,1.897485,0.578197,0.295288,0.064835,0.339496,0.989230,0.001559
ProjEST,25,true,1.504051,0.565187,0.000000,0.130908,1.896898,0.575216,0.296119,0.060761,0.318173,1.005918,0.005982
ProjEST,26,true,1.502517,0.565013,0.000000,0.073051,1.895051,0.577113,0.295225,0.059502,0.318024,0.999753,0.007941
ProjEST,27,true,1.505894,0.564847,0.000000,0.147082,1.898405,0.578530,0.293331,0.065773,0.337824,0.986115,0.006143
ProjEST,28,true,1.509316,0.565108,0.000000,0.369374,1.904735,0.575904,0.292709,0.066124,0.335581,1.001033,0.006684
ProjEST,29,true,1.506432,0.564523,0.000000,0.113027,1.899572,0.576977,0.293222,0.066685,0.337404,0.988464,0.006584
ProjEST,30,true,1.500963,0.563759,0.000000,0.397647,1.891603,0.576294,0.295013,0.060565,0.322620,0.994145,0.004253
ProjEST,31,true,1.510078,0.565656,0.000000,0.048320,1.904509,0.576872,0.293626,0.066271,0.339042,1.001273,0.003251
ProjEST,32,true,1.496336,0.564399,0.000000,0.292552,1.882980,0.577692,0.295030,0.060449,0.317719,0.987386,0.000744
ProjEST,33,true,1.508245,0.564896,0.000000,0.106140,1.904185,0.575082,0.292723,0.063704,0.328394,1.007077,0.007823
ProjEST,34,true,1.495305,0.563820,0.000000,0.791125,1.881903,0.576981,0.295461,0.058591,0.314112,0.990075,0.000717
ProjEST,35,true,1.507535,0.565070,0.000000,0.151868,1.899503,0.576602,0.293887,0.067154,0.339904,0.994681,0.000432
ProjEST,36,true,1.499605,0.565346,0.000000,0.039038,1.888784,0.576518,0.294314,0.060795,0.315659,1.000034,0.001497
ProjEST,37,true,1.498912,0.564124,0.000000,0.113563,1.888928,0.576817,0.295282,0.059841,0.316879,0.991404,0.006514
ProjEST,38,true,1.499035,0.564810,0.000000,0.045390,1.889457,0.578264,0.296218,0.058415,0.314514,0.990960,0.008734
ProjEST,39,true,1.504262,0.565041,0.000000,0.088937,1.896240,0.579116,0.296062,0.063027,0.331187,0.985089,0.008323
ProjEST,40,true,1.506641,0.563835,0.000000,0.278379,1.900868,0.576733,0.293708,0.064234,0.335680,0.991573,0.008040
ProjEST,41,true,1.507068,0.565177,0.000000,0.237125,1.899365,0.576768,0.295096,0.064474,0.334728,0.998770,0.001417
ProjEST,42,true,1.505788,0.565152,0.000000,0.147138,1.897835,0.577271,0.293548,0.065780,0.334584,0.992638,0.003578
ProjEST,43,true,1.506449,0.564825,0.000000,0.108817,1.898007,0.576833,0.293282,0.066440,0.338679,0.993946,0.000209
ProjEST,44,true,1.504454,0.564454,0.000000,0.143449,1.896175,0.577686,0.294271,0.064996,0.334492,0.986269,0.005668
ProjEST,45,true,1.505597,0.565208,0.000000,0.038535,1.898143,0.579447,0.293224,0.065658,0.337068,0.983794,0.007631
ProjEST,46,true,1.508516,0.565659,0.000000,0.054396,1.903182,0.575194,0.293097,0.065594,0.330406,1.006588,0.004742
ProjEST,47,true,1.500014,0.564528,0.000000,0.052642,1.888652,0.578634,0.296332,0.061328,0.325679,0.984850,0.003219
ProjEST,48,true,1.498651,0.565296,0.000000,0.350146,1.888148,0.579813,0.295260,0.060078,0.318177,0.984283,0.008344
ProjEST,49,true,1.504359,0.564917,0.000000,0.307858,1.897426,0.577105,0.294101,0.062110,0.325397,0.997029,0.007353
ProjEST,50,true,1.506681,0.564491,0.000000,0.287894,1.898532,0.575939,0.294270,0.065777,0.337514,0.996358,0.000231
ProjEST,51,true,1.508122,0.563960,0.000000,0.170487,1.901387,0.574977,0.294673,0.064928,0.338102,1.000758,0.000992
ProjEST,52,true,1.507108,0.564604,0.000000,0.050871,1.901029,0.577465,0.292428,0.066291,0.338079,0.989766,0.007346
ProjEST,53,true,1.505864,0.565139,0.000000,0.259944,1.898438,0.579675,0.293746,0.064798,0.337457,0.984914,0.007035
ProjEST,54,true,1.497668,0.564525,0.000000,0.057569,1.885164,0.578692,0.296798,0.058709,0.318813,0.987971,0.002025
ProjEST,55,true,1.509640,0.565104,0.000000,0.168551,1.904111,0.575891,0.293080,0.066280,0.338407,1.002491,0.002863
ProjEST,56,true,1.508421,0.564702,0.000000,0.257237,1.903445,0.576733,0.293995,0.064314,0.335145,0.997672,0.007475
ProjEST,57,true,1.498979,0.564337,0.000000,0.367656,1.888714,0.578288,0.294287,0.060805,0.320823,0.985987,0.006746
ProjEST,58,true,1.508902,0.565435,0.000000,0.055146,1.902505,0.575577,0.292654,0.066695,0.336564,1.004410,0.000884
ProjEST,59,true,1.497723,0.563998,0.000000,0.603390,1.886961,0.577516,0.295754,0.059569,0.316715,0.986504,0.007116
ProjEST,60,true,1.504268,0.564846,0.000000,0.088953,1.896001,0.577311,0.292595,0.065060,0.331968,0.991751,0.004138
ProjEST,61,true,1.502336,0.564102,0.000000,0.012312,1.892706,0.577035,0.295072,0.063575,0.329978,0.987359,0.003994
ProjEST,62,true,1.506152,0.565526,0.000000,0.135348,1.897665,0.579048,0.294074,0.066662,0.339280,0.985502,0.003928
ProjEST,63,true,1.501848,0.564192,0.000000,0.145858,1.892366,0.577614,0.292985,0.064097,0.330155,0.986043,0.004652
ProjEST,64,true,1.509406,0.564743,0.000000,0.234507,1.904942,0.575384,0.292561,0.066257,0.336354,1.001357,0.006392
ProjEST,65,true,1.510890,0.564748,0.000000,0.021788,1.907770,0.574765,0.292293,0.065525,0.335779,1.007830,0.006594
ProjEST,66,true,1.499301,0.564848,0.000000,0.258206,1.888914,0.579077,0.295630,0.060395,0.320477,0.985032,0.007293
ProjEST,67,true,1.500846,0.564765,0.000000,0.162742,1.890938,0.576322,0.293759,0.061043,0.319797,0.999923,0.001694
ProjEST,68,true,1.501690,0.565623,0.000000,0.076879,1.892248,0.576957,0.295521,0.061195,0.318382,0.998887,0.004131
ProjEST,69,true,1.505779,0.564290,0.000000,0.046278,1.899506,0.574575,0.293829,0.062270,0.325955,1.006684,0.004057
ProjEST,70,true,1.503738,0.565028,0.000000,0.126134,1.893749,0.578146,0.294024,0.065831,0.335225,0.986167,0.001834
ProjEST,71,true,1.510559,0.564340,0.000000,0.096018,1.907322,0.574161,0.293005,0.065861,0.335906,1.005529,0.007328
ProjEST,72,true,1.511922,0.565467,0.000000,0.583614,1.909499,0.576075,0.294804,0.064480,0.334933,1.005890,0.009727
ProjEST,73,true,1.508532,0.564864,0.000000,0.262829,1.901926,0.577329,0.294876,0.065251,0.339901,0.994868,0.003443
ProjEST,74,true,1.507443,0.564749,0.000000,0.168181,1.901088,0.577795,0.294913,0.065779,0.338418,0.987625,0.007854
ProjEST,75,true,1.503081,0.564575,0.000000,0.019812,1.894525,0.575992,0.294854,0.063281,0.325494,0.994780,0.004850
ProjEST,76,true,1.503184,0.564705,0.000000,0.205751,1.893387,0.577509,0.294375,0.065244,0.332813,0.986703,0.002918
ProjEST,77,true,1.505826,0.565304,0.000000,0.076570,1.898606,0.579054,0.294631,0.064507,0.334483,0.986969,0.007869
ProjEST,78,true,1.506751,0.564402,0.000000,0.112444,1.899460,0.577666,0.294202,0.064220,0.338184,0.992585,0.003441
ProjEST,79,true,1.503973,0.564319,0.000000,0.178904,1.894504,0.578842,0.295115,0.063594,0.336718,0.984837,0.002827
ProjEST,80,true,1.506137,0.563796,0.000000,0.137155,1.898942,0.576073,0.293870,0.065452,0.337229,0.991346,0.004478
ProjEST,81,true,1.501937,0.565377,0.000000,0.240893,1.893744,0.577299,0.294700,0.061542,0.318916,0.995180,0.008178
ProjEST,82,true,1.505802,0.565225,0.000000,0.644446,1.896799,0.578492,0.294760,0.066285,0.339017,0.986381,0.002505
ProjEST,83,true,1.506089,0.564199,0.000000,0.203180,1.898857,0.574840,0.294744,0.064099,0.331332,1.000555,0.002733
ProjEST,84,true,1.505596,0.564458,0.000000,0.170901,1.898546,0.577997,0.294023,0.065181,0.336024,0.985560,0.008037
ProjEST,85,true,1.509310,0.564800,0.000000,0.318305,1.904563,0.576356,0.295119,0.064391,0.335751,0.999208,0.007193
ProjEST,86,true,1.508888,0.565444,0.000000,0.100176,1.904816,0.576651,0.295482,0.062553,0.328981,1.003549,0.009527
ProjEST,87,true,1.506067,0.563778,0.000000,0.120511,1.900643,0.576160,0.293690,0.064347,0.332677,0.991196,0.010167
ProjEST,88,true,1.500142,0.564669,0.000000,0.188657,1.888664,0.576637,0.295236,0.062071,0.322748,0.993586,0.000147
ProjEST,89,true,1.501853,0.564513,0.000000,0.130279,1.893026,0.577137,0.295680,0.061985,0.323664,0.989875,0.007222
ProjEST,90,true,1.506267,0.565389,0.000000,0.042762,1.900945,0.574868,0.294141,0.062687,0.321497,1.008040,0.007608
ProjEST,91,true,1.496874,0.565364,0.000000,0.289141,1.884409,0.579505,0.295259,0.059605,0.315807,0.986355,0.004102
ProjEST,92,true,1.499097,0.564507,0.000000,0.448243,1.887926,0.576806,0.296929,0.059070,0.316793,0.995203,0.002489
ProjEST,93,true,1.498405,0.564569,0.000000,0.029215,1.887154,0.577749,0.296640,0.058124,0.315731,0.993544,0.003429
ProjEST,94,true,1.506464,0.564078,0.000000,0.227820,1.898834,0.576700,0.294326,0.065741,0.339169,0.990028,0.003469
ProjEST,95,true,1.506252,0.565222,0.000000,0.200573,1.897923,0.578563,0.293922,0.064837,0.337741,0.991889,0.001843
ProjEST,96,true,1.502392,0.564596,0.000000,0.187616,1.893329,0.576207,0.295010,0.060504,0.321987,1.001426,0.002049
ProjEST,97,true,1.503789,0.564373,0.000000,0.149405,1.894916,0.579107,0.295271,0.062656,0.334304,0.985070,0.004974
ProjEST,98,true,1.502244,0.565124,0.000000,0.204675,1.891271,0.578518,0.294219,0.064778,0.332253,0.986024,0.000947
ProjEST,99,true,1.498504,0.564628,0.000000,0.216583,1.885949,0.579281,0.295206,0.060447,0.324096,0.985775,0.000709
ProjEST,100,true,1.507438,0.564863,0.000000,0.228028,1.900496,0.575304,0.293503,0.065469,0.334150,1.002524,0.001421
ProjEST,101,true,1.501359,0.564162,0.000000,0.245511,1.891947,0.574515,0.294969,0.060730,0.318692,1.003652,0.001520
ProjEST,102,true,1.505606,0.564192,0.000000,0.036624,1.898168,0.576769,0.294740,0.064195,0.334363,0.991733,0.005048
ProjEST,103,true,1.507389,0.564490,0.000000,0.156857,1.901528,0.576328,0.293363,0.066033,0.336183,0.993224,0.007090
ProjEST,104,true,1.501726,0.563740,0.000000,0.011528,1.893281,0.576926,0.295370,0.060719,0.324295,0.990704,0.007166
ProjEST,105,true,1.500605,0.563955,0.000000,0.033993,1.891010,0.574977,0.294795,0.059843,0.317939,1.002360,0.001901
ProjEST,106,true,1.495691,0.563674,0.000000,0.054532,1.882680,0.576706,0.295337,0.059340,0.315314,0.988712,0.001684
ProjEST,107,true,1.502532,0.564652,0.000000,0.144471,1.893023,0.578579,0.293631,0.063570,0.331226,0.986484,0.004112
ProjEST,108,true,1.498034,0.563917,0.000000,0.026047,1.888700,0.577798,0.294855,0.058682,0.314949,0.987511,0.010311
ProjEST,109,true,1.501964,0.565073,0.000000,0.058065,1.892190,0.577246,0.294597,0.061159,0.322954,0.998343,0.001596
ProjEST,110,true,1.506932,0.565417,0.000000,0.103626,1.899324,0.577086,0.294632,0.065508,0.334935,0.995710,0.002972
ProjEST,111,true,1.507705,0.565245,0.000000,0.365627,1.902416,0.578167,0.293794,0.065309,0.335341,0.990457,0.010107
ProjEST,112,true,1.504436,0.564885,0.000000,0.114772,1.895072,0.578335,0.294865,0.063959,0.334725,0.989644,0.001801
ProjEST,113,true,1.504801,0.564429,0.000000,0.134186,1.896645,0.577386,0.294483,0.063610,0.333203,0.991851,0.003892
ProjEST,114,true,1.501281,0.565114,0.000000,0.606669,1.891232,0.575606,0.294156,0.062647,0.319898,1.000056,0.001480
ProjEST,115,true,1.497605,0.564093,0.000000,0.396946,1.885889,0.577804,0.294338,0.059927,0.319130,0.988616,0.003005
ProjEST,116,true,1.502495,0.564145,0.000000,0.545346,1.892703,0.577898,0.293125,0.063955,0.333108,0.987085,0.002320
ProjEST,117,true,1.505219,0.564493,0.000000,0.508792,1.896859,0.577357,0.296074,0.063275,0.333672,0.991893,0.003413
ProjEST,118,true,1.507198,0.564882,0.000000,0.325722,1.901278,0.577539,0.293203,0.065552,0.335969,0.991524,0.007860
ProjEST,119,true,1.505121,0.565495,0.000000,0.183877,1.895137,0.579489,0.295038,0.065071,0.338517,0.986904,0.000368
ProjEST,120,true,1.512197,0.564868,0.000000,0.055657,1.909460,0.575392,0.293821,0.065271,0.338669,1.006546,0.007041
ProjEST,121,true,1.498184,0.565165,0.000000,0.407943,1.885462,0.578119,0.296203,0.059849,0.318038,0.992321,0.000026
ProjEST,122,true,1.499072,0.564480,0.000000,0.261547,1.888101,0.576487,0.295715,0.059095,0.316138,0.997997,0.001786
ProjEST,123,true,1.507321,0.564164,0.000000,0.266593,1.901969,0.576519,0.295516,0.063983,0.334133,0.992395,0.009471
ProjEST,124,true,1.504118,0.565510,0.000000,0.143319,1.895731,0.578339,0.294503,0.063239,0.328516,0.992638,0.005135
ProjEST,125,true,1.506142,0.565277,0.000000,0.607516,1.899241,0.576472,0.293459,0.065470,0.331040,0.996435,0.005588
ProjEST,126,true,1.504501,0.565330,0.000000,0.726198,1.896590,0.578837,0.293226,0.065256,0.332825,0.986051,0.007328
ProjEST,127,true,1.507337,0.565312,0.000000,0.013929,1.903523,0.574877,0.293706,0.062745,0.321947,1.008190,0.010599
ProjEST,128,true,1.500718,0.565274,0.000000,0.155651,1.891064,0.578902,0.294067,0.062162,0.322899,0.987180,0.006945
ProjEST,129,true,1.504028,0.564435,0.000000,0.061940,1.896920,0.577189,0.293817,0.062734,0.327858,0.992657,0.007845
ProjEST,130,true,1.506595,0.565172,0.000000,0.441009,1.897823,0.577570,0.293694,0.067357,0.340521,0.989993,0.000695
ProjEST,131,true,1.510137,0.564535,0.000000,0.177354,1.905452,0.575352,0.293407,0.066452,0.339647,1.000728,0.004928
ProjEST,132,true,1.498982,0.564281,0.000000,0.066543,1.887833,0.577349,0.294610,0.061095,0.321188,0.989634,0.003072
ProjEST,133,true,1.502953,0.565283,0.000000,0.144626,1.892339,0.580105,0.295439,0.063454,0.334208,0.983456,0.002207
ProjEST,134,true,1.505496,0.565459,0.000000,0.453425,1.898032,0.578639,0.293800,0.064847,0.333127,0.989333,0.006772
ProjEST,135,true,1.502471,0.565019,0.000000,0.133369,1.893293,0.575745,0.295118,0.062488,0.321718,0.999278,0.003073
ProjEST,136,true,1.510089,0.564741,0.000000,0.142358,1.906052,0.574816,0.294559,0.063985,0.333390,1.007959,0.005659
ProjEST,137,true,1.509188,0.564409,0.000000,0.065412,1.904757,0.576569,0.294232,0.065100,0.337896,0.995148,0.008703
ProjEST,138,true,1.503299,0.564298,0.000000,0.232308,1.894558,0.574791,0.295419,0.061751,0.323551,1.002897,0.001498
ProjEST,139,true,1.504120,0.563613,0.000000,0.094907,1.897212,0.576775,0.294489,0.062581,0.330203,0.989826,0.008504
ProjEST,140,true,1.497035,0.564737,0.000000,0.097056,1.885155,0.577618,0.294679,0.058610,0.313238,0.994482,0.002487
ProjEST,141,true,1.503739,0.565693,0.000000,0.027608,1.896414,0.577348,0.294663,0.061496,0.320760,0.999534,0.007431
ProjEST,142,true,1.505607,0.564372,0.000000,0.068067,1.897858,0.577499,0.295745,0.062755,0.333866,0.992826,0.004161
ProjEST,143,true,1.510285,0.564646,0.000000,0.085237,1.906963,0.577224,0.294778,0.064007,0.337657,0.996701,0.010594
ProjEST,144,true,1.504477,0.565262,0.000000,0.503681,1.895090,0.579159,0.295178,0.064086,0.334895,0.987242,0.002889
ProjEST,145,true,1.509395,0.563884,0.000000,0.252698,1.906183,0.573862,0.294306,0.062919,0.330703,1.008407,0.008075
ProjEST,146,true,1.505056,0.564853,0.000000,0.014475,1.896268,0.579063,0.295357,0.063399,0.336143,0.987974,0.003260
ProjEST,147,true,1.496287,0.564959,0.000000,0.043476,1.882651,0.578970,0.295533,0.059644,0.317215,0.986741,0.000771
ProjEST,148,true,1.504035,0.563942,0.000000,0.064399,1.895442,0.578008,0.293223,0.064622,0.336718,0.985235,0.004313
ProjEST,149,true,1.502749,0.564449,0.000000,0.019287,1.893783,0.574986,0.296018,0.059403,0.319606,1.007930,0.000312
ProjEST,150,true,1.506605,0.564143,0.000000,0.112016,1.899739,0.576609,0.292874,0.065758,0.337941,0.992143,0.004534
