Planner,Run,Success,Length_In_Joint_Space,Length_In_Cartesian_Space(Endeffector),Smoothness,Time,Weighted_Length,Shoulder_Pan_Joint,Shoulder_Lift_Joint,Elbow_Joint,Wrist_1_Joint,Wrist_2_Joint,Wrist_3_Joint
LBKPIECE,1,true,5.287600,5.845826,0.423624,0.475073,6.791917,8.974737,1.860803,3.777160,3.829628,4.690974,4.825413
LBKPIECE,2,true,4.739682,4.333221,0.470166,0.298003,5.989023,3.783168,2.498277,6.643216,4.035116,1.640915,3.863892
LBKPIECE,3,true,4.864283,7.807081,0.285774,0.530636,6.288561,9.644101,1.107301,3.217913,2.186706,1.312403,6.192821
LBKPIECE,4,true,4.300849,4.038090,0.465031,0.582744,5.486137,3.306658,2.237800,4.779076,1.972200,2.774933,3.426635
LBKPIECE,5,true,4.207534,4.941638,0.344428,0.826854,5.443697,4.805191,1.820601,3.209250,1.681749,2.124356,4.062195
LBKPIECE,6,true,5.676973,6.572011,0.628010,0.458023,7.373777,9.090917,1.913139,6.236896,5.404904,2.424677,7.157490
LBKPIECE,7,true,3.670185,3.816628,0.255706,0.610809,4.715830,2.929077,1.634333,3.351025,1.741019,0.601837,3.212969
LBKPIECE,8,true,3.583735,3.921107,0.202238,0.508601,4.582544,2.876988,1.626890,3.227377,1.774037,0.293206,3.044656
LBKPIECE,9,true,5.540313,5.869642,0.646664,0.409152,7.058266,7.351145,2.816785,5.652124,5.460026,5.165946,4.249042
LBKPIECE,10,true,4.079523,4.083684,0.505851,0.761277,5.153761,4.240007,1.626471,3.899916,1.996609,1.836878,3.042628
LBKPIECE,11,true,4.391680,4.888502,0.390784,0.910149,6.071627,3.202437,1.729902,3.112211,2.335420,2.571379,6.335504
LBKPIECE,12,true,3.860021,3.779242,0.410138,0.424938,5.021715,3.459961,1.629269,3.138054,1.961006,1.066092,3.645380
LBKPIECE,13,true,3.645305,4.558103,0.213200,0.638989,4.667167,3.072913,1.624785,3.146738,1.986207,0.407210,3.050393
LBKPIECE,14,true,5.707135,8.538399,0.646731,0.728352,7.190398,7.111149,5.944331,4.507461,7.040610,3.845859,4.121981
LBKPIECE,15,true,3.888967,4.370624,0.575111,0.411794,4.586940,4.763319,2.040892,3.313869,2.158453,1.937558,0.909972
LBKPIECE,16,true,3.697168,4.016342,0.304484,0.276846,4.742085,2.956425,1.643708,3.324286,1.670102,1.000843,3.073687
LBKPIECE,17,true,3.634500,4.156171,0.194872,0.600000,4.657773,3.067711,1.689823,3.121892,1.607197,0.567878,3.155090
LBKPIECE,18,true,3.935229,4.634148,0.699721,0.412534,5.100292,3.039166,1.936694,4.104459,1.889012,0.395454,4.121243
LBKPIECE,19,true,4.556318,4.815141,0.653539,0.330890,6.088841,4.511862,1.182178,3.279098,4.481671,2.778155,4.527065
LBKPIECE,20,true,3.811964,4.057167,0.280953,0.589823,4.802213,2.891817,1.629547,4.538335,1.578018,0.834536,3.058814
LBKPIECE,21,true,4.311764,3.841538,0.403497,0.512064,5.677079,2.971093,1.629531,5.164000,1.544983,2.470482,4.811225
LBKPIECE,22,true,4.583709,5.081027,0.560265,0.653555,5.677996,6.518343,3.015752,3.310638,1.533299,3.568769,3.063590
LBKPIECE,23,true,3.910839,3.975844,0.406142,0.327503,4.939472,3.222618,2.018845,3.172343,2.653676,2.004316,2.222864
LBKPIECE,24,true,4.219707,4.048271,0.219049,0.550063,5.854987,3.102962,1.339224,3.095491,3.457442,0.604105,6.206702
LBKPIECE,25,true,4.369806,4.626552,0.095679,0.252865,5.866214,3.094268,1.438674,5.445058,2.191012,0.726146,6.200050
LBKPIECE,26,true,4.601550,4.914461,0.529745,0.469210,5.995706,3.083111,1.680177,5.292672,4.055869,3.406507,3.655925
LBKPIECE,27,true,4.083105,3.960342,0.556935,0.438146,5.593740,3.040633,1.095598,3.592668,2.281691,0.985809,5.675344
LBKPIECE,28,true,4.708931,5.411135,0.512548,0.556334,6.418668,6.008571,1.632524,4.052305,1.607227,0.328781,8.544626
LBKPIECE,29,true,4.215880,4.362789,0.712184,0.449585,5.576885,3.135674,1.927899,3.912879,3.181182,1.085187,4.530820
LBKPIECE,30,true,4.569139,4.468242,0.259303,0.467896,6.267966,2.850825,1.094514,4.808958,4.442061,1.393038,6.287636
LBKPIECE,31,true,5.574795,5.367980,0.415813,0.782140,7.653103,5.728932,1.633210,3.344186,8.292884,4.959502,7.119628
LBKPIECE,32,true,4.146887,4.387317,0.803464,0.650600,5.492029,3.112874,2.488673,3.146247,3.190919,0.741120,4.516838
LBKPIECE,33,true,5.237509,6.359180,0.538674,1.119195,6.740852,5.940033,1.629312,6.072148,3.007046,6.565367,4.217591
LBKPIECE,34,true,4.435395,4.048560,0.187432,0.312600,6.098942,2.909227,1.101347,4.380910,3.644141,1.393991,6.243114
LBKPIECE,35,true,4.462034,4.336852,0.221952,0.667331,6.153731,3.077997,2.002417,3.103181,3.303499,2.190158,6.232498
LBKPIECE,36,true,3.648956,3.970944,0.409245,0.393481,4.689512,3.068632,1.631287,3.128064,1.770178,0.526974,3.189746
LBKPIECE,37,true,3.844857,4.888458,0.480676,0.426862,4.885123,3.642708,1.873496,3.114962,2.425376,0.796643,2.929740
LBKPIECE,38,true,3.659231,4.474416,0.405573,0.332032,4.647323,3.177773,1.628442,3.437202,1.652599,0.432869,3.061087
LBKPIECE,39,true,4.292239,3.971731,0.462283,0.542425,5.989770,3.161190,1.429530,3.266459,2.116818,1.561421,6.887894
LBKPIECE,40,true,3.560965,4.570292,0.779122,0.609622,4.272606,3.354913,1.330406,3.485535,2.535318,0.909241,1.065062
LBKPIECE,41,true,4.265902,3.704118,0.448103,0.300305,5.730996,2.624994,1.634466,3.398882,2.757368,3.675398,4.106815
LBKPIECE,42,true,3.744040,4.243491,0.154081,0.790045,4.802063,2.835969,1.629168,3.564432,1.527034,1.407534,3.053702
LBKPIECE,43,true,5.395254,8.343954,0.593946,0.212431,7.317705,3.659258,4.674131,3.105027,6.690964,4.209693,6.769692
LBKPIECE,44,true,3.798630,4.493463,0.771916,0.346889,4.884328,2.952298,1.629643,4.118654,1.631942,0.398983,3.698072
LBKPIECE,45,true,3.949840,4.273315,0.532561,0.680784,5.152501,3.065141,1.631103,3.328934,2.709381,1.495719,3.370961
LBKPIECE,46,true,4.556114,5.488308,0.872700,0.195022,5.712250,4.976085,3.242468,4.408612,2.974862,1.415522,3.740624
LBKPIECE,47,true,4.383818,5.096765,0.468669,0.382436,5.504900,2.842981,1.631178,6.752997,4.093367,0.801964,3.095370
LBKPIECE,48,true,3.804943,4.516347,0.235882,0.586723,4.869671,3.128586,2.004115,3.162889,1.615833,1.512052,3.054113
LBKPIECE,49,true,4.461588,4.767985,0.497172,0.521794,5.977747,3.595957,2.278321,4.480949,2.342579,0.930819,6.277146
LBKPIECE,50,true,4.855394,4.485488,0.546944,0.446905,6.626341,3.047152,1.637675,5.235842,4.228841,2.745986,6.679358
LBKPIECE,51,true,3.765325,3.755680,0.261215,0.915564,4.851573,3.000355,1.725207,3.142054,1.521991,1.738039,3.050027
LBKPIECE,52,true,3.718920,4.331669,0.907182,0.672454,4.816141,3.111868,1.674191,3.235886,1.635158,0.616823,3.556437
LBKPIECE,53,true,3.417808,4.539643,0.729777,0.570033,3.999179,3.369179,1.095448,3.113443,2.377243,1.517416,0.208682
LBKPIECE,54,true,4.091559,4.030946,0.377422,0.584874,5.498567,2.912707,1.279052,3.242106,3.675693,1.444909,4.186392
LBKPIECE,55,true,4.007732,4.261462,0.269532,0.742721,5.275950,2.866280,2.020686,3.121666,2.804146,1.528688,3.720449
LBKPIECE,56,true,4.165091,4.825188,0.194413,0.184328,5.762697,3.513114,1.103817,3.100291,2.558093,0.842728,6.229940
LBKPIECE,57,true,3.800498,4.712047,1.145275,0.685808,4.866259,3.351676,1.766064,3.450767,1.997810,0.516056,3.361413
LBKPIECE,58,true,4.519992,5.884292,0.630368,0.877873,5.749567,6.288979,1.633159,3.548102,1.768250,3.524736,3.667103
LBKPIECE,59,true,3.864010,3.922352,0.470994,0.326657,4.926793,2.881192,1.628311,4.245662,1.514406,1.493690,3.167312
LBKPIECE,60,true,6.076030,8.994969,0.520593,0.735100,7.624874,8.492356,4.204199,6.505257,8.042096,6.170018,3.504219
LBKPIECE,61,true,3.739782,4.259586,0.560797,0.321344,4.877970,2.825065,1.636298,3.200351,1.860079,0.979805,3.484371
LBKPIECE,62,true,4.384577,4.301182,0.881171,0.444061,5.834071,3.165935,1.654743,4.722306,2.123737,2.427447,5.130346
LBKPIECE,63,true,5.428622,6.631435,0.354826,0.500953,7.245717,8.256547,1.304805,3.100616,9.130904,1.454561,6.222507
LBKPIECE,64,true,4.427511,4.472619,0.467150,0.481543,5.878941,4.090005,2.154106,3.141426,2.597208,2.878335,4.741776
LBKPIECE,65,true,4.296651,4.832503,0.371553,0.499979,5.565296,2.886653,1.098939,5.434372,4.278390,1.292807,3.470053
LBKPIECE,66,true,4.264292,4.080622,0.797819,0.851823,5.735873,3.445519,1.869471,3.127502,1.920409,2.846932,4.974354
LBKPIECE,67,true,3.964920,4.109975,0.547147,0.637679,5.059523,3.369088,1.626918,3.982337,2.113497,1.492820,3.135932
LBKPIECE,68,true,4.443757,4.386180,0.270260,0.739643,5.719847,2.928350,1.633999,5.481780,2.823535,3.612481,3.266828
LBKPIECE,69,true,5.696732,6.873332,0.531592,0.760037,7.364668,9.280149,4.681577,3.126811,5.358706,3.584163,6.421354
LBKPIECE,70,true,3.870225,4.172529,0.219568,0.581245,5.048193,2.819393,1.096182,3.901244,2.371880,1.446148,3.343792
LBKPIECE,71,true,4.443915,4.656728,0.228661,0.268784,6.136284,3.111192,1.107598,3.807930,2.193850,3.343865,6.183943
LBKPIECE,72,true,3.972523,4.703997,0.365907,0.749222,5.029228,2.908556,1.145410,4.757128,2.216448,2.211057,2.542342
LBKPIECE,73,true,5.002819,6.549686,0.583713,0.493107,6.764297,4.196924,3.198498,3.243118,6.924698,1.127110,6.337851
LBKPIECE,74,true,4.543402,4.280490,0.156066,0.492752,6.193725,2.994929,1.109949,5.007102,2.694009,2.647313,6.189202
LBKPIECE,75,true,3.910402,3.725212,0.121643,0.820883,5.107897,2.818264,1.633939,3.397560,1.879692,2.203905,3.357885
LBKPIECE,76,true,6.093583,7.331382,0.493144,0.628638,7.789678,8.493252,2.039727,9.251221,9.247678,1.900101,6.199774
LBKPIECE,77,true,3.617108,4.371710,0.790440,0.759850,4.637083,2.984114,1.628128,3.139436,1.695665,0.548854,3.087273
LBKPIECE,78,true,4.292854,4.538489,0.560902,0.821776,5.972842,3.354989,1.105708,3.097952,3.267178,1.226464,6.376303
LBKPIECE,79,true,4.151936,3.953156,0.528301,0.416493,5.806952,2.849018,1.100044,3.113999,2.478222,1.390688,6.306602
LBKPIECE,80,true,5.292238,5.109236,0.408580,0.502812,6.946649,8.764442,1.633701,4.160784,4.963107,1.686444,6.799304
LBKPIECE,81,true,5.224921,7.080433,0.347099,0.612613,6.810407,8.555971,1.627318,4.634246,3.518908,2.363793,6.599567
LBKPIECE,82,true,4.464635,4.734518,0.725010,0.266874,5.749014,3.113773,1.627836,5.801700,4.163018,1.498098,3.728541
LBKPIECE,83,true,5.218207,5.297369,0.621568,0.421255,7.439876,4.471337,1.932870,3.115294,4.756209,2.542103,10.411874
LBKPIECE,84,true,5.162612,6.549369,0.450099,0.364823,6.811028,8.449852,1.098768,3.627554,2.616535,4.598724,6.261135
LBKPIECE,85,true,4.068161,5.161836,0.485352,0.361880,5.198596,3.813485,2.818575,3.137700,1.560463,1.524426,3.695288
LBKPIECE,86,true,4.214940,4.124455,0.201993,0.450602,5.868317,2.933912,1.097152,3.331737,2.798809,1.335599,6.268509
LBKPIECE,87,true,3.873103,3.834933,0.300381,0.385567,5.104597,2.857869,1.632058,3.128512,1.785957,1.923034,3.673495
LBKPIECE,88,true,4.775513,5.415496,0.839090,0.651747,6.644282,3.843574,1.108562,3.982178,3.578443,2.823020,7.469747
LBKPIECE,89,true,4.385967,4.940224,0.522308,0.341217,5.727850,3.372363,2.307018,3.777002,4.329720,1.659377,3.791229
LBKPIECE,90,true,5.184567,6.085934,0.782495,0.390943,6.469302,8.533599,1.703569,6.159551,2.654896,3.338979,4.489135
LBKPIECE,91,true,4.974635,5.362333,0.749730,0.409508,6.761733,5.830819,1.628863,3.138232,4.969364,2.354768,6.824950
LBKPIECE,92,true,4.365557,6.132587,0.501403,0.280267,5.970116,3.597767,1.372873,3.935487,2.181914,1.537804,6.432242
LBKPIECE,93,true,3.829498,4.162199,0.418532,0.679393,4.926312,3.133409,1.628397,3.344829,1.521740,1.991604,3.045077
LBKPIECE,94,true,5.746695,7.703226,0.368331,0.340006,7.073361,9.237563,4.400558,8.562365,3.193092,1.447015,6.183914
LBKPIECE,95,true,4.681913,6.435383,0.473890,0.601043,5.962863,7.526423,1.095112,3.723604,2.238739,3.276167,4.060261
LBKPIECE,96,true,5.269221,6.610349,0.922747,0.349590,6.856910,4.660907,2.203256,7.927803,4.819821,1.873111,6.279794
LBKPIECE,97,true,4.232337,3.836598,0.398177,0.278273,5.729619,3.310222,1.699727,3.150567,1.996674,2.591779,5.163704
LBKPIECE,98,true,4.954375,4.197902,0.383835,0.803527,6.643608,4.139010,2.592764,4.407155,4.920683,2.301438,6.184784
LBKPIECE,99,true,4.621361,5.156859,0.390211,0.380179,6.333869,4.260934,1.688729,3.090581,3.217157,2.655400,6.444180
LBKPIECE,100,true,5.103923,6.207077,0.593346,0.567840,6.868864,4.845152,2.789429,3.214274,2.086569,7.184522,5.930085
LBKPIECE,101,true,4.122919,3.782896,0.123983,0.533174,5.337460,2.810981,1.633947,4.467143,2.481289,2.201479,3.403625
LBKPIECE,102,true,3.770395,3.918106,0.252244,0.487698,4.936947,2.872174,1.635440,3.198974,1.597994,1.263031,3.648268
LBKPIECE,103,true,3.297461,4.372560,0.173652,0.762202,3.938624,2.940568,1.097723,3.139339,2.121037,0.630687,0.943894
LBKPIECE,104,true,5.237126,6.068647,0.675991,0.683974,6.693739,6.335970,1.632597,8.379102,2.405138,2.375843,6.298837
LBKPIECE,105,true,5.790040,6.000093,0.517554,0.411178,7.581325,9.155309,2.257995,4.385527,7.998071,3.501474,6.226188
LBKPIECE,106,true,4.146697,4.341128,0.271993,0.504144,5.780270,2.930258,1.092880,3.254536,2.093969,1.524446,6.299005
LBKPIECE,107,true,6.381418,7.257040,0.729216,0.345878,9.091924,5.640422,3.220031,4.032970,5.575251,8.142321,14.111503
LBKPIECE,108,true,3.807082,3.916213,0.317659,0.433472,4.974131,2.948323,1.731599,3.136088,2.436260,0.671367,3.570239
LBKPIECE,109,true,3.635147,3.795742,0.379281,0.530770,4.669412,2.810727,1.095974,3.458298,2.194939,0.914537,2.739820
LBKPIECE,110,true,3.977495,4.975470,0.428819,0.625181,5.012635,3.761435,2.892717,3.146591,1.513918,1.219497,3.286311
LBKPIECE,111,true,4.118706,3.767792,0.335171,0.514271,5.394973,2.929868,1.714679,4.303257,1.736739,2.153140,4.126056
LBKPIECE,112,true,4.571690,4.529300,0.222637,0.744827,6.224412,3.087486,1.105434,5.308380,3.217867,1.737272,6.443908
LBKPIECE,113,true,3.956141,4.213071,0.235521,0.481379,5.170203,2.871878,1.641380,3.139673,3.077741,1.838552,3.081827
LBKPIECE,114,true,5.600457,8.918716,0.687781,0.416714,6.803153,8.525671,2.060521,9.197705,6.719912,1.524780,3.336535
LBKPIECE,115,true,4.881634,6.205391,0.673315,1.006486,5.970659,3.827721,2.130432,10.484203,2.164567,0.793002,4.430424
LBKPIECE,116,true,3.703645,4.478561,0.312338,0.348361,4.740043,3.236769,1.626710,3.146304,2.350627,0.312747,3.043827
LBKPIECE,117,true,3.888138,3.703045,0.140031,0.559321,4.997438,3.110552,2.179540,3.123664,1.749917,1.801028,3.152912
LBKPIECE,118,true,4.476339,5.563699,0.341364,0.722176,6.124194,4.567527,1.389543,3.098445,2.452561,2.043483,6.486051
LBKPIECE,119,true,3.761107,4.059701,0.170815,0.642457,4.848854,2.961328,1.626371,3.241691,1.515128,1.752474,3.048932
LBKPIECE,120,true,4.226229,4.493292,0.177160,0.593096,5.842015,3.355487,1.097359,3.414394,2.094021,1.625388,6.274363
LBKPIECE,121,true,3.810512,3.479987,0.077673,0.498885,4.947275,2.874807,1.627412,3.142516,1.523643,2.271354,3.080268
LBKPIECE,122,true,6.487444,7.048814,0.765677,0.803114,8.179844,10.573116,2.545804,9.264587,4.195356,10.388567,5.119496
LBKPIECE,123,true,3.595024,4.314785,0.288932,0.789393,4.599501,2.999608,1.707546,3.123171,1.659719,0.296820,3.137337
LBKPIECE,124,true,3.743878,4.318060,0.265009,0.255907,4.907090,2.987441,1.630397,3.129601,1.569687,0.905764,3.793732
LBKPIECE,125,true,4.523148,3.535053,0.468871,0.817431,5.920202,4.065428,2.324492,3.697141,3.043106,3.110573,4.218126
LBKPIECE,126,true,4.948604,5.571951,0.460750,0.877050,6.469416,3.228558,3.540978,3.592327,6.829605,4.059369,3.237844
LBKPIECE,127,true,5.727610,6.005635,0.536323,0.542608,8.036056,4.195304,3.240460,3.114555,9.303964,3.433741,9.517488
LBKPIECE,128,true,3.553372,4.419456,0.355828,0.501303,4.375162,3.117065,1.098594,3.112430,2.724112,1.357024,1.217227
LBKPIECE,129,true,5.918780,6.755169,0.353157,0.575620,7.636215,9.542914,3.926525,5.524581,2.583517,6.212551,7.241873
LBKPIECE,130,true,4.343526,4.317065,0.154614,0.269164,5.954989,2.976624,1.104247,4.409476,2.156739,1.999329,6.219803
LBKPIECE,131,true,5.243342,4.925329,0.522277,0.267386,6.910461,6.350648,3.135173,3.708119,5.722662,2.612889,5.963145
LBKPIECE,132,true,4.083243,3.718983,0.456834,0.702367,5.406057,2.788498,2.007505,3.124709,1.778170,3.173564,3.800426
LBKPIECE,133,true,4.586722,4.346790,0.617121,0.715472,5.876593,3.138571,1.853943,5.968876,4.213881,2.443062,3.419691
LBKPIECE,134,true,5.202456,4.791767,0.787396,0.576918,7.258585,3.920029,1.632352,4.390826,2.371453,6.251712,8.499175
LBKPIECE,135,true,4.727722,4.917578,0.285458,0.496117,6.303737,6.333425,1.105691,3.728999,2.389979,2.590772,6.202493
LBKPIECE,136,true,4.480051,4.447851,0.915403,0.329789,5.924710,3.204039,1.677293,3.891486,3.646463,3.918286,3.733291
LBKPIECE,137,true,3.771962,3.812449,0.280041,0.522062,4.831275,2.934321,1.626621,3.606250,2.015635,0.991852,3.053016
LBKPIECE,138,true,3.787366,4.199761,0.481223,0.287875,4.959882,3.094958,1.633641,3.211939,1.593466,0.957448,3.852686
LBKPIECE,139,true,5.453875,6.446481,0.888004,0.734131,7.266939,8.784171,2.974934,3.135613,4.346505,2.289911,8.213619
LBKPIECE,140,true,4.161486,4.751119,0.894908,0.687165,5.329629,3.666660,1.887504,4.333244,3.146569,0.627550,3.656434
LBKPIECE,141,true,5.462623,4.793991,0.791464,0.326057,7.509218,4.602120,3.202035,4.456606,4.901426,3.709439,8.968619
LBKPIECE,142,true,3.593794,3.750640,0.150131,0.677243,4.597451,2.842088,1.626234,3.275147,1.508872,0.613708,3.049310
LBKPIECE,143,true,4.989600,7.271264,0.895531,0.552430,6.072555,5.440365,2.769412,6.087230,6.107898,3.110477,1.380722
LBKPIECE,144,true,4.098570,5.113007,0.486419,0.497572,5.130224,4.968043,1.095268,3.800217,3.291708,1.056869,2.586172
LBKPIECE,145,true,4.179901,4.309577,0.515518,0.498742,5.297974,3.228741,2.038009,5.242975,2.314611,1.012140,3.635100
LBKPIECE,146,true,3.981751,4.227637,0.482047,0.460624,5.164414,3.262903,1.669705,3.146938,2.388455,2.344292,3.042045
LBKPIECE,147,true,4.718074,3.795351,0.210113,0.598734,6.516229,2.797639,1.625617,3.921491,4.612747,3.017190,6.285539
LBKPIECE,148,true,4.082994,4.047254,0.396368,0.214634,5.289618,2.870457,2.107599,3.115161,2.906995,2.939040,2.731592
LBKPIECE,149,true,3.683321,4.216678,0.325585,0.307950,4.749299,3.132741,1.633219,3.121859,1.655374,0.713710,3.309952
LBKPIECE,150,true,3.950377,3.983467,0.873917,0.461369,5.104399,3.009745,1.628372,4.129645,1.657341,1.568689,3.611689
BKPIECE,1,true,4.925232,5.173085,0.549199,0.475426,6.410796,7.776726,3.272399,3.145203,1.513524,1.773247,6.776814
BKPIECE,2,true,4.447081,4.843938,0.643674,0.393697,5.768587,4.963218,2.131341,3.130857,2.723550,2.878618,3.948947
BKPIECE,3,true,4.416841,3.920190,0.168570,0.248910,6.156024,3.031937,1.257656,3.114362,5.055321,0.765580,6.283626
BKPIECE,4,true,4.603296,4.426859,0.453462,0.362003,6.340471,3.399087,1.498906,3.470290,4.849301,1.783557,6.189190
BKPIECE,5,true,4.131758,4.565342,0.833577,0.438090,5.454211,3.402434,2.060389,3.553676,1.776672,1.656172,4.622076
BKPIECE,6,true,3.878272,5.115855,0.345702,0.272177,4.817031,4.558424,2.223220,3.143860,1.519047,0.549128,3.047313
BKPIECE,7,true,4.167409,4.822820,0.128145,0.319229,5.746659,3.717869,1.114630,3.102862,2.154831,1.052251,6.224855
BKPIECE,8,true,4.152511,3.858052,0.480574,0.389982,5.451410,3.001695,1.695333,3.146305,3.878680,2.446837,3.074500
BKPIECE,9,true,4.056653,4.533554,0.880097,0.277521,5.179327,3.230622,1.632514,4.344896,1.686163,2.441653,3.120588
BKPIECE,10,true,3.859123,4.697858,0.918398,0.321144,4.916725,3.287437,2.334046,3.558694,1.593019,0.550934,3.568699
BKPIECE,11,true,4.360993,4.092260,0.562465,0.301879,5.667253,3.510809,1.853195,4.654721,2.352161,2.547403,4.099968
BKPIECE,12,true,4.093551,4.107353,0.927061,0.283253,5.410206,3.447613,1.921494,3.373451,1.617829,1.898216,4.498559
BKPIECE,13,true,4.251525,4.768815,0.604047,0.438202,5.322469,5.923297,1.628443,3.323342,3.028973,1.118594,3.052818
BKPIECE,14,true,4.176771,4.628004,0.595727,0.291769,5.817372,3.177677,1.139057,3.293868,2.188404,1.084812,6.561595
BKPIECE,15,true,5.194552,5.446945,0.481311,0.299459,6.825250,6.308792,1.626683,4.458749,3.275231,6.302403,5.011514
BKPIECE,16,true,3.592249,4.051317,0.200150,0.230947,4.590143,3.009976,1.627427,3.146688,1.534165,0.540997,3.044998
BKPIECE,17,true,3.712262,4.349314,0.535317,0.235421,4.792965,3.200962,1.650621,3.293573,1.548309,0.531533,3.555892
BKPIECE,18,true,4.608896,4.865565,0.458578,0.256453,5.970068,3.648838,1.642525,4.671531,5.214057,2.944224,3.120751
BKPIECE,19,true,4.748746,4.702356,0.400353,0.223859,5.932409,3.854061,2.128845,6.985854,5.753420,0.767356,3.061055
BKPIECE,20,true,4.263228,4.800559,0.497233,0.416988,5.828609,3.833226,1.197267,3.613669,2.329017,0.935308,6.266623
BKPIECE,21,true,3.847520,4.349643,0.608719,0.282149,5.056152,2.957309,1.099223,3.748148,2.617055,0.619151,3.762528
BKPIECE,22,true,3.693456,4.321268,0.304355,0.380746,4.705148,3.368732,1.635168,3.281870,1.595732,0.619152,3.140960
BKPIECE,23,true,3.779700,4.006639,0.607382,0.389883,4.848153,3.151206,1.627537,3.360834,2.219126,0.855522,3.071903
BKPIECE,24,true,4.030769,4.327460,0.582399,0.313814,5.215051,2.904834,1.632417,4.038532,2.440070,1.952905,3.278342
BKPIECE,25,true,4.651599,5.948251,0.373894,0.403643,6.322031,6.052828,1.103121,3.100551,2.173111,2.257926,6.949834
BKPIECE,26,true,4.960676,6.022242,0.678380,0.241902,6.131372,8.415223,3.509828,3.124977,3.869885,2.261246,3.427145
BKPIECE,27,true,3.989107,3.984305,0.382299,0.423331,5.204858,2.971109,1.863958,3.142923,2.143046,2.549349,3.242589
BKPIECE,28,true,4.332649,4.989630,0.511111,0.254193,5.927640,3.967568,1.592072,3.091984,3.068706,0.806665,6.244851
BKPIECE,29,true,5.289995,6.596100,0.575472,0.389069,6.732292,5.801018,1.658197,6.440277,6.358649,4.470751,3.255153
BKPIECE,30,true,3.918196,4.302152,0.638888,0.291625,5.043011,3.972068,1.633037,3.129817,2.270434,0.884534,3.462368
BKPIECE,31,true,4.005757,4.785018,0.919925,0.167814,5.164482,3.577079,2.021277,3.120361,2.578728,1.450236,3.298411
BKPIECE,32,true,3.946024,4.353885,0.258694,0.244597,5.154631,2.835474,1.647420,3.141026,2.096096,2.799156,3.051932
BKPIECE,33,true,4.726888,4.655064,0.518992,0.274959,6.486703,3.818524,1.773177,3.739163,5.480269,0.811085,6.721248
BKPIECE,34,true,3.724221,4.305278,0.290317,0.413881,4.832670,2.919213,1.632583,3.267946,1.627759,0.987525,3.434797
BKPIECE,35,true,3.480454,4.392286,0.687232,0.459170,4.255511,2.976104,1.095538,3.324069,2.176176,1.263711,1.277963
BKPIECE,36,true,3.974709,4.160909,0.477451,0.254442,5.107115,2.846559,1.627532,4.090687,1.976706,2.206042,3.050783
BKPIECE,37,true,4.622321,4.681734,0.465163,0.306053,5.978370,3.019663,2.365153,5.468547,2.095720,4.554184,3.862581
BKPIECE,38,true,4.268670,5.285096,0.509714,0.284650,5.519021,3.788416,2.180862,3.128861,2.691939,3.316828,3.114640
BKPIECE,39,true,4.158976,4.095636,0.404986,0.283840,5.200868,3.663514,1.286764,4.293753,5.240541,1.113610,1.698898
BKPIECE,40,true,3.763871,4.319199,0.583691,0.299851,4.803577,3.176511,1.629271,3.694356,1.654593,0.770954,3.241040
BKPIECE,41,true,4.086309,4.655216,0.502697,0.449303,5.332392,3.344951,1.627867,3.381799,2.775411,2.174703,3.393186
BKPIECE,42,true,3.829755,4.527642,0.374328,0.345880,4.901659,3.079404,1.629415,3.670293,2.853778,0.362808,3.071326
BKPIECE,43,true,4.645413,5.992464,0.570967,0.403871,5.962156,7.512042,1.633489,3.817751,1.604543,1.661188,5.350852
BKPIECE,44,true,3.903268,4.460575,0.594742,0.334301,4.859063,3.234872,1.108114,4.025400,3.021309,2.337923,1.507882
BKPIECE,45,true,4.556585,5.793844,0.783303,0.404994,6.142978,3.291831,2.104248,3.881728,4.900764,1.094840,5.489054
BKPIECE,46,true,3.924647,4.614808,0.298323,0.377281,5.315792,2.900996,1.397905,3.109914,2.524024,0.609268,4.860747
BKPIECE,47,true,5.050286,4.326407,0.480047,0.378167,6.846254,4.583318,3.050921,3.571289,2.080802,5.153093,7.065960
BKPIECE,48,true,4.159360,4.206752,0.394952,0.214392,5.662042,3.051777,1.632637,3.131419,1.899863,2.310575,5.274003
BKPIECE,49,true,3.829646,4.019129,0.316591,0.318176,5.023055,3.116185,1.628847,3.135283,1.541535,1.465314,3.779022
BKPIECE,50,true,3.761002,4.444640,0.599691,0.486198,4.804380,3.098876,1.627386,3.747969,1.831741,0.573134,3.266029
BKPIECE,51,true,4.291126,4.430371,0.861540,0.302910,5.596840,3.759069,1.943926,3.889412,2.797714,1.934148,4.089497
BKPIECE,52,true,3.832456,4.231500,0.319532,0.396208,4.954608,3.351082,1.633252,3.162957,1.606711,1.613718,3.319997
BKPIECE,53,true,3.901928,4.129376,0.485772,0.229871,5.063999,3.356955,1.633687,3.146991,2.645117,1.110649,3.331641
BKPIECE,54,true,4.715654,4.645525,0.417854,0.611969,6.167815,3.154332,1.629190,5.055659,5.004785,3.987077,3.406346
BKPIECE,55,true,3.942707,6.601619,0.628197,0.251399,4.643523,4.586639,2.939168,3.544420,2.094535,0.837523,1.542655
BKPIECE,56,true,3.862005,4.252744,0.180925,0.308375,5.082644,3.202183,1.879854,3.126584,1.583907,0.910837,4.211720
BKPIECE,57,true,4.175199,4.080338,0.474298,0.190210,5.680171,3.493216,1.094777,3.219135,3.282386,1.135887,5.206888
BKPIECE,58,true,3.697140,4.604715,0.612021,0.293132,4.571996,3.625347,1.176267,3.116462,3.253356,1.013877,1.483536
BKPIECE,59,true,4.230608,4.336939,1.009128,0.303926,5.556726,4.106187,2.293708,3.142811,1.718203,2.013301,4.623831
BKPIECE,60,true,3.618650,4.468021,0.355954,0.165024,4.647825,2.945242,1.628578,3.140843,2.005199,0.247088,3.127682
BKPIECE,61,true,3.938750,5.133831,0.802899,0.296428,4.997730,4.920782,1.627630,3.161786,1.524860,0.618699,3.659998
BKPIECE,62,true,3.900524,4.998237,0.718049,0.343260,4.732804,4.540058,2.372353,3.106425,2.584894,0.620260,1.990098
BKPIECE,63,true,4.425000,5.249402,0.900845,0.201820,5.895415,3.542820,2.130380,3.594270,3.791725,1.659299,4.862133
BKPIECE,64,true,4.486919,4.656612,0.842933,0.328833,5.864650,3.333767,2.081290,4.724874,3.954317,1.769043,4.269156
BKPIECE,65,true,3.737978,4.325760,0.322279,0.214781,4.732650,3.005428,1.094362,3.436094,2.883946,1.563749,1.988902
BKPIECE,66,true,3.623944,4.255512,0.226696,0.410172,4.645579,2.984081,1.629285,3.141241,1.528288,0.780018,3.070061
BKPIECE,67,true,3.715484,4.477434,0.221712,0.277259,4.808108,2.885389,1.635590,3.364951,1.607028,0.917674,3.394189
BKPIECE,68,true,3.986634,4.490014,0.780803,0.249560,5.166343,2.996331,1.820305,3.802341,2.267856,1.482853,3.523567
BKPIECE,69,true,3.928455,4.067894,0.515024,0.405016,4.950799,3.165932,2.071512,4.229242,1.743034,1.111458,3.111580
BKPIECE,70,true,5.069273,5.977412,0.668864,0.232323,6.867468,6.755702,1.283912,3.445563,3.989587,2.970515,7.252244
BKPIECE,71,true,3.884584,4.721670,1.006965,0.275054,4.961042,3.491122,1.878892,3.799493,1.681867,0.637167,3.601454
BKPIECE,72,true,3.896944,4.625390,0.370778,0.574890,5.060744,2.946991,1.632228,3.392681,2.647771,1.355803,3.210695
BKPIECE,73,true,4.548779,4.795873,0.563412,0.154407,5.901933,4.203744,2.734064,3.875247,3.355250,2.259997,4.263086
BKPIECE,74,true,3.989379,5.494064,0.215344,0.192564,5.109104,3.986884,1.687355,3.135942,3.531574,0.490563,3.082827
BKPIECE,75,true,4.881540,4.348016,0.561766,0.285486,6.413734,4.939352,1.685386,3.681831,5.206684,4.532506,3.783677
BKPIECE,76,true,3.754939,4.779135,0.456394,0.397422,4.717694,3.814863,1.201302,3.117722,2.693337,1.080966,2.191382
BKPIECE,77,true,4.446856,5.299572,1.236713,0.295381,5.624287,3.826113,2.386206,5.183792,3.267675,1.631076,3.479662
BKPIECE,78,true,3.873887,4.272554,0.920664,0.349296,5.059913,2.826269,1.630569,3.133595,2.892963,1.344461,3.179145
BKPIECE,79,true,4.188277,4.451059,0.338328,0.300637,5.833468,2.986057,1.190153,3.101791,3.173129,0.866529,6.224009
BKPIECE,80,true,3.612498,4.416901,0.587442,0.289338,4.554377,3.075956,1.102996,3.113783,2.095506,1.727090,1.934808
BKPIECE,81,true,4.211119,4.440822,0.916414,0.282280,5.484832,3.415143,1.118988,4.193059,3.322751,2.340058,3.343526
BKPIECE,82,true,3.891267,4.693654,0.510098,0.337611,5.091610,3.451010,1.130198,3.117995,2.171002,1.931983,3.339775
BKPIECE,83,true,4.181215,5.201697,0.487776,0.286942,5.321796,5.817520,1.994282,3.145374,1.505163,0.706653,4.313570
BKPIECE,84,true,4.116205,4.618891,0.208850,0.201009,5.694471,3.045637,1.104913,3.534450,2.158479,0.873939,6.225722
BKPIECE,85,true,4.423157,4.793401,0.655495,0.405190,6.102566,3.576474,1.638107,3.236692,1.976193,2.572899,6.563951
BKPIECE,86,true,4.018392,4.387776,0.498450,0.290764,5.069548,3.223582,1.666069,5.099157,1.602839,1.161646,3.394180
BKPIECE,87,true,3.606767,4.301391,0.243379,0.364332,4.600512,3.217374,1.632763,3.129781,1.601226,0.300536,3.127089
BKPIECE,88,true,4.557300,5.977153,0.452232,0.342205,5.464341,5.538889,3.032116,6.169454,1.718117,1.248887,3.061519
BKPIECE,89,true,4.459799,4.173798,0.304492,0.347551,6.144769,2.922275,1.484743,3.116840,5.640106,1.223414,5.502428
BKPIECE,90,true,4.919284,7.852615,0.437389,0.354934,6.439983,8.241301,1.798659,3.095930,3.523625,1.329270,6.210567
BKPIECE,91,true,4.282153,4.552186,0.237106,0.320553,5.440059,2.897262,1.098333,5.652513,2.491583,3.628458,2.568683
BKPIECE,92,true,3.331042,4.603867,0.629818,0.231181,3.853309,3.190566,1.121036,3.440641,2.098142,0.836907,0.408551
BKPIECE,93,true,4.791223,4.505082,0.618439,0.283258,6.324914,3.095222,1.707317,5.551999,6.020059,2.133787,4.447436
BKPIECE,94,true,4.032435,5.020987,0.599352,0.252436,5.086103,4.432160,2.121139,3.215353,1.984209,1.391645,3.116028
BKPIECE,95,true,4.070612,4.429736,0.445575,0.255585,5.317584,3.220946,1.264277,3.115433,4.351715,1.879909,2.737600
BKPIECE,96,true,3.914521,5.288988,0.837780,0.118706,4.752198,3.323279,1.528689,4.365988,2.244322,2.706796,1.154398
BKPIECE,97,true,3.872002,4.768903,0.231180,0.183844,5.082259,2.871006,1.633364,3.137484,3.318730,0.545414,3.486404
BKPIECE,98,true,4.972836,5.021023,0.186518,0.353754,6.763587,5.447666,1.102930,3.377148,4.346705,4.239001,6.215652
BKPIECE,99,true,3.657137,3.924242,0.140133,0.305200,4.718569,2.866220,1.629552,3.172290,1.747991,0.774950,3.183649
BKPIECE,100,true,4.738063,4.531878,0.630526,0.320477,5.946755,4.639020,3.911586,4.101710,5.422246,1.256961,3.117722
BKPIECE,101,true,4.094652,4.702826,0.258643,0.257016,5.665951,3.294523,1.205114,3.116009,2.192615,0.771608,6.186304
BKPIECE,102,true,4.141848,4.252991,0.427589,0.314145,5.440832,3.132094,1.632036,3.552879,3.066308,2.161733,3.609855
BKPIECE,103,true,4.275855,5.568920,0.393434,0.392654,5.517592,6.135562,1.633015,3.125686,2.322436,0.294016,4.772220
BKPIECE,104,true,3.895413,4.494943,0.656910,0.350798,5.119446,3.197776,1.663046,3.407968,1.804873,0.971546,4.129031
BKPIECE,105,true,4.390356,4.502319,0.367229,0.519606,6.025801,2.848583,1.277697,4.304502,3.495058,1.158786,6.190603
BKPIECE,106,true,3.930995,4.244740,0.291554,0.253075,5.253524,3.361354,1.650641,3.188492,1.527780,0.829886,4.894566
BKPIECE,107,true,3.853224,4.070441,0.387335,0.331320,4.952559,3.376322,1.631719,3.567480,1.701223,1.161901,3.408692
BKPIECE,108,true,5.561114,5.192980,0.384988,0.368372,7.714062,3.653597,1.626851,6.524804,5.439091,4.221613,9.460029
BKPIECE,109,true,4.848770,5.521373,0.613351,0.320932,6.207675,5.895833,3.175842,3.896648,2.463132,3.596704,4.482412
BKPIECE,110,true,4.304919,4.628732,0.199526,0.304810,5.935276,2.931119,1.191495,3.905166,2.194238,2.119674,6.190634
BKPIECE,111,true,6.829557,6.619889,0.443496,0.238193,8.917891,9.065413,3.089095,9.866443,9.321338,7.036517,8.264037
BKPIECE,112,true,4.027357,4.013244,0.332802,0.465652,5.438041,2.943828,1.745831,3.123452,2.864857,0.595449,4.946189
BKPIECE,113,true,4.686142,4.625314,0.571537,0.309956,6.106878,3.158750,1.629866,5.913231,4.467579,2.714556,4.075947
BKPIECE,114,true,5.580256,8.324001,0.549117,0.289950,7.153567,8.010972,1.233301,8.181740,2.986051,4.406178,6.321015
BKPIECE,115,true,3.999429,4.597626,0.543732,0.343125,5.269181,3.260115,1.631560,3.232537,1.687175,2.286427,3.897617
BKPIECE,116,true,5.148783,5.242871,0.426542,0.302196,6.797936,4.189712,1.633824,4.124970,6.507538,6.913417,3.140508
BKPIECE,117,true,3.873401,3.992549,0.270761,0.268781,4.895225,2.955028,1.627254,4.501028,1.512632,1.367219,3.040071
BKPIECE,118,true,3.909567,5.106855,0.519288,0.523406,4.938820,4.725492,1.635277,3.125694,2.147070,0.342204,3.308979
BKPIECE,119,true,4.274841,4.445894,0.200539,0.316748,5.910933,3.415786,1.236446,3.201515,3.034183,1.141980,6.244353
BKPIECE,120,true,3.795873,4.097262,0.446873,0.335437,4.910495,2.928935,1.628986,3.677606,1.945672,0.696278,3.531177
BKPIECE,121,true,3.771390,4.256247,0.604043,0.445695,4.871278,2.954295,1.631158,3.303731,2.151714,1.010722,3.171764
BKPIECE,122,true,4.565370,5.066763,0.900030,0.228712,5.897753,3.144362,1.528046,6.017018,4.921058,1.444403,3.787714
BKPIECE,123,true,4.560519,4.146488,0.426560,0.461364,6.092132,4.660807,1.991646,3.144211,2.530249,3.157351,5.314068
BKPIECE,124,true,4.020561,4.474067,0.297904,0.209821,5.240059,3.165097,1.629356,3.266930,2.858556,2.055194,3.189778
BKPIECE,125,true,4.954662,6.466884,0.473287,0.351174,6.613262,7.047835,1.104086,3.417570,2.174642,4.597175,6.207371
BKPIECE,126,true,3.949968,4.730425,0.550352,0.254352,5.056363,3.720227,1.629939,3.562405,2.007101,1.407686,3.274887
BKPIECE,127,true,5.311213,6.392490,0.498216,0.471263,6.616811,6.636834,3.134386,6.228023,5.407475,3.438812,3.363455
BKPIECE,128,true,3.654233,4.454406,0.184762,0.382021,4.671233,2.864372,1.630105,3.469209,1.542130,0.770348,3.077258
BKPIECE,129,true,4.677709,7.174070,0.376249,0.212888,5.761463,7.933252,1.634360,4.112280,2.455645,2.632981,3.112439
BKPIECE,130,true,5.719258,7.252856,0.543813,0.372871,7.580651,8.343747,3.596140,5.459769,3.351178,2.512967,9.446108
BKPIECE,131,true,4.386636,4.562933,0.430891,0.372099,6.141195,3.417185,1.133014,3.146588,3.014388,1.605493,6.925908
BKPIECE,132,true,5.830701,6.146326,0.634015,0.340095,7.531922,7.813920,4.556519,3.411233,9.780494,3.917552,4.517361
BKPIECE,133,true,4.029269,4.432963,0.598760,0.247407,5.151908,3.198582,1.780927,4.026807,2.500334,1.649907,3.078454
BKPIECE,134,true,4.201790,4.777310,0.439468,0.320672,5.399405,3.384764,1.635465,4.317829,3.584608,1.550806,3.181564
BKPIECE,135,true,4.403682,5.847537,0.810185,0.184511,4.901916,5.063950,3.858007,5.922122,3.742693,0.717607,0.088033
BKPIECE,136,true,3.812387,4.224667,0.364563,0.372892,4.792055,3.273072,1.626113,4.247146,1.515320,0.831098,3.041543
BKPIECE,137,true,4.668403,8.090945,0.315778,0.300340,5.747403,8.831500,1.627146,3.148196,1.524482,3.611166,3.051501
BKPIECE,138,true,3.448629,4.675820,0.539101,0.275263,4.214353,3.230113,1.092806,3.118860,2.081134,0.953650,1.416476
BKPIECE,139,true,3.999109,3.705981,0.291139,0.342495,5.242550,2.693955,1.626541,3.223096,3.607160,1.799944,3.042176
BKPIECE,140,true,4.709370,4.135342,0.417906,0.327155,5.683926,6.467709,4.029651,4.624043,2.133523,1.851144,3.072093
BKPIECE,141,true,4.611474,6.792800,0.821507,0.310197,5.960160,3.262748,2.991450,4.622157,2.516686,4.004172,3.868478
BKPIECE,142,true,4.054318,4.626818,0.377390,0.490765,5.228235,3.421786,1.636551,4.716669,1.819474,0.608557,4.234458
BKPIECE,143,true,4.121758,4.312255,0.564991,0.362622,5.156367,4.491738,1.631207,4.441176,2.500499,0.749800,3.174466
BKPIECE,144,true,4.836326,5.082561,0.398521,0.271960,6.531144,3.179258,1.372263,6.191253,2.989919,3.038830,6.618525
BKPIECE,145,true,3.800547,4.362901,0.751096,0.258276,4.913013,2.975368,1.674209,3.574743,1.716076,1.030066,3.473698
BKPIECE,146,true,4.489406,4.739794,0.655109,0.346782,5.656934,2.963345,1.946176,6.008617,3.140699,3.486434,2.609499
BKPIECE,147,true,3.927399,4.883867,0.707974,0.362885,5.037165,3.137597,2.119385,3.922213,1.600910,0.941064,3.703295
BKPIECE,148,true,4.198581,5.398478,0.473215,0.377971,5.734478,4.046243,1.488967,3.114485,2.091729,0.608884,6.277774
BKPIECE,149,true,3.704794,4.365306,0.418179,0.218540,4.744491,3.149890,1.631374,3.565657,1.583048,0.389417,3.406115
BKPIECE,150,true,4.059870,4.026499,0.261124,0.381671,5.331633,3.002583,1.630568,3.131794,3.420467,2.070959,3.226172
KPIECE,1,true,3.656045,4.182833,0.309963,0.090058,4.681796,3.117430,1.630875,3.139050,1.966782,0.439285,3.073243
KPIECE,2,true,4.149232,4.489415,0.503591,0.517198,5.726776,2.993906,1.105355,3.750944,2.321869,0.830130,6.213919
KPIECE,3,true,4.414386,4.158831,0.411643,0.192555,5.900057,3.648004,1.715951,3.760797,2.706253,2.693967,4.961828
KPIECE,4,true,4.305552,4.122146,0.381034,0.361048,5.631642,4.971125,1.679497,3.443887,1.509252,2.199658,4.734356
KPIECE,5,true,4.125548,4.465331,0.350761,0.707272,5.709919,3.074280,1.476949,3.099699,2.397562,0.757838,6.213816
KPIECE,6,true,3.684183,4.478868,0.424181,0.236938,4.772688,3.313177,1.094241,3.204040,2.083846,0.634298,3.243601
KPIECE,7,true,3.758035,4.921646,0.496809,0.438673,4.758548,3.839639,1.627551,3.190851,1.517087,0.891519,3.056176
KPIECE,8,true,4.101787,4.840076,0.656002,0.401589,5.357394,4.000184,1.361154,3.303364,3.748229,0.694663,3.717062
KPIECE,9,true,3.923308,4.588871,0.265798,0.263479,4.984769,3.553537,1.628086,3.814766,1.519542,1.816799,3.059619
KPIECE,10,true,5.131793,6.275147,0.366851,0.143535,6.690764,8.045413,2.044403,4.047030,5.348056,0.617817,6.232577
KPIECE,11,true,4.485274,3.967136,0.379547,0.599343,5.912490,3.022933,1.635898,5.314603,4.552259,0.896388,4.695604
KPIECE,12,true,4.515259,4.088530,0.335559,0.350952,6.178104,3.022184,1.098455,3.197435,5.140791,3.216774,4.711919
KPIECE,13,true,4.718008,4.508974,0.685549,0.346589,6.056957,4.511123,2.381903,4.995406,2.199876,4.115320,4.055968
KPIECE,14,true,3.909067,4.388992,0.297793,0.483889,4.867779,3.202419,1.630487,5.188671,1.535899,0.568086,3.155242
KPIECE,15,true,3.801074,4.348654,0.636967,0.283535,4.695245,3.638583,1.325331,3.402465,3.105072,1.461343,1.515372
KPIECE,16,true,4.083362,4.061580,0.466177,0.292730,5.306619,2.881987,1.630163,3.969803,1.602946,3.294475,3.294471
KPIECE,17,true,4.279831,4.704271,0.410471,0.427442,5.868860,3.780844,1.094704,3.593770,2.143886,1.424827,6.278925
KPIECE,18,true,4.645305,4.419157,0.457357,0.285901,6.251101,3.116162,1.689347,4.466070,5.088207,2.028946,5.190128
KPIECE,19,true,4.964253,7.415020,0.898498,0.643274,6.173814,5.787322,5.075673,3.319950,4.138027,3.311534,3.011303
KPIECE,20,true,4.930324,8.646848,0.566039,0.465969,6.144965,9.463784,1.096647,3.115284,4.727349,3.084914,2.820119
KPIECE,21,true,4.076669,4.880761,0.471606,0.419658,5.391600,3.143268,1.675170,3.163002,3.405944,1.419521,3.812328
KPIECE,22,true,4.478795,4.145694,0.800892,0.511892,6.232866,2.912137,1.234939,3.395606,3.188674,3.056165,6.272088
KPIECE,23,true,4.595091,4.377318,0.636846,0.456523,6.296626,2.993058,1.206886,4.652265,4.758844,1.233832,6.269978
KPIECE,24,true,4.272996,4.287483,0.171969,0.259698,5.909620,2.961556,1.095058,3.824028,2.163342,1.927247,6.287263
KPIECE,25,true,4.345553,4.407914,0.216066,0.141450,6.235916,2.798851,1.103943,3.099827,2.467600,1.291994,8.121614
KPIECE,26,true,4.081912,4.323383,0.372210,0.223376,5.166725,5.007101,1.632043,3.126752,3.506606,0.252577,3.136927
KPIECE,27,true,3.732390,4.239093,0.369925,0.263180,4.879945,3.018313,1.627700,3.141497,1.848230,0.555087,3.739908
KPIECE,28,true,5.068042,5.902029,0.578616,0.202126,6.512901,8.350401,1.647500,4.114916,4.308043,2.103598,5.160593
KPIECE,29,true,4.436363,4.670008,0.264608,0.189283,6.166905,3.156449,1.275667,3.095677,4.332089,1.625572,6.195866
KPIECE,30,true,3.747833,4.316784,0.322650,0.238447,4.791749,3.113644,1.098269,3.113547,2.522126,2.004850,2.193815
KPIECE,31,true,3.877523,3.873891,0.208100,0.348378,5.020657,2.858891,1.935598,3.142817,1.534261,2.489676,3.073938
KPIECE,32,true,4.875482,6.017934,0.512715,0.608612,6.342759,7.296168,1.631853,3.623305,2.967213,3.010532,5.241258
KPIECE,33,true,3.634941,5.137282,0.508188,0.548900,4.079643,5.095219,1.175672,3.852794,2.141586,0.605946,0.341580
KPIECE,34,true,3.939195,4.351264,0.575746,0.335371,5.166500,3.499993,1.632066,3.124860,2.272596,1.072606,3.915134
KPIECE,35,true,3.671171,3.985167,0.517809,0.238595,4.741177,2.874642,1.094720,3.159115,2.454291,1.242485,2.652244
KPIECE,36,true,4.122071,4.769280,0.433035,0.173119,5.274214,4.471677,1.630286,3.139754,2.400241,2.273409,3.076105
KPIECE,37,true,3.925789,5.222985,0.870820,0.121620,4.943838,3.317872,2.875493,3.434170,2.109008,0.429834,3.245439
KPIECE,38,true,3.910926,5.089289,0.481200,1.524067,5.051734,3.442040,1.677088,3.203220,2.417734,1.303582,3.251677
KPIECE,39,true,5.627917,9.540677,1.176615,0.275375,7.305735,3.245051,7.333044,4.523948,4.103528,7.338993,5.128892
KPIECE,40,true,4.472984,6.318530,0.715708,0.179214,5.697965,5.737097,1.761056,3.673010,3.425637,1.787980,3.622804
KPIECE,41,true,3.955878,4.066037,0.846244,0.178721,5.093425,2.920921,1.628694,4.042781,2.596908,1.222244,3.237424
KPIECE,42,true,4.103086,4.711131,0.104484,0.206134,5.674848,2.834387,1.721832,3.094214,2.193311,0.807874,6.183698
KPIECE,43,true,4.067318,4.462205,0.753858,1.042063,5.034059,4.226965,1.829836,3.378167,2.124906,3.292634,1.690566
KPIECE,44,true,4.395578,5.080885,0.640102,0.697103,6.111881,3.610671,1.518903,3.101578,2.348945,1.796980,6.944028
KPIECE,45,true,4.191071,4.421043,0.364135,0.838804,5.419794,2.963911,1.635329,4.723467,2.227009,2.448650,3.566713
KPIECE,46,true,4.279079,5.767498,0.536552,0.120265,5.486419,4.969163,2.360852,3.145041,1.515984,2.364658,3.954819
KPIECE,47,true,4.875765,5.750105,0.649584,0.256443,6.685183,3.608171,3.088999,3.387468,3.225860,3.232454,7.230134
KPIECE,48,true,5.061049,5.520791,0.498556,0.779342,6.468945,6.902018,1.942107,4.788821,4.982920,2.746572,4.251776
KPIECE,49,true,3.852423,4.084820,0.201824,0.265943,4.971875,3.231052,1.627159,3.146367,1.872353,1.922434,3.041795
KPIECE,50,true,4.485433,4.668954,0.434993,0.334424,5.731950,2.917094,1.701016,6.581050,2.803549,2.300214,3.816189
KPIECE,51,true,4.600440,5.333535,0.748270,0.350401,5.800090,4.523988,1.880079,4.187148,5.557417,3.111255,1.904161
KPIECE,52,true,4.228377,4.244486,0.265659,0.116993,5.756508,2.899693,1.591026,3.109942,4.112791,1.186016,4.979702
KPIECE,53,true,4.511780,4.960202,0.615974,0.436042,6.068342,3.191828,1.276888,5.620010,2.313822,1.752431,6.201182
KPIECE,54,true,4.155998,4.573635,0.586798,0.149302,5.309794,4.177380,1.627735,3.605554,3.127862,1.673830,3.059955
KPIECE,55,true,5.396289,7.256998,0.238109,0.320282,7.170250,8.738085,1.095501,5.683295,2.816682,2.096873,8.689499
KPIECE,56,true,4.139581,4.249495,0.590998,0.109616,5.532948,3.525035,1.800102,3.546484,2.233953,0.817690,5.212869
KPIECE,57,true,4.797581,5.572282,0.637834,0.709692,5.944900,6.428572,4.051511,3.998797,2.449871,2.300873,3.787156
KPIECE,58,true,3.819688,3.901302,0.177146,0.112193,5.087329,2.913511,1.633424,3.151298,1.581361,0.911301,4.399120
KPIECE,59,true,4.276889,4.496216,0.294799,0.119811,5.976764,2.746143,1.105921,3.210918,3.317871,1.709800,6.201130
KPIECE,60,true,3.661665,4.243659,0.436340,0.238542,4.550328,3.222021,1.095857,3.951661,2.082899,0.895910,2.159444
KPIECE,61,true,4.457726,3.988443,0.213690,0.439888,6.270933,3.006881,1.125973,3.117050,2.698294,3.091266,6.831857
KPIECE,62,true,4.243622,4.077565,0.150667,0.293070,5.714973,2.860613,1.096503,3.336546,4.884221,1.892530,3.937918
KPIECE,63,true,4.353413,5.207783,0.739762,0.389355,5.595934,4.026928,2.534231,4.273900,1.609491,2.262524,4.245131
KPIECE,64,true,4.292582,4.001254,0.432051,0.246055,6.093064,3.183387,1.096660,3.313455,2.344565,0.621782,7.866410
KPIECE,65,true,4.227976,4.810599,0.905738,0.072368,5.190174,3.430572,1.485988,4.306607,5.062163,3.180935,0.409513
KPIECE,66,true,4.328754,5.097462,0.404651,0.277316,5.932686,4.116940,1.288810,3.101838,2.500797,1.501592,6.228134
KPIECE,67,true,4.143139,5.491171,0.428891,1.020478,5.294381,4.379420,1.626748,3.473516,2.908959,1.598008,3.178952
KPIECE,68,true,3.706163,3.991322,0.205639,0.355763,4.786480,2.883877,1.628314,3.142252,1.673678,1.313977,3.093545
KPIECE,69,true,4.780503,8.710984,0.345861,0.390345,5.953082,9.117559,1.646464,4.363238,1.959397,0.906504,4.860042
KPIECE,70,true,3.955366,4.258788,0.336782,0.379773,5.141842,3.227311,1.632911,3.148314,1.517240,2.961907,3.157235
KPIECE,71,true,4.223379,4.584061,0.399855,0.330216,5.586824,3.096358,1.633738,3.708142,3.800624,1.621071,3.976993
KPIECE,72,true,6.375559,8.549025,0.633054,0.263610,8.893276,6.150768,1.422148,10.890989,3.450760,2.474317,16.258768
KPIECE,73,true,4.172808,3.918766,0.527658,0.164690,5.494092,2.981103,1.634861,3.975704,2.943087,1.925515,3.952057
KPIECE,74,true,5.650510,6.421386,0.595923,0.183335,7.360701,7.045392,2.297848,5.972021,4.061182,6.913160,5.638659
KPIECE,75,true,4.394378,4.266885,0.505058,0.128997,6.086571,3.249377,1.097756,3.512386,2.336118,2.830168,6.284753
KPIECE,76,true,3.945925,4.359719,0.810289,0.244226,5.132947,3.798693,1.634006,3.346733,1.882725,0.922230,3.985933
KPIECE,77,true,5.707689,7.666370,0.860135,0.206351,7.693063,3.789052,2.434956,7.364605,4.802726,6.569955,7.616415
KPIECE,78,true,5.184670,6.030807,0.409018,0.413931,6.618647,8.344031,1.635457,3.124223,5.066177,5.562322,3.148592
KPIECE,79,true,3.741927,4.060014,0.707520,0.160578,4.828655,3.153661,1.765110,3.207033,1.569625,0.868918,3.437674
KPIECE,80,true,3.783124,4.277988,0.506876,0.286386,4.863568,3.108584,1.625631,3.619795,1.510709,1.063057,3.384250
KPIECE,81,true,4.565927,5.078619,0.491080,0.212495,6.238535,4.889424,1.101641,3.263702,2.140823,2.973373,6.478722
KPIECE,82,true,3.971202,3.817926,0.236931,0.084245,5.118804,2.870961,1.633776,3.980558,2.246503,1.892089,3.146558
KPIECE,83,true,3.780758,4.135647,0.523795,0.497545,4.820303,2.930093,1.694859,3.771266,1.677494,1.177149,3.043273
KPIECE,84,true,3.670192,4.172861,0.155548,0.249514,4.737938,2.929703,1.635054,3.122644,1.594233,0.993836,3.194841
KPIECE,85,true,4.479143,5.589160,0.418995,0.146117,5.371273,8.817666,2.312216,3.234496,1.552076,1.056753,3.089512
KPIECE,86,true,3.941593,4.365328,0.619607,0.215006,5.016430,4.196349,1.742598,3.221728,1.983118,1.139425,3.252938
KPIECE,87,true,4.774763,5.544908,0.429438,1.120604,6.013326,7.122315,1.390796,4.909346,2.826803,2.563269,3.985831
KPIECE,88,true,5.364602,8.737315,0.375164,0.223763,7.060560,6.404173,2.244783,6.355712,3.768696,2.707341,7.298253
KPIECE,89,true,3.625069,4.392663,0.196258,0.770159,4.635018,3.058574,1.628147,3.148836,1.511207,0.757672,3.036692
KPIECE,90,true,4.058836,4.370843,0.638261,0.523321,5.263955,4.080047,1.633911,3.137419,2.553485,1.456979,3.612305
KPIECE,91,true,4.538145,4.482097,0.033817,0.750125,6.143268,2.852691,1.195589,5.679798,2.093274,2.495104,6.278302
KPIECE,92,true,4.299794,4.645255,0.406865,0.455078,5.969392,3.308701,1.161327,3.102223,3.172628,1.513906,6.229441
KPIECE,93,true,4.469672,4.706746,0.444258,0.224469,6.213750,3.165791,1.364811,3.413667,3.437819,1.996863,6.599020
KPIECE,94,true,4.551020,4.724828,0.347292,0.374405,6.176456,5.325240,1.106142,3.716150,2.184369,1.507326,6.872561
KPIECE,95,true,4.347660,4.707396,0.254397,0.235216,6.029054,3.247934,1.380278,3.112312,3.501504,1.374401,6.285721
KPIECE,96,true,3.750072,4.708858,0.684020,0.620794,4.805669,3.557869,1.628326,3.288163,1.533751,0.612200,3.442733
KPIECE,97,true,4.214604,5.037689,0.463928,0.293344,5.139283,2.987408,3.569748,5.162117,2.186195,1.251689,2.605731
KPIECE,98,true,4.063051,3.821048,0.247255,0.547763,5.286803,2.970355,1.627055,3.507387,2.611422,2.753851,3.038313
KPIECE,99,true,4.195412,3.695698,0.202362,0.611958,5.546986,2.962936,1.634742,4.391439,1.592466,2.464704,4.555198
KPIECE,100,true,5.479166,5.553078,0.753095,0.255447,7.736369,3.938866,2.189352,5.884244,3.545491,2.641969,11.821342
KPIECE,101,true,5.168082,6.480561,0.485906,0.474305,6.622351,9.580673,1.096616,4.011173,3.784494,3.110266,5.125852
KPIECE,102,true,4.379438,5.198991,0.588346,0.304123,5.663194,3.935293,1.956034,3.451662,2.926504,3.854199,3.055790
KPIECE,103,true,4.023030,4.662938,0.276316,0.329085,5.042894,3.045043,1.721654,5.236261,1.845465,1.272154,3.064195
KPIECE,104,true,4.925138,7.472111,0.731153,0.384712,5.947297,5.412445,1.965508,9.404562,1.598210,2.237387,3.638876
KPIECE,105,true,4.085885,4.706790,0.883300,0.251696,5.292454,3.695165,2.392138,3.462582,1.911638,1.061905,4.171032
KPIECE,106,true,3.773058,5.023087,0.456759,0.185774,4.749071,3.852960,1.113591,3.112833,2.099606,1.895857,2.161124
KPIECE,107,true,3.660104,4.405130,0.644308,0.249907,4.673382,3.018147,1.362510,3.224815,2.252706,0.884939,2.653245
KPIECE,108,true,4.296105,4.329469,0.589881,0.214046,5.941286,2.906992,1.255067,3.774527,2.502201,1.695296,6.322435
KPIECE,109,true,5.386943,7.343869,0.422069,0.413401,6.794966,7.906779,1.628328,5.813963,4.268798,5.918970,3.482321
KPIECE,110,true,5.283286,7.045122,0.543031,0.393723,6.995352,7.960503,1.566262,3.714871,2.844961,5.476163,6.350355
KPIECE,111,true,5.507622,4.923015,0.577133,0.155420,7.363307,3.286159,3.650368,6.101164,6.867013,3.841010,6.588185
KPIECE,112,true,4.362483,4.547713,0.788737,0.272383,5.912963,3.617525,1.096015,3.914235,2.946532,1.928558,5.528394
KPIECE,113,true,5.584632,6.749485,0.473776,0.322821,7.219371,8.638422,2.868608,3.512060,5.616774,5.790057,4.762189
KPIECE,114,true,4.119993,3.966182,0.149403,0.866465,5.274438,2.781677,1.674352,5.267229,1.879123,1.777700,3.594265
KPIECE,115,true,3.904147,4.053298,0.412550,0.182531,4.965220,3.285898,1.631344,4.225777,1.567713,1.219931,3.311701
KPIECE,116,true,3.867337,4.381682,0.369864,0.400694,5.006104,3.052915,1.630555,3.534251,1.573534,1.798848,3.366196
KPIECE,117,true,4.043906,4.420155,0.514973,0.432164,5.169248,3.187575,2.130097,3.793293,2.141419,1.975060,3.125733
KPIECE,118,true,5.162330,5.467263,0.426027,0.241047,6.753857,6.698588,2.830966,5.403996,1.858495,2.608757,7.248845
KPIECE,119,true,4.531225,4.895993,0.773587,0.271740,6.256004,3.395894,1.733254,3.735071,3.406141,1.323824,6.937814
KPIECE,120,true,5.241828,6.531105,0.607239,0.137621,6.548644,8.826326,3.277087,3.316296,4.952501,3.753617,3.350931
KPIECE,121,true,3.603140,4.918502,1.551103,0.179452,4.340385,3.556864,1.157233,3.694237,2.400639,0.891597,1.282046
KPIECE,122,true,4.908153,6.456551,0.951403,0.354474,6.187358,3.743270,1.664481,9.946043,2.202794,1.076120,5.457259
KPIECE,123,true,4.391235,5.158908,0.510917,0.199839,5.589566,5.867438,1.094900,3.534547,2.967679,2.644139,3.174245
KPIECE,124,true,4.445360,4.460222,0.614892,0.393441,6.180446,3.165987,1.175890,3.332823,3.641383,2.094989,6.350155
KPIECE,125,true,4.465359,4.652089,0.114706,0.442637,6.151711,2.935164,1.098623,4.262836,4.620866,0.760627,6.261314
KPIECE,126,true,3.696144,4.322436,0.204035,0.438917,4.792760,2.954408,1.696349,3.130276,1.616246,0.835571,3.428628
KPIECE,127,true,3.960183,4.164266,0.622130,0.420328,5.152662,3.135350,1.822208,3.148719,1.581428,2.705233,3.290108
KPIECE,128,true,4.377620,4.111274,0.121081,0.090697,6.080013,2.826081,1.644426,3.093100,2.194632,3.202268,6.203049
KPIECE,129,true,3.715963,4.775081,0.261809,0.334018,4.720862,3.628480,1.628384,3.140055,1.535023,0.809749,3.066690
KPIECE,130,true,4.087349,4.825619,0.449105,0.563636,5.204219,4.609888,1.628416,3.148201,1.514996,2.747368,3.057555
KPIECE,131,true,3.948627,4.082509,0.449061,0.153318,5.155752,3.069884,1.635570,3.704115,1.518434,1.855620,3.808036
KPIECE,132,true,3.724317,4.183630,0.574808,0.167534,4.774822,2.784767,1.094440,3.407329,2.667706,1.571916,2.344381
KPIECE,133,true,5.490996,5.840741,0.272713,0.555099,7.220461,9.029136,1.795359,3.557608,8.151082,1.402776,6.215081
KPIECE,134,true,3.823755,4.483821,0.472119,0.219657,4.794735,3.047120,1.433530,3.232879,3.504488,1.942274,1.460809
KPIECE,135,true,4.331015,5.511594,0.584852,0.342801,5.455890,3.902021,1.260176,6.312977,2.402795,1.153192,3.726529
KPIECE,136,true,5.173119,6.172236,0.281098,0.506707,6.736902,8.957758,2.288324,3.167753,3.586257,2.483720,6.277352
KPIECE,137,true,4.858424,4.348002,0.279715,0.687964,6.735454,3.945495,1.106574,4.451571,3.598990,2.840245,7.661410
KPIECE,138,true,4.058947,4.381130,0.306566,0.292482,5.247116,3.000402,1.634265,4.013470,3.521526,1.075119,3.230267
KPIECE,139,true,3.924066,4.608975,0.507927,0.719849,5.031771,3.538745,1.124285,4.222897,2.488322,0.615995,3.408052
KPIECE,140,true,4.037094,3.582155,0.412083,0.191893,5.217570,3.155245,2.163952,3.139089,1.588375,3.166388,3.085076
KPIECE,141,true,3.657015,4.200890,0.149684,0.101099,4.697907,2.944562,1.627842,3.200448,1.526034,0.979221,3.095655
KPIECE,142,true,4.261151,4.063699,0.924644,0.567215,5.568962,3.022941,1.632724,4.945528,1.595319,2.661172,4.299721
KPIECE,143,true,3.959152,4.476040,0.688345,0.461936,5.264759,2.894430,1.904898,3.391885,1.827740,1.096793,4.559135
KPIECE,144,true,5.443688,5.172742,0.217110,0.575164,7.139639,5.366666,2.393373,6.750608,6.001674,2.903803,6.217615
KPIECE,145,true,3.999837,4.437207,0.415147,0.357066,5.191185,2.954283,1.208159,3.495939,3.480139,2.250774,2.609399
KPIECE,146,true,5.527413,7.384755,0.271861,0.300236,7.129998,8.851942,2.992898,4.683814,4.146622,3.616096,6.260926
KPIECE,147,true,3.763626,4.246036,0.643294,0.338520,4.846985,3.134751,1.331743,3.115080,2.554637,1.283594,2.745074
KPIECE,148,true,3.748965,3.928882,0.242429,0.102782,4.819026,3.051164,1.630887,3.286720,2.597126,0.406531,3.082308
KPIECE,149,true,4.313324,4.753478,0.725924,0.302067,5.962576,3.499010,1.724100,3.126896,2.748987,0.812980,6.692792
KPIECE,150,true,4.110729,4.360628,0.454309,0.558745,5.229514,3.746445,1.628893,4.173521,2.744159,1.504594,3.100483
ProjEST,1,true,3.728574,4.785386,0.847809,0.555309,4.436078,3.944962,1.281226,3.110893,4.749538,0.604308,0.211340
ProjEST,2,true,5.068364,5.674593,0.315562,0.226091,6.623471,8.998537,1.672574,3.113045,4.434995,1.191254,6.277903
ProjEST,3,true,4.043932,4.431309,0.226378,0.929726,5.619142,3.115253,1.120056,3.091100,2.202390,0.630190,6.194398
ProjEST,4,true,5.187329,5.989139,0.417495,1.023994,6.426425,7.300803,2.170258,8.121973,2.732380,1.507767,5.075205
ProjEST,5,true,4.266883,4.553030,0.185748,0.117625,5.880362,3.323396,1.724286,3.097563,2.195680,1.554032,6.311331
ProjEST,6,true,4.307676,5.708434,0.772100,0.494712,5.599685,5.012157,1.627818,3.490687,2.180335,1.870095,4.374983
ProjEST,7,true,4.114700,3.944030,0.527257,0.427203,5.396640,3.278867,1.629749,3.958922,2.283810,1.649658,4.129750
ProjEST,8,true,4.600262,4.496918,0.592284,0.401305,6.214285,3.277681,1.095436,4.686809,2.182953,4.567083,5.352448
ProjEST,9,true,4.236894,4.448332,0.882008,0.549831,5.402097,3.513274,1.637198,4.865208,1.618107,3.021702,3.295785
ProjEST,10,true,4.379993,4.658000,0.528512,0.339658,5.833920,3.388924,1.684156,3.789038,3.946852,1.847295,4.528070
ProjEST,11,true,4.823556,4.150202,0.340924,0.739878,6.494751,4.389496,1.633558,5.171736,4.137087,1.091637,6.843183
ProjEST,12,true,3.837005,4.110704,0.299623,0.149433,4.935934,3.253021,1.634730,3.330263,2.139797,1.228559,3.136241
ProjEST,13,true,4.355206,4.318203,0.286693,0.341653,5.988505,2.998495,1.513685,3.950033,2.905047,1.211803,6.388758
ProjEST,14,true,3.927743,4.021688,0.446497,0.211007,4.956169,3.233635,1.631049,4.498046,1.583613,1.408801,3.072018
ProjEST,15,true,4.906333,4.513197,0.455977,0.175518,6.728340,4.814414,1.095447,3.112769,5.984113,2.916382,6.148978
ProjEST,16,true,4.141226,4.142813,0.460046,0.225987,5.278075,3.894854,1.634509,4.058671,2.485959,1.929139,3.146617
ProjEST,17,true,4.014155,4.454535,0.549435,0.445266,5.235653,3.203662,1.967593,3.480755,1.604800,2.019431,3.837196
ProjEST,18,true,3.804775,4.642036,0.440485,0.170305,4.908890,3.240725,1.628712,3.146653,1.517153,1.782409,3.160661
ProjEST,19,true,4.958650,7.556709,0.503104,0.527997,6.480104,9.451048,1.272297,3.290241,2.904464,0.841249,6.828911
ProjEST,20,true,4.132303,4.077770,0.384532,0.669776,5.276564,3.146522,2.724563,3.493806,4.367880,0.287982,3.055172
ProjEST,21,true,4.796837,4.490683,0.254537,0.242828,6.403065,3.693931,2.609290,3.138927,6.705101,2.440308,4.422092
ProjEST,22,true,3.531594,4.470944,0.731786,0.345553,4.282392,3.151467,1.364190,3.558858,2.120413,0.808145,1.469085
ProjEST,23,true,4.020742,3.712249,0.329164,0.435107,5.338553,2.952533,1.643047,3.145556,2.195986,2.320692,3.908550
ProjEST,24,true,3.847285,4.736749,0.320823,0.187070,4.915731,3.985747,1.626199,3.144371,1.656181,1.071568,3.317532
ProjEST,25,true,4.327923,4.662259,0.397665,0.194405,5.941423,3.273685,1.100288,4.019660,2.641681,1.463311,6.232296
ProjEST,26,true,3.893277,4.383119,0.313983,0.430760,5.044658,3.218470,1.630186,3.147330,1.515867,2.516396,3.129354
ProjEST,27,true,4.293046,4.310152,0.560301,0.222131,5.463006,5.120474,1.627744,3.370335,3.387816,1.821370,3.102503
ProjEST,28,true,4.520744,4.271037,0.227572,0.637082,6.159961,3.546888,1.983594,3.632984,3.803717,1.235608,6.234335
ProjEST,29,true,4.505959,4.736510,0.453858,0.250118,6.085721,4.842094,1.373701,3.571529,3.309002,0.991355,6.215986
ProjEST,30,true,5.127462,5.462349,0.508905,0.418096,6.678184,5.383496,1.901229,3.796517,6.102504,6.009488,3.097638
ProjEST,31,true,4.707359,5.481602,1.014159,0.595637,6.101456,5.663953,3.122272,3.868121,3.283736,0.657493,5.563653
ProjEST,32,true,4.176764,4.507274,0.394026,0.713848,5.419209,4.440690,1.627274,3.173264,2.491591,1.994204,3.718337
ProjEST,33,true,4.214772,4.981408,0.717545,0.518941,5.536236,2.953627,1.417886,4.275351,3.397504,1.951765,3.768168
ProjEST,34,true,3.832518,4.204458,0.564443,0.519440,4.951745,3.282873,1.628475,3.408885,2.057098,0.847238,3.463625
ProjEST,35,true,3.425564,4.382139,0.696952,0.989866,4.047678,3.290449,1.098024,3.107418,2.922959,0.905029,0.410610
ProjEST,36,true,4.622638,4.464018,0.462656,0.158356,6.065583,2.991592,3.357085,4.060002,4.494247,2.003434,4.462419
ProjEST,37,true,4.035576,4.403535,0.299504,0.121536,5.255988,3.009903,1.633285,3.893955,2.129853,2.028074,3.590804
ProjEST,38,true,4.235371,4.368356,0.358424,1.093921,5.877907,3.141906,1.094815,3.361145,2.876997,1.192597,6.270911
ProjEST,39,true,5.861527,5.379732,0.336202,0.397463,7.515021,7.336572,2.840030,5.155143,9.197286,6.736181,3.092286
ProjEST,40,true,4.291330,4.178768,0.348806,0.122956,5.970623,2.908594,1.107562,3.377574,2.917672,1.893069,6.211041
ProjEST,41,true,4.128224,4.131149,0.580468,0.374892,5.197729,4.235732,1.523728,3.590580,3.649145,1.761081,2.281964
ProjEST,42,true,4.685056,4.218135,0.652147,0.379189,6.074000,3.633494,1.662129,5.076614,6.082117,2.129183,3.366215
ProjEST,43,true,3.885644,4.545438,0.450224,0.966864,5.090273,3.491595,1.632542,3.487049,1.582951,0.578477,4.325613
ProjEST,44,true,3.816491,4.809430,0.223236,0.221139,4.934313,3.082140,1.629015,3.143585,2.785576,0.854317,3.070973
ProjEST,45,true,3.979862,4.041550,0.405781,0.172145,5.162835,3.106110,1.821209,3.144693,2.547442,2.171574,3.048271
ProjEST,46,true,4.107811,4.846249,0.252890,0.365201,5.474314,2.995473,1.100203,4.199898,3.408849,0.654231,4.515459
ProjEST,47,true,3.734608,4.365621,0.522562,0.323495,4.809261,3.302460,1.698311,3.136545,2.012480,0.425788,3.371712
ProjEST,48,true,3.879578,4.781513,0.585876,1.140656,5.046486,3.140985,1.634900,3.273839,2.193158,1.393760,3.414485
ProjEST,49,true,4.778674,5.335714,0.371082,0.270563,6.556958,4.148345,1.834518,3.106087,4.947765,2.387812,6.411200
ProjEST,50,true,4.871048,6.578733,0.625299,0.202341,5.903443,8.634664,4.090617,3.200703,2.210897,2.267823,3.322405
ProjEST,51,true,4.111798,4.521545,0.468003,0.280129,5.301553,2.942767,1.710504,4.098597,2.639168,2.471280,3.044568
ProjEST,52,true,4.602128,5.477736,0.783211,0.263483,5.798846,4.448640,3.954439,3.667529,4.058573,1.712329,3.338069
ProjEST,53,true,3.605883,4.278267,0.236211,0.317895,4.619802,2.981073,1.646213,3.136979,1.553728,0.582342,3.102055
ProjEST,54,true,4.232478,4.396819,0.358714,0.255654,5.523961,2.937260,1.627955,5.491306,1.687844,1.426592,4.742917
ProjEST,55,true,5.294353,4.827271,0.358479,0.176118,7.555012,6.473819,1.610061,3.114322,3.930624,0.685303,12.216050
ProjEST,56,true,4.782762,4.517290,0.420219,0.505709,6.567953,3.576326,1.103407,4.790554,5.293680,1.252172,6.858671
ProjEST,57,true,4.158708,4.915461,0.227649,1.012469,5.732241,3.628879,1.238271,3.106937,2.362790,0.714994,6.242977
ProjEST,58,true,4.948322,3.983803,0.542138,0.195949,6.948388,3.437287,1.634558,4.719550,2.873469,2.721295,9.099727
ProjEST,59,true,4.228864,4.529353,0.182645,0.373297,5.829579,3.553476,1.394631,3.126595,2.392882,1.123593,6.292115
ProjEST,60,true,5.163401,5.035134,0.546755,0.330542,6.669928,7.397758,4.253228,3.122631,3.511735,2.435218,5.940141
ProjEST,61,true,5.536353,7.077819,0.534216,0.508035,6.915645,6.211013,3.051751,10.146507,3.381263,1.927670,5.933003
ProjEST,62,true,4.487264,4.489332,0.517745,0.149486,6.246563,3.623774,1.107160,3.093648,3.666094,2.071802,6.573060
ProjEST,63,true,4.786147,4.599591,0.467876,0.182795,6.238808,3.218908,1.636175,6.303236,3.978767,3.503469,4.266646
ProjEST,64,true,3.840168,3.898519,0.312628,1.209358,4.953156,3.308779,1.627790,3.145945,2.206391,1.335487,3.122495
ProjEST,65,true,4.569518,4.158482,0.137516,1.231936,6.356327,2.851551,1.108438,3.595004,6.345517,0.783084,6.196901
ProjEST,66,true,5.638817,6.187149,0.428684,0.523208,7.677509,8.397462,1.860405,4.286389,4.162306,3.193822,9.895879
ProjEST,67,true,3.419658,4.401095,0.446789,0.545558,4.179286,3.053308,1.099429,3.109576,2.387764,0.703354,1.340628
ProjEST,68,true,4.261547,4.361308,0.358807,0.266654,5.808638,3.056079,1.777922,3.661085,2.165717,1.586195,5.913789
ProjEST,69,true,3.926346,5.197234,0.354354,0.501487,5.004098,4.326150,1.630938,3.294650,1.566066,1.138045,3.460345
ProjEST,70,true,3.854860,4.039036,0.392005,0.570626,5.017854,3.019566,1.633469,3.120739,2.305105,1.548323,3.232743
ProjEST,71,true,4.102789,5.091082,0.378514,0.308591,5.365821,3.196202,1.633936,3.197339,4.892672,0.758966,3.153759
ProjEST,72,true,3.656426,4.672160,0.803586,0.381745,4.701900,3.029726,1.636652,3.145674,1.704239,0.672153,3.181010
ProjEST,73,true,4.104769,4.196028,0.437851,0.080527,5.256129,3.990201,1.633666,3.968547,3.322261,0.413405,3.521049
ProjEST,74,true,4.731043,5.020073,0.569671,0.198316,6.308030,3.790993,1.721123,4.637067,4.837105,2.221597,5.174885
ProjEST,75,true,4.560787,4.187268,0.197613,0.584282,6.328063,2.785062,1.196575,4.340489,3.711096,2.002589,6.764964
ProjEST,76,true,4.346977,4.664099,0.383591,0.251792,6.073916,3.134735,1.231434,3.110256,2.192714,2.650614,6.576458
ProjEST,77,true,4.392746,4.516085,0.407049,0.234512,5.988995,3.060111,1.301064,4.628071,3.162486,0.879607,6.264875
ProjEST,78,true,4.036680,4.345826,0.456496,0.318500,5.103991,3.330706,1.630075,4.791332,2.575057,0.754335,3.213278
ProjEST,79,true,3.599743,4.526415,1.016212,0.188097,4.373291,3.195224,1.474513,3.251942,2.433867,1.471548,1.131056
ProjEST,80,true,4.025147,4.503210,0.186171,0.859337,5.480859,3.189564,1.365367,3.116179,2.203192,1.020205,5.307304
ProjEST,81,true,4.668451,4.133634,0.383798,0.167062,6.162987,2.871869,1.118325,4.936122,6.747313,2.800940,3.319862
ProjEST,82,true,4.275794,4.796553,0.466401,0.259586,5.735508,3.818649,1.633769,3.122766,2.592142,2.208682,4.906405
ProjEST,83,true,3.707444,4.429379,0.490875,0.185724,4.794640,3.110150,1.626925,3.179454,1.524185,0.889610,3.414818
ProjEST,84,true,4.703559,4.629272,0.475621,0.279827,6.319066,3.987059,1.254177,4.948878,4.808748,1.250839,5.873768
ProjEST,85,true,3.983268,4.965542,0.330283,0.625995,5.218513,2.929676,1.636937,3.153366,2.028178,2.898260,3.220006
ProjEST,86,true,4.134474,5.140312,0.403940,0.506019,5.171397,5.539593,1.921254,3.127588,2.046056,1.315355,3.144031
ProjEST,87,true,5.528789,6.951008,0.344333,0.330838,7.056828,7.786753,3.096508,6.637454,2.230234,4.632045,6.184517
ProjEST,88,true,4.182205,4.756627,0.298886,0.167086,5.792491,3.293529,1.222025,3.192829,2.231731,1.271061,6.279660
ProjEST,89,true,3.699065,4.298402,0.384658,0.551723,4.764242,3.095546,1.641452,3.438487,1.609382,0.390883,3.507329
ProjEST,90,true,3.714778,4.279056,0.210688,0.262079,4.805740,3.404185,1.632670,3.122481,1.593866,0.391059,3.655317
ProjEST,91,true,4.173458,4.946315,0.947792,0.307069,5.392437,3.634893,2.074183,3.705932,2.565924,1.778938,3.657880
ProjEST,92,true,4.048000,4.422746,0.506241,0.386292,5.284137,3.648910,1.633097,3.123274,2.397364,2.028890,3.554773
ProjEST,93,true,4.136397,3.707867,0.356996,0.164883,5.413806,4.280010,1.664967,3.145028,2.413229,1.426814,4.179736
ProjEST,94,true,4.310962,4.859340,0.315908,0.447728,5.912330,3.393192,1.108649,3.898504,2.236716,1.760120,6.187209
ProjEST,95,true,5.467757,4.592975,0.270210,0.463215,7.659173,4.147640,2.215364,3.926989,6.187354,4.258818,9.160197
ProjEST,96,true,4.179246,4.475130,0.196378,0.511333,5.764748,2.961005,1.103012,3.863292,2.148983,1.162372,6.227433
ProjEST,97,true,4.690346,3.850694,0.501802,0.540056,6.399985,3.311218,2.034195,5.263782,1.810021,2.009804,7.570323
ProjEST,98,true,4.220344,5.055354,0.353005,0.112720,5.790506,3.432039,1.168362,3.726853,2.643770,0.605685,6.234598
ProjEST,99,true,3.730357,4.504394,0.355843,0.722249,4.790357,3.564643,1.627277,3.224870,1.576771,0.388811,3.533189
ProjEST,100,true,3.739969,3.642085,0.154656,0.438187,4.827280,2.938925,1.625953,3.144038,2.109757,1.131889,3.036809
ProjEST,101,true,4.721464,4.536820,0.379097,0.563268,6.051925,4.045550,1.630908,5.384384,3.919084,4.210104,3.102194
ProjEST,102,true,3.910775,4.754930,0.553490,0.206763,4.999407,3.332995,1.661586,3.634018,2.436916,1.194295,3.034349
ProjEST,103,true,3.989718,4.242142,0.250844,0.224971,5.233400,2.956226,1.629738,4.002260,2.390578,0.798052,4.140998
ProjEST,104,true,4.199332,5.930723,0.879414,0.117313,5.423360,4.712300,2.076654,3.463870,2.105342,0.879352,4.396873
ProjEST,105,true,3.830556,4.009976,0.352391,0.119756,4.855318,3.836997,1.632014,3.670114,1.717189,0.449931,3.366916
ProjEST,106,true,4.699519,6.601237,0.391115,0.211755,5.852136,7.773064,1.628008,3.586416,2.914820,3.119143,3.064027
ProjEST,107,true,3.976743,4.407467,0.474588,0.176698,5.056975,2.944845,1.300832,4.476172,3.531422,0.895330,2.665881
ProjEST,108,true,4.023903,3.752579,0.285165,0.363865,5.102452,4.537911,1.629784,3.255111,2.260562,1.434183,3.074241
ProjEST,109,true,4.222306,4.862635,0.637613,0.467750,5.836751,3.036942,1.470493,3.281005,2.673794,1.165272,6.200363
ProjEST,110,true,4.082575,4.409371,0.293102,0.979101,5.474388,3.121014,1.627840,3.145019,1.538725,2.706869,4.527954
ProjEST,111,true,3.994445,4.424111,0.366396,0.275453,5.248780,3.170722,1.633720,3.128184,2.549165,1.902660,3.571139
ProjEST,112,true,4.501778,5.170950,0.660293,0.475192,6.201676,3.622189,1.571510,3.500691,3.263590,1.684864,6.623162
ProjEST,113,true,4.427961,5.494789,0.205334,0.535725,5.956309,4.458191,1.097192,4.450361,2.220245,1.111167,6.269682
ProjEST,114,true,4.069939,4.341484,0.826051,0.273093,5.185460,2.863248,1.999251,4.839578,1.915789,1.484270,3.462267
ProjEST,115,true,3.509363,4.654873,0.605365,0.436601,4.177598,3.148371,1.441067,3.204694,2.880212,1.026099,0.615189
ProjEST,116,true,4.445435,5.063664,0.717639,0.267577,6.111666,3.278543,1.228478,3.848016,3.364510,1.858637,6.183712
ProjEST,117,true,4.089288,4.549303,0.540261,0.230888,5.103398,3.536962,1.630902,5.323980,1.548587,1.589873,3.091971
ProjEST,118,true,3.879557,4.959778,0.467985,0.666735,4.923348,4.294293,1.634757,3.122118,1.812330,0.998878,3.188589
ProjEST,119,true,3.787227,4.519062,0.626377,0.646858,4.858884,3.047025,1.663097,3.738857,1.721127,0.801424,3.371556
ProjEST,120,true,4.342685,4.810842,0.445029,0.446669,5.587974,2.875612,1.682295,5.892446,3.128662,1.321921,3.957979
ProjEST,121,true,4.702121,4.282709,0.405044,0.649206,6.439547,2.983195,1.331957,4.811120,5.982093,0.627418,6.374158
ProjEST,122,true,4.009734,4.321607,0.449877,0.210257,4.927576,4.785246,1.697422,3.304417,2.718240,1.660477,1.912162
ProjEST,123,true,4.079834,4.984392,0.676943,1.638685,5.353808,3.833912,1.706566,3.134225,2.432425,1.490050,4.047871
ProjEST,124,true,4.620471,4.842296,0.282084,0.089493,6.274224,3.191849,1.200024,5.331270,3.387808,1.846276,6.391526
ProjEST,125,true,5.756323,5.701795,0.426296,0.383206,7.863646,8.161360,1.629135,4.675665,6.358749,2.277771,10.032577
ProjEST,126,true,3.776704,4.463216,0.648251,0.206923,4.821614,3.473267,1.646767,3.357759,1.742399,0.844537,3.198765
ProjEST,127,true,4.203320,4.581340,0.405530,0.373090,5.824612,3.437784,1.101524,3.106126,2.632738,1.154004,6.235727
ProjEST,128,true,3.913547,3.722006,0.326819,0.346325,5.027556,3.257457,2.165174,3.132849,2.112630,1.447651,3.200092
ProjEST,129,true,3.981321,3.644474,0.419156,0.667396,5.294508,3.183923,1.633496,3.121214,1.812412,1.831253,4.268616
ProjEST,130,true,4.323738,5.018805,0.407092,0.530954,5.879228,3.684492,1.458255,3.971802,2.085787,1.203910,6.290460
ProjEST,131,true,5.896992,7.025021,0.914507,0.230944,8.215056,3.360590,3.774375,6.378756,7.005191,2.803758,11.451841
ProjEST,132,true,4.436665,4.619203,0.466531,0.199017,5.834224,4.311546,1.633765,3.667329,2.727952,3.060592,4.282815
ProjEST,133,true,4.486396,4.567317,0.680180,0.196193,6.248467,3.565153,1.625226,3.676535,3.049677,0.556411,7.654750
ProjEST,134,true,4.099935,4.989948,0.563082,0.499620,5.342942,3.580322,1.632884,3.847637,2.623514,1.136167,3.988941
ProjEST,135,true,4.234817,4.911982,0.824638,0.401686,5.874760,3.162675,1.108812,3.281257,2.907900,1.274821,6.198208
ProjEST,136,true,4.400234,4.665823,0.322909,0.514686,6.109993,2.896141,1.662077,3.114764,4.068341,1.339855,6.280878
ProjEST,137,true,4.506841,6.667469,1.504384,0.191331,5.751845,3.805715,2.795264,4.763586,2.962153,2.159836,3.825058
ProjEST,138,true,3.997430,5.084587,0.349311,0.309435,5.048054,4.759458,1.625683,3.145451,1.852303,1.542016,3.054538
ProjEST,139,true,4.716222,4.946748,0.311311,0.884256,6.436319,4.062473,1.268031,4.010649,4.398481,2.221265,6.281854
ProjEST,140,true,4.162801,4.485889,0.642233,0.153265,5.286335,3.278087,1.627944,5.532663,1.835789,1.328212,3.726214
ProjEST,141,true,3.632109,4.560109,0.382579,0.462690,4.592322,3.580393,1.626631,3.143519,1.522285,0.263860,3.055528
ProjEST,142,true,5.789495,6.253871,0.416033,1.021151,7.583683,7.818759,1.629161,5.255881,7.276346,6.358546,5.179556
ProjEST,143,true,4.057837,5.482507,0.745712,0.163195,4.655901,6.961899,1.742835,3.116053,2.451143,1.628003,0.566112
ProjEST,144,true,3.871919,4.612586,0.613120,0.513150,5.014058,3.173531,1.810992,3.139306,1.889512,1.697310,3.281102
ProjEST,145,true,4.770863,4.213714,0.480389,0.319492,6.605214,3.081730,1.106417,3.915662,6.560112,1.886835,6.210382
ProjEST,146,true,4.679303,6.403628,0.387624,0.298271,5.725492,9.116260,1.847664,3.139942,1.627084,3.071546,3.093376
ProjEST,147,true,3.755304,4.651245,0.422337,0.144225,4.783899,3.841576,1.630041,3.134408,1.819405,0.389769,3.287106
ProjEST,148,true,5.205210,6.060440,0.630107,0.122974,6.924423,3.128154,1.623789,7.891736,3.803997,4.243639,6.402897
ProjEST,149,true,4.323175,4.429290,0.966760,0.170284,5.522240,3.223461,1.628855,5.400867,3.273443,1.794566,3.368645
ProjEST,150,true,3.819662,4.772656,0.365916,0.117104,4.826754,4.186900,1.631636,3.139510,1.909703,0.646109,3.075960
