Planner,Run,Success,Length_In_Joint_Space,Length_In_Cartesian_Space(Endeffector),Smoothness,Time,Weighted_Length,Shoulder_Pan_Joint,Shoulder_Lift_Joint,Elbow_Joint,Wrist_1_Joint,Wrist_2_Joint,Wrist_3_Joint
LBKPIECE,1,true,4.038286,4.820535,0.802464,0.812192,4.869609,6.986379,3.151134,0.405979,3.327103,0.796097,1.641066
LBKPIECE,2,true,3.218850,2.925735,0.884683,0.426681,4.346441,2.128310,0.404929,1.845277,1.542174,1.892236,2.548071
LBKPIECE,3,true,4.384360,2.934491,0.765272,0.841511,5.911471,1.912342,3.256986,3.258670,3.082607,2.783739,4.928267
LBKPIECE,4,false,0,0,0,0,0,0,0,0,0,0,0
LBKPIECE,5,false,0,0,0,0,0,0,0,0,0,0,0
LBKPIECE,6,true,2.522498,0.863006,0.718241,0.567870,3.632284,1.100126,0.612732,0.514883,0.399671,1.040351,2.695233
LBKPIECE,7,true,3.342663,2.801233,0.797567,0.605737,4.151018,1.095924,1.388552,4.352349,1.615231,1.000356,1.720984
LBKPIECE,8,true,3.576735,1.704160,1.514371,0.548551,4.625564,2.127656,1.772637,0.941069,4.787982,2.512554,0.651137
LBKPIECE,9,true,2.276670,1.089143,1.218560,0.204905,3.002622,0.802980,1.462489,0.255342,0.690774,0.801538,1.170102
LBKPIECE,10,true,2.716127,1.430928,0.937307,0.381457,3.741308,1.340774,0.920496,0.941919,0.516584,1.211693,2.445881
LBKPIECE,11,true,4.475145,1.742988,0.795778,0.243325,6.359383,2.069061,2.874543,1.609834,4.293942,2.238204,6.941339
LBKPIECE,12,true,4.191392,2.086288,1.083734,0.560621,6.130330,1.803245,1.038708,0.613382,6.319972,1.891721,5.900740
LBKPIECE,13,true,1.924248,1.080300,1.294129,0.686178,2.523504,1.320779,0.252124,0.200814,0.395075,0.797614,0.736326
LBKPIECE,14,true,3.013164,2.274699,0.556303,0.427074,3.930002,1.189251,0.857534,2.647051,1.419060,0.985835,1.980430
LBKPIECE,15,true,3.189740,1.717897,0.942340,0.382458,4.666228,1.044480,0.758744,1.517417,0.817494,1.290869,4.745440
LBKPIECE,16,true,2.727079,1.017763,1.778168,0.540361,3.674107,0.886988,0.692363,1.134684,1.977797,1.405955,1.339174
LBKPIECE,17,true,4.464373,4.657283,1.015739,0.823071,5.533071,4.122512,3.494886,3.849509,4.703564,1.539629,2.220528
LBKPIECE,18,true,3.889980,2.301780,0.490552,0.277719,5.664908,2.481583,0.546553,1.426991,3.593231,0.801175,6.282413
LBKPIECE,19,true,2.756374,0.944641,0.582066,0.482141,4.126821,1.274206,0.453861,0.390363,0.666050,0.859220,3.953894
LBKPIECE,20,true,2.273746,0.865583,1.997542,0.703264,2.953086,1.183002,0.385011,1.065804,0.695978,0.825429,1.014695
LBKPIECE,21,true,5.294035,2.715652,0.581814,0.541362,7.525939,2.115446,2.332390,5.229651,5.272089,2.813593,10.263634
LBKPIECE,22,true,3.945460,3.019290,0.649698,0.277294,5.336996,2.725611,0.874570,2.060058,3.259884,3.636071,3.010460
LBKPIECE,23,true,5.046162,2.707807,0.592976,0.489738,7.548923,3.191592,1.187001,2.062267,3.560646,2.962647,12.499600
LBKPIECE,24,true,4.829903,2.439791,0.745836,0.513474,6.701129,1.835735,2.211963,4.687930,6.735786,0.871709,6.984836
LBKPIECE,25,true,1.982487,0.867718,1.180306,0.557068,2.667878,0.947356,0.267310,0.133172,0.672519,1.304996,0.604902
LBKPIECE,26,true,5.193565,2.180269,0.597728,0.776800,7.788468,2.162069,1.761025,1.938154,7.013328,1.523310,12.575236
LBKPIECE,27,true,3.782584,3.325612,0.732943,0.431242,5.033302,2.160375,1.328267,2.978397,0.886462,3.769165,3.185279
LBKPIECE,28,true,4.843166,5.413985,0.577519,0.832730,6.257503,8.755015,3.641353,0.802278,1.926395,2.888737,5.442478
LBKPIECE,29,true,3.696171,1.770838,1.183879,0.417549,5.421029,2.016761,0.821693,1.666821,0.981154,1.605778,6.569471
LBKPIECE,30,true,3.399360,2.382877,1.704311,0.743308,4.457216,1.337220,1.438363,3.479665,0.940910,1.348757,3.010730
LBKPIECE,31,true,4.618215,4.207362,0.654683,0.696168,5.886797,7.518834,1.075185,1.310004,5.159976,4.361327,1.902582
LBKPIECE,32,true,2.753900,0.796133,0.420285,0.429818,4.016712,1.023696,0.254004,0.369357,1.617655,1.706140,2.613110
LBKPIECE,33,true,3.827908,1.098326,0.846941,0.526235,5.364277,2.177432,0.905149,1.423682,3.255054,2.915594,3.975970
LBKPIECE,34,true,4.659155,2.267021,0.794154,0.424142,6.952272,1.965374,0.256273,1.130391,8.337522,1.747496,8.270672
LBKPIECE,35,true,5.596978,2.870746,0.381641,0.538261,7.766121,1.368703,3.105156,6.865127,6.053808,4.934063,8.999303
LBKPIECE,36,true,2.499413,1.205072,0.940784,0.845056,3.241554,1.032045,0.339278,1.387967,0.555568,2.159384,0.772826
LBKPIECE,37,true,4.518841,5.748827,0.575514,0.781374,5.520832,8.202131,2.815768,1.727772,4.496451,0.792389,2.385413
LBKPIECE,38,true,2.294636,0.763561,0.842061,0.592302,3.223041,0.802860,0.483237,0.817569,0.357938,0.842802,1.960948
LBKPIECE,39,true,3.317010,1.573727,0.539108,0.302138,4.979003,1.419200,0.814263,0.734450,0.796479,1.484885,5.753277
LBKPIECE,40,true,2.516732,1.139365,1.715114,0.349946,3.404380,1.432559,0.348725,0.494711,0.891135,1.968893,1.197918
LBKPIECE,41,true,3.486750,1.410293,0.933132,0.276483,4.597219,1.553557,1.759806,0.361503,3.732870,4.255258,0.494432
LBKPIECE,42,true,3.805352,1.625918,0.780495,0.659420,5.340675,1.402571,0.772535,2.252284,2.838038,3.226494,3.988784
LBKPIECE,43,true,5.444536,4.204135,0.872949,1.059532,7.621675,2.404191,3.919295,4.127900,2.108859,7.827348,9.255374
LBKPIECE,44,true,4.458981,2.805103,0.875501,0.504835,6.306629,1.830215,1.706823,3.704316,3.725429,1.665832,7.249897
LBKPIECE,45,true,4.549870,3.005480,0.649754,0.428117,6.068439,3.677165,0.541049,2.728300,7.627589,3.757374,2.369837
LBKPIECE,46,true,1.901388,0.803410,1.314909,0.518750,2.463154,1.055902,0.324586,0.226508,0.315873,1.248837,0.443571
LBKPIECE,47,true,5.068858,1.209610,0.549491,0.861279,7.655117,2.268739,1.334547,1.865774,5.150363,2.390676,12.683228
LBKPIECE,48,true,5.537685,8.772767,0.424253,0.359362,7.189942,7.394011,1.922258,7.854312,1.008526,4.952898,7.533947
LBKPIECE,49,true,1.686688,0.542616,0.941583,0.494677,2.203578,0.802799,0.255095,0.050934,0.297437,1.163896,0.274753
LBKPIECE,50,true,3.753331,2.032450,0.523001,0.350442,5.166873,2.063524,1.185741,1.648224,2.500051,3.270874,3.419077
LBKPIECE,51,true,2.730234,0.863550,0.528429,0.249166,3.943179,1.151708,0.371055,0.441743,1.335246,1.549617,2.604810
LBKPIECE,52,true,2.814639,1.579165,2.162082,0.578922,3.674307,1.730787,0.992372,0.849419,1.863240,1.257648,1.228726
LBKPIECE,53,true,2.667083,1.002845,0.827821,0.323683,3.647045,1.418021,0.253382,1.133077,0.811656,1.618438,1.878757
LBKPIECE,54,true,3.992275,1.660500,0.978142,0.277787,5.879182,1.427800,0.693675,1.837731,2.588225,2.743369,6.647462
LBKPIECE,55,true,3.969645,2.489165,0.498224,0.359695,5.769812,1.051280,0.419641,3.260824,1.973000,2.547025,6.506312
LBKPIECE,56,true,2.329087,0.740775,1.526294,0.406866,3.228532,0.803036,0.968920,0.460438,0.584235,0.801492,1.806524
LBKPIECE,57,true,3.148382,1.927727,0.560244,0.263848,4.315509,1.914577,0.846530,1.173334,2.097267,1.147162,2.733438
LBKPIECE,58,true,7.734886,15.431907,0.563675,0.244780,10.524484,15.750550,5.979623,4.701367,10.417646,5.439891,17.539382
LBKPIECE,59,true,5.461238,6.366085,0.512594,0.568164,7.558383,3.562861,1.864751,9.085121,2.349283,0.971447,11.991656
LBKPIECE,60,true,5.375489,3.991255,0.388364,0.630463,7.293163,3.896108,2.480674,6.735885,2.187402,5.084675,8.511137
LBKPIECE,61,true,4.179248,4.638713,0.739210,0.518085,5.046843,6.486535,3.166147,0.282248,4.586111,2.471747,0.473327
LBKPIECE,62,true,2.750024,1.297388,1.521744,0.143351,3.672930,1.406341,0.811453,0.822940,1.748523,1.367490,1.405884
LBKPIECE,63,true,3.881503,1.454805,0.784456,0.480679,5.233804,1.449380,2.162063,0.650201,6.094022,3.188190,1.522212
LBKPIECE,64,true,4.620510,4.474503,0.689587,0.911623,5.992805,2.522564,4.080125,3.086231,4.028101,4.727700,2.904396
LBKPIECE,65,true,4.394241,1.646382,0.594762,0.454533,6.606341,1.673529,1.387289,1.045587,3.198024,2.873481,9.131441
LBKPIECE,66,true,2.306915,0.731248,0.158768,0.610574,3.290598,0.809253,0.731194,0.111668,1.034531,0.798777,1.836435
LBKPIECE,67,true,2.735853,1.303395,1.046271,0.252942,3.781488,0.837841,1.717507,0.485156,0.356513,1.717494,2.370378
LBKPIECE,68,true,3.559388,3.508756,0.921592,0.389369,4.566404,4.410834,2.824408,0.229657,0.290772,1.935109,2.978462
LBKPIECE,69,true,4.278202,4.609060,0.714758,0.974566,5.078275,6.619090,3.824751,0.703680,5.243494,1.581633,0.330368
LBKPIECE,70,true,3.541138,2.485295,0.331137,0.543045,5.068912,1.432949,0.316129,1.939881,2.240068,2.307114,4.303514
LBKPIECE,71,true,4.991140,3.468796,0.667035,0.716146,7.237263,1.288607,1.404063,2.640853,8.637615,3.051788,7.888549
LBKPIECE,72,true,3.069782,1.785694,0.545644,0.262207,4.251709,1.369746,0.450603,1.506171,2.668080,0.872528,2.556432
LBKPIECE,73,true,3.642553,2.731270,0.447733,0.204606,5.059845,2.225131,0.368957,1.872900,2.400476,2.868092,3.532635
LBKPIECE,74,true,6.994835,6.356031,0.364188,0.560638,9.415600,10.645455,3.647562,6.782263,9.579048,6.400031,11.873363
LBKPIECE,75,true,2.143243,0.657887,1.305941,0.273301,2.905076,1.037647,0.252569,0.315413,1.126116,1.003634,0.858112
LBKPIECE,76,true,3.028813,1.453946,1.654072,0.213600,4.167427,1.921381,0.381130,0.541251,3.551377,0.914771,1.863798
LBKPIECE,77,true,3.010882,1.143616,1.115241,0.195523,4.017302,0.801806,1.565030,1.317287,2.642276,1.046994,1.692018
LBKPIECE,78,true,2.751205,1.759926,1.240973,0.590266,3.724244,2.137695,0.718998,0.217458,0.903608,1.785487,1.805884
LBKPIECE,79,true,3.675981,2.462833,0.685612,0.419395,5.140009,2.045739,0.649896,2.301413,2.020579,2.104157,4.391057
LBKPIECE,80,true,4.440534,3.741927,0.665629,0.482977,5.371586,6.377117,3.189377,1.540902,2.765183,5.321100,0.524660
LBKPIECE,81,true,2.978764,1.064340,1.113502,0.284406,4.161598,1.537129,1.189984,0.565012,1.247644,1.468308,2.864957
LBKPIECE,82,true,5.014230,1.799006,0.507163,0.329963,7.692664,1.832402,0.528582,0.820788,7.654790,2.232097,12.073844
LBKPIECE,83,true,2.812397,0.953224,1.242481,0.603911,3.690683,1.537123,0.649640,1.559590,0.841402,1.773474,1.548347
LBKPIECE,84,true,4.839827,2.599186,0.422513,0.161829,7.050414,1.783278,0.978568,4.259512,4.077789,2.442938,9.881840
LBKPIECE,85,true,2.846399,2.047810,0.995330,0.304819,3.715308,0.909698,0.603239,2.403941,1.466313,1.202382,1.516416
LBKPIECE,86,true,2.831851,0.915087,1.060785,0.589367,4.029847,0.988435,0.670923,0.277778,1.893165,2.051043,2.138037
LBKPIECE,87,true,3.746713,1.548812,0.840421,0.286841,5.638811,0.824718,0.683760,1.800290,0.782967,2.916887,7.029239
LBKPIECE,88,true,3.230006,1.351051,0.834676,0.572697,4.588077,1.492928,0.700627,0.901060,2.210592,1.848539,3.279190
LBKPIECE,89,true,3.351389,1.786304,0.601350,0.472612,4.591454,1.246604,0.790821,2.013997,2.242529,2.268598,2.669257
LBKPIECE,90,true,3.750096,1.035724,0.567504,0.838379,5.755877,1.146903,0.414858,0.758811,2.358689,2.059714,7.324247
LBKPIECE,91,true,3.902414,1.868866,1.120894,0.460846,5.741069,1.708304,1.645359,0.873468,1.648520,2.623851,6.729332
LBKPIECE,92,true,4.014692,2.311672,0.908892,0.373974,5.272652,1.357935,2.026886,4.364602,3.300119,1.753433,3.314777
LBKPIECE,93,true,2.903698,2.170746,1.426908,0.280507,3.832668,2.231951,0.610790,1.402891,0.631685,1.482106,2.072043
LBKPIECE,94,true,2.469654,0.796602,1.625391,0.646398,3.399764,1.124239,0.423621,0.859826,0.800194,1.123608,1.767702
LBKPIECE,95,true,5.393917,6.579736,0.532146,0.360825,7.202330,3.377497,2.995433,5.182179,0.359495,11.939770,5.239973
LBKPIECE,96,true,6.531842,11.264885,0.756737,0.807176,8.182729,12.214640,7.388592,4.650078,10.563876,1.967344,5.880436
LBKPIECE,97,true,2.819101,1.093750,0.527643,0.289858,4.106419,1.208310,0.602011,0.516553,0.706388,1.619178,3.294890
LBKPIECE,98,true,2.610389,1.189227,0.750224,0.723605,3.640932,1.297833,0.780404,0.502115,1.105500,0.919806,2.208472
LBKPIECE,99,true,3.642622,1.819485,1.894442,0.663556,5.248587,1.822508,1.517242,1.264271,0.915168,2.135220,5.614289
LBKPIECE,100,true,2.291784,0.644213,1.104898,0.345569,3.144209,0.799637,0.328882,0.430112,1.952015,0.801490,0.940136
LBKPIECE,101,true,5.373126,3.330076,0.445556,0.420925,7.294186,1.974761,3.542158,6.527490,4.896190,4.421281,7.508602
LBKPIECE,102,true,3.059105,1.427041,0.861684,0.226267,4.297188,1.897358,0.255677,0.879144,1.439567,2.104612,2.781764
LBKPIECE,103,true,2.692972,1.446242,0.603841,0.329428,3.552860,1.275820,0.972028,0.927018,1.991580,0.792166,1.293485
LBKPIECE,104,true,2.974411,1.881460,1.111145,0.257569,4.012489,1.954247,0.968348,0.902498,1.912943,0.878175,2.230912
LBKPIECE,105,true,2.908724,1.011773,1.730329,0.359945,4.152687,1.249918,0.491873,0.473493,2.610490,1.096165,2.538738
LBKPIECE,106,true,2.830935,0.912121,0.749374,0.218140,3.982873,0.952581,0.356709,1.135930,1.411113,1.877749,2.280111
LBKPIECE,107,true,2.051157,1.132372,1.390603,0.265345,2.482743,0.957153,0.572679,0.916844,0.774780,0.789597,0.196195
LBKPIECE,108,true,2.526014,0.975309,1.278878,0.854482,3.042510,1.133307,1.413925,1.330496,1.339881,0.790038,0.373100
LBKPIECE,109,true,3.151524,0.713411,1.048874,0.239024,4.765072,0.800725,0.721726,0.722849,1.121289,1.478512,5.087003
LBKPIECE,110,true,3.390002,1.462821,0.171459,0.312655,4.864577,1.216890,0.480092,1.582438,3.280852,0.972540,3.959302
LBKPIECE,111,true,2.450754,1.515474,0.685435,0.294459,3.141520,1.241226,0.856632,1.254268,0.657969,0.787217,1.208884
LBKPIECE,112,true,4.201756,2.649479,1.496284,0.565057,5.426468,3.481146,4.067416,2.463864,2.281394,1.211457,4.149475
LBKPIECE,113,true,4.864067,3.564815,0.835416,0.768781,6.796996,3.398291,0.990397,3.591595,3.274474,5.543250,6.861140
LBKPIECE,114,true,2.941367,2.375881,0.577963,0.432544,3.784830,1.256703,0.834544,2.654978,0.355070,1.782454,1.767888
LBKPIECE,115,true,4.603969,4.450458,0.618760,0.441952,5.829073,7.006514,1.935912,0.447255,4.865757,5.966380,0.974713
LBKPIECE,116,true,6.154850,7.292655,0.256346,0.648937,8.432661,10.447934,2.871750,3.140003,4.126811,5.490561,11.805116
LBKPIECE,117,false,0,0,0,0,0,0,0,0,0,0,0
LBKPIECE,118,true,3.261109,1.382867,1.009621,0.832393,4.646487,1.521986,1.010868,0.480574,2.377377,1.910407,3.333616
LBKPIECE,119,true,4.032383,2.083223,0.601757,0.529681,5.911359,1.397198,0.550734,2.264333,2.642395,2.769242,6.636211
LBKPIECE,120,true,5.308273,3.148279,0.536248,0.729602,8.049870,1.716447,1.610987,1.448819,8.462541,1.717847,13.221125
LBKPIECE,121,true,5.140552,3.295136,0.720825,0.440965,7.016209,2.265653,2.366554,4.345950,4.061718,8.030606,5.354796
LBKPIECE,122,true,3.202339,1.271371,0.646497,0.279620,4.719335,1.056700,0.454117,0.832584,2.716780,1.089223,4.105573
LBKPIECE,123,true,5.937580,7.090853,0.403907,0.712398,8.072204,9.899057,0.598873,5.054739,5.350784,4.147964,10.203435
LBKPIECE,124,true,2.260712,0.687403,1.449553,0.483334,3.114448,0.814285,0.697667,0.242774,1.160364,0.962861,1.232869
LBKPIECE,125,true,4.254007,2.262002,0.301850,0.344086,6.243119,1.723800,0.670995,2.524425,3.900214,1.574539,7.702605
LBKPIECE,126,true,2.809252,0.817988,0.370378,0.449803,4.128878,1.057069,0.255297,0.510242,1.374603,1.608239,3.086449
LBKPIECE,127,true,4.061810,2.557869,0.621397,0.659391,5.585953,1.618750,0.972920,3.375823,5.120643,1.236411,4.173756
LBKPIECE,128,true,2.938372,0.782805,1.432914,0.267967,4.304369,0.866682,0.479562,0.688707,2.024771,1.279827,3.294482
LBKPIECE,129,true,3.924560,2.677354,1.001457,0.449710,5.418278,1.967881,0.912579,3.210869,2.732288,1.933822,4.644729
LBKPIECE,130,true,3.079991,1.497458,0.948358,0.342933,4.379199,1.142301,0.958966,1.321225,1.563858,0.872799,3.627193
LBKPIECE,131,true,5.390129,5.031054,0.766500,0.826248,7.138007,5.260942,2.213978,3.415256,6.440754,7.988224,3.734337
LBKPIECE,132,true,3.410438,2.102222,0.383476,0.404222,5.037534,1.466195,0.495055,1.956443,0.633289,1.047833,6.032269
LBKPIECE,133,true,2.145684,0.783554,0.955769,0.099488,3.010177,0.802425,0.446408,0.066638,1.148315,0.971458,1.168715
LBKPIECE,134,true,3.369126,1.435982,1.693493,0.366825,4.820066,1.544284,0.582921,0.808680,2.667826,2.280404,3.466898
LBKPIECE,135,true,2.604510,0.841774,1.281814,0.279477,3.698477,0.937773,1.101681,0.432397,0.931650,0.796336,2.583636
LBKPIECE,136,true,5.870742,3.945863,0.308595,0.842389,8.352117,5.819465,3.259476,2.434416,7.044495,3.567759,12.339997
LBKPIECE,137,true,2.928451,2.346916,1.185034,0.309784,3.781070,1.916103,1.036451,1.520114,1.022056,1.463589,1.617511
LBKPIECE,138,true,3.393014,3.299510,0.439007,0.451571,4.736469,2.728878,0.297836,2.108642,0.667027,1.165747,4.544412
LBKPIECE,139,true,3.181254,2.154693,1.895532,0.220117,4.244959,2.287227,1.595081,1.096366,0.823170,1.560939,2.757597
LBKPIECE,140,true,4.634609,2.608738,0.626619,0.744214,6.404255,2.374098,3.847482,1.067785,7.160025,1.685555,5.344651
LBKPIECE,141,true,3.279277,1.362344,0.615799,0.445119,4.508512,1.243524,0.525444,1.573967,2.493247,2.755175,2.162301
LBKPIECE,142,true,3.486951,1.437544,1.154741,0.659456,4.768104,1.032841,3.364077,1.212368,1.233134,1.289955,4.026451
LBKPIECE,143,true,2.662868,1.506151,1.686555,0.227385,3.625425,1.916491,0.658257,0.352176,1.483173,0.791875,1.888896
LBKPIECE,144,true,2.387407,1.441111,1.954673,0.680196,2.884575,1.798895,0.374112,1.181003,0.760475,1.309876,0.275353
LBKPIECE,145,true,4.211097,1.757769,0.846277,0.268772,5.715411,2.205295,2.071016,3.139143,2.932667,2.770506,4.614709
LBKPIECE,146,true,3.600091,1.706985,1.230490,0.684168,4.759491,1.483219,2.418789,1.920267,3.300386,1.284280,2.553716
LBKPIECE,147,true,3.191952,1.391942,0.666713,0.414202,4.733123,1.339483,0.643727,0.760350,1.735114,0.940988,4.768897
LBKPIECE,148,true,4.331359,1.936123,0.600294,0.663329,6.248253,1.276260,1.052964,3.034865,5.374600,1.138573,6.883408
LBKPIECE,149,true,4.106812,1.539800,0.980921,0.797796,5.503959,2.439296,3.406147,0.982967,1.130935,5.516398,3.390163
LBKPIECE,150,true,3.765850,1.157656,1.064874,0.331492,5.514336,0.801870,1.642418,1.193385,1.701655,3.159967,5.682329
BKPIECE,1,true,2.581034,0.954694,1.778674,0.307722,3.615898,1.212705,0.741730,0.344891,1.100531,1.211307,2.050572
BKPIECE,2,true,2.553945,1.650537,0.827540,0.246243,3.461863,0.880176,2.188713,0.096348,0.416427,0.836502,2.104467
BKPIECE,3,true,3.577550,3.010607,0.920725,0.376205,4.486049,4.010077,1.937577,0.149233,1.125426,4.952768,0.623786
BKPIECE,4,true,3.471238,3.476933,0.928605,0.233069,4.482416,4.657490,1.372179,0.061623,0.801340,3.072508,2.084355
BKPIECE,5,true,2.872555,1.725105,1.488361,0.206779,4.007216,1.128546,0.671181,1.292223,1.485744,1.027299,2.646581
BKPIECE,6,true,4.423362,2.395436,0.904016,0.314693,6.356902,2.269340,0.399611,2.383060,2.731391,5.452777,6.329950
BKPIECE,7,true,2.228157,1.079378,1.744539,0.348806,2.905676,1.224179,0.671518,0.314633,0.871221,1.159210,0.723921
BKPIECE,8,true,4.807578,1.461952,0.571775,0.435885,6.871349,2.227094,2.697146,1.162750,4.378410,5.570582,7.076821
BKPIECE,9,true,2.846113,1.929942,1.370308,0.399439,3.530565,2.708598,1.291283,0.837651,0.755105,1.406026,1.101699
BKPIECE,10,true,3.373837,1.532934,0.563861,0.436310,4.885562,1.582678,0.416847,1.198968,1.703567,2.179055,4.301661
BKPIECE,11,true,3.608165,3.555482,0.907801,0.277264,4.695633,5.260424,2.033331,0.657066,0.317915,0.788029,3.962088
BKPIECE,12,true,3.694368,2.794767,0.774326,0.197525,5.015897,1.982923,0.603648,3.534919,1.339247,2.203604,3.984011
BKPIECE,13,true,2.402292,1.074733,1.087364,0.445051,3.299868,1.210828,0.423493,0.442044,0.545678,1.725484,1.423480
BKPIECE,14,true,3.038177,1.235692,1.336045,0.173528,3.695084,1.819431,2.421996,0.991005,0.962137,2.610918,0.425034
BKPIECE,15,true,4.547905,3.335777,1.195728,0.316454,6.356966,2.350154,1.383023,3.927373,2.457863,3.860334,6.704689
BKPIECE,16,true,4.678403,6.648843,0.616183,0.386984,5.974347,9.188677,3.798723,0.750949,0.983107,1.509741,5.656258
BKPIECE,17,true,2.571910,2.006532,1.340628,0.172955,3.331484,2.441343,0.435830,0.782500,0.572841,0.853198,1.529011
BKPIECE,18,true,3.577142,2.081429,0.538696,0.242519,4.988157,2.109585,0.257508,1.572446,3.395101,2.231944,3.229360
BKPIECE,19,true,2.423782,0.966435,1.757214,0.345201,3.198827,0.962924,0.280579,0.753853,1.833477,1.563476,0.480412
BKPIECE,20,true,3.135216,2.240936,1.039999,0.179784,4.315375,1.846323,0.643770,1.373174,1.653972,1.485776,2.826565
BKPIECE,21,true,3.259120,1.860077,1.660381,0.318860,4.572418,1.074217,0.663021,1.941697,1.705413,1.895305,3.342210
BKPIECE,22,true,2.162405,0.848838,1.901630,0.262783,2.797155,0.944617,0.650567,0.313779,0.941733,1.444259,0.381042
BKPIECE,23,true,3.829023,1.554982,0.461185,0.251817,5.770009,1.081814,0.854256,1.412456,1.866782,2.127421,7.318689
BKPIECE,24,true,4.313299,2.336803,0.932687,0.319154,6.529050,1.705722,0.455660,2.868054,0.900850,2.225426,10.448833
BKPIECE,25,true,3.049608,1.114954,0.820339,0.264427,4.440469,1.466172,0.349694,0.835046,1.181575,1.699173,3.768453
BKPIECE,26,true,4.175837,4.000957,0.854968,0.413247,5.283607,5.862676,2.028900,1.476188,3.719074,1.941747,2.409031
BKPIECE,27,true,3.622658,1.589245,0.313302,0.188397,5.565904,1.645698,0.709230,0.578114,1.456478,1.069100,7.665028
BKPIECE,28,true,5.545631,6.583420,0.619828,0.485449,7.208399,10.062877,3.634428,1.689486,1.697623,7.829856,5.839755
BKPIECE,29,true,2.853511,1.600137,0.885873,0.161976,3.998836,1.636860,1.207122,0.278652,1.231627,0.959988,2.828274
BKPIECE,30,true,3.897546,1.852547,0.960706,0.504879,5.460719,2.704750,0.543510,1.041118,2.758543,4.415845,3.727101
BKPIECE,31,true,3.010408,1.290874,1.032243,0.388805,4.260997,1.302190,0.711770,0.641549,1.938704,1.781853,2.686490
BKPIECE,32,true,3.808720,2.313401,0.648496,0.224426,5.620467,1.837481,0.657726,1.584671,2.333043,1.436605,6.656823
BKPIECE,33,true,4.661331,1.882420,0.772072,0.447932,6.484539,2.496406,2.690930,2.712182,4.191228,3.144519,6.492744
BKPIECE,34,true,3.636033,2.862863,0.980238,0.459387,4.865576,2.949594,0.654080,2.223306,1.640970,2.693460,3.059330
BKPIECE,35,true,2.348593,0.974745,1.340732,0.190864,2.598343,1.426333,1.397312,1.534135,0.289811,0.790914,0.077386
BKPIECE,36,true,4.125771,2.954441,0.908064,0.399583,5.264197,2.189893,1.540641,5.511677,1.593184,3.276583,2.910010
BKPIECE,37,true,3.391849,3.433746,1.057246,0.256075,4.149424,3.620736,2.216578,0.926931,1.852390,1.915309,0.972694
BKPIECE,38,true,3.768390,1.163781,0.632932,0.343167,5.693176,1.373347,0.381299,1.082407,3.248667,1.267257,6.847783
BKPIECE,39,true,4.045074,1.226299,0.764688,0.184419,6.068233,0.978452,2.059901,0.979503,3.425252,0.803442,8.116070
BKPIECE,40,true,3.289579,2.597764,0.801991,0.173557,4.398228,2.771935,0.764600,1.283672,2.282063,1.197099,2.521960
BKPIECE,41,true,2.175570,0.643664,1.489368,0.175160,2.940365,0.801239,0.849869,0.339001,0.785497,0.787857,1.169644
BKPIECE,42,true,4.040384,2.064960,0.684059,0.258149,6.129941,1.235078,1.419208,1.760647,1.328535,1.239529,9.341704
BKPIECE,43,true,3.484509,1.294483,0.868834,0.272582,5.179240,1.408858,0.278180,1.230814,1.866609,1.898558,5.458782
BKPIECE,44,true,4.774423,2.686215,0.291273,0.299955,6.774098,1.949645,1.532010,4.036520,5.043629,2.416964,7.816349
BKPIECE,45,true,4.651151,5.314573,0.780470,0.478732,5.435458,8.864202,3.746279,1.432085,5.402603,1.867673,0.320363
BKPIECE,46,true,1.636959,0.541642,0.787655,0.350111,2.081908,0.802886,0.254795,0.068277,0.296185,1.156464,0.101027
BKPIECE,47,true,3.922331,2.538423,0.464794,0.270608,5.306736,1.794845,1.268487,3.353823,3.145315,2.012962,3.809247
BKPIECE,48,true,3.371615,2.830782,0.788213,0.356501,4.607268,2.533548,0.784370,1.751295,0.988906,1.749109,3.560558
BKPIECE,49,true,4.643806,3.127773,0.441820,0.205022,6.638757,2.744874,0.815776,3.098770,5.320359,1.982503,7.602652
BKPIECE,50,true,3.379146,0.985555,0.921532,0.170300,4.955334,0.802188,1.957269,0.972194,1.432129,0.805109,5.449736
BKPIECE,51,true,3.267519,1.810343,0.968250,0.234981,4.642219,1.168465,1.023811,1.384221,1.792477,1.534381,3.773328
BKPIECE,52,true,5.321997,1.604173,0.465128,0.195889,7.854721,1.828138,3.525381,1.343128,7.961053,1.919961,11.745988
BKPIECE,53,true,3.850619,1.109089,0.776706,0.191040,5.850333,1.079571,0.457000,0.639489,3.754299,2.148975,6.747930
BKPIECE,54,true,3.235640,1.958649,0.500545,0.280961,4.230721,1.208138,0.781053,2.487339,3.331188,1.224843,1.436803
BKPIECE,55,true,3.133335,1.118055,0.797112,0.374489,4.543389,1.233568,0.478197,0.771678,1.661176,2.182919,3.490252
BKPIECE,56,true,4.332794,2.578184,0.624141,0.386084,6.434420,1.953624,1.251727,0.901452,3.245897,3.458039,7.962361
BKPIECE,57,true,5.413516,5.446835,0.434671,0.255435,7.070803,4.593483,2.759713,8.309766,2.131499,4.464798,7.046900
BKPIECE,58,true,4.006994,4.308469,1.061513,0.451908,5.362176,4.602888,0.874173,2.430495,1.702353,1.897600,4.548489
BKPIECE,59,true,2.138244,1.293864,1.607732,0.469925,2.685391,1.627402,0.366893,0.381461,0.523257,1.230167,0.442908
BKPIECE,60,true,2.914850,1.899678,0.943321,0.194146,3.843554,2.240031,0.829931,0.764623,2.192429,0.854544,1.614793
BKPIECE,61,true,2.495991,1.314166,1.366573,0.490527,3.373011,1.296044,0.637048,0.739448,0.595262,1.372374,1.589797
BKPIECE,62,true,4.950856,3.954310,0.261786,0.286701,7.101222,4.111976,0.844938,2.872230,4.738438,2.708840,9.234552
BKPIECE,63,true,2.723920,1.694777,1.248492,0.172997,3.510849,2.192029,0.716876,1.285507,0.501575,1.042753,1.680998
BKPIECE,64,true,3.685297,2.923417,0.746923,0.367356,5.298166,2.169055,1.359015,1.881143,1.067066,0.788195,6.316942
BKPIECE,65,true,2.788097,0.886557,0.768735,0.290573,4.115654,0.949443,0.627560,0.228876,1.691893,1.078195,3.197517
BKPIECE,66,true,3.292646,1.263085,0.394799,0.287561,4.785240,1.042663,0.357476,1.302843,3.424089,0.795980,3.918466
BKPIECE,67,true,2.575044,1.194713,1.524365,0.239531,3.334853,1.410516,0.750924,0.772292,0.662395,2.241450,0.793275
BKPIECE,68,true,4.701914,2.923985,0.417097,0.251744,6.641541,2.544134,1.554738,3.701840,4.505325,2.107174,7.694783
BKPIECE,69,true,2.363597,0.724396,0.681218,0.188862,3.197062,0.812893,0.392342,0.398882,0.986585,2.343749,0.652140
BKPIECE,70,true,5.061818,3.239974,0.568435,0.480491,7.165059,3.565465,3.558299,1.483911,7.218410,1.094183,8.701737
BKPIECE,71,true,3.380554,1.829973,0.289158,0.411801,5.027074,1.167095,0.499039,1.575843,1.636198,0.892824,5.657150
BKPIECE,72,true,4.728852,1.161576,0.575375,0.467754,7.058817,1.546366,1.837988,1.529379,5.030547,2.401221,10.016542
BKPIECE,73,true,4.162657,0.990999,0.731088,0.258436,6.300881,1.139165,0.917159,0.609207,4.397755,2.553221,7.711208
BKPIECE,74,true,2.958818,0.622206,0.466808,0.123337,4.478733,0.800756,0.530293,0.629435,1.426173,0.857620,4.510326
BKPIECE,75,true,2.257906,1.388935,1.738681,0.264789,2.903394,1.425107,1.041690,0.152963,0.596189,1.029011,0.853178
BKPIECE,76,true,2.139322,0.725941,0.908389,0.402827,2.955506,0.898321,0.264685,0.286211,0.905630,1.191013,1.030837
BKPIECE,77,true,4.504953,1.482835,0.656337,0.689545,6.919798,1.846538,0.976779,0.280739,5.984628,0.807460,10.398457
BKPIECE,78,true,3.342161,1.562880,1.491343,0.336924,4.597025,2.256510,0.971817,0.740165,1.604602,2.835897,2.761049
BKPIECE,79,true,1.967448,0.865292,1.462252,0.330824,2.565404,1.182605,0.355248,0.154199,0.300070,1.347081,0.531648
BKPIECE,80,true,4.291985,1.917735,0.280755,0.491832,6.371231,1.450354,0.614349,2.315237,3.691396,2.219538,8.130260
BKPIECE,81,true,2.035706,0.720910,1.511442,0.224001,2.676577,0.929933,0.689504,0.468625,0.303018,0.789095,0.963925
BKPIECE,82,true,4.825863,2.914588,0.683919,0.470356,6.756085,3.419198,3.139204,1.675637,3.825609,3.928495,7.300811
BKPIECE,83,true,5.243436,1.396019,0.478371,0.380552,7.955470,1.612578,1.856173,1.035058,6.832984,3.350776,12.806056
BKPIECE,84,true,5.063117,4.748414,0.342283,0.226066,7.202906,4.023697,1.589791,3.612393,4.454036,2.117810,9.837429
BKPIECE,85,true,2.338226,1.538420,1.725352,0.225859,3.050327,1.739197,0.657793,0.436562,0.549557,0.880744,1.203446
BKPIECE,86,true,3.031940,1.990885,0.712003,0.303291,4.430302,1.133433,0.289182,1.784429,0.683978,0.852339,4.449300
BKPIECE,87,true,2.173681,0.715841,1.144030,0.315958,2.936002,0.887131,0.616426,0.167844,1.088583,1.123168,0.841736
BKPIECE,88,true,2.613912,1.055617,1.387511,0.354219,3.521362,1.611250,0.922714,0.592918,0.737724,1.106126,1.861803
BKPIECE,89,true,3.443228,1.126564,1.429843,0.191143,4.947233,0.930209,0.691008,1.466374,3.829655,1.087503,3.851071
BKPIECE,90,true,3.163897,1.353129,0.800158,0.256523,4.535348,1.503399,0.472860,0.790346,1.098588,2.829541,3.315507
BKPIECE,91,true,3.110521,1.015864,0.867199,0.310601,4.486016,1.177108,0.837361,0.795563,2.414245,0.867369,3.583693
BKPIECE,92,true,2.706612,0.800262,0.959091,0.315354,3.866563,0.983399,0.269231,0.855962,1.789581,1.020164,2.407411
BKPIECE,93,true,2.057956,0.819010,1.365480,0.241517,2.643198,0.801874,0.313302,0.947454,0.408790,1.185007,0.578757
BKPIECE,94,true,3.760270,2.584906,0.307069,0.401238,5.222933,1.351578,1.220290,3.238735,1.716745,1.801905,4.810377
BKPIECE,95,true,3.064785,1.238499,1.234220,0.339183,4.220782,1.237370,0.733774,1.260244,1.327655,2.573280,2.260580
BKPIECE,96,true,4.224364,3.298260,1.074327,0.521666,5.471419,5.167598,0.963870,0.544866,4.089508,6.157146,0.922263
BKPIECE,97,true,2.775463,0.991147,0.573337,0.328386,4.027254,1.286998,0.436504,0.505139,1.643492,0.790032,3.041030
BKPIECE,98,true,3.022031,2.208109,0.648384,0.263198,4.214066,1.462671,0.778282,1.802093,0.582771,0.970803,3.536053
BKPIECE,99,true,2.834226,1.180098,1.516240,0.323482,3.551390,2.272039,1.479851,0.902860,0.696975,1.479661,1.201449
BKPIECE,100,true,4.215793,1.144372,1.007041,0.210373,6.392552,0.843862,1.016411,1.807645,4.136395,0.981761,8.986832
BKPIECE,101,true,4.882509,5.064520,0.569323,0.407277,6.126905,9.668090,2.213623,1.389041,6.118964,1.317249,3.131929
BKPIECE,102,true,4.343531,2.594596,0.578582,0.183624,6.075332,2.507234,1.274015,2.323126,5.569127,1.911259,5.281503
BKPIECE,103,false,0,0,0,0,0,0,0,0,0,0,0
BKPIECE,104,true,4.402549,5.779818,0.842610,0.327195,5.790619,4.092687,1.191705,4.307979,1.270662,4.160625,4.358776
BKPIECE,105,true,4.696138,2.938610,0.553353,0.249049,6.440218,2.291006,1.008271,3.252127,5.790417,5.791521,3.920374
BKPIECE,106,true,3.249072,2.680395,1.842982,0.242090,4.236876,3.229702,0.346887,1.164151,2.438814,1.797991,1.578922
BKPIECE,107,true,3.262854,1.692932,0.888748,0.161708,4.584668,1.481292,0.781158,1.127649,0.707783,3.431478,3.116854
BKPIECE,108,true,3.177250,1.924162,1.201571,0.222823,4.541968,2.451259,0.345920,0.437178,1.856185,1.330389,3.673990
BKPIECE,109,true,3.693862,1.912381,0.633864,0.375066,5.479020,1.282830,0.683736,1.864392,2.280548,0.971740,6.561374
BKPIECE,110,true,3.544700,2.193904,0.812961,0.258497,4.992884,2.722535,0.598856,1.317703,1.742389,1.745227,4.438188
BKPIECE,111,true,2.762168,0.888890,0.987219,0.207271,4.009155,0.801786,0.978993,0.225338,2.008357,0.794802,2.820297
BKPIECE,112,true,4.078849,2.918505,0.754680,0.361927,5.174071,4.699227,1.264334,1.038812,3.301914,5.833357,0.499365
BKPIECE,113,true,2.812226,1.357137,2.422403,0.343259,3.852082,1.623921,0.410040,0.637642,1.265088,2.279023,1.692903
BKPIECE,114,true,2.929364,1.764224,0.803952,0.304264,4.105118,2.483446,0.584159,0.228480,1.352165,0.947186,2.985735
BKPIECE,115,true,3.444125,2.041985,0.911875,0.190829,4.883743,2.094621,0.377818,1.659054,1.196785,2.275273,4.258446
BKPIECE,116,true,6.070450,7.159500,0.499731,0.445874,8.239808,7.980491,1.342098,6.636901,4.034189,6.703493,10.153193
BKPIECE,117,true,2.645258,0.634883,1.120921,0.257284,3.905301,0.984299,0.363643,0.344595,0.795039,1.560689,2.949128
BKPIECE,118,true,3.627450,2.487915,1.402901,0.402426,5.231393,2.236835,0.664629,1.496255,1.129673,2.182598,5.448405
BKPIECE,119,true,2.516677,0.793580,1.354489,0.223405,3.535374,1.054211,0.774953,0.334767,1.024521,1.149743,1.995469
BKPIECE,120,true,4.827685,6.407564,0.587550,0.331652,5.874241,8.868862,3.849746,0.070928,6.135646,3.698195,0.683164
BKPIECE,121,true,4.606937,4.637799,0.623665,0.321829,5.734404,7.737789,3.677237,1.148600,1.483542,4.177410,2.999287
BKPIECE,122,true,2.644078,1.306711,1.598914,0.336503,3.533202,1.914225,0.551976,0.766715,0.380750,1.643350,1.734134
BKPIECE,123,true,4.019779,2.946681,0.648653,0.247446,5.260453,2.272135,2.475313,3.594589,2.197742,1.921687,3.697159
BKPIECE,124,true,3.198173,2.883561,0.783491,0.269578,4.236434,2.421926,0.299392,1.908472,1.562731,1.915248,2.120543
BKPIECE,125,true,3.551777,2.888004,0.878317,0.288501,4.752111,2.694362,0.548196,2.595177,2.066935,1.520386,3.190060
BKPIECE,126,true,3.474320,2.457605,1.310965,0.179540,4.754155,1.805094,1.152033,2.430506,1.068894,1.766550,3.847824
BKPIECE,127,false,0,0,0,0,0,0,0,0,0,0,0
BKPIECE,128,true,4.441886,1.897474,0.715206,0.486611,6.279714,1.596147,1.403565,2.147226,7.041723,2.420655,5.121036
BKPIECE,129,true,4.860925,5.086184,0.626659,0.278913,6.489632,2.771469,1.484045,7.391750,1.046181,4.429733,6.505409
BKPIECE,130,true,3.151184,2.172184,0.538523,0.385176,4.458630,0.918170,0.884655,1.746630,1.576177,1.235415,3.568912
BKPIECE,131,true,3.888027,3.523655,0.566964,0.324148,5.371833,1.764604,0.327923,4.114220,1.864931,2.215241,4.829835
BKPIECE,132,true,4.006758,2.744231,0.919911,0.288318,5.557369,1.239847,0.736931,4.270454,2.509997,2.273523,5.023362
BKPIECE,133,true,2.527732,1.492216,1.862680,0.296060,3.365715,1.345642,0.906220,0.728391,0.874699,1.005044,1.529434
BKPIECE,134,true,2.686738,1.778904,1.275553,0.457298,3.202712,1.815565,1.692496,0.993046,0.546404,1.849702,0.321348
BKPIECE,135,false,0,0,0,0,0,0,0,0,0,0,0
BKPIECE,136,true,3.998231,1.944859,0.974058,0.416913,5.556718,2.348295,2.518387,0.629371,3.755971,2.332360,4.401466
BKPIECE,137,true,4.628867,5.539150,0.616802,0.334771,5.971929,8.419838,2.265790,0.726222,1.206455,4.585126,4.222974
BKPIECE,138,true,1.872495,0.550815,1.566006,0.284305,2.524844,0.803933,0.253347,0.053050,0.307301,1.615908,0.472697
BKPIECE,139,true,2.149864,0.907851,1.500807,0.369460,2.895173,0.985679,0.301447,0.056469,1.336697,1.459839,0.481785
BKPIECE,140,true,3.411772,1.258265,0.916465,0.423238,4.543311,1.627769,1.223991,1.178715,2.265404,3.952534,1.391775
BKPIECE,141,true,2.428905,0.692175,1.294557,0.195794,3.574406,0.963873,0.386696,0.303337,0.430346,1.184207,2.631122
BKPIECE,142,true,3.799098,2.663456,0.510485,0.253082,5.040186,2.273174,2.405957,1.446124,2.442616,3.202826,2.662446
BKPIECE,143,true,5.160268,3.491062,0.320920,0.289194,6.684200,2.945609,2.825186,7.409468,5.947628,2.898431,4.602048
BKPIECE,144,true,3.272971,1.046813,0.777965,0.197025,4.990079,1.416906,0.460693,0.607740,0.844884,1.420570,5.961548
BKPIECE,145,true,3.693199,1.999842,1.016423,0.269212,5.149746,1.085562,1.343891,2.945256,1.884732,1.765120,4.615158
BKPIECE,146,true,3.751160,3.698609,0.823481,0.258386,5.045311,2.823162,1.357447,2.782780,0.934108,1.897555,4.276150
BKPIECE,147,true,3.629650,1.625243,0.624062,0.324996,5.178987,1.187941,0.347515,2.222676,3.090909,2.094004,4.231317
BKPIECE,148,true,2.940255,2.269159,2.276450,0.259805,3.839428,1.847330,1.194009,0.983501,1.589709,1.554712,1.475841
BKPIECE,149,true,3.772845,4.822294,0.865813,0.407138,4.410889,5.586230,2.530864,1.329636,1.640360,2.713319,0.433952
BKPIECE,150,true,2.800226,1.393461,0.548124,0.279243,3.969866,1.208351,0.634144,0.797346,1.270018,1.214259,2.717148
KPIECE,1,true,2.879822,1.946680,1.563624,1.780737,3.621655,0.844098,3.223940,0.052476,2.723827,0.798887,0.650148
KPIECE,2,true,4.191692,3.340366,1.825796,1.838537,5.693087,3.079545,1.928144,2.969815,2.551997,1.792601,5.248179
KPIECE,3,true,3.680018,2.099395,0.968383,1.469683,5.036829,1.523950,0.791546,1.308247,1.767955,6.242503,1.908328
KPIECE,4,true,3.983446,1.851283,0.846678,0.873002,5.462265,2.268169,0.469419,0.751346,6.131626,4.657686,1.589594
KPIECE,5,true,4.143015,2.315147,1.260780,3.734443,6.295006,1.907707,1.256161,1.032685,1.544424,1.929080,9.494515
KPIECE,6,true,4.380997,2.919763,0.407924,0.579728,6.452281,1.810746,0.483536,2.417800,1.581534,4.941771,7.957745
KPIECE,7,true,3.303929,1.095515,0.719880,0.842675,4.899966,1.056140,0.666943,0.877708,1.547324,1.989262,4.778568
KPIECE,8,false,0,0,0,0,0,0,0,0,0,0,0
KPIECE,9,true,2.982839,0.744529,1.044069,0.851758,4.529817,0.892301,0.569423,0.349245,1.750240,0.800568,4.535553
KPIECE,10,true,3.076729,1.852395,1.083532,0.689456,4.203306,1.677615,0.626097,1.459448,1.733800,1.470880,2.498422
KPIECE,11,true,2.405343,0.645383,1.099840,0.461946,3.402416,0.801254,0.814124,0.324887,1.109909,0.790151,1.945350
KPIECE,12,true,5.112762,5.101416,0.597642,0.156444,6.997149,5.086822,2.017241,4.279730,1.667402,5.025915,8.063223
KPIECE,13,true,3.709889,2.429839,0.734938,0.794000,5.270432,2.282186,1.028000,1.626633,1.829120,1.809625,5.187713
KPIECE,14,true,3.751967,3.153032,1.134947,0.239998,5.169841,2.007010,0.757914,2.598441,1.855439,2.922340,3.936111
KPIECE,15,true,2.702871,2.035932,1.695160,2.944036,3.587360,2.342689,1.062319,0.452476,0.542546,0.789866,2.115613
KPIECE,16,true,2.571240,0.953523,1.284563,0.187180,3.413479,1.201791,0.340988,1.171004,1.139130,1.615290,1.143071
KPIECE,17,true,3.653248,3.293413,0.378152,1.405241,4.739109,2.874233,1.319035,2.799146,2.753895,0.840775,2.759135
KPIECE,18,true,4.117963,2.232752,0.345326,1.707481,6.027338,1.302312,0.519807,3.189804,3.040996,1.479223,7.425479
KPIECE,19,true,3.913813,2.209132,0.687589,0.935601,5.666541,1.803670,0.978416,1.825631,1.256073,3.372612,6.081533
KPIECE,20,true,2.526263,0.621430,0.935003,1.205180,3.743000,0.801320,0.730582,0.488858,0.298475,0.795978,3.266794
KPIECE,21,true,2.552124,1.470831,1.338928,2.491141,3.288968,1.021632,0.611217,1.294682,1.980754,0.886888,0.718167
KPIECE,22,true,2.931233,1.403336,1.138193,3.323754,4.275280,1.675046,0.843289,0.405245,0.544962,1.106232,4.017351
KPIECE,23,true,4.620168,2.934507,0.596978,0.791445,6.484332,4.168909,1.212530,2.494281,3.901982,2.337885,7.230369
KPIECE,24,true,5.684399,5.006452,0.637845,3.396910,7.969722,2.632411,1.110839,7.910472,6.746105,3.367156,10.545406
KPIECE,25,true,2.912241,1.654251,1.065636,1.694439,4.092285,1.634915,0.764130,0.555469,1.796962,0.990648,2.739021
KPIECE,26,true,3.696863,3.224182,1.308080,2.117244,4.565961,1.824849,2.521623,4.541443,0.926099,1.450452,2.402327
KPIECE,27,true,4.004944,2.618697,0.811704,0.362477,5.443965,2.003459,1.328663,3.453681,2.082361,2.828012,4.343403
KPIECE,28,true,3.759174,1.541177,1.068167,0.852976,5.451642,2.202301,0.598856,0.486407,5.300887,0.797738,4.745195
KPIECE,29,true,3.125464,1.871445,1.066257,0.937408,4.342079,2.423906,0.479424,0.701617,2.388441,0.853601,2.921538
KPIECE,30,true,4.362979,1.956370,0.637963,1.156165,6.434285,1.544349,2.479570,0.397642,5.468228,1.395384,7.750411
KPIECE,31,true,3.895749,3.059924,0.805445,0.042187,5.121957,4.419948,2.018878,0.213398,0.933547,5.058139,2.532948
KPIECE,32,true,5.901063,8.662580,0.534828,2.011961,7.812596,8.612181,1.373823,7.684478,2.538291,5.551718,9.062051
KPIECE,33,true,4.424912,2.751750,0.782643,2.110839,5.886874,2.646257,1.313497,3.412840,5.410858,3.928203,2.868189
KPIECE,34,true,2.981744,1.192168,1.060774,1.840271,4.413162,1.084115,0.844724,0.596416,0.954476,1.191401,4.219665
KPIECE,35,true,3.924642,2.459080,1.249620,0.737533,5.485319,2.104214,0.680578,2.868225,2.115370,2.698311,4.936115
KPIECE,36,true,2.596195,1.670230,1.653711,0.667013,3.379706,1.181592,1.618142,0.837677,0.527609,0.995842,1.579366
KPIECE,37,true,3.341001,1.532188,1.586794,2.054785,4.568746,2.101269,0.650888,0.653780,4.932806,0.868745,1.954800
KPIECE,38,true,2.922390,0.994713,1.114727,0.058105,4.173674,0.801673,0.612686,0.510095,3.556685,0.795943,2.263282
KPIECE,39,true,2.214199,1.635868,1.412485,2.084287,2.708697,1.943597,0.449494,0.647052,0.294630,0.996076,0.571827
KPIECE,40,true,2.397311,1.361127,1.353549,0.120228,2.765687,2.207142,0.986809,0.937767,0.393428,0.935414,0.286541
KPIECE,41,true,4.344973,5.476782,1.034515,2.177822,5.342658,2.857235,3.347078,4.160963,4.948745,2.413094,1.151679
KPIECE,42,true,1.755767,0.572996,1.007897,1.474253,2.370317,0.802828,0.259418,0.087870,0.301465,1.028056,0.603082
KPIECE,43,true,3.501011,2.792797,0.777853,1.564075,4.890733,2.006825,1.441943,1.646495,1.862774,0.798657,4.500382
KPIECE,44,true,4.091266,2.930444,0.432349,1.438988,6.013919,3.134025,0.763213,1.439174,1.913120,1.462212,8.026714
KPIECE,45,true,1.623025,0.875525,0.696257,0.833540,1.980990,1.118937,0.255090,0.066705,0.296219,0.800629,0.096631
KPIECE,46,true,3.985416,3.280172,0.779526,0.801028,4.798121,4.793951,2.973508,1.558133,2.377563,3.599909,0.580478
KPIECE,47,false,0,0,0,0,0,0,0,0,0,0,0
KPIECE,48,true,6.073615,5.784190,0.502975,2.151804,8.694412,1.983072,1.614745,6.196723,10.765532,4.718997,11.609735
KPIECE,49,true,3.042172,1.774966,1.515816,0.217305,3.953870,2.647263,0.586669,0.306170,2.233660,2.817477,0.663572
KPIECE,50,true,5.784094,5.194175,0.609469,1.459491,7.760152,3.825029,3.183895,9.127519,1.480906,6.393476,9.444915
KPIECE,51,true,4.122418,2.723063,0.278083,0.661522,5.561249,2.493685,1.077253,3.319320,3.460040,2.814944,3.829090
KPIECE,52,true,3.383436,1.387585,0.845730,0.958254,4.814495,1.097778,0.695225,1.565475,2.034570,2.412027,3.642563
KPIECE,53,true,3.398643,1.624293,0.952651,2.081149,4.128827,1.734367,3.753614,1.121843,0.818079,3.567394,0.555481
KPIECE,54,true,3.800287,2.555869,0.988285,0.329256,5.089823,4.647930,0.946710,1.184249,1.894657,1.967810,3.800824
KPIECE,55,true,4.775574,6.135992,0.962506,2.309301,6.235330,2.765918,4.259706,2.637039,4.569764,5.643885,2.929793
KPIECE,56,true,3.302195,1.587300,1.103024,0.799659,4.374733,1.991229,2.326643,1.097376,1.953425,0.791267,2.744554
KPIECE,57,true,3.507247,1.369793,0.657290,0.692898,5.264612,1.273608,0.707056,1.284805,1.227395,1.427880,6.380039
KPIECE,58,true,2.699932,0.796807,1.456535,1.601986,3.916586,1.000742,0.323753,0.454453,2.171415,0.799945,2.539327
KPIECE,59,true,2.685281,1.585046,1.346111,0.308741,3.547426,2.004473,0.436291,0.346256,0.930206,2.543727,0.949782
KPIECE,60,true,2.014843,0.641425,1.199994,1.930524,2.602850,0.799973,0.444690,0.133212,1.860802,0.787396,0.033520
KPIECE,61,true,3.806148,1.920843,1.121132,2.252569,5.165285,1.462069,0.739331,2.585614,3.745882,3.460223,2.493647
KPIECE,62,true,3.738120,3.084044,0.649171,0.682203,5.317595,2.912014,0.980973,1.691776,1.071023,1.403256,5.914498
KPIECE,63,true,4.809497,5.034200,1.020377,1.277325,6.238697,5.906460,2.542957,1.886564,5.119697,4.680785,2.994799
KPIECE,64,true,5.200872,1.965020,0.412482,0.866923,7.746285,1.471588,1.071703,1.186119,7.888298,5.795182,9.636185
KPIECE,65,true,3.806855,2.285651,0.578313,0.798408,5.569365,1.499616,0.808962,1.361716,3.726989,1.391037,5.703828
KPIECE,66,true,3.405334,1.715879,0.388964,1.772097,4.892696,1.558183,0.467883,1.244296,2.393674,1.916038,4.016228
KPIECE,67,true,2.707923,2.098339,1.419989,3.181469,3.491845,2.169448,0.857977,1.061653,0.798173,0.829232,1.616364
KPIECE,68,true,3.096030,1.547543,0.881619,0.251972,4.540275,1.153130,1.469951,0.440068,1.175843,0.839977,4.506435
KPIECE,69,true,4.505862,1.374209,0.620656,1.439511,6.881532,1.023445,1.816782,0.637491,5.791098,0.806354,10.227621
KPIECE,70,true,2.934751,1.761576,0.977468,2.260284,3.911768,1.997821,0.432012,1.081002,2.151229,1.363455,1.587243
KPIECE,71,true,1.902972,0.782429,1.185614,1.285040,2.557846,0.803892,0.282125,0.050409,0.290232,1.758253,0.436393
KPIECE,72,true,2.667499,1.146784,1.550960,0.452798,3.755892,0.943406,0.835083,0.880115,0.825583,1.097140,2.534226
KPIECE,73,true,2.709293,0.739787,1.777174,1.272067,3.958889,0.948604,0.554816,0.509465,0.822955,1.499288,3.005143
KPIECE,74,true,4.226502,2.488700,0.601185,0.775078,5.852836,2.520967,1.408121,1.072355,3.614389,5.716995,3.530492
KPIECE,75,true,2.750910,1.871775,1.303628,1.638748,3.541162,2.061102,0.938865,1.059062,1.179557,0.865071,1.463848
KPIECE,76,true,3.604323,3.820345,0.813761,0.234378,4.659444,1.670105,1.882108,2.735166,1.531185,3.157066,2.015513
KPIECE,77,true,3.849039,4.045928,0.827160,1.300617,4.771126,5.346332,2.183761,0.345719,3.622636,2.307406,1.009249
KPIECE,78,true,2.993721,0.925902,1.105395,0.145350,4.268389,0.872871,0.513160,0.682321,2.686991,1.844261,2.362763
KPIECE,79,true,4.866388,2.568996,0.780066,3.412778,6.980292,2.484683,1.391867,3.780264,2.226682,4.780403,9.017830
KPIECE,80,true,4.037356,4.758257,1.095834,1.541760,5.127237,3.154853,0.985325,4.551433,3.400915,1.828045,2.379676
KPIECE,81,true,4.415173,1.624554,0.623585,0.185335,6.120694,1.466474,3.433510,1.276655,7.089542,1.575558,4.652017
KPIECE,82,true,4.271172,3.396443,0.885967,1.116917,5.424787,2.776487,2.101400,5.090068,3.147936,2.216576,2.910445
KPIECE,83,true,2.639706,1.533496,1.539329,0.303827,3.346610,1.958383,0.556701,1.321620,1.226436,0.804507,1.100403
KPIECE,84,true,6.045670,4.525694,0.612693,0.097243,7.716931,3.987963,7.369781,8.266480,5.043878,5.807027,6.074999
KPIECE,85,true,3.049582,2.618348,1.071433,0.148246,4.115945,1.536239,0.682720,2.168760,1.094911,1.088492,2.728826
KPIECE,86,true,3.827024,2.408242,0.838726,0.264938,4.806360,3.276507,1.271948,1.681216,4.432573,3.945319,0.038549
KPIECE,87,true,3.979736,1.943924,0.406166,1.353688,6.038504,2.043736,0.640311,1.232830,1.995898,1.221713,8.703811
KPIECE,88,true,3.317342,2.402235,0.649335,3.665285,4.531069,2.227174,0.795691,1.938492,1.660117,0.900863,3.482423
KPIECE,89,true,3.593678,1.512206,1.083948,0.445140,5.476359,1.839003,0.647814,0.938282,0.777166,1.125701,7.586559
KPIECE,90,true,1.990285,0.897419,1.656592,1.051814,2.719681,1.025710,0.252934,0.257851,0.299251,1.114798,1.010690
KPIECE,91,true,3.813344,3.412045,0.712848,3.404835,5.306990,2.127856,0.493524,3.322188,1.940107,1.633389,5.024528
KPIECE,92,true,3.559742,1.644153,0.998900,0.444174,4.893231,1.947215,0.390919,0.278630,7.255384,1.582674,1.216942
KPIECE,93,true,3.828159,2.157408,0.994068,0.403178,5.140489,2.155375,1.449732,2.340262,2.345254,3.303792,3.060388
KPIECE,94,true,3.740574,3.492202,0.789056,3.112501,5.107942,4.945899,1.458337,0.095482,0.290501,2.594680,4.606999
KPIECE,95,true,4.638194,2.183795,0.605840,0.200309,6.797937,2.161700,2.519840,0.551558,7.061539,0.798837,8.419368
KPIECE,96,true,4.647088,2.151735,0.442861,0.806192,6.458393,1.296367,2.236512,3.930636,3.748417,4.399989,5.983502
KPIECE,97,true,2.808505,1.968077,1.139663,1.122257,3.673237,1.813154,0.961735,1.266306,1.155960,0.932087,1.758461
KPIECE,98,true,4.552038,1.550383,0.659051,1.009586,7.079628,1.859327,1.075278,0.454710,4.071999,1.191389,12.068345
KPIECE,99,true,4.281412,5.743017,0.763487,1.317643,4.890146,9.393943,2.855095,1.138505,2.495237,1.807631,0.640082
KPIECE,100,true,2.282442,1.008258,1.360004,2.471587,3.071453,0.802724,0.252863,1.041660,0.777657,1.222646,1.111991
KPIECE,101,true,3.772741,1.060005,1.272529,2.222393,5.449069,1.081200,0.731032,0.281544,2.790623,6.030207,3.318971
KPIECE,102,true,3.027067,1.071980,0.989790,0.958778,4.452310,1.191057,0.498128,0.698590,1.345911,1.544884,3.884566
KPIECE,103,true,4.735049,5.449745,0.598065,0.586836,6.165697,8.506446,3.392059,0.104409,0.296819,4.943612,5.177347
KPIECE,104,true,3.508437,1.770611,0.973062,1.278494,4.422736,1.950922,3.274597,0.692133,4.220079,1.311419,0.859981
KPIECE,105,true,2.939963,2.142802,1.236858,0.723205,3.967795,2.555164,0.916615,0.585607,1.276984,0.795003,2.514010
KPIECE,106,true,3.984099,3.177748,0.784535,0.766920,5.075405,4.667511,1.631400,1.352184,2.713738,3.843480,1.664734
KPIECE,107,true,3.442559,2.322598,0.880861,0.655229,4.785342,1.686079,0.936284,2.163739,0.651228,2.430709,3.983173
KPIECE,108,true,2.889468,1.450635,0.609533,1.012571,3.994423,1.224688,0.528911,1.290155,1.801565,1.202581,2.301123
KPIECE,109,true,1.717642,0.537335,0.784113,1.763964,2.227761,0.801001,0.252731,0.051797,0.393622,1.283289,0.167855
KPIECE,110,true,6.102095,7.944174,0.425347,0.205530,8.335220,6.239438,1.099220,8.667168,2.791798,7.427338,11.010596
KPIECE,111,true,3.606119,1.832195,0.574660,0.360774,5.312794,1.832596,0.838921,1.367973,0.628790,2.078731,6.257082
KPIECE,112,true,4.448745,2.512231,0.434337,0.401714,6.753828,2.121649,1.096498,1.628566,1.455422,2.610949,10.878245
KPIECE,113,true,4.039820,4.205555,0.631830,0.591817,5.302597,0.878188,0.541401,6.555215,2.849130,2.044163,3.452050
KPIECE,114,true,4.711837,1.284040,0.641461,0.366003,6.971098,2.199149,2.819992,1.291857,1.404724,3.981303,10.504386
KPIECE,115,true,5.133914,6.599068,0.511966,0.951859,6.565354,10.164449,3.769038,0.474311,4.009216,3.142540,4.797522
KPIECE,116,true,2.769902,0.971767,1.128152,1.017412,3.412971,1.327266,1.536649,1.243998,1.680725,1.472149,0.411569
KPIECE,117,true,3.255603,2.111912,0.778092,2.426042,4.303592,1.667436,0.404893,2.246223,3.216429,1.422409,1.641560
KPIECE,118,true,3.319591,2.640331,0.965938,0.200165,4.505941,1.853139,0.742379,2.480179,1.122207,1.481955,3.339828
KPIECE,119,true,3.561445,3.095040,0.853755,0.294143,4.658764,3.791506,0.855371,1.598692,2.601005,1.255460,2.581860
KPIECE,120,true,2.944260,1.330981,0.506786,2.892256,4.220400,1.357186,0.697642,0.746212,1.798707,0.793433,3.275485
KPIECE,121,true,5.129806,8.605069,0.582528,0.563931,6.337172,5.811354,2.943018,6.733915,2.826267,4.982135,3.018219
KPIECE,122,true,3.977644,1.815866,0.972198,2.388310,5.436265,2.035579,2.938678,0.683082,5.707322,0.889979,3.567013
KPIECE,123,true,2.253084,1.305172,1.643138,1.255213,2.892855,1.517463,0.369703,0.592438,0.526859,1.374487,0.695437
KPIECE,124,true,4.537611,4.168256,0.697104,3.138169,6.192450,1.236277,0.413475,5.880019,3.786232,4.577535,4.696375
KPIECE,125,true,3.559138,1.608956,0.669386,2.030969,5.169836,1.533916,0.800343,0.915818,3.522376,1.252669,4.642344
KPIECE,126,true,3.562641,2.475205,0.687906,1.021808,4.747994,2.764220,1.437111,1.601789,2.160584,1.766950,2.961754
KPIECE,127,true,4.118894,1.804543,0.886192,1.401017,6.191333,1.610009,0.537085,1.400774,2.699040,2.768488,7.949894
KPIECE,128,true,3.867568,3.361743,0.822223,0.798710,4.654187,4.722315,2.568800,1.337070,3.736926,2.219501,0.373474
KPIECE,129,true,3.325556,2.286451,0.834250,3.295721,4.608810,2.786356,0.753848,0.685818,2.254116,1.230684,3.348503
KPIECE,130,true,2.814169,0.593295,1.205816,2.219952,4.352308,0.800641,0.382343,0.262019,1.098725,0.827321,4.548496
KPIECE,131,true,3.009106,1.364547,1.096902,1.105618,4.355740,1.191234,0.858881,0.700053,0.923440,1.767907,3.613203
KPIECE,132,true,2.004352,0.888646,1.348921,1.063576,2.471210,0.801225,0.375931,0.875868,0.833899,1.005457,0.125048
KPIECE,133,true,3.856884,1.473421,0.915930,2.736145,4.764989,2.231044,3.374457,1.662365,4.360652,3.025153,0.221881
KPIECE,134,true,4.327901,2.187051,0.395235,2.129369,6.215839,1.440641,1.398895,2.741350,2.999515,3.394233,6.756092
KPIECE,135,true,2.049408,0.930171,2.065855,0.158482,2.640093,1.150636,0.485539,0.220027,0.632797,1.284930,0.426145
KPIECE,136,true,2.277959,0.808017,1.813608,0.644247,3.147868,1.142912,0.252100,0.343812,0.322842,1.857727,1.269704
KPIECE,137,true,1.847379,0.599326,1.174645,1.517247,2.214919,0.802779,0.496005,0.663773,0.345072,1.062375,0.042806
KPIECE,138,true,3.151393,1.805417,0.980799,1.063624,4.503871,1.906681,0.561184,0.763554,1.248339,1.797803,3.653716
KPIECE,139,true,4.201395,2.867260,0.423644,0.975080,5.837091,2.993517,1.479604,1.261528,2.579155,4.835066,4.502846
KPIECE,140,true,3.111021,1.096654,1.130178,1.133329,3.976358,2.258780,1.620646,0.944659,0.914205,2.661556,1.278605
KPIECE,141,true,2.955636,2.193847,0.845345,2.220439,3.988398,1.582892,1.000298,1.416631,1.261034,1.039360,2.435571
KPIECE,142,true,4.311355,2.201902,0.336160,1.145501,6.170962,1.294179,1.299264,3.770960,0.747675,4.206096,7.269610
KPIECE,143,true,3.356002,3.442225,1.027666,2.197622,4.500910,3.249294,0.787067,1.516935,1.471995,0.951464,3.285992
KPIECE,144,true,2.112373,1.214924,1.250880,0.042385,2.691601,1.372360,0.486115,0.245912,0.512581,1.420288,0.424864
KPIECE,145,true,2.747408,1.238999,1.172194,0.503961,3.795497,1.342196,0.761036,0.591034,1.709841,1.140569,2.003571
KPIECE,146,true,3.933667,2.028765,0.719781,0.450058,5.792871,1.526190,0.381948,2.197106,3.062759,1.590602,6.715130
KPIECE,147,true,2.831148,0.791225,0.346339,0.259918,4.155885,0.801441,0.461706,0.542773,2.367578,0.795389,3.046509
KPIECE,148,true,2.648695,1.504515,1.308065,0.996297,3.494145,1.693931,0.257889,0.317055,1.616716,2.683249,0.446747
KPIECE,149,true,2.993666,2.227003,0.706817,0.211150,3.934917,2.525274,0.751933,0.992058,1.598442,1.265552,1.828774
KPIECE,150,true,3.092352,0.836244,1.365089,0.395012,4.740725,0.958704,0.814685,0.292925,0.513991,1.566838,5.415501
ProjEST,1,true,3.269232,1.730552,0.862966,0.838153,4.662372,0.975355,1.323052,1.153760,2.037184,1.384398,3.814127
ProjEST,2,true,3.921719,2.458400,0.485220,1.088206,5.407953,1.625089,0.807260,3.174036,3.811382,1.869542,4.092575
ProjEST,3,true,4.345180,4.801382,0.932027,1.850503,5.334315,7.186895,1.914801,2.581489,3.116586,1.703895,2.376922
ProjEST,4,true,3.642632,3.257339,0.895997,2.935916,4.387326,4.505154,2.383667,0.694426,1.890331,3.500858,0.294335
ProjEST,5,true,4.343633,1.549888,0.782719,3.327825,6.549871,2.134717,1.074299,0.113916,6.246498,0.808271,8.489449
ProjEST,6,true,4.099536,3.736071,1.147549,0.261466,5.389880,3.363804,1.812984,3.934346,2.159860,0.985646,4.549555
ProjEST,7,true,4.585285,2.423391,0.485103,1.125173,6.464338,1.977688,1.533972,3.247967,4.288739,3.478854,6.497615
ProjEST,8,true,3.164740,2.179163,0.907542,2.993558,4.408401,1.769080,0.549069,1.570650,1.740427,1.094718,3.291636
ProjEST,9,true,3.237323,2.039159,1.659779,0.842402,4.379621,2.278067,0.908156,0.382251,2.008023,3.114736,1.789030
ProjEST,10,true,4.832838,4.001789,0.734399,3.293292,6.796747,3.870962,0.951393,4.037863,2.498613,3.654141,8.343347
ProjEST,11,true,1.969973,0.831931,2.107568,0.894867,2.437816,0.886931,0.320968,0.961747,0.330683,1.029459,0.351005
ProjEST,12,true,3.263467,3.105356,1.081473,0.612393,3.859985,4.556151,2.483477,0.685406,0.805755,0.795349,1.324081
ProjEST,13,true,3.961837,4.318396,0.699887,1.068572,5.442596,1.027349,2.304629,3.220691,2.098312,2.262967,4.782210
ProjEST,14,true,4.802988,6.157786,0.581473,1.135804,6.334965,9.083464,2.574994,0.787378,1.127905,3.054714,6.440234
ProjEST,15,true,4.852647,7.154898,0.587767,0.880183,5.946873,10.424521,2.736540,1.840365,4.484892,0.791504,3.270362
ProjEST,16,true,4.030231,1.873371,0.698054,0.177377,5.650040,1.306735,0.649291,3.092155,4.960000,1.748970,4.485611
ProjEST,17,true,3.993171,2.609568,0.575382,0.686820,5.640231,2.370887,1.243437,1.497768,4.082656,1.717194,5.033473
ProjEST,18,true,3.120133,1.834306,0.886318,1.916849,4.242436,2.128286,0.529100,0.964196,2.818154,1.146119,2.149378
ProjEST,19,true,2.271811,0.701590,1.659198,0.958973,2.792402,1.097476,0.645517,0.814248,0.804556,1.766832,0.032497
ProjEST,20,true,2.189235,0.849814,2.383942,0.796271,2.951976,0.913117,0.739845,0.054638,1.120003,1.128888,0.836260
ProjEST,21,true,2.548540,0.835414,1.345080,1.735919,3.200515,1.142325,0.655934,1.455440,1.312394,1.422079,0.506885
ProjEST,22,true,3.773106,3.543726,0.851990,1.298141,4.672706,4.838369,2.669505,0.681057,2.137177,2.359779,1.550447
ProjEST,23,true,2.456594,0.852057,3.832490,1.451667,3.329357,1.106688,0.413093,0.577713,1.107222,1.717735,1.112404
ProjEST,24,true,4.448954,2.246826,0.724737,2.184073,6.368718,2.088781,0.784635,2.961294,2.182554,4.967030,6.808898
ProjEST,25,true,3.091872,2.578274,0.840394,1.340690,4.066838,2.678541,0.633926,1.528361,1.093464,1.364733,2.260649
ProjEST,26,true,4.016032,4.654585,0.968488,0.616215,5.157939,5.545366,0.891998,3.096378,1.150196,1.563531,3.881048
ProjEST,27,true,4.113224,1.927710,0.566074,0.385034,6.075555,0.987776,1.130814,2.271204,3.466678,1.597206,7.464936
ProjEST,28,true,3.992861,1.981142,0.580109,1.328740,5.612712,1.670574,0.508491,2.713920,3.523517,3.016803,4.509637
ProjEST,29,true,5.103946,7.221840,0.525908,0.665082,6.480122,10.400822,3.367043,0.363462,4.190460,3.705701,4.022777
ProjEST,30,true,3.828505,1.594054,1.104388,2.363312,5.449297,1.608750,0.654141,1.542986,1.376775,5.288973,4.185823
ProjEST,31,true,4.039012,3.824121,0.763791,0.923489,4.726678,5.540959,3.366225,1.421952,3.222849,2.718263,0.043374
ProjEST,32,true,3.668139,2.448181,0.415803,0.477360,4.934878,1.353592,0.974163,4.116766,1.784314,1.339349,3.887057
ProjEST,33,true,1.620187,0.544470,0.637689,0.219885,2.140960,0.801378,0.251589,0.052226,0.292918,0.788007,0.438889
ProjEST,34,true,3.390041,1.008572,0.797459,0.578272,5.111679,1.105055,0.329508,0.864965,2.315557,1.433255,5.444037
ProjEST,35,true,4.045445,4.743163,0.779887,0.710468,5.284413,6.895161,2.323566,0.341642,1.244800,0.806320,4.754137
ProjEST,36,true,2.286244,1.147313,1.728630,1.508977,2.964557,1.549840,0.532281,0.513387,0.606146,1.094980,0.930279
ProjEST,37,true,3.836633,1.267206,0.891617,0.481490,5.002884,1.933707,1.788997,1.323806,2.967572,6.069827,0.635845
ProjEST,38,true,3.013820,2.946479,1.149905,1.627952,3.966612,3.920532,1.226439,0.060808,0.303338,0.796433,2.775563
ProjEST,39,true,3.994301,1.142742,0.760113,1.654448,5.939014,1.717665,2.052102,1.274711,1.698198,0.804267,8.407494
ProjEST,40,true,3.521989,3.340180,0.920281,0.785702,4.667773,3.863404,0.876133,1.088235,2.927391,0.842182,2.807063
ProjEST,41,true,5.588958,6.168545,0.312967,0.193374,7.763095,7.023711,2.129549,3.035963,4.504954,4.560297,9.981973
ProjEST,42,true,3.486667,2.657866,0.743139,2.664304,4.872122,2.765038,0.858449,1.481607,1.525307,0.997484,4.528965
ProjEST,43,true,3.381833,2.524643,0.881094,2.106168,4.516996,3.212316,1.003421,0.663936,1.989325,2.158456,2.409339
ProjEST,44,true,3.503197,1.683012,0.472072,1.689639,4.938204,1.511593,1.023044,0.775647,3.664233,2.146516,3.151359
ProjEST,45,true,1.677917,0.552062,0.660485,2.054556,2.250613,0.802086,0.251848,0.086304,0.300145,0.800337,0.574685
ProjEST,46,true,2.572135,0.836127,0.940850,0.873318,3.706620,0.863955,0.481926,0.277707,1.363691,1.497742,2.130860
ProjEST,47,true,3.506497,0.914601,1.048530,0.433502,5.286448,0.860190,0.255546,0.845786,3.504257,1.512724,5.317018
ProjEST,48,true,4.164481,4.637860,0.742235,1.297168,5.060324,6.611903,2.691400,0.176010,5.975880,1.487307,0.400398
ProjEST,49,true,3.894767,2.775444,0.585894,0.865916,5.741762,2.227829,0.422451,1.639364,1.134570,2.825951,6.919047
ProjEST,50,true,2.588406,1.068242,2.001769,1.303902,3.350374,1.416728,0.354204,1.318222,0.571541,2.124690,0.914464
ProjEST,51,true,2.382002,1.537038,1.842156,0.438437,2.921248,1.502483,1.208952,0.126837,1.178492,1.633073,0.024095
ProjEST,52,true,3.094591,1.227361,1.194395,0.296009,4.196410,1.543781,0.501474,0.496036,0.321147,5.715893,0.998164
ProjEST,53,true,3.001120,0.823565,0.657840,0.458236,4.489932,0.823767,0.466475,0.621043,2.128616,0.909481,4.057336
ProjEST,54,true,5.040130,3.065263,0.516751,0.402208,7.363832,2.466130,0.478191,1.582927,8.139820,4.788401,7.947446
ProjEST,55,true,2.597702,1.282831,1.062913,0.992453,3.608844,1.338569,0.708944,0.447471,0.798631,1.431808,2.022630
ProjEST,56,true,4.436383,2.174624,0.554191,2.319681,6.613330,1.664197,0.639935,2.398154,1.814750,4.089018,9.075439
ProjEST,57,true,3.165764,2.343510,0.879279,0.452121,4.418357,1.897478,1.140246,1.259703,0.392349,1.557104,3.775183
ProjEST,58,true,5.245155,7.921517,0.584710,0.886689,6.914178,8.740290,3.188624,2.884463,3.924695,1.177633,7.595942
ProjEST,59,true,3.792823,2.579416,1.301730,0.695474,5.165963,2.913679,1.282321,2.857594,0.696962,1.665198,4.969752
ProjEST,60,true,4.836023,3.126258,0.813254,0.942528,6.820657,2.262223,3.869142,0.812384,7.360425,2.392055,6.690884
ProjEST,61,true,3.365653,1.043996,0.992239,1.094144,4.896847,0.801556,0.952396,0.374217,1.413305,4.334118,3.452030
ProjEST,62,true,3.869050,4.518428,0.840408,0.358577,5.150766,6.497515,1.973439,0.076316,0.495713,0.788004,5.138562
ProjEST,63,true,3.494922,2.596813,1.127908,1.224392,4.685049,4.035814,0.667107,0.336630,2.936945,1.677702,2.560280
ProjEST,64,true,3.012785,1.036050,1.284347,1.385766,4.326768,1.235238,0.426635,0.280629,3.350334,1.274357,2.509678
ProjEST,65,true,3.702559,2.635080,0.569927,0.850288,5.165225,1.460981,0.906007,2.689636,1.644226,2.689818,4.318279
ProjEST,66,true,5.283764,6.277885,0.549891,0.777970,7.122247,5.836276,2.341950,4.547189,2.751953,4.825314,7.615482
ProjEST,67,true,4.268661,3.673758,0.715229,0.793306,5.309774,6.141468,1.925418,0.709895,7.402263,1.514885,0.527541
ProjEST,68,true,4.413537,2.126324,0.362281,0.171701,6.496635,2.067566,0.685670,2.142909,3.587109,2.852269,8.143789
ProjEST,69,true,4.670701,2.959003,0.401552,1.164393,6.745599,1.821808,1.279083,3.806728,3.402019,2.725986,8.779826
ProjEST,70,true,3.575435,2.313780,0.685649,0.495003,5.229523,1.153202,0.730508,2.288901,0.970270,1.687805,5.953048
ProjEST,71,true,3.754498,2.098310,1.115152,1.009657,5.184120,2.278238,1.563932,1.413775,2.516173,2.385591,3.938542
ProjEST,72,true,2.310459,1.975579,1.993138,0.700534,2.674087,2.564452,0.867322,0.244925,0.711830,0.798695,0.150998
ProjEST,73,true,3.354371,2.505593,0.983840,0.219508,4.499295,3.258100,1.573937,0.846600,1.188679,0.965798,3.418687
ProjEST,74,true,2.631779,0.614236,1.325687,0.173339,3.869494,0.801842,0.743731,0.568272,0.527224,1.050889,3.234303
ProjEST,75,true,2.208718,1.215574,1.730107,1.507898,2.946337,1.318985,0.750818,0.174814,0.670315,0.794855,1.168647
ProjEST,76,true,3.325772,1.648803,0.398850,1.522935,4.818453,1.141970,0.621112,1.891323,1.204930,1.451052,4.750375
ProjEST,77,true,2.772531,1.009533,1.140035,0.427246,3.584547,1.637896,1.860747,0.897414,0.296084,1.123604,1.871181
ProjEST,78,true,3.329995,1.459919,0.712176,0.849693,4.793383,1.120088,0.830031,1.056260,3.198175,1.079152,3.805164
ProjEST,79,true,1.632797,0.619552,0.654163,2.298413,2.082009,0.800420,0.381802,0.103335,0.300153,0.792053,0.288264
ProjEST,80,true,3.228804,2.459505,0.581174,0.396331,4.486283,1.644876,0.676970,2.114312,0.875284,1.401185,3.712548
ProjEST,81,true,1.581223,0.540163,0.480973,0.118733,1.997762,0.803395,0.254192,0.049791,0.305418,0.989571,0.097900
ProjEST,82,true,2.669879,1.056339,1.644354,1.932241,3.902369,1.410747,0.513452,0.398120,0.586229,0.925416,3.294292
ProjEST,83,true,1.752089,0.915343,0.995771,0.192870,2.087297,0.835134,0.350311,0.665666,0.309283,0.841136,0.068287
ProjEST,84,true,3.198003,1.019332,1.029015,1.811857,4.549171,1.606486,1.217674,0.452690,2.634320,0.798686,3.517365
ProjEST,85,true,4.154354,4.530726,0.765944,3.283719,4.760102,7.514485,2.945172,1.550595,4.201706,0.895194,0.151505
ProjEST,86,true,3.318812,2.727919,1.172301,1.049426,4.248020,3.991856,1.075470,0.786931,0.565816,2.723524,1.870914
ProjEST,87,true,4.737592,2.040962,0.685661,0.183693,7.169820,2.262732,0.924690,1.881992,1.988170,3.801022,11.586172
ProjEST,88,true,4.491968,3.585658,0.817492,0.693169,5.925490,5.829082,2.296585,1.639193,3.167645,2.724526,4.520744
ProjEST,89,true,4.226705,1.615681,0.503800,1.382938,6.266126,1.278125,0.789300,1.896377,2.962296,3.440872,7.498064
ProjEST,90,true,2.048556,0.764216,1.225636,3.161448,2.640830,1.061659,0.254297,0.775920,0.626750,0.805262,0.672693
ProjEST,91,true,4.493000,1.454530,0.635856,0.327823,6.794825,1.663333,2.257785,0.591278,4.292016,1.074700,10.307942
ProjEST,92,true,4.715038,2.188264,0.588397,0.446250,6.881313,2.265148,0.572613,1.358244,5.635286,5.314966,7.085321
ProjEST,93,true,3.923191,2.486657,0.675908,4.798205,5.342935,1.452042,0.912707,2.617590,3.825421,3.837240,2.746431
ProjEST,94,true,2.644396,1.067465,0.978631,1.609590,3.658007,1.306947,0.451844,0.356112,1.458327,1.909334,1.510264
ProjEST,95,true,6.035554,7.119037,0.520284,1.842470,8.025916,8.791070,4.192490,3.039834,6.220260,6.601342,7.582911
ProjEST,96,true,3.227892,2.360421,0.961925,3.224132,4.378154,2.674948,0.934302,0.661978,2.688707,0.858456,2.600892
ProjEST,97,true,3.617423,3.095100,1.167215,0.935528,4.488539,4.545633,2.569025,1.244652,1.265786,1.125870,2.334786
ProjEST,98,true,4.308008,2.253486,1.080989,2.889485,5.495907,1.617197,2.674289,4.290369,3.573276,4.734817,1.668985
ProjEST,99,true,4.162646,3.474665,0.708829,1.284171,5.702510,3.876173,0.754652,2.744587,2.960191,1.753225,5.238792
ProjEST,100,true,3.072440,1.433074,1.078378,0.502963,4.343690,1.662582,1.007711,0.818840,0.951401,1.522345,3.477006
ProjEST,101,true,3.147850,1.273839,1.171810,0.432277,4.155729,2.097584,1.120810,1.317091,2.270184,1.115647,1.987646
ProjEST,102,true,2.101126,0.798589,0.661425,0.160984,2.697148,1.006847,0.596963,0.049967,1.789714,0.872316,0.098925
ProjEST,103,true,2.880403,1.786032,1.355627,0.262985,3.816226,2.226943,1.494996,0.148190,0.895901,1.690433,1.840261
ProjEST,104,true,3.407987,1.299524,1.063540,0.349228,4.962869,1.933744,0.597393,0.327969,2.356169,2.138672,4.260428
ProjEST,105,true,3.086776,1.340844,0.834140,0.671006,4.452703,1.492544,0.325362,1.028932,0.912908,2.151407,3.617031
ProjEST,106,true,3.171041,2.714727,1.121449,1.193127,4.153037,3.783411,0.656406,1.154208,0.926154,0.804578,2.730741
ProjEST,107,true,3.511059,1.947039,0.926882,0.127354,5.047494,1.686189,1.270543,0.863784,1.361583,2.502809,4.642631
ProjEST,108,false,0,0,0,0,0,0,0,0,0,0,0
ProjEST,109,true,3.651592,0.922171,1.003518,0.991685,5.645671,0.802379,0.670996,1.071583,0.479883,2.558981,7.750306
ProjEST,110,true,3.673418,2.535927,0.908000,0.946753,5.215568,1.643807,0.532977,3.308730,0.752391,1.556437,5.699660
ProjEST,111,false,0,0,0,0,0,0,0,0,0,0,0
ProjEST,112,true,2.457981,0.816648,1.285597,3.218459,3.261928,1.361019,0.915737,0.792780,0.295380,1.050386,1.626369
ProjEST,113,true,3.779201,2.411560,0.367853,0.991224,5.353931,1.638493,0.596297,2.947210,2.611617,1.206874,5.281866
ProjEST,114,true,4.615818,1.838463,0.598871,0.201463,6.783566,1.958667,1.156087,0.420739,5.859601,4.969984,6.940701
ProjEST,115,true,3.035932,2.418526,1.122760,0.324856,4.193079,3.012901,0.798900,0.166855,0.306075,1.805347,3.126805
ProjEST,116,true,3.862313,2.558078,0.735689,0.456148,5.479901,1.430155,0.627749,3.767244,1.366692,1.706087,6.019537
ProjEST,117,true,4.281245,2.626783,0.366123,2.051564,6.181683,2.114312,0.599779,2.691268,3.652106,2.311154,6.960442
ProjEST,118,true,3.245725,2.217433,0.779704,2.250169,4.237909,2.513615,1.154313,1.235092,2.145029,1.693251,1.793430
ProjEST,119,true,3.802380,2.317593,0.530319,0.237505,5.511555,2.807601,0.889162,0.818105,1.651865,2.315437,5.975921
ProjEST,120,true,3.685233,1.555289,0.728928,0.213381,5.687196,1.914410,1.042169,0.429703,0.684704,0.941353,8.568602
ProjEST,121,true,3.707099,3.002794,0.958291,2.305323,5.210135,3.453763,1.336606,0.647482,2.089671,1.116871,5.098191
ProjEST,122,true,3.323762,2.570488,1.030181,0.699548,4.419320,3.238984,1.208943,0.293113,0.317690,3.812029,2.176636
ProjEST,123,true,3.388409,1.122515,1.273521,0.123356,5.055835,1.128844,0.929396,0.225034,2.963639,1.352295,4.882109
ProjEST,124,true,3.311627,1.834723,1.181400,0.635678,4.640802,2.738020,0.825510,0.831827,0.952059,1.620795,3.998660
ProjEST,125,true,3.857588,2.204382,0.600119,1.072591,5.656820,1.211096,1.898393,1.176063,2.165873,1.906371,6.523191
ProjEST,126,true,5.166586,2.901909,0.279964,1.564119,7.479718,2.537669,1.701525,3.961601,5.977526,1.755539,10.759750
ProjEST,127,true,2.562520,1.161906,1.384896,1.177042,3.511091,1.346484,1.081394,0.396400,0.654211,1.068990,2.019027
ProjEST,128,true,4.321341,2.383793,1.211214,1.071573,5.598051,3.954734,2.501603,2.336481,2.451660,4.646504,2.783009
ProjEST,129,false,0,0,0,0,0,0,0,0,0,0,0
ProjEST,130,true,2.900499,1.718621,0.733955,1.919654,4.013546,2.065595,1.115497,0.240340,1.314481,0.972785,2.704196
ProjEST,131,true,2.606837,1.127616,1.395118,1.455231,3.567324,1.526357,0.643956,0.936583,0.657449,0.789748,2.241504
ProjEST,132,true,2.354612,0.870765,1.410551,1.956860,2.945682,1.425352,0.798597,0.914977,0.868896,0.808808,0.727570
ProjEST,133,true,4.963016,2.850828,0.521786,2.437663,7.408984,1.503226,2.557194,1.542986,7.005635,0.789105,11.233384
ProjEST,134,true,3.814919,2.484063,0.630818,0.692905,5.432147,2.797753,1.187390,0.861672,1.551905,2.907062,5.247825
ProjEST,135,true,3.159784,1.719020,0.649602,0.879510,4.536894,1.306999,1.085196,0.824854,1.875425,1.059777,3.831986
ProjEST,136,true,3.930184,1.852081,0.772394,2.968783,5.400496,2.064550,1.299205,0.865916,6.085302,2.629032,2.502340
ProjEST,137,true,2.958580,1.372607,1.506022,4.250550,4.239236,1.174709,1.289144,0.398624,1.112616,1.450902,3.327203
ProjEST,138,true,1.620121,0.569573,0.684878,0.416098,2.041348,0.802373,0.253660,0.054604,0.677832,0.808169,0.028155
ProjEST,139,true,3.558210,1.538065,0.850244,0.858241,5.182628,1.471636,0.294930,1.579801,3.207979,1.222225,4.884287
ProjEST,140,true,3.410103,2.213391,0.688283,0.136547,4.591033,1.846101,0.498099,2.281767,3.189670,1.367213,2.445950
ProjEST,141,true,5.962455,7.088811,0.542687,1.916248,8.054893,9.553594,3.768079,1.248527,4.221666,8.409254,8.349752
ProjEST,142,true,4.868650,4.545794,0.300707,0.348998,6.700440,4.376923,1.773914,3.373817,4.850813,2.315237,7.013049
ProjEST,143,true,1.855129,0.749553,1.143871,0.977275,2.493811,0.801748,0.274753,0.054546,0.542244,1.301080,0.467133
ProjEST,144,true,4.640689,1.266139,0.664284,0.404266,7.006738,2.267608,0.903368,0.940807,5.193955,2.096079,10.134176
ProjEST,145,true,3.262277,0.798294,0.986527,0.122666,4.916862,0.801570,0.974060,0.848666,0.857540,1.645689,5.514927
ProjEST,146,true,3.899207,3.391044,1.271667,2.233220,5.107949,2.119312,3.177547,1.670904,2.961696,2.623068,2.651286
ProjEST,147,true,4.769135,5.098254,0.795191,3.425351,6.641862,4.266778,2.516783,2.239579,3.007438,3.065910,7.648163
ProjEST,148,false,0,0,0,0,0,0,0,0,0,0,0
ProjEST,149,true,2.897093,1.375280,1.313669,0.377528,3.980065,1.773198,0.724809,0.598889,1.244476,1.900267,2.151512
ProjEST,150,true,4.197462,1.205772,0.688143,0.450574,6.274310,1.954835,2.794693,1.445339,0.295174,0.804183,10.324463
