{
    "goal": {
        "global_pose": {
            "orientation": {
                "w": -0.00223480608172531,
                "x": 0.0024358444001904467,
                "y": 0.7094548369677653,
                "z": -0.704743149386269
            },
            "position": {
                "x": -0.37947507619857795,
                "y": -0.6371506643295288,
                "z": 0.19426114857196808
            }
        },
        "name": "move_to_magneteinheit_C"
    },
    "id": "BKPIECE_move_to_magneteinheit_C_28",
    "joint_names": [
        "shoulder_pan_joint",
        "shoulder_lift_joint",
        "elbow_joint",
        "wrist_1_joint",
        "wrist_2_joint",
        "wrist_3_joint"
    ],
    "metrics": {
        "cart_traj_len": 6.583420186901347,
        "distance_elbow_joint": 1.689485585000395,
        "distance_shoulder_lift_joint": 3.6344279684517096,
        "distance_shoulder_pan_joint": 10.062876692105988,
        "distance_wrist_1_joint": 1.697623404960996,
        "distance_wrist_2_joint": 7.829855530950744,
        "distance_wrist_3_joint": 5.8397549385218674,
        "smoothness": 0.6198280256821531,
        "time": 0.48544934500000003,
        "traj_len": 5.545631084014847,
        "weighted_distance": 7.208398777325456
    },
    "planner": "BKPIECE",
    "start": {
        "state": {
            "elbow_joint": 1.9565354006593851,
            "shoulder_lift_joint": -1.4165861576512813,
            "shoulder_pan_joint": -1.6717766223278752,
            "wrist_1_joint": -0.528663328821883,
            "wrist_2_joint": 1.472756589259273,
            "wrist_3_joint": 3.159348288315503
        }
    },
    "waypoints": [
        {
            "positions": [
                -1.6717766223278752,
                -1.4165861576512813,
                1.9565354006593851,
                -0.528663328821883,
                1.472756589259273,
                3.159348288315503
            ]
        },
        {
            "positions": [
                -1.6355443800830392,
                -1.4955785079492487,
                2.008721281550717,
                -0.4711466611960844,
                1.463677457522061,
                3.0611411657509895
            ]
        },
        {
            "positions": [
                -1.5993121378382031,
                -1.5745708582472162,
                2.060907162442049,
                -0.4136299935702858,
                1.454598325784849,
                2.962934043186476
            ]
        },
        {
            "positions": [
                -1.5630798955933671,
                -1.6535632085451837,
                2.113093043333381,
                -0.35611332594448714,
                1.4455191940476368,
                2.8647269206219623
            ]
        },
        {
            "positions": [
                -1.4636534724591892,
                -1.6217207510744067,
                2.0312105164073726,
                -0.4151895985482265,
                1.420007115272889,
                2.791186129554764
            ]
        },
        {
            "positions": [
                -1.364227049325011,
                -1.5898782936036295,
                1.949327989481364,
                -0.47426587115196583,
                1.3944950364981412,
                2.7176453384875656
            ]
        },
        {
            "positions": [
                -1.264800626190833,
                -1.5580358361328526,
                1.8674454625553554,
                -0.5333421437557052,
                1.3689829577233934,
                2.6441045474203673
            ]
        },
        {
            "positions": [
                -1.1653742030566552,
                -1.5261933786620756,
                1.785562935629347,
                -0.5924184163594446,
                1.3434708789486456,
                2.570563756353169
            ]
        },
        {
            "positions": [
                -1.0659477799224772,
                -1.4943509211912986,
                1.7036804087033384,
                -0.6514946889631839,
                1.3179588001738978,
                2.4970229652859706
            ]
        },
        {
            "positions": [
                -0.9665213567882992,
                -1.4625084637205215,
                1.6217978817773298,
                -0.7105709615669232,
                1.2924467213991497,
                2.4234821742187718
            ]
        },
        {
            "positions": [
                -0.8670949336541212,
                -1.4306660062497445,
                1.5399153548513214,
                -0.7696472341706626,
                1.266934642624402,
                2.3499413831515734
            ]
        },
        {
            "positions": [
                -0.7676685105199431,
                -1.3988235487789673,
                1.4580328279253127,
                -0.828723506774402,
                1.241422563849654,
                2.276400592084375
            ]
        },
        {
            "positions": [
                -0.6682420873857651,
                -1.3669810913081903,
                1.3761503009993041,
                -0.8877997793781414,
                1.2159104850749063,
                2.2028598010171767
            ]
        },
        {
            "positions": [
                -0.5688156642515871,
                -1.3351386338374134,
                1.2942677740732957,
                -0.9468760519818807,
                1.1903984063001585,
                2.1293190099499784
            ]
        },
        {
            "positions": [
                -0.45126378027200853,
                -1.3835840401823256,
                1.304919597269874,
                -0.9604200599609963,
                1.055819161927681,
                2.0656793813990153
            ]
        },
        {
            "positions": [
                -0.33371189629243,
                -1.432029446527238,
                1.3155714204664524,
                -0.973964067940112,
                0.9212399175552036,
                2.0020397528480522
            ]
        },
        {
            "positions": [
                -0.21616001231285137,
                -1.4804748528721503,
                1.3262232436630306,
                -0.9875080759192276,
                0.7866606731827261,
                1.9384001242970887
            ]
        },
        {
            "positions": [
                -0.09860812833327282,
                -1.5289202592170628,
                1.3368750668596088,
                -1.0010520838983432,
                0.6520814288102488,
                1.8747604957461257
            ]
        },
        {
            "positions": [
                0.018943755646305682,
                -1.577365665561975,
                1.347526890056187,
                -1.014596091877459,
                0.5175021844377714,
                1.8111208671951626
            ]
        },
        {
            "positions": [
                0.1364956396258844,
                -1.6258110719068875,
                1.3581787132527654,
                -1.0281400998565746,
                0.3829229400652938,
                1.7474812386441994
            ]
        },
        {
            "positions": [
                0.2540475236054629,
                -1.6742564782517997,
                1.3688305364493436,
                -1.0416841078356902,
                0.24834369569281645,
                1.683841610093236
            ]
        },
        {
            "positions": [
                0.3715994075850415,
                -1.7227018845967121,
                1.3794823596459218,
                -1.0552281158148058,
                0.11376445132033908,
                1.620201981542273
            ]
        },
        {
            "positions": [
                0.4891512915646201,
                -1.7711472909416244,
                1.3901341828425,
                -1.0687721237939214,
                -0.020814793052138292,
                1.55656235299131
            ]
        },
        {
            "positions": [
                0.6067031755441985,
                -1.8195926972865366,
                1.4007860060390784,
                -1.0823161317730372,
                -0.15539403742461566,
                1.4929227244403467
            ]
        },
        {
            "positions": [
                0.7242550595237771,
                -1.868038103631449,
                1.4114378292356566,
                -1.0958601397521528,
                -0.28997328179709303,
                1.4292830958893834
            ]
        },
        {
            "positions": [
                0.8418069435033559,
                -1.9164835099763615,
                1.4220896524322348,
                -1.1094041477312684,
                -0.42455252616957084,
                1.3656434673384203
            ]
        },
        {
            "positions": [
                0.9593588274829346,
                -1.9649289163212738,
                1.4327414756288133,
                -1.122948155710384,
                -0.5591317705420482,
                1.302003838787457
            ]
        },
        {
            "positions": [
                1.076910711462513,
                -2.013374322666186,
                1.4433932988253915,
                -1.1364921636894998,
                -0.6937110149145256,
                1.2383642102364938
            ]
        },
        {
            "positions": [
                1.1944625954420915,
                -2.0618197290110984,
                1.4540451220219697,
                -1.1500361716686154,
                -0.828290259287003,
                1.1747245816855307
            ]
        },
        {
            "positions": [
                1.3120144794216702,
                -2.110265135356011,
                1.4646969452185479,
                -1.163580179647731,
                -0.9628695036594803,
                1.1110849531345677
            ]
        },
        {
            "positions": [
                1.4295663634012485,
                -2.1587105417009234,
                1.475348768415126,
                -1.1771241876268466,
                -1.0974487480319577,
                1.0474453245836044
            ]
        },
        {
            "positions": [
                1.5471182473808274,
                -2.2071559480458354,
                1.4860005916117045,
                -1.1906681956059622,
                -1.232027992404435,
                0.9838056960326413
            ]
        },
        {
            "positions": [
                1.6646701313604055,
                -2.255601354390748,
                1.4966524148082827,
                -1.2042122035850777,
                -1.3666072367769124,
                0.9201660674816781
            ]
        },
        {
            "positions": [
                1.7822220153399841,
                -2.30404676073566,
                1.507304238004861,
                -1.2177562115641936,
                -1.5011864811493898,
                0.856526438930715
            ]
        },
        {
            "positions": [
                1.8997738993195628,
                -2.3524921670805723,
                1.5179560612014393,
                -1.2313002195433091,
                -1.6357657255218672,
                0.7928868103797517
            ]
        },
        {
            "positions": [
                2.0173257832991416,
                -2.4009375734254848,
                1.5286078843980175,
                -1.2448442275224247,
                -1.7703449698943445,
                0.7292471818287887
            ]
        },
        {
            "positions": [
                2.1348776672787206,
                -2.449382979770397,
                1.5392597075945957,
                -1.2583882355015406,
                -1.9049242142668228,
                0.6656075532778252
            ]
        },
        {
            "positions": [
                2.252429551258299,
                -2.4978283861153097,
                1.549911530791174,
                -1.2719322434806561,
                -2.0395034586393,
                0.6019679247268621
            ]
        },
        {
            "positions": [
                2.369981435237878,
                -2.546273792460222,
                1.5605633539877524,
                -1.2854762514597717,
                -2.1740827030117775,
                0.5383282961758988
            ]
        },
        {
            "positions": [
                2.487533319217456,
                -2.594719198805134,
                1.5712151771843306,
                -1.2990202594388873,
                -2.308661947384255,
                0.4746886676249358
            ]
        },
        {
            "positions": [
                2.605085203197034,
                -2.6431646051500466,
                1.5818670003809088,
                -1.312564267418003,
                -2.4432411917567323,
                0.4110490390739725
            ]
        },
        {
            "positions": [
                2.7226370871766132,
                -2.6916100114949586,
                1.5925188235774872,
                -1.3261082753971185,
                -2.5778204361292096,
                0.34740941052300944
            ]
        },
        {
            "positions": [
                2.8401889711561914,
                -2.740055417839871,
                1.6031706467740654,
                -1.3396522833762343,
                -2.712399680501687,
                0.28376978197204616
            ]
        },
        {
            "positions": [
                2.9577408551357705,
                -2.7885008241847835,
                1.6138224699706436,
                -1.35319629135535,
                -2.846978924874164,
                0.2201301534210831
            ]
        },
        {
            "positions": [
                2.8108933087940855,
                -2.744563955198225,
                1.624485928813048,
                -1.338926279553384,
                -2.752110816311534,
                0.29852304000560864
            ]
        },
        {
            "positions": [
                2.664045762452401,
                -2.7006270862116666,
                1.6351493876554526,
                -1.3246562677514182,
                -2.6572427077489045,
                0.3769159265901342
            ]
        },
        {
            "positions": [
                2.517198216110716,
                -2.6566902172251083,
                1.645812846497857,
                -1.3103862559494523,
                -2.5623745991862745,
                0.45530881317465977
            ]
        },
        {
            "positions": [
                2.3703506697690315,
                -2.6127533482385497,
                1.6564763053402616,
                -1.2961162441474863,
                -2.467506490623645,
                0.5337016997591852
            ]
        },
        {
            "positions": [
                2.2235031234273466,
                -2.568816479251991,
                1.667139764182666,
                -1.2818462323455204,
                -2.372638382061015,
                0.6120945863437108
            ]
        },
        {
            "positions": [
                2.0766555770856616,
                -2.5248796102654327,
                1.6778032230250706,
                -1.2675762205435546,
                -2.277770273498385,
                0.6904874729282364
            ]
        },
        {
            "positions": [
                1.9298080307439769,
                -2.4809427412788745,
                1.688466681867475,
                -1.2533062087415887,
                -2.182902164935755,
                0.7688803595127619
            ]
        },
        {
            "positions": [
                1.7829604844022922,
                -2.437005872292316,
                1.6991301407098796,
                -1.2390361969396229,
                -2.0880340563731257,
                0.8472732460972874
            ]
        },
        {
            "positions": [
                1.6361129380606072,
                -2.393069003305757,
                1.709793599552284,
                -1.224766185137657,
                -1.9931659478104957,
                0.925666132681813
            ]
        },
        {
            "positions": [
                1.4892653917189225,
                -2.349132134319199,
                1.7204570583946885,
                -1.2104961733356912,
                -1.8982978392478662,
                1.0040590192663386
            ]
        },
        {
            "positions": [
                1.3424178453772377,
                -2.3051952653326406,
                1.731120517237093,
                -1.1962261615337253,
                -1.8034297306852363,
                1.082451905850864
            ]
        },
        {
            "positions": [
                1.195570299035553,
                -2.261258396346082,
                1.7417839760794975,
                -1.1819561497317594,
                -1.7085616221226065,
                1.1608447924353897
            ]
        },
        {
            "positions": [
                1.048722752693868,
                -2.2173215273595233,
                1.752447434921902,
                -1.1676861379297934,
                -1.6136935135599768,
                1.239237679019915
            ]
        },
        {
            "positions": [
                0.9018752063521833,
                -2.173384658372965,
                1.7631108937643063,
                -1.1534161261278275,
                -1.5188254049973469,
                1.3176305656044407
            ]
        },
        {
            "positions": [
                0.7550276600104984,
                -2.1294477893864068,
                1.773774352606711,
                -1.1391461143258617,
                -1.4239572964347171,
                1.3960234521889663
            ]
        },
        {
            "positions": [
                0.6081801136688139,
                -2.085510920399848,
                1.7844378114491153,
                -1.1248761025238958,
                -1.3290891878720874,
                1.4744163387734917
            ]
        },
        {
            "positions": [
                0.4613325673271289,
                -2.0415740514132894,
                1.79510127029152,
                -1.11060609072193,
                -1.2342210793094575,
                1.5528092253580172
            ]
        },
        {
            "positions": [
                0.31448502098544395,
                -1.9976371824267312,
                1.8057647291339243,
                -1.096336078919964,
                -1.1393529707468277,
                1.6312021119425428
            ]
        },
        {
            "positions": [
                0.1676374746437599,
                -1.9537003134401727,
                1.8164281879763289,
                -1.0820660671179982,
                -1.0444848621841982,
                1.7095949985270682
            ]
        },
        {
            "positions": [
                0.02078992830207449,
                -1.9097634444536142,
                1.8270916468187333,
                -1.0677960553160322,
                -0.9496167536215683,
                1.787987885111594
            ]
        },
        {
            "positions": [
                -0.12605761803961002,
                -1.8658265754670558,
                1.8377551056611379,
                -1.0535260435140663,
                -0.8547486450589385,
                1.8663807716961194
            ]
        },
        {
            "positions": [
                -0.272905164381295,
                -1.8218897064804973,
                1.8484185645035422,
                -1.0392560317121005,
                -0.7598805364963086,
                1.944773658280645
            ]
        },
        {
            "positions": [
                -0.4197527107229795,
                -1.7779528374939388,
                1.8590820233459469,
                -1.0249860199101346,
                -0.6650124279336791,
                2.0231665448651706
            ]
        },
        {
            "positions": [
                -0.5666002570646644,
                -1.7340159685073804,
                1.8697454821883512,
                -1.0107160081081688,
                -0.5701443193710491,
                2.1015594314496964
            ]
        },
        {
            "positions": [
                -0.713447803406349,
                -1.690079099520822,
                1.8804089410307556,
                -0.9964459963062029,
                -0.47527621080841964,
                2.1799523180342213
            ]
        },
        {
            "positions": [
                -0.8602953497480343,
                -1.6461422305342635,
                1.8910723998731602,
                -0.982175984504237,
                -0.3804081022457897,
                2.258345204618747
            ]
        },
        {
            "positions": [
                -1.0071428960897189,
                -1.602205361547705,
                1.9017358587155648,
                -0.9679059727022712,
                -0.28553999368315974,
                2.3367380912032725
            ]
        },
        {
            "positions": [
                -1.1539904424314038,
                -1.5582684925611465,
                1.9123993175579692,
                -0.9536359609003052,
                -0.1906718851205298,
                2.4151309777877983
            ]
        },
        {
            "positions": [
                -1.3008379887730879,
                -1.514331623574588,
                1.9230627764003736,
                -0.9393659490983394,
                -0.09580377655790029,
                2.4935238643723237
            ]
        },
        {
            "positions": [
                -1.4476855351147737,
                -1.4703947545880296,
                1.9337262352427782,
                -0.9250959372963734,
                -0.0009356679952703395,
                2.5719167509568495
            ]
        },
        {
            "positions": [
                -1.5945330814564578,
                -1.4264578856014711,
                1.9443896940851826,
                -0.9108259254944076,
                0.09393244056735917,
                2.650309637541375
            ]
        },
        {
            "positions": [
                -1.7413806277981427,
                -1.3825210166149127,
                1.9550531529275872,
                -0.8965559136924417,
                0.18880054912998911,
                2.7287025241259
            ]
        },
        {
            "positions": [
                -1.8882281741398277,
                -1.3385841476283542,
                1.9657166117699916,
                -0.8822859018904758,
                0.2836686576926186,
                2.8070954107104256
            ]
        },
        {
            "positions": [
                -2.0350757204815126,
                -1.2946472786417957,
                1.9763800706123962,
                -0.86801589008851,
                0.378536766255249,
                2.8854882972949514
            ]
        },
        {
            "positions": [
                -2.1819232668231967,
                -1.2507104096552373,
                1.9870435294548006,
                -0.8537458782865441,
                0.4734048748178785,
                2.9638811838794767
            ]
        },
        {
            "positions": [
                -2.3287708131648825,
                -1.2067735406686788,
                1.9977069882972052,
                -0.8394758664845782,
                0.5682729833805085,
                3.0422740704640026
            ]
        },
        {
            "positions": [
                -2.475618359506566,
                -1.1628366716821203,
                2.0083704471396095,
                -0.8252058546826123,
                0.6631410919431379,
                3.120666957048528
            ]
        }
    ]
}