{
    "goal": {
        "global_pose": {
            "orientation": {
                "w": 0.7047431493862688,
                "x": -0.7094548369677653,
                "y": 0.0024358444001904,
                "z": -0.0022348060817251984
            },
            "position": {
                "x": -0.39052492380142206,
                "y": 0.3671506643295288,
                "z": 0.19426114857196808
            }
        },
        "name": "move_to_magneteinheit_D"
    },
    "id": "BKPIECE_move_to_magneteinheit_D_28",
    "joint_names": [
        "shoulder_pan_joint",
        "shoulder_lift_joint",
        "elbow_joint",
        "wrist_1_joint",
        "wrist_2_joint",
        "wrist_3_joint"
    ],
    "metrics": {
        "cart_traj_len": 4.989630404884057,
        "distance_elbow_joint": 3.0919840741177715,
        "distance_shoulder_lift_joint": 1.5920717567848015,
        "distance_shoulder_pan_joint": 3.96756784778431,
        "distance_wrist_1_joint": 3.06870639236134,
        "distance_wrist_2_joint": 0.8066651900515133,
        "distance_wrist_3_joint": 6.244851256099057,
        "smoothness": 0.511110513892668,
        "time": 0.254193059,
        "traj_len": 4.332648903061358,
        "weighted_distance": 5.927640391573174
    },
    "planner": "BKPIECE",
    "start": {
        "state": {
            "elbow_joint": 0.7495348899011911,
            "shoulder_lift_joint": -0.6476975780737668,
            "shoulder_pan_joint": -2.711696901376276,
            "wrist_1_joint": -0.0750647808097303,
            "wrist_2_joint": 0.43296659715458535,
            "wrist_3_joint": 3.1361499051832418
        }
    },
    "waypoints": [
        {
            "positions": [
                -2.711696901376276,
                -0.6476975780737668,
                0.7495348899011911,
                -0.0750647808097303,
                0.43296659715458535,
                3.1361499051832418
            ]
        },
        {
            "positions": [
                -2.7337008670866645,
                -0.7405534608899408,
                0.6153948606996369,
                0.002676070407163056,
                0.39293273825920816,
                3.14905111907514
            ]
        },
        {
            "positions": [
                -2.755704832797053,
                -0.8334093437061147,
                0.4812548314980828,
                0.0804169216240564,
                0.35289887936383096,
                3.161952332967038
            ]
        },
        {
            "positions": [
                -2.6765225577646157,
                -0.8618311175790467,
                0.4149960749075652,
                0.016296119627811884,
                0.33764071830477244,
                3.0207406352816344
            ]
        },
        {
            "positions": [
                -2.5973402827321785,
                -0.8902528914519786,
                0.3487373183170476,
                -0.04782468236843264,
                0.32238255724571396,
                2.8795289375962314
            ]
        },
        {
            "positions": [
                -2.518158007699741,
                -0.9186746653249105,
                0.28247856172652996,
                -0.11194548436467712,
                0.30712439618665544,
                2.738317239910828
            ]
        },
        {
            "positions": [
                -2.438975732667304,
                -0.9470964391978425,
                0.2162198051360123,
                -0.1760662863609217,
                0.29186623512759696,
                2.5971055422254246
            ]
        },
        {
            "positions": [
                -2.3597934576348667,
                -0.9755182130707745,
                0.1499610485454947,
                -0.24018708835716618,
                0.2766080740685385,
                2.4558938445400216
            ]
        },
        {
            "positions": [
                -2.2806111826024296,
                -1.0039399869437062,
                0.08370229195497708,
                -0.30430789035341066,
                0.26134991300947996,
                2.314682146854618
            ]
        },
        {
            "positions": [
                -2.2014289075699924,
                -1.0323617608166382,
                0.017443535364459417,
                -0.36842869234965525,
                0.24609175195042143,
                2.1734704491692147
            ]
        },
        {
            "positions": [
                -2.1222466325375553,
                -1.0607835346895702,
                -0.04881522122605819,
                -0.4325494943458998,
                0.23083359089136296,
                2.0322587514838117
            ]
        },
        {
            "positions": [
                -2.043064357505118,
                -1.0892053085625022,
                -0.1150739778165758,
                -0.49667029634214427,
                0.21557542983230446,
                1.8910470537984083
            ]
        },
        {
            "positions": [
                -1.9638820824726806,
                -1.1176270824354342,
                -0.1813327344070934,
                -0.5607910983383887,
                0.20031726877324596,
                1.749835356113005
            ]
        },
        {
            "positions": [
                -1.8846998074402435,
                -1.146048856308366,
                -0.24759149099761113,
                -0.6249119003346333,
                0.18505910771418743,
                1.6086236584276017
            ]
        },
        {
            "positions": [
                -1.8055175324078063,
                -1.174470630181298,
                -0.31385024758812863,
                -0.6890327023308777,
                0.16980094665512896,
                1.4674119607421985
            ]
        },
        {
            "positions": [
                -1.7263352573753692,
                -1.20289240405423,
                -0.38010900417864635,
                -0.7531535043271222,
                0.15454278559607046,
                1.326200263056795
            ]
        },
        {
            "positions": [
                -1.6471529823429318,
                -1.231314177927162,
                -0.44636776076916396,
                -0.8172743063233668,
                0.13928462453701193,
                1.1849885653713916
            ]
        },
        {
            "positions": [
                -1.5679707073104947,
                -1.2597359518000937,
                -0.5126265173596816,
                -0.8813951083196112,
                0.12402646347795346,
                1.0437768676859887
            ]
        },
        {
            "positions": [
                -1.4887884322780573,
                -1.2881577256730257,
                -0.5788852739501992,
                -0.9455159103158559,
                0.10876830241889493,
                0.9025651700005852
            ]
        },
        {
            "positions": [
                -1.4096061572456202,
                -1.3165794995459577,
                -0.6451440305407167,
                -1.0096367123121002,
                0.09351014135983649,
                0.7613534723151822
            ]
        },
        {
            "positions": [
                -1.330423882213183,
                -1.3450012734188896,
                -0.7114027871312344,
                -1.0737575143083449,
                0.07825198030077796,
                0.6201417746297788
            ]
        },
        {
            "positions": [
                -1.2512416071807457,
                -1.3734230472918214,
                -0.7776615437217521,
                -1.1378783163045894,
                0.06299381924171943,
                0.4789300769443754
            ]
        },
        {
            "positions": [
                -1.1720593321483086,
                -1.4018448211647534,
                -0.8439203003122696,
                -1.2019991183008338,
                0.047735658182660956,
                0.33771837925897197
            ]
        },
        {
            "positions": [
                -1.0928770571158715,
                -1.4302665950376854,
                -0.9101790569027873,
                -1.2661199202970783,
                0.03247749712360243,
                0.196506681573569
            ]
        },
        {
            "positions": [
                -1.013694782083434,
                -1.4586883689106174,
                -0.976437813493305,
                -1.330240722293323,
                0.0172193360645439,
                0.05529498388816556
            ]
        },
        {
            "positions": [
                -0.9345125070509968,
                -1.4871101427835494,
                -1.0426965700838227,
                -1.3943615242895675,
                0.001961175005485427,
                -0.08591671379723786
            ]
        },
        {
            "positions": [
                -0.8553302320185598,
                -1.5155319166564811,
                -1.10895532667434,
                -1.4584823262858118,
                -0.013296986053573046,
                -0.22712841148264085
            ]
        },
        {
            "positions": [
                -0.7761479569861227,
                -1.5439536905294131,
                -1.1752140832648577,
                -1.5226031282820562,
                -0.028555147112631574,
                -0.36834010916804427
            ]
        },
        {
            "positions": [
                -0.6969656819536856,
                -1.572375464402345,
                -1.2414728398553754,
                -1.586723930278301,
                -0.043813308171690046,
                -0.5095518068534477
            ]
        },
        {
            "positions": [
                -0.617783406921248,
                -1.6007972382752769,
                -1.307731596445893,
                -1.6508447322745454,
                -0.059071469230748574,
                -0.6507635045388511
            ]
        },
        {
            "positions": [
                -0.5386011318888109,
                -1.629219012148209,
                -1.3739903530364108,
                -1.7149655342707901,
                -0.0743296302898071,
                -0.7919752022242545
            ]
        },
        {
            "positions": [
                -0.45941885685637374,
                -1.6576407860211408,
                -1.440249109626928,
                -1.7790863362670344,
                -0.08958779134886552,
                -0.9331868999096575
            ]
        },
        {
            "positions": [
                -0.3802365818239366,
                -1.6860625598940726,
                -1.5065078662174458,
                -1.8432071382632789,
                -0.10484595240792405,
                -1.0743985975950605
            ]
        },
        {
            "positions": [
                -0.30105430679149947,
                -1.7144843337670048,
                -1.5727666228079635,
                -1.9073279402595236,
                -0.12010411346698258,
                -1.2156102952804644
            ]
        },
        {
            "positions": [
                -0.2218720317590619,
                -1.7429061076399366,
                -1.6390253793984813,
                -1.9714487422557683,
                -0.1353622745260411,
                -1.3568219929658674
            ]
        },
        {
            "positions": [
                -0.14268975672662476,
                -1.7713278815128686,
                -1.705284135988999,
                -2.035569544252013,
                -0.15062043558509958,
                -1.4980336906512712
            ]
        },
        {
            "positions": [
                -0.06350748169418763,
                -1.7997496553858006,
                -1.7715428925795162,
                -2.099690346248257,
                -0.165878596644158,
                -1.6392453883366733
            ]
        },
        {
            "positions": [
                0.015674793338249504,
                -1.8281714292587323,
                -1.837801649170034,
                -2.1638111482445015,
                -0.18113675770321652,
                -1.7804570860220772
            ]
        },
        {
            "positions": [
                0.09485706837068664,
                -1.8565932031316643,
                -1.9040604057605517,
                -2.2279319502407464,
                -0.19639491876227505,
                -1.9216687837074802
            ]
        },
        {
            "positions": [
                0.17403934340312377,
                -1.8850149770045963,
                -1.9703191623510694,
                -2.292052752236991,
                -0.21165307982133358,
                -2.062880481392884
            ]
        },
        {
            "positions": [
                0.25322161843556135,
                -1.9134367508775283,
                -2.036577918941587,
                -2.3561735542332354,
                -0.2269112408803921,
                -2.204092179078287
            ]
        },
        {
            "positions": [
                0.33240389346799804,
                -1.94185852475046,
                -2.1028366755321044,
                -2.42029435622948,
                -0.24216940193945052,
                -2.34530387676369
            ]
        },
        {
            "positions": [
                0.4115861685004356,
                -1.970280298623392,
                -2.169095432122622,
                -2.4844151582257243,
                -0.25742756299850905,
                -2.486515574449094
            ]
        },
        {
            "positions": [
                0.49076844353287263,
                -1.998702072496324,
                -2.23535418871314,
                -2.548535960221969,
                -0.2726857240575675,
                -2.627727272134497
            ]
        },
        {
            "positions": [
                0.35535111552615106,
                -1.9504886200238751,
                -2.256773187813828,
                -2.491681598605663,
                -0.2524831502896955,
                -2.713601116777242
            ]
        },
        {
            "positions": [
                0.21993378751942955,
                -1.9022751675514262,
                -2.278192186914516,
                -2.4348272369893573,
                -0.23228057652182343,
                -2.799474961419987
            ]
        },
        {
            "positions": [
                0.08451645951270809,
                -1.8540617150789775,
                -2.2996111860152038,
                -2.3779728753730516,
                -0.2120780027539514,
                -2.885348806062732
            ]
        },
        {
            "positions": [
                -0.05090086849401354,
                -1.8058482626065286,
                -2.321030185115892,
                -2.321118513756746,
                -0.19187542898607932,
                -2.9712226507054775
            ]
        },
        {
            "positions": [
                -0.18631819650073503,
                -1.7576348101340797,
                -2.34244918421658,
                -2.26426415214044,
                -0.17167285521820727,
                -3.0570964953482225
            ]
        }
    ]
}