{
    "goal": {
        "global_pose": {
            "orientation": {
                "w": -0.00223480608172531,
                "x": 0.0024358444001904467,
                "y": 0.7094548369677653,
                "z": -0.704743149386269
            },
            "position": {
                "x": 0.6205249238014221,
                "y": -0.6371506643295288,
                "z": 0.19426114857196808
            }
        },
        "name": "move_to_magneteinheit_B"
    },
    "id": "BKPIECE_move_to_magneteinheit_B_137",
    "joint_names": [
        "shoulder_pan_joint",
        "shoulder_lift_joint",
        "elbow_joint",
        "wrist_1_joint",
        "wrist_2_joint",
        "wrist_3_joint"
    ],
    "metrics": {
        "cart_traj_len": 4.019328328287151,
        "distance_elbow_joint": 4.305668857064918,
        "distance_shoulder_lift_joint": 1.0485020515485888,
        "distance_shoulder_pan_joint": 1.954800598375276,
        "distance_wrist_1_joint": 2.305892596698092,
        "distance_wrist_2_joint": 1.306691962358293,
        "distance_wrist_3_joint": 5.969217545003929,
        "smoothness": 0.3978616592926326,
        "time": 0.67157512,
        "traj_len": 4.109838635646064,
        "weighted_distance": 5.695769768882283
    },
    "planner": "BKPIECE",
    "start": {
        "state": {
            "elbow_joint": 2.393587130804639,
            "shoulder_lift_joint": -1.9085141043513325,
            "shoulder_pan_joint": 0.7066247066698809,
            "wrist_1_joint": -0.4678290934590222,
            "wrist_2_joint": 0.7096259084215963,
            "wrist_3_joint": 3.147370379541726
        }
    },
    "waypoints": [
        {
            "positions": [
                0.7066247066698809,
                -1.9085141043513325,
                2.393587130804639,
                -0.4678290934590222,
                0.7096259084215963,
                3.147370379541726
            ]
        },
        {
            "positions": [
                0.7673938845129965,
                -1.9205463438407717,
                2.3954575251043666,
                -0.4190403986406401,
                0.6436071457217991,
                3.012193006824701
            ]
        },
        {
            "positions": [
                0.8281630623561123,
                -1.932578583330211,
                2.397327919404094,
                -0.370251703822258,
                0.5775883830220019,
                2.877015634107676
            ]
        },
        {
            "positions": [
                0.8889322401992279,
                -1.9446108228196501,
                2.3991983137038217,
                -0.3214630090038759,
                0.5115696203222047,
                2.741838261390651
            ]
        },
        {
            "positions": [
                0.911972904096365,
                -1.9278575102322304,
                2.219649165111876,
                -0.3795551889257782,
                0.5144117632827586,
                2.6293850418132156
            ]
        },
        {
            "positions": [
                0.9350135679935021,
                -1.9111041976448109,
                2.04010001651993,
                -0.43764736884768046,
                0.5172539062433126,
                2.5169318222357804
            ]
        },
        {
            "positions": [
                0.9580542318906391,
                -1.8943508850573911,
                1.8605508679279845,
                -0.4957395487695827,
                0.5200960492038664,
                2.4044786026583447
            ]
        },
        {
            "positions": [
                0.9810948957877762,
                -1.8775975724699714,
                1.6810017193360385,
                -0.553831728691485,
                0.5229381921644204,
                2.2920253830809094
            ]
        },
        {
            "positions": [
                1.0041355596849133,
                -1.8608442598825516,
                1.5014525707440929,
                -0.6119239086133872,
                0.5257803351249744,
                2.179572163503474
            ]
        },
        {
            "positions": [
                1.0271762235820503,
                -1.8440909472951321,
                1.321903422152147,
                -0.6700160885352895,
                0.5286224780855283,
                2.0671189439260385
            ]
        },
        {
            "positions": [
                1.0502168874791875,
                -1.8273376347077124,
                1.1423542735602012,
                -0.7281082684571918,
                0.5314646210460823,
                1.9546657243486032
            ]
        },
        {
            "positions": [
                1.0732575513763245,
                -1.8105843221202926,
                0.9628051249682554,
                -0.7862004483790941,
                0.5343067640066362,
                1.842212504771168
            ]
        },
        {
            "positions": [
                1.0962982152734617,
                -1.7938310095328729,
                0.7832559763763096,
                -0.8442926283009964,
                0.5371489069671901,
                1.7297592851937325
            ]
        },
        {
            "positions": [
                1.1193388791705987,
                -1.7770776969454534,
                0.603706827784364,
                -0.9023848082228986,
                0.539991049927744,
                1.6173060656162972
            ]
        },
        {
            "positions": [
                1.1423795430677357,
                -1.7603243843580336,
                0.424157679192418,
                -0.9604769881448009,
                0.542833192888298,
                1.5048528460388617
            ]
        },
        {
            "positions": [
                1.165420206964873,
                -1.7435710717706139,
                0.24460853060047238,
                -1.018569168066703,
                0.545675335848852,
                1.3923996264614265
            ]
        },
        {
            "positions": [
                1.18846087086201,
                -1.7268177591831941,
                0.06505938200852679,
                -1.0766613479886054,
                0.5485174788094059,
                1.2799464068839912
            ]
        },
        {
            "positions": [
                1.211501534759147,
                -1.7100644465957746,
                -0.11448976658341925,
                -1.1347535279105077,
                0.5513596217699599,
                1.1674931873065555
            ]
        },
        {
            "positions": [
                1.2345421986562841,
                -1.6933111340083549,
                -0.2940389151753653,
                -1.19284570783241,
                0.5542017647305137,
                1.0550399677291202
            ]
        },
        {
            "positions": [
                1.257582862553421,
                -1.6765578214209351,
                -0.4735880637673109,
                -1.2509378877543122,
                0.5570439076910677,
                0.942586748151685
            ]
        },
        {
            "positions": [
                1.280623526450558,
                -1.6598045088335156,
                -0.6531372123592565,
                -1.3090300676762143,
                0.5598860506516217,
                0.8301335285742497
            ]
        },
        {
            "positions": [
                1.3036641903476953,
                -1.6430511962460959,
                -0.8326863609512025,
                -1.3671222475981168,
                0.5627281936121756,
                0.717680308996814
            ]
        },
        {
            "positions": [
                1.3267048542448325,
                -1.6262978836586761,
                -1.0122355095431481,
                -1.4252144275200191,
                0.5655703365727296,
                0.6052270894193787
            ]
        },
        {
            "positions": [
                1.3497455181419695,
                -1.6095445710712564,
                -1.1917846581350937,
                -1.4833066074419212,
                0.5684124795332834,
                0.4927738698419435
            ]
        },
        {
            "positions": [
                1.3727861820391065,
                -1.5927912584838366,
                -1.3713338067270398,
                -1.5413987873638235,
                0.5712546224938374,
                0.38032065026450823
            ]
        },
        {
            "positions": [
                1.3958268459362437,
                -1.576037945896417,
                -1.5508829553189858,
                -1.5994909672857258,
                0.5740967654543914,
                0.2678674306870725
            ]
        },
        {
            "positions": [
                1.4188675098333807,
                -1.5592846333089974,
                -1.7304321039109312,
                -1.6575831472076281,
                0.5769389084149453,
                0.15541421110963746
            ]
        },
        {
            "positions": [
                1.4963700121018269,
                -1.5848157135477356,
                -1.7370331664907381,
                -1.7284327589030284,
                0.519387128837915,
                0.2754676318332806
            ]
        },
        {
            "positions": [
                1.573872514370273,
                -1.610346793786474,
                -1.743634229070545,
                -1.7992823705984287,
                0.46183534926088476,
                0.3955210525569237
            ]
        },
        {
            "positions": [
                1.651375016638719,
                -1.635877874025212,
                -1.7502352916503519,
                -1.870131982293829,
                0.4042835696838544,
                0.5155744732805669
            ]
        },
        {
            "positions": [
                1.728877518907165,
                -1.6614089542639503,
                -1.7568363542301588,
                -1.9409815939892292,
                0.34673179010682414,
                0.63562789400421
            ]
        },
        {
            "positions": [
                1.8063800211756111,
                -1.6869400345026886,
                -1.7634374168099658,
                -2.0118312056846293,
                0.2891800105297938,
                0.7556813147278533
            ]
        },
        {
            "positions": [
                1.8838825234440573,
                -1.7124711147414269,
                -1.7700384793897728,
                -2.0826808173800297,
                0.23162823095276353,
                0.8757347354514964
            ]
        },
        {
            "positions": [
                1.9480240576023682,
                -1.73595955036504,
                -1.7735115517233169,
                -2.137811413555075,
                0.18226527100644202,
                0.9867198969698477
            ]
        },
        {
            "positions": [
                2.012165591760679,
                -1.7594479859886532,
                -1.776984624056861,
                -2.1929420097301207,
                0.13290231106012051,
                1.097705058488199
            ]
        },
        {
            "positions": [
                2.0685673244682588,
                -1.783892333860525,
                -1.7768480256056165,
                -2.2353734569467436,
                0.08727531503344849,
                1.2140104584430655
            ]
        },
        {
            "positions": [
                2.124969057175838,
                -1.8083366817323971,
                -1.776711427154372,
                -2.277804904163366,
                0.04164831900677646,
                1.3303158583979322
            ]
        },
        {
            "positions": [
                2.1813707898834176,
                -1.832781029604269,
                -1.7765748287031276,
                -2.320236351379989,
                -0.003978677019895585,
                1.4466212583527986
            ]
        },
        {
            "positions": [
                2.237307698008525,
                -1.8630737498154832,
                -1.7713466286947372,
                -2.352666560571794,
                -0.05277402033427617,
                1.5918366305640963
            ]
        },
        {
            "positions": [
                2.2932446061336327,
                -1.8933664700266977,
                -1.7661184286863472,
                -2.3850967697635985,
                -0.10156936364865675,
                1.737052002775394
            ]
        },
        {
            "positions": [
                2.3491815142587402,
                -1.9236591902379119,
                -1.7608902286779569,
                -2.4175269789554035,
                -0.15036470696303733,
                1.8822673749866916
            ]
        },
        {
            "positions": [
                2.406916326788486,
                -1.966442838967721,
                -1.7458157118468325,
                -2.431865349749555,
                -0.2065377886488726,
                2.087149664283196
            ]
        },
        {
            "positions": [
                2.464651139318232,
                -2.0092264876975303,
                -1.7307411950157081,
                -2.4462037205437057,
                -0.26271087033470786,
                2.292031953579701
            ]
        },
        {
            "positions": [
                2.5223859518479776,
                -2.0520101364273398,
                -1.7156666781845837,
                -2.460542091337857,
                -0.31888395202054315,
                2.4969142428762057
            ]
        },
        {
            "positions": [
                2.568732402913704,
                -2.0967946832444317,
                -1.694814414673658,
                -2.453726281368202,
                -0.36803179393076724,
                2.7088346911446295
            ]
        },
        {
            "positions": [
                2.6150788539794307,
                -2.1415792300615237,
                -1.673962151162732,
                -2.4469104713985477,
                -0.4171796358409914,
                2.9207551394130538
            ]
        },
        {
            "positions": [
                2.661425305045157,
                -2.1863637768786157,
                -1.6531098876518062,
                -2.4400946614288928,
                -0.46632747775121547,
                3.1326755876814776
            ]
        }
    ]
}