{
    "goal": {
        "global_pose": {
            "orientation": {
                "w": 0.7031023480610252,
                "x": -0.7110244013736278,
                "y": 0.0077485991402295624,
                "z": 0.005598929693374583
            },
            "position": {
                "x": -0.8841497679147869,
                "y": 0.44412534475326537,
                "z": 0.3711530566215515
            }
        },
        "name": "move_to_auspresseinheit_D"
    },
    "id": "BKPIECE_move_to_auspresseinheit_D_89",
    "joint_names": [
        "shoulder_pan_joint",
        "shoulder_lift_joint",
        "elbow_joint",
        "wrist_1_joint",
        "wrist_2_joint",
        "wrist_3_joint"
    ],
    "metrics": {
        "cart_traj_len": 0.34294342351120366,
        "distance_elbow_joint": 0.6347365536929466,
        "distance_shoulder_lift_joint": 0.12005140545723103,
        "distance_shoulder_pan_joint": 0.13408692340326503,
        "distance_wrist_1_joint": 0.5105910640520412,
        "distance_wrist_2_joint": 1.4424066205401846,
        "distance_wrist_3_joint": 0.019422871467988045,
        "smoothness": 7.894919300567339e-16,
        "time": 0.387763059,
        "traj_len": 1.6915364136233237,
        "weighted_distance": 2.2029840821353788
    },
    "planner": "BKPIECE",
    "start": {
        "state": {
            "elbow_joint": -1.8275484843655228,
            "shoulder_lift_joint": -2.1267897864000416,
            "shoulder_pan_joint": -0.035127520176001514,
            "wrist_1_joint": -2.3477863256791385,
            "wrist_2_joint": -1.605890476484521,
            "wrist_3_joint": -3.0880375317375353
        }
    },
    "waypoints": [
        {
            "positions": [
                -0.035127520176001514,
                -2.1267897864000416,
                -1.8275484843655228,
                -2.3477863256791385,
                -1.605890476484521,
                -3.0880375317375353
            ]
        },
        {
            "positions": [
                -0.05188838560140964,
                -2.1417962120821956,
                -1.7482064151539045,
                -2.4116102086856435,
                -1.425589648916998,
                -3.0904653906710338
            ]
        },
        {
            "positions": [
                -0.06864925102681776,
                -2.156802637764349,
                -1.668864345942286,
                -2.475434091692149,
                -1.2452888213494748,
                -3.0928932496045323
            ]
        },
        {
            "positions": [
                -0.0854101164522259,
                -2.1718090634465033,
                -1.5895222767306678,
                -2.539257974698654,
                -1.0649879937819517,
                -3.0953211085380308
            ]
        },
        {
            "positions": [
                -0.10217098187763403,
                -2.186815489128657,
                -1.5101802075190496,
                -2.603081857705159,
                -0.8846871662144287,
                -3.0977489674715293
            ]
        },
        {
            "positions": [
                -0.11893184730304215,
                -2.201821914810811,
                -1.4308381383074311,
                -2.6669057407116643,
                -0.7043863386469056,
                -3.100176826405028
            ]
        },
        {
            "positions": [
                -0.1356927127284503,
                -2.216828340492965,
                -1.3514960690958129,
                -2.7307296237181693,
                -0.5240855110793825,
                -3.1026046853385263
            ]
        },
        {
            "positions": [
                -0.1524535781538584,
                -2.2318347661751186,
                -1.2721539998841944,
                -2.7945535067246747,
                -0.3437846835118594,
                -3.105032544272025
            ]
        },
        {
            "positions": [
                -0.16921444357926654,
                -2.2468411918572726,
                -1.1928119306725762,
                -2.8583773897311797,
                -0.1634838559443363,
                -3.1074604032055233
            ]
        }
    ]
}