{
    "goal": {
        "global_pose": {
            "orientation": {
                "w": 0.005598929693374612,
                "x": 0.007748599140229565,
                "y": 0.7110244013736278,
                "z": -0.7031023480610252
            },
            "position": {
                "x": -0.8858502320852131,
                "y": -0.7141253447532654,
                "z": 0.3711530566215515
            }
        },
        "name": "move_to_auspresseinheit_C"
    },
    "id": "BKPIECE_move_to_auspresseinheit_C_13",
    "joint_names": [
        "shoulder_pan_joint",
        "shoulder_lift_joint",
        "elbow_joint",
        "wrist_1_joint",
        "wrist_2_joint",
        "wrist_3_joint"
    ],
    "metrics": {
        "cart_traj_len": 0.49266400419542067,
        "distance_elbow_joint": 0.9977721923120407,
        "distance_shoulder_lift_joint": 0.3233480764780007,
        "distance_shoulder_pan_joint": 0.2564567174021106,
        "distance_wrist_1_joint": 0.6820153932016044,
        "distance_wrist_2_joint": 1.3028489859842791,
        "distance_wrist_3_joint": 0.06471654360448476,
        "smoothness": 3.2297397335745243e-16,
        "time": 0.40063995100000005,
        "traj_len": 1.9045098868166896,
        "weighted_distance": 2.39613342186477
    },
    "planner": "BKPIECE",
    "start": {
        "state": {
            "elbow_joint": 1.7527959577730765,
            "shoulder_lift_joint": -0.9740617694224828,
            "shoulder_pan_joint": -2.967991417825869,
            "wrist_1_joint": -0.7595177689779385,
            "wrist_2_joint": 1.7443932448376545,
            "wrist_3_joint": 3.1991315425061013
        }
    },
    "waypoints": [
        {
            "positions": [
                -2.967991417825869,
                -0.9740617694224828,
                1.7527959577730765,
                -0.7595177689779385,
                1.7443932448376545,
                3.1991315425061013
            ]
        },
        {
            "positions": [
                -2.942345746085658,
                -0.9417269617746827,
                1.6530187385418724,
                -0.6913162296577781,
                1.6141083462392265,
                3.192659888145653
            ]
        },
        {
            "positions": [
                -2.9167000743454468,
                -0.9093921541268827,
                1.5532415193106683,
                -0.6231146903376177,
                1.4838234476407985,
                3.1861882337852045
            ]
        },
        {
            "positions": [
                -2.891054402605236,
                -0.8770573464790826,
                1.4534643000794643,
                -0.5549131510174572,
                1.3535385490423708,
                3.1797165794247557
            ]
        },
        {
            "positions": [
                -2.865408730865025,
                -0.8447225388312825,
                1.3536870808482602,
                -0.48671161169729676,
                1.2232536504439429,
                3.1732449250643073
            ]
        },
        {
            "positions": [
                -2.839763059124814,
                -0.8123877311834824,
                1.253909861617056,
                -0.41851007237713633,
                1.092968751845515,
                3.166773270703859
            ]
        },
        {
            "positions": [
                -2.8141173873846026,
                -0.7800529235356823,
                1.1541326423858522,
                -0.3503085330569759,
                0.962683853247087,
                3.1603016163434106
            ]
        },
        {
            "positions": [
                -2.7884717156443917,
                -0.7477181158878823,
                1.054355423154648,
                -0.28210699373681547,
                0.8323989546486591,
                3.153829961982962
            ]
        },
        {
            "positions": [
                -2.7628260439041807,
                -0.7153833082400822,
                0.9545782039234438,
                -0.21390545441665498,
                0.702114056050231,
                3.1473583076225133
            ]
        },
        {
            "positions": [
                -2.7371803721639694,
                -0.6830485005922822,
                0.8548009846922399,
                -0.1457039150964945,
                0.5718291574518033,
                3.140886653262065
            ]
        },
        {
            "positions": [
                -2.7115347004237584,
                -0.6507136929444821,
                0.7550237654610358,
                -0.0775023757763341,
                0.4415442588533754,
                3.1344149989016166
            ]
        }
    ]
}