{
    "goal": {
        "global_pose": {
            "orientation": {
                "w": 0.005598929693374612,
                "x": 0.007748599140229565,
                "y": 0.7110244013736278,
                "z": -0.7031023480610252
            },
            "position": {
                "x": 0.1141497679147869,
                "y": -0.7141253447532654,
                "z": 0.3711530566215515
            }
        },
        "name": "move_to_auspresseinheit_B"
    },
    "id": "BKPIECE_move_to_auspresseinheit_B_9",
    "joint_names": [
        "shoulder_pan_joint",
        "shoulder_lift_joint",
        "elbow_joint",
        "wrist_1_joint",
        "wrist_2_joint",
        "wrist_3_joint"
    ],
    "metrics": {
        "cart_traj_len": 0.5646235683620467,
        "distance_elbow_joint": 0.06390733918912939,
        "distance_shoulder_lift_joint": 0.2950023678587623,
        "distance_shoulder_pan_joint": 0.5769827620270109,
        "distance_wrist_1_joint": 0.33746111283607283,
        "distance_wrist_2_joint": 0.9977853080266239,
        "distance_wrist_3_joint": 0.00821048883217168,
        "smoothness": 2.5376526478085547e-16,
        "time": 0.162868013,
        "traj_len": 1.5097514294643908,
        "weighted_distance": 1.905522704482109
    },
    "planner": "BKPIECE",
    "start": {
        "state": {
            "elbow_joint": 2.0193061681459312,
            "shoulder_lift_joint": -1.1220205130644991,
            "shoulder_pan_joint": -1.0952072088045026,
            "wrist_1_joint": -0.8559671810662515,
            "wrist_2_joint": 0.4759638712940361,
            "wrist_3_joint": 3.159081874192446
        }
    },
    "waypoints": [
        {
            "positions": [
                -1.0952072088045026,
                -1.1220205130644991,
                2.0193061681459312,
                -0.8559671810662515,
                0.4759638712940361,
                3.159081874192446
            ]
        },
        {
            "positions": [
                -1.1913710024756712,
                -1.1711875743742928,
                2.008654944947743,
                -0.7997236622602393,
                0.6422614226318067,
                3.157713459387084
            ]
        },
        {
            "positions": [
                -1.2875347961468395,
                -1.2203546356840866,
                1.9980037217495548,
                -0.7434801434542272,
                0.8085589739695773,
                3.1563450445817223
            ]
        },
        {
            "positions": [
                -1.383698589818008,
                -1.2695216969938803,
                1.9873524985513664,
                -0.6872366246482151,
                0.974856525307348,
                3.1549766297763604
            ]
        },
        {
            "positions": [
                -1.4798623834891766,
                -1.318688758303674,
                1.9767012753531783,
                -0.6309931058422029,
                1.1411540766451187,
                3.153608214970998
            ]
        },
        {
            "positions": [
                -1.5760261771603452,
                -1.3678558196134678,
                1.9660500521549902,
                -0.5747495870361907,
                1.3074516279828894,
                3.152239800165636
            ]
        },
        {
            "positions": [
                -1.6721899708315136,
                -1.4170228809232615,
                1.9553988289568018,
                -0.5185060682301786,
                1.47374917932066,
                3.1508713853602743
            ]
        }
    ]
}