{
    "goal": {
        "global_pose": {
            "orientation": {
                "w": -0.00223480608172531,
                "x": 0.0024358444001904467,
                "y": 0.7094548369677653,
                "z": -0.704743149386269
            },
            "position": {
                "x": -0.37947507619857795,
                "y": -0.6371506643295288,
                "z": 0.19426114857196808
            }
        },
        "name": "move_to_magneteinheit_C"
    },
    "id": "BKPIECE_move_to_magneteinheit_C_80",
    "joint_names": [
        "shoulder_pan_joint",
        "shoulder_lift_joint",
        "elbow_joint",
        "wrist_1_joint",
        "wrist_2_joint",
        "wrist_3_joint"
    ],
    "metrics": {
        "cart_traj_len": 1.9177350290126074,
        "distance_elbow_joint": 2.3152367157798572,
        "distance_shoulder_lift_joint": 0.614348936882881,
        "distance_shoulder_pan_joint": 1.4503537763001464,
        "distance_wrist_1_joint": 3.6913964519815745,
        "distance_wrist_2_joint": 2.2195383323348152,
        "distance_wrist_3_joint": 8.13026043078702,
        "smoothness": 0.28075461677293334,
        "time": 0.491832498,
        "traj_len": 4.291984930549768,
        "weighted_distance": 6.371231457886045
    },
    "planner": "BKPIECE",
    "start": {
        "state": {
            "elbow_joint": 1.9565354006593851,
            "shoulder_lift_joint": -1.4165861576512813,
            "shoulder_pan_joint": -1.6717766223278752,
            "wrist_1_joint": -0.528663328821883,
            "wrist_2_joint": 1.472756589259273,
            "wrist_3_joint": 3.159348288315503
        }
    },
    "waypoints": [
        {
            "positions": [
                -1.6717766223278752,
                -1.4165861576512813,
                1.9565354006593851,
                -0.528663328821883,
                1.472756589259273,
                3.159348288315503
            ]
        },
        {
            "positions": [
                -1.6554647707283425,
                -1.4155356633960183,
                1.9218922526394127,
                -0.4331086605200354,
                1.4222534420818915,
                3.035715510913395
            ]
        },
        {
            "positions": [
                -1.6391529191288097,
                -1.4144851691407552,
                1.8872491046194404,
                -0.3375539922181877,
                1.3717502949045097,
                2.9120827335112867
            ]
        },
        {
            "positions": [
                -1.622841067529277,
                -1.4134346748854922,
                1.852605956599468,
                -0.24199932391634,
                1.3212471477271281,
                2.7884499561091785
            ]
        },
        {
            "positions": [
                -1.6065292159297444,
                -1.4123841806302293,
                1.8179628085794954,
                -0.14644465561449233,
                1.2707440005497466,
                2.6648171787070702
            ]
        },
        {
            "positions": [
                -1.6152481453307925,
                -1.4048185064305176,
                1.779081246586067,
                -0.08002842601079194,
                1.214326393841702,
                2.542383389387979
            ]
        },
        {
            "positions": [
                -1.6332917067461092,
                -1.3933347158283078,
                1.7283651866828995,
                -0.0018611394671556591,
                1.1404494329287551,
                2.3849797234988204
            ]
        },
        {
            "positions": [
                -1.6513352681614257,
                -1.3818509252260982,
                1.677649126779732,
                0.07630614707648062,
                1.0665724720158083,
                2.2275760576096615
            ]
        },
        {
            "positions": [
                -1.6693788295767424,
                -1.3703671346238884,
                1.6269330668765645,
                0.1544734336201169,
                0.9926955111028616,
                2.070172391720503
            ]
        },
        {
            "positions": [
                -1.687422390992059,
                -1.3588833440216788,
                1.5762170069733967,
                0.23264072016375317,
                0.9188185501899148,
                1.9127687258313446
            ]
        },
        {
            "positions": [
                -1.7054659524073756,
                -1.347399553419469,
                1.5255009470702294,
                0.3108080067073894,
                0.8449415892769679,
                1.755365059942186
            ]
        },
        {
            "positions": [
                -1.7235095138226924,
                -1.335915762817259,
                1.4747848871670617,
                0.38897529325102576,
                0.7710646283640212,
                1.5979613940530273
            ]
        },
        {
            "positions": [
                -1.7415530752380088,
                -1.3244319722150495,
                1.4240688272638942,
                0.467142579794662,
                0.6971876674510744,
                1.4405577281638688
            ]
        },
        {
            "positions": [
                -1.7595966366533256,
                -1.3129481816128397,
                1.3733527673607266,
                0.5453098663382983,
                0.6233107065381276,
                1.2831540622747102
            ]
        },
        {
            "positions": [
                -1.7776401980686423,
                -1.3014643910106298,
                1.3226367074575591,
                0.6234771528819345,
                0.5494337456251808,
                1.1257503963855515
            ]
        },
        {
            "positions": [
                -1.7956837594839588,
                -1.2899806004084202,
                1.2719206475543916,
                0.7016444394255708,
                0.47555678471223395,
                0.9683467304963931
            ]
        },
        {
            "positions": [
                -1.8137273208992755,
                -1.2784968098062104,
                1.2212045876512239,
                0.7798117259692071,
                0.40167982379928724,
                0.8109430646072344
            ]
        },
        {
            "positions": [
                -1.8317708823145922,
                -1.2670130192040006,
                1.1704885277480566,
                0.8579790125128434,
                0.3278028628863404,
                0.6535393987180758
            ]
        },
        {
            "positions": [
                -1.8498144437299087,
                -1.255529228601791,
                1.1197724678448888,
                0.9361462990564797,
                0.2539259019733936,
                0.4961357328289173
            ]
        },
        {
            "positions": [
                -1.8678580051452254,
                -1.2440454379995811,
                1.0690564079417213,
                1.014313585600116,
                0.1800489410604469,
                0.3387320669397589
            ]
        },
        {
            "positions": [
                -1.885901566560542,
                -1.2325616473973715,
                1.0183403480385538,
                1.0924808721437522,
                0.10617198014750007,
                0.1813284010506
            ]
        },
        {
            "positions": [
                -1.9039451279758586,
                -1.2210778567951617,
                0.9676242881353863,
                1.1706481586873885,
                0.03229501923455319,
                0.023924735161441668
            ]
        },
        {
            "positions": [
                -2.0160295472781797,
                -1.1881169892218917,
                0.9436379235260397,
                1.1233172066680852,
                0.020652448382784266,
                -0.11408014341366635
            ]
        },
        {
            "positions": [
                -2.1281139665805004,
                -1.1551561216486215,
                0.919651558916693,
                1.0759862546487817,
                0.009009877531015339,
                -0.25208502198877436
            ]
        },
        {
            "positions": [
                -2.2401983858828216,
                -1.1221952540753515,
                0.8956651943073464,
                1.0286553026294785,
                -0.002632693320753589,
                -0.39008990056388243
            ]
        },
        {
            "positions": [
                -2.3522828051851428,
                -1.0892343865020815,
                0.8716788296979998,
                0.9813243506101752,
                -0.014275264172522513,
                -0.5280947791389904
            ]
        },
        {
            "positions": [
                -2.4643672244874635,
                -1.0562735189288113,
                0.8476924650886533,
                0.9339933985908717,
                -0.025917835024291444,
                -0.6660996577140985
            ]
        },
        {
            "positions": [
                -2.5764516437897846,
                -1.0233126513555413,
                0.8237061004793066,
                0.8866624465715685,
                -0.03756040587606037,
                -0.8041045362892065
            ]
        },
        {
            "positions": [
                -2.654487355213222,
                -1.002681187888569,
                0.827181215165075,
                0.8208164991754837,
                -0.0019949930994704115,
                -0.863894980373398
            ]
        },
        {
            "positions": [
                -2.7325230666366593,
                -0.9820497244215971,
                0.8306563298508434,
                0.754970551779399,
                0.033570419677119545,
                -0.9236854244575893
            ]
        },
        {
            "positions": [
                -2.7276739203792117,
                -0.9888691056837636,
                0.8870969867814028,
                0.670703333097259,
                0.07725525548005138,
                -0.7438279890029695
            ]
        },
        {
            "positions": [
                -2.7228247741217637,
                -0.9956884869459302,
                0.9435376437119622,
                0.586436114415119,
                0.12094009128298323,
                -0.5639705535483497
            ]
        },
        {
            "positions": [
                -2.717975627864316,
                -1.0025078682080966,
                0.9999783006425216,
                0.5021688957329791,
                0.16462492708591506,
                -0.38411311809373005
            ]
        },
        {
            "positions": [
                -2.713126481606868,
                -1.0093272494702632,
                1.0564189575730811,
                0.4179016770508391,
                0.20830976288884692,
                -0.2042556826391102
            ]
        },
        {
            "positions": [
                -2.7082773353494205,
                -1.0161466307324296,
                1.1128596145036405,
                0.33363445836869915,
                0.25199459869177876,
                -0.024398247184490574
            ]
        },
        {
            "positions": [
                -2.7034281890919725,
                -1.0229660119945962,
                1.1693002714341998,
                0.24936723968655916,
                0.29567943449471057,
                0.15545918827012917
            ]
        },
        {
            "positions": [
                -2.698579042834525,
                -1.0297853932567627,
                1.2257409283647593,
                0.16510002100441923,
                0.33936427029764243,
                0.335316623724749
            ]
        },
        {
            "positions": [
                -2.693729896577077,
                -1.0366047745189293,
                1.282181585295319,
                0.08083280232227918,
                0.3830491061005743,
                0.5151740591793689
            ]
        },
        {
            "positions": [
                -2.6888807503196293,
                -1.0434241557810957,
                1.3386222422258782,
                -0.003434416359860859,
                0.42673394190350616,
                0.6950314946339885
            ]
        },
        {
            "positions": [
                -2.684031604062181,
                -1.0502435370432623,
                1.3950628991564376,
                -0.08770163504200068,
                0.470418777706438,
                0.8748889300886081
            ]
        },
        {
            "positions": [
                -2.6791824578047336,
                -1.0570629183054288,
                1.451503556086997,
                -0.17196885372414075,
                0.5141036135093698,
                1.0547463655432279
            ]
        },
        {
            "positions": [
                -2.658605266768416,
                -1.0675428492823653,
                1.5069645520862058,
                -0.2369156489302181,
                0.529859345290775,
                1.2616258583445388
            ]
        },
        {
            "positions": [
                -2.6380280757320986,
                -1.0780227802593019,
                1.5624255480854148,
                -0.3018624441362954,
                0.5456150770721802,
                1.4685053511458497
            ]
        },
        {
            "positions": [
                -2.6174508846957814,
                -1.0885027112362382,
                1.6178865440846235,
                -0.36680923934237275,
                0.5613708088535854,
                1.6753848439471608
            ]
        },
        {
            "positions": [
                -2.5968736936594636,
                -1.0989826422131748,
                1.6733475400838325,
                -0.43175603454845013,
                0.5771265406349906,
                1.8822643367484717
            ]
        },
        {
            "positions": [
                -2.576296502623146,
                -1.1094625731901113,
                1.7288085360830412,
                -0.4967028297545274,
                0.5928822724163958,
                2.0891438295497826
            ]
        },
        {
            "positions": [
                -2.5557193115868286,
                -1.1199425041670479,
                1.78426953208225,
                -0.5616496249606048,
                0.6086380041978009,
                2.2960233223510933
            ]
        },
        {
            "positions": [
                -2.5351421205505114,
                -1.1304224351439844,
                1.8397305280814589,
                -0.626596420166682,
                0.6243937359792061,
                2.5029028151524044
            ]
        },
        {
            "positions": [
                -2.5145649295141936,
                -1.1409023661209208,
                1.8951915240806676,
                -0.6915432153727594,
                0.6401494677606113,
                2.7097823079537156
            ]
        },
        {
            "positions": [
                -2.493987738477876,
                -1.1513822970978573,
                1.9506525200798766,
                -0.7564900105788368,
                0.6559051995420164,
                2.9166618007550262
            ]
        },
        {
            "positions": [
                -2.4734105474415586,
                -1.161862228074794,
                2.0061135160790853,
                -0.8214368057849141,
                0.6716609313234216,
                3.1235412935563374
            ]
        }
    ]
}