{
    "goal": {
        "global_pose": {
            "orientation": {
                "w": 0.005598929693374612,
                "x": 0.007748599140229565,
                "y": 0.7110244013736278,
                "z": -0.7031023480610252
            },
            "position": {
                "x": -0.8858502320852131,
                "y": -0.7141253447532654,
                "z": 0.3711530566215515
            }
        },
        "name": "move_to_auspresseinheit_C"
    },
    "id": "BKPIECE_move_to_auspresseinheit_C_36",
    "joint_names": [
        "shoulder_pan_joint",
        "shoulder_lift_joint",
        "elbow_joint",
        "wrist_1_joint",
        "wrist_2_joint",
        "wrist_3_joint"
    ],
    "metrics": {
        "cart_traj_len": 0.4934324010454921,
        "distance_elbow_joint": 1.0100208358496725,
        "distance_shoulder_lift_joint": 0.32976922463073377,
        "distance_shoulder_pan_joint": 0.256026737162816,
        "distance_wrist_1_joint": 0.6993655882861483,
        "distance_wrist_2_joint": 1.3148324651005865,
        "distance_wrist_3_joint": 0.0749208650014026,
        "smoothness": 1.6148698667872622e-16,
        "time": 0.227234454,
        "traj_len": 1.919618638175656,
        "weighted_distance": 2.4184655257871466
    },
    "planner": "BKPIECE",
    "start": {
        "state": {
            "elbow_joint": 1.7527959577730765,
            "shoulder_lift_joint": -0.9740617694224828,
            "shoulder_pan_joint": -2.967991417825869,
            "wrist_1_joint": -0.7595177689779385,
            "wrist_2_joint": 1.7443932448376545,
            "wrist_3_joint": 3.1991315425061013
        }
    },
    "waypoints": [
        {
            "positions": [
                -2.967991417825869,
                -0.9740617694224828,
                1.7527959577730765,
                -0.7595177689779385,
                1.7443932448376545,
                3.1991315425061013
            ]
        },
        {
            "positions": [
                -2.9423887441095875,
                -0.9410848469594094,
                1.6517938741881093,
                -0.6895812101493237,
                1.6129099983275959,
                3.191639456005961
            ]
        },
        {
            "positions": [
                -2.916786070393306,
                -0.908107924496336,
                1.5507917906031419,
                -0.6196446513207089,
                1.481426751817537,
                3.184147369505821
            ]
        },
        {
            "positions": [
                -2.8911833966770244,
                -0.8751310020332627,
                1.4497897070181747,
                -0.5497080924920941,
                1.3499435053074786,
                3.1766552830056805
            ]
        },
        {
            "positions": [
                -2.865580722960743,
                -0.8421540795701893,
                1.3487876234332075,
                -0.47977153366347924,
                1.2184602587974198,
                3.1691631965055405
            ]
        },
        {
            "positions": [
                -2.8399780492444613,
                -0.8091771571071159,
                1.2477855398482403,
                -0.4098349748348644,
                1.0869770122873612,
                3.1616711100054
            ]
        },
        {
            "positions": [
                -2.8143753755281793,
                -0.7762002346440425,
                1.146783456263273,
                -0.3398984160062496,
                0.9554937657773026,
                3.1541790235052596
            ]
        },
        {
            "positions": [
                -2.7887727018118977,
                -0.7432233121809692,
                1.0457813726783058,
                -0.2699618571776348,
                0.824010519267244,
                3.1466869370051196
            ]
        },
        {
            "positions": [
                -2.763170028095616,
                -0.7102463897178958,
                0.9447792890933384,
                -0.20002529834901994,
                0.6925272727571852,
                3.139194850504979
            ]
        },
        {
            "positions": [
                -2.7375673543793346,
                -0.6772694672548224,
                0.8437772055083712,
                -0.13008873952040512,
                0.5610440262471266,
                3.131702764004839
            ]
        },
        {
            "positions": [
                -2.711964680663053,
                -0.644292544791749,
                0.7427751219234039,
                -0.060152180691790326,
                0.42956077973706785,
                3.1242106775046987
            ]
        }
    ]
}