{
    "goal": {
        "global_pose": {
            "orientation": {
                "w": 0.7031023480610252,
                "x": -0.7110244013736278,
                "y": 0.0077485991402295624,
                "z": 0.005598929693374583
            },
            "position": {
                "x": -0.8841497679147869,
                "y": 0.44412534475326537,
                "z": 0.3711530566215515
            }
        },
        "name": "move_to_auspresseinheit_D"
    },
    "id": "BKPIECE_move_to_auspresseinheit_D_3",
    "joint_names": [
        "shoulder_pan_joint",
        "shoulder_lift_joint",
        "elbow_joint",
        "wrist_1_joint",
        "wrist_2_joint",
        "wrist_3_joint"
    ],
    "metrics": {
        "cart_traj_len": 0.3429025101912344,
        "distance_elbow_joint": 0.6343369106623533,
        "distance_shoulder_lift_joint": 0.12001790795841005,
        "distance_shoulder_pan_joint": 0.13409818825579875,
        "distance_wrist_1_joint": 0.5068126920974634,
        "distance_wrist_2_joint": 1.4480999876964498,
        "distance_wrist_3_joint": 0.019039635291639545,
        "smoothness": 1.9737298371844314e-16,
        "time": 0.11919934800000001,
        "traj_len": 1.6918644514150993,
        "weighted_distance": 2.20349660139046
    },
    "planner": "BKPIECE",
    "start": {
        "state": {
            "elbow_joint": -1.8275484843655228,
            "shoulder_lift_joint": -2.1267897864000416,
            "shoulder_pan_joint": -0.035127520176001514,
            "wrist_1_joint": -2.3477863256791385,
            "wrist_2_joint": -1.605890476484521,
            "wrist_3_joint": -3.0880375317375353
        }
    },
    "waypoints": [
        {
            "positions": [
                -0.035127520176001514,
                -2.1267897864000416,
                -1.8275484843655228,
                -2.3477863256791385,
                -1.605890476484521,
                -3.0880375317375353
            ]
        },
        {
            "positions": [
                -0.05188979370797636,
                -2.1417920248948428,
                -1.7482563705327285,
                -2.4111379121913212,
                -1.4248779780224647,
                -3.0904174861489904
            ]
        },
        {
            "positions": [
                -0.06865206723995121,
                -2.156794263389644,
                -1.6689642566999345,
                -2.4744894987035044,
                -1.2438654795604085,
                -3.092797440560445
            ]
        },
        {
            "positions": [
                -0.08541434077192604,
                -2.171796501884445,
                -1.5896721428671403,
                -2.537841085215687,
                -1.0628529810983522,
                -3.0951773949719
            ]
        },
        {
            "positions": [
                -0.10217661430390089,
                -2.1867987403792464,
                -1.510380029034346,
                -2.60119267172787,
                -0.8818404826362961,
                -3.0975573493833553
            ]
        },
        {
            "positions": [
                -0.11893888783587574,
                -2.201800978874048,
                -1.4310879152015519,
                -2.664544258240053,
                -0.7008279841742399,
                -3.09993730379481
            ]
        },
        {
            "positions": [
                -0.13570116136785057,
                -2.216803217368849,
                -1.3517958013687577,
                -2.727895844752236,
                -0.5198154857121837,
                -3.102317258206265
            ]
        },
        {
            "positions": [
                -0.15246343489982542,
                -2.2318054558636504,
                -1.2725036875359637,
                -2.791247431264419,
                -0.3388029872501275,
                -3.1046972126177197
            ]
        },
        {
            "positions": [
                -0.16922570843180026,
                -2.2468076943584516,
                -1.1932115737031694,
                -2.854599017776602,
                -0.15779048878807123,
                -3.107077167029175
            ]
        }
    ]
}