{
    "goal": {
        "global_pose": {
            "orientation": {
                "w": 0.7031023480610252,
                "x": -0.7110244013736278,
                "y": 0.0077485991402295624,
                "z": 0.005598929693374583
            },
            "position": {
                "x": -0.8841497679147869,
                "y": 0.44412534475326537,
                "z": 0.3711530566215515
            }
        },
        "name": "move_to_auspresseinheit_D"
    },
    "id": "BKPIECE_move_to_auspresseinheit_D_59",
    "joint_names": [
        "shoulder_pan_joint",
        "shoulder_lift_joint",
        "elbow_joint",
        "wrist_1_joint",
        "wrist_2_joint",
        "wrist_3_joint"
    ],
    "metrics": {
        "cart_traj_len": 0.3424876857087236,
        "distance_elbow_joint": 0.6335371399481442,
        "distance_shoulder_lift_joint": 0.11907982715525733,
        "distance_shoulder_pan_joint": 0.13302180421146462,
        "distance_wrist_1_joint": 0.5049026629758266,
        "distance_wrist_2_joint": 1.4490490866684111,
        "distance_wrist_3_joint": 0.02402890882953912,
        "smoothness": 7.894919182364742e-16,
        "time": 0.267278883,
        "traj_len": 1.6922232210286687,
        "weighted_distance": 2.2058170815124174
    },
    "planner": "BKPIECE",
    "start": {
        "state": {
            "elbow_joint": -1.8275484843655228,
            "shoulder_lift_joint": -2.1267897864000416,
            "shoulder_pan_joint": -0.035127520176001514,
            "wrist_1_joint": -2.3477863256791385,
            "wrist_2_joint": -1.605890476484521,
            "wrist_3_joint": -3.0880375317375353
        }
    },
    "waypoints": [
        {
            "positions": [
                -0.035127520176001514,
                -2.1267897864000416,
                -1.8275484843655228,
                -2.3477863256791385,
                -1.605890476484521,
                -3.0880375317375353
            ]
        },
        {
            "positions": [
                -0.05175524570243459,
                -2.1416747647944487,
                -1.7483563418720047,
                -2.410899158551117,
                -1.4247593406509695,
                -3.0910411453412276
            ]
        },
        {
            "positions": [
                -0.06838297122886766,
                -2.156559743188856,
                -1.6691641993784867,
                -2.474011991423095,
                -1.2436282048174183,
                -3.09404475894492
            ]
        },
        {
            "positions": [
                -0.08501069675530075,
                -2.171444721583263,
                -1.5899720568849687,
                -2.5371248242950735,
                -1.0624970689838669,
                -3.0970483725486124
            ]
        },
        {
            "positions": [
                -0.10163842228173382,
                -2.1863296999776702,
                -1.5107799143914507,
                -2.600237657167052,
                -0.8813659331503154,
                -3.100051986152305
            ]
        },
        {
            "positions": [
                -0.1182661478081669,
                -2.2012146783720774,
                -1.4315877718979326,
                -2.66335049003903,
                -0.700234797316764,
                -3.103055599755997
            ]
        },
        {
            "positions": [
                -0.13489387333459998,
                -2.2160996567664846,
                -1.3523956294044146,
                -2.7264633229110085,
                -0.5191036614832127,
                -3.1060592133596896
            ]
        },
        {
            "positions": [
                -0.15152159886103306,
                -2.2309846351608917,
                -1.2732034869108966,
                -2.789576155782987,
                -0.3379725256496613,
                -3.109062826963382
            ]
        },
        {
            "positions": [
                -0.16814932438746613,
                -2.245869613555299,
                -1.1940113444173786,
                -2.852688988654965,
                -0.15684138981610996,
                -3.1120664405670744
            ]
        }
    ]
}