{
    "goal": {
        "global_pose": {
            "orientation": {
                "w": -0.00223480608172531,
                "x": 0.0024358444001904467,
                "y": 0.7094548369677653,
                "z": -0.704743149386269
            },
            "position": {
                "x": 0.6205249238014221,
                "y": -0.6371506643295288,
                "z": 0.19426114857196808
            }
        },
        "name": "move_to_magneteinheit_B"
    },
    "id": "BKPIECE_move_to_magneteinheit_B_68",
    "joint_names": [
        "shoulder_pan_joint",
        "shoulder_lift_joint",
        "elbow_joint",
        "wrist_1_joint",
        "wrist_2_joint",
        "wrist_3_joint"
    ],
    "metrics": {
        "cart_traj_len": 1.45426365141609,
        "distance_elbow_joint": 0.7270385406510469,
        "distance_shoulder_lift_joint": 1.2458623374766091,
        "distance_shoulder_pan_joint": 1.6210411084770715,
        "distance_wrist_1_joint": 2.6209399879518682,
        "distance_wrist_2_joint": 2.9485197053811136,
        "distance_wrist_3_joint": 3.1448362682260025,
        "smoothness": 2.153159807199991e-16,
        "time": 0.16657778099999998,
        "traj_len": 3.5083098420982872,
        "weighted_distance": 4.916031954528845
    },
    "planner": "BKPIECE",
    "start": {
        "state": {
            "elbow_joint": 2.393587130804639,
            "shoulder_lift_joint": -1.9085141043513325,
            "shoulder_pan_joint": 0.7066247066698809,
            "wrist_1_joint": -0.4678290934590222,
            "wrist_2_joint": 0.7096259084215963,
            "wrist_3_joint": 3.147370379541726
        }
    },
    "waypoints": [
        {
            "positions": [
                0.7066247066698809,
                -1.9085141043513325,
                2.393587130804639,
                -0.4678290934590222,
                0.7096259084215963,
                3.147370379541726
            ]
        },
        {
            "positions": [
                0.6559671720299723,
                -1.8695809063051885,
                2.3708671764092935,
                -0.3859247188355263,
                0.6174846676284366,
                3.0490942461596635
            ]
        },
        {
            "positions": [
                0.6053096373900639,
                -1.8306477082590444,
                2.3481472220139485,
                -0.3040203442120304,
                0.5253434268352768,
                2.950818112777601
            ]
        },
        {
            "positions": [
                0.5546521027501554,
                -1.7917145102129004,
                2.325427267618603,
                -0.22211596958853452,
                0.4332021860421169,
                2.8525419793955384
            ]
        },
        {
            "positions": [
                0.5039945681102469,
                -1.7527813121667564,
                2.302707313223258,
                -0.14021159496503866,
                0.34106094524895714,
                2.754265846013476
            ]
        },
        {
            "positions": [
                0.45333703347033844,
                -1.7138481141206123,
                2.279987358827913,
                -0.05830722034154279,
                0.24891970445579736,
                2.6559897126314134
            ]
        },
        {
            "positions": [
                0.40267949883042997,
                -1.6749149160744683,
                2.2572674044325676,
                0.023597154281953137,
                0.15677846366263748,
                2.5577135792493504
            ]
        },
        {
            "positions": [
                0.35202196419052145,
                -1.6359817180283243,
                2.234547450037222,
                0.105501528905449,
                0.0646372228694777,
                2.459437445867288
            ]
        },
        {
            "positions": [
                0.301364429550613,
                -1.5970485199821802,
                2.2118274956418773,
                0.18740590352894487,
                -0.027504017923682067,
                2.3611613124852253
            ]
        },
        {
            "positions": [
                0.2507068949107045,
                -1.5581153219360362,
                2.189107541246532,
                0.26931027815244074,
                -0.11964525871684184,
                2.262885179103163
            ]
        },
        {
            "positions": [
                0.200049360270796,
                -1.5191821238898922,
                2.1663875868511866,
                0.3512146527759366,
                -0.2117864995100016,
                2.1646090457211002
            ]
        },
        {
            "positions": [
                0.1493918256308875,
                -1.4802489258437481,
                2.1436676324558412,
                0.4331190273994325,
                -0.3039277403031615,
                2.0663329123390377
            ]
        },
        {
            "positions": [
                0.09873429099097908,
                -1.441315727797604,
                2.1209476780604963,
                0.5150234020229285,
                -0.3960689810963214,
                1.9680567789569752
            ]
        },
        {
            "positions": [
                0.04807675635107056,
                -1.40238252975146,
                2.098227723665151,
                0.5969277766464243,
                -0.48821022188948104,
                1.8697806455749126
            ]
        },
        {
            "positions": [
                -0.0025807782888379593,
                -1.363449331705316,
                2.0755077692698056,
                0.6788321512699202,
                -0.5803514626826409,
                1.7715045121928499
            ]
        },
        {
            "positions": [
                -0.05323831292874637,
                -1.324516133659172,
                2.0527878148744607,
                0.760736525893416,
                -0.6724927034758006,
                1.6732283788107873
            ]
        },
        {
            "positions": [
                -0.10389584756865489,
                -1.285582935613028,
                2.0300678604791154,
                0.842640900516912,
                -0.7646339442689605,
                1.5749522454287248
            ]
        },
        {
            "positions": [
                -0.1545533822085634,
                -1.246649737566884,
                2.00734790608377,
                0.924545275140408,
                -0.8567751850621204,
                1.4766761120466623
            ]
        },
        {
            "positions": [
                -0.2052109168484718,
                -1.2077165395207399,
                1.9846279516884249,
                1.0064496497639037,
                -0.94891642585528,
                1.3783999786645997
            ]
        },
        {
            "positions": [
                -0.25586845148838033,
                -1.1687833414745958,
                1.9619079972930797,
                1.0883540243873997,
                -1.04105766664844,
                1.280123845282537
            ]
        },
        {
            "positions": [
                -0.30652598612828885,
                -1.1298501434284518,
                1.9391880428977344,
                1.1702583990108955,
                -1.1331989074415996,
                1.1818477119004744
            ]
        },
        {
            "positions": [
                -0.35718352076819737,
                -1.0909169453823078,
                1.9164680885023893,
                1.2521627736343914,
                -1.2253401482347595,
                1.083571578518412
            ]
        },
        {
            "positions": [
                -0.4078410554081059,
                -1.0519837473361637,
                1.8937481341070441,
                1.3340671482578872,
                -1.3174813890279193,
                0.9852954451363494
            ]
        },
        {
            "positions": [
                -0.4584985900480142,
                -1.0130505492900197,
                1.8710281797116988,
                1.4159715228813832,
                -1.4096226298210792,
                0.8870193117542868
            ]
        },
        {
            "positions": [
                -0.5091561246879227,
                -0.9741173512438757,
                1.8483082253163536,
                1.4978758975048792,
                -1.501763870614239,
                0.7887431783722243
            ]
        },
        {
            "positions": [
                -0.5598136593278312,
                -0.9351841531977316,
                1.8255882709210085,
                1.5797802721283751,
                -1.5939051114073985,
                0.6904670449901618
            ]
        },
        {
            "positions": [
                -0.6104711939677397,
                -0.8962509551515876,
                1.8028683165256632,
                1.6616846467518707,
                -1.6860463522005584,
                0.5921909116080992
            ]
        },
        {
            "positions": [
                -0.6611287286076483,
                -0.8573177571054436,
                1.780148362130318,
                1.7435890213753666,
                -1.7781875929937183,
                0.49391477822603624
            ]
        },
        {
            "positions": [
                -0.7117862632475568,
                -0.8183845590592995,
                1.7574284077349729,
                1.8254933959988626,
                -1.8703288337868782,
                0.3956386448439737
            ]
        },
        {
            "positions": [
                -0.7624437978874651,
                -0.7794513610131555,
                1.7347084533396275,
                1.9073977706223586,
                -1.962470074580038,
                0.29736251146191117
            ]
        },
        {
            "positions": [
                -0.8131013325273736,
                -0.7405181629670115,
                1.7119884989442824,
                1.9893021452458541,
                -2.0546113153731973,
                0.19908637807984864
            ]
        },
        {
            "positions": [
                -0.8637588671672821,
                -0.7015849649208674,
                1.6892685445489373,
                2.07120651986935,
                -2.1467525561663576,
                0.1008102446977861
            ]
        },
        {
            "positions": [
                -0.9144164018071906,
                -0.6626517668747233,
                1.666548590153592,
                2.153110894492846,
                -2.238893796959517,
                0.0025341113157234993
            ]
        }
    ]
}