{
    "goal": {
        "global_pose": {
            "orientation": {
                "w": 0.5084816217422485,
                "x": -0.49083608388900757,
                "y": 0.5182115435600281,
                "z": -0.4816462993621826
            },
            "position": {
                "x": 0.5540239810943604,
                "y": 0.030875300988554955,
                "z": 0.16403168439865112
            }
        },
        "name": "move_to_storage_A"
    },
    "id": "BKPIECE_move_to_storage_A_81",
    "joint_names": [
        "shoulder_pan_joint",
        "shoulder_lift_joint",
        "elbow_joint",
        "wrist_1_joint",
        "wrist_2_joint",
        "wrist_3_joint"
    ],
    "metrics": {
        "cart_traj_len": 0.3531409435320627,
        "distance_elbow_joint": 0.450076794174598,
        "distance_shoulder_lift_joint": 0.23684554694846183,
        "distance_shoulder_pan_joint": 0.4635655837291324,
        "distance_wrist_1_joint": 0.23952617246820607,
        "distance_wrist_2_joint": 1.09244399389067,
        "distance_wrist_3_joint": 0.0886099269944034,
        "smoothness": 2.2204460668324854e-16,
        "time": 0.293488182,
        "traj_len": 1.6034550253142343,
        "weighted_distance": 2.019964860722373
    },
    "planner": "BKPIECE",
    "start": {
        "state": {
            "elbow_joint": 1.971548880431181,
            "shoulder_lift_joint": -1.1394869514688781,
            "shoulder_pan_joint": 0.12281150262730567,
            "wrist_1_joint": -0.7804693444481463,
            "wrist_2_joint": 0.12958644648617612,
            "wrist_3_joint": 3.0906942077768043
        }
    },
    "waypoints": [
        {
            "positions": [
                0.12281150262730567,
                -1.1394869514688781,
                1.971548880431181,
                -0.7804693444481463,
                0.12958644648617612,
                3.0906942077768043
            ]
        },
        {
            "positions": [
                0.056587847808858185,
                -1.1733220296043727,
                2.0358455653132665,
                -0.8146873690864614,
                0.2856498741848432,
                3.1033527687760047
            ]
        },
        {
            "positions": [
                -0.009635807009589298,
                -1.2071571077398673,
                2.100142250195352,
                -0.8489053937247766,
                0.4417133018835104,
                3.1160113297752052
            ]
        },
        {
            "positions": [
                -0.0758594618280368,
                -1.2409921858753619,
                2.1644389350774373,
                -0.8831234183630917,
                0.5977767295821775,
                3.1286698907744057
            ]
        },
        {
            "positions": [
                -0.14208311664648426,
                -1.2748272640108562,
                2.2287356199595227,
                -0.9173414430014069,
                0.7538401572808446,
                3.141328451773606
            ]
        },
        {
            "positions": [
                -0.20830677146493176,
                -1.3086623421463508,
                2.293032304841608,
                -0.9515594676397221,
                0.9099035849795118,
                3.1539870127728067
            ]
        },
        {
            "positions": [
                -0.27453042628337926,
                -1.3424974202818454,
                2.3573289897236935,
                -0.9857774922780372,
                1.065967012678179,
                3.166645573772007
            ]
        },
        {
            "positions": [
                -0.34075408110182676,
                -1.37633249841734,
                2.421625674605779,
                -1.0199955169163524,
                1.2220304403768463,
                3.1793041347712077
            ]
        }
    ]
}