{
    "goal": {
        "global_pose": {
            "orientation": {
                "w": 0.005598929693374612,
                "x": 0.007748599140229565,
                "y": 0.7110244013736278,
                "z": -0.7031023480610252
            },
            "position": {
                "x": 0.1141497679147869,
                "y": -0.7141253447532654,
                "z": 0.3711530566215515
            }
        },
        "name": "move_to_auspresseinheit_B"
    },
    "id": "BKPIECE_move_to_auspresseinheit_B_102",
    "joint_names": [
        "shoulder_pan_joint",
        "shoulder_lift_joint",
        "elbow_joint",
        "wrist_1_joint",
        "wrist_2_joint",
        "wrist_3_joint"
    ],
    "metrics": {
        "cart_traj_len": 0.5640087510083341,
        "distance_elbow_joint": 0.06488307219490141,
        "distance_shoulder_lift_joint": 0.2940944786119841,
        "distance_shoulder_pan_joint": 0.5765152868503527,
        "distance_wrist_1_joint": 0.3345474907232069,
        "distance_wrist_2_joint": 0.9900465641459189,
        "distance_wrist_3_joint": 0.005058555476866289,
        "smoothness": 0.0,
        "time": 0.344067462,
        "traj_len": 1.5050400154159458,
        "weighted_distance": 1.8973288101502304
    },
    "planner": "BKPIECE",
    "start": {
        "state": {
            "elbow_joint": 2.0193061681459312,
            "shoulder_lift_joint": -1.1220205130644991,
            "shoulder_pan_joint": -1.0952072088045026,
            "wrist_1_joint": -0.8559671810662515,
            "wrist_2_joint": 0.4759638712940361,
            "wrist_3_joint": 3.159081874192446
        }
    },
    "waypoints": [
        {
            "positions": [
                -1.0952072088045026,
                -1.1220205130644991,
                2.0193061681459312,
                -0.8559671810662515,
                0.4759638712940361,
                3.159081874192446
            ]
        },
        {
            "positions": [
                -1.1912930899462282,
                -1.1710362594998298,
                2.008492322780114,
                -0.800209265945717,
                0.6409716319850226,
                3.1599249667719236
            ]
        },
        {
            "positions": [
                -1.2873789710879535,
                -1.2200520059351605,
                1.9976784774142975,
                -0.7444513508251825,
                0.805979392676009,
                3.1607680593514016
            ]
        },
        {
            "positions": [
                -1.3834648522296789,
                -1.2690677523704912,
                1.9868646320484804,
                -0.688693435704648,
                0.9709871533669956,
                3.161611151930879
            ]
        },
        {
            "positions": [
                -1.4795507333714044,
                -1.3180834988058219,
                1.9760507866826635,
                -0.6329355205841136,
                1.135994914057982,
                3.1624542445103567
            ]
        },
        {
            "positions": [
                -1.57563661451313,
                -1.3670992452411526,
                1.9652369413168467,
                -0.5771776054635791,
                1.3010026747489685,
                3.1632973370898347
            ]
        },
        {
            "positions": [
                -1.6717224956548553,
                -1.4161149916764832,
                1.9544230959510298,
                -0.5214196903430446,
                1.466010435439955,
                3.1641404296693123
            ]
        }
    ]
}