{
    "goal": {
        "global_pose": {
            "orientation": {
                "w": 0.005598929693374612,
                "x": 0.007748599140229565,
                "y": 0.7110244013736278,
                "z": -0.7031023480610252
            },
            "position": {
                "x": 0.1141497679147869,
                "y": -0.7141253447532654,
                "z": 0.3711530566215515
            }
        },
        "name": "move_to_auspresseinheit_B"
    },
    "id": "BKPIECE_move_to_auspresseinheit_B_92",
    "joint_names": [
        "shoulder_pan_joint",
        "shoulder_lift_joint",
        "elbow_joint",
        "wrist_1_joint",
        "wrist_2_joint",
        "wrist_3_joint"
    ],
    "metrics": {
        "cart_traj_len": 0.565060007702924,
        "distance_elbow_joint": 0.06568885941442137,
        "distance_shoulder_lift_joint": 0.29270901380227876,
        "distance_shoulder_pan_joint": 0.5762440176082815,
        "distance_wrist_1_joint": 0.3372747886982662,
        "distance_wrist_2_joint": 1.001972834997586,
        "distance_wrist_3_joint": 0.004427440844797292,
        "smoothness": 0.0,
        "time": 0.13174102199999999,
        "traj_len": 1.5094094723982725,
        "weighted_distance": 1.90431600863698
    },
    "planner": "BKPIECE",
    "start": {
        "state": {
            "elbow_joint": 2.0193061681459312,
            "shoulder_lift_joint": -1.1220205130644991,
            "shoulder_pan_joint": -1.0952072088045026,
            "wrist_1_joint": -0.8559671810662515,
            "wrist_2_joint": 0.4759638712940361,
            "wrist_3_joint": 3.159081874192446
        }
    },
    "waypoints": [
        {
            "positions": [
                -1.0952072088045026,
                -1.1220205130644991,
                2.0193061681459312,
                -0.8559671810662515,
                0.4759638712940361,
                3.159081874192446
            ]
        },
        {
            "positions": [
                -1.1912478784058829,
                -1.1708053486982122,
                2.008358024910194,
                -0.799754716283207,
                0.6429593437936338,
                3.1583439673849796
            ]
        },
        {
            "positions": [
                -1.2872885480072631,
                -1.2195901843319255,
                1.9974098816744574,
                -0.7435422515001627,
                0.8099548162932315,
                3.1576060605775136
            ]
        },
        {
            "positions": [
                -1.3833292176086434,
                -1.2683750199656385,
                1.9864617384387206,
                -0.6873297867171184,
                0.9769502887928292,
                3.1568681537700476
            ]
        },
        {
            "positions": [
                -1.4793698872100236,
                -1.3171598555993516,
                1.9755135952029836,
                -0.631117321934074,
                1.1439457612924269,
                3.156130246962581
            ]
        },
        {
            "positions": [
                -1.5754105568114039,
                -1.3659446912330648,
                1.9645654519672466,
                -0.5749048571510296,
                1.3109412337920245,
                3.1553923401551147
            ]
        },
        {
            "positions": [
                -1.671451226412784,
                -1.4147295268667779,
                1.9536173087315098,
                -0.5186923923679853,
                1.4779367062916222,
                3.1546544333476487
            ]
        }
    ]
}