{
    "goal": {
        "global_pose": {
            "orientation": {
                "w": 0.5084816262002911,
                "x": -0.4908360881923452,
                "y": 0.5182115481033761,
                "z": -0.48164630358495003
            },
            "position": {
                "x": 0.5540239810943604,
                "y": -0.46912469901144505,
                "z": 0.16403168439865112
            }
        },
        "name": "move_to_storage_B"
    },
    "id": "BKPIECE_move_to_storage_B_126",
    "joint_names": [
        "shoulder_pan_joint",
        "shoulder_lift_joint",
        "elbow_joint",
        "wrist_1_joint",
        "wrist_2_joint",
        "wrist_3_joint"
    ],
    "metrics": {
        "cart_traj_len": 1.4907286888080007,
        "distance_elbow_joint": 0.72761008615964,
        "distance_shoulder_lift_joint": 1.166343144304389,
        "distance_shoulder_pan_joint": 1.7607776659947232,
        "distance_wrist_1_joint": 3.8052794000957473,
        "distance_wrist_2_joint": 3.7465505858062826,
        "distance_wrist_3_joint": 4.188389202407068,
        "smoothness": 0.4482575934494483,
        "time": 0.356321919,
        "traj_len": 3.9236399025353808,
        "weighted_distance": 5.596745346671047
    },
    "planner": "BKPIECE",
    "start": {
        "state": {
            "elbow_joint": 1.6649325340416963,
            "shoulder_lift_joint": -0.6616387945129425,
            "shoulder_pan_joint": -0.9139837929255878,
            "wrist_1_joint": 2.1467571094334352,
            "wrist_2_joint": -2.234195976750228,
            "wrist_3_joint": 0.005470921511140723
        }
    },
    "waypoints": [
        {
            "positions": [
                -0.9139837929255878,
                -0.6616387945129425,
                1.6649325340416963,
                2.1467571094334352,
                -2.234195976750228,
                0.005470921511140723
            ]
        },
        {
            "positions": [
                -0.8350567929983854,
                -0.7429038138487095,
                1.7188694591516223,
                2.1871435214008943,
                -2.286540983199656,
                0.05790354158509541
            ]
        },
        {
            "positions": [
                -0.756129793071183,
                -0.8241688331844764,
                1.7728063842615485,
                2.2275299333683534,
                -2.338885989649084,
                0.1103361616590501
            ]
        },
        {
            "positions": [
                -0.6772027931439806,
                -0.9054338525202434,
                1.8267433093714744,
                2.267916345335813,
                -2.391230996098512,
                0.16276878173300477
            ]
        },
        {
            "positions": [
                -0.598275793216778,
                -0.9866988718560104,
                1.8806802344814004,
                2.308302757303272,
                -2.44357600254794,
                0.21520140180695949
            ]
        },
        {
            "positions": [
                -0.5193487932895756,
                -1.0679638911917775,
                1.9346171595913266,
                2.348689169270731,
                -2.4959210089973674,
                0.2676340218809141
            ]
        },
        {
            "positions": [
                -0.4404217933623732,
                -1.1492289105275444,
                1.9885540847012526,
                2.38907558123819,
                -2.5482660154467953,
                0.3200666419548688
            ]
        },
        {
            "positions": [
                -0.36149479343517077,
                -1.2304939298633113,
                2.0424910098111786,
                2.429461993205649,
                -2.6006110218962233,
                0.37249926202882344
            ]
        },
        {
            "positions": [
                -0.28256779350796823,
                -1.3117589491990782,
                2.096427934921105,
                2.4698484051731087,
                -2.6529560283456513,
                0.4249318821027782
            ]
        },
        {
            "positions": [
                -0.2036407935807658,
                -1.3930239685348453,
                2.1503648600310306,
                2.5102348171405677,
                -2.705301034795079,
                0.4773645021767329
            ]
        },
        {
            "positions": [
                -0.12471379365356339,
                -1.4742889878706122,
                2.2043017851409568,
                2.550621229108027,
                -2.757646041244507,
                0.5297971222506875
            ]
        },
        {
            "positions": [
                -0.15709738254431999,
                -1.462499222839055,
                2.198027090638944,
                2.437240719760655,
                -2.6502093572007737,
                0.4076616888617701
            ]
        },
        {
            "positions": [
                -0.18948097143507658,
                -1.4507094578074977,
                2.1917523961369314,
                2.323860210413283,
                -2.54277267315704,
                0.28552625547285276
            ]
        },
        {
            "positions": [
                -0.22186456032583318,
                -1.4389196927759402,
                2.1854777016349187,
                2.2104797010659114,
                -2.435335989113307,
                0.16339082208393535
            ]
        },
        {
            "positions": [
                -0.2542481492165898,
                -1.427129927744383,
                2.179203007132906,
                2.0970991917185393,
                -2.3278993050695735,
                0.04125538869501799
            ]
        },
        {
            "positions": [
                -0.2866317381073464,
                -1.4153401627128257,
                2.1729283126308934,
                1.9837186823711677,
                -2.22046262102584,
                -0.08088004469389942
            ]
        },
        {
            "positions": [
                -0.319015326998103,
                -1.4035503976812684,
                2.1666536181288807,
                1.8703381730237956,
                -2.1130259369821065,
                -0.20301547808281684
            ]
        },
        {
            "positions": [
                -0.35139891588885963,
                -1.3917606326497112,
                2.160378923626868,
                1.756957663676424,
                -2.005589252938373,
                -0.32515091147173425
            ]
        },
        {
            "positions": [
                -0.3837825047796162,
                -1.3799708676181537,
                2.1541042291248558,
                1.6435771543290518,
                -1.89815256889464,
                -0.44728634486065155
            ]
        },
        {
            "positions": [
                -0.41616609367037277,
                -1.3681811025865964,
                2.147829534622843,
                1.5301966449816802,
                -1.7907158848509064,
                -0.5694217782495689
            ]
        },
        {
            "positions": [
                -0.44854968256112937,
                -1.3563913375550392,
                2.1415548401208304,
                1.4168161356343083,
                -1.6832792008071729,
                -0.6915572116384864
            ]
        },
        {
            "positions": [
                -0.48093327145188597,
                -1.344601572523482,
                2.1352801456188177,
                1.3034356262869364,
                -1.5758425167634396,
                -0.8136926450274037
            ]
        },
        {
            "positions": [
                -0.5133168603426426,
                -1.3328118074919246,
                2.129005451116805,
                1.1900551169395643,
                -1.4684058327197058,
                -0.9358280784163212
            ]
        },
        {
            "positions": [
                -0.5457004492333992,
                -1.3210220424603671,
                2.1227307566147924,
                1.0766746075921927,
                -1.3609691486759725,
                -1.0579635118052386
            ]
        },
        {
            "positions": [
                -0.5780840381241559,
                -1.3092322774288099,
                2.1164560621127797,
                0.9632940982448208,
                -1.253532464632239,
                -1.180098945194156
            ]
        },
        {
            "positions": [
                -0.6104676270149124,
                -1.2974425123972526,
                2.110181367610767,
                0.849913588897449,
                -1.1460957805885057,
                -1.3022343785830732
            ]
        },
        {
            "positions": [
                -0.642851215905669,
                -1.2856527473656953,
                2.1039066731087543,
                0.7365330795500771,
                -1.0386590965447724,
                -1.4243698119719905
            ]
        },
        {
            "positions": [
                -0.6752348047964256,
                -1.273862982334138,
                2.0976319786067417,
                0.6231525702027052,
                -0.9312224125010389,
                -1.5465052453609078
            ]
        },
        {
            "positions": [
                -0.7076183936871822,
                -1.2620732173025806,
                2.091357284104729,
                0.5097720608553336,
                -0.8237857284573056,
                -1.6686406787498251
            ]
        },
        {
            "positions": [
                -0.7400019825779388,
                -1.2502834522710233,
                2.0850825896027163,
                0.39639155150796146,
                -0.7163490444135721,
                -1.7907761121387429
            ]
        },
        {
            "positions": [
                -0.7723855714686954,
                -1.238493687239466,
                2.0788078951007036,
                0.2830110421605898,
                -0.6089123603698385,
                -1.9129115455276602
            ]
        },
        {
            "positions": [
                -0.804769160359452,
                -1.2267039222079088,
                2.072533200598691,
                0.16963053281321816,
                -0.5014756763261055,
                -2.0350469789165775
            ]
        },
        {
            "positions": [
                -0.8371527492502085,
                -1.2149141571763515,
                2.0662585060966787,
                0.056250023465846066,
                -0.39403899228237194,
                -2.157182412305495
            ]
        },
        {
            "positions": [
                -0.8695363381409653,
                -1.203124392144794,
                2.059983811594666,
                -0.05713048588152603,
                -0.28660230823863797,
                -2.2793178456944125
            ]
        },
        {
            "positions": [
                -0.9019199270317219,
                -1.1913346271132368,
                2.0537091170926534,
                -0.17051099522889812,
                -0.17916562419490445,
                -2.40145327908333
            ]
        },
        {
            "positions": [
                -0.9343035159224785,
                -1.1795448620816795,
                2.0474344225906407,
                -0.28389150457626977,
                -0.07172894015117137,
                -2.523588712472247
            ]
        },
        {
            "positions": [
                -0.966687104813235,
                -1.1677550970501223,
                2.041159728088628,
                -0.3972720139236414,
                0.03570774389256215,
                -2.6457241458611644
            ]
        },
        {
            "positions": [
                -0.9990706937039917,
                -1.1559653320185648,
                2.0348850335866153,
                -0.5106525232710135,
                0.14314442793629567,
                -2.767859579250082
            ]
        },
        {
            "positions": [
                -1.0314542825947481,
                -1.1441755669870077,
                2.0286103390846026,
                -0.6240330326183852,
                0.2505811119800292,
                -2.8899950126389995
            ]
        },
        {
            "positions": [
                -1.063837871485505,
                -1.1323858019554502,
                2.02233564458259,
                -0.7374135419657573,
                0.35801779602376227,
                -3.012130446027917
            ]
        },
        {
            "positions": [
                -1.0962214603762614,
                -1.120596036923893,
                2.0160609500805773,
                -0.8507940513131288,
                0.4654544800674956,
                -3.134265879416834
            ]
        }
    ]
}