{
    "goal": {
        "global_pose": {
            "orientation": {
                "w": 0.5084816262002911,
                "x": -0.4908360881923452,
                "y": 0.5182115481033761,
                "z": -0.48164630358495003
            },
            "position": {
                "x": 0.5540239810943604,
                "y": -0.46912469901144505,
                "z": 0.16403168439865112
            }
        },
        "name": "move_to_storage_B"
    },
    "id": "BKPIECE_move_to_storage_B_49",
    "joint_names": [
        "shoulder_pan_joint",
        "shoulder_lift_joint",
        "elbow_joint",
        "wrist_1_joint",
        "wrist_2_joint",
        "wrist_3_joint"
    ],
    "metrics": {
        "cart_traj_len": 1.1728207414188723,
        "distance_elbow_joint": 0.4086177915932183,
        "distance_shoulder_lift_joint": 0.4594175677305421,
        "distance_shoulder_pan_joint": 1.3056898914567148,
        "distance_wrist_1_joint": 2.9793366153070227,
        "distance_wrist_2_joint": 2.7026728393112167,
        "distance_wrist_3_joint": 3.146651884833486,
        "smoothness": 0.10734033470058116,
        "time": 0.222004072,
        "traj_len": 3.3169845628570838,
        "weighted_distance": 4.793506004431142
    },
    "planner": "BKPIECE",
    "start": {
        "state": {
            "elbow_joint": 1.6649325340416963,
            "shoulder_lift_joint": -0.6616387945129425,
            "shoulder_pan_joint": -0.9139837929255878,
            "wrist_1_joint": 2.1467571094334352,
            "wrist_2_joint": -2.234195976750228,
            "wrist_3_joint": 0.005470921511140723
        }
    },
    "waypoints": [
        {
            "positions": [
                -0.9139837929255878,
                -0.6616387945129425,
                1.6649325340416963,
                2.1467571094334352,
                -2.234195976750228,
                0.005470921511140723
            ]
        },
        {
            "positions": [
                -0.8015443075495996,
                -0.6826471791765748,
                1.6589501655660077,
                2.1093280490193407,
                -2.1808399976402613,
                -0.12939158030414807
            ]
        },
        {
            "positions": [
                -0.6891048221736114,
                -0.703655563840207,
                1.6529677970903192,
                2.0718989886052457,
                -2.1274840185302946,
                -0.2642540821194369
            ]
        },
        {
            "positions": [
                -0.5766653367976231,
                -0.7246639485038393,
                1.6469854286146304,
                2.034469928191151,
                -2.0741280394203283,
                -0.3991165839347257
            ]
        },
        {
            "positions": [
                -0.46422585142163486,
                -0.7456723331674715,
                1.6410030601389418,
                1.9970408677770564,
                -2.0207720603103616,
                -0.5339790857500145
            ]
        },
        {
            "positions": [
                -0.3517863660456466,
                -0.7666807178311038,
                1.6350206916632533,
                1.9596118073629616,
                -1.967416081200395,
                -0.6688415875653033
            ]
        },
        {
            "positions": [
                -0.3827652187363455,
                -0.7814463696816196,
                1.6508001062138689,
                1.843270502644772,
                -1.865920541877004,
                -0.7718557282218468
            ]
        },
        {
            "positions": [
                -0.41374407142704445,
                -0.7962120215321355,
                1.6665795207644845,
                1.7269291979265824,
                -1.764425002553613,
                -0.8748698688783901
            ]
        },
        {
            "positions": [
                -0.44472292411774333,
                -0.8109776733826514,
                1.6823589353151003,
                1.610587893208393,
                -1.6629294632302218,
                -0.9778840095349336
            ]
        },
        {
            "positions": [
                -0.4757017768084422,
                -0.8257433252331673,
                1.6981383498657159,
                1.4942465884902034,
                -1.5614339239068311,
                -1.080898150191477
            ]
        },
        {
            "positions": [
                -0.5066806294991412,
                -0.8405089770836831,
                1.7139177644163315,
                1.3779052837720138,
                -1.45993838458344,
                -1.1839122908480206
            ]
        },
        {
            "positions": [
                -0.53765948218984,
                -0.855274628934199,
                1.729697178966947,
                1.2615639790538244,
                -1.358442845260049,
                -1.2869264315045639
            ]
        },
        {
            "positions": [
                -0.5686383348805389,
                -0.8700402807847148,
                1.7454765935175627,
                1.1452226743356348,
                -1.256947305936658,
                -1.3899405721611073
            ]
        },
        {
            "positions": [
                -0.5996171875712378,
                -0.8848059326352308,
                1.7612560080681783,
                1.0288813696174453,
                -1.155451766613267,
                -1.4929547128176508
            ]
        },
        {
            "positions": [
                -0.6305960402619368,
                -0.8995715844857466,
                1.7770354226187939,
                0.9125400648992557,
                -1.0539562272898761,
                -1.595968853474194
            ]
        },
        {
            "positions": [
                -0.6615748929526357,
                -0.9143372363362625,
                1.7928148371694097,
                0.7961987601810661,
                -0.952460687966485,
                -1.6989829941307377
            ]
        },
        {
            "positions": [
                -0.6925537456433346,
                -0.9291028881867783,
                1.8085942517200253,
                0.6798574554628767,
                -0.850965148643094,
                -1.801997134787281
            ]
        },
        {
            "positions": [
                -0.7235325983340335,
                -0.9438685400372941,
                1.824373666270641,
                0.5635161507446871,
                -0.7494696093197031,
                -1.9050112754438244
            ]
        },
        {
            "positions": [
                -0.7545114510247324,
                -0.9586341918878101,
                1.8401530808212565,
                0.4471748460264977,
                -0.6479740699963121,
                -2.0080254161003674
            ]
        },
        {
            "positions": [
                -0.7854903037154313,
                -0.973399843738326,
                1.855932495371872,
                0.3308335413083079,
                -0.546478530672921,
                -2.1110395567569116
            ]
        },
        {
            "positions": [
                -0.8164691564061302,
                -0.9881654955888418,
                1.871711909922488,
                0.2144922365901185,
                -0.44498299134953,
                -2.214053697413455
            ]
        },
        {
            "positions": [
                -0.847448009096829,
                -1.0029311474393576,
                1.8874913244731033,
                0.09815093187192891,
                -0.3434874520261393,
                -2.317067838069998
            ]
        },
        {
            "positions": [
                -0.878426861787528,
                -1.0176967992898736,
                1.9032707390237191,
                -0.018190372846260683,
                -0.2419919127027481,
                -2.4200819787265417
            ]
        },
        {
            "positions": [
                -0.9094057144782269,
                -1.0324624511403893,
                1.9190501535743347,
                -0.13453167756445028,
                -0.14049637337935716,
                -2.523096119383085
            ]
        },
        {
            "positions": [
                -0.9403845671689258,
                -1.0472281029909052,
                1.9348295681249503,
                -0.25087298228263943,
                -0.039000834055966216,
                -2.626110260039628
            ]
        },
        {
            "positions": [
                -0.9713634198596248,
                -1.0619937548414211,
                1.9506089826755661,
                -0.3672142870008295,
                0.062494705267424955,
                -2.729124400696172
            ]
        },
        {
            "positions": [
                -1.0023422725503237,
                -1.076759406691937,
                1.9663883972261815,
                -0.48355559171901863,
                0.16399024459081568,
                -2.832138541352715
            ]
        },
        {
            "positions": [
                -1.0333211252410224,
                -1.091525058542453,
                1.9821678117767974,
                -0.5998968964372082,
                0.26548578391420685,
                -2.9351526820092584
            ]
        },
        {
            "positions": [
                -1.0642999779317215,
                -1.1062907103929687,
                1.997947226327413,
                -0.7162382011553978,
                0.366981323237598,
                -3.0381668226658025
            ]
        },
        {
            "positions": [
                -1.0952788306224204,
                -1.1210563622434846,
                2.0137266408780286,
                -0.8325795058735873,
                0.4684768625609889,
                -3.1411809633223453
            ]
        }
    ]
}