{
    "goal": {
        "global_pose": {
            "orientation": {
                "w": 0.005598929693374612,
                "x": 0.007748599140229565,
                "y": 0.7110244013736278,
                "z": -0.7031023480610252
            },
            "position": {
                "x": 0.1141497679147869,
                "y": -0.7141253447532654,
                "z": 0.3711530566215515
            }
        },
        "name": "move_to_auspresseinheit_B"
    },
    "id": "BKPIECE_move_to_auspresseinheit_B_18",
    "joint_names": [
        "shoulder_pan_joint",
        "shoulder_lift_joint",
        "elbow_joint",
        "wrist_1_joint",
        "wrist_2_joint",
        "wrist_3_joint"
    ],
    "metrics": {
        "cart_traj_len": 0.5638201131242475,
        "distance_elbow_joint": 0.058339230848099444,
        "distance_shoulder_lift_joint": 0.2957612662706155,
        "distance_shoulder_pan_joint": 0.5777417244617156,
        "distance_wrist_1_joint": 0.31666781263652577,
        "distance_wrist_2_joint": 0.9885873807495138,
        "distance_wrist_3_joint": 0.0017688160532567387,
        "smoothness": 0.0,
        "time": 0.181986565,
        "traj_len": 1.4962841411375472,
        "weighted_distance": 1.8835230437964596
    },
    "planner": "BKPIECE",
    "start": {
        "state": {
            "elbow_joint": 2.0193061681459312,
            "shoulder_lift_joint": -1.1220205130644991,
            "shoulder_pan_joint": -1.0952072088045026,
            "wrist_1_joint": -0.8559671810662515,
            "wrist_2_joint": 0.4759638712940361,
            "wrist_3_joint": 3.159081874192446
        }
    },
    "waypoints": [
        {
            "positions": [
                -1.0952072088045026,
                -1.1220205130644991,
                2.0193061681459312,
                -0.8559671810662515,
                0.4759638712940361,
                3.159081874192446
            ]
        },
        {
            "positions": [
                -1.1914974962147886,
                -1.171314057442935,
                2.0095829630045814,
                -0.8031892122934972,
                0.6407284347522884,
                3.1587870715169033
            ]
        },
        {
            "positions": [
                -1.2877877836250744,
                -1.220607601821371,
                1.9998597578632313,
                -0.7504112435207428,
                0.8054929982105408,
                3.1584922688413606
            ]
        },
        {
            "positions": [
                -1.3840780710353604,
                -1.2699011461998069,
                1.9901365527218815,
                -0.6976332747479885,
                0.970257561668793,
                3.1581974661658174
            ]
        },
        {
            "positions": [
                -1.4803683584456464,
                -1.3191946905782428,
                1.9804133475805317,
                -0.6448553059752343,
                1.1350221251270454,
                3.1579026634902747
            ]
        },
        {
            "positions": [
                -1.5766586458559324,
                -1.3684882349566787,
                1.9706901424391816,
                -0.5920773372024799,
                1.2997866885852976,
                3.157607860814732
            ]
        },
        {
            "positions": [
                -1.6729489332662182,
                -1.4177817793351146,
                1.9609669372978318,
                -0.5392993684297257,
                1.46455125204355,
                3.1573130581391893
            ]
        }
    ]
}