{
    "goal": {
        "global_pose": {
            "orientation": {
                "w": -0.00223480608172531,
                "x": 0.0024358444001904467,
                "y": 0.7094548369677653,
                "z": -0.704743149386269
            },
            "position": {
                "x": -0.37947507619857795,
                "y": -0.6371506643295288,
                "z": 0.19426114857196808
            }
        },
        "name": "move_to_magneteinheit_C"
    },
    "id": "BKPIECE_move_to_magneteinheit_C_50",
    "joint_names": [
        "shoulder_pan_joint",
        "shoulder_lift_joint",
        "elbow_joint",
        "wrist_1_joint",
        "wrist_2_joint",
        "wrist_3_joint"
    ],
    "metrics": {
        "cart_traj_len": 0.9855550020624969,
        "distance_elbow_joint": 0.9721940890872387,
        "distance_shoulder_lift_joint": 1.9572685235492941,
        "distance_shoulder_pan_joint": 0.8021878856320128,
        "distance_wrist_1_joint": 1.4321291465655586,
        "distance_wrist_2_joint": 0.8051093362908319,
        "distance_wrist_3_joint": 5.449735594565683,
        "smoothness": 0.9215319698505097,
        "time": 0.17030024500000002,
        "traj_len": 3.3791455392880936,
        "weighted_distance": 4.9553339188876455
    },
    "planner": "BKPIECE",
    "start": {
        "state": {
            "elbow_joint": 1.9565354006593851,
            "shoulder_lift_joint": -1.4165861576512813,
            "shoulder_pan_joint": -1.6717766223278752,
            "wrist_1_joint": -0.528663328821883,
            "wrist_2_joint": 1.472756589259273,
            "wrist_3_joint": 3.159348288315503
        }
    },
    "waypoints": [
        {
            "positions": [
                -1.6717766223278752,
                -1.4165861576512813,
                1.9565354006593851,
                -0.528663328821883,
                1.472756589259273,
                3.159348288315503
            ]
        },
        {
            "positions": [
                -1.721864198645624,
                -1.4698110713099481,
                1.9884621266297249,
                -0.4931454978393481,
                1.433600157757127,
                2.9879104905836944
            ]
        },
        {
            "positions": [
                -1.7719517749633726,
                -1.5230359849686148,
                2.0203888526000644,
                -0.45762766685681316,
                1.3944437262549807,
                2.8164726928518853
            ]
        },
        {
            "positions": [
                -1.8220393512811215,
                -1.5762608986272817,
                2.052315578570404,
                -0.4221098358742782,
                1.3552872947528343,
                2.6450348951200766
            ]
        },
        {
            "positions": [
                -1.8721269275988701,
                -1.6294858122859486,
                2.084242304540744,
                -0.3865920048917433,
                1.316130863250688,
                2.473597097388268
            ]
        },
        {
            "positions": [
                -1.922214503916619,
                -1.6827107259446152,
                2.1161690305110836,
                -0.3510741739092083,
                1.2769744317485419,
                2.3021592996564593
            ]
        },
        {
            "positions": [
                -1.9723020802343676,
                -1.7359356396032821,
                2.1480957564814234,
                -0.31555634292667334,
                1.2378180002463957,
                2.1307215019246506
            ]
        },
        {
            "positions": [
                -2.022389656552116,
                -1.789160553261949,
                2.180022482451763,
                -0.2800385119441384,
                1.1986615687442495,
                1.9592837041928415
            ]
        },
        {
            "positions": [
                -2.0724772328698653,
                -1.8423854669206157,
                2.211949208422103,
                -0.24452068096160345,
                1.1595051372421032,
                1.7878459064610328
            ]
        },
        {
            "positions": [
                -2.122564809187614,
                -1.8956103805792826,
                2.2438759343924426,
                -0.20900284997906848,
                1.1203487057399568,
                1.6164081087292241
            ]
        },
        {
            "positions": [
                -2.1726523855053625,
                -1.9488352942379494,
                2.2758026603627823,
                -0.17348501899653357,
                1.0811922742378106,
                1.4449703109974152
            ]
        },
        {
            "positions": [
                -2.2227399618231116,
                -2.002060207896616,
                2.307729386333122,
                -0.1379671880139986,
                1.0420358427356644,
                1.2735325132656063
            ]
        },
        {
            "positions": [
                -2.2728275381408602,
                -2.0552851215552828,
                2.339656112303462,
                -0.10244935703146363,
                1.0028794112335182,
                1.1020947155337977
            ]
        },
        {
            "positions": [
                -2.322915114458609,
                -2.10851003521395,
                2.3715828382738016,
                -0.06693152604892871,
                0.9637229797313719,
                0.930656917801989
            ]
        },
        {
            "positions": [
                -2.3730026907763575,
                -2.1617349488726165,
                2.4035095642441413,
                -0.03141369506639374,
                0.9245665482292257,
                0.7592191200701799
            ]
        },
        {
            "positions": [
                -2.4230902670941066,
                -2.2149598625312836,
                2.435436290214481,
                0.004104135916141227,
                0.8854101167270794,
                0.5877813223383712
            ]
        },
        {
            "positions": [
                -2.473177843411855,
                -2.2681847761899503,
                2.467363016184821,
                0.03962196689867614,
                0.8462536852249332,
                0.4163435246065623
            ]
        },
        {
            "positions": [
                -2.4732340337367145,
                -2.189208354403477,
                2.4344082680732635,
                -0.02208116530453813,
                0.833496082920898,
                0.6096814410963297
            ]
        },
        {
            "positions": [
                -2.473290224061574,
                -2.110231932617004,
                2.401453519961706,
                -0.0837842975077524,
                0.8207384806168628,
                0.8030193575860971
            ]
        },
        {
            "positions": [
                -2.473346414386434,
                -2.0312555108305306,
                2.368498771850149,
                -0.14548742971096668,
                0.8079808783128277,
                0.9963572740758645
            ]
        },
        {
            "positions": [
                -2.473402604711293,
                -1.9522790890440573,
                2.335544023738591,
                -0.20719056191418095,
                0.7952232760087926,
                1.1896951905656319
            ]
        },
        {
            "positions": [
                -2.4734587950361524,
                -1.873302667257584,
                2.302589275627034,
                -0.2688936941173952,
                0.7824656737047575,
                1.3830331070553994
            ]
        },
        {
            "positions": [
                -2.473514985361012,
                -1.7943262454711109,
                2.2696345275154766,
                -0.3305968263206095,
                0.7697080714007223,
                1.5763710235451667
            ]
        },
        {
            "positions": [
                -2.473571175685872,
                -1.7153498236846376,
                2.2366797794039193,
                -0.39229995852382377,
                0.7569504690966872,
                1.7697089400349342
            ]
        },
        {
            "positions": [
                -2.473627366010731,
                -1.6363734018981644,
                2.203725031292362,
                -0.45400309072703804,
                0.7441928667926521,
                1.9630468565247015
            ]
        },
        {
            "positions": [
                -2.4736835563355903,
                -1.5573969801116911,
                2.1707702831808047,
                -0.5157062229302524,
                0.7314352644886168,
                2.1563847730144694
            ]
        },
        {
            "positions": [
                -2.47373974666045,
                -1.478420558325218,
                2.1378155350692474,
                -0.5774093551334666,
                0.7186776621845817,
                2.3497226895042367
            ]
        },
        {
            "positions": [
                -2.4737959369853098,
                -1.3994441365387449,
                2.1048607869576896,
                -0.6391124873366808,
                0.7059200598805466,
                2.543060605994004
            ]
        },
        {
            "positions": [
                -2.473852127310169,
                -1.3204677147522716,
                2.0719060388461323,
                -0.7008156195398951,
                0.6931624575765115,
                2.7363985224837712
            ]
        },
        {
            "positions": [
                -2.4739083176350283,
                -1.2414912929657984,
                2.038951290734575,
                -0.7625187517431095,
                0.6804048552724763,
                2.9297364389735385
            ]
        },
        {
            "positions": [
                -2.473964507959888,
                -1.1625148711793252,
                2.0059965426230177,
                -0.8242218839463237,
                0.6676472529684412,
                3.123074355463306
            ]
        }
    ]
}