{
    "goal": {
        "global_pose": {
            "orientation": {
                "w": 0.5084816262002911,
                "x": -0.4908360881923452,
                "y": 0.5182115481033761,
                "z": -0.48164630358495003
            },
            "position": {
                "x": 0.5540239810943604,
                "y": -0.46912469901144505,
                "z": 0.16403168439865112
            }
        },
        "name": "move_to_storage_B"
    },
    "id": "BKPIECE_move_to_storage_B_57",
    "joint_names": [
        "shoulder_pan_joint",
        "shoulder_lift_joint",
        "elbow_joint",
        "wrist_1_joint",
        "wrist_2_joint",
        "wrist_3_joint"
    ],
    "metrics": {
        "cart_traj_len": 1.5163901693504045,
        "distance_elbow_joint": 2.2066078474466,
        "distance_shoulder_lift_joint": 0.4599949024115584,
        "distance_shoulder_pan_joint": 1.3301049190165124,
        "distance_wrist_1_joint": 3.0123087491704776,
        "distance_wrist_2_joint": 2.703551556611158,
        "distance_wrist_3_joint": 3.168420585729584,
        "smoothness": 0.215443145561222,
        "time": 0.17720365600000001,
        "traj_len": 3.5890094121339238,
        "weighted_distance": 4.993364600910561
    },
    "planner": "BKPIECE",
    "start": {
        "state": {
            "elbow_joint": 1.6649325340416963,
            "shoulder_lift_joint": -0.6616387945129425,
            "shoulder_pan_joint": -0.9139837929255878,
            "wrist_1_joint": 2.1467571094334352,
            "wrist_2_joint": -2.234195976750228,
            "wrist_3_joint": 0.005470921511140723
        }
    },
    "waypoints": [
        {
            "positions": [
                -0.9139837929255878,
                -0.6616387945129425,
                1.6649325340416963,
                2.1467571094334352,
                -2.234195976750228,
                0.005470921511140723
            ]
        },
        {
            "positions": [
                -0.8888181093865517,
                -0.664580947777059,
                1.631646477245434,
                2.119282313536005,
                -2.214794612494908,
                0.004925093789406584
            ]
        },
        {
            "positions": [
                -0.8278255415217184,
                -0.6754447040212076,
                1.532420437325939,
                2.0146388959940715,
                -2.134407355100746,
                0.014153917102176753
            ]
        },
        {
            "positions": [
                -0.7668329736568851,
                -0.6863084602653563,
                1.433194397406444,
                1.909995478452138,
                -2.054020097706584,
                0.023382740414946923
            ]
        },
        {
            "positions": [
                -0.7058404057920518,
                -0.6971722165095049,
                1.333968357486949,
                1.8053520609102047,
                -1.973632840312422,
                0.03261156372771709
            ]
        },
        {
            "positions": [
                -0.6448478379272184,
                -0.7080359727536535,
                1.234742317567454,
                1.7007086433682712,
                -1.89324558291826,
                0.04184038704048726
            ]
        },
        {
            "positions": [
                -0.5838552700623851,
                -0.7188997289978022,
                1.1355162776479588,
                1.596065225826338,
                -1.812858325524098,
                0.05106921035325743
            ]
        },
        {
            "positions": [
                -0.5228627021975518,
                -0.7297634852419508,
                1.036290237728464,
                1.4914218082844046,
                -1.732471068129936,
                0.060298033666027595
            ]
        },
        {
            "positions": [
                -0.4618701343327184,
                -0.7406272414860994,
                0.937064197808969,
                1.3867783907424711,
                -1.6520838107357738,
                0.06952685697879778
            ]
        },
        {
            "positions": [
                -0.40087756646788514,
                -0.7514909977302481,
                0.837838157889474,
                1.2821349732005376,
                -1.5716965533416118,
                0.07875568029156794
            ]
        },
        {
            "positions": [
                -0.33988499860305177,
                -0.7623547539743967,
                0.7386121179699789,
                1.1774915556586043,
                -1.4913092959474499,
                0.08798450360433811
            ]
        },
        {
            "positions": [
                -0.37138525379863413,
                -0.7773247099306511,
                0.7919574276105991,
                1.0923647558504523,
                -1.4096149261221007,
                0.2165184764457097
            ]
        },
        {
            "positions": [
                -0.4028855089942165,
                -0.7922946658869053,
                0.8453027372512192,
                1.0072379560423004,
                -1.3279205562967515,
                0.3450524492870813
            ]
        },
        {
            "positions": [
                -0.43438576418979885,
                -0.8072646218431597,
                0.8986480468918394,
                0.9221111562341484,
                -1.2462261864714024,
                0.4735864221284529
            ]
        },
        {
            "positions": [
                -0.4658860193853812,
                -0.822234577799414,
                0.9519933565324594,
                0.8369843564259966,
                -1.1645318166460532,
                0.6021203949698244
            ]
        },
        {
            "positions": [
                -0.4973862745809636,
                -0.8372045337556684,
                1.0053386661730797,
                0.7518575566178445,
                -1.082837446820704,
                0.7306543678111961
            ]
        },
        {
            "positions": [
                -0.5288865297765459,
                -0.8521744897119228,
                1.0586839758136999,
                0.6667307568096926,
                -1.0011430769953549,
                0.8591883406525677
            ]
        },
        {
            "positions": [
                -0.5603867849721283,
                -0.867144445668177,
                1.11202928545432,
                0.5816039570015407,
                -0.9194487071700057,
                0.9877223134939394
            ]
        },
        {
            "positions": [
                -0.5918870401677107,
                -0.8821144016244314,
                1.16537459509494,
                0.4964771571933888,
                -0.8377543373446567,
                1.1162562863353107
            ]
        },
        {
            "positions": [
                -0.6233872953632931,
                -0.8970843575806857,
                1.2187199047355601,
                0.41135035738523684,
                -0.7560599675193075,
                1.2447902591766824
            ]
        },
        {
            "positions": [
                -0.6548875505588754,
                -0.9120543135369401,
                1.2720652143761804,
                0.32622355757708477,
                -0.6743655976939583,
                1.373324232018054
            ]
        },
        {
            "positions": [
                -0.6863878057544578,
                -0.9270242694931944,
                1.3254105240168004,
                0.2410967577689329,
                -0.5926712278686092,
                1.5018582048594256
            ]
        },
        {
            "positions": [
                -0.7178880609500402,
                -0.9419942254494488,
                1.3787558336574206,
                0.15596995796078095,
                -0.51097685804326,
                1.6303921777007973
            ]
        },
        {
            "positions": [
                -0.7493883161456225,
                -0.956964181405703,
                1.4321011432980408,
                0.07084315815262898,
                -0.42928248821791093,
                1.7589261505421687
            ]
        },
        {
            "positions": [
                -0.7808885713412049,
                -0.9719341373619574,
                1.4854464529386608,
                -0.014283641655522983,
                -0.34758811839256154,
                1.8874601233835406
            ]
        },
        {
            "positions": [
                -0.8123888265367872,
                -0.9869040933182118,
                1.538791762579281,
                -0.09941044146367495,
                -0.2658937485672126,
                2.015994096224912
            ]
        },
        {
            "positions": [
                -0.8438890817323695,
                -1.0018740492744662,
                1.592137072219901,
                -0.1845372412718267,
                -0.18419937874186343,
                2.1445280690662836
            ]
        },
        {
            "positions": [
                -0.875389336927952,
                -1.0168440052307206,
                1.6454823818605213,
                -0.2696640410799789,
                -0.10250500891651404,
                2.2730620419076555
            ]
        },
        {
            "positions": [
                -0.9068895921235344,
                -1.0318139611869748,
                1.6988276915011413,
                -0.3547908408881306,
                -0.020810639091165095,
                2.401596014749027
            ]
        },
        {
            "positions": [
                -0.9383898473191167,
                -1.0467839171432292,
                1.7521730011417616,
                -0.4399176406962826,
                0.06088373073418407,
                2.5301299875903984
            ]
        },
        {
            "positions": [
                -0.9698901025146991,
                -1.0617538730994835,
                1.8055183107823818,
                -0.5250444405044348,
                0.14257810055953324,
                2.6586639604317703
            ]
        },
        {
            "positions": [
                -1.0013903577102814,
                -1.0767238290557377,
                1.8588636204230018,
                -0.6101712403125865,
                0.2242724703848824,
                2.787197933273142
            ]
        },
        {
            "positions": [
                -1.032890612905864,
                -1.091693785011992,
                1.912208930063622,
                -0.6952980401207385,
                0.30596684021023157,
                2.9157319061145133
            ]
        },
        {
            "positions": [
                -1.0643908681014462,
                -1.1066637409682465,
                1.9655542397042423,
                -0.7804248399288904,
                0.38766121003558074,
                3.044265878955885
            ]
        },
        {
            "positions": [
                -1.0958911232970285,
                -1.1216336969245009,
                2.0188995493448623,
                -0.8655516397370423,
                0.46935557986092985,
                3.1727998517972567
            ]
        }
    ]
}