{
    "goal": {
        "global_pose": {
            "orientation": {
                "w": 0.7047431468963623,
                "x": -0.7094548344612122,
                "y": 0.0024358443915843964,
                "z": -0.0022348060738295317
            },
            "position": {
                "x": 0.6094750761985779,
                "y": 0.3671506643295288,
                "z": 0.19426114857196808
            }
        },
        "name": "move_to_magneteinheit_A"
    },
    "id": "BKPIECE_move_to_magneteinheit_A_105",
    "joint_names": [
        "shoulder_pan_joint",
        "shoulder_lift_joint",
        "elbow_joint",
        "wrist_1_joint",
        "wrist_2_joint",
        "wrist_3_joint"
    ],
    "metrics": {
        "cart_traj_len": 3.4049820995930866,
        "distance_elbow_joint": 4.782346812475124,
        "distance_shoulder_lift_joint": 1.1407393060770596,
        "distance_shoulder_pan_joint": 3.744798878367137,
        "distance_wrist_1_joint": 3.876997863522261,
        "distance_wrist_2_joint": 1.7053544045095776,
        "distance_wrist_3_joint": 3.1172593782492433,
        "smoothness": 0.23320968063981598,
        "time": 0.377529224,
        "traj_len": 4.285731751194934,
        "weighted_distance": 5.494030184457556
    },
    "planner": "BKPIECE",
    "start": {
        "state": {
            "elbow_joint": -1.5739458827952972,
            "shoulder_lift_joint": 0.006533473998580023,
            "shoulder_pan_joint": -1.1188671628667068,
            "wrist_1_joint": 3.138208179676308,
            "wrist_2_joint": -1.5706037135050406,
            "wrist_3_joint": -2.0226958329764257
        }
    },
    "waypoints": [
        {
            "positions": [
                -1.1188671628667068,
                0.006533473998580023,
                -1.5739458827952972,
                3.138208179676308,
                -1.5706037135050406,
                -2.0226958329764257
            ]
        },
        {
            "positions": [
                -1.1757324678324923,
                -0.04087079064849081,
                -1.6022602821416632,
                2.967805453333249,
                -1.5343508386570017,
                -1.9791669162510974
            ]
        },
        {
            "positions": [
                -1.2325977727982778,
                -0.08827505529556164,
                -1.6305746814880289,
                2.7974027269901898,
                -1.4980979638089629,
                -1.935637999525769
            ]
        },
        {
            "positions": [
                -1.2894630777640632,
                -0.13567931994263244,
                -1.6588890808343948,
                2.6270000006471306,
                -1.4618450889609242,
                -1.892109082800441
            ]
        },
        {
            "positions": [
                -1.3463283827298487,
                -0.18308358458970328,
                -1.6872034801807605,
                2.4565972743040714,
                -1.4255922141128854,
                -1.8485801660751127
            ]
        },
        {
            "positions": [
                -1.4031936876956341,
                -0.2304878492367741,
                -1.7155178795271264,
                2.2861945479610117,
                -1.3893393392648465,
                -1.8050512493497843
            ]
        },
        {
            "positions": [
                -1.4600589926614196,
                -0.27789211388384494,
                -1.7438322788734921,
                2.115791821617953,
                -1.3530864644168077,
                -1.761522332624456
            ]
        },
        {
            "positions": [
                -1.516924297627205,
                -0.32529637853091575,
                -1.772146678219858,
                1.9453890952748936,
                -1.3168335895687688,
                -1.7179934158991277
            ]
        },
        {
            "positions": [
                -1.5737896025929907,
                -0.3727006431779866,
                -1.800461077566224,
                1.7749863689318341,
                -1.2805807147207302,
                -1.6744644991737996
            ]
        },
        {
            "positions": [
                -1.630654907558776,
                -0.42010490782505744,
                -1.8287754769125897,
                1.604583642588775,
                -1.2443278398726911,
                -1.6309355824484713
            ]
        },
        {
            "positions": [
                -1.6875202125245616,
                -0.46750917247212825,
                -1.8570898762589556,
                1.4341809162457158,
                -1.2080749650246525,
                -1.587406665723143
            ]
        },
        {
            "positions": [
                -1.7443855174903469,
                -0.514913437119199,
                -1.8854042756053215,
                1.2637781899026566,
                -1.1718220901766137,
                -1.5438777489978146
            ]
        },
        {
            "positions": [
                -1.8012508224561325,
                -0.5623177017662698,
                -1.9137186749516872,
                1.0933754635595974,
                -1.1355692153285748,
                -1.5003488322724863
            ]
        },
        {
            "positions": [
                -1.858116127421918,
                -0.6097219664133406,
                -1.9420330742980532,
                0.9229727372165382,
                -1.099316340480536,
                -1.456819915547158
            ]
        },
        {
            "positions": [
                -1.9149814323877035,
                -0.6571262310604115,
                -1.9703474736444189,
                0.752570010873479,
                -1.063063465632497,
                -1.4132909988218296
            ]
        },
        {
            "positions": [
                -1.9718467373534887,
                -0.7045304957074823,
                -1.9986618729907848,
                0.5821672845304198,
                -1.0268105907844585,
                -1.3697620820965015
            ]
        },
        {
            "positions": [
                -2.0287120423192744,
                -0.7519347603545532,
                -2.0269762723371505,
                0.41176455818736013,
                -0.9905577159364196,
                -1.3262331653711732
            ]
        },
        {
            "positions": [
                -2.0855773472850596,
                -0.7993390250016239,
                -2.055290671683516,
                0.24136183184430138,
                -0.9543048410883808,
                -1.2827042486458449
            ]
        },
        {
            "positions": [
                -2.1424426522508453,
                -0.8467432896486948,
                -2.0836050710298823,
                0.07095910550124174,
                -0.9180519662403419,
                -1.2391753319205165
            ]
        },
        {
            "positions": [
                -2.1993079572166305,
                -0.8941475542957656,
                -2.111919470376248,
                -0.09944362084181746,
                -0.8817990913923032,
                -1.1956464151951884
            ]
        },
        {
            "positions": [
                -2.256173262182416,
                -0.9415518189428365,
                -2.1402338697226138,
                -0.26984634718487666,
                -0.8455462165442643,
                -1.1521174984698601
            ]
        },
        {
            "positions": [
                -2.313038567148202,
                -0.9889560835899073,
                -2.16854826906898,
                -0.44024907352793585,
                -0.8092933416962255,
                -1.1085885817445318
            ]
        },
        {
            "positions": [
                -2.369903872113987,
                -1.036360348236978,
                -2.1968626684153456,
                -0.610651799870995,
                -0.7730404668481867,
                -1.0650596650192035
            ]
        },
        {
            "positions": [
                -2.273989942532454,
                -1.0401236360770358,
                -2.036884590459381,
                -0.6155801800238783,
                -0.7381254223153897,
                -1.1481220961842813
            ]
        },
        {
            "positions": [
                -2.178076012950921,
                -1.0438869239170936,
                -1.8769065125034168,
                -0.6205085601767614,
                -0.7032103777825925,
                -1.231184527349359
            ]
        },
        {
            "positions": [
                -2.0821620833693886,
                -1.0476502117571513,
                -1.7169284345474523,
                -0.6254369403296445,
                -0.6682953332497955,
                -1.3142469585144367
            ]
        },
        {
            "positions": [
                -1.9862481537878556,
                -1.051413499597209,
                -1.556950356591488,
                -0.6303653204825277,
                -0.6333802887169985,
                -1.3973093896795143
            ]
        },
        {
            "positions": [
                -1.8903342242063226,
                -1.0551767874372668,
                -1.3969722786355234,
                -0.6352937006354109,
                -0.5984652441842013,
                -1.4803718208445922
            ]
        },
        {
            "positions": [
                -1.7944202946247896,
                -1.0589400752773246,
                -1.236994200679559,
                -0.640222080788294,
                -0.5635501996514043,
                -1.5634342520096698
            ]
        },
        {
            "positions": [
                -1.698506365043257,
                -1.0627033631173823,
                -1.0770161227235946,
                -0.6451504609411771,
                -0.5286351551186073,
                -1.6464966831747474
            ]
        },
        {
            "positions": [
                -1.602592435461724,
                -1.06646665095744,
                -0.9170380447676301,
                -0.6500788410940603,
                -0.49372011058581017,
                -1.7295591143398252
            ]
        },
        {
            "positions": [
                -1.506678505880191,
                -1.0702299387974978,
                -0.7570599668116658,
                -0.6550072212469435,
                -0.45880506605301313,
                -1.812621545504903
            ]
        },
        {
            "positions": [
                -1.410764576298658,
                -1.0739932266375556,
                -0.5970818888557012,
                -0.6599356013998267,
                -0.423890021520216,
                -1.895683976669981
            ]
        },
        {
            "positions": [
                -1.3148506467171253,
                -1.0777565144776133,
                -0.43710381089973693,
                -0.6648639815527098,
                -0.38897497698741895,
                -1.9787464078350585
            ]
        },
        {
            "positions": [
                -1.2189367171355923,
                -1.081519802317671,
                -0.2771257329437724,
                -0.669792361705593,
                -0.35405993245462186,
                -2.061808839000136
            ]
        },
        {
            "positions": [
                -1.1230227875540595,
                -1.0852830901577288,
                -0.1171476549878081,
                -0.6747207418584762,
                -0.3191448879218248,
                -2.144871270165214
            ]
        },
        {
            "positions": [
                -1.0271088579725267,
                -1.0890463779977866,
                0.04283042296815642,
                -0.6796491220113593,
                -0.2842298433890278,
                -2.227933701330292
            ]
        },
        {
            "positions": [
                -0.9311949283909937,
                -1.0928096658378443,
                0.2028085009241205,
                -0.6845775021642424,
                -0.24931479885623076,
                -2.3109961324953696
            ]
        },
        {
            "positions": [
                -0.8352809988094607,
                -1.096572953677902,
                0.3627865788800855,
                -0.6895058823171256,
                -0.2143997543234336,
                -2.3940585636604474
            ]
        },
        {
            "positions": [
                -0.7393670692279279,
                -1.1003362415179598,
                0.5227646568360496,
                -0.6944342624700088,
                -0.17948470979063658,
                -2.477120994825525
            ]
        },
        {
            "positions": [
                -0.643453139646395,
                -1.1040995293580176,
                0.6827427347920141,
                -0.6993626426228919,
                -0.14456966525783954,
                -2.5601834259906027
            ]
        },
        {
            "positions": [
                -0.5475392100648622,
                -1.1078628171980753,
                0.8427208127479782,
                -0.704291022775775,
                -0.1096546207250425,
                -2.64324585715568
            ]
        },
        {
            "positions": [
                -0.4516252804833292,
                -1.111626105038133,
                1.0026988907039431,
                -0.7092194029286583,
                -0.07473957619224525,
                -2.726308288320758
            ]
        },
        {
            "positions": [
                -0.3557113509017964,
                -1.1153893928781908,
                1.1626769686599072,
                -0.7141477830815415,
                -0.039824531659448215,
                -2.8093707194858357
            ]
        },
        {
            "positions": [
                -0.2597974213202634,
                -1.1191526807182486,
                1.3226550466158717,
                -0.7190761632344246,
                -0.00490948712665118,
                -2.8924331506509136
            ]
        },
        {
            "positions": [
                -0.1638834917387304,
                -1.1229159685583063,
                1.4826331245718358,
                -0.7240045433873077,
                0.030005557406145855,
                -2.9754955818159914
            ]
        },
        {
            "positions": [
                -0.0679695621571974,
                -1.126679256398364,
                1.6426112025278008,
                -0.7289329235401909,
                0.064920601938943,
                -3.058558012981069
            ]
        },
        {
            "positions": [
                0.027944367424335148,
                -1.1304425442384218,
                1.8025892804837649,
                -0.7338613036930741,
                0.09983564647174004,
                -3.1416204441461466
            ]
        },
        {
            "positions": [
                0.12385829700586805,
                -1.1342058320784796,
                1.9625673584397296,
                -0.7387896838459572,
                0.13475069100453704,
                -3.2246828753112244
            ]
        }
    ]
}