{
    "goal": {
        "global_pose": {
            "orientation": {
                "w": 0.5084816262002911,
                "x": -0.4908360881923452,
                "y": 0.5182115481033761,
                "z": -0.48164630358495003
            },
            "position": {
                "x": 0.5540239810943604,
                "y": -0.46912469901144505,
                "z": 0.16403168439865112
            }
        },
        "name": "move_to_storage_B"
    },
    "id": "BKPIECE_move_to_storage_B_139",
    "joint_names": [
        "shoulder_pan_joint",
        "shoulder_lift_joint",
        "elbow_joint",
        "wrist_1_joint",
        "wrist_2_joint",
        "wrist_3_joint"
    ],
    "metrics": {
        "cart_traj_len": 1.1336584096190976,
        "distance_elbow_joint": 1.084102456716171,
        "distance_shoulder_lift_joint": 0.7906442738019019,
        "distance_shoulder_pan_joint": 0.48863785222881573,
        "distance_wrist_1_joint": 2.9982656030836496,
        "distance_wrist_2_joint": 2.7006525573324565,
        "distance_wrist_3_joint": 3.159982323878918,
        "smoothness": 0.1366722014862291,
        "time": 0.24840330900000002,
        "traj_len": 3.349967920300418,
        "weighted_distance": 4.820909444826344
    },
    "planner": "BKPIECE",
    "start": {
        "state": {
            "elbow_joint": 1.6649325340416963,
            "shoulder_lift_joint": -0.6616387945129425,
            "shoulder_pan_joint": -0.9139837929255878,
            "wrist_1_joint": 2.1467571094334352,
            "wrist_2_joint": -2.234195976750228,
            "wrist_3_joint": 0.005470921511140723
        }
    },
    "waypoints": [
        {
            "positions": [
                -0.9139837929255878,
                -0.6616387945129425,
                1.6649325340416963,
                2.1467571094334352,
                -2.234195976750228,
                0.005470921511140723
            ]
        },
        {
            "positions": [
                -0.8931475800729036,
                -0.6599633625921999,
                1.6603671304883685,
                2.1271673226556187,
                -2.2040191493293007,
                0.021757425205772004
            ]
        },
        {
            "positions": [
                -0.8487759761436998,
                -0.6887099073262357,
                1.6242972885194022,
                2.0646084227633716,
                -2.098154600629855,
                0.09457146542895055
            ]
        },
        {
            "positions": [
                -0.8044043722144961,
                -0.7174564520602716,
                1.5882274465504362,
                2.002049522871124,
                -1.9922900519304088,
                0.1673855056521291
            ]
        },
        {
            "positions": [
                -0.7600327682852923,
                -0.7462029967943075,
                1.55215760458147,
                1.939490622978877,
                -1.886425503230963,
                0.24019954587530765
            ]
        },
        {
            "positions": [
                -0.7749537589199788,
                -0.7798593368154945,
                1.536292743906281,
                1.8269958574839424,
                -1.7747018516437332,
                0.3295858877020144
            ]
        },
        {
            "positions": [
                -0.7898747495546653,
                -0.8135156768366815,
                1.5204278832310922,
                1.7145010919890078,
                -1.6629782000565032,
                0.4189722295287212
            ]
        },
        {
            "positions": [
                -0.8047957401893517,
                -0.8471720168578685,
                1.5045630225559032,
                1.602006326494073,
                -1.5512545484692732,
                0.508358571355428
            ]
        },
        {
            "positions": [
                -0.8197167308240383,
                -0.8808283568790556,
                1.4886981618807145,
                1.4895115609991385,
                -1.4395308968820435,
                0.5977449131821347
            ]
        },
        {
            "positions": [
                -0.8346377214587247,
                -0.9144846969002426,
                1.4728333012055255,
                1.3770167955042036,
                -1.3278072452948138,
                0.6871312550088415
            ]
        },
        {
            "positions": [
                -0.8495587120934112,
                -0.9481410369214296,
                1.4569684405303367,
                1.264522030009269,
                -1.2160835937075838,
                0.7765175968355483
            ]
        },
        {
            "positions": [
                -0.8644797027280977,
                -0.9817973769426166,
                1.4411035798551477,
                1.1520272645143343,
                -1.1043599421203538,
                0.8659039386622551
            ]
        },
        {
            "positions": [
                -0.8794006933627841,
                -1.0154537169638036,
                1.425238719179959,
                1.0395324990193997,
                -0.9926362905331241,
                0.9552902804889619
            ]
        },
        {
            "positions": [
                -0.8943216839974706,
                -1.0491100569849907,
                1.40937385850477,
                0.9270377335244651,
                -0.8809126389458941,
                1.0446766223156687
            ]
        },
        {
            "positions": [
                -0.9092426746321571,
                -1.0827663970061776,
                1.393508997829581,
                0.8145429680295304,
                -0.7691889873586644,
                1.1340629641423754
            ]
        },
        {
            "positions": [
                -0.9241636652668436,
                -1.1164227370273647,
                1.3776441371543922,
                0.7020482025345958,
                -0.6574653357714346,
                1.2234493059690823
            ]
        },
        {
            "positions": [
                -0.93908465590153,
                -1.1500790770485518,
                1.3617792764792032,
                0.5895534370396609,
                -0.5457416841842047,
                1.312835647795789
            ]
        },
        {
            "positions": [
                -0.9540056465362166,
                -1.1837354170697387,
                1.3459144158040144,
                0.47705867154472625,
                -0.4340180325969747,
                1.402221989622496
            ]
        },
        {
            "positions": [
                -0.968926637170903,
                -1.2173917570909258,
                1.3300495551288254,
                0.3645639060497916,
                -0.32229438100974495,
                1.4916083314492026
            ]
        },
        {
            "positions": [
                -0.9838476278055894,
                -1.251048097112113,
                1.3141846944536364,
                0.25206914055485696,
                -0.2105707294225152,
                1.5809946732759095
            ]
        },
        {
            "positions": [
                -0.998768618440276,
                -1.2847044371332998,
                1.2983198337784476,
                0.13957437505992243,
                -0.09884707783528512,
                1.6703810151026162
            ]
        },
        {
            "positions": [
                -1.0074914345705974,
                -1.2697746401023853,
                1.3635461752741678,
                0.049475932449909985,
                -0.047455836160965784,
                1.8062966724014746
            ]
        },
        {
            "positions": [
                -1.016214250700919,
                -1.254844843071471,
                1.4287725167698881,
                -0.04062251016010246,
                0.003935405513353557,
                1.942212329700333
            ]
        },
        {
            "positions": [
                -1.0249370668312405,
                -1.2399150460405564,
                1.4939988582656083,
                -0.13072095277011486,
                0.055326647187672884,
                2.0781279869991915
            ]
        },
        {
            "positions": [
                -1.033659882961562,
                -1.2249852490096418,
                1.5592251997613285,
                -0.22081939538012735,
                0.10671788886199224,
                2.21404364429805
            ]
        },
        {
            "positions": [
                -1.0423826990918834,
                -1.2100554519787274,
                1.6244515412570486,
                -0.3109178379901398,
                0.15810913053631154,
                2.3499593015969085
            ]
        },
        {
            "positions": [
                -1.051105515222205,
                -1.1951256549478129,
                1.6896778827527688,
                -0.40101628060015215,
                0.2095003722106309,
                2.4858749588957667
            ]
        },
        {
            "positions": [
                -1.0598283313525265,
                -1.1801958579168985,
                1.7549042242484891,
                -0.4911147232101647,
                0.26089161388495025,
                2.621790616194625
            ]
        },
        {
            "positions": [
                -1.068551147482848,
                -1.165266060885984,
                1.8201305657442093,
                -0.5812131658201771,
                0.3122828555592696,
                2.7577062734934836
            ]
        },
        {
            "positions": [
                -1.0772739636131696,
                -1.1503362638550694,
                1.8853569072399297,
                -0.6713116084301896,
                0.36367409723358896,
                2.8936219307923423
            ]
        },
        {
            "positions": [
                -1.085996779743491,
                -1.135406466824155,
                1.9505832487356498,
                -0.761410051040202,
                0.4150653389079082,
                3.0295375880912
            ]
        },
        {
            "positions": [
                -1.0947195958738125,
                -1.1204766697932405,
                2.01580959023137,
                -0.8515084936502144,
                0.4664565805822276,
                3.165453245390059
            ]
        }
    ]
}