{
    "goal": {
        "global_pose": {
            "orientation": {
                "w": -0.4816463035849501,
                "x": 0.5182115481033762,
                "y": 0.4908360881923453,
                "z": -0.5084816262002911
            },
            "position": {
                "x": -0.8240239810943604,
                "y": 0.19912469901144506,
                "z": 0.16403168439865112
            }
        },
        "name": "move_to_storage_D"
    },
    "id": "BKPIECE_move_to_storage_D_142",
    "joint_names": [
        "shoulder_pan_joint",
        "shoulder_lift_joint",
        "elbow_joint",
        "wrist_1_joint",
        "wrist_2_joint",
        "wrist_3_joint"
    ],
    "metrics": {
        "cart_traj_len": 0.6789252206495463,
        "distance_elbow_joint": 0.6863361829481811,
        "distance_shoulder_lift_joint": 0.40998501001329934,
        "distance_shoulder_pan_joint": 0.1521557975062965,
        "distance_wrist_1_joint": 3.972642995451894,
        "distance_wrist_2_joint": 1.7753017406833067,
        "distance_wrist_3_joint": 3.153212542465331,
        "smoothness": 0.22261568391831285,
        "time": 0.38010503,
        "traj_len": 3.185849065644559,
        "weighted_distance": 4.71211248699924
    },
    "planner": "BKPIECE",
    "start": {
        "state": {
            "elbow_joint": -2.384821990628643,
            "shoulder_lift_joint": -2.278805467437664,
            "shoulder_pan_joint": -0.18546946439364564,
            "wrist_1_joint": 1.4845938187801415,
            "wrist_2_joint": 0.178987772454074,
            "wrist_3_joint": 0.03710569632802521
        }
    },
    "waypoints": [
        {
            "positions": [
                -0.18546946439364564,
                -2.278805467437664,
                -2.384821990628643,
                1.4845938187801415,
                0.178987772454074,
                0.03710569632802521
            ]
        },
        {
            "positions": [
                -0.10975781035499027,
                -2.1381713836029204,
                -2.416973435906189,
                1.5183380729102378,
                0.16768517404712205,
                0.06974486516575494
            ]
        },
        {
            "positions": [
                -0.0340461563163349,
                -1.9975372997681768,
                -2.449124881183735,
                1.5520823270403339,
                0.1563825756401701,
                0.10238403400348467
            ]
        },
        {
            "positions": [
                -0.03401563592346049,
                -2.0029005015325025,
                -2.423206827334023,
                1.3893675567406796,
                0.08335355297894498,
                0.23104795920306265
            ]
        },
        {
            "positions": [
                -0.033985115530586085,
                -2.008263703296828,
                -2.397288773484311,
                1.2266527864410255,
                0.010324530317719849,
                0.3597118844026406
            ]
        },
        {
            "positions": [
                -0.03395459513771168,
                -2.0136269050611535,
                -2.3713707196345992,
                1.0639380161413712,
                -0.06270449234350528,
                0.4883758096022186
            ]
        },
        {
            "positions": [
                -0.033924074744837274,
                -2.0189901068254787,
                -2.345452665784887,
                0.901223245841717,
                -0.1357335150047304,
                0.6170397348017966
            ]
        },
        {
            "positions": [
                -0.03389355435196287,
                -2.0243533085898044,
                -2.319534611935175,
                0.7385084755420627,
                -0.20876253766595554,
                0.7457036600013747
            ]
        },
        {
            "positions": [
                -0.03386303395908846,
                -2.02971651035413,
                -2.293616558085463,
                0.5757937052424085,
                -0.28179156032718067,
                0.8743675852009525
            ]
        },
        {
            "positions": [
                -0.033832513566214056,
                -2.0350797121184554,
                -2.2676985042357507,
                0.41307893494275416,
                -0.3548205829884058,
                1.0030315104005305
            ]
        },
        {
            "positions": [
                -0.03380199317333965,
                -2.040442913882781,
                -2.241780450386039,
                0.2503641646431001,
                -0.4278496056496309,
                1.1316954356001085
            ]
        },
        {
            "positions": [
                -0.033771472780465245,
                -2.0458061156471063,
                -2.215862396536327,
                0.08764939434344576,
                -0.5008786283108561,
                1.2603593607996866
            ]
        },
        {
            "positions": [
                -0.03374095238759084,
                -2.051169317411432,
                -2.1899443426866148,
                -0.07506537595620855,
                -0.5739076509720812,
                1.3890232859992646
            ]
        },
        {
            "positions": [
                -0.03371043199471643,
                -2.0565325191757573,
                -2.1640262888369026,
                -0.23778014625586263,
                -0.6469366736333063,
                1.5176872111988424
            ]
        },
        {
            "positions": [
                -0.03367991160184203,
                -2.061895720940083,
                -2.1381082349871905,
                -0.40049491655551694,
                -0.7199656962945314,
                1.6463511363984205
            ]
        },
        {
            "positions": [
                -0.03364939120896762,
                -2.0672589227044087,
                -2.1121901811374784,
                -0.563209686855171,
                -0.7929947189557565,
                1.7750150615979983
            ]
        },
        {
            "positions": [
                -0.033618870816093216,
                -2.072622124468734,
                -2.0862721272877667,
                -0.7259244571548256,
                -0.8660237416169817,
                1.9036789867975765
            ]
        },
        {
            "positions": [
                -0.03358835042321881,
                -2.0779853262330596,
                -2.0603540734380545,
                -0.8886392274544797,
                -0.9390527642782068,
                2.032342911997154
            ]
        },
        {
            "positions": [
                -0.033557830030344404,
                -2.083348527997385,
                -2.0344360195883424,
                -1.0513539977541337,
                -1.012081786939432,
                2.1610068371967324
            ]
        },
        {
            "positions": [
                -0.03352730963747,
                -2.0887117297617106,
                -2.0085179657386303,
                -1.2140687680537883,
                -1.085110809600657,
                2.2896707623963106
            ]
        },
        {
            "positions": [
                -0.03349678924459559,
                -2.094074931526036,
                -1.9825999118889184,
                -1.3767835383534424,
                -1.1581398322618823,
                2.4183346875958884
            ]
        },
        {
            "positions": [
                -0.03346626885172119,
                -2.0994381332903616,
                -1.9566818580392062,
                -1.5394983086530964,
                -1.2311688549231072,
                2.5469986127954662
            ]
        },
        {
            "positions": [
                -0.03343574845884678,
                -2.1048013350546873,
                -1.9307638041894943,
                -1.702213078952751,
                -1.3041978775843326,
                2.6756625379950445
            ]
        },
        {
            "positions": [
                -0.033405228065972375,
                -2.1101645368190125,
                -1.9048457503397822,
                -1.864927849252405,
                -1.3772269002455575,
                2.8043264631946223
            ]
        },
        {
            "positions": [
                -0.03337470767309797,
                -2.115527738583338,
                -1.87892769649007,
                -2.027642619552059,
                -1.4502559229067828,
                2.9329903883942
            ]
        },
        {
            "positions": [
                -0.033344187280223564,
                -2.1208909403476635,
                -1.853009642640358,
                -2.1903573898517137,
                -1.5232849455680078,
                3.0616543135937784
            ]
        },
        {
            "positions": [
                -0.03331366688734916,
                -2.126254142111989,
                -1.827091588790646,
                -2.3530721601513678,
                -1.5963139682292329,
                3.190318238793356
            ]
        }
    ]
}