{
    "goal": {
        "global_pose": {
            "orientation": {
                "w": -0.4816463035849501,
                "x": 0.5182115481033762,
                "y": 0.4908360881923453,
                "z": -0.5084816262002911
            },
            "position": {
                "x": -0.8240239810943604,
                "y": -0.300875300988555,
                "z": 0.16403168439865112
            }
        },
        "name": "move_to_storage_C"
    },
    "id": "BKPIECE_move_to_storage_C_150",
    "joint_names": [
        "shoulder_pan_joint",
        "shoulder_lift_joint",
        "elbow_joint",
        "wrist_1_joint",
        "wrist_2_joint",
        "wrist_3_joint"
    ],
    "metrics": {
        "cart_traj_len": 0.5765902046820672,
        "distance_elbow_joint": 0.2596306044242158,
        "distance_shoulder_lift_joint": 0.18934746618976028,
        "distance_shoulder_pan_joint": 0.4951028145093783,
        "distance_wrist_1_joint": 0.08847994779952273,
        "distance_wrist_2_joint": 1.0666111130425902,
        "distance_wrist_3_joint": 0.07228153644325941,
        "smoothness": 0.0,
        "time": 0.22438425,
        "traj_len": 1.473585247757566,
        "weighted_distance": 1.863090877047429
    },
    "planner": "BKPIECE",
    "start": {
        "state": {
            "elbow_joint": 2.0108683149792914,
            "shoulder_lift_joint": -1.1634956873317392,
            "shoulder_pan_joint": -2.4736205022346,
            "wrist_1_joint": -0.8367026793690192,
            "wrist_2_joint": 0.6746043897045053,
            "wrist_3_joint": 3.133522094754363
        }
    },
    "waypoints": [
        {
            "positions": [
                -2.4736205022346,
                -1.1634956873317392,
                2.0108683149792914,
                -0.8367026793690192,
                0.6746043897045053,
                3.133522094754363
            ]
        },
        {
            "positions": [
                -2.556137637986163,
                -1.1319377763001126,
                1.9675965475752555,
                -0.8219560214024321,
                0.852372908544937,
                3.1455690174949065
            ]
        },
        {
            "positions": [
                -2.638654773737726,
                -1.1003798652684857,
                1.9243247801712196,
                -0.8072093634358449,
                1.0301414273853686,
                3.15761594023545
            ]
        },
        {
            "positions": [
                -2.721171909489289,
                -1.068821954236859,
                1.8810530127671834,
                -0.7924627054692579,
                1.2079099462258003,
                3.1696628629759926
            ]
        },
        {
            "positions": [
                -2.8036890452408523,
                -1.0372640432052325,
                1.8377812453631475,
                -0.7777160475026708,
                1.3856784650662322,
                3.181709785716536
            ]
        },
        {
            "positions": [
                -2.8862061809924153,
                -1.0057061321736056,
                1.7945094779591115,
                -0.7629693895360836,
                1.5634469839066638,
                3.1937567084570793
            ]
        },
        {
            "positions": [
                -2.9687233167439784,
                -0.974148221141979,
                1.7512377105550756,
                -0.7482227315694965,
                1.7412155027470955,
                3.2058036311976226
            ]
        }
    ]
}