{
    "goal": {
        "global_pose": {
            "orientation": {
                "w": -0.4816463035849501,
                "x": 0.5182115481033762,
                "y": 0.4908360881923453,
                "z": -0.5084816262002911
            },
            "position": {
                "x": -0.8240239810943604,
                "y": -0.300875300988555,
                "z": 0.16403168439865112
            }
        },
        "name": "move_to_storage_C"
    },
    "id": "BKPIECE_move_to_storage_C_62",
    "joint_names": [
        "shoulder_pan_joint",
        "shoulder_lift_joint",
        "elbow_joint",
        "wrist_1_joint",
        "wrist_2_joint",
        "wrist_3_joint"
    ],
    "metrics": {
        "cart_traj_len": 0.576131940727784,
        "distance_elbow_joint": 0.25869266507955446,
        "distance_shoulder_lift_joint": 0.18871557216264678,
        "distance_shoulder_pan_joint": 0.4942729576050158,
        "distance_wrist_1_joint": 0.0811373516428493,
        "distance_wrist_2_joint": 1.066138557542888,
        "distance_wrist_3_joint": 0.06224221883099368,
        "smoothness": 0.0,
        "time": 0.35456660100000004,
        "traj_len": 1.4666967385468437,
        "weighted_distance": 1.850124230886043
    },
    "planner": "BKPIECE",
    "start": {
        "state": {
            "elbow_joint": 2.0108683149792914,
            "shoulder_lift_joint": -1.1634956873317392,
            "shoulder_pan_joint": -2.4736205022346,
            "wrist_1_joint": -0.8367026793690192,
            "wrist_2_joint": 0.6746043897045053,
            "wrist_3_joint": 3.133522094754363
        }
    },
    "waypoints": [
        {
            "positions": [
                -2.4736205022346,
                -1.1634956873317392,
                2.0108683149792914,
                -0.8367026793690192,
                0.6746043897045053,
                3.133522094754363
            ]
        },
        {
            "positions": [
                -2.5559993285021028,
                -1.132043091971298,
                1.9677528707993657,
                -0.8231797874285444,
                0.8522941492949867,
                3.143895797892862
            ]
        },
        {
            "positions": [
                -2.6383781547696055,
                -1.100590496610857,
                1.92463742661944,
                -0.8096568954880694,
                1.0299839088854679,
                3.154269501031361
            ]
        },
        {
            "positions": [
                -2.720756981037108,
                -1.0691379012504159,
                1.8815219824395142,
                -0.7961340035475946,
                1.2076736684759495,
                3.16464320416986
            ]
        },
        {
            "positions": [
                -2.8031358073046104,
                -1.0376853058899747,
                1.8384065382595884,
                -0.7826111116071197,
                1.3853634280664306,
                3.175016907308359
            ]
        },
        {
            "positions": [
                -2.885514633572113,
                -1.0062327105295337,
                1.7952910940796627,
                -0.7690882196666448,
                1.5630531876569123,
                3.185390610446858
            ]
        },
        {
            "positions": [
                -2.967893459839616,
                -0.9747801151690925,
                1.752175649899737,
                -0.7555653277261699,
                1.7407429472473934,
                3.195764313585357
            ]
        }
    ]
}