{
    "goal": {
        "global_pose": {
            "orientation": {
                "w": 0.7047431493862688,
                "x": -0.7094548369677653,
                "y": 0.0024358444001904,
                "z": -0.0022348060817251984
            },
            "position": {
                "x": -0.39052492380142206,
                "y": 0.3671506643295288,
                "z": 0.19426114857196808
            }
        },
        "name": "move_to_magneteinheit_D"
    },
    "id": "BKPIECE_move_to_magneteinheit_D_66",
    "joint_names": [
        "shoulder_pan_joint",
        "shoulder_lift_joint",
        "elbow_joint",
        "wrist_1_joint",
        "wrist_2_joint",
        "wrist_3_joint"
    ],
    "metrics": {
        "cart_traj_len": 4.255512415640105,
        "distance_elbow_joint": 3.1412411840687553,
        "distance_shoulder_lift_joint": 1.6292847237167283,
        "distance_shoulder_pan_joint": 2.984080718616666,
        "distance_wrist_1_joint": 1.5282875792180841,
        "distance_wrist_2_joint": 0.7800177976720922,
        "distance_wrist_3_joint": 3.0700608560567964,
        "smoothness": 0.22669636167362137,
        "time": 0.410172315,
        "traj_len": 3.623944378622432,
        "weighted_distance": 4.645578537529302
    },
    "planner": "BKPIECE",
    "start": {
        "state": {
            "elbow_joint": 0.7495348899011911,
            "shoulder_lift_joint": -0.6476975780737668,
            "shoulder_pan_joint": -2.711696901376276,
            "wrist_1_joint": -0.0750647808097303,
            "wrist_2_joint": 0.43296659715458535,
            "wrist_3_joint": 3.1361499051832418
        }
    },
    "waypoints": [
        {
            "positions": [
                -2.711696901376276,
                -0.6476975780737668,
                0.7495348899011911,
                -0.0750647808097303,
                0.43296659715458535,
                3.1361499051832418
            ]
        },
        {
            "positions": [
                -2.724089218415052,
                -0.6632561245114299,
                0.7088236428142237,
                0.041137302440627715,
                0.43247698511396937,
                2.9999040946264857
            ]
        },
        {
            "positions": [
                -2.7364815354538283,
                -0.678814670949093,
                0.6681123957272563,
                0.1573393856909857,
                0.43198737307335333,
                2.8636582840697296
            ]
        },
        {
            "positions": [
                -2.748873852492604,
                -0.6943732173867561,
                0.627401148640289,
                0.27354146894134374,
                0.43149776103273735,
                2.7274124735129734
            ]
        },
        {
            "positions": [
                -2.76126616953138,
                -0.7099317638244191,
                0.5866899015533216,
                0.38974355219170176,
                0.43100814899212136,
                2.5911666629562173
            ]
        },
        {
            "positions": [
                -2.644866106770807,
                -0.7687161519180816,
                0.520174625721002,
                0.4303298071685174,
                0.4249513654166791,
                2.499856365370201
            ]
        },
        {
            "positions": [
                -2.5284660440102336,
                -0.8275005400117441,
                0.4536593498886826,
                0.47091606214533294,
                0.4188945818412369,
                2.408546067784185
            ]
        },
        {
            "positions": [
                -2.4120659812496608,
                -0.8862849281054066,
                0.3871440740563632,
                0.5115023171221486,
                0.41283779826579464,
                2.3172357701981685
            ]
        },
        {
            "positions": [
                -2.2956659184890875,
                -0.9450693161990691,
                0.32062879822404367,
                0.5520885720989641,
                0.40678101469035244,
                2.2259254726121522
            ]
        },
        {
            "positions": [
                -2.1792658557285143,
                -1.0038537042927316,
                0.25411352239172424,
                0.5926748270757797,
                0.4007242311149102,
                2.134615175026136
            ]
        },
        {
            "positions": [
                -2.062865792967941,
                -1.062638092386394,
                0.18759824655940477,
                0.6332610820525952,
                0.394667447539468,
                2.0433048774401197
            ]
        },
        {
            "positions": [
                -1.9464657302073678,
                -1.1214224804800565,
                0.12108297072708529,
                0.6738473370294109,
                0.3886106639640257,
                1.9519945798541032
            ]
        },
        {
            "positions": [
                -1.8300656674467948,
                -1.180206868573719,
                0.05456769489476576,
                0.7144335920062266,
                0.3825538803885835,
                1.8606842822680867
            ]
        },
        {
            "positions": [
                -1.7136656046862215,
                -1.2389912566673815,
                -0.011947580937553659,
                0.755019846983042,
                0.37649709681314125,
                1.7693739846820704
            ]
        },
        {
            "positions": [
                -1.5972655419256485,
                -1.297775644761044,
                -0.07846285676987308,
                0.7956061019598577,
                0.37044031323769905,
                1.6780636870960541
            ]
        },
        {
            "positions": [
                -1.4808654791650753,
                -1.3565600328547065,
                -0.1449781326021926,
                0.8361923569366733,
                0.3643835296622568,
                1.5867533895100379
            ]
        },
        {
            "positions": [
                -1.3797114985601984,
                -1.4110605564848546,
                -0.2555208774072,
                0.8611897499585919,
                0.3429446884987279,
                1.5060916965073319
            ]
        },
        {
            "positions": [
                -1.2785575179553217,
                -1.4655610801150027,
                -0.36606362221220734,
                0.8861871429805106,
                0.32150584733519905,
                1.425430003504626
            ]
        },
        {
            "positions": [
                -1.1774035373504448,
                -1.5200616037451509,
                -0.4766063670172147,
                0.9111845360024292,
                0.30006700617167015,
                1.34476831050192
            ]
        },
        {
            "positions": [
                -1.076249556745568,
                -1.574562127375299,
                -0.5871491118222221,
                0.9361819290243479,
                0.2786281650081413,
                1.264106617499214
            ]
        },
        {
            "positions": [
                -0.9750955761406912,
                -1.629062651005447,
                -0.6976918566272294,
                0.9611793220462665,
                0.2571893238446124,
                1.183444924496508
            ]
        },
        {
            "positions": [
                -0.8739415955358144,
                -1.683563174635595,
                -0.8082346014322368,
                0.9861767150681853,
                0.23575048268108353,
                1.102783231493802
            ]
        },
        {
            "positions": [
                -0.7727876149309377,
                -1.7380636982657431,
                -0.9187773462372442,
                1.011174108090104,
                0.2143116415175547,
                1.022121538491096
            ]
        },
        {
            "positions": [
                -0.6716336343260608,
                -1.7925642218958913,
                -1.0293200910422515,
                1.0361715011120225,
                0.1928728003540258,
                0.94145984548839
            ]
        },
        {
            "positions": [
                -0.5704796537211841,
                -1.8470647455260392,
                -1.139862835847259,
                1.0611688941339412,
                0.17143395919049692,
                0.860798152485684
            ]
        },
        {
            "positions": [
                -0.46932567311630713,
                -1.9015652691561873,
                -1.2504055806522663,
                1.08616628715586,
                0.14999511802696805,
                0.780136459482978
            ]
        },
        {
            "positions": [
                -0.36817169251143045,
                -1.9560657927863354,
                -1.3609483254572736,
                1.1111636801777784,
                0.12855627686343918,
                0.6994747664802721
            ]
        },
        {
            "positions": [
                -0.26701771190655355,
                -2.0105663164164835,
                -1.471491070262281,
                1.1361610731996972,
                0.10711743569991028,
                0.6188130734775661
            ]
        },
        {
            "positions": [
                -0.16586373130167695,
                -2.0650668400466317,
                -1.5820338150672884,
                1.161158466221616,
                0.08567859453638141,
                0.5381513804748602
            ]
        },
        {
            "positions": [
                -0.1258227069400691,
                -2.106206175973071,
                -1.7037480886207017,
                1.1798072262744101,
                0.055217801807622285,
                0.46224065254627045
            ]
        },
        {
            "positions": [
                -0.08578168257846126,
                -2.1473455118995104,
                -1.825462362174115,
                1.1984559863272042,
                0.024757009078863162,
                0.3863299246176806
            ]
        },
        {
            "positions": [
                -0.045740658216853414,
                -2.1884848478259498,
                -1.9471766357275284,
                1.2171047463799982,
                -0.00570378364989596,
                0.3104191966890908
            ]
        },
        {
            "positions": [
                -0.005699633855245578,
                -2.229624183752389,
                -2.0688909092809418,
                1.2357535064327925,
                -0.03616457637865508,
                0.23450846876050102
            ]
        },
        {
            "positions": [
                -0.051779375224453486,
                -2.2450969232426816,
                -2.1677726557238977,
                1.248012782082153,
                -0.06076741166631849,
                0.17738914914535375
            ]
        },
        {
            "positions": [
                -0.0978591165936614,
                -2.260569662732974,
                -2.266654402166854,
                1.2602720577315134,
                -0.08537024695398189,
                0.12026982953020647
            ]
        },
        {
            "positions": [
                -0.1412518326171672,
                -2.268775982261735,
                -2.3291803481672084,
                1.3567474280699336,
                0.04547022982778055,
                0.09317943932832588
            ]
        },
        {
            "positions": [
                -0.184644548640673,
                -2.276982301790495,
                -2.391706294167563,
                1.4532227984083537,
                0.176310706609543,
                0.0660890491264453
            ]
        }
    ]
}