{
    "goal": {
        "global_pose": {
            "orientation": {
                "w": 0.005598929693374612,
                "x": 0.007748599140229565,
                "y": 0.7110244013736278,
                "z": -0.7031023480610252
            },
            "position": {
                "x": 0.1141497679147869,
                "y": -0.7141253447532654,
                "z": 0.3711530566215515
            }
        },
        "name": "move_to_auspresseinheit_B"
    },
    "id": "BKPIECE_move_to_auspresseinheit_B_62",
    "joint_names": [
        "shoulder_pan_joint",
        "shoulder_lift_joint",
        "elbow_joint",
        "wrist_1_joint",
        "wrist_2_joint",
        "wrist_3_joint"
    ],
    "metrics": {
        "cart_traj_len": 0.5645168079301456,
        "distance_elbow_joint": 0.06371934745218488,
        "distance_shoulder_lift_joint": 0.29329059682302927,
        "distance_shoulder_pan_joint": 0.5752524903900327,
        "distance_wrist_1_joint": 0.3253491905424404,
        "distance_wrist_2_joint": 0.9991006508350995,
        "distance_wrist_3_joint": 0.004543118377991817,
        "smoothness": 5.075305295617109e-16,
        "time": 0.211501525,
        "traj_len": 1.5037471178428834,
        "weighted_distance": 1.8959935317807128
    },
    "planner": "BKPIECE",
    "start": {
        "state": {
            "elbow_joint": 2.0193061681459312,
            "shoulder_lift_joint": -1.1220205130644991,
            "shoulder_pan_joint": -1.0952072088045026,
            "wrist_1_joint": -0.8559671810662515,
            "wrist_2_joint": 0.4759638712940361,
            "wrist_3_joint": 3.159081874192446
        }
    },
    "waypoints": [
        {
            "positions": [
                -1.0952072088045026,
                -1.1220205130644991,
                2.0193061681459312,
                -0.8559671810662515,
                0.4759638712940361,
                3.159081874192446
            ]
        },
        {
            "positions": [
                -1.191082623869508,
                -1.1709022792016706,
                2.0086862769039002,
                -0.8017423159758448,
                0.6424806464332193,
                3.158324687796114
            ]
        },
        {
            "positions": [
                -1.2869580389345134,
                -1.2197840453388422,
                1.9980663856618697,
                -0.747517450885438,
                0.8089974215724025,
                3.157567501399782
            ]
        },
        {
            "positions": [
                -1.382833453999519,
                -1.2686658114760139,
                1.9874464944198387,
                -0.6932925857950313,
                0.9755141967115859,
                3.15681031500345
            ]
        },
        {
            "positions": [
                -1.4787088690645245,
                -1.3175475776131853,
                1.976826603177808,
                -0.6390677207046246,
                1.142030971850769,
                3.1560531286071183
            ]
        },
        {
            "positions": [
                -1.5745842841295299,
                -1.3664293437503567,
                1.9662067119357771,
                -0.5848428556142178,
                1.3085477469899525,
                3.155295942210786
            ]
        },
        {
            "positions": [
                -1.6704596991945353,
                -1.4153111098875284,
                1.9555868206937463,
                -0.5306179905238111,
                1.4750645221291356,
                3.154538755814454
            ]
        }
    ]
}