{
    "goal": {
        "global_pose": {
            "orientation": {
                "w": 0.7047431468963623,
                "x": -0.7094548344612122,
                "y": 0.0024358443915843964,
                "z": -0.0022348060738295317
            },
            "position": {
                "x": 0.6094750761985779,
                "y": 0.3671506643295288,
                "z": 0.19426114857196808
            }
        },
        "name": "move_to_magneteinheit_A"
    },
    "id": "BKPIECE_move_to_magneteinheit_A_109",
    "joint_names": [
        "shoulder_pan_joint",
        "shoulder_lift_joint",
        "elbow_joint",
        "wrist_1_joint",
        "wrist_2_joint",
        "wrist_3_joint"
    ],
    "metrics": {
        "cart_traj_len": 1.59232448377745,
        "distance_elbow_joint": 3.524581144078761,
        "distance_shoulder_lift_joint": 1.134618213884323,
        "distance_shoulder_pan_joint": 1.2415861623921374,
        "distance_wrist_1_joint": 3.8340280851827315,
        "distance_wrist_2_joint": 1.6943840774840555,
        "distance_wrist_3_joint": 5.0311935232593665,
        "smoothness": 4.750721788278814e-16,
        "time": 0.123752434,
        "traj_len": 4.057140767373172,
        "weighted_distance": 5.661377077661132
    },
    "planner": "BKPIECE",
    "start": {
        "state": {
            "elbow_joint": -1.5739458827952972,
            "shoulder_lift_joint": 0.006533473998580023,
            "shoulder_pan_joint": -1.1188671628667068,
            "wrist_1_joint": 3.138208179676308,
            "wrist_2_joint": -1.5706037135050406,
            "wrist_3_joint": -2.0226958329764257
        }
    },
    "waypoints": [
        {
            "positions": [
                -1.1188671628667068,
                0.006533473998580023,
                -1.5739458827952972,
                3.138208179676308,
                -1.5706037135050406,
                -2.0226958329764257
            ]
        },
        {
            "positions": [
                -1.089305587571656,
                -0.020481245379618148,
                -1.4900272841267552,
                3.046921796695767,
                -1.5302612354697058,
                -1.9029055109940598
            ]
        },
        {
            "positions": [
                -1.059744012276605,
                -0.04749596475781632,
                -1.4061086854582134,
                2.9556354137152256,
                -1.4899187574343713,
                -1.783115189011694
            ]
        },
        {
            "positions": [
                -1.0301824369815542,
                -0.0745106841360145,
                -1.3221900867896714,
                2.8643490307346844,
                -1.4495762793990365,
                -1.6633248670293281
            ]
        },
        {
            "positions": [
                -1.0006208616865033,
                -0.10152540351421266,
                -1.2382714881211294,
                2.773062647754143,
                -1.409233801363702,
                -1.5435345450469624
            ]
        },
        {
            "positions": [
                -0.9710592863914524,
                -0.12854012289241082,
                -1.1543528894525876,
                2.681776264773602,
                -1.3688913233283673,
                -1.4237442230645965
            ]
        },
        {
            "positions": [
                -0.9414977110964016,
                -0.155554842270609,
                -1.0704342907840458,
                2.5904898817930606,
                -1.3285488452930327,
                -1.3039539010822305
            ]
        },
        {
            "positions": [
                -0.9119361358013507,
                -0.18256956164880717,
                -0.9865156921155038,
                2.49920349881252,
                -1.288206367257698,
                -1.1841635790998648
            ]
        },
        {
            "positions": [
                -0.8823745605062997,
                -0.20958428102700533,
                -0.9025970934469618,
                2.4079171158319785,
                -1.2478638892223635,
                -1.0643732571174989
            ]
        },
        {
            "positions": [
                -0.8528129852112489,
                -0.2365990004052035,
                -0.8186784947784199,
                2.3166307328514373,
                -1.2075214111870287,
                -0.9445829351351329
            ]
        },
        {
            "positions": [
                -0.8232514099161979,
                -0.2636137197834017,
                -0.734759896109878,
                2.225344349870896,
                -1.167178933151694,
                -0.8247926131527672
            ]
        },
        {
            "positions": [
                -0.7936898346211471,
                -0.2906284391615999,
                -0.650841297441336,
                2.1340579668903548,
                -1.1268364551163592,
                -0.705002291170401
            ]
        },
        {
            "positions": [
                -0.7641282593260962,
                -0.3176431585397981,
                -0.5669226987727942,
                2.0427715839098135,
                -1.0864939770810247,
                -0.5852119691880353
            ]
        },
        {
            "positions": [
                -0.7345666840310452,
                -0.34465787791799624,
                -0.4830041001042522,
                1.9514852009292722,
                -1.0461514990456902,
                -0.46542164720566936
            ]
        },
        {
            "positions": [
                -0.7050051087359944,
                -0.3716725972961944,
                -0.3990855014357104,
                1.860198817948731,
                -1.0058090210103554,
                -0.34563132522330364
            ]
        },
        {
            "positions": [
                -0.6754435334409434,
                -0.3986873166743926,
                -0.3151669027671684,
                1.7689124349681897,
                -0.9654665429750208,
                -0.2258410032409377
            ]
        },
        {
            "positions": [
                -0.6458819581458926,
                -0.4257020360525907,
                -0.2312483040986264,
                1.6776260519876487,
                -0.9251240649396861,
                -0.10605068125857198
            ]
        },
        {
            "positions": [
                -0.6163203828508417,
                -0.45271675543078893,
                -0.1473297054300844,
                1.5863396690071072,
                -0.8847815869043514,
                0.013739640723794189
            ]
        },
        {
            "positions": [
                -0.5867588075557909,
                -0.4797314748089871,
                -0.0634111067615426,
                1.4950532860265662,
                -0.8444391088690169,
                0.1335299627061599
            ]
        },
        {
            "positions": [
                -0.5571972322607399,
                -0.5067461941871853,
                0.02050749190699941,
                1.403766903046025,
                -0.8040966308336821,
                0.25332028468852563
            ]
        },
        {
            "positions": [
                -0.527635656965689,
                -0.5337609135653834,
                0.1044260905755412,
                1.3124805200654837,
                -0.7637541527983476,
                0.37311060667089135
            ]
        },
        {
            "positions": [
                -0.49807408167063816,
                -0.5607756329435816,
                0.1883446892440832,
                1.2211941370849424,
                -0.7234116747630128,
                0.4929009286532575
            ]
        },
        {
            "positions": [
                -0.4685125063755873,
                -0.5877903523217798,
                0.2722632879126252,
                1.129907754104401,
                -0.6830691967276781,
                0.6126912506356237
            ]
        },
        {
            "positions": [
                -0.4389509310805363,
                -0.614805071699978,
                0.35618188658116723,
                1.0386213711238597,
                -0.6427267186923434,
                0.7324815726179894
            ]
        },
        {
            "positions": [
                -0.4093893557854855,
                -0.6418197910781761,
                0.4401004852497088,
                0.9473349881433188,
                -0.6023842406570089,
                0.8522718946003551
            ]
        },
        {
            "positions": [
                -0.37982778049043464,
                -0.6688345104563742,
                0.5240190839182508,
                0.8560486051627776,
                -0.5620417626216743,
                0.9720622165827209
            ]
        },
        {
            "positions": [
                -0.35026620519538365,
                -0.6958492298345724,
                0.6079376825867928,
                0.7647622221822363,
                -0.5216992845863395,
                1.091852538565087
            ]
        },
        {
            "positions": [
                -0.32070462990033277,
                -0.7228639492127706,
                0.6918562812553348,
                0.6734758392016951,
                -0.48135680655100477,
                1.2116428605474532
            ]
        },
        {
            "positions": [
                -0.291143054605282,
                -0.7498786685909687,
                0.7757748799238764,
                0.5821894562211538,
                -0.44101432851567024,
                1.3314331825298185
            ]
        },
        {
            "positions": [
                -0.261581479310231,
                -0.776893387969167,
                0.8596934785924184,
                0.49090307324061255,
                -0.4006718504803357,
                1.4512235045121846
            ]
        },
        {
            "positions": [
                -0.23201990401518013,
                -0.8039081073473652,
                0.9436120772609604,
                0.3996166902600713,
                -0.36032937244500096,
                1.5710138264945503
            ]
        },
        {
            "positions": [
                -0.20245832872012925,
                -0.8309228267255634,
                1.0275306759295024,
                0.30833030727953004,
                -0.3199868944096662,
                1.6908041484769165
            ]
        },
        {
            "positions": [
                -0.17289675342507838,
                -0.8579375461037614,
                1.1114492745980444,
                0.21704392429898922,
                -0.2796444163743317,
                1.8105944704592818
            ]
        },
        {
            "positions": [
                -0.1433351781300275,
                -0.8849522654819596,
                1.1953678732665864,
                0.12575754131844752,
                -0.23930193833899693,
                1.930384792441648
            ]
        },
        {
            "positions": [
                -0.1137736028349765,
                -0.9119669848601578,
                1.2792864719351285,
                0.03447115833790626,
                -0.19895946030366218,
                2.050175114424014
            ]
        },
        {
            "positions": [
                -0.08421202753992563,
                -0.938981704238356,
                1.3632050706036705,
                -0.056815224642635,
                -0.15861698226832766,
                2.1699654364063803
            ]
        },
        {
            "positions": [
                -0.05465045224487497,
                -0.9659964236165541,
                1.447123669272212,
                -0.1481016076231758,
                -0.11827450423299313,
                2.2897557583887456
            ]
        },
        {
            "positions": [
                -0.02508887694982387,
                -0.9930111429947523,
                1.531042267940754,
                -0.23938799060371707,
                -0.07793202619765838,
                2.4095460803711117
            ]
        },
        {
            "positions": [
                0.004472698345227011,
                -1.0200258623729506,
                1.614960866609296,
                -0.33067437358425833,
                -0.03758954816232363,
                2.529336402353477
            ]
        },
        {
            "positions": [
                0.03403427364027789,
                -1.0470405817511488,
                1.698879465277838,
                -0.4219607565647996,
                0.002752929873011123,
                2.649126724335843
            ]
        },
        {
            "positions": [
                0.06359584893532877,
                -1.0740553011293468,
                1.7827980639463796,
                -0.5132471395453408,
                0.04309540790834543,
                2.7689170463182085
            ]
        },
        {
            "positions": [
                0.09315742423037965,
                -1.101070020507545,
                1.8667166626149216,
                -0.6045335225258821,
                0.08343788594368018,
                2.8887073683005746
            ]
        },
        {
            "positions": [
                0.12271899952543058,
                -1.1280847398857432,
                1.9506352612834639,
                -0.6958199055064233,
                0.12378036397901494,
                3.0084976902829403
            ]
        }
    ]
}