{
    "goal": {
        "global_pose": {
            "orientation": {
                "w": -0.00223480608172531,
                "x": 0.0024358444001904467,
                "y": 0.7094548369677653,
                "z": -0.704743149386269
            },
            "position": {
                "x": 0.6205249238014221,
                "y": -0.6371506643295288,
                "z": 0.19426114857196808
            }
        },
        "name": "move_to_magneteinheit_B"
    },
    "id": "BKPIECE_move_to_magneteinheit_B_116",
    "joint_names": [
        "shoulder_pan_joint",
        "shoulder_lift_joint",
        "elbow_joint",
        "wrist_1_joint",
        "wrist_2_joint",
        "wrist_3_joint"
    ],
    "metrics": {
        "cart_traj_len": 1.4541938242559656,
        "distance_elbow_joint": 0.7271179270403827,
        "distance_shoulder_lift_joint": 1.245850933870341,
        "distance_shoulder_pan_joint": 1.620887340654639,
        "distance_wrist_1_joint": 2.6208036882195866,
        "distance_wrist_2_joint": 2.944076039006052,
        "distance_wrist_3_joint": 3.1375233121074872,
        "smoothness": 1.076579911191508e-16,
        "time": 0.288967416,
        "traj_len": 3.5066022359113513,
        "weighted_distance": 4.912859207461485
    },
    "planner": "BKPIECE",
    "start": {
        "state": {
            "elbow_joint": 2.393587130804639,
            "shoulder_lift_joint": -1.9085141043513325,
            "shoulder_pan_joint": 0.7066247066698809,
            "wrist_1_joint": -0.4678290934590222,
            "wrist_2_joint": 0.7096259084215963,
            "wrist_3_joint": 3.147370379541726
        }
    },
    "waypoints": [
        {
            "positions": [
                0.7066247066698809,
                -1.9085141043513325,
                2.393587130804639,
                -0.4678290934590222,
                0.7096259084215963,
                3.147370379541726
            ]
        },
        {
            "positions": [
                0.6559719772744234,
                -1.8695812626678843,
                2.370864695584627,
                -0.3859289782021601,
                0.6176235322026572,
                3.049322776038367
            ]
        },
        {
            "positions": [
                0.605319247878966,
                -1.8306484209844363,
                2.348142260364615,
                -0.304028862945298,
                0.5256211559837181,
                2.951275172535008
            ]
        },
        {
            "positions": [
                0.5546665184835085,
                -1.791715579300988,
                2.325419825144603,
                -0.22212874768843593,
                0.433618779764779,
                2.853227569031649
            ]
        },
        {
            "positions": [
                0.504013789088051,
                -1.7527827376175398,
                2.302697389924591,
                -0.14022863243157385,
                0.3416164035458399,
                2.7551799655282903
            ]
        },
        {
            "positions": [
                0.45336105969259355,
                -1.7138498959340918,
                2.279974954704579,
                -0.05832851717471177,
                0.24961402732690074,
                2.657132362024931
            ]
        },
        {
            "positions": [
                0.40270833029713604,
                -1.6749170542506435,
                2.257252519484567,
                0.023571598082150313,
                0.15761165110796171,
                2.559084758521572
            ]
        },
        {
            "positions": [
                0.3520556009016786,
                -1.6359842125671955,
                2.2345300842645552,
                0.10547171333901234,
                0.06560927488902257,
                2.461037155018213
            ]
        },
        {
            "positions": [
                0.30140287150622114,
                -1.5970513708837473,
                2.2118076490445433,
                0.18737182859587448,
                -0.02639310132991657,
                2.362989551514854
            ]
        },
        {
            "positions": [
                0.2507501421107637,
                -1.558118529200299,
                2.1890852138245314,
                0.2692719438527366,
                -0.11839547754885571,
                2.2649419480114954
            ]
        },
        {
            "positions": [
                0.20009741271530623,
                -1.519185687516851,
                2.166362778604519,
                0.35117205910959864,
                -0.21039785376779485,
                2.1668943445081363
            ]
        },
        {
            "positions": [
                0.14944468331984873,
                -1.4802528458334028,
                2.143640343384507,
                0.43307217436646067,
                -0.3024002299867339,
                2.0688467410047773
            ]
        },
        {
            "positions": [
                0.09879195392439122,
                -1.4413200041499548,
                2.120917908164495,
                0.5149722896233229,
                -0.3944026062056729,
                1.9707991375014182
            ]
        },
        {
            "positions": [
                0.04813922452893382,
                -1.4023871624665065,
                2.098195472944483,
                0.596872404880185,
                -0.48640498242461216,
                1.8727515339980594
            ]
        },
        {
            "positions": [
                -0.002513504866523686,
                -1.3634543207830583,
                2.0754730377244712,
                0.6787725201370469,
                -0.5784073586435512,
                1.7747039304947003
            ]
        },
        {
            "positions": [
                -0.05316623426198108,
                -1.32452147909961,
                2.0527506025044593,
                0.7606726353939091,
                -0.6704097348624904,
                1.6766563269913415
            ]
        },
        {
            "positions": [
                -0.10381896365743859,
                -1.285588637416162,
                2.0300281672844473,
                0.8425727506507712,
                -0.7624121110814295,
                1.5786087234879824
            ]
        },
        {
            "positions": [
                -0.1544716930528961,
                -1.246655795732714,
                2.0073057320644354,
                0.9244728659076333,
                -0.8544144873003685,
                1.4805611199846234
            ]
        },
        {
            "positions": [
                -0.2051244224483535,
                -1.2077229540492658,
                1.9845832968444235,
                1.0063729811644955,
                -0.9464168635193078,
                1.3825135164812645
            ]
        },
        {
            "positions": [
                -0.255777151843811,
                -1.1687901123658175,
                1.9618608616244115,
                1.0882730964213574,
                -1.0384192397382468,
                1.2844659129779055
            ]
        },
        {
            "positions": [
                -0.3064298812392684,
                -1.1298572706823693,
                1.9391384264043996,
                1.1701732116782195,
                -1.130421615957186,
                1.1864183094745466
            ]
        },
        {
            "positions": [
                -0.3570826106347259,
                -1.0909244289989213,
                1.9164159911843877,
                1.2520733269350817,
                -1.222423992176125,
                1.0883707059711876
            ]
        },
        {
            "positions": [
                -0.4077353400301834,
                -1.051991587315473,
                1.8936935559643757,
                1.3339734421919436,
                -1.314426368395064,
                0.9903231024678285
            ]
        },
        {
            "positions": [
                -0.4583880694256409,
                -1.013058745632025,
                1.8709711207443638,
                1.4158735574488057,
                -1.4064287446140031,
                0.8922754989644694
            ]
        },
        {
            "positions": [
                -0.5090407988210984,
                -0.9741259039485768,
                1.8482486855243518,
                1.4977736727056679,
                -1.4984311208329422,
                0.7942278954611104
            ]
        },
        {
            "positions": [
                -0.5596935282165557,
                -0.9351930622651287,
                1.82552625030434,
                1.5796737879625298,
                -1.5904334970518816,
                0.6961802919577518
            ]
        },
        {
            "positions": [
                -0.6103462576120132,
                -0.8962602205816805,
                1.802803815084328,
                1.6615739032193921,
                -1.6824358732708207,
                0.5981326884543927
            ]
        },
        {
            "positions": [
                -0.6609989870074707,
                -0.8573273788982323,
                1.780081379864316,
                1.743474018476254,
                -1.7744382494897597,
                0.5000850849510337
            ]
        },
        {
            "positions": [
                -0.7116517164029282,
                -0.8183945372147841,
                1.757358944644304,
                1.825374133733116,
                -1.8664406257086987,
                0.4020374814476746
            ]
        },
        {
            "positions": [
                -0.7623044457983857,
                -0.779461695531336,
                1.7346365094242922,
                1.9072742489899783,
                -1.9584430019276378,
                0.30398987794431553
            ]
        },
        {
            "positions": [
                -0.812957175193843,
                -0.7405288538478878,
                1.71191407420428,
                1.9891743642468402,
                -2.050445378146577,
                0.20594227444095692
            ]
        },
        {
            "positions": [
                -0.8636099045893005,
                -0.7015960121644398,
                1.689191638984268,
                2.0710744795037024,
                -2.1424477543655165,
                0.10789467093759786
            ]
        },
        {
            "positions": [
                -0.914262633984758,
                -0.6626631704809915,
                1.6664692037642561,
                2.1529745947605643,
                -2.2344501305844555,
                0.009847067434238852
            ]
        }
    ]
}