{
    "goal": {
        "global_pose": {
            "orientation": {
                "w": 0.5084816262002911,
                "x": -0.4908360881923452,
                "y": 0.5182115481033761,
                "z": -0.48164630358495003
            },
            "position": {
                "x": 0.5540239810943604,
                "y": -0.46912469901144505,
                "z": 0.16403168439865112
            }
        },
        "name": "move_to_storage_B"
    },
    "id": "BKPIECE_move_to_storage_B_80",
    "joint_names": [
        "shoulder_pan_joint",
        "shoulder_lift_joint",
        "elbow_joint",
        "wrist_1_joint",
        "wrist_2_joint",
        "wrist_3_joint"
    ],
    "metrics": {
        "cart_traj_len": 0.6195925524217452,
        "distance_elbow_joint": 0.36189076639933204,
        "distance_shoulder_lift_joint": 0.4934409017439212,
        "distance_shoulder_pan_joint": 0.2995146636939974,
        "distance_wrist_1_joint": 2.984562781328857,
        "distance_wrist_2_joint": 2.7268051057604876,
        "distance_wrist_3_joint": 3.1390910493789552,
        "smoothness": 0.14991104619594697,
        "time": 0.193709205,
        "traj_len": 3.163116385513747,
        "weighted_distance": 4.689867296006658
    },
    "planner": "BKPIECE",
    "start": {
        "state": {
            "elbow_joint": 1.6649325340416963,
            "shoulder_lift_joint": -0.6616387945129425,
            "shoulder_pan_joint": -0.9139837929255878,
            "wrist_1_joint": 2.1467571094334352,
            "wrist_2_joint": -2.234195976750228,
            "wrist_3_joint": 0.005470921511140723
        }
    },
    "waypoints": [
        {
            "positions": [
                -0.9139837929255878,
                -0.6616387945129425,
                1.6649325340416963,
                2.1467571094334352,
                -2.234195976750228,
                0.005470921511140723
            ]
        },
        {
            "positions": [
                -0.8541389673688922,
                -0.6448364992737442,
                1.6601460456725954,
                2.062168073141064,
                -2.2369830215344666,
                -0.03869200345509749
            ]
        },
        {
            "positions": [
                -0.8637257608943842,
                -0.6639020435339331,
                1.6744302167938045,
                1.9461691233396046,
                -2.1280222990954165,
                -0.16248912843160618
            ]
        },
        {
            "positions": [
                -0.8733125544198763,
                -0.682967587794122,
                1.688714387915014,
                1.8301701735381453,
                -2.019061576656367,
                -0.28628625340811487
            ]
        },
        {
            "positions": [
                -0.8828993479453684,
                -0.702033132054311,
                1.702998559036223,
                1.7141712237366857,
                -1.9101008542173168,
                -0.4100833783846235
            ]
        },
        {
            "positions": [
                -0.8924861414708605,
                -0.7210986763144999,
                1.7172827301574323,
                1.5981722739352264,
                -1.8011401317782667,
                -0.5338805033611322
            ]
        },
        {
            "positions": [
                -0.9020729349963525,
                -0.7401642205746888,
                1.7315669012786417,
                1.482173324133767,
                -1.6921794093392166,
                -0.6576776283376409
            ]
        },
        {
            "positions": [
                -0.9116597285218446,
                -0.7592297648348777,
                1.7458510723998508,
                1.3661743743323074,
                -1.583218686900167,
                -0.7814747533141495
            ]
        },
        {
            "positions": [
                -0.9212465220473367,
                -0.7782953090950666,
                1.7601352435210602,
                1.2501754245308478,
                -1.474257964461117,
                -0.9052718782906584
            ]
        },
        {
            "positions": [
                -0.9308333155728287,
                -0.7973608533552555,
                1.7744194146422694,
                1.1341764747293885,
                -1.3652972420220668,
                -1.0290690032671668
            ]
        },
        {
            "positions": [
                -0.9404201090983207,
                -0.8164263976154444,
                1.7887035857634785,
                1.0181775249279292,
                -1.256336519583017,
                -1.1528661282436756
            ]
        },
        {
            "positions": [
                -0.9500069026238128,
                -0.8354919418756334,
                1.802987756884688,
                0.9021785751264697,
                -1.1473757971439669,
                -1.2766632532201843
            ]
        },
        {
            "positions": [
                -0.9595936961493049,
                -0.8545574861358223,
                1.817271928005897,
                0.7861796253250102,
                -1.038415074704917,
                -1.400460378196693
            ]
        },
        {
            "positions": [
                -0.969180489674797,
                -0.8736230303960112,
                1.8315560991271063,
                0.6701806755235509,
                -0.9294543522658671,
                -1.5242575031732015
            ]
        },
        {
            "positions": [
                -0.978767283200289,
                -0.8926885746562001,
                1.8458402702483157,
                0.5541817257220913,
                -0.8204936298268171,
                -1.6480546281497104
            ]
        },
        {
            "positions": [
                -0.9883540767257811,
                -0.911754118916389,
                1.8601244413695248,
                0.4381827759206318,
                -0.711532907387767,
                -1.7718517531262192
            ]
        },
        {
            "positions": [
                -0.9979408702512732,
                -0.9308196631765779,
                1.874408612490734,
                0.3221838261191725,
                -0.6025721849487173,
                -1.8956488781027276
            ]
        },
        {
            "positions": [
                -1.0075276637767652,
                -0.9498852074367669,
                1.8886927836119434,
                0.20618487631771298,
                -0.49361146250966725,
                -2.0194460030792363
            ]
        },
        {
            "positions": [
                -1.0171144573022572,
                -0.9689507516969558,
                1.9029769547331525,
                0.09018592651625346,
                -0.38465074007061717,
                -2.1432431280557456
            ]
        },
        {
            "positions": [
                -1.0267012508277493,
                -0.9880162959571447,
                1.917261125854362,
                -0.025813023285205627,
                -0.2756900176315673,
                -2.2670402530322535
            ]
        },
        {
            "positions": [
                -1.0362880443532414,
                -1.0070818402173336,
                1.931545296975571,
                -0.14181197308666516,
                -0.16672929519251722,
                -2.3908373780087624
            ]
        },
        {
            "positions": [
                -1.0458748378787335,
                -1.0261473844775226,
                1.9458294680967803,
                -0.2578109228881247,
                -0.05776857275346714,
                -2.5146345029852712
            ]
        },
        {
            "positions": [
                -1.0554616314042256,
                -1.0452129287377114,
                1.9601136392179894,
                -0.3738098726895842,
                0.0511921496855825,
                -2.638431627961779
            ]
        },
        {
            "positions": [
                -1.0650484249297176,
                -1.0642784729979002,
                1.9743978103391988,
                -0.48980882249104374,
                0.16015287212463258,
                -2.762228752938288
            ]
        },
        {
            "positions": [
                -1.0746352184552097,
                -1.0833440172580893,
                1.988681981460408,
                -0.6058077722925033,
                0.26911359456368267,
                -2.886025877914797
            ]
        },
        {
            "positions": [
                -1.0842220119807018,
                -1.1024095615182783,
                2.0029661525816174,
                -0.7218067220939623,
                0.3780743170027323,
                -3.0098230028913058
            ]
        },
        {
            "positions": [
                -1.0938088055061939,
                -1.121475105778467,
                2.0172503237028265,
                -0.8378056718954219,
                0.48703503944178234,
                -3.1336201278678146
            ]
        }
    ]
}