{
    "goal": {
        "global_pose": {
            "orientation": {
                "w": 0.7031023502349854,
                "x": -0.7110244035720825,
                "y": 0.007748599164187908,
                "z": 0.005598929710686207
            },
            "position": {
                "x": 0.11585023208521307,
                "y": 0.44412534475326537,
                "z": 0.3711530566215515
            }
        },
        "name": "move_to_auspresseinheit_A"
    },
    "id": "BKPIECE_move_to_auspresseinheit_A_149",
    "joint_names": [
        "shoulder_pan_joint",
        "shoulder_lift_joint",
        "elbow_joint",
        "wrist_1_joint",
        "wrist_2_joint",
        "wrist_3_joint"
    ],
    "metrics": {
        "cart_traj_len": 1.1904829051931507,
        "distance_elbow_joint": 1.1703072463991662,
        "distance_shoulder_lift_joint": 0.6390684460957918,
        "distance_shoulder_pan_joint": 1.0422347225916182,
        "distance_wrist_1_joint": 1.3157503256391694,
        "distance_wrist_2_joint": 1.0928279618230832,
        "distance_wrist_3_joint": 3.470122264982151,
        "smoothness": 0.5922268491028919,
        "time": 0.238054514,
        "traj_len": 2.9547099633518985,
        "weighted_distance": 4.25195646555295
    },
    "planner": "BKPIECE",
    "start": {
        "state": {
            "elbow_joint": 2.4225746994637096,
            "shoulder_lift_joint": -1.373653595662188,
            "shoulder_pan_joint": -0.3378633848294565,
            "wrist_1_joint": -1.0288595594406726,
            "wrist_2_joint": 1.2330228066703421,
            "wrist_3_joint": 3.189163495502006
        }
    },
    "waypoints": [
        {
            "positions": [
                -0.3378633848294565,
                -1.373653595662188,
                2.4225746994637096,
                -1.0288595594406726,
                1.2330228066703421,
                3.189163495502006
            ]
        },
        {
            "positions": [
                -0.3071286956493155,
                -1.4062879772586716,
                2.36250238127057,
                -0.9607692405009047,
                1.1818218625888708,
                3.0598404898625837
            ]
        },
        {
            "positions": [
                -0.27639400646917456,
                -1.4389223588551552,
                2.30243006307743,
                -0.8926789215611368,
                1.1306209185073994,
                2.9305174842231616
            ]
        },
        {
            "positions": [
                -0.24565931728903356,
                -1.4715567404516385,
                2.2423577448842904,
                -0.8245886026213689,
                1.079419974425928,
                2.8011944785837395
            ]
        },
        {
            "positions": [
                -0.2149246281088926,
                -1.504191122048122,
                2.18228542669115,
                -0.7564982836816009,
                1.0282190303444567,
                2.671871472944317
            ]
        },
        {
            "positions": [
                -0.18418993892875163,
                -1.5368255036446057,
                2.1222131084980105,
                -0.688407964741833,
                0.9770180862629853,
                2.5425484673048953
            ]
        },
        {
            "positions": [
                -0.15345524974861066,
                -1.5694598852410893,
                2.0621407903048707,
                -0.620317645802065,
                0.9258171421815139,
                2.4132254616654727
            ]
        },
        {
            "positions": [
                -0.1227205605684697,
                -1.6020942668375726,
                2.002068472111731,
                -0.5522273268622971,
                0.8746161981000425,
                2.283902456026051
            ]
        },
        {
            "positions": [
                -0.0919858713883287,
                -1.6347286484340562,
                1.9419961539185913,
                -0.4841370079225291,
                0.8234152540185711,
                2.1545794503866285
            ]
        },
        {
            "positions": [
                -0.061251182208187704,
                -1.6673630300305398,
                1.8819238357254513,
                -0.4160466889827612,
                0.7722143099370997,
                2.0252564447472063
            ]
        },
        {
            "positions": [
                -0.030516493028046793,
                -1.6999974116270233,
                1.8218515175323116,
                -0.34795637004299335,
                0.7210133658556284,
                1.8959334391077842
            ]
        },
        {
            "positions": [
                0.03463379907233609,
                -1.7357644535381824,
                1.8348889292336292,
                -0.2952689766483779,
                0.6616606086801463,
                1.8021998814282199
            ]
        },
        {
            "positions": [
                0.09978409117271897,
                -1.7715314954493415,
                1.847926340934947,
                -0.24258158325376256,
                0.6023078515046643,
                1.7084663237486555
            ]
        },
        {
            "positions": [
                0.16493438327310184,
                -1.8072985373605004,
                1.8609637526362648,
                -0.18989418985914716,
                0.5429550943291823,
                1.6147327660690909
            ]
        },
        {
            "positions": [
                0.23008467537348473,
                -1.8430655792716595,
                1.8740011643375825,
                -0.13720679646453174,
                0.48360233715370027,
                1.5209992083895265
            ]
        },
        {
            "positions": [
                0.2952349674738676,
                -1.8788326211828186,
                1.8870385760389001,
                -0.08451940306991634,
                0.4242495799782182,
                1.4272656507099621
            ]
        },
        {
            "positions": [
                0.35151184475469577,
                -1.89927435211596,
                1.9797101714154512,
                -0.10666778851462774,
                0.43705821697307656,
                1.565502522935045
            ]
        },
        {
            "positions": [
                0.40778872203552397,
                -1.9197160830491016,
                2.0723817667920024,
                -0.12881617395933914,
                0.4498668539679349,
                1.703739395160128
            ]
        },
        {
            "positions": [
                0.4640655993163521,
                -1.9401578139822433,
                2.1650533621685533,
                -0.15096455940405054,
                0.46267549096279326,
                1.8419762673852111
            ]
        },
        {
            "positions": [
                0.5203424765971802,
                -1.9605995449153848,
                2.2577249575451046,
                -0.17311294484876194,
                0.4754841279576516,
                1.980213139610294
            ]
        },
        {
            "positions": [
                0.5510139534580104,
                -1.9519124621082855,
                2.280010061620934,
                -0.2202490494303564,
                0.514287492482906,
                2.1727592948252568
            ]
        },
        {
            "positions": [
                0.5816854303188407,
                -1.9432253793011864,
                2.302295165696763,
                -0.26738515401195084,
                0.5530908570081602,
                2.365305450040219
            ]
        },
        {
            "positions": [
                0.6123569071796708,
                -1.9345382964940874,
                2.324580269772592,
                -0.3145212585935453,
                0.5918942215334145,
                2.5578516052551814
            ]
        },
        {
            "positions": [
                0.643028384040501,
                -1.925851213686988,
                2.3468653738484213,
                -0.36165736317513975,
                0.6306975860586688,
                2.750397760470144
            ]
        },
        {
            "positions": [
                0.6736998609013313,
                -1.9171641308798888,
                2.3691504779242507,
                -0.4087934677567342,
                0.6695009505839231,
                2.942943915685107
            ]
        },
        {
            "positions": [
                0.7043713377621614,
                -1.9084770480727897,
                2.3914355820000797,
                -0.45592957233832865,
                0.7083043151091775,
                3.1354900709000693
            ]
        }
    ]
}