{
    "goal": {
        "global_pose": {
            "orientation": {
                "w": 0.005598929693374612,
                "x": 0.007748599140229565,
                "y": 0.7110244013736278,
                "z": -0.7031023480610252
            },
            "position": {
                "x": -0.8858502320852131,
                "y": -0.7141253447532654,
                "z": 0.3711530566215515
            }
        },
        "name": "move_to_auspresseinheit_C"
    },
    "id": "BKPIECE_move_to_auspresseinheit_C_27",
    "joint_names": [
        "shoulder_pan_joint",
        "shoulder_lift_joint",
        "elbow_joint",
        "wrist_1_joint",
        "wrist_2_joint",
        "wrist_3_joint"
    ],
    "metrics": {
        "cart_traj_len": 0.49271118245763545,
        "distance_elbow_joint": 1.0020461404422991,
        "distance_shoulder_lift_joint": 0.3254894039081909,
        "distance_shoulder_pan_joint": 0.25543987774314036,
        "distance_wrist_1_joint": 0.6831718169207882,
        "distance_wrist_2_joint": 1.3168133251208838,
        "distance_wrist_3_joint": 0.05425604570636944,
        "smoothness": 8.074349282788172e-16,
        "time": 0.351198911,
        "traj_len": 1.9071488169101203,
        "weighted_distance": 2.3970218695906973
    },
    "planner": "BKPIECE",
    "start": {
        "state": {
            "elbow_joint": 1.7527959577730765,
            "shoulder_lift_joint": -0.9740617694224828,
            "shoulder_pan_joint": -2.967991417825869,
            "wrist_1_joint": -0.7595177689779385,
            "wrist_2_joint": 1.7443932448376545,
            "wrist_3_joint": 3.1991315425061013
        }
    },
    "waypoints": [
        {
            "positions": [
                -2.967991417825869,
                -0.9740617694224828,
                1.7527959577730765,
                -0.7595177689779385,
                1.7443932448376545,
                3.1991315425061013
            ]
        },
        {
            "positions": [
                -2.942447430051555,
                -0.9415128290316637,
                1.6525913437288466,
                -0.6912005872858598,
                1.612711912325566,
                3.1937059379354644
            ]
        },
        {
            "positions": [
                -2.916903442277241,
                -0.9089638886408447,
                1.5523867296846166,
                -0.6228834055937809,
                1.4810305798134777,
                3.1882803333648275
            ]
        },
        {
            "positions": [
                -2.891359454502927,
                -0.8764149482500255,
                1.4521821156403867,
                -0.5545662239017021,
                1.3493492473013893,
                3.1828547287941906
            ]
        },
        {
            "positions": [
                -2.865815466728613,
                -0.8438660078592064,
                1.3519775015961568,
                -0.48624904220962323,
                1.2176679147893008,
                3.1774291242235537
            ]
        },
        {
            "positions": [
                -2.840271478954299,
                -0.8113170674683874,
                1.251772887551927,
                -0.41793186051754444,
                1.0859865822772126,
                3.1720035196529164
            ]
        },
        {
            "positions": [
                -2.8147274911799847,
                -0.7787681270775683,
                1.151568273507697,
                -0.34961467882546565,
                0.9543052497651242,
                3.1665779150822795
            ]
        },
        {
            "positions": [
                -2.789183503405671,
                -0.7462191866867491,
                1.0513636594634672,
                -0.2812974971333868,
                0.8226239172530359,
                3.1611523105116426
            ]
        },
        {
            "positions": [
                -2.7636395156313567,
                -0.7136702462959301,
                0.9511590454192371,
                -0.2129803154413079,
                0.6909425847409474,
                3.1557267059410057
            ]
        },
        {
            "positions": [
                -2.738095527857043,
                -0.6811213059051109,
                0.8509544313750073,
                -0.14466313374922912,
                0.5592612522288589,
                3.150301101370369
            ]
        },
        {
            "positions": [
                -2.7125515400827287,
                -0.6485723655142919,
                0.7507498173307774,
                -0.07634595205715036,
                0.42757991971677073,
                3.144875496799732
            ]
        }
    ]
}