{
    "goal": {
        "global_pose": {
            "orientation": {
                "w": 0.7031023480610252,
                "x": -0.7110244013736278,
                "y": 0.0077485991402295624,
                "z": 0.005598929693374583
            },
            "position": {
                "x": -0.8841497679147869,
                "y": 0.44412534475326537,
                "z": 0.3711530566215515
            }
        },
        "name": "move_to_auspresseinheit_D"
    },
    "id": "BKPIECE_move_to_auspresseinheit_D_139",
    "joint_names": [
        "shoulder_pan_joint",
        "shoulder_lift_joint",
        "elbow_joint",
        "wrist_1_joint",
        "wrist_2_joint",
        "wrist_3_joint"
    ],
    "metrics": {
        "cart_traj_len": 0.34475434488810036,
        "distance_elbow_joint": 0.6574010102709935,
        "distance_shoulder_lift_joint": 0.13122333085409688,
        "distance_shoulder_pan_joint": 0.13423215849451198,
        "distance_wrist_1_joint": 0.5887194725223162,
        "distance_wrist_2_joint": 1.4364025331623307,
        "distance_wrist_3_joint": 0.041632911662075056,
        "smoothness": 3.9474596431116675e-16,
        "time": 0.170871744,
        "traj_len": 1.7290492812428233,
        "weighted_distance": 2.2578749402868
    },
    "planner": "BKPIECE",
    "start": {
        "state": {
            "elbow_joint": -1.8275484843655228,
            "shoulder_lift_joint": -2.1267897864000416,
            "shoulder_pan_joint": -0.035127520176001514,
            "wrist_1_joint": -2.3477863256791385,
            "wrist_2_joint": -1.605890476484521,
            "wrist_3_joint": -3.0880375317375353
        }
    },
    "waypoints": [
        {
            "positions": [
                -0.035127520176001514,
                -2.1267897864000416,
                -1.8275484843655228,
                -2.3477863256791385,
                -1.605890476484521,
                -3.0880375317375353
            ]
        },
        {
            "positions": [
                -0.05190653998781551,
                -2.143192702756804,
                -1.7453733580816486,
                -2.421376259744428,
                -1.4263401598392296,
                -3.082833417779776
            ]
        },
        {
            "positions": [
                -0.06868555979962951,
                -2.1595956191135657,
                -1.6631982317977743,
                -2.4949661938097174,
                -1.2467898431939384,
                -3.0776293038220164
            ]
        },
        {
            "positions": [
                -0.0854645796114435,
                -2.175998535470328,
                -1.5810231055139001,
                -2.568556127875007,
                -1.067239526548647,
                -3.072425189864257
            ]
        },
        {
            "positions": [
                -0.1022435994232575,
                -2.19240145182709,
                -1.498847979230026,
                -2.6421460619402968,
                -0.8876892099033556,
                -3.067221075906498
            ]
        },
        {
            "positions": [
                -0.1190226192350715,
                -2.208804368183852,
                -1.4166728529461519,
                -2.715735996005586,
                -0.7081388932580643,
                -3.0620169619487383
            ]
        },
        {
            "positions": [
                -0.1358016390468855,
                -2.2252072845406143,
                -1.3344977266622777,
                -2.7893259300708757,
                -0.5285885766127729,
                -3.056812847990979
            ]
        },
        {
            "positions": [
                -0.15258065885869948,
                -2.241610200897376,
                -1.2523226003784034,
                -2.8629158641361654,
                -0.3490382599674817,
                -3.0516087340332194
            ]
        },
        {
            "positions": [
                -0.1693596786705135,
                -2.2580131172541384,
                -1.1701474740945292,
                -2.9365057982014546,
                -0.16948794332219025,
                -3.04640462007546
            ]
        }
    ]
}