{
    "goal": {
        "global_pose": {
            "orientation": {
                "w": -0.00223480608172531,
                "x": 0.0024358444001904467,
                "y": 0.7094548369677653,
                "z": -0.704743149386269
            },
            "position": {
                "x": 0.6205249238014221,
                "y": -0.6371506643295288,
                "z": 0.19426114857196808
            }
        },
        "name": "move_to_magneteinheit_B"
    },
    "id": "BKPIECE_move_to_magneteinheit_B_42",
    "joint_names": [
        "shoulder_pan_joint",
        "shoulder_lift_joint",
        "elbow_joint",
        "wrist_1_joint",
        "wrist_2_joint",
        "wrist_3_joint"
    ],
    "metrics": {
        "cart_traj_len": 3.940708525634485,
        "distance_elbow_joint": 5.00992164176991,
        "distance_shoulder_lift_joint": 0.8263029673724975,
        "distance_shoulder_pan_joint": 2.5916200718609392,
        "distance_wrist_1_joint": 3.446561671976927,
        "distance_wrist_2_joint": 3.221731035655835,
        "distance_wrist_3_joint": 3.116350513111367,
        "smoothness": 0.37167487685769457,
        "time": 0.474592222,
        "traj_len": 4.267609155223505,
        "weighted_distance": 5.57794600508135
    },
    "planner": "BKPIECE",
    "start": {
        "state": {
            "elbow_joint": 2.393587130804639,
            "shoulder_lift_joint": -1.9085141043513325,
            "shoulder_pan_joint": 0.7066247066698809,
            "wrist_1_joint": -0.4678290934590222,
            "wrist_2_joint": 0.7096259084215963,
            "wrist_3_joint": 3.147370379541726
        }
    },
    "waypoints": [
        {
            "positions": [
                0.7066247066698809,
                -1.9085141043513325,
                2.393587130804639,
                -0.4678290934590222,
                0.7096259084215963,
                3.147370379541726
            ]
        },
        {
            "positions": [
                0.5470818234426477,
                -1.9161687719768041,
                2.375218725632312,
                -0.34617811608041,
                0.7133507039964199,
                3.089210075154436
            ]
        },
        {
            "positions": [
                0.38753894021541446,
                -1.923823439602276,
                2.3568503204599844,
                -0.2245271387017978,
                0.7170754995712434,
                3.0310497707671464
            ]
        },
        {
            "positions": [
                0.442666419198802,
                -1.919044811305445,
                2.198676358575138,
                -0.26116324538577534,
                0.6614783410081325,
                2.945188436343024
            ]
        },
        {
            "positions": [
                0.4977938981821895,
                -1.9142661830086138,
                2.0405023966902913,
                -0.2977993520697529,
                0.6058811824450215,
                2.859327101918901
            ]
        },
        {
            "positions": [
                0.552921377165577,
                -1.9094875547117829,
                1.8823284348054448,
                -0.33443545875373043,
                0.5502840238819107,
                2.7734657674947782
            ]
        },
        {
            "positions": [
                0.6080488561489645,
                -1.904708926414952,
                1.7241544729205982,
                -0.371071565437708,
                0.4946868653187998,
                2.687604433070655
            ]
        },
        {
            "positions": [
                0.6631763351323521,
                -1.899930298118121,
                1.5659805110357514,
                -0.4077076721216855,
                0.43908970675568887,
                2.6017430986465326
            ]
        },
        {
            "positions": [
                0.7183038141157396,
                -1.8951516698212898,
                1.4078065491509049,
                -0.44434377880566306,
                0.38349254819257794,
                2.51588176422241
            ]
        },
        {
            "positions": [
                0.7734312930991272,
                -1.8903730415244588,
                1.2496325872660583,
                -0.4809798854896406,
                0.32789538962946707,
                2.4300204297982875
            ]
        },
        {
            "positions": [
                0.8285587720825146,
                -1.8855944132276279,
                1.0914586253812117,
                -0.5176159921736181,
                0.27229823106635614,
                2.3441590953741644
            ]
        },
        {
            "positions": [
                0.8836862510659022,
                -1.8808157849307967,
                0.933284663496365,
                -0.5542520988575956,
                0.21670107250324522,
                2.258297760950042
            ]
        },
        {
            "positions": [
                0.9388137300492897,
                -1.8760371566339658,
                0.7751107016115184,
                -0.5908882055415732,
                0.16110391394013435,
                2.172436426525919
            ]
        },
        {
            "positions": [
                0.9939412090326771,
                -1.8712585283371348,
                0.6169367397266718,
                -0.6275243122255507,
                0.10550675537702348,
                2.0865750921017963
            ]
        },
        {
            "positions": [
                1.0490686880160647,
                -1.8664799000403036,
                0.4587627778418253,
                -0.6641604189095283,
                0.049909596813912493,
                2.0007137576776737
            ]
        },
        {
            "positions": [
                1.1041961669994522,
                -1.8617012717434727,
                0.3005888159569787,
                -0.7007965255935058,
                -0.005687561749198378,
                1.9148524232535509
            ]
        },
        {
            "positions": [
                1.1593236459828398,
                -1.8569226434466417,
                0.14241485407213217,
                -0.7374326322774833,
                -0.06128472031230925,
                1.828991088829428
            ]
        },
        {
            "positions": [
                1.2144511249662273,
                -1.8521440151498108,
                -0.015759107812714834,
                -0.7740687389614609,
                -0.11688187887542023,
                1.7431297544053053
            ]
        },
        {
            "positions": [
                1.2695786039496149,
                -1.8473653868529796,
                -0.17393306969756095,
                -0.8107048456454384,
                -0.1724790374385311,
                1.6572684199811825
            ]
        },
        {
            "positions": [
                1.3247060829330022,
                -1.8425867585561486,
                -0.33210703158240795,
                -0.847340952329416,
                -0.22807619600164208,
                1.5714070855570597
            ]
        },
        {
            "positions": [
                1.37983356191639,
                -1.8378081302593177,
                -0.4902809934672545,
                -0.8839770590133935,
                -0.28367335456475296,
                1.485545751132937
            ]
        },
        {
            "positions": [
                1.4349610408997773,
                -1.8330295019624865,
                -0.6484549553521011,
                -0.9206131656973711,
                -0.33927051312786394,
                1.3996844167088143
            ]
        },
        {
            "positions": [
                1.490088519883165,
                -1.8282508736656555,
                -0.8066289172369476,
                -0.9572492723813486,
                -0.3948676716909747,
                1.3138230822846917
            ]
        },
        {
            "positions": [
                1.5452159988665524,
                -1.8234722453688246,
                -0.9648028791217942,
                -0.9938853790653261,
                -0.4504648302540857,
                1.2279617478605687
            ]
        },
        {
            "positions": [
                1.6003434778499397,
                -1.8186936170719936,
                -1.1229768410066407,
                -1.0305214857493037,
                -0.5060619888171964,
                1.142100413436446
            ]
        },
        {
            "positions": [
                1.6554709568333275,
                -1.8139149887751624,
                -1.2811508028914877,
                -1.0671575924332812,
                -0.5616591473803074,
                1.0562390790123233
            ]
        },
        {
            "positions": [
                1.7105984358167148,
                -1.8091363604783315,
                -1.4393247647763339,
                -1.1037936991172588,
                -0.6172563059434184,
                0.9703777445882005
            ]
        },
        {
            "positions": [
                1.7657259148001025,
                -1.8043577321815005,
                -1.5974987266611809,
                -1.1404298058012363,
                -0.6728534645065294,
                0.8845164101640779
            ]
        },
        {
            "positions": [
                1.8208533937834899,
                -1.7995791038846694,
                -1.755672688546027,
                -1.1770659124852139,
                -0.7284506230696401,
                0.7986550757399553
            ]
        },
        {
            "positions": [
                1.8759808727668774,
                -1.7948004755878384,
                -1.9138466504308735,
                -1.2137020191691914,
                -0.7840477816327511,
                0.7127937413158323
            ]
        },
        {
            "positions": [
                1.9438952086016394,
                -1.827784337289477,
                -1.9933437428103564,
                -1.221363777839144,
                -0.8491348860587553,
                0.6135120086430175
            ]
        },
        {
            "positions": [
                2.0118095444364013,
                -1.8607681989911158,
                -2.0728408351898393,
                -1.2290255365090967,
                -0.9142219904847594,
                0.5142302759702025
            ]
        },
        {
            "positions": [
                2.0704038532896316,
                -1.9145109383625891,
                -2.1079870288810785,
                -1.2194589591052742,
                -0.9645667679780323,
                0.39355520391013266
            ]
        },
        {
            "positions": [
                2.128998162142862,
                -1.9682536777340625,
                -2.143133222572317,
                -1.2098923817014517,
                -1.0149115454713054,
                0.2728801318500628
            ]
        },
        {
            "positions": [
                2.166932096677078,
                -2.004576353874126,
                -2.109333130544249,
                -1.0542046556582547,
                -0.9090333740810453,
                0.25560439860579814
            ]
        },
        {
            "positions": [
                2.204866031211294,
                -2.04089903001419,
                -2.0755330385161805,
                -0.8985169296150577,
                -0.8031552026907853,
                0.23832866536153346
            ]
        },
        {
            "positions": [
                2.24279996574551,
                -2.0772217061542535,
                -2.0417329464881124,
                -0.7428292035718607,
                -0.6972770313005254,
                0.22105293211726879
            ]
        },
        {
            "positions": [
                2.2807339002797264,
                -2.1135443822943176,
                -2.0079328544600443,
                -0.5871414775286636,
                -0.5913988599102654,
                0.2037771988730041
            ]
        },
        {
            "positions": [
                2.3186678348139425,
                -2.1498670584343813,
                -1.9741327624319758,
                -0.4314537514854666,
                -0.4855206885200054,
                0.18650146562873943
            ]
        },
        {
            "positions": [
                2.3566017693481585,
                -2.186189734574445,
                -1.9403326704039077,
                -0.2757660254422696,
                -0.3796425171297454,
                0.16922573238447475
            ]
        },
        {
            "positions": [
                2.3945357038823745,
                -2.2225124107145087,
                -1.9065325783758393,
                -0.12007829939907255,
                -0.2737643457394854,
                0.15194999914021007
            ]
        },
        {
            "positions": [
                2.4324696384165905,
                -2.2588350868545723,
                -1.872732486347771,
                0.035609426644124476,
                -0.16788617434922548,
                0.13467426589594542
            ]
        },
        {
            "positions": [
                2.4704035729508065,
                -2.295157762994636,
                -1.838932394319703,
                0.1912971526873215,
                -0.06200800295896536,
                0.11739853265168071
            ]
        },
        {
            "positions": [
                2.508337507485023,
                -2.3314804391347,
                -1.8051323022916346,
                0.34698487873051853,
                0.04387016843129454,
                0.10012279940741606
            ]
        },
        {
            "positions": [
                2.546271442019239,
                -2.3678031152747634,
                -1.7713322102635662,
                0.5026726047737156,
                0.14974833982155467,
                0.08284706616315138
            ]
        },
        {
            "positions": [
                2.584205376553455,
                -2.4041257914148275,
                -1.7375321182354981,
                0.6583603308169126,
                0.25562651121181457,
                0.0655713329188867
            ]
        },
        {
            "positions": [
                2.622139311087671,
                -2.440448467554891,
                -1.7037320262074298,
                0.8140480568601096,
                0.3615046826020747,
                0.04829559967462202
            ]
        },
        {
            "positions": [
                2.660073245621887,
                -2.476771143694955,
                -1.6699319341793615,
                0.9697357829033066,
                0.4673828539923345,
                0.031019866430357347
            ]
        }
    ]
}