{
    "goal": {
        "global_pose": {
            "orientation": {
                "w": -0.4816463035849501,
                "x": 0.5182115481033762,
                "y": 0.4908360881923453,
                "z": -0.5084816262002911
            },
            "position": {
                "x": -0.8240239810943604,
                "y": 0.19912469901144506,
                "z": 0.16403168439865112
            }
        },
        "name": "move_to_storage_D"
    },
    "id": "BKPIECE_move_to_storage_D_29",
    "joint_names": [
        "shoulder_pan_joint",
        "shoulder_lift_joint",
        "elbow_joint",
        "wrist_1_joint",
        "wrist_2_joint",
        "wrist_3_joint"
    ],
    "metrics": {
        "cart_traj_len": 4.236628634505282,
        "distance_elbow_joint": 4.35772237603871,
        "distance_shoulder_lift_joint": 1.2846123278806045,
        "distance_shoulder_pan_joint": 2.812478805461981,
        "distance_wrist_1_joint": 4.0837508574169314,
        "distance_wrist_2_joint": 0.8704435926845419,
        "distance_wrist_3_joint": 3.126880991251535,
        "smoothness": 0.2251090727532425,
        "time": 0.385357767,
        "traj_len": 4.066434427202079,
        "weighted_distance": 5.267242673670812
    },
    "planner": "BKPIECE",
    "start": {
        "state": {
            "elbow_joint": -2.384821990628643,
            "shoulder_lift_joint": -2.278805467437664,
            "shoulder_pan_joint": -0.18546946439364564,
            "wrist_1_joint": 1.4845938187801415,
            "wrist_2_joint": 0.178987772454074,
            "wrist_3_joint": 0.03710569632802521
        }
    },
    "waypoints": [
        {
            "positions": [
                -0.18546946439364564,
                -2.278805467437664,
                -2.384821990628643,
                1.4845938187801415,
                0.178987772454074,
                0.03710569632802521
            ]
        },
        {
            "positions": [
                -0.08408069492037509,
                -2.283635511534919,
                -2.4210914740652614,
                1.477466951512295,
                0.26603584070889397,
                -0.014257396173367555
            ]
        },
        {
            "positions": [
                0.017308074552895458,
                -2.2884655556321745,
                -2.457360957501879,
                1.4703400842444483,
                0.3530839089637139,
                -0.06562048867476032
            ]
        },
        {
            "positions": [
                0.09142055484554762,
                -2.253072453165245,
                -2.3541692968249492,
                1.360995266154657,
                0.3715081576850571,
                -0.10821396745628692
            ]
        },
        {
            "positions": [
                0.16553303513819978,
                -2.217679350698315,
                -2.2509776361480194,
                1.2516504480648654,
                0.38993240640640037,
                -0.15080744623781353
            ]
        },
        {
            "positions": [
                0.23964551543085194,
                -2.182286248231385,
                -2.1477859754710895,
                1.142305629975074,
                0.40835665512774355,
                -0.19340092501934014
            ]
        },
        {
            "positions": [
                0.3137579957235041,
                -2.146893145764455,
                -2.0445943147941597,
                1.0329608118852824,
                0.4267809038490868,
                -0.23599440380086673
            ]
        },
        {
            "positions": [
                0.3878704760161563,
                -2.1115000432975255,
                -1.94140265411723,
                0.923615993795491,
                0.44520515257043003,
                -0.27858788258239336
            ]
        },
        {
            "positions": [
                0.4619829563088084,
                -2.076106940830596,
                -1.8382109934403004,
                0.8142711757056996,
                0.4636294012917732,
                -0.32118136136391995
            ]
        },
        {
            "positions": [
                0.5360954366014605,
                -2.040713838363666,
                -1.7350193327633705,
                0.704926357615908,
                0.4820536500131165,
                -0.3637748401454466
            ]
        },
        {
            "positions": [
                0.6102079168941128,
                -2.005320735896736,
                -1.6318276720864406,
                0.5955815395261167,
                0.5004778987344597,
                -0.40636831892697317
            ]
        },
        {
            "positions": [
                0.6843203971867649,
                -1.9699276334298064,
                -1.5286360114095108,
                0.48623672143632524,
                0.5189021474558029,
                -0.4489617977084998
            ]
        },
        {
            "positions": [
                0.7584328774794171,
                -1.9345345309628765,
                -1.425444350732581,
                0.37689190334653366,
                0.5373263961771462,
                -0.4915552764900264
            ]
        },
        {
            "positions": [
                0.8325453577720692,
                -1.8991414284959467,
                -1.3222526900556513,
                0.2675470852567423,
                0.5557506448984894,
                -0.5341487552715529
            ]
        },
        {
            "positions": [
                0.9066578380647214,
                -1.8637483260290169,
                -1.2190610293787214,
                0.15820226716695096,
                0.5741748936198325,
                -0.5767422340530796
            ]
        },
        {
            "positions": [
                0.9807703183573737,
                -1.8283552235620872,
                -1.1158693687017915,
                0.04885744907715939,
                0.5925991423411758,
                -0.6193357128346062
            ]
        },
        {
            "positions": [
                1.0548827986500258,
                -1.7929621210951574,
                -1.0126777080248617,
                -0.060487369012632186,
                0.6110233910625191,
                -0.6619291916161328
            ]
        },
        {
            "positions": [
                1.128995278942678,
                -1.7575690186282276,
                -0.9094860473479318,
                -0.16983218710242354,
                0.6294476397838623,
                -0.7045226703976595
            ]
        },
        {
            "positions": [
                1.20310775923533,
                -1.722175916161298,
                -0.806294386671002,
                -0.2791770051922149,
                0.6478718885052055,
                -0.747116149179186
            ]
        },
        {
            "positions": [
                1.2772202395279821,
                -1.6867828136943679,
                -0.7031027259940723,
                -0.38852182328200624,
                0.6662961372265487,
                -0.7897096279607125
            ]
        },
        {
            "positions": [
                1.3513327198206344,
                -1.6513897112274383,
                -0.5999110653171422,
                -0.4978666413717978,
                0.684720385947892,
                -0.8323031067422393
            ]
        },
        {
            "positions": [
                1.4254452001132867,
                -1.6159966087605084,
                -0.4967194046402126,
                -0.6072114594615894,
                0.7031446346692352,
                -0.8748965855237658
            ]
        },
        {
            "positions": [
                1.499557680405939,
                -1.5806035062935786,
                -0.3935277439632827,
                -0.716556277551381,
                0.7215688833905785,
                -0.9174900643052925
            ]
        },
        {
            "positions": [
                1.573670160698591,
                -1.545210403826649,
                -0.29033608328635285,
                -0.8259010956411721,
                0.7399931321119216,
                -0.9600835430868191
            ]
        },
        {
            "positions": [
                1.647782640991243,
                -1.509817301359719,
                -0.18714442260942343,
                -0.9352459137309637,
                0.7584173808332648,
                -1.0026770218683456
            ]
        },
        {
            "positions": [
                1.7218951212838953,
                -1.4744241988927893,
                -0.08395276193249313,
                -1.0445907318207552,
                0.7768416295546081,
                -1.0452705006498721
            ]
        },
        {
            "positions": [
                1.7960076015765474,
                -1.4390310964258595,
                0.019238898744436295,
                -1.1539355499105464,
                0.7952658782759513,
                -1.0878639794313987
            ]
        },
        {
            "positions": [
                1.8701200818691994,
                -1.4036379939589296,
                0.12243055942136616,
                -1.263280368000338,
                0.8136901269972945,
                -1.1304574582129252
            ]
        },
        {
            "positions": [
                1.944232562161852,
                -1.368244891492,
                0.22562222009829602,
                -1.3726251860901295,
                0.8321143757186378,
                -1.173050936994452
            ]
        },
        {
            "positions": [
                2.0183450424545035,
                -1.33285178902507,
                0.3288138807752259,
                -1.4819700041799206,
                0.850538624439981,
                -1.2156444157759785
            ]
        },
        {
            "positions": [
                2.092457522747156,
                -1.2974586865581403,
                0.43200554145215575,
                -1.5913148222697127,
                0.8689628731613243,
                -1.2582378945575052
            ]
        },
        {
            "positions": [
                2.166570003039808,
                -1.2620655840912105,
                0.5351972021290856,
                -1.700659640359504,
                0.8873871218826674,
                -1.3008313733390318
            ]
        },
        {
            "positions": [
                2.201988413657387,
                -1.2429461788492775,
                0.6346299136317403,
                -1.6315444558766359,
                0.8998520636715865,
                -1.4384424442301453
            ]
        },
        {
            "positions": [
                2.237406824274966,
                -1.2238267736073443,
                0.7340626251343949,
                -1.562429271393768,
                0.9123170054605056,
                -1.5760535151212591
            ]
        },
        {
            "positions": [
                2.272825234892545,
                -1.2047073683654113,
                0.8334953366370494,
                -1.4933140869108998,
                0.9247819472494248,
                -1.713664586012373
            ]
        },
        {
            "positions": [
                2.3082436455101245,
                -1.1855879631234783,
                0.9329280481397042,
                -1.4241989024280317,
                0.9372468890383439,
                -1.8512756569034865
            ]
        },
        {
            "positions": [
                2.3436620561277035,
                -1.166468557881545,
                1.0323607596423587,
                -1.3550837179451638,
                0.949711830827263,
                -1.9888867277946
            ]
        },
        {
            "positions": [
                2.3790804667452825,
                -1.147349152639612,
                1.1317934711450133,
                -1.2859685334622957,
                0.9621767726161821,
                -2.1264977986857136
            ]
        },
        {
            "positions": [
                2.4144988773628615,
                -1.128229747397679,
                1.231226182647668,
                -1.2168533489794275,
                0.9746417144051012,
                -2.2641088695768277
            ]
        },
        {
            "positions": [
                2.4499172879804405,
                -1.1091103421557458,
                1.3306588941503228,
                -1.1477381644965594,
                0.9871066561940203,
                -2.4017199404679412
            ]
        },
        {
            "positions": [
                2.4853356985980195,
                -1.0899909369138128,
                1.430091605652977,
                -1.0786229800136915,
                0.9995715979829394,
                -2.539331011359055
            ]
        },
        {
            "positions": [
                2.520754109215599,
                -1.0708715316718798,
                1.5295243171556319,
                -1.0095077955308236,
                1.0120365397718585,
                -2.676942082250169
            ]
        },
        {
            "positions": [
                2.556172519833178,
                -1.0517521264299468,
                1.6289570286582864,
                -0.9403926110479555,
                1.0245014815607776,
                -2.814553153141282
            ]
        },
        {
            "positions": [
                2.591590930450757,
                -1.0326327211880135,
                1.7283897401609412,
                -0.8712774265650873,
                1.0369664233496967,
                -2.952164224032396
            ]
        },
        {
            "positions": [
                2.627009341068336,
                -1.0135133159460805,
                1.8278224516635957,
                -0.8021622420822193,
                1.0494313651386158,
                -3.0897752949235096
            ]
        }
    ]
}