{
    "goal": {
        "global_pose": {
            "orientation": {
                "w": 0.7047431493862688,
                "x": -0.7094548369677653,
                "y": 0.0024358444001904,
                "z": -0.0022348060817251984
            },
            "position": {
                "x": -0.39052492380142206,
                "y": 0.3671506643295288,
                "z": 0.19426114857196808
            }
        },
        "name": "move_to_magneteinheit_D"
    },
    "id": "BKPIECE_move_to_magneteinheit_D_10",
    "joint_names": [
        "shoulder_pan_joint",
        "shoulder_lift_joint",
        "elbow_joint",
        "wrist_1_joint",
        "wrist_2_joint",
        "wrist_3_joint"
    ],
    "metrics": {
        "cart_traj_len": 4.697857659369663,
        "distance_elbow_joint": 3.558693823937101,
        "distance_shoulder_lift_joint": 2.3340458046094996,
        "distance_shoulder_pan_joint": 3.2874371159671343,
        "distance_wrist_1_joint": 1.593019452335715,
        "distance_wrist_2_joint": 0.5509340841348034,
        "distance_wrist_3_joint": 3.5686989291049933,
        "smoothness": 0.9183975965246186,
        "time": 0.321144208,
        "traj_len": 3.85912285501372,
        "weighted_distance": 4.916724580934929
    },
    "planner": "BKPIECE",
    "start": {
        "state": {
            "elbow_joint": 0.7495348899011911,
            "shoulder_lift_joint": -0.6476975780737668,
            "shoulder_pan_joint": -2.711696901376276,
            "wrist_1_joint": -0.0750647808097303,
            "wrist_2_joint": 0.43296659715458535,
            "wrist_3_joint": 3.1361499051832418
        }
    },
    "waypoints": [
        {
            "positions": [
                -2.711696901376276,
                -0.6476975780737668,
                0.7495348899011911,
                -0.0750647808097303,
                0.43296659715458535,
                3.1361499051832418
            ]
        },
        {
            "positions": [
                -2.7199507827715057,
                -0.705715899206516,
                0.6893402718290507,
                -0.00687407345673946,
                0.4550072140143438,
                3.135195287280955
            ]
        },
        {
            "positions": [
                -2.7282046641667352,
                -0.7637342203392652,
                0.6291456537569102,
                0.06131663389625138,
                0.47704783087410224,
                3.134240669378668
            ]
        },
        {
            "positions": [
                -2.733707251763555,
                -0.8024131010944313,
                0.5890159083754833,
                0.10677710546491194,
                0.49174157544727454,
                3.13360425744381
            ]
        },
        {
            "positions": [
                -2.617419310322829,
                -0.8377459371278283,
                0.5006559304758803,
                0.1279311024783929,
                0.4921324249291427,
                3.002916644463182
            ]
        },
        {
            "positions": [
                -2.501131368882103,
                -0.8730787731612254,
                0.41229595257627727,
                0.14908509949187382,
                0.49252327441101096,
                2.8722290314825534
            ]
        },
        {
            "positions": [
                -2.3848434274413775,
                -0.9084116091946224,
                0.3239359746766743,
                0.1702390965053548,
                0.49291412389287914,
                2.7415414185019253
            ]
        },
        {
            "positions": [
                -2.2685554860006514,
                -0.9437444452280194,
                0.23557599677707125,
                0.1913930935188357,
                0.4933049733747474,
                2.6108538055212973
            ]
        },
        {
            "positions": [
                -2.1522675445599257,
                -0.9790772812614164,
                0.1472160188774682,
                0.21254709053231668,
                0.49369582285661556,
                2.4801661925406693
            ]
        },
        {
            "positions": [
                -2.0359796031192,
                -1.0144101172948135,
                0.05885604097786523,
                0.2337010875457976,
                0.4940866723384838,
                2.3494785795600412
            ]
        },
        {
            "positions": [
                -1.919691661678474,
                -1.0497429533282105,
                -0.029503936921737917,
                0.2548550845592786,
                0.494477521820352,
                2.2187909665794128
            ]
        },
        {
            "positions": [
                -1.8034037202377482,
                -1.0850757893616074,
                -0.11786391482134084,
                0.2760090815727595,
                0.4948683713022202,
                2.0881033535987843
            ]
        },
        {
            "positions": [
                -1.6871157787970223,
                -1.1204086253950045,
                -0.20622389272094388,
                0.29716307858624047,
                0.4952592207840884,
                1.9574157406181565
            ]
        },
        {
            "positions": [
                -1.5708278373562965,
                -1.1557414614284016,
                -0.2945838706205469,
                0.31831707559972144,
                0.4956500702659566,
                1.8267281276375282
            ]
        },
        {
            "positions": [
                -1.4545398959155706,
                -1.1910742974617985,
                -0.38294384852014995,
                0.33947107261320236,
                0.4960409197478248,
                1.6960405146569002
            ]
        },
        {
            "positions": [
                -1.338251954474845,
                -1.2264071334951954,
                -0.4713038264197529,
                0.3606250696266833,
                0.496431769229693,
                1.5653529016762722
            ]
        },
        {
            "positions": [
                -1.221964013034119,
                -1.2617399695285925,
                -0.559663804319356,
                0.38177906664016426,
                0.49682261871156125,
                1.4346652886956437
            ]
        },
        {
            "positions": [
                -1.105676071593393,
                -1.2970728055619896,
                -0.6480237822189592,
                0.40293306365364523,
                0.49721346819342943,
                1.3039776757150154
            ]
        },
        {
            "positions": [
                -0.9893881301526675,
                -1.3324056415953867,
                -0.7363837601185619,
                0.42408706066712615,
                0.49760431767529767,
                1.1732900627343876
            ]
        },
        {
            "positions": [
                -0.8731001887119416,
                -1.3677384776287838,
                -0.824743738018165,
                0.44524105768060707,
                0.49799516715716585,
                1.0426024497537592
            ]
        },
        {
            "positions": [
                -0.7568122472712155,
                -1.4030713136621806,
                -0.9131037159177682,
                0.46639505469408804,
                0.49838601663903404,
                0.9119148367731311
            ]
        },
        {
            "positions": [
                -0.6405243058304899,
                -1.4384041496955775,
                -1.001463693817371,
                0.48754905170756896,
                0.4987768661209023,
                0.7812272237925031
            ]
        },
        {
            "positions": [
                -0.5242363643897643,
                -1.4737369857289746,
                -1.089823671716974,
                0.50870304872105,
                0.49916771560277046,
                0.6505396108118751
            ]
        },
        {
            "positions": [
                -0.4079484229490382,
                -1.5090698217623717,
                -1.1781836496165772,
                0.529857045734531,
                0.4995585650846387,
                0.5198519978312466
            ]
        },
        {
            "positions": [
                -0.2916604815083126,
                -1.5444026577957688,
                -1.26654362751618,
                0.5510110427480118,
                0.4999494145665069,
                0.38916438485061855
            ]
        },
        {
            "positions": [
                -0.1753725400675865,
                -1.5797354938291657,
                -1.3549036054157833,
                0.5721650397614928,
                0.5003402640483751,
                0.2584767718699905
            ]
        },
        {
            "positions": [
                -0.059084598626860885,
                -1.6150683298625628,
                -1.4432635833153864,
                0.5933190367749738,
                0.5007311135302434,
                0.12778915888936204
            ]
        },
        {
            "positions": [
                0.057203342813864744,
                -1.6504011658959596,
                -1.531623561214989,
                0.6144730337884546,
                0.5011219630121115,
                -0.0028984540912655454
            ]
        },
        {
            "positions": [
                0.17349128425459096,
                -1.6857340019293567,
                -1.6199835391145923,
                0.6356270308019356,
                0.5015128124939797,
                -0.13358606707189397
            ]
        },
        {
            "positions": [
                0.14507615614880343,
                -1.760561840735072,
                -1.7256499446879254,
                0.7430256386953695,
                0.46645532737553225,
                -0.1424497905300528
            ]
        },
        {
            "positions": [
                0.11666102804301587,
                -1.8353896795407874,
                -1.8313163502612584,
                0.8504242465888033,
                0.4313978422570848,
                -0.15131351398821163
            ]
        },
        {
            "positions": [
                0.08824589993722834,
                -1.9102175183465024,
                -1.9369827558345916,
                0.9578228544822373,
                0.3963403571386373,
                -0.1601772374463705
            ]
        },
        {
            "positions": [
                0.059830771831440796,
                -1.9850453571522177,
                -2.0426491614079247,
                1.065221462375671,
                0.3612828720201898,
                -0.16904096090452933
            ]
        },
        {
            "positions": [
                0.03141564372565325,
                -2.059873195957933,
                -2.1483155669812577,
                1.172620070269105,
                0.3262253869017423,
                -0.1779046843626882
            ]
        },
        {
            "positions": [
                0.0030005156198657235,
                -2.1347010347636486,
                -2.253981972554591,
                1.280018678162539,
                0.2911679017832949,
                -0.18676840782084703
            ]
        },
        {
            "positions": [
                -0.025414612485921834,
                -2.2095288735693637,
                -2.359648378127924,
                1.3874172860559728,
                0.25611041666484735,
                -0.19563213127900586
            ]
        },
        {
            "positions": [
                -0.0587079035225071,
                -2.092521168089029,
                -2.437028802094693,
                1.399658719879066,
                0.2818316298278789,
                -0.12481833283530294
            ]
        },
        {
            "positions": [
                -0.09200119455909236,
                -1.9755134626086945,
                -2.5144092260614617,
                1.4119001537021594,
                0.30755284299091046,
                -0.05400453439160002
            ]
        },
        {
            "positions": [
                -0.12529448559567763,
                -1.85850575712836,
                -2.5917896500282307,
                1.4241415875252526,
                0.333274056153942,
                0.016809264052102924
            ]
        },
        {
            "positions": [
                -0.14510863883282468,
                -1.9989028880193265,
                -2.519333222025671,
                1.4554126155254967,
                0.280000111661548,
                0.008650764948224147
            ]
        },
        {
            "positions": [
                -0.16492279206997174,
                -2.139300018910293,
                -2.4468767940231113,
                1.4866836435257407,
                0.22672616716915397,
                0.0004922658443453701
            ]
        },
        {
            "positions": [
                -0.1847369453071188,
                -2.2796971498012595,
                -2.3744203660205514,
                1.5179546715259848,
                0.17345222267675994,
                -0.007666233259533407
            ]
        }
    ]
}