{
    "goal": {
        "global_pose": {
            "orientation": {
                "w": 0.5084816217422485,
                "x": -0.49083608388900757,
                "y": 0.5182115435600281,
                "z": -0.4816462993621826
            },
            "position": {
                "x": 0.5540239810943604,
                "y": 0.030875300988554955,
                "z": 0.16403168439865112
            }
        },
        "name": "move_to_storage_A"
    },
    "id": "BKPIECE_move_to_storage_A_52",
    "joint_names": [
        "shoulder_pan_joint",
        "shoulder_lift_joint",
        "elbow_joint",
        "wrist_1_joint",
        "wrist_2_joint",
        "wrist_3_joint"
    ],
    "metrics": {
        "cart_traj_len": 0.3535983078115188,
        "distance_elbow_joint": 0.4506327887677666,
        "distance_shoulder_lift_joint": 0.2356442998686512,
        "distance_shoulder_pan_joint": 0.45928096810191305,
        "distance_wrist_1_joint": 0.24614699894972647,
        "distance_wrist_2_joint": 1.1136015382370625,
        "distance_wrist_3_joint": 0.08907293544903094,
        "smoothness": 1.776356832919533e-15,
        "time": 0.149313388,
        "traj_len": 1.610707772804909,
        "weighted_distance": 2.032799532039252
    },
    "planner": "BKPIECE",
    "start": {
        "state": {
            "elbow_joint": 1.971548880431181,
            "shoulder_lift_joint": -1.1394869514688781,
            "shoulder_pan_joint": 0.12281150262730567,
            "wrist_1_joint": -0.7804693444481463,
            "wrist_2_joint": 0.12958644648617612,
            "wrist_3_joint": 3.0906942077768043
        }
    },
    "waypoints": [
        {
            "positions": [
                0.12281150262730567,
                -1.1394869514688781,
                1.971548880431181,
                -0.7804693444481463,
                0.12958644648617612,
                3.0906942077768043
            ]
        },
        {
            "positions": [
                0.05719993575560381,
                -1.1731504228786855,
                2.0359249931122902,
                -0.8156332014409644,
                0.2886723805200422,
                3.1034189128409517
            ]
        },
        {
            "positions": [
                -0.00841163111609805,
                -1.2068138942884927,
                2.1003011057934,
                -0.8507970584337824,
                0.44775831455390824,
                3.1161436179050988
            ]
        },
        {
            "positions": [
                -0.07402319798779991,
                -1.2404773656983001,
                2.1646772184745093,
                -0.8859609154266005,
                0.6068442485877743,
                3.128868322969246
            ]
        },
        {
            "positions": [
                -0.13963476485950177,
                -1.2741408371081073,
                2.229053331155619,
                -0.9211247724194186,
                0.7659301826216404,
                3.1415930280333932
            ]
        },
        {
            "positions": [
                -0.20524633173120366,
                -1.3078043085179147,
                2.2934294438367284,
                -0.9562886294122366,
                0.9250161166555065,
                3.1543177330975407
            ]
        },
        {
            "positions": [
                -0.2708578986029055,
                -1.341467779927722,
                2.357805556517838,
                -0.9914524864050547,
                1.0841020506893724,
                3.1670424381616877
            ]
        },
        {
            "positions": [
                -0.3364694654746074,
                -1.3751312513375293,
                2.4221816691989475,
                -1.0266163433978728,
                1.2431879847232388,
                3.179767143225835
            ]
        }
    ]
}