{
    "goal": {
        "global_pose": {
            "orientation": {
                "w": 0.7031023480610252,
                "x": -0.7110244013736278,
                "y": 0.0077485991402295624,
                "z": 0.005598929693374583
            },
            "position": {
                "x": -0.8841497679147869,
                "y": 0.44412534475326537,
                "z": 0.3711530566215515
            }
        },
        "name": "move_to_auspresseinheit_D"
    },
    "id": "BKPIECE_move_to_auspresseinheit_D_145",
    "joint_names": [
        "shoulder_pan_joint",
        "shoulder_lift_joint",
        "elbow_joint",
        "wrist_1_joint",
        "wrist_2_joint",
        "wrist_3_joint"
    ],
    "metrics": {
        "cart_traj_len": 0.34417629086504675,
        "distance_elbow_joint": 0.652728680721741,
        "distance_shoulder_lift_joint": 0.12925278312087185,
        "distance_shoulder_pan_joint": 0.13447643471450635,
        "distance_wrist_1_joint": 0.576571965228132,
        "distance_wrist_2_joint": 1.4298374554540467,
        "distance_wrist_3_joint": 0.04327876615994075,
        "smoothness": 1.9737298371844314e-16,
        "time": 0.21996339199999998,
        "traj_len": 1.7222502969659312,
        "weighted_distance": 2.249247215937212
    },
    "planner": "BKPIECE",
    "start": {
        "state": {
            "elbow_joint": -1.8275484843655228,
            "shoulder_lift_joint": -2.1267897864000416,
            "shoulder_pan_joint": -0.035127520176001514,
            "wrist_1_joint": -2.3477863256791385,
            "wrist_2_joint": -1.605890476484521,
            "wrist_3_joint": -3.0880375317375353
        }
    },
    "waypoints": [
        {
            "positions": [
                -0.035127520176001514,
                -2.1267897864000416,
                -1.8275484843655228,
                -2.3477863256791385,
                -1.605890476484521,
                -3.0880375317375353
            ]
        },
        {
            "positions": [
                -0.051937074515314804,
                -2.1429463842901506,
                -1.745957399275305,
                -2.419857821332655,
                -1.4271607945527651,
                -3.0826276859675428
            ]
        },
        {
            "positions": [
                -0.0687466288546281,
                -2.1591029821802596,
                -1.6643663141850875,
                -2.4919293169861714,
                -1.2484311126210093,
                -3.07721784019755
            ]
        },
        {
            "positions": [
                -0.0855561831939414,
                -2.1752595800703687,
                -1.58277522909487,
                -2.564000812639688,
                -1.0697014306892534,
                -3.0718079944275574
            ]
        },
        {
            "positions": [
                -0.10236573753325469,
                -2.1914161779604777,
                -1.5011841440046523,
                -2.6360723082932047,
                -0.8909717487574976,
                -3.066398148657565
            ]
        },
        {
            "positions": [
                -0.11917529187256798,
                -2.2075727758505863,
                -1.4195930589144345,
                -2.708143803946721,
                -0.7122420668257418,
                -3.0609883028875724
            ]
        },
        {
            "positions": [
                -0.13598484621188128,
                -2.2237293737406953,
                -1.338001973824217,
                -2.7802152996002376,
                -0.533512384893986,
                -3.05557845711758
            ]
        },
        {
            "positions": [
                -0.1527944005511946,
                -2.2398859716308044,
                -1.2564108887339995,
                -2.852286795253754,
                -0.35478270296223013,
                -3.050168611347587
            ]
        },
        {
            "positions": [
                -0.16960395489050786,
                -2.2560425695209134,
                -1.1748198036437818,
                -2.9243582909072705,
                -0.1760530210304742,
                -3.0447587655775945
            ]
        }
    ]
}