{
    "goal": {
        "global_pose": {
            "orientation": {
                "w": -0.4816463035849501,
                "x": 0.5182115481033762,
                "y": 0.4908360881923453,
                "z": -0.5084816262002911
            },
            "position": {
                "x": -0.8240239810943604,
                "y": 0.19912469901144506,
                "z": 0.16403168439865112
            }
        },
        "name": "move_to_storage_D"
    },
    "id": "BKPIECE_move_to_storage_D_73",
    "joint_names": [
        "shoulder_pan_joint",
        "shoulder_lift_joint",
        "elbow_joint",
        "wrist_1_joint",
        "wrist_2_joint",
        "wrist_3_joint"
    ],
    "metrics": {
        "cart_traj_len": 3.35049716190439,
        "distance_elbow_joint": 4.31284645956089,
        "distance_shoulder_lift_joint": 1.2639230826864551,
        "distance_shoulder_pan_joint": 2.8124779678149023,
        "distance_wrist_1_joint": 2.4524691771131497,
        "distance_wrist_2_joint": 1.0396993265765284,
        "distance_wrist_3_joint": 3.1356216826412333,
        "smoothness": 0.15957434304009724,
        "time": 0.277111681,
        "traj_len": 3.875182279118384,
        "weighted_distance": 4.977996541317129
    },
    "planner": "BKPIECE",
    "start": {
        "state": {
            "elbow_joint": -2.384821990628643,
            "shoulder_lift_joint": -2.278805467437664,
            "shoulder_pan_joint": -0.18546946439364564,
            "wrist_1_joint": 1.4845938187801415,
            "wrist_2_joint": 0.178987772454074,
            "wrist_3_joint": 0.03710569632802521
        }
    },
    "waypoints": [
        {
            "positions": [
                -0.18546946439364564,
                -2.278805467437664,
                -2.384821990628643,
                1.4845938187801415,
                0.178987772454074,
                0.03710569632802521
            ]
        },
        {
            "positions": [
                -0.06864786787032487,
                -2.198845439269772,
                -2.410546981935349,
                1.5319206611584661,
                0.18736742495020103,
                -0.03790269124044793
            ]
        },
        {
            "positions": [
                0.048173728652995906,
                -2.11888541110188,
                -2.436271973242055,
                1.579247503536791,
                0.19574707744632808,
                -0.11291107880892107
            ]
        },
        {
            "positions": [
                0.12809013580544035,
                -2.083072001479149,
                -2.3087498953049597,
                1.5365554498322467,
                0.192718676289239,
                -0.20660983829361515
            ]
        },
        {
            "positions": [
                0.2080065429578848,
                -2.047258591856418,
                -2.181227817367864,
                1.4938633961277024,
                0.1896902751321499,
                -0.3003085977783092
            ]
        },
        {
            "positions": [
                0.2879229501103292,
                -2.011445182233687,
                -2.0537057394307685,
                1.451171342423158,
                0.18666187397506082,
                -0.3940073572630033
            ]
        },
        {
            "positions": [
                0.36783935726277367,
                -1.9756317726109562,
                -1.9261836614936731,
                1.4084792887186137,
                0.1836334728179717,
                -0.48770611674769737
            ]
        },
        {
            "positions": [
                0.4477557644152181,
                -1.9398183629882253,
                -1.7986615835565778,
                1.3657872350140694,
                0.18060507166088263,
                -0.5814048762323915
            ]
        },
        {
            "positions": [
                0.5276721715676626,
                -1.9040049533654944,
                -1.6711395056194822,
                1.323095181309525,
                0.17757667050379353,
                -0.6751036357170855
            ]
        },
        {
            "positions": [
                0.607588578720107,
                -1.8681915437427634,
                -1.5436174276823866,
                1.2804031276049808,
                0.17454826934670445,
                -0.7688023952017796
            ]
        },
        {
            "positions": [
                0.6875049858725515,
                -1.8323781341200325,
                -1.4160953497452913,
                1.2377110739004364,
                0.17151986818961534,
                -0.8625011546864737
            ]
        },
        {
            "positions": [
                0.7674213930249958,
                -1.7965647244973018,
                -1.288573271808196,
                1.1950190201958923,
                0.16849146703252627,
                -0.9561999141711678
            ]
        },
        {
            "positions": [
                0.8473378001774403,
                -1.7607513148745708,
                -1.1610511938711003,
                1.1523269664913478,
                0.1654630658754372,
                -1.049898673655862
            ]
        },
        {
            "positions": [
                0.9272542073298846,
                -1.7249379052518399,
                -1.033529115934005,
                1.1096349127868037,
                0.16243466471834808,
                -1.143597433140556
            ]
        },
        {
            "positions": [
                1.0071706144823291,
                -1.689124495629109,
                -0.9060070379969094,
                1.0669428590822592,
                0.159406263561259,
                -1.2372961926252501
            ]
        },
        {
            "positions": [
                1.0870870216347737,
                -1.653311086006378,
                -0.778484960059814,
                1.024250805377715,
                0.1563778624041699,
                -1.3309949521099442
            ]
        },
        {
            "positions": [
                1.1670034287872182,
                -1.617497676383647,
                -0.6509628821227185,
                0.9815587516731706,
                0.15334946124708082,
                -1.4246937115946383
            ]
        },
        {
            "positions": [
                1.2469198359396627,
                -1.5816842667609161,
                -0.5234408041856229,
                0.9388666979686263,
                0.15032106008999171,
                -1.5183924710793324
            ]
        },
        {
            "positions": [
                1.326836243092107,
                -1.5458708571381852,
                -0.39591872624852753,
                0.8961746442640821,
                0.14729265893290264,
                -1.6120912305640265
            ]
        },
        {
            "positions": [
                1.4067526502445515,
                -1.5100574475154542,
                -0.26839664831143173,
                0.8534825905595377,
                0.14426425777581353,
                -1.7057899900487206
            ]
        },
        {
            "positions": [
                1.4866690573969958,
                -1.4742440378927235,
                -0.14087457037433682,
                0.8107905368549935,
                0.14123585661872445,
                -1.7994887495334146
            ]
        },
        {
            "positions": [
                1.5665854645494404,
                -1.4384306282699924,
                -0.013352492437241015,
                0.768098483150449,
                0.13820745546163538,
                -1.8931875090181087
            ]
        },
        {
            "positions": [
                1.6465018717018847,
                -1.4026172186472616,
                0.11416958549985434,
                0.7254064294459048,
                0.13517905430454627,
                -1.9868862685028028
            ]
        },
        {
            "positions": [
                1.7264182788543292,
                -1.3668038090245307,
                0.24169166343695014,
                0.6827143757413604,
                0.13215065314745716,
                -2.080585027987497
            ]
        },
        {
            "positions": [
                1.8063346860067735,
                -1.3309903994018,
                0.36921374137404506,
                0.6400223220368162,
                0.1291222519903681,
                -2.174283787472191
            ]
        },
        {
            "positions": [
                1.8862510931592182,
                -1.295176989779069,
                0.49673581931114086,
                0.5973302683322719,
                0.126093850833279,
                -2.267982546956885
            ]
        },
        {
            "positions": [
                1.9661675003116625,
                -1.259363580156338,
                0.6242578972482362,
                0.5546382146277276,
                0.12306544967618992,
                -2.361681306441579
            ]
        },
        {
            "positions": [
                2.046083907464107,
                -1.2235501705336072,
                0.751779975185332,
                0.5119461609231832,
                0.12003704851910083,
                -2.4553800659262732
            ]
        },
        {
            "positions": [
                2.1260003146165514,
                -1.1877367609108762,
                0.8793020531224269,
                0.4692541072186389,
                0.11700864736201173,
                -2.5490788254109673
            ]
        },
        {
            "positions": [
                2.205916721768996,
                -1.1519233512881453,
                1.006824131059523,
                0.4265620535140945,
                0.11398024620492264,
                -2.6427775848956614
            ]
        },
        {
            "positions": [
                2.244550994629158,
                -1.1395303098426974,
                1.0790538683631077,
                0.32142101121253586,
                0.19658155544431277,
                -2.684352065946087
            ]
        },
        {
            "positions": [
                2.2831852674893196,
                -1.1271372683972496,
                1.1512836056666924,
                0.21627996891097725,
                0.2791828646837029,
                -2.725926546996513
            ]
        },
        {
            "positions": [
                2.3218195403494817,
                -1.114744226951802,
                1.2235133429702771,
                0.11113892660941865,
                0.36178417392309303,
                -2.7675010280469383
            ]
        },
        {
            "positions": [
                2.3604538132096433,
                -1.1023511855063541,
                1.2957430802738619,
                0.005997884307860024,
                0.4443854831624832,
                -2.809075509097364
            ]
        },
        {
            "positions": [
                2.3990880860698054,
                -1.0899581440609063,
                1.3679728175774468,
                -0.09914315799369866,
                0.5269867924018734,
                -2.8506499901477897
            ]
        },
        {
            "positions": [
                2.437722358929967,
                -1.0775651026154585,
                1.4402025548810315,
                -0.20428420029525718,
                0.6095881016412634,
                -2.8922244711982152
            ]
        },
        {
            "positions": [
                2.476356631790129,
                -1.0651720611700108,
                1.5124322921846163,
                -0.3094252425968158,
                0.6921894108806537,
                -2.9337989522486407
            ]
        },
        {
            "positions": [
                2.5149909046502907,
                -1.052779019724563,
                1.584662029488201,
                -0.41456628489837444,
                0.7747907201200438,
                -2.9753734332990667
            ]
        },
        {
            "positions": [
                2.553625177510453,
                -1.0403859782791152,
                1.6568917667917857,
                -0.5197073271999331,
                0.8573920293594339,
                -3.016947914349492
            ]
        },
        {
            "positions": [
                2.5780862861473874,
                -1.0318847804364797,
                1.7129693457629989,
                -0.605994214406525,
                0.9233124984222197,
                -3.044137271670731
            ]
        },
        {
            "positions": [
                2.602547394784322,
                -1.0233835825938442,
                1.7690469247342118,
                -0.6922811016131168,
                0.9892329674850056,
                -3.071326628991969
            ]
        },
        {
            "positions": [
                2.6270085034212567,
                -1.0148823847512087,
                1.825124503705425,
                -0.7785679888197088,
                1.0551534365477915,
                -3.098515986313208
            ]
        }
    ]
}