{
    "goal": {
        "global_pose": {
            "orientation": {
                "w": 0.005598929693374612,
                "x": 0.007748599140229565,
                "y": 0.7110244013736278,
                "z": -0.7031023480610252
            },
            "position": {
                "x": 0.1141497679147869,
                "y": -0.7141253447532654,
                "z": 0.3711530566215515
            }
        },
        "name": "move_to_auspresseinheit_B"
    },
    "id": "BKPIECE_move_to_auspresseinheit_B_80",
    "joint_names": [
        "shoulder_pan_joint",
        "shoulder_lift_joint",
        "elbow_joint",
        "wrist_1_joint",
        "wrist_2_joint",
        "wrist_3_joint"
    ],
    "metrics": {
        "cart_traj_len": 0.5651226562472103,
        "distance_elbow_joint": 0.06089466185212555,
        "distance_shoulder_lift_joint": 0.2957451119682175,
        "distance_shoulder_pan_joint": 0.5779439695583026,
        "distance_wrist_1_joint": 0.3174723321778452,
        "distance_wrist_2_joint": 0.9889382978057568,
        "distance_wrist_3_joint": 2.960713955468819e-05,
        "smoothness": 0.0,
        "time": 0.16609617,
        "traj_len": 1.4970050034992541,
        "weighted_distance": 1.8834791808683509
    },
    "planner": "BKPIECE",
    "start": {
        "state": {
            "elbow_joint": 2.0193061681459312,
            "shoulder_lift_joint": -1.1220205130644991,
            "shoulder_pan_joint": -1.0952072088045026,
            "wrist_1_joint": -0.8559671810662515,
            "wrist_2_joint": 0.4759638712940361,
            "wrist_3_joint": 3.159081874192446
        }
    },
    "waypoints": [
        {
            "positions": [
                -1.0952072088045026,
                -1.1220205130644991,
                2.0193061681459312,
                -0.8559671810662515,
                0.4759638712940361,
                3.159081874192446
            ]
        },
        {
            "positions": [
                -1.1915312037308863,
                -1.171311365059202,
                2.0091570578372435,
                -0.8030551257032773,
                0.6407869209283289,
                3.1590868087157054
            ]
        },
        {
            "positions": [
                -1.2878551986572702,
                -1.220602217053905,
                1.999007947528556,
                -0.750143070340303,
                0.8056099705626216,
                3.1590917432389642
            ]
        },
        {
            "positions": [
                -1.384179193583654,
                -1.2698930690486079,
                1.9888588372198686,
                -0.6972310149773289,
                0.9704330201969145,
                3.159096677762223
            ]
        },
        {
            "positions": [
                -1.4805031885100377,
                -1.3191839210433107,
                1.9787097269111809,
                -0.6443189596143547,
                1.1352560698312073,
                3.1591016122854825
            ]
        },
        {
            "positions": [
                -1.5768271834364214,
                -1.3684747730380138,
                1.9685606166024932,
                -0.5914069042513804,
                1.3000791194655001,
                3.159106546808742
            ]
        },
        {
            "positions": [
                -1.6731511783628052,
                -1.4177656250327166,
                1.9584115062938057,
                -0.5384948488884063,
                1.464902169099793,
                3.1591114813320007
            ]
        }
    ]
}