{
    "goal": {
        "global_pose": {
            "orientation": {
                "w": -0.00223480608172531,
                "x": 0.0024358444001904467,
                "y": 0.7094548369677653,
                "z": -0.704743149386269
            },
            "position": {
                "x": -0.37947507619857795,
                "y": -0.6371506643295288,
                "z": 0.19426114857196808
            }
        },
        "name": "move_to_magneteinheit_C"
    },
    "id": "BKPIECE_move_to_magneteinheit_C_73",
    "joint_names": [
        "shoulder_pan_joint",
        "shoulder_lift_joint",
        "elbow_joint",
        "wrist_1_joint",
        "wrist_2_joint",
        "wrist_3_joint"
    ],
    "metrics": {
        "cart_traj_len": 0.9909993229185601,
        "distance_elbow_joint": 0.6092073976541432,
        "distance_shoulder_lift_joint": 0.9171591788763431,
        "distance_shoulder_pan_joint": 1.1391653852451669,
        "distance_wrist_1_joint": 4.3977550351552255,
        "distance_wrist_2_joint": 2.5532207494024544,
        "distance_wrist_3_joint": 7.711207911429909,
        "smoothness": 0.7310882944450164,
        "time": 0.258435794,
        "traj_len": 4.162657283246273,
        "weighted_distance": 6.300881467317152
    },
    "planner": "BKPIECE",
    "start": {
        "state": {
            "elbow_joint": 1.9565354006593851,
            "shoulder_lift_joint": -1.4165861576512813,
            "shoulder_pan_joint": -1.6717766223278752,
            "wrist_1_joint": -0.528663328821883,
            "wrist_2_joint": 1.472756589259273,
            "wrist_3_joint": 3.159348288315503
        }
    },
    "waypoints": [
        {
            "positions": [
                -1.6717766223278752,
                -1.4165861576512813,
                1.9565354006593851,
                -0.528663328821883,
                1.472756589259273,
                3.159348288315503
            ]
        },
        {
            "positions": [
                -1.7246441788814426,
                -1.4397202430372413,
                1.9576122122968123,
                -0.510501159365065,
                1.3840433034680546,
                2.9641385989289364
            ]
        },
        {
            "positions": [
                -1.7775117354350098,
                -1.4628543284232012,
                1.9586890239342392,
                -0.4923389899082471,
                1.295330017676836,
                2.7689289095423693
            ]
        },
        {
            "positions": [
                -1.8303792919885773,
                -1.4859884138091612,
                1.9597658355716663,
                -0.47417682045142906,
                1.2066167318856178,
                2.5737192201558026
            ]
        },
        {
            "positions": [
                -1.8832468485421447,
                -1.509122499195121,
                1.9608426472090932,
                -0.4560146509946111,
                1.1179034460943993,
                2.378509530769236
            ]
        },
        {
            "positions": [
                -1.936114405095712,
                -1.5322565845810812,
                1.9619194588465203,
                -0.4378524815377931,
                1.0291901603031808,
                2.1832998413826687
            ]
        },
        {
            "positions": [
                -1.9889819616492794,
                -1.555390669967041,
                1.9629962704839472,
                -0.41969031208097507,
                0.9404768745119623,
                1.9880901519961018
            ]
        },
        {
            "positions": [
                -2.041849518202847,
                -1.578524755353001,
                1.9640730821213743,
                -0.4015281426241571,
                0.8517635887207438,
                1.792880462609535
            ]
        },
        {
            "positions": [
                -2.0752676314663843,
                -1.5459815422531238,
                1.9485227210677731,
                -0.2945144183218375,
                0.7928975001254424,
                1.6534780746092694
            ]
        },
        {
            "positions": [
                -2.1086857447299217,
                -1.5134383291532465,
                1.932972360014172,
                -0.18750069401951788,
                0.734031411530141,
                1.514075686609004
            ]
        },
        {
            "positions": [
                -2.142103857993459,
                -1.4808951160533694,
                1.9174219989605708,
                -0.08048696971719826,
                0.6751653229348396,
                1.3746732986087384
            ]
        },
        {
            "positions": [
                -2.1755219712569964,
                -1.4483519029534921,
                1.9018716379069693,
                0.026526754585121326,
                0.6162992343395381,
                1.235270910608473
            ]
        },
        {
            "positions": [
                -2.208940084520534,
                -1.4158086898536149,
                1.8863212768533681,
                0.13354047888744097,
                0.5574331457442367,
                1.0958685226082074
            ]
        },
        {
            "positions": [
                -2.242358197784071,
                -1.3832654767537376,
                1.870770915799767,
                0.24055420318976056,
                0.49856705714893534,
                0.9564661346079419
            ]
        },
        {
            "positions": [
                -2.2757763110476086,
                -1.3507222636538603,
                1.8552205547461658,
                0.34756792749208026,
                0.43970096855363394,
                0.8170637466076764
            ]
        },
        {
            "positions": [
                -2.309194424311146,
                -1.318179050553983,
                1.8396701936925646,
                0.45458165179439974,
                0.38083487995833254,
                0.677661358607411
            ]
        },
        {
            "positions": [
                -2.3426125375746834,
                -1.285635837454106,
                1.8241198326389632,
                0.5615953760967194,
                0.32196879136303114,
                0.5382589706071454
            ]
        },
        {
            "positions": [
                -2.3760306508382207,
                -1.2530926243542286,
                1.808569471585362,
                0.6686091003990391,
                0.26310270276772973,
                0.39885658260687995
            ]
        },
        {
            "positions": [
                -2.409448764101758,
                -1.2205494112543513,
                1.7930191105317608,
                0.7756228247013588,
                0.20423661417242833,
                0.25945419460661423
            ]
        },
        {
            "positions": [
                -2.4428668773652955,
                -1.1880061981544743,
                1.7774687494781596,
                0.8826365490036783,
                0.14537052557712693,
                0.12005180660634895
            ]
        },
        {
            "positions": [
                -2.476284990628833,
                -1.155462985054597,
                1.7619183884245584,
                0.989650273305998,
                0.08650443698182553,
                -0.019350581393916544
            ]
        },
        {
            "positions": [
                -2.5097031038923703,
                -1.1229197719547197,
                1.7463680273709572,
                1.0966639976083177,
                0.027638348386524125,
                -0.15875296939418204
            ]
        },
        {
            "positions": [
                -2.5431212171559077,
                -1.0903765588548424,
                1.730817666317356,
                1.2036777219106372,
                -0.031227740208777277,
                -0.29815535739444776
            ]
        },
        {
            "positions": [
                -2.576539330419445,
                -1.0578333457549651,
                1.7152673052637546,
                1.3106914462129566,
                -0.09009382880407868,
                -0.43755774539471304
            ]
        },
        {
            "positions": [
                -2.6099574436829824,
                -1.0252901326550878,
                1.6997169442101534,
                1.4177051705152763,
                -0.14895991739938008,
                -0.5769601333949783
            ]
        },
        {
            "positions": [
                -2.64337555694652,
                -0.9927469195552107,
                1.6841665831565522,
                1.524718894817596,
                -0.20782600599468154,
                -0.716362521395244
            ]
        },
        {
            "positions": [
                -2.6349972344151937,
                -1.0012190568240522,
                1.7002547440179188,
                1.4075002542418087,
                -0.1641940982872566,
                -0.5245876663092859
            ]
        },
        {
            "positions": [
                -2.6266189118838676,
                -1.0096911940928939,
                1.7163429048792853,
                1.2902816136660213,
                -0.12056219057983163,
                -0.33281281122332773
            ]
        },
        {
            "positions": [
                -2.6182405893525416,
                -1.0181633313617355,
                1.732431065740652,
                1.1730629730902342,
                -0.07693028287240669,
                -0.14103795613736958
            ]
        },
        {
            "positions": [
                -2.6098622668212155,
                -1.0266354686305772,
                1.7485192266020186,
                1.0558443325144469,
                -0.033298375164981714,
                0.05073689894858857
            ]
        },
        {
            "positions": [
                -2.6014839442898894,
                -1.0351076058994189,
                1.7646073874633852,
                0.9386256919386596,
                0.010333532542443236,
                0.24251175403454672
            ]
        },
        {
            "positions": [
                -2.5931056217585633,
                -1.0435797431682605,
                1.7806955483247517,
                0.8214070513628724,
                0.05396544024986816,
                0.4342866091205049
            ]
        },
        {
            "positions": [
                -2.584727299227237,
                -1.0520518804371022,
                1.7967837091861183,
                0.7041884107870852,
                0.09759734795729313,
                0.626061464206463
            ]
        },
        {
            "positions": [
                -2.576348976695911,
                -1.0605240177059438,
                1.812871870047485,
                0.5869697702112977,
                0.1412292556647181,
                0.8178363192924212
            ]
        },
        {
            "positions": [
                -2.567970654164585,
                -1.0689961549747855,
                1.8289600309088516,
                0.4697511296355106,
                0.1848611633721431,
                1.0096111743783793
            ]
        },
        {
            "positions": [
                -2.559592331633259,
                -1.0774682922436272,
                1.8450481917702182,
                0.35253248905972323,
                0.228493071079568,
                1.2013860294643375
            ]
        },
        {
            "positions": [
                -2.5512140091019324,
                -1.0859404295124688,
                1.8611363526315847,
                0.23531384848393588,
                0.272124978786993,
                1.3931608845502956
            ]
        },
        {
            "positions": [
                -2.5428356865706063,
                -1.0944125667813105,
                1.8772245134929513,
                0.11809520790814876,
                0.31575688649441785,
                1.5849357396362538
            ]
        },
        {
            "positions": [
                -2.5344573640392802,
                -1.1028847040501522,
                1.893312674354318,
                0.0008765673323614109,
                0.35938879420184294,
                1.776710594722212
            ]
        },
        {
            "positions": [
                -2.526079041507954,
                -1.1113568413189936,
                1.9094008352156846,
                -0.11634207324342571,
                0.4030207019092678,
                1.96848544980817
            ]
        },
        {
            "positions": [
                -2.517700718976628,
                -1.1198289785878353,
                1.9254889960770512,
                -0.23356071381921328,
                0.4466526096166928,
                2.1602603048941282
            ]
        },
        {
            "positions": [
                -2.509322396445302,
                -1.128301115856677,
                1.9415771569384177,
                -0.35077935439500063,
                0.49028451732411776,
                2.3520351599800864
            ]
        },
        {
            "positions": [
                -2.500944073913976,
                -1.1367732531255186,
                1.9576653177997843,
                -0.46799799497078776,
                0.5339164250315427,
                2.5438100150660445
            ]
        },
        {
            "positions": [
                -2.49256575138265,
                -1.1452453903943602,
                1.973753478661151,
                -0.5852166355465749,
                0.5775483327389677,
                2.7355848701520027
            ]
        },
        {
            "positions": [
                -2.4841874288513237,
                -1.153717527663202,
                1.9898416395225176,
                -0.7024352761223622,
                0.6211802404463926,
                2.927359725237961
            ]
        },
        {
            "positions": [
                -2.4758091063199976,
                -1.1621896649320436,
                2.005929800383884,
                -0.8196539166981496,
                0.6648121481538176,
                3.119134580323919
            ]
        }
    ]
}