{
    "goal": {
        "global_pose": {
            "orientation": {
                "w": 0.5084816262002911,
                "x": -0.4908360881923452,
                "y": 0.5182115481033761,
                "z": -0.48164630358495003
            },
            "position": {
                "x": 0.5540239810943604,
                "y": -0.46912469901144505,
                "z": 0.16403168439865112
            }
        },
        "name": "move_to_storage_B"
    },
    "id": "BKPIECE_move_to_storage_B_130",
    "joint_names": [
        "shoulder_pan_joint",
        "shoulder_lift_joint",
        "elbow_joint",
        "wrist_1_joint",
        "wrist_2_joint",
        "wrist_3_joint"
    ],
    "metrics": {
        "cart_traj_len": 0.8863750010247082,
        "distance_elbow_joint": 0.597596470908137,
        "distance_shoulder_lift_joint": 0.4571298649864506,
        "distance_shoulder_pan_joint": 0.38230767226546125,
        "distance_wrist_1_joint": 2.977562629591072,
        "distance_wrist_2_joint": 2.705034392671146,
        "distance_wrist_3_joint": 3.8796758682588703,
        "smoothness": 0.2692412040461247,
        "time": 0.188709192,
        "traj_len": 3.316520299754117,
        "weighted_distance": 4.943809832250943
    },
    "planner": "BKPIECE",
    "start": {
        "state": {
            "elbow_joint": 1.6649325340416963,
            "shoulder_lift_joint": -0.6616387945129425,
            "shoulder_pan_joint": -0.9139837929255878,
            "wrist_1_joint": 2.1467571094334352,
            "wrist_2_joint": -2.234195976750228,
            "wrist_3_joint": 0.005470921511140723
        }
    },
    "waypoints": [
        {
            "positions": [
                -0.9139837929255878,
                -0.6616387945129425,
                1.6649325340416963,
                2.1467571094334352,
                -2.234195976750228,
                0.005470921511140723
            ]
        },
        {
            "positions": [
                -0.8938146690908412,
                -0.752349979686102,
                1.7593881084731917,
                2.1407123636207652,
                -2.1376760085886066,
                0.07869204513535044
            ]
        },
        {
            "positions": [
                -0.8736455452560945,
                -0.8430611648592615,
                1.8538436829046874,
                2.1346676178080948,
                -2.041156040426985,
                0.15191316875956018
            ]
        },
        {
            "positions": [
                -0.8534764214213479,
                -0.933772350032421,
                1.9482992573361828,
                2.1286228719954248,
                -1.9446360722653635,
                0.22513429238376986
            ]
        },
        {
            "positions": [
                -0.8333072975866013,
                -1.0244835352055806,
                2.0427548317676782,
                2.1225781261827543,
                -1.8481161041037422,
                0.2983554160079796
            ]
        },
        {
            "positions": [
                -0.8131381737518546,
                -1.11519472037874,
                2.137210406199174,
                2.1165333803700843,
                -1.7515961359421206,
                0.3715765396321893
            ]
        },
        {
            "positions": [
                -0.8253756543210602,
                -1.1153501090361597,
                2.1317617714708845,
                1.9883882107819226,
                -1.654968546730684,
                0.21881261571315355
            ]
        },
        {
            "positions": [
                -0.8376131348902657,
                -1.1155054976935794,
                2.1263131367425947,
                1.8602430411937607,
                -1.5583409575192477,
                0.06604869179411782
            ]
        },
        {
            "positions": [
                -0.8498506154594713,
                -1.1156608863509991,
                2.1208645020143053,
                1.732097871605599,
                -1.4617133683078112,
                -0.08671523212491788
            ]
        },
        {
            "positions": [
                -0.8620880960286769,
                -1.1158162750084188,
                2.115415867286016,
                1.6039527020174371,
                -1.3650857790963746,
                -0.23947915604395364
            ]
        },
        {
            "positions": [
                -0.8743255765978825,
                -1.1159716636658386,
                2.109967232557726,
                1.4758075324292754,
                -1.2684581898849383,
                -0.39224307996298935
            ]
        },
        {
            "positions": [
                -0.8865630571670879,
                -1.1161270523232583,
                2.1045185978294367,
                1.3476623628411137,
                -1.171830600673502,
                -0.545007003882025
            ]
        },
        {
            "positions": [
                -0.8988005377362935,
                -1.116282440980678,
                2.0990699631011474,
                1.2195171932529516,
                -1.0752030114620652,
                -0.6977709278010609
            ]
        },
        {
            "positions": [
                -0.9110380183054991,
                -1.1164378296380977,
                2.0936213283728575,
                1.0913720236647901,
                -0.9785754222506289,
                -0.8505348517200966
            ]
        },
        {
            "positions": [
                -0.9232754988747047,
                -1.1165932182955174,
                2.088172693644568,
                0.9632268540766282,
                -0.8819478330391924,
                -1.0032987756391323
            ]
        },
        {
            "positions": [
                -0.9355129794439102,
                -1.116748606952937,
                2.0827240589162788,
                0.8350816844884665,
                -0.785320243827756,
                -1.156062699558168
            ]
        },
        {
            "positions": [
                -0.9477504600131158,
                -1.1169039956103568,
                2.077275424187989,
                0.7069365149003046,
                -0.6886926546163195,
                -1.3088266234772037
            ]
        },
        {
            "positions": [
                -0.9599879405823214,
                -1.1170593842677763,
                2.0718267894596996,
                0.5787913453121429,
                -0.5920650654048831,
                -1.4615905473962394
            ]
        },
        {
            "positions": [
                -0.9722254211515269,
                -1.117214772925196,
                2.06637815473141,
                0.45064617572398125,
                -0.4954374761934468,
                -1.6143544713152749
            ]
        },
        {
            "positions": [
                -0.9844629017207325,
                -1.1173701615826157,
                2.0609295200031204,
                0.3225010061358191,
                -0.39880988698201003,
                -1.767118395234311
            ]
        },
        {
            "positions": [
                -0.9967003822899381,
                -1.1175255502400354,
                2.055480885274831,
                0.19435583654765742,
                -0.3021822977705737,
                -1.9198823191533467
            ]
        },
        {
            "positions": [
                -1.0089378628591437,
                -1.1176809388974551,
                2.050032250546541,
                0.06621066695949596,
                -0.20555470855913716,
                -2.0726462430723824
            ]
        },
        {
            "positions": [
                -1.0211753434283493,
                -1.1178363275548748,
                2.0445836158182518,
                -0.06193450262866573,
                -0.10892711934770083,
                -2.2254101669914177
            ]
        },
        {
            "positions": [
                -1.0334128239975549,
                -1.1179917162122945,
                2.0391349810899624,
                -0.19007967221682787,
                -0.01229953013626428,
                -2.378174090910454
            ]
        },
        {
            "positions": [
                -1.0456503045667604,
                -1.1181471048697142,
                2.0336863463616726,
                -0.31822484180498956,
                0.08432805907517227,
                -2.5309380148294895
            ]
        },
        {
            "positions": [
                -1.0578877851359658,
                -1.118302493527134,
                2.028237711633383,
                -0.44637001139315124,
                0.1809556482866086,
                -2.6837019387485253
            ]
        },
        {
            "positions": [
                -1.0701252657051714,
                -1.1184578821845537,
                2.022789076905094,
                -0.5745151809813129,
                0.2775832374980449,
                -2.8364658626675605
            ]
        },
        {
            "positions": [
                -1.082362746274377,
                -1.1186132708419734,
                2.017340442176804,
                -0.7026603505694751,
                0.3742108267094817,
                -2.9892297865865967
            ]
        },
        {
            "positions": [
                -1.0946002268435826,
                -1.118768659499393,
                2.0118918074485146,
                -0.8308055201576369,
                0.47083841592091796,
                -3.1419937105056324
            ]
        }
    ]
}