{
    "goal": {
        "global_pose": {
            "orientation": {
                "w": -0.4816463035849501,
                "x": 0.5182115481033762,
                "y": 0.4908360881923453,
                "z": -0.5084816262002911
            },
            "position": {
                "x": -0.8240239810943604,
                "y": -0.300875300988555,
                "z": 0.16403168439865112
            }
        },
        "name": "move_to_storage_C"
    },
    "id": "BKPIECE_move_to_storage_C_120",
    "joint_names": [
        "shoulder_pan_joint",
        "shoulder_lift_joint",
        "elbow_joint",
        "wrist_1_joint",
        "wrist_2_joint",
        "wrist_3_joint"
    ],
    "metrics": {
        "cart_traj_len": 0.5770874253671012,
        "distance_elbow_joint": 0.2615637443724279,
        "distance_shoulder_lift_joint": 0.1893195862430348,
        "distance_shoulder_pan_joint": 0.4951739247454072,
        "distance_wrist_1_joint": 0.08993403446496939,
        "distance_wrist_2_joint": 1.0654339381850868,
        "distance_wrist_3_joint": 0.0617701709926215,
        "smoothness": 0.0,
        "time": 0.29370357999999996,
        "traj_len": 1.4707805407345949,
        "weighted_distance": 1.8552907356096098
    },
    "planner": "BKPIECE",
    "start": {
        "state": {
            "elbow_joint": 2.0108683149792914,
            "shoulder_lift_joint": -1.1634956873317392,
            "shoulder_pan_joint": -2.4736205022346,
            "wrist_1_joint": -0.8367026793690192,
            "wrist_2_joint": 0.6746043897045053,
            "wrist_3_joint": 3.133522094754363
        }
    },
    "waypoints": [
        {
            "positions": [
                -2.4736205022346,
                -1.1634956873317392,
                2.0108683149792914,
                -0.8367026793690192,
                0.6746043897045053,
                3.133522094754363
            ]
        },
        {
            "positions": [
                -2.556149489692168,
                -1.1319424229579,
                1.9672743575838867,
                -0.8217136736248576,
                0.8521767127353531,
                3.1438171232531333
            ]
        },
        {
            "positions": [
                -2.638678477149736,
                -1.100389158584061,
                1.9236804001884822,
                -0.8067246678806961,
                1.029749035766201,
                3.1541121517519035
            ]
        },
        {
            "positions": [
                -2.7212074646073035,
                -1.0688358942102218,
                1.8800864427930775,
                -0.7917356621365346,
                1.2073213587970488,
                3.1644071802506737
            ]
        },
        {
            "positions": [
                -2.8037364520648715,
                -1.0372826298363826,
                1.8364924853976727,
                -0.776746656392373,
                1.3848936818278965,
                3.1747022087494443
            ]
        },
        {
            "positions": [
                -2.8862654395224396,
                -1.0057293654625437,
                1.7928985280022682,
                -0.7617576506482113,
                1.5624660048587442,
                3.1849972372482145
            ]
        },
        {
            "positions": [
                -2.9687944269800073,
                -0.9741761010887044,
                1.7493045706068635,
                -0.7467686449040498,
                1.7400383278895921,
                3.1952922657469847
            ]
        }
    ]
}