{
    "goal": {
        "global_pose": {
            "orientation": {
                "w": -0.4816463035849501,
                "x": 0.5182115481033762,
                "y": 0.4908360881923453,
                "z": -0.5084816262002911
            },
            "position": {
                "x": -0.8240239810943604,
                "y": 0.19912469901144506,
                "z": 0.16403168439865112
            }
        },
        "name": "move_to_storage_D"
    },
    "id": "BKPIECE_move_to_storage_D_25",
    "joint_names": [
        "shoulder_pan_joint",
        "shoulder_lift_joint",
        "elbow_joint",
        "wrist_1_joint",
        "wrist_2_joint",
        "wrist_3_joint"
    ],
    "metrics": {
        "cart_traj_len": 0.874692090716306,
        "distance_elbow_joint": 1.1457576531854454,
        "distance_shoulder_lift_joint": 0.15270166212887037,
        "distance_shoulder_pan_joint": 1.5651237413486911,
        "distance_wrist_1_joint": 3.8251922539008425,
        "distance_wrist_2_joint": 1.779366209368483,
        "distance_wrist_3_joint": 3.123704286702607,
        "smoothness": 0.19161910255330758,
        "time": 0.56921405,
        "traj_len": 3.4046799859362613,
        "weighted_distance": 4.841881126515755
    },
    "planner": "BKPIECE",
    "start": {
        "state": {
            "elbow_joint": -2.384821990628643,
            "shoulder_lift_joint": -2.278805467437664,
            "shoulder_pan_joint": -0.18546946439364564,
            "wrist_1_joint": 1.4845938187801415,
            "wrist_2_joint": 0.178987772454074,
            "wrist_3_joint": 0.03710569632802521
        }
    },
    "waypoints": [
        {
            "positions": [
                -0.18546946439364564,
                -2.278805467437664,
                -2.384821990628643,
                1.4845938187801415,
                0.178987772454074,
                0.03710569632802521
            ]
        },
        {
            "positions": [
                -0.07826811027082611,
                -2.264075669914969,
                -2.4217428514841397,
                1.3693652447426314,
                0.11048149983037203,
                0.03127028067250284
            ]
        },
        {
            "positions": [
                0.028933243851993418,
                -2.249345872392274,
                -2.458663712339636,
                1.2541366707051216,
                0.041975227206670074,
                0.025434865016980467
            ]
        },
        {
            "positions": [
                0.13613459797481298,
                -2.2346160748695794,
                -2.4955845731951327,
                1.1389080966676115,
                -0.026531045417031884,
                0.019599449361458094
            ]
        },
        {
            "positions": [
                0.24333595209763248,
                -2.2198862773468844,
                -2.532505434050629,
                1.0236795226301014,
                -0.09503731804073384,
                0.013764033705935722
            ]
        },
        {
            "positions": [
                0.350537306220452,
                -2.2051564798241894,
                -2.5694262949061253,
                0.9084509485925916,
                -0.1635435906644358,
                0.007928618050413349
            ]
        },
        {
            "positions": [
                0.4577386603432716,
                -2.190426682301495,
                -2.606347155761622,
                0.7932223745550815,
                -0.23204986328813776,
                0.0020932023948909764
            ]
        },
        {
            "positions": [
                0.5649400144660911,
                -2.1756968847788,
                -2.6432680166171183,
                0.6779938005175715,
                -0.3005561359118397,
                -0.0037422132606313996
            ]
        },
        {
            "positions": [
                0.6721413685889106,
                -2.160967087256105,
                -2.680188877472615,
                0.5627652264800616,
                -0.36906240853554173,
                -0.009577628916153769
            ]
        },
        {
            "positions": [
                0.6413799377903829,
                -2.1594512923888303,
                -2.6432153658925506,
                0.43653202380176753,
                -0.4225978880302751,
                -0.14336114897956367
            ]
        },
        {
            "positions": [
                0.6106185069918553,
                -2.157935497521556,
                -2.606241854312487,
                0.3102988211234735,
                -0.47613336752500846,
                -0.2771446690429736
            ]
        },
        {
            "positions": [
                0.5798570761933277,
                -2.1564197026542815,
                -2.5692683427324225,
                0.18406561844517955,
                -0.5296688470197418,
                -0.41092818910638346
            ]
        },
        {
            "positions": [
                0.5490956453948,
                -2.1549039077870074,
                -2.5322948311523583,
                0.05783241576688547,
                -0.5832043265144752,
                -0.5447117091697934
            ]
        },
        {
            "positions": [
                0.5183342145962724,
                -2.1533881129197328,
                -2.4953213195722945,
                -0.0684007869114085,
                -0.6367398060092085,
                -0.6784952292332033
            ]
        },
        {
            "positions": [
                0.4875727837977447,
                -2.1518723180524586,
                -2.4583478079922303,
                -0.19463398958970246,
                -0.6902752855039419,
                -0.8122787492966131
            ]
        },
        {
            "positions": [
                0.45681135299921705,
                -2.150356523185184,
                -2.421374296412166,
                -0.32086719226799665,
                -0.7438107649986753,
                -0.9460622693600231
            ]
        },
        {
            "positions": [
                0.42604992220068943,
                -2.1488407283179094,
                -2.3844007848321023,
                -0.4471003949462906,
                -0.7973462444934086,
                -1.079845789423433
            ]
        },
        {
            "positions": [
                0.39528849140216177,
                -2.1473249334506352,
                -2.347427273252038,
                -0.5733335976245846,
                -0.850881723988142,
                -1.2136293094868429
            ]
        },
        {
            "positions": [
                0.36452706060363416,
                -2.1458091385833606,
                -2.3104537616719742,
                -0.6995668003028785,
                -0.9044172034828754,
                -1.3474128295502528
            ]
        },
        {
            "positions": [
                0.3337656298051065,
                -2.1442933437160865,
                -2.27348025009191,
                -0.8258000029811727,
                -0.9579526829776087,
                -1.4811963496136626
            ]
        },
        {
            "positions": [
                0.3030041990065788,
                -2.142777548848812,
                -2.236506738511846,
                -0.9520332056594665,
                -1.0114881624723422,
                -1.6149798696770725
            ]
        },
        {
            "positions": [
                0.2722427682080512,
                -2.1412617539815377,
                -2.199533226931782,
                -1.0782664083377604,
                -1.0650236419670756,
                -1.7487633897404824
            ]
        },
        {
            "positions": [
                0.2414813374095235,
                -2.139745959114263,
                -2.1625597153517178,
                -1.2044996110160548,
                -1.118559121461809,
                -1.8825469098038925
            ]
        },
        {
            "positions": [
                0.21071990661099588,
                -2.138230164246989,
                -2.1255862037716535,
                -1.3307328136943486,
                -1.1720946009565423,
                -2.0163304298673026
            ]
        },
        {
            "positions": [
                0.17995847581246827,
                -2.1367143693797144,
                -2.0886126921915897,
                -1.4569660163726428,
                -1.2256300804512756,
                -2.150113949930712
            ]
        },
        {
            "positions": [
                0.1491970450139406,
                -2.1351985745124398,
                -2.0516391806115255,
                -1.5831992190509365,
                -1.2791655599460088,
                -2.2838974699941215
            ]
        },
        {
            "positions": [
                0.11843561421541293,
                -2.1336827796451656,
                -2.0146656690314613,
                -1.7094324217292307,
                -1.3327010394407424,
                -2.417680990057532
            ]
        },
        {
            "positions": [
                0.08767418341688527,
                -2.132166984777891,
                -1.9776921574513973,
                -1.835665624407525,
                -1.3862365189354757,
                -2.551464510120942
            ]
        },
        {
            "positions": [
                0.05691275261835771,
                -2.130651189910617,
                -1.9407186458713332,
                -1.9618988270858186,
                -1.439771998430209,
                -2.6852480301843515
            ]
        },
        {
            "positions": [
                0.026151321819830042,
                -2.1291353950433423,
                -1.9037451342912692,
                -2.0881320297641124,
                -1.4933074779249425,
                -2.819031550247762
            ]
        },
        {
            "positions": [
                -0.004610108978697625,
                -2.127619600176068,
                -1.866771622711205,
                -2.214365232442407,
                -1.5468429574196758,
                -2.9528150703111713
            ]
        },
        {
            "positions": [
                -0.035371539777225264,
                -2.1261038053087935,
                -1.829798111131141,
                -2.3405984351207008,
                -1.6003784369144092,
                -3.0865985903745816
            ]
        }
    ]
}