{
    "goal": {
        "global_pose": {
            "orientation": {
                "w": 0.7031023502349854,
                "x": -0.7110244035720825,
                "y": 0.007748599164187908,
                "z": 0.005598929710686207
            },
            "position": {
                "x": 0.11585023208521307,
                "y": 0.44412534475326537,
                "z": 0.3711530566215515
            }
        },
        "name": "move_to_auspresseinheit_A"
    },
    "id": "BKPIECE_move_to_auspresseinheit_A_77",
    "joint_names": [
        "shoulder_pan_joint",
        "shoulder_lift_joint",
        "elbow_joint",
        "wrist_1_joint",
        "wrist_2_joint",
        "wrist_3_joint"
    ],
    "metrics": {
        "cart_traj_len": 1.5163053572212917,
        "distance_elbow_joint": 1.5093933506636574,
        "distance_shoulder_lift_joint": 0.7923762839744237,
        "distance_shoulder_pan_joint": 1.043190614947485,
        "distance_wrist_1_joint": 0.9742792479799167,
        "distance_wrist_2_joint": 0.5270112525948967,
        "distance_wrist_3_joint": 3.7858588669349342,
        "smoothness": 1.1065367617706074,
        "time": 0.269170443,
        "traj_len": 2.938045203378483,
        "weighted_distance": 4.207744984138178
    },
    "planner": "BKPIECE",
    "start": {
        "state": {
            "elbow_joint": 2.4225746994637096,
            "shoulder_lift_joint": -1.373653595662188,
            "shoulder_pan_joint": -0.3378633848294565,
            "wrist_1_joint": -1.0288595594406726,
            "wrist_2_joint": 1.2330228066703421,
            "wrist_3_joint": 3.189163495502006
        }
    },
    "waypoints": [
        {
            "positions": [
                -0.3378633848294565,
                -1.373653595662188,
                2.4225746994637096,
                -1.0288595594406726,
                1.2330228066703421,
                3.189163495502006
            ]
        },
        {
            "positions": [
                -0.2750810951535312,
                -1.4182437491594333,
                2.358321614171587,
                -0.9831954861385869,
                1.2158270264426019,
                3.0289492987508786
            ]
        },
        {
            "positions": [
                -0.21229880547760582,
                -1.4628339026566788,
                2.294068528879464,
                -0.9375314128365012,
                1.1986312462148618,
                2.868735101999751
            ]
        },
        {
            "positions": [
                -0.14951651580168046,
                -1.507424056153924,
                2.2298154435873414,
                -0.8918673395344154,
                1.1814354659871216,
                2.7085209052486237
            ]
        },
        {
            "positions": [
                -0.08673422612575515,
                -1.5520142096511695,
                2.165562358295219,
                -0.8462032662323298,
                1.1642396857593813,
                2.5483067084974964
            ]
        },
        {
            "positions": [
                -0.023951936449829736,
                -1.5966043631484148,
                2.1013092730030962,
                -0.8005391929302439,
                1.1470439055316413,
                2.388092511746369
            ]
        },
        {
            "positions": [
                0.03883035322609557,
                -1.64119451664566,
                2.0370561877109736,
                -0.7548751196281582,
                1.129848125303901,
                2.227878314995242
            ]
        },
        {
            "positions": [
                0.10161264290202093,
                -1.6857846701429056,
                1.9728031024188506,
                -0.7092110463260725,
                1.1126523450761607,
                2.0676641182441142
            ]
        },
        {
            "positions": [
                0.16439493257794618,
                -1.7303748236401508,
                1.908550017126728,
                -0.6635469730239868,
                1.0954565648484207,
                1.907449921492987
            ]
        },
        {
            "positions": [
                0.22717722225387155,
                -1.7749649771373963,
                1.8442969318346054,
                -0.617882899721901,
                1.0782607846206804,
                1.7472357247418597
            ]
        },
        {
            "positions": [
                0.289959511929797,
                -1.8195551306346416,
                1.7800438465424826,
                -0.5722188264198153,
                1.0610650043929402,
                1.5870215279907323
            ]
        },
        {
            "positions": [
                0.35274180160572227,
                -1.864145284131887,
                1.7157907612503598,
                -0.5265547531177296,
                1.0438692241652001,
                1.426807331239605
            ]
        },
        {
            "positions": [
                0.4155240912816477,
                -1.9087354376291323,
                1.6515376759582372,
                -0.48089067981564376,
                1.0266734439374599,
                1.2665931344884775
            ]
        },
        {
            "positions": [
                0.421352912086854,
                -1.929765404035054,
                1.753879552214038,
                -0.44318275315487615,
                1.0178737332819563,
                1.4598579221980883
            ]
        },
        {
            "positions": [
                0.4271817328920603,
                -1.950795370440976,
                1.8562214284698386,
                -0.4054748264941086,
                1.0090740226264527,
                1.653122709907699
            ]
        },
        {
            "positions": [
                0.4330105536972666,
                -1.9718253368468979,
                1.9585633047256394,
                -0.367766899833341,
                1.0002743119709492,
                1.84638749761731
            ]
        },
        {
            "positions": [
                0.43883937450247296,
                -1.9928553032528196,
                2.06090518098144,
                -0.3300589731725734,
                0.9914746013154456,
                2.0396522853269206
            ]
        },
        {
            "positions": [
                0.44466819530767926,
                -2.0138852696587413,
                2.163247057237241,
                -0.29235104651180577,
                0.9826748906599421,
                2.232917073036532
            ]
        },
        {
            "positions": [
                0.45049701611288556,
                -2.034915236064663,
                2.2655889334930417,
                -0.25464311985103816,
                0.9738751800044385,
                2.4261818607461425
            ]
        },
        {
            "positions": [
                0.5014630589139142,
                -2.0086923073502736,
                2.290449947417718,
                -0.29465568152909455,
                0.9203024548186399,
                2.5669218166788905
            ]
        },
        {
            "positions": [
                0.5524291017149427,
                -1.9824693786358838,
                2.315310961342394,
                -0.33466824320715094,
                0.8667297296328413,
                2.707661772611639
            ]
        },
        {
            "positions": [
                0.6033951445159714,
                -1.956246449921494,
                2.34017197526707,
                -0.3746808048852074,
                0.8131570044470426,
                2.848401728544387
            ]
        },
        {
            "positions": [
                0.6543611873170001,
                -1.9300235212071044,
                2.365032989191746,
                -0.4146933665632638,
                0.759584279261244,
                2.9891416844771355
            ]
        },
        {
            "positions": [
                0.7053272301180287,
                -1.9038005924927146,
                2.389894003116422,
                -0.45470592824132017,
                0.7060115540754455,
                3.1298816404098835
            ]
        }
    ]
}