{
    "goal": {
        "global_pose": {
            "orientation": {
                "w": -0.00223480608172531,
                "x": 0.0024358444001904467,
                "y": 0.7094548369677653,
                "z": -0.704743149386269
            },
            "position": {
                "x": 0.6205249238014221,
                "y": -0.6371506643295288,
                "z": 0.19426114857196808
            }
        },
        "name": "move_to_magneteinheit_B"
    },
    "id": "BKPIECE_move_to_magneteinheit_B_145",
    "joint_names": [
        "shoulder_pan_joint",
        "shoulder_lift_joint",
        "elbow_joint",
        "wrist_1_joint",
        "wrist_2_joint",
        "wrist_3_joint"
    ],
    "metrics": {
        "cart_traj_len": 1.4534193793416552,
        "distance_elbow_joint": 0.726634136309332,
        "distance_shoulder_lift_joint": 1.2453973483532144,
        "distance_shoulder_pan_joint": 1.6199556370397312,
        "distance_wrist_1_joint": 2.6208777962241614,
        "distance_wrist_2_joint": 2.940406145813249,
        "distance_wrist_3_joint": 3.143178859286242,
        "smoothness": 2.69144977797877e-16,
        "time": 0.362585924,
        "traj_len": 3.50662942482178,
        "weighted_distance": 4.913663763795385
    },
    "planner": "BKPIECE",
    "start": {
        "state": {
            "elbow_joint": 2.393587130804639,
            "shoulder_lift_joint": -1.9085141043513325,
            "shoulder_pan_joint": 0.7066247066698809,
            "wrist_1_joint": -0.4678290934590222,
            "wrist_2_joint": 0.7096259084215963,
            "wrist_3_joint": 3.147370379541726
        }
    },
    "waypoints": [
        {
            "positions": [
                0.7066247066698809,
                -1.9085141043513325,
                2.393587130804639,
                -0.4678290934590222,
                0.7096259084215963,
                3.147370379541726
            ]
        },
        {
            "positions": [
                0.6560010930123893,
                -1.8695954372152945,
                2.3708798140449723,
                -0.3859266623270171,
                0.6177382163649323,
                3.049146040189031
            ]
        },
        {
            "positions": [
                0.6053774793548976,
                -1.8306767700792566,
                2.3481724972853057,
                -0.3040242311950121,
                0.5258505243082683,
                2.9509217008363358
            ]
        },
        {
            "positions": [
                0.554753865697406,
                -1.7917581029432186,
                2.3254651805256388,
                -0.22212180006300702,
                0.43396283225160426,
                2.852697361483641
            ]
        },
        {
            "positions": [
                0.5041302520399145,
                -1.7528394358071808,
                2.3027578637659722,
                -0.14021936893100195,
                0.34207514019494023,
                2.754473022130946
            ]
        },
        {
            "positions": [
                0.4535066383824229,
                -1.7139207686711428,
                2.2800505470063057,
                -0.05831693779899688,
                0.2501874481382762,
                2.6562486827782505
            ]
        },
        {
            "positions": [
                0.40288302472493126,
                -1.6750021015351049,
                2.257343230246639,
                0.023585493333008134,
                0.15829975608161218,
                2.5580243434255556
            ]
        },
        {
            "positions": [
                0.35225941106743963,
                -1.636083434399067,
                2.234635913486972,
                0.10548792446501326,
                0.06641206402494815,
                2.4598000040728607
            ]
        },
        {
            "positions": [
                0.30163579740994806,
                -1.597164767263029,
                2.2119285967273057,
                0.18739035559701828,
                -0.02547562803171588,
                2.3615756647201653
            ]
        },
        {
            "positions": [
                0.2510121837524565,
                -1.558246100126991,
                2.189221279967639,
                0.2692927867290233,
                -0.11736332008837991,
                2.2633513253674704
            ]
        },
        {
            "positions": [
                0.2003885700949649,
                -1.519327432990953,
                2.1665139632079726,
                0.3511952178610284,
                -0.20925101214504394,
                2.1651269860147755
            ]
        },
        {
            "positions": [
                0.14976495643747323,
                -1.4804087658549152,
                2.143806646448306,
                0.43309764899303343,
                -0.30113870420170796,
                2.06690264666208
            ]
        },
        {
            "positions": [
                0.09914134277998166,
                -1.441490098718877,
                2.121099329688639,
                0.5150000801250385,
                -0.393026396258372,
                1.9686783073093852
            ]
        },
        {
            "positions": [
                0.04851772912249008,
                -1.4025714315828393,
                2.0983920129289726,
                0.5969025112570436,
                -0.484914088315036,
                1.8704539679566903
            ]
        },
        {
            "positions": [
                -0.002105884535001601,
                -1.3636527644468013,
                2.075684696169306,
                0.6788049423890488,
                -0.5768017803717,
                1.7722296286039951
            ]
        },
        {
            "positions": [
                -0.052729498192493174,
                -1.3247340973107633,
                2.0529773794096395,
                0.7607073735210537,
                -0.6686894724283641,
                1.6740052892513002
            ]
        },
        {
            "positions": [
                -0.10335311184998475,
                -1.2858154301747253,
                2.030270062649973,
                0.8426098046530588,
                -0.7605771644850281,
                1.575780949898605
            ]
        },
        {
            "positions": [
                -0.15397672550747632,
                -1.2468967630386874,
                2.007562745890306,
                0.9245122357850639,
                -0.8524648565416921,
                1.47755661054591
            ]
        },
        {
            "positions": [
                -0.2046003391649679,
                -1.2079780959026494,
                1.9848554291306395,
                1.0064146669170688,
                -0.9443525485983562,
                1.379332271193215
            ]
        },
        {
            "positions": [
                -0.2552239528224596,
                -1.1690594287666114,
                1.962148112370973,
                1.088317098049074,
                -1.0362402406550202,
                1.2811079318405199
            ]
        },
        {
            "positions": [
                -0.30584756647995104,
                -1.1301407616305736,
                1.9394407956113062,
                1.170219529181079,
                -1.1281279327116842,
                1.182883592487825
            ]
        },
        {
            "positions": [
                -0.35647118013744283,
                -1.0912220944945354,
                1.9167334788516397,
                1.252121960313084,
                -1.2200156247683482,
                1.0846592531351296
            ]
        },
        {
            "positions": [
                -0.4070947937949344,
                -1.0523034273584977,
                1.894026162091973,
                1.334024391445089,
                -1.3119033168250123,
                0.9864349137824346
            ]
        },
        {
            "positions": [
                -0.457718407452426,
                -1.0133847602224597,
                1.8713188453323064,
                1.4159268225770942,
                -1.403791008881676,
                0.8882105744297397
            ]
        },
        {
            "positions": [
                -0.5083420211099176,
                -0.9744660930864217,
                1.8486115285726399,
                1.4978292537090991,
                -1.4956787009383403,
                0.7899862350770444
            ]
        },
        {
            "positions": [
                -0.5589656347674091,
                -0.9355474259503838,
                1.8259042118129731,
                1.5797316848411043,
                -1.5875663929950046,
                0.6917618957243494
            ]
        },
        {
            "positions": [
                -0.6095892484249007,
                -0.8966287588143458,
                1.8031968950533064,
                1.6616341159731094,
                -1.6794540850516684,
                0.5935375563716545
            ]
        },
        {
            "positions": [
                -0.6602128620823923,
                -0.8577100916783078,
                1.7804895782936399,
                1.7435365471051145,
                -1.7713417771083322,
                0.4953132170189596
            ]
        },
        {
            "positions": [
                -0.7108364757398841,
                -0.81879142454227,
                1.7577822615339733,
                1.8254389782371196,
                -1.8632294691649964,
                0.3970888776662642
            ]
        },
        {
            "positions": [
                -0.7614600893973756,
                -0.7798727574062321,
                1.7350749447743068,
                1.9073414093691243,
                -1.9551171612216607,
                0.2988645383135693
            ]
        },
        {
            "positions": [
                -0.8120837030548672,
                -0.7409540902701941,
                1.71236762801464,
                1.9892438405011295,
                -2.0470048532783247,
                0.20064019896087437
            ]
        },
        {
            "positions": [
                -0.8627073167123588,
                -0.7020354231341561,
                1.6896603112549733,
                2.0711462716331344,
                -2.138892545334988,
                0.102415859608179
            ]
        },
        {
            "positions": [
                -0.9133309303698504,
                -0.663116755998118,
                1.6669529944953068,
                2.1530487027651395,
                -2.2307802373916523,
                0.004191520255484228
            ]
        }
    ]
}