{
    "goal": {
        "global_pose": {
            "orientation": {
                "w": -0.00223480608172531,
                "x": 0.0024358444001904467,
                "y": 0.7094548369677653,
                "z": -0.704743149386269
            },
            "position": {
                "x": 0.6205249238014221,
                "y": -0.6371506643295288,
                "z": 0.19426114857196808
            }
        },
        "name": "move_to_magneteinheit_B"
    },
    "id": "BKPIECE_move_to_magneteinheit_B_63",
    "joint_names": [
        "shoulder_pan_joint",
        "shoulder_lift_joint",
        "elbow_joint",
        "wrist_1_joint",
        "wrist_2_joint",
        "wrist_3_joint"
    ],
    "metrics": {
        "cart_traj_len": 3.7156273446079036,
        "distance_elbow_joint": 4.962950053339511,
        "distance_shoulder_lift_joint": 1.4157353106330721,
        "distance_shoulder_pan_joint": 1.9545303354153414,
        "distance_wrist_1_joint": 3.4380752551570217,
        "distance_wrist_2_joint": 3.3910820837660087,
        "distance_wrist_3_joint": 3.988802206368452,
        "smoothness": 0.36090253001873607,
        "time": 0.313693422,
        "traj_len": 4.3762055761446375,
        "weighted_distance": 5.827343905789269
    },
    "planner": "BKPIECE",
    "start": {
        "state": {
            "elbow_joint": 2.393587130804639,
            "shoulder_lift_joint": -1.9085141043513325,
            "shoulder_pan_joint": 0.7066247066698809,
            "wrist_1_joint": -0.4678290934590222,
            "wrist_2_joint": 0.7096259084215963,
            "wrist_3_joint": 3.147370379541726
        }
    },
    "waypoints": [
        {
            "positions": [
                0.7066247066698809,
                -1.9085141043513325,
                2.393587130804639,
                -0.4678290934590222,
                0.7096259084215963,
                3.147370379541726
            ]
        },
        {
            "positions": [
                0.7484290490203171,
                -1.9177040942205088,
                2.3871180145029545,
                -0.4281794591088046,
                0.6440017622159508,
                2.9904134679815293
            ]
        },
        {
            "positions": [
                0.7902333913707534,
                -1.9268940840896849,
                2.38064889820127,
                -0.38852982475858705,
                0.5783776160103054,
                2.833456556421332
            ]
        },
        {
            "positions": [
                0.8267554165536264,
                -1.9334105634385508,
                2.3669454933501823,
                -0.3556594259404267,
                0.521119545568643,
                2.692748062408555
            ]
        },
        {
            "positions": [
                0.8632774417364993,
                -1.939927042787417,
                2.3532420884990946,
                -0.3227890271222664,
                0.46386147512698067,
                2.5520395683957777
            ]
        },
        {
            "positions": [
                0.8997994669193723,
                -1.9464435221362828,
                2.3395386836480068,
                -0.2899186283041061,
                0.4066034046853183,
                2.4113310743830008
            ]
        },
        {
            "positions": [
                0.9179591019925262,
                -1.9294559594411127,
                2.1857628770801503,
                -0.32641357631965345,
                0.3589544992099113,
                2.298770315807403
            ]
        },
        {
            "positions": [
                0.9361187370656799,
                -1.9124683967459428,
                2.0319870705122938,
                -0.3629085243352008,
                0.3113055937345043,
                2.1862095572318054
            ]
        },
        {
            "positions": [
                0.9542783721388338,
                -1.8954808340507727,
                1.878211263944437,
                -0.39940347235074825,
                0.2636566882590973,
                2.0736487986562078
            ]
        },
        {
            "positions": [
                0.9724380072119877,
                -1.8784932713556026,
                1.7244354573765803,
                -0.4358984203662956,
                0.21600778278369032,
                1.96108804008061
            ]
        },
        {
            "positions": [
                0.9905976422851415,
                -1.8615057086604327,
                1.5706596508087238,
                -0.472393368381843,
                0.16835887730828333,
                1.8485272815050124
            ]
        },
        {
            "positions": [
                1.0087572773582953,
                -1.8445181459652626,
                1.4168838442408673,
                -0.5088883163973904,
                0.12070997183287635,
                1.735966522929415
            ]
        },
        {
            "positions": [
                1.0269169124314492,
                -1.8275305832700925,
                1.2631080376730106,
                -0.5453832644129377,
                0.07306106635746934,
                1.6234057643538173
            ]
        },
        {
            "positions": [
                1.045076547504603,
                -1.8105430205749227,
                1.109332231105154,
                -0.5818782124284851,
                0.02541216088206233,
                1.5108450057782197
            ]
        },
        {
            "positions": [
                1.0632361825777568,
                -1.7935554578797526,
                0.9555564245372976,
                -0.6183731604440326,
                -0.022236744593344626,
                1.3982842472026222
            ]
        },
        {
            "positions": [
                1.0813958176509106,
                -1.7765678951845825,
                0.8017806179694409,
                -0.65486810845958,
                -0.06988565006875164,
                1.2857234886270243
            ]
        },
        {
            "positions": [
                1.0995554527240645,
                -1.7595803324894126,
                0.6480048114015844,
                -0.6913630564751273,
                -0.11753455554415859,
                1.173162730051427
            ]
        },
        {
            "positions": [
                1.1177150877972184,
                -1.7425927697942425,
                0.4942290048337279,
                -0.7278580044906746,
                -0.1651834610195656,
                1.0606019714758292
            ]
        },
        {
            "positions": [
                1.1358747228703723,
                -1.7256052070990726,
                0.34045319826587095,
                -0.764352952506222,
                -0.2128323664949726,
                0.9480412129002316
            ]
        },
        {
            "positions": [
                1.1540343579435262,
                -1.7086176444039025,
                0.18667739169801445,
                -0.8008479005217695,
                -0.2604812719703796,
                0.8354804543246339
            ]
        },
        {
            "positions": [
                1.17219399301668,
                -1.6916300817087326,
                0.03290158513015795,
                -0.8373428485373168,
                -0.3081301774457865,
                0.7229196957490365
            ]
        },
        {
            "positions": [
                1.190353628089834,
                -1.6746425190135625,
                -0.12087422143769855,
                -0.8738377965528642,
                -0.35577908292119365,
                0.6103589371734386
            ]
        },
        {
            "positions": [
                1.2085132631629878,
                -1.6576549563183924,
                -0.2746500280055555,
                -0.9103327445684116,
                -0.40342798839660066,
                0.4977981785978409
            ]
        },
        {
            "positions": [
                1.2266728982361415,
                -1.6406673936232226,
                -0.42842583457341155,
                -0.9468276925839589,
                -0.45107689387200756,
                0.3852374200222437
            ]
        },
        {
            "positions": [
                1.2448325333092953,
                -1.6236798309280525,
                -0.5822016411412685,
                -0.9833226405995064,
                -0.49872579934741457,
                0.2726766614466456
            ]
        },
        {
            "positions": [
                1.2629921683824492,
                -1.6066922682328824,
                -0.735977447709125,
                -1.0198175886150538,
                -0.5463747048228216,
                0.16011590287104793
            ]
        },
        {
            "positions": [
                1.2811518034556029,
                -1.5897047055377125,
                -0.8897532542769815,
                -1.056312536630601,
                -0.5940236102982285,
                0.04755514429545071
            ]
        },
        {
            "positions": [
                1.2993114385287567,
                -1.5727171428425424,
                -1.043529060844838,
                -1.0928074846461486,
                -0.6416725157736355,
                -0.06500561428014695
            ]
        },
        {
            "positions": [
                1.3174710736019106,
                -1.5557295801473723,
                -1.197304867412695,
                -1.1293024326616958,
                -0.6893214212490425,
                -0.17756637285574461
            ]
        },
        {
            "positions": [
                1.3356307086750645,
                -1.5387420174522024,
                -1.351080673980551,
                -1.1657973806772433,
                -0.7369703267244495,
                -0.2901271314313423
            ]
        },
        {
            "positions": [
                1.3537903437482184,
                -1.5217544547570323,
                -1.504856480548408,
                -1.2022923286927907,
                -0.7846192321998565,
                -0.40268789000693994
            ]
        },
        {
            "positions": [
                1.4688699213907048,
                -1.5692357317381957,
                -1.59289761250933,
                -1.2147079727925505,
                -0.8306604820872244,
                -0.3412995077478871
            ]
        },
        {
            "positions": [
                1.5839494990331913,
                -1.616717008719359,
                -1.680938744470252,
                -1.22712361689231,
                -0.8767017319745924,
                -0.2799111254888342
            ]
        },
        {
            "positions": [
                1.6990290766756777,
                -1.6641982857005224,
                -1.7689798764311737,
                -1.23953926099207,
                -0.9227429818619604,
                -0.21852274322978132
            ]
        },
        {
            "positions": [
                1.8141086543181641,
                -1.7116795626816856,
                -1.8570210083920957,
                -1.2519549050918295,
                -0.9687842317493283,
                -0.15713436097072844
            ]
        },
        {
            "positions": [
                1.9291882319606506,
                -1.759160839662849,
                -1.9450621403530177,
                -1.2643705491915893,
                -1.0148254816366964,
                -0.09574597871167556
            ]
        },
        {
            "positions": [
                2.044267809603137,
                -1.8066421166440123,
                -2.03310327231394,
                -1.276786193291349,
                -1.0608667315240643,
                -0.03435759645262271
            ]
        },
        {
            "positions": [
                2.1593473872456235,
                -1.8541233936251758,
                -2.1211444042748617,
                -1.2892018373911087,
                -1.1069079814114322,
                0.02703078580643021
            ]
        },
        {
            "positions": [
                2.1951907911627377,
                -1.8984625283823706,
                -2.089128795827718,
                -1.1277102958971728,
                -0.9944402532733622,
                0.027675447306888302
            ]
        },
        {
            "positions": [
                2.231034195079852,
                -1.9428016631395655,
                -2.0571131873805744,
                -0.966218754403237,
                -0.8819725251352922,
                0.02832010880734639
            ]
        },
        {
            "positions": [
                2.2668775989969663,
                -1.9871407978967603,
                -2.0250975789334302,
                -0.804727212909301,
                -0.7695047969972222,
                0.028964770307804484
            ]
        },
        {
            "positions": [
                2.30272100291408,
                -2.031479932653955,
                -1.9930819704862865,
                -0.6432356714153652,
                -0.6570370688591523,
                0.029609431808262577
            ]
        },
        {
            "positions": [
                2.3385644068311944,
                -2.07581906741115,
                -1.9610663620391429,
                -0.48174412992142923,
                -0.5445693407210821,
                0.03025409330872067
            ]
        },
        {
            "positions": [
                2.3744078107483086,
                -2.1201582021683447,
                -1.929050753591999,
                -0.3202525884274934,
                -0.43210161258301216,
                0.03089875480917876
            ]
        },
        {
            "positions": [
                2.410251214665423,
                -2.16449733692554,
                -1.897035145144855,
                -0.15876104693355741,
                -0.3196338844449421,
                0.03154341630963685
            ]
        },
        {
            "positions": [
                2.446094618582537,
                -2.2088364716827344,
                -1.8650195366977114,
                0.002730494560378327,
                -0.20716615630687218,
                0.032188077810094945
            ]
        },
        {
            "positions": [
                2.4819380224996515,
                -2.2531756064399295,
                -1.8330039282505677,
                0.1642220360543145,
                -0.09469842816880192,
                0.032832739310553034
            ]
        },
        {
            "positions": [
                2.5177814264167657,
                -2.297514741197124,
                -1.8009883198034238,
                0.32571357754825025,
                0.017769299969268015,
                0.03347740081101113
            ]
        },
        {
            "positions": [
                2.5536248303338795,
                -2.3418538759543193,
                -1.7689727113562799,
                0.4872051190421862,
                0.13023702810733795,
                0.03412206231146922
            ]
        },
        {
            "positions": [
                2.589468234250994,
                -2.386193010711514,
                -1.7369571029091362,
                0.648696660536122,
                0.24270475624540788,
                0.03476672381192731
            ]
        },
        {
            "positions": [
                2.625311638168108,
                -2.4305321454687085,
                -1.7049414944619925,
                0.8101882020300581,
                0.35517248438347804,
                0.035411385312385406
            ]
        },
        {
            "positions": [
                2.6611550420852224,
                -2.4748712802259036,
                -1.6729258860148486,
                0.9716797435239939,
                0.4676402125215479,
                0.036056046812843495
            ]
        }
    ]
}