{
    "goal": {
        "global_pose": {
            "orientation": {
                "w": 0.7047431493862688,
                "x": -0.7094548369677653,
                "y": 0.0024358444001904,
                "z": -0.0022348060817251984
            },
            "position": {
                "x": -0.39052492380142206,
                "y": 0.3671506643295288,
                "z": 0.19426114857196808
            }
        },
        "name": "move_to_magneteinheit_D"
    },
    "id": "BKPIECE_move_to_magneteinheit_D_29",
    "joint_names": [
        "shoulder_pan_joint",
        "shoulder_lift_joint",
        "elbow_joint",
        "wrist_1_joint",
        "wrist_2_joint",
        "wrist_3_joint"
    ],
    "metrics": {
        "cart_traj_len": 6.596099926394184,
        "distance_elbow_joint": 6.440277492108811,
        "distance_shoulder_lift_joint": 1.658197418601511,
        "distance_shoulder_pan_joint": 5.801017783598211,
        "distance_wrist_1_joint": 6.358649236661752,
        "distance_wrist_2_joint": 4.470750710138583,
        "distance_wrist_3_joint": 3.25515346160926,
        "smoothness": 0.5754723914939613,
        "time": 0.389068591,
        "traj_len": 5.289994905736499,
        "weighted_distance": 6.732291806861683
    },
    "planner": "BKPIECE",
    "start": {
        "state": {
            "elbow_joint": 0.7495348899011911,
            "shoulder_lift_joint": -0.6476975780737668,
            "shoulder_pan_joint": -2.711696901376276,
            "wrist_1_joint": -0.0750647808097303,
            "wrist_2_joint": 0.43296659715458535,
            "wrist_3_joint": 3.1361499051832418
        }
    },
    "waypoints": [
        {
            "positions": [
                -2.711696901376276,
                -0.6476975780737668,
                0.7495348899011911,
                -0.0750647808097303,
                0.43296659715458535,
                3.1361499051832418
            ]
        },
        {
            "positions": [
                -2.7110626776576323,
                -0.6445095289947199,
                0.7573099974015112,
                -0.04660579197788062,
                0.3969321274777474,
                2.8671255531748034
            ]
        },
        {
            "positions": [
                -2.710428453938989,
                -0.641321479915673,
                0.7650851049018311,
                -0.01814680314603094,
                0.36089765780090943,
                2.598101201166365
            ]
        },
        {
            "positions": [
                -2.709794230220345,
                -0.6381334308366261,
                0.7728602124021511,
                0.010312185685818737,
                0.32486318812407144,
                2.3290768491579263
            ]
        },
        {
            "positions": [
                -2.709160006501701,
                -0.6349453817575792,
                0.7806353199024711,
                0.038771174517668414,
                0.2888287184472335,
                2.060052497149488
            ]
        },
        {
            "positions": [
                -2.696152863418205,
                -0.6877459736061172,
                0.7629055309471382,
                0.09500493998695506,
                0.24276763038680454,
                1.8948062834760444
            ]
        },
        {
            "positions": [
                -2.683145720334709,
                -0.7405465654546552,
                0.7451757419918053,
                0.15123870545624168,
                0.19670654232637558,
                1.7295600698026008
            ]
        },
        {
            "positions": [
                -2.6701385772512127,
                -0.7933471573031933,
                0.7274459530364723,
                0.20747247092552834,
                0.1506454542659466,
                1.5643138561291572
            ]
        },
        {
            "positions": [
                -2.599604205537604,
                -0.8304582780977268,
                0.603100320769232,
                0.27810999850096774,
                0.15764523564717492,
                1.4790543616551275
            ]
        },
        {
            "positions": [
                -2.529069833823995,
                -0.8675693988922603,
                0.47875468850199177,
                0.3487475260764071,
                0.16464501702840323,
                1.3937948671810978
            ]
        },
        {
            "positions": [
                -2.4585354621103863,
                -0.9046805196867937,
                0.3544090562347515,
                0.4193850536518464,
                0.17164479840963154,
                1.3085353727070683
            ]
        },
        {
            "positions": [
                -2.388001090396777,
                -0.9417916404813272,
                0.23006342396751123,
                0.4900225812272858,
                0.17864457979085985,
                1.2232758782330386
            ]
        },
        {
            "positions": [
                -2.3174667186831686,
                -0.9789027612758607,
                0.10571779170027096,
                0.5606601088027252,
                0.18564436117208816,
                1.138016383759009
            ]
        },
        {
            "positions": [
                -2.24693234696956,
                -1.0160138820703943,
                -0.01862784056696931,
                0.6312976363781646,
                0.1926441425533165,
                1.0527568892849795
            ]
        },
        {
            "positions": [
                -2.176397975255951,
                -1.0531250028649277,
                -0.14297347283420958,
                0.7019351639536039,
                0.1996439239345448,
                0.9674973948109498
            ]
        },
        {
            "positions": [
                -2.105863603542342,
                -1.0902361236594613,
                -0.26731910510144985,
                0.7725726915290433,
                0.2066437053157731,
                0.8822379003369201
            ]
        },
        {
            "positions": [
                -2.035329231828733,
                -1.1273472444539947,
                -0.3916647373686901,
                0.8432102191044827,
                0.21364348669700142,
                0.7969784058628904
            ]
        },
        {
            "positions": [
                -1.9647948601151244,
                -1.1644583652485283,
                -0.5160103696359304,
                0.9138477466799221,
                0.22064326807822973,
                0.7117189113888608
            ]
        },
        {
            "positions": [
                -1.8942604884015157,
                -1.2015694860430617,
                -0.6403560019031707,
                0.9844852742553614,
                0.22764304945945807,
                0.6264594169148312
            ]
        },
        {
            "positions": [
                -1.8237261166879069,
                -1.2386806068375953,
                -0.7647016341704109,
                1.0551228018308008,
                0.23464283084068638,
                0.5411999224408015
            ]
        },
        {
            "positions": [
                -1.753191744974298,
                -1.2757917276321287,
                -0.8890472664376512,
                1.1257603294062402,
                0.2416426122219147,
                0.4559404279667718
            ]
        },
        {
            "positions": [
                -1.6826573732606893,
                -1.3129028484266623,
                -1.0133928987048915,
                1.1963978569816796,
                0.248642393603143,
                0.37068093349274234
            ]
        },
        {
            "positions": [
                -1.6121230015470804,
                -1.3500139692211959,
                -1.1377385309721317,
                1.267035384557119,
                0.2556421749843713,
                0.28542143901871264
            ]
        },
        {
            "positions": [
                -1.5415886298334716,
                -1.3871250900157293,
                -1.262084163239372,
                1.3376729121325583,
                0.2626419563655996,
                0.200161944544683
            ]
        },
        {
            "positions": [
                -1.426501339221149,
                -1.4175550416513598,
                -1.199607450842285,
                1.245762490378291,
                0.3395679200517566,
                0.19033686089072946
            ]
        },
        {
            "positions": [
                -1.3114140486088264,
                -1.4479849932869902,
                -1.137130738445198,
                1.1538520686240235,
                0.4164938837379136,
                0.18051177723677594
            ]
        },
        {
            "positions": [
                -1.1963267579965038,
                -1.4784149449226207,
                -1.074654026048111,
                1.061941646869756,
                0.4934198474240705,
                0.1706866935828224
            ]
        },
        {
            "positions": [
                -1.081239467384181,
                -1.5088448965582513,
                -1.0121773136510241,
                0.9700312251154888,
                0.5703458111102275,
                0.16086160992886886
            ]
        },
        {
            "positions": [
                -0.9661521767718584,
                -1.5392748481938816,
                -0.9497006012539371,
                0.8781208033612213,
                0.6472717747963845,
                0.15103652627491532
            ]
        },
        {
            "positions": [
                -0.8510648861595358,
                -1.5697047998295122,
                -0.88722388885685,
                0.7862103816069539,
                0.7241977384825415,
                0.1412114426209618
            ]
        },
        {
            "positions": [
                -0.7359775955472132,
                -1.6001347514651427,
                -0.8247471764597631,
                0.6942999598526867,
                0.8011237021686984,
                0.1313863589670083
            ]
        },
        {
            "positions": [
                -0.6208903049348905,
                -1.6305647031007733,
                -0.7622704640626761,
                0.6023895380984191,
                0.8780496658548554,
                0.12156127531305473
            ]
        },
        {
            "positions": [
                -0.505803014322568,
                -1.6609946547364036,
                -0.6997937516655891,
                0.5104791163441518,
                0.9549756295410123,
                0.1117361916591012
            ]
        },
        {
            "positions": [
                -0.3907157237102452,
                -1.6914246063720342,
                -0.637317039268502,
                0.4185686945898843,
                1.0319015932271693,
                0.10191110800514766
            ]
        },
        {
            "positions": [
                -0.2756284330979226,
                -1.7218545580076645,
                -0.5748403268714152,
                0.3266582728356171,
                1.1088275569133264,
                0.09208602435119413
            ]
        },
        {
            "positions": [
                -0.16054114248560003,
                -1.752284509643295,
                -0.5123636144743281,
                0.23474785108134943,
                1.1857535205994834,
                0.08226094069724059
            ]
        },
        {
            "positions": [
                -0.04545385187327744,
                -1.7827144612789256,
                -0.44988690207724114,
                0.1428374293270822,
                1.2626794842856404,
                0.07243585704328706
            ]
        },
        {
            "positions": [
                0.06963343873904515,
                -1.8131444129145562,
                -0.38741018968015417,
                0.050927007572814986,
                1.3396054479717971,
                0.06261077338933355
            ]
        },
        {
            "positions": [
                0.18472072935136774,
                -1.8435743645501865,
                -0.3249334772830672,
                -0.04098341418145246,
                1.416531411657954,
                0.052785689735380004
            ]
        },
        {
            "positions": [
                0.29980801996369055,
                -1.874004316185817,
                -0.26245676488598013,
                -0.13289383593572013,
                1.4934573753441112,
                0.04296060608142646
            ]
        },
        {
            "positions": [
                0.41489531057601314,
                -1.9044342678214476,
                -0.19998005248889306,
                -0.22480425768998735,
                1.570383339030268,
                0.03313552242747292
            ]
        },
        {
            "positions": [
                0.5299826011883355,
                -1.934864219457078,
                -0.1375033400918062,
                -0.3167146794442548,
                1.6473093027164252,
                0.023310438773519404
            ]
        },
        {
            "positions": [
                0.6450698918006581,
                -1.9652941710927085,
                -0.07502662769471935,
                -0.408625101198522,
                1.724235266402582,
                0.013485355119565862
            ]
        },
        {
            "positions": [
                0.7601571824129811,
                -1.995724122728339,
                -0.012549915297632053,
                -0.5005355229527897,
                1.8011612300887392,
                0.003660271465612319
            ]
        },
        {
            "positions": [
                0.8752444730253037,
                -2.0261540743639697,
                0.0499267970994548,
                -0.5924459447070569,
                1.878087193774896,
                -0.006164812188341223
            ]
        },
        {
            "positions": [
                0.9903317636376263,
                -2.0565840259995998,
                0.11240350949654165,
                -0.6843563664613241,
                1.9550131574610532,
                -0.015989895842294738
            ]
        },
        {
            "positions": [
                1.105419054249949,
                -2.0870139776352303,
                0.17488022189362873,
                -0.7762667882155916,
                2.03193912114721,
                -0.02581497949624828
            ]
        },
        {
            "positions": [
                1.2205063448622715,
                -2.117443929270861,
                0.2373569342907158,
                -0.8681772099698595,
                2.108865084833367,
                -0.03564006315020182
            ]
        },
        {
            "positions": [
                1.335593635474594,
                -2.1478738809064915,
                0.2998336466878029,
                -0.9600876317241265,
                2.185791048519524,
                -0.045465146804155365
            ]
        },
        {
            "positions": [
                1.4506809260869167,
                -2.178303832542122,
                0.36231035908488973,
                -1.051998053478394,
                2.2627170122056808,
                -0.05529023045810888
            ]
        },
        {
            "positions": [
                1.3824042612479575,
                -2.182557448021321,
                0.24805773172483053,
                -0.9454880293905392,
                2.1762020951510888,
                -0.052635508542779354
            ]
        },
        {
            "positions": [
                1.3141275964089985,
                -2.1868110635005205,
                0.13380510436477133,
                -0.8389780053026844,
                2.0896871780964967,
                -0.04998078662744983
            ]
        },
        {
            "positions": [
                1.2458509315700392,
                -2.1910646789797195,
                0.019552477004712132,
                -0.7324679812148296,
                2.0031722610419047,
                -0.0473260647121203
            ]
        },
        {
            "positions": [
                1.1775742667310802,
                -2.195318294458919,
                -0.09470015035534707,
                -0.6259579571269749,
                1.9166573439873125,
                -0.044671342796790775
            ]
        },
        {
            "positions": [
                1.1092976018921208,
                -2.199571909938118,
                -0.20895277771540632,
                -0.5194479330391201,
                1.8301424269327202,
                -0.04201662088146125
            ]
        },
        {
            "positions": [
                1.0410209370531618,
                -2.203825525417317,
                -0.32320540507546547,
                -0.41293790895126536,
                1.7436275098781282,
                -0.03936189896613172
            ]
        },
        {
            "positions": [
                0.9727442722142026,
                -2.2080791408965164,
                -0.4374580324355247,
                -0.30642788486341055,
                1.6571125928235362,
                -0.036707177050802196
            ]
        },
        {
            "positions": [
                0.9044676073752436,
                -2.2123327563757154,
                -0.5517106597955839,
                -0.19991786077555584,
                1.5705976757689442,
                -0.03405245513547267
            ]
        },
        {
            "positions": [
                0.8361909425362843,
                -2.216586371854915,
                -0.6659632871556431,
                -0.09340783668770114,
                1.484082758714352,
                -0.031397733220143144
            ]
        },
        {
            "positions": [
                0.7679142776973251,
                -2.220839987334114,
                -0.7802159145157024,
                0.013102187400153786,
                1.3975678416597597,
                -0.028743011304813618
            ]
        },
        {
            "positions": [
                0.6996376128583661,
                -2.2250936028133133,
                -0.8944685418757614,
                0.11961221148800849,
                1.3110529246051676,
                -0.02608828938948409
            ]
        },
        {
            "positions": [
                0.6313609480194069,
                -2.2293472182925123,
                -1.0087211692358207,
                0.2261222355758632,
                1.2245380075505756,
                -0.023433567474154565
            ]
        },
        {
            "positions": [
                0.5630842831804478,
                -2.2336008337717113,
                -1.1229737965958797,
                0.3326322596637179,
                1.1380230904959836,
                -0.02077884555882504
            ]
        },
        {
            "positions": [
                0.49480761834148856,
                -2.2378544492509107,
                -1.2372264239559392,
                0.4391422837515728,
                1.0515081734413914,
                -0.018124123643495513
            ]
        },
        {
            "positions": [
                0.42653095350252945,
                -2.2421080647301097,
                -1.3514790513159982,
                0.5456523078394275,
                0.9649932563867993,
                -0.015469401728165987
            ]
        },
        {
            "positions": [
                0.35825428866357045,
                -2.246361680209309,
                -1.4657316786760575,
                0.6521623319272822,
                0.8784783393322073,
                -0.01281467981283646
            ]
        },
        {
            "positions": [
                0.289977623824611,
                -2.250615295688508,
                -1.5799843060361167,
                0.7586723560151372,
                0.7919634222776151,
                -0.010159957897506934
            ]
        },
        {
            "positions": [
                0.221700958985652,
                -2.2548689111677076,
                -1.694236933396176,
                0.8651823801029916,
                0.705448505223023,
                -0.007505235982177408
            ]
        },
        {
            "positions": [
                0.153424294146693,
                -2.2591225266469066,
                -1.808489560756235,
                0.9716924041908466,
                0.618933588168431,
                -0.004850514066847882
            ]
        },
        {
            "positions": [
                0.08514762930773356,
                -2.2633761421261056,
                -1.9227421881162945,
                1.0782024282787015,
                0.5324186711138388,
                -0.0021957921515183554
            ]
        },
        {
            "positions": [
                0.016870964468774563,
                -2.267629757605305,
                -2.0369948154763535,
                1.184712452366556,
                0.44590375405924676,
                0.00045892976381117084
            ]
        },
        {
            "positions": [
                -0.05140570037018444,
                -2.271883373084504,
                -2.1512474428364126,
                1.291222476454411,
                0.35938883700465474,
                0.003113651679140697
            ]
        },
        {
            "positions": [
                -0.11968236520914388,
                -2.2761369885637035,
                -2.265500070196472,
                1.3977325005422658,
                0.2728739199500625,
                0.005768373594470223
            ]
        },
        {
            "positions": [
                -0.1879590300481028,
                -2.2803906040429025,
                -2.379752697556531,
                1.5042425246301203,
                0.18635900289547036,
                0.00842309550979975
            ]
        }
    ]
}