{
    "goal": {
        "global_pose": {
            "orientation": {
                "w": 0.7047431468963623,
                "x": -0.7094548344612122,
                "y": 0.0024358443915843964,
                "z": -0.0022348060738295317
            },
            "position": {
                "x": 0.6094750761985779,
                "y": 0.3671506643295288,
                "z": 0.19426114857196808
            }
        },
        "name": "move_to_magneteinheit_A"
    },
    "id": "BKPIECE_move_to_magneteinheit_A_82",
    "joint_names": [
        "shoulder_pan_joint",
        "shoulder_lift_joint",
        "elbow_joint",
        "wrist_1_joint",
        "wrist_2_joint",
        "wrist_3_joint"
    ],
    "metrics": {
        "cart_traj_len": 1.9591612144773245,
        "distance_elbow_joint": 3.560730619204144,
        "distance_shoulder_lift_joint": 0.7814649203376879,
        "distance_shoulder_pan_joint": 1.2415407473505617,
        "distance_wrist_1_joint": 1.2309505175658046,
        "distance_wrist_2_joint": 1.4464809874324025,
        "distance_wrist_3_joint": 2.038739983472867,
        "smoothness": 4.605369601539975e-16,
        "time": 0.211635819,
        "traj_len": 3.2093469390770863,
        "weighted_distance": 4.129748085211422
    },
    "planner": "BKPIECE",
    "start": {
        "state": {
            "elbow_joint": -1.5739458827952972,
            "shoulder_lift_joint": 0.006533473998580023,
            "shoulder_pan_joint": -1.1188671628667068,
            "wrist_1_joint": 3.138208179676308,
            "wrist_2_joint": -1.5706037135050406,
            "wrist_3_joint": -2.0226958329764257
        }
    },
    "waypoints": [
        {
            "positions": [
                -1.1188671628667068,
                0.006533473998580023,
                -1.5739458827952972,
                3.138208179676308,
                -1.5706037135050406,
                -2.0226958329764257
            ]
        },
        {
            "positions": [
                -1.071115595660916,
                -0.023522869091331056,
                -1.4369947051335994,
                3.0908639290007005,
                -1.5149698293730252,
                -1.9442827566890077
            ]
        },
        {
            "positions": [
                -1.023364028455125,
                -0.053579212181242133,
                -1.3000435274719015,
                3.0435196783250924,
                -1.4593359452410095,
                -1.8658696804015897
            ]
        },
        {
            "positions": [
                -0.9756124612493343,
                -0.08363555527115321,
                -1.1630923498102037,
                2.9961754276494847,
                -1.403702061108994,
                -1.787456604114172
            ]
        },
        {
            "positions": [
                -0.9278608940435435,
                -0.11369189836106429,
                -1.0261411721485059,
                2.9488311769738766,
                -1.3480681769769787,
                -1.709043527826754
            ]
        },
        {
            "positions": [
                -0.8801093268377527,
                -0.14374824145097537,
                -0.889189994486808,
                2.901486926298269,
                -1.292434292844963,
                -1.630630451539336
            ]
        },
        {
            "positions": [
                -0.8323577596319618,
                -0.17380458454088643,
                -0.7522388168251102,
                2.854142675622661,
                -1.2368004087129476,
                -1.552217375251918
            ]
        },
        {
            "positions": [
                -0.784606192426171,
                -0.2038609276307975,
                -0.6152876391634123,
                2.8067984249470532,
                -1.1811665245809322,
                -1.4738042989645002
            ]
        },
        {
            "positions": [
                -0.7368546252203801,
                -0.2339172707207086,
                -0.4783364615017145,
                2.759454174271445,
                -1.1255326404489168,
                -1.3953912226770822
            ]
        },
        {
            "positions": [
                -0.6891030580145894,
                -0.2639736138106197,
                -0.34138528384001665,
                2.7121099235958375,
                -1.0698987563169013,
                -1.3169781463896642
            ]
        },
        {
            "positions": [
                -0.6413514908087985,
                -0.2940299569005308,
                -0.2044341061783188,
                2.6647656729202294,
                -1.0142648721848857,
                -1.2385650701022461
            ]
        },
        {
            "positions": [
                -0.5935999236030076,
                -0.3240862999904418,
                -0.06748292851662097,
                2.6174214222446217,
                -0.9586309880528703,
                -1.1601519938148281
            ]
        },
        {
            "positions": [
                -0.5458483563972167,
                -0.3541426430803529,
                0.06946824914507688,
                2.5700771715690136,
                -0.9029971039208547,
                -1.0817389175274101
            ]
        },
        {
            "positions": [
                -0.49809678919142597,
                -0.384198986170264,
                0.20641942680677472,
                2.522732920893406,
                -0.8473632197888393,
                -1.0033258412399924
            ]
        },
        {
            "positions": [
                -0.4503452219856352,
                -0.41425532926017505,
                0.34337060446847256,
                2.475388670217798,
                -0.7917293356568239,
                -0.9249127649525744
            ]
        },
        {
            "positions": [
                -0.4025936547798443,
                -0.4443116723500861,
                0.4803217821301702,
                2.42804441954219,
                -0.7360954515248085,
                -0.8464996886651566
            ]
        },
        {
            "positions": [
                -0.35484208757405344,
                -0.47436801543999724,
                0.6172729597918682,
                2.380700168866582,
                -0.6804615673927928,
                -0.7680866123777383
            ]
        },
        {
            "positions": [
                -0.30709052036826257,
                -0.5044243585299083,
                0.7542241374535663,
                2.3333559181909744,
                -0.6248276832607774,
                -0.6896735360903206
            ]
        },
        {
            "positions": [
                -0.2593389531624718,
                -0.5344807016198193,
                0.8911753151152639,
                2.2860116675153668,
                -0.5691937991287619,
                -0.6112604598029026
            ]
        },
        {
            "positions": [
                -0.21158738595668103,
                -0.5645370447097303,
                1.0281264927769616,
                2.2386674168397587,
                -0.5135599149967465,
                -0.5328473835154848
            ]
        },
        {
            "positions": [
                -0.16383581875089004,
                -0.5945933877996415,
                1.1650776704386596,
                2.1913231661641506,
                -0.4579260308647308,
                -0.45443430722806655
            ]
        },
        {
            "positions": [
                -0.11608425154509927,
                -0.6246497308895526,
                1.3020288481003577,
                2.143978915488543,
                -0.4022921467327154,
                -0.37602123094064877
            ]
        },
        {
            "positions": [
                -0.06833268433930839,
                -0.6547060739794636,
                1.4389800257620553,
                2.0966346648129353,
                -0.3466582626007,
                -0.29760815465323076
            ]
        },
        {
            "positions": [
                -0.020581117133517735,
                -0.6847624170693747,
                1.575931203423753,
                2.049290414137327,
                -0.29102437846868456,
                -0.21919507836581298
            ]
        },
        {
            "positions": [
                0.027170450072273367,
                -0.7148187601592858,
                1.712882381085451,
                2.001946163461719,
                -0.23539049433666892,
                -0.14078200207839475
            ]
        },
        {
            "positions": [
                0.07492201727806402,
                -0.7448751032491969,
                1.849833558747149,
                1.9546019127861114,
                -0.1797566102046535,
                -0.06236892579097697
            ]
        },
        {
            "positions": [
                0.1226735844838548,
                -0.7749314463391079,
                1.9867847364088467,
                1.9072576621105035,
                -0.1241227260726381,
                0.016044150496441194
            ]
        }
    ]
}