{
    "goal": {
        "global_pose": {
            "orientation": {
                "w": 0.005598929693374612,
                "x": 0.007748599140229565,
                "y": 0.7110244013736278,
                "z": -0.7031023480610252
            },
            "position": {
                "x": -0.8858502320852131,
                "y": -0.7141253447532654,
                "z": 0.3711530566215515
            }
        },
        "name": "move_to_auspresseinheit_C"
    },
    "id": "BKPIECE_move_to_auspresseinheit_C_126",
    "joint_names": [
        "shoulder_pan_joint",
        "shoulder_lift_joint",
        "elbow_joint",
        "wrist_1_joint",
        "wrist_2_joint",
        "wrist_3_joint"
    ],
    "metrics": {
        "cart_traj_len": 0.4922277704887381,
        "distance_elbow_joint": 0.9896379149783437,
        "distance_shoulder_lift_joint": 0.31931852504759484,
        "distance_shoulder_pan_joint": 0.2561036806891903,
        "distance_wrist_1_joint": 0.6619949670053423,
        "distance_wrist_2_joint": 1.3066729599111455,
        "distance_wrist_3_joint": 0.051700810761115434,
        "smoothness": 4.844609574787718e-16,
        "time": 0.290809366,
        "traj_len": 1.893522869783392,
        "weighted_distance": 2.37854964354992
    },
    "planner": "BKPIECE",
    "start": {
        "state": {
            "elbow_joint": 1.7527959577730765,
            "shoulder_lift_joint": -0.9740617694224828,
            "shoulder_pan_joint": -2.967991417825869,
            "wrist_1_joint": -0.7595177689779385,
            "wrist_2_joint": 1.7443932448376545,
            "wrist_3_joint": 3.1991315425061013
        }
    },
    "waypoints": [
        {
            "positions": [
                -2.967991417825869,
                -0.9740617694224828,
                1.7527959577730765,
                -0.7595177689779385,
                1.7443932448376545,
                3.1991315425061013
            ]
        },
        {
            "positions": [
                -2.94238104975695,
                -0.9421299169177233,
                1.6538321662752422,
                -0.6933182722774043,
                1.6137259488465399,
                3.1939614614299896
            ]
        },
        {
            "positions": [
                -2.916770681688031,
                -0.9101980644129638,
                1.5548683747774077,
                -0.6271187755768701,
                1.4830586528554253,
                3.1887913803538783
            ]
        },
        {
            "positions": [
                -2.891160313619112,
                -0.8782662119082043,
                1.4559045832795734,
                -0.5609192788763359,
                1.352391356864311,
                3.1836212992777666
            ]
        },
        {
            "positions": [
                -2.865549945550193,
                -0.8463343594034448,
                1.356940791781739,
                -0.4947197821758016,
                1.2217240608731963,
                3.1784512182016553
            ]
        },
        {
            "positions": [
                -2.8399395774812737,
                -0.8144025068986853,
                1.2579770002839046,
                -0.4285202854752674,
                1.0910567648820817,
                3.1732811371255436
            ]
        },
        {
            "positions": [
                -2.814329209412355,
                -0.7824706543939259,
                1.1590132087860703,
                -0.36232078877473317,
                0.9603894688909672,
                3.168111056049432
            ]
        },
        {
            "positions": [
                -2.788718841343436,
                -0.7505388018891664,
                1.0600494172882358,
                -0.29612129207419896,
                0.8297221728998526,
                3.1629409749733206
            ]
        },
        {
            "positions": [
                -2.763108473274517,
                -0.718606949384407,
                0.9610856257904015,
                -0.22992179537366464,
                0.6990548769087379,
                3.157770893897209
            ]
        },
        {
            "positions": [
                -2.7374981052055976,
                -0.6866750968796475,
                0.8621218342925672,
                -0.16372229867313048,
                0.5683875809176235,
                3.1526008128210976
            ]
        },
        {
            "positions": [
                -2.7118877371366787,
                -0.654743244374888,
                0.7631580427947328,
                -0.09752280197259623,
                0.43772028492650905,
                3.147430731744986
            ]
        }
    ]
}