{
    "goal": {
        "global_pose": {
            "orientation": {
                "w": 0.005598929693374612,
                "x": 0.007748599140229565,
                "y": 0.7110244013736278,
                "z": -0.7031023480610252
            },
            "position": {
                "x": -0.8858502320852131,
                "y": -0.7141253447532654,
                "z": 0.3711530566215515
            }
        },
        "name": "move_to_auspresseinheit_C"
    },
    "id": "BKPIECE_move_to_auspresseinheit_C_7",
    "joint_names": [
        "shoulder_pan_joint",
        "shoulder_lift_joint",
        "elbow_joint",
        "wrist_1_joint",
        "wrist_2_joint",
        "wrist_3_joint"
    ],
    "metrics": {
        "cart_traj_len": 0.4928033578669015,
        "distance_elbow_joint": 1.0051510441704892,
        "distance_shoulder_lift_joint": 0.32787733086972903,
        "distance_shoulder_pan_joint": 0.25540607544682725,
        "distance_wrist_1_joint": 0.6851618614875955,
        "distance_wrist_2_joint": 1.3220900205687427,
        "distance_wrist_3_joint": 0.06948659429088666,
        "smoothness": 9.689219124001365e-16,
        "time": 0.313864026,
        "traj_len": 1.9144641356876524,
        "weighted_distance": 2.4106841347369383
    },
    "planner": "BKPIECE",
    "start": {
        "state": {
            "elbow_joint": 1.7527959577730765,
            "shoulder_lift_joint": -0.9740617694224828,
            "shoulder_pan_joint": -2.967991417825869,
            "wrist_1_joint": -0.7595177689779385,
            "wrist_2_joint": 1.7443932448376545,
            "wrist_3_joint": 3.1991315425061013
        }
    },
    "waypoints": [
        {
            "positions": [
                -2.967991417825869,
                -0.9740617694224828,
                1.7527959577730765,
                -0.7595177689779385,
                1.7443932448376545,
                3.1991315425061013
            ]
        },
        {
            "positions": [
                -2.942450810281186,
                -0.9412740363355099,
                1.6522808533560276,
                -0.691001582829179,
                1.6121842427807802,
                3.1921828830770127
            ]
        },
        {
            "positions": [
                -2.9169102027365037,
                -0.908486303248537,
                1.5517657489389787,
                -0.6224853966804195,
                1.479975240723906,
                3.185234223647924
            ]
        },
        {
            "positions": [
                -2.891369595191821,
                -0.875698570161564,
                1.4512506445219298,
                -0.5539692105316599,
                1.3477662386670317,
                3.1782855642188355
            ]
        },
        {
            "positions": [
                -2.8658289876471383,
                -0.8429108370745911,
                1.3507355401048808,
                -0.48545302438290033,
                1.2155572366101572,
                3.171336904789747
            ]
        },
        {
            "positions": [
                -2.8402883801024554,
                -0.8101231039876182,
                1.250220435687832,
                -0.4169368382341408,
                1.083348234553283,
                3.1643882453606578
            ]
        },
        {
            "positions": [
                -2.8147477725577725,
                -0.7773353709006454,
                1.149705331270783,
                -0.34842065208538125,
                0.9511392324964089,
                3.157439585931569
            ]
        },
        {
            "positions": [
                -2.78920716501309,
                -0.7445476378136725,
                1.049190226853734,
                -0.2799044659366217,
                0.8189302304395346,
                3.1504909265024805
            ]
        },
        {
            "positions": [
                -2.763666557468407,
                -0.7117599047266996,
                0.9486751224366852,
                -0.21138827978786212,
                0.6867212283826603,
                3.143542267073392
            ]
        },
        {
            "positions": [
                -2.7381259499237247,
                -0.6789721716397267,
                0.8481600180196363,
                -0.14287209363910258,
                0.554512226325786,
                3.1365936076443033
            ]
        },
        {
            "positions": [
                -2.712585342379042,
                -0.6461844385527538,
                0.7476449136025873,
                -0.07435590749034304,
                0.4223032242689117,
                3.1296449482152147
            ]
        }
    ]
}