{
    "goal": {
        "global_pose": {
            "orientation": {
                "w": 0.7031023480610252,
                "x": -0.7110244013736278,
                "y": 0.0077485991402295624,
                "z": 0.005598929693374583
            },
            "position": {
                "x": -0.8841497679147869,
                "y": 0.44412534475326537,
                "z": 0.3711530566215515
            }
        },
        "name": "move_to_auspresseinheit_D"
    },
    "id": "BKPIECE_move_to_auspresseinheit_D_141",
    "joint_names": [
        "shoulder_pan_joint",
        "shoulder_lift_joint",
        "elbow_joint",
        "wrist_1_joint",
        "wrist_2_joint",
        "wrist_3_joint"
    ],
    "metrics": {
        "cart_traj_len": 0.3444715076336958,
        "distance_elbow_joint": 0.6595414606641496,
        "distance_shoulder_lift_joint": 0.13353922341461688,
        "distance_shoulder_pan_joint": 0.13447657194244106,
        "distance_wrist_1_joint": 0.5938303286552316,
        "distance_wrist_2_joint": 1.4441003372840637,
        "distance_wrist_3_joint": 0.04445817163755672,
        "smoothness": 8.881784210365398e-16,
        "time": 0.29975544600000004,
        "traj_len": 1.7349196216534242,
        "weighted_distance": 2.266449448545559
    },
    "planner": "BKPIECE",
    "start": {
        "state": {
            "elbow_joint": -1.8275484843655228,
            "shoulder_lift_joint": -2.1267897864000416,
            "shoulder_pan_joint": -0.035127520176001514,
            "wrist_1_joint": -2.3477863256791385,
            "wrist_2_joint": -1.605890476484521,
            "wrist_3_joint": -3.0880375317375353
        }
    },
    "waypoints": [
        {
            "positions": [
                -0.035127520176001514,
                -2.1267897864000416,
                -1.8275484843655228,
                -2.3477863256791385,
                -1.605890476484521,
                -3.0880375317375353
            ]
        },
        {
            "positions": [
                -0.05193709166880665,
                -2.1434821893268685,
                -1.745105801782504,
                -2.4220151167610426,
                -1.425377934324013,
                -3.0824802602828405
            ]
        },
        {
            "positions": [
                -0.06874666316161178,
                -2.160174592253696,
                -1.6626631191994854,
                -2.4962439078429464,
                -1.2448653921635051,
                -3.076922988828146
            ]
        },
        {
            "positions": [
                -0.08555623465441692,
                -2.176866995180523,
                -1.5802204366164667,
                -2.57047269892485,
                -1.064352850002997,
                -3.0713657173734514
            ]
        },
        {
            "positions": [
                -0.10236580614722204,
                -2.1935593981073502,
                -1.4977777540334478,
                -2.6447014900067543,
                -0.8838403078424891,
                -3.0658084459187567
            ]
        },
        {
            "positions": [
                -0.11917537764002717,
                -2.210251801034177,
                -1.4153350714504294,
                -2.7189302810886584,
                -0.7033277656819812,
                -3.0602511744640624
            ]
        },
        {
            "positions": [
                -0.13598494913283232,
                -2.226944203961004,
                -1.3328923888674105,
                -2.793159072170562,
                -0.5228152235214731,
                -3.0546939030093676
            ]
        },
        {
            "positions": [
                -0.15279452062563745,
                -2.2436366068878315,
                -1.2504497062843918,
                -2.867387863252466,
                -0.3423026813609653,
                -3.0491366315546733
            ]
        },
        {
            "positions": [
                -0.16960409211844257,
                -2.2603290098146585,
                -1.168007023701373,
                -2.94161665433437,
                -0.16179013920045718,
                -3.0435793600999785
            ]
        }
    ]
}