{
    "goal": {
        "global_pose": {
            "orientation": {
                "w": 0.7031023480610252,
                "x": -0.7110244013736278,
                "y": 0.0077485991402295624,
                "z": 0.005598929693374583
            },
            "position": {
                "x": -0.8841497679147869,
                "y": 0.44412534475326537,
                "z": 0.3711530566215515
            }
        },
        "name": "move_to_auspresseinheit_D"
    },
    "id": "BKPIECE_move_to_auspresseinheit_D_86",
    "joint_names": [
        "shoulder_pan_joint",
        "shoulder_lift_joint",
        "elbow_joint",
        "wrist_1_joint",
        "wrist_2_joint",
        "wrist_3_joint"
    ],
    "metrics": {
        "cart_traj_len": 0.3441018174336681,
        "distance_elbow_joint": 0.6415723949868524,
        "distance_shoulder_lift_joint": 0.12251712386432789,
        "distance_shoulder_pan_joint": 0.1342054207650874,
        "distance_wrist_1_joint": 0.5319290981895399,
        "distance_wrist_2_joint": 1.4462097430463114,
        "distance_wrist_3_joint": 0.0043774706519528195,
        "smoothness": 1.9737298371844314e-16,
        "time": 0.328174572,
        "traj_len": 1.6972952752847903,
        "weighted_distance": 2.2062876136269787
    },
    "planner": "BKPIECE",
    "start": {
        "state": {
            "elbow_joint": -1.8275484843655228,
            "shoulder_lift_joint": -2.1267897864000416,
            "shoulder_pan_joint": -0.035127520176001514,
            "wrist_1_joint": -2.3477863256791385,
            "wrist_2_joint": -1.605890476484521,
            "wrist_3_joint": -3.0880375317375353
        }
    },
    "waypoints": [
        {
            "positions": [
                -0.035127520176001514,
                -2.1267897864000416,
                -1.8275484843655228,
                -2.3477863256791385,
                -1.605890476484521,
                -3.0880375317375353
            ]
        },
        {
            "positions": [
                -0.05190319777163744,
                -2.1421044268830824,
                -1.7473519349921662,
                -2.414277462952831,
                -1.425114258603732,
                -3.087490347906041
            ]
        },
        {
            "positions": [
                -0.06867887536727336,
                -2.1574190673661233,
                -1.6671553856188097,
                -2.4807686002265235,
                -1.2443380407229432,
                -3.086943164074547
            ]
        },
        {
            "positions": [
                -0.0854545529629093,
                -2.1727337078491646,
                -1.5869588362454532,
                -2.547259737500216,
                -1.0635618228421542,
                -3.086395980243053
            ]
        },
        {
            "positions": [
                -0.10223023055854522,
                -2.1880483483322055,
                -1.5067622868720965,
                -2.6137508747739084,
                -0.8827856049613653,
                -3.085848796411559
            ]
        },
        {
            "positions": [
                -0.11900590815418113,
                -2.2033629888152464,
                -1.42656573749874,
                -2.680242012047601,
                -0.7020093870805764,
                -3.0853016125800647
            ]
        },
        {
            "positions": [
                -0.13578158574981708,
                -2.2186776292982877,
                -1.3463691881253834,
                -2.7467331493212934,
                -0.5212331691997873,
                -3.0847544287485706
            ]
        },
        {
            "positions": [
                -0.152557263345453,
                -2.2339922697813286,
                -1.266172638752027,
                -2.813224286594986,
                -0.34045695131899856,
                -3.0842072449170765
            ]
        },
        {
            "positions": [
                -0.16933294094108892,
                -2.2493069102643695,
                -1.1859760893786704,
                -2.8797154238686784,
                -0.15968073343820952,
                -3.0836600610855824
            ]
        }
    ]
}