{
    "goal": {
        "global_pose": {
            "orientation": {
                "w": 0.005598929693374612,
                "x": 0.007748599140229565,
                "y": 0.7110244013736278,
                "z": -0.7031023480610252
            },
            "position": {
                "x": 0.1141497679147869,
                "y": -0.7141253447532654,
                "z": 0.3711530566215515
            }
        },
        "name": "move_to_auspresseinheit_B"
    },
    "id": "BKPIECE_move_to_auspresseinheit_B_57",
    "joint_names": [
        "shoulder_pan_joint",
        "shoulder_lift_joint",
        "elbow_joint",
        "wrist_1_joint",
        "wrist_2_joint",
        "wrist_3_joint"
    ],
    "metrics": {
        "cart_traj_len": 0.5653460830693645,
        "distance_elbow_joint": 0.06633030623774783,
        "distance_shoulder_lift_joint": 0.2940653979223742,
        "distance_shoulder_pan_joint": 0.5777664092034391,
        "distance_wrist_1_joint": 0.33965251754297454,
        "distance_wrist_2_joint": 0.9930945026781788,
        "distance_wrist_3_joint": 0.0013171300528291852,
        "smoothness": 5.075305295617109e-16,
        "time": 0.219726696,
        "traj_len": 1.5073905478135199,
        "weighted_distance": 1.8993703019591401
    },
    "planner": "BKPIECE",
    "start": {
        "state": {
            "elbow_joint": 2.0193061681459312,
            "shoulder_lift_joint": -1.1220205130644991,
            "shoulder_pan_joint": -1.0952072088045026,
            "wrist_1_joint": -0.8559671810662515,
            "wrist_2_joint": 0.4759638712940361,
            "wrist_3_joint": 3.159081874192446
        }
    },
    "waypoints": [
        {
            "positions": [
                -1.0952072088045026,
                -1.1220205130644991,
                2.0193061681459312,
                -0.8559671810662515,
                0.4759638712940361,
                3.159081874192446
            ]
        },
        {
            "positions": [
                -1.191501610338409,
                -1.1710314127182282,
                2.0082511171063064,
                -0.7993584281424224,
                0.6414796217403993,
                3.1593013958679177
            ]
        },
        {
            "positions": [
                -1.2877960118723157,
                -1.2200423123719573,
                1.9971960660666819,
                -0.7427496752185933,
                0.8069953721867624,
                3.159520917543389
            ]
        },
        {
            "positions": [
                -1.3840904134062222,
                -1.2690532120256863,
                1.9861410150270573,
                -0.6861409222947642,
                0.9725111226331256,
                3.1597404392188606
            ]
        },
        {
            "positions": [
                -1.4803848149401286,
                -1.3180641116794152,
                1.9750859639874327,
                -0.6295321693709351,
                1.1380268730794887,
                3.1599599608943323
            ]
        },
        {
            "positions": [
                -1.5766792164740353,
                -1.3670750113331442,
                1.964030912947808,
                -0.572923416447106,
                1.3035426235258518,
                3.1601794825698035
            ]
        },
        {
            "positions": [
                -1.6729736180079418,
                -1.4160859109868733,
                1.9529758619081834,
                -0.5163146635232769,
                1.469058373972215,
                3.160399004245275
            ]
        }
    ]
}