{
    "goal": {
        "global_pose": {
            "orientation": {
                "w": 0.005598929693374612,
                "x": 0.007748599140229565,
                "y": 0.7110244013736278,
                "z": -0.7031023480610252
            },
            "position": {
                "x": 0.1141497679147869,
                "y": -0.7141253447532654,
                "z": 0.3711530566215515
            }
        },
        "name": "move_to_auspresseinheit_B"
    },
    "id": "BKPIECE_move_to_auspresseinheit_B_136",
    "joint_names": [
        "shoulder_pan_joint",
        "shoulder_lift_joint",
        "elbow_joint",
        "wrist_1_joint",
        "wrist_2_joint",
        "wrist_3_joint"
    ],
    "metrics": {
        "cart_traj_len": 0.5645705010316379,
        "distance_elbow_joint": 0.060832580908271705,
        "distance_shoulder_lift_joint": 0.2940034348689602,
        "distance_shoulder_pan_joint": 0.5780626891736251,
        "distance_wrist_1_joint": 0.3204651091287536,
        "distance_wrist_2_joint": 0.9892688652125632,
        "distance_wrist_3_joint": 0.008304502616262699,
        "smoothness": 0.0,
        "time": 0.304841941,
        "traj_len": 1.5003123614462546,
        "weighted_distance": 1.8913699166165987
    },
    "planner": "BKPIECE",
    "start": {
        "state": {
            "elbow_joint": 2.0193061681459312,
            "shoulder_lift_joint": -1.1220205130644991,
            "shoulder_pan_joint": -1.0952072088045026,
            "wrist_1_joint": -0.8559671810662515,
            "wrist_2_joint": 0.4759638712940361,
            "wrist_3_joint": 3.159081874192446
        }
    },
    "waypoints": [
        {
            "positions": [
                -1.0952072088045026,
                -1.1220205130644991,
                2.0193061681459312,
                -0.8559671810662515,
                0.4759638712940361,
                3.159081874192446
            ]
        },
        {
            "positions": [
                -1.19155099033344,
                -1.1710210855426593,
                2.0091674046612193,
                -0.8025563295447925,
                0.64084201549613,
                3.157697790423069
            ]
        },
        {
            "positions": [
                -1.2878947718623777,
                -1.2200216580208192,
                1.9990286411765072,
                -0.7491454780233336,
                0.8057201596982237,
                3.156313706653692
            ]
        },
        {
            "positions": [
                -1.3842385533913153,
                -1.269022230498979,
                1.9888898776917954,
                -0.6957346265018747,
                0.9705983039003176,
                3.154929622884315
            ]
        },
        {
            "positions": [
                -1.4805823349202527,
                -1.3180228029771393,
                1.9787511142070835,
                -0.6423237749804158,
                1.1354764481024116,
                3.1535455391149374
            ]
        },
        {
            "positions": [
                -1.5769261164491901,
                -1.3670233754552994,
                1.9686123507223714,
                -0.5889129234589567,
                1.3003545923045055,
                3.1521614553455604
            ]
        },
        {
            "positions": [
                -1.6732698979781278,
                -1.4160239479334593,
                1.9584735872376595,
                -0.5355020719374979,
                1.4652327365065994,
                3.1507773715761833
            ]
        }
    ]
}