{
    "goal": {
        "global_pose": {
            "orientation": {
                "w": 0.5084816262002911,
                "x": -0.4908360881923452,
                "y": 0.5182115481033761,
                "z": -0.48164630358495003
            },
            "position": {
                "x": 0.5540239810943604,
                "y": -0.46912469901144505,
                "z": 0.16403168439865112
            }
        },
        "name": "move_to_storage_B"
    },
    "id": "BKPIECE_move_to_storage_B_131",
    "joint_names": [
        "shoulder_pan_joint",
        "shoulder_lift_joint",
        "elbow_joint",
        "wrist_1_joint",
        "wrist_2_joint",
        "wrist_3_joint"
    ],
    "metrics": {
        "cart_traj_len": 1.7569917374710824,
        "distance_elbow_joint": 2.0729084616578293,
        "distance_shoulder_lift_joint": 0.9388657611599971,
        "distance_shoulder_pan_joint": 0.4693071981566652,
        "distance_wrist_1_joint": 3.0069104923571004,
        "distance_wrist_2_joint": 2.7423377873334207,
        "distance_wrist_3_joint": 3.53629460561191,
        "smoothness": 0.3059290209096317,
        "time": 0.15748820000000002,
        "traj_len": 3.5730413244569283,
        "weighted_distance": 5.0585039089825035
    },
    "planner": "BKPIECE",
    "start": {
        "state": {
            "elbow_joint": 1.6649325340416963,
            "shoulder_lift_joint": -0.6616387945129425,
            "shoulder_pan_joint": -0.9139837929255878,
            "wrist_1_joint": 2.1467571094334352,
            "wrist_2_joint": -2.234195976750228,
            "wrist_3_joint": 0.005470921511140723
        }
    },
    "waypoints": [
        {
            "positions": [
                -0.9139837929255878,
                -0.6616387945129425,
                1.6649325340416963,
                2.1467571094334352,
                -2.234195976750228,
                0.005470921511140723
            ]
        },
        {
            "positions": [
                -0.7702222580275327,
                -0.7294142718337506,
                1.6193012378827005,
                2.1510470430781314,
                -2.2551253371920734,
                -0.047258203856648126
            ]
        },
        {
            "positions": [
                -0.7862194809632465,
                -0.7714644509253588,
                1.564982059966153,
                2.0138868552455076,
                -2.126049167415266,
                -0.056904139557818305
            ]
        },
        {
            "positions": [
                -0.8022167038989602,
                -0.8135146300169669,
                1.5106628820496057,
                1.8767266674128835,
                -1.996972997638459,
                -0.06655007525898848
            ]
        },
        {
            "positions": [
                -0.8182139268346739,
                -0.8555648091085751,
                1.4563437041330582,
                1.7395664795802597,
                -1.8678968278616517,
                -0.07619601096015867
            ]
        },
        {
            "positions": [
                -0.8342111497703876,
                -0.8976149882001833,
                1.4020245262165107,
                1.6024062917476356,
                -1.7388206580848444,
                -0.08584194666132884
            ]
        },
        {
            "positions": [
                -0.8502083727061013,
                -0.9396651672917914,
                1.3477053482999635,
                1.4652461039150118,
                -1.6097444883080372,
                -0.09548788236249903
            ]
        },
        {
            "positions": [
                -0.866205595641815,
                -0.9817153463833996,
                1.293386170383416,
                1.328085916082388,
                -1.4806683185312297,
                -0.1051338180636692
            ]
        },
        {
            "positions": [
                -0.8822028185775286,
                -1.0237655254750078,
                1.2390669924668685,
                1.1909257282497638,
                -1.3515921487544225,
                -0.11477975376483938
            ]
        },
        {
            "positions": [
                -0.8982000415132423,
                -1.065815704566616,
                1.1847478145503212,
                1.05376554041714,
                -1.2225159789776152,
                -0.12442568946600956
            ]
        },
        {
            "positions": [
                -0.914197264448956,
                -1.107865883658224,
                1.1304286366337737,
                0.9166053525845161,
                -1.093439809200808,
                -0.13407162516717974
            ]
        },
        {
            "positions": [
                -0.9301944873846697,
                -1.1499160627498322,
                1.0761094587172262,
                0.7794451647518921,
                -0.9643636394240007,
                -0.14371756086834991
            ]
        },
        {
            "positions": [
                -0.9461917103203834,
                -1.1919662418414403,
                1.021790280800679,
                0.6422849769192682,
                -0.8352874696471935,
                -0.15336349656952009
            ]
        },
        {
            "positions": [
                -0.9621889332560971,
                -1.2340164209330484,
                0.9674711028841314,
                0.5051247890866442,
                -0.706211299870386,
                -0.16300943227069029
            ]
        },
        {
            "positions": [
                -0.9781861561918108,
                -1.2760666000246568,
                0.9131519249675839,
                0.3679646012540203,
                -0.5771351300935788,
                -0.17265536797186049
            ]
        },
        {
            "positions": [
                -0.9941833791275245,
                -1.318116779116265,
                0.8588327470510365,
                0.23080441342139624,
                -0.4480589603167715,
                -0.18230130367303066
            ]
        },
        {
            "positions": [
                -1.0101806020632382,
                -1.360166958207873,
                0.8045135691344891,
                0.09364422558877229,
                -0.3189827905399643,
                -0.19194723937420083
            ]
        },
        {
            "positions": [
                -1.0152151502528208,
                -1.346029452474634,
                0.8758364807080552,
                0.03804318198741683,
                -0.2727906799376427,
                0.004457257374420848
            ]
        },
        {
            "positions": [
                -1.0202496984424034,
                -1.3318919467413946,
                0.9471593922816212,
                -0.01755786161393863,
                -0.22659856933532113,
                0.20086175412304252
            ]
        },
        {
            "positions": [
                -1.025284246631986,
                -1.3177544410081554,
                1.0184823038551871,
                -0.0731589052152941,
                -0.18040645873299951,
                0.3972662508716642
            ]
        },
        {
            "positions": [
                -1.0303187948215686,
                -1.3036169352749163,
                1.0898052154287532,
                -0.12875994881664954,
                -0.13421434813067792,
                0.5936707476202858
            ]
        },
        {
            "positions": [
                -1.0353533430111515,
                -1.289479429541677,
                1.1611281270023193,
                -0.18436099241800502,
                -0.0880222375283563,
                0.7900752443689076
            ]
        },
        {
            "positions": [
                -1.040387891200734,
                -1.2753419238084378,
                1.2324510385758853,
                -0.2399620360193605,
                -0.041830126926034716,
                0.9864797411175292
            ]
        },
        {
            "positions": [
                -1.0454224393903166,
                -1.2612044180751987,
                1.3037739501494512,
                -0.29556307962071593,
                0.0043619836762868736,
                1.1828842378661508
            ]
        },
        {
            "positions": [
                -1.0504569875798992,
                -1.2470669123419593,
                1.3750968617230173,
                -0.3511641232220714,
                0.050554094278608463,
                1.3792887346147726
            ]
        },
        {
            "positions": [
                -1.0554915357694818,
                -1.2329294066087202,
                1.4464197732965833,
                -0.4067651668234269,
                0.09674620488093011,
                1.5756932313633942
            ]
        },
        {
            "positions": [
                -1.0605260839590644,
                -1.2187919008754808,
                1.5177426848701494,
                -0.4623662104247823,
                0.1429383154832517,
                1.772097728112016
            ]
        },
        {
            "positions": [
                -1.065560632148647,
                -1.2046543951422417,
                1.5890655964437155,
                -0.5179672540261379,
                0.18913042608557334,
                1.9685022248606376
            ]
        },
        {
            "positions": [
                -1.0705951803382296,
                -1.1905168894090026,
                1.6603885080172813,
                -0.5735682976274933,
                0.23532253668789488,
                2.1649067216092592
            ]
        },
        {
            "positions": [
                -1.0756297285278125,
                -1.1763793836757634,
                1.7317114195908472,
                -0.6291693412288486,
                0.2815146472902164,
                2.361311218357881
            ]
        },
        {
            "positions": [
                -1.080664276717395,
                -1.162241877942524,
                1.8030343311644135,
                -0.6847703848302041,
                0.32770675789253806,
                2.5577157151065024
            ]
        },
        {
            "positions": [
                -1.0856988249069777,
                -1.148104372209285,
                1.8743572427379793,
                -0.7403714284315596,
                0.3738988684948597,
                2.754120211855124
            ]
        },
        {
            "positions": [
                -1.0907333730965603,
                -1.1339668664760456,
                1.9456801543115454,
                -0.7959724720329151,
                0.42009097909718124,
                2.950524708603746
            ]
        },
        {
            "positions": [
                -1.0957679212861429,
                -1.1198293607428065,
                2.0170030658851115,
                -0.8515735156342705,
                0.46628308969950294,
                3.1469292053523676
            ]
        }
    ]
}