{
    "goal": {
        "global_pose": {
            "orientation": {
                "w": 0.5084816217422485,
                "x": -0.49083608388900757,
                "y": 0.5182115435600281,
                "z": -0.4816462993621826
            },
            "position": {
                "x": 0.5540239810943604,
                "y": 0.030875300988554955,
                "z": 0.16403168439865112
            }
        },
        "name": "move_to_storage_A"
    },
    "id": "BKPIECE_move_to_storage_A_7",
    "joint_names": [
        "shoulder_pan_joint",
        "shoulder_lift_joint",
        "elbow_joint",
        "wrist_1_joint",
        "wrist_2_joint",
        "wrist_3_joint"
    ],
    "metrics": {
        "cart_traj_len": 0.3526906497229948,
        "distance_elbow_joint": 0.45327525431747673,
        "distance_shoulder_lift_joint": 0.2331044766729038,
        "distance_shoulder_pan_joint": 0.45949758643866356,
        "distance_wrist_1_joint": 0.25755551776227703,
        "distance_wrist_2_joint": 1.1052247037586653,
        "distance_wrist_3_joint": 0.10398245107626236,
        "smoothness": 4.440892098500626e-16,
        "time": 0.34065258,
        "traj_len": 1.6163662920347754,
        "weighted_distance": 2.045332519102876
    },
    "planner": "BKPIECE",
    "start": {
        "state": {
            "elbow_joint": 1.971548880431181,
            "shoulder_lift_joint": -1.1394869514688781,
            "shoulder_pan_joint": 0.12281150262730567,
            "wrist_1_joint": -0.7804693444481463,
            "wrist_2_joint": 0.12958644648617612,
            "wrist_3_joint": 3.0906942077768043
        }
    },
    "waypoints": [
        {
            "positions": [
                0.12281150262730567,
                -1.1394869514688781,
                1.971548880431181,
                -0.7804693444481463,
                0.12958644648617612,
                3.0906942077768043
            ]
        },
        {
            "positions": [
                0.057168990278925164,
                -1.1727875909935788,
                2.0363024881908203,
                -0.8172629898427574,
                0.28747568988027117,
                3.1055488436448417
            ]
        },
        {
            "positions": [
                -0.008473522069455341,
                -1.2060882305182792,
                2.10105609595046,
                -0.8540566352373683,
                0.4453649332743662,
                3.120403479512879
            ]
        },
        {
            "positions": [
                -0.07411603441783585,
                -1.2393888700429798,
                2.1658097037100994,
                -0.8908502806319794,
                0.6032541766684613,
                3.1352581153809167
            ]
        },
        {
            "positions": [
                -0.13975854676621635,
                -1.2726895095676802,
                2.230563311469739,
                -0.9276439260265903,
                0.7611434200625563,
                3.150112751248954
            ]
        },
        {
            "positions": [
                -0.20540105911459688,
                -1.3059901490923809,
                2.2953169192293785,
                -0.9644375714212013,
                0.9190326634566514,
                3.1649673871169917
            ]
        },
        {
            "positions": [
                -0.27104357146297736,
                -1.3392907886170813,
                2.360070526989018,
                -1.0012312168158124,
                1.0769219068507465,
                3.179822022985029
            ]
        },
        {
            "positions": [
                -0.3366860838113579,
                -1.372591428141782,
                2.4248241347486577,
                -1.0380248622104233,
                1.2348111502448416,
                3.1946766588530666
            ]
        }
    ]
}