{
    "goal": {
        "global_pose": {
            "orientation": {
                "w": 0.005598929693374612,
                "x": 0.007748599140229565,
                "y": 0.7110244013736278,
                "z": -0.7031023480610252
            },
            "position": {
                "x": -0.8858502320852131,
                "y": -0.7141253447532654,
                "z": 0.3711530566215515
            }
        },
        "name": "move_to_auspresseinheit_C"
    },
    "id": "BKPIECE_move_to_auspresseinheit_C_57",
    "joint_names": [
        "shoulder_pan_joint",
        "shoulder_lift_joint",
        "elbow_joint",
        "wrist_1_joint",
        "wrist_2_joint",
        "wrist_3_joint"
    ],
    "metrics": {
        "cart_traj_len": 0.49475591524641993,
        "distance_elbow_joint": 1.0204513158645678,
        "distance_shoulder_lift_joint": 0.3348488090152826,
        "distance_shoulder_pan_joint": 0.2564743497566333,
        "distance_wrist_1_joint": 0.7150633574772834,
        "distance_wrist_2_joint": 1.3164233293774117,
        "distance_wrist_3_joint": 0.07299678508073981,
        "smoothness": 0.0,
        "time": 0.404622426,
        "traj_len": 1.9277598259565218,
        "weighted_distance": 2.427702247720691
    },
    "planner": "BKPIECE",
    "start": {
        "state": {
            "elbow_joint": 1.7527959577730765,
            "shoulder_lift_joint": -0.9740617694224828,
            "shoulder_pan_joint": -2.967991417825869,
            "wrist_1_joint": -0.7595177689779385,
            "wrist_2_joint": 1.7443932448376545,
            "wrist_3_joint": 3.1991315425061013
        }
    },
    "waypoints": [
        {
            "positions": [
                -2.967991417825869,
                -0.9740617694224828,
                1.7527959577730765,
                -0.7595177689779385,
                1.7443932448376545,
                3.1991315425061013
            ]
        },
        {
            "positions": [
                -2.942343982850206,
                -0.9405768885209546,
                1.6507508261866197,
                -0.6880114332302102,
                1.6127509118999133,
                3.1918318639980274
            ]
        },
        {
            "positions": [
                -2.9166965478745426,
                -0.9070920076194263,
                1.548705694600163,
                -0.6165050974824818,
                1.481108578962172,
                3.1845321854899535
            ]
        },
        {
            "positions": [
                -2.891049112898879,
                -0.873607126717898,
                1.4466605630137062,
                -0.5449987617347535,
                1.3494662460244309,
                3.177232506981879
            ]
        },
        {
            "positions": [
                -2.8654016779232157,
                -0.8401222458163697,
                1.3446154314272494,
                -0.4734924259870252,
                1.21782391308669,
                3.1699328284738053
            ]
        },
        {
            "positions": [
                -2.8397542429475524,
                -0.8066373649148415,
                1.2425702998407926,
                -0.4019860902392968,
                1.0861815801489487,
                3.1626331499657314
            ]
        },
        {
            "positions": [
                -2.814106807971889,
                -0.7731524840133133,
                1.1405251682543358,
                -0.33047975449156847,
                0.9545392472112074,
                3.1553334714576575
            ]
        },
        {
            "positions": [
                -2.788459372996226,
                -0.739667603111785,
                1.038480036667879,
                -0.25897341874384017,
                0.8228969142734663,
                3.1480337929495836
            ]
        },
        {
            "positions": [
                -2.7628119380205622,
                -0.7061827222102568,
                0.9364349050814222,
                -0.1874670829961118,
                0.6912545813357251,
                3.1407341144415093
            ]
        },
        {
            "positions": [
                -2.737164503044899,
                -0.6726978413087285,
                0.8343897734949655,
                -0.11596074724838346,
                0.559612248397984,
                3.1334344359334354
            ]
        },
        {
            "positions": [
                -2.7115170680692358,
                -0.6392129604072002,
                0.7323446419085087,
                -0.04445441150065506,
                0.4279699154602428,
                3.1261347574253615
            ]
        }
    ]
}