{
    "goal": {
        "global_pose": {
            "orientation": {
                "w": -0.00223480608172531,
                "x": 0.0024358444001904467,
                "y": 0.7094548369677653,
                "z": -0.704743149386269
            },
            "position": {
                "x": 0.6205249238014221,
                "y": -0.6371506643295288,
                "z": 0.19426114857196808
            }
        },
        "name": "move_to_magneteinheit_B"
    },
    "id": "BKPIECE_move_to_magneteinheit_B_9",
    "joint_names": [
        "shoulder_pan_joint",
        "shoulder_lift_joint",
        "elbow_joint",
        "wrist_1_joint",
        "wrist_2_joint",
        "wrist_3_joint"
    ],
    "metrics": {
        "cart_traj_len": 1.4533051157024517,
        "distance_elbow_joint": 0.7261415252301597,
        "distance_shoulder_lift_joint": 1.244652870857293,
        "distance_shoulder_pan_joint": 1.621020003182489,
        "distance_wrist_1_joint": 2.619594447354898,
        "distance_wrist_2_joint": 2.934671327806298,
        "distance_wrist_3_joint": 3.1331235515710127,
        "smoothness": 4.163336367482162e-16,
        "time": 0.37782059,
        "traj_len": 3.504169477351538,
        "weighted_distance": 4.90914621948719
    },
    "planner": "BKPIECE",
    "start": {
        "state": {
            "elbow_joint": 2.393587130804639,
            "shoulder_lift_joint": -1.9085141043513325,
            "shoulder_pan_joint": 0.7066247066698809,
            "wrist_1_joint": -0.4678290934590222,
            "wrist_2_joint": 0.7096259084215963,
            "wrist_3_joint": 3.147370379541726
        }
    },
    "waypoints": [
        {
            "positions": [
                0.7066247066698809,
                -1.9085141043513325,
                2.393587130804639,
                -0.4678290934590222,
                0.7096259084215963,
                3.147370379541726
            ]
        },
        {
            "positions": [
                0.6543337388252844,
                -1.8683640117430327,
                2.370163210635924,
                -0.38332604677015447,
                0.6149590913955867,
                3.046301877878145
            ]
        },
        {
            "positions": [
                0.602042770980688,
                -1.8282139191347329,
                2.3467392904672093,
                -0.2988230000812868,
                0.5202922743695771,
                2.945233376214564
            ]
        },
        {
            "positions": [
                0.5497518031360916,
                -1.7880638265264333,
                2.323315370298494,
                -0.21431995339241916,
                0.42562545734356755,
                2.844164874550983
            ]
        },
        {
            "positions": [
                0.4974608352914952,
                -1.7479137339181334,
                2.2998914501297794,
                -0.12981690670355145,
                0.33095864031755795,
                2.743096372887402
            ]
        },
        {
            "positions": [
                0.44516986744689874,
                -1.7077636413098336,
                2.2764675299610646,
                -0.04531386001468379,
                0.23629182329154835,
                2.6420278712238208
            ]
        },
        {
            "positions": [
                0.3928788996023023,
                -1.6676135487015338,
                2.25304360979235,
                0.03918918667418386,
                0.14162500626553876,
                2.5409593695602397
            ]
        },
        {
            "positions": [
                0.3405879317577059,
                -1.627463456093234,
                2.229619689623635,
                0.12369223336305163,
                0.04695818923952921,
                2.4398908678966587
            ]
        },
        {
            "positions": [
                0.2882969639131095,
                -1.5873133634849343,
                2.2061957694549204,
                0.20819528005191928,
                -0.04770862778648044,
                2.3388223662330776
            ]
        },
        {
            "positions": [
                0.23600599606851302,
                -1.5471632708766345,
                2.182771849286205,
                0.29269832674078705,
                -0.1423754448124901,
                2.2377538645694965
            ]
        },
        {
            "positions": [
                0.1837150282239166,
                -1.5070131782683347,
                2.1593479291174904,
                0.3772013734296546,
                -0.23704226183849963,
                2.1366853629059155
            ]
        },
        {
            "positions": [
                0.1314240603793202,
                -1.466863085660035,
                2.1359240089487757,
                0.46170442011852236,
                -0.3317090788645092,
                2.0356168612423344
            ]
        },
        {
            "positions": [
                0.07913309253472378,
                -1.4267129930517353,
                2.112500088780061,
                0.54620746680739,
                -0.42637589589051883,
                1.9345483595787534
            ]
        },
        {
            "positions": [
                0.026842124690127367,
                -1.3865629004434354,
                2.089076168611346,
                0.6307105134962578,
                -0.5210427129165285,
                1.8334798579151723
            ]
        },
        {
            "positions": [
                -0.025448843154469047,
                -1.3464128078351356,
                2.065652248442631,
                0.7152135601851255,
                -0.6157095299425379,
                1.7324113562515913
            ]
        },
        {
            "positions": [
                -0.07773981099906546,
                -1.3062627152268358,
                2.042228328273916,
                0.7997166068739932,
                -0.7103763469685476,
                1.6313428545880102
            ]
        },
        {
            "positions": [
                -0.13003077884366188,
                -1.266112622618536,
                2.0188044081052015,
                0.8842196535628608,
                -0.8050431639945572,
                1.5302743529244291
            ]
        },
        {
            "positions": [
                -0.18232174668825818,
                -1.2259625300102364,
                1.9953804879364867,
                0.9687227002517285,
                -0.8997099810205667,
                1.4292058512608483
            ]
        },
        {
            "positions": [
                -0.23461271453285482,
                -1.1858124374019365,
                1.971956567767772,
                1.0532257469405963,
                -0.9943767980465765,
                1.3281373495972668
            ]
        },
        {
            "positions": [
                -0.2869036823774511,
                -1.1456623447936367,
                1.948532647599057,
                1.137728793629464,
                -1.089043615072586,
                1.227068847933686
            ]
        },
        {
            "positions": [
                -0.33919465022204764,
                -1.105512252185337,
                1.9251087274303422,
                1.2222318403183314,
                -1.1837104320985956,
                1.126000346270105
            ]
        },
        {
            "positions": [
                -0.39148561806664384,
                -1.0653621595770373,
                1.9016848072616275,
                1.306734887007199,
                -1.278377249124605,
                1.0249318446065239
            ]
        },
        {
            "positions": [
                -0.4437765859112405,
                -1.0252120669687375,
                1.8782608870929125,
                1.391237933696067,
                -1.3730440661506147,
                0.9238633429429428
            ]
        },
        {
            "positions": [
                -0.4960675537558369,
                -0.9850619743604376,
                1.8548369669241977,
                1.4757409803849346,
                -1.4677108831766243,
                0.8227948412793618
            ]
        },
        {
            "positions": [
                -0.5483585216004333,
                -0.9449118817521379,
                1.831413046755483,
                1.560244027073802,
                -1.562377700202634,
                0.7217263396157807
            ]
        },
        {
            "positions": [
                -0.6006494894450295,
                -0.9047617891438382,
                1.8079891265867682,
                1.6447470737626697,
                -1.6570445172286432,
                0.6206578379521996
            ]
        },
        {
            "positions": [
                -0.6529404572896261,
                -0.8646116965355384,
                1.784565206418053,
                1.7292501204515378,
                -1.7517113342546533,
                0.5195893362886186
            ]
        },
        {
            "positions": [
                -0.7052314251342225,
                -0.8244616039272386,
                1.7611412862493383,
                1.8137531671404055,
                -1.846378151280663,
                0.41852083462503753
            ]
        },
        {
            "positions": [
                -0.757522392978819,
                -0.7843115113189387,
                1.7377173660806235,
                1.8982562138292731,
                -1.9410449683066722,
                0.3174523329614565
            ]
        },
        {
            "positions": [
                -0.8098133608234154,
                -0.7441614187106391,
                1.7142934459119088,
                1.9827592605181408,
                -2.0357117853326816,
                0.21638383129787542
            ]
        },
        {
            "positions": [
                -0.8621043286680118,
                -0.7040113261023393,
                1.690869525743194,
                2.067262307207008,
                -2.1303786023586913,
                0.11531532963429436
            ]
        },
        {
            "positions": [
                -0.9143952965126082,
                -0.6638612334940395,
                1.667445605574479,
                2.151765353895876,
                -2.2250454193847014,
                0.014246827970713128
            ]
        }
    ]
}