{
    "goal": {
        "global_pose": {
            "orientation": {
                "w": 0.5084816262002911,
                "x": -0.4908360881923452,
                "y": 0.5182115481033761,
                "z": -0.48164630358495003
            },
            "position": {
                "x": 0.5540239810943604,
                "y": -0.46912469901144505,
                "z": 0.16403168439865112
            }
        },
        "name": "move_to_storage_B"
    },
    "id": "BKPIECE_move_to_storage_B_146",
    "joint_names": [
        "shoulder_pan_joint",
        "shoulder_lift_joint",
        "elbow_joint",
        "wrist_1_joint",
        "wrist_2_joint",
        "wrist_3_joint"
    ],
    "metrics": {
        "cart_traj_len": 1.7908996221647908,
        "distance_elbow_joint": 1.5048754169478726,
        "distance_shoulder_lift_joint": 0.5544637511331709,
        "distance_shoulder_pan_joint": 1.6042350641470764,
        "distance_wrist_1_joint": 2.9980899924380955,
        "distance_wrist_2_joint": 2.7374320162268995,
        "distance_wrist_3_joint": 3.1545477533038184,
        "smoothness": 0.3065233538653566,
        "time": 0.32963004900000004,
        "traj_len": 3.543112190461506,
        "weighted_distance": 4.9596634471977605
    },
    "planner": "BKPIECE",
    "start": {
        "state": {
            "elbow_joint": 1.6649325340416963,
            "shoulder_lift_joint": -0.6616387945129425,
            "shoulder_pan_joint": -0.9139837929255878,
            "wrist_1_joint": 2.1467571094334352,
            "wrist_2_joint": -2.234195976750228,
            "wrist_3_joint": 0.005470921511140723
        }
    },
    "waypoints": [
        {
            "positions": [
                -0.9139837929255878,
                -0.6616387945129425,
                1.6649325340416963,
                2.1467571094334352,
                -2.234195976750228,
                0.005470921511140723
            ]
        },
        {
            "positions": [
                -0.8201961933284181,
                -0.63741585042591,
                1.6129329320505377,
                2.1357867888645163,
                -2.243544412129483,
                0.03603735708101393
            ]
        },
        {
            "positions": [
                -0.7264085937312482,
                -0.6131929063388775,
                1.560933330059379,
                2.1248164682955974,
                -2.252892847508738,
                0.06660379265088714
            ]
        },
        {
            "positions": [
                -0.6861511904717672,
                -0.6449611307621517,
                1.5245758003826118,
                2.0084490613416452,
                -2.12823485348318,
                0.08591082021655133
            ]
        },
        {
            "positions": [
                -0.6458937872122862,
                -0.6767293551854258,
                1.4882182707058447,
                1.8920816543876926,
                -2.0035768594576226,
                0.10521784778221552
            ]
        },
        {
            "positions": [
                -0.6056363839528052,
                -0.7084975796087,
                1.4518607410290774,
                1.7757142474337402,
                -1.8789188654320648,
                0.1245248753478797
            ]
        },
        {
            "positions": [
                -0.565378980693324,
                -0.7402658040319741,
                1.41550321135231,
                1.6593468404797878,
                -1.7542608714065069,
                0.1438319029135439
            ]
        },
        {
            "positions": [
                -0.5251215774338431,
                -0.7720340284552483,
                1.379145681675543,
                1.5429794335258356,
                -1.6296028773809492,
                0.16313893047920808
            ]
        },
        {
            "positions": [
                -0.48486417417436206,
                -0.8038022528785224,
                1.3427881519987757,
                1.426612026571883,
                -1.5049448833553916,
                0.18244595804487226
            ]
        },
        {
            "positions": [
                -0.44460677091488104,
                -0.8355704773017966,
                1.3064306223220084,
                1.3102446196179307,
                -1.3802868893298337,
                0.20175298561053642
            ]
        },
        {
            "positions": [
                -0.40434936765539997,
                -0.8673387017250707,
                1.2700730926452413,
                1.1938772126639783,
                -1.2556288953042758,
                0.22106001317620064
            ]
        },
        {
            "positions": [
                -0.364091964395919,
                -0.8991069261483449,
                1.233715562968474,
                1.077509805710026,
                -1.1309709012787184,
                0.2403670407418648
            ]
        },
        {
            "positions": [
                -0.32383456113643794,
                -0.9308751505716191,
                1.1973580332917066,
                0.9611423987560734,
                -1.0063129072531605,
                0.25967406830752904
            ]
        },
        {
            "positions": [
                -0.2835771578769569,
                -0.9626433749948932,
                1.1610005036149396,
                0.8447749918021212,
                -0.8816549132276028,
                0.2789810958731932
            ]
        },
        {
            "positions": [
                -0.2433197546174759,
                -0.9944115994181673,
                1.124642973938172,
                0.7284075848481686,
                -0.7569969192020449,
                0.29828812343885736
            ]
        },
        {
            "positions": [
                -0.20306235135799483,
                -1.0261798238414415,
                1.088285444261405,
                0.6120401778942164,
                -0.6323389251764873,
                0.3175951510045215
            ]
        },
        {
            "positions": [
                -0.2500788578095466,
                -1.0310761893917857,
                1.1371395667439093,
                0.535020543110065,
                -0.5745399134324799,
                0.46719638909980765
            ]
        },
        {
            "positions": [
                -0.29709536426109834,
                -1.0359725549421301,
                1.1859936892264136,
                0.45800090832591356,
                -0.5167409016884726,
                0.6167976271950939
            ]
        },
        {
            "positions": [
                -0.34411187071265015,
                -1.0408689204924744,
                1.2348478117089177,
                0.38098127354176214,
                -0.4589418899444653,
                0.76639886529038
            ]
        },
        {
            "positions": [
                -0.3911283771642019,
                -1.0457652860428186,
                1.283701934191422,
                0.3039616387576107,
                -0.40114287820045796,
                0.9160001033856662
            ]
        },
        {
            "positions": [
                -0.43814488361575366,
                -1.050661651593163,
                1.3325560566739263,
                0.22694200397345926,
                -0.34334386645645065,
                1.0656013414809524
            ]
        },
        {
            "positions": [
                -0.4851613900673054,
                -1.0555580171435073,
                1.3814101791564306,
                0.14992236918930785,
                -0.28554485471244334,
                1.2152025795762387
            ]
        },
        {
            "positions": [
                -0.5321778965188572,
                -1.0604543826938517,
                1.430264301638935,
                0.07290273440515649,
                -0.22774584296843603,
                1.364803817671525
            ]
        },
        {
            "positions": [
                -0.5791944029704089,
                -1.065350748244196,
                1.4791184241214392,
                -0.0041169003789950365,
                -0.16994683122442866,
                1.5144050557668107
            ]
        },
        {
            "positions": [
                -0.6262109094219607,
                -1.0702471137945402,
                1.5279725466039435,
                -0.08113653516314645,
                -0.1121478194804214,
                1.664006293862097
            ]
        },
        {
            "positions": [
                -0.6732274158735125,
                -1.0751434793448846,
                1.5768266690864476,
                -0.15815616994729786,
                -0.05434880773641404,
                1.8136075319573832
            ]
        },
        {
            "positions": [
                -0.7202439223250643,
                -1.0800398448952289,
                1.6256807915689522,
                -0.23517580473144928,
                0.003450204007593327,
                1.9632087700526695
            ]
        },
        {
            "positions": [
                -0.767260428776616,
                -1.084936210445573,
                1.6745349140514563,
                -0.3121954395156007,
                0.06124921575160058,
                2.1128100081479557
            ]
        },
        {
            "positions": [
                -0.8142769352281678,
                -1.0898325759959175,
                1.7233890365339606,
                -0.3892150742997522,
                0.11904822749560795,
                2.262411246243242
            ]
        },
        {
            "positions": [
                -0.8612934416797196,
                -1.0947289415462618,
                1.772243159016465,
                -0.4662347090839034,
                0.1768472392396152,
                2.412012484338528
            ]
        },
        {
            "positions": [
                -0.9083099481312713,
                -1.099625307096606,
                1.821097281498969,
                -0.543254343868055,
                0.23464625098362268,
                2.5616137224338145
            ]
        },
        {
            "positions": [
                -0.9553264545828231,
                -1.1045216726469504,
                1.8699514039814735,
                -0.6202739786522065,
                0.29244526272762994,
                2.7112149605291003
            ]
        },
        {
            "positions": [
                -1.0023429610343748,
                -1.1094180381972947,
                1.9188055264639776,
                -0.6972936134363579,
                0.3502442744716373,
                2.8608161986243865
            ]
        },
        {
            "positions": [
                -1.0493594674859266,
                -1.1143144037476391,
                1.967659648946482,
                -0.7743132482205093,
                0.40804328621564445,
                3.0104174367196728
            ]
        },
        {
            "positions": [
                -1.0963759739374783,
                -1.1192107692979834,
                2.0165137714289862,
                -0.8513328830046607,
                0.46584229795965204,
                3.160018674814959
            ]
        }
    ]
}