{
    "goal": {
        "global_pose": {
            "orientation": {
                "w": 0.7047431493862688,
                "x": -0.7094548369677653,
                "y": 0.0024358444001904,
                "z": -0.0022348060817251984
            },
            "position": {
                "x": -0.39052492380142206,
                "y": 0.3671506643295288,
                "z": 0.19426114857196808
            }
        },
        "name": "move_to_magneteinheit_D"
    },
    "id": "BKPIECE_move_to_magneteinheit_D_3",
    "joint_names": [
        "shoulder_pan_joint",
        "shoulder_lift_joint",
        "elbow_joint",
        "wrist_1_joint",
        "wrist_2_joint",
        "wrist_3_joint"
    ],
    "metrics": {
        "cart_traj_len": 3.9201901642280927,
        "distance_elbow_joint": 3.1143622951560745,
        "distance_shoulder_lift_joint": 1.2576557041596248,
        "distance_shoulder_pan_joint": 3.031937066492373,
        "distance_wrist_1_joint": 5.055321063391241,
        "distance_wrist_2_joint": 0.7655801423178175,
        "distance_wrist_3_joint": 6.283626228448174,
        "smoothness": 0.16857010629790897,
        "time": 0.248910467,
        "traj_len": 4.416840782727548,
        "weighted_distance": 6.1560243796277065
    },
    "planner": "BKPIECE",
    "start": {
        "state": {
            "elbow_joint": 0.7495348899011911,
            "shoulder_lift_joint": -0.6476975780737668,
            "shoulder_pan_joint": -2.711696901376276,
            "wrist_1_joint": -0.0750647808097303,
            "wrist_2_joint": 0.43296659715458535,
            "wrist_3_joint": 3.1361499051832418
        }
    },
    "waypoints": [
        {
            "positions": [
                -2.711696901376276,
                -0.6476975780737668,
                0.7495348899011911,
                -0.0750647808097303,
                0.43296659715458535,
                3.1361499051832418
            ]
        },
        {
            "positions": [
                -2.72150174281452,
                -0.6360931443704972,
                0.7156377009120131,
                0.029490439889524142,
                0.41808190583309746,
                2.949296006291956
            ]
        },
        {
            "positions": [
                -2.7313065842527644,
                -0.6244887106672278,
                0.6817405119228349,
                0.1340456605887786,
                0.4031972145116096,
                2.7624421074006706
            ]
        },
        {
            "positions": [
                -2.7411114256910083,
                -0.6128842769639582,
                0.6478433229336569,
                0.23860088128803303,
                0.3883125231901217,
                2.575588208509385
            ]
        },
        {
            "positions": [
                -2.7509162671292526,
                -0.6012798432606886,
                0.6139461339444787,
                0.34315610198728747,
                0.3734278318686338,
                2.3887343096180995
            ]
        },
        {
            "positions": [
                -2.7607211085674965,
                -0.589675409557419,
                0.5800489449553007,
                0.44771132268654196,
                0.358543140547146,
                2.2018804107268135
            ]
        },
        {
            "positions": [
                -2.770525950005741,
                -0.5780709758541496,
                0.5461517559661226,
                0.5522665433857963,
                0.3436584492256581,
                2.0150265118355284
            ]
        },
        {
            "positions": [
                -2.7803307914439848,
                -0.56646654215088,
                0.5122545669769445,
                0.6568217640850508,
                0.3287737579041702,
                1.8281726129442424
            ]
        },
        {
            "positions": [
                -2.7526146584403066,
                -0.5798856538791373,
                0.4780660103806635,
                0.7191973853614878,
                0.31237750383899765,
                1.6097322089973318
            ]
        },
        {
            "positions": [
                -2.7248985254366285,
                -0.5933047656073944,
                0.4438774537843825,
                0.781573006637925,
                0.2959812497738252,
                1.3912918050504213
            ]
        },
        {
            "positions": [
                -2.6971823924329503,
                -0.6067238773356517,
                0.4096888971881015,
                0.843948627914362,
                0.27958499570865264,
                1.1728514011035105
            ]
        },
        {
            "positions": [
                -2.669466259429272,
                -0.620142989063909,
                0.37550034059182047,
                0.906324249190799,
                0.26318874164348016,
                0.9544109971566
            ]
        },
        {
            "positions": [
                -2.641750126425594,
                -0.6335621007921661,
                0.34131178399553946,
                0.968699870467236,
                0.24679248757830763,
                0.7359705932096894
            ]
        },
        {
            "positions": [
                -2.6140339934219154,
                -0.6469812125204234,
                0.30712322739925846,
                1.031075491743673,
                0.23039623351313512,
                0.5175301892627788
            ]
        },
        {
            "positions": [
                -2.5863178604182373,
                -0.6604003242486807,
                0.2729346708029774,
                1.09345111302011,
                0.21399997944796262,
                0.29908978531586805
            ]
        },
        {
            "positions": [
                -2.558601727414559,
                -0.6738194359769378,
                0.23874611420669645,
                1.1558267342965474,
                0.1976037253827901,
                0.08064938136895772
            ]
        },
        {
            "positions": [
                -2.530885594410881,
                -0.6872385477051951,
                0.20455755761041544,
                1.2182023555729842,
                0.1812074713176176,
                -0.13779102257795284
            ]
        },
        {
            "positions": [
                -2.503169461407203,
                -0.7006576594334524,
                0.17036900101413444,
                1.2805779768494214,
                0.16481121725244507,
                -0.3562314265248636
            ]
        },
        {
            "positions": [
                -2.4754533284035247,
                -0.7140767711617095,
                0.13618044441785343,
                1.3429535981258585,
                0.14841496318727257,
                -0.574671830471774
            ]
        },
        {
            "positions": [
                -2.4477371953998466,
                -0.7274958828899668,
                0.10199188782157241,
                1.4053292194022955,
                0.13201870912210006,
                -0.7931122344186847
            ]
        },
        {
            "positions": [
                -2.3438941405159386,
                -0.7478728474659244,
                0.01305637946865669,
                1.289338684438376,
                0.1353808933186007,
                -0.8555417188365477
            ]
        },
        {
            "positions": [
                -2.240051085632031,
                -0.7682498120418819,
                -0.07587912888425903,
                1.1733481494744566,
                0.13874307751510137,
                -0.9179712032544107
            ]
        },
        {
            "positions": [
                -2.136208030748123,
                -0.7886267766178395,
                -0.1648146372371747,
                1.0573576145105372,
                0.142105261711602,
                -0.9804006876722737
            ]
        },
        {
            "positions": [
                -2.032364975864215,
                -0.8090037411937971,
                -0.25375014559009046,
                0.941367079546618,
                0.14546744590810265,
                -1.0428301720901367
            ]
        },
        {
            "positions": [
                -1.9285219209803073,
                -0.8293807057697546,
                -0.34268565394300615,
                0.8253765445826986,
                0.14882963010460332,
                -1.1052596565079997
            ]
        },
        {
            "positions": [
                -1.8246788660963995,
                -0.8497576703457123,
                -0.43162116229592185,
                0.7093860096187792,
                0.15219181430110396,
                -1.1676891409258627
            ]
        },
        {
            "positions": [
                -1.7208358112124915,
                -0.8701346349216699,
                -0.5205566706488377,
                0.5933954746548598,
                0.1555539984976046,
                -1.230118625343726
            ]
        },
        {
            "positions": [
                -1.6169927563285837,
                -0.8905115994976274,
                -0.6094921790017533,
                0.47740493969094044,
                0.15891618269410526,
                -1.292548109761589
            ]
        },
        {
            "positions": [
                -1.513149701444676,
                -0.910888564073585,
                -0.6984276873546691,
                0.3614144047270209,
                0.1622783668906059,
                -1.354977594179452
            ]
        },
        {
            "positions": [
                -1.409306646560768,
                -0.9312655286495426,
                -0.7873631957075847,
                0.2454238697631017,
                0.16564055108710657,
                -1.417407078597315
            ]
        },
        {
            "positions": [
                -1.3054635916768602,
                -0.9516424932255001,
                -0.8762987040605005,
                0.1294333347991823,
                0.1690027352836072,
                -1.479836563015178
            ]
        },
        {
            "positions": [
                -1.2016205367929522,
                -0.9720194578014577,
                -0.9652342124134161,
                0.013442799835262864,
                0.17236491948010785,
                -1.542266047433041
            ]
        },
        {
            "positions": [
                -1.0977774819090445,
                -0.9923964223774153,
                -1.0541697207663319,
                -0.10254773512865634,
                0.1757271036766085,
                -1.604695531850904
            ]
        },
        {
            "positions": [
                -0.9939344270251365,
                -1.0127733869533728,
                -1.1431052291192478,
                -0.21853827009257598,
                0.17908928787310915,
                -1.6671250162687672
            ]
        },
        {
            "positions": [
                -0.8900913721412287,
                -1.0331503515293305,
                -1.2320407374721634,
                -0.3345288050564954,
                0.1824514720696098,
                -1.7295545006866302
            ]
        },
        {
            "positions": [
                -0.7862483172573209,
                -1.053527316105288,
                -1.320976245825079,
                -0.4505193400204146,
                0.18581365626611046,
                -1.7919839851044932
            ]
        },
        {
            "positions": [
                -0.6824052623734131,
                -1.0739042806812455,
                -1.4099117541779946,
                -0.5665098749843338,
                0.1891758404626111,
                -1.854413469522356
            ]
        },
        {
            "positions": [
                -0.5785622074895052,
                -1.094281245257203,
                -1.4988472625309106,
                -0.6825004099482537,
                0.19253802465911174,
                -1.9168429539402192
            ]
        },
        {
            "positions": [
                -0.4747191526055974,
                -1.1146582098331608,
                -1.5877827708838264,
                -0.7984909449121727,
                0.19590020885561238,
                -1.9792724383580822
            ]
        },
        {
            "positions": [
                -0.3708760977216894,
                -1.1350351744091183,
                -1.6767182792367419,
                -0.9144814798760921,
                0.19926239305211305,
                -2.041701922775945
            ]
        },
        {
            "positions": [
                -0.26703304283778184,
                -1.1554121389850758,
                -1.7656537875896576,
                -1.0304720148400115,
                0.20262457724861369,
                -2.104131407193808
            ]
        },
        {
            "positions": [
                -0.16318998795387385,
                -1.1757891035610335,
                -1.8545892959425734,
                -1.146462549803931,
                0.20598676144511435,
                -2.166560891611671
            ]
        },
        {
            "positions": [
                -0.05934693306996575,
                -1.196166068136991,
                -1.9435248042954893,
                -1.2624530847678503,
                0.209348945641615,
                -2.228990376029534
            ]
        },
        {
            "positions": [
                -0.04757278280907939,
                -1.2325363343564864,
                -2.0268074002415957,
                -1.3626753260737525,
                0.1823982460826395,
                -2.3219595935469988
            ]
        },
        {
            "positions": [
                -0.035798632548193016,
                -1.2689066005759817,
                -2.1100899961877024,
                -1.4628975673796547,
                0.15544754652366397,
                -2.414928811064463
            ]
        },
        {
            "positions": [
                -0.024024482287306657,
                -1.3052768667954773,
                -2.1933725921338088,
                -1.5631198086855567,
                0.12849684696468847,
                -2.5078980285819275
            ]
        },
        {
            "positions": [
                -0.012250332026420285,
                -1.3416471330149726,
                -2.2766551880799155,
                -1.6633420499914588,
                0.10154614740571294,
                -2.6008672460993916
            ]
        },
        {
            "positions": [
                -0.0004761817655339201,
                -1.378017399234468,
                -2.359937784026022,
                -1.763564291297361,
                0.07459544784673744,
                -2.693836463616856
            ]
        },
        {
            "positions": [
                -0.03716589511477671,
                -1.450992161465098,
                -2.3609157082717944,
                -1.8447710017932728,
                0.024085743852549524,
                -2.7845644355464714
            ]
        },
        {
            "positions": [
                -0.0738556084640195,
                -1.523966923695728,
                -2.3618936325175666,
                -1.9259777122891844,
                -0.026423960141638392,
                -2.8752924074760866
            ]
        },
        {
            "positions": [
                -0.11054532181326229,
                -1.5969416859263579,
                -2.362871556763339,
                -2.007184422785096,
                -0.07693366413582631,
                -2.9660203794057023
            ]
        },
        {
            "positions": [
                -0.14723503516250508,
                -1.669916448156988,
                -2.3638494810091113,
                -2.0883911332810077,
                -0.12744336813001422,
                -3.0567483513353175
            ]
        },
        {
            "positions": [
                -0.18392474851174787,
                -1.742891210387618,
                -2.364827405254884,
                -2.1695978437769194,
                -0.17795307212420214,
                -3.1474763232649328
            ]
        }
    ]
}