{
    "goal": {
        "global_pose": {
            "orientation": {
                "w": 0.7047431493862688,
                "x": -0.7094548369677653,
                "y": 0.0024358444001904,
                "z": -0.0022348060817251984
            },
            "position": {
                "x": -0.39052492380142206,
                "y": 0.3671506643295288,
                "z": 0.19426114857196808
            }
        },
        "name": "move_to_magneteinheit_D"
    },
    "id": "BKPIECE_move_to_magneteinheit_D_141",
    "joint_names": [
        "shoulder_pan_joint",
        "shoulder_lift_joint",
        "elbow_joint",
        "wrist_1_joint",
        "wrist_2_joint",
        "wrist_3_joint"
    ],
    "metrics": {
        "cart_traj_len": 6.792799944069803,
        "distance_elbow_joint": 4.622156976279546,
        "distance_shoulder_lift_joint": 2.991449562596178,
        "distance_shoulder_pan_joint": 3.2627482031503683,
        "distance_wrist_1_joint": 2.516686127847243,
        "distance_wrist_2_joint": 4.004172496599716,
        "distance_wrist_3_joint": 3.868477746795215,
        "smoothness": 0.821507158564415,
        "time": 0.310196769,
        "traj_len": 4.6114738547744425,
        "weighted_distance": 5.960159832697915
    },
    "planner": "BKPIECE",
    "start": {
        "state": {
            "elbow_joint": 0.7495348899011911,
            "shoulder_lift_joint": -0.6476975780737668,
            "shoulder_pan_joint": -2.711696901376276,
            "wrist_1_joint": -0.0750647808097303,
            "wrist_2_joint": 0.43296659715458535,
            "wrist_3_joint": 3.1361499051832418
        }
    },
    "waypoints": [
        {
            "positions": [
                -2.711696901376276,
                -0.6476975780737668,
                0.7495348899011911,
                -0.0750647808097303,
                0.43296659715458535,
                3.1361499051832418
            ]
        },
        {
            "positions": [
                -2.725549836187979,
                -0.6669617345558746,
                0.7911952765797894,
                -0.17332830288309092,
                0.5158749112416557,
                2.998361365561595
            ]
        },
        {
            "positions": [
                -2.7394027709996815,
                -0.6862258910379824,
                0.8328556632583877,
                -0.27159182495645157,
                0.5987832253287261,
                2.860572825939948
            ]
        },
        {
            "positions": [
                -2.7532557058113842,
                -0.7054900475200903,
                0.874516049936986,
                -0.36985534702981215,
                0.6816915394157964,
                2.722784286318301
            ]
        },
        {
            "positions": [
                -2.767108640623087,
                -0.724754204002198,
                0.9161764366155842,
                -0.46811886910317285,
                0.7645998535028667,
                2.584995746696654
            ]
        },
        {
            "positions": [
                -2.7809615754347896,
                -0.7440183604843058,
                0.9578368232941825,
                -0.5663823911765334,
                0.8475081675899371,
                2.447207207075007
            ]
        },
        {
            "positions": [
                -2.758824125503845,
                -0.826629786266571,
                0.8718521106556051,
                -0.5670640159539755,
                0.9519276826538271,
                2.3629417102351393
            ]
        },
        {
            "positions": [
                -2.7366866755729,
                -0.9092412120488363,
                0.7858673980170277,
                -0.5677456407314174,
                1.056347197717717,
                2.2786762133952716
            ]
        },
        {
            "positions": [
                -2.714549225641955,
                -0.9918526378311016,
                0.6998826853784501,
                -0.5684272655088594,
                1.160766712781607,
                2.194410716555404
            ]
        },
        {
            "positions": [
                -2.6924117757110104,
                -1.0744640636133669,
                0.6138979727398728,
                -0.5691088902863014,
                1.265186227845497,
                2.110145219715536
            ]
        },
        {
            "positions": [
                -2.6702743257800656,
                -1.157075489395632,
                0.5279132601012952,
                -0.5697905150637435,
                1.369605742909387,
                2.0258797228756684
            ]
        },
        {
            "positions": [
                -2.648136875849121,
                -1.2396869151778973,
                0.4419285474627178,
                -0.5704721398411854,
                1.474025257973277,
                1.9416142260358007
            ]
        },
        {
            "positions": [
                -2.6259994259181756,
                -1.3222983409601627,
                0.3559438348241404,
                -0.5711537646186273,
                1.578444773037167,
                1.8573487291959327
            ]
        },
        {
            "positions": [
                -2.603861975987231,
                -1.4049097667424277,
                0.26995912218556295,
                -0.5718353893960694,
                1.682864288101057,
                1.773083232356065
            ]
        },
        {
            "positions": [
                -2.581724526056286,
                -1.4875211925246932,
                0.1839744095469854,
                -0.5725170141735114,
                1.787283803164947,
                1.688817735516197
            ]
        },
        {
            "positions": [
                -2.559587076125341,
                -1.5701326183069584,
                0.09798969690840797,
                -0.5731986389509534,
                1.8917033182288372,
                1.6045522386763293
            ]
        },
        {
            "positions": [
                -2.5374496261943964,
                -1.6527440440892236,
                0.012004984269830654,
                -0.5738802637283953,
                1.996122833292727,
                1.5202867418364616
            ]
        },
        {
            "positions": [
                -2.5153121762634516,
                -1.735355469871489,
                -0.07397972836874689,
                -0.5745618885058373,
                2.100542348356617,
                1.4360212449965941
            ]
        },
        {
            "positions": [
                -2.493174726332507,
                -1.8179668956537542,
                -0.15996444100732443,
                -0.5752435132832794,
                2.204961863420507,
                1.3517557481567262
            ]
        },
        {
            "positions": [
                -2.471037276401562,
                -1.9005783214360195,
                -0.24594915364590178,
                -0.5759251380607213,
                2.309381378484397,
                1.2674902513168584
            ]
        },
        {
            "positions": [
                -2.400598648144294,
                -1.8385604464427077,
                -0.19785948942682202,
                -0.552838559297869,
                2.1751921546113797,
                1.3045937041199773
            ]
        },
        {
            "positions": [
                -2.330160019887025,
                -1.776542571449396,
                -0.14976982520774224,
                -0.5297519805350167,
                2.041002930738363,
                1.3416971569230964
            ]
        },
        {
            "positions": [
                -2.259721391629757,
                -1.7145246964560843,
                -0.1016801609886625,
                -0.5066654017721643,
                1.9068137068653461,
                1.3788006097262153
            ]
        },
        {
            "positions": [
                -2.1892827633724883,
                -1.6525068214627727,
                -0.05359049676958272,
                -0.4835788230093121,
                1.7726244829923292,
                1.4159040625293342
            ]
        },
        {
            "positions": [
                -2.11884413511522,
                -1.590488946469461,
                -0.00550083255050296,
                -0.46049224424645974,
                1.638435259119312,
                1.453007515332453
            ]
        },
        {
            "positions": [
                -2.048405506857952,
                -1.5284710714761494,
                0.04258883166857677,
                -0.4374056654836075,
                1.5042460352462954,
                1.4901109681355722
            ]
        },
        {
            "positions": [
                -1.9779668786006834,
                -1.4664531964828376,
                0.09067849588765656,
                -0.4143190867207551,
                1.3700568113732783,
                1.527214420938691
            ]
        },
        {
            "positions": [
                -1.907528250343415,
                -1.404435321489526,
                0.13876816010673634,
                -0.3912325079579028,
                1.2358675875002614,
                1.56431787374181
            ]
        },
        {
            "positions": [
                -1.8370896220861468,
                -1.3424174464962142,
                0.18685782432581613,
                -0.3681459291950505,
                1.1016783636272445,
                1.601421326544929
            ]
        },
        {
            "positions": [
                -1.7666509938288784,
                -1.2803995715029024,
                0.23494748854489586,
                -0.3450593504321982,
                0.9674891397542276,
                1.638524779348048
            ]
        },
        {
            "positions": [
                -1.69621236557161,
                -1.2183816965095908,
                0.2830371527639756,
                -0.3219727716693459,
                0.8332999158812106,
                1.6756282321511669
            ]
        },
        {
            "positions": [
                -1.6174944294997236,
                -1.2592686868415979,
                0.17525306374513366,
                -0.25639486423704716,
                0.8073578833779291,
                1.6147822142422645
            ]
        },
        {
            "positions": [
                -1.5387764934278372,
                -1.3001556771736051,
                0.06746897472629171,
                -0.19081695680474836,
                0.7814158508746476,
                1.553936196333362
            ]
        },
        {
            "positions": [
                -1.4600585573559508,
                -1.3410426675056122,
                -0.04031511429255025,
                -0.1252390493724496,
                0.7554738183713661,
                1.4930901784244597
            ]
        },
        {
            "positions": [
                -1.3813406212840644,
                -1.3819296578376192,
                -0.1480992033113922,
                -0.05966114194015082,
                0.7295317858680846,
                1.4322441605155574
            ]
        },
        {
            "positions": [
                -1.302622685212178,
                -1.4228166481696265,
                -0.25588329233023416,
                0.0059167654921479795,
                0.7035897533648032,
                1.371398142606655
            ]
        },
        {
            "positions": [
                -1.2239047491402917,
                -1.4637036385016335,
                -0.3636673813490761,
                0.07149467292444672,
                0.6776477208615217,
                1.3105521246977525
            ]
        },
        {
            "positions": [
                -1.145186813068405,
                -1.5045906288336406,
                -0.4714514703679182,
                0.13707258035674558,
                0.6517056883582402,
                1.2497061067888502
            ]
        },
        {
            "positions": [
                -1.066468876996519,
                -1.5454776191656479,
                -0.57923555938676,
                0.20265048778904426,
                0.6257636558549587,
                1.1888600888799479
            ]
        },
        {
            "positions": [
                -0.9877509409246323,
                -1.586364609497655,
                -0.6870196484056021,
                0.2682283952213431,
                0.5998216233516772,
                1.1280140709710453
            ]
        },
        {
            "positions": [
                -0.909033004852746,
                -1.6272515998296622,
                -0.7948037374244439,
                0.33380630265364186,
                0.5738795908483958,
                1.067168053062143
            ]
        },
        {
            "positions": [
                -0.8303150687808596,
                -1.6681385901616692,
                -0.9025878264432861,
                0.3993842100859407,
                0.5479375583451143,
                1.0063220351532407
            ]
        },
        {
            "positions": [
                -0.7515971327089732,
                -1.7090255804936763,
                -1.0103719154621278,
                0.46496211751823935,
                0.5219955258418328,
                0.9454760172443383
            ]
        },
        {
            "positions": [
                -0.6728791966370868,
                -1.7499125708256833,
                -1.1181560044809697,
                0.5305400249505381,
                0.49605349333855137,
                0.884629999335436
            ]
        },
        {
            "positions": [
                -0.5941612605652002,
                -1.7907995611576906,
                -1.225940093499812,
                0.5961179323828371,
                0.47011146083526983,
                0.8237839814265334
            ]
        },
        {
            "positions": [
                -0.5154433244933141,
                -1.8316865514896978,
                -1.3337241825186539,
                0.6616958398151358,
                0.44416942833198836,
                0.7629379635176311
            ]
        },
        {
            "positions": [
                -0.4367253884214277,
                -1.8725735418217049,
                -1.4415082715374956,
                0.7272737472474344,
                0.41822739582870694,
                0.7020919456087288
            ]
        },
        {
            "positions": [
                -0.35800745234954134,
                -1.913460532153712,
                -1.5492923605563376,
                0.7928516546797333,
                0.39228536332542546,
                0.6412459276998264
            ]
        },
        {
            "positions": [
                -0.27928951627765475,
                -1.954347522485719,
                -1.6570764495751797,
                0.8584295621120321,
                0.36634333082214393,
                0.5803999097909238
            ]
        },
        {
            "positions": [
                -0.20057158020576837,
                -1.995234512817726,
                -1.7648605385940217,
                0.9240074695443308,
                0.34040129831886246,
                0.5195538918820215
            ]
        },
        {
            "positions": [
                -0.121853644133882,
                -2.036121503149733,
                -1.8726446276128634,
                0.9895853769766296,
                0.31445926581558103,
                0.4587078739731192
            ]
        },
        {
            "positions": [
                -0.04313570806199585,
                -2.07700849348174,
                -1.9804287166317056,
                1.0551632844089283,
                0.2885172333122995,
                0.39786185606421687
            ]
        },
        {
            "positions": [
                0.03558222800989075,
                -2.1178954838137476,
                -2.088212805650548,
                1.1207411918412273,
                0.262575200809018,
                0.33701583815531433
            ]
        },
        {
            "positions": [
                0.11430016408177707,
                -2.1587824741457546,
                -2.1959968946693897,
                1.186319099273526,
                0.23663316830573658,
                0.276169820246412
            ]
        },
        {
            "positions": [
                0.024390269016310237,
                -2.1924317718192192,
                -2.255454721436524,
                1.2663272615291645,
                0.22171831883232915,
                0.2122810106003375
            ]
        },
        {
            "positions": [
                -0.06551962604915659,
                -2.226081069492684,
                -2.3149125482036585,
                1.3463354237848033,
                0.20680346935892174,
                0.14839220095426295
            ]
        },
        {
            "positions": [
                -0.15542952111462344,
                -2.2597303671661484,
                -2.374370374970793,
                1.4263435860404419,
                0.1918886198855143,
                0.08450339130818842
            ]
        },
        {
            "positions": [
                -0.18392162549351115,
                -2.274753890817088,
                -2.398045606772617,
                1.4399006325355308,
                0.1816236632144944,
                0.0839481200566469
            ]
        }
    ]
}