{
    "goal": {
        "global_pose": {
            "orientation": {
                "w": 0.7047431493862688,
                "x": -0.7094548369677653,
                "y": 0.0024358444001904,
                "z": -0.0022348060817251984
            },
            "position": {
                "x": -0.39052492380142206,
                "y": 0.3671506643295288,
                "z": 0.19426114857196808
            }
        },
        "name": "move_to_magneteinheit_D"
    },
    "id": "BKPIECE_move_to_magneteinheit_D_136",
    "joint_names": [
        "shoulder_pan_joint",
        "shoulder_lift_joint",
        "elbow_joint",
        "wrist_1_joint",
        "wrist_2_joint",
        "wrist_3_joint"
    ],
    "metrics": {
        "cart_traj_len": 4.224666884504224,
        "distance_elbow_joint": 4.247146006094496,
        "distance_shoulder_lift_joint": 1.626113161792006,
        "distance_shoulder_pan_joint": 3.273072128628032,
        "distance_wrist_1_joint": 1.5153197675897248,
        "distance_wrist_2_joint": 0.8310982329734056,
        "distance_wrist_3_joint": 3.0415425161849052,
        "smoothness": 0.3645628638059742,
        "time": 0.37289162200000003,
        "traj_len": 3.81238662956193,
        "weighted_distance": 4.79205538847325
    },
    "planner": "BKPIECE",
    "start": {
        "state": {
            "elbow_joint": 0.7495348899011911,
            "shoulder_lift_joint": -0.6476975780737668,
            "shoulder_pan_joint": -2.711696901376276,
            "wrist_1_joint": -0.0750647808097303,
            "wrist_2_joint": 0.43296659715458535,
            "wrist_3_joint": 3.1361499051832418
        }
    },
    "waypoints": [
        {
            "positions": [
                -2.711696901376276,
                -0.6476975780737668,
                0.7495348899011911,
                -0.0750647808097303,
                0.43296659715458535,
                3.1361499051832418
            ]
        },
        {
            "positions": [
                -2.7055933944815833,
                -0.706375374650676,
                0.810624850358296,
                0.031255464338259195,
                0.3729320137586354,
                3.0406014780048256
            ]
        },
        {
            "positions": [
                -2.6994898875868905,
                -0.7650531712275852,
                0.8717148108154009,
                0.1375757094862487,
                0.31289743036268536,
                2.9450530508264094
            ]
        },
        {
            "positions": [
                -2.6933863806921976,
                -0.8237309678044944,
                0.9328047712725057,
                0.2438959546342382,
                0.2528628469667354,
                2.8495046236479933
            ]
        },
        {
            "positions": [
                -2.6872828737975047,
                -0.8824087643814036,
                0.9938947317296106,
                0.3502161997822277,
                0.19282826357078542,
                2.753956196469577
            ]
        },
        {
            "positions": [
                -2.6811793669028123,
                -0.9410865609583128,
                1.0549846921867156,
                0.4565364449302172,
                0.1327936801748354,
                2.658407769291161
            ]
        },
        {
            "positions": [
                -2.6750758600081195,
                -0.999764357535222,
                1.1160746526438203,
                0.5628566900782066,
                0.07275909677888542,
                2.562859342112745
            ]
        },
        {
            "positions": [
                -2.6689723531134266,
                -1.0584421541121312,
                1.1771646131009252,
                0.6691769352261961,
                0.012724513382935454,
                2.4673109149343286
            ]
        },
        {
            "positions": [
                -2.6628688462187338,
                -1.1171199506890404,
                1.2382545735580301,
                0.7754971803741856,
                -0.047310070013014516,
                2.3717624877559125
            ]
        },
        {
            "positions": [
                -2.656765339324041,
                -1.1757977472659495,
                1.299344534015135,
                0.8818174255221751,
                -0.1073446534089646,
                2.2762140605774963
            ]
        },
        {
            "positions": [
                -2.5429794003320767,
                -1.215043972919127,
                1.1792613718626739,
                0.9026693244164762,
                -0.10123402798679645,
                2.1909205395891105
            ]
        },
        {
            "positions": [
                -2.429193461340113,
                -1.2542901985723043,
                1.0591782097102125,
                0.9235212233107771,
                -0.09512340256462831,
                2.1056270186007247
            ]
        },
        {
            "positions": [
                -2.3154075223481487,
                -1.2935364242254814,
                0.9390950475577513,
                0.9443731222050782,
                -0.08901277714246017,
                2.0203334976123384
            ]
        },
        {
            "positions": [
                -2.2016215833561845,
                -1.3327826498786588,
                0.81901188540529,
                0.9652250210993792,
                -0.08290215172029203,
                1.9350399766239526
            ]
        },
        {
            "positions": [
                -2.0878356443642208,
                -1.3720288755318362,
                0.6989287232528287,
                0.9860769199936803,
                -0.07679152629812389,
                1.8497464556355667
            ]
        },
        {
            "positions": [
                -1.9740497053722565,
                -1.4112751011850135,
                0.5788455611003676,
                1.0069288188879812,
                -0.07068090087595574,
                1.7644529346471807
            ]
        },
        {
            "positions": [
                -1.8602637663802923,
                -1.450521326838191,
                0.45876239894790616,
                1.0277807177822824,
                -0.0645702754537876,
                1.6791594136587946
            ]
        },
        {
            "positions": [
                -1.7464778273883284,
                -1.4897675524913683,
                0.338679236795445,
                1.0486326166765834,
                -0.058459650031619466,
                1.5938658926704088
            ]
        },
        {
            "positions": [
                -1.6326918883963644,
                -1.5290137781445454,
                0.2185960746429838,
                1.0694845155708843,
                -0.05234902460945133,
                1.508572371682023
            ]
        },
        {
            "positions": [
                -1.5189059494044002,
                -1.5682600037977228,
                0.09851291249052241,
                1.0903364144651855,
                -0.04623839918728318,
                1.423278850693637
            ]
        },
        {
            "positions": [
                -1.4051200104124362,
                -1.6075062294509002,
                -0.021570249661938767,
                1.1111883133594864,
                -0.040127773765115046,
                1.3379853297052509
            ]
        },
        {
            "positions": [
                -1.2913340714204722,
                -1.6467524551040773,
                -0.14165341181439994,
                1.1320402122537874,
                -0.034017148342946904,
                1.252691808716865
            ]
        },
        {
            "positions": [
                -1.177548132428508,
                -1.6859986807572547,
                -0.26173657396686134,
                1.1528921111480885,
                -0.027906522920778762,
                1.1673982877284792
            ]
        },
        {
            "positions": [
                -1.0637621934365438,
                -1.725244906410432,
                -0.38181973611932274,
                1.1737440100423895,
                -0.02179589749861062,
                1.0821047667400931
            ]
        },
        {
            "positions": [
                -0.94997625444458,
                -1.7644911320636094,
                -0.5019028982717837,
                1.1945959089366904,
                -0.015685272076442477,
                0.9968112457517073
            ]
        },
        {
            "positions": [
                -0.8361903154526158,
                -1.8037373577167868,
                -0.6219860604242451,
                1.2154478078309916,
                -0.009574646654274335,
                0.9115177247633213
            ]
        },
        {
            "positions": [
                -0.7224043764606516,
                -1.8429835833699642,
                -0.7420692225767065,
                1.2362997067252925,
                -0.003464021232106193,
                0.8262242037749352
            ]
        },
        {
            "positions": [
                -0.6086184374686878,
                -1.8822298090231415,
                -0.8621523847291674,
                1.2571516056195935,
                0.0026466041900619353,
                0.7409306827865496
            ]
        },
        {
            "positions": [
                -0.4948324984767236,
                -1.9214760346763187,
                -0.9822355468816288,
                1.2780035045138947,
                0.008757229612230091,
                0.6556371617981636
            ]
        },
        {
            "positions": [
                -0.3810465594847594,
                -1.960722260329496,
                -1.1023187090340902,
                1.2988554034081956,
                0.014867855034398234,
                0.5703436408097775
            ]
        },
        {
            "positions": [
                -0.26726062049279564,
                -1.9999684859826732,
                -1.2224018711865512,
                1.3197073023024966,
                0.020978480456566362,
                0.4850501198213917
            ]
        },
        {
            "positions": [
                -0.15347468150083143,
                -2.0392147116358506,
                -1.3424850333390126,
                1.3405592011967977,
                0.027089105878734504,
                0.3997565988330056
            ]
        },
        {
            "positions": [
                -0.039688742508867225,
                -2.078460937289028,
                -1.462568195491474,
                1.3614111000910987,
                0.033199731300902646,
                0.3144630778446198
            ]
        },
        {
            "positions": [
                0.07409719648309654,
                -2.1177071629422053,
                -1.582651357643935,
                1.3822629989853996,
                0.03931035672307079,
                0.22916955685623375
            ]
        },
        {
            "positions": [
                0.18788313547506091,
                -2.1569533885953827,
                -1.7027345197963966,
                1.4031148978797008,
                0.04542098214523892,
                0.1438760358678477
            ]
        },
        {
            "positions": [
                0.0945101125308872,
                -2.18616772641298,
                -1.8765488468386518,
                1.4123999201047743,
                0.07992631885915208,
                0.13155887415046966
            ]
        },
        {
            "positions": [
                0.0011370895867134911,
                -2.2153820642305777,
                -2.050363173880907,
                1.4216849423298477,
                0.11443165557306524,
                0.1192417124330916
            ]
        },
        {
            "positions": [
                -0.09223593335746022,
                -2.2445964020481752,
                -2.224177500923162,
                1.430969964554921,
                0.1489369922869784,
                0.10692455071571355
            ]
        },
        {
            "positions": [
                -0.1856089563016339,
                -2.2738107398657728,
                -2.3979918279654173,
                1.4402549867799945,
                0.18344232900089158,
                0.09460738899833551
            ]
        }
    ]
}