{
    "goal": {
        "global_pose": {
            "orientation": {
                "w": 0.005598929693374612,
                "x": 0.007748599140229565,
                "y": 0.7110244013736278,
                "z": -0.7031023480610252
            },
            "position": {
                "x": -0.8858502320852131,
                "y": -0.7141253447532654,
                "z": 0.3711530566215515
            }
        },
        "name": "move_to_auspresseinheit_C"
    },
    "id": "BKPIECE_move_to_auspresseinheit_C_1",
    "joint_names": [
        "shoulder_pan_joint",
        "shoulder_lift_joint",
        "elbow_joint",
        "wrist_1_joint",
        "wrist_2_joint",
        "wrist_3_joint"
    ],
    "metrics": {
        "cart_traj_len": 0.49347044678930707,
        "distance_elbow_joint": 1.0138731562797734,
        "distance_shoulder_lift_joint": 0.33092434466363263,
        "distance_shoulder_pan_joint": 0.2558820561433137,
        "distance_wrist_1_joint": 0.7125225830849782,
        "distance_wrist_2_joint": 1.3099749377654848,
        "distance_wrist_3_joint": 0.07621352905328083,
        "smoothness": 1.6956133477936692e-15,
        "time": 0.259906806,
        "traj_len": 1.9233799954742337,
        "weighted_distance": 2.423698658238579
    },
    "planner": "BKPIECE",
    "start": {
        "state": {
            "elbow_joint": 1.7527959577730765,
            "shoulder_lift_joint": -0.9740617694224828,
            "shoulder_pan_joint": -2.967991417825869,
            "wrist_1_joint": -0.7595177689779385,
            "wrist_2_joint": 1.7443932448376545,
            "wrist_3_joint": 3.1991315425061013
        }
    },
    "waypoints": [
        {
            "positions": [
                -2.967991417825869,
                -0.9740617694224828,
                1.7527959577730765,
                -0.7595177689779385,
                1.7443932448376545,
                3.1991315425061013
            ]
        },
        {
            "positions": [
                -2.9424032122115378,
                -0.9409693349561196,
                1.651408642145099,
                -0.6882655106694407,
                1.6133957510611059,
                3.1915101896007734
            ]
        },
        {
            "positions": [
                -2.9168150065972065,
                -0.9078769004897562,
                1.5500213265171219,
                -0.617013252360943,
                1.4823982572845575,
                3.183888836695445
            ]
        },
        {
            "positions": [
                -2.8912268009828748,
                -0.874784466023393,
                1.4486340108891445,
                -0.5457609940524452,
                1.351400763508009,
                3.176267483790117
            ]
        },
        {
            "positions": [
                -2.8656385953685435,
                -0.8416920315570298,
                1.347246695261167,
                -0.4745087357439473,
                1.2204032697314604,
                3.168646130884789
            ]
        },
        {
            "positions": [
                -2.840050389754212,
                -0.8085995970906665,
                1.2458593796331898,
                -0.4032564774354495,
                1.089405775954912,
                3.1610247779794607
            ]
        },
        {
            "positions": [
                -2.814462184139881,
                -0.7755071626243032,
                1.1444720640052126,
                -0.3320042191269517,
                0.9584082821783636,
                3.1534034250741327
            ]
        },
        {
            "positions": [
                -2.7888739785255496,
                -0.74241472815794,
                1.0430847483772352,
                -0.2607519608184539,
                0.8274107884018151,
                3.145782072168805
            ]
        },
        {
            "positions": [
                -2.763285772911218,
                -0.7093222936915766,
                0.9416974327492578,
                -0.18949970250995607,
                0.6964132946252666,
                3.138160719263477
            ]
        },
        {
            "positions": [
                -2.7376975672968866,
                -0.6762298592252134,
                0.8403101171212805,
                -0.11824744420145827,
                0.565415800848718,
                3.1305393663581484
            ]
        },
        {
            "positions": [
                -2.7121093616825553,
                -0.6431374247588502,
                0.738922801493303,
                -0.04699518589296043,
                0.43441830707216955,
                3.1229180134528205
            ]
        }
    ]
}