{
    "goal": {
        "global_pose": {
            "orientation": {
                "w": 0.5084816262002911,
                "x": -0.4908360881923452,
                "y": 0.5182115481033761,
                "z": -0.48164630358495003
            },
            "position": {
                "x": 0.5540239810943604,
                "y": -0.46912469901144505,
                "z": 0.16403168439865112
            }
        },
        "name": "move_to_storage_B"
    },
    "id": "BKPIECE_move_to_storage_B_7",
    "joint_names": [
        "shoulder_pan_joint",
        "shoulder_lift_joint",
        "elbow_joint",
        "wrist_1_joint",
        "wrist_2_joint",
        "wrist_3_joint"
    ],
    "metrics": {
        "cart_traj_len": 2.085961704623061,
        "distance_elbow_joint": 1.9375569437970095,
        "distance_shoulder_lift_joint": 0.45913833122032965,
        "distance_shoulder_pan_joint": 1.781943763433675,
        "distance_wrist_1_joint": 2.98369223810028,
        "distance_wrist_2_joint": 2.7143540189560555,
        "distance_wrist_3_joint": 3.1321124620148533,
        "smoothness": 0.241145917370514,
        "time": 0.307400536,
        "traj_len": 3.606771098575872,
        "weighted_distance": 4.9971060563698515
    },
    "planner": "BKPIECE",
    "start": {
        "state": {
            "elbow_joint": 1.6649325340416963,
            "shoulder_lift_joint": -0.6616387945129425,
            "shoulder_pan_joint": -0.9139837929255878,
            "wrist_1_joint": 2.1467571094334352,
            "wrist_2_joint": -2.234195976750228,
            "wrist_3_joint": 0.005470921511140723
        }
    },
    "waypoints": [
        {
            "positions": [
                -0.9139837929255878,
                -0.6616387945129425,
                1.6649325340416963,
                2.1467571094334352,
                -2.234195976750228,
                0.005470921511140723
            ]
        },
        {
            "positions": [
                -0.8473120091214584,
                -0.69450890064045,
                1.5988278854024356,
                2.0573569953255952,
                -2.1239156120456526,
                0.024317020295722525
            ]
        },
        {
            "positions": [
                -0.780640225317329,
                -0.7273790067679575,
                1.5327232367631747,
                1.9679568812177557,
                -2.013635247341077,
                0.043163119080304325
            ]
        },
        {
            "positions": [
                -0.7139684415131997,
                -0.760249112895465,
                1.466618588123914,
                1.8785567671099157,
                -1.9033548826365014,
                0.062009217864886126
            ]
        },
        {
            "positions": [
                -0.6472966577090703,
                -0.7931192190229726,
                1.4005139394846533,
                1.7891566530020762,
                -1.793074517931926,
                0.08085531664946792
            ]
        },
        {
            "positions": [
                -0.5806248739049409,
                -0.8259893251504801,
                1.3344092908453926,
                1.6997565388942362,
                -1.6827941532273505,
                0.09970141543404973
            ]
        },
        {
            "positions": [
                -0.5139530901008115,
                -0.8588594312779876,
                1.268304642206132,
                1.6103564247863964,
                -1.572513788522775,
                0.11854751421863152
            ]
        },
        {
            "positions": [
                -0.44728130629668206,
                -0.8917295374054951,
                1.202199993566871,
                1.5209563106785566,
                -1.4622334238181995,
                0.13739361300321334
            ]
        },
        {
            "positions": [
                -0.38060952249255275,
                -0.9245996435330026,
                1.1360953449276103,
                1.4315561965707169,
                -1.3519530591136242,
                0.15623971178779514
            ]
        },
        {
            "positions": [
                -0.31393773868842323,
                -0.9574697496605101,
                1.0699906962883496,
                1.342156082462877,
                -1.2416726944090486,
                0.17508581057237693
            ]
        },
        {
            "positions": [
                -0.24726595488429381,
                -0.9903398557880176,
                1.0038860476490887,
                1.252755968355037,
                -1.131392329704473,
                0.19393190935695875
            ]
        },
        {
            "positions": [
                -0.1805941710801645,
                -1.023209961915525,
                0.9377813990098282,
                1.1633558542471976,
                -1.0211119649998976,
                0.21277800814154052
            ]
        },
        {
            "positions": [
                -0.11392238727603506,
                -1.0560800680430327,
                0.8716767503705674,
                1.0739557401393576,
                -0.9108316002953221,
                0.23162410692612234
            ]
        },
        {
            "positions": [
                -0.15855340353894973,
                -1.059020843392589,
                0.9236904394671983,
                0.9870970642845303,
                -0.8476047983634516,
                0.36371316495338923
            ]
        },
        {
            "positions": [
                -0.2031844198018644,
                -1.0619616187421455,
                0.9757041285638293,
                0.9002383884297029,
                -0.7843779964315811,
                0.4958022229806561
            ]
        },
        {
            "positions": [
                -0.24781543606477907,
                -1.0649023940917017,
                1.0277178176604602,
                0.8133797125748756,
                -0.7211511944997108,
                0.6278912810079229
            ]
        },
        {
            "positions": [
                -0.2924464523276938,
                -1.067843169441258,
                1.0797315067570912,
                0.7265210367200482,
                -0.6579243925678402,
                0.7599803390351899
            ]
        },
        {
            "positions": [
                -0.33707746859060844,
                -1.0707839447908143,
                1.1317451958537221,
                0.6396623608652209,
                -0.5946975906359698,
                0.8920693970624568
            ]
        },
        {
            "positions": [
                -0.3817084848535231,
                -1.0737247201403708,
                1.1837588849503529,
                0.5528036850103936,
                -0.5314707887040995,
                1.0241584550897236
            ]
        },
        {
            "positions": [
                -0.42633950111643776,
                -1.076665495489927,
                1.2357725740469838,
                0.46594500915556625,
                -0.46824398677222895,
                1.1562475131169907
            ]
        },
        {
            "positions": [
                -0.47097051737935247,
                -1.0796062708394834,
                1.2877862631436148,
                0.3790863333007388,
                -0.4050171848403584,
                1.2883365711442574
            ]
        },
        {
            "positions": [
                -0.5156015336422672,
                -1.0825470461890396,
                1.3397999522402457,
                0.2922276574459115,
                -0.34179038290848796,
                1.4204256291715245
            ]
        },
        {
            "positions": [
                -0.5602325499051818,
                -1.0854878215385961,
                1.3918136413368767,
                0.2053689815910842,
                -0.2785635809766176,
                1.5525146871987912
            ]
        },
        {
            "positions": [
                -0.6048635661680966,
                -1.0884285968881524,
                1.4438273304335076,
                0.11851030573625687,
                -0.21533677904474713,
                1.6846037452260583
            ]
        },
        {
            "positions": [
                -0.6494945824310112,
                -1.0913693722377087,
                1.4958410195301384,
                0.031651629881429555,
                -0.15210997711287677,
                1.816692803253325
            ]
        },
        {
            "positions": [
                -0.694125598693926,
                -1.0943101475872652,
                1.5478547086267695,
                -0.05520704597339776,
                -0.08888317518100619,
                1.948781861280592
            ]
        },
        {
            "positions": [
                -0.7387566149568405,
                -1.0972509229368215,
                1.5998683977234003,
                -0.14206572182822508,
                -0.025656373249135833,
                2.0808709193078587
            ]
        },
        {
            "positions": [
                -0.7833876312197552,
                -1.1001916982863778,
                1.6518820868200312,
                -0.2289243976830524,
                0.037570428682734636,
                2.2129599773351254
            ]
        },
        {
            "positions": [
                -0.82801864748267,
                -1.103132473635934,
                1.7038957759166622,
                -0.31578307353787993,
                0.10079723061460522,
                2.3450490353623925
            ]
        },
        {
            "positions": [
                -0.8726496637455846,
                -1.1060732489854905,
                1.7559094650132931,
                -0.402641749392707,
                0.16402403254647546,
                2.477138093389659
            ]
        },
        {
            "positions": [
                -0.9172806800084994,
                -1.1090140243350468,
                1.807923154109924,
                -0.48950042524753457,
                0.22725083447834615,
                2.6092271514169263
            ]
        },
        {
            "positions": [
                -0.961911696271414,
                -1.111954799684603,
                1.859936843206555,
                -0.5763591011023619,
                0.2904776364102164,
                2.7413162094441934
            ]
        },
        {
            "positions": [
                -1.0065427125343285,
                -1.1148955750341594,
                1.911950532303186,
                -0.6632177769571892,
                0.35370443834208687,
                2.87340526747146
            ]
        },
        {
            "positions": [
                -1.0511737287972434,
                -1.1178363503837159,
                1.963964221399817,
                -0.7500764528120165,
                0.41693124027395734,
                3.005494325498727
            ]
        },
        {
            "positions": [
                -1.095804745060158,
                -1.1207771257332722,
                2.015977910496448,
                -0.8369351286668437,
                0.4801580422058279,
                3.137583383525994
            ]
        }
    ]
}