{
    "goal": {
        "global_pose": {
            "orientation": {
                "w": 0.7047431468963623,
                "x": -0.7094548344612122,
                "y": 0.0024358443915843964,
                "z": -0.0022348060738295317
            },
            "position": {
                "x": 0.6094750761985779,
                "y": 0.3671506643295288,
                "z": 0.19426114857196808
            }
        },
        "name": "move_to_magneteinheit_A"
    },
    "id": "BKPIECE_move_to_magneteinheit_A_128",
    "joint_names": [
        "shoulder_pan_joint",
        "shoulder_lift_joint",
        "elbow_joint",
        "wrist_1_joint",
        "wrist_2_joint",
        "wrist_3_joint"
    ],
    "metrics": {
        "cart_traj_len": 1.593220655307174,
        "distance_elbow_joint": 3.5302118530788356,
        "distance_shoulder_lift_joint": 1.1368756246718812,
        "distance_shoulder_pan_joint": 1.2421521862867209,
        "distance_wrist_1_joint": 3.854101568253764,
        "distance_wrist_2_joint": 1.6960773780062257,
        "distance_wrist_3_joint": 1.2313074540277227,
        "smoothness": 8.881784186061971e-16,
        "time": 0.2257258,
        "traj_len": 3.562404534064759,
        "weighted_distance": 4.550112077591121
    },
    "planner": "BKPIECE",
    "start": {
        "state": {
            "elbow_joint": -1.5739458827952972,
            "shoulder_lift_joint": 0.006533473998580023,
            "shoulder_pan_joint": -1.1188671628667068,
            "wrist_1_joint": 3.138208179676308,
            "wrist_2_joint": -1.5706037135050406,
            "wrist_3_joint": -2.0226958329764257
        }
    },
    "waypoints": [
        {
            "positions": [
                -1.1188671628667068,
                0.006533473998580023,
                -1.5739458827952972,
                3.138208179676308,
                -1.5706037135050406,
                -2.0226958329764257
            ]
        },
        {
            "positions": [
                -1.081226187524685,
                -0.027917302506628508,
                -1.4669697660353325,
                3.0214172230625578,
                -1.5192074293230338,
                -2.060008180068175
            ]
        },
        {
            "positions": [
                -1.0435852121826632,
                -0.06236807901183704,
                -1.359993649275368,
                2.9046262664488074,
                -1.467811145141027,
                -2.097320527159924
            ]
        },
        {
            "positions": [
                -1.0059442368406413,
                -0.09681885551704557,
                -1.2530175325154032,
                2.787835309835057,
                -1.4164148609590201,
                -2.134632874251673
            ]
        },
        {
            "positions": [
                -0.9683032614986194,
                -0.13126963202225408,
                -1.1460414157554384,
                2.6710443532213066,
                -1.3650185767770133,
                -2.1719452213434223
            ]
        },
        {
            "positions": [
                -0.9306622861565976,
                -0.16572040852746261,
                -1.0390652989954736,
                2.554253396607556,
                -1.3136222925950063,
                -2.2092575684351714
            ]
        },
        {
            "positions": [
                -0.8930213108145758,
                -0.20017118503267115,
                -0.932089182235509,
                2.437462439993806,
                -1.2622260084129995,
                -2.246569915526921
            ]
        },
        {
            "positions": [
                -0.855380335472554,
                -0.23462196153787968,
                -0.8251130654755442,
                2.320671483380055,
                -1.2108297242309927,
                -2.28388226261867
            ]
        },
        {
            "positions": [
                -0.8177393601305321,
                -0.26907273804308823,
                -0.7181369487155795,
                2.2038805267663046,
                -1.1594334400489859,
                -2.3211946097104192
            ]
        },
        {
            "positions": [
                -0.7800983847885103,
                -0.30352351454829674,
                -0.6111608319556149,
                2.0870895701525543,
                -1.108037155866979,
                -2.3585069568021684
            ]
        },
        {
            "positions": [
                -0.7424574094464884,
                -0.3379742910535053,
                -0.50418471519565,
                1.9702986135388039,
                -1.056640871684972,
                -2.3958193038939175
            ]
        },
        {
            "positions": [
                -0.7048164341044666,
                -0.3724250675587138,
                -0.39720859843568546,
                1.8535076569250535,
                -1.0052445875029654,
                -2.4331316509856666
            ]
        },
        {
            "positions": [
                -0.6671754587624448,
                -0.40687584406392235,
                -0.2902324816757207,
                1.736716700311303,
                -0.9538483033209585,
                -2.4704439980774158
            ]
        },
        {
            "positions": [
                -0.6295344834204228,
                -0.44132662056913086,
                -0.18325636491575592,
                1.6199257436975527,
                -0.9024520191389517,
                -2.507756345169165
            ]
        },
        {
            "positions": [
                -0.591893508078401,
                -0.4757773970743394,
                -0.07628024815579115,
                1.503134787083802,
                -0.8510557349569448,
                -2.545068692260914
            ]
        },
        {
            "positions": [
                -0.5542525327363792,
                -0.5102281735795479,
                0.030695868604173393,
                1.386343830470052,
                -0.799659450774938,
                -2.582381039352663
            ]
        },
        {
            "positions": [
                -0.5166115573943573,
                -0.5446789500847564,
                0.13767198536413816,
                1.2695528738563013,
                -0.7482631665929311,
                -2.6196933864444123
            ]
        },
        {
            "positions": [
                -0.47897058205233556,
                -0.5791297265899649,
                0.24464810212410293,
                1.152761917242551,
                -0.6968668824109243,
                -2.6570057335361614
            ]
        },
        {
            "positions": [
                -0.44132960671031374,
                -0.6135805030951734,
                0.3516242188840675,
                1.0359709606288008,
                -0.6454705982289175,
                -2.6943180806279106
            ]
        },
        {
            "positions": [
                -0.4036886313682917,
                -0.648031279600382,
                0.45860033564403246,
                0.91918000401505,
                -0.5940743140469106,
                -2.73163042771966
            ]
        },
        {
            "positions": [
                -0.36604765602627,
                -0.6824820561055905,
                0.5655764524039972,
                0.8023890474012996,
                -0.5426780298649037,
                -2.7689427748114093
            ]
        },
        {
            "positions": [
                -0.32840668068424816,
                -0.716932832610799,
                0.6725525691639616,
                0.6855980907875492,
                -0.49128174568289706,
                -2.8062551219031584
            ]
        },
        {
            "positions": [
                -0.29076570534222634,
                -0.7513836091160075,
                0.7795286859239263,
                0.5688071341737988,
                -0.43988546150089025,
                -2.8435674689949075
            ]
        },
        {
            "positions": [
                -0.2531247300002044,
                -0.7858343856212161,
                0.8865048026838915,
                0.4520161775600484,
                -0.3884891773188832,
                -2.8808798160866567
            ]
        },
        {
            "positions": [
                -0.2154837546581826,
                -0.8202851621264247,
                0.9934809194438559,
                0.33522522094629803,
                -0.3370928931368764,
                -2.918192163178406
            ]
        },
        {
            "positions": [
                -0.17784277931616077,
                -0.8547359386316331,
                1.1004570362038206,
                0.21843426433254765,
                -0.2856966089548696,
                -2.955504510270155
            ]
        },
        {
            "positions": [
                -0.14020180397413895,
                -0.8891867151368417,
                1.2074331529637854,
                0.10164330771879726,
                -0.23430032477286278,
                -2.992816857361904
            ]
        },
        {
            "positions": [
                -0.10256082863211691,
                -0.9236374916420502,
                1.3144092697237502,
                -0.01514764889495357,
                -0.18290404059085574,
                -3.0301292044536536
            ]
        },
        {
            "positions": [
                -0.0649198532900952,
                -0.9580882681472588,
                1.421385386483715,
                -0.13193860550870395,
                -0.13150775640884893,
                -3.0674415515454028
            ]
        },
        {
            "positions": [
                -0.027278877948073266,
                -0.9925390446524672,
                1.5283615032436793,
                -0.24872956212245434,
                -0.08011147222684234,
                -3.104753898637152
            ]
        },
        {
            "positions": [
                0.010362097393948444,
                -1.0269898211576758,
                1.635337620003644,
                -0.3655205187362043,
                -0.028715188044835527,
                -3.142066245728901
            ]
        },
        {
            "positions": [
                0.048003072735970376,
                -1.0614405976628845,
                1.7423137367636092,
                -0.4823114753499551,
                0.022681096137171508,
                -3.17937859282065
            ]
        },
        {
            "positions": [
                0.08564404807799231,
                -1.095891374168093,
                1.8492898535235736,
                -0.5991024319637055,
                0.07407738031917832,
                -3.2166909399123993
            ]
        },
        {
            "positions": [
                0.12328502342001399,
                -1.1303421506733013,
                1.956265970283538,
                -0.7158933885774561,
                0.1254736645011851,
                -3.2540032870041484
            ]
        }
    ]
}