{
    "goal": {
        "global_pose": {
            "orientation": {
                "w": 0.7031023480610252,
                "x": -0.7110244013736278,
                "y": 0.0077485991402295624,
                "z": 0.005598929693374583
            },
            "position": {
                "x": -0.8841497679147869,
                "y": 0.44412534475326537,
                "z": 0.3711530566215515
            }
        },
        "name": "move_to_auspresseinheit_D"
    },
    "id": "BKPIECE_move_to_auspresseinheit_D_64",
    "joint_names": [
        "shoulder_pan_joint",
        "shoulder_lift_joint",
        "elbow_joint",
        "wrist_1_joint",
        "wrist_2_joint",
        "wrist_3_joint"
    ],
    "metrics": {
        "cart_traj_len": 0.3436036595219122,
        "distance_elbow_joint": 0.6538446594064105,
        "distance_shoulder_lift_joint": 0.13043075556548978,
        "distance_shoulder_pan_joint": 0.1332525798276163,
        "distance_wrist_1_joint": 0.5687645802408938,
        "distance_wrist_2_joint": 1.4483890688056589,
        "distance_wrist_3_joint": 0.03459544611415044,
        "smoothness": 7.894919348737726e-16,
        "time": 0.225991814,
        "traj_len": 1.7231590437217974,
        "weighted_distance": 2.24847095405635
    },
    "planner": "BKPIECE",
    "start": {
        "state": {
            "elbow_joint": -1.8275484843655228,
            "shoulder_lift_joint": -2.1267897864000416,
            "shoulder_pan_joint": -0.035127520176001514,
            "wrist_1_joint": -2.3477863256791385,
            "wrist_2_joint": -1.605890476484521,
            "wrist_3_joint": -3.0880375317375353
        }
    },
    "waypoints": [
        {
            "positions": [
                -0.035127520176001514,
                -2.1267897864000416,
                -1.8275484843655228,
                -2.3477863256791385,
                -1.605890476484521,
                -3.0880375317375353
            ]
        },
        {
            "positions": [
                -0.05178409265445355,
                -2.143093630845728,
                -1.7458179019397215,
                -2.4188818982092504,
                -1.4248418428838137,
                -3.0837131009732666
            ]
        },
        {
            "positions": [
                -0.06844066513290559,
                -2.159397475291414,
                -1.66408731951392,
                -2.489977470739362,
                -1.2437932092831063,
                -3.0793886702089974
            ]
        },
        {
            "positions": [
                -0.08509723761135762,
                -2.1757013197371,
                -1.5823567370881189,
                -2.5610730432694737,
                -1.062744575682399,
                -3.0750642394447287
            ]
        },
        {
            "positions": [
                -0.10175381008980966,
                -2.1920051641827865,
                -1.5006261546623176,
                -2.6321686157995856,
                -0.8816959420816916,
                -3.07073980868046
            ]
        },
        {
            "positions": [
                -0.1184103825682617,
                -2.208309008628473,
                -1.4188955722365162,
                -2.703264188329697,
                -0.7006473084809842,
                -3.0664153779161913
            ]
        },
        {
            "positions": [
                -0.13506695504671373,
                -2.224612853074159,
                -1.337164989810715,
                -2.774359760859809,
                -0.5195986748802768,
                -3.0620909471519226
            ]
        },
        {
            "positions": [
                -0.15172352752516577,
                -2.240916697519845,
                -1.2554344073849135,
                -2.8454553333899204,
                -0.33855004127956945,
                -3.0577665163876535
            ]
        },
        {
            "positions": [
                -0.1683801000036178,
                -2.2572205419655313,
                -1.1737038249591123,
                -2.9165509059200323,
                -0.1575014076788621,
                -3.053442085623385
            ]
        }
    ]
}