{
    "goal": {
        "global_pose": {
            "orientation": {
                "w": -0.4816463035849501,
                "x": 0.5182115481033762,
                "y": 0.4908360881923453,
                "z": -0.5084816262002911
            },
            "position": {
                "x": -0.8240239810943604,
                "y": 0.19912469901144506,
                "z": 0.16403168439865112
            }
        },
        "name": "move_to_storage_D"
    },
    "id": "BKPIECE_move_to_storage_D_13",
    "joint_names": [
        "shoulder_pan_joint",
        "shoulder_lift_joint",
        "elbow_joint",
        "wrist_1_joint",
        "wrist_2_joint",
        "wrist_3_joint"
    ],
    "metrics": {
        "cart_traj_len": 1.2950182280523403,
        "distance_elbow_joint": 0.557336735505952,
        "distance_shoulder_lift_joint": 0.7263832947046516,
        "distance_shoulder_pan_joint": 1.513135093338998,
        "distance_wrist_1_joint": 3.8323864300687327,
        "distance_wrist_2_joint": 1.9385904478431635,
        "distance_wrist_3_joint": 3.8718028067329326,
        "smoothness": 0.27555873114139456,
        "time": 0.29780204099999996,
        "traj_len": 3.526986647011076,
        "weighted_distance": 5.094528172419129
    },
    "planner": "BKPIECE",
    "start": {
        "state": {
            "elbow_joint": -2.384821990628643,
            "shoulder_lift_joint": -2.278805467437664,
            "shoulder_pan_joint": -0.18546946439364564,
            "wrist_1_joint": 1.4845938187801415,
            "wrist_2_joint": 0.178987772454074,
            "wrist_3_joint": 0.03710569632802521
        }
    },
    "waypoints": [
        {
            "positions": [
                -0.18546946439364564,
                -2.278805467437664,
                -2.384821990628643,
                1.4845938187801415,
                0.178987772454074,
                0.03710569632802521
            ]
        },
        {
            "positions": [
                -0.06653241147018285,
                -2.2160506420003876,
                -2.3249863809187765,
                1.43767889031368,
                0.1907338943576705,
                0.09066631564762223
            ]
        },
        {
            "positions": [
                0.05240464145327994,
                -2.1532958165631113,
                -2.2651507712089094,
                1.3907639618472183,
                0.202480016261267,
                0.14422693496721925
            ]
        },
        {
            "positions": [
                0.17134169437674274,
                -2.090540991125835,
                -2.2053151614990427,
                1.3438490333807567,
                0.21422613816486347,
                0.19778755428681627
            ]
        },
        {
            "positions": [
                0.29027874730020553,
                -2.0277861656885587,
                -2.145479551789176,
                1.2969341049142948,
                0.22597226006845997,
                0.25134817360641326
            ]
        },
        {
            "positions": [
                0.4092158002236683,
                -1.9650313402512825,
                -2.085643942079309,
                1.2500191764478332,
                0.23771838197205647,
                0.30490879292601036
            ]
        },
        {
            "positions": [
                0.5281528531471311,
                -1.9022765148140062,
                -2.0258083323694422,
                1.2031042479813716,
                0.24946450387565297,
                0.35846941224560736
            ]
        },
        {
            "positions": [
                0.6470899060705939,
                -1.8395216893767299,
                -1.9659727226595753,
                1.15618931951491,
                0.2612106257792495,
                0.41203003156520435
            ]
        },
        {
            "positions": [
                0.6209139167292571,
                -1.8505639784784114,
                -1.9606462816004644,
                1.0214207837147753,
                0.18981187214394224,
                0.27753470573844463
            ]
        },
        {
            "positions": [
                0.5947379273879202,
                -1.8616062675800928,
                -1.9553198405413534,
                0.8866522479146407,
                0.118413118508635,
                0.14303937991168486
            ]
        },
        {
            "positions": [
                0.5685619380465834,
                -1.8726485566817743,
                -1.9499933994822425,
                0.751883712114506,
                0.047014364873327774,
                0.00854405408492509
            ]
        },
        {
            "positions": [
                0.5423859487052465,
                -1.8836908457834556,
                -1.9446669584231315,
                0.6171151763143714,
                -0.02438438876197946,
                -0.12595127174183463
            ]
        },
        {
            "positions": [
                0.5162099593639097,
                -1.894733134885137,
                -1.9393405173640208,
                0.4823466405142367,
                -0.09578314239728669,
                -0.26044659756859434
            ]
        },
        {
            "positions": [
                0.49003397002257276,
                -1.9057754239868185,
                -1.9340140763049098,
                0.347578104714102,
                -0.16718189603259392,
                -0.39494192339535417
            ]
        },
        {
            "positions": [
                0.46385798068123596,
                -1.9168177130885,
                -1.928687635245799,
                0.21280956891396752,
                -0.23858064966790116,
                -0.5294372492221138
            ]
        },
        {
            "positions": [
                0.43768199133989905,
                -1.9278600021901815,
                -1.923361194186688,
                0.07804103311383281,
                -0.3099794033032084,
                -0.6639325750488736
            ]
        },
        {
            "positions": [
                0.41150600199856224,
                -1.938902291291863,
                -1.918034753127577,
                -0.05672750268630189,
                -0.3813781569385156,
                -0.7984279008756332
            ]
        },
        {
            "positions": [
                0.3853300126572254,
                -1.9499445803935442,
                -1.912708312068466,
                -0.1914960384864366,
                -0.45277691057382285,
                -0.932923226702393
            ]
        },
        {
            "positions": [
                0.3591540233158885,
                -1.9609868694952257,
                -1.907381871009355,
                -0.3262645742865711,
                -0.5241756642091301,
                -1.0674185525291529
            ]
        },
        {
            "positions": [
                0.33297803397455167,
                -1.9720291585969072,
                -1.9020554299502441,
                -0.461033110086706,
                -0.5955744178444373,
                -1.2019138783559127
            ]
        },
        {
            "positions": [
                0.3068020446332148,
                -1.9830714476985887,
                -1.8967289888911334,
                -0.5958016458868405,
                -0.6669731714797446,
                -1.3364092041826723
            ]
        },
        {
            "positions": [
                0.28062605529187795,
                -1.9941137368002702,
                -1.8914025478320224,
                -0.730570181686975,
                -0.7383719251150518,
                -1.4709045300094319
            ]
        },
        {
            "positions": [
                0.25445006595054115,
                -2.0051560259019516,
                -1.8860761067729115,
                -0.8653387174871097,
                -0.8097706787503589,
                -1.6053998558361915
            ]
        },
        {
            "positions": [
                0.22827407660920424,
                -2.016198315003633,
                -1.8807496657138005,
                -1.0001072532872444,
                -0.8811694323856663,
                -1.7398951816629515
            ]
        },
        {
            "positions": [
                0.20209808726786738,
                -2.0272406041053146,
                -1.8754232246546896,
                -1.134875789087379,
                -0.9525681860209736,
                -1.8743905074897111
            ]
        },
        {
            "positions": [
                0.17592209792653057,
                -2.038282893206996,
                -1.8700967835955786,
                -1.2696443248875138,
                -1.0239669396562807,
                -2.0088858333164707
            ]
        },
        {
            "positions": [
                0.14974610858519372,
                -2.049325182308677,
                -1.8647703425364677,
                -1.404412860687648,
                -1.0953656932915878,
                -2.143381159143231
            ]
        },
        {
            "positions": [
                0.12357011924385686,
                -2.060367471410359,
                -1.8594439014773567,
                -1.5391813964877832,
                -1.1667644469268952,
                -2.2778764849699904
            ]
        },
        {
            "positions": [
                0.09739412990251994,
                -2.07140976051204,
                -1.8541174604182458,
                -1.6739499322879179,
                -1.2381632005622025,
                -2.4123718107967504
            ]
        },
        {
            "positions": [
                0.07121814056118314,
                -2.0824520496137215,
                -1.848791019359135,
                -1.8087184680880521,
                -1.3095619541975096,
                -2.54686713662351
            ]
        },
        {
            "positions": [
                0.04504215121984634,
                -2.093494338715403,
                -1.843464578300024,
                -1.9434870038881868,
                -1.3809607078328168,
                -2.6813624624502697
            ]
        },
        {
            "positions": [
                0.018866161878509424,
                -2.1045366278170845,
                -1.8381381372409131,
                -2.078255539688322,
                -1.4523594614681241,
                -2.8158577882770297
            ]
        },
        {
            "positions": [
                -0.0073098274628274895,
                -2.115578916918766,
                -1.8328116961818022,
                -2.2130240754884563,
                -1.5237582151034315,
                -2.9503531141037893
            ]
        },
        {
            "positions": [
                -0.03348581680416424,
                -2.1266212060204475,
                -1.8274852551226912,
                -2.347792611288591,
                -1.5951569687387386,
                -3.084848439930549
            ]
        }
    ]
}