{
    "goal": {
        "global_pose": {
            "orientation": {
                "w": 0.5084816262002911,
                "x": -0.4908360881923452,
                "y": 0.5182115481033761,
                "z": -0.48164630358495003
            },
            "position": {
                "x": 0.5540239810943604,
                "y": -0.46912469901144505,
                "z": 0.16403168439865112
            }
        },
        "name": "move_to_storage_B"
    },
    "id": "BKPIECE_move_to_storage_B_41",
    "joint_names": [
        "shoulder_pan_joint",
        "shoulder_lift_joint",
        "elbow_joint",
        "wrist_1_joint",
        "wrist_2_joint",
        "wrist_3_joint"
    ],
    "metrics": {
        "cart_traj_len": 2.3833976431260213,
        "distance_elbow_joint": 1.5757690574897933,
        "distance_shoulder_lift_joint": 0.6462204477741491,
        "distance_shoulder_pan_joint": 2.1807326570738983,
        "distance_wrist_1_joint": 2.9774337353856914,
        "distance_wrist_2_joint": 2.7142070507577123,
        "distance_wrist_3_joint": 3.1339125594147603,
        "smoothness": 0.24075017829888276,
        "time": 0.263002176,
        "traj_len": 3.6370696319834193,
        "weighted_distance": 5.018739026176688
    },
    "planner": "BKPIECE",
    "start": {
        "state": {
            "elbow_joint": 1.6649325340416963,
            "shoulder_lift_joint": -0.6616387945129425,
            "shoulder_pan_joint": -0.9139837929255878,
            "wrist_1_joint": 2.1467571094334352,
            "wrist_2_joint": -2.234195976750228,
            "wrist_3_joint": 0.005470921511140723
        }
    },
    "waypoints": [
        {
            "positions": [
                -0.9139837929255878,
                -0.6616387945129425,
                1.6649325340416963,
                2.1467571094334352,
                -2.234195976750228,
                0.005470921511140723
            ]
        },
        {
            "positions": [
                -0.8306227979352256,
                -0.707709963554612,
                1.6137956943907075,
                2.0911206475341855,
                -2.1629393925131466,
                0.0666806068265936
            ]
        },
        {
            "positions": [
                -0.7472618029448634,
                -0.7537811325962814,
                1.5626588547397187,
                2.0354841856349353,
                -2.0916828082760652,
                0.1278902921420465
            ]
        },
        {
            "positions": [
                -0.6639008079545011,
                -0.799852301637951,
                1.5115220150887296,
                1.9798477237356855,
                -2.020426224038984,
                0.1890999774574994
            ]
        },
        {
            "positions": [
                -0.5805398129641389,
                -0.8459234706796204,
                1.4603851754377408,
                1.9242112618364358,
                -1.9491696398019025,
                0.25030966277295225
            ]
        },
        {
            "positions": [
                -0.4971788179737766,
                -0.8919946397212899,
                1.409248335786752,
                1.868574799937186,
                -1.8779130555648211,
                0.31151934808840515
            ]
        },
        {
            "positions": [
                -0.4138178229834144,
                -0.9380658087629594,
                1.3581114961357632,
                1.812938338037936,
                -1.8066564713277398,
                0.37272903340385805
            ]
        },
        {
            "positions": [
                -0.3304568279930521,
                -0.9841369778046289,
                1.3069746564847744,
                1.757301876138686,
                -1.7353998870906582,
                0.43393871871931095
            ]
        },
        {
            "positions": [
                -0.24709583300269,
                -1.0302081468462982,
                1.2558378168337856,
                1.7016654142394363,
                -1.664143302853577,
                0.4951484040347638
            ]
        },
        {
            "positions": [
                -0.1637348380123277,
                -1.0762793158879678,
                1.2047009771827968,
                1.6460289523401865,
                -1.5928867186164954,
                0.5563580893502167
            ]
        },
        {
            "positions": [
                -0.08037384302196537,
                -1.1223504849296373,
                1.1535641375318078,
                1.5903924904409366,
                -1.521630134379414,
                0.6175677746656696
            ]
        },
        {
            "positions": [
                0.0029871519683967174,
                -1.1684216539713068,
                1.1024272978808192,
                1.5347560285416866,
                -1.4503735501423327,
                0.6787774599811225
            ]
        },
        {
            "positions": [
                0.08634814695875893,
                -1.2144928230129763,
                1.0512904582298301,
                1.4791195666424368,
                -1.3791169659052513,
                0.7399871452965754
            ]
        },
        {
            "positions": [
                0.035026376646169775,
                -1.210433413479319,
                1.0931220661288705,
                1.3786936452252763,
                -1.2982853119960018,
                0.8443087251065461
            ]
        },
        {
            "positions": [
                -0.016295393666419383,
                -1.206374003945662,
                1.1349536740279107,
                1.2782677238081157,
                -1.2174536580867525,
                0.9486303049165168
            ]
        },
        {
            "positions": [
                -0.06761716397900856,
                -1.2023145944120048,
                1.176785281926951,
                1.1778418023909552,
                -1.136622004177503,
                1.0529518847264874
            ]
        },
        {
            "positions": [
                -0.1189389342915977,
                -1.1982551848783476,
                1.2186168898259915,
                1.0774158809737946,
                -1.0557903502682535,
                1.1572734645364582
            ]
        },
        {
            "positions": [
                -0.1702607046041869,
                -1.1941957753446903,
                1.2604484977250316,
                0.976989959556634,
                -0.9749586963590042,
                1.261595044346429
            ]
        },
        {
            "positions": [
                -0.22158247491677607,
                -1.1901363658110333,
                1.302280105624072,
                0.8765640381394735,
                -0.8941270424497548,
                1.3659166241563996
            ]
        },
        {
            "positions": [
                -0.27290424522936524,
                -1.186076956277376,
                1.3441117135231124,
                0.7761381167223128,
                -0.8132953885405053,
                1.4702382039663702
            ]
        },
        {
            "positions": [
                -0.32422601554195435,
                -1.1820175467437188,
                1.3859433214221526,
                0.6757121953051524,
                -0.7324637346312559,
                1.574559783776341
            ]
        },
        {
            "positions": [
                -0.37554778585454357,
                -1.1779581372100616,
                1.427774929321193,
                0.5752862738879917,
                -0.6516320807220065,
                1.6788813635863118
            ]
        },
        {
            "positions": [
                -0.42686955616713274,
                -1.1738987276764046,
                1.4696065372202334,
                0.47486035247083125,
                -0.5708004268127571,
                1.7832029433962824
            ]
        },
        {
            "positions": [
                -0.47819132647972185,
                -1.1698393181427473,
                1.5114381451192735,
                0.37443443105367047,
                -0.4899687729035076,
                1.887524523206253
            ]
        },
        {
            "positions": [
                -0.5295130967923111,
                -1.16577990860909,
                1.553269753018314,
                0.27400850963651013,
                -0.4091371189942583,
                1.9918461030162238
            ]
        },
        {
            "positions": [
                -0.5808348671049002,
                -1.1617204990754328,
                1.5951013609173543,
                0.17358258821934958,
                -0.3283054650850088,
                2.096167682826194
            ]
        },
        {
            "positions": [
                -0.6321566374174894,
                -1.1576610895417758,
                1.6369329688163945,
                0.0731566668021888,
                -0.24747381117575928,
                2.2004892626361654
            ]
        },
        {
            "positions": [
                -0.6834784077300785,
                -1.1536016800081186,
                1.6787645767154349,
                -0.02726925461497176,
                -0.16664215726651,
                2.3048108424461358
            ]
        },
        {
            "positions": [
                -0.7348001780426676,
                -1.1495422704744613,
                1.7205961846144753,
                -0.1276951760321321,
                -0.08581050335726048,
                2.409132422256106
            ]
        },
        {
            "positions": [
                -0.7861219483552568,
                -1.145482860940804,
                1.7624277925135154,
                -0.22812109744929265,
                -0.004978849448011191,
                2.5134540020660774
            ]
        },
        {
            "positions": [
                -0.8374437186678461,
                -1.141423451407147,
                1.8042594004125558,
                -0.32854701886645343,
                0.07585280446123832,
                2.6177755818760478
            ]
        },
        {
            "positions": [
                -0.8887654889804352,
                -1.1373640418734898,
                1.8460910083115962,
                -0.428972940283614,
                0.15668445837048783,
                2.7220971616860186
            ]
        },
        {
            "positions": [
                -0.9400872592930244,
                -1.1333046323398326,
                1.8879226162106364,
                -0.5293988617007743,
                0.23751611227973712,
                2.8264187414959894
            ]
        },
        {
            "positions": [
                -0.9914090296056134,
                -1.1292452228061753,
                1.9297542241096766,
                -0.6298247831179351,
                0.3183477661889864,
                2.9307403213059597
            ]
        },
        {
            "positions": [
                -1.0427307999182025,
                -1.1251858132725183,
                1.9715858320087172,
                -0.7302507045350959,
                0.39917942009823615,
                3.0350619011159305
            ]
        },
        {
            "positions": [
                -1.0940525702307917,
                -1.121126403738861,
                2.0134174399077573,
                -0.8306766259522562,
                0.4800110740074855,
                3.1393834809259014
            ]
        }
    ]
}