{
    "goal": {
        "global_pose": {
            "orientation": {
                "w": 0.7031023502349854,
                "x": -0.7110244035720825,
                "y": 0.007748599164187908,
                "z": 0.005598929710686207
            },
            "position": {
                "x": 0.11585023208521307,
                "y": 0.44412534475326537,
                "z": 0.3711530566215515
            }
        },
        "name": "move_to_auspresseinheit_A"
    },
    "id": "BKPIECE_move_to_auspresseinheit_A_21",
    "joint_names": [
        "shoulder_pan_joint",
        "shoulder_lift_joint",
        "elbow_joint",
        "wrist_1_joint",
        "wrist_2_joint",
        "wrist_3_joint"
    ],
    "metrics": {
        "cart_traj_len": 1.5189154123821729,
        "distance_elbow_joint": 1.77443996914675,
        "distance_shoulder_lift_joint": 0.5294004960186895,
        "distance_shoulder_pan_joint": 1.0429086300863015,
        "distance_wrist_1_joint": 0.8269394845405886,
        "distance_wrist_2_joint": 0.7316644720392335,
        "distance_wrist_3_joint": 3.208177228275677,
        "smoothness": 0.7165532106915744,
        "time": 0.39771974099999996,
        "traj_len": 2.848425930247659,
        "weighted_distance": 4.011045835344993
    },
    "planner": "BKPIECE",
    "start": {
        "state": {
            "elbow_joint": 2.4225746994637096,
            "shoulder_lift_joint": -1.373653595662188,
            "shoulder_pan_joint": -0.3378633848294565,
            "wrist_1_joint": -1.0288595594406726,
            "wrist_2_joint": 1.2330228066703421,
            "wrist_3_joint": 3.189163495502006
        }
    },
    "waypoints": [
        {
            "positions": [
                -0.3378633848294565,
                -1.373653595662188,
                2.4225746994637096,
                -1.0288595594406726,
                1.2330228066703421,
                3.189163495502006
            ]
        },
        {
            "positions": [
                -0.2785437311806418,
                -1.3828049343662552,
                2.3232813998685957,
                -1.014980777855639,
                1.1879762928418967,
                3.0254208369644635
            ]
        },
        {
            "positions": [
                -0.21922407753182704,
                -1.3919562730703223,
                2.2239881002734814,
                -1.0011019962706054,
                1.142929779013451,
                2.861678178426921
            ]
        },
        {
            "positions": [
                -0.15990442388301232,
                -1.4011076117743895,
                2.1246948006783675,
                -0.9872232146855716,
                1.0978832651850055,
                2.697935519889379
            ]
        },
        {
            "positions": [
                -0.09876633391583073,
                -1.422158739008649,
                2.048918884133956,
                -0.960097235361818,
                1.0520229606725302,
                2.5550906720595292
            ]
        },
        {
            "positions": [
                -0.03762824394864914,
                -1.4432098662429087,
                1.9731429675895444,
                -0.9329712560380645,
                1.0061626561600547,
                2.4122458242296796
            ]
        },
        {
            "positions": [
                0.023509846018532454,
                -1.4642609934771684,
                1.897367051045133,
                -0.905845276714311,
                0.9603023516475795,
                2.26940097639983
            ]
        },
        {
            "positions": [
                0.08464793598571405,
                -1.485312120711428,
                1.8215911345007214,
                -0.8787192973905574,
                0.914442047135104,
                2.1265561285699803
            ]
        },
        {
            "positions": [
                0.14578602595289566,
                -1.5063632479456874,
                1.7458152179563098,
                -0.8515933180668038,
                0.8685817426226288,
                1.9837112807401307
            ]
        },
        {
            "positions": [
                0.20692411592007723,
                -1.5274143751799472,
                1.6700393014118984,
                -0.8244673387430503,
                0.8227214381101534,
                1.840866432910281
            ]
        },
        {
            "positions": [
                0.2680622058872588,
                -1.5484655024142069,
                1.594263384867487,
                -0.7973413594192968,
                0.776861133597678,
                1.6980215850804314
            ]
        },
        {
            "positions": [
                0.32920029585444044,
                -1.5695166296484664,
                1.5184874683230754,
                -0.7702153800955432,
                0.7310008290852027,
                1.5551767372505818
            ]
        },
        {
            "positions": [
                0.3952199666822503,
                -1.6219558691737066,
                1.572833335369029,
                -0.6912387845808535,
                0.6873414414273811,
                1.6200386387669274
            ]
        },
        {
            "positions": [
                0.4214728898797256,
                -1.653374405427771,
                1.6712824525142334,
                -0.6393059479992501,
                0.6751012998839232,
                1.7926840590009672
            ]
        },
        {
            "positions": [
                0.44772581307720094,
                -1.6847929416818352,
                1.7697315696594376,
                -0.5873731114176468,
                0.6628611583404653,
                1.9653294792350071
            ]
        },
        {
            "positions": [
                0.47397873627467624,
                -1.7162114779358997,
                1.868180686804642,
                -0.5354402748360434,
                0.6506210167970075,
                2.137974899469047
            ]
        },
        {
            "positions": [
                0.5002316594721515,
                -1.7476300141899639,
                1.9666298039498464,
                -0.48350743825444,
                0.6383808752535495,
                2.310620319703087
            ]
        },
        {
            "positions": [
                0.5264845826696269,
                -1.7790485504440283,
                2.0650789210950506,
                -0.43157460167283657,
                0.6261407337100916,
                2.483265739937127
            ]
        },
        {
            "positions": [
                0.5527375058671022,
                -1.8104670866980925,
                2.163528038240255,
                -0.3796417650912332,
                0.6139005921666337,
                2.6559111601711667
            ]
        },
        {
            "positions": [
                0.5789904290645775,
                -1.841885622952157,
                2.2619771553854595,
                -0.3277089285096298,
                0.6016604506231759,
                2.8285565804052064
            ]
        },
        {
            "positions": [
                0.6210087011286668,
                -1.8622751125283972,
                2.30426483903337,
                -0.36963854637947835,
                0.6350944892871982,
                2.9288267893617492
            ]
        },
        {
            "positions": [
                0.663026973192756,
                -1.8826646021046374,
                2.3465525226812805,
                -0.41156816424932696,
                0.6685285279512206,
                3.029096998318292
            ]
        },
        {
            "positions": [
                0.7050452452568453,
                -1.9030540916808776,
                2.388840206329191,
                -0.4534977821191755,
                0.701962566615243,
                3.129367207274835
            ]
        }
    ]
}