{
    "goal": {
        "global_pose": {
            "orientation": {
                "w": -0.4816463035849501,
                "x": 0.5182115481033762,
                "y": 0.4908360881923453,
                "z": -0.5084816262002911
            },
            "position": {
                "x": -0.8240239810943604,
                "y": -0.300875300988555,
                "z": 0.16403168439865112
            }
        },
        "name": "move_to_storage_C"
    },
    "id": "BKPIECE_move_to_storage_C_10",
    "joint_names": [
        "shoulder_pan_joint",
        "shoulder_lift_joint",
        "elbow_joint",
        "wrist_1_joint",
        "wrist_2_joint",
        "wrist_3_joint"
    ],
    "metrics": {
        "cart_traj_len": 0.5762145945333226,
        "distance_elbow_joint": 0.2586689609785704,
        "distance_shoulder_lift_joint": 0.1880481256921701,
        "distance_shoulder_pan_joint": 0.49511987157068527,
        "distance_wrist_1_joint": 0.08239119943059914,
        "distance_wrist_2_joint": 1.061098590145978,
        "distance_wrist_3_joint": 0.05688815083332166,
        "smoothness": 0.0,
        "time": 0.371388444,
        "traj_len": 1.463630724824853,
        "weighted_distance": 1.8437681497125784
    },
    "planner": "BKPIECE",
    "start": {
        "state": {
            "elbow_joint": 2.0108683149792914,
            "shoulder_lift_joint": -1.1634956873317392,
            "shoulder_pan_joint": -2.4736205022346,
            "wrist_1_joint": -0.8367026793690192,
            "wrist_2_joint": 0.6746043897045053,
            "wrist_3_joint": 3.133522094754363
        }
    },
    "waypoints": [
        {
            "positions": [
                -2.4736205022346,
                -1.1634956873317392,
                2.0108683149792914,
                -0.8367026793690192,
                0.6746043897045053,
                3.133522094754363
            ]
        },
        {
            "positions": [
                -2.5561404808297143,
                -1.1321543330497108,
                1.9677568214828631,
                -0.8229708127972527,
                0.851454154728835,
                3.1430034532265836
            ]
        },
        {
            "positions": [
                -2.6386604594248286,
                -1.1008129787676826,
                1.9246453279864346,
                -0.8092389462254862,
                1.0283039197531645,
                3.1524848116988036
            ]
        },
        {
            "positions": [
                -2.7211804380199425,
                -1.0694716244856541,
                1.881533834490006,
                -0.7955070796537196,
                1.2051536847774944,
                3.161966170171024
            ]
        },
        {
            "positions": [
                -2.8037004166150568,
                -1.038130270203626,
                1.8384223409935778,
                -0.7817752130819531,
                1.3820034498018239,
                3.1714475286432444
            ]
        },
        {
            "positions": [
                -2.886220395210171,
                -1.0067889159215975,
                1.7953108474971495,
                -0.7680433465101866,
                1.5588532148261538,
                3.1809288871154644
            ]
        },
        {
            "positions": [
                -2.9687403738052853,
                -0.9754475616395691,
                1.752199354000721,
                -0.7543114799384201,
                1.7357029798504833,
                3.190410245587685
            ]
        }
    ]
}