{
    "goal": {
        "global_pose": {
            "orientation": {
                "w": 0.7031023480610252,
                "x": -0.7110244013736278,
                "y": 0.0077485991402295624,
                "z": 0.005598929693374583
            },
            "position": {
                "x": -0.8841497679147869,
                "y": 0.44412534475326537,
                "z": 0.3711530566215515
            }
        },
        "name": "move_to_auspresseinheit_D"
    },
    "id": "BKPIECE_move_to_auspresseinheit_D_90",
    "joint_names": [
        "shoulder_pan_joint",
        "shoulder_lift_joint",
        "elbow_joint",
        "wrist_1_joint",
        "wrist_2_joint",
        "wrist_3_joint"
    ],
    "metrics": {
        "cart_traj_len": 0.3435760409038224,
        "distance_elbow_joint": 0.6440441611130956,
        "distance_shoulder_lift_joint": 0.12482688526553165,
        "distance_shoulder_pan_joint": 0.13387625230458183,
        "distance_wrist_1_joint": 0.5370158168288146,
        "distance_wrist_2_joint": 1.448501846278814,
        "distance_wrist_3_joint": 0.0093604496541988,
        "smoothness": 0.0,
        "time": 0.098032055,
        "traj_len": 1.7022412906063102,
        "weighted_distance": 2.2140153508639147
    },
    "planner": "BKPIECE",
    "start": {
        "state": {
            "elbow_joint": -1.8275484843655228,
            "shoulder_lift_joint": -2.1267897864000416,
            "shoulder_pan_joint": -0.035127520176001514,
            "wrist_1_joint": -2.3477863256791385,
            "wrist_2_joint": -1.605890476484521,
            "wrist_3_joint": -3.0880375317375353
        }
    },
    "waypoints": [
        {
            "positions": [
                -0.035127520176001514,
                -2.1267897864000416,
                -1.8275484843655228,
                -2.3477863256791385,
                -1.605890476484521,
                -3.0880375317375353
            ]
        },
        {
            "positions": [
                -0.051862051714074243,
                -2.142393147058233,
                -1.7470429642263858,
                -2.4149133027827405,
                -1.4248277456996692,
                -3.0868674755307604
            ]
        },
        {
            "positions": [
                -0.06859658325214697,
                -2.1579965077164243,
                -1.666537444087249,
                -2.482040279886342,
                -1.2437650149148176,
                -3.0856974193239854
            ]
        },
        {
            "positions": [
                -0.08533111479021971,
                -2.173599868374616,
                -1.586031923948112,
                -2.5491672569899437,
                -1.0627022841299658,
                -3.0845273631172105
            ]
        },
        {
            "positions": [
                -0.10206564632829243,
                -2.1892032290328074,
                -1.5055264038089748,
                -2.616294234093546,
                -0.881639553345114,
                -3.083357306910436
            ]
        },
        {
            "positions": [
                -0.11880017786636515,
                -2.2048065896909987,
                -1.4250208836698381,
                -2.683421211197148,
                -0.7005768225602622,
                -3.082187250703661
            ]
        },
        {
            "positions": [
                -0.1355347094044379,
                -2.2204099503491905,
                -1.344515363530701,
                -2.7505481883007494,
                -0.5195140917754106,
                -3.0810171944968863
            ]
        },
        {
            "positions": [
                -0.15226924094251063,
                -2.236013311007382,
                -1.264009843391564,
                -2.817675165404351,
                -0.33845136099055884,
                -3.0798471382901114
            ]
        },
        {
            "positions": [
                -0.16900377248058335,
                -2.251616671665573,
                -1.1835043232524272,
                -2.884802142507953,
                -0.15738863020570698,
                -3.0786770820833365
            ]
        }
    ]
}