{
    "goal": {
        "global_pose": {
            "orientation": {
                "w": 0.005598929693374612,
                "x": 0.007748599140229565,
                "y": 0.7110244013736278,
                "z": -0.7031023480610252
            },
            "position": {
                "x": -0.8858502320852131,
                "y": -0.7141253447532654,
                "z": 0.3711530566215515
            }
        },
        "name": "move_to_auspresseinheit_C"
    },
    "id": "BKPIECE_move_to_auspresseinheit_C_144",
    "joint_names": [
        "shoulder_pan_joint",
        "shoulder_lift_joint",
        "elbow_joint",
        "wrist_1_joint",
        "wrist_2_joint",
        "wrist_3_joint"
    ],
    "metrics": {
        "cart_traj_len": 0.49363023211643264,
        "distance_elbow_joint": 1.0167536436577176,
        "distance_shoulder_lift_joint": 0.333100922727639,
        "distance_shoulder_pan_joint": 0.2554990141089233,
        "distance_wrist_1_joint": 0.7099599660682946,
        "distance_wrist_2_joint": 1.316943182005991,
        "distance_wrist_3_joint": 0.07258931662605317,
        "smoothness": 9.689219124001365e-16,
        "time": 0.21353126700000002,
        "traj_len": 1.9247976634427366,
        "weighted_distance": 2.4242375763363233
    },
    "planner": "BKPIECE",
    "start": {
        "state": {
            "elbow_joint": 1.7527959577730765,
            "shoulder_lift_joint": -0.9740617694224828,
            "shoulder_pan_joint": -2.967991417825869,
            "wrist_1_joint": -0.7595177689779385,
            "wrist_2_joint": 1.7443932448376545,
            "wrist_3_joint": 3.1991315425061013
        }
    },
    "waypoints": [
        {
            "positions": [
                -2.967991417825869,
                -0.9740617694224828,
                1.7527959577730765,
                -0.7595177689779385,
                1.7443932448376545,
                3.1991315425061013
            ]
        },
        {
            "positions": [
                -2.9424415164149766,
                -0.9407516771497189,
                1.6511205934073048,
                -0.6885217723711091,
                1.6126989266370553,
                3.191872610843496
            ]
        },
        {
            "positions": [
                -2.9168916150040842,
                -0.907441584876955,
                1.549445229041533,
                -0.6175257757642796,
                1.4810046084364563,
                3.1846136791808908
            ]
        },
        {
            "positions": [
                -2.8913417135931923,
                -0.8741314926041911,
                1.4477698646757613,
                -0.5465297791574502,
                1.3493102902358571,
                3.1773547475182853
            ]
        },
        {
            "positions": [
                -2.8657918121823,
                -0.8408214003314272,
                1.3460945003099893,
                -0.4755337825506207,
                1.217615972035258,
                3.1700958158556802
            ]
        },
        {
            "positions": [
                -2.8402419107714074,
                -0.8075113080586633,
                1.2444191359442178,
                -0.40453778594379125,
                1.085921653834659,
                3.1628368841930747
            ]
        },
        {
            "positions": [
                -2.814692009360515,
                -0.7742012157858994,
                1.1427437715784459,
                -0.3335417893369618,
                0.9542273356340599,
                3.1555779525304692
            ]
        },
        {
            "positions": [
                -2.7891421079496226,
                -0.7408911235131355,
                1.0410684072126744,
                -0.26254579273013234,
                0.8225330174334609,
                3.148319020867864
            ]
        },
        {
            "positions": [
                -2.7635922065387306,
                -0.7075810312403716,
                0.9393930428469024,
                -0.1915497961233028,
                0.6908386992328617,
                3.1410600892052587
            ]
        },
        {
            "positions": [
                -2.738042305127838,
                -0.6742709389676076,
                0.8377176784811307,
                -0.12055379951647338,
                0.5591443810322625,
                3.1338011575426536
            ]
        },
        {
            "positions": [
                -2.7124924037169458,
                -0.6409608466948438,
                0.7360423141153589,
                -0.04955780290964392,
                0.4274500628316635,
                3.126542225880048
            ]
        }
    ]
}