{
    "goal": {
        "global_pose": {
            "orientation": {
                "w": 0.7031023502349854,
                "x": -0.7110244035720825,
                "y": 0.007748599164187908,
                "z": 0.005598929710686207
            },
            "position": {
                "x": 0.11585023208521307,
                "y": 0.44412534475326537,
                "z": 0.3711530566215515
            }
        },
        "name": "move_to_auspresseinheit_A"
    },
    "id": "BKPIECE_move_to_auspresseinheit_A_150",
    "joint_names": [
        "shoulder_pan_joint",
        "shoulder_lift_joint",
        "elbow_joint",
        "wrist_1_joint",
        "wrist_2_joint",
        "wrist_3_joint"
    ],
    "metrics": {
        "cart_traj_len": 1.0833188782846919,
        "distance_elbow_joint": 0.941114436840786,
        "distance_shoulder_lift_joint": 2.436559125861004,
        "distance_shoulder_pan_joint": 1.277310047578838,
        "distance_wrist_1_joint": 1.2712874277794741,
        "distance_wrist_2_joint": 1.3453827584744453,
        "distance_wrist_3_joint": 1.4508348224337961,
        "smoothness": 1.0480368110187503,
        "time": 0.23511542000000002,
        "traj_len": 2.953385958348205,
        "weighted_distance": 3.7737022206435227
    },
    "planner": "BKPIECE",
    "start": {
        "state": {
            "elbow_joint": 2.4225746994637096,
            "shoulder_lift_joint": -1.373653595662188,
            "shoulder_pan_joint": -0.3378633848294565,
            "wrist_1_joint": -1.0288595594406726,
            "wrist_2_joint": 1.2330228066703421,
            "wrist_3_joint": 3.189163495502006
        }
    },
    "waypoints": [
        {
            "positions": [
                -0.3378633848294565,
                -1.373653595662188,
                2.4225746994637096,
                -1.0288595594406726,
                1.2330228066703421,
                3.189163495502006
            ]
        },
        {
            "positions": [
                -0.24105613692948963,
                -1.4973830614763006,
                2.4603809593129524,
                -1.0577370983827463,
                1.2674971976168095,
                3.126592891106941
            ]
        },
        {
            "positions": [
                -0.14424888902952276,
                -1.621112527290413,
                2.4981872191621957,
                -1.08661463732482,
                1.3019715885632765,
                3.064022286711876
            ]
        },
        {
            "positions": [
                -0.0474416411295559,
                -1.7448419931045254,
                2.535993479011439,
                -1.1154921762668937,
                1.3364459795097439,
                3.0014516823168114
            ]
        },
        {
            "positions": [
                0.049365606770410964,
                -1.868571458918638,
                2.5737997388606817,
                -1.1443697152089674,
                1.3709203704562112,
                2.9388810779217467
            ]
        },
        {
            "positions": [
                0.14617285467037783,
                -1.9923009247327506,
                2.6116059987099245,
                -1.173247254151041,
                1.4053947614026783,
                2.876310473526682
            ]
        },
        {
            "positions": [
                0.2429801025703447,
                -2.1160303905468627,
                2.6494122585591677,
                -1.2021247930931147,
                1.4398691523491456,
                2.8137398691316173
            ]
        },
        {
            "positions": [
                0.33978735047031156,
                -2.2397598563609753,
                2.687218518408411,
                -1.2310023320351886,
                1.474343543295613,
                2.751169264736552
            ]
        },
        {
            "positions": [
                0.4365945983702784,
                -2.363489322175088,
                2.7250247782576538,
                -1.2598798709772623,
                1.50881793424208,
                2.6885986603414875
            ]
        },
        {
            "positions": [
                0.5334018462702452,
                -2.4872187879892005,
                2.7628310381068966,
                -1.288757409919336,
                1.5432923251885473,
                2.626028055946423
            ]
        },
        {
            "positions": [
                0.6302090941702121,
                -2.610948253803313,
                2.80063729795614,
                -1.3176349488614096,
                1.5777667161350146,
                2.5634574515513577
            ]
        },
        {
            "positions": [
                0.727016342070179,
                -2.7346777196174252,
                2.838443557805383,
                -1.3465124878034833,
                1.6122411070814817,
                2.500886847156293
            ]
        },
        {
            "positions": [
                0.8238235899701458,
                -2.858407185431538,
                2.876249817654626,
                -1.375390026745557,
                1.646715498027949,
                2.4383162427612284
            ]
        },
        {
            "positions": [
                0.8133124015356699,
                -2.7718794094232058,
                2.8319371523228196,
                -1.291321212156958,
                1.5620164010173274,
                2.5019514763696846
            ]
        },
        {
            "positions": [
                0.802801213101194,
                -2.6853516334148733,
                2.787624486991013,
                -1.207252397568359,
                1.4773173040067058,
                2.565586709978141
            ]
        },
        {
            "positions": [
                0.792290024666718,
                -2.598823857406541,
                2.7433118216592067,
                -1.1231835829797596,
                1.392618206996084,
                2.629221943586597
            ]
        },
        {
            "positions": [
                0.7817788362322421,
                -2.512296081398209,
                2.6989991563274005,
                -1.0391147683911606,
                1.3079191099854623,
                2.6928571771950534
            ]
        },
        {
            "positions": [
                0.7712676477977661,
                -2.4257683053898766,
                2.6546864909955943,
                -0.9550459538025615,
                1.2232200129748407,
                2.7564924108035096
            ]
        },
        {
            "positions": [
                0.7607564593632903,
                -2.3392405293815446,
                2.6103738256637876,
                -0.8709771392139625,
                1.1385209159642191,
                2.820127644411966
            ]
        },
        {
            "positions": [
                0.7502452709288143,
                -2.2527127533732125,
                2.5660611603319814,
                -0.7869083246253634,
                1.0538218189535975,
                2.883762878020422
            ]
        },
        {
            "positions": [
                0.7397340824943384,
                -2.16618497736488,
                2.521748495000175,
                -0.7028395100367643,
                0.9691227219429757,
                2.9473981116288783
            ]
        },
        {
            "positions": [
                0.7292228940598624,
                -2.0796572013565475,
                2.4774358296683685,
                -0.6187706954481651,
                0.8844236249323539,
                3.0110333452373346
            ]
        },
        {
            "positions": [
                0.7187117056253866,
                -1.9931294253482157,
                2.4331231643365623,
                -0.5347018808595662,
                0.7997245279217324,
                3.074668578845791
            ]
        },
        {
            "positions": [
                0.7082005171909106,
                -1.9066016493398834,
                2.388810499004756,
                -0.450633066270967,
                0.7150254309111107,
                3.138303812454247
            ]
        }
    ]
}