{
    "goal": {
        "global_pose": {
            "orientation": {
                "w": 0.005598929693374612,
                "x": 0.007748599140229565,
                "y": 0.7110244013736278,
                "z": -0.7031023480610252
            },
            "position": {
                "x": 0.1141497679147869,
                "y": -0.7141253447532654,
                "z": 0.3711530566215515
            }
        },
        "name": "move_to_auspresseinheit_B"
    },
    "id": "BKPIECE_move_to_auspresseinheit_B_61",
    "joint_names": [
        "shoulder_pan_joint",
        "shoulder_lift_joint",
        "elbow_joint",
        "wrist_1_joint",
        "wrist_2_joint",
        "wrist_3_joint"
    ],
    "metrics": {
        "cart_traj_len": 0.5641578304540129,
        "distance_elbow_joint": 0.06366936923643807,
        "distance_shoulder_lift_joint": 0.29567531425584415,
        "distance_shoulder_pan_joint": 0.5774990296847455,
        "distance_wrist_1_joint": 0.33612850934566174,
        "distance_wrist_2_joint": 0.9895289656220794,
        "distance_wrist_3_joint": 4.2640126093562714e-05,
        "smoothness": 2.5376526478085547e-16,
        "time": 0.161454294,
        "traj_len": 1.5041754645887768,
        "weighted_distance": 1.894277324863176
    },
    "planner": "BKPIECE",
    "start": {
        "state": {
            "elbow_joint": 2.0193061681459312,
            "shoulder_lift_joint": -1.1220205130644991,
            "shoulder_pan_joint": -1.0952072088045026,
            "wrist_1_joint": -0.8559671810662515,
            "wrist_2_joint": 0.4759638712940361,
            "wrist_3_joint": 3.159081874192446
        }
    },
    "waypoints": [
        {
            "positions": [
                -1.0952072088045026,
                -1.1220205130644991,
                2.0193061681459312,
                -0.8559671810662515,
                0.4759638712940361,
                3.159081874192446
            ]
        },
        {
            "positions": [
                -1.1914570470852937,
                -1.17129973210714,
                2.0086946066065248,
                -0.7999457628419745,
                0.6408853655643827,
                3.1590889808801284
            ]
        },
        {
            "positions": [
                -1.2877068853660845,
                -1.2205789511497804,
                1.9980830450671185,
                -0.7439243446176975,
                0.8058068598347292,
                3.1590960875678107
            ]
        },
        {
            "positions": [
                -1.3839567236468753,
                -1.2698581701924212,
                1.9874714835277123,
                -0.6879029263934207,
                0.9707283541050757,
                3.1591031942554926
            ]
        },
        {
            "positions": [
                -1.4802065619276663,
                -1.319137389235062,
                1.9768599219883058,
                -0.6318815081691437,
                1.1356498483754223,
                3.159110300943175
            ]
        },
        {
            "positions": [
                -1.5764564002084573,
                -1.3684166082777025,
                1.9662483604488994,
                -0.5758600899448667,
                1.300571342645769,
                3.1591174076308572
            ]
        },
        {
            "positions": [
                -1.6727062384892482,
                -1.4176958273203433,
                1.9556367989094932,
                -0.5198386717205897,
                1.4654928369161155,
                3.1591245143185396
            ]
        }
    ]
}