{
    "goal": {
        "global_pose": {
            "orientation": {
                "w": 0.7047431468963623,
                "x": -0.7094548344612122,
                "y": 0.0024358443915843964,
                "z": -0.0022348060738295317
            },
            "position": {
                "x": 0.6094750761985779,
                "y": 0.3671506643295288,
                "z": 0.19426114857196808
            }
        },
        "name": "move_to_magneteinheit_A"
    },
    "id": "BKPIECE_move_to_magneteinheit_A_71",
    "joint_names": [
        "shoulder_pan_joint",
        "shoulder_lift_joint",
        "elbow_joint",
        "wrist_1_joint",
        "wrist_2_joint",
        "wrist_3_joint"
    ],
    "metrics": {
        "cart_traj_len": 1.5679426875032711,
        "distance_elbow_joint": 3.528960512524052,
        "distance_shoulder_lift_joint": 1.5895211187677727,
        "distance_shoulder_pan_joint": 1.2411198315342513,
        "distance_wrist_1_joint": 4.348898059222299,
        "distance_wrist_2_joint": 2.1384629794443866,
        "distance_wrist_3_joint": 1.6183357234883924,
        "smoothness": 0.42390381586352605,
        "time": 0.272818326,
        "traj_len": 3.803327257150133,
        "weighted_distance": 4.918265010206812
    },
    "planner": "BKPIECE",
    "start": {
        "state": {
            "elbow_joint": -1.5739458827952972,
            "shoulder_lift_joint": 0.006533473998580023,
            "shoulder_pan_joint": -1.1188671628667068,
            "wrist_1_joint": 3.138208179676308,
            "wrist_2_joint": -1.5706037135050406,
            "wrist_3_joint": -2.0226958329764257
        }
    },
    "waypoints": [
        {
            "positions": [
                -1.1188671628667068,
                0.006533473998580023,
                -1.5739458827952972,
                3.138208179676308,
                -1.5706037135050406,
                -2.0226958329764257
            ]
        },
        {
            "positions": [
                -1.0918876074573587,
                -0.03476343635728162,
                -1.4824527036888422,
                3.0139588798928747,
                -1.512497836956748,
                -2.0659422023169536
            ]
        },
        {
            "positions": [
                -1.0649080520480103,
                -0.07606034671314327,
                -1.390959524582387,
                2.889709580109441,
                -1.4543919604084554,
                -2.1091885716574814
            ]
        },
        {
            "positions": [
                -1.0379284966386622,
                -0.1173572570690049,
                -1.2994663454759319,
                2.765460280326007,
                -1.396286083860163,
                -2.1524349409980092
            ]
        },
        {
            "positions": [
                -1.0109489412293138,
                -0.15865416742486654,
                -1.2079731663694768,
                2.6412109805425734,
                -1.3381802073118705,
                -2.195681310338537
            ]
        },
        {
            "positions": [
                -0.9839693858199655,
                -0.19995107778072818,
                -1.1164799872630218,
                2.51696168075914,
                -1.2800743307635778,
                -2.238927679679065
            ]
        },
        {
            "positions": [
                -0.9569898304106172,
                -0.24124798813658982,
                -1.0249868081565667,
                2.392712380975706,
                -1.2219684542152853,
                -2.2821740490195928
            ]
        },
        {
            "positions": [
                -0.9300102750012691,
                -0.2825448984924515,
                -0.9334936290501116,
                2.268463081192272,
                -1.1638625776669929,
                -2.325420418360121
            ]
        },
        {
            "positions": [
                -0.9030307195919207,
                -0.32384180884831315,
                -0.8420004499436564,
                2.1442137814088387,
                -1.1057567011187002,
                -2.368666787700649
            ]
        },
        {
            "positions": [
                -0.8760511641825726,
                -0.36513871920417473,
                -0.7505072708372015,
                2.019964481625405,
                -1.0476508245704077,
                -2.4119131570411767
            ]
        },
        {
            "positions": [
                -0.8490716087732242,
                -0.4064356295600364,
                -0.6590140917307463,
                1.8957151818419713,
                -0.9895449480221151,
                -2.4551595263817045
            ]
        },
        {
            "positions": [
                -0.822092053363876,
                -0.44773253991589806,
                -0.5675209126242913,
                1.7714658820585378,
                -0.9314390714738227,
                -2.4984058957222324
            ]
        },
        {
            "positions": [
                -0.7951124979545277,
                -0.4890294502717597,
                -0.476027733517836,
                1.647216582275104,
                -0.8733331949255301,
                -2.54165226506276
            ]
        },
        {
            "positions": [
                -0.7681329425451795,
                -0.5303263606276213,
                -0.38453455441138096,
                1.5229672824916705,
                -0.8152273183772376,
                -2.584898634403288
            ]
        },
        {
            "positions": [
                -0.7411533871358312,
                -0.571623270983483,
                -0.2930413753049259,
                1.3987179827082366,
                -0.7571214418289449,
                -2.628145003743816
            ]
        },
        {
            "positions": [
                -0.714173831726483,
                -0.6129201813393446,
                -0.20154819619847086,
                1.274468682924803,
                -0.6990155652806525,
                -2.6713913730843437
            ]
        },
        {
            "positions": [
                -0.6871942763171347,
                -0.6542170916952063,
                -0.1100550170920156,
                1.1502193831413692,
                -0.6409096887323599,
                -2.7146377424248715
            ]
        },
        {
            "positions": [
                -0.6602147209077864,
                -0.6955140020510678,
                -0.01856183798556077,
                1.0259700833579357,
                -0.5828038121840674,
                -2.7578841117653994
            ]
        },
        {
            "positions": [
                -0.6332351654984383,
                -0.7368109124069294,
                0.07293134112089428,
                0.9017207835745022,
                -0.5246979356357748,
                -2.801130481105927
            ]
        },
        {
            "positions": [
                -0.6062556100890899,
                -0.7781078227627912,
                0.16442452022734977,
                0.7774714837910679,
                -0.46659205908748214,
                -2.844376850446455
            ]
        },
        {
            "positions": [
                -0.5792760546797416,
                -0.8194047331186528,
                0.2559176993338046,
                0.6532221840076344,
                -0.40848618253918967,
                -2.887623219786983
            ]
        },
        {
            "positions": [
                -0.5522964992703934,
                -0.8607016434745144,
                0.34741087844025964,
                0.528972884224201,
                -0.3503803059908972,
                -2.9308695891275107
            ]
        },
        {
            "positions": [
                -0.5253169438610452,
                -0.9019985538303761,
                0.4389040575467147,
                0.4047235844407675,
                -0.29227442944260473,
                -2.9741159584680386
            ]
        },
        {
            "positions": [
                -0.49833738845169684,
                -0.9432954641862378,
                0.53039723665317,
                0.28047428465733315,
                -0.23416855289431204,
                -3.0173623278085664
            ]
        },
        {
            "positions": [
                -0.4713578330423486,
                -0.9845923745420994,
                0.6218904157596252,
                0.15622498487389969,
                -0.17606267634601958,
                -3.0606086971490942
            ]
        },
        {
            "positions": [
                -0.4443782776330004,
                -1.025889284897961,
                0.71338359486608,
                0.03197568509046622,
                -0.11795679979772711,
                -3.103855066489622
            ]
        },
        {
            "positions": [
                -0.41739872222365215,
                -1.0671861952538226,
                0.8048767739725353,
                -0.09227361469296724,
                -0.05985092324943464,
                -3.14710143583015
            ]
        },
        {
            "positions": [
                -0.3904191668143038,
                -1.1084831056096844,
                0.8963699530789906,
                -0.2165229144764016,
                -0.0017450467011419502,
                -3.190347805170678
            ]
        },
        {
            "positions": [
                -0.3634396114049556,
                -1.149780015965546,
                0.9878631321854454,
                -0.34077221425983506,
                0.05636082984715074,
                -3.233594174511206
            ]
        },
        {
            "positions": [
                -0.33646005599560735,
                -1.1910769263214076,
                1.0793563112919007,
                -0.4650215140432685,
                0.11446670639544321,
                -3.2768405438517334
            ]
        },
        {
            "positions": [
                -0.3094805005862591,
                -1.2323738366772692,
                1.1708494903983555,
                -0.589270813826702,
                0.17257258294373568,
                -3.3200869131922612
            ]
        },
        {
            "positions": [
                -0.2825009451769107,
                -1.273670747033131,
                1.2623426695048108,
                -0.7135201136101363,
                0.23067845949202836,
                -3.3633332825327895
            ]
        },
        {
            "positions": [
                -0.25552138976756256,
                -1.3149676573889926,
                1.353835848611266,
                -0.8377694133935698,
                0.28878433604032083,
                -3.4065796518733173
            ]
        },
        {
            "positions": [
                -0.2285418343582143,
                -1.3562645677448542,
                1.4453290277177206,
                -0.962018713177003,
                0.3468902125886133,
                -3.449826021213845
            ]
        },
        {
            "positions": [
                -0.15838293375306253,
                -1.3109199523399864,
                1.5472661481199272,
                -0.9122844799032057,
                0.30269640191846664,
                -3.4115849141636505
            ]
        },
        {
            "positions": [
                -0.08822403314791077,
                -1.2655753369351188,
                1.649203268522134,
                -0.8625502466294084,
                0.25850259124832003,
                -3.373343807113456
            ]
        },
        {
            "positions": [
                -0.018065132542759044,
                -1.220230721530251,
                1.7511403889243407,
                -0.812816013355611,
                0.2143087805781734,
                -3.3351027000632616
            ]
        },
        {
            "positions": [
                0.05209376806239274,
                -1.1748861061253835,
                1.8530775093265475,
                -0.7630817800818136,
                0.17011496990802674,
                -3.296861593013067
            ]
        },
        {
            "positions": [
                0.12225266866754446,
                -1.1295414907205157,
                1.955014629728754,
                -0.7133475468080163,
                0.1259211592378801,
                -3.2586204859628722
            ]
        }
    ]
}