{
    "goal": {
        "global_pose": {
            "orientation": {
                "w": 0.005598929693374612,
                "x": 0.007748599140229565,
                "y": 0.7110244013736278,
                "z": -0.7031023480610252
            },
            "position": {
                "x": 0.1141497679147869,
                "y": -0.7141253447532654,
                "z": 0.3711530566215515
            }
        },
        "name": "move_to_auspresseinheit_B"
    },
    "id": "BKPIECE_move_to_auspresseinheit_B_71",
    "joint_names": [
        "shoulder_pan_joint",
        "shoulder_lift_joint",
        "elbow_joint",
        "wrist_1_joint",
        "wrist_2_joint",
        "wrist_3_joint"
    ],
    "metrics": {
        "cart_traj_len": 0.5648381546559694,
        "distance_elbow_joint": 0.0626614449284737,
        "distance_shoulder_lift_joint": 0.2955083370420497,
        "distance_shoulder_pan_joint": 0.5775972326895371,
        "distance_wrist_1_joint": 0.3270730762891211,
        "distance_wrist_2_joint": 0.9906693041244106,
        "distance_wrist_3_joint": 0.005522062380396875,
        "smoothness": 5.075305295617109e-16,
        "time": 0.27243051900000004,
        "traj_len": 1.5030074708576764,
        "weighted_distance": 1.8941536269870811
    },
    "planner": "BKPIECE",
    "start": {
        "state": {
            "elbow_joint": 2.0193061681459312,
            "shoulder_lift_joint": -1.1220205130644991,
            "shoulder_pan_joint": -1.0952072088045026,
            "wrist_1_joint": -0.8559671810662515,
            "wrist_2_joint": 0.4759638712940361,
            "wrist_3_joint": 3.159081874192446
        }
    },
    "waypoints": [
        {
            "positions": [
                -1.0952072088045026,
                -1.1220205130644991,
                2.0193061681459312,
                -0.8559671810662515,
                0.4759638712940361,
                3.159081874192446
            ]
        },
        {
            "positions": [
                -1.1914734142527588,
                -1.1712719025715075,
                2.0088625939911857,
                -0.8014550016847313,
                0.6410754219814379,
                3.15816153046238
            ]
        },
        {
            "positions": [
                -1.287739619701015,
                -1.2205232920785156,
                1.99841901983644,
                -0.7469428223032111,
                0.8061869726688395,
                3.1572411867323136
            ]
        },
        {
            "positions": [
                -1.3840058251492713,
                -1.269774681585524,
                1.9879754456816943,
                -0.6924306429216909,
                0.9712985233562414,
                3.1563208430022476
            ]
        },
        {
            "positions": [
                -1.4802720305975274,
                -1.3190260710925323,
                1.9775318715269488,
                -0.6379184635401708,
                1.1364100740436431,
                3.1554004992721816
            ]
        },
        {
            "positions": [
                -1.5765382360457836,
                -1.3682774605995405,
                1.9670882973722033,
                -0.5834062841586505,
                1.301521624731045,
                3.154480155542115
            ]
        },
        {
            "positions": [
                -1.6728044414940397,
                -1.4175288501065488,
                1.9566447232174575,
                -0.5288941047771304,
                1.4666331754184467,
                3.153559811812049
            ]
        }
    ]
}