{
    "goal": {
        "global_pose": {
            "orientation": {
                "w": 0.005598929693374612,
                "x": 0.007748599140229565,
                "y": 0.7110244013736278,
                "z": -0.7031023480610252
            },
            "position": {
                "x": 0.1141497679147869,
                "y": -0.7141253447532654,
                "z": 0.3711530566215515
            }
        },
        "name": "move_to_auspresseinheit_B"
    },
    "id": "BKPIECE_move_to_auspresseinheit_B_106",
    "joint_names": [
        "shoulder_pan_joint",
        "shoulder_lift_joint",
        "elbow_joint",
        "wrist_1_joint",
        "wrist_2_joint",
        "wrist_3_joint"
    ],
    "metrics": {
        "cart_traj_len": 0.565272442672999,
        "distance_elbow_joint": 0.06670178405130356,
        "distance_shoulder_lift_joint": 0.2940471341862114,
        "distance_shoulder_pan_joint": 0.576240029044647,
        "distance_wrist_1_joint": 0.3401696944510003,
        "distance_wrist_2_joint": 1.0003325484993009,
        "distance_wrist_3_joint": 0.006632805361021177,
        "smoothness": 0.0,
        "time": 0.20189036,
        "traj_len": 1.5113318615027886,
        "weighted_distance": 1.9073258372039708
    },
    "planner": "BKPIECE",
    "start": {
        "state": {
            "elbow_joint": 2.0193061681459312,
            "shoulder_lift_joint": -1.1220205130644991,
            "shoulder_pan_joint": -1.0952072088045026,
            "wrist_1_joint": -0.8559671810662515,
            "wrist_2_joint": 0.4759638712940361,
            "wrist_3_joint": 3.159081874192446
        }
    },
    "waypoints": [
        {
            "positions": [
                -1.0952072088045026,
                -1.1220205130644991,
                2.0193061681459312,
                -0.8559671810662515,
                0.4759638712940361,
                3.159081874192446
            ]
        },
        {
            "positions": [
                -1.1912472136452772,
                -1.171028368762201,
                2.0081892041373806,
                -0.7992722319910848,
                0.6426859627105863,
                3.157976406632276
            ]
        },
        {
            "positions": [
                -1.2872872184860515,
                -1.220036224459903,
                1.9970722401288301,
                -0.7425772829159181,
                0.8094080541271365,
                3.1568709390721055
            ]
        },
        {
            "positions": [
                -1.3833272233268261,
                -1.2690440801576048,
                1.9859552761202794,
                -0.6858823338407514,
                0.9761301455436866,
                3.1557654715119354
            ]
        },
        {
            "positions": [
                -1.4793672281676007,
                -1.3180519358553067,
                1.9748383121117288,
                -0.6291873847655847,
                1.1428522369602367,
                3.1546600039517654
            ]
        },
        {
            "positions": [
                -1.575407233008375,
                -1.3670597915530087,
                1.9637213481031783,
                -0.5724924356904179,
                1.309574328376787,
                3.153554536391595
            ]
        },
        {
            "positions": [
                -1.6714472378491496,
                -1.4160676472507105,
                1.9526043840946277,
                -0.5157974866152512,
                1.476296419793337,
                3.152449068831425
            ]
        }
    ]
}