{
    "goal": {
        "global_pose": {
            "orientation": {
                "w": -0.4816463035849501,
                "x": 0.5182115481033762,
                "y": 0.4908360881923453,
                "z": -0.5084816262002911
            },
            "position": {
                "x": -0.8240239810943604,
                "y": -0.300875300988555,
                "z": 0.16403168439865112
            }
        },
        "name": "move_to_storage_C"
    },
    "id": "BKPIECE_move_to_storage_C_90",
    "joint_names": [
        "shoulder_pan_joint",
        "shoulder_lift_joint",
        "elbow_joint",
        "wrist_1_joint",
        "wrist_2_joint",
        "wrist_3_joint"
    ],
    "metrics": {
        "cart_traj_len": 0.5760068762767485,
        "distance_elbow_joint": 0.25557294310805445,
        "distance_shoulder_lift_joint": 0.18909172434163324,
        "distance_shoulder_pan_joint": 0.4944482681230111,
        "distance_wrist_1_joint": 0.0683203642608523,
        "distance_wrist_2_joint": 1.0636395342786005,
        "distance_wrist_3_joint": 0.05775357130297554,
        "smoothness": 0.0,
        "time": 0.325520224,
        "traj_len": 1.4590498296546033,
        "weighted_distance": 1.8374693049301616
    },
    "planner": "BKPIECE",
    "start": {
        "state": {
            "elbow_joint": 2.0108683149792914,
            "shoulder_lift_joint": -1.1634956873317392,
            "shoulder_pan_joint": -2.4736205022346,
            "wrist_1_joint": -0.8367026793690192,
            "wrist_2_joint": 0.6746043897045053,
            "wrist_3_joint": 3.133522094754363
        }
    },
    "waypoints": [
        {
            "positions": [
                -2.4736205022346,
                -1.1634956873317392,
                2.0108683149792914,
                -0.8367026793690192,
                0.6746043897045053,
                3.133522094754363
            ]
        },
        {
            "positions": [
                -2.5560285469217687,
                -1.131980399941467,
                1.9682728244612824,
                -0.8253159519922105,
                0.8518776454176054,
                3.1431476899715256
            ]
        },
        {
            "positions": [
                -2.638436591608937,
                -1.1004651125511948,
                1.9256773339432733,
                -0.8139292246154017,
                1.0291509011307054,
                3.1527732851886885
            ]
        },
        {
            "positions": [
                -2.7208446362961056,
                -1.0689498251609226,
                1.883081843425264,
                -0.8025424972385931,
                1.2064241568438057,
                3.162398880405851
            ]
        },
        {
            "positions": [
                -2.8032526809832743,
                -1.0374345377706504,
                1.840486352907255,
                -0.7911557698617844,
                1.3836974125569057,
                3.1720244756230134
            ]
        },
        {
            "positions": [
                -2.8856607256704425,
                -1.0059192503803782,
                1.797890862389246,
                -0.7797690424849756,
                1.5609706682700057,
                3.1816500708401763
            ]
        },
        {
            "positions": [
                -2.968068770357611,
                -0.974403962990106,
                1.755295371871237,
                -0.7683823151081669,
                1.7382439239831058,
                3.1912756660573387
            ]
        }
    ]
}