{
    "goal": {
        "global_pose": {
            "orientation": {
                "w": -0.4816463035849501,
                "x": 0.5182115481033762,
                "y": 0.4908360881923453,
                "z": -0.5084816262002911
            },
            "position": {
                "x": -0.8240239810943604,
                "y": 0.19912469901144506,
                "z": 0.16403168439865112
            }
        },
        "name": "move_to_storage_D"
    },
    "id": "BKPIECE_move_to_storage_D_74",
    "joint_names": [
        "shoulder_pan_joint",
        "shoulder_lift_joint",
        "elbow_joint",
        "wrist_1_joint",
        "wrist_2_joint",
        "wrist_3_joint"
    ],
    "metrics": {
        "cart_traj_len": 5.624077578693359,
        "distance_elbow_joint": 3.7268774284244484,
        "distance_shoulder_lift_joint": 3.5181404342954354,
        "distance_shoulder_pan_joint": 5.502710045706462,
        "distance_wrist_1_joint": 3.822813716291142,
        "distance_wrist_2_joint": 6.505664700639482,
        "distance_wrist_3_joint": 7.912118107473638,
        "smoothness": 0.5989046291773411,
        "time": 0.264703829,
        "traj_len": 5.566715767203371,
        "weighted_distance": 7.559169204661877
    },
    "planner": "BKPIECE",
    "start": {
        "state": {
            "elbow_joint": -2.384821990628643,
            "shoulder_lift_joint": -2.278805467437664,
            "shoulder_pan_joint": -0.18546946439364564,
            "wrist_1_joint": 1.4845938187801415,
            "wrist_2_joint": 0.178987772454074,
            "wrist_3_joint": 0.03710569632802521
        }
    },
    "waypoints": [
        {
            "positions": [
                -0.18546946439364564,
                -2.278805467437664,
                -2.384821990628643,
                1.4845938187801415,
                0.178987772454074,
                0.03710569632802521
            ]
        },
        {
            "positions": [
                -0.22853846492898397,
                -2.267878208221899,
                -2.461060909576406,
                1.397963824989727,
                0.11372440543745006,
                -0.052221436185877546
            ]
        },
        {
            "positions": [
                -0.2716074654643223,
                -2.2569509490061344,
                -2.5372998285241692,
                1.3113338311993128,
                0.048461038420826136,
                -0.1415485686997803
            ]
        },
        {
            "positions": [
                -0.31467646599966065,
                -2.24602368979037,
                -2.6135387474719325,
                1.2247038374088985,
                -0.016802328595797805,
                -0.2308757012136831
            ]
        },
        {
            "positions": [
                -0.35774546653499895,
                -2.235096430574605,
                -2.6897776664196953,
                1.138073843618484,
                -0.08206569561242172,
                -0.32020283372758584
            ]
        },
        {
            "positions": [
                -0.4008144670703373,
                -2.22416917135884,
                -2.766016585367458,
                1.0514438498280696,
                -0.14732906262904566,
                -0.40952996624148863
            ]
        },
        {
            "positions": [
                -0.44388346760567565,
                -2.2132419121430753,
                -2.8422555043152213,
                0.9648138560376553,
                -0.2125924296456696,
                -0.4988570987553914
            ]
        },
        {
            "positions": [
                -0.36074010256343847,
                -2.1612041373901314,
                -2.779269778682328,
                0.9146034476258036,
                -0.14313015094708004,
                -0.42839988239951043
            ]
        },
        {
            "positions": [
                -0.27759673752120134,
                -2.109166362637188,
                -2.7162840530494345,
                0.8643930392139518,
                -0.07366787224849047,
                -0.35794266604362945
            ]
        },
        {
            "positions": [
                -0.1944533724789642,
                -2.057128587884244,
                -2.6532983274165414,
                0.8141826308021001,
                -0.004205593549900882,
                -0.2874854496877484
            ]
        },
        {
            "positions": [
                -0.11131000743672703,
                -2.0050908131313006,
                -2.5903126017836478,
                0.7639722223902484,
                0.06525668514868865,
                -0.21702823333186744
            ]
        },
        {
            "positions": [
                -0.028166642394489905,
                -1.9530530383783566,
                -2.5273268761507546,
                0.7137618139783967,
                0.13471896384727827,
                -0.14657101697598646
            ]
        },
        {
            "positions": [
                0.05497672264774728,
                -1.901015263625413,
                -2.4643411505178614,
                0.6635514055665449,
                0.20418124254586784,
                -0.07611380062010542
            ]
        },
        {
            "positions": [
                0.1381200876899844,
                -1.8489774888724693,
                -2.401355424884968,
                0.6133409971546933,
                0.27364352124445734,
                -0.005656584264224496
            ]
        },
        {
            "positions": [
                0.2212634527322216,
                -1.7969397141195254,
                -2.3383696992520746,
                0.5631305887428415,
                0.3431057999430469,
                0.06480063209165654
            ]
        },
        {
            "positions": [
                0.30440681777445866,
                -1.7449019393665819,
                -2.275383973619181,
                0.5129201803309897,
                0.4125680786416366,
                0.13525784844753752
            ]
        },
        {
            "positions": [
                0.38755018281669584,
                -1.692864164613638,
                -2.212398247986288,
                0.462709771919138,
                0.48203035734022615,
                0.2057150648034185
            ]
        },
        {
            "positions": [
                0.470693547858933,
                -1.6408263898606943,
                -2.149412522353394,
                0.4124993635072862,
                0.5514926360388157,
                0.2761722811592996
            ]
        },
        {
            "positions": [
                0.5538369129011702,
                -1.5887886151077506,
                -2.086426796720501,
                0.36228895509543446,
                0.6209549147374053,
                0.3466294975151806
            ]
        },
        {
            "positions": [
                0.6369802779434072,
                -1.536750840354807,
                -2.023441071087608,
                0.3120785466835828,
                0.6904171934359947,
                0.41708671387106144
            ]
        },
        {
            "positions": [
                0.7201236429856445,
                -1.4847130656018632,
                -1.9604553454547142,
                0.26186813827173117,
                0.7598794721345843,
                0.4875439302269424
            ]
        },
        {
            "positions": [
                0.8032670080278815,
                -1.4326752908489193,
                -1.897469619821821,
                0.2116577298598794,
                0.829341750833174,
                0.5580011465828235
            ]
        },
        {
            "positions": [
                0.8864103730701188,
                -1.3806375160959756,
                -1.8344838941889277,
                0.16144732144802765,
                0.8988040295317634,
                0.6284583629387045
            ]
        },
        {
            "positions": [
                0.9695537381123559,
                -1.328599741343032,
                -1.7714981685560343,
                0.11123691303617589,
                0.9682663082303531,
                0.6989155792945855
            ]
        },
        {
            "positions": [
                1.052697103154593,
                -1.2765619665900882,
                -1.7085124429231409,
                0.06102650462432413,
                1.0377285869289428,
                0.7693727956504665
            ]
        },
        {
            "positions": [
                1.1358404681968302,
                -1.2245241918371446,
                -1.6455267172902475,
                0.01081609621247237,
                1.1071908656275322,
                0.8398300120063474
            ]
        },
        {
            "positions": [
                1.2189838332390672,
                -1.1724864170842006,
                -1.582540991657354,
                -0.03939431219937939,
                1.176653144326122,
                0.9102872283622284
            ]
        },
        {
            "positions": [
                1.3021271982813047,
                -1.120448642331257,
                -1.5195552660244607,
                -0.08960472061123115,
                1.2461154230247113,
                0.9807444447181096
            ]
        },
        {
            "positions": [
                1.3852705633235418,
                -1.0684108675783133,
                -1.4565695403915675,
                -0.1398151290230829,
                1.315577701723301,
                1.0512016610739905
            ]
        },
        {
            "positions": [
                1.4684139283657789,
                -1.0163730928253696,
                -1.393583814758674,
                -0.19002553743493467,
                1.3850399804218907,
                1.1216588774298715
            ]
        },
        {
            "positions": [
                1.551557293408016,
                -0.9643353180724257,
                -1.3305980891257807,
                -0.24023594584678643,
                1.4545022591204801,
                1.1921160937857525
            ]
        },
        {
            "positions": [
                1.6347006584502535,
                -0.912297543319482,
                -1.2676123634928873,
                -0.29044635425863796,
                1.5239645378190698,
                1.2625733101416334
            ]
        },
        {
            "positions": [
                1.71784402349249,
                -0.8602597685665385,
                -1.2046266378599941,
                -0.3406567626704897,
                1.593426816517659,
                1.3330305264975144
            ]
        },
        {
            "positions": [
                1.8009873885347272,
                -0.8082219938135948,
                -1.1416409122271007,
                -0.39086717108234126,
                1.6628890952162487,
                1.4034877428533954
            ]
        },
        {
            "positions": [
                1.8841307535769647,
                -0.7561842190606509,
                -1.0786551865942073,
                -0.441077579494193,
                1.7323513739148382,
                1.4739449592092764
            ]
        },
        {
            "positions": [
                1.9672741186192018,
                -0.7041464443077072,
                -1.015669460961314,
                -0.4912879879060448,
                1.8018136526134279,
                1.5444021755651574
            ]
        },
        {
            "positions": [
                2.050417483661439,
                -0.6521086695547635,
                -0.9526837353284208,
                -0.5414983963178965,
                1.8712759313120175,
                1.6148593919210383
            ]
        },
        {
            "positions": [
                2.133560848703676,
                -0.6000708948018199,
                -0.8896980096955274,
                -0.5917088047297483,
                1.9407382100106072,
                1.6853166082769193
            ]
        },
        {
            "positions": [
                2.2167042137459134,
                -0.5480331200488759,
                -0.826712284062634,
                -0.6419192131416,
                2.0102004887091964,
                1.7557738246328003
            ]
        },
        {
            "positions": [
                2.2998475787881505,
                -0.49599534529593226,
                -0.7637265584297404,
                -0.6921296215534518,
                2.079662767407786,
                1.8262310409886813
            ]
        },
        {
            "positions": [
                2.3829909438303876,
                -0.44395757054298857,
                -0.7007408327968472,
                -0.7423400299653037,
                2.149125046106376,
                1.8966882573445623
            ]
        },
        {
            "positions": [
                2.3225554030539284,
                -0.48603988397800757,
                -0.7289390638773345,
                -0.782237026653946,
                2.0553158705366834,
                1.7721730084373055
            ]
        },
        {
            "positions": [
                2.2621198622774688,
                -0.5281221974130266,
                -0.757137294957822,
                -0.8221340233425884,
                1.9615066949669913,
                1.6476577595300488
            ]
        },
        {
            "positions": [
                2.2016843215010096,
                -0.5702045108480456,
                -0.7853355260383094,
                -0.8620310200312308,
                1.867697519397299,
                1.523142510622792
            ]
        },
        {
            "positions": [
                2.1412487807245504,
                -0.6122868242830646,
                -0.8135337571187968,
                -0.9019280167198732,
                1.773888343827607,
                1.3986272617155353
            ]
        },
        {
            "positions": [
                2.0808132399480908,
                -0.6543691377180836,
                -0.8417319881992842,
                -0.9418250134085155,
                1.6800791682579148,
                1.2741120128082786
            ]
        },
        {
            "positions": [
                2.0203776991716316,
                -0.6964514511531026,
                -0.8699302192797717,
                -0.9817220100971579,
                1.5862699926882224,
                1.1495967639010218
            ]
        },
        {
            "positions": [
                1.9599421583951722,
                -0.7385337645881216,
                -0.898128450360259,
                -1.0216190067858002,
                1.4924608171185303,
                1.025081514993765
            ]
        },
        {
            "positions": [
                1.8995066176187128,
                -0.7806160780231406,
                -0.9263266814407465,
                -1.0615160034744426,
                1.3986516415488381,
                0.9005662660865081
            ]
        },
        {
            "positions": [
                1.8390710768422536,
                -0.8226983914581596,
                -0.9545249125212338,
                -1.101413000163085,
                1.3048424659791458,
                0.7760510171792514
            ]
        },
        {
            "positions": [
                1.7786355360657942,
                -0.8647807048931786,
                -0.9827231436017212,
                -1.1413099968517275,
                1.2110332904094536,
                0.6515357682719947
            ]
        },
        {
            "positions": [
                1.7181999952893348,
                -0.9068630183281976,
                -1.0109213746822086,
                -1.1812069935403697,
                1.1172241148397613,
                0.5270205193647377
            ]
        },
        {
            "positions": [
                1.6577644545128756,
                -0.9489453317632166,
                -1.0391196057626961,
                -1.2211039902290122,
                1.0234149392700693,
                0.4025052704574812
            ]
        },
        {
            "positions": [
                1.5973289137364162,
                -0.9910276451982356,
                -1.0673178368431835,
                -1.2610009869176544,
                0.929605763700377,
                0.27799002155022423
            ]
        },
        {
            "positions": [
                1.5368933729599568,
                -1.0331099586332546,
                -1.0955160679236708,
                -1.3008979836062968,
                0.8357965881306848,
                0.15347477264296772
            ]
        },
        {
            "positions": [
                1.4764578321834976,
                -1.0751922720682736,
                -1.1237142990041584,
                -1.3407949802949393,
                0.7419874125609924,
                0.028959523735710757
            ]
        },
        {
            "positions": [
                1.416022291407038,
                -1.1172745855032926,
                -1.1519125300846458,
                -1.3806919769835817,
                0.6481782369913003,
                -0.09555572517154598
            ]
        },
        {
            "positions": [
                1.3555867506305788,
                -1.1593568989383116,
                -1.1801107611651331,
                -1.4205889736722241,
                0.5543690614216081,
                -0.22007097407880272
            ]
        },
        {
            "positions": [
                1.2951512098541194,
                -1.2014392123733306,
                -1.2083089922456205,
                -1.4604859703608664,
                0.46055988585191576,
                -0.34458622298605945
            ]
        },
        {
            "positions": [
                1.2347156690776602,
                -1.2435215258083496,
                -1.2365072233261079,
                -1.5003829670495086,
                0.36675071028222384,
                -0.4691014718933162
            ]
        },
        {
            "positions": [
                1.1742801283012008,
                -1.2856038392433686,
                -1.2647054544065952,
                -1.540279963738151,
                0.27294153471253146,
                -0.5936167208005729
            ]
        },
        {
            "positions": [
                1.1138445875247414,
                -1.3276861526783876,
                -1.2929036854870828,
                -1.5801769604267935,
                0.1791323591428391,
                -0.7181319697078297
            ]
        },
        {
            "positions": [
                1.053409046748282,
                -1.3697684661134066,
                -1.3211019165675701,
                -1.620073957115436,
                0.08532318357314672,
                -0.8426472186150868
            ]
        },
        {
            "positions": [
                0.9929735059718228,
                -1.4118507795484256,
                -1.3493001476480575,
                -1.6599709538040783,
                -0.008485991996545206,
                -0.9671624675223431
            ]
        },
        {
            "positions": [
                0.9325379651953634,
                -1.4539330929834446,
                -1.377498378728545,
                -1.6998679504927205,
                -0.10229516756623713,
                -1.0916777164295999
            ]
        },
        {
            "positions": [
                0.872102424418904,
                -1.4960154064184636,
                -1.4056966098090324,
                -1.739764947181363,
                -0.1961043431359295,
                -1.2161929653368566
            ]
        },
        {
            "positions": [
                0.8116668836424448,
                -1.5380977198534826,
                -1.4338948408895198,
                -1.7796619438700052,
                -0.2899135187056219,
                -1.3407082142441138
            ]
        },
        {
            "positions": [
                0.7512313428659854,
                -1.5801800332885017,
                -1.4620930719700072,
                -1.8195589405586476,
                -0.38372269427531425,
                -1.4652234631513705
            ]
        },
        {
            "positions": [
                0.6907958020895262,
                -1.6222623467235207,
                -1.4902913030504945,
                -1.85945593724729,
                -0.4775318698450062,
                -1.5897387120586268
            ]
        },
        {
            "positions": [
                0.6303602613130668,
                -1.6643446601585397,
                -1.5184895341309819,
                -1.8993529339359325,
                -0.5713410454146985,
                -1.7142539609658836
            ]
        },
        {
            "positions": [
                0.5699247205366074,
                -1.7064269735935587,
                -1.5466877652114694,
                -1.939249930624575,
                -0.6651502209843909,
                -1.8387692098731407
            ]
        },
        {
            "positions": [
                0.509489179760148,
                -1.7485092870285777,
                -1.5748859962919568,
                -1.9791469273132174,
                -0.7589593965540828,
                -1.9632844587803975
            ]
        },
        {
            "positions": [
                0.44905363898368855,
                -1.7905916004635967,
                -1.6030842273724444,
                -2.01904392400186,
                -0.8527685721237752,
                -2.087799707687654
            ]
        },
        {
            "positions": [
                0.38861809820722937,
                -1.8326739138986157,
                -1.6312824584529315,
                -2.058940920690502,
                -0.9465777476934671,
                -2.2123149565949105
            ]
        },
        {
            "positions": [
                0.32818255743076996,
                -1.8747562273336347,
                -1.659480689533419,
                -2.0988379173791443,
                -1.0403869232631595,
                -2.3368302055021677
            ]
        },
        {
            "positions": [
                0.2677470166543108,
                -1.9168385407686537,
                -1.6876789206139065,
                -2.1387349140677867,
                -1.1341960988328519,
                -2.461345454409424
            ]
        },
        {
            "positions": [
                0.20731147587785115,
                -1.9589208542036727,
                -1.7158771516943938,
                -2.178631910756429,
                -1.2280052744025443,
                -2.585860703316681
            ]
        },
        {
            "positions": [
                0.14687593510139196,
                -2.0010031676386917,
                -1.7440753827748814,
                -2.2185289074450716,
                -1.3218144499722362,
                -2.7103759522239383
            ]
        },
        {
            "positions": [
                0.08644039432493278,
                -2.0430854810737107,
                -1.7722736138553685,
                -2.2584259041337136,
                -1.415623625541928,
                -2.8348912011311946
            ]
        },
        {
            "positions": [
                0.02600485354847315,
                -2.0851677945087297,
                -1.800471844935856,
                -2.298322900822356,
                -1.5094328011116205,
                -2.959406450038451
            ]
        },
        {
            "positions": [
                -0.034430687227985854,
                -2.1272501079437487,
                -1.8286700760163435,
                -2.3382198975109985,
                -1.6032419766813129,
                -3.083921698945708
            ]
        }
    ]
}