{
    "goal": {
        "global_pose": {
            "orientation": {
                "w": 0.005598929693374612,
                "x": 0.007748599140229565,
                "y": 0.7110244013736278,
                "z": -0.7031023480610252
            },
            "position": {
                "x": -0.8858502320852131,
                "y": -0.7141253447532654,
                "z": 0.3711530566215515
            }
        },
        "name": "move_to_auspresseinheit_C"
    },
    "id": "BKPIECE_move_to_auspresseinheit_C_93",
    "joint_names": [
        "shoulder_pan_joint",
        "shoulder_lift_joint",
        "elbow_joint",
        "wrist_1_joint",
        "wrist_2_joint",
        "wrist_3_joint"
    ],
    "metrics": {
        "cart_traj_len": 0.4931107706237148,
        "distance_elbow_joint": 0.996252354041361,
        "distance_shoulder_lift_joint": 0.322709361457298,
        "distance_shoulder_pan_joint": 0.2569042703992688,
        "distance_wrist_1_joint": 0.6753615972695487,
        "distance_wrist_2_joint": 1.3015457191125557,
        "distance_wrist_3_joint": 0.06722290761438732,
        "smoothness": 6.459479416000911e-16,
        "time": 0.475775971,
        "traj_len": 1.9026287630261505,
        "weighted_distance": 2.394023671876554
    },
    "planner": "BKPIECE",
    "start": {
        "state": {
            "elbow_joint": 1.7527959577730765,
            "shoulder_lift_joint": -0.9740617694224828,
            "shoulder_pan_joint": -2.967991417825869,
            "wrist_1_joint": -0.7595177689779385,
            "wrist_2_joint": 1.7443932448376545,
            "wrist_3_joint": 3.1991315425061013
        }
    },
    "waypoints": [
        {
            "positions": [
                -2.967991417825869,
                -0.9740617694224828,
                1.7527959577730765,
                -0.7595177689779385,
                1.7443932448376545,
                3.1991315425061013
            ]
        },
        {
            "positions": [
                -2.942300990785942,
                -0.941790833276753,
                1.6531707223689405,
                -0.6919816092509836,
                1.6142386729263989,
                3.1924092517446625
            ]
        },
        {
            "positions": [
                -2.916610563746015,
                -0.9095198971310232,
                1.5535454869648042,
                -0.6244454495240288,
                1.4840841010151433,
                3.1856869609832237
            ]
        },
        {
            "positions": [
                -2.8909201367060886,
                -0.8772489609852934,
                1.4539202515606682,
                -0.556909289797074,
                1.3539295291038878,
                3.1789646702217853
            ]
        },
        {
            "positions": [
                -2.8652297096661616,
                -0.8449780248395635,
                1.3542950161565321,
                -0.48937313007011907,
                1.2237749571926322,
                3.1722423794603465
            ]
        },
        {
            "positions": [
                -2.8395392826262347,
                -0.8127070886938338,
                1.2546697807523959,
                -0.4218369703431642,
                1.0936203852813766,
                3.1655200886989077
            ]
        },
        {
            "positions": [
                -2.8138488555863077,
                -0.7804361525481041,
                1.15504454534826,
                -0.3543008106162093,
                0.963465813370121,
                3.158797797937469
            ]
        },
        {
            "positions": [
                -2.7881584285463807,
                -0.7481652164023742,
                1.0554193099441238,
                -0.2867646508892545,
                0.8333112414588656,
                3.15207550717603
            ]
        },
        {
            "positions": [
                -2.762468001506454,
                -0.7158942802566444,
                0.9557940745399877,
                -0.2192284911622996,
                0.7031566695476099,
                3.1453532164145916
            ]
        },
        {
            "positions": [
                -2.7367775744665273,
                -0.6836233441109145,
                0.8561688391358515,
                -0.15169233143534466,
                0.5730020976363543,
                3.138630925653153
            ]
        },
        {
            "positions": [
                -2.7110871474266003,
                -0.6513524079651848,
                0.7565436037317155,
                -0.08415617170838985,
                0.44284752572509867,
                3.131908634891714
            ]
        }
    ]
}