{
    "goal": {
        "global_pose": {
            "orientation": {
                "w": 0.7047431468963623,
                "x": -0.7094548344612122,
                "y": 0.0024358443915843964,
                "z": -0.0022348060738295317
            },
            "position": {
                "x": 0.6094750761985779,
                "y": 0.3671506643295288,
                "z": 0.19426114857196808
            }
        },
        "name": "move_to_magneteinheit_A"
    },
    "id": "BKPIECE_move_to_magneteinheit_A_143",
    "joint_names": [
        "shoulder_pan_joint",
        "shoulder_lift_joint",
        "elbow_joint",
        "wrist_1_joint",
        "wrist_2_joint",
        "wrist_3_joint"
    ],
    "metrics": {
        "cart_traj_len": 1.9675041194104723,
        "distance_elbow_joint": 3.574879997946466,
        "distance_shoulder_lift_joint": 0.7865391539152242,
        "distance_shoulder_pan_joint": 1.2414891877099208,
        "distance_wrist_1_joint": 1.1896149606325588,
        "distance_wrist_2_joint": 1.4443081646636808,
        "distance_wrist_3_joint": 1.9944870329382245,
        "smoothness": 2.631639764355545e-16,
        "time": 0.22227278,
        "traj_len": 3.198643227652324,
        "weighted_distance": 4.1053886160726325
    },
    "planner": "BKPIECE",
    "start": {
        "state": {
            "elbow_joint": -1.5739458827952972,
            "shoulder_lift_joint": 0.006533473998580023,
            "shoulder_pan_joint": -1.1188671628667068,
            "wrist_1_joint": 3.138208179676308,
            "wrist_2_joint": -1.5706037135050406,
            "wrist_3_joint": -2.0226958329764257
        }
    },
    "waypoints": [
        {
            "positions": [
                -1.1188671628667068,
                0.006533473998580023,
                -1.5739458827952972,
                3.138208179676308,
                -1.5706037135050406,
                -2.0226958329764257
            ]
        },
        {
            "positions": [
                -1.0711175787240177,
                -0.023718031921236296,
                -1.4364504982588946,
                3.0924537581135176,
                -1.5150533994795143,
                -1.9459847932480325
            ]
        },
        {
            "positions": [
                -1.0233679945813283,
                -0.053969537841052614,
                -1.2989551137224922,
                3.0466993365507267,
                -1.459503085453988,
                -1.8692737535196393
            ]
        },
        {
            "positions": [
                -0.9756184104386391,
                -0.08422104376086893,
                -1.1614597291860895,
                3.000944914987936,
                -1.403952771428462,
                -1.7925627137912459
            ]
        },
        {
            "positions": [
                -0.9278688262959498,
                -0.11447254968068525,
                -1.0239643446496869,
                2.955190493425145,
                -1.3484024574029359,
                -1.7158516740628527
            ]
        },
        {
            "positions": [
                -0.8801192421532605,
                -0.14472405560050156,
                -0.8864689601132845,
                2.9094360718623546,
                -1.2928521433774096,
                -1.6391406343344594
            ]
        },
        {
            "positions": [
                -0.8323696580105713,
                -0.17497556152031787,
                -0.7489735755768819,
                2.8636816502995637,
                -1.2373018293518834,
                -1.5624295946060662
            ]
        },
        {
            "positions": [
                -0.784620073867882,
                -0.20522706744013416,
                -0.6114781910404795,
                2.817927228736773,
                -1.1817515153263574,
                -1.485718554877673
            ]
        },
        {
            "positions": [
                -0.7368704897251928,
                -0.2354785733599505,
                -0.47398280650407676,
                2.772172807173982,
                -1.1262012013008311,
                -1.4090075151492796
            ]
        },
        {
            "positions": [
                -0.6891209055825035,
                -0.26573007927976683,
                -0.33648742196767434,
                2.7264183856111917,
                -1.0706508872753049,
                -1.3322964754208866
            ]
        },
        {
            "positions": [
                -0.6413713214398142,
                -0.2959815851995832,
                -0.1989920374312717,
                2.680663964048401,
                -1.0151005732497786,
                -1.2555854356924931
            ]
        },
        {
            "positions": [
                -0.593621737297125,
                -0.32623309111939947,
                -0.061496652894869275,
                2.63490954248561,
                -0.9595502592242525,
                -1.1788743959641002
            ]
        },
        {
            "positions": [
                -0.5458721531544357,
                -0.3564845970392158,
                0.07599873164153337,
                2.589155120922819,
                -0.9039999451987263,
                -1.1021633562357067
            ]
        },
        {
            "positions": [
                -0.49812256901174645,
                -0.3867361029590321,
                0.2134941161779358,
                2.5434006993600287,
                -0.8484496311732002,
                -1.0254523165073135
            ]
        },
        {
            "positions": [
                -0.4503729848690572,
                -0.4169876088788484,
                0.3509895007143382,
                2.497646277797238,
                -0.792899317147674,
                -0.9487412767789203
            ]
        },
        {
            "positions": [
                -0.40262340072636804,
                -0.4472391147986647,
                0.48848488525074063,
                2.4518918562344476,
                -0.7373490031221479,
                -0.8720302370505271
            ]
        },
        {
            "positions": [
                -0.35487381658367867,
                -0.4774906207184811,
                0.6259802697871437,
                2.4061374346716566,
                -0.6817986890966216,
                -0.7953191973221336
            ]
        },
        {
            "positions": [
                -0.3071242324409894,
                -0.5077421266382973,
                0.7634756543235459,
                2.3603830131088657,
                -0.6262483750710954,
                -0.7186081575937404
            ]
        },
        {
            "positions": [
                -0.25937464829830015,
                -0.5379936325581136,
                0.9009710388599486,
                2.314628591546075,
                -0.5706980610455693,
                -0.6418971178653472
            ]
        },
        {
            "positions": [
                -0.2116250641556109,
                -0.5682451384779299,
                1.0384664233963508,
                2.2688741699832846,
                -0.5151477470200432,
                -0.565186078136954
            ]
        },
        {
            "positions": [
                -0.16387548001292163,
                -0.5984966443977463,
                1.1759618079327538,
                2.2231197484204936,
                -0.4595974329945167,
                -0.48847503840856077
            ]
        },
        {
            "positions": [
                -0.11612589587023225,
                -0.6287481503175626,
                1.313457192469156,
                2.177365326857703,
                -0.4040471189689907,
                -0.41176399868016755
            ]
        },
        {
            "positions": [
                -0.0683763117275431,
                -0.6589996562373789,
                1.4509525770055587,
                2.131610905294912,
                -0.34849680494346447,
                -0.33505295895177434
            ]
        },
        {
            "positions": [
                -0.020626727584853954,
                -0.6892511621571952,
                1.5884479615419609,
                2.0858564837321216,
                -0.29294649091793845,
                -0.2583419192233811
            ]
        },
        {
            "positions": [
                0.027122856557835417,
                -0.7195026680770116,
                1.725943346078364,
                2.0401020621693307,
                -0.237396176892412,
                -0.18163087949498768
            ]
        },
        {
            "positions": [
                0.07487244070052479,
                -0.7497541739968279,
                1.8634387306147662,
                1.9943476406065401,
                -0.18184586286688598,
                -0.10491983976659447
            ]
        },
        {
            "positions": [
                0.12262202484321387,
                -0.7800056799166442,
                2.000934115151169,
                1.9485932190437494,
                -0.12629554884135982,
                -0.028208800038201195
            ]
        }
    ]
}