{
    "goal": {
        "global_pose": {
            "orientation": {
                "w": 0.5084816217422485,
                "x": -0.49083608388900757,
                "y": 0.5182115435600281,
                "z": -0.4816462993621826
            },
            "position": {
                "x": 0.5540239810943604,
                "y": 0.030875300988554955,
                "z": 0.16403168439865112
            }
        },
        "name": "move_to_storage_A"
    },
    "id": "BKPIECE_move_to_storage_A_130",
    "joint_names": [
        "shoulder_pan_joint",
        "shoulder_lift_joint",
        "elbow_joint",
        "wrist_1_joint",
        "wrist_2_joint",
        "wrist_3_joint"
    ],
    "metrics": {
        "cart_traj_len": 0.35300434773296574,
        "distance_elbow_joint": 0.4484127954050867,
        "distance_shoulder_lift_joint": 0.23489922405447938,
        "distance_shoulder_pan_joint": 0.4608297596058506,
        "distance_wrist_1_joint": 0.2362604775332089,
        "distance_wrist_2_joint": 1.102041221142608,
        "distance_wrist_3_joint": 0.09293856207474338,
        "smoothness": 0.0,
        "time": 0.120607412,
        "traj_len": 1.6047996883773306,
        "weighted_distance": 2.024737232986365
    },
    "planner": "BKPIECE",
    "start": {
        "state": {
            "elbow_joint": 1.971548880431181,
            "shoulder_lift_joint": -1.1394869514688781,
            "shoulder_pan_joint": 0.12281150262730567,
            "wrist_1_joint": -0.7804693444481463,
            "wrist_2_joint": 0.12958644648617612,
            "wrist_3_joint": 3.0906942077768043
        }
    },
    "waypoints": [
        {
            "positions": [
                0.12281150262730567,
                -1.1394869514688781,
                1.971548880431181,
                -0.7804693444481463,
                0.12958644648617612,
                3.0906942077768043
            ]
        },
        {
            "positions": [
                0.05697867982646987,
                -1.1730439834766608,
                2.035607851203336,
                -0.8142208412386047,
                0.2870209066494058,
                3.1039711452160534
            ]
        },
        {
            "positions": [
                -0.00885414297436593,
                -1.2066010154844438,
                2.0996668219754913,
                -0.8479723380290631,
                0.44445536681263553,
                3.117248082655302
            ]
        },
        {
            "positions": [
                -0.07468696577520173,
                -1.2401580474922265,
                2.1637257927476465,
                -0.8817238348195215,
                0.6018898269758652,
                3.1305250200945514
            ]
        },
        {
            "positions": [
                -0.14051978857603753,
                -1.2737150795000092,
                2.227784763519802,
                -0.91547533160998,
                0.7593242871390949,
                3.1438019575338005
            ]
        },
        {
            "positions": [
                -0.20635261137687333,
                -1.307272111507792,
                2.291843734291957,
                -0.9492268284004384,
                0.9167587473023248,
                3.1570788949730497
            ]
        },
        {
            "positions": [
                -0.27218543417770913,
                -1.3408291435155748,
                2.3559027050641124,
                -0.9829783251908968,
                1.0741932074655542,
                3.1703558324122985
            ]
        },
        {
            "positions": [
                -0.33801825697854493,
                -1.3743861755233575,
                2.4199616758362676,
                -1.0167298219813552,
                1.2316276676287843,
                3.1836327698515476
            ]
        }
    ]
}