{
    "goal": {
        "global_pose": {
            "orientation": {
                "w": 0.7031023502349854,
                "x": -0.7110244035720825,
                "y": 0.007748599164187908,
                "z": 0.005598929710686207
            },
            "position": {
                "x": 0.11585023208521307,
                "y": 0.44412534475326537,
                "z": 0.3711530566215515
            }
        },
        "name": "move_to_auspresseinheit_A"
    },
    "id": "BKPIECE_move_to_auspresseinheit_A_131",
    "joint_names": [
        "shoulder_pan_joint",
        "shoulder_lift_joint",
        "elbow_joint",
        "wrist_1_joint",
        "wrist_2_joint",
        "wrist_3_joint"
    ],
    "metrics": {
        "cart_traj_len": 0.9508486361777244,
        "distance_elbow_joint": 0.5956607899756312,
        "distance_shoulder_lift_joint": 1.4319515271662122,
        "distance_shoulder_pan_joint": 1.1733507169410828,
        "distance_wrist_1_joint": 1.1565832164640077,
        "distance_wrist_2_joint": 0.5244455167368491,
        "distance_wrist_3_joint": 0.7816980981289383,
        "smoothness": 1.3750830344253082,
        "time": 0.155144908,
        "traj_len": 2.379850807385354,
        "weighted_distance": 2.984646510873852
    },
    "planner": "BKPIECE",
    "start": {
        "state": {
            "elbow_joint": 2.4225746994637096,
            "shoulder_lift_joint": -1.373653595662188,
            "shoulder_pan_joint": -0.3378633848294565,
            "wrist_1_joint": -1.0288595594406726,
            "wrist_2_joint": 1.2330228066703421,
            "wrist_3_joint": 3.189163495502006
        }
    },
    "waypoints": [
        {
            "positions": [
                -0.3378633848294565,
                -1.373653595662188,
                2.4225746994637096,
                -1.0288595594406726,
                1.2330228066703421,
                3.189163495502006
            ]
        },
        {
            "positions": [
                -0.2270064276746115,
                -1.4718995119314582,
                2.450821068543889,
                -0.9424620453361362,
                1.2208176457526125,
                3.1475865405787227
            ]
        },
        {
            "positions": [
                -0.11614947051976651,
                -1.5701454282007286,
                2.479067437624069,
                -0.8560645312315998,
                1.208612484834883,
                3.1060095856554395
            ]
        },
        {
            "positions": [
                -0.005292513364921536,
                -1.6683913444699987,
                2.5073138067042486,
                -0.7696670171270633,
                1.1964073239171535,
                3.0644326307321568
            ]
        },
        {
            "positions": [
                0.10556444378992347,
                -1.766637260739269,
                2.535560175784428,
                -0.6832695030225269,
                1.184202162999424,
                3.0228556758088736
            ]
        },
        {
            "positions": [
                0.21642140094476842,
                -1.8648831770085392,
                2.563806544864608,
                -0.5968719889179904,
                1.1719970020816943,
                2.9812787208855904
            ]
        },
        {
            "positions": [
                0.3272783580996134,
                -1.9631290932778094,
                2.5920529139447877,
                -0.510474474813454,
                1.1597918411639647,
                2.9397017659623073
            ]
        },
        {
            "positions": [
                0.4381353152544583,
                -2.0613750095470795,
                2.620299283024967,
                -0.42407696070891754,
                1.1475866802462351,
                2.8981248110390245
            ]
        },
        {
            "positions": [
                0.5489922724093035,
                -2.15962092581635,
                2.6485456521051467,
                -0.3376794466043811,
                1.1353815193285057,
                2.856547856115741
            ]
        },
        {
            "positions": [
                0.6598492295641483,
                -2.2578668420856203,
                2.6767920211853267,
                -0.25128193249984465,
                1.1231763584107761,
                2.814970901192458
            ]
        },
        {
            "positions": [
                0.7707061867189933,
                -2.3561127583548904,
                2.705038390265506,
                -0.1648844183953082,
                1.1109711974930465,
                2.773393946269175
            ]
        },
        {
            "positions": [
                0.7577499576404667,
                -2.2662142854601885,
                2.6423989704307393,
                -0.22340603347903693,
                1.0304924159811357,
                2.8465796560483967
            ]
        },
        {
            "positions": [
                0.74479372856194,
                -2.1763158125654867,
                2.5797595505959725,
                -0.28192764856276564,
                0.9500136344692252,
                2.919765365827618
            ]
        },
        {
            "positions": [
                0.7318374994834135,
                -2.0864173396707844,
                2.517120130761205,
                -0.34044926364649436,
                0.8695348529573144,
                2.9929510756068396
            ]
        },
        {
            "positions": [
                0.7188812704048868,
                -1.9965188667760825,
                2.4544807109264384,
                -0.3989708787302231,
                0.7890560714454037,
                3.066136785386061
            ]
        },
        {
            "positions": [
                0.7059250413263602,
                -1.9066203938813806,
                2.3918412910916715,
                -0.4574924938139518,
                0.708577289933493,
                3.1393224951652825
            ]
        }
    ]
}