{
    "goal": {
        "global_pose": {
            "orientation": {
                "w": 0.005598929693374612,
                "x": 0.007748599140229565,
                "y": 0.7110244013736278,
                "z": -0.7031023480610252
            },
            "position": {
                "x": 0.1141497679147869,
                "y": -0.7141253447532654,
                "z": 0.3711530566215515
            }
        },
        "name": "move_to_auspresseinheit_B"
    },
    "id": "BKPIECE_move_to_auspresseinheit_B_17",
    "joint_names": [
        "shoulder_pan_joint",
        "shoulder_lift_joint",
        "elbow_joint",
        "wrist_1_joint",
        "wrist_2_joint",
        "wrist_3_joint"
    ],
    "metrics": {
        "cart_traj_len": 0.5641275766176429,
        "distance_elbow_joint": 0.06512415107739988,
        "distance_shoulder_lift_joint": 0.2952968120907018,
        "distance_shoulder_pan_joint": 0.5775792196017366,
        "distance_wrist_1_joint": 0.33894650310679986,
        "distance_wrist_2_joint": 0.9861408529547391,
        "distance_wrist_3_joint": 0.009897306929792293,
        "smoothness": 2.5376526478085547e-16,
        "time": 0.131535294,
        "traj_len": 1.5076421477794952,
        "weighted_distance": 1.902069088041308
    },
    "planner": "BKPIECE",
    "start": {
        "state": {
            "elbow_joint": 2.0193061681459312,
            "shoulder_lift_joint": -1.1220205130644991,
            "shoulder_pan_joint": -1.0952072088045026,
            "wrist_1_joint": -0.8559671810662515,
            "wrist_2_joint": 0.4759638712940361,
            "wrist_3_joint": 3.159081874192446
        }
    },
    "waypoints": [
        {
            "positions": [
                -1.0952072088045026,
                -1.1220205130644991,
                2.0193061681459312,
                -0.8559671810662515,
                0.4759638712940361,
                3.159081874192446
            ]
        },
        {
            "positions": [
                -1.1914704120714588,
                -1.1712366484129495,
                2.0084521429663647,
                -0.7994760972151181,
                0.640320680119826,
                3.157432323037481
            ]
        },
        {
            "positions": [
                -1.287733615338415,
                -1.2204527837613997,
                1.9975981177867979,
                -0.7429850133639848,
                0.8046774889456159,
                3.155782771882515
            ]
        },
        {
            "positions": [
                -1.3839968186053708,
                -1.26966891910985,
                1.9867440926072313,
                -0.6864939295128516,
                0.9690342977714057,
                3.15413322072755
            ]
        },
        {
            "positions": [
                -1.480260021872327,
                -1.3188850544583004,
                1.9758900674276647,
                -0.6300028456617183,
                1.1333911065971956,
                3.1524836695725846
            ]
        },
        {
            "positions": [
                -1.5765232251392831,
                -1.3681011898067506,
                1.965036042248098,
                -0.5735117618105849,
                1.2977479154229854,
                3.150834118417619
            ]
        },
        {
            "positions": [
                -1.6727864284062393,
                -1.417317325155201,
                1.9541820170685313,
                -0.5170206779594516,
                1.4621047242487752,
                3.1491845672626537
            ]
        }
    ]
}