{
    "goal": {
        "global_pose": {
            "orientation": {
                "w": 0.5084816217422485,
                "x": -0.49083608388900757,
                "y": 0.5182115435600281,
                "z": -0.4816462993621826
            },
            "position": {
                "x": 0.5540239810943604,
                "y": 0.030875300988554955,
                "z": 0.16403168439865112
            }
        },
        "name": "move_to_storage_A"
    },
    "id": "BKPIECE_move_to_storage_A_44",
    "joint_names": [
        "shoulder_pan_joint",
        "shoulder_lift_joint",
        "elbow_joint",
        "wrist_1_joint",
        "wrist_2_joint",
        "wrist_3_joint"
    ],
    "metrics": {
        "cart_traj_len": 0.3533381404909197,
        "distance_elbow_joint": 0.4522100873827102,
        "distance_shoulder_lift_joint": 0.23331643082775888,
        "distance_shoulder_pan_joint": 0.46301438942770834,
        "distance_wrist_1_joint": 0.25843207546520675,
        "distance_wrist_2_joint": 1.0943249663328123,
        "distance_wrist_3_joint": 0.09519277138140625,
        "smoothness": 1.1102230263833737e-15,
        "time": 0.184593446,
        "traj_len": 1.61136300094597,
        "weighted_distance": 2.0346088826549527
    },
    "planner": "BKPIECE",
    "start": {
        "state": {
            "elbow_joint": 1.971548880431181,
            "shoulder_lift_joint": -1.1394869514688781,
            "shoulder_pan_joint": 0.12281150262730567,
            "wrist_1_joint": -0.7804693444481463,
            "wrist_2_joint": 0.12958644648617612,
            "wrist_3_joint": 3.0906942077768043
        }
    },
    "waypoints": [
        {
            "positions": [
                0.12281150262730567,
                -1.1394869514688781,
                1.971548880431181,
                -0.7804693444481463,
                0.12958644648617612,
                3.0906942077768043
            ]
        },
        {
            "positions": [
                0.05666658985191876,
                -1.1728178701585579,
                2.0361503214858536,
                -0.8173882123717473,
                0.28591858453372077,
                3.104293175117005
            ]
        },
        {
            "positions": [
                -0.009478322923468147,
                -1.2061487888482378,
                2.1007517625405265,
                -0.8543070802953482,
                0.44225072258126535,
                3.117892142457206
            ]
        },
        {
            "positions": [
                -0.07562323569885504,
                -1.2394797075379176,
                2.1653532035951994,
                -0.8912259482189492,
                0.5985828606288099,
                3.1314911097974067
            ]
        },
        {
            "positions": [
                -0.14176814847424196,
                -1.2728106262275976,
                2.2299546446498724,
                -0.9281448161425502,
                0.7549149986763546,
                3.145090077137608
            ]
        },
        {
            "positions": [
                -0.20791306124962888,
                -1.3061415449172773,
                2.2945560857045453,
                -0.9650636840661511,
                0.9112471367238992,
                3.158689044477809
            ]
        },
        {
            "positions": [
                -0.27405797402501575,
                -1.339472463606957,
                2.359157526759218,
                -1.001982551989752,
                1.0675792747714437,
                3.1722880118180097
            ]
        },
        {
            "positions": [
                -0.34020288680040267,
                -1.372803382296637,
                2.423758967813891,
                -1.038901419913353,
                1.2239114128189883,
                3.1858869791582105
            ]
        }
    ]
}