{
    "goal": {
        "global_pose": {
            "orientation": {
                "w": 0.005598929693374612,
                "x": 0.007748599140229565,
                "y": 0.7110244013736278,
                "z": -0.7031023480610252
            },
            "position": {
                "x": -0.8858502320852131,
                "y": -0.7141253447532654,
                "z": 0.3711530566215515
            }
        },
        "name": "move_to_auspresseinheit_C"
    },
    "id": "BKPIECE_move_to_auspresseinheit_C_141",
    "joint_names": [
        "shoulder_pan_joint",
        "shoulder_lift_joint",
        "elbow_joint",
        "wrist_1_joint",
        "wrist_2_joint",
        "wrist_3_joint"
    ],
    "metrics": {
        "cart_traj_len": 0.49376914512945014,
        "distance_elbow_joint": 1.0133887714248155,
        "distance_shoulder_lift_joint": 0.3304601805814996,
        "distance_shoulder_pan_joint": 0.25580947748254834,
        "distance_wrist_1_joint": 0.707784586628118,
        "distance_wrist_2_joint": 1.314636804350848,
        "distance_wrist_3_joint": 0.07832831883245728,
        "smoothness": 8.074349282788172e-16,
        "time": 0.232844681,
        "traj_len": 1.92364449400098,
        "weighted_distance": 2.424765177897474
    },
    "planner": "BKPIECE",
    "start": {
        "state": {
            "elbow_joint": 1.7527959577730765,
            "shoulder_lift_joint": -0.9740617694224828,
            "shoulder_pan_joint": -2.967991417825869,
            "wrist_1_joint": -0.7595177689779385,
            "wrist_2_joint": 1.7443932448376545,
            "wrist_3_joint": 3.1991315425061013
        }
    },
    "waypoints": [
        {
            "positions": [
                -2.967991417825869,
                -0.9740617694224828,
                1.7527959577730765,
                -0.7595177689779385,
                1.7443932448376545,
                3.1991315425061013
            ]
        },
        {
            "positions": [
                -2.9424104700776144,
                -0.9410157513643328,
                1.651457080630595,
                -0.6887393103151267,
                1.6129295644025696,
                3.1912987106228554
            ]
        },
        {
            "positions": [
                -2.916829522329359,
                -0.9079697333061829,
                1.5501182034881134,
                -0.617960851652315,
                1.4814658839674848,
                3.18346587873961
            ]
        },
        {
            "positions": [
                -2.8912485745811045,
                -0.8749237152480329,
                1.448779326345632,
                -0.5471823929895031,
                1.3500022035324,
                3.175633046856364
            ]
        },
        {
            "positions": [
                -2.86566762683285,
                -0.8418776971898829,
                1.3474404492031502,
                -0.4764039343266913,
                1.2185385230973154,
                3.1678002149731186
            ]
        },
        {
            "positions": [
                -2.840086679084595,
                -0.8088316791317329,
                1.2461015720606687,
                -0.4056254756638795,
                1.0870748426622305,
                3.1599673830898727
            ]
        },
        {
            "positions": [
                -2.81450573133634,
                -0.775785661073583,
                1.144762694918187,
                -0.3348470170010677,
                0.9556111622271456,
                3.1521345512066268
            ]
        },
        {
            "positions": [
                -2.7889247835880853,
                -0.742739643015433,
                1.0434238177757056,
                -0.26406855833825593,
                0.8241474817920609,
                3.1443017193233813
            ]
        },
        {
            "positions": [
                -2.7633438358398306,
                -0.7096936249572832,
                0.942084940633224,
                -0.19329009967544408,
                0.692683801356976,
                3.1364688874401354
            ]
        },
        {
            "positions": [
                -2.7377628880915754,
                -0.6766476068991332,
                0.8407460634907425,
                -0.12251164101263223,
                0.5612201209218912,
                3.12863605555689
            ]
        },
        {
            "positions": [
                -2.7121819403433207,
                -0.6436015888409832,
                0.7394071863482609,
                -0.05173318234982051,
                0.42975644048680645,
                3.120803223673644
            ]
        }
    ]
}