{
    "goal": {
        "global_pose": {
            "orientation": {
                "w": -0.4816463035849501,
                "x": 0.5182115481033762,
                "y": 0.4908360881923453,
                "z": -0.5084816262002911
            },
            "position": {
                "x": -0.8240239810943604,
                "y": -0.300875300988555,
                "z": 0.16403168439865112
            }
        },
        "name": "move_to_storage_C"
    },
    "id": "BKPIECE_move_to_storage_C_20",
    "joint_names": [
        "shoulder_pan_joint",
        "shoulder_lift_joint",
        "elbow_joint",
        "wrist_1_joint",
        "wrist_2_joint",
        "wrist_3_joint"
    ],
    "metrics": {
        "cart_traj_len": 0.5764137173042923,
        "distance_elbow_joint": 0.25907707349336717,
        "distance_shoulder_lift_joint": 0.19002664910908829,
        "distance_shoulder_pan_joint": 0.4946008969485942,
        "distance_wrist_1_joint": 0.08465431463710205,
        "distance_wrist_2_joint": 1.0674796709918601,
        "distance_wrist_3_joint": 0.05808499485191376,
        "smoothness": 0.0,
        "time": 0.170991961,
        "traj_len": 1.4676251565137215,
        "weighted_distance": 1.8499263702549664
    },
    "planner": "BKPIECE",
    "start": {
        "state": {
            "elbow_joint": 2.0108683149792914,
            "shoulder_lift_joint": -1.1634956873317392,
            "shoulder_pan_joint": -2.4736205022346,
            "wrist_1_joint": -0.8367026793690192,
            "wrist_2_joint": 0.6746043897045053,
            "wrist_3_joint": 3.133522094754363
        }
    },
    "waypoints": [
        {
            "positions": [
                -2.4736205022346,
                -1.1634956873317392,
                2.0108683149792914,
                -0.8367026793690192,
                0.6746043897045053,
                3.133522094754363
            ]
        },
        {
            "positions": [
                -2.556053985059366,
                -1.1318245791468913,
                1.967688802730397,
                -0.8225936269295022,
                0.8525176682031487,
                3.143202927229682
            ]
        },
        {
            "positions": [
                -2.6384874678841315,
                -1.100153470962043,
                1.9245092904815024,
                -0.8084845744899852,
                1.030430946701792,
                3.1528837597050012
            ]
        },
        {
            "positions": [
                -2.720920950708897,
                -1.068482362777195,
                1.8813297782326077,
                -0.7943755220504682,
                1.2083442252004355,
                3.16256459218032
            ]
        },
        {
            "positions": [
                -2.803354433533663,
                -1.0368112545923471,
                1.8381502659837132,
                -0.7802664696109511,
                1.3862575036990787,
                3.172245424655639
            ]
        },
        {
            "positions": [
                -2.885787916358429,
                -1.005140146407499,
                1.7949707537348187,
                -0.7661574171714342,
                1.564170782197722,
                3.181926257130958
            ]
        },
        {
            "positions": [
                -2.9682213991831943,
                -0.973469038222651,
                1.7517912414859242,
                -0.7520483647319172,
                1.7420840606963655,
                3.191607089606277
            ]
        }
    ]
}