{
    "goal": {
        "global_pose": {
            "orientation": {
                "w": 0.005598929693374612,
                "x": 0.007748599140229565,
                "y": 0.7110244013736278,
                "z": -0.7031023480610252
            },
            "position": {
                "x": -0.8858502320852131,
                "y": -0.7141253447532654,
                "z": 0.3711530566215515
            }
        },
        "name": "move_to_auspresseinheit_C"
    },
    "id": "BKPIECE_move_to_auspresseinheit_C_136",
    "joint_names": [
        "shoulder_pan_joint",
        "shoulder_lift_joint",
        "elbow_joint",
        "wrist_1_joint",
        "wrist_2_joint",
        "wrist_3_joint"
    ],
    "metrics": {
        "cart_traj_len": 0.5664130947585178,
        "distance_elbow_joint": 0.9854385294846049,
        "distance_shoulder_lift_joint": 0.3173481306642466,
        "distance_shoulder_pan_joint": 0.2559628473091715,
        "distance_wrist_1_joint": 0.6531705516266655,
        "distance_wrist_2_joint": 1.3029820493631281,
        "distance_wrist_3_joint": 1.0236156504913416,
        "smoothness": 0.38742426326970153,
        "time": 0.304473806,
        "traj_len": 2.1303797217724254,
        "weighted_distance": 2.922653188613325
    },
    "planner": "BKPIECE",
    "start": {
        "state": {
            "elbow_joint": 1.7527959577730765,
            "shoulder_lift_joint": -0.9740617694224828,
            "shoulder_pan_joint": -2.967991417825869,
            "wrist_1_joint": -0.7595177689779385,
            "wrist_2_joint": 1.7443932448376545,
            "wrist_3_joint": 3.1991315425061013
        }
    },
    "waypoints": [
        {
            "positions": [
                -2.967991417825869,
                -0.9740617694224828,
                1.7527959577730765,
                -0.7595177689779385,
                1.7443932448376545,
                3.1991315425061013
            ]
        },
        {
            "positions": [
                -2.944577443436714,
                -0.9463361770744154,
                1.6559721948869806,
                -0.7125292262067388,
                1.6267748316063624,
                3.1456141919195657
            ]
        },
        {
            "positions": [
                -2.9211634690475585,
                -0.918610584726348,
                1.5591484320008844,
                -0.665540683435539,
                1.5091564183750705,
                3.09209684133303
            ]
        },
        {
            "positions": [
                -2.8977494946584037,
                -0.8908849923782807,
                1.4623246691147884,
                -0.6185521406643392,
                1.3915380051437785,
                3.0385794907464945
            ]
        },
        {
            "positions": [
                -2.8743355202692484,
                -0.8631594000302132,
                1.3655009062286925,
                -0.5715635978931394,
                1.2739195919124864,
                2.985062140159959
            ]
        },
        {
            "positions": [
                -2.850921545880093,
                -0.8354338076821459,
                1.2686771433425965,
                -0.5245750551219396,
                1.1563011786811943,
                2.9315447895734232
            ]
        },
        {
            "positions": [
                -2.827507571490938,
                -0.8077082153340784,
                1.1718533804565006,
                -0.47758651235073984,
                1.0386827654499025,
                2.878027438986888
            ]
        },
        {
            "positions": [
                -2.8040935971017826,
                -0.7799826229860112,
                1.0750296175704044,
                -0.43059796957954005,
                0.9210643522186105,
                2.8245100884003524
            ]
        },
        {
            "positions": [
                -2.780679622712628,
                -0.7522570306379437,
                0.9782058546843084,
                -0.3836094268083402,
                0.8034459389873183,
                2.770992737813817
            ]
        },
        {
            "positions": [
                -2.7572656483234725,
                -0.7245314382898763,
                0.8813820917982124,
                -0.33662088403714047,
                0.6858275257560265,
                2.717475387227281
            ]
        },
        {
            "positions": [
                -2.7338516739343173,
                -0.6968058459418089,
                0.7845583289121164,
                -0.2896323412659407,
                0.5682091125247344,
                2.6639580366407456
            ]
        },
        {
            "positions": [
                -2.726577306128444,
                -0.683441776880618,
                0.7788246953709015,
                -0.2285372999610515,
                0.525943140174665,
                2.8267720848494076
            ]
        },
        {
            "positions": [
                -2.7193029383225706,
                -0.6700777078194271,
                0.7730910618296866,
                -0.16744225865616227,
                0.48367716782459563,
                2.9895861330580695
            ]
        },
        {
            "positions": [
                -2.7120285705166975,
                -0.6567136387582362,
                0.7673574282884716,
                -0.10634721735127307,
                0.44141119547452623,
                3.1524001812667315
            ]
        }
    ]
}