{
    "goal": {
        "global_pose": {
            "orientation": {
                "w": 0.7031023480610252,
                "x": -0.7110244013736278,
                "y": 0.0077485991402295624,
                "z": 0.005598929693374583
            },
            "position": {
                "x": -0.8841497679147869,
                "y": 0.44412534475326537,
                "z": 0.3711530566215515
            }
        },
        "name": "move_to_auspresseinheit_D"
    },
    "id": "BKPIECE_move_to_auspresseinheit_D_46",
    "joint_names": [
        "shoulder_pan_joint",
        "shoulder_lift_joint",
        "elbow_joint",
        "wrist_1_joint",
        "wrist_2_joint",
        "wrist_3_joint"
    ],
    "metrics": {
        "cart_traj_len": 0.3442356328726579,
        "distance_elbow_joint": 0.6514818627049226,
        "distance_shoulder_lift_joint": 0.12767480773247053,
        "distance_shoulder_pan_joint": 0.13356103454018894,
        "distance_wrist_1_joint": 0.5686701535173508,
        "distance_wrist_2_joint": 1.438729613677236,
        "distance_wrist_3_joint": 0.0374485737696868,
        "smoothness": 1.9737298371844314e-16,
        "time": 0.093542121,
        "traj_len": 1.7197575544075554,
        "weighted_distance": 2.244963910773582
    },
    "planner": "BKPIECE",
    "start": {
        "state": {
            "elbow_joint": -1.8275484843655228,
            "shoulder_lift_joint": -2.1267897864000416,
            "shoulder_pan_joint": -0.035127520176001514,
            "wrist_1_joint": -2.3477863256791385,
            "wrist_2_joint": -1.605890476484521,
            "wrist_3_joint": -3.0880375317375353
        }
    },
    "waypoints": [
        {
            "positions": [
                -0.035127520176001514,
                -2.1267897864000416,
                -1.8275484843655228,
                -2.3477863256791385,
                -1.605890476484521,
                -3.0880375317375353
            ]
        },
        {
            "positions": [
                -0.051822649493525136,
                -2.1427491373666006,
                -1.7461132515274074,
                -2.418870094868807,
                -1.4260492747748665,
                -3.0833564600163244
            ]
        },
        {
            "positions": [
                -0.06851777881104876,
                -2.158708488333159,
                -1.6646780186892922,
                -2.489953864058476,
                -1.2462080730652119,
                -3.0786753882951134
            ]
        },
        {
            "positions": [
                -0.08521290812857236,
                -2.174667839299718,
                -1.5832427858511768,
                -2.5610376332481453,
                -1.0663668713555574,
                -3.0739943165739025
            ]
        },
        {
            "positions": [
                -0.10190803744609599,
                -2.1906271902662766,
                -1.5018075530130615,
                -2.632121402437814,
                -0.886525669645903,
                -3.069313244852692
            ]
        },
        {
            "positions": [
                -0.11860316676361961,
                -2.2065865412328356,
                -1.420372320174946,
                -2.7032051716274825,
                -0.7066844679362485,
                -3.064632173131481
            ]
        },
        {
            "positions": [
                -0.13529829608114322,
                -2.2225458921993946,
                -1.3389370873368307,
                -2.7742889408171516,
                -0.5268432662265938,
                -3.0599511014102703
            ]
        },
        {
            "positions": [
                -0.15199342539866684,
                -2.238505243165953,
                -1.2575018544987155,
                -2.8453727100068207,
                -0.3470020645169394,
                -3.0552700296890594
            ]
        },
        {
            "positions": [
                -0.16868855471619046,
                -2.254464594132512,
                -1.1760666216606002,
                -2.9164564791964893,
                -0.167160862807285,
                -3.0505889579678485
            ]
        }
    ]
}