{
    "goal": {
        "global_pose": {
            "orientation": {
                "w": 0.005598929693374612,
                "x": 0.007748599140229565,
                "y": 0.7110244013736278,
                "z": -0.7031023480610252
            },
            "position": {
                "x": -0.8858502320852131,
                "y": -0.7141253447532654,
                "z": 0.3711530566215515
            }
        },
        "name": "move_to_auspresseinheit_C"
    },
    "id": "BKPIECE_move_to_auspresseinheit_C_48",
    "joint_names": [
        "shoulder_pan_joint",
        "shoulder_lift_joint",
        "elbow_joint",
        "wrist_1_joint",
        "wrist_2_joint",
        "wrist_3_joint"
    ],
    "metrics": {
        "cart_traj_len": 0.49322510452982765,
        "distance_elbow_joint": 1.0118838423408403,
        "distance_shoulder_lift_joint": 0.33078589867082553,
        "distance_shoulder_pan_joint": 0.2558132317084869,
        "distance_wrist_1_joint": 0.7045898010427667,
        "distance_wrist_2_joint": 1.3125761768933701,
        "distance_wrist_3_joint": 0.08030474037805968,
        "smoothness": 1.6148698667872622e-16,
        "time": 0.25537498,
        "traj_len": 1.9224863305195046,
        "weighted_distance": 2.423577758134986
    },
    "planner": "BKPIECE",
    "start": {
        "state": {
            "elbow_joint": 1.7527959577730765,
            "shoulder_lift_joint": -0.9740617694224828,
            "shoulder_pan_joint": -2.967991417825869,
            "wrist_1_joint": -0.7595177689779385,
            "wrist_2_joint": 1.7443932448376545,
            "wrist_3_joint": 3.1991315425061013
        }
    },
    "waypoints": [
        {
            "positions": [
                -2.967991417825869,
                -0.9740617694224828,
                1.7527959577730765,
                -0.7595177689779385,
                1.7443932448376545,
                3.1991315425061013
            ]
        },
        {
            "positions": [
                -2.9424100946550205,
                -0.9409831795554002,
                1.6516075735389926,
                -0.6890587888736619,
                1.6131356271483175,
                3.191101068468295
            ]
        },
        {
            "positions": [
                -2.916828771484172,
                -0.9079045896883177,
                1.5504191893049084,
                -0.6185998087693851,
                1.4818780094589803,
                3.1830705944304896
            ]
        },
        {
            "positions": [
                -2.891247448313323,
                -0.8748259998212351,
                1.4492308050708245,
                -0.5481408286651086,
                1.3506203917696435,
                3.1750401203926835
            ]
        },
        {
            "positions": [
                -2.865666125142474,
                -0.8417474099541525,
                1.3480424208367403,
                -0.47768184856083185,
                1.2193627740803064,
                3.1670096463548774
            ]
        },
        {
            "positions": [
                -2.8400848019716256,
                -0.80866882008707,
                1.2468540366026564,
                -0.4072228684565552,
                1.0881051563909694,
                3.1589791723170713
            ]
        },
        {
            "positions": [
                -2.814503478800777,
                -0.7755902302199875,
                1.1456656523685722,
                -0.33676388835227855,
                0.9568475387016324,
                3.1509486982792656
            ]
        },
        {
            "positions": [
                -2.7889221556299284,
                -0.742511640352905,
                1.0444772681344885,
                -0.2663049082480019,
                0.8255899210122954,
                3.1429182242414595
            ]
        },
        {
            "positions": [
                -2.7633408324590794,
                -0.7094330504858224,
                0.9432888839004042,
                -0.19584592814372515,
                0.6943323033229583,
                3.1348877502036534
            ]
        },
        {
            "positions": [
                -2.7377595092882308,
                -0.6763544606187398,
                0.8421004996663203,
                -0.1253869480394485,
                0.5630746856336213,
                3.1268572761658477
            ]
        },
        {
            "positions": [
                -2.712178186117382,
                -0.6432758707516573,
                0.7409121154322363,
                -0.05492796793517188,
                0.4318170679442843,
                3.1188268021280416
            ]
        }
    ]
}