{
    "goal": {
        "global_pose": {
            "orientation": {
                "w": 0.5084816262002911,
                "x": -0.4908360881923452,
                "y": 0.5182115481033761,
                "z": -0.48164630358495003
            },
            "position": {
                "x": 0.5540239810943604,
                "y": -0.46912469901144505,
                "z": 0.16403168439865112
            }
        },
        "name": "move_to_storage_B"
    },
    "id": "BKPIECE_move_to_storage_B_125",
    "joint_names": [
        "shoulder_pan_joint",
        "shoulder_lift_joint",
        "elbow_joint",
        "wrist_1_joint",
        "wrist_2_joint",
        "wrist_3_joint"
    ],
    "metrics": {
        "cart_traj_len": 0.8098569504150734,
        "distance_elbow_joint": 0.3481271351535222,
        "distance_shoulder_lift_joint": 0.45883106307007804,
        "distance_shoulder_pan_joint": 0.41099056211858165,
        "distance_wrist_1_joint": 2.9783710838760564,
        "distance_wrist_2_joint": 2.7133326728663274,
        "distance_wrist_3_joint": 3.151278450564146,
        "smoothness": 0.041956167597774166,
        "time": 0.255889581,
        "traj_len": 3.1718970613260313,
        "weighted_distance": 4.696295521527515
    },
    "planner": "BKPIECE",
    "start": {
        "state": {
            "elbow_joint": 1.6649325340416963,
            "shoulder_lift_joint": -0.6616387945129425,
            "shoulder_pan_joint": -0.9139837929255878,
            "wrist_1_joint": 2.1467571094334352,
            "wrist_2_joint": -2.234195976750228,
            "wrist_3_joint": 0.005470921511140723
        }
    },
    "waypoints": [
        {
            "positions": [
                -0.9139837929255878,
                -0.6616387945129425,
                1.6649325340416963,
                2.1467571094334352,
                -2.234195976750228,
                0.005470921511140723
            ]
        },
        {
            "positions": [
                -0.8851303874409739,
                -0.7266301467871137,
                1.6853891367484284,
                2.0885753974273005,
                -2.161456242083576,
                -0.12392833998976606
            ]
        },
        {
            "positions": [
                -0.8562769819563602,
                -0.791621499061285,
                1.7058457394551607,
                2.0303936854211653,
                -2.0887165074169243,
                -0.25332760149067285
            ]
        },
        {
            "positions": [
                -0.8274235764717464,
                -0.8566128513354563,
                1.7263023421618928,
                1.9722119734150303,
                -2.0159767727502724,
                -0.38272686299157965
            ]
        },
        {
            "positions": [
                -0.7985701709871325,
                -0.9216042036096275,
                1.746758944868625,
                1.9140302614088953,
                -1.9432370380836204,
                -0.5121261244924864
            ]
        },
        {
            "positions": [
                -0.8120054864498655,
                -0.930643551517509,
                1.7588635232471064,
                1.7892282506883719,
                -1.8331291410745423,
                -0.6318389156088736
            ]
        },
        {
            "positions": [
                -0.8254408019125985,
                -0.9396828994253905,
                1.770968101625588,
                1.6644262399678484,
                -1.723021244065464,
                -0.7515517067252608
            ]
        },
        {
            "positions": [
                -0.8388761173753315,
                -0.9487222473332719,
                1.7830726800040695,
                1.539624229247325,
                -1.612913347056386,
                -0.871264497841648
            ]
        },
        {
            "positions": [
                -0.8523114328380645,
                -0.9577615952411535,
                1.795177258382551,
                1.4148222185268016,
                -1.5028054500473076,
                -0.9909772889580353
            ]
        },
        {
            "positions": [
                -0.8657467483007975,
                -0.966800943149035,
                1.8072818367610326,
                1.2900202078062781,
                -1.3926975530382295,
                -1.1106900800744224
            ]
        },
        {
            "positions": [
                -0.8791820637635305,
                -0.9758402910569165,
                1.819386415139514,
                1.1652181970857547,
                -1.2825896560291512,
                -1.2304028711908095
            ]
        },
        {
            "positions": [
                -0.8926173792262635,
                -0.984879638964798,
                1.8314909935179957,
                1.0404161863652313,
                -1.1724817590200731,
                -1.3501156623071968
            ]
        },
        {
            "positions": [
                -0.9060526946889965,
                -0.9939189868726795,
                1.8435955718964772,
                0.9156141756447076,
                -1.062373862010995,
                -1.4698284534235841
            ]
        },
        {
            "positions": [
                -0.9194880101517295,
                -1.002958334780561,
                1.8557001502749586,
                0.7908121649241842,
                -0.9522659650019166,
                -1.5895412445399713
            ]
        },
        {
            "positions": [
                -0.9329233256144626,
                -1.0119976826884425,
                1.8678047286534403,
                0.6660101542036607,
                -0.8421580679928387,
                -1.7092540356563584
            ]
        },
        {
            "positions": [
                -0.9463586410771956,
                -1.021037030596324,
                1.8799093070319217,
                0.5412081434831373,
                -0.7320501709837604,
                -1.8289668267727457
            ]
        },
        {
            "positions": [
                -0.9597939565399286,
                -1.0300763785042055,
                1.8920138854104032,
                0.41640613276261385,
                -0.6219422739746823,
                -1.9486796178891328
            ]
        },
        {
            "positions": [
                -0.9732292720026616,
                -1.039115726412087,
                1.9041184637888848,
                0.2916041220420902,
                -0.511834376965604,
                -2.0683924090055203
            ]
        },
        {
            "positions": [
                -0.9866645874653946,
                -1.0481550743199686,
                1.9162230421673663,
                0.16680211132156697,
                -0.4017264799565259,
                -2.1881052001219072
            ]
        },
        {
            "positions": [
                -1.0000999029281277,
                -1.05719442222785,
                1.9283276205458477,
                0.04200010060104353,
                -0.2916185829474478,
                -2.307817991238294
            ]
        },
        {
            "positions": [
                -1.0135352183908606,
                -1.0662337701357316,
                1.9404321989243294,
                -0.08280191011948013,
                -0.1815106859383695,
                -2.427530782354682
            ]
        },
        {
            "positions": [
                -1.0269705338535937,
                -1.075273118043613,
                1.9525367773028108,
                -0.20760392084000356,
                -0.0714027889292912,
                -2.5472435734710688
            ]
        },
        {
            "positions": [
                -1.0404058493163266,
                -1.0843124659514944,
                1.9646413556812925,
                -0.332405931560527,
                0.03870510807978711,
                -2.666956364587456
            ]
        },
        {
            "positions": [
                -1.0538411647790598,
                -1.093351813859376,
                1.976745934059774,
                -0.45720794228105044,
                0.1488130050888652,
                -2.7866691557038434
            ]
        },
        {
            "positions": [
                -1.0672764802417927,
                -1.1023911617672575,
                1.9888505124382554,
                -0.5820099530015739,
                0.25892090209794305,
                -2.9063819468202303
            ]
        },
        {
            "positions": [
                -1.0807117957045258,
                -1.1114305096751391,
                2.000955090816737,
                -0.7068119637220973,
                0.36902879910702135,
                -3.026094737936618
            ]
        },
        {
            "positions": [
                -1.0941471111672587,
                -1.1204698575830205,
                2.0130596691952185,
                -0.8316139744426208,
                0.47913669611609955,
                -3.145807529053005
            ]
        }
    ]
}