{
    "goal": {
        "global_pose": {
            "orientation": {
                "w": -0.4816463035849501,
                "x": 0.5182115481033762,
                "y": 0.4908360881923453,
                "z": -0.5084816262002911
            },
            "position": {
                "x": -0.8240239810943604,
                "y": -0.300875300988555,
                "z": 0.16403168439865112
            }
        },
        "name": "move_to_storage_C"
    },
    "id": "BKPIECE_move_to_storage_C_142",
    "joint_names": [
        "shoulder_pan_joint",
        "shoulder_lift_joint",
        "elbow_joint",
        "wrist_1_joint",
        "wrist_2_joint",
        "wrist_3_joint"
    ],
    "metrics": {
        "cart_traj_len": 0.5773017979856909,
        "distance_elbow_joint": 0.255703041496238,
        "distance_shoulder_lift_joint": 0.18927117800977833,
        "distance_shoulder_pan_joint": 0.4965501565309811,
        "distance_wrist_1_joint": 0.06893867854896674,
        "distance_wrist_2_joint": 1.059518320326106,
        "distance_wrist_3_joint": 0.06232093656201032,
        "smoothness": 0.0,
        "time": 0.126972838,
        "traj_len": 1.4602404978201642,
        "weighted_distance": 1.8399459729766996
    },
    "planner": "BKPIECE",
    "start": {
        "state": {
            "elbow_joint": 2.0108683149792914,
            "shoulder_lift_joint": -1.1634956873317392,
            "shoulder_pan_joint": -2.4736205022346,
            "wrist_1_joint": -0.8367026793690192,
            "wrist_2_joint": 0.6746043897045053,
            "wrist_3_joint": 3.133522094754363
        }
    },
    "waypoints": [
        {
            "positions": [
                -2.4736205022346,
                -1.1634956873317392,
                2.0108683149792914,
                -0.8367026793690192,
                0.6746043897045053,
                3.133522094754363
            ]
        },
        {
            "positions": [
                -2.5563788616564302,
                -1.1319504909967761,
                1.968251141396585,
                -0.8252128996108581,
                0.851190776425523,
                3.143908917514698
            ]
        },
        {
            "positions": [
                -2.6391372210782604,
                -1.100405294661813,
                1.9256339678138787,
                -0.813723119852697,
                1.0277771631465407,
                3.154295740275033
            ]
        },
        {
            "positions": [
                -2.7218955805000906,
                -1.0688600983268501,
                1.8830167942311724,
                -0.8022333400945358,
                1.2043635498675584,
                3.1646825630353685
            ]
        },
        {
            "positions": [
                -2.804653939921921,
                -1.037314901991887,
                1.840399620648466,
                -0.7907435603363747,
                1.380949936588576,
                3.1750693857957035
            ]
        },
        {
            "positions": [
                -2.887412299343751,
                -1.005769705656924,
                1.7977824470657597,
                -0.7792537805782136,
                1.5575363233095936,
                3.1854562085560385
            ]
        },
        {
            "positions": [
                -2.970170658765581,
                -0.9742245093219609,
                1.7551652734830534,
                -0.7677640008200525,
                1.7341227100306114,
                3.1958430313163735
            ]
        }
    ]
}