{
    "goal": {
        "global_pose": {
            "orientation": {
                "w": 0.5084816262002911,
                "x": -0.4908360881923452,
                "y": 0.5182115481033761,
                "z": -0.48164630358495003
            },
            "position": {
                "x": 0.5540239810943604,
                "y": -0.46912469901144505,
                "z": 0.16403168439865112
            }
        },
        "name": "move_to_storage_B"
    },
    "id": "BKPIECE_move_to_storage_B_91",
    "joint_names": [
        "shoulder_pan_joint",
        "shoulder_lift_joint",
        "elbow_joint",
        "wrist_1_joint",
        "wrist_2_joint",
        "wrist_3_joint"
    ],
    "metrics": {
        "cart_traj_len": 0.6833756409801691,
        "distance_elbow_joint": 0.49544437712133527,
        "distance_shoulder_lift_joint": 0.45755029493780075,
        "distance_shoulder_pan_joint": 0.34419567231455983,
        "distance_wrist_1_joint": 2.980529017378343,
        "distance_wrist_2_joint": 2.7007836180401896,
        "distance_wrist_3_joint": 3.1455423580990574,
        "smoothness": 0.08684867450557227,
        "time": 0.201337936,
        "traj_len": 3.181830501125302,
        "weighted_distance": 4.7006853425333555
    },
    "planner": "BKPIECE",
    "start": {
        "state": {
            "elbow_joint": 1.6649325340416963,
            "shoulder_lift_joint": -0.6616387945129425,
            "shoulder_pan_joint": -0.9139837929255878,
            "wrist_1_joint": 2.1467571094334352,
            "wrist_2_joint": -2.234195976750228,
            "wrist_3_joint": 0.005470921511140723
        }
    },
    "waypoints": [
        {
            "positions": [
                -0.9139837929255878,
                -0.6616387945129425,
                1.6649325340416963,
                2.1467571094334352,
                -2.234195976750228,
                0.005470921511140723
            ]
        },
        {
            "positions": [
                -0.8329072739254061,
                -0.7132020388698889,
                1.5909056284766434,
                2.0978950906288985,
                -2.139820425115248,
                -0.011606937239972432
            ]
        },
        {
            "positions": [
                -0.8434320400579812,
                -0.7294415208931231,
                1.6077623273388948,
                1.9806284106859462,
                -2.03556410245904,
                -0.1367455172138902
            ]
        },
        {
            "positions": [
                -0.8539568061905564,
                -0.7456810029163572,
                1.624619026201146,
                1.863361730742994,
                -1.9313077798028315,
                -0.2618840971878079
            ]
        },
        {
            "positions": [
                -0.8644815723231315,
                -0.7619204849395914,
                1.6414757250633973,
                1.746095050800042,
                -1.827051457146623,
                -0.38702267716172567
            ]
        },
        {
            "positions": [
                -0.8750063384557065,
                -0.7781599669628255,
                1.6583324239256485,
                1.6288283708570894,
                -1.7227951344904147,
                -0.5121612571356434
            ]
        },
        {
            "positions": [
                -0.8855311045882817,
                -0.7943994489860597,
                1.6751891227878999,
                1.5115616909141374,
                -1.6185388118342061,
                -0.6372998371095613
            ]
        },
        {
            "positions": [
                -0.8960558707208568,
                -0.810638931009294,
                1.6920458216501513,
                1.3942950109711851,
                -1.5142824891779978,
                -0.7624384170834789
            ]
        },
        {
            "positions": [
                -0.9065806368534319,
                -0.8268784130325281,
                1.7089025205124024,
                1.2770283310282329,
                -1.4100261665217895,
                -0.8875769970573968
            ]
        },
        {
            "positions": [
                -0.9171054029860071,
                -0.8431178950557623,
                1.7257592193746538,
                1.1597616510852806,
                -1.3057698438655811,
                -1.0127155770313145
            ]
        },
        {
            "positions": [
                -0.9276301691185822,
                -0.8593573770789964,
                1.742615918236905,
                1.0424949711423284,
                -1.2015135212093728,
                -1.1378541570052323
            ]
        },
        {
            "positions": [
                -0.9381549352511573,
                -0.8755968591022306,
                1.7594726170991564,
                0.9252282911993761,
                -1.0972571985531643,
                -1.2629927369791503
            ]
        },
        {
            "positions": [
                -0.9486797013837325,
                -0.8918363411254648,
                1.7763293159614078,
                0.8079616112564239,
                -0.993000875896956,
                -1.3881313169530678
            ]
        },
        {
            "positions": [
                -0.9592044675163076,
                -0.908075823148699,
                1.793186014823659,
                0.6906949313134718,
                -0.8887445532407476,
                -1.5132698969269855
            ]
        },
        {
            "positions": [
                -0.9697292336488827,
                -0.9243153051719332,
                1.8100427136859103,
                0.5734282513705193,
                -0.7844882305845393,
                -1.6384084769009035
            ]
        },
        {
            "positions": [
                -0.9802539997814579,
                -0.9405547871951674,
                1.8268994125481615,
                0.4561615714275671,
                -0.6802319079283308,
                -1.7635470568748213
            ]
        },
        {
            "positions": [
                -0.9907787659140329,
                -0.9567942692184015,
                1.8437561114104128,
                0.33889489148461505,
                -0.5759755852721227,
                -1.8886856368487388
            ]
        },
        {
            "positions": [
                -1.0013035320466082,
                -0.9730337512416356,
                1.8606128102726642,
                0.2216282115416628,
                -0.4717192626159141,
                -2.0138242168226563
            ]
        },
        {
            "positions": [
                -1.011828298179183,
                -0.9892732332648699,
                1.8774695091349154,
                0.10436153159871031,
                -0.3674629399597056,
                -2.1389627967965743
            ]
        },
        {
            "positions": [
                -1.0223530643117582,
                -1.005512715288104,
                1.8943262079971668,
                -0.012905148344241724,
                -0.2632066173034975,
                -2.264101376770492
            ]
        },
        {
            "positions": [
                -1.0328778304443333,
                -1.0217521973113382,
                1.911182906859418,
                -0.13017182828719376,
                -0.15895029464728894,
                -2.38923995674441
            ]
        },
        {
            "positions": [
                -1.0434025965769085,
                -1.0379916793345725,
                1.9280396057216693,
                -0.24743850823014624,
                -0.05469397199108039,
                -2.514378536718328
            ]
        },
        {
            "positions": [
                -1.0539273627094836,
                -1.0542311613578066,
                1.9448963045839207,
                -0.36470518817309827,
                0.049562350665127486,
                -2.6395171166922453
            ]
        },
        {
            "positions": [
                -1.0644521288420588,
                -1.0704706433810407,
                1.9617530034461719,
                -0.48197186811605075,
                0.15381867332133625,
                -2.764655696666163
            ]
        },
        {
            "positions": [
                -1.074976894974634,
                -1.086710125404275,
                1.9786097023084233,
                -0.5992385480590028,
                0.2580749959775446,
                -2.889794276640081
            ]
        },
        {
            "positions": [
                -1.085501661107209,
                -1.1029496074275091,
                1.9954664011706744,
                -0.7165052280019548,
                0.3623313186337529,
                -3.0149328566139983
            ]
        },
        {
            "positions": [
                -1.0960264272397842,
                -1.1191890894507432,
                2.012323100032926,
                -0.8337719079449075,
                0.46658764128996116,
                -3.1400714365879163
            ]
        }
    ]
}