{
    "goal": {
        "global_pose": {
            "orientation": {
                "w": 0.7047431493862688,
                "x": -0.7094548369677653,
                "y": 0.0024358444001904,
                "z": -0.0022348060817251984
            },
            "position": {
                "x": -0.39052492380142206,
                "y": 0.3671506643295288,
                "z": 0.19426114857196808
            }
        },
        "name": "move_to_magneteinheit_D"
    },
    "id": "BKPIECE_move_to_magneteinheit_D_97",
    "joint_names": [
        "shoulder_pan_joint",
        "shoulder_lift_joint",
        "elbow_joint",
        "wrist_1_joint",
        "wrist_2_joint",
        "wrist_3_joint"
    ],
    "metrics": {
        "cart_traj_len": 4.768903034829502,
        "distance_elbow_joint": 3.137484206757317,
        "distance_shoulder_lift_joint": 1.6333635660452506,
        "distance_shoulder_pan_joint": 2.871005621137132,
        "distance_wrist_1_joint": 3.3187302417778985,
        "distance_wrist_2_joint": 0.5454139464924672,
        "distance_wrist_3_joint": 3.4864043011589265,
        "smoothness": 0.23118025814168058,
        "time": 0.183843647,
        "traj_len": 3.8720023093186544,
        "weighted_distance": 5.082258816112891
    },
    "planner": "BKPIECE",
    "start": {
        "state": {
            "elbow_joint": 0.7495348899011911,
            "shoulder_lift_joint": -0.6476975780737668,
            "shoulder_pan_joint": -2.711696901376276,
            "wrist_1_joint": -0.0750647808097303,
            "wrist_2_joint": 0.43296659715458535,
            "wrist_3_joint": 3.1361499051832418
        }
    },
    "waypoints": [
        {
            "positions": [
                -2.711696901376276,
                -0.6476975780737668,
                0.7495348899011911,
                -0.0750647808097303,
                0.43296659715458535,
                3.1361499051832418
            ]
        },
        {
            "positions": [
                -2.700988033446101,
                -0.7055671043349232,
                0.5733696879518159,
                -0.14775743102781175,
                0.4093042193492432,
                3.0989892232447325
            ]
        },
        {
            "positions": [
                -2.690279165515926,
                -0.7634366305960796,
                0.39720448600244057,
                -0.22045008124589316,
                0.38564184154390113,
                3.0618285413062236
            ]
        },
        {
            "positions": [
                -2.5575754911814172,
                -0.7972868749730152,
                0.3704228322020676,
                -0.2854944030803069,
                0.3676986141340051,
                2.946814834834956
            ]
        },
        {
            "positions": [
                -2.424871816846909,
                -0.8311371193499509,
                0.3436411784016947,
                -0.3505387249147206,
                0.34975538672410905,
                2.8318011283636886
            ]
        },
        {
            "positions": [
                -2.2921681425124,
                -0.8649873637268866,
                0.3168595246013218,
                -0.4155830467491343,
                0.33181215931421304,
                2.7167874218924215
            ]
        },
        {
            "positions": [
                -2.159464468177891,
                -0.8988376081038223,
                0.2900778708009488,
                -0.48062736858354804,
                0.313868931904317,
                2.601773715421154
            ]
        },
        {
            "positions": [
                -2.0267607938433825,
                -0.9326878524807579,
                0.2632962170005759,
                -0.5456716904179617,
                0.29592570449442096,
                2.4867600089498865
            ]
        },
        {
            "positions": [
                -1.8940571195088736,
                -0.9665380968576935,
                0.23651456320020298,
                -0.6107160122523755,
                0.27798247708452495,
                2.371746302478619
            ]
        },
        {
            "positions": [
                -1.7613534451743647,
                -1.0003883412346293,
                0.20973290939983003,
                -0.6757603340867893,
                0.2600392496746289,
                2.2567325960073514
            ]
        },
        {
            "positions": [
                -1.6286497708398557,
                -1.034238585611565,
                0.18295125559945707,
                -0.7408046559212029,
                0.24209602226473284,
                2.141718889536084
            ]
        },
        {
            "positions": [
                -1.495946096505347,
                -1.0680888299885007,
                0.15616960179908412,
                -0.8058489777556167,
                0.22415279485483677,
                2.0267051830648164
            ]
        },
        {
            "positions": [
                -1.3632424221708384,
                -1.1019390743654363,
                0.12938794799871123,
                -0.8708932995900304,
                0.20620956744494076,
                1.911691476593549
            ]
        },
        {
            "positions": [
                -1.2305387478363294,
                -1.135789318742372,
                0.10260629419833826,
                -0.9359376214244441,
                0.18826634003504472,
                1.7966777701222816
            ]
        },
        {
            "positions": [
                -1.1725251614472567,
                -1.1771220030426048,
                0.009481252154574252,
                -0.8488540560121165,
                0.1806078022645983,
                1.7023837205748074
            ]
        },
        {
            "positions": [
                -1.1145115750581842,
                -1.218454687342838,
                -0.08364378988918976,
                -0.7617704905997889,
                0.17294926449415188,
                1.6080896710273334
            ]
        },
        {
            "positions": [
                -1.0564979886691115,
                -1.2597873716430708,
                -0.17676883193295373,
                -0.6746869251874612,
                0.16529072672370548,
                1.5137956214798591
            ]
        },
        {
            "positions": [
                -0.9984844022800389,
                -1.3011200559433038,
                -0.26989387397671777,
                -0.5876033597751336,
                0.15763218895325906,
                1.419501571932385
            ]
        },
        {
            "positions": [
                -0.9404708158909663,
                -1.3424527402435367,
                -0.36301891602048175,
                -0.5005197943628059,
                0.14997365118281264,
                1.325207522384911
            ]
        },
        {
            "positions": [
                -0.8824572295018935,
                -1.3837854245437695,
                -0.45614395806424574,
                -0.4134362289504784,
                0.14231511341236622,
                1.2309134728374367
            ]
        },
        {
            "positions": [
                -0.8244436431128209,
                -1.4251181088440026,
                -0.5492690001080098,
                -0.32635266353815073,
                0.1346565756419198,
                1.1366194232899627
            ]
        },
        {
            "positions": [
                -0.7664300567237483,
                -1.4664507931442354,
                -0.6423940421517739,
                -0.2392690981258231,
                0.12699803787147337,
                1.0423253737424885
            ]
        },
        {
            "positions": [
                -0.7084164703346756,
                -1.5077834774444685,
                -0.7355190841955378,
                -0.15218553271349544,
                0.11933950010102697,
                0.9480313241950142
            ]
        },
        {
            "positions": [
                -0.650402883945603,
                -1.5491161617447013,
                -0.8286441262393018,
                -0.0651019673011678,
                0.11168096233058054,
                0.8537372746475401
            ]
        },
        {
            "positions": [
                -0.5923892975565302,
                -1.5904488460449344,
                -0.9217691682830659,
                0.02198159811115985,
                0.10402242456013412,
                0.7594432251000658
            ]
        },
        {
            "positions": [
                -0.5343757111674576,
                -1.6317815303451673,
                -1.0148942103268297,
                0.10906516352348739,
                0.09636388678968771,
                0.6651491755525918
            ]
        },
        {
            "positions": [
                -0.4763621247783849,
                -1.6731142146454,
                -1.1080192523705938,
                0.19614872893581525,
                0.08870534901924128,
                0.5708551260051176
            ]
        },
        {
            "positions": [
                -0.4183485383893124,
                -1.7144468989456332,
                -1.2011442944143578,
                0.2832322943481427,
                0.08104681124879487,
                0.47656107645764356
            ]
        },
        {
            "positions": [
                -0.3603349520002397,
                -1.7557795832458662,
                -1.294269336458122,
                0.3703158597604703,
                0.07338827347834845,
                0.38226702691016934
            ]
        },
        {
            "positions": [
                -0.30232136561116707,
                -1.7971122675460989,
                -1.3873943785018858,
                0.45739942517279797,
                0.06572973570790204,
                0.28797297736269534
            ]
        },
        {
            "positions": [
                -0.24430777922209435,
                -1.838444951846332,
                -1.48051942054565,
                0.5444829905851256,
                0.058071197937455604,
                0.1936789278152211
            ]
        },
        {
            "positions": [
                -0.18629419283302173,
                -1.879777636146565,
                -1.5736444625894137,
                0.6315665559974533,
                0.05041266016700921,
                0.09938487826774689
            ]
        },
        {
            "positions": [
                -0.128280606443949,
                -1.9211103204467979,
                -1.6667695046331779,
                0.7186501214097809,
                0.04275412239656279,
                0.0050908287202726665
            ]
        },
        {
            "positions": [
                -0.0702670200548765,
                -1.9624430047470307,
                -1.7598945466769418,
                0.8057336868221086,
                0.035095584626116366,
                -0.08920322082720133
            ]
        },
        {
            "positions": [
                -0.012253433665803885,
                -2.0037756890472638,
                -1.853019588720706,
                0.8928172522344361,
                0.02743704685566995,
                -0.18349727037467561
            ]
        },
        {
            "positions": [
                -0.02520724132741951,
                -2.044293768973753,
                -1.958625029931198,
                1.0116671596905829,
                0.05405471546717855,
                -0.1695022451065615
            ]
        },
        {
            "positions": [
                -0.038161048989035135,
                -2.084811848900242,
                -2.0642304711416903,
                1.1305170671467297,
                0.08067238407868714,
                -0.1555072198384474
            ]
        },
        {
            "positions": [
                -0.051114856650650756,
                -2.1253299288267313,
                -2.169835912352182,
                1.2493669746028764,
                0.10729005269019573,
                -0.14151219457033326
            ]
        },
        {
            "positions": [
                -0.06406866431226638,
                -2.1658480087532204,
                -2.275441353562674,
                1.3682168820590235,
                0.13390772130170434,
                -0.12751716930221915
            ]
        },
        {
            "positions": [
                -0.07702247197388201,
                -2.2063660886797094,
                -2.3810467947731664,
                1.4870667895151701,
                0.1605253899132129,
                -0.11352214403410504
            ]
        },
        {
            "positions": [
                -0.18381558709246223,
                -2.2810611441190174,
                -2.374144272690206,
                1.5219197797387418,
                0.1673214430492215,
                -0.016740144773667875
            ]
        }
    ]
}