{
    "goal": {
        "global_pose": {
            "orientation": {
                "w": 0.005598929693374612,
                "x": 0.007748599140229565,
                "y": 0.7110244013736278,
                "z": -0.7031023480610252
            },
            "position": {
                "x": -0.8858502320852131,
                "y": -0.7141253447532654,
                "z": 0.3711530566215515
            }
        },
        "name": "move_to_auspresseinheit_C"
    },
    "id": "BKPIECE_move_to_auspresseinheit_C_46",
    "joint_names": [
        "shoulder_pan_joint",
        "shoulder_lift_joint",
        "elbow_joint",
        "wrist_1_joint",
        "wrist_2_joint",
        "wrist_3_joint"
    ],
    "metrics": {
        "cart_traj_len": 0.4933296863456643,
        "distance_elbow_joint": 0.9898456628044702,
        "distance_shoulder_lift_joint": 0.3194606996289635,
        "distance_shoulder_pan_joint": 0.257191357342033,
        "distance_wrist_1_joint": 0.6580741945264862,
        "distance_wrist_2_joint": 1.304397741886958,
        "distance_wrist_3_joint": 0.05107421900041542,
        "smoothness": 6.459479427736914e-16,
        "time": 0.245032549,
        "traj_len": 1.8921003871859776,
        "weighted_distance": 2.3758502161549666
    },
    "planner": "BKPIECE",
    "start": {
        "state": {
            "elbow_joint": 1.7527959577730765,
            "shoulder_lift_joint": -0.9740617694224828,
            "shoulder_pan_joint": -2.967991417825869,
            "wrist_1_joint": -0.7595177689779385,
            "wrist_2_joint": 1.7443932448376545,
            "wrist_3_joint": 3.1991315425061013
        }
    },
    "waypoints": [
        {
            "positions": [
                -2.967991417825869,
                -0.9740617694224828,
                1.7527959577730765,
                -0.7595177689779385,
                1.7443932448376545,
                3.1991315425061013
            ]
        },
        {
            "positions": [
                -2.9422722820916656,
                -0.9421156994595864,
                1.6538113914926296,
                -0.6937103495252899,
                1.6139534706489587,
                3.19402412060606
            ]
        },
        {
            "positions": [
                -2.9165531463574625,
                -0.9101696294966901,
                1.5548268252121824,
                -0.6279029300726413,
                1.4835136964602629,
                3.1889166987060182
            ]
        },
        {
            "positions": [
                -2.890834010623259,
                -0.8782235595337937,
                1.4558422589317355,
                -0.5620955106199927,
                1.353073922271567,
                3.1838092768059765
            ]
        },
        {
            "positions": [
                -2.865114874889056,
                -0.8462774895708973,
                1.3568576926512885,
                -0.49628809116734407,
                1.2226341480828713,
                3.178701854905935
            ]
        },
        {
            "positions": [
                -2.8393957391548525,
                -0.814331419608001,
                1.2578731263708414,
                -0.43048067171469545,
                1.0921943738941755,
                3.173594433005894
            ]
        },
        {
            "positions": [
                -2.813676603420649,
                -0.7823853496451048,
                1.1588885600903944,
                -0.36467325226204683,
                0.9617545997054797,
                3.168487011105852
            ]
        },
        {
            "positions": [
                -2.787957467686446,
                -0.7504392796822084,
                1.0599039938099475,
                -0.29886583280939827,
                0.831314825516784,
                3.1633795892058103
            ]
        },
        {
            "positions": [
                -2.7622383319522426,
                -0.718493209719312,
                0.9609194275295003,
                -0.2330584133567496,
                0.7008750513280881,
                3.158272167305769
            ]
        },
        {
            "positions": [
                -2.7365191962180395,
                -0.6865471397564156,
                0.8619348612490534,
                -0.16725099390410092,
                0.5704352771393923,
                3.1531647454057277
            ]
        },
        {
            "positions": [
                -2.710800060483836,
                -0.6546010697935193,
                0.7629502949686063,
                -0.10144357445145237,
                0.43999550295069656,
                3.148057323505686
            ]
        }
    ]
}