{
    "goal": {
        "global_pose": {
            "orientation": {
                "w": 0.7031023502349854,
                "x": -0.7110244035720825,
                "y": 0.007748599164187908,
                "z": 0.005598929710686207
            },
            "position": {
                "x": 0.11585023208521307,
                "y": 0.44412534475326537,
                "z": 0.3711530566215515
            }
        },
        "name": "move_to_auspresseinheit_A"
    },
    "id": "BKPIECE_move_to_auspresseinheit_A_4",
    "joint_names": [
        "shoulder_pan_joint",
        "shoulder_lift_joint",
        "elbow_joint",
        "wrist_1_joint",
        "wrist_2_joint",
        "wrist_3_joint"
    ],
    "metrics": {
        "cart_traj_len": 0.7075156023897755,
        "distance_elbow_joint": 0.09740577973815778,
        "distance_shoulder_lift_joint": 0.7824344726044645,
        "distance_shoulder_pan_joint": 1.0816698354847512,
        "distance_wrist_1_joint": 0.5436411462608519,
        "distance_wrist_2_joint": 0.516069021879263,
        "distance_wrist_3_joint": 0.4758840412246559,
        "smoothness": 0.8454679948165092,
        "time": 0.302890897,
        "traj_len": 1.8700546241198797,
        "weighted_distance": 2.34703697196733
    },
    "planner": "BKPIECE",
    "start": {
        "state": {
            "elbow_joint": 2.4225746994637096,
            "shoulder_lift_joint": -1.373653595662188,
            "shoulder_pan_joint": -0.3378633848294565,
            "wrist_1_joint": -1.0288595594406726,
            "wrist_2_joint": 1.2330228066703421,
            "wrist_3_joint": 3.189163495502006
        }
    },
    "waypoints": [
        {
            "positions": [
                -0.3378633848294565,
                -1.373653595662188,
                2.4225746994637096,
                -1.0288595594406726,
                1.2330228066703421,
                3.189163495502006
            ]
        },
        {
            "positions": [
                -0.18579537980718233,
                -1.4677971700142487,
                2.427696249470764,
                -0.9643111620922735,
                1.203626359154366,
                3.152999184334598
            ]
        },
        {
            "positions": [
                -0.03372737478490817,
                -1.5619407443663094,
                2.432817799477819,
                -0.8997627647438744,
                1.1742299116383903,
                3.1168348731671904
            ]
        },
        {
            "positions": [
                0.11834063023736602,
                -1.6560843187183698,
                2.4379393494848736,
                -0.8352143673954753,
                1.1448334641224143,
                3.0806705619997827
            ]
        },
        {
            "positions": [
                0.27040863525964015,
                -1.7502278930704305,
                2.443060899491928,
                -0.7706659700470762,
                1.1154370166064382,
                3.0445062508323755
            ]
        },
        {
            "positions": [
                0.4224766402819144,
                -1.8443714674224911,
                2.4481824494989826,
                -0.706117572698677,
                1.0860405690904622,
                3.0083419396649678
            ]
        },
        {
            "positions": [
                0.5745446453041885,
                -1.9385150417745518,
                2.4533039995060375,
                -0.641569175350278,
                1.0566441215744864,
                2.97217762849756
            ]
        },
        {
            "positions": [
                0.7266126503264627,
                -2.0326586161266125,
                2.458425549513092,
                -0.5770207780018789,
                1.0272476740585104,
                2.9360133173301524
            ]
        },
        {
            "positions": [
                0.7208813835501855,
                -1.9915154654132659,
                2.4379072396168335,
                -0.5464199897278594,
                0.9238163776360333,
                3.010257938347753
            ]
        },
        {
            "positions": [
                0.7151501167739082,
                -1.950372314699919,
                2.417388929720575,
                -0.5158192014538401,
                0.8203850812135562,
                3.084502559365354
            ]
        },
        {
            "positions": [
                0.7094188499976309,
                -1.9092291639865724,
                2.3968706198243166,
                -0.4852184131798207,
                0.7169537847910792,
                3.1587471803829548
            ]
        }
    ]
}