{
    "goal": {
        "global_pose": {
            "orientation": {
                "w": 0.7047431493862688,
                "x": -0.7094548369677653,
                "y": 0.0024358444001904,
                "z": -0.0022348060817251984
            },
            "position": {
                "x": -0.39052492380142206,
                "y": 0.3671506643295288,
                "z": 0.19426114857196808
            }
        },
        "name": "move_to_magneteinheit_D"
    },
    "id": "BKPIECE_move_to_magneteinheit_D_18",
    "joint_names": [
        "shoulder_pan_joint",
        "shoulder_lift_joint",
        "elbow_joint",
        "wrist_1_joint",
        "wrist_2_joint",
        "wrist_3_joint"
    ],
    "metrics": {
        "cart_traj_len": 4.865564817829501,
        "distance_elbow_joint": 4.671531293482873,
        "distance_shoulder_lift_joint": 1.6425247192051635,
        "distance_shoulder_pan_joint": 3.6488384892299544,
        "distance_wrist_1_joint": 5.214057207764389,
        "distance_wrist_2_joint": 2.9442235763552427,
        "distance_wrist_3_joint": 3.1207508458638777,
        "smoothness": 0.4585778931935626,
        "time": 0.256453135,
        "traj_len": 4.608896411496084,
        "weighted_distance": 5.97006772220792
    },
    "planner": "BKPIECE",
    "start": {
        "state": {
            "elbow_joint": 0.7495348899011911,
            "shoulder_lift_joint": -0.6476975780737668,
            "shoulder_pan_joint": -2.711696901376276,
            "wrist_1_joint": -0.0750647808097303,
            "wrist_2_joint": 0.43296659715458535,
            "wrist_3_joint": 3.1361499051832418
        }
    },
    "waypoints": [
        {
            "positions": [
                -2.711696901376276,
                -0.6476975780737668,
                0.7495348899011911,
                -0.0750647808097303,
                0.43296659715458535,
                3.1361499051832418
            ]
        },
        {
            "positions": [
                -2.716234824265186,
                -0.6451343614044833,
                0.7407424716912507,
                -0.1644227989893606,
                0.47859439142818133,
                2.9524513836633166
            ]
        },
        {
            "positions": [
                -2.7207727471540957,
                -0.6425711447351998,
                0.7319500534813104,
                -0.2537808171689909,
                0.5242221857017774,
                2.768752862143391
            ]
        },
        {
            "positions": [
                -2.7253106700430054,
                -0.6400079280659163,
                0.72315763527137,
                -0.3431388353486212,
                0.5698499799753733,
                2.585054340623466
            ]
        },
        {
            "positions": [
                -2.745369814761743,
                -0.6887100103951891,
                0.7708822789576208,
                -0.44205199032673137,
                0.6451546938032274,
                2.4842241320873217
            ]
        },
        {
            "positions": [
                -2.7654289594804804,
                -0.7374120927244618,
                0.8186069226438718,
                -0.5409651453048415,
                0.7204594076310815,
                2.3833939235511776
            ]
        },
        {
            "positions": [
                -2.785488104199218,
                -0.7861141750537347,
                0.8663315663301226,
                -0.6398783002829517,
                0.7957641214589356,
                2.2825637150150335
            ]
        },
        {
            "positions": [
                -2.8055472489179554,
                -0.8348162573830075,
                0.9140562100163736,
                -0.7387914552610618,
                0.8710688352867897,
                2.18173350647889
            ]
        },
        {
            "positions": [
                -2.825606393636693,
                -0.8835183397122802,
                0.9617808537026244,
                -0.837704610239172,
                0.9463735491146438,
                2.0809032979427458
            ]
        },
        {
            "positions": [
                -2.8456655383554303,
                -0.9322204220415531,
                1.0095054973888753,
                -0.9366177652172821,
                1.0216782629424979,
                1.9800730894066016
            ]
        },
        {
            "positions": [
                -2.865724683074168,
                -0.9809225043708258,
                1.0572301410751261,
                -1.0355309201953924,
                1.0969829767703518,
                1.8792428808704575
            ]
        },
        {
            "positions": [
                -2.8857838277929053,
                -1.0296245867000986,
                1.104954784761377,
                -1.1344440751735023,
                1.172287690598206,
                1.7784126723343137
            ]
        },
        {
            "positions": [
                -2.905842972511643,
                -1.0783266690293714,
                1.152679428447628,
                -1.2333572301516127,
                1.2475924044260602,
                1.6775824637981698
            ]
        },
        {
            "positions": [
                -2.9259021172303807,
                -1.127028751358644,
                1.200404072133879,
                -1.3322703851297226,
                1.3228971182539142,
                1.5767522552620257
            ]
        },
        {
            "positions": [
                -2.945961261949118,
                -1.175730833687917,
                1.2481287158201297,
                -1.431183540107833,
                1.3982018320817682,
                1.4759220467258816
            ]
        },
        {
            "positions": [
                -2.9660204066678557,
                -1.2244329160171898,
                1.2958533595063806,
                -1.530096695085943,
                1.4735065459096224,
                1.3750918381897375
            ]
        },
        {
            "positions": [
                -2.986079551386593,
                -1.2731349983464626,
                1.3435780031926314,
                -1.6290098500640533,
                1.5488112597374766,
                1.2742616296535936
            ]
        },
        {
            "positions": [
                -3.0061386961053307,
                -1.3218370806757354,
                1.3913026468788825,
                -1.7279230050421632,
                1.6241159735653306,
                1.1734314211174495
            ]
        },
        {
            "positions": [
                -3.026197840824068,
                -1.370539163005008,
                1.4390272905651333,
                -1.8268361600202736,
                1.6994206873931845,
                1.0726012125813056
            ]
        },
        {
            "positions": [
                -3.0462569855428057,
                -1.4192412453342809,
                1.4867519342513842,
                -1.9257493149983835,
                1.7747254012210387,
                0.9717710040451614
            ]
        },
        {
            "positions": [
                -2.9527234359438848,
                -1.4405947590644945,
                1.3806884399453598,
                -1.838414938775494,
                1.726321424659041,
                0.9437858409430291
            ]
        },
        {
            "positions": [
                -2.8591898863449643,
                -1.461948272794708,
                1.2746249456393355,
                -1.7510805625526045,
                1.6779174480970434,
                0.9158006778408968
            ]
        },
        {
            "positions": [
                -2.7656563367460434,
                -1.4833017865249216,
                1.1685614513333111,
                -1.663746186329715,
                1.6295134715350454,
                0.8878155147387645
            ]
        },
        {
            "positions": [
                -2.672122787147123,
                -1.5046553002551353,
                1.0624979570272868,
                -1.5764118101068254,
                1.5811094949730478,
                0.8598303516366322
            ]
        },
        {
            "positions": [
                -2.578589237548202,
                -1.5260088139853487,
                0.9564344627212624,
                -1.4890774338839357,
                1.53270551841105,
                0.8318451885345
            ]
        },
        {
            "positions": [
                -2.4850556879492816,
                -1.5473623277155624,
                0.8503709684152381,
                -1.4017430576610461,
                1.4843015418490522,
                0.8038600254323676
            ]
        },
        {
            "positions": [
                -2.3915221383503606,
                -1.568715841445776,
                0.7443074741092137,
                -1.3144086814381566,
                1.4358975652870545,
                0.7758748623302353
            ]
        },
        {
            "positions": [
                -2.2979885887514397,
                -1.5900693551759895,
                0.6382439798031894,
                -1.227074305215267,
                1.3874935887250568,
                0.747889699228103
            ]
        },
        {
            "positions": [
                -2.2044550391525193,
                -1.6114228689062031,
                0.5321804854971651,
                -1.1397399289923775,
                1.339089612163059,
                0.7199045361259708
            ]
        },
        {
            "positions": [
                -2.110921489553599,
                -1.6327763826364168,
                0.42611699119114066,
                -1.0524055527694878,
                1.2906856356010614,
                0.6919193730238384
            ]
        },
        {
            "positions": [
                -2.017387939954678,
                -1.6541298963666302,
                0.3200534968851163,
                -0.9650711765465985,
                1.2422816590390635,
                0.6639342099217062
            ]
        },
        {
            "positions": [
                -1.9238543903557572,
                -1.6754834100968439,
                0.21399000257909195,
                -0.8777368003237087,
                1.1938776824770658,
                0.6359490468195739
            ]
        },
        {
            "positions": [
                -1.8303208407568365,
                -1.6968369238270573,
                0.1079265082730676,
                -0.7904024241008194,
                1.1454737059150681,
                0.6079638837174416
            ]
        },
        {
            "positions": [
                -1.7367872911579159,
                -1.718190437557271,
                0.0018630139670432477,
                -0.7030680478779296,
                1.0970697293530702,
                0.5799787206153093
            ]
        },
        {
            "positions": [
                -1.6432537415589952,
                -1.7395439512874846,
                -0.1042004803389811,
                -0.6157336716550401,
                1.0486657527910728,
                0.551993557513177
            ]
        },
        {
            "positions": [
                -1.5497201919600743,
                -1.7608974650176983,
                -0.21026397464500546,
                -0.5283992954321506,
                1.0002617762290749,
                0.5240083944110447
            ]
        },
        {
            "positions": [
                -1.4561866423611538,
                -1.7822509787479117,
                -0.3163274689510298,
                -0.44106491920926105,
                0.9518577996670772,
                0.4960232313089124
            ]
        },
        {
            "positions": [
                -1.3626530927622331,
                -1.8036044924781254,
                -0.42239096325705394,
                -0.3537305429863715,
                0.9034538231050795,
                0.4680380682067802
            ]
        },
        {
            "positions": [
                -1.2691195431633122,
                -1.824958006208339,
                -0.5284544575630785,
                -0.26639616676348177,
                0.8550498465430816,
                0.4400529051046478
            ]
        },
        {
            "positions": [
                -1.1755859935643915,
                -1.8463115199385527,
                -0.6345179518691029,
                -0.17906179054059224,
                0.8066458699810839,
                0.4120677420025155
            ]
        },
        {
            "positions": [
                -1.0820524439654708,
                -1.8676650336687661,
                -0.7405814461751272,
                -0.09172741431770293,
                0.7582418934190862,
                0.3840825789003832
            ]
        },
        {
            "positions": [
                -0.9885188943665502,
                -1.8890185473989796,
                -0.8466449404811516,
                -0.004393038094813395,
                0.7098379168570885,
                0.35609741579825094
            ]
        },
        {
            "positions": [
                -0.8949853447676293,
                -1.9103720611291934,
                -0.9527084347871759,
                0.08294133812807658,
                0.6614339402950906,
                0.32811225269611866
            ]
        },
        {
            "positions": [
                -0.8014517951687088,
                -1.9317255748594069,
                -1.0587719290932003,
                0.1702757143509661,
                0.6130299637330929,
                0.3001270895939864
            ]
        },
        {
            "positions": [
                -0.7079182455697879,
                -1.9530790885896203,
                -1.1648354233992246,
                0.2576100905738552,
                0.5646259871710952,
                0.2721419264918541
            ]
        },
        {
            "positions": [
                -0.6143846959708674,
                -1.974432602319834,
                -1.270898917705249,
                0.34494446679674473,
                0.5162220106090976,
                0.2441567633897218
            ]
        },
        {
            "positions": [
                -0.5208511463719465,
                -1.9957861160500476,
                -1.3769624120112733,
                0.4322788430196347,
                0.46781803404709965,
                0.21617160028758942
            ]
        },
        {
            "positions": [
                -0.42731759677302605,
                -2.017139629780261,
                -1.4830259063172977,
                0.5196132192425242,
                0.41941405748510197,
                0.18818643718545713
            ]
        },
        {
            "positions": [
                -0.33378404717410515,
                -2.038493143510475,
                -1.589089400623322,
                0.6069475954654138,
                0.3710100809231043,
                0.16020127408332485
            ]
        },
        {
            "positions": [
                -0.24025049757518468,
                -2.0598466572406884,
                -1.6951528949293464,
                0.6942819716883033,
                0.3226061043611066,
                0.13221611098119268
            ]
        },
        {
            "positions": [
                -0.14671694797626378,
                -2.0812001709709023,
                -1.8012163892353708,
                0.7816163479111928,
                0.2742021277991087,
                0.10423094787906029
            ]
        },
        {
            "positions": [
                -0.05318339837734287,
                -2.1025536847011157,
                -1.907279883541395,
                0.8689507241340824,
                0.225798151237111,
                0.076245784776928
            ]
        },
        {
            "positions": [
                0.04035015122157773,
                -2.123907198431329,
                -2.0133433778474195,
                0.9562851003569717,
                0.17739417467511331,
                0.04826062167479572
            ]
        },
        {
            "positions": [
                -0.0242410993197838,
                -2.16986623498155,
                -2.131906081660668,
                1.1041810710512323,
                0.17625572151464342,
                0.0586879819924415
            ]
        },
        {
            "positions": [
                -0.08883234986114533,
                -2.2158252715317706,
                -2.250468785473916,
                1.2520770417454932,
                0.1751172683541735,
                0.06911534231008727
            ]
        },
        {
            "positions": [
                -0.15342360040250685,
                -2.2617843080819915,
                -2.3690314892871642,
                1.3999730124397538,
                0.1739788151937036,
                0.07954270262773305
            ]
        },
        {
            "positions": [
                -0.18732111707746302,
                -2.2748429972632294,
                -2.3948078056216535,
                1.4376233585773515,
                0.1756970014551545,
                0.08112218403022428
            ]
        }
    ]
}