{
    "goal": {
        "global_pose": {
            "orientation": {
                "w": 0.7031023480610252,
                "x": -0.7110244013736278,
                "y": 0.0077485991402295624,
                "z": 0.005598929693374583
            },
            "position": {
                "x": -0.8841497679147869,
                "y": 0.44412534475326537,
                "z": 0.3711530566215515
            }
        },
        "name": "move_to_auspresseinheit_D"
    },
    "id": "BKPIECE_move_to_auspresseinheit_D_32",
    "joint_names": [
        "shoulder_pan_joint",
        "shoulder_lift_joint",
        "elbow_joint",
        "wrist_1_joint",
        "wrist_2_joint",
        "wrist_3_joint"
    ],
    "metrics": {
        "cart_traj_len": 0.3424823117865999,
        "distance_elbow_joint": 0.6342118564549923,
        "distance_shoulder_lift_joint": 0.11912307272300104,
        "distance_shoulder_pan_joint": 0.13346112801003518,
        "distance_wrist_1_joint": 0.522126993140168,
        "distance_wrist_2_joint": 1.436307468649983,
        "distance_wrist_3_joint": 0.006360953952170512,
        "smoothness": 3.947459674368863e-16,
        "time": 0.09263286200000001,
        "traj_len": 1.6886655894315932,
        "weighted_distance": 2.196075554853439
    },
    "planner": "BKPIECE",
    "start": {
        "state": {
            "elbow_joint": -1.8275484843655228,
            "shoulder_lift_joint": -2.1267897864000416,
            "shoulder_pan_joint": -0.035127520176001514,
            "wrist_1_joint": -2.3477863256791385,
            "wrist_2_joint": -1.605890476484521,
            "wrist_3_joint": -3.0880375317375353
        }
    },
    "waypoints": [
        {
            "positions": [
                -0.035127520176001514,
                -2.1267897864000416,
                -1.8275484843655228,
                -2.3477863256791385,
                -1.605890476484521,
                -3.0880375317375353
            ]
        },
        {
            "positions": [
                -0.05181016117725591,
                -2.1416801704904165,
                -1.7482720023086487,
                -2.4130521998216596,
                -1.426352042903273,
                -3.0888326509815567
            ]
        },
        {
            "positions": [
                -0.06849280217851031,
                -2.156570554580792,
                -1.6689955202517748,
                -2.4783180739641804,
                -1.2468136093220252,
                -3.0896277702255777
            ]
        },
        {
            "positions": [
                -0.0851754431797647,
                -2.171460938671167,
                -1.5897190381949007,
                -2.5435839481067015,
                -1.0672751757407775,
                -3.090422889469599
            ]
        },
        {
            "positions": [
                -0.1018580841810191,
                -2.186351322761542,
                -1.5104425561380266,
                -2.6088498222492227,
                -0.8877367421595295,
                -3.0912180087136205
            ]
        },
        {
            "positions": [
                -0.1185407251822735,
                -2.201241706851917,
                -1.4311660740811525,
                -2.6741156963917434,
                -0.7081983085782816,
                -3.092013127957642
            ]
        },
        {
            "positions": [
                -0.1352233661835279,
                -2.2161320909422924,
                -1.3518895920242784,
                -2.7393815705342646,
                -0.5286598749970337,
                -3.0928082472016634
            ]
        },
        {
            "positions": [
                -0.1519060071847823,
                -2.2310224750326677,
                -1.2726131099674045,
                -2.8046474446767853,
                -0.3491214414157857,
                -3.0936033664456843
            ]
        },
        {
            "positions": [
                -0.1685886481860367,
                -2.2459128591230426,
                -1.1933366279105304,
                -2.8699133188193064,
                -0.16958300783453795,
                -3.0943984856897058
            ]
        }
    ]
}