{
    "goal": {
        "global_pose": {
            "orientation": {
                "w": 0.7031023480610252,
                "x": -0.7110244013736278,
                "y": 0.0077485991402295624,
                "z": 0.005598929693374583
            },
            "position": {
                "x": -0.8841497679147869,
                "y": 0.44412534475326537,
                "z": 0.3711530566215515
            }
        },
        "name": "move_to_auspresseinheit_D"
    },
    "id": "BKPIECE_move_to_auspresseinheit_D_49",
    "joint_names": [
        "shoulder_pan_joint",
        "shoulder_lift_joint",
        "elbow_joint",
        "wrist_1_joint",
        "wrist_2_joint",
        "wrist_3_joint"
    ],
    "metrics": {
        "cart_traj_len": 0.3440325041741883,
        "distance_elbow_joint": 0.6574017187050727,
        "distance_shoulder_lift_joint": 0.1310662069616444,
        "distance_shoulder_pan_joint": 0.13356228168582054,
        "distance_wrist_1_joint": 0.6026443344832528,
        "distance_wrist_2_joint": 1.4316338986727333,
        "distance_wrist_3_joint": 0.06850825154041029,
        "smoothness": 5.921189455882201e-16,
        "time": 0.10760588700000001,
        "traj_len": 1.7392000149634699,
        "weighted_distance": 2.279498064988374
    },
    "planner": "BKPIECE",
    "start": {
        "state": {
            "elbow_joint": -1.8275484843655228,
            "shoulder_lift_joint": -2.1267897864000416,
            "shoulder_pan_joint": -0.035127520176001514,
            "wrist_1_joint": -2.3477863256791385,
            "wrist_2_joint": -1.605890476484521,
            "wrist_3_joint": -3.0880375317375353
        }
    },
    "waypoints": [
        {
            "positions": [
                -0.035127520176001514,
                -2.1267897864000416,
                -1.8275484843655228,
                -2.3477863256791385,
                -1.605890476484521,
                -3.0880375317375353
            ]
        },
        {
            "positions": [
                -0.05182280538672908,
                -2.143173062270247,
                -1.7453732695273887,
                -2.423116867489545,
                -1.4269362391504292,
                -3.079474000294984
            ]
        },
        {
            "positions": [
                -0.06851809059745664,
                -2.159556338140453,
                -1.6631980546892546,
                -2.498447409299952,
                -1.2479820018163377,
                -3.070910468852433
            ]
        },
        {
            "positions": [
                -0.08521337580818422,
                -2.1759396140106584,
                -1.5810228398511206,
                -2.5737779511103582,
                -1.0690277644822461,
                -3.0623469374098815
            ]
        },
        {
            "positions": [
                -0.10190866101891179,
                -2.192322889880864,
                -1.4988476250129863,
                -2.6491084929207647,
                -0.8900735271481544,
                -3.05378340596733
            ]
        },
        {
            "positions": [
                -0.11860394622963935,
                -2.208706165751069,
                -1.4166724101748525,
                -2.7244390347311715,
                -0.7111192898140627,
                -3.0452198745247787
            ]
        },
        {
            "positions": [
                -0.13529923144036693,
                -2.2250894416212748,
                -1.3344971953367182,
                -2.799769576541578,
                -0.532165052479971,
                -3.0366563430822273
            ]
        },
        {
            "positions": [
                -0.15199451665109448,
                -2.2414727174914804,
                -1.2523219804985841,
                -2.875100118351985,
                -0.35321081514587926,
                -3.0280928116396764
            ]
        },
        {
            "positions": [
                -0.16868980186182206,
                -2.257855993361686,
                -1.17014676566045,
                -2.9504306601623913,
                -0.1742565778117878,
                -3.019529280197125
            ]
        }
    ]
}