{
    "goal": {
        "global_pose": {
            "orientation": {
                "w": 0.7047431468963623,
                "x": -0.7094548344612122,
                "y": 0.0024358443915843964,
                "z": -0.0022348060738295317
            },
            "position": {
                "x": 0.6094750761985779,
                "y": 0.3671506643295288,
                "z": 0.19426114857196808
            }
        },
        "name": "move_to_magneteinheit_A"
    },
    "id": "BKPIECE_move_to_magneteinheit_A_33",
    "joint_names": [
        "shoulder_pan_joint",
        "shoulder_lift_joint",
        "elbow_joint",
        "wrist_1_joint",
        "wrist_2_joint",
        "wrist_3_joint"
    ],
    "metrics": {
        "cart_traj_len": 1.59269944415739,
        "distance_elbow_joint": 3.5326008806459326,
        "distance_shoulder_lift_joint": 1.1387181236964445,
        "distance_shoulder_pan_joint": 1.240308708617081,
        "distance_wrist_1_joint": 3.8523225765769284,
        "distance_wrist_2_joint": 1.7024020489525609,
        "distance_wrist_3_joint": 5.045747642923301,
        "smoothness": 5.990040524145959e-16,
        "time": 0.204813599,
        "traj_len": 4.063508334113792,
        "weighted_distance": 5.670830617536407
    },
    "planner": "BKPIECE",
    "start": {
        "state": {
            "elbow_joint": -1.5739458827952972,
            "shoulder_lift_joint": 0.006533473998580023,
            "shoulder_pan_joint": -1.1188671628667068,
            "wrist_1_joint": 3.138208179676308,
            "wrist_2_joint": -1.5706037135050406,
            "wrist_3_joint": -2.0226958329764257
        }
    },
    "waypoints": [
        {
            "positions": [
                -1.1188671628667068,
                0.006533473998580023,
                -1.5739458827952972,
                3.138208179676308,
                -1.5706037135050406,
                -2.0226958329764257
            ]
        },
        {
            "positions": [
                -1.0893360031377288,
                -0.02057886227990675,
                -1.489836338018013,
                3.046486213567334,
                -1.5300703313871225,
                -1.9025589843353947
            ]
        },
        {
            "positions": [
                -1.0598048434087506,
                -0.04769119855839352,
                -1.4057267932407291,
                2.954764247458359,
                -1.4895369492692043,
                -1.7824221356943637
            ]
        },
        {
            "positions": [
                -1.0302736836797726,
                -0.07480353483688029,
                -1.321617248463445,
                2.8630422813493848,
                -1.4490035671512862,
                -1.662285287053333
            ]
        },
        {
            "positions": [
                -1.0007425239507943,
                -0.10191587111536707,
                -1.2375077036861608,
                2.77132031524041,
                -1.408470185033368,
                -1.5421484384123019
            ]
        },
        {
            "positions": [
                -0.9712113642218163,
                -0.12902820739385382,
                -1.1533981589088766,
                2.6795983491314357,
                -1.36793680291545,
                -1.4220115897712708
            ]
        },
        {
            "positions": [
                -0.9416802044928382,
                -0.1561405436723406,
                -1.0692886141315925,
                2.5878763830224614,
                -1.3274034207975318,
                -1.30187474113024
            ]
        },
        {
            "positions": [
                -0.91214904476386,
                -0.18325287995082737,
                -0.9851790693543085,
                2.4961544169134866,
                -1.2868700386796137,
                -1.181737892489209
            ]
        },
        {
            "positions": [
                -0.8826178850348819,
                -0.21036521622931414,
                -0.9010695245770244,
                2.4044324508045123,
                -1.2463366565616956,
                -1.061601043848178
            ]
        },
        {
            "positions": [
                -0.8530867253059038,
                -0.23747755250780092,
                -0.8169599797997403,
                2.312710484695538,
                -1.2058032744437774,
                -0.941464195207147
            ]
        },
        {
            "positions": [
                -0.8235555655769257,
                -0.2645898887862877,
                -0.7328504350224562,
                2.220988518586563,
                -1.1652698923258593,
                -0.8213273465661162
            ]
        },
        {
            "positions": [
                -0.7940244058479475,
                -0.29170222506477456,
                -0.648740890245172,
                2.1292665524775884,
                -1.1247365102079412,
                -0.7011904979250849
            ]
        },
        {
            "positions": [
                -0.7644932461189695,
                -0.31881456134326125,
                -0.564631345467888,
                2.0375445863686146,
                -1.0842031280900233,
                -0.5810536492840541
            ]
        },
        {
            "positions": [
                -0.7349620863899913,
                -0.34592689762174805,
                -0.4805218006906038,
                1.9458226202596398,
                -1.043669745972105,
                -0.4609168006430231
            ]
        },
        {
            "positions": [
                -0.7054309266610133,
                -0.3730392339002348,
                -0.39641225591331986,
                1.8541006541506655,
                -1.003136363854187,
                -0.3407799520019923
            ]
        },
        {
            "positions": [
                -0.675899766932035,
                -0.4001515701787216,
                -0.31230271113603547,
                1.7623786880416907,
                -0.9626029817362688,
                -0.22064310336096105
            ]
        },
        {
            "positions": [
                -0.646368607203057,
                -0.42726390645720835,
                -0.22819316635875153,
                1.6706567219327164,
                -0.9220695996183508,
                -0.10050625471993024
            ]
        },
        {
            "positions": [
                -0.6168374474740789,
                -0.45437624273569516,
                -0.14408362158146737,
                1.5789347558237419,
                -0.8815362175004327,
                0.019630593921101003
            ]
        },
        {
            "positions": [
                -0.5873062877451007,
                -0.4814885790141819,
                -0.05997407680418343,
                1.4872127897147676,
                -0.8410028353825145,
                0.1397674425621318
            ]
        },
        {
            "positions": [
                -0.5577751280161226,
                -0.5086009152926687,
                0.024135467973100955,
                1.3954908236057928,
                -0.8004694532645964,
                0.2599042912031626
            ]
        },
        {
            "positions": [
                -0.5282439682871445,
                -0.5357132515711553,
                0.1082450127503849,
                1.3037688574968185,
                -0.7599360711466783,
                0.3800411398441934
            ]
        },
        {
            "positions": [
                -0.49871280855816635,
                -0.5628255878496422,
                0.19235455752766906,
                1.212046891387844,
                -0.7194026890287601,
                0.5001779884852247
            ]
        },
        {
            "positions": [
                -0.4691816488291882,
                -0.5899379241281291,
                0.2764641023049532,
                1.1203249252788692,
                -0.678869306910842,
                0.6203148371262559
            ]
        },
        {
            "positions": [
                -0.4396504891002101,
                -0.6170502604066158,
                0.3605736470822374,
                1.0286029591698949,
                -0.6383359247929238,
                0.7404516857672867
            ]
        },
        {
            "positions": [
                -0.4101193293712321,
                -0.6441625966851025,
                0.4446831918595213,
                0.9368809930609205,
                -0.5978025426750059,
                0.8605885344083175
            ]
        },
        {
            "positions": [
                -0.38058816964225384,
                -0.6712749329635893,
                0.5287927366368053,
                0.8451590269519462,
                -0.5572691605570876,
                0.9807253830493483
            ]
        },
        {
            "positions": [
                -0.3510570099132757,
                -0.6983872692420761,
                0.6129022814140896,
                0.7534370608429715,
                -0.5167357784391695,
                1.1008622316903796
            ]
        },
        {
            "positions": [
                -0.3215258501842976,
                -0.7254996055205629,
                0.697011826191374,
                0.6617150947339967,
                -0.4762023963212514,
                1.2209990803314108
            ]
        },
        {
            "positions": [
                -0.29199469045531956,
                -0.7526119417990496,
                0.7811213709686575,
                0.5699931286250228,
                -0.4356690142033335,
                1.3411359289724412
            ]
        },
        {
            "positions": [
                -0.26246353072634143,
                -0.7797242780775364,
                0.8652309157459419,
                0.47827116251604807,
                -0.39513563208541513,
                1.4612727776134724
            ]
        },
        {
            "positions": [
                -0.2329323709973633,
                -0.8068366143560232,
                0.9493404605232263,
                0.3865491964070733,
                -0.354602249967497,
                1.5814096262545037
            ]
        },
        {
            "positions": [
                -0.20340121126838506,
                -0.83394895063451,
                1.0334500053005102,
                0.294827230298099,
                -0.3140688678495789,
                1.7015464748955345
            ]
        },
        {
            "positions": [
                -0.17387005153940716,
                -0.8610612869129967,
                1.1175595500777942,
                0.20310526418912467,
                -0.273535485731661,
                1.8216833235365653
            ]
        },
        {
            "positions": [
                -0.14433889181042892,
                -0.8881736231914835,
                1.2016690948550781,
                0.11138329808015035,
                -0.23300210361374285,
                1.941820172177596
            ]
        },
        {
            "positions": [
                -0.1148077320814509,
                -0.9152859594699703,
                1.2857786396323625,
                0.01966133197117559,
                -0.19246872149582472,
                2.0619570208186278
            ]
        },
        {
            "positions": [
                -0.08527657235247266,
                -0.9423982957484571,
                1.3698881844096469,
                -0.07206063413779917,
                -0.15193533937790638,
                2.1820938694596586
            ]
        },
        {
            "positions": [
                -0.05574541262349464,
                -0.9695106320269438,
                1.4539977291869304,
                -0.16378260024677305,
                -0.11140195725998847,
                2.3022307181006894
            ]
        },
        {
            "positions": [
                -0.0262142528945164,
                -0.9966229683054306,
                1.5381072739642148,
                -0.2555045663557478,
                -0.07086857514207034,
                2.42236756674172
            ]
        },
        {
            "positions": [
                0.0033169068344616193,
                -1.0237353045839175,
                1.6222168187414991,
                -0.34722653246472257,
                -0.03033519302415222,
                2.542504415382751
            ]
        },
        {
            "positions": [
                0.03284806656343986,
                -1.0508476408624041,
                1.706326363518783,
                -0.4389484985736969,
                0.010198189093765908,
                2.6626412640237827
            ]
        },
        {
            "positions": [
                0.06237922629241788,
                -1.0779599771408908,
                1.790435908296067,
                -0.5306704646826712,
                0.050731571211684034,
                2.7827781126648126
            ]
        },
        {
            "positions": [
                0.0919103860213959,
                -1.1050723134193776,
                1.874545453073351,
                -0.6223924307916455,
                0.09126495332960216,
                2.9029149613058443
            ]
        },
        {
            "positions": [
                0.12144154575037408,
                -1.1321846496978645,
                1.9586549978506351,
                -0.7141143969006203,
                0.13179833544752037,
                3.0230518099468755
            ]
        }
    ]
}