{
    "goal": {
        "global_pose": {
            "orientation": {
                "w": 0.7047431468963623,
                "x": -0.7094548344612122,
                "y": 0.0024358443915843964,
                "z": -0.0022348060738295317
            },
            "position": {
                "x": 0.6094750761985779,
                "y": 0.3671506643295288,
                "z": 0.19426114857196808
            }
        },
        "name": "move_to_magneteinheit_A"
    },
    "id": "BKPIECE_move_to_magneteinheit_A_60",
    "joint_names": [
        "shoulder_pan_joint",
        "shoulder_lift_joint",
        "elbow_joint",
        "wrist_1_joint",
        "wrist_2_joint",
        "wrist_3_joint"
    ],
    "metrics": {
        "cart_traj_len": 1.9803100651734094,
        "distance_elbow_joint": 3.597594406783914,
        "distance_shoulder_lift_joint": 0.7981464943035882,
        "distance_shoulder_pan_joint": 1.2422913748201354,
        "distance_wrist_1_joint": 1.1108550558064252,
        "distance_wrist_2_joint": 1.4311849372607026,
        "distance_wrist_3_joint": 1.9108608828810332,
        "smoothness": 4.276414619397388e-16,
        "time": 0.310595079,
        "traj_len": 3.176622916220274,
        "weighted_distance": 4.05643869800654
    },
    "planner": "BKPIECE",
    "start": {
        "state": {
            "elbow_joint": -1.5739458827952972,
            "shoulder_lift_joint": 0.006533473998580023,
            "shoulder_pan_joint": -1.1188671628667068,
            "wrist_1_joint": 3.138208179676308,
            "wrist_2_joint": -1.5706037135050406,
            "wrist_3_joint": -2.0226958329764257
        }
    },
    "waypoints": [
        {
            "positions": [
                -1.1188671628667068,
                0.006533473998580023,
                -1.5739458827952972,
                3.138208179676308,
                -1.5706037135050406,
                -2.0226958329764257
            ]
        },
        {
            "positions": [
                -1.0710867253736247,
                -0.024164468090019525,
                -1.435576867149762,
                3.095482985222215,
                -1.5155581389950135,
                -1.9492011836348475
            ]
        },
        {
            "positions": [
                -1.0233062878805426,
                -0.05486241017861907,
                -1.297207851504227,
                3.052757790768122,
                -1.4605125644849866,
                -1.8757065342932693
            ]
        },
        {
            "positions": [
                -0.9755258503874604,
                -0.08556035226721861,
                -1.1588388358586919,
                3.010032596314028,
                -1.4054669899749594,
                -1.802211884951691
            ]
        },
        {
            "positions": [
                -0.9277454128943783,
                -0.11625829435581816,
                -1.0204698202131566,
                2.967307401859935,
                -1.3504214154649326,
                -1.7287172356101128
            ]
        },
        {
            "positions": [
                -0.8799649754012961,
                -0.14695623644441771,
                -0.8821008045676214,
                2.924582207405842,
                -1.2953758409549054,
                -1.6552225862685348
            ]
        },
        {
            "positions": [
                -0.832184537908214,
                -0.17765417853301724,
                -0.7437317889220862,
                2.8818570129517487,
                -1.2403302664448783,
                -1.5817279369269566
            ]
        },
        {
            "positions": [
                -0.7844041004151319,
                -0.2083521206216168,
                -0.6053627732765512,
                2.839131818497655,
                -1.1852846919348514,
                -1.5082332875853783
            ]
        },
        {
            "positions": [
                -0.7366236629220497,
                -0.23905006271021634,
                -0.4669937576310159,
                2.796406624043562,
                -1.1302391174248243,
                -1.4347386382438
            ]
        },
        {
            "positions": [
                -0.6888432254289677,
                -0.2697480047988159,
                -0.32862474198548086,
                2.7536814295894687,
                -1.0751935429147974,
                -1.3612439889022219
            ]
        },
        {
            "positions": [
                -0.6410627879358854,
                -0.3004459468874155,
                -0.19025572633994559,
                2.7109562351353755,
                -1.0201479684047703,
                -1.2877493395606439
            ]
        },
        {
            "positions": [
                -0.5932823504428034,
                -0.331143888976015,
                -0.05188671069441053,
                2.668231040681282,
                -0.9651023938947433,
                -1.2142546902190654
            ]
        },
        {
            "positions": [
                -0.5455019129497213,
                -0.36184183106461454,
                0.08648230495112474,
                2.6255058462271887,
                -0.9100568193847163,
                -1.1407600408774874
            ]
        },
        {
            "positions": [
                -0.49772147545663914,
                -0.3925397731532141,
                0.2248513205966598,
                2.5827806517730956,
                -0.8550112448746893,
                -1.0672653915359092
            ]
        },
        {
            "positions": [
                -0.449941037963557,
                -0.42323771524181364,
                0.36322033624219485,
                2.5400554573190024,
                -0.7999656703646623,
                -0.9937707421943309
            ]
        },
        {
            "positions": [
                -0.40216060047047497,
                -0.45393565733041313,
                0.5015893518877299,
                2.4973302628649092,
                -0.7449200958546353,
                -0.9202760928527529
            ]
        },
        {
            "positions": [
                -0.3543801629773927,
                -0.48463359941901274,
                0.6399583675332654,
                2.4546050684108156,
                -0.6898745213446081,
                -0.8467814435111745
            ]
        },
        {
            "positions": [
                -0.3065997254843106,
                -0.5153315415076122,
                0.7783273831788005,
                2.4118798739567224,
                -0.6348289468345811,
                -0.7732867941695964
            ]
        },
        {
            "positions": [
                -0.25881928799122855,
                -0.5460294835962117,
                0.9166963988243355,
                2.3691546795026293,
                -0.5797833723245541,
                -0.6997921448280182
            ]
        },
        {
            "positions": [
                -0.2110388504981464,
                -0.5767274256848113,
                1.0550654144698706,
                2.326429485048536,
                -0.5247377978145271,
                -0.62629749548644
            ]
        },
        {
            "positions": [
                -0.16325841300506416,
                -0.6074253677734109,
                1.193434430115406,
                2.2837042905944425,
                -0.4696922233045,
                -0.5528028461448617
            ]
        },
        {
            "positions": [
                -0.11547797551198213,
                -0.6381233098620104,
                1.3318034457609411,
                2.2409790961403493,
                -0.4146466487944731,
                -0.4793081968032835
            ]
        },
        {
            "positions": [
                -0.0676975380189,
                -0.6688212519506099,
                1.4701724614064762,
                2.198253901686256,
                -0.359601074284446,
                -0.4058135474617053
            ]
        },
        {
            "positions": [
                -0.019917100525817855,
                -0.6995191940392095,
                1.6085414770520112,
                2.155528707232163,
                -0.3045554997744191,
                -0.33231889812012727
            ]
        },
        {
            "positions": [
                0.027863336967264285,
                -0.730217136127809,
                1.7469104926975467,
                2.1128035127780693,
                -0.24950992526439197,
                -0.2588242487785488
            ]
        },
        {
            "positions": [
                0.07564377446034642,
                -0.7609150782164086,
                1.8852795083430818,
                2.070078318323976,
                -0.19446435075436486,
                -0.1853295994369708
            ]
        },
        {
            "positions": [
                0.12342421195342854,
                -0.7916130203050081,
                2.023648523988617,
                2.027353123869883,
                -0.13941877624433802,
                -0.11183495009539265
            ]
        }
    ]
}