{
    "goal": {
        "global_pose": {
            "orientation": {
                "w": 0.7031023480610252,
                "x": -0.7110244013736278,
                "y": 0.0077485991402295624,
                "z": 0.005598929693374583
            },
            "position": {
                "x": -0.8841497679147869,
                "y": 0.44412534475326537,
                "z": 0.3711530566215515
            }
        },
        "name": "move_to_auspresseinheit_D"
    },
    "id": "BKPIECE_move_to_auspresseinheit_D_77",
    "joint_names": [
        "shoulder_pan_joint",
        "shoulder_lift_joint",
        "elbow_joint",
        "wrist_1_joint",
        "wrist_2_joint",
        "wrist_3_joint"
    ],
    "metrics": {
        "cart_traj_len": 0.3421660307780205,
        "distance_elbow_joint": 0.6348685894245729,
        "distance_shoulder_lift_joint": 0.1203121678351935,
        "distance_shoulder_pan_joint": 0.13357579121171256,
        "distance_wrist_1_joint": 0.5223974933686888,
        "distance_wrist_2_joint": 1.436170112563299,
        "distance_wrist_3_joint": 0.0018757037636438767,
        "smoothness": 1.9737298371844314e-16,
        "time": 0.2463025,
        "traj_len": 1.6879573034194646,
        "weighted_distance": 2.1935174655393985
    },
    "planner": "BKPIECE",
    "start": {
        "state": {
            "elbow_joint": -1.8275484843655228,
            "shoulder_lift_joint": -2.1267897864000416,
            "shoulder_pan_joint": -0.035127520176001514,
            "wrist_1_joint": -2.3477863256791385,
            "wrist_2_joint": -1.605890476484521,
            "wrist_3_joint": -3.0880375317375353
        }
    },
    "waypoints": [
        {
            "positions": [
                -0.035127520176001514,
                -2.1267897864000416,
                -1.8275484843655228,
                -2.3477863256791385,
                -1.605890476484521,
                -3.0880375317375353
            ]
        },
        {
            "positions": [
                -0.05182449407746559,
                -2.141828807379441,
                -1.7481899106874512,
                -2.4130860123502247,
                -1.4263692124141085,
                -3.088271994707991
            ]
        },
        {
            "positions": [
                -0.06852146797892966,
                -2.15686782835884,
                -1.6688313370093795,
                -2.4783856990213105,
                -1.2468479483436963,
                -3.088506457678446
            ]
        },
        {
            "positions": [
                -0.08521844188039372,
                -2.171906849338239,
                -1.589472763331308,
                -2.5436853856923967,
                -1.0673266842732838,
                -3.0887409206489016
            ]
        },
        {
            "positions": [
                -0.1019154157818578,
                -2.186945870317638,
                -1.5101141896532364,
                -2.608985072363483,
                -0.8878054202028715,
                -3.088975383619357
            ]
        },
        {
            "positions": [
                -0.11861238968332187,
                -2.2019848912970374,
                -1.4307556159751647,
                -2.674284759034569,
                -0.7082841561324591,
                -3.089209846589813
            ]
        },
        {
            "positions": [
                -0.13530936358478593,
                -2.217023912276437,
                -1.3513970422970931,
                -2.7395844457056553,
                -0.5287628920620466,
                -3.0894443095602684
            ]
        },
        {
            "positions": [
                -0.15200633748625,
                -2.2320629332558357,
                -1.2720384686190216,
                -2.804884132376741,
                -0.3492416279916344,
                -3.0896787725307235
            ]
        },
        {
            "positions": [
                -0.16870331138771408,
                -2.247101954235235,
                -1.1926798949409498,
                -2.8701838190478273,
                -0.16972036392122192,
                -3.089913235501179
            ]
        }
    ]
}