{
    "goal": {
        "global_pose": {
            "orientation": {
                "w": 0.5084816217422485,
                "x": -0.49083608388900757,
                "y": 0.5182115435600281,
                "z": -0.4816462993621826
            },
            "position": {
                "x": 0.5540239810943604,
                "y": 0.030875300988554955,
                "z": 0.16403168439865112
            }
        },
        "name": "move_to_storage_A"
    },
    "id": "BKPIECE_move_to_storage_A_94",
    "joint_names": [
        "shoulder_pan_joint",
        "shoulder_lift_joint",
        "elbow_joint",
        "wrist_1_joint",
        "wrist_2_joint",
        "wrist_3_joint"
    ],
    "metrics": {
        "cart_traj_len": 0.3530704691669734,
        "distance_elbow_joint": 0.4501190995757247,
        "distance_shoulder_lift_joint": 0.23482997268068595,
        "distance_shoulder_pan_joint": 0.46330138871061033,
        "distance_wrist_1_joint": 0.24037715453097475,
        "distance_wrist_2_joint": 1.0923102515413925,
        "distance_wrist_3_joint": 0.10038056169362397,
        "smoothness": 0.0,
        "time": 0.154701852,
        "traj_len": 1.6066481969407653,
        "weighted_distance": 2.0284888361025373
    },
    "planner": "BKPIECE",
    "start": {
        "state": {
            "elbow_joint": 1.971548880431181,
            "shoulder_lift_joint": -1.1394869514688781,
            "shoulder_pan_joint": 0.12281150262730567,
            "wrist_1_joint": -0.7804693444481463,
            "wrist_2_joint": 0.12958644648617612,
            "wrist_3_joint": 3.0906942077768043
        }
    },
    "waypoints": [
        {
            "positions": [
                0.12281150262730567,
                -1.1394869514688781,
                1.971548880431181,
                -0.7804693444481463,
                0.12958644648617612,
                3.0906942077768043
            ]
        },
        {
            "positions": [
                0.056625589954361344,
                -1.173034090423262,
                2.0358516089419987,
                -0.8148089379525713,
                0.2856307681349465,
                3.1050342880187505
            ]
        },
        {
            "positions": [
                -0.009560322718582981,
                -1.2065812293776454,
                2.1001543374528167,
                -0.8491485314569962,
                0.44167508978371683,
                3.1193743682606967
            ]
        },
        {
            "positions": [
                -0.0757462353915273,
                -1.2401283683320292,
                2.164457065963634,
                -0.8834881249614212,
                0.5977194114324872,
                3.133714448502643
            ]
        },
        {
            "positions": [
                -0.14193214806447163,
                -1.273675507286413,
                2.228759794474452,
                -0.9178277184658461,
                0.7537637330812575,
                3.1480545287445896
            ]
        },
        {
            "positions": [
                -0.208118060737416,
                -1.3072226462407968,
                2.29306252298527,
                -0.9521673119702712,
                0.9098080547300279,
                3.162394608986536
            ]
        },
        {
            "positions": [
                -0.2743039734103603,
                -1.3407697851951803,
                2.3573652514960877,
                -0.9865069054746961,
                1.0658523763787984,
                3.176734689228482
            ]
        },
        {
            "positions": [
                -0.34048988608330466,
                -1.374316924149564,
                2.4216679800069056,
                -1.020846498979121,
                1.2218966980275685,
                3.1910747694704282
            ]
        }
    ]
}