{
    "goal": {
        "global_pose": {
            "orientation": {
                "w": 0.005598929693374612,
                "x": 0.007748599140229565,
                "y": 0.7110244013736278,
                "z": -0.7031023480610252
            },
            "position": {
                "x": -0.8858502320852131,
                "y": -0.7141253447532654,
                "z": 0.3711530566215515
            }
        },
        "name": "move_to_auspresseinheit_C"
    },
    "id": "BKPIECE_move_to_auspresseinheit_C_70",
    "joint_names": [
        "shoulder_pan_joint",
        "shoulder_lift_joint",
        "elbow_joint",
        "wrist_1_joint",
        "wrist_2_joint",
        "wrist_3_joint"
    ],
    "metrics": {
        "cart_traj_len": 0.49478654750687684,
        "distance_elbow_joint": 1.0211073513958437,
        "distance_shoulder_lift_joint": 0.33529148377601714,
        "distance_shoulder_pan_joint": 0.25636310429622045,
        "distance_wrist_1_joint": 0.7145601633529078,
        "distance_wrist_2_joint": 1.3171058974126924,
        "distance_wrist_3_joint": 0.08965887589874777,
        "smoothness": 9.689219124001365e-16,
        "time": 0.273811839,
        "traj_len": 1.9323785540448406,
        "weighted_distance": 2.4382515638661086
    },
    "planner": "BKPIECE",
    "start": {
        "state": {
            "elbow_joint": 1.7527959577730765,
            "shoulder_lift_joint": -0.9740617694224828,
            "shoulder_pan_joint": -2.967991417825869,
            "wrist_1_joint": -0.7595177689779385,
            "wrist_2_joint": 1.7443932448376545,
            "wrist_3_joint": 3.1991315425061013
        }
    },
    "waypoints": [
        {
            "positions": [
                -2.967991417825869,
                -0.9740617694224828,
                1.7527959577730765,
                -0.7595177689779385,
                1.7443932448376545,
                3.1991315425061013
            ]
        },
        {
            "positions": [
                -2.942355107396247,
                -0.9405326210448811,
                1.650685222633492,
                -0.6880617526426478,
                1.6126826550963853,
                3.1901656549162265
            ]
        },
        {
            "positions": [
                -2.916718796966625,
                -0.9070034726672793,
                1.5485744874939078,
                -0.6166057363073569,
                1.480972065355116,
                3.1811997673263517
            ]
        },
        {
            "positions": [
                -2.891082486537003,
                -0.8734743242896776,
                1.4464637523543233,
                -0.5451497199720662,
                1.3492614756138468,
                3.172233879736477
            ]
        },
        {
            "positions": [
                -2.865446176107381,
                -0.839945175912076,
                1.3443530172147389,
                -0.4736937036367754,
                1.2175508858725776,
                3.163267992146602
            ]
        },
        {
            "positions": [
                -2.8398098656777586,
                -0.8064160275344743,
                1.2422422820751546,
                -0.4022376873014846,
                1.0858402961313083,
                3.154302104556727
            ]
        },
        {
            "positions": [
                -2.8141735552481366,
                -0.7728868791568725,
                1.1401315469355704,
                -0.3307816709661939,
                0.954129706390039,
                3.145336216966853
            ]
        },
        {
            "positions": [
                -2.7885372448185146,
                -0.7393577307792708,
                1.038020811795986,
                -0.25932565463090307,
                0.8224191166487699,
                3.136370329376978
            ]
        },
        {
            "positions": [
                -2.7629009343888926,
                -0.705828582401669,
                0.9359100766564015,
                -0.1878696382956122,
                0.6907085269075006,
                3.127404441787103
            ]
        },
        {
            "positions": [
                -2.7372646239592706,
                -0.6722994340240673,
                0.8337993415168171,
                -0.11641362196032146,
                0.5589979371662313,
                3.1184385541972284
            ]
        },
        {
            "positions": [
                -2.7116283135296486,
                -0.6387702856464657,
                0.7316886063772329,
                -0.04495760562503071,
                0.4272873474249621,
                3.1094726666073536
            ]
        }
    ]
}