{
    "goal": {
        "global_pose": {
            "orientation": {
                "w": -0.00223480608172531,
                "x": 0.0024358444001904467,
                "y": 0.7094548369677653,
                "z": -0.704743149386269
            },
            "position": {
                "x": 0.6205249238014221,
                "y": -0.6371506643295288,
                "z": 0.19426114857196808
            }
        },
        "name": "move_to_magneteinheit_B"
    },
    "id": "BKPIECE_move_to_magneteinheit_B_22",
    "joint_names": [
        "shoulder_pan_joint",
        "shoulder_lift_joint",
        "elbow_joint",
        "wrist_1_joint",
        "wrist_2_joint",
        "wrist_3_joint"
    ],
    "metrics": {
        "cart_traj_len": 1.4530374018213352,
        "distance_elbow_joint": 0.7315554692212427,
        "distance_shoulder_lift_joint": 1.249455433632379,
        "distance_shoulder_pan_joint": 1.6208651990657335,
        "distance_wrist_1_joint": 2.6038293937404893,
        "distance_wrist_2_joint": 2.9413823902464906,
        "distance_wrist_3_joint": 3.149642266956014,
        "smoothness": 1.8840148369936264e-16,
        "time": 0.198664823,
        "traj_len": 3.506669381744214,
        "weighted_distance": 4.9133722096703965
    },
    "planner": "BKPIECE",
    "start": {
        "state": {
            "elbow_joint": 2.393587130804639,
            "shoulder_lift_joint": -1.9085141043513325,
            "shoulder_pan_joint": 0.7066247066698809,
            "wrist_1_joint": -0.4678290934590222,
            "wrist_2_joint": 0.7096259084215963,
            "wrist_3_joint": 3.147370379541726
        }
    },
    "waypoints": [
        {
            "positions": [
                0.7066247066698809,
                -1.9085141043513325,
                2.393587130804639,
                -0.4678290934590222,
                0.7096259084215963,
                3.147370379541726
            ]
        },
        {
            "positions": [
                0.6559726691990767,
                -1.8694686220503207,
                2.370726022391475,
                -0.3864594249046319,
                0.6177077087263936,
                3.048944058699351
            ]
        },
        {
            "positions": [
                0.6053206317282726,
                -1.8304231397493087,
                2.347864913978311,
                -0.3050897563502416,
                0.5257895090311907,
                2.950517737856975
            ]
        },
        {
            "positions": [
                0.5546685942574683,
                -1.791377657448297,
                2.325003805565147,
                -0.2237200877958513,
                0.4338713093359879,
                2.8520914170146
            ]
        },
        {
            "positions": [
                0.5040165567866641,
                -1.7523321751472851,
                2.3021426971519836,
                -0.14235041924146102,
                0.34195310964078507,
                2.753665096172224
            ]
        },
        {
            "positions": [
                0.45336451931586,
                -1.7132866928462733,
                2.2792815887388196,
                -0.060980750687070706,
                0.25003490994558225,
                2.655238775329849
            ]
        },
        {
            "positions": [
                0.4027124818450558,
                -1.6742412105452615,
                2.256420480325656,
                0.020388917867319556,
                0.15811671025037943,
                2.5568124544874733
            ]
        },
        {
            "positions": [
                0.35206044437425166,
                -1.6351957282442495,
                2.233559371912492,
                0.10175858642170982,
                0.06619851055517656,
                2.458386133645098
            ]
        },
        {
            "positions": [
                0.3014084069034475,
                -1.5961502459432377,
                2.210698263499328,
                0.18312825497610014,
                -0.025719689140026203,
                2.359959812802723
            ]
        },
        {
            "positions": [
                0.25075636943264334,
                -1.557104763642226,
                2.1878371550861644,
                0.26449792353049045,
                -0.11763788883522897,
                2.261533491960347
            ]
        },
        {
            "positions": [
                0.2001043319618392,
                -1.518059281341214,
                2.1649760466730004,
                0.34586759208488077,
                -0.20955608853043184,
                2.1631071711179715
            ]
        },
        {
            "positions": [
                0.14945229449103503,
                -1.4790137990402021,
                2.142114938259837,
                0.427237260639271,
                -0.3014742882256347,
                2.0646808502755962
            ]
        },
        {
            "positions": [
                0.09880025702023076,
                -1.4399683167391903,
                2.1192538298466728,
                0.5086069291936612,
                -0.3933924879208375,
                1.966254529433221
            ]
        },
        {
            "positions": [
                0.04814821954942661,
                -1.4009228344381786,
                2.096392721433509,
                0.5899765977480516,
                -0.48531068761604024,
                1.8678282085908455
            ]
        },
        {
            "positions": [
                -0.002503817921377549,
                -1.3618773521371668,
                2.073531613020345,
                0.6713462663024419,
                -0.5772288873112432,
                1.76940188774847
            ]
        },
        {
            "positions": [
                -0.053155855392181706,
                -1.3228318698361548,
                2.050670504607181,
                0.7527159348568322,
                -0.669147087006446,
                1.6709755669060946
            ]
        },
        {
            "positions": [
                -0.10380789286298586,
                -1.283786387535143,
                2.0278093961940176,
                0.8340856034112225,
                -0.7610652867016487,
                1.5725492460637192
            ]
        },
        {
            "positions": [
                -0.15445993033379002,
                -1.2447409052341312,
                2.0049482877808535,
                0.9154552719656128,
                -0.8529834863968515,
                1.4741229252213437
            ]
        },
        {
            "positions": [
                -0.20511196780459418,
                -1.2056954229331192,
                1.9820871793676897,
                0.9968249405200031,
                -0.9449016860920543,
                1.3756966043789682
            ]
        },
        {
            "positions": [
                -0.25576400527539833,
                -1.1666499406321074,
                1.959226070954526,
                1.0781946090743935,
                -1.0368198857872573,
                1.2772702835365928
            ]
        },
        {
            "positions": [
                -0.3064160427462025,
                -1.1276044583310956,
                1.9363649625413621,
                1.1595642776287838,
                -1.12873808548246,
                1.1788439626942173
            ]
        },
        {
            "positions": [
                -0.35706808021700664,
                -1.0885589760300838,
                1.9135038541281983,
                1.2409339461831739,
                -1.2206562851776628,
                1.080417641851842
            ]
        },
        {
            "positions": [
                -0.4077201176878108,
                -1.049513493729072,
                1.8906427457150343,
                1.3223036147375642,
                -1.3125744848728658,
                0.9819913210094664
            ]
        },
        {
            "positions": [
                -0.45837215515861496,
                -1.01046801142806,
                1.8677816373018707,
                1.4036732832919545,
                -1.4044926845680685,
                0.8835650001670912
            ]
        },
        {
            "positions": [
                -0.5090241926294193,
                -0.9714225291270482,
                1.8449205288887067,
                1.4850429518463448,
                -1.4964108842632713,
                0.7851386793247159
            ]
        },
        {
            "positions": [
                -0.5596762301002235,
                -0.9323770468260364,
                1.822059420475543,
                1.5664126204007351,
                -1.588329083958474,
                0.6867123584823402
            ]
        },
        {
            "positions": [
                -0.6103282675710276,
                -0.8933315645250246,
                1.7991983120623791,
                1.6477822889551252,
                -1.6802472836536768,
                0.588286037639965
            ]
        },
        {
            "positions": [
                -0.6609803050418318,
                -0.8542860822240126,
                1.7763372036492153,
                1.7291519575095158,
                -1.7721654833488796,
                0.48985971679758933
            ]
        },
        {
            "positions": [
                -0.711632342512636,
                -0.8152405999230008,
                1.7534760952360515,
                1.8105216260639059,
                -1.8640836830440828,
                0.3914333959552141
            ]
        },
        {
            "positions": [
                -0.7622843799834401,
                -0.776195117621989,
                1.7306149868228875,
                1.8918912946182964,
                -1.9560018827392855,
                0.2930070751128384
            ]
        },
        {
            "positions": [
                -0.8129364174542443,
                -0.737149635320977,
                1.707753878409724,
                1.9732609631726865,
                -2.047920082434488,
                0.19458075427046317
            ]
        },
        {
            "positions": [
                -0.8635884549250484,
                -0.6981041530199652,
                1.68489276999656,
                2.054630631727077,
                -2.1398382821296913,
                0.0961544334280875
            ]
        },
        {
            "positions": [
                -0.9142404923958526,
                -0.6590586707189533,
                1.662031661583396,
                2.136000300281467,
                -2.231756481824894,
                -0.002271887414287796
            ]
        }
    ]
}