{
    "goal": {
        "global_pose": {
            "orientation": {
                "w": -0.00223480608172531,
                "x": 0.0024358444001904467,
                "y": 0.7094548369677653,
                "z": -0.704743149386269
            },
            "position": {
                "x": -0.37947507619857795,
                "y": -0.6371506643295288,
                "z": 0.19426114857196808
            }
        },
        "name": "move_to_magneteinheit_C"
    },
    "id": "BKPIECE_move_to_magneteinheit_C_29",
    "joint_names": [
        "shoulder_pan_joint",
        "shoulder_lift_joint",
        "elbow_joint",
        "wrist_1_joint",
        "wrist_2_joint",
        "wrist_3_joint"
    ],
    "metrics": {
        "cart_traj_len": 1.6001367380727662,
        "distance_elbow_joint": 0.2786524805084334,
        "distance_shoulder_lift_joint": 1.2071224869311892,
        "distance_shoulder_pan_joint": 1.636860056555385,
        "distance_wrist_1_joint": 1.2316271573417952,
        "distance_wrist_2_joint": 0.959987718104834,
        "distance_wrist_3_joint": 2.828273594834148,
        "smoothness": 0.8858725610398178,
        "time": 0.161976316,
        "traj_len": 2.8535107314106574,
        "weighted_distance": 3.9988355254237087
    },
    "planner": "BKPIECE",
    "start": {
        "state": {
            "elbow_joint": 1.9565354006593851,
            "shoulder_lift_joint": -1.4165861576512813,
            "shoulder_pan_joint": -1.6717766223278752,
            "wrist_1_joint": -0.528663328821883,
            "wrist_2_joint": 1.472756589259273,
            "wrist_3_joint": 3.159348288315503
        }
    },
    "waypoints": [
        {
            "positions": [
                -1.6717766223278752,
                -1.4165861576512813,
                1.9565354006593851,
                -0.528663328821883,
                1.472756589259273,
                3.159348288315503
            ]
        },
        {
            "positions": [
                -1.6158414674624453,
                -1.4219455201796813,
                1.9365391138174815,
                -0.5091508196644966,
                1.4374195390399742,
                3.1269771327786904
            ]
        },
        {
            "positions": [
                -1.580149334068276,
                -1.4691230226478451,
                1.930848883202026,
                -0.4638936831726137,
                1.3541964723393112,
                2.986715352292393
            ]
        },
        {
            "positions": [
                -1.5444572006741069,
                -1.5163005251160089,
                1.9251586525865705,
                -0.41863654668073086,
                1.2709734056386481,
                2.846453571806095
            ]
        },
        {
            "positions": [
                -1.5087650672799375,
                -1.5634780275841724,
                1.9194684219711151,
                -0.373379410188848,
                1.187750338937985,
                2.7061917913197973
            ]
        },
        {
            "positions": [
                -1.4730729338857684,
                -1.6106555300523362,
                1.9137781913556595,
                -0.3281222736969651,
                1.104527272237322,
                2.5659300108334993
            ]
        },
        {
            "positions": [
                -1.437380800491599,
                -1.6578330325205,
                1.9080879607402041,
                -0.2828651372050822,
                1.021304205536659,
                2.4256682303472017
            ]
        },
        {
            "positions": [
                -1.4016886670974298,
                -1.7050105349886637,
                1.9023977301247488,
                -0.23760800071319937,
                0.9380811388359962,
                2.285406449860904
            ]
        },
        {
            "positions": [
                -1.3659965337032607,
                -1.7521880374568273,
                1.8967074995092932,
                -0.19235086422131648,
                0.8548580721353332,
                2.145144669374606
            ]
        },
        {
            "positions": [
                -1.3303044003090914,
                -1.7993655399249913,
                1.8910172688938378,
                -0.14709372772943358,
                0.77163500543467,
                2.004882888888308
            ]
        },
        {
            "positions": [
                -1.294612266914922,
                -1.8465430423931548,
                1.8853270382783822,
                -0.10183659123755068,
                0.6884119387340071,
                1.8646211084020108
            ]
        },
        {
            "positions": [
                -1.258920133520753,
                -1.8937205448613186,
                1.8796368076629268,
                -0.05657945474566785,
                0.605188872033344,
                1.724359327915713
            ]
        },
        {
            "positions": [
                -1.4294152004819445,
                -1.8380367443212486,
                1.9030852989349933,
                -0.06467444836415714,
                0.6172053123096429,
                1.8237594493185545
            ]
        },
        {
            "positions": [
                -1.599910267443136,
                -1.7823529437811785,
                1.9265337902070598,
                -0.07276944198264644,
                0.6292217525859417,
                1.923159570721396
            ]
        },
        {
            "positions": [
                -1.7704053344043276,
                -1.7266691432411085,
                1.9499822814791263,
                -0.08086443560113574,
                0.6412381928622406,
                2.0225596921242373
            ]
        },
        {
            "positions": [
                -1.9409004013655191,
                -1.6709853427010386,
                1.973430772751193,
                -0.08895942921962505,
                0.6532546331385394,
                2.121959813527079
            ]
        },
        {
            "positions": [
                -2.1113954683267107,
                -1.6153015421609687,
                1.9968792640232595,
                -0.09705442283811434,
                0.6652710734148383,
                2.2213599349299202
            ]
        },
        {
            "positions": [
                -2.281890535287902,
                -1.5596177416208985,
                2.020327755295326,
                -0.10514941645660364,
                0.677287513691137,
                2.3207600563327615
            ]
        },
        {
            "positions": [
                -2.4523856022490937,
                -1.5039339410808286,
                2.0437762465673925,
                -0.11324441007509294,
                0.6893039539674359,
                2.420160177735603
            ]
        },
        {
            "positions": [
                -2.460834468357979,
                -1.4379595565242755,
                2.0380777390549683,
                -0.24904646081046944,
                0.6881124525068211,
                2.556670224993875
            ]
        },
        {
            "positions": [
                -2.4692833344668634,
                -1.3719851719677227,
                2.0323792315425444,
                -0.384848511545846,
                0.6869209510462063,
                2.6931802722521474
            ]
        },
        {
            "positions": [
                -2.4777322005757485,
                -1.3060107874111697,
                2.02668072403012,
                -0.5206505622812225,
                0.6857294495855915,
                2.8296903195104193
            ]
        },
        {
            "positions": [
                -2.475136450229115,
                -1.2348716162756683,
                2.016421260995002,
                -0.6683866501462352,
                0.6833642423041072,
                2.973667140930245
            ]
        },
        {
            "positions": [
                -2.4725406998824813,
                -1.1637324451401667,
                2.006161797959883,
                -0.8161227380112478,
                0.6809990350226229,
                3.117643962350071
            ]
        }
    ]
}