{
    "goal": {
        "global_pose": {
            "orientation": {
                "w": -0.00223480608172531,
                "x": 0.0024358444001904467,
                "y": 0.7094548369677653,
                "z": -0.704743149386269
            },
            "position": {
                "x": -0.37947507619857795,
                "y": -0.6371506643295288,
                "z": 0.19426114857196808
            }
        },
        "name": "move_to_magneteinheit_C"
    },
    "id": "BKPIECE_move_to_magneteinheit_C_67",
    "joint_names": [
        "shoulder_pan_joint",
        "shoulder_lift_joint",
        "elbow_joint",
        "wrist_1_joint",
        "wrist_2_joint",
        "wrist_3_joint"
    ],
    "metrics": {
        "cart_traj_len": 1.194712695556146,
        "distance_elbow_joint": 0.7722924524152399,
        "distance_shoulder_lift_joint": 0.7509243991041346,
        "distance_shoulder_pan_joint": 1.4105157656795118,
        "distance_wrist_1_joint": 0.6623948257950514,
        "distance_wrist_2_joint": 2.2414495106018144,
        "distance_wrist_3_joint": 0.7932751355326473,
        "smoothness": 1.5243652707645463,
        "time": 0.239530818,
        "traj_len": 2.575044094598848,
        "weighted_distance": 3.334853324599234
    },
    "planner": "BKPIECE",
    "start": {
        "state": {
            "elbow_joint": 1.9565354006593851,
            "shoulder_lift_joint": -1.4165861576512813,
            "shoulder_pan_joint": -1.6717766223278752,
            "wrist_1_joint": -0.528663328821883,
            "wrist_2_joint": 1.472756589259273,
            "wrist_3_joint": 3.159348288315503
        }
    },
    "waypoints": [
        {
            "positions": [
                -1.6717766223278752,
                -1.4165861576512813,
                1.9565354006593851,
                -0.528663328821883,
                1.472756589259273,
                3.159348288315503
            ]
        },
        {
            "positions": [
                -1.6688731316058991,
                -1.458210068072843,
                1.9696335889789092,
                -0.504628201090749,
                1.2237418567168135,
                3.1001209402711405
            ]
        },
        {
            "positions": [
                -1.665969640883923,
                -1.4998339784944048,
                1.9827317772984332,
                -0.480593073359615,
                0.9747271241743537,
                3.0408935922267784
            ]
        },
        {
            "positions": [
                -1.663066150161947,
                -1.5414578889159665,
                1.9958299656179572,
                -0.45655794562848095,
                0.7257123916318939,
                2.9816662441824158
            ]
        },
        {
            "positions": [
                -1.6601626594399712,
                -1.5830817993375281,
                2.008928153937481,
                -0.4325228178973469,
                0.4766976590894343,
                2.922438896138053
            ]
        },
        {
            "positions": [
                -1.6572591687179952,
                -1.62470570975909,
                2.0220263422570053,
                -0.4084876901662129,
                0.22768292654697442,
                2.863211548093691
            ]
        },
        {
            "positions": [
                -1.6543556779960191,
                -1.6663296201806517,
                2.035124530576529,
                -0.38445256243507886,
                -0.02133180599548533,
                2.8039842000493285
            ]
        },
        {
            "positions": [
                -1.7925994527115718,
                -1.6403467517072057,
                2.076882214805279,
                -0.3795057123007669,
                0.06948602603535002,
                2.851008197316864
            ]
        },
        {
            "positions": [
                -1.9308432274271246,
                -1.6143638832337595,
                2.1186398990340285,
                -0.3745588621664549,
                0.16030385806618536,
                2.8980321945843994
            ]
        },
        {
            "positions": [
                -2.0690870021426773,
                -1.5883810147603135,
                2.160397583262778,
                -0.3696120120321429,
                0.2511216900970207,
                2.945056191851935
            ]
        },
        {
            "positions": [
                -2.20733077685823,
                -1.5623981462868675,
                2.202155267491528,
                -0.36466516189783094,
                0.34193952212785605,
                2.99208018911947
            ]
        },
        {
            "positions": [
                -2.3455745515737827,
                -1.5364152778134215,
                2.243912951720278,
                -0.359718311763519,
                0.43275735415869143,
                3.0391041863870054
            ]
        },
        {
            "positions": [
                -2.4838183262893354,
                -1.5104324093399755,
                2.2856706359490278,
                -0.354771461629207,
                0.5235751861895267,
                3.086128183654541
            ]
        },
        {
            "positions": [
                -2.622062101004888,
                -1.4844495408665292,
                2.3274283201777775,
                -0.34982461149489497,
                0.6143930182203621,
                3.1331521809220764
            ]
        },
        {
            "positions": [
                -2.760305875720441,
                -1.4584666723930833,
                2.369186004406527,
                -0.344877761360583,
                0.7052108502511975,
                3.180176178189612
            ]
        },
        {
            "positions": [
                -2.6885197198146322,
                -1.3851371751962844,
                2.279275542239503,
                -0.46453007594402085,
                0.7000062354761039,
                3.1647464109080645
            ]
        },
        {
            "positions": [
                -2.6167335639088236,
                -1.3118076779994854,
                2.189365080072478,
                -0.5841823905274587,
                0.6948016207010101,
                3.149316643626517
            ]
        },
        {
            "positions": [
                -2.5449474080030154,
                -1.2384781808026863,
                2.0994546179054536,
                -0.7038347051108965,
                0.6895970059259166,
                3.13388687634497
            ]
        },
        {
            "positions": [
                -2.473161252097207,
                -1.1651486836058875,
                2.0095441557384293,
                -0.8234870196943344,
                0.684392391150823,
                3.1184571090634225
            ]
        }
    ]
}