{
    "goal": {
        "global_pose": {
            "orientation": {
                "w": -0.4816463035849501,
                "x": 0.5182115481033762,
                "y": 0.4908360881923453,
                "z": -0.5084816262002911
            },
            "position": {
                "x": -0.8240239810943604,
                "y": 0.19912469901144506,
                "z": 0.16403168439865112
            }
        },
        "name": "move_to_storage_D"
    },
    "id": "BKPIECE_move_to_storage_D_114",
    "joint_names": [
        "shoulder_pan_joint",
        "shoulder_lift_joint",
        "elbow_joint",
        "wrist_1_joint",
        "wrist_2_joint",
        "wrist_3_joint"
    ],
    "metrics": {
        "cart_traj_len": 3.586239603618196,
        "distance_elbow_joint": 4.229398094859299,
        "distance_shoulder_lift_joint": 1.265050066181007,
        "distance_shoulder_pan_joint": 2.813331445020533,
        "distance_wrist_1_joint": 2.261153361869612,
        "distance_wrist_2_joint": 1.0558971178309662,
        "distance_wrist_3_joint": 3.2069945029378775,
        "smoothness": 0.1255791919851649,
        "time": 0.310654835,
        "traj_len": 3.8512107951525185,
        "weighted_distance": 4.956093630499289
    },
    "planner": "BKPIECE",
    "start": {
        "state": {
            "elbow_joint": -2.384821990628643,
            "shoulder_lift_joint": -2.278805467437664,
            "shoulder_pan_joint": -0.18546946439364564,
            "wrist_1_joint": 1.4845938187801415,
            "wrist_2_joint": 0.178987772454074,
            "wrist_3_joint": 0.03710569632802521
        }
    },
    "waypoints": [
        {
            "positions": [
                -0.18546946439364564,
                -2.278805467437664,
                -2.384821990628643,
                1.4845938187801415,
                0.178987772454074,
                0.03710569632802521
            ]
        },
        {
            "positions": [
                -0.12723192482768367,
                -2.20702968343659,
                -2.396069710195078,
                1.3889739418430416,
                0.0901821448220384,
                0.0018976500242519345
            ]
        },
        {
            "positions": [
                -0.03377443651330436,
                -2.1594674254311745,
                -2.310416959753514,
                1.3343366554006932,
                0.10062721923078466,
                0.09427856911145899
            ]
        },
        {
            "positions": [
                0.05968305180107494,
                -2.1119051674257596,
                -2.2247642093119504,
                1.2796993689583447,
                0.11107229363953093,
                0.18665948819866604
            ]
        },
        {
            "positions": [
                0.15314054011545428,
                -2.0643429094203443,
                -2.1391114588703863,
                1.2250620825159964,
                0.1215173680482772,
                0.2790404072858731
            ]
        },
        {
            "positions": [
                0.24659802842983355,
                -2.0167806514149293,
                -2.0534587084288223,
                1.170424796073648,
                0.13196244245702346,
                0.3714213263730801
            ]
        },
        {
            "positions": [
                0.34005551674421297,
                -1.969218393409514,
                -1.9678059579872582,
                1.1157875096312995,
                0.14240751686576972,
                0.46380224546028725
            ]
        },
        {
            "positions": [
                0.43351300505859225,
                -1.9216561354040989,
                -1.8821532075456944,
                1.0611502231889511,
                0.152852591274516,
                0.5561831645474943
            ]
        },
        {
            "positions": [
                0.5269704933729716,
                -1.8740938773986837,
                -1.7965004571041305,
                1.0065129367466028,
                0.16329766568326226,
                0.6485640836347014
            ]
        },
        {
            "positions": [
                0.6204279816873508,
                -1.8265316193932686,
                -1.7108477066625665,
                0.9518756503042544,
                0.17374274009200852,
                0.7409450027219083
            ]
        },
        {
            "positions": [
                0.7138854700017302,
                -1.7789693613878534,
                -1.6251949562210024,
                0.8972383638619059,
                0.18418781450075478,
                0.8333259218091155
            ]
        },
        {
            "positions": [
                0.8073429583161096,
                -1.731407103382438,
                -1.5395422057794386,
                0.8426010774195575,
                0.19463288890950103,
                0.9257068408963226
            ]
        },
        {
            "positions": [
                0.9008004466304889,
                -1.6838448453770232,
                -1.4538894553378747,
                0.7879637909772091,
                0.2050779633182473,
                1.0180877599835296
            ]
        },
        {
            "positions": [
                0.9942579349448681,
                -1.6362825873716078,
                -1.3682367048963107,
                0.7333265045348607,
                0.21552303772699358,
                1.1104686790707368
            ]
        },
        {
            "positions": [
                1.0877154232592474,
                -1.5887203293661927,
                -1.2825839544547468,
                0.6786892180925124,
                0.22596811213573983,
                1.2028495981579437
            ]
        },
        {
            "positions": [
                1.181172911573627,
                -1.5411580713607775,
                -1.1969312040131828,
                0.6240519316501638,
                0.23641318654448612,
                1.295230517245151
            ]
        },
        {
            "positions": [
                1.2746303998880062,
                -1.4935958133553622,
                -1.111278453571619,
                0.5694146452078155,
                0.24685826095323238,
                1.387611436332358
            ]
        },
        {
            "positions": [
                1.3680878882023852,
                -1.4460335553499473,
                -1.0256257031300549,
                0.5147773587654672,
                0.25730333536197864,
                1.4799923554195649
            ]
        },
        {
            "positions": [
                1.4615453765167647,
                -1.398471297344532,
                -0.9399729526884908,
                0.4601400723231186,
                0.2677484097707249,
                1.5723732745067722
            ]
        },
        {
            "positions": [
                1.555002864831144,
                -1.3509090393391168,
                -0.854320202246927,
                0.40550278588077027,
                0.27819348417947115,
                1.6647541935939791
            ]
        },
        {
            "positions": [
                1.6484603531455233,
                -1.3033467813337016,
                -0.7686674518053631,
                0.35086549943842193,
                0.2886385585882174,
                1.757135112681186
            ]
        },
        {
            "positions": [
                1.7419178414599028,
                -1.2557845233282863,
                -0.683014701363799,
                0.2962282129960734,
                0.2990836329969637,
                1.8495160317683934
            ]
        },
        {
            "positions": [
                1.8353753297742819,
                -1.2082222653228714,
                -0.597361950922235,
                0.24159092655372505,
                0.3095287074057099,
                1.9418969508556003
            ]
        },
        {
            "positions": [
                1.9288328180886614,
                -1.1606600073174562,
                -0.5117092004806711,
                0.18695364011137672,
                0.31997378181445624,
                2.034277869942807
            ]
        },
        {
            "positions": [
                2.0222903064030406,
                -1.1130977493120409,
                -0.4260564500391071,
                0.13231635366902816,
                0.3304188562232025,
                2.126658789030014
            ]
        },
        {
            "positions": [
                2.1157477947174197,
                -1.0655354913066257,
                -0.3404036995975434,
                0.0776790672266798,
                0.34086393063194875,
                2.2190397081172213
            ]
        },
        {
            "positions": [
                2.152327379425239,
                -1.0618369134459136,
                -0.18594053069073427,
                0.01666202363266904,
                0.3920360523740216,
                2.2872285937273023
            ]
        },
        {
            "positions": [
                2.188906964133058,
                -1.0581383355852017,
                -0.03147736178392513,
                -0.044355019961341724,
                0.4432081741160945,
                2.355417479337383
            ]
        },
        {
            "positions": [
                2.2254865488408773,
                -1.0544397577244895,
                0.12298580712288404,
                -0.1053720635553525,
                0.49438029585816734,
                2.4236063649474646
            ]
        },
        {
            "positions": [
                2.262066133548696,
                -1.0507411798637776,
                0.27744897602969315,
                -0.16638910714936325,
                0.5455524176002402,
                2.4917952505575456
            ]
        },
        {
            "positions": [
                2.298645718256515,
                -1.0470426020030654,
                0.4319121449365024,
                -0.22740615074337403,
                0.5967245393423132,
                2.5599841361676265
            ]
        },
        {
            "positions": [
                2.3352253029643344,
                -1.0433440241423535,
                0.5863753138433114,
                -0.28842319433738484,
                0.6478966610843859,
                2.6281730217777075
            ]
        },
        {
            "positions": [
                2.3718048876721536,
                -1.0396454462816413,
                0.7408384827501207,
                -0.34944023793139556,
                0.6990687828264589,
                2.6963619073877885
            ]
        },
        {
            "positions": [
                2.4083844723799728,
                -1.0359468684209292,
                0.8953016516569297,
                -0.4104572815254063,
                0.7502409045685318,
                2.76455079299787
            ]
        },
        {
            "positions": [
                2.444964057087792,
                -1.0322482905602173,
                1.049764820563739,
                -0.4714743251194171,
                0.8014130263106047,
                2.832739678607951
            ]
        },
        {
            "positions": [
                2.481543641795611,
                -1.0285497126995051,
                1.204227989470548,
                -0.5324913687134278,
                0.8525851480526776,
                2.900928564218032
            ]
        },
        {
            "positions": [
                2.51812322650343,
                -1.0248511348387932,
                1.3586911583773573,
                -0.5935084123074387,
                0.9037572697947504,
                2.9691174498281128
            ]
        },
        {
            "positions": [
                2.554702811211249,
                -1.021152556978081,
                1.5131543272841663,
                -0.6545254559014494,
                0.9549293915368232,
                3.0373063354381937
            ]
        },
        {
            "positions": [
                2.5912823959190683,
                -1.0174539791173691,
                1.6676174961909755,
                -0.7155424994954602,
                1.0061015132788962,
                3.105495221048275
            ]
        },
        {
            "positions": [
                2.6278619806268875,
                -1.013755401256657,
                1.822080665097785,
                -0.776559543089471,
                1.057273635020969,
                3.173684106658356
            ]
        }
    ]
}