{
    "goal": {
        "global_pose": {
            "orientation": {
                "w": 0.7031023502349854,
                "x": -0.7110244035720825,
                "y": 0.007748599164187908,
                "z": 0.005598929710686207
            },
            "position": {
                "x": 0.11585023208521307,
                "y": 0.44412534475326537,
                "z": 0.3711530566215515
            }
        },
        "name": "move_to_auspresseinheit_A"
    },
    "id": "BKPIECE_move_to_auspresseinheit_A_106",
    "joint_names": [
        "shoulder_pan_joint",
        "shoulder_lift_joint",
        "elbow_joint",
        "wrist_1_joint",
        "wrist_2_joint",
        "wrist_3_joint"
    ],
    "metrics": {
        "cart_traj_len": 1.1162594137252182,
        "distance_elbow_joint": 1.3672396908405444,
        "distance_shoulder_lift_joint": 0.5798801829248614,
        "distance_shoulder_pan_joint": 1.045982944829414,
        "distance_wrist_1_joint": 1.9532807450408998,
        "distance_wrist_2_joint": 1.0227727038201082,
        "distance_wrist_3_joint": 2.1245991203774546,
        "smoothness": 0.9854449550634417,
        "time": 0.5221583009999999,
        "traj_len": 2.844952616096318,
        "weighted_distance": 3.91395031617025
    },
    "planner": "BKPIECE",
    "start": {
        "state": {
            "elbow_joint": 2.4225746994637096,
            "shoulder_lift_joint": -1.373653595662188,
            "shoulder_pan_joint": -0.3378633848294565,
            "wrist_1_joint": -1.0288595594406726,
            "wrist_2_joint": 1.2330228066703421,
            "wrist_3_joint": 3.189163495502006
        }
    },
    "waypoints": [
        {
            "positions": [
                -0.3378633848294565,
                -1.373653595662188,
                2.4225746994637096,
                -1.0288595594406726,
                1.2330228066703421,
                3.189163495502006
            ]
        },
        {
            "positions": [
                -0.3242055257415437,
                -1.365952674091485,
                2.3676088247286837,
                -1.020048323347189,
                1.182311880827943,
                3.1557977463834037
            ]
        },
        {
            "positions": [
                -0.28526362886560974,
                -1.3934547931806898,
                2.3119512735330683,
                -0.9156245579839541,
                1.1220643450192347,
                3.0629820542047304
            ]
        },
        {
            "positions": [
                -0.24632173198967572,
                -1.4209569122698944,
                2.256293722337453,
                -0.8112007926207193,
                1.0618168092105262,
                2.970166362026057
            ]
        },
        {
            "positions": [
                -0.20737983511374172,
                -1.4484590313590993,
                2.200636171141838,
                -0.7067770272574844,
                1.001569273401818,
                2.877350669847383
            ]
        },
        {
            "positions": [
                -0.16843793823780773,
                -1.475961150448304,
                2.1449786199462224,
                -0.6023532618942495,
                0.9413217375931096,
                2.78453497766871
            ]
        },
        {
            "positions": [
                -0.1294960413618737,
                -1.5034632695375088,
                2.089321068750607,
                -0.4979294965310145,
                0.8810742017844013,
                2.6917192854900365
            ]
        },
        {
            "positions": [
                -0.09055414448593974,
                -1.5309653886267134,
                2.0336635175549915,
                -0.39350573116777965,
                0.820826665975693,
                2.598903593311363
            ]
        },
        {
            "positions": [
                -0.05161224761000571,
                -1.5584675077159182,
                1.978005966359376,
                -0.2890819658045447,
                0.7605791301669846,
                2.5060879011326893
            ]
        },
        {
            "positions": [
                -0.012670350734071745,
                -1.5859696268051229,
                1.9223484151637609,
                -0.18465820044130987,
                0.7003315943582763,
                2.413272208954016
            ]
        },
        {
            "positions": [
                0.026271546141862275,
                -1.6134717458943277,
                1.8666908639681454,
                -0.08023443507807494,
                0.640084058549568,
                2.3204565167753426
            ]
        },
        {
            "positions": [
                0.07822670376007249,
                -1.64839100631282,
                1.819024634233169,
                0.024538070794544786,
                0.5878191174936276,
                2.2484226506968334
            ]
        },
        {
            "positions": [
                0.1301818613782827,
                -1.683310266731312,
                1.7713584044981925,
                0.1293105766671645,
                0.5355541764376872,
                2.1763887846183247
            ]
        },
        {
            "positions": [
                0.1821370189964929,
                -1.7182295271498043,
                1.7236921747632161,
                0.23408308253978427,
                0.4832892353817469,
                2.1043549185398156
            ]
        },
        {
            "positions": [
                0.23368174757543922,
                -1.7469492999908436,
                1.7943620110249072,
                0.17178454053819647,
                0.5183733325786548,
                2.196620255121665
            ]
        },
        {
            "positions": [
                0.28522647615438557,
                -1.7756690728318831,
                1.8650318472865983,
                0.10948599853660866,
                0.5534574297755627,
                2.2888855917035142
            ]
        },
        {
            "positions": [
                0.3367712047333319,
                -1.8043888456729227,
                1.9357016835482894,
                0.04718745653502085,
                0.5885415269724705,
                2.3811509282853636
            ]
        },
        {
            "positions": [
                0.3883159333122782,
                -1.833108618513962,
                2.0063715198099805,
                -0.015111085466566948,
                0.6236256241693785,
                2.473416264867213
            ]
        },
        {
            "positions": [
                0.4398606618912245,
                -1.8618283913550013,
                2.0770413560716716,
                -0.07740962746815477,
                0.6587097213662864,
                2.565681601449062
            ]
        },
        {
            "positions": [
                0.4914053904701708,
                -1.8905481641960409,
                2.1477111923333627,
                -0.13970816946974257,
                0.6937938185631942,
                2.6579469380309115
            ]
        },
        {
            "positions": [
                0.5245094255996758,
                -1.9068268913891235,
                2.200779575721773,
                -0.18851005630489664,
                0.7162443324107787,
                2.708688048446133
            ]
        },
        {
            "positions": [
                0.5576134607291809,
                -1.9231056185822064,
                2.253847959110184,
                -0.2373119431400507,
                0.7386948462583631,
                2.7594291588613546
            ]
        },
        {
            "positions": [
                0.6077821604861064,
                -1.9180968462943941,
                2.2999150863745452,
                -0.3102929689335866,
                0.7328170057067309,
                2.887667926559263
            ]
        },
        {
            "positions": [
                0.657950860243032,
                -1.9130880740065819,
                2.345982213638906,
                -0.38327399472712254,
                0.7269391651550987,
                3.0159066942571715
            ]
        },
        {
            "positions": [
                0.7081195599999575,
                -1.9080793017187696,
                2.392049340903267,
                -0.45625502052065847,
                0.7210613246034665,
                3.14414546195508
            ]
        }
    ]
}