{
    "goal": {
        "global_pose": {
            "orientation": {
                "w": 0.7031023480610252,
                "x": -0.7110244013736278,
                "y": 0.0077485991402295624,
                "z": 0.005598929693374583
            },
            "position": {
                "x": -0.8841497679147869,
                "y": 0.44412534475326537,
                "z": 0.3711530566215515
            }
        },
        "name": "move_to_auspresseinheit_D"
    },
    "id": "BKPIECE_move_to_auspresseinheit_D_71",
    "joint_names": [
        "shoulder_pan_joint",
        "shoulder_lift_joint",
        "elbow_joint",
        "wrist_1_joint",
        "wrist_2_joint",
        "wrist_3_joint"
    ],
    "metrics": {
        "cart_traj_len": 0.3434612342525282,
        "distance_elbow_joint": 0.636067349523874,
        "distance_shoulder_lift_joint": 0.12049598811991746,
        "distance_shoulder_pan_joint": 0.13476700449023035,
        "distance_wrist_1_joint": 0.518343303478042,
        "distance_wrist_2_joint": 1.4395921514522307,
        "distance_wrist_3_joint": 0.01670235747115356,
        "smoothness": 1.5789838482932083e-15,
        "time": 0.139358209,
        "traj_len": 1.6929170548303447,
        "weighted_distance": 2.203930199531743
    },
    "planner": "BKPIECE",
    "start": {
        "state": {
            "elbow_joint": -1.8275484843655228,
            "shoulder_lift_joint": -2.1267897864000416,
            "shoulder_pan_joint": -0.035127520176001514,
            "wrist_1_joint": -2.3477863256791385,
            "wrist_2_joint": -1.605890476484521,
            "wrist_3_joint": -3.0880375317375353
        }
    },
    "waypoints": [
        {
            "positions": [
                -0.035127520176001514,
                -2.1267897864000416,
                -1.8275484843655228,
                -2.3477863256791385,
                -1.605890476484521,
                -3.0880375317375353
            ]
        },
        {
            "positions": [
                -0.05197339573728031,
                -2.141851784915031,
                -1.7480400656750386,
                -2.4125792386138936,
                -1.425941457552992,
                -3.0901253264214295
            ]
        },
        {
            "positions": [
                -0.06881927129855911,
                -2.1569137834300207,
                -1.6685316469845541,
                -2.477372151548649,
                -1.2459924386214634,
                -3.0922131211053236
            ]
        },
        {
            "positions": [
                -0.08566514685983789,
                -2.1719757819450107,
                -1.58902322829407,
                -2.542165064483404,
                -1.0660434196899344,
                -3.094300915789218
            ]
        },
        {
            "positions": [
                -0.10251102242111669,
                -2.1870377804600003,
                -1.5095148096035857,
                -2.6069579774181593,
                -0.8860944007584056,
                -3.096388710473112
            ]
        },
        {
            "positions": [
                -0.11935689798239549,
                -2.20209977897499,
                -1.4300063909131016,
                -2.671750890352915,
                -0.7061453818268768,
                -3.0984765051570062
            ]
        },
        {
            "positions": [
                -0.13620277354367427,
                -2.21716177748998,
                -1.3504979722226174,
                -2.73654380328767,
                -0.5261963628953479,
                -3.1005642998409004
            ]
        },
        {
            "positions": [
                -0.15304864910495308,
                -2.2322237760049695,
                -1.270989553532133,
                -2.8013367162224254,
                -0.3462473439638192,
                -3.1026520945247946
            ]
        },
        {
            "positions": [
                -0.16989452466623187,
                -2.247285774519959,
                -1.1914811348416487,
                -2.8661296291571805,
                -0.1662983250322902,
                -3.104739889208689
            ]
        }
    ]
}