{
    "goal": {
        "global_pose": {
            "orientation": {
                "w": 0.7047431493862688,
                "x": -0.7094548369677653,
                "y": 0.0024358444001904,
                "z": -0.0022348060817251984
            },
            "position": {
                "x": -0.39052492380142206,
                "y": 0.3671506643295288,
                "z": 0.19426114857196808
            }
        },
        "name": "move_to_magneteinheit_D"
    },
    "id": "BKPIECE_move_to_magneteinheit_D_54",
    "joint_names": [
        "shoulder_pan_joint",
        "shoulder_lift_joint",
        "elbow_joint",
        "wrist_1_joint",
        "wrist_2_joint",
        "wrist_3_joint"
    ],
    "metrics": {
        "cart_traj_len": 4.645524717361839,
        "distance_elbow_joint": 5.055659443399196,
        "distance_shoulder_lift_joint": 1.6291904310270462,
        "distance_shoulder_pan_joint": 3.1543321852495927,
        "distance_wrist_1_joint": 5.004784778897399,
        "distance_wrist_2_joint": 3.9870765498985783,
        "distance_wrist_3_joint": 3.40634618949281,
        "smoothness": 0.4178538682648248,
        "time": 0.611968756,
        "traj_len": 4.715653674514766,
        "weighted_distance": 6.167815114426357
    },
    "planner": "BKPIECE",
    "start": {
        "state": {
            "elbow_joint": 0.7495348899011911,
            "shoulder_lift_joint": -0.6476975780737668,
            "shoulder_pan_joint": -2.711696901376276,
            "wrist_1_joint": -0.0750647808097303,
            "wrist_2_joint": 0.43296659715458535,
            "wrist_3_joint": 3.1361499051832418
        }
    },
    "waypoints": [
        {
            "positions": [
                -2.711696901376276,
                -0.6476975780737668,
                0.7495348899011911,
                -0.0750647808097303,
                0.43296659715458535,
                3.1361499051832418
            ]
        },
        {
            "positions": [
                -2.740102790538416,
                -0.701395014736023,
                0.8437560005422551,
                -0.16855100743775847,
                0.5111690577086556,
                3.1143114061424866
            ]
        },
        {
            "positions": [
                -2.7685086797005556,
                -0.7550924513982791,
                0.9379771111833192,
                -0.26203723406578666,
                0.5893715182627259,
                3.092472907101731
            ]
        },
        {
            "positions": [
                -2.7969145688626953,
                -0.8087898880605351,
                1.032198221824383,
                -0.3555234606938148,
                0.6675739788167963,
                3.0706344080609758
            ]
        },
        {
            "positions": [
                -2.825320458024835,
                -0.8624873247227912,
                1.1264193324654472,
                -0.44900968732184304,
                0.7457764393708666,
                3.04879590902022
            ]
        },
        {
            "positions": [
                -2.8537263471869747,
                -0.9161847613850473,
                1.2206404431065112,
                -0.5424959139498712,
                0.8239788999249369,
                3.026957409979465
            ]
        },
        {
            "positions": [
                -2.8128775944643234,
                -0.9437842346441041,
                1.253311512548692,
                -0.6295331096136618,
                0.9220772524867868,
                2.9230350849205204
            ]
        },
        {
            "positions": [
                -2.772028841741672,
                -0.971383707903161,
                1.2859825819908728,
                -0.7165703052774525,
                1.0201756050486368,
                2.819112759861576
            ]
        },
        {
            "positions": [
                -2.7311800890190208,
                -0.9989831811622177,
                1.3186536514330538,
                -0.8036075009412431,
                1.1182739576104868,
                2.7151904348026314
            ]
        },
        {
            "positions": [
                -2.6903313362963694,
                -1.0265826544212746,
                1.3513247208752346,
                -0.8906446966050339,
                1.2163723101723365,
                2.611268109743687
            ]
        },
        {
            "positions": [
                -2.649482583573718,
                -1.0541821276803314,
                1.3839957903174154,
                -0.9776818922688245,
                1.3144706627341867,
                2.5073457846847425
            ]
        },
        {
            "positions": [
                -2.608633830851067,
                -1.0817816009393881,
                1.4166668597595962,
                -1.0647190879326152,
                1.4125690152960364,
                2.403423459625798
            ]
        },
        {
            "positions": [
                -2.5677850781284155,
                -1.1093810741984451,
                1.4493379292017772,
                -1.1517562835964057,
                1.5106673678578866,
                2.2995011345668535
            ]
        },
        {
            "positions": [
                -2.5269363254057646,
                -1.1369805474575019,
                1.482008998643958,
                -1.2387934792601965,
                1.6087657204197363,
                2.195578809507909
            ]
        },
        {
            "positions": [
                -2.4860875726831133,
                -1.1645800207165586,
                1.5146800680861388,
                -1.3258306749239872,
                1.7068640729815865,
                2.0916564844489645
            ]
        },
        {
            "positions": [
                -2.445238819960462,
                -1.1921794939756154,
                1.5473511375283195,
                -1.4128678705877777,
                1.8049624255434362,
                1.98773415939002
            ]
        },
        {
            "positions": [
                -2.4043900672378107,
                -1.2197789672346722,
                1.5800222069705003,
                -1.4999050662515683,
                1.9030607781052862,
                1.8838118343310755
            ]
        },
        {
            "positions": [
                -2.3635413145151594,
                -1.247378440493729,
                1.6126932764126813,
                -1.5869422619153593,
                2.001159130667136,
                1.779889509272131
            ]
        },
        {
            "positions": [
                -2.322692561792508,
                -1.274977913752786,
                1.6453643458548621,
                -1.6739794575791498,
                2.0992574832289863,
                1.6759671842131865
            ]
        },
        {
            "positions": [
                -2.2818438090698567,
                -1.3025773870118427,
                1.678035415297043,
                -1.7610166532429403,
                2.197355835790836,
                1.572044859154242
            ]
        },
        {
            "positions": [
                -2.247862738595605,
                -1.3271414460590765,
                1.6941712733311953,
                -1.8074832102525087,
                2.2471551292563414,
                1.5074451451553463
            ]
        },
        {
            "positions": [
                -2.183998846841297,
                -1.3508300059891245,
                1.5864291891673084,
                -1.7204063608942997,
                2.1885533140017843,
                1.461253470568664
            ]
        },
        {
            "positions": [
                -2.1201349550869883,
                -1.3745185659191725,
                1.4786871050034214,
                -1.6333295115360906,
                2.1299514987472277,
                1.4150617959819818
            ]
        },
        {
            "positions": [
                -2.05627106333268,
                -1.3982071258492206,
                1.3709450208395344,
                -1.5462526621778818,
                2.0713496834926706,
                1.3688701213952994
            ]
        },
        {
            "positions": [
                -1.9924071715783715,
                -1.4218956857792684,
                1.2632029366756474,
                -1.4591758128196726,
                2.012747868238114,
                1.322678446808617
            ]
        },
        {
            "positions": [
                -1.9285432798240634,
                -1.4455842457093164,
                1.1554608525117605,
                -1.3720989634614638,
                1.9541460529835568,
                1.2764867722219349
            ]
        },
        {
            "positions": [
                -1.864679388069755,
                -1.4692728056393645,
                1.0477187683478735,
                -1.2850221141032547,
                1.895544237729,
                1.2302950976352525
            ]
        },
        {
            "positions": [
                -1.8008154963154466,
                -1.4929613655694125,
                0.9399766841839864,
                -1.1979452647450457,
                1.836942422474443,
                1.18410342304857
            ]
        },
        {
            "positions": [
                -1.7369516045611382,
                -1.5166499254994605,
                0.8322346000200994,
                -1.1108684153868367,
                1.7783406072198862,
                1.137911748461888
            ]
        },
        {
            "positions": [
                -1.6730877128068298,
                -1.5403384854295084,
                0.7244925158562125,
                -1.0237915660286276,
                1.7197387919653293,
                1.0917200738752055
            ]
        },
        {
            "positions": [
                -1.6092238210525216,
                -1.5640270453595564,
                0.6167504316923256,
                -0.9367147166704187,
                1.6611369767107722,
                1.0455283992885231
            ]
        },
        {
            "positions": [
                -1.545359929298213,
                -1.5877156052896044,
                0.5090083475284384,
                -0.8496378673122097,
                1.6025351614562156,
                0.9993367247018409
            ]
        },
        {
            "positions": [
                -1.4814960375439048,
                -1.6114041652196525,
                0.4012662633645514,
                -0.7625610179540008,
                1.5439333462016585,
                0.9531450501151585
            ]
        },
        {
            "positions": [
                -1.4176321457895962,
                -1.6350927251497005,
                0.2935241792006644,
                -0.6754841685957917,
                1.4853315309471016,
                0.9069533755284762
            ]
        },
        {
            "positions": [
                -1.353768254035288,
                -1.6587812850797485,
                0.18578209503677745,
                -0.5884073192375827,
                1.4267297156925447,
                0.8607617009417938
            ]
        },
        {
            "positions": [
                -1.2899043622809798,
                -1.6824698450097963,
                0.0780400108728907,
                -0.5013304698793737,
                1.3681279004379878,
                0.8145700263551117
            ]
        },
        {
            "positions": [
                -1.2260404705266712,
                -1.7061584049398444,
                -0.0297020732909965,
                -0.41425362052116466,
                1.309526085183431,
                0.7683783517684293
            ]
        },
        {
            "positions": [
                -1.1621765787723628,
                -1.7298469648698924,
                -0.13744415745488348,
                -0.3271767711629556,
                1.2509242699288738,
                0.722186677181747
            ]
        },
        {
            "positions": [
                -1.0983126870180546,
                -1.7535355247999405,
                -0.24518624161877023,
                -0.24009992180474682,
                1.1923224546743172,
                0.6759950025950647
            ]
        },
        {
            "positions": [
                -1.0344487952637462,
                -1.7772240847299883,
                -0.3529283257826572,
                -0.1530230724465378,
                1.1337206394197603,
                0.6298033280083825
            ]
        },
        {
            "positions": [
                -0.9705849035094378,
                -1.8009126446600363,
                -0.4606704099465442,
                -0.06594622308832876,
                1.0751188241652032,
                0.5836116534217001
            ]
        },
        {
            "positions": [
                -0.9067210117551294,
                -1.8246012045900843,
                -0.5684124941104312,
                0.02113062626988027,
                1.0165170089106463,
                0.5374199788350178
            ]
        },
        {
            "positions": [
                -0.842857120000821,
                -1.8482897645201324,
                -0.6761545782743186,
                0.1082074756280893,
                0.9579151936560895,
                0.4912283042483354
            ]
        },
        {
            "positions": [
                -0.7789932282465126,
                -1.8719783244501804,
                -0.7838966624382055,
                0.19528432498629833,
                0.8993133784015326,
                0.445036629661653
            ]
        },
        {
            "positions": [
                -0.7151293364922042,
                -1.8956668843802285,
                -0.8916387466020925,
                0.28236117434450714,
                0.8407115631469757,
                0.39884495507497064
            ]
        },
        {
            "positions": [
                -0.6512654447378958,
                -1.9193554443102765,
                -0.9993808307659795,
                0.3694380237027164,
                0.7821097478924186,
                0.3526532804882885
            ]
        },
        {
            "positions": [
                -0.5874015529835874,
                -1.9430440042403245,
                -1.1071229149298665,
                0.4565148730609252,
                0.7235079326378617,
                0.3064616059016061
            ]
        },
        {
            "positions": [
                -0.5235376612292792,
                -1.9667325641703726,
                -1.2148649990937535,
                0.5435917224191344,
                0.6649061173833049,
                0.2602699313149237
            ]
        },
        {
            "positions": [
                -0.45967376947497085,
                -1.9904211241004206,
                -1.3226070832576404,
                0.6306685717773433,
                0.606304302128748,
                0.21407825672824132
            ]
        },
        {
            "positions": [
                -0.39580987772066245,
                -2.014109684030468,
                -1.4303491674215274,
                0.7177454211355525,
                0.5477024868741909,
                0.16788658214155916
            ]
        },
        {
            "positions": [
                -0.3319459859663543,
                -2.0377982439605162,
                -1.538091251585414,
                0.8048222704937613,
                0.4891006716196342,
                0.121694907554877
            ]
        },
        {
            "positions": [
                -0.2680820942120459,
                -2.0614868038905643,
                -1.6458333357493014,
                0.8918991198519701,
                0.43049885636507734,
                0.07550323296819461
            ]
        },
        {
            "positions": [
                -0.20421820245773725,
                -2.0851753638206123,
                -1.7535754199131883,
                0.9789759692101794,
                0.37189704111052047,
                0.029311558381512226
            ]
        },
        {
            "positions": [
                -0.14035431070342907,
                -2.1088639237506603,
                -1.8613175040770753,
                1.0660528185683882,
                0.31329522585596337,
                -0.016880116205169937
            ]
        },
        {
            "positions": [
                -0.07649041894912045,
                -2.1325524836807084,
                -1.9690595882409623,
                1.1531296679265974,
                0.2546934106014065,
                -0.06307179079185232
            ]
        },
        {
            "positions": [
                -0.01262652719481209,
                -2.1562410436107564,
                -2.0768016724048493,
                1.2402065172848065,
                0.1960915953468495,
                -0.10926346537853464
            ]
        },
        {
            "positions": [
                -0.044958221945838484,
                -2.1912010492580816,
                -2.240064583901367,
                1.348512103693718,
                0.15895296280553003,
                -0.08986421357027992
            ]
        },
        {
            "positions": [
                -0.07728991669686489,
                -2.2261610549054063,
                -2.403327495397885,
                1.4568176901026293,
                0.12181433026421058,
                -0.0704649617620252
            ]
        },
        {
            "positions": [
                -0.1838294466415458,
                -2.276888009100813,
                -2.3898032041577726,
                1.464883139202111,
                0.16936154906890338,
                0.05166935355249859
            ]
        }
    ]
}