{
    "goal": {
        "global_pose": {
            "orientation": {
                "w": -0.4816463035849501,
                "x": 0.5182115481033762,
                "y": 0.4908360881923453,
                "z": -0.5084816262002911
            },
            "position": {
                "x": -0.8240239810943604,
                "y": 0.19912469901144506,
                "z": 0.16403168439865112
            }
        },
        "name": "move_to_storage_D"
    },
    "id": "BKPIECE_move_to_storage_D_48",
    "joint_names": [
        "shoulder_pan_joint",
        "shoulder_lift_joint",
        "elbow_joint",
        "wrist_1_joint",
        "wrist_2_joint",
        "wrist_3_joint"
    ],
    "metrics": {
        "cart_traj_len": 3.894449361408079,
        "distance_elbow_joint": 4.212737529678583,
        "distance_shoulder_lift_joint": 1.2652227258419835,
        "distance_shoulder_pan_joint": 2.8123146320615287,
        "distance_wrist_1_joint": 2.328107219231554,
        "distance_wrist_2_joint": 0.9803703380259537,
        "distance_wrist_3_joint": 3.1379255143774567,
        "smoothness": 0.11293944690246764,
        "time": 0.249084427,
        "traj_len": 3.8388381001570067,
        "weighted_distance": 4.931633253317756
    },
    "planner": "BKPIECE",
    "start": {
        "state": {
            "elbow_joint": -2.384821990628643,
            "shoulder_lift_joint": -2.278805467437664,
            "shoulder_pan_joint": -0.18546946439364564,
            "wrist_1_joint": 1.4845938187801415,
            "wrist_2_joint": 0.178987772454074,
            "wrist_3_joint": 0.03710569632802521
        }
    },
    "waypoints": [
        {
            "positions": [
                -0.18546946439364564,
                -2.278805467437664,
                -2.384821990628643,
                1.4845938187801415,
                0.178987772454074,
                0.03710569632802521
            ]
        },
        {
            "positions": [
                -0.11534749357010017,
                -2.259298611918487,
                -2.3843603875782575,
                1.4991397220237537,
                0.12594453784334084,
                -0.009629012919769454
            ]
        },
        {
            "positions": [
                -0.04034198791872179,
                -2.226186596469915,
                -2.2737681443381086,
                1.4292342098526012,
                0.1470640057768122,
                -0.0853662234441386
            ]
        },
        {
            "positions": [
                0.03466351773265659,
                -2.1930745810213432,
                -2.1631759010979597,
                1.3593286976814485,
                0.16818347371028353,
                -0.16110343396850774
            ]
        },
        {
            "positions": [
                0.10966902338403496,
                -2.1599625655727714,
                -2.0525836578578107,
                1.289423185510296,
                0.18930294164375489,
                -0.2368406444928769
            ]
        },
        {
            "positions": [
                0.18467452903541337,
                -2.1268505501241997,
                -1.9419914146176618,
                1.2195176733391433,
                0.21042240957722624,
                -0.31257785501724605
            ]
        },
        {
            "positions": [
                0.25968003468679174,
                -2.093738534675628,
                -1.8313991713775128,
                1.1496121611679908,
                0.23154187751069757,
                -0.3883150655416152
            ]
        },
        {
            "positions": [
                0.3346855403381701,
                -2.060626519227056,
                -1.720806928137364,
                1.0797066489968383,
                0.25266134544416896,
                -0.46405227606598437
            ]
        },
        {
            "positions": [
                0.4096910459895485,
                -2.0275145037784843,
                -1.6102146848972152,
                1.0098011368256856,
                0.27378081337764026,
                -0.5397894865903535
            ]
        },
        {
            "positions": [
                0.4846965516409269,
                -1.9944024883299125,
                -1.4996224416570663,
                0.939895624654533,
                0.2949002813111116,
                -0.6155266971147226
            ]
        },
        {
            "positions": [
                0.559702057292305,
                -1.9612904728813407,
                -1.3890301984169175,
                0.8699901124833805,
                0.316019749244583,
                -0.6912639076390917
            ]
        },
        {
            "positions": [
                0.6347075629436836,
                -1.9281784574327687,
                -1.2784379551767684,
                0.8000846003122278,
                0.3371392171780543,
                -0.767001118163461
            ]
        },
        {
            "positions": [
                0.7097130685950619,
                -1.8950664419841972,
                -1.1678457119366197,
                0.7301790881410753,
                0.35825868511152564,
                -0.84273832868783
            ]
        },
        {
            "positions": [
                0.7847185742464403,
                -1.8619544265356252,
                -1.0572534686964705,
                0.6602735759699228,
                0.379378153044997,
                -0.9184755392121993
            ]
        },
        {
            "positions": [
                0.8597240798978186,
                -1.8288424110870534,
                -0.9466612254563218,
                0.5903680637987702,
                0.4004976209784683,
                -0.9942127497365684
            ]
        },
        {
            "positions": [
                0.934729585549197,
                -1.7957303956384816,
                -0.8360689822161729,
                0.5204625516276176,
                0.4216170889119397,
                -1.0699499602609375
            ]
        },
        {
            "positions": [
                1.0097350912005754,
                -1.7626183801899098,
                -0.7254767389760239,
                0.4505570394564651,
                0.442736556845411,
                -1.1456871707853065
            ]
        },
        {
            "positions": [
                1.084740596851954,
                -1.729506364741338,
                -0.614884495735875,
                0.3806515272853124,
                0.46385602477888244,
                -1.2214243813096757
            ]
        },
        {
            "positions": [
                1.159746102503332,
                -1.6963943492927662,
                -0.5042922524957261,
                0.3107460151141599,
                0.48497549271235374,
                -1.297161591834045
            ]
        },
        {
            "positions": [
                1.2347516081547103,
                -1.6632823338441944,
                -0.39370000925557735,
                0.2408405029430074,
                0.506094960645825,
                -1.3728988023584139
            ]
        },
        {
            "positions": [
                1.309757113806089,
                -1.6301703183956224,
                -0.2831077660154282,
                0.17093499077185448,
                0.5272144285792965,
                -1.4486360128827833
            ]
        },
        {
            "positions": [
                1.3847626194574674,
                -1.5970583029470506,
                -0.17251552277527926,
                0.101029478600702,
                0.5483338965127678,
                -1.5243732234071523
            ]
        },
        {
            "positions": [
                1.4597681251088457,
                -1.563946287498479,
                -0.06192327953513033,
                0.03112396642954951,
                0.5694533644462391,
                -1.6001104339315215
            ]
        },
        {
            "positions": [
                1.534773630760224,
                -1.5308342720499073,
                0.048668963705018164,
                -0.038781545741602974,
                0.5905728323797105,
                -1.6758476444558905
            ]
        },
        {
            "positions": [
                1.6097791364116025,
                -1.4977222566013353,
                0.15926120694516754,
                -0.10868705791275568,
                0.6116923003131819,
                -1.75158485498026
            ]
        },
        {
            "positions": [
                1.6847846420629808,
                -1.4646102411527635,
                0.2698534501853165,
                -0.17859257008390816,
                0.6328117682466532,
                -1.827322065504629
            ]
        },
        {
            "positions": [
                1.7597901477143592,
                -1.4314982257041917,
                0.38044569342546497,
                -0.24849808225506087,
                0.6539312361801245,
                -1.903059276028998
            ]
        },
        {
            "positions": [
                1.8347956533657375,
                -1.39838621025562,
                0.4910379366656139,
                -0.31840359442621335,
                0.6750507041135958,
                -1.9787964865533672
            ]
        },
        {
            "positions": [
                1.9098011590171158,
                -1.3652741948070481,
                0.6016301799057633,
                -0.38830910659736606,
                0.6961701720470672,
                -2.0545336970777366
            ]
        },
        {
            "positions": [
                1.9848066646684943,
                -1.3321621793584764,
                0.7122224231459118,
                -0.45821461876851854,
                0.7172896399805385,
                -2.130270907602106
            ]
        },
        {
            "positions": [
                2.0598121703198724,
                -1.2990501639099046,
                0.8228146663860607,
                -0.528120130939671,
                0.7384091079140098,
                -2.206008118126475
            ]
        },
        {
            "positions": [
                2.134817675971251,
                -1.2659381484613328,
                0.9334069096262096,
                -0.5980256431108235,
                0.7595285758474812,
                -2.281745328650844
            ]
        },
        {
            "positions": [
                2.2098231816226295,
                -1.232826133012761,
                1.043999152866359,
                -0.6679311552819764,
                0.7806480437809526,
                -2.3574825391752134
            ]
        },
        {
            "positions": [
                2.284828687274008,
                -1.1997141175641892,
                1.1545913961065075,
                -0.7378366674531289,
                0.801767511714424,
                -2.433219749699582
            ]
        },
        {
            "positions": [
                2.359834192925386,
                -1.1666021021156174,
                1.2651836393466565,
                -0.8077421796242814,
                0.8228869796478953,
                -2.5089569602239514
            ]
        },
        {
            "positions": [
                2.4132363878738854,
                -1.13599823001163,
                1.3777300192873134,
                -0.8064062967563002,
                0.8689639119700285,
                -2.6273295317890475
            ]
        },
        {
            "positions": [
                2.4666385828223847,
                -1.1053943579076426,
                1.4902763992279702,
                -0.8050704138883189,
                0.9150408442921617,
                -2.7457021033541436
            ]
        },
        {
            "positions": [
                2.5200407777708844,
                -1.0747904858036552,
                1.6028227791686271,
                -0.8037345310203377,
                0.961117776614295,
                -2.864074674919239
            ]
        },
        {
            "positions": [
                2.5734429727193837,
                -1.0441866136996678,
                1.715369159109284,
                -0.8023986481523564,
                1.0071947089364282,
                -2.9824472464843352
            ]
        },
        {
            "positions": [
                2.626845167667883,
                -1.0135827415956804,
                1.8279155390499409,
                -0.8010627652843751,
                1.0532716412585614,
                -3.1008198180494313
            ]
        }
    ]
}