{
    "goal": {
        "global_pose": {
            "orientation": {
                "w": 0.005598929693374612,
                "x": 0.007748599140229565,
                "y": 0.7110244013736278,
                "z": -0.7031023480610252
            },
            "position": {
                "x": -0.8858502320852131,
                "y": -0.7141253447532654,
                "z": 0.3711530566215515
            }
        },
        "name": "move_to_auspresseinheit_C"
    },
    "id": "BKPIECE_move_to_auspresseinheit_C_52",
    "joint_names": [
        "shoulder_pan_joint",
        "shoulder_lift_joint",
        "elbow_joint",
        "wrist_1_joint",
        "wrist_2_joint",
        "wrist_3_joint"
    ],
    "metrics": {
        "cart_traj_len": 0.4939364693641701,
        "distance_elbow_joint": 1.0129517817865556,
        "distance_shoulder_lift_joint": 0.33149686847358895,
        "distance_shoulder_pan_joint": 0.2563901922981513,
        "distance_wrist_1_joint": 0.7029252855430603,
        "distance_wrist_2_joint": 1.321248701269069,
        "distance_wrist_3_joint": 0.06739766309309658,
        "smoothness": 3.2297397080004555e-16,
        "time": 0.174067836,
        "traj_len": 1.9215645949235018,
        "weighted_distance": 2.4189625473458336
    },
    "planner": "BKPIECE",
    "start": {
        "state": {
            "elbow_joint": 1.7527959577730765,
            "shoulder_lift_joint": -0.9740617694224828,
            "shoulder_pan_joint": -2.967991417825869,
            "wrist_1_joint": -0.7595177689779385,
            "wrist_2_joint": 1.7443932448376545,
            "wrist_3_joint": 3.1991315425061013
        }
    },
    "waypoints": [
        {
            "positions": [
                -2.967991417825869,
                -0.9740617694224828,
                1.7527959577730765,
                -0.7595177689779385,
                1.7443932448376545,
                3.1991315425061013
            ]
        },
        {
            "positions": [
                -2.942352398596054,
                -0.9409120825751239,
                1.651500779594421,
                -0.6892252404236325,
                1.6122683747107476,
                3.1923917761967915
            ]
        },
        {
            "positions": [
                -2.916713379366239,
                -0.907762395727765,
                1.5502056014157652,
                -0.6189327118693264,
                1.4801435045838407,
                3.185652009887482
            ]
        },
        {
            "positions": [
                -2.8910743601364235,
                -0.8746127088804061,
                1.44891042323711,
                -0.5486401833150205,
                1.3480186344569338,
                3.1789122435781723
            ]
        },
        {
            "positions": [
                -2.8654353409066085,
                -0.8414630220330472,
                1.3476152450584542,
                -0.4783476547607144,
                1.2158937643300267,
                3.172172477268863
            ]
        },
        {
            "positions": [
                -2.8397963216767934,
                -0.8083133351856884,
                1.2463200668797987,
                -0.4080551262064084,
                1.08376889420312,
                3.165432710959553
            ]
        },
        {
            "positions": [
                -2.8141573024469784,
                -0.7751636483383294,
                1.1450248887011432,
                -0.33776259765210237,
                0.9516440240762131,
                3.158692944650243
            ]
        },
        {
            "positions": [
                -2.7885182832171633,
                -0.7420139614909705,
                1.0437297105224876,
                -0.26747006909779636,
                0.8195191539493062,
                3.151953178340934
            ]
        },
        {
            "positions": [
                -2.762879263987348,
                -0.7088642746436116,
                0.9424345323438319,
                -0.19717754054349024,
                0.6873942838223992,
                3.145213412031624
            ]
        },
        {
            "positions": [
                -2.737240244757533,
                -0.6757145877962527,
                0.8411393541651764,
                -0.12688501198918423,
                0.5552694136954923,
                3.1384736457223146
            ]
        },
        {
            "positions": [
                -2.7116012255277178,
                -0.6425649009488938,
                0.7398441759865209,
                -0.0565924834348782,
                0.4231445435685854,
                3.1317338794130047
            ]
        }
    ]
}