{
    "goal": {
        "global_pose": {
            "orientation": {
                "w": 0.005598929693374612,
                "x": 0.007748599140229565,
                "y": 0.7110244013736278,
                "z": -0.7031023480610252
            },
            "position": {
                "x": -0.8858502320852131,
                "y": -0.7141253447532654,
                "z": 0.3711530566215515
            }
        },
        "name": "move_to_auspresseinheit_C"
    },
    "id": "BKPIECE_move_to_auspresseinheit_C_74",
    "joint_names": [
        "shoulder_pan_joint",
        "shoulder_lift_joint",
        "elbow_joint",
        "wrist_1_joint",
        "wrist_2_joint",
        "wrist_3_joint"
    ],
    "metrics": {
        "cart_traj_len": 0.49317317439993463,
        "distance_elbow_joint": 0.9939164146879039,
        "distance_shoulder_lift_joint": 0.32132007033130117,
        "distance_shoulder_pan_joint": 0.2568505008001427,
        "distance_wrist_1_joint": 0.6687936065330328,
        "distance_wrist_2_joint": 1.30095040188652,
        "distance_wrist_3_joint": 0.056071831665984284,
        "smoothness": 3.2297397080004555e-16,
        "time": 0.237990074,
        "traj_len": 1.896813861691464,
        "weighted_distance": 2.3832311045419843
    },
    "planner": "BKPIECE",
    "start": {
        "state": {
            "elbow_joint": 1.7527959577730765,
            "shoulder_lift_joint": -0.9740617694224828,
            "shoulder_pan_joint": -2.967991417825869,
            "wrist_1_joint": -0.7595177689779385,
            "wrist_2_joint": 1.7443932448376545,
            "wrist_3_joint": 3.1991315425061013
        }
    },
    "waypoints": [
        {
            "positions": [
                -2.967991417825869,
                -0.9740617694224828,
                1.7527959577730765,
                -0.7595177689779385,
                1.7443932448376545,
                3.1991315425061013
            ]
        },
        {
            "positions": [
                -2.942306367745855,
                -0.9419297623893527,
                1.6534043163042862,
                -0.6926384083246353,
                1.6142982046490024,
                3.193524359339503
            ]
        },
        {
            "positions": [
                -2.9166213176658404,
                -0.9097977553562225,
                1.5540126748354957,
                -0.625759047671332,
                1.4842031644603504,
                3.1879171761729044
            ]
        },
        {
            "positions": [
                -2.8909362675858263,
                -0.8776657483230924,
                1.4546210333667053,
                -0.5588796870180287,
                1.3541081242716986,
                3.182309993006306
            ]
        },
        {
            "positions": [
                -2.865251217505812,
                -0.8455337412899623,
                1.355229391897915,
                -0.4920003263647254,
                1.2240130840830465,
                3.1767028098397074
            ]
        },
        {
            "positions": [
                -2.8395661674257977,
                -0.8134017342568323,
                1.2558377504291245,
                -0.42512096571142216,
                1.0939180438943945,
                3.171095626673109
            ]
        },
        {
            "positions": [
                -2.8138811173457836,
                -0.7812697272237021,
                1.1564461089603342,
                -0.3582416050581189,
                0.9638230037057426,
                3.165488443506511
            ]
        },
        {
            "positions": [
                -2.788196067265769,
                -0.749137720190572,
                1.0570544674915436,
                -0.2913622444048156,
                0.8337279635170906,
                3.1598812603399122
            ]
        },
        {
            "positions": [
                -2.762511017185755,
                -0.7170057131574419,
                0.9576628260227533,
                -0.22448288375151226,
                0.7036329233284384,
                3.154274077173314
            ]
        },
        {
            "positions": [
                -2.7368259671057404,
                -0.6848737061243118,
                0.858271184553963,
                -0.15760352309820902,
                0.5735378831397866,
                3.1486668940067153
            ]
        },
        {
            "positions": [
                -2.7111409170257263,
                -0.6527416990911816,
                0.7588795430851726,
                -0.09072416244490582,
                0.4434428429511345,
                3.143059710840117
            ]
        }
    ]
}