{
    "goal": {
        "global_pose": {
            "orientation": {
                "w": 0.7031023502349854,
                "x": -0.7110244035720825,
                "y": 0.007748599164187908,
                "z": 0.005598929710686207
            },
            "position": {
                "x": 0.11585023208521307,
                "y": 0.44412534475326537,
                "z": 0.3711530566215515
            }
        },
        "name": "move_to_auspresseinheit_A"
    },
    "id": "BKPIECE_move_to_auspresseinheit_A_122",
    "joint_names": [
        "shoulder_pan_joint",
        "shoulder_lift_joint",
        "elbow_joint",
        "wrist_1_joint",
        "wrist_2_joint",
        "wrist_3_joint"
    ],
    "metrics": {
        "cart_traj_len": 6.51085341360107,
        "distance_elbow_joint": 8.116196194327143,
        "distance_shoulder_lift_joint": 0.5533925332665328,
        "distance_shoulder_pan_joint": 6.145284379255702,
        "distance_wrist_1_joint": 1.548724034561147,
        "distance_wrist_2_joint": 0.5420454057170478,
        "distance_wrist_3_joint": 3.440022871628969,
        "smoothness": 0.6375381701405641,
        "time": 0.258918043,
        "traj_len": 4.510616966530915,
        "weighted_distance": 5.414469558718809
    },
    "planner": "BKPIECE",
    "start": {
        "state": {
            "elbow_joint": 2.4225746994637096,
            "shoulder_lift_joint": -1.373653595662188,
            "shoulder_pan_joint": -0.3378633848294565,
            "wrist_1_joint": -1.0288595594406726,
            "wrist_2_joint": 1.2330228066703421,
            "wrist_3_joint": 3.189163495502006
        }
    },
    "waypoints": [
        {
            "positions": [
                -0.3378633848294565,
                -1.373653595662188,
                2.4225746994637096,
                -1.0288595594406726,
                1.2330228066703421,
                3.189163495502006
            ]
        },
        {
            "positions": [
                -0.43996722896675516,
                -1.3860000704108646,
                2.2596316538795986,
                -1.048448015261099,
                1.2184205442513694,
                3.119243558715681
            ]
        },
        {
            "positions": [
                -0.5420710731040539,
                -1.3983465451595412,
                2.096688608295488,
                -1.0680364710815258,
                1.2038182818323968,
                3.049323621929356
            ]
        },
        {
            "positions": [
                -0.6441749172413525,
                -1.410693019908218,
                1.933745562711377,
                -1.0876249269019522,
                1.189216019413424,
                2.9794036851430303
            ]
        },
        {
            "positions": [
                -0.7462787613786512,
                -1.4230394946568945,
                1.770802517127266,
                -1.1072133827223787,
                1.1746137569944515,
                2.9094837483567053
            ]
        },
        {
            "positions": [
                -0.8483826055159498,
                -1.435385969405571,
                1.6078594715431553,
                -1.1268018385428054,
                1.1600114945754787,
                2.8395638115703803
            ]
        },
        {
            "positions": [
                -0.9504864496532486,
                -1.4477324441542476,
                1.4449164259590446,
                -1.1463902943632318,
                1.145409232156506,
                2.7696438747840553
            ]
        },
        {
            "positions": [
                -1.0525902937905474,
                -1.4600789189029242,
                1.2819733803749336,
                -1.1659787501836585,
                1.1308069697375334,
                2.69972393799773
            ]
        },
        {
            "positions": [
                -1.154694137927846,
                -1.472425393651601,
                1.1190303347908228,
                -1.185567206004085,
                1.1162047073185606,
                2.629804001211405
            ]
        },
        {
            "positions": [
                -1.2567979820651445,
                -1.4847718684002775,
                0.956087289206712,
                -1.2051556618245114,
                1.101602444899588,
                2.5598840644250798
            ]
        },
        {
            "positions": [
                -1.3589018262024433,
                -1.497118343148954,
                0.793144243622601,
                -1.224744117644938,
                1.0870001824806153,
                2.4899641276387547
            ]
        },
        {
            "positions": [
                -1.461005670339742,
                -1.5094648178976307,
                0.6302011980384903,
                -1.2443325734653645,
                1.0723979200616425,
                2.4200441908524297
            ]
        },
        {
            "positions": [
                -1.5631095144770406,
                -1.5218112926463072,
                0.4672581524543795,
                -1.263921029285791,
                1.05779565764267,
                2.3501242540661047
            ]
        },
        {
            "positions": [
                -1.6652133586143394,
                -1.534157767394984,
                0.3043151068702685,
                -1.2835094851062177,
                1.0431933952236971,
                2.2802043172797792
            ]
        },
        {
            "positions": [
                -1.7673172027516382,
                -1.5465042421436606,
                0.14137206128615754,
                -1.303097940926644,
                1.0285911328047246,
                2.210284380493454
            ]
        },
        {
            "positions": [
                -1.8694210468889367,
                -1.5588507168923371,
                -0.02157098429795301,
                -1.3226863967470706,
                1.0139888703857518,
                2.140364443707129
            ]
        },
        {
            "positions": [
                -1.9715248910262353,
                -1.5711971916410137,
                -0.184514029882064,
                -1.3422748525674972,
                0.9993866079667791,
                2.070444506920804
            ]
        },
        {
            "positions": [
                -2.073628735163534,
                -1.5835436663896902,
                -0.347457075466175,
                -1.3618633083879237,
                0.9847843455478065,
                2.0005245701344787
            ]
        },
        {
            "positions": [
                -2.1757325793008326,
                -1.595890141138367,
                -0.5104001210502855,
                -1.3814517642083501,
                0.9701820831288337,
                1.930604633348154
            ]
        },
        {
            "positions": [
                -2.2778364234381314,
                -1.6082366158870436,
                -0.6733431666343965,
                -1.4010402200287768,
                0.955579820709861,
                1.8606846965618287
            ]
        },
        {
            "positions": [
                -2.3799402675754298,
                -1.6205830906357201,
                -0.8362862122185075,
                -1.4206286758492033,
                0.9409775582908884,
                1.7907647597755036
            ]
        },
        {
            "positions": [
                -2.4820441117127285,
                -1.6329295653843967,
                -0.9992292578026181,
                -1.44021713166963,
                0.9263752958719157,
                1.7208448229891786
            ]
        },
        {
            "positions": [
                -2.5841479558500273,
                -1.6452760401330733,
                -1.162172303386729,
                -1.4598055874900564,
                0.911773033452943,
                1.6509248862028534
            ]
        },
        {
            "positions": [
                -2.686251799987326,
                -1.65762251488175,
                -1.32511534897084,
                -1.4793940433104829,
                0.8971707710339702,
                1.5810049494165281
            ]
        },
        {
            "positions": [
                -2.7883556441246244,
                -1.6699689896304266,
                -1.4880583945549506,
                -1.4989824991309093,
                0.8825685086149977,
                1.5110850126302033
            ]
        },
        {
            "positions": [
                -2.8904594882619232,
                -1.6823154643791032,
                -1.6510014401390611,
                -1.518570954951336,
                0.8679662461960249,
                1.441165075843878
            ]
        },
        {
            "positions": [
                -2.758823488723938,
                -1.6909869859509246,
                -1.5015439489898958,
                -1.4809462387076395,
                0.8615345138418009,
                1.5022648957896052
            ]
        },
        {
            "positions": [
                -2.627187489185953,
                -1.6996585075227462,
                -1.3520864578407303,
                -1.4433215224639429,
                0.8551027814875769,
                1.563364715735332
            ]
        },
        {
            "positions": [
                -2.4955514896479674,
                -1.7083300290945675,
                -1.202628966691565,
                -1.4056968062202464,
                0.8486710491333529,
                1.6244645356810592
            ]
        },
        {
            "positions": [
                -2.3639154901099824,
                -1.7170015506663892,
                -1.0531714755423995,
                -1.36807208997655,
                0.842239316779129,
                1.6855643556267863
            ]
        },
        {
            "positions": [
                -2.232279490571997,
                -1.7256730722382105,
                -0.9037139843932344,
                -1.3304473737328533,
                0.835807584424905,
                1.7466641755725132
            ]
        },
        {
            "positions": [
                -2.1006434910340115,
                -1.7343445938100321,
                -0.754256493244069,
                -1.2928226574891568,
                0.829375852070681,
                1.8077639955182403
            ]
        },
        {
            "positions": [
                -1.9690074914960265,
                -1.7430161153818535,
                -0.6047990020949037,
                -1.2551979412454601,
                0.822944119716457,
                1.8688638154639672
            ]
        },
        {
            "positions": [
                -1.837371491958041,
                -1.7516876369536751,
                -0.45534151094573816,
                -1.2175732250017637,
                0.816512387362233,
                1.9299636354096943
            ]
        },
        {
            "positions": [
                -1.7057354924200558,
                -1.7603591585254965,
                -0.30588401979657287,
                -1.1799485087580672,
                0.810080655008009,
                1.9910634553554214
            ]
        },
        {
            "positions": [
                -1.5740994928820706,
                -1.769030680097318,
                -0.15642652864740758,
                -1.1423237925143708,
                0.8036489226537851,
                2.0521632753011483
            ]
        },
        {
            "positions": [
                -1.4424634933440854,
                -1.7777022016691395,
                -0.00696903749824207,
                -1.104699076270674,
                0.7972171902995611,
                2.113263095246875
            ]
        },
        {
            "positions": [
                -1.3108274938061,
                -1.7863737232409609,
                0.14248845365092322,
                -1.0670743600269776,
                0.7907854579453371,
                2.1743629151926025
            ]
        },
        {
            "positions": [
                -1.1791914942681148,
                -1.7950452448127825,
                0.2919459448000885,
                -1.029449643783281,
                0.784353725591113,
                2.2354627351383294
            ]
        },
        {
            "positions": [
                -1.0475554947301295,
                -1.8037167663846039,
                0.4414034359492538,
                -0.9918249275395845,
                0.777921993236889,
                2.2965625550840567
            ]
        },
        {
            "positions": [
                -0.9159194951921441,
                -1.8123882879564255,
                0.5908609270984195,
                -0.954200211295888,
                0.771490260882665,
                2.3576623750297836
            ]
        },
        {
            "positions": [
                -0.7842834956541589,
                -1.8210598095282469,
                0.7403184182475848,
                -0.9165754950521914,
                0.765058528528441,
                2.4187621949755105
            ]
        },
        {
            "positions": [
                -0.6526474961161735,
                -1.8297313311000685,
                0.8897759093967501,
                -0.8789507788084948,
                0.758626796174217,
                2.4798620149212374
            ]
        },
        {
            "positions": [
                -0.5210114965781885,
                -1.8384028526718899,
                1.0392334005459154,
                -0.8413260625647984,
                0.7521950638199931,
                2.5409618348669647
            ]
        },
        {
            "positions": [
                -0.389375497040203,
                -1.8470743742437112,
                1.1886908916950811,
                -0.8037013463211018,
                0.7457633314657691,
                2.602061654812692
            ]
        },
        {
            "positions": [
                -0.25773949750221803,
                -1.8557458958155328,
                1.338148382844246,
                -0.7660766300774053,
                0.7393315991115451,
                2.663161474758419
            ]
        },
        {
            "positions": [
                -0.1261034979642326,
                -1.8644174173873542,
                1.4876058739934117,
                -0.7284519138337087,
                0.7328998667573211,
                2.724261294704146
            ]
        },
        {
            "positions": [
                0.005532501573752402,
                -1.8730889389591758,
                1.637063365142577,
                -0.6908271975900122,
                0.7264681344030971,
                2.7853611146498727
            ]
        },
        {
            "positions": [
                0.13716850111173828,
                -1.8817604605309972,
                1.7865208562917423,
                -0.6532024813463156,
                0.7200364020488732,
                2.8464609345955996
            ]
        },
        {
            "positions": [
                0.2688045006497233,
                -1.8904319821028188,
                1.9359783474409076,
                -0.6155777651026192,
                0.7136046696946492,
                2.907560754541327
            ]
        },
        {
            "positions": [
                0.4004405001877087,
                -1.8991035036746402,
                2.0854358385900733,
                -0.5779530488589225,
                0.7071729373404252,
                2.9686605744870542
            ]
        },
        {
            "positions": [
                0.5320764997256937,
                -1.9077750252464618,
                2.234893329739238,
                -0.5403283326152261,
                0.7007412049862012,
                3.029760394432781
            ]
        },
        {
            "positions": [
                0.663712499263679,
                -1.9164465468182832,
                2.384350820888404,
                -0.5027036163715294,
                0.6943094726319772,
                3.090860214378508
            ]
        },
        {
            "positions": [
                0.7022287875613138,
                -1.9058469647078455,
                2.391618614585306,
                -0.459558315900852,
                0.6976415443106601,
                3.1331895278147197
            ]
        }
    ]
}