{
    "goal": {
        "global_pose": {
            "orientation": {
                "w": -0.4816463035849501,
                "x": 0.5182115481033762,
                "y": 0.4908360881923453,
                "z": -0.5084816262002911
            },
            "position": {
                "x": -0.8240239810943604,
                "y": -0.300875300988555,
                "z": 0.16403168439865112
            }
        },
        "name": "move_to_storage_C"
    },
    "id": "BKPIECE_move_to_storage_C_53",
    "joint_names": [
        "shoulder_pan_joint",
        "shoulder_lift_joint",
        "elbow_joint",
        "wrist_1_joint",
        "wrist_2_joint",
        "wrist_3_joint"
    ],
    "metrics": {
        "cart_traj_len": 0.5768590450307779,
        "distance_elbow_joint": 0.25815151548142734,
        "distance_shoulder_lift_joint": 0.18944760791316684,
        "distance_shoulder_pan_joint": 0.4951885531450957,
        "distance_wrist_1_joint": 0.07638517649501864,
        "distance_wrist_2_joint": 1.0637062498662904,
        "distance_wrist_3_joint": 0.059830920682116595,
        "smoothness": 2.5376526478085547e-16,
        "time": 0.179284594,
        "traj_len": 1.4637998577616804,
        "weighted_distance": 1.8445767241588673
    },
    "planner": "BKPIECE",
    "start": {
        "state": {
            "elbow_joint": 2.0108683149792914,
            "shoulder_lift_joint": -1.1634956873317392,
            "shoulder_pan_joint": -2.4736205022346,
            "wrist_1_joint": -0.8367026793690192,
            "wrist_2_joint": 0.6746043897045053,
            "wrist_3_joint": 3.133522094754363
        }
    },
    "waypoints": [
        {
            "positions": [
                -2.4736205022346,
                -1.1634956873317392,
                2.0108683149792914,
                -0.8367026793690192,
                0.6746043897045053,
                3.133522094754363
            ]
        },
        {
            "positions": [
                -2.5561519277587825,
                -1.131921086012878,
                1.9678430623990535,
                -0.8239718166198494,
                0.8518887646822204,
                3.143493914868049
            ]
        },
        {
            "positions": [
                -2.6386833532829654,
                -1.100346484694017,
                1.9248178098188156,
                -0.8112409538706796,
                1.0291731396599353,
                3.153465734981735
            ]
        },
        {
            "positions": [
                -2.721214778807148,
                -1.0687718833751558,
                1.8817925572385779,
                -0.79851009112151,
                1.2064575146376506,
                3.1634375550954212
            ]
        },
        {
            "positions": [
                -2.8037462043313304,
                -1.0371972820562947,
                1.83876730465834,
                -0.7857792283723402,
                1.3837418896153655,
                3.1734093752091077
            ]
        },
        {
            "positions": [
                -2.8862776298555133,
                -1.0056226807374335,
                1.795742052078102,
                -0.7730483656231704,
                1.5610262645930808,
                3.1833811953227937
            ]
        },
        {
            "positions": [
                -2.9688090553796957,
                -0.9740480794185724,
                1.752716799497864,
                -0.7603175028740006,
                1.7383106395707957,
                3.1933530154364798
            ]
        }
    ]
}