{
    "goal": {
        "global_pose": {
            "orientation": {
                "w": 0.7031023480610252,
                "x": -0.7110244013736278,
                "y": 0.0077485991402295624,
                "z": 0.005598929693374583
            },
            "position": {
                "x": -0.8841497679147869,
                "y": 0.44412534475326537,
                "z": 0.3711530566215515
            }
        },
        "name": "move_to_auspresseinheit_D"
    },
    "id": "BKPIECE_move_to_auspresseinheit_D_91",
    "joint_names": [
        "shoulder_pan_joint",
        "shoulder_lift_joint",
        "elbow_joint",
        "wrist_1_joint",
        "wrist_2_joint",
        "wrist_3_joint"
    ],
    "metrics": {
        "cart_traj_len": 0.3434608257891967,
        "distance_elbow_joint": 0.6377381400905355,
        "distance_shoulder_lift_joint": 0.12020025743903773,
        "distance_shoulder_pan_joint": 0.13389535643674133,
        "distance_wrist_1_joint": 0.5316211680243743,
        "distance_wrist_2_joint": 1.436885248819716,
        "distance_wrist_3_joint": 0.0009437697718883697,
        "smoothness": 3.947459674368863e-16,
        "time": 0.344917326,
        "traj_len": 1.6915330149253054,
        "weighted_distance": 2.1981077992150797
    },
    "planner": "BKPIECE",
    "start": {
        "state": {
            "elbow_joint": -1.8275484843655228,
            "shoulder_lift_joint": -2.1267897864000416,
            "shoulder_pan_joint": -0.035127520176001514,
            "wrist_1_joint": -2.3477863256791385,
            "wrist_2_joint": -1.605890476484521,
            "wrist_3_joint": -3.0880375317375353
        }
    },
    "waypoints": [
        {
            "positions": [
                -0.035127520176001514,
                -2.1267897864000416,
                -1.8275484843655228,
                -2.3477863256791385,
                -1.605890476484521,
                -3.0880375317375353
            ]
        },
        {
            "positions": [
                -0.05186443973059418,
                -2.1418148185799213,
                -1.7478312168542058,
                -2.4142389716821855,
                -1.4262798203820566,
                -3.087919560516049
            ]
        },
        {
            "positions": [
                -0.06860135928518685,
                -2.156839850759801,
                -1.668113949342889,
                -2.480691617685232,
                -1.246669164279592,
                -3.087801589294563
            ]
        },
        {
            "positions": [
                -0.08533827883977951,
                -2.1718648829396807,
                -1.588396681831572,
                -2.5471442636882786,
                -1.0670585081771276,
                -3.0876836180730773
            ]
        },
        {
            "positions": [
                -0.10207519839437218,
                -2.1868899151195604,
                -1.5086794143202549,
                -2.6135969096913256,
                -0.887447852074663,
                -3.087565646851591
            ]
        },
        {
            "positions": [
                -0.11881211794896485,
                -2.20191494729944,
                -1.4289621468089382,
                -2.6800495556943726,
                -0.7078371959721985,
                -3.087447675630105
            ]
        },
        {
            "positions": [
                -0.1355490375035575,
                -2.21693997947932,
                -1.349244879297621,
                -2.746502201697419,
                -0.5282265398697341,
                -3.087329704408619
            ]
        },
        {
            "positions": [
                -0.15228595705815018,
                -2.2319650116591996,
                -1.2695276117863041,
                -2.8129548477004658,
                -0.3486158837672695,
                -3.087211733187133
            ]
        },
        {
            "positions": [
                -0.16902287661274285,
                -2.2469900438390793,
                -1.1898103442749872,
                -2.879407493703513,
                -0.16900522766480505,
                -3.087093761965647
            ]
        }
    ]
}