{
    "goal": {
        "global_pose": {
            "orientation": {
                "w": 0.5084816217422485,
                "x": -0.49083608388900757,
                "y": 0.5182115435600281,
                "z": -0.4816462993621826
            },
            "position": {
                "x": 0.5540239810943604,
                "y": 0.030875300988554955,
                "z": 0.16403168439865112
            }
        },
        "name": "move_to_storage_A"
    },
    "id": "BKPIECE_move_to_storage_A_99",
    "joint_names": [
        "shoulder_pan_joint",
        "shoulder_lift_joint",
        "elbow_joint",
        "wrist_1_joint",
        "wrist_2_joint",
        "wrist_3_joint"
    ],
    "metrics": {
        "cart_traj_len": 0.3533768199854889,
        "distance_elbow_joint": 0.4499866928121514,
        "distance_shoulder_lift_joint": 0.23482324876373206,
        "distance_shoulder_pan_joint": 0.46306982008733516,
        "distance_wrist_1_joint": 0.24635686913076627,
        "distance_wrist_2_joint": 1.0949365656819472,
        "distance_wrist_3_joint": 0.09446292153291536,
        "smoothness": 2.2204460668324854e-16,
        "time": 0.217763249,
        "traj_len": 1.6073693159970572,
        "weighted_distance": 2.028264133658975
    },
    "planner": "BKPIECE",
    "start": {
        "state": {
            "elbow_joint": 1.971548880431181,
            "shoulder_lift_joint": -1.1394869514688781,
            "shoulder_pan_joint": 0.12281150262730567,
            "wrist_1_joint": -0.7804693444481463,
            "wrist_2_joint": 0.12958644648617612,
            "wrist_3_joint": 3.0906942077768043
        }
    },
    "waypoints": [
        {
            "positions": [
                0.12281150262730567,
                -1.1394869514688781,
                1.971548880431181,
                -0.7804693444481463,
                0.12958644648617612,
                3.0906942077768043
            ]
        },
        {
            "positions": [
                0.056658671186257795,
                -1.173033129863697,
                2.0358326936900597,
                -0.8156631828953986,
                0.28600595586931143,
                3.104188910852935
            ]
        },
        {
            "positions": [
                -0.00949416025479008,
                -1.206579308258516,
                2.1001165069489387,
                -0.850857021342651,
                0.44242546525244675,
                3.117683613929066
            ]
        },
        {
            "positions": [
                -0.07564699169583797,
                -1.2401254866533347,
                2.1644003202078173,
                -0.8860508597899033,
                0.5988449746355821,
                3.1311783170051966
            ]
        },
        {
            "positions": [
                -0.14179982313688583,
                -1.2736716650481537,
                2.228684133466696,
                -0.9212446982371556,
                0.7552644840187174,
                3.1446730200813273
            ]
        },
        {
            "positions": [
                -0.20795265457793372,
                -1.3072178434429724,
                2.292967946725575,
                -0.9564385366844079,
                0.9116839934018527,
                3.158167723157458
            ]
        },
        {
            "positions": [
                -0.2741054860189816,
                -1.3407640218377912,
                2.357251759984454,
                -0.9916323751316602,
                1.0681035027849881,
                3.171662426233589
            ]
        },
        {
            "positions": [
                -0.3402583174600295,
                -1.3743102002326102,
                2.4215355732433324,
                -1.0268262135789126,
                1.2245230121681234,
                3.1851571293097196
            ]
        }
    ]
}