{
    "goal": {
        "global_pose": {
            "orientation": {
                "w": 0.7047431493862688,
                "x": -0.7094548369677653,
                "y": 0.0024358444001904,
                "z": -0.0022348060817251984
            },
            "position": {
                "x": -0.39052492380142206,
                "y": 0.3671506643295288,
                "z": 0.19426114857196808
            }
        },
        "name": "move_to_magneteinheit_D"
    },
    "id": "BKPIECE_move_to_magneteinheit_D_109",
    "joint_names": [
        "shoulder_pan_joint",
        "shoulder_lift_joint",
        "elbow_joint",
        "wrist_1_joint",
        "wrist_2_joint",
        "wrist_3_joint"
    ],
    "metrics": {
        "cart_traj_len": 5.521372624147156,
        "distance_elbow_joint": 3.8966478838733245,
        "distance_shoulder_lift_joint": 3.175841862289249,
        "distance_shoulder_pan_joint": 5.8958333569408214,
        "distance_wrist_1_joint": 2.463132492337718,
        "distance_wrist_2_joint": 3.596703722133674,
        "distance_wrist_3_joint": 4.482411997575352,
        "smoothness": 0.6133507519327377,
        "time": 0.32093248399999996,
        "traj_len": 4.848770082727178,
        "weighted_distance": 6.2076752109603985
    },
    "planner": "BKPIECE",
    "start": {
        "state": {
            "elbow_joint": 0.7495348899011911,
            "shoulder_lift_joint": -0.6476975780737668,
            "shoulder_pan_joint": -2.711696901376276,
            "wrist_1_joint": -0.0750647808097303,
            "wrist_2_joint": 0.43296659715458535,
            "wrist_3_joint": 3.1361499051832418
        }
    },
    "waypoints": [
        {
            "positions": [
                -2.711696901376276,
                -0.6476975780737668,
                0.7495348899011911,
                -0.0750647808097303,
                0.43296659715458535,
                3.1361499051832418
            ]
        },
        {
            "positions": [
                -2.7192208293731843,
                -0.684809264404748,
                0.7991129780854729,
                -0.12284255497167854,
                0.4939783074957157,
                3.024658618714219
            ]
        },
        {
            "positions": [
                -2.726744757370093,
                -0.7219209507357291,
                0.8486910662697545,
                -0.1706203291336268,
                0.554990017836846,
                2.9131673322451963
            ]
        },
        {
            "positions": [
                -2.734268685367001,
                -0.7590326370667103,
                0.8982691544540362,
                -0.21839810329557502,
                0.6160017281779764,
                2.801676045776173
            ]
        },
        {
            "positions": [
                -2.7417926133639092,
                -0.7961443233976915,
                0.947847242638318,
                -0.26617587745752325,
                0.6770134385191067,
                2.6901847593071504
            ]
        },
        {
            "positions": [
                -2.7465247819018868,
                -0.8361795822849164,
                0.9928117553228759,
                -0.3090921894170975,
                0.7350286847911851,
                2.5756470524693604
            ]
        },
        {
            "positions": [
                -2.7512569504398643,
                -0.8762148411721413,
                1.037776268007434,
                -0.35200850137667167,
                0.7930439310632635,
                2.46110934563157
            ]
        },
        {
            "positions": [
                -2.755989118977842,
                -0.9162501000593664,
                1.082740780691992,
                -0.39492481333624585,
                0.851059177335342,
                2.3465716387937796
            ]
        },
        {
            "positions": [
                -2.7607212875158194,
                -0.9562853589465913,
                1.12770529337655,
                -0.4378411252958201,
                0.9090744236074204,
                2.2320339319559896
            ]
        },
        {
            "positions": [
                -2.72732864085771,
                -0.9957586516354882,
                1.1311343766128679,
                -0.4533387434967655,
                0.9250824600710346,
                2.129582810344271
            ]
        },
        {
            "positions": [
                -2.693935994199601,
                -1.0352319443243851,
                1.1345634598491858,
                -0.468836361697711,
                0.9410904965346487,
                2.0271316887325517
            ]
        },
        {
            "positions": [
                -2.598897222688228,
                -1.0734022594301524,
                1.035040632178769,
                -0.4107272858652245,
                0.9176259733897556,
                1.950138645320398
            ]
        },
        {
            "positions": [
                -2.503858451176855,
                -1.11157257453592,
                0.9355178045083525,
                -0.3526182100327381,
                0.8941614502448625,
                1.8731456019082442
            ]
        },
        {
            "positions": [
                -2.408819679665482,
                -1.1497428896416872,
                0.8359949768379358,
                -0.2945091342002516,
                0.8706969270999695,
                1.7961525584960902
            ]
        },
        {
            "positions": [
                -2.3137809081541088,
                -1.1879132047474545,
                0.7364721491675191,
                -0.23640005836776512,
                0.8472324039550764,
                1.7191595150839365
            ]
        },
        {
            "positions": [
                -2.218742136642736,
                -1.226083519853222,
                0.6369493214971025,
                -0.17829098253527864,
                0.8237678808101833,
                1.6421664716717825
            ]
        },
        {
            "positions": [
                -2.123703365131363,
                -1.2642538349589894,
                0.5374264938266858,
                -0.12018190670279222,
                0.8003033576652901,
                1.5651734282596288
            ]
        },
        {
            "positions": [
                -2.0286645936199896,
                -1.3024241500647566,
                0.4379036661562691,
                -0.06207283087030574,
                0.7768388345203971,
                1.488180384847475
            ]
        },
        {
            "positions": [
                -1.9336258221086167,
                -1.3405944651705242,
                0.33838083848585243,
                -0.003963755037819261,
                0.753374311375504,
                1.4111873414353213
            ]
        },
        {
            "positions": [
                -1.8385870505972437,
                -1.3787647802762915,
                0.23885801081543578,
                0.05414532079466722,
                0.7299097882306109,
                1.3341942980231676
            ]
        },
        {
            "positions": [
                -1.7435482790858705,
                -1.4169350953820588,
                0.13933518314501903,
                0.1122543966271537,
                0.7064452650857178,
                1.2572012546110136
            ]
        },
        {
            "positions": [
                -1.6485095075744975,
                -1.455105410487826,
                0.03981235547460238,
                0.17036347245964006,
                0.6829807419408247,
                1.1802082111988599
            ]
        },
        {
            "positions": [
                -1.5534707360631246,
                -1.4932757255935936,
                -0.05971047219581416,
                0.22847254829212654,
                0.6595162187959316,
                1.103215167786706
            ]
        },
        {
            "positions": [
                -1.4584319645517514,
                -1.5314460406993609,
                -0.15923329986623092,
                0.286581624124613,
                0.6360516956510385,
                1.0262221243745522
            ]
        },
        {
            "positions": [
                -1.3633931930403782,
                -1.5696163558051284,
                -0.2587561275366477,
                0.3446906999570995,
                0.6125871725061455,
                0.9492290809623984
            ]
        },
        {
            "positions": [
                -1.2683544215290052,
                -1.6077866709108957,
                -0.35827895520706443,
                0.402799775789586,
                0.5891226493612524,
                0.8722360375502447
            ]
        },
        {
            "positions": [
                -1.1733156500176323,
                -1.645956986016663,
                -0.45780178287748097,
                0.46090885162207246,
                0.5656581262163594,
                0.795242994138091
            ]
        },
        {
            "positions": [
                -1.0782768785062593,
                -1.6841273011224303,
                -0.5573246105478975,
                0.5190179274545588,
                0.5421936030714662,
                0.7182499507259372
            ]
        },
        {
            "positions": [
                -0.9832381069948861,
                -1.7222976162281975,
                -0.6568474382183143,
                0.5771270032870455,
                0.5187290799265731,
                0.6412569073137833
            ]
        },
        {
            "positions": [
                -0.8881993354835132,
                -1.760467931333965,
                -0.7563702658887308,
                0.635236079119532,
                0.49526455678168,
                0.5642638639016295
            ]
        },
        {
            "positions": [
                -0.79316056397214,
                -1.7986382464397326,
                -0.8558930935591478,
                0.6933451549520184,
                0.4718000336367869,
                0.48727082048947556
            ]
        },
        {
            "positions": [
                -0.698121792460767,
                -1.8368085615454999,
                -0.9554159212295645,
                0.7514542307845049,
                0.44833551049189385,
                0.4102777770773218
            ]
        },
        {
            "positions": [
                -0.603083020949394,
                -1.8749788766512672,
                -1.054938748899981,
                0.8095633066169912,
                0.4248709873470008,
                0.3332847336651681
            ]
        },
        {
            "positions": [
                -0.5080442494380208,
                -1.9131491917570345,
                -1.1544615765703976,
                0.8676723824494779,
                0.4014064642021077,
                0.2562916902530141
            ]
        },
        {
            "positions": [
                -0.4130054779266481,
                -1.9513195068628018,
                -1.2539844042408141,
                0.9257814582819641,
                0.37794194105721457,
                0.1792986468408604
            ]
        },
        {
            "positions": [
                -0.3179667064152749,
                -1.989489821968569,
                -1.3535072319112307,
                0.9838905341144506,
                0.35447741791232157,
                0.10230560342870687
            ]
        },
        {
            "positions": [
                -0.22292793490390173,
                -2.027660137074337,
                -1.4530300595816477,
                1.041999609946937,
                0.33101289476742835,
                0.025312560016552688
            ]
        },
        {
            "positions": [
                -0.12788916339252898,
                -2.065830452180104,
                -1.5525528872520642,
                1.1001086857794236,
                0.30754837162253534,
                -0.05168048339560105
            ]
        },
        {
            "positions": [
                -0.03285039188115535,
                -2.1040007672858714,
                -1.6520757149224812,
                1.15821776161191,
                0.28408384847764223,
                -0.1286735268077548
            ]
        },
        {
            "positions": [
                0.062188379630217464,
                -2.1421710823916387,
                -1.7515985425928977,
                1.2163268374443965,
                0.26061932533274906,
                -0.20566657021990836
            ]
        },
        {
            "positions": [
                0.17790972047845413,
                -2.0779528230735296,
                -1.792877518258829,
                1.2445443248575645,
                0.15666036072231876,
                -0.24453100776840844
            ]
        },
        {
            "positions": [
                0.2936310613266908,
                -2.0137345637554205,
                -1.8341564939247603,
                1.2727618122707325,
                0.05270139611188843,
                -0.2833954453169085
            ]
        },
        {
            "positions": [
                0.40935240217492747,
                -1.9495163044373112,
                -1.8754354695906916,
                1.3009792996839005,
                -0.051257568498541906,
                -0.32225988286540863
            ]
        },
        {
            "positions": [
                0.5250737430231641,
                -1.885298045119202,
                -1.9167144452566232,
                1.3291967870970685,
                -0.1552165331089722,
                -0.3611243204139087
            ]
        },
        {
            "positions": [
                0.6407950838714009,
                -1.8210797858010928,
                -1.9579934209225545,
                1.3574142745102367,
                -0.25917549771940257,
                -0.3999887579624088
            ]
        },
        {
            "positions": [
                0.7565164247196375,
                -1.7568615264829837,
                -1.9992723965884858,
                1.3856317619234044,
                -0.3631344623298329,
                -0.43885319551090884
            ]
        },
        {
            "positions": [
                0.8722377655678742,
                -1.6926432671648746,
                -2.0405513722544173,
                1.4138492493365726,
                -0.4670934269402633,
                -0.47771763305940895
            ]
        },
        {
            "positions": [
                0.9879591064161108,
                -1.6284250078467655,
                -2.0818303479203486,
                1.4420667367497406,
                -0.5710523915506935,
                -0.516582070607909
            ]
        },
        {
            "positions": [
                1.1036804472643476,
                -1.5642067485286562,
                -2.12310932358628,
                1.4702842241629086,
                -0.6750113561611237,
                -0.5554465081564091
            ]
        },
        {
            "positions": [
                1.2194017881125843,
                -1.4999884892105468,
                -2.164388299252211,
                1.4985017115760766,
                -0.7789703207715541,
                -0.5943109457049092
            ]
        },
        {
            "positions": [
                1.3351231289608207,
                -1.4357702298924377,
                -2.2056672749181425,
                1.5267191989892446,
                -0.8829292853819843,
                -0.6331753832534093
            ]
        },
        {
            "positions": [
                1.4508444698090575,
                -1.3715519705743286,
                -2.246946250584074,
                1.5549366864024126,
                -0.9868882499924149,
                -0.6720398208019094
            ]
        },
        {
            "positions": [
                1.3145742020193572,
                -1.4474477410871676,
                -2.2577887175417466,
                1.551137697789945,
                -0.8901714936402025,
                -0.6158546315027259
            ]
        },
        {
            "positions": [
                1.1783039342296568,
                -1.5233435116000065,
                -2.268631184499419,
                1.5473387091774773,
                -0.7934547372879903,
                -0.5596694422035425
            ]
        },
        {
            "positions": [
                1.0420336664399565,
                -1.5992392821128454,
                -2.2794736514570912,
                1.5435397205650094,
                -0.6967379809357781,
                -0.503484252904359
            ]
        },
        {
            "positions": [
                0.9057633986502563,
                -1.675135052625684,
                -2.290316118414764,
                1.5397407319525418,
                -0.6000212245835658,
                -0.44729906360517563
            ]
        },
        {
            "positions": [
                0.769493130860556,
                -1.751030823138523,
                -2.301158585372437,
                1.5359417433400742,
                -0.5033044682313534,
                -0.39111387430599215
            ]
        },
        {
            "positions": [
                0.6332228630708557,
                -1.826926593651362,
                -2.312001052330109,
                1.5321427547276065,
                -0.4065877118791412,
                -0.3349286850068087
            ]
        },
        {
            "positions": [
                0.49695259528115543,
                -1.9028223641642008,
                -2.3228435192877814,
                1.528343766115139,
                -0.3098709555269289,
                -0.27874349570762524
            ]
        },
        {
            "positions": [
                0.36068232749145523,
                -1.9787181346770395,
                -2.333685986245454,
                1.5245447775026713,
                -0.21315419917471667,
                -0.22255830640844187
            ]
        },
        {
            "positions": [
                0.22441205970175493,
                -2.0546139051898784,
                -2.344528453203127,
                1.5207457888902036,
                -0.11643744282250446,
                -0.1663731171092584
            ]
        },
        {
            "positions": [
                0.08814179191205462,
                -2.1305096757027173,
                -2.3553709201607993,
                1.5169468002777358,
                -0.019720686470292126,
                -0.11018792781007491
            ]
        },
        {
            "positions": [
                -0.04812847587764568,
                -2.2064054462155562,
                -2.3662133871184716,
                1.5131478116652681,
                0.0769960698819202,
                -0.054002738510891546
            ]
        },
        {
            "positions": [
                -0.18439874366734593,
                -2.282301216728395,
                -2.3770558540761444,
                1.5093488230528005,
                0.17371282623413237,
                0.002182450788291939
            ]
        }
    ]
}