{
    "goal": {
        "global_pose": {
            "orientation": {
                "w": -0.00223480608172531,
                "x": 0.0024358444001904467,
                "y": 0.7094548369677653,
                "z": -0.704743149386269
            },
            "position": {
                "x": -0.37947507619857795,
                "y": -0.6371506643295288,
                "z": 0.19426114857196808
            }
        },
        "name": "move_to_magneteinheit_C"
    },
    "id": "BKPIECE_move_to_magneteinheit_C_54",
    "joint_names": [
        "shoulder_pan_joint",
        "shoulder_lift_joint",
        "elbow_joint",
        "wrist_1_joint",
        "wrist_2_joint",
        "wrist_3_joint"
    ],
    "metrics": {
        "cart_traj_len": 1.95864912732901,
        "distance_elbow_joint": 2.4873391982282342,
        "distance_shoulder_lift_joint": 0.7810526778072833,
        "distance_shoulder_pan_joint": 1.2081382599011563,
        "distance_wrist_1_joint": 3.331188197726548,
        "distance_wrist_2_joint": 1.2248434950741034,
        "distance_wrist_3_joint": 1.436802643947407,
        "smoothness": 0.5005448332486998,
        "time": 0.28096071,
        "traj_len": 3.2356397315963243,
        "weighted_distance": 4.230721150510891
    },
    "planner": "BKPIECE",
    "start": {
        "state": {
            "elbow_joint": 1.9565354006593851,
            "shoulder_lift_joint": -1.4165861576512813,
            "shoulder_pan_joint": -1.6717766223278752,
            "wrist_1_joint": -0.528663328821883,
            "wrist_2_joint": 1.472756589259273,
            "wrist_3_joint": 3.159348288315503
        }
    },
    "waypoints": [
        {
            "positions": [
                -1.6717766223278752,
                -1.4165861576512813,
                1.9565354006593851,
                -0.528663328821883,
                1.472756589259273,
                3.159348288315503
            ]
        },
        {
            "positions": [
                -1.618412188866873,
                -1.4290683919955809,
                1.9499473408048678,
                -0.5340597889245551,
                1.4044608194582013,
                3.018895986673465
            ]
        },
        {
            "positions": [
                -1.565047755405871,
                -1.4415506263398807,
                1.9433592809503504,
                -0.5394562490272272,
                1.3361650496571296,
                2.8784436850314266
            ]
        },
        {
            "positions": [
                -1.5512123273312057,
                -1.4600614595008303,
                1.8787547483672415,
                -0.4833781394962505,
                1.262157200057966,
                2.806942501171374
            ]
        },
        {
            "positions": [
                -1.5373768992565406,
                -1.47857229266178,
                1.8141502157841327,
                -0.4273000299652738,
                1.1881493504588023,
                2.735441317311322
            ]
        },
        {
            "positions": [
                -1.5235414711818756,
                -1.4970831258227295,
                1.7495456832010239,
                -0.371221920434297,
                1.1141415008596387,
                2.6639401334512693
            ]
        },
        {
            "positions": [
                -1.5097060431072102,
                -1.515593958983679,
                1.684941150617915,
                -0.31514381090332033,
                1.040133651260475,
                2.592438949591217
            ]
        },
        {
            "positions": [
                -1.5742215440122564,
                -1.5013523736819316,
                1.5973744487060206,
                -0.22367312969996433,
                1.001605160451172,
                2.615009954834877
            ]
        },
        {
            "positions": [
                -1.6387370449173027,
                -1.4871107883801842,
                1.509807746794126,
                -0.13220244849660837,
                0.9630766696418687,
                2.6375809600785374
            ]
        },
        {
            "positions": [
                -1.7032525458223489,
                -1.472869203078437,
                1.4222410448822316,
                -0.0407317672932524,
                0.9245481788325656,
                2.6601519653221977
            ]
        },
        {
            "positions": [
                -1.767768046727395,
                -1.4586276177766895,
                1.3346743429703372,
                0.0507389139101036,
                0.8860196880232624,
                2.682722970565858
            ]
        },
        {
            "positions": [
                -1.849739764951032,
                -1.4349629912134996,
                1.2520888618533361,
                0.13718949191939467,
                0.8648130040480742,
                2.736667315024971
            ]
        },
        {
            "positions": [
                -1.9317114831746691,
                -1.4112983646503097,
                1.169503380736335,
                0.22364006992868574,
                0.843606320072886,
                2.790611659484085
            ]
        },
        {
            "positions": [
                -2.0136832013983064,
                -1.3876337380871198,
                1.086917899619334,
                0.3100906479379768,
                0.8223996360976978,
                2.844556003943198
            ]
        },
        {
            "positions": [
                -2.095654919621943,
                -1.3639691115239296,
                1.004332418502333,
                0.3965412259472679,
                0.8011929521225096,
                2.8985003484023113
            ]
        },
        {
            "positions": [
                -2.1776266378455804,
                -1.3403044849607397,
                0.921746937385332,
                0.482991803956559,
                0.7799862681473214,
                2.952444692861425
            ]
        },
        {
            "positions": [
                -2.259598356069217,
                -1.3166398583975498,
                0.8391614562683309,
                0.5694423819658501,
                0.7587795841721333,
                3.006389037320538
            ]
        },
        {
            "positions": [
                -2.3415700742928545,
                -1.29297523183436,
                0.7565759751513299,
                0.6558929599751411,
                0.7375729001969451,
                3.0603333817796514
            ]
        },
        {
            "positions": [
                -2.3959161885906615,
                -1.2062599718919769,
                0.7510308104862763,
                0.7376865161603705,
                0.810342409098286,
                3.1387614976966898
            ]
        },
        {
            "positions": [
                -2.450262302888468,
                -1.1195447119495938,
                0.7454856458212228,
                0.8194800723455998,
                0.883111917999627,
                3.217189613613728
            ]
        },
        {
            "positions": [
                -2.504608417186275,
                -1.0328294520072108,
                0.7399404811561692,
                0.9012736285308293,
                0.9558814269009679,
                3.2956177295307665
            ]
        },
        {
            "positions": [
                -2.509455451537508,
                -1.0154935583845044,
                0.8865604424463951,
                0.9373343974180861,
                0.9401657212640484,
                3.2970541339554456
            ]
        },
        {
            "positions": [
                -2.51430248588874,
                -0.998157664761798,
                1.033180403736621,
                0.9733951663053431,
                0.9244500156271289,
                3.2984905383801246
            ]
        },
        {
            "positions": [
                -2.5124567369351896,
                -1.0067929374107372,
                1.1628545376336314,
                0.7702586677952455,
                0.9006416424647721,
                3.2830207342901248
            ]
        },
        {
            "positions": [
                -2.5106109879816385,
                -1.0154282100596763,
                1.292528671530642,
                0.567122169285148,
                0.8768332693024152,
                3.267550930200125
            ]
        },
        {
            "positions": [
                -2.508765239028088,
                -1.0240634827086152,
                1.4222028054276525,
                0.3639856707750506,
                0.8530248961400585,
                3.252081126110125
            ]
        },
        {
            "positions": [
                -2.506919490074537,
                -1.0326987553575544,
                1.551876939324663,
                0.160849172264953,
                0.8292165229777017,
                3.236611322020125
            ]
        },
        {
            "positions": [
                -2.5050737411209862,
                -1.0413340280064936,
                1.6815510732216734,
                -0.042287326245144335,
                0.8054081498153448,
                3.2211415179301253
            ]
        },
        {
            "positions": [
                -2.4970131178381845,
                -1.0716920827585708,
                1.7638344948865519,
                -0.2402526686546808,
                0.7751886492598123,
                3.1995183439340718
            ]
        },
        {
            "positions": [
                -2.4889524945553827,
                -1.102050137510648,
                1.8461179165514305,
                -0.4382180110642173,
                0.74496914870428,
                3.1778951699380187
            ]
        },
        {
            "positions": [
                -2.4808918712725805,
                -1.1324081922627252,
                1.9284013382163092,
                -0.6361833534737538,
                0.7147496481487475,
                3.156271995941965
            ]
        },
        {
            "positions": [
                -2.4728312479897787,
                -1.1627662470148024,
                2.0106847598811877,
                -0.8341486958832902,
                0.6845301475932151,
                3.1346488219459117
            ]
        }
    ]
}