{
    "goal": {
        "global_pose": {
            "orientation": {
                "w": -0.4816463035849501,
                "x": 0.5182115481033762,
                "y": 0.4908360881923453,
                "z": -0.5084816262002911
            },
            "position": {
                "x": -0.8240239810943604,
                "y": -0.300875300988555,
                "z": 0.16403168439865112
            }
        },
        "name": "move_to_storage_C"
    },
    "id": "BKPIECE_move_to_storage_C_41",
    "joint_names": [
        "shoulder_pan_joint",
        "shoulder_lift_joint",
        "elbow_joint",
        "wrist_1_joint",
        "wrist_2_joint",
        "wrist_3_joint"
    ],
    "metrics": {
        "cart_traj_len": 0.5767930196842527,
        "distance_elbow_joint": 0.256320407061261,
        "distance_shoulder_lift_joint": 0.19071556337571272,
        "distance_shoulder_pan_joint": 0.49446519182949134,
        "distance_wrist_1_joint": 0.06580660944939976,
        "distance_wrist_2_joint": 1.0664627456776379,
        "distance_wrist_3_joint": 0.05772934311801903,
        "smoothness": 0.0,
        "time": 0.287599281,
        "traj_len": 1.4599657052518464,
        "weighted_distance": 1.8382676360842012
    },
    "planner": "BKPIECE",
    "start": {
        "state": {
            "elbow_joint": 2.0108683149792914,
            "shoulder_lift_joint": -1.1634956873317392,
            "shoulder_pan_joint": -2.4736205022346,
            "wrist_1_joint": -0.8367026793690192,
            "wrist_2_joint": 0.6746043897045053,
            "wrist_3_joint": 3.133522094754363
        }
    },
    "waypoints": [
        {
            "positions": [
                -2.4736205022346,
                -1.1634956873317392,
                2.0108683149792914,
                -0.8367026793690192,
                0.6746043897045053,
                3.133522094754363
            ]
        },
        {
            "positions": [
                -2.556031367539515,
                -1.1317097601024537,
                1.9681482471357479,
                -0.8257349111274526,
                0.8523481806507782,
                3.1431436519407
            ]
        },
        {
            "positions": [
                -2.6384422328444304,
                -1.0999238328731684,
                1.9254281792922043,
                -0.8147671428858859,
                1.0300919715970513,
                3.152765209127036
            ]
        },
        {
            "positions": [
                -2.7208530981493455,
                -1.068137905643883,
                1.882708111448661,
                -0.8037993746443193,
                1.2078357625433243,
                3.1623867663133725
            ]
        },
        {
            "positions": [
                -2.803263963454261,
                -1.0363519784145974,
                1.8399880436051175,
                -0.7928316064027527,
                1.3855795534895972,
                3.172008323499709
            ]
        },
        {
            "positions": [
                -2.8856748287591762,
                -1.004566051185312,
                1.797267975761574,
                -0.7818638381611861,
                1.5633233444358703,
                3.181629880686046
            ]
        },
        {
            "positions": [
                -2.9680856940640914,
                -0.9727801239560265,
                1.7545479079180304,
                -0.7708960699196195,
                1.7410671353821432,
                3.191251437872382
            ]
        }
    ]
}