{
    "goal": {
        "global_pose": {
            "orientation": {
                "w": -0.4816463035849501,
                "x": 0.5182115481033762,
                "y": 0.4908360881923453,
                "z": -0.5084816262002911
            },
            "position": {
                "x": -0.8240239810943604,
                "y": -0.300875300988555,
                "z": 0.16403168439865112
            }
        },
        "name": "move_to_storage_C"
    },
    "id": "BKPIECE_move_to_storage_C_38",
    "joint_names": [
        "shoulder_pan_joint",
        "shoulder_lift_joint",
        "elbow_joint",
        "wrist_1_joint",
        "wrist_2_joint",
        "wrist_3_joint"
    ],
    "metrics": {
        "cart_traj_len": 0.576670336533003,
        "distance_elbow_joint": 0.26056378082117826,
        "distance_shoulder_lift_joint": 0.18902906514352968,
        "distance_shoulder_pan_joint": 0.49551384464999426,
        "distance_wrist_1_joint": 0.08721514122682217,
        "distance_wrist_2_joint": 1.0593384747339802,
        "distance_wrist_3_joint": 0.06331555291285129,
        "smoothness": 2.5376526478085547e-16,
        "time": 0.214318527,
        "traj_len": 1.4679836032763978,
        "weighted_distance": 1.8515292547715418
    },
    "planner": "BKPIECE",
    "start": {
        "state": {
            "elbow_joint": 2.0108683149792914,
            "shoulder_lift_joint": -1.1634956873317392,
            "shoulder_pan_joint": -2.4736205022346,
            "wrist_1_joint": -0.8367026793690192,
            "wrist_2_joint": 0.6746043897045053,
            "wrist_3_joint": 3.133522094754363
        }
    },
    "waypoints": [
        {
            "positions": [
                -2.4736205022346,
                -1.1634956873317392,
                2.0108683149792914,
                -0.8367026793690192,
                0.6746043897045053,
                3.133522094754363
            ]
        },
        {
            "positions": [
                -2.5562061430095993,
                -1.131990843141151,
                1.9674410181757618,
                -0.8221668224978822,
                0.8511608021601687,
                3.144074686906505
            ]
        },
        {
            "positions": [
                -2.638791783784598,
                -1.1004859989505626,
                1.924013721372232,
                -0.8076309656267452,
                1.027717214615832,
                3.154627279058647
            ]
        },
        {
            "positions": [
                -2.721377424559597,
                -1.0689811547599744,
                1.8805864245687023,
                -0.7930951087556082,
                1.2042736270714953,
                3.165179871210789
            ]
        },
        {
            "positions": [
                -2.8039630653345964,
                -1.037476310569386,
                1.8371591277651727,
                -0.7785592518844711,
                1.3808300395271589,
                3.1757324633629307
            ]
        },
        {
            "positions": [
                -2.886548706109595,
                -1.0059714663787978,
                1.7937318309616428,
                -0.764023395013334,
                1.5573864519828222,
                3.1862850555150724
            ]
        },
        {
            "positions": [
                -2.9691343468845943,
                -0.9744666221882096,
                1.7503045341581132,
                -0.749487538142197,
                1.7339428644384856,
                3.1968376476672145
            ]
        }
    ]
}