{
    "goal": {
        "global_pose": {
            "orientation": {
                "w": 0.7047431468963623,
                "x": -0.7094548344612122,
                "y": 0.0024358443915843964,
                "z": -0.0022348060738295317
            },
            "position": {
                "x": 0.6094750761985779,
                "y": 0.3671506643295288,
                "z": 0.19426114857196808
            }
        },
        "name": "move_to_magneteinheit_A"
    },
    "id": "BKPIECE_move_to_magneteinheit_A_5",
    "joint_names": [
        "shoulder_pan_joint",
        "shoulder_lift_joint",
        "elbow_joint",
        "wrist_1_joint",
        "wrist_2_joint",
        "wrist_3_joint"
    ],
    "metrics": {
        "cart_traj_len": 1.5924455389826808,
        "distance_elbow_joint": 3.5458195353762116,
        "distance_shoulder_lift_joint": 1.1454222823648033,
        "distance_shoulder_pan_joint": 1.240845006281298,
        "distance_wrist_1_joint": 3.9225205371402714,
        "distance_wrist_2_joint": 1.6921251231234948,
        "distance_wrist_3_joint": 1.1688173422817854,
        "smoothness": 2.8735184173255764e-16,
        "time": 0.24973769699999998,
        "traj_len": 3.5658869621130536,
        "weighted_distance": 4.5461885323197055
    },
    "planner": "BKPIECE",
    "start": {
        "state": {
            "elbow_joint": -1.5739458827952972,
            "shoulder_lift_joint": 0.006533473998580023,
            "shoulder_pan_joint": -1.1188671628667068,
            "wrist_1_joint": 3.138208179676308,
            "wrist_2_joint": -1.5706037135050406,
            "wrist_3_joint": -2.0226958329764257
        }
    },
    "waypoints": [
        {
            "positions": [
                -1.1188671628667068,
                0.006533473998580023,
                -1.5739458827952972,
                3.138208179676308,
                -1.5706037135050406,
                -2.0226958329764257
            ]
        },
        {
            "positions": [
                -1.0812657990400008,
                -0.02817629213368674,
                -1.466496805965715,
                3.019343920975088,
                -1.5193271946225104,
                -2.058114540318298
            ]
        },
        {
            "positions": [
                -1.0436644352132949,
                -0.0628860582659535,
                -1.359047729136133,
                2.9004796622738676,
                -1.4680506757399803,
                -2.0935332476601705
            ]
        },
        {
            "positions": [
                -1.0060630713865888,
                -0.09759582439822027,
                -1.2515986523065508,
                2.7816154035726472,
                -1.4167741568574501,
                -2.1289519550020426
            ]
        },
        {
            "positions": [
                -0.9684617075598828,
                -0.13230559053048702,
                -1.1441495754769686,
                2.662751144871427,
                -1.36549763797492,
                -2.1643706623439147
            ]
        },
        {
            "positions": [
                -0.9308603437331768,
                -0.1670153566627538,
                -1.0367004986473862,
                2.543886886170206,
                -1.3142211190923898,
                -2.1997893696857873
            ]
        },
        {
            "positions": [
                -0.8932589799064709,
                -0.20172512279502056,
                -0.9292514218178042,
                2.4250226274689863,
                -1.2629446002098597,
                -2.2352080770276594
            ]
        },
        {
            "positions": [
                -0.8556576160797649,
                -0.23643488892728734,
                -0.821802344988222,
                2.3061583687677656,
                -1.2116680813273295,
                -2.2706267843695316
            ]
        },
        {
            "positions": [
                -0.8180562522530588,
                -0.2711446550595541,
                -0.7143532681586399,
                2.1872941100665453,
                -1.1603915624447994,
                -2.306045491711404
            ]
        },
        {
            "positions": [
                -0.7804548884263529,
                -0.3058544211918209,
                -0.6069041913290578,
                2.068429851365325,
                -1.1091150435622694,
                -2.3414641990532763
            ]
        },
        {
            "positions": [
                -0.7428535245996468,
                -0.34056418732408766,
                -0.49945511449947544,
                1.9495655926641047,
                -1.057838524679739,
                -2.3768829063951484
            ]
        },
        {
            "positions": [
                -0.705252160772941,
                -0.3752739534563544,
                -0.3920060376698935,
                1.8307013339628844,
                -1.0065620057972091,
                -2.412301613737021
            ]
        },
        {
            "positions": [
                -0.6676507969462349,
                -0.4099837195886212,
                -0.2845569608403111,
                1.711837075261664,
                -0.9552854869146788,
                -2.447720321078893
            ]
        },
        {
            "positions": [
                -0.6300494331195289,
                -0.4446934857208879,
                -0.17710788401072897,
                1.5929728165604438,
                -0.9040089680321487,
                -2.4831390284207653
            ]
        },
        {
            "positions": [
                -0.5924480692928229,
                -0.47940325185315474,
                -0.06965880718114681,
                1.4741085578592232,
                -0.8527324491496185,
                -2.518557735762638
            ]
        },
        {
            "positions": [
                -0.5548467054661169,
                -0.5141130179854214,
                0.03779026964843535,
                1.3552442991580032,
                -0.8014559302670884,
                -2.55397644310451
            ]
        },
        {
            "positions": [
                -0.5172453416394108,
                -0.5488227841176881,
                0.1452393464780175,
                1.2363800404567826,
                -0.7501794113845582,
                -2.589395150446382
            ]
        },
        {
            "positions": [
                -0.47964397781270496,
                -0.583532550249955,
                0.25268842330759966,
                1.1175157817555625,
                -0.6989028925020281,
                -2.6248138577882547
            ]
        },
        {
            "positions": [
                -0.442042613985999,
                -0.6182423163822217,
                0.3601375001371816,
                0.9986515230543422,
                -0.647626373619498,
                -2.660232565130127
            ]
        },
        {
            "positions": [
                -0.4044412501592929,
                -0.6529520825144886,
                0.4675865769667642,
                0.8797872643531215,
                -0.5963498547369677,
                -2.6956512724719994
            ]
        },
        {
            "positions": [
                -0.3668398863325869,
                -0.6876618486467553,
                0.5750356537963464,
                0.7609230056519012,
                -0.5450733358544375,
                -2.7310699798138716
            ]
        },
        {
            "positions": [
                -0.3292385225058809,
                -0.722371614779022,
                0.6824847306259285,
                0.6420587469506809,
                -0.4937968169719076,
                -2.7664886871557437
            ]
        },
        {
            "positions": [
                -0.29163715867917495,
                -0.7570813809112887,
                0.7899338074555102,
                0.5231944882494606,
                -0.44252029808937743,
                -2.801907394497616
            ]
        },
        {
            "positions": [
                -0.25403579485246885,
                -0.7917911470435556,
                0.8973828842850928,
                0.40433022954823983,
                -0.39124377920684705,
                -2.8373261018394884
            ]
        },
        {
            "positions": [
                -0.21643443102576287,
                -0.8265009131758223,
                1.004831961114675,
                0.28546597084701997,
                -0.3399672603243171,
                -2.8727448091813605
            ]
        },
        {
            "positions": [
                -0.1788330671990569,
                -0.861210679308089,
                1.1122810379442571,
                0.16660171214579966,
                -0.28869074144178697,
                -2.9081635165232327
            ]
        },
        {
            "positions": [
                -0.14123170337235091,
                -0.8959204454403558,
                1.2197301147738393,
                0.04773745344457936,
                -0.23741422255925682,
                -2.9435822238651053
            ]
        },
        {
            "positions": [
                -0.10363033954564482,
                -0.9306302115726227,
                1.3271791916034215,
                -0.07112680525664139,
                -0.18613770367672644,
                -2.9790009312069774
            ]
        },
        {
            "positions": [
                -0.06602897571893895,
                -0.9653399777048894,
                1.4346282684330036,
                -0.1899910639578617,
                -0.1348611847941965,
                -3.0144196385488495
            ]
        },
        {
            "positions": [
                -0.028427611892232862,
                -1.000049743837156,
                1.5420773452625858,
                -0.308855322659082,
                -0.08358466591166636,
                -3.0498383458907217
            ]
        },
        {
            "positions": [
                0.009173751934473007,
                -1.034759509969423,
                1.649526422092168,
                -0.42771958136030186,
                -0.0323081470291362,
                -3.0852570532325942
            ]
        },
        {
            "positions": [
                0.0467751157611791,
                -1.0694692761016897,
                1.75697549892175,
                -0.5465838400615226,
                0.01896837185339395,
                -3.120675760574467
            ]
        },
        {
            "positions": [
                0.08437647958788519,
                -1.1041790422339564,
                1.8644245757513322,
                -0.6654480987627429,
                0.0702448907359241,
                -3.156094467916339
            ]
        },
        {
            "positions": [
                0.12197784341459103,
                -1.1388888083662232,
                1.9718736525809146,
                -0.7843123574639634,
                0.12152140961845417,
                -3.191513175258211
            ]
        }
    ]
}