{
    "goal": {
        "global_pose": {
            "orientation": {
                "w": 0.005598929693374612,
                "x": 0.007748599140229565,
                "y": 0.7110244013736278,
                "z": -0.7031023480610252
            },
            "position": {
                "x": 0.1141497679147869,
                "y": -0.7141253447532654,
                "z": 0.3711530566215515
            }
        },
        "name": "move_to_auspresseinheit_B"
    },
    "id": "BKPIECE_move_to_auspresseinheit_B_121",
    "joint_names": [
        "shoulder_pan_joint",
        "shoulder_lift_joint",
        "elbow_joint",
        "wrist_1_joint",
        "wrist_2_joint",
        "wrist_3_joint"
    ],
    "metrics": {
        "cart_traj_len": 0.5641711302155651,
        "distance_elbow_joint": 0.06574252777157708,
        "distance_shoulder_lift_joint": 0.2926229533370335,
        "distance_shoulder_pan_joint": 0.5771560778298872,
        "distance_wrist_1_joint": 0.3380949490184957,
        "distance_wrist_2_joint": 0.9898028271914074,
        "distance_wrist_3_joint": 0.008134802550704201,
        "smoothness": 3.806478935924272e-16,
        "time": 0.180579951,
        "traj_len": 1.50716758779477,
        "weighted_distance": 1.9015050667853652
    },
    "planner": "BKPIECE",
    "start": {
        "state": {
            "elbow_joint": 2.0193061681459312,
            "shoulder_lift_joint": -1.1220205130644991,
            "shoulder_pan_joint": -1.0952072088045026,
            "wrist_1_joint": -0.8559671810662515,
            "wrist_2_joint": 0.4759638712940361,
            "wrist_3_joint": 3.159081874192446
        }
    },
    "waypoints": [
        {
            "positions": [
                -1.0952072088045026,
                -1.1220205130644991,
                2.0193061681459312,
                -0.8559671810662515,
                0.4759638712940361,
                3.159081874192446
            ]
        },
        {
            "positions": [
                -1.1913998884428172,
                -1.170791005287338,
                2.0083490801840016,
                -0.7996180228965022,
                0.6409310091592707,
                3.1577260737673285
            ]
        },
        {
            "positions": [
                -1.2875925680811318,
                -1.219561497510177,
                1.9973919922220722,
                -0.7432688647267529,
                0.8058981470245052,
                3.1563702733422114
            ]
        },
        {
            "positions": [
                -1.3837852477194463,
                -1.2683319897330159,
                1.9864349042601428,
                -0.6869197065570036,
                0.9708652848897399,
                3.155014472917094
            ]
        },
        {
            "positions": [
                -1.4799779273577607,
                -1.3171024819558548,
                1.9754778162982132,
                -0.6305705483872543,
                1.1358324227549743,
                3.1536586724919764
            ]
        },
        {
            "positions": [
                -1.5761706069960753,
                -1.3658729741786937,
                1.9645207283362836,
                -0.5742213902175051,
                1.300799560620209,
                3.1523028720668593
            ]
        },
        {
            "positions": [
                -1.6723632866343898,
                -1.4146434664015326,
                1.9535636403743541,
                -0.5178722320477558,
                1.4657666984854436,
                3.150947071641742
            ]
        }
    ]
}