{
    "goal": {
        "global_pose": {
            "orientation": {
                "w": 0.7047431493862688,
                "x": -0.7094548369677653,
                "y": 0.0024358444001904,
                "z": -0.0022348060817251984
            },
            "position": {
                "x": -0.39052492380142206,
                "y": 0.3671506643295288,
                "z": 0.19426114857196808
            }
        },
        "name": "move_to_magneteinheit_D"
    },
    "id": "BKPIECE_move_to_magneteinheit_D_145",
    "joint_names": [
        "shoulder_pan_joint",
        "shoulder_lift_joint",
        "elbow_joint",
        "wrist_1_joint",
        "wrist_2_joint",
        "wrist_3_joint"
    ],
    "metrics": {
        "cart_traj_len": 4.3629010884230235,
        "distance_elbow_joint": 3.5747427029656897,
        "distance_shoulder_lift_joint": 1.6742087835296535,
        "distance_shoulder_pan_joint": 2.9753678806559565,
        "distance_wrist_1_joint": 1.7160760503521033,
        "distance_wrist_2_joint": 1.0300659404601005,
        "distance_wrist_3_joint": 3.473697648136743,
        "smoothness": 0.7510962718747779,
        "time": 0.258276437,
        "traj_len": 3.8005471982466217,
        "weighted_distance": 4.913012954713831
    },
    "planner": "BKPIECE",
    "start": {
        "state": {
            "elbow_joint": 0.7495348899011911,
            "shoulder_lift_joint": -0.6476975780737668,
            "shoulder_pan_joint": -2.711696901376276,
            "wrist_1_joint": -0.0750647808097303,
            "wrist_2_joint": 0.43296659715458535,
            "wrist_3_joint": 3.1361499051832418
        }
    },
    "waypoints": [
        {
            "positions": [
                -2.711696901376276,
                -0.6476975780737668,
                0.7495348899011911,
                -0.0750647808097303,
                0.43296659715458535,
                3.1361499051832418
            ]
        },
        {
            "positions": [
                -2.7287878485128,
                -0.7384504684148172,
                0.8158066986726022,
                -0.12535794667686215,
                0.4405850646204769,
                2.9857552768194546
            ]
        },
        {
            "positions": [
                -2.745878795649324,
                -0.8292033587558676,
                0.8820785074440134,
                -0.175651112543994,
                0.4482035320863685,
                2.835360648455667
            ]
        },
        {
            "positions": [
                -2.646833415774845,
                -0.8748652406663389,
                0.7836334483869201,
                -0.14313262241587443,
                0.43428534263601326,
                2.7288649010806196
            ]
        },
        {
            "positions": [
                -2.5477880359003664,
                -0.9205271225768101,
                0.6851883893298267,
                -0.11061413228775487,
                0.4203671531856581,
                2.622369153705572
            ]
        },
        {
            "positions": [
                -2.4487426560258876,
                -0.9661890044872814,
                0.5867433302727334,
                -0.0780956421596353,
                0.4064489637353029,
                2.515873406330525
            ]
        },
        {
            "positions": [
                -2.3496972761514088,
                -1.0118508863977527,
                0.48829827121563996,
                -0.045577152031515744,
                0.3925307742849477,
                2.4093776589554774
            ]
        },
        {
            "positions": [
                -2.25065189627693,
                -1.057512768308224,
                0.3898532121585466,
                -0.01305866190339619,
                0.3786125848345925,
                2.30288191158043
            ]
        },
        {
            "positions": [
                -2.1516065164024516,
                -1.1031746502186952,
                0.2914081531014533,
                0.01945982822472339,
                0.3646943953842373,
                2.196386164205383
            ]
        },
        {
            "positions": [
                -2.052561136527973,
                -1.1488365321291665,
                0.19296309404435996,
                0.05197831835284292,
                0.35077620593388215,
                2.0898904168303356
            ]
        },
        {
            "positions": [
                -1.9535157566534938,
                -1.1944984140396377,
                0.09451803498726652,
                0.0844968084809625,
                0.3368580164835269,
                1.9833946694552882
            ]
        },
        {
            "positions": [
                -1.8544703767790152,
                -1.2401602959501088,
                -0.003927024069826701,
                0.11701529860908202,
                0.3229398270331717,
                1.8768989220802408
            ]
        },
        {
            "positions": [
                -1.7554249969045363,
                -1.2858221778605803,
                -0.10237208312692014,
                0.1495337887372016,
                0.30902163758281653,
                1.7704031747051934
            ]
        },
        {
            "positions": [
                -1.6563796170300575,
                -1.3314840597710513,
                -0.20081714218401348,
                0.1820522788653212,
                0.29510344813246137,
                1.6639074273301462
            ]
        },
        {
            "positions": [
                -1.5573342371555787,
                -1.3771459416815226,
                -0.2992622012411068,
                0.21457076899344077,
                0.28118525868210614,
                1.5574116799550985
            ]
        },
        {
            "positions": [
                -1.4582888572811,
                -1.4228078235919939,
                -0.39770726029820014,
                0.2470892591215603,
                0.2672670692317509,
                1.4509159325800514
            ]
        },
        {
            "positions": [
                -1.359243477406621,
                -1.4684697055024651,
                -0.49615231935529347,
                0.2796077492496798,
                0.25334887978139575,
                1.3444201852050042
            ]
        },
        {
            "positions": [
                -1.2601980975321425,
                -1.5141315874129364,
                -0.5945973784123868,
                0.3121262393777994,
                0.23943069033104059,
                1.2379244378299568
            ]
        },
        {
            "positions": [
                -1.1611527176576635,
                -1.5597934693234077,
                -0.6930424374694804,
                0.34464472950591896,
                0.22551250088068536,
                1.1314286904549091
            ]
        },
        {
            "positions": [
                -1.062107337783185,
                -1.605455351233879,
                -0.7914874965265735,
                0.37716321963403854,
                0.21159431143033017,
                1.024932943079862
            ]
        },
        {
            "positions": [
                -0.9630619579087061,
                -1.6511172331443502,
                -0.8899325555836668,
                0.409681709762158,
                0.19767612197997497,
                0.9184371957048145
            ]
        },
        {
            "positions": [
                -0.8640165780342273,
                -1.6967791150548215,
                -0.9883776146407601,
                0.4422001998902776,
                0.1837579325296198,
                0.8119414483297671
            ]
        },
        {
            "positions": [
                -0.7649711981597485,
                -1.7424409969652928,
                -1.0868226736978537,
                0.47471869001839717,
                0.16983974307926458,
                0.7054457009547197
            ]
        },
        {
            "positions": [
                -0.6659258182852699,
                -1.788102878875764,
                -1.185267732754947,
                0.5072371801465168,
                0.15592155362890936,
                0.5989499535796723
            ]
        },
        {
            "positions": [
                -0.566880438410791,
                -1.8337647607862353,
                -1.2837127918120403,
                0.5397556702746363,
                0.1420033641785542,
                0.4924542062046253
            ]
        },
        {
            "positions": [
                -0.46783505853631224,
                -1.8794266426967066,
                -1.3821578508691337,
                0.5722741604027558,
                0.12808517472819902,
                0.3859584588295779
            ]
        },
        {
            "positions": [
                -0.36878967866183343,
                -1.9250885246071778,
                -1.480602909926227,
                0.6047926505308755,
                0.1141669852778438,
                0.27946271145453006
            ]
        },
        {
            "positions": [
                -0.2697442987873546,
                -1.970750406517649,
                -1.5790479689833203,
                0.637311140658995,
                0.10024879582748858,
                0.1729669640794831
            ]
        },
        {
            "positions": [
                -0.17069891891287603,
                -2.0164122884281204,
                -1.6774930280404137,
                0.6698296307871145,
                0.08633060637713341,
                0.06647121670443586
            ]
        },
        {
            "positions": [
                -0.12911287378410394,
                -2.0383246299643996,
                -1.785001116551312,
                0.6914531598963576,
                0.03868004255732481,
                0.08297554908974139
            ]
        },
        {
            "positions": [
                -0.08752682865533185,
                -2.0602369715006787,
                -1.8925092050622103,
                0.7130766890056006,
                -0.008970521262483794,
                0.09947988147504691
            ]
        },
        {
            "positions": [
                -0.056747426810837005,
                -2.0918279046892536,
                -2.028678432784195,
                0.7790071662451048,
                -0.06967528388668634,
                0.12929010462435905
            ]
        },
        {
            "positions": [
                -0.025968024966342165,
                -2.123418837877828,
                -2.16484766050618,
                0.844937643484609,
                -0.1303800465108889,
                0.15910032777367117
            ]
        },
        {
            "positions": [
                0.004811376878152682,
                -2.155009771066403,
                -2.3010168882281645,
                0.9108681207241132,
                -0.19108480913509143,
                0.1889105509229833
            ]
        },
        {
            "positions": [
                -0.021923908034618668,
                -2.1429805056894686,
                -2.389608635411693,
                1.0089718312900724,
                -0.091477120483282,
                0.23205247820847444
            ]
        },
        {
            "positions": [
                -0.04865919294739002,
                -2.130951240312534,
                -2.478200382595221,
                1.1070755418560316,
                0.008130568168527419,
                0.27519440549396557
            ]
        },
        {
            "positions": [
                -0.09433427429068632,
                -2.1785639269069166,
                -2.4508936508006767,
                1.2179965632619696,
                0.06690566383627357,
                0.2100958152044965
            ]
        },
        {
            "positions": [
                -0.14000935563398262,
                -2.2261766135012997,
                -2.423586919006132,
                1.3289175846679075,
                0.12568075950401972,
                0.14499722491502742
            ]
        },
        {
            "positions": [
                -0.18568443697727893,
                -2.2737893000956824,
                -2.3962801872115875,
                1.4398386060738455,
                0.18445585517176588,
                0.07989863462555837
            ]
        }
    ]
}