{
    "goal": {
        "global_pose": {
            "orientation": {
                "w": 0.7031023502349854,
                "x": -0.7110244035720825,
                "y": 0.007748599164187908,
                "z": 0.005598929710686207
            },
            "position": {
                "x": 0.11585023208521307,
                "y": 0.44412534475326537,
                "z": 0.3711530566215515
            }
        },
        "name": "move_to_auspresseinheit_A"
    },
    "id": "BKPIECE_move_to_auspresseinheit_A_52",
    "joint_names": [
        "shoulder_pan_joint",
        "shoulder_lift_joint",
        "elbow_joint",
        "wrist_1_joint",
        "wrist_2_joint",
        "wrist_3_joint"
    ],
    "metrics": {
        "cart_traj_len": 1.304267563546364,
        "distance_elbow_joint": 0.2249848380288011,
        "distance_shoulder_lift_joint": 1.6762054506791486,
        "distance_shoulder_pan_joint": 1.6775659442930677,
        "distance_wrist_1_joint": 0.9195616452627398,
        "distance_wrist_2_joint": 1.0268261118730724,
        "distance_wrist_3_joint": 3.6786567823653313,
        "smoothness": 1.1823205439497,
        "time": 0.215052243,
        "traj_len": 3.0337766517168268,
        "weighted_distance": 4.3020346458819505
    },
    "planner": "BKPIECE",
    "start": {
        "state": {
            "elbow_joint": 2.4225746994637096,
            "shoulder_lift_joint": -1.373653595662188,
            "shoulder_pan_joint": -0.3378633848294565,
            "wrist_1_joint": -1.0288595594406726,
            "wrist_2_joint": 1.2330228066703421,
            "wrist_3_joint": 3.189163495502006
        }
    },
    "waypoints": [
        {
            "positions": [
                -0.3378633848294565,
                -1.373653595662188,
                2.4225746994637096,
                -1.0288595594406726,
                1.2330228066703421,
                3.189163495502006
            ]
        },
        {
            "positions": [
                -0.23816545209319256,
                -1.4657756446637584,
                2.426179545737035,
                -1.043560576504003,
                1.2540439735392213,
                3.0338424553490535
            ]
        },
        {
            "positions": [
                -0.1384675193569286,
                -1.5578976936653288,
                2.429784392010361,
                -1.0582615935673334,
                1.2750651404081004,
                2.878521415196101
            ]
        },
        {
            "positions": [
                -0.03876958662066465,
                -1.650019742666899,
                2.433389238283686,
                -1.0729626106306638,
                1.2960863072769795,
                2.723200375043149
            ]
        },
        {
            "positions": [
                0.060928346115599274,
                -1.7421417916684694,
                2.436994084557012,
                -1.0876636276939942,
                1.3171074741458586,
                2.567879334890196
            ]
        },
        {
            "positions": [
                0.16062627885186326,
                -1.8342638406700398,
                2.4405989308303373,
                -1.1023646447573245,
                1.3381286410147377,
                2.4125582947372437
            ]
        },
        {
            "positions": [
                0.2603242115881272,
                -1.9263858896716102,
                2.444203777103663,
                -1.117065661820655,
                1.3591498078836168,
                2.2572372545842914
            ]
        },
        {
            "positions": [
                0.3600221443243912,
                -2.0185079386731806,
                2.4478086233769885,
                -1.1317666788839853,
                1.380170974752496,
                2.1019162144313386
            ]
        },
        {
            "positions": [
                0.45972007706065504,
                -2.1106299876747507,
                2.451413469650314,
                -1.1464676959473157,
                1.401192141621375,
                1.9465951742783867
            ]
        },
        {
            "positions": [
                0.559418009796919,
                -2.2027520366763214,
                2.4550183159236396,
                -1.161168713010646,
                1.4222133084902542,
                1.7912741341254341
            ]
        },
        {
            "positions": [
                0.659115942533183,
                -2.2948740856778915,
                2.458623162196965,
                -1.1758697300739764,
                1.4432344753591333,
                1.6359530939724816
            ]
        },
        {
            "positions": [
                0.7588138752694469,
                -2.386996134679462,
                2.4622280084702908,
                -1.1905707471373068,
                1.4642556422280124,
                1.4806320538195294
            ]
        },
        {
            "positions": [
                0.8585118080057109,
                -2.4791181836810323,
                2.465832854743616,
                -1.2052717642006372,
                1.4852768090968915,
                1.3253110136665769
            ]
        },
        {
            "positions": [
                0.8233692681930748,
                -2.4221558348950305,
                2.4516073213544165,
                -1.1330392961921876,
                1.4200046970748765,
                1.4582809725170969
            ]
        },
        {
            "positions": [
                0.7882267283804387,
                -2.3651934861090287,
                2.437381787965217,
                -1.060806828183738,
                1.3547325850528615,
                1.591250931367617
            ]
        },
        {
            "positions": [
                0.7530841885678026,
                -2.308231137323027,
                2.4231562545760172,
                -0.9885743601752884,
                1.2894604730308465,
                1.724220890218137
            ]
        },
        {
            "positions": [
                0.7179416487551664,
                -2.251268788537025,
                2.4089307211868176,
                -0.9163418921668388,
                1.2241883610088315,
                1.8571908490686573
            ]
        },
        {
            "positions": [
                0.6827991089425303,
                -2.194306439751023,
                2.394705187797618,
                -0.8441094241583892,
                1.1589162489868166,
                1.9901608079191773
            ]
        },
        {
            "positions": [
                0.6476565691298942,
                -2.137344090965021,
                2.3804796544084184,
                -0.7718769561499397,
                1.0936441369648018,
                2.1231307667696973
            ]
        },
        {
            "positions": [
                0.6125140293172581,
                -2.080381742179019,
                2.3662541210192187,
                -0.6996444881414899,
                1.0283720249427868,
                2.2561007256202172
            ]
        },
        {
            "positions": [
                0.577371489504622,
                -2.0234193933930174,
                2.352028587630019,
                -0.6274120201330404,
                0.9630999129207718,
                2.3890706844707372
            ]
        },
        {
            "positions": [
                0.5422289496919859,
                -1.9664570446070155,
                2.3378030542408195,
                -0.5551795521245908,
                0.8978278008987568,
                2.5220406433212577
            ]
        },
        {
            "positions": [
                0.5971982474067107,
                -1.9470971367449197,
                2.355702014989519,
                -0.5241604759823478,
                0.8354534338159607,
                2.728065533612998
            ]
        },
        {
            "positions": [
                0.6521675451214356,
                -1.9277372288828238,
                2.373600975738218,
                -0.4931413998401049,
                0.7730790667331647,
                2.934090423904739
            ]
        },
        {
            "positions": [
                0.7071368428361604,
                -1.908377321020728,
                2.3914999364869174,
                -0.462122323697862,
                0.7107046996503686,
                3.1401153141964797
            ]
        }
    ]
}