{
    "goal": {
        "global_pose": {
            "orientation": {
                "w": 0.5084816262002911,
                "x": -0.4908360881923452,
                "y": 0.5182115481033761,
                "z": -0.48164630358495003
            },
            "position": {
                "x": 0.5540239810943604,
                "y": -0.46912469901144505,
                "z": 0.16403168439865112
            }
        },
        "name": "move_to_storage_B"
    },
    "id": "BKPIECE_move_to_storage_B_44",
    "joint_names": [
        "shoulder_pan_joint",
        "shoulder_lift_joint",
        "elbow_joint",
        "wrist_1_joint",
        "wrist_2_joint",
        "wrist_3_joint"
    ],
    "metrics": {
        "cart_traj_len": 0.9719796877714036,
        "distance_elbow_joint": 0.5797952791982557,
        "distance_shoulder_lift_joint": 0.4590469548162628,
        "distance_shoulder_pan_joint": 0.6621340743548276,
        "distance_wrist_1_joint": 2.978689128811119,
        "distance_wrist_2_joint": 2.7040436864368624,
        "distance_wrist_3_joint": 3.3008732617421472,
        "smoothness": 0.17069654655004574,
        "time": 0.265223338,
        "traj_len": 3.2687279460608947,
        "weighted_distance": 4.792604899644008
    },
    "planner": "BKPIECE",
    "start": {
        "state": {
            "elbow_joint": 1.6649325340416963,
            "shoulder_lift_joint": -0.6616387945129425,
            "shoulder_pan_joint": -0.9139837929255878,
            "wrist_1_joint": 2.1467571094334352,
            "wrist_2_joint": -2.234195976750228,
            "wrist_3_joint": 0.005470921511140723
        }
    },
    "waypoints": [
        {
            "positions": [
                -0.9139837929255878,
                -0.6616387945129425,
                1.6649325340416963,
                2.1467571094334352,
                -2.234195976750228,
                0.005470921511140723
            ]
        },
        {
            "positions": [
                -0.8952587602633453,
                -0.6819872706676116,
                1.6683267752043127,
                2.125773869321517,
                -2.21799046303028,
                -0.03200970067492174
            ]
        },
        {
            "positions": [
                -0.8509391581165102,
                -0.7320106474787462,
                1.648847360932487,
                1.9772417115798633,
                -2.11885683975484,
                -0.05400088986964098
            ]
        },
        {
            "positions": [
                -0.8066195559696752,
                -0.7820340242898808,
                1.629367946660661,
                1.8287095538382094,
                -2.0197232164793997,
                -0.07599207906436023
            ]
        },
        {
            "positions": [
                -0.7875914818007783,
                -0.8174841634720134,
                1.618362994136441,
                1.6812874645777556,
                -1.9149286066513906,
                -0.028643293324195934
            ]
        },
        {
            "positions": [
                -0.7685634076318816,
                -0.852934302654146,
                1.607358041612221,
                1.5338653753173017,
                -1.8101339968233818,
                0.01870549241596836
            ]
        },
        {
            "positions": [
                -0.7495353334629847,
                -0.8883844418362786,
                1.596353089088001,
                1.3864432860568479,
                -1.7053393869953728,
                0.06605427815613266
            ]
        },
        {
            "positions": [
                -0.7305072592940879,
                -0.9238345810184112,
                1.585348136563781,
                1.239021196796394,
                -1.600544777167364,
                0.11340306389629695
            ]
        },
        {
            "positions": [
                -0.711479185125191,
                -0.9592847202005439,
                1.574343184039561,
                1.0915991075359401,
                -1.495750167339355,
                0.16075184963646127
            ]
        },
        {
            "positions": [
                -0.6924511109562943,
                -0.9947348593826764,
                1.563338231515341,
                0.9441770182754865,
                -1.390955557511346,
                0.20810063537662554
            ]
        },
        {
            "positions": [
                -0.6734230367873975,
                -1.030184998564809,
                1.552333278991121,
                0.7967549290150326,
                -1.286160947683337,
                0.25544942111678987
            ]
        },
        {
            "positions": [
                -0.6956111061672204,
                -1.0349481959734614,
                1.576565254876513,
                0.7110345633101529,
                -1.193739439400707,
                0.4074477769581317
            ]
        },
        {
            "positions": [
                -0.7177991755470434,
                -1.0397113933821138,
                1.600797230761905,
                0.6253141976052731,
                -1.1013179311180767,
                0.5594461327994736
            ]
        },
        {
            "positions": [
                -0.7399872449268665,
                -1.0444745907907664,
                1.6250292066472969,
                0.5395938319003932,
                -1.0088964228354467,
                0.7114444886408156
            ]
        },
        {
            "positions": [
                -0.7621753143066895,
                -1.0492377881994188,
                1.649261182532689,
                0.4538734661955135,
                -0.9164749145528165,
                0.8634428444821574
            ]
        },
        {
            "positions": [
                -0.7843633836865125,
                -1.0540009856080712,
                1.673493158418081,
                0.3681531004906337,
                -0.8240534062701863,
                1.0154412003234992
            ]
        },
        {
            "positions": [
                -0.8065514530663356,
                -1.0587641830167236,
                1.697725134303473,
                0.2824327347857539,
                -0.7316318979875561,
                1.1674395561648412
            ]
        },
        {
            "positions": [
                -0.8287395224461586,
                -1.063527380425376,
                1.7219571101888649,
                0.1967123690808742,
                -0.6392103897049259,
                1.319437912006183
            ]
        },
        {
            "positions": [
                -0.8509275918259815,
                -1.0682905778340286,
                1.7461890860742568,
                0.11099200337599435,
                -0.5467888814222959,
                1.471436267847525
            ]
        },
        {
            "positions": [
                -0.8731156612058045,
                -1.073053775242681,
                1.7704210619596488,
                0.025271637671114622,
                -0.4543673731396657,
                1.6234346236888668
            ]
        },
        {
            "positions": [
                -0.8953037305856275,
                -1.0778169726513334,
                1.7946530378450407,
                -0.06044872803376522,
                -0.3619458648570355,
                1.7754329795302086
            ]
        },
        {
            "positions": [
                -0.9174917999654506,
                -1.0825801700599857,
                1.8188850137304329,
                -0.14616909373864506,
                -0.2695243565744052,
                1.9274313353715506
            ]
        },
        {
            "positions": [
                -0.9396798693452736,
                -1.0873433674686384,
                1.8431169896158248,
                -0.2318894594435248,
                -0.17710284829177514,
                2.0794296912128925
            ]
        },
        {
            "positions": [
                -0.9618679387250966,
                -1.0921065648772907,
                1.8673489655012168,
                -0.31760982514840475,
                -0.08468134000914485,
                2.2314280470542345
            ]
        },
        {
            "positions": [
                -0.9840560081049197,
                -1.0968697622859431,
                1.8915809413866087,
                -0.40333019085328425,
                0.007740168273485226,
                2.383426402895576
            ]
        },
        {
            "positions": [
                -1.0062440774847428,
                -1.1016329596945955,
                1.9158129172720009,
                -0.4890505565581642,
                0.1001616765561153,
                2.535424758736918
            ]
        },
        {
            "positions": [
                -1.0284321468645656,
                -1.106396157103248,
                1.9400448931573928,
                -0.5747709222630439,
                0.19258318483874537,
                2.68742311457826
            ]
        },
        {
            "positions": [
                -1.0506202162443887,
                -1.1111593545119005,
                1.9642768690427848,
                -0.6604912879679239,
                0.28500469312137566,
                2.839421470419602
            ]
        },
        {
            "positions": [
                -1.0728082856242116,
                -1.115922551920553,
                1.9885088449281767,
                -0.7462116536728034,
                0.37742620140400573,
                2.9914198262609437
            ]
        },
        {
            "positions": [
                -1.0949963550040347,
                -1.1206857493292053,
                2.0127408208135686,
                -0.8319320193776835,
                0.4698477096866359,
                3.1434181821022857
            ]
        }
    ]
}