{
    "goal": {
        "global_pose": {
            "orientation": {
                "w": -0.00223480608172531,
                "x": 0.0024358444001904467,
                "y": 0.7094548369677653,
                "z": -0.704743149386269
            },
            "position": {
                "x": 0.6205249238014221,
                "y": -0.6371506643295288,
                "z": 0.19426114857196808
            }
        },
        "name": "move_to_magneteinheit_B"
    },
    "id": "BKPIECE_move_to_magneteinheit_B_74",
    "joint_names": [
        "shoulder_pan_joint",
        "shoulder_lift_joint",
        "elbow_joint",
        "wrist_1_joint",
        "wrist_2_joint",
        "wrist_3_joint"
    ],
    "metrics": {
        "cart_traj_len": 4.35490030546405,
        "distance_elbow_joint": 5.881389327108433,
        "distance_shoulder_lift_joint": 1.2449978233294268,
        "distance_shoulder_pan_joint": 3.974385067914089,
        "distance_wrist_1_joint": 2.013815890211059,
        "distance_wrist_2_joint": 1.2642579467295003,
        "distance_wrist_3_joint": 6.791731692229005,
        "smoothness": 0.39768387839376024,
        "time": 0.995645245,
        "traj_len": 4.601149611512487,
        "weighted_distance": 6.167018320786804
    },
    "planner": "BKPIECE",
    "start": {
        "state": {
            "elbow_joint": 2.393587130804639,
            "shoulder_lift_joint": -1.9085141043513325,
            "shoulder_pan_joint": 0.7066247066698809,
            "wrist_1_joint": -0.4678290934590222,
            "wrist_2_joint": 0.7096259084215963,
            "wrist_3_joint": 3.147370379541726
        }
    },
    "waypoints": [
        {
            "positions": [
                0.7066247066698809,
                -1.9085141043513325,
                2.393587130804639,
                -0.4678290934590222,
                0.7096259084215963,
                3.147370379541726
            ]
        },
        {
            "positions": [
                0.6188337545318392,
                -1.9069624356563457,
                2.3831067999309123,
                -0.5040119944050986,
                0.7445877107585721,
                3.1289180877194473
            ]
        },
        {
            "positions": [
                0.5570197677299166,
                -1.9024038157612886,
                2.2617034302639567,
                -0.5455842069757817,
                0.7380375433515111,
                2.976352007566915
            ]
        },
        {
            "positions": [
                0.49520578092799405,
                -1.8978451958662315,
                2.1403000605970015,
                -0.5871564195464647,
                0.73148737594445,
                2.8237859274143826
            ]
        },
        {
            "positions": [
                0.4333917941260715,
                -1.8932865759711743,
                2.018896690930046,
                -0.6287286321171478,
                0.724937208537389,
                2.6712198472618502
            ]
        },
        {
            "positions": [
                0.3715778073241489,
                -1.888727956076117,
                1.8974933212630902,
                -0.6703008446878308,
                0.7183870411303279,
                2.518653767109318
            ]
        },
        {
            "positions": [
                0.3097638205222263,
                -1.8841693361810599,
                1.7760899515961348,
                -0.7118730572585139,
                0.7118368737232669,
                2.3660876869567855
            ]
        },
        {
            "positions": [
                0.24794983372030377,
                -1.8796107162860027,
                1.6546865819291794,
                -0.7534452698291969,
                0.7052867063162058,
                2.213521606804253
            ]
        },
        {
            "positions": [
                0.18613584691838111,
                -1.8750520963909456,
                1.5332832122622237,
                -0.79501748239988,
                0.6987365389091448,
                2.0609555266517208
            ]
        },
        {
            "positions": [
                0.2662295314588281,
                -1.8629091933590138,
                1.4224907803937228,
                -0.8128855681261424,
                0.6770618863964598,
                1.9140147819153874
            ]
        },
        {
            "positions": [
                0.3463232159992752,
                -1.8507662903270823,
                1.3116983485252218,
                -0.830753653852405,
                0.6553872338837748,
                1.7670740371790539
            ]
        },
        {
            "positions": [
                0.42641690053972214,
                -1.8386233872951505,
                1.2009059166567209,
                -0.8486217395786674,
                0.6337125813710899,
                1.6201332924427203
            ]
        },
        {
            "positions": [
                0.5065105850801692,
                -1.826480484263219,
                1.09011348478822,
                -0.8664898253049298,
                0.6120379288584049,
                1.473192547706387
            ]
        },
        {
            "positions": [
                0.5866042696206162,
                -1.8143375812312872,
                0.979321052919719,
                -0.8843579110311922,
                0.59036327634572,
                1.3262518029700536
            ]
        },
        {
            "positions": [
                0.6666979541610633,
                -1.8021946781993554,
                0.8685286210512181,
                -0.9022259967574547,
                0.5686886238330351,
                1.17931105823372
            ]
        },
        {
            "positions": [
                0.7467916387015103,
                -1.7900517751674239,
                0.7577361891827171,
                -0.9200940824837172,
                0.5470139713203501,
                1.0323703134973865
            ]
        },
        {
            "positions": [
                0.8268853232419573,
                -1.777908872135492,
                0.6469437573142162,
                -0.9379621682099796,
                0.5253393188076652,
                0.8854295687610532
            ]
        },
        {
            "positions": [
                0.9069790077824044,
                -1.7657659691035605,
                0.5361513254457152,
                -0.955830253936242,
                0.5036646662949802,
                0.7384888240247196
            ]
        },
        {
            "positions": [
                0.9870726923228513,
                -1.7536230660716288,
                0.42535889357721435,
                -0.9736983396625045,
                0.4819900137822952,
                0.5915480792883863
            ]
        },
        {
            "positions": [
                1.0671663768632984,
                -1.741480163039697,
                0.3145664617087134,
                -0.9915664253887669,
                0.46031536126961026,
                0.4446073345520527
            ]
        },
        {
            "positions": [
                1.1472600614037454,
                -1.7293372600077654,
                0.20377402984021242,
                -1.0094345111150294,
                0.4386407087569253,
                0.29766658981571936
            ]
        },
        {
            "positions": [
                1.2273537459441923,
                -1.7171943569758337,
                0.09298159797171146,
                -1.0273025968412919,
                0.4169660562442403,
                0.1507258450793858
            ]
        },
        {
            "positions": [
                1.3074474304846395,
                -1.7050514539439021,
                -0.017810833896789502,
                -1.0451706825675542,
                0.39529140373155536,
                0.003785100343052239
            ]
        },
        {
            "positions": [
                1.3875411150250865,
                -1.6929085509119703,
                -0.12860326576529046,
                -1.0630387682938167,
                0.3736167512188704,
                -0.1431556443932811
            ]
        },
        {
            "positions": [
                1.4676347995655334,
                -1.6807656478800386,
                -0.23939569763379143,
                -1.0809068540200792,
                0.3519420987061854,
                -0.29009638912961444
            ]
        },
        {
            "positions": [
                1.5477284841059804,
                -1.668622744848107,
                -0.3501881295022924,
                -1.0987749397463416,
                0.33026744619350046,
                -0.4370371338659478
            ]
        },
        {
            "positions": [
                1.6278221686464276,
                -1.6564798418161752,
                -0.46098056137079335,
                -1.116643025472604,
                0.30859279368081555,
                -0.5839778786022816
            ]
        },
        {
            "positions": [
                1.7079158531868743,
                -1.6443369387842437,
                -0.5717729932392941,
                -1.1345111111988664,
                0.2869181411681306,
                -0.7309186233386145
            ]
        },
        {
            "positions": [
                1.7880095377273215,
                -1.632194035752312,
                -0.682565425107795,
                -1.152379196925129,
                0.2652434886554456,
                -0.8778593680749482
            ]
        },
        {
            "positions": [
                1.8681032222677685,
                -1.6200511327203801,
                -0.793357856976296,
                -1.1702472826513914,
                0.2435688361427607,
                -1.0248001128112816
            ]
        },
        {
            "positions": [
                1.9481969068082157,
                -1.6079082296884486,
                -0.904150288844797,
                -1.188115368377654,
                0.22189418363007568,
                -1.1717408575476154
            ]
        },
        {
            "positions": [
                2.028290591348662,
                -1.5957653266565168,
                -1.014942720713298,
                -1.2059834541039163,
                0.20021953111739077,
                -1.3186816022839483
            ]
        },
        {
            "positions": [
                2.1083842758891094,
                -1.5836224236245853,
                -1.125735152581799,
                -1.2238515398301788,
                0.1785448786047058,
                -1.465622347020282
            ]
        },
        {
            "positions": [
                2.188477960429556,
                -1.5714795205926535,
                -1.2365275844502994,
                -1.241719625556441,
                0.15687022609202084,
                -1.6125630917566154
            ]
        },
        {
            "positions": [
                2.2685716449700033,
                -1.5593366175607217,
                -1.3473200163188008,
                -1.2595877112827036,
                0.13519557357933587,
                -1.7595038364929492
            ]
        },
        {
            "positions": [
                2.3486653295104505,
                -1.5471937145287902,
                -1.4581124481873013,
                -1.2774557970089662,
                0.1135209210666509,
                -1.906444581229282
            ]
        },
        {
            "positions": [
                2.4287590140508977,
                -1.5350508114968584,
                -1.5689048800558028,
                -1.2953238827352287,
                0.09184626855396594,
                -2.0533853259656163
            ]
        },
        {
            "positions": [
                2.5088526985913444,
                -1.5229079084649269,
                -1.6796973119243033,
                -1.313191968461491,
                0.07017161604128097,
                -2.200326070701949
            ]
        },
        {
            "positions": [
                2.5889463831317916,
                -1.510765005432995,
                -1.7904897437928047,
                -1.3310600541877533,
                0.048496963528596004,
                -2.347266815438283
            ]
        },
        {
            "positions": [
                2.6690400676722383,
                -1.4986221024010633,
                -1.9012821756613052,
                -1.3489281399140158,
                0.02682231101591115,
                -2.494207560174616
            ]
        },
        {
            "positions": [
                2.7491337522126855,
                -1.4864791993691318,
                -2.0120746075298066,
                -1.3667962256402784,
                0.005147658503226071,
                -2.6411483049109497
            ]
        },
        {
            "positions": [
                2.8292274367531323,
                -1.4743362963372002,
                -2.122867039398307,
                -1.384664311366541,
                -0.016526994009458784,
                -2.7880890496472825
            ]
        },
        {
            "positions": [
                2.9093211212935794,
                -1.4621933933052684,
                -2.2336594712668085,
                -1.4025323970928032,
                -0.03820164652214386,
                -2.9350297943836163
            ]
        },
        {
            "positions": [
                2.9894148058340266,
                -1.4500504902733367,
                -2.344451903135309,
                -1.4204004828190655,
                -0.05987629903482872,
                -3.08197053911995
            ]
        },
        {
            "positions": [
                3.069508490374474,
                -1.4379075872414049,
                -2.4552443350038105,
                -1.438268568545328,
                -0.08155095154751368,
                -3.228911283856284
            ]
        },
        {
            "positions": [
                3.1496021749149206,
                -1.4257646842094733,
                -2.566036766872311,
                -1.4561366542715906,
                -0.10322560406019865,
                -3.3758520285926172
            ]
        },
        {
            "positions": [
                3.1005591868983156,
                -1.5019895245282302,
                -2.473860223929163,
                -1.5586874872114396,
                -0.14137388701757397,
                -3.3490011001831506
            ]
        },
        {
            "positions": [
                3.0515161988817106,
                -1.5782143648469869,
                -2.381683680986015,
                -1.6612383201512886,
                -0.1795221699749493,
                -3.322150171773684
            ]
        },
        {
            "positions": [
                3.0024732108651055,
                -1.6544392051657435,
                -2.289507138042867,
                -1.7637891530911376,
                -0.21767045293232462,
                -3.295299243364217
            ]
        },
        {
            "positions": [
                2.9534302228485005,
                -1.7306640454845004,
                -2.197330595099719,
                -1.8663399860309866,
                -0.25581873588969994,
                -3.2684483149547505
            ]
        },
        {
            "positions": [
                2.9043872348318955,
                -1.8068888858032572,
                -2.1051540521565704,
                -1.9688908189708356,
                -0.29396701884707527,
                -3.2415973865452843
            ]
        },
        {
            "positions": [
                2.8553442468152905,
                -1.8831137261220139,
                -2.0129775092134228,
                -2.0714416519106846,
                -0.3321153018044506,
                -3.2147464581358176
            ]
        },
        {
            "positions": [
                2.8063012587986855,
                -1.9593385664407705,
                -1.9208009662702745,
                -2.1739924848505336,
                -0.3702635847618259,
                -3.187895529726351
            ]
        },
        {
            "positions": [
                2.7572582707820805,
                -2.035563406759527,
                -1.8286244233271263,
                -2.2765433177903827,
                -0.40841186771920124,
                -3.1610446013168843
            ]
        },
        {
            "positions": [
                2.7082152827654755,
                -2.1117882470782843,
                -1.7364478803839782,
                -2.3790941507302317,
                -0.44656015067657656,
                -3.1341936729074176
            ]
        },
        {
            "positions": [
                2.6591722947488705,
                -2.188013087397041,
                -1.6442713374408302,
                -2.4816449836700807,
                -0.4847084336339519,
                -3.107342744497951
            ]
        }
    ]
}