{
    "goal": {
        "global_pose": {
            "orientation": {
                "w": -0.00223480608172531,
                "x": 0.0024358444001904467,
                "y": 0.7094548369677653,
                "z": -0.704743149386269
            },
            "position": {
                "x": -0.37947507619857795,
                "y": -0.6371506643295288,
                "z": 0.19426114857196808
            }
        },
        "name": "move_to_magneteinheit_C"
    },
    "id": "BKPIECE_move_to_magneteinheit_C_117",
    "joint_names": [
        "shoulder_pan_joint",
        "shoulder_lift_joint",
        "elbow_joint",
        "wrist_1_joint",
        "wrist_2_joint",
        "wrist_3_joint"
    ],
    "metrics": {
        "cart_traj_len": 0.6348833265520447,
        "distance_elbow_joint": 0.34459466646936066,
        "distance_shoulder_lift_joint": 0.3636431558027071,
        "distance_shoulder_pan_joint": 0.9842985178214365,
        "distance_wrist_1_joint": 0.7950392923072603,
        "distance_wrist_2_joint": 1.5606892366606209,
        "distance_wrist_3_joint": 2.94912761493042,
        "smoothness": 1.1209214268534344,
        "time": 0.25728447200000004,
        "traj_len": 2.6452584909592116,
        "weighted_distance": 3.9053010438147435
    },
    "planner": "BKPIECE",
    "start": {
        "state": {
            "elbow_joint": 1.9565354006593851,
            "shoulder_lift_joint": -1.4165861576512813,
            "shoulder_pan_joint": -1.6717766223278752,
            "wrist_1_joint": -0.528663328821883,
            "wrist_2_joint": 1.472756589259273,
            "wrist_3_joint": 3.159348288315503
        }
    },
    "waypoints": [
        {
            "positions": [
                -1.6717766223278752,
                -1.4165861576512813,
                1.9565354006593851,
                -0.528663328821883,
                1.472756589259273,
                3.159348288315503
            ]
        },
        {
            "positions": [
                -1.7415492196707292,
                -1.4216267143671961,
                1.9747950456057521,
                -0.5793338476858543,
                1.3650615356108802,
                3.0247819319566673
            ]
        },
        {
            "positions": [
                -1.8113218170135832,
                -1.4266672710831108,
                1.993054690552119,
                -0.6300043665498254,
                1.2573664819624875,
                2.8902155755978316
            ]
        },
        {
            "positions": [
                -1.8810944143564372,
                -1.4317078277990256,
                2.011314335498486,
                -0.6806748854137966,
                1.1496714283140945,
                2.7556492192389963
            ]
        },
        {
            "positions": [
                -1.9508670116992914,
                -1.4367483845149402,
                2.029573980444853,
                -0.7313454042777678,
                1.0419763746657016,
                2.6210828628801606
            ]
        },
        {
            "positions": [
                -2.0206396090421452,
                -1.441788941230855,
                2.04783362539122,
                -0.782015923141739,
                0.9342813210173089,
                2.486516506521325
            ]
        },
        {
            "positions": [
                -2.0904122063849995,
                -1.4468294979467697,
                2.066093270337587,
                -0.8326864420057101,
                0.826586267368916,
                2.351950150162489
            ]
        },
        {
            "positions": [
                -2.1601848037278537,
                -1.4518700546626846,
                2.084352915283954,
                -0.8833569608696814,
                0.7188912137205231,
                2.2173837938036534
            ]
        },
        {
            "positions": [
                -2.2299574010707075,
                -1.4569106113785992,
                2.1026125602303205,
                -0.9340274797336525,
                0.6111961600721303,
                2.0828174374448176
            ]
        },
        {
            "positions": [
                -2.2997299984135617,
                -1.461951168094514,
                2.1208722051766875,
                -0.9846979985976237,
                0.5035011064237374,
                1.948251081085982
            ]
        },
        {
            "positions": [
                -2.3695025957564155,
                -1.4669917248104287,
                2.1391318501230545,
                -1.035368517461595,
                0.39580605277534464,
                1.8136847247271466
            ]
        },
        {
            "positions": [
                -2.4392751930992698,
                -1.4720322815263436,
                2.1573914950694215,
                -1.086039036325566,
                0.28811099912695176,
                1.6791183683683109
            ]
        },
        {
            "positions": [
                -2.4812947109402246,
                -1.436904743716906,
                2.1559909781386275,
                -1.0794432649867896,
                0.33836688399694337,
                1.8543746445666942
            ]
        },
        {
            "positions": [
                -2.52331422878118,
                -1.4017772059074687,
                2.154590461207834,
                -1.072847493648013,
                0.3886227688669349,
                2.0296309207650776
            ]
        },
        {
            "positions": [
                -2.5653337466221346,
                -1.3666496680980311,
                2.15318994427704,
                -1.0662517223092365,
                0.4388786537369265,
                2.204887196963461
            ]
        },
        {
            "positions": [
                -2.5471854679166994,
                -1.3260867843981647,
                2.1252825400236515,
                -1.022676468151787,
                0.4839338521205914,
                2.3935129702410767
            ]
        },
        {
            "positions": [
                -2.5290371892112637,
                -1.2855239006982981,
                2.097375135770263,
                -0.9791012139943374,
                0.5289890505042564,
                2.582138743518692
            ]
        },
        {
            "positions": [
                -2.5108889105058285,
                -1.2449610169984318,
                2.069467731516874,
                -0.9355259598368879,
                0.5740442488879213,
                2.7707645167963078
            ]
        },
        {
            "positions": [
                -2.492740631800393,
                -1.2043981332985652,
                2.0415603272634857,
                -0.8919507056794383,
                0.6190994472715862,
                2.959390290073923
            ]
        },
        {
            "positions": [
                -2.4745923530949576,
                -1.1638352495986988,
                2.0136529230100972,
                -0.8483754515219888,
                0.6641546456552511,
                3.148016063351539
            ]
        }
    ]
}