{
    "goal": {
        "global_pose": {
            "orientation": {
                "w": 0.005598929693374612,
                "x": 0.007748599140229565,
                "y": 0.7110244013736278,
                "z": -0.7031023480610252
            },
            "position": {
                "x": -0.8858502320852131,
                "y": -0.7141253447532654,
                "z": 0.3711530566215515
            }
        },
        "name": "move_to_auspresseinheit_C"
    },
    "id": "BKPIECE_move_to_auspresseinheit_C_23",
    "joint_names": [
        "shoulder_pan_joint",
        "shoulder_lift_joint",
        "elbow_joint",
        "wrist_1_joint",
        "wrist_2_joint",
        "wrist_3_joint"
    ],
    "metrics": {
        "cart_traj_len": 0.4919672723085645,
        "distance_elbow_joint": 0.987721823224626,
        "distance_shoulder_lift_joint": 0.3195983764830248,
        "distance_shoulder_pan_joint": 0.25653259453915167,
        "distance_wrist_1_joint": 0.6574111057446421,
        "distance_wrist_2_joint": 1.3079378080249286,
        "distance_wrist_3_joint": 0.051482581813934836,
        "smoothness": 1.6148698667872622e-16,
        "time": 0.250198191,
        "traj_len": 1.8922696134088048,
        "weighted_distance": 2.376762160424923
    },
    "planner": "BKPIECE",
    "start": {
        "state": {
            "elbow_joint": 1.7527959577730765,
            "shoulder_lift_joint": -0.9740617694224828,
            "shoulder_pan_joint": -2.967991417825869,
            "wrist_1_joint": -0.7595177689779385,
            "wrist_2_joint": 1.7443932448376545,
            "wrist_3_joint": 3.1991315425061013
        }
    },
    "waypoints": [
        {
            "positions": [
                -2.967991417825869,
                -0.9740617694224828,
                1.7527959577730765,
                -0.7595177689779385,
                1.7443932448376545,
                3.1991315425061013
            ]
        },
        {
            "positions": [
                -2.942338158371954,
                -0.9421019317741803,
                1.654023775450614,
                -0.6937766584034744,
                1.6135994640351616,
                3.193983284324708
            ]
        },
        {
            "positions": [
                -2.9166848989180387,
                -0.9101420941258779,
                1.5552515931281512,
                -0.62803554782901,
                1.4828056832326686,
                3.1888350261433143
            ]
        },
        {
            "positions": [
                -2.8910316394641233,
                -0.8781822564775753,
                1.4564794108056887,
                -0.562294437254546,
                1.352011902430176,
                3.183686767961921
            ]
        },
        {
            "positions": [
                -2.8653783800102084,
                -0.8462224188292728,
                1.3577072284832261,
                -0.4965533266800817,
                1.221218121627683,
                3.178538509780527
            ]
        },
        {
            "positions": [
                -2.8397251205562934,
                -0.8142625811809704,
                1.2589350461607636,
                -0.4308122161056175,
                1.0904243408251901,
                3.173390251599134
            ]
        },
        {
            "positions": [
                -2.814071861102378,
                -0.7823027435326679,
                1.160162863838301,
                -0.3650711055311533,
                0.9596305600226973,
                3.1682419934177406
            ]
        },
        {
            "positions": [
                -2.7884186016484627,
                -0.7503429058843655,
                1.0613906815158383,
                -0.2993299949566891,
                0.8288367792202045,
                3.163093735236347
            ]
        },
        {
            "positions": [
                -2.7627653421945477,
                -0.718383068236063,
                0.9626184991933757,
                -0.2335888843822248,
                0.6980429984177114,
                3.1579454770549535
            ]
        },
        {
            "positions": [
                -2.737112082740633,
                -0.6864232305877604,
                0.8638463168709131,
                -0.16784777380776061,
                0.5672492176152186,
                3.15279721887356
            ]
        },
        {
            "positions": [
                -2.7114588232867174,
                -0.654463392939458,
                0.7650741345484505,
                -0.10210666323329647,
                0.43645543681272575,
                3.1476489606921665
            ]
        }
    ]
}