{
    "goal": {
        "global_pose": {
            "orientation": {
                "w": 0.7031023502349854,
                "x": -0.7110244035720825,
                "y": 0.007748599164187908,
                "z": 0.005598929710686207
            },
            "position": {
                "x": 0.11585023208521307,
                "y": 0.44412534475326537,
                "z": 0.3711530566215515
            }
        },
        "name": "move_to_auspresseinheit_A"
    },
    "id": "BKPIECE_move_to_auspresseinheit_A_132",
    "joint_names": [
        "shoulder_pan_joint",
        "shoulder_lift_joint",
        "elbow_joint",
        "wrist_1_joint",
        "wrist_2_joint",
        "wrist_3_joint"
    ],
    "metrics": {
        "cart_traj_len": 1.7372116263137032,
        "distance_elbow_joint": 1.7895780564855435,
        "distance_shoulder_lift_joint": 0.694947657829349,
        "distance_shoulder_pan_joint": 1.5101043259362044,
        "distance_wrist_1_joint": 2.904695367533377,
        "distance_wrist_2_joint": 2.8818244104057475,
        "distance_wrist_3_joint": 4.574378480193382,
        "smoothness": 0.8451981644408366,
        "time": 0.250354756,
        "traj_len": 3.788868999897411,
        "weighted_distance": 5.41209802541579
    },
    "planner": "BKPIECE",
    "start": {
        "state": {
            "elbow_joint": 2.4225746994637096,
            "shoulder_lift_joint": -1.373653595662188,
            "shoulder_pan_joint": -0.3378633848294565,
            "wrist_1_joint": -1.0288595594406726,
            "wrist_2_joint": 1.2330228066703421,
            "wrist_3_joint": 3.189163495502006
        }
    },
    "waypoints": [
        {
            "positions": [
                -0.3378633848294565,
                -1.373653595662188,
                2.4225746994637096,
                -1.0288595594406726,
                1.2330228066703421,
                3.189163495502006
            ]
        },
        {
            "positions": [
                -0.28494837572447007,
                -1.428454461355704,
                2.385213108048283,
                -1.0676153410964895,
                1.1522160515702151,
                3.0803491485299053
            ]
        },
        {
            "positions": [
                -0.23203336661948365,
                -1.4832553270492201,
                2.3478515166328564,
                -1.106371122752306,
                1.071409296470088,
                2.971534801557805
            ]
        },
        {
            "positions": [
                -0.1791183575144972,
                -1.538056192742736,
                2.31048992521743,
                -1.145126904408123,
                0.9906025413699611,
                2.8627204545857046
            ]
        },
        {
            "positions": [
                -0.12620334840951078,
                -1.592857058436252,
                2.273128333802003,
                -1.1838826860639395,
                0.909795786269834,
                2.7539061076136044
            ]
        },
        {
            "positions": [
                -0.07328833930452433,
                -1.647657924129768,
                2.2357667423865766,
                -1.2226384677197564,
                0.828989031169707,
                2.645091760641504
            ]
        },
        {
            "positions": [
                -0.02037333019953791,
                -1.7024587898232841,
                2.19840515097115,
                -1.261394249375573,
                0.74818227606958,
                2.5362774136694037
            ]
        },
        {
            "positions": [
                0.03254167890544854,
                -1.7572596555168,
                2.1610435595557234,
                -1.3001500310313898,
                0.667375520969453,
                2.427463066697303
            ]
        },
        {
            "positions": [
                0.07530006030596684,
                -1.7938878422776485,
                2.1289367292418206,
                -1.3214983840478105,
                0.6034098114328341,
                2.3413443818005533
            ]
        },
        {
            "positions": [
                0.11805844170648513,
                -1.8305160290384968,
                2.0968298989279175,
                -1.3428467370642312,
                0.5394441018962153,
                2.255225696903804
            ]
        },
        {
            "positions": [
                0.16081682310700343,
                -1.8671442157993452,
                2.0647230686140148,
                -1.3641950900806519,
                0.4754783923595963,
                2.169107012007054
            ]
        },
        {
            "positions": [
                0.2198624950380127,
                -1.8760906421550128,
                2.0186128634867746,
                -1.2806230295215901,
                0.3965169572898128,
                2.0614554252574426
            ]
        },
        {
            "positions": [
                0.278908166969022,
                -1.8850370685106805,
                1.9725026583595349,
                -1.1970509689625284,
                0.31755552222002925,
                1.9538038385078316
            ]
        },
        {
            "positions": [
                0.3379538389000312,
                -1.893983494866348,
                1.9263924532322947,
                -1.1134789084034669,
                0.23859408715024574,
                1.8461522517582205
            ]
        },
        {
            "positions": [
                0.39699951083104046,
                -1.9029299212220157,
                1.8802822481050547,
                -1.0299068478444051,
                0.15963265208046223,
                1.7385006650086092
            ]
        },
        {
            "positions": [
                0.45604518276204975,
                -1.9118763475776834,
                1.8341720429778148,
                -0.9463347872853434,
                0.0806712170106787,
                1.6308490782589982
            ]
        },
        {
            "positions": [
                0.515090854693059,
                -1.920822773933351,
                1.7880618378505748,
                -0.8627627267262816,
                0.0017097819408951609,
                1.523197491509387
            ]
        },
        {
            "positions": [
                0.5741365266240683,
                -1.9297692002890185,
                1.7419516327233349,
                -0.7791906661672199,
                -0.07725165312888838,
                1.4155459047597758
            ]
        },
        {
            "positions": [
                0.6331821985550775,
                -1.9387156266446863,
                1.695841427596095,
                -0.6956186056081582,
                -0.15621308819867186,
                1.3078943180101648
            ]
        },
        {
            "positions": [
                0.6922278704860868,
                -1.9476620530003539,
                1.649731222468855,
                -0.6120465450490965,
                -0.23517452326845545,
                1.2002427312605535
            ]
        },
        {
            "positions": [
                0.7512735424170961,
                -1.9566084793560214,
                1.6036210173416148,
                -0.5284744844900348,
                -0.31413595833823893,
                1.0925911445109424
            ]
        },
        {
            "positions": [
                0.8103192143481053,
                -1.9655549057116892,
                1.557510812214375,
                -0.4449024239309731,
                -0.3930973934080224,
                0.9849395577613314
            ]
        },
        {
            "positions": [
                0.8693648862791146,
                -1.9745013320673568,
                1.5114006070871349,
                -0.3613303633719115,
                -0.472058828477806,
                0.8772879710117201
            ]
        },
        {
            "positions": [
                0.8481491997109243,
                -1.9671979380006728,
                1.577075104306001,
                -0.2941974379999795,
                -0.400624043510713,
                1.0186345701121733
            ]
        },
        {
            "positions": [
                0.8269335131427341,
                -1.9598945439339888,
                1.642749601524867,
                -0.22706451262804747,
                -0.32918925854361997,
                1.1599811692126263
            ]
        },
        {
            "positions": [
                0.8057178265745438,
                -1.9525911498673048,
                1.7084240987437331,
                -0.15993158725611548,
                -0.2577544735765269,
                1.3013277683130795
            ]
        },
        {
            "positions": [
                0.7845021400063535,
                -1.9452877558006207,
                1.7740985959625994,
                -0.09279866188418345,
                -0.18631968860943393,
                1.4426743674135327
            ]
        },
        {
            "positions": [
                0.7632864534381633,
                -1.9379843617339367,
                1.8397730931814655,
                -0.025665736512251458,
                -0.11488490364234089,
                1.584020966513986
            ]
        },
        {
            "positions": [
                0.7420707668699731,
                -1.9306809676672525,
                1.9054475904003316,
                0.04146718885968054,
                -0.043450118675247895,
                1.725367565614439
            ]
        },
        {
            "positions": [
                0.7208550803017828,
                -1.9233775736005685,
                1.9711220876191977,
                0.10860011423161259,
                0.02798466629184515,
                1.8667141647148922
            ]
        },
        {
            "positions": [
                0.6996393937335925,
                -1.9160741795338845,
                2.036796584838064,
                0.17573303960354458,
                0.09941945125893814,
                2.0080607638153456
            ]
        },
        {
            "positions": [
                0.6784237071654022,
                -1.9087707854672005,
                2.10247108205693,
                0.24286596497547663,
                0.17085423622603124,
                2.149407362915799
            ]
        },
        {
            "positions": [
                0.6572080205972121,
                -1.9014673914005165,
                2.168145579275796,
                0.3099988903474086,
                0.24228902119312423,
                2.2907539620162516
            ]
        },
        {
            "positions": [
                0.6359923340290218,
                -1.8941639973338324,
                2.2338200764946623,
                0.3771318157193406,
                0.3137238061602172,
                2.432100561116705
            ]
        },
        {
            "positions": [
                0.6475762511252784,
                -1.896457761782275,
                2.259817492278236,
                0.23912632720377291,
                0.37888382959681316,
                2.550048955383057
            ]
        },
        {
            "positions": [
                0.659160168221535,
                -1.8987515262307177,
                2.2858149080618095,
                0.1011208386882052,
                0.4440438530334091,
                2.667997349649409
            ]
        },
        {
            "positions": [
                0.6707440853177917,
                -1.9010452906791604,
                2.311812323845383,
                -0.0368846498273625,
                0.5092038764700051,
                2.785945743915761
            ]
        },
        {
            "positions": [
                0.6823280024140483,
                -1.903339055127603,
                2.3378097396289563,
                -0.1748901383429302,
                0.574363899906601,
                2.903894138182113
            ]
        },
        {
            "positions": [
                0.693911919510305,
                -1.9056328195760457,
                2.36380715541253,
                -0.3128956268584979,
                0.6395239233431969,
                3.0218425324484652
            ]
        },
        {
            "positions": [
                0.7054958366065616,
                -1.9079265840244883,
                2.3898045711961036,
                -0.4509011153740657,
                0.7046839467797928,
                3.1397909267148174
            ]
        }
    ]
}