{
    "goal": {
        "global_pose": {
            "orientation": {
                "w": -0.00223480608172531,
                "x": 0.0024358444001904467,
                "y": 0.7094548369677653,
                "z": -0.704743149386269
            },
            "position": {
                "x": -0.37947507619857795,
                "y": -0.6371506643295288,
                "z": 0.19426114857196808
            }
        },
        "name": "move_to_magneteinheit_C"
    },
    "id": "BKPIECE_move_to_magneteinheit_C_12",
    "joint_names": [
        "shoulder_pan_joint",
        "shoulder_lift_joint",
        "elbow_joint",
        "wrist_1_joint",
        "wrist_2_joint",
        "wrist_3_joint"
    ],
    "metrics": {
        "cart_traj_len": 2.7947668112316237,
        "distance_elbow_joint": 3.5349189855270167,
        "distance_shoulder_lift_joint": 0.6036484290061379,
        "distance_shoulder_pan_joint": 1.9829229876598264,
        "distance_wrist_1_joint": 1.339246894674135,
        "distance_wrist_2_joint": 2.2036044642284716,
        "distance_wrist_3_joint": 3.984011024456779,
        "smoothness": 0.7743260596408775,
        "time": 0.197524913,
        "traj_len": 3.6943677111993556,
        "weighted_distance": 5.01589734677341
    },
    "planner": "BKPIECE",
    "start": {
        "state": {
            "elbow_joint": 1.9565354006593851,
            "shoulder_lift_joint": -1.4165861576512813,
            "shoulder_pan_joint": -1.6717766223278752,
            "wrist_1_joint": -0.528663328821883,
            "wrist_2_joint": 1.472756589259273,
            "wrist_3_joint": 3.159348288315503
        }
    },
    "waypoints": [
        {
            "positions": [
                -1.6717766223278752,
                -1.4165861576512813,
                1.9565354006593851,
                -0.528663328821883,
                1.472756589259273,
                3.159348288315503
            ]
        },
        {
            "positions": [
                -1.5991707640961703,
                -1.4181605519918077,
                1.9148898015894165,
                -0.47417806056360523,
                1.3822696317414924,
                3.0245055155528506
            ]
        },
        {
            "positions": [
                -1.5265649058644657,
                -1.4197349463323339,
                1.873244202519448,
                -0.4196927923053274,
                1.2917826742237117,
                2.8896627427901986
            ]
        },
        {
            "positions": [
                -1.4539590476327608,
                -1.4213093406728603,
                1.8315986034494793,
                -0.3652075240470496,
                1.201295716705931,
                2.754819970027546
            ]
        },
        {
            "positions": [
                -1.381353189401056,
                -1.4228837350133865,
                1.7899530043795107,
                -0.31072225578877183,
                1.1108087591881506,
                2.6199771972648938
            ]
        },
        {
            "positions": [
                -1.3087473311693514,
                -1.424458129353913,
                1.748307405309542,
                -0.256236987530494,
                1.02032180167037,
                2.4851344245022418
            ]
        },
        {
            "positions": [
                -1.2361414729376465,
                -1.4260325236944391,
                1.7066618062395735,
                -0.2017517192722162,
                0.9298348441525892,
                2.3502916517395893
            ]
        },
        {
            "positions": [
                -1.1635356147059417,
                -1.4276069180349655,
                1.6650162071696049,
                -0.14726645101393837,
                0.8393478866348085,
                2.215448878976937
            ]
        },
        {
            "positions": [
                -1.1419144367360758,
                -1.4224137097397973,
                1.5979296868380914,
                -0.1678489778281786,
                0.7860987248307948,
                2.1162409227060692
            ]
        },
        {
            "positions": [
                -1.2129862984580577,
                -1.3933453126054935,
                1.4915103813648851,
                -0.1980102274093498,
                0.7231499983003026,
                2.041813392525381
            ]
        },
        {
            "positions": [
                -1.2840581601800396,
                -1.3642769154711896,
                1.3850910758916788,
                -0.22817147699052098,
                0.6602012717698104,
                1.9673858623446931
            ]
        },
        {
            "positions": [
                -1.3551300219020215,
                -1.3352085183368858,
                1.2786717704184722,
                -0.25833272657169215,
                0.5972525452393181,
                1.892958332164005
            ]
        },
        {
            "positions": [
                -1.4262018836240031,
                -1.3061401212025818,
                1.172252464945266,
                -0.2884939761528634,
                0.534303818708826,
                1.818530801983317
            ]
        },
        {
            "positions": [
                -1.497273745345985,
                -1.277071724068278,
                1.0658331594720596,
                -0.31865522573403454,
                0.47135509217833377,
                1.7441032718026288
            ]
        },
        {
            "positions": [
                -1.5683456070679669,
                -1.248003326933974,
                0.9594138539988531,
                -0.34881647531520577,
                0.40840636564784155,
                1.669675741621941
            ]
        },
        {
            "positions": [
                -1.6394174687899488,
                -1.2189349297996703,
                0.8529945485256468,
                -0.37897772489637693,
                0.34545763911734945,
                1.5952482114412527
            ]
        },
        {
            "positions": [
                -1.7104893305119306,
                -1.1898665326653663,
                0.7465752430524404,
                -0.4091389744775481,
                0.2825089125868572,
                1.5208206812605647
            ]
        },
        {
            "positions": [
                -1.7815611922339123,
                -1.1607981355310626,
                0.6401559375792341,
                -0.43930022405871927,
                0.21956018605636507,
                1.4463931510798766
            ]
        },
        {
            "positions": [
                -1.8526330539558944,
                -1.1317297383967586,
                0.5337366321060275,
                -0.4694614736398905,
                0.15661145952587274,
                1.3719656208991886
            ]
        },
        {
            "positions": [
                -1.923704915677876,
                -1.1026613412624549,
                0.4273173266328214,
                -0.49962272322106166,
                0.09366273299538064,
                1.2975380907185006
            ]
        },
        {
            "positions": [
                -1.9947767773998581,
                -1.0735929441281509,
                0.32089802115961485,
                -0.5297839728022329,
                0.03071400646488831,
                1.2231105605378125
            ]
        },
        {
            "positions": [
                -2.06584863912184,
                -1.0445245469938471,
                0.2144787156864085,
                -0.559945222383404,
                -0.03223472006560374,
                1.1486830303571245
            ]
        },
        {
            "positions": [
                -2.138282242847521,
                -1.035347128169374,
                0.3117472955866704,
                -0.5358634001458754,
                0.020540224517333942,
                1.2539288009657736
            ]
        },
        {
            "positions": [
                -2.210715846573202,
                -1.026169709344901,
                0.4090158754869323,
                -0.5117815779083467,
                0.07331516910027162,
                1.359174571574423
            ]
        },
        {
            "positions": [
                -2.283149450298883,
                -1.0169922905204276,
                0.5062844553871941,
                -0.487699755670818,
                0.1260901136832093,
                1.4644203421830722
            ]
        },
        {
            "positions": [
                -2.355583054024564,
                -1.0078148716959545,
                0.6035530352874561,
                -0.46361793343328933,
                0.178865058266147,
                1.5696661127917215
            ]
        },
        {
            "positions": [
                -2.4280166577502453,
                -0.9986374528714814,
                0.700821615187718,
                -0.43953611119576064,
                0.23164000284908465,
                1.6749118834003707
            ]
        },
        {
            "positions": [
                -2.454805289282617,
                -1.0016036376494344,
                0.8242757938536642,
                -0.4349128498895994,
                0.2838115249228199,
                1.7952806354075475
            ]
        },
        {
            "positions": [
                -2.4815939208149884,
                -1.0045698224273876,
                0.9477299725196104,
                -0.43028958858343813,
                0.3359830469965551,
                1.915649387414724
            ]
        },
        {
            "positions": [
                -2.50838255234736,
                -1.0075360072053408,
                1.0711841511855567,
                -0.4256663272772768,
                0.3881545690702904,
                2.036018139421901
            ]
        },
        {
            "positions": [
                -2.5351711838797315,
                -1.0105021919832937,
                1.1946383298515029,
                -0.42104306597111557,
                0.44032609114402566,
                2.1563868914290776
            ]
        },
        {
            "positions": [
                -2.5321652634389213,
                -1.0226028873265263,
                1.317370407474386,
                -0.4398659464858165,
                0.48218830515596867,
                2.2761684866557697
            ]
        },
        {
            "positions": [
                -2.5291593429981116,
                -1.0347035826697588,
                1.440102485097269,
                -0.4586888270005175,
                0.5240505191679117,
                2.3959500818824617
            ]
        },
        {
            "positions": [
                -2.526153422557302,
                -1.0468042780129914,
                1.562834562720152,
                -0.47751170751521843,
                0.5659127331798546,
                2.515731677109154
            ]
        },
        {
            "positions": [
                -2.5231475021164917,
                -1.058904973356224,
                1.6855666403430352,
                -0.49633458802991937,
                0.6077749471917976,
                2.635513272335846
            ]
        },
        {
            "positions": [
                -2.511202408826209,
                -1.0847526440997806,
                1.7660102343173882,
                -0.5790789797863274,
                0.622425819103346,
                2.7571421534657654
            ]
        },
        {
            "positions": [
                -2.499257315535926,
                -1.1106003148433374,
                1.8464538282917415,
                -0.6618233715427354,
                0.6370766910148945,
                2.8787710345956854
            ]
        },
        {
            "positions": [
                -2.487312222245643,
                -1.1364479855868943,
                1.9268974222660948,
                -0.7445677632991434,
                0.651727562926443,
                3.0003999157256054
            ]
        },
        {
            "positions": [
                -2.47536712895536,
                -1.162295656330451,
                2.007341016240448,
                -0.8273121550555514,
                0.6663784348379914,
                3.122028796855525
            ]
        }
    ]
}