{
    "goal": {
        "global_pose": {
            "orientation": {
                "w": -0.00223480608172531,
                "x": 0.0024358444001904467,
                "y": 0.7094548369677653,
                "z": -0.704743149386269
            },
            "position": {
                "x": -0.37947507619857795,
                "y": -0.6371506643295288,
                "z": 0.19426114857196808
            }
        },
        "name": "move_to_magneteinheit_C"
    },
    "id": "BKPIECE_move_to_magneteinheit_C_6",
    "joint_names": [
        "shoulder_pan_joint",
        "shoulder_lift_joint",
        "elbow_joint",
        "wrist_1_joint",
        "wrist_2_joint",
        "wrist_3_joint"
    ],
    "metrics": {
        "cart_traj_len": 2.395436240057813,
        "distance_elbow_joint": 2.383059649049595,
        "distance_shoulder_lift_joint": 0.399610939071102,
        "distance_shoulder_pan_joint": 2.269340132024867,
        "distance_wrist_1_joint": 2.7313908580488584,
        "distance_wrist_2_joint": 5.45277659620373,
        "distance_wrist_3_joint": 6.32995038574539,
        "smoothness": 0.9040157776091656,
        "time": 0.314693462,
        "traj_len": 4.423361680910068,
        "weighted_distance": 6.356901508273264
    },
    "planner": "BKPIECE",
    "start": {
        "state": {
            "elbow_joint": 1.9565354006593851,
            "shoulder_lift_joint": -1.4165861576512813,
            "shoulder_pan_joint": -1.6717766223278752,
            "wrist_1_joint": -0.528663328821883,
            "wrist_2_joint": 1.472756589259273,
            "wrist_3_joint": 3.159348288315503
        }
    },
    "waypoints": [
        {
            "positions": [
                -1.6717766223278752,
                -1.4165861576512813,
                1.9565354006593851,
                -0.528663328821883,
                1.472756589259273,
                3.159348288315503
            ]
        },
        {
            "positions": [
                -1.5902809344745361,
                -1.4197973854685244,
                1.8952432764175517,
                -0.4356470450181201,
                1.4163681682757228,
                3.0777883867073466
            ]
        },
        {
            "positions": [
                -1.508785246621197,
                -1.4230086132857678,
                1.8339511521757186,
                -0.3426307612143572,
                1.3599797472921726,
                2.99622848509919
            ]
        },
        {
            "positions": [
                -1.427289558767858,
                -1.426219841103011,
                1.7726590279338852,
                -0.24961447741059434,
                1.3035913263086223,
                2.914668583491034
            ]
        },
        {
            "positions": [
                -1.345793870914519,
                -1.429431068920254,
                1.7113669036920518,
                -0.15659819360683142,
                1.247202905325072,
                2.8331086818828775
            ]
        },
        {
            "positions": [
                -1.26429818306118,
                -1.4326422967374974,
                1.6500747794502186,
                -0.06358190980306849,
                1.1908144843415216,
                2.751548780274721
            ]
        },
        {
            "positions": [
                -1.1828024952078409,
                -1.4358535245547406,
                1.5887826552083852,
                0.029434374000694374,
                1.1344260633579712,
                2.6699888786665644
            ]
        },
        {
            "positions": [
                -1.1013068073545018,
                -1.4390647523719837,
                1.5274905309665519,
                0.1224506578044573,
                1.078037642374421,
                2.588428977058408
            ]
        },
        {
            "positions": [
                -1.0198111195011628,
                -1.442275980189227,
                1.4661984067247187,
                0.21546694160822022,
                1.0216492213908708,
                2.506869075450252
            ]
        },
        {
            "positions": [
                -0.9383154316478237,
                -1.4454872080064702,
                1.4049062824828853,
                0.30848322541198314,
                0.9652608004073204,
                2.4253091738420953
            ]
        },
        {
            "positions": [
                -0.9992015302557046,
                -1.4474102611951956,
                1.4577924356795169,
                0.24285828335877044,
                1.066233105569095,
                2.3188625076845826
            ]
        },
        {
            "positions": [
                -1.0600876288635854,
                -1.4493333143839207,
                1.5106785888761487,
                0.17723334130555773,
                1.1672054107308696,
                2.21241584152707
            ]
        },
        {
            "positions": [
                -1.1209737274714662,
                -1.451256367572646,
                1.5635647420727803,
                0.11160839925234503,
                1.2681777158926444,
                2.105969175369557
            ]
        },
        {
            "positions": [
                -1.1818598260793471,
                -1.453179420761371,
                1.6164508952694119,
                0.04598345719913233,
                1.369150021054419,
                1.9995225092120443
            ]
        },
        {
            "positions": [
                -1.2427459246872279,
                -1.4551024739500964,
                1.6693370484660435,
                -0.01964148485408035,
                1.4701223262161935,
                1.8930758430545316
            ]
        },
        {
            "positions": [
                -1.3036320232951089,
                -1.4570255271388215,
                1.722223201662675,
                -0.08526642690729308,
                1.5710946313779681,
                1.7866291768970188
            ]
        },
        {
            "positions": [
                -1.3645181219029896,
                -1.4589485803275468,
                1.7751093548593069,
                -0.1508913689605058,
                1.6720669365397427,
                1.680182510739506
            ]
        },
        {
            "positions": [
                -1.4254042205108703,
                -1.460871633516272,
                1.8279955080559385,
                -0.2165163110137185,
                1.7730392417015173,
                1.5737358445819933
            ]
        },
        {
            "positions": [
                -1.4862903191187513,
                -1.4627946867049972,
                1.88088166125257,
                -0.2821412530669313,
                1.8740115468632919,
                1.4672891784244806
            ]
        },
        {
            "positions": [
                -1.5471764177266323,
                -1.4647177398937223,
                1.9337678144492019,
                -0.34776619512014384,
                1.9749838520250667,
                1.3608425122669678
            ]
        },
        {
            "positions": [
                -1.608062516334513,
                -1.4666407930824477,
                1.9866539676458335,
                -0.4133911371733566,
                2.075956157186841,
                1.254395846109455
            ]
        },
        {
            "positions": [
                -1.6689486149423938,
                -1.4685638462711728,
                2.039540120842465,
                -0.4790160792265693,
                2.1769284623486156,
                1.1479491799519423
            ]
        },
        {
            "positions": [
                -1.7298347135502747,
                -1.470486899459898,
                2.092426274039097,
                -0.544641021279782,
                2.27790076751039,
                1.0415025137944296
            ]
        },
        {
            "positions": [
                -1.7907208121581557,
                -1.4724099526486232,
                2.1453124272357282,
                -0.6102659633329948,
                2.378873072672165,
                0.9350558476369168
            ]
        },
        {
            "positions": [
                -1.8516069107660362,
                -1.4743330058373485,
                2.19819858043236,
                -0.6758909053862074,
                2.4798453778339398,
                0.8286091814794041
            ]
        },
        {
            "positions": [
                -1.9124930093739172,
                -1.4762560590260736,
                2.251084733628992,
                -0.7415158474394201,
                2.5808176829957143,
                0.7221625153218914
            ]
        },
        {
            "positions": [
                -1.973379107981798,
                -1.478179112214799,
                2.3039708868256232,
                -0.8071407894926328,
                2.6817899881574885,
                0.6157158491643788
            ]
        },
        {
            "positions": [
                -2.034265206589679,
                -1.480102165403524,
                2.356857040022255,
                -0.8727657315458457,
                2.7827622933192635,
                0.5092691830068659
            ]
        },
        {
            "positions": [
                -2.0951513051975597,
                -1.4820252185922493,
                2.409743193218887,
                -0.9383906735990584,
                2.883734598481038,
                0.4028225168493531
            ]
        },
        {
            "positions": [
                -2.1560374038054406,
                -1.4839482717809744,
                2.4626293464155182,
                -1.0040156156522708,
                2.984706903642813,
                0.29637585069184036
            ]
        },
        {
            "positions": [
                -2.216923502413321,
                -1.4858713249696998,
                2.5155154996121496,
                -1.0696405577054835,
                3.0856792088045877,
                0.1899291845343276
            ]
        },
        {
            "positions": [
                -2.277809601021202,
                -1.4877943781584249,
                2.568401652808782,
                -1.1352654997586964,
                3.1866515139663623,
                0.08348251837681486
            ]
        },
        {
            "positions": [
                -2.338695699629083,
                -1.4897174313471502,
                2.6212878060054132,
                -1.200890441811909,
                3.2876238191281364,
                -0.022964147780697886
            ]
        },
        {
            "positions": [
                -2.3458272087534806,
                -1.4725342910642432,
                2.5889168056185414,
                -1.1806340925176406,
                3.149575514463349,
                0.14270100746399614
            ]
        },
        {
            "positions": [
                -2.3529587178778786,
                -1.4553511507813361,
                2.556545805231669,
                -1.1603777432233724,
                3.0115272097985613,
                0.30836616270869016
            ]
        },
        {
            "positions": [
                -2.360090227002276,
                -1.4381680104984291,
                2.5241748048447974,
                -1.140121393929104,
                2.8734789051337737,
                0.4740313179533842
            ]
        },
        {
            "positions": [
                -2.3672217361266736,
                -1.4209848702155221,
                2.4918038044579256,
                -1.1198650446348357,
                2.7354306004689866,
                0.6396964731980782
            ]
        },
        {
            "positions": [
                -2.3743532452510716,
                -1.403801729932615,
                2.4594328040710534,
                -1.0996086953405673,
                2.597382295804199,
                0.8053616284427723
            ]
        },
        {
            "positions": [
                -2.381484754375469,
                -1.386618589649708,
                2.4270618036841816,
                -1.079352346046299,
                2.4593339911394114,
                0.9710267836874663
            ]
        },
        {
            "positions": [
                -2.388616263499867,
                -1.369435449366801,
                2.3946908032973093,
                -1.0590959967520306,
                2.321285686474624,
                1.1366919389321604
            ]
        },
        {
            "positions": [
                -2.3957477726242646,
                -1.352252309083894,
                2.3623198029104375,
                -1.0388396474577621,
                2.1832373818098363,
                1.3023570941768543
            ]
        },
        {
            "positions": [
                -2.402879281748662,
                -1.3350691688009872,
                2.3299488025235657,
                -1.018583298163494,
                2.045189077145049,
                1.4680222494215485
            ]
        },
        {
            "positions": [
                -2.41001079087306,
                -1.3178860285180802,
                2.2975778021366935,
                -0.9983269488692255,
                1.9071407724802616,
                1.6336874046662424
            ]
        },
        {
            "positions": [
                -2.4171422999974577,
                -1.3007028882351732,
                2.2652068017498217,
                -0.9780705995749571,
                1.7690924678154738,
                1.7993525599109368
            ]
        },
        {
            "positions": [
                -2.424273809121855,
                -1.2835197479522662,
                2.23283580136295,
                -0.9578142502806888,
                1.6310441631506865,
                1.9650177151556305
            ]
        },
        {
            "positions": [
                -2.431405318246253,
                -1.2663366076693592,
                2.2004648009760777,
                -0.9375579009864204,
                1.4929958584858989,
                2.130682870400325
            ]
        },
        {
            "positions": [
                -2.4385368273706507,
                -1.2491534673864522,
                2.168093800589206,
                -0.9173015516921521,
                1.3549475538211115,
                2.2963480256450186
            ]
        },
        {
            "positions": [
                -2.4456683364950487,
                -1.2319703271035451,
                2.135722800202334,
                -0.8970452023978837,
                1.2168992491563237,
                2.4620131808897128
            ]
        },
        {
            "positions": [
                -2.452799845619446,
                -1.2147871868206381,
                2.103351799815462,
                -0.8767888531036154,
                1.0788509444915366,
                2.6276783361344065
            ]
        },
        {
            "positions": [
                -2.4599313547438437,
                -1.1976040465377311,
                2.07098079942859,
                -0.856532503809347,
                0.940802639826749,
                2.793343491379101
            ]
        },
        {
            "positions": [
                -2.4670628638682417,
                -1.180420906254824,
                2.0386097990417182,
                -0.8362761545150788,
                0.8027543351619615,
                2.959008646623795
            ]
        },
        {
            "positions": [
                -2.4741943729926392,
                -1.163237765971917,
                2.006238798654846,
                -0.8160198052208103,
                0.6647060304971741,
                3.124673801868489
            ]
        }
    ]
}