{
    "goal": {
        "global_pose": {
            "orientation": {
                "w": 0.7031023502349854,
                "x": -0.7110244035720825,
                "y": 0.007748599164187908,
                "z": 0.005598929710686207
            },
            "position": {
                "x": 0.11585023208521307,
                "y": 0.44412534475326537,
                "z": 0.3711530566215515
            }
        },
        "name": "move_to_auspresseinheit_A"
    },
    "id": "BKPIECE_move_to_auspresseinheit_A_141",
    "joint_names": [
        "shoulder_pan_joint",
        "shoulder_lift_joint",
        "elbow_joint",
        "wrist_1_joint",
        "wrist_2_joint",
        "wrist_3_joint"
    ],
    "metrics": {
        "cart_traj_len": 1.7968582085136244,
        "distance_elbow_joint": 1.4125220099658335,
        "distance_shoulder_lift_joint": 0.5326287224545998,
        "distance_shoulder_pan_joint": 2.104488382062373,
        "distance_wrist_1_joint": 7.674425875677696,
        "distance_wrist_2_joint": 2.1721147609006906,
        "distance_wrist_3_joint": 8.813008024591213,
        "smoothness": 0.5698059639589491,
        "time": 0.39554831700000004,
        "traj_len": 4.765415803017864,
        "weighted_distance": 7.083907428913309
    },
    "planner": "BKPIECE",
    "start": {
        "state": {
            "elbow_joint": 2.4225746994637096,
            "shoulder_lift_joint": -1.373653595662188,
            "shoulder_pan_joint": -0.3378633848294565,
            "wrist_1_joint": -1.0288595594406726,
            "wrist_2_joint": 1.2330228066703421,
            "wrist_3_joint": 3.189163495502006
        }
    },
    "waypoints": [
        {
            "positions": [
                -0.3378633848294565,
                -1.373653595662188,
                2.4225746994637096,
                -1.0288595594406726,
                1.2330228066703421,
                3.189163495502006
            ]
        },
        {
            "positions": [
                -0.35609738916993056,
                -1.3849765152363998,
                2.3976799507426265,
                -0.8866508976471701,
                1.186637686091823,
                3.0362515344630334
            ]
        },
        {
            "positions": [
                -0.37433139351040456,
                -1.3962994348106113,
                2.3727852020215434,
                -0.7444422358536675,
                1.140252565513304,
                2.883339573424061
            ]
        },
        {
            "positions": [
                -0.39256539785087863,
                -1.407622354384823,
                2.3478904533004603,
                -0.6022335740601649,
                1.093867444934785,
                2.7304276123850886
            ]
        },
        {
            "positions": [
                -0.4107994021913527,
                -1.4189452739590345,
                2.322995704579377,
                -0.4600249122666623,
                1.0474823243562659,
                2.5775156513461166
            ]
        },
        {
            "positions": [
                -0.42903340653182676,
                -1.4302681935332462,
                2.2981009558582937,
                -0.31781625047315964,
                1.0010972037777468,
                2.424603690307144
            ]
        },
        {
            "positions": [
                -0.44726741087230076,
                -1.4415911131074577,
                2.2732062071372106,
                -0.1756075886796571,
                0.9547120831992276,
                2.2716917292681718
            ]
        },
        {
            "positions": [
                -0.4655014152127748,
                -1.4529140326816694,
                2.2483114584161275,
                -0.03339892688615442,
                0.9083269626207086,
                2.1187797682291993
            ]
        },
        {
            "positions": [
                -0.4837354195532489,
                -1.464236952255881,
                2.2234167096950443,
                0.10880973490734802,
                0.8619418420421895,
                1.965867807190227
            ]
        },
        {
            "positions": [
                -0.5019694238937229,
                -1.4755598718300926,
                2.1985219609739612,
                0.2510183967008508,
                0.8155567214636703,
                1.8129558461512545
            ]
        },
        {
            "positions": [
                -0.520203428234197,
                -1.4868827914043043,
                2.173627212252878,
                0.39322705849435335,
                0.7691716008851512,
                1.660043885112282
            ]
        },
        {
            "positions": [
                -0.538437432574671,
                -1.4982057109785158,
                2.148732463531795,
                0.5354357202878559,
                0.7227864803066323,
                1.5071319240733099
            ]
        },
        {
            "positions": [
                -0.5566714369151451,
                -1.5095286305527276,
                2.123837714810712,
                0.6776443820813585,
                0.6764013597281131,
                1.3542199630343374
            ]
        },
        {
            "positions": [
                -0.5749054412556192,
                -1.520851550126939,
                2.098942966089629,
                0.819853043874861,
                0.630016239149594,
                1.201308001995365
            ]
        },
        {
            "positions": [
                -0.5931394455960932,
                -1.5321744697011508,
                2.0740482173685457,
                0.9620617056683638,
                0.583631118571075,
                1.0483960409563928
            ]
        },
        {
            "positions": [
                -0.6113734499365673,
                -1.5434973892753623,
                2.049153468647462,
                1.1042703674618664,
                0.5372459979925559,
                0.8954840799174204
            ]
        },
        {
            "positions": [
                -0.6296074542770413,
                -1.554820308849574,
                2.024258719926379,
                1.2464790292553687,
                0.49086087741403683,
                0.742572118878448
            ]
        },
        {
            "positions": [
                -0.6478414586175153,
                -1.5661432284237855,
                1.9993639712052962,
                1.3886876910488715,
                0.44447575683551777,
                0.589660157839476
            ]
        },
        {
            "positions": [
                -0.6660754629579894,
                -1.5774661479979972,
                1.9744692224842129,
                1.5308963528423742,
                0.3980906362569986,
                0.43674819680050314
            ]
        },
        {
            "positions": [
                -0.6843094672984634,
                -1.588789067572209,
                1.9495744737631298,
                1.6731050146358766,
                0.35170551567847963,
                0.28383623576153116
            ]
        },
        {
            "positions": [
                -0.7025434716389375,
                -1.6001119871464204,
                1.9246797250420467,
                1.8153136764293794,
                0.30532039509996045,
                0.1309242747225583
            ]
        },
        {
            "positions": [
                -0.7207774759794114,
                -1.6114349067206322,
                1.8997849763209635,
                1.9575223382228817,
                0.2589352745214414,
                -0.02198768631641368
            ]
        },
        {
            "positions": [
                -0.7390114803198855,
                -1.6227578262948437,
                1.8748902275998804,
                2.0997310000163845,
                0.21255015394292243,
                -0.1748996473553861
            ]
        },
        {
            "positions": [
                -0.7572454846603596,
                -1.6340807458690554,
                1.8499954788787971,
                2.2419396618098872,
                0.16616503336440314,
                -0.3278116083943585
            ]
        },
        {
            "positions": [
                -0.7754794890008336,
                -1.6454036654432669,
                1.825100730157714,
                2.3841483236033896,
                0.11977991278588407,
                -0.48072356943333094
            ]
        },
        {
            "positions": [
                -0.7937134933413077,
                -1.6567265850174786,
                1.800205981436631,
                2.526356985396892,
                0.07339479220736522,
                -0.6336355304723029
            ]
        },
        {
            "positions": [
                -0.8119474976817818,
                -1.66804950459169,
                1.7753112327155476,
                2.6685656471903947,
                0.027009671628845933,
                -0.7865474915112758
            ]
        },
        {
            "positions": [
                -0.8301815020222558,
                -1.6793724241659018,
                1.7504164839944645,
                2.8107743089838975,
                -0.019375448949673135,
                -0.9394594525502478
            ]
        },
        {
            "positions": [
                -0.8484155063627299,
                -1.6906953437401135,
                1.7255217352733814,
                2.9529829707774002,
                -0.0657605695281922,
                -1.0923714135892202
            ]
        },
        {
            "positions": [
                -0.866649510703204,
                -1.702018263314325,
                1.7006269865522983,
                3.0951916325709026,
                -0.11214569010671127,
                -1.2452833746281926
            ]
        },
        {
            "positions": [
                -0.8123149501449755,
                -1.7090618514109617,
                1.7244398933472784,
                2.9727649193410364,
                -0.08363030168865483,
                -1.0942985072329856
            ]
        },
        {
            "positions": [
                -0.757980389586747,
                -1.7161054395075983,
                1.7482528001422584,
                2.85033820611117,
                -0.0551149132705984,
                -0.9433136398377784
            ]
        },
        {
            "positions": [
                -0.7036458290285186,
                -1.723149027604235,
                1.7720657069372385,
                2.727911492881304,
                -0.026599524852541953,
                -0.7923287724425713
            ]
        },
        {
            "positions": [
                -0.6493112684702901,
                -1.7301926157008716,
                1.7958786137322185,
                2.6054847796514373,
                0.0019158635655144723,
                -0.6413439050473642
            ]
        },
        {
            "positions": [
                -0.5949767079120616,
                -1.7372362037975082,
                1.8196915205271986,
                2.483058066421571,
                0.03043125198357094,
                -0.49035903765215705
            ]
        },
        {
            "positions": [
                -0.5406421473538332,
                -1.7442797918941448,
                1.8435044273221788,
                2.360631353191705,
                0.058946640401627365,
                -0.33937417025694994
            ]
        },
        {
            "positions": [
                -0.48630758679560465,
                -1.7513233799907817,
                1.8673173341171587,
                2.2382046399618387,
                0.08746202881968379,
                -0.1883893028617427
            ]
        },
        {
            "positions": [
                -0.4319730262373762,
                -1.7583669680874183,
                1.8911302409121389,
                2.1157779267319725,
                0.11597741723774022,
                -0.03740443546653571
            ]
        },
        {
            "positions": [
                -0.3776384656791477,
                -1.765410556184055,
                1.914943147707119,
                1.993351213502106,
                0.1444928056557967,
                0.11358043192867151
            ]
        },
        {
            "positions": [
                -0.3233039051209192,
                -1.7724541442806916,
                1.938756054502099,
                1.8709245002722399,
                0.17300819407385315,
                0.2645652993238785
            ]
        },
        {
            "positions": [
                -0.26896934456269084,
                -1.7794977323773282,
                1.9625689612970791,
                1.7484977870423737,
                0.20152358249190955,
                0.4155501667190855
            ]
        },
        {
            "positions": [
                -0.21463478400446234,
                -1.7865413204739649,
                1.9863818680920593,
                1.6260710738125075,
                0.230038970909966,
                0.5665350341142927
            ]
        },
        {
            "positions": [
                -0.16030022344623385,
                -1.7935849085706015,
                2.0101947748870392,
                1.503644360582641,
                0.25855435932802245,
                0.7175199015094997
            ]
        },
        {
            "positions": [
                -0.10596566288800535,
                -1.8006284966672381,
                2.034007681682019,
                1.3812176473527749,
                0.28706974774607885,
                0.8685047689047072
            ]
        },
        {
            "positions": [
                -0.05163110232977686,
                -1.8076720847638748,
                2.0578205884769996,
                1.2587909341229084,
                0.3155851361641353,
                1.0194896362999142
            ]
        },
        {
            "positions": [
                0.0027034582284515274,
                -1.8147156728605114,
                2.0816334952719795,
                1.1363642208930425,
                0.3441005245821917,
                1.1704745036951212
            ]
        },
        {
            "positions": [
                0.05703801878667991,
                -1.821759260957148,
                2.1054464020669594,
                1.0139375076631763,
                0.37261591300024816,
                1.3214593710903282
            ]
        },
        {
            "positions": [
                0.11137257934490852,
                -1.8288028490537847,
                2.12925930886194,
                0.8915107944333096,
                0.40113130141830466,
                1.4724442384855356
            ]
        },
        {
            "positions": [
                0.1657071399031369,
                -1.8358464371504213,
                2.1530722156569198,
                0.7690840812034438,
                0.429646689836361,
                1.6234291058807422
            ]
        },
        {
            "positions": [
                0.2200417004613655,
                -1.842890025247058,
                2.1768851224518997,
                0.6466573679735772,
                0.45816207825441757,
                1.7744139732759496
            ]
        },
        {
            "positions": [
                0.2743762610195939,
                -1.8499336133436945,
                2.2006980292468796,
                0.524230654743711,
                0.4866774666724739,
                1.9253988406711566
            ]
        },
        {
            "positions": [
                0.3287108215778223,
                -1.8569772014403312,
                2.22451093604186,
                0.4018039415138448,
                0.5151928550905304,
                2.0763837080663636
            ]
        },
        {
            "positions": [
                0.3830453821360509,
                -1.864020789536968,
                2.24832384283684,
                0.2793772282839786,
                0.5437082435085868,
                2.227368575461571
            ]
        },
        {
            "positions": [
                0.43737994269427927,
                -1.8710643776336047,
                2.2721367496318203,
                0.1569505150541124,
                0.5722236319266433,
                2.378353442856778
            ]
        },
        {
            "positions": [
                0.49171450325250765,
                -1.8781079657302413,
                2.2959496564268003,
                0.03452380182424619,
                0.6007390203446996,
                2.529338310251985
            ]
        },
        {
            "positions": [
                0.5460490638107363,
                -1.885151553826878,
                2.31976256322178,
                -0.08790291140562045,
                0.6292544087627562,
                2.680323177647192
            ]
        },
        {
            "positions": [
                0.6003836243689646,
                -1.8921951419235146,
                2.34357547001676,
                -0.21032962463548666,
                0.6577697971808125,
                2.8313080450423995
            ]
        },
        {
            "positions": [
                0.6547181849271932,
                -1.8992387300201512,
                2.3673883768117405,
                -0.33275633786535286,
                0.686285185598869,
                2.982292912437607
            ]
        },
        {
            "positions": [
                0.7090527454854215,
                -1.9062823181167878,
                2.3912012836067205,
                -0.4551830510952193,
                0.7148005740169254,
                3.1332777798328135
            ]
        }
    ]
}