{
    "goal": {
        "global_pose": {
            "orientation": {
                "w": -0.00223480608172531,
                "x": 0.0024358444001904467,
                "y": 0.7094548369677653,
                "z": -0.704743149386269
            },
            "position": {
                "x": -0.37947507619857795,
                "y": -0.6371506643295288,
                "z": 0.19426114857196808
            }
        },
        "name": "move_to_magneteinheit_C"
    },
    "id": "BKPIECE_move_to_magneteinheit_C_1",
    "joint_names": [
        "shoulder_pan_joint",
        "shoulder_lift_joint",
        "elbow_joint",
        "wrist_1_joint",
        "wrist_2_joint",
        "wrist_3_joint"
    ],
    "metrics": {
        "cart_traj_len": 0.9546943620068761,
        "distance_elbow_joint": 0.3448908079901585,
        "distance_shoulder_lift_joint": 0.7417298548822913,
        "distance_shoulder_pan_joint": 1.2127053618297603,
        "distance_wrist_1_joint": 1.1005314269408748,
        "distance_wrist_2_joint": 1.2113069016760745,
        "distance_wrist_3_joint": 2.0505724006457315,
        "smoothness": 1.7786736817166273,
        "time": 0.307721715,
        "traj_len": 2.581034047424577,
        "weighted_distance": 3.6158982125985384
    },
    "planner": "BKPIECE",
    "start": {
        "state": {
            "elbow_joint": 1.9565354006593851,
            "shoulder_lift_joint": -1.4165861576512813,
            "shoulder_pan_joint": -1.6717766223278752,
            "wrist_1_joint": -0.528663328821883,
            "wrist_2_joint": 1.472756589259273,
            "wrist_3_joint": 3.159348288315503
        }
    },
    "waypoints": [
        {
            "positions": [
                -1.6717766223278752,
                -1.4165861576512813,
                1.9565354006593851,
                -0.528663328821883,
                1.472756589259273,
                3.159348288315503
            ]
        },
        {
            "positions": [
                -1.6046384415206227,
                -1.4784280315355784,
                2.023564722904563,
                -0.6052855903592183,
                1.5432635963221695,
                3.1182633978698577
            ]
        },
        {
            "positions": [
                -1.5375002607133705,
                -1.5402699054198759,
                2.0905940451497407,
                -0.6819078518965535,
                1.6137706033850658,
                3.077178507424212
            ]
        },
        {
            "positions": [
                -1.4703620799061181,
                -1.602111779304173,
                2.1576233673949186,
                -0.7585301134338887,
                1.6842776104479622,
                3.0360936169785666
            ]
        },
        {
            "positions": [
                -1.5962178444032231,
                -1.6095329105410623,
                2.156504306421331,
                -0.7092348963100465,
                1.6092967058656562,
                2.92119788102157
            ]
        },
        {
            "positions": [
                -1.7220736089003281,
                -1.6169540417779515,
                2.1553852454477433,
                -0.6599396791862044,
                1.5343158012833504,
                2.8063021450645733
            ]
        },
        {
            "positions": [
                -1.8479293733974331,
                -1.6243751730148406,
                2.1542661844741557,
                -0.6106444620623622,
                1.4593348967010447,
                2.691406409107577
            ]
        },
        {
            "positions": [
                -1.9737851378945384,
                -1.6317963042517298,
                2.1531471235005677,
                -0.5613492449385201,
                1.3843539921187387,
                2.5765106731505805
            ]
        },
        {
            "positions": [
                -2.099640902391643,
                -1.639217435488619,
                2.15202806252698,
                -0.512054027814678,
                1.3093730875364327,
                2.4616149371935836
            ]
        },
        {
            "positions": [
                -2.2254966668887484,
                -1.6466385667255081,
                2.1509090015533925,
                -0.46275881069083585,
                1.234392182954127,
                2.346719201236587
            ]
        },
        {
            "positions": [
                -2.3513524313858536,
                -1.6540596979623974,
                2.149789940579805,
                -0.4134635935669937,
                1.1594112783718211,
                2.2318234652795903
            ]
        },
        {
            "positions": [
                -2.4772081958829584,
                -1.6614808291992866,
                2.1486708796062173,
                -0.3641683764431516,
                1.0844303737895151,
                2.116927729322594
            ]
        },
        {
            "positions": [
                -2.476573238249935,
                -1.5905043744372458,
                2.1294065433967995,
                -0.43221164863431333,
                1.0272962818139526,
                2.260949420987283
            ]
        },
        {
            "positions": [
                -2.4759382806169117,
                -1.519527919675205,
                2.110142207187382,
                -0.5002549208254751,
                0.97016218983839,
                2.4049711126519715
            ]
        },
        {
            "positions": [
                -2.4753033229838883,
                -1.448551464913164,
                2.0908778709779643,
                -0.5682981930166369,
                0.9130280978628273,
                2.5489928043166605
            ]
        },
        {
            "positions": [
                -2.4746683653508654,
                -1.3775750101511233,
                2.0716135347685465,
                -0.6363414652077986,
                0.8558940058872648,
                2.6930144959813496
            ]
        },
        {
            "positions": [
                -2.474033407717842,
                -1.3065985553890824,
                2.0523491985591287,
                -0.7043847373989605,
                0.7987599139117022,
                2.8370361876460386
            ]
        },
        {
            "positions": [
                -2.4733984500848187,
                -1.2356221006270416,
                2.0330848623497113,
                -0.7724280095901221,
                0.7416258219361396,
                2.981057879310727
            ]
        },
        {
            "positions": [
                -2.4727634924517954,
                -1.1646456458650007,
                2.0138205261402935,
                -0.8404712817812839,
                0.6844917299605771,
                3.125079570975416
            ]
        }
    ]
}