{
    "goal": {
        "global_pose": {
            "orientation": {
                "w": 0.7031023480610252,
                "x": -0.7110244013736278,
                "y": 0.0077485991402295624,
                "z": 0.005598929693374583
            },
            "position": {
                "x": -0.8841497679147869,
                "y": 0.44412534475326537,
                "z": 0.3711530566215515
            }
        },
        "name": "move_to_auspresseinheit_D"
    },
    "id": "BKPIECE_move_to_auspresseinheit_D_135",
    "joint_names": [
        "shoulder_pan_joint",
        "shoulder_lift_joint",
        "elbow_joint",
        "wrist_1_joint",
        "wrist_2_joint",
        "wrist_3_joint"
    ],
    "metrics": {
        "cart_traj_len": 0.34354297248170607,
        "distance_elbow_joint": 0.650602468709097,
        "distance_shoulder_lift_joint": 0.12818021806907387,
        "distance_shoulder_pan_joint": 0.13415147863512752,
        "distance_wrist_1_joint": 0.5791581482035495,
        "distance_wrist_2_joint": 1.4304698193375591,
        "distance_wrist_3_joint": 0.043210927127081966,
        "smoothness": 1.578983857244667e-15,
        "time": 0.24256805399999998,
        "traj_len": 1.7221419976533552,
        "weighted_distance": 2.2498495242741816
    },
    "planner": "BKPIECE",
    "start": {
        "state": {
            "elbow_joint": -1.8275484843655228,
            "shoulder_lift_joint": -2.1267897864000416,
            "shoulder_pan_joint": -0.035127520176001514,
            "wrist_1_joint": -2.3477863256791385,
            "wrist_2_joint": -1.605890476484521,
            "wrist_3_joint": -3.0880375317375353
        }
    },
    "waypoints": [
        {
            "positions": [
                -0.035127520176001514,
                -2.1267897864000416,
                -1.8275484843655228,
                -2.3477863256791385,
                -1.605890476484521,
                -3.0880375317375353
            ]
        },
        {
            "positions": [
                -0.05189645500539246,
                -2.1428123136586756,
                -1.7462231757768856,
                -2.4201810942045823,
                -1.4270817490673262,
                -3.08263616584665
            ]
        },
        {
            "positions": [
                -0.0686653898347834,
                -2.15883484091731,
                -1.6648978671882486,
                -2.4925758627300256,
                -1.2482730216501312,
                -3.0772347999557645
            ]
        },
        {
            "positions": [
                -0.08543432466417433,
                -2.174857368175944,
                -1.5835725585996114,
                -2.5649706312554694,
                -1.0694642942329362,
                -3.0718334340648794
            ]
        },
        {
            "positions": [
                -0.10220325949356528,
                -2.1908798954345787,
                -1.5022472500109743,
                -2.6373653997809132,
                -0.8906555668157414,
                -3.0664320681739943
            ]
        },
        {
            "positions": [
                -0.11897219432295622,
                -2.206902422693213,
                -1.420921941422337,
                -2.709760168306357,
                -0.7118468393985465,
                -3.061030702283109
            ]
        },
        {
            "positions": [
                -0.13574112915234715,
                -2.222924949951847,
                -1.3395966328337,
                -2.782154936831801,
                -0.5330381119813516,
                -3.055629336392224
            ]
        },
        {
            "positions": [
                -0.1525100639817381,
                -2.2389474772104814,
                -1.258271324245063,
                -2.854549705357244,
                -0.35422938456415687,
                -3.0502279705013384
            ]
        },
        {
            "positions": [
                -0.16927899881112904,
                -2.2549700044691154,
                -1.1769460156564258,
                -2.926944473882688,
                -0.17542065714696192,
                -3.0448266046104533
            ]
        }
    ]
}