{
    "goal": {
        "global_pose": {
            "orientation": {
                "w": 0.7047431493862688,
                "x": -0.7094548369677653,
                "y": 0.0024358444001904,
                "z": -0.0022348060817251984
            },
            "position": {
                "x": -0.39052492380142206,
                "y": 0.3671506643295288,
                "z": 0.19426114857196808
            }
        },
        "name": "move_to_magneteinheit_D"
    },
    "id": "BKPIECE_move_to_magneteinheit_D_95",
    "joint_names": [
        "shoulder_pan_joint",
        "shoulder_lift_joint",
        "elbow_joint",
        "wrist_1_joint",
        "wrist_2_joint",
        "wrist_3_joint"
    ],
    "metrics": {
        "cart_traj_len": 4.429736082039415,
        "distance_elbow_joint": 3.115432654075502,
        "distance_shoulder_lift_joint": 1.2642770781007344,
        "distance_shoulder_pan_joint": 3.220945857553383,
        "distance_wrist_1_joint": 4.351715168746255,
        "distance_wrist_2_joint": 1.879908965420677,
        "distance_wrist_3_joint": 2.7375996792945627,
        "smoothness": 0.4455752954953027,
        "time": 0.2555854,
        "traj_len": 4.070611674329929,
        "weighted_distance": 5.31758431018702
    },
    "planner": "BKPIECE",
    "start": {
        "state": {
            "elbow_joint": 0.7495348899011911,
            "shoulder_lift_joint": -0.6476975780737668,
            "shoulder_pan_joint": -2.711696901376276,
            "wrist_1_joint": -0.0750647808097303,
            "wrist_2_joint": 0.43296659715458535,
            "wrist_3_joint": 3.1361499051832418
        }
    },
    "waypoints": [
        {
            "positions": [
                -2.711696901376276,
                -0.6476975780737668,
                0.7495348899011911,
                -0.0750647808097303,
                0.43296659715458535,
                3.1361499051832418
            ]
        },
        {
            "positions": [
                -2.735199562787468,
                -0.6383683636678963,
                0.72143863516842,
                0.029973306285352455,
                0.3878230178733583,
                2.983950724535904
            ]
        },
        {
            "positions": [
                -2.7587022241986596,
                -0.6290391492620258,
                0.6933423804356489,
                0.13501139338043522,
                0.3426794385921313,
                2.8317515438885654
            ]
        },
        {
            "positions": [
                -2.7822048856098514,
                -0.6197099348561552,
                0.6652461257028778,
                0.24004948047551794,
                0.2975358593109042,
                2.6795523632412275
            ]
        },
        {
            "positions": [
                -2.805707547021043,
                -0.6103807204502847,
                0.6371498709701067,
                0.3450875675706007,
                0.2523922800296772,
                2.527353182593889
            ]
        },
        {
            "positions": [
                -2.8292102084322353,
                -0.6010515060444143,
                0.6090536162373356,
                0.4501256546656835,
                0.20724870074845012,
                2.375154001946551
            ]
        },
        {
            "positions": [
                -2.852712869843427,
                -0.5917222916385437,
                0.5809573615045645,
                0.5551637417607661,
                0.1621051214672231,
                2.222954821299213
            ]
        },
        {
            "positions": [
                -2.8762155312546187,
                -0.5823930772326732,
                0.5528611067717933,
                0.660201828855849,
                0.11696154218599603,
                2.070755640651875
            ]
        },
        {
            "positions": [
                -2.8997181926658104,
                -0.5730638628268027,
                0.5247648520390222,
                0.7652399159509317,
                0.07181796290476905,
                1.9185564600045368
            ]
        },
        {
            "positions": [
                -2.923220854077002,
                -0.5637346484209321,
                0.4966685973062511,
                0.8702780030460144,
                0.026674383623541936,
                1.7663572793571987
            ]
        },
        {
            "positions": [
                -2.8332085417580757,
                -0.5834560916133427,
                0.3807577360531867,
                0.9076249916642782,
                0.11767357287529662,
                1.800626817101234
            ]
        },
        {
            "positions": [
                -2.7431962294391488,
                -0.6031775348057533,
                0.26484687480012226,
                0.944971980282542,
                0.2086727621270513,
                1.8348963548452697
            ]
        },
        {
            "positions": [
                -2.6531839171202223,
                -0.6228989779981638,
                0.14893601354705788,
                0.9823189689008058,
                0.299671951378806,
                1.869165892589305
            ]
        },
        {
            "positions": [
                -2.5631716048012954,
                -0.6426204211905745,
                0.03302515229399339,
                1.0196659575190696,
                0.39067114063056063,
                1.9034354303333407
            ]
        },
        {
            "positions": [
                -2.473159292482369,
                -0.662341864382985,
                -0.08288570895907096,
                1.0570129461373334,
                0.48167032988231534,
                1.9377049680773761
            ]
        },
        {
            "positions": [
                -2.3784875364612272,
                -0.7018170984830168,
                -0.15263049209245944,
                0.9358121734197807,
                0.44737881266877905,
                1.9603452342426226
            ]
        },
        {
            "positions": [
                -2.283815780440085,
                -0.7412923325830485,
                -0.2223752752258479,
                0.814611400702228,
                0.4130872954552427,
                1.9829855004078691
            ]
        },
        {
            "positions": [
                -2.1891440244189435,
                -0.7807675666830803,
                -0.2921200583592364,
                0.6934106279846752,
                0.3787957782417064,
                2.0056257665731154
            ]
        },
        {
            "positions": [
                -2.094472268397802,
                -0.8202428007831121,
                -0.3618648414926249,
                0.5722098552671225,
                0.3445042610281701,
                2.028266032738362
            ]
        },
        {
            "positions": [
                -1.9998005123766598,
                -0.8597180348831438,
                -0.4316096246260134,
                0.45100908254956973,
                0.31021274381463376,
                2.0509062989036084
            ]
        },
        {
            "positions": [
                -1.9051287563555181,
                -0.8991932689831756,
                -0.5013544077594018,
                0.32980830983201703,
                0.27592122660109747,
                2.073546565068855
            ]
        },
        {
            "positions": [
                -1.8104570003343763,
                -0.9386685030832074,
                -0.5710991908927903,
                0.20860753711446423,
                0.24162970938756115,
                2.0961868312341014
            ]
        },
        {
            "positions": [
                -1.7157852443132346,
                -0.9781437371832391,
                -0.6408439740261788,
                0.08740676439691164,
                0.20733819217402488,
                2.118827097399348
            ]
        },
        {
            "positions": [
                -1.6211134882920928,
                -1.0176189712832708,
                -0.7105887571595673,
                -0.03379400832064117,
                0.17304667496048853,
                2.1414673635645944
            ]
        },
        {
            "positions": [
                -1.526441732270951,
                -1.0570942053833026,
                -0.7803335402929558,
                -0.15499478103819397,
                0.13875515774695218,
                2.164107629729841
            ]
        },
        {
            "positions": [
                -1.4317699762498093,
                -1.0965694394833343,
                -0.8500783234263442,
                -0.27619555375574656,
                0.10446364053341595,
                2.1867478958950874
            ]
        },
        {
            "positions": [
                -1.3370982202286674,
                -1.136044673583366,
                -0.9198231065597327,
                -0.39739632647329937,
                0.0701721233198796,
                2.2093881620603337
            ]
        },
        {
            "positions": [
                -1.2424264642075258,
                -1.1755199076833978,
                -0.989567889693121,
                -0.518597099190852,
                0.035880606106343305,
                2.2320284282255805
            ]
        },
        {
            "positions": [
                -1.1477547081863837,
                -1.2149951417834297,
                -1.0593126728265096,
                -0.639797871908405,
                0.0015890888928069558,
                2.254668694390827
            ]
        },
        {
            "positions": [
                -1.053082952165242,
                -1.2544703758834614,
                -1.129057455959898,
                -0.7609986446259576,
                -0.03270242832072928,
                2.2773089605560735
            ]
        },
        {
            "positions": [
                -0.9584111961441004,
                -1.2939456099834932,
                -1.1988022390932864,
                -0.8821994173435102,
                -0.06699394553426558,
                2.2999492267213197
            ]
        },
        {
            "positions": [
                -0.8637394401229583,
                -1.3334208440835251,
                -1.268547022226675,
                -1.0034001900610632,
                -0.10128546274780198,
                2.3225894928865665
            ]
        },
        {
            "positions": [
                -0.7690676841018167,
                -1.3728960781835566,
                -1.3382918053600634,
                -1.1246009627786158,
                -0.13557697996133827,
                2.3452297590518127
            ]
        },
        {
            "positions": [
                -0.6743959280806751,
                -1.4123713122835884,
                -1.4080365884934518,
                -1.2458017354961683,
                -0.16986849717487457,
                2.3678700252170595
            ]
        },
        {
            "positions": [
                -0.579724172059533,
                -1.4518465463836203,
                -1.4777813716268404,
                -1.3670025082137214,
                -0.20416001438841097,
                2.3905102913823058
            ]
        },
        {
            "positions": [
                -0.48505241603839133,
                -1.491321780483652,
                -1.5475261547602288,
                -1.488203280931274,
                -0.23845153160194726,
                2.4131505575475525
            ]
        },
        {
            "positions": [
                -0.3903806600172497,
                -1.5307970145836838,
                -1.6172709378936172,
                -1.6094040536488265,
                -0.27274304881548345,
                2.4357908237127988
            ]
        },
        {
            "positions": [
                -0.2957089039961076,
                -1.5702722486837155,
                -1.6870157210270058,
                -1.7306048263663796,
                -0.30703456602901985,
                2.4584310898780455
            ]
        },
        {
            "positions": [
                -0.20103714797496605,
                -1.6097474827837472,
                -1.7567605041603942,
                -1.8518055990839322,
                -0.3413260832425561,
                2.4810713560432918
            ]
        },
        {
            "positions": [
                -0.16327080220519935,
                -1.6386291250395089,
                -1.835357004212479,
                -1.9226452807275978,
                -0.3460304752731721,
                2.6282236054274617
            ]
        },
        {
            "positions": [
                -0.12550445643543262,
                -1.6675107672952703,
                -1.9139535042645635,
                -1.9934849623712636,
                -0.3507348673037881,
                2.7753758548116316
            ]
        },
        {
            "positions": [
                -0.08773811066566592,
                -1.6963924095510317,
                -1.992550004316648,
                -2.064324644014929,
                -0.3554392593344041,
                2.9225281041958016
            ]
        },
        {
            "positions": [
                -0.04997176489589922,
                -1.7252740518067933,
                -2.0711465043687327,
                -2.135164325658595,
                -0.36014365136502013,
                3.0696803535799715
            ]
        },
        {
            "positions": [
                -0.11805817273167625,
                -1.7346614243378125,
                -2.218522134271522,
                -2.1488944106602257,
                -0.27174023917325774,
                3.101922343202845
            ]
        },
        {
            "positions": [
                -0.18614458056745328,
                -1.7440487968688319,
                -2.3658977641743113,
                -2.1626244956618565,
                -0.1833368269814953,
                3.1341643328257183
            ]
        }
    ]
}