{
    "goal": {
        "global_pose": {
            "orientation": {
                "w": 0.005598929693374612,
                "x": 0.007748599140229565,
                "y": 0.7110244013736278,
                "z": -0.7031023480610252
            },
            "position": {
                "x": -0.8858502320852131,
                "y": -0.7141253447532654,
                "z": 0.3711530566215515
            }
        },
        "name": "move_to_auspresseinheit_C"
    },
    "id": "BKPIECE_move_to_auspresseinheit_C_81",
    "joint_names": [
        "shoulder_pan_joint",
        "shoulder_lift_joint",
        "elbow_joint",
        "wrist_1_joint",
        "wrist_2_joint",
        "wrist_3_joint"
    ],
    "metrics": {
        "cart_traj_len": 0.4935501990018132,
        "distance_elbow_joint": 1.0065088715541517,
        "distance_shoulder_lift_joint": 0.32708371789420176,
        "distance_shoulder_pan_joint": 0.256768816465625,
        "distance_wrist_1_joint": 0.700897666070547,
        "distance_wrist_2_joint": 1.3041757864498043,
        "distance_wrist_3_joint": 0.08242637855571511,
        "smoothness": 0.0,
        "time": 0.154397752,
        "traj_len": 1.9177750746607498,
        "weighted_distance": 2.4182198921152365
    },
    "planner": "BKPIECE",
    "start": {
        "state": {
            "elbow_joint": 1.7527959577730765,
            "shoulder_lift_joint": -0.9740617694224828,
            "shoulder_pan_joint": -2.967991417825869,
            "wrist_1_joint": -0.7595177689779385,
            "wrist_2_joint": 1.7443932448376545,
            "wrist_3_joint": 3.1991315425061013
        }
    },
    "waypoints": [
        {
            "positions": [
                -2.967991417825869,
                -0.9740617694224828,
                1.7527959577730765,
                -0.7595177689779385,
                1.7443932448376545,
                3.1991315425061013
            ]
        },
        {
            "positions": [
                -2.9423145361793064,
                -0.9413533976330626,
                1.6521450706176612,
                -0.6894280023708839,
                1.613975666192674,
                3.1908889046505298
            ]
        },
        {
            "positions": [
                -2.916637654532744,
                -0.9086450258436425,
                1.5514941834622462,
                -0.6193382357638291,
                1.4835580875476935,
                3.182646266794958
            ]
        },
        {
            "positions": [
                -2.8909607728861815,
                -0.8759366540542223,
                1.450843296306831,
                -0.5492484691567745,
                1.353140508902713,
                3.1744036289393867
            ]
        },
        {
            "positions": [
                -2.8652838912396192,
                -0.8432282822648021,
                1.3501924091514157,
                -0.4791587025497197,
                1.2227229302577327,
                3.166160991083815
            ]
        },
        {
            "positions": [
                -2.8396070095930566,
                -0.810519910475382,
                1.2495415219960007,
                -0.409068935942665,
                1.0923053516127523,
                3.1579183532282435
            ]
        },
        {
            "positions": [
                -2.813930127946494,
                -0.7778115386859618,
                1.1488906348405856,
                -0.33897916933561034,
                0.961887772967772,
                3.1496757153726724
            ]
        },
        {
            "positions": [
                -2.7882532462999317,
                -0.7451031668965415,
                1.0482397476851704,
                -0.26888940272855566,
                0.8314701943227916,
                3.141433077517101
            ]
        },
        {
            "positions": [
                -2.762576364653369,
                -0.7123947951071214,
                0.9475888605297551,
                -0.19879963612150087,
                0.701052615677811,
                3.1331904396615293
            ]
        },
        {
            "positions": [
                -2.7368994830068067,
                -0.6796864233177011,
                0.84693797337434,
                -0.12870986951444618,
                0.5706350370328306,
                3.1249478018059578
            ]
        },
        {
            "positions": [
                -2.711222601360244,
                -0.646978051528281,
                0.7462870862189249,
                -0.05862010290739147,
                0.4402174583878503,
                3.116705163950386
            ]
        }
    ]
}