{
    "goal": {
        "global_pose": {
            "orientation": {
                "w": 0.7031023480610252,
                "x": -0.7110244013736278,
                "y": 0.0077485991402295624,
                "z": 0.005598929693374583
            },
            "position": {
                "x": -0.8841497679147869,
                "y": 0.44412534475326537,
                "z": 0.3711530566215515
            }
        },
        "name": "move_to_auspresseinheit_D"
    },
    "id": "BKPIECE_move_to_auspresseinheit_D_22",
    "joint_names": [
        "shoulder_pan_joint",
        "shoulder_lift_joint",
        "elbow_joint",
        "wrist_1_joint",
        "wrist_2_joint",
        "wrist_3_joint"
    ],
    "metrics": {
        "cart_traj_len": 0.3434329436494451,
        "distance_elbow_joint": 0.6420390829421931,
        "distance_shoulder_lift_joint": 0.12287752553634501,
        "distance_shoulder_pan_joint": 0.13388075440489844,
        "distance_wrist_1_joint": 0.5464423053420084,
        "distance_wrist_2_joint": 1.430546273425781,
        "distance_wrist_3_joint": 0.014682954202698273,
        "smoothness": 1.9737298371844314e-16,
        "time": 0.153884093,
        "traj_len": 1.7001379049518084,
        "weighted_distance": 2.212876721154414
    },
    "planner": "BKPIECE",
    "start": {
        "state": {
            "elbow_joint": -1.8275484843655228,
            "shoulder_lift_joint": -2.1267897864000416,
            "shoulder_pan_joint": -0.035127520176001514,
            "wrist_1_joint": -2.3477863256791385,
            "wrist_2_joint": -1.605890476484521,
            "wrist_3_joint": -3.0880375317375353
        }
    },
    "waypoints": [
        {
            "positions": [
                -0.035127520176001514,
                -2.1267897864000416,
                -1.8275484843655228,
                -2.3477863256791385,
                -1.605890476484521,
                -3.0880375317375353
            ]
        },
        {
            "positions": [
                -0.05186261447661382,
                -2.142149477092085,
                -1.7472935989977487,
                -2.4160916138468895,
                -1.4270721923062983,
                -3.086202162462198
            ]
        },
        {
            "positions": [
                -0.06859770877722612,
                -2.157509167784128,
                -1.6670387136299745,
                -2.4843969020146406,
                -1.2482539081280757,
                -3.084366793186861
            ]
        },
        {
            "positions": [
                -0.08533280307783843,
                -2.172868858476171,
                -1.5867838282622002,
                -2.5527021901823916,
                -1.069435623949853,
                -3.0825314239115236
            ]
        },
        {
            "positions": [
                -0.10206789737845073,
                -2.188228549168214,
                -1.5065289428944262,
                -2.6210074783501427,
                -0.8906173397716305,
                -3.080696054636186
            ]
        },
        {
            "positions": [
                -0.11880299167906304,
                -2.2035882398602573,
                -1.4262740575266522,
                -2.6893127665178937,
                -0.7117990555934078,
                -3.0788606853608487
            ]
        },
        {
            "positions": [
                -0.13553808597967534,
                -2.2189479305523,
                -1.346019172158878,
                -2.757618054685645,
                -0.5329807714151853,
                -3.0770253160855114
            ]
        },
        {
            "positions": [
                -0.15227318028028763,
                -2.2343076212443433,
                -1.2657642867911036,
                -2.825923342853396,
                -0.35416248723696264,
                -3.075189946810174
            ]
        },
        {
            "positions": [
                -0.16900827458089995,
                -2.2496673119363866,
                -1.1855094014233296,
                -2.894228631021147,
                -0.17534420305874004,
                -3.073354577534837
            ]
        }
    ]
}