{
    "goal": {
        "global_pose": {
            "orientation": {
                "w": -0.4816463035849501,
                "x": 0.5182115481033762,
                "y": 0.4908360881923453,
                "z": -0.5084816262002911
            },
            "position": {
                "x": -0.8240239810943604,
                "y": -0.300875300988555,
                "z": 0.16403168439865112
            }
        },
        "name": "move_to_storage_C"
    },
    "id": "BKPIECE_move_to_storage_C_11",
    "joint_names": [
        "shoulder_pan_joint",
        "shoulder_lift_joint",
        "elbow_joint",
        "wrist_1_joint",
        "wrist_2_joint",
        "wrist_3_joint"
    ],
    "metrics": {
        "cart_traj_len": 0.5776744373046196,
        "distance_elbow_joint": 0.2581192183345824,
        "distance_shoulder_lift_joint": 0.19021426016503595,
        "distance_shoulder_pan_joint": 0.4946354957611647,
        "distance_wrist_1_joint": 0.07268335332374909,
        "distance_wrist_2_joint": 1.0741889430603935,
        "distance_wrist_3_joint": 0.05592490614118795,
        "smoothness": 0.0,
        "time": 0.277051308,
        "traj_len": 1.4648433966762842,
        "weighted_distance": 1.8451255473415982
    },
    "planner": "BKPIECE",
    "start": {
        "state": {
            "elbow_joint": 2.0108683149792914,
            "shoulder_lift_joint": -1.1634956873317392,
            "shoulder_pan_joint": -2.4736205022346,
            "wrist_1_joint": -0.8367026793690192,
            "wrist_2_joint": 0.6746043897045053,
            "wrist_3_joint": 3.133522094754363
        }
    },
    "waypoints": [
        {
            "positions": [
                -2.4736205022346,
                -1.1634956873317392,
                2.0108683149792914,
                -0.8367026793690192,
                0.6746043897045053,
                3.133522094754363
            ]
        },
        {
            "positions": [
                -2.5560597515281276,
                -1.1317933106375666,
                1.967848445256861,
                -0.8245887871483943,
                0.8536358802145709,
                3.142842912444561
            ]
        },
        {
            "positions": [
                -2.638499000821655,
                -1.100090933943394,
                1.9248285755344305,
                -0.8124748949277695,
                1.0326673707246363,
                3.152163730134759
            ]
        },
        {
            "positions": [
                -2.720938250115182,
                -1.0683885572492213,
                1.8818087058120003,
                -0.8003610027071446,
                1.211698861234702,
                3.161484547824957
            ]
        },
        {
            "positions": [
                -2.8033774994087097,
                -1.0366861805550487,
                1.8387888360895699,
                -0.7882471104865199,
                1.3907303517447676,
                3.170805365515155
            ]
        },
        {
            "positions": [
                -2.8858167487022373,
                -1.0049838038608758,
                1.7957689663671395,
                -0.776133218265895,
                1.5697618422548332,
                3.180126183205353
            ]
        },
        {
            "positions": [
                -2.968255997995765,
                -0.9732814271667033,
                1.752749096644709,
                -0.7640193260452701,
                1.7487933327648988,
                3.189447000895551
            ]
        }
    ]
}