{
    "goal": {
        "global_pose": {
            "orientation": {
                "w": -0.00223480608172531,
                "x": 0.0024358444001904467,
                "y": 0.7094548369677653,
                "z": -0.704743149386269
            },
            "position": {
                "x": 0.6205249238014221,
                "y": -0.6371506643295288,
                "z": 0.19426114857196808
            }
        },
        "name": "move_to_magneteinheit_B"
    },
    "id": "BKPIECE_move_to_magneteinheit_B_84",
    "joint_names": [
        "shoulder_pan_joint",
        "shoulder_lift_joint",
        "elbow_joint",
        "wrist_1_joint",
        "wrist_2_joint",
        "wrist_3_joint"
    ],
    "metrics": {
        "cart_traj_len": 1.4522740136887313,
        "distance_elbow_joint": 0.7308781005416864,
        "distance_shoulder_lift_joint": 1.2497328020621707,
        "distance_shoulder_pan_joint": 1.6203273876094886,
        "distance_wrist_1_joint": 2.602283291025034,
        "distance_wrist_2_joint": 2.939187815915831,
        "distance_wrist_3_joint": 3.15490079306862,
        "smoothness": 5.652044526163903e-16,
        "time": 0.16200824,
        "traj_len": 3.506752085651741,
        "weighted_distance": 4.9141207640127185
    },
    "planner": "BKPIECE",
    "start": {
        "state": {
            "elbow_joint": 2.393587130804639,
            "shoulder_lift_joint": -1.9085141043513325,
            "shoulder_pan_joint": 0.7066247066698809,
            "wrist_1_joint": -0.4678290934590222,
            "wrist_2_joint": 0.7096259084215963,
            "wrist_3_joint": 3.147370379541726
        }
    },
    "waypoints": [
        {
            "positions": [
                0.7066247066698809,
                -1.9085141043513325,
                2.393587130804639,
                -0.4678290934590222,
                0.7096259084215963,
                3.147370379541726
            ]
        },
        {
            "positions": [
                0.6559894758070843,
                -1.8694599542868897,
                2.370747190162711,
                -0.38650774061448984,
                0.6177762891742267,
                3.0487797297583317
            ]
        },
        {
            "positions": [
                0.6053542449442878,
                -1.830405804222447,
                2.3479072495207833,
                -0.30518638776995755,
                0.525926669926857,
                2.9501890799749373
            ]
        },
        {
            "positions": [
                0.5547190140814913,
                -1.791351654158004,
                2.3250673088788556,
                -0.2238650349254252,
                0.4340770506794872,
                2.851598430191543
            ]
        },
        {
            "positions": [
                0.5040837832186948,
                -1.752297504093561,
                2.302227368236928,
                -0.14254368208089285,
                0.34222743143211753,
                2.7530077804081485
            ]
        },
        {
            "positions": [
                0.45344855235589826,
                -1.7132433540291183,
                2.279387427595,
                -0.061222329236360506,
                0.25037781218474786,
                2.654417130624754
            ]
        },
        {
            "positions": [
                0.4028133214931018,
                -1.6741892039646755,
                2.256547486953073,
                0.020099023608171784,
                0.15852819293737808,
                2.5558264808413598
            ]
        },
        {
            "positions": [
                0.35217809063030525,
                -1.6351350539002327,
                2.233707546311145,
                0.10142037645270413,
                0.0666785736900084,
                2.4572358310579654
            ]
        },
        {
            "positions": [
                0.3015428597675087,
                -1.59608090383579,
                2.2108676056692174,
                0.18274172929723648,
                -0.02517104555736127,
                2.358645181274571
            ]
        },
        {
            "positions": [
                0.2509076289047122,
                -1.557026753771347,
                2.1880276650272896,
                0.2640630821417688,
                -0.11702066480473095,
                2.2600545314911766
            ]
        },
        {
            "positions": [
                0.20027239804191566,
                -1.5179726037069041,
                2.165187724385362,
                0.34538443498630117,
                -0.20887028405210062,
                2.1614638817077823
            ]
        },
        {
            "positions": [
                0.14963716717911912,
                -1.4789184536424613,
                2.142347783743434,
                0.4267057878308335,
                -0.3007199032994703,
                2.062873231924388
            ]
        },
        {
            "positions": [
                0.0990019363163227,
                -1.4398643035780185,
                2.1195078431015064,
                0.5080271406753658,
                -0.3925695225468402,
                1.9642825821409935
            ]
        },
        {
            "positions": [
                0.04836670545352617,
                -1.4008101535135755,
                2.0966679024595787,
                0.5893484935198983,
                -0.48441914179420986,
                1.8656919323575991
            ]
        },
        {
            "positions": [
                -0.002268525409270361,
                -1.3617560034491327,
                2.073827961817651,
                0.6706698463644305,
                -0.5762687610415795,
                1.7671012825742047
            ]
        },
        {
            "positions": [
                -0.05290375627206689,
                -1.32270185338469,
                2.050988021175723,
                0.751991199208963,
                -0.6681183802889492,
                1.6685106327908104
            ]
        },
        {
            "positions": [
                -0.10353898713486342,
                -1.2836477033202471,
                2.0281480805337955,
                0.8333125520534952,
                -0.7599679995363189,
                1.569919983007416
            ]
        },
        {
            "positions": [
                -0.15417421799765996,
                -1.2445935532558043,
                2.0053081398918677,
                0.9146339048980274,
                -0.8518176187836886,
                1.4713293332240216
            ]
        },
        {
            "positions": [
                -0.2048094488604565,
                -1.2055394031913615,
                1.9824681992499402,
                0.9959552577425599,
                -0.9436672380310582,
                1.3727386834406272
            ]
        },
        {
            "positions": [
                -0.255444679723253,
                -1.1664852531269188,
                1.9596282586080125,
                1.0772766105870921,
                -1.035516857278428,
                1.2741480336572328
            ]
        },
        {
            "positions": [
                -0.30607991058604955,
                -1.1274311030624757,
                1.9367883179660847,
                1.1585979634316246,
                -1.1273664765257976,
                1.1755573838738385
            ]
        },
        {
            "positions": [
                -0.356715141448846,
                -1.088376952998033,
                1.913948377324157,
                1.2399193162761568,
                -1.2192160957731675,
                1.076966734090444
            ]
        },
        {
            "positions": [
                -0.4073503723116426,
                -1.0493228029335901,
                1.8911084366822295,
                1.3212406691206893,
                -1.311065715020537,
                0.9783760843070497
            ]
        },
        {
            "positions": [
                -0.45798560317443904,
                -1.0102686528691471,
                1.8682684960403018,
                1.4025620219652215,
                -1.4029153342679066,
                0.8797854345236553
            ]
        },
        {
            "positions": [
                -0.5086208340372355,
                -0.9712145028047044,
                1.845428555398374,
                1.4838833748097537,
                -1.4947649535152767,
                0.7811947847402609
            ]
        },
        {
            "positions": [
                -0.5592560649000321,
                -0.9321603527402617,
                1.8225886147564463,
                1.565204727654286,
                -1.5866145727626464,
                0.6826041349568666
            ]
        },
        {
            "positions": [
                -0.6098912957628285,
                -0.8931062026758187,
                1.7997486741145186,
                1.6465260804988187,
                -1.678464192010016,
                0.5840134851734722
            ]
        },
        {
            "positions": [
                -0.6605265266256252,
                -0.854052052611376,
                1.7769087334725908,
                1.727847433343351,
                -1.7703138112573857,
                0.4854228353900778
            ]
        },
        {
            "positions": [
                -0.7111617574884216,
                -0.8149979025469332,
                1.754068792830663,
                1.8091687861878831,
                -1.8621634305047554,
                0.3868321856066834
            ]
        },
        {
            "positions": [
                -0.7617969883512182,
                -0.7759437524824904,
                1.7312288521887353,
                1.8904901390324154,
                -1.954013049752125,
                0.28824153582328904
            ]
        },
        {
            "positions": [
                -0.8124322192140147,
                -0.7368896024180474,
                1.7083889115468076,
                1.971811491876948,
                -2.0458626689994945,
                0.18965088603989466
            ]
        },
        {
            "positions": [
                -0.8630674500768113,
                -0.6978354523536046,
                1.68554897090488,
                2.05313284472148,
                -2.137712288246864,
                0.09106023625650028
            ]
        },
        {
            "positions": [
                -0.9137026809396078,
                -0.6587813022891618,
                1.6627090302629524,
                2.1344541975660123,
                -2.2295619074942343,
                -0.007530413526894302
            ]
        }
    ]
}