{
    "goal": {
        "global_pose": {
            "orientation": {
                "w": 0.005598929693374612,
                "x": 0.007748599140229565,
                "y": 0.7110244013736278,
                "z": -0.7031023480610252
            },
            "position": {
                "x": -0.8858502320852131,
                "y": -0.7141253447532654,
                "z": 0.3711530566215515
            }
        },
        "name": "move_to_auspresseinheit_C"
    },
    "id": "BKPIECE_move_to_auspresseinheit_C_37",
    "joint_names": [
        "shoulder_pan_joint",
        "shoulder_lift_joint",
        "elbow_joint",
        "wrist_1_joint",
        "wrist_2_joint",
        "wrist_3_joint"
    ],
    "metrics": {
        "cart_traj_len": 0.4935397946308585,
        "distance_elbow_joint": 1.0164435301679633,
        "distance_shoulder_lift_joint": 0.3329996336430956,
        "distance_shoulder_pan_joint": 0.25512636586925375,
        "distance_wrist_1_joint": 0.7063487279762413,
        "distance_wrist_2_joint": 1.3222123531141208,
        "distance_wrist_3_joint": 0.07401685986439288,
        "smoothness": 3.2297397335745243e-16,
        "time": 0.288663571,
        "traj_len": 1.92539540630881,
        "weighted_distance": 2.4256426512275495
    },
    "planner": "BKPIECE",
    "start": {
        "state": {
            "elbow_joint": 1.7527959577730765,
            "shoulder_lift_joint": -0.9740617694224828,
            "shoulder_pan_joint": -2.967991417825869,
            "wrist_1_joint": -0.7595177689779385,
            "wrist_2_joint": 1.7443932448376545,
            "wrist_3_joint": 3.1991315425061013
        }
    },
    "waypoints": [
        {
            "positions": [
                -2.967991417825869,
                -0.9740617694224828,
                1.7527959577730765,
                -0.7595177689779385,
                1.7443932448376545,
                3.1991315425061013
            ]
        },
        {
            "positions": [
                -2.9424787812389437,
                -0.9407618060581733,
                1.6511516047562802,
                -0.6888828961803144,
                1.6121720095262424,
                3.191729856519662
            ]
        },
        {
            "positions": [
                -2.9169661446520183,
                -0.9074618426938637,
                1.549507251739484,
                -0.6182480233826902,
                1.4799507742148303,
                3.184328170533223
            ]
        },
        {
            "positions": [
                -2.891453508065093,
                -0.8741618793295541,
                1.4478628987226876,
                -0.5476131505850662,
                1.3477295389034183,
                3.1769264845467835
            ]
        },
        {
            "positions": [
                -2.8659408714781676,
                -0.8408619159652445,
                1.346218545705891,
                -0.476978277787442,
                1.215508303592006,
                3.169524798560344
            ]
        },
        {
            "positions": [
                -2.840428234891242,
                -0.807561952600935,
                1.244574192689095,
                -0.4063434049898179,
                1.083287068280594,
                3.162123112573905
            ]
        },
        {
            "positions": [
                -2.814915598304317,
                -0.7742619892366255,
                1.1429298396722984,
                -0.3357085321921938,
                0.951065832969182,
                3.1547214265874657
            ]
        },
        {
            "positions": [
                -2.7894029617173914,
                -0.7409620258723159,
                1.0412854866555024,
                -0.26507365939456967,
                0.81884459765777,
                3.1473197406010263
            ]
        },
        {
            "positions": [
                -2.763890325130466,
                -0.7076620625080063,
                0.9396411336387058,
                -0.19443878659694547,
                0.6866233623463578,
                3.139918054614587
            ]
        },
        {
            "positions": [
                -2.7383776885435407,
                -0.6743620991436967,
                0.8379967806219095,
                -0.12380391379932143,
                0.5544021270349457,
                3.132516368628148
            ]
        },
        {
            "positions": [
                -2.7128650519566153,
                -0.6410621357793872,
                0.7363524276051132,
                -0.05316904100169732,
                0.42218089172353374,
                3.1251146826417084
            ]
        }
    ]
}