{
    "goal": {
        "global_pose": {
            "orientation": {
                "w": -0.00223480608172531,
                "x": 0.0024358444001904467,
                "y": 0.7094548369677653,
                "z": -0.704743149386269
            },
            "position": {
                "x": 0.6205249238014221,
                "y": -0.6371506643295288,
                "z": 0.19426114857196808
            }
        },
        "name": "move_to_magneteinheit_B"
    },
    "id": "BKPIECE_move_to_magneteinheit_B_58",
    "joint_names": [
        "shoulder_pan_joint",
        "shoulder_lift_joint",
        "elbow_joint",
        "wrist_1_joint",
        "wrist_2_joint",
        "wrist_3_joint"
    ],
    "metrics": {
        "cart_traj_len": 1.45361372887157,
        "distance_elbow_joint": 0.7331066684184435,
        "distance_shoulder_lift_joint": 1.2511217481985968,
        "distance_shoulder_pan_joint": 1.6202697466177978,
        "distance_wrist_1_joint": 2.6032920960017036,
        "distance_wrist_2_joint": 2.945248081520056,
        "distance_wrist_3_joint": 3.1584699101773364,
        "smoothness": 2.153159822383016e-16,
        "time": 0.152503697,
        "traj_len": 3.508775890668131,
        "weighted_distance": 4.9170100924047695
    },
    "planner": "BKPIECE",
    "start": {
        "state": {
            "elbow_joint": 2.393587130804639,
            "shoulder_lift_joint": -1.9085141043513325,
            "shoulder_pan_joint": 0.7066247066698809,
            "wrist_1_joint": -0.4678290934590222,
            "wrist_2_joint": 0.7096259084215963,
            "wrist_3_joint": 3.147370379541726
        }
    },
    "waypoints": [
        {
            "positions": [
                0.7066247066698809,
                -1.9085141043513325,
                2.393587130804639,
                -0.4678290934590222,
                0.7096259084215963,
                3.147370379541726
            ]
        },
        {
            "positions": [
                0.6559912770880747,
                -1.8694165497201263,
                2.3706775474165624,
                -0.38647621545896893,
                0.6175869058740946,
                3.0486681948486845
            ]
        },
        {
            "positions": [
                0.6053578475062685,
                -1.8303189950889203,
                2.347767964028486,
                -0.30512333745891573,
                0.5255479033265928,
                2.9499660101556424
            ]
        },
        {
            "positions": [
                0.5547244179244624,
                -1.791221440457714,
                2.3248583806404097,
                -0.22377045945886248,
                0.4335089007790911,
                2.851263825462601
            ]
        },
        {
            "positions": [
                0.5040909883426561,
                -1.7521238858265078,
                2.3019487972523334,
                -0.14241758145880923,
                0.34146989823158935,
                2.7525616407695592
            ]
        },
        {
            "positions": [
                0.45345755876085,
                -1.7130263311953018,
                2.279039213864257,
                -0.061064703458755976,
                0.2494308956840876,
                2.653859456076517
            ]
        },
        {
            "positions": [
                0.40282412917904376,
                -1.6739287765640956,
                2.2561296304761806,
                0.02028817454129722,
                0.15739189313658586,
                2.5551572713834756
            ]
        },
        {
            "positions": [
                0.3521906995972376,
                -1.6348312219328895,
                2.2332200470881043,
                0.10164105254135053,
                0.06535289058908411,
                2.4564550866904336
            ]
        },
        {
            "positions": [
                0.3015572700154314,
                -1.5957336673016833,
                2.210310463700028,
                0.18299393054140373,
                -0.026686111958417635,
                2.357752901997392
            ]
        },
        {
            "positions": [
                0.25092384043362526,
                -1.556636112670477,
                2.1874008803119516,
                0.2643468085414569,
                -0.11872511450591938,
                2.2590507173043504
            ]
        },
        {
            "positions": [
                0.2002904108518191,
                -1.517538558039271,
                2.164491296923875,
                0.34569968654151023,
                -0.21076411705342113,
                2.1603485326113083
            ]
        },
        {
            "positions": [
                0.14965698127001292,
                -1.4784410034080648,
                2.141581713535799,
                0.42705256454156343,
                -0.3028031196009229,
                2.0616463479182667
            ]
        },
        {
            "positions": [
                0.09902355168820665,
                -1.4393434487768588,
                2.1186721301477225,
                0.5084054425416167,
                -0.3948421221484246,
                1.962944163225225
            ]
        },
        {
            "positions": [
                0.04839012210640048,
                -1.4002458941456526,
                2.095762546759646,
                0.5897583205416699,
                -0.48688112469592637,
                1.864241978532183
            ]
        },
        {
            "positions": [
                -0.002243307475405687,
                -1.3611483395144464,
                2.0728529633715698,
                0.6711111985417233,
                -0.5789201272434281,
                1.7655397938391415
            ]
        },
        {
            "positions": [
                -0.05287673705721185,
                -1.3220507848832401,
                2.0499433799834934,
                0.7524640765417765,
                -0.6709591297909299,
                1.6668376091460997
            ]
        },
        {
            "positions": [
                -0.10351016663901802,
                -1.2829532302520341,
                2.027033796595417,
                0.8338169545418297,
                -0.7629981323384316,
                1.5681354244530579
            ]
        },
        {
            "positions": [
                -0.15414359622082419,
                -1.243855675620828,
                2.0041242132073407,
                0.9151698325418829,
                -0.8550371348859334,
                1.469433239760016
            ]
        },
        {
            "positions": [
                -0.20477702580263035,
                -1.2047581209896219,
                1.9812146298192643,
                0.9965227105419361,
                -0.9470761374334351,
                1.3707310550669742
            ]
        },
        {
            "positions": [
                -0.2554104553844365,
                -1.1656605663584156,
                1.958305046431188,
                1.0778755885419895,
                -1.0391151399809369,
                1.2720288703739326
            ]
        },
        {
            "positions": [
                -0.3060438849662427,
                -1.1265630117272094,
                1.9353954630431116,
                1.1592284665420427,
                -1.1311541425284386,
                1.1733266856808908
            ]
        },
        {
            "positions": [
                -0.35667731454804896,
                -1.0874654570960034,
                1.9124858796550352,
                1.240581344542096,
                -1.2231931450759403,
                1.074624500987849
            ]
        },
        {
            "positions": [
                -0.407310744129855,
                -1.0483679024647972,
                1.8895762962669589,
                1.321934222542149,
                -1.315232147623442,
                0.9759223162948074
            ]
        },
        {
            "positions": [
                -0.4579441737116613,
                -1.0092703478335912,
                1.8666667128788825,
                1.4032871005422023,
                -1.407271150170944,
                0.8772201316017654
            ]
        },
        {
            "positions": [
                -0.5085776032934676,
                -0.9701727932023849,
                1.8437571294908062,
                1.4846399785422555,
                -1.4993101527184456,
                0.7785179469087238
            ]
        },
        {
            "positions": [
                -0.5592110328752736,
                -0.9310752385711788,
                1.8208475461027298,
                1.565992856542309,
                -1.5913491552659471,
                0.6798157622156822
            ]
        },
        {
            "positions": [
                -0.6098444624570799,
                -0.8919776839399727,
                1.7979379627146534,
                1.6473457345423619,
                -1.683388157813449,
                0.5811135775226401
            ]
        },
        {
            "positions": [
                -0.660477892038886,
                -0.8528801293087664,
                1.775028379326577,
                1.7286986125424153,
                -1.775427160360951,
                0.48241139282959855
            ]
        },
        {
            "positions": [
                -0.7111113216206922,
                -0.8137825746775602,
                1.7521187959385007,
                1.8100514905424687,
                -1.8674661629084526,
                0.38370920813655696
            ]
        },
        {
            "positions": [
                -0.7617447512024983,
                -0.7746850200463542,
                1.7292092125504244,
                1.8914043685425217,
                -1.959505165455954,
                0.2850070234435149
            ]
        },
        {
            "positions": [
                -0.8123781807843046,
                -0.735587465415148,
                1.706299629162348,
                1.9727572465425751,
                -2.0515441680034563,
                0.18630483875047332
            ]
        },
        {
            "positions": [
                -0.8630116103661106,
                -0.696489910783942,
                1.6833900457742716,
                2.054110124542628,
                -2.143583170550958,
                0.08760265405743128
            ]
        },
        {
            "positions": [
                -0.9136450399479168,
                -0.6573923561527356,
                1.6604804623861953,
                2.1354630025426813,
                -2.2356221730984593,
                -0.011099530635610233
            ]
        }
    ]
}