{
    "goal": {
        "global_pose": {
            "orientation": {
                "w": -0.4816463035849501,
                "x": 0.5182115481033762,
                "y": 0.4908360881923453,
                "z": -0.5084816262002911
            },
            "position": {
                "x": -0.8240239810943604,
                "y": -0.300875300988555,
                "z": 0.16403168439865112
            }
        },
        "name": "move_to_storage_C"
    },
    "id": "BKPIECE_move_to_storage_C_44",
    "joint_names": [
        "shoulder_pan_joint",
        "shoulder_lift_joint",
        "elbow_joint",
        "wrist_1_joint",
        "wrist_2_joint",
        "wrist_3_joint"
    ],
    "metrics": {
        "cart_traj_len": 0.5762182235220985,
        "distance_elbow_joint": 0.26004793096370515,
        "distance_shoulder_lift_joint": 0.18968868457837718,
        "distance_shoulder_pan_joint": 0.4933983885927331,
        "distance_wrist_1_joint": 0.0843773997959375,
        "distance_wrist_2_joint": 1.072098674850121,
        "distance_wrist_3_joint": 0.06702175641909047,
        "smoothness": 0.0,
        "time": 0.29573496,
        "traj_len": 1.47194865236528,
        "weighted_distance": 1.8593419326966742
    },
    "planner": "BKPIECE",
    "start": {
        "state": {
            "elbow_joint": 2.0108683149792914,
            "shoulder_lift_joint": -1.1634956873317392,
            "shoulder_pan_joint": -2.4736205022346,
            "wrist_1_joint": -0.8367026793690192,
            "wrist_2_joint": 0.6746043897045053,
            "wrist_3_joint": 3.133522094754363
        }
    },
    "waypoints": [
        {
            "positions": [
                -2.4736205022346,
                -1.1634956873317392,
                2.0108683149792914,
                -0.8367026793690192,
                0.6746043897045053,
                3.133522094754363
            ]
        },
        {
            "positions": [
                -2.5558535670000557,
                -1.1318809065686763,
                1.9675269931520072,
                -0.8226397794030296,
                0.8532875021795254,
                3.144692387490878
            ]
        },
        {
            "positions": [
                -2.638086631765511,
                -1.1002661258056134,
                1.924185671324723,
                -0.80857687943704,
                1.0319706146545455,
                3.1558626802273935
            ]
        },
        {
            "positions": [
                -2.7203196965309666,
                -1.0686513450425505,
                1.8808443494974387,
                -0.7945139794710505,
                1.2106537271295656,
                3.1670329729639084
            ]
        },
        {
            "positions": [
                -2.8025527612964223,
                -1.0370365642794879,
                1.8375030276701547,
                -0.7804510795050609,
                1.389336839604586,
                3.1782032657004233
            ]
        },
        {
            "positions": [
                -2.8847858260618775,
                -1.005421783516425,
                1.7941617058428705,
                -0.7663881795390712,
                1.568019952079606,
                3.1893735584369387
            ]
        },
        {
            "positions": [
                -2.967018890827333,
                -0.9738070027533621,
                1.7508203840155863,
                -0.7523252795730817,
                1.7467030645546262,
                3.2005438511734536
            ]
        }
    ]
}