{
    "goal": {
        "global_pose": {
            "orientation": {
                "w": 0.5084816262002911,
                "x": -0.4908360881923452,
                "y": 0.5182115481033761,
                "z": -0.48164630358495003
            },
            "position": {
                "x": 0.5540239810943604,
                "y": -0.46912469901144505,
                "z": 0.16403168439865112
            }
        },
        "name": "move_to_storage_B"
    },
    "id": "BKPIECE_move_to_storage_B_117",
    "joint_names": [
        "shoulder_pan_joint",
        "shoulder_lift_joint",
        "elbow_joint",
        "wrist_1_joint",
        "wrist_2_joint",
        "wrist_3_joint"
    ],
    "metrics": {
        "cart_traj_len": 1.454166044458709,
        "distance_elbow_joint": 1.6025797350905584,
        "distance_shoulder_lift_joint": 0.7214662965976284,
        "distance_shoulder_pan_joint": 0.6751485478362063,
        "distance_wrist_1_joint": 3.0120632148693964,
        "distance_wrist_2_joint": 2.7132597795006834,
        "distance_wrist_3_joint": 3.3089517548840535,
        "smoothness": 0.339682675695367,
        "time": 0.13124615,
        "traj_len": 3.4689291328562084,
        "weighted_distance": 4.937276155221289
    },
    "planner": "BKPIECE",
    "start": {
        "state": {
            "elbow_joint": 1.6649325340416963,
            "shoulder_lift_joint": -0.6616387945129425,
            "shoulder_pan_joint": -0.9139837929255878,
            "wrist_1_joint": 2.1467571094334352,
            "wrist_2_joint": -2.234195976750228,
            "wrist_3_joint": 0.005470921511140723
        }
    },
    "waypoints": [
        {
            "positions": [
                -0.9139837929255878,
                -0.6616387945129425,
                1.6649325340416963,
                2.1467571094334352,
                -2.234195976750228,
                0.005470921511140723
            ]
        },
        {
            "positions": [
                -0.8420549371383682,
                -0.7301957467921477,
                1.6878685396002107,
                2.1345651782567456,
                -2.2057592248353597,
                -0.03228199892441645
            ]
        },
        {
            "positions": [
                -0.7701260813511486,
                -0.7987526990713529,
                1.7108045451587253,
                2.122373247080056,
                -2.1773224729204914,
                -0.07003491935997364
            ]
        },
        {
            "positions": [
                -0.7637106057923855,
                -0.827132170037264,
                1.6718785405355518,
                1.9690729521631352,
                -2.063280907609768,
                -0.03499423432364674
            ]
        },
        {
            "positions": [
                -0.7572951302336223,
                -0.855511641003175,
                1.6329525359123784,
                1.8157726572462143,
                -1.9492393422990446,
                4.645071268015444e-05
            ]
        },
        {
            "positions": [
                -0.7508796546748592,
                -0.8838911119690861,
                1.594026531289205,
                1.6624723623292932,
                -1.8351977769883214,
                0.03508713574900704
            ]
        },
        {
            "positions": [
                -0.744464179116096,
                -0.9122705829349971,
                1.5551005266660316,
                1.5091720674123723,
                -1.721156211677598,
                0.07012782078533394
            ]
        },
        {
            "positions": [
                -0.7380487035573329,
                -0.9406500539009082,
                1.5161745220428582,
                1.3558717724954514,
                -1.6071146463668746,
                0.10516850582166085
            ]
        },
        {
            "positions": [
                -0.7316332279985698,
                -0.9690295248668193,
                1.4772485174196848,
                1.2025714775785303,
                -1.4930730810561514,
                0.14020919085798772
            ]
        },
        {
            "positions": [
                -0.7252177524398066,
                -0.9974089958327303,
                1.4383225127965114,
                1.0492711826616095,
                -1.379031515745428,
                0.17524987589431462
            ]
        },
        {
            "positions": [
                -0.7188022768810435,
                -1.0257884667986414,
                1.399396508173338,
                0.8959708877446886,
                -1.2649899504347046,
                0.21029056093064152
            ]
        },
        {
            "positions": [
                -0.7123868013222804,
                -1.0541679377645523,
                1.3604705035501645,
                0.7426705928277677,
                -1.1509483851239812,
                0.24533124596696843
            ]
        },
        {
            "positions": [
                -0.7059713257635172,
                -1.0825474087304634,
                1.321544498926991,
                0.5893702979108468,
                -1.0369068198132578,
                0.2803719310032953
            ]
        },
        {
            "positions": [
                -0.6995558502047541,
                -1.1109268796963745,
                1.2826184943038177,
                0.43607000299392573,
                -0.9228652545025346,
                0.31541261603962223
            ]
        },
        {
            "positions": [
                -0.693140374645991,
                -1.1393063506622856,
                1.2436924896806443,
                0.28276970807700486,
                -0.8088236891918112,
                0.3504533010759491
            ]
        },
        {
            "positions": [
                -0.6867248990872278,
                -1.1676858216281967,
                1.2047664850574709,
                0.12946941316008398,
                -0.6947821238810878,
                0.385493986112276
            ]
        },
        {
            "positions": [
                -0.6803094235284647,
                -1.1960652925941075,
                1.1658404804342974,
                -0.02383088175683712,
                -0.5807405585703647,
                0.4205346711486029
            ]
        },
        {
            "positions": [
                -0.6738939479697015,
                -1.2244447635600186,
                1.126914475811124,
                -0.177131176673758,
                -0.46669899325964126,
                0.45557535618492984
            ]
        },
        {
            "positions": [
                -0.6674784724109384,
                -1.2528242345259297,
                1.0879884711879506,
                -0.33043147159067904,
                -0.35265742794891786,
                0.4906160412212567
            ]
        },
        {
            "positions": [
                -0.6980958457910496,
                -1.2435184590555983,
                1.1546950176167188,
                -0.3686368025796277,
                -0.2932487686132484,
                0.6815299664663788
            ]
        },
        {
            "positions": [
                -0.7287132191711608,
                -1.2342126835852667,
                1.221401564045487,
                -0.40684213356857635,
                -0.23384010927757895,
                0.8724438917115007
            ]
        },
        {
            "positions": [
                -0.759330592551272,
                -1.224906908114935,
                1.288108110474255,
                -0.445047464557525,
                -0.17443144994190948,
                1.0633578169566227
            ]
        },
        {
            "positions": [
                -0.7899479659313832,
                -1.2156011326446037,
                1.3548146569030233,
                -0.48325279554647366,
                -0.11502279060624004,
                1.2542717422017449
            ]
        },
        {
            "positions": [
                -0.8205653393114944,
                -1.2062953571742723,
                1.4215212033317917,
                -0.5214581265354223,
                -0.05561413127057058,
                1.445185667446867
            ]
        },
        {
            "positions": [
                -0.8511827126916056,
                -1.1969895817039407,
                1.4882277497605598,
                -0.559663457524371,
                0.00379452806509889,
                1.636099592691989
            ]
        },
        {
            "positions": [
                -0.8818000860717168,
                -1.187683806233609,
                1.554934296189328,
                -0.5978687885133196,
                0.06320318740076836,
                1.827013517937111
            ]
        },
        {
            "positions": [
                -0.912417459451828,
                -1.1783780307632776,
                1.6216408426180962,
                -0.6360741195022683,
                0.12261184673643777,
                2.017927443182233
            ]
        },
        {
            "positions": [
                -0.9430348328319392,
                -1.1690722552929462,
                1.6883473890468643,
                -0.6742794504912171,
                0.1820205060721073,
                2.2088413684273553
            ]
        },
        {
            "positions": [
                -0.9736522062120504,
                -1.1597664798226146,
                1.7550539354756327,
                -0.7124847814801656,
                0.2414291654077767,
                2.3997552936724773
            ]
        },
        {
            "positions": [
                -1.0042695795921617,
                -1.150460704352283,
                1.8217604819044007,
                -0.7506901124691143,
                0.3008378247434462,
                2.5906692189175993
            ]
        },
        {
            "positions": [
                -1.0348869529722728,
                -1.1411549288819516,
                1.888467028333169,
                -0.7888954434580628,
                0.36024648407911564,
                2.7815831441627212
            ]
        },
        {
            "positions": [
                -1.065504326352384,
                -1.1318491534116202,
                1.9551735747619372,
                -0.8271007744470116,
                0.41965514341478516,
                2.9724970694078436
            ]
        },
        {
            "positions": [
                -1.0961216997324952,
                -1.1225433779412886,
                2.0218801211907054,
                -0.8653061054359603,
                0.4790638027504546,
                3.1634109946529656
            ]
        }
    ]
}