{
    "goal": {
        "global_pose": {
            "orientation": {
                "w": -0.00223480608172531,
                "x": 0.0024358444001904467,
                "y": 0.7094548369677653,
                "z": -0.704743149386269
            },
            "position": {
                "x": -0.37947507619857795,
                "y": -0.6371506643295288,
                "z": 0.19426114857196808
            }
        },
        "name": "move_to_magneteinheit_C"
    },
    "id": "BKPIECE_move_to_magneteinheit_C_31",
    "joint_names": [
        "shoulder_pan_joint",
        "shoulder_lift_joint",
        "elbow_joint",
        "wrist_1_joint",
        "wrist_2_joint",
        "wrist_3_joint"
    ],
    "metrics": {
        "cart_traj_len": 1.2908740740483489,
        "distance_elbow_joint": 0.6415493840307536,
        "distance_shoulder_lift_joint": 0.711770313751851,
        "distance_shoulder_pan_joint": 1.3021901204316617,
        "distance_wrist_1_joint": 1.9387040345246054,
        "distance_wrist_2_joint": 1.781852735611309,
        "distance_wrist_3_joint": 2.6864896842412818,
        "smoothness": 1.0322433852965165,
        "time": 0.38880504499999996,
        "traj_len": 3.0104079910522863,
        "weighted_distance": 4.2609966452943775
    },
    "planner": "BKPIECE",
    "start": {
        "state": {
            "elbow_joint": 1.9565354006593851,
            "shoulder_lift_joint": -1.4165861576512813,
            "shoulder_pan_joint": -1.6717766223278752,
            "wrist_1_joint": -0.528663328821883,
            "wrist_2_joint": 1.472756589259273,
            "wrist_3_joint": 3.159348288315503
        }
    },
    "waypoints": [
        {
            "positions": [
                -1.6717766223278752,
                -1.4165861576512813,
                1.9565354006593851,
                -0.528663328821883,
                1.472756589259273,
                3.159348288315503
            ]
        },
        {
            "positions": [
                -1.6835709917629471,
                -1.440341476051275,
                1.9420852696783037,
                -0.43028050466607237,
                1.3578166355946975,
                3.0922494573215062
            ]
        },
        {
            "positions": [
                -1.6953653611980188,
                -1.4640967944512688,
                1.9276351386972221,
                -0.33189768051026175,
                1.2428766819301216,
                3.02515062632751
            ]
        },
        {
            "positions": [
                -1.7071597306330908,
                -1.4878521128512625,
                1.9131850077161408,
                -0.23351485635445113,
                1.1279367282655457,
                2.958051795333513
            ]
        },
        {
            "positions": [
                -1.7189541000681627,
                -1.5116074312512562,
                1.8987348767350594,
                -0.13513203219864045,
                1.01299677460097,
                2.890952964339516
            ]
        },
        {
            "positions": [
                -1.7064886963857273,
                -1.5297017522248546,
                1.8581533617716046,
                -0.2032504886248181,
                0.9739344535537366,
                2.80039628945878
            ]
        },
        {
            "positions": [
                -1.6940232927032919,
                -1.5477960731984532,
                1.81757184680815,
                -0.27136894505099574,
                0.9348721325065031,
                2.7098396145780446
            ]
        },
        {
            "positions": [
                -1.6815578890208565,
                -1.5658903941720517,
                1.7769903318446953,
                -0.3394874014771734,
                0.8958098114592697,
                2.6192829396973085
            ]
        },
        {
            "positions": [
                -1.7320171437750558,
                -1.5836115604817067,
                1.7568402314950848,
                -0.42827293408312495,
                0.8474715739077341,
                2.5277570099045112
            ]
        },
        {
            "positions": [
                -1.7824763985292553,
                -1.6013327267913617,
                1.7366901311454745,
                -0.5170584666890765,
                0.7991333363561984,
                2.436231080111714
            ]
        },
        {
            "positions": [
                -1.8329356532834546,
                -1.6190538931010168,
                1.716540030795864,
                -0.6058439992950282,
                0.7507950988046628,
                2.3447051503189167
            ]
        },
        {
            "positions": [
                -1.9482428079018708,
                -1.6235048342289433,
                1.7381653985141263,
                -0.664457141409845,
                0.6648606006568788,
                2.2860064886740066
            ]
        },
        {
            "positions": [
                -2.0635499625202867,
                -1.62795577535687,
                1.7597907662323886,
                -0.723070283524662,
                0.5789261025090948,
                2.227307827029096
            ]
        },
        {
            "positions": [
                -2.1788571171387026,
                -1.6324067164847968,
                1.7814161339506511,
                -0.7816834256394789,
                0.49299160436131084,
                2.168609165384186
            ]
        },
        {
            "positions": [
                -2.2941642717571185,
                -1.6368576576127234,
                1.8030415016689134,
                -0.8402965677542957,
                0.40705710621352686,
                2.1099105037392754
            ]
        },
        {
            "positions": [
                -2.409471426375535,
                -1.64130859874065,
                1.8246668693871757,
                -0.8989097098691126,
                0.3211226080657429,
                2.0512118420943652
            ]
        },
        {
            "positions": [
                -2.5247785809939507,
                -1.6457595398685767,
                1.846292237105438,
                -0.9575228519839295,
                0.23518810991795885,
                1.992513180449455
            ]
        },
        {
            "positions": [
                -2.5788163755785973,
                -1.5909418409231249,
                1.91950383263556,
                -1.0601672582569934,
                0.21680762385192953,
                1.9300750661922195
            ]
        },
        {
            "positions": [
                -2.6328541701632444,
                -1.536124141977673,
                1.9927154281656823,
                -1.1628116645300572,
                0.1984271377859002,
                1.8676369519349842
            ]
        },
        {
            "positions": [
                -2.686891964747891,
                -1.4813064430322211,
                2.0659270236958043,
                -1.265456070803121,
                0.1800466517198709,
                1.8051988376777488
            ]
        },
        {
            "positions": [
                -2.660356670258262,
                -1.4415384636949462,
                2.059406146037393,
                -1.2135999833910107,
                0.24118950147885926,
                1.9717413668781898
            ]
        },
        {
            "positions": [
                -2.633821375768633,
                -1.4017704843576713,
                2.052885268378981,
                -1.1617438959789006,
                0.30233235123784763,
                2.138283896078631
            ]
        },
        {
            "positions": [
                -2.6072860812790037,
                -1.362002505020396,
                2.0463643907205697,
                -1.1098878085667903,
                0.363475200996836,
                2.3048264252790718
            ]
        },
        {
            "positions": [
                -2.580750786789374,
                -1.3222345256831212,
                2.0398435130621584,
                -1.05803172115468,
                0.42461805075582437,
                2.4713689544795123
            ]
        },
        {
            "positions": [
                -2.554215492299745,
                -1.2824665463458462,
                2.0333226354037466,
                -1.0061756337425698,
                0.48576090051481274,
                2.6379114836799538
            ]
        },
        {
            "positions": [
                -2.527680197810116,
                -1.242698567008571,
                2.026801757745335,
                -0.9543195463304595,
                0.5469037502738011,
                2.8044540128803943
            ]
        },
        {
            "positions": [
                -2.501144903320487,
                -1.2029305876712961,
                2.0202808800869234,
                -0.9024634589183491,
                0.6080466000327895,
                2.9709965420808353
            ]
        },
        {
            "positions": [
                -2.474609608830858,
                -1.1631626083340212,
                2.013760002428512,
                -0.8506073715062389,
                0.6691894497917779,
                3.1375390712812763
            ]
        }
    ]
}