{
    "goal": {
        "global_pose": {
            "orientation": {
                "w": 0.005598929693374612,
                "x": 0.007748599140229565,
                "y": 0.7110244013736278,
                "z": -0.7031023480610252
            },
            "position": {
                "x": -0.8858502320852131,
                "y": -0.7141253447532654,
                "z": 0.3711530566215515
            }
        },
        "name": "move_to_auspresseinheit_C"
    },
    "id": "BKPIECE_move_to_auspresseinheit_C_15",
    "joint_names": [
        "shoulder_pan_joint",
        "shoulder_lift_joint",
        "elbow_joint",
        "wrist_1_joint",
        "wrist_2_joint",
        "wrist_3_joint"
    ],
    "metrics": {
        "cart_traj_len": 0.4943131924567599,
        "distance_elbow_joint": 1.0153593540195165,
        "distance_shoulder_lift_joint": 0.33143837248979746,
        "distance_shoulder_pan_joint": 0.2564833365658892,
        "distance_wrist_1_joint": 0.7118793594238378,
        "distance_wrist_2_joint": 1.3043663447736693,
        "distance_wrist_3_joint": 0.08474082273476302,
        "smoothness": 8.074349282788172e-16,
        "time": 0.19735866900000001,
        "traj_len": 1.9246473936821449,
        "weighted_distance": 2.426931177366698
    },
    "planner": "BKPIECE",
    "start": {
        "state": {
            "elbow_joint": 1.7527959577730765,
            "shoulder_lift_joint": -0.9740617694224828,
            "shoulder_pan_joint": -2.967991417825869,
            "wrist_1_joint": -0.7595177689779385,
            "wrist_2_joint": 1.7443932448376545,
            "wrist_3_joint": 3.1991315425061013
        }
    },
    "waypoints": [
        {
            "positions": [
                -2.967991417825869,
                -0.9740617694224828,
                1.7527959577730765,
                -0.7595177689779385,
                1.7443932448376545,
                3.1991315425061013
            ]
        },
        {
            "positions": [
                -2.94234308416928,
                -0.9409179321735031,
                1.651260022371125,
                -0.6883298330355547,
                1.6139566103602876,
                3.190657460232625
            ]
        },
        {
            "positions": [
                -2.9166947505126912,
                -0.9077740949245233,
                1.549724086969173,
                -0.617141897093171,
                1.4835199758829205,
                3.1821833779591486
            ]
        },
        {
            "positions": [
                -2.8910464168561023,
                -0.8746302576755436,
                1.4481881515672215,
                -0.5459539611507872,
                1.3530833414055536,
                3.1737092956856725
            ]
        },
        {
            "positions": [
                -2.8653980831995134,
                -0.8414864204265637,
                1.3466522161652699,
                -0.4747660252084034,
                1.2226467069281868,
                3.165235213412196
            ]
        },
        {
            "positions": [
                -2.8397497495429245,
                -0.8083425831775841,
                1.2451162807633183,
                -0.4035780892660196,
                1.0922100724508197,
                3.15676113113872
            ]
        },
        {
            "positions": [
                -2.8141014158863356,
                -0.7751987459286043,
                1.1435803453613667,
                -0.33239015332363586,
                0.9617734379734529,
                3.1482870488652437
            ]
        },
        {
            "positions": [
                -2.7884530822297466,
                -0.7420549086796246,
                1.042044409959415,
                -0.2612022173812521,
                0.831336803496086,
                3.139812966591767
            ]
        },
        {
            "positions": [
                -2.7628047485731577,
                -0.7089110714306448,
                0.9405084745574632,
                -0.19001428143886823,
                0.7009001690187189,
                3.131338884318291
            ]
        },
        {
            "positions": [
                -2.737156414916569,
                -0.6757672341816651,
                0.8389725391555116,
                -0.11882634549648452,
                0.570463534541352,
                3.1228648020448144
            ]
        },
        {
            "positions": [
                -2.71150808125998,
                -0.6426233969326853,
                0.73743660375356,
                -0.0476384095541007,
                0.4400269000639852,
                3.1143907197713383
            ]
        }
    ]
}