{
    "goal": {
        "global_pose": {
            "orientation": {
                "w": 0.005598929693374612,
                "x": 0.007748599140229565,
                "y": 0.7110244013736278,
                "z": -0.7031023480610252
            },
            "position": {
                "x": 0.1141497679147869,
                "y": -0.7141253447532654,
                "z": 0.3711530566215515
            }
        },
        "name": "move_to_auspresseinheit_B"
    },
    "id": "BKPIECE_move_to_auspresseinheit_B_109",
    "joint_names": [
        "shoulder_pan_joint",
        "shoulder_lift_joint",
        "elbow_joint",
        "wrist_1_joint",
        "wrist_2_joint",
        "wrist_3_joint"
    ],
    "metrics": {
        "cart_traj_len": 0.5652792716115881,
        "distance_elbow_joint": 0.06685870982743669,
        "distance_shoulder_lift_joint": 0.2943516490831162,
        "distance_shoulder_pan_joint": 0.577713741108697,
        "distance_wrist_1_joint": 0.340635163064568,
        "distance_wrist_2_joint": 0.9911696497097284,
        "distance_wrist_3_joint": 0.005842474294595501,
        "smoothness": 5.075305295617109e-16,
        "time": 0.243979361,
        "traj_len": 1.5088311327276296,
        "weighted_distance": 1.9026458284325092
    },
    "planner": "BKPIECE",
    "start": {
        "state": {
            "elbow_joint": 2.0193061681459312,
            "shoulder_lift_joint": -1.1220205130644991,
            "shoulder_pan_joint": -1.0952072088045026,
            "wrist_1_joint": -0.8559671810662515,
            "wrist_2_joint": 0.4759638712940361,
            "wrist_3_joint": 3.159081874192446
        }
    },
    "waypoints": [
        {
            "positions": [
                -1.0952072088045026,
                -1.1220205130644991,
                2.0193061681459312,
                -0.8559671810662515,
                0.4759638712940361,
                3.159081874192446
            ]
        },
        {
            "positions": [
                -1.1914928323226188,
                -1.1710791212450185,
                2.0081630498413583,
                -0.7991946538888235,
                0.6411588129123242,
                3.1581081284766803
            ]
        },
        {
            "positions": [
                -1.287778455840735,
                -1.2201377294255378,
                1.9970199315367856,
                -0.7424221267113955,
                0.8063537545306123,
                3.157134382760914
            ]
        },
        {
            "positions": [
                -1.384064079358851,
                -1.2691963376060573,
                1.9858768132322129,
                -0.6856495995339675,
                0.9715486961489004,
                3.156160637045148
            ]
        },
        {
            "positions": [
                -1.4803497028769672,
                -1.3182549457865766,
                1.9747336949276402,
                -0.6288770723565396,
                1.1367436377671885,
                3.1551868913293823
            ]
        },
        {
            "positions": [
                -1.5766353263950834,
                -1.367313553967096,
                1.9635905766230672,
                -0.5721045451791115,
                1.3019385793854765,
                3.1542131456136167
            ]
        },
        {
            "positions": [
                -1.6729209499131996,
                -1.4163721621476153,
                1.9524474583184945,
                -0.5153320180016835,
                1.4671335210037646,
                3.1532393998978505
            ]
        }
    ]
}