{
    "goal": {
        "global_pose": {
            "orientation": {
                "w": -0.00223480608172531,
                "x": 0.0024358444001904467,
                "y": 0.7094548369677653,
                "z": -0.704743149386269
            },
            "position": {
                "x": -0.37947507619857795,
                "y": -0.6371506643295288,
                "z": 0.19426114857196808
            }
        },
        "name": "move_to_magneteinheit_C"
    },
    "id": "BKPIECE_move_to_magneteinheit_C_125",
    "joint_names": [
        "shoulder_pan_joint",
        "shoulder_lift_joint",
        "elbow_joint",
        "wrist_1_joint",
        "wrist_2_joint",
        "wrist_3_joint"
    ],
    "metrics": {
        "cart_traj_len": 2.8880043819710415,
        "distance_elbow_joint": 2.595177311665602,
        "distance_shoulder_lift_joint": 0.5481958234419442,
        "distance_shoulder_pan_joint": 2.6943618942167085,
        "distance_wrist_1_joint": 2.0669353816220477,
        "distance_wrist_2_joint": 1.5203864970629568,
        "distance_wrist_3_joint": 3.1900595428169454,
        "smoothness": 0.8783170924100632,
        "time": 0.28850131,
        "traj_len": 3.551776520394577,
        "weighted_distance": 4.752110837843021
    },
    "planner": "BKPIECE",
    "start": {
        "state": {
            "elbow_joint": 1.9565354006593851,
            "shoulder_lift_joint": -1.4165861576512813,
            "shoulder_pan_joint": -1.6717766223278752,
            "wrist_1_joint": -0.528663328821883,
            "wrist_2_joint": 1.472756589259273,
            "wrist_3_joint": 3.159348288315503
        }
    },
    "waypoints": [
        {
            "positions": [
                -1.6717766223278752,
                -1.4165861576512813,
                1.9565354006593851,
                -0.528663328821883,
                1.472756589259273,
                3.159348288315503
            ]
        },
        {
            "positions": [
                -1.6168747703065587,
                -1.4445359070281567,
                1.978659530022583,
                -0.5371280344282076,
                1.5156664161449456,
                3.0992826530921955
            ]
        },
        {
            "positions": [
                -1.5619729182852424,
                -1.472485656405032,
                2.000783659385781,
                -0.5455927400345321,
                1.5585762430306183,
                3.039217017868888
            ]
        },
        {
            "positions": [
                -1.5114149018638887,
                -1.4991463430315053,
                1.9809456266798886,
                -0.5181415634856703,
                1.5567378354170298,
                2.965367095933691
            ]
        },
        {
            "positions": [
                -1.4608568854425348,
                -1.5258070296579787,
                1.9611075939739966,
                -0.4906903869368085,
                1.5548994278034416,
                2.8915171739984933
            ]
        },
        {
            "positions": [
                -1.4913032834819981,
                -1.5156561746724113,
                1.857947384270356,
                -0.4502245390491978,
                1.4981235175395267,
                2.7862249101393255
            ]
        },
        {
            "positions": [
                -1.5217496815214613,
                -1.505505319686844,
                1.7547871745667152,
                -0.40975869116158714,
                1.441347607275612,
                2.680932646280158
            ]
        },
        {
            "positions": [
                -1.5521960795609246,
                -1.4953544647012766,
                1.6516269648630746,
                -0.36929284327397643,
                1.384571697011697,
                2.575640382420991
            ]
        },
        {
            "positions": [
                -1.582642477600388,
                -1.4852036097157093,
                1.548466755159434,
                -0.32882699538636573,
                1.327795786747782,
                2.470348118561823
            ]
        },
        {
            "positions": [
                -1.6301386725467815,
                -1.45826115958543,
                1.4574218161646002,
                -0.27914864243500914,
                1.2704012003694114,
                2.36758325504891
            ]
        },
        {
            "positions": [
                -1.677634867493175,
                -1.4313187094551507,
                1.3663768771697666,
                -0.22947028948365258,
                1.2130066139910407,
                2.264818391535997
            ]
        },
        {
            "positions": [
                -1.7251310624395682,
                -1.4043762593248714,
                1.2753319381749328,
                -0.17979193653229603,
                1.1556120276126698,
                2.162053528023084
            ]
        },
        {
            "positions": [
                -1.7726272573859616,
                -1.3774338091945921,
                1.1842869991800993,
                -0.13011358358093944,
                1.098217441234299,
                2.059288664510171
            ]
        },
        {
            "positions": [
                -1.820123452332355,
                -1.3504913590643128,
                1.0932420601852655,
                -0.08043523062958285,
                1.0408228548559282,
                1.956523800997258
            ]
        },
        {
            "positions": [
                -1.8676196472787483,
                -1.3235489089340335,
                1.002197121190432,
                -0.030756877678226324,
                0.9834282684775576,
                1.853758937484345
            ]
        },
        {
            "positions": [
                -1.9151158422251418,
                -1.2966064588037542,
                0.9111521821955981,
                0.018921475273130317,
                0.9260336820991868,
                1.750994073971432
            ]
        },
        {
            "positions": [
                -1.9626120371715352,
                -1.269664008673475,
                0.8201072432007644,
                0.06859982822448685,
                0.8686390957208161,
                1.648229210458519
            ]
        },
        {
            "positions": [
                -2.0101082321179287,
                -1.2427215585431957,
                0.7290623042059308,
                0.11827818117584343,
                0.8112445093424453,
                1.545464346945606
            ]
        },
        {
            "positions": [
                -2.1433703519163605,
                -1.2295953083654307,
                0.7391058104100201,
                0.14262020309707626,
                0.7651925508552243,
                1.7076805667373587
            ]
        },
        {
            "positions": [
                -2.276632471714792,
                -1.2164690581876658,
                0.7491493166141094,
                0.1669622250183091,
                0.7191405923680034,
                1.8698967865291114
            ]
        },
        {
            "positions": [
                -2.4098945915132237,
                -1.203342808009901,
                0.7591928228181988,
                0.1913042469395419,
                0.6730886338807824,
                2.032113006320864
            ]
        },
        {
            "positions": [
                -2.5431567113116555,
                -1.190216557832136,
                0.7692363290222881,
                0.21564626886077476,
                0.6270366753935614,
                2.194329226112617
            ]
        },
        {
            "positions": [
                -2.6764188311100874,
                -1.177090307654371,
                0.7792798352263776,
                0.23998829078200756,
                0.5809847169063405,
                2.3565454459043695
            ]
        },
        {
            "positions": [
                -2.809680950908519,
                -1.1639640574766061,
                0.7893233414304669,
                0.26433031270324037,
                0.5349327584191196,
                2.5187616656961223
            ]
        },
        {
            "positions": [
                -2.942943070706951,
                -1.1508378072988412,
                0.7993668476345562,
                0.2886723346244732,
                0.48888079993189865,
                2.680977885487875
            ]
        },
        {
            "positions": [
                -3.0762051905053824,
                -1.1377115571210763,
                0.8094103538386456,
                0.3130143565457061,
                0.4428288414446777,
                2.8431941052796277
            ]
        },
        {
            "positions": [
                -3.2094673103038143,
                -1.1245853069433114,
                0.8194538600427349,
                0.3373563784669389,
                0.3967768829574567,
                3.0054103250713804
            ]
        },
        {
            "positions": [
                -3.1283736798606356,
                -1.1265695566484797,
                0.9446035345664259,
                0.21525417481186765,
                0.42638316862206865,
                3.0074152560622416
            ]
        },
        {
            "positions": [
                -3.047280049417457,
                -1.128553806353648,
                1.0697532090901167,
                0.09315197115679644,
                0.4559894542866806,
                3.0094201870531028
            ]
        },
        {
            "positions": [
                -2.9661864189742784,
                -1.1305380560588163,
                1.1949028836138078,
                -0.028950232498274775,
                0.48559573995129246,
                3.011425118043964
            ]
        },
        {
            "positions": [
                -2.8850927885311,
                -1.1325223057639846,
                1.3200525581374989,
                -0.15105243615334601,
                0.5152020256159044,
                3.013430049034825
            ]
        },
        {
            "positions": [
                -2.8039991580879216,
                -1.134506555469153,
                1.44520223266119,
                -0.27315463980841725,
                0.5448083112805163,
                3.0154349800256863
            ]
        },
        {
            "positions": [
                -2.722905527644743,
                -1.1364908051743212,
                1.5703519071848806,
                -0.39525684346348844,
                0.5744145969451282,
                3.0174399110165475
            ]
        },
        {
            "positions": [
                -2.6418118972015643,
                -1.1384750548794895,
                1.6955015817085717,
                -0.5173590471185597,
                0.6040208826097402,
                3.0194448420074087
            ]
        },
        {
            "positions": [
                -2.5607182667583857,
                -1.1404593045846578,
                1.8206512562322628,
                -0.6394612507736309,
                0.6336271682743522,
                3.02144977299827
            ]
        },
        {
            "positions": [
                -2.479624636315207,
                -1.1424435542898261,
                1.9458009307559538,
                -0.7615634544287022,
                0.663233453938964,
                3.023454703989131
            ]
        },
        {
            "positions": [
                -2.4746355778337255,
                -1.162338535663891,
                2.0082700019652866,
                -0.8297004734409887,
                0.6695443661759068,
                3.1216399483926542
            ]
        }
    ]
}