{
    "goal": {
        "global_pose": {
            "orientation": {
                "w": -0.00223480608172531,
                "x": 0.0024358444001904467,
                "y": 0.7094548369677653,
                "z": -0.704743149386269
            },
            "position": {
                "x": 0.6205249238014221,
                "y": -0.6371506643295288,
                "z": 0.19426114857196808
            }
        },
        "name": "move_to_magneteinheit_B"
    },
    "id": "BKPIECE_move_to_magneteinheit_B_35",
    "joint_names": [
        "shoulder_pan_joint",
        "shoulder_lift_joint",
        "elbow_joint",
        "wrist_1_joint",
        "wrist_2_joint",
        "wrist_3_joint"
    ],
    "metrics": {
        "cart_traj_len": 3.837410142116664,
        "distance_elbow_joint": 4.724238261435895,
        "distance_shoulder_lift_joint": 1.5609573722550383,
        "distance_shoulder_pan_joint": 2.285188024142114,
        "distance_wrist_1_joint": 1.8694537174027754,
        "distance_wrist_2_joint": 1.0448060713569545,
        "distance_wrist_3_joint": 4.196304452191789,
        "smoothness": 0.2418441549865897,
        "time": 0.318912836,
        "traj_len": 3.9599176631319697,
        "weighted_distance": 5.194979941436528
    },
    "planner": "BKPIECE",
    "start": {
        "state": {
            "elbow_joint": 2.393587130804639,
            "shoulder_lift_joint": -1.9085141043513325,
            "shoulder_pan_joint": 0.7066247066698809,
            "wrist_1_joint": -0.4678290934590222,
            "wrist_2_joint": 0.7096259084215963,
            "wrist_3_joint": 3.147370379541726
        }
    },
    "waypoints": [
        {
            "positions": [
                0.7066247066698809,
                -1.9085141043513325,
                2.393587130804639,
                -0.4678290934590222,
                0.7096259084215963,
                3.147370379541726
            ]
        },
        {
            "positions": [
                0.651337606424643,
                -1.920747936241866,
                2.364167304484236,
                -0.37580749928321544,
                0.6925205737508178,
                2.966682445797987
            ]
        },
        {
            "positions": [
                0.5960505061794051,
                -1.9329817681323997,
                2.334747478163834,
                -0.28378590510740864,
                0.6754152390800391,
                2.7859945120542484
            ]
        },
        {
            "positions": [
                0.5407634059341673,
                -1.9452156000229333,
                2.3053276518434314,
                -0.19176431093160184,
                0.6583099044092605,
                2.6053065783105094
            ]
        },
        {
            "positions": [
                0.5639925699211984,
                -1.921613659814373,
                2.1379677047606926,
                -0.20161455677257278,
                0.677769672720357,
                2.4564426088067424
            ]
        },
        {
            "positions": [
                0.5872217339082295,
                -1.8980117196058124,
                1.9706077576779544,
                -0.21146480261354372,
                0.6972294410314537,
                2.3075786393029754
            ]
        },
        {
            "positions": [
                0.6104508978952606,
                -1.874409779397252,
                1.8032478105952157,
                -0.22131504845451466,
                0.7166892093425502,
                2.1587146697992083
            ]
        },
        {
            "positions": [
                0.6336800618822918,
                -1.8508078391886917,
                1.6358878635124774,
                -0.2311652942954856,
                0.7361489776536468,
                2.0098507002954413
            ]
        },
        {
            "positions": [
                0.656909225869323,
                -1.8272058989801312,
                1.4685279164297387,
                -0.24101554013645654,
                0.7556087459647434,
                1.8609867307916743
            ]
        },
        {
            "positions": [
                0.6801383898563541,
                -1.8036039587715709,
                1.3011679693470002,
                -0.2508657859774275,
                0.77506851427584,
                1.7121227612879075
            ]
        },
        {
            "positions": [
                0.7033675538433852,
                -1.7800020185630105,
                1.1338080222642617,
                -0.2607160318183984,
                0.7945282825869365,
                1.5632587917841405
            ]
        },
        {
            "positions": [
                0.7265967178304163,
                -1.75640007835445,
                0.9664480751815232,
                -0.27056627765936936,
                0.8139880508980332,
                1.4143948222803735
            ]
        },
        {
            "positions": [
                0.7498258818174475,
                -1.7327981381458897,
                0.7990881280987847,
                -0.2804165235003403,
                0.8334478192091297,
                1.2655308527766065
            ]
        },
        {
            "positions": [
                0.7730550458044786,
                -1.7091961979373294,
                0.6317281810160462,
                -0.29026676934131124,
                0.8529075875202263,
                1.1166668832728395
            ]
        },
        {
            "positions": [
                0.7962842097915097,
                -1.6855942577287688,
                0.4643682339333075,
                -0.3001170151822822,
                0.8723673558313229,
                0.9678029137690725
            ]
        },
        {
            "positions": [
                0.8195133737785409,
                -1.6619923175202085,
                0.297008286850569,
                -0.3099672610232531,
                0.8918271241424194,
                0.8189389442653057
            ]
        },
        {
            "positions": [
                0.8427425377655721,
                -1.638390377311648,
                0.1296483397678303,
                -0.31981750686422405,
                0.911286892453516,
                0.6700749747615384
            ]
        },
        {
            "positions": [
                0.8659717017526032,
                -1.6147884371030878,
                -0.03771160731490797,
                -0.329667752705195,
                0.9307466607646127,
                0.5212110052577716
            ]
        },
        {
            "positions": [
                0.8892008657396343,
                -1.5911864968945273,
                -0.20507155439764668,
                -0.339517998546166,
                0.9502064290757092,
                0.37234703575400463
            ]
        },
        {
            "positions": [
                0.9124300297266654,
                -1.567584556685967,
                -0.37243150148038495,
                -0.3493682443871369,
                0.9696661973868057,
                0.22348306625023762
            ]
        },
        {
            "positions": [
                0.9356591937136967,
                -1.5439826164774064,
                -0.5397914485631237,
                -0.35921849022810787,
                0.9891259656979023,
                0.0746190967464706
            ]
        },
        {
            "positions": [
                0.9588883577007277,
                -1.520380676268846,
                -0.7071513956458619,
                -0.36906873606907875,
                1.008585734008999,
                -0.07424487275729641
            ]
        },
        {
            "positions": [
                0.9821175216877589,
                -1.4967787360602858,
                -0.8745113427286006,
                -0.37891898191004975,
                1.0280455023200954,
                -0.22310884226106342
            ]
        },
        {
            "positions": [
                1.00534668567479,
                -1.4731767958517255,
                -1.041871289811339,
                -0.3887692277510207,
                1.047505270631192,
                -0.37197281176483044
            ]
        },
        {
            "positions": [
                1.0285758496618211,
                -1.449574855643165,
                -1.2092312368940776,
                -0.3986194735919916,
                1.0669650389422887,
                -0.5208367812685972
            ]
        },
        {
            "positions": [
                1.2083528641155,
                -1.454224652485364,
                -1.322273096246225,
                -0.3933132536778814,
                1.044884554352714,
                -0.5015023394639001
            ]
        },
        {
            "positions": [
                1.3881298785691785,
                -1.4588744493275632,
                -1.4353149555983726,
                -0.38800703376377116,
                1.0228040697631395,
                -0.48216789765920304
            ]
        },
        {
            "positions": [
                1.5679068930228572,
                -1.4635242461697622,
                -1.54835681495052,
                -0.3827008138496609,
                1.000723585173565,
                -0.46283345585450597
            ]
        },
        {
            "positions": [
                1.747683907476536,
                -1.4681740430119612,
                -1.6613986743026676,
                -0.3773945939355507,
                0.9786431005839905,
                -0.44349901404980885
            ]
        },
        {
            "positions": [
                1.9274609219302148,
                -1.4728238398541602,
                -1.774440533654815,
                -0.37208837402144046,
                0.9565626159944159,
                -0.4241645722451118
            ]
        },
        {
            "positions": [
                2.1072379363838936,
                -1.4774736366963594,
                -1.8874823930069624,
                -0.3667821541073302,
                0.9344821314048415,
                -0.4048301304404147
            ]
        },
        {
            "positions": [
                2.2870149508375723,
                -1.4821234335385585,
                -2.00052425235911,
                -0.36147593419322,
                0.9124016468152669,
                -0.3854956886357176
            ]
        },
        {
            "positions": [
                2.356323575964906,
                -1.5682181724074884,
                -1.991998058914799,
                -0.2450867217010819,
                0.8697189691705633,
                -0.3454344850317141
            ]
        },
        {
            "positions": [
                2.42563220109224,
                -1.6543129112764183,
                -1.983471865470488,
                -0.1286975092089438,
                0.8270362915258598,
                -0.3053732814277106
            ]
        },
        {
            "positions": [
                2.4949408262195734,
                -1.740407650145348,
                -1.9749456720261769,
                -0.012308296716805722,
                0.7843536138811562,
                -0.265312077823707
            ]
        },
        {
            "positions": [
                2.564249451346907,
                -1.826502389014278,
                -1.9664194785818658,
                0.1040809157753324,
                0.7416709362364526,
                -0.22525087421970352
            ]
        },
        {
            "positions": [
                2.633558076474241,
                -1.912597127883208,
                -1.9578932851375548,
                0.22047012826747042,
                0.6989882585917491,
                -0.18518967061570002
            ]
        },
        {
            "positions": [
                2.637660652037567,
                -2.0000588521586056,
                -1.9134207832478831,
                0.33917015333726286,
                0.6654438707478725,
                -0.15544119172427007
            ]
        },
        {
            "positions": [
                2.6417632276008924,
                -2.087520576434003,
                -1.8689482813582117,
                0.45787017840705535,
                0.6318994829039959,
                -0.12569271283284011
            ]
        },
        {
            "positions": [
                2.6458658031642184,
                -2.1749823007094005,
                -1.82447577946854,
                0.5765702034768478,
                0.5983550950601193,
                -0.09594423394141013
            ]
        },
        {
            "positions": [
                2.6506072452230014,
                -2.2760515297552115,
                -1.7731163110080153,
                0.7136849018588898,
                0.5596134320836456,
                -0.061542652589983364
            ]
        },
        {
            "positions": [
                2.6553486872817844,
                -2.377120758801023,
                -1.7217568425474905,
                0.8507996002409317,
                0.5208717691071717,
                -0.027141071238556594
            ]
        },
        {
            "positions": [
                2.6600901293405674,
                -2.478189987846834,
                -1.6703973740869658,
                0.9879142986229736,
                0.48213010613069796,
                0.007260510112870178
            ]
        }
    ]
}