{
    "goal": {
        "global_pose": {
            "orientation": {
                "w": -0.00223480608172531,
                "x": 0.0024358444001904467,
                "y": 0.7094548369677653,
                "z": -0.704743149386269
            },
            "position": {
                "x": -0.37947507619857795,
                "y": -0.6371506643295288,
                "z": 0.19426114857196808
            }
        },
        "name": "move_to_magneteinheit_C"
    },
    "id": "BKPIECE_move_to_magneteinheit_C_93",
    "joint_names": [
        "shoulder_pan_joint",
        "shoulder_lift_joint",
        "elbow_joint",
        "wrist_1_joint",
        "wrist_2_joint",
        "wrist_3_joint"
    ],
    "metrics": {
        "cart_traj_len": 0.8190100745067643,
        "distance_elbow_joint": 0.9474543016887862,
        "distance_shoulder_lift_joint": 0.3133016497643597,
        "distance_shoulder_pan_joint": 0.8018740412807104,
        "distance_wrist_1_joint": 0.4087901992009152,
        "distance_wrist_2_joint": 1.1850074166552362,
        "distance_wrist_3_joint": 0.5787568146177282,
        "smoothness": 1.3654803888717197,
        "time": 0.241516864,
        "traj_len": 2.057956370579254,
        "weighted_distance": 2.6431980002072004
    },
    "planner": "BKPIECE",
    "start": {
        "state": {
            "elbow_joint": 1.9565354006593851,
            "shoulder_lift_joint": -1.4165861576512813,
            "shoulder_pan_joint": -1.6717766223278752,
            "wrist_1_joint": -0.528663328821883,
            "wrist_2_joint": 1.472756589259273,
            "wrist_3_joint": 3.159348288315503
        }
    },
    "waypoints": [
        {
            "positions": [
                -1.6717766223278752,
                -1.4165861576512813,
                1.9565354006593851,
                -0.528663328821883,
                1.472756589259273,
                3.159348288315503
            ]
        },
        {
            "positions": [
                -1.7450133480612093,
                -1.421715979355127,
                2.0403416193545514,
                -0.5215846479534092,
                1.3070832728262751,
                3.20615981002537
            ]
        },
        {
            "positions": [
                -1.8182500737945437,
                -1.426845801058973,
                2.124147838049718,
                -0.5145059670849353,
                1.1414099563932774,
                3.252971331735237
            ]
        },
        {
            "positions": [
                -1.8914867995278781,
                -1.4319756227628189,
                2.207954056744884,
                -0.5074272862164615,
                0.9757366399602794,
                3.2997828534451044
            ]
        },
        {
            "positions": [
                -1.9647235252612123,
                -1.4371054444666647,
                2.2917602754400503,
                -0.5003486053479878,
                0.8100633235272815,
                3.346594375154971
            ]
        },
        {
            "positions": [
                -2.0379602509945465,
                -1.4422352661705107,
                2.3755664941352164,
                -0.4932699244795139,
                0.6443900070942835,
                3.393405896864838
            ]
        },
        {
            "positions": [
                -2.111196976727881,
                -1.4473650878743565,
                2.459372712830383,
                -0.48619124361104005,
                0.47871669066128564,
                3.440217418574705
            ]
        },
        {
            "positions": [
                -2.1836877141040216,
                -1.3908605439660995,
                2.3704493149268253,
                -0.5594548664090545,
                0.5169101942727353,
                3.380639881703
            ]
        },
        {
            "positions": [
                -2.256178451480163,
                -1.3343560000578427,
                2.2815259170232673,
                -0.632718489207069,
                0.5551036978841851,
                3.3210623448312946
            ]
        },
        {
            "positions": [
                -2.3286691888563036,
                -1.2778514561495857,
                2.19260251911971,
                -0.7059821120050833,
                0.5932972014956348,
                3.2614848079595897
            ]
        },
        {
            "positions": [
                -2.401159926232445,
                -1.2213469122413287,
                2.103679121216152,
                -0.7792457348030979,
                0.6314907051070846,
                3.2019072710878844
            ]
        },
        {
            "positions": [
                -2.4736506636085855,
                -1.164842368333072,
                2.0147557233125943,
                -0.8525093576011122,
                0.6696842087185343,
                3.142329734216179
            ]
        }
    ]
}