{
    "goal": {
        "global_pose": {
            "orientation": {
                "w": -0.4816463035849501,
                "x": 0.5182115481033762,
                "y": 0.4908360881923453,
                "z": -0.5084816262002911
            },
            "position": {
                "x": -0.8240239810943604,
                "y": -0.300875300988555,
                "z": 0.16403168439865112
            }
        },
        "name": "move_to_storage_C"
    },
    "id": "BKPIECE_move_to_storage_C_42",
    "joint_names": [
        "shoulder_pan_joint",
        "shoulder_lift_joint",
        "elbow_joint",
        "wrist_1_joint",
        "wrist_2_joint",
        "wrist_3_joint"
    ],
    "metrics": {
        "cart_traj_len": 0.5775602523723331,
        "distance_elbow_joint": 0.26011905753352793,
        "distance_shoulder_lift_joint": 0.18956169430075798,
        "distance_shoulder_pan_joint": 0.4937995817061016,
        "distance_wrist_1_joint": 0.08087867820102457,
        "distance_wrist_2_joint": 1.0802224760843333,
        "distance_wrist_3_joint": 0.05654106020634808,
        "smoothness": 0.0,
        "time": 0.281002419,
        "traj_len": 1.470075694660684,
        "weighted_distance": 1.8534578017128276
    },
    "planner": "BKPIECE",
    "start": {
        "state": {
            "elbow_joint": 2.0108683149792914,
            "shoulder_lift_joint": -1.1634956873317392,
            "shoulder_pan_joint": -2.4736205022346,
            "wrist_1_joint": -0.8367026793690192,
            "wrist_2_joint": 0.6746043897045053,
            "wrist_3_joint": 3.133522094754363
        }
    },
    "waypoints": [
        {
            "positions": [
                -2.4736205022346,
                -1.1634956873317392,
                2.0108683149792914,
                -0.8367026793690192,
                0.6746043897045053,
                3.133522094754363
            ]
        },
        {
            "positions": [
                -2.5559204325189504,
                -1.1319020716149462,
                1.9675151387237033,
                -0.8232228996688484,
                0.8546414690518942,
                3.1429456047887543
            ]
        },
        {
            "positions": [
                -2.6382203628033007,
                -1.1003084558981533,
                1.9241619624681154,
                -0.8097431199686776,
                1.034678548399283,
                3.152369114823146
            ]
        },
        {
            "positions": [
                -2.7205202930876506,
                -1.0687148401813602,
                1.8808087862125276,
                -0.7962633402685069,
                1.214715627746672,
                3.1617926248575374
            ]
        },
        {
            "positions": [
                -2.802820223372001,
                -1.0371212244645673,
                1.8374556099569395,
                -0.7827835605683362,
                1.3947527070940609,
                3.1712161348919286
            ]
        },
        {
            "positions": [
                -2.8851201536563513,
                -1.0055276087477742,
                1.7941024337013514,
                -0.7693037808681654,
                1.5747897864414497,
                3.1806396449263197
            ]
        },
        {
            "positions": [
                -2.9674200839407017,
                -0.9739339930309813,
                1.7507492574457635,
                -0.7558240011679946,
                1.7548268657888386,
                3.1900631549607112
            ]
        }
    ]
}