{
    "goal": {
        "global_pose": {
            "orientation": {
                "w": 0.5084816262002911,
                "x": -0.4908360881923452,
                "y": 0.5182115481033761,
                "z": -0.48164630358495003
            },
            "position": {
                "x": 0.5540239810943604,
                "y": -0.46912469901144505,
                "z": 0.16403168439865112
            }
        },
        "name": "move_to_storage_B"
    },
    "id": "BKPIECE_move_to_storage_B_133",
    "joint_names": [
        "shoulder_pan_joint",
        "shoulder_lift_joint",
        "elbow_joint",
        "wrist_1_joint",
        "wrist_2_joint",
        "wrist_3_joint"
    ],
    "metrics": {
        "cart_traj_len": 2.112814102356228,
        "distance_elbow_joint": 2.5078582225071546,
        "distance_shoulder_lift_joint": 0.8570508332200881,
        "distance_shoulder_pan_joint": 0.8568022460942897,
        "distance_wrist_1_joint": 2.980147639096783,
        "distance_wrist_2_joint": 3.2572227503360787,
        "distance_wrist_3_joint": 3.2010818571976905,
        "smoothness": 0.3094136579044472,
        "time": 0.170696154,
        "traj_len": 3.695965847847094,
        "weighted_distance": 5.128323083843326
    },
    "planner": "BKPIECE",
    "start": {
        "state": {
            "elbow_joint": 1.6649325340416963,
            "shoulder_lift_joint": -0.6616387945129425,
            "shoulder_pan_joint": -0.9139837929255878,
            "wrist_1_joint": 2.1467571094334352,
            "wrist_2_joint": -2.234195976750228,
            "wrist_3_joint": 0.005470921511140723
        }
    },
    "waypoints": [
        {
            "positions": [
                -0.9139837929255878,
                -0.6616387945129425,
                1.6649325340416963,
                2.1467571094334352,
                -2.234195976750228,
                0.005470921511140723
            ]
        },
        {
            "positions": [
                -0.8407564862391016,
                -0.6745246033894777,
                1.6100445719735523,
                2.0741950905461084,
                -2.1537338217109863,
                -0.0052860168381308375
            ]
        },
        {
            "positions": [
                -0.7675291795526155,
                -0.6874104122660128,
                1.5551566099054084,
                2.001633071658782,
                -2.0732716666717446,
                -0.016042955187402397
            ]
        },
        {
            "positions": [
                -0.6943018728661292,
                -0.7002962211425481,
                1.5002686478372644,
                1.9290710527714552,
                -1.9928095116325029,
                -0.02679989353667396
            ]
        },
        {
            "positions": [
                -0.7190122977514466,
                -0.7297699282171899,
                1.4567314607903898,
                1.853348769072222,
                -1.8621690839563936,
                0.06371676876431707
            ]
        },
        {
            "positions": [
                -0.7437227226367639,
                -0.7592436352918317,
                1.4131942737435153,
                1.7776264853729888,
                -1.731528656280284,
                0.15423343106530812
            ]
        },
        {
            "positions": [
                -0.7684331475220811,
                -0.7887173423664734,
                1.3696570866966407,
                1.7019042016737556,
                -1.6008882286041748,
                0.24475009336629916
            ]
        },
        {
            "positions": [
                -0.7931435724073985,
                -0.8181910494411152,
                1.326119899649766,
                1.6261819179745225,
                -1.4702478009280653,
                0.3352667556672902
            ]
        },
        {
            "positions": [
                -0.8178539972927159,
                -0.847664756515757,
                1.2825827126028915,
                1.5504596342752892,
                -1.339607373251956,
                0.42578341796828123
            ]
        },
        {
            "positions": [
                -0.8425644221780332,
                -0.8771384635903988,
                1.2390455255560169,
                1.474737350576056,
                -1.2089669455758467,
                0.5163000802692722
            ]
        },
        {
            "positions": [
                -0.8672748470633505,
                -0.9066121706650405,
                1.1955083385091423,
                1.3990150668768229,
                -1.0783265178997374,
                0.6068167425702633
            ]
        },
        {
            "positions": [
                -0.8919852719486678,
                -0.9360858777396823,
                1.1519711514622677,
                1.3232927831775896,
                -0.9476860902236279,
                0.6973334048712543
            ]
        },
        {
            "positions": [
                -0.9166956968339852,
                -0.9655595848143241,
                1.108433964415393,
                1.2475704994783565,
                -0.8170456625475186,
                0.7878500671722454
            ]
        },
        {
            "positions": [
                -0.9414061217193025,
                -0.9950332918889659,
                1.0648967773685185,
                1.1718482157791232,
                -0.6864052348714094,
                0.8783667294732364
            ]
        },
        {
            "positions": [
                -0.9661165466046199,
                -1.0245069989636078,
                1.021359590321644,
                1.09612593207989,
                -0.5557648071952996,
                0.9688833917742276
            ]
        },
        {
            "positions": [
                -0.9908269714899371,
                -1.0539807060382496,
                0.9778224032747694,
                1.020403648380657,
                -0.4251243795191906,
                1.0594000540752184
            ]
        },
        {
            "positions": [
                -1.0155373963752545,
                -1.0834544131128914,
                0.9342852162278948,
                0.9446813646814236,
                -0.29448395184308107,
                1.1499167163762096
            ]
        },
        {
            "positions": [
                -1.040247821260572,
                -1.112928120187533,
                0.8907480291810204,
                0.8689590809821905,
                -0.1638435241669718,
                1.2404333786772006
            ]
        },
        {
            "positions": [
                -1.0649582461458893,
                -1.1424018272621748,
                0.8472108421341457,
                0.7932367972829573,
                -0.03320309649086228,
                1.3309500409781916
            ]
        },
        {
            "positions": [
                -1.0896686710312065,
                -1.1718755343368166,
                0.8036736550872712,
                0.717514513583724,
                0.097437331185247,
                1.4214667032791826
            ]
        },
        {
            "positions": [
                -1.1143790959165238,
                -1.2013492414114584,
                0.7601364680403966,
                0.6417922298844907,
                0.22807775886135628,
                1.5119833655801738
            ]
        },
        {
            "positions": [
                -1.139089520801841,
                -1.2308229484861002,
                0.716599280993522,
                0.5660699461852576,
                0.35871818653746557,
                1.6025000278811647
            ]
        },
        {
            "positions": [
                -1.1637999456871584,
                -1.260296655560742,
                0.6730620939466474,
                0.49034766248602435,
                0.4893586142135753,
                1.6930166901821557
            ]
        },
        {
            "positions": [
                -1.1885103705724758,
                -1.2897703626353838,
                0.6295249068997728,
                0.4146253787867913,
                0.6199990418896841,
                1.7835333524831467
            ]
        },
        {
            "positions": [
                -1.2132207954577932,
                -1.3192440697100256,
                0.5859877198528982,
                0.3389030950875579,
                0.7506394695657937,
                1.874050014784138
            ]
        },
        {
            "positions": [
                -1.203370678504196,
                -1.3026236065414418,
                0.7050638372127613,
                0.2412119596916492,
                0.7279405275641222,
                1.9797134426032266
            ]
        },
        {
            "positions": [
                -1.1935205615505986,
                -1.286003143372858,
                0.8241399545726245,
                0.14352082429574053,
                0.7052415855624508,
                2.0853768704223152
            ]
        },
        {
            "positions": [
                -1.1836704445970014,
                -1.2693826802042745,
                0.9432160719324876,
                0.045829688899831855,
                0.6825426435607792,
                2.191040298241404
            ]
        },
        {
            "positions": [
                -1.173820327643404,
                -1.2527622170356907,
                1.0622921892923505,
                -0.051861446496076824,
                0.6598437015591078,
                2.2967037260604926
            ]
        },
        {
            "positions": [
                -1.1639702106898069,
                -1.236141753867107,
                1.1813683066522138,
                -0.1495525818919855,
                0.6371447595574362,
                2.402367153879581
            ]
        },
        {
            "positions": [
                -1.1541200937362097,
                -1.219521290698523,
                1.3004444240120767,
                -0.24724371728789418,
                0.6144458175557648,
                2.50803058169867
            ]
        },
        {
            "positions": [
                -1.1442699767826123,
                -1.2029008275299393,
                1.41952054137194,
                -0.34493485268380286,
                0.5917468755540932,
                2.6136940095177588
            ]
        },
        {
            "positions": [
                -1.1344198598290152,
                -1.1862803643613555,
                1.538596658731803,
                -0.44262598807971154,
                0.5690479335524217,
                2.719357437336847
            ]
        },
        {
            "positions": [
                -1.1245697428754178,
                -1.1696599011927717,
                1.657672776091666,
                -0.5403171234756202,
                0.5463489915507502,
                2.8250208651559356
            ]
        },
        {
            "positions": [
                -1.1147196259218206,
                -1.1530394380241882,
                1.7767488934515292,
                -0.6380082588715289,
                0.5236500495490787,
                2.9306842929750245
            ]
        },
        {
            "positions": [
                -1.1048695089682232,
                -1.1364189748556044,
                1.8958250108113923,
                -0.7356993942674376,
                0.5009511075474072,
                3.0363477207941134
            ]
        },
        {
            "positions": [
                -1.095019392014626,
                -1.1197985116870206,
                2.0149011281712554,
                -0.8333905296633464,
                0.4782521655457357,
                3.142011148613202
            ]
        }
    ]
}