{
    "goal": {
        "global_pose": {
            "orientation": {
                "w": 0.005598929693374612,
                "x": 0.007748599140229565,
                "y": 0.7110244013736278,
                "z": -0.7031023480610252
            },
            "position": {
                "x": -0.8858502320852131,
                "y": -0.7141253447532654,
                "z": 0.3711530566215515
            }
        },
        "name": "move_to_auspresseinheit_C"
    },
    "id": "BKPIECE_move_to_auspresseinheit_C_69",
    "joint_names": [
        "shoulder_pan_joint",
        "shoulder_lift_joint",
        "elbow_joint",
        "wrist_1_joint",
        "wrist_2_joint",
        "wrist_3_joint"
    ],
    "metrics": {
        "cart_traj_len": 0.49384775219270927,
        "distance_elbow_joint": 0.9972772430365117,
        "distance_shoulder_lift_joint": 0.3232038541082778,
        "distance_shoulder_pan_joint": 0.25639875771477527,
        "distance_wrist_1_joint": 0.6631922752322872,
        "distance_wrist_2_joint": 1.3165543695983402,
        "distance_wrist_3_joint": 0.05218307823101043,
        "smoothness": 6.459479416000911e-16,
        "time": 0.548288221,
        "traj_len": 1.8996867052019928,
        "weighted_distance": 2.3859845722916675
    },
    "planner": "BKPIECE",
    "start": {
        "state": {
            "elbow_joint": 1.7527959577730765,
            "shoulder_lift_joint": -0.9740617694224828,
            "shoulder_pan_joint": -2.967991417825869,
            "wrist_1_joint": -0.7595177689779385,
            "wrist_2_joint": 1.7443932448376545,
            "wrist_3_joint": 3.1991315425061013
        }
    },
    "waypoints": [
        {
            "positions": [
                -2.967991417825869,
                -0.9740617694224828,
                1.7527959577730765,
                -0.7595177689779385,
                1.7443932448376545,
                3.1991315425061013
            ]
        },
        {
            "positions": [
                -2.9423515420543915,
                -0.941741384011655,
                1.6530682334694253,
                -0.6931985414547098,
                1.6127378078778205,
                3.1939132346830004
            ]
        },
        {
            "positions": [
                -2.916711666282914,
                -0.9094209986008273,
                1.5533405091657742,
                -0.6268793139314811,
                1.4810823709179863,
                3.1886949268598994
            ]
        },
        {
            "positions": [
                -2.8910717905114365,
                -0.8771006131899994,
                1.453612784862123,
                -0.5605600864082524,
                1.3494269339581524,
                3.183476619036798
            ]
        },
        {
            "positions": [
                -2.865431914739959,
                -0.8447802277791716,
                1.3538850605584718,
                -0.49424085888502367,
                1.2177714969983184,
                3.178258311213697
            ]
        },
        {
            "positions": [
                -2.8397920389684814,
                -0.8124598423683439,
                1.2541573362548206,
                -0.42792163136179495,
                1.0861160600384845,
                3.173040003390596
            ]
        },
        {
            "positions": [
                -2.814152163197004,
                -0.7801394569575162,
                1.1544296119511697,
                -0.36160240383856623,
                0.9544606230786504,
                3.167821695567495
            ]
        },
        {
            "positions": [
                -2.7885122874255264,
                -0.7478190715466884,
                1.0547018876475183,
                -0.29528317631533757,
                0.8228051861188164,
                3.162603387744394
            ]
        },
        {
            "positions": [
                -2.762872411654049,
                -0.7154986861358605,
                0.9549741633438671,
                -0.2289639487921088,
                0.6911497491589822,
                3.157385079921293
            ]
        },
        {
            "positions": [
                -2.7372325358825713,
                -0.6831783007250327,
                0.855246439040216,
                -0.16264472126888008,
                0.5594943121991482,
                3.152166772098192
            ]
        },
        {
            "positions": [
                -2.711592660111094,
                -0.650857915314205,
                0.7555187147365648,
                -0.09632549374565136,
                0.42783887523931424,
                3.146948464275091
            ]
        }
    ]
}