{
    "goal": {
        "global_pose": {
            "orientation": {
                "w": -0.4816463035849501,
                "x": 0.5182115481033762,
                "y": 0.4908360881923453,
                "z": -0.5084816262002911
            },
            "position": {
                "x": -0.8240239810943604,
                "y": 0.19912469901144506,
                "z": 0.16403168439865112
            }
        },
        "name": "move_to_storage_D"
    },
    "id": "BKPIECE_move_to_storage_D_60",
    "joint_names": [
        "shoulder_pan_joint",
        "shoulder_lift_joint",
        "elbow_joint",
        "wrist_1_joint",
        "wrist_2_joint",
        "wrist_3_joint"
    ],
    "metrics": {
        "cart_traj_len": 3.385843172836114,
        "distance_elbow_joint": 4.208658241138014,
        "distance_shoulder_lift_joint": 1.5326289342234416,
        "distance_shoulder_pan_joint": 2.8131156567655697,
        "distance_wrist_1_joint": 2.2671395459707044,
        "distance_wrist_2_joint": 1.1075890498613414,
        "distance_wrist_3_joint": 3.1361910493609417,
        "smoothness": 0.02815645629780193,
        "time": 0.19910754400000003,
        "traj_len": 3.8814072805259716,
        "weighted_distance": 4.971160143454839
    },
    "planner": "BKPIECE",
    "start": {
        "state": {
            "elbow_joint": -2.384821990628643,
            "shoulder_lift_joint": -2.278805467437664,
            "shoulder_pan_joint": -0.18546946439364564,
            "wrist_1_joint": 1.4845938187801415,
            "wrist_2_joint": 0.178987772454074,
            "wrist_3_joint": 0.03710569632802521
        }
    },
    "waypoints": [
        {
            "positions": [
                -0.18546946439364564,
                -2.278805467437664,
                -2.384821990628643,
                1.4845938187801415,
                0.178987772454074,
                0.03710569632802521
            ]
        },
        {
            "positions": [
                -0.07791321934352019,
                -2.2179849033416765,
                -2.2555214611859173,
                1.447175210689897,
                0.1738238676049556,
                -0.007925897030596651
            ]
        },
        {
            "positions": [
                0.029643025706605264,
                -2.1571643392456896,
                -2.126220931743192,
                1.4097566025996524,
                0.16865996275583725,
                -0.052957490389218514
            ]
        },
        {
            "positions": [
                0.13719927075673072,
                -2.0963437751497023,
                -1.996920402300466,
                1.3723379945094079,
                0.16349605790671887,
                -0.09798908374784038
            ]
        },
        {
            "positions": [
                0.24475551580685617,
                -2.0355232110537154,
                -1.8676198728577402,
                1.3349193864191633,
                0.1583321530576005,
                -0.14302067710646224
            ]
        },
        {
            "positions": [
                0.3523117608569817,
                -1.974702646957728,
                -1.7383193434150144,
                1.2975007783289187,
                0.15316824820848213,
                -0.1880522704650841
            ]
        },
        {
            "positions": [
                0.4598680059071071,
                -1.9138820828617409,
                -1.6090188139722887,
                1.2600821702386742,
                0.14800434335936377,
                -0.23308386382370597
            ]
        },
        {
            "positions": [
                0.5674242509572326,
                -1.8530615187657535,
                -1.479718284529563,
                1.2226635621484296,
                0.1428404385102454,
                -0.2781154571823279
            ]
        },
        {
            "positions": [
                0.674980496007358,
                -1.7922409546697664,
                -1.3504177550868373,
                1.1852449540581853,
                0.13767653366112703,
                -0.3231470505409497
            ]
        },
        {
            "positions": [
                0.7825367410574835,
                -1.7314203905737793,
                -1.2211172256441114,
                1.1478263459679405,
                0.13251262881200865,
                -0.36817864389957156
            ]
        },
        {
            "positions": [
                0.890092986107609,
                -1.6705998264777921,
                -1.0918166962013858,
                1.1104077378776962,
                0.1273487239628903,
                -0.4132102372581934
            ]
        },
        {
            "positions": [
                0.9976492311577345,
                -1.6097792623818048,
                -0.9625161667586601,
                1.0729891297874516,
                0.12218481911377191,
                -0.45824183061681534
            ]
        },
        {
            "positions": [
                1.1052054762078598,
                -1.548958698285818,
                -0.8332156373159343,
                1.035570521697207,
                0.11702091426465355,
                -0.5032734239754372
            ]
        },
        {
            "positions": [
                1.2127617212579853,
                -1.4881381341898305,
                -0.7039151078732087,
                0.9981519136069625,
                0.11185700941553518,
                -0.548305017334059
            ]
        },
        {
            "positions": [
                1.3203179663081108,
                -1.4273175700938432,
                -0.5746145784304828,
                0.9607333055167179,
                0.1066931045664168,
                -0.593336610692681
            ]
        },
        {
            "positions": [
                1.4278742113582363,
                -1.3664970059978563,
                -0.44531404898775717,
                0.9233146974264733,
                0.10152919971729843,
                -0.6383682040513028
            ]
        },
        {
            "positions": [
                1.5354304564083616,
                -1.305676441901869,
                -0.3160135195450313,
                0.8858960893362289,
                0.09636529486818006,
                -0.6833997974099246
            ]
        },
        {
            "positions": [
                1.6429867014584871,
                -1.244855877805882,
                -0.1867129901023059,
                0.8484774812459843,
                0.0912013900190617,
                -0.7284313907685465
            ]
        },
        {
            "positions": [
                1.7505429465086126,
                -1.1840353137098947,
                -0.05741246065957961,
                0.8110588731557397,
                0.08603748516994332,
                -0.7734629841271684
            ]
        },
        {
            "positions": [
                1.858099191558738,
                -1.1232147496139075,
                0.0718880687831458,
                0.7736402650654952,
                0.08087358032082495,
                -0.8184945774857902
            ]
        },
        {
            "positions": [
                1.9656554366088637,
                -1.0623941855179204,
                0.20118859822587165,
                0.7362216569752507,
                0.07570967547170658,
                -0.8635261708444121
            ]
        },
        {
            "positions": [
                2.073211681658989,
                -1.0015736214219333,
                0.33048912766859706,
                0.6988030488850061,
                0.07054577062258822,
                -0.9085577642030339
            ]
        },
        {
            "positions": [
                2.1807679267091147,
                -0.9407530573259459,
                0.4597896571113229,
                0.6613844407947616,
                0.06538186577346984,
                -0.9535893575616559
            ]
        },
        {
            "positions": [
                2.28832417175924,
                -0.8799324932299588,
                0.589090186554049,
                0.623965832704517,
                0.06021796092435148,
                -0.9986209509202777
            ]
        },
        {
            "positions": [
                2.3095317980475327,
                -0.8882922407309424,
                0.6662618155512566,
                0.5360588602110744,
                0.12201916332007766,
                -1.1298999760523176
            ]
        },
        {
            "positions": [
                2.3307394243358255,
                -0.8966519882319259,
                0.7434334445484643,
                0.4481518877176318,
                0.18382036571580385,
                -1.2611790011843576
            ]
        },
        {
            "positions": [
                2.3519470506241182,
                -0.9050117357329095,
                0.8206050735456719,
                0.3602449152241892,
                0.24562156811153002,
                -1.3924580263163975
            ]
        },
        {
            "positions": [
                2.373154676912411,
                -0.9133714832338931,
                0.8977767025428796,
                0.27233794273074663,
                0.3074227705072562,
                -1.5237370514484374
            ]
        },
        {
            "positions": [
                2.3943623032007038,
                -0.9217312307348765,
                0.9749483315400872,
                0.18443097023730404,
                0.3692239729029824,
                -1.6550160765804773
            ]
        },
        {
            "positions": [
                2.4155699294889965,
                -0.9300909782358601,
                1.0521199605372948,
                0.09652399774386144,
                0.4310251752987086,
                -1.7862951017125173
            ]
        },
        {
            "positions": [
                2.4367775557772893,
                -0.9384507257368436,
                1.1292915895345024,
                0.008617025250418853,
                0.49282637769443477,
                -1.9175741268445572
            ]
        },
        {
            "positions": [
                2.457985182065582,
                -0.9468104732378272,
                1.2064632185317101,
                -0.07928994724302374,
                0.5546275800901609,
                -2.048853151976597
            ]
        },
        {
            "positions": [
                2.479192808353875,
                -0.9551702207388107,
                1.2836348475289179,
                -0.16719691973646633,
                0.6164287824858872,
                -2.180132177108637
            ]
        },
        {
            "positions": [
                2.5004004346421675,
                -0.9635299682397943,
                1.3608064765261254,
                -0.2551038922299089,
                0.6782299848816133,
                -2.311411202240677
            ]
        },
        {
            "positions": [
                2.5216080609304603,
                -0.9718897157407779,
                1.437978105523333,
                -0.3430108647233515,
                0.7400311872773395,
                -2.442690227372717
            ]
        },
        {
            "positions": [
                2.542815687218753,
                -0.9802494632417613,
                1.5151497345205407,
                -0.4309178372167941,
                0.8018323896730657,
                -2.5739692525047566
            ]
        },
        {
            "positions": [
                2.564023313507046,
                -0.9886092107427449,
                1.5923213635177482,
                -0.5188248097102366,
                0.8636335920687919,
                -2.7052482776367968
            ]
        },
        {
            "positions": [
                2.5852309397953386,
                -0.9969689582437284,
                1.669492992514956,
                -0.6067317822036793,
                0.925434794464518,
                -2.836527302768837
            ]
        },
        {
            "positions": [
                2.6064385660836313,
                -1.005328705744712,
                1.7466646215121637,
                -0.694638754697122,
                0.9872359968602442,
                -2.9678063279008766
            ]
        },
        {
            "positions": [
                2.627646192371924,
                -1.0136884532456956,
                1.8238362505093713,
                -0.7825457271905644,
                1.0490371992559704,
                -3.0990853530329168
            ]
        }
    ]
}