{
    "goal": {
        "global_pose": {
            "orientation": {
                "w": 0.7047431468963623,
                "x": -0.7094548344612122,
                "y": 0.0024358443915843964,
                "z": -0.0022348060738295317
            },
            "position": {
                "x": 0.6094750761985779,
                "y": 0.3671506643295288,
                "z": 0.19426114857196808
            }
        },
        "name": "move_to_magneteinheit_A"
    },
    "id": "BKPIECE_move_to_magneteinheit_A_55",
    "joint_names": [
        "shoulder_pan_joint",
        "shoulder_lift_joint",
        "elbow_joint",
        "wrist_1_joint",
        "wrist_2_joint",
        "wrist_3_joint"
    ],
    "metrics": {
        "cart_traj_len": 1.5924388279229316,
        "distance_elbow_joint": 3.5252668038318093,
        "distance_shoulder_lift_joint": 1.134435717247357,
        "distance_shoulder_pan_joint": 1.2406570893000441,
        "distance_wrist_1_joint": 3.832087631360105,
        "distance_wrist_2_joint": 1.6973757208202835,
        "distance_wrist_3_joint": 5.026364069299511,
        "smoothness": 8.262124899841806e-17,
        "time": 0.263887354,
        "traj_len": 4.056622613931337,
        "weighted_distance": 5.660245447207967
    },
    "planner": "BKPIECE",
    "start": {
        "state": {
            "elbow_joint": -1.5739458827952972,
            "shoulder_lift_joint": 0.006533473998580023,
            "shoulder_pan_joint": -1.1188671628667068,
            "wrist_1_joint": 3.138208179676308,
            "wrist_2_joint": -1.5706037135050406,
            "wrist_3_joint": -2.0226958329764257
        }
    },
    "waypoints": [
        {
            "positions": [
                -1.1188671628667068,
                0.006533473998580023,
                -1.5739458827952972,
                3.138208179676308,
                -1.5706037135050406,
                -2.0226958329764257
            ]
        },
        {
            "positions": [
                -1.089327708359563,
                -0.02047690022159514,
                -1.4900109588945398,
                3.046967997977258,
                -1.5301900058664624,
                -1.903020497993104
            ]
        },
        {
            "positions": [
                -1.059788253852419,
                -0.047487274441770304,
                -1.4060760349937824,
                2.955727816278208,
                -1.4897762982278842,
                -1.7833451630097823
            ]
        },
        {
            "positions": [
                -1.0302487993452751,
                -0.07449764866194547,
                -1.3221411110930252,
                2.8644876345791577,
                -1.449362590589306,
                -1.6636698280264608
            ]
        },
        {
            "positions": [
                -1.0007093448381312,
                -0.10150802288212063,
                -1.2382061871922678,
                2.7732474528801077,
                -1.408948882950728,
                -1.543994493043139
            ]
        },
        {
            "positions": [
                -0.9711698903309873,
                -0.1285183971022958,
                -1.1542712632915104,
                2.6820072711810576,
                -1.3685351753121497,
                -1.4243191580598173
            ]
        },
        {
            "positions": [
                -0.9416304358238434,
                -0.15552877132247095,
                -1.070336339390753,
                2.5907670894820076,
                -1.3281214676735715,
                -1.3046438230764956
            ]
        },
        {
            "positions": [
                -0.9120909813166995,
                -0.1825391455426461,
                -0.9864014154899957,
                2.4995269077829576,
                -1.2877077600349933,
                -1.184968488093174
            ]
        },
        {
            "positions": [
                -0.8825515268095556,
                -0.20954951976282127,
                -0.9024664915892383,
                2.408286726083907,
                -1.247294052396415,
                -1.0652931531098524
            ]
        },
        {
            "positions": [
                -0.8530120723024117,
                -0.23655989398299643,
                -0.818531567688481,
                2.317046544384857,
                -1.206880344757837,
                -0.9456178181265307
            ]
        },
        {
            "positions": [
                -0.8234726177952678,
                -0.26357026820317164,
                -0.7345966437877236,
                2.225806362685807,
                -1.166466637119259,
                -0.825942483143209
            ]
        },
        {
            "positions": [
                -0.7939331632881239,
                -0.2905806424233468,
                -0.6506617198869662,
                2.1345661809867567,
                -1.1260529294806805,
                -0.706267148159887
            ]
        },
        {
            "positions": [
                -0.76439370878098,
                -0.31759101664352196,
                -0.566726795986209,
                2.043325999287707,
                -1.0856392218421025,
                -0.5865918131765655
            ]
        },
        {
            "positions": [
                -0.7348542542738361,
                -0.3446013908636971,
                -0.4827918720854514,
                1.9520858175886566,
                -1.0452255142035243,
                -0.4669164781932438
            ]
        },
        {
            "positions": [
                -0.7053147997666922,
                -0.3716117650838723,
                -0.3988569481846942,
                1.8608456358896066,
                -1.004811806564946,
                -0.34724114320992205
            ]
        },
        {
            "positions": [
                -0.6757753452595482,
                -0.3986221393040475,
                -0.3149220242839368,
                1.7696054541905564,
                -0.9643980989263679,
                -0.22756580822660033
            ]
        },
        {
            "positions": [
                -0.6462358907524044,
                -0.4256325135242226,
                -0.23098710038317938,
                1.6783652724915064,
                -0.9239843912877898,
                -0.10789047324327883
            ]
        },
        {
            "positions": [
                -0.6166964362452604,
                -0.4526428877443978,
                -0.14705217648242197,
                1.5871250907924561,
                -0.8835706836492115,
                0.011784861740042896
            ]
        },
        {
            "positions": [
                -0.5871569817381165,
                -0.4796532619645729,
                -0.06311725258166478,
                1.495884909093406,
                -0.8431569760106334,
                0.1314601967233644
            ]
        },
        {
            "positions": [
                -0.5576175272309726,
                -0.5066636361847481,
                0.020817671319092623,
                1.4046447273943559,
                -0.8027432683720551,
                0.25113553170668634
            ]
        },
        {
            "positions": [
                -0.5280780727238287,
                -0.5336740104049232,
                0.10475259521985003,
                1.3134045456953058,
                -0.762329560733477,
                0.37081086669000785
            ]
        },
        {
            "positions": [
                -0.49853861821668477,
                -0.5606843846250984,
                0.18868751912060744,
                1.2221643639962556,
                -0.7219158530948988,
                0.4904862016733298
            ]
        },
        {
            "positions": [
                -0.46899916370954087,
                -0.5876947588452736,
                0.27262244302136485,
                1.1309241822972056,
                -0.6815021454563206,
                0.6101615366566517
            ]
        },
        {
            "positions": [
                -0.43945970920239685,
                -0.6147051330654488,
                0.35655736692212225,
                1.0396840005981551,
                -0.6410884378177424,
                0.7298368716399732
            ]
        },
        {
            "positions": [
                -0.40992025469525306,
                -0.6417155072856239,
                0.4404922908228792,
                0.9484438188991056,
                -0.6006747301791643,
                0.8495122066232947
            ]
        },
        {
            "positions": [
                -0.38038080018810916,
                -0.668725881505799,
                0.5244272147236371,
                0.8572036372000551,
                -0.5602610225405862,
                0.9691875416066167
            ]
        },
        {
            "positions": [
                -0.35084134568096526,
                -0.6957362557259742,
                0.6083621386243945,
                0.7659634555010051,
                -0.519847314902008,
                1.0888628765899382
            ]
        },
        {
            "positions": [
                -0.32130189117382124,
                -0.7227466299461495,
                0.6922970625251519,
                0.6747232738019546,
                -0.47943360726342954,
                1.2085382115732601
            ]
        },
        {
            "positions": [
                -0.29176243666667745,
                -0.7497570041663245,
                0.7762319864259088,
                0.583483092102905,
                -0.43901989962485155,
                1.3282135465565816
            ]
        },
        {
            "positions": [
                -0.26222298215953355,
                -0.7767673783864997,
                0.8601669103266663,
                0.4922429104038546,
                -0.39860619198627334,
                1.4478888815399031
            ]
        },
        {
            "positions": [
                -0.23268352765238953,
                -0.8037777526066749,
                0.9441018342274237,
                0.4010027287048046,
                -0.35819248434769513,
                1.567564216523225
            ]
        },
        {
            "positions": [
                -0.20314407314524563,
                -0.8307881268268501,
                1.028036758128181,
                0.3097625470057541,
                -0.3177787767091169,
                1.687239551506547
            ]
        },
        {
            "positions": [
                -0.17360461863810184,
                -0.8577985010470252,
                1.1119716820289385,
                0.21852236530670455,
                -0.2773650690705389,
                1.806914886489868
            ]
        },
        {
            "positions": [
                -0.14406516413095793,
                -0.8848088752672003,
                1.1959066059296959,
                0.1272821836076541,
                -0.23695136143196072,
                1.92659022147319
            ]
        },
        {
            "positions": [
                -0.11452570962381392,
                -0.9118192494873756,
                1.2798415298304533,
                0.03604200190860407,
                -0.1965376537933825,
                2.0462655564565115
            ]
        },
        {
            "positions": [
                -0.08498625511667002,
                -0.9388296237075507,
                1.3637764537312107,
                -0.05519817979044639,
                -0.1561239461548043,
                2.1659408914398335
            ]
        },
        {
            "positions": [
                -0.055446800609526115,
                -0.9658399979277258,
                1.4477113776319677,
                -0.14643836148949596,
                -0.1157102385162263,
                2.2856162264231545
            ]
        },
        {
            "positions": [
                -0.02590734610238221,
                -0.9928503721479011,
                1.531646301532725,
                -0.23767854318854642,
                -0.07529653087764787,
                2.4052915614064765
            ]
        },
        {
            "positions": [
                0.0036321084047616914,
                -1.0198607463680762,
                1.6155812254334825,
                -0.32891872488759644,
                -0.03488282323906966,
                2.5249668963897984
            ]
        },
        {
            "positions": [
                0.033171562911905594,
                -1.0468711205882515,
                1.6995161493342403,
                -0.4201589065866469,
                0.005530884399508551,
                2.6446422313731204
            ]
        },
        {
            "positions": [
                0.0627110174190495,
                -1.0738814948084265,
                1.7834510732349973,
                -0.5113990882856965,
                0.04594459203808654,
                2.7643175663564414
            ]
        },
        {
            "positions": [
                0.0922504719261934,
                -1.1008918690286016,
                1.8673859971357547,
                -0.6026392699847469,
                0.08635829967666475,
                2.8839929013397634
            ]
        },
        {
            "positions": [
                0.12178992643333723,
                -1.1279022432487769,
                1.9513209210365121,
                -0.6938794516837967,
                0.126772007315243,
                3.0036682363230858
            ]
        }
    ]
}