{
    "goal": {
        "global_pose": {
            "orientation": {
                "w": -0.4816463035849501,
                "x": 0.5182115481033762,
                "y": 0.4908360881923453,
                "z": -0.5084816262002911
            },
            "position": {
                "x": -0.8240239810943604,
                "y": 0.19912469901144506,
                "z": 0.16403168439865112
            }
        },
        "name": "move_to_storage_D"
    },
    "id": "BKPIECE_move_to_storage_D_102",
    "joint_names": [
        "shoulder_pan_joint",
        "shoulder_lift_joint",
        "elbow_joint",
        "wrist_1_joint",
        "wrist_2_joint",
        "wrist_3_joint"
    ],
    "metrics": {
        "cart_traj_len": 0.5457785741219779,
        "distance_elbow_joint": 0.9661081630441488,
        "distance_shoulder_lift_joint": 0.15316662836555972,
        "distance_shoulder_pan_joint": 0.42688551293405397,
        "distance_wrist_1_joint": 3.8269726437096745,
        "distance_wrist_2_joint": 1.7812584175707047,
        "distance_wrist_3_joint": 3.1225026746049935,
        "smoothness": 0.1251719337165697,
        "time": 0.34427349500000004,
        "traj_len": 3.205759510666565,
        "weighted_distance": 4.70426725970363
    },
    "planner": "BKPIECE",
    "start": {
        "state": {
            "elbow_joint": -2.384821990628643,
            "shoulder_lift_joint": -2.278805467437664,
            "shoulder_pan_joint": -0.18546946439364564,
            "wrist_1_joint": 1.4845938187801415,
            "wrist_2_joint": 0.178987772454074,
            "wrist_3_joint": 0.03710569632802521
        }
    },
    "waypoints": [
        {
            "positions": [
                -0.18546946439364564,
                -2.278805467437664,
                -2.384821990628643,
                1.4845938187801415,
                0.178987772454074,
                0.03710569632802521
            ]
        },
        {
            "positions": [
                -0.12761986972397954,
                -2.277286173502625,
                -2.425907316260297,
                1.3548644773687566,
                0.09739106108998784,
                -0.029347083767555807
            ]
        },
        {
            "positions": [
                -0.06977027505431344,
                -2.275766879567586,
                -2.4669926418919514,
                1.225135135957372,
                0.015794349725901685,
                -0.09579986386313682
            ]
        },
        {
            "positions": [
                -0.01192068038464733,
                -2.2742475856325473,
                -2.5080779675236053,
                1.095405794545987,
                -0.06580236163818445,
                -0.16225264395871786
            ]
        },
        {
            "positions": [
                0.045928914285018774,
                -2.2727282916975082,
                -2.5491632931552597,
                0.9656764531346022,
                -0.14739907300227062,
                -0.22870542405429886
            ]
        },
        {
            "positions": [
                0.10377850895468488,
                -2.271208997762469,
                -2.5902486187869136,
                0.8359471117232173,
                -0.22899578436635673,
                -0.29515820414987987
            ]
        },
        {
            "positions": [
                0.09752225715533383,
                -2.2645921723674527,
                -2.55567218538301,
                0.6914777509662742,
                -0.29141736894591463,
                -0.42198723933747484
            ]
        },
        {
            "positions": [
                0.09126600535598277,
                -2.257975346972436,
                -2.5210957519791064,
                0.547008390209331,
                -0.3538389535254725,
                -0.5488162745250698
            ]
        },
        {
            "positions": [
                0.08500975355663172,
                -2.2513585215774192,
                -2.486519318575203,
                0.4025390294523878,
                -0.4162605381050304,
                -0.6756453097126647
            ]
        },
        {
            "positions": [
                0.07875350175728066,
                -2.2447416961824027,
                -2.451942885171299,
                0.25806966869544457,
                -0.47868212268458826,
                -0.8024743449002596
            ]
        },
        {
            "positions": [
                0.07249724995792961,
                -2.238124870787386,
                -2.417366451767396,
                0.1136003079385014,
                -0.5411037072641461,
                -0.9293033800878545
            ]
        },
        {
            "positions": [
                0.06624099815857856,
                -2.2315080453923697,
                -2.382790018363492,
                -0.030869052818441767,
                -0.603525291843704,
                -1.0561324152754494
            ]
        },
        {
            "positions": [
                0.0599847463592275,
                -2.224891219997353,
                -2.3482135849595887,
                -0.17533841357538504,
                -0.6659468764232619,
                -1.1829614504630444
            ]
        },
        {
            "positions": [
                0.053728494559876445,
                -2.2182743946023367,
                -2.3136371515556853,
                -0.3198077743323282,
                -0.7283684610028198,
                -1.3097904856506395
            ]
        },
        {
            "positions": [
                0.047472242760525384,
                -2.2116575692073197,
                -2.2790607181517815,
                -0.4642771350892714,
                -0.7907900455823776,
                -1.4366195208382344
            ]
        },
        {
            "positions": [
                0.04121599096117434,
                -2.205040743812303,
                -2.244484284747878,
                -0.6087464958462145,
                -0.8532116301619355,
                -1.5634485560258293
            ]
        },
        {
            "positions": [
                0.03495973916182328,
                -2.1984239184172867,
                -2.2099078513439743,
                -0.7532158566031577,
                -0.9156332147414934,
                -1.6902775912134242
            ]
        },
        {
            "positions": [
                0.028703487362472233,
                -2.19180709302227,
                -2.175331417940071,
                -0.8976852173601009,
                -0.9780547993210512,
                -1.8171066264010192
            ]
        },
        {
            "positions": [
                0.02244723556312117,
                -2.1851902676272537,
                -2.140754984536167,
                -1.0421545781170443,
                -1.0404763839006093,
                -1.9439356615886143
            ]
        },
        {
            "positions": [
                0.016190983763770123,
                -2.1785734422322367,
                -2.1061785511322637,
                -1.1866239388739874,
                -1.1028979684801672,
                -2.070764696776209
            ]
        },
        {
            "positions": [
                0.009934731964419075,
                -2.17195661683722,
                -2.07160211772836,
                -1.3310932996309304,
                -1.165319553059725,
                -2.1975937319638037
            ]
        },
        {
            "positions": [
                0.0036784801650680127,
                -2.1653397914422037,
                -2.0370256843244565,
                -1.4755626603878738,
                -1.2277411376392828,
                -2.324422767151399
            ]
        },
        {
            "positions": [
                -0.0025777716342830492,
                -2.158722966047187,
                -2.002449250920553,
                -1.6200320211448167,
                -1.2901627222188408,
                -2.451251802338994
            ]
        },
        {
            "positions": [
                -0.008834023433634111,
                -2.1521061406521707,
                -1.9678728175166493,
                -1.76450138190176,
                -1.3525843067983987,
                -2.578080837526589
            ]
        },
        {
            "positions": [
                -0.01509027523298516,
                -2.145489315257154,
                -1.933296384112746,
                -1.908970742658703,
                -1.4150058913779566,
                -2.704909872714184
            ]
        },
        {
            "positions": [
                -0.021346527032336193,
                -2.138872489862137,
                -1.8987199507088424,
                -2.0534401034156464,
                -1.4774274759575143,
                -2.8317389079017787
            ]
        },
        {
            "positions": [
                -0.02760277883168727,
                -2.1322556644671207,
                -1.8641435173049388,
                -2.19790946417259,
                -1.5398490605370723,
                -2.9585679430893737
            ]
        },
        {
            "positions": [
                -0.03385903063103832,
                -2.125638839072104,
                -1.8295670839010352,
                -2.3423788249295328,
                -1.6022706451166302,
                -3.0853969782769686
            ]
        }
    ]
}