{
    "goal": {
        "global_pose": {
            "orientation": {
                "w": -0.4816463035849501,
                "x": 0.5182115481033762,
                "y": 0.4908360881923453,
                "z": -0.5084816262002911
            },
            "position": {
                "x": -0.8240239810943604,
                "y": -0.300875300988555,
                "z": 0.16403168439865112
            }
        },
        "name": "move_to_storage_C"
    },
    "id": "BKPIECE_move_to_storage_C_122",
    "joint_names": [
        "shoulder_pan_joint",
        "shoulder_lift_joint",
        "elbow_joint",
        "wrist_1_joint",
        "wrist_2_joint",
        "wrist_3_joint"
    ],
    "metrics": {
        "cart_traj_len": 0.5761327024392594,
        "distance_elbow_joint": 0.2594639670660155,
        "distance_shoulder_lift_joint": 0.1888988531487943,
        "distance_shoulder_pan_joint": 0.49533316260166593,
        "distance_wrist_1_joint": 0.08639993173281013,
        "distance_wrist_2_joint": 1.0584954319247597,
        "distance_wrist_3_joint": 0.06011776355101617,
        "smoothness": 0.0,
        "time": 0.212307456,
        "traj_len": 1.4658475739397536,
        "weighted_distance": 1.8476579772199895
    },
    "planner": "BKPIECE",
    "start": {
        "state": {
            "elbow_joint": 2.0108683149792914,
            "shoulder_lift_joint": -1.1634956873317392,
            "shoulder_pan_joint": -2.4736205022346,
            "wrist_1_joint": -0.8367026793690192,
            "wrist_2_joint": 0.6746043897045053,
            "wrist_3_joint": 3.133522094754363
        }
    },
    "waypoints": [
        {
            "positions": [
                -2.4736205022346,
                -1.1634956873317392,
                2.0108683149792914,
                -0.8367026793690192,
                0.6746043897045053,
                3.133522094754363
            ]
        },
        {
            "positions": [
                -2.556176029334878,
                -1.1320125451402736,
                1.9676243204682888,
                -0.8223026907468842,
                0.8510202950252985,
                3.143541722012866
            ]
        },
        {
            "positions": [
                -2.6387315564351552,
                -1.1005294029488077,
                1.9243803259572863,
                -0.8079027021247491,
                1.027436200346092,
                3.1535613492713686
            ]
        },
        {
            "positions": [
                -2.721287083535433,
                -1.069046260757342,
                1.8811363314462837,
                -0.7935027135026141,
                1.2038521056668852,
                3.1635809765298712
            ]
        },
        {
            "positions": [
                -2.803842610635711,
                -1.0375631185658765,
                1.837892336935281,
                -0.7791027248804792,
                1.3802680109876784,
                3.173600603788374
            ]
        },
        {
            "positions": [
                -2.886398137735988,
                -1.0060799763744106,
                1.7946483424242785,
                -0.7647027362583441,
                1.5566839163084718,
                3.1836202310468766
            ]
        },
        {
            "positions": [
                -2.968953664836266,
                -0.974596834182945,
                1.751404347913276,
                -0.7503027476362091,
                1.733099821629265,
                3.1936398583053793
            ]
        }
    ]
}