{
    "goal": {
        "global_pose": {
            "orientation": {
                "w": -0.4816463035849501,
                "x": 0.5182115481033762,
                "y": 0.4908360881923453,
                "z": -0.5084816262002911
            },
            "position": {
                "x": -0.8240239810943604,
                "y": -0.300875300988555,
                "z": 0.16403168439865112
            }
        },
        "name": "move_to_storage_C"
    },
    "id": "BKPIECE_move_to_storage_C_76",
    "joint_names": [
        "shoulder_pan_joint",
        "shoulder_lift_joint",
        "elbow_joint",
        "wrist_1_joint",
        "wrist_2_joint",
        "wrist_3_joint"
    ],
    "metrics": {
        "cart_traj_len": 0.5766063206825037,
        "distance_elbow_joint": 0.2593892346262785,
        "distance_shoulder_lift_joint": 0.18871036128826613,
        "distance_shoulder_pan_joint": 0.4952340174331251,
        "distance_wrist_1_joint": 0.08235984658263595,
        "distance_wrist_2_joint": 1.061383134301709,
        "distance_wrist_3_joint": 0.06221692537216539,
        "smoothness": 0.0,
        "time": 0.308404707,
        "traj_len": 1.4660469022525098,
        "weighted_distance": 1.8486401356761828
    },
    "planner": "BKPIECE",
    "start": {
        "state": {
            "elbow_joint": 2.0108683149792914,
            "shoulder_lift_joint": -1.1634956873317392,
            "shoulder_pan_joint": -2.4736205022346,
            "wrist_1_joint": -0.8367026793690192,
            "wrist_2_joint": 0.6746043897045053,
            "wrist_3_joint": 3.133522094754363
        }
    },
    "waypoints": [
        {
            "positions": [
                -2.4736205022346,
                -1.1634956873317392,
                2.0108683149792914,
                -0.8367026793690192,
                0.6746043897045053,
                3.133522094754363
            ]
        },
        {
            "positions": [
                -2.556159505140121,
                -1.1320439604503616,
                1.9676367758749116,
                -0.8229760382719132,
                0.8515015787547902,
                3.1438915823163907
            ]
        },
        {
            "positions": [
                -2.6386985080456418,
                -1.100592233568984,
                1.924405236770532,
                -0.8092493971748073,
                1.028398767805075,
                3.154261069878418
            ]
        },
        {
            "positions": [
                -2.7212375109511626,
                -1.069140506687606,
                1.8811736976661522,
                -0.7955227560777012,
                1.2052959568553598,
                3.1646305574404456
            ]
        },
        {
            "positions": [
                -2.8037765138566835,
                -1.0376887798062284,
                1.8379421585617723,
                -0.7817961149805952,
                1.3821931459056447,
                3.1750000450024736
            ]
        },
        {
            "positions": [
                -2.8863155167622043,
                -1.0062370529248508,
                1.7947106194573927,
                -0.7680694738834892,
                1.5590903349559295,
                3.185369532564501
            ]
        },
        {
            "positions": [
                -2.968854519667725,
                -0.9747853260434731,
                1.751479080353013,
                -0.7543428327863833,
                1.7359875240062144,
                3.1957390201265286
            ]
        }
    ]
}