{
    "goal": {
        "global_pose": {
            "orientation": {
                "w": 0.5084816262002911,
                "x": -0.4908360881923452,
                "y": 0.5182115481033761,
                "z": -0.48164630358495003
            },
            "position": {
                "x": 0.5540239810943604,
                "y": -0.46912469901144505,
                "z": 0.16403168439865112
            }
        },
        "name": "move_to_storage_B"
    },
    "id": "BKPIECE_move_to_storage_B_54",
    "joint_names": [
        "shoulder_pan_joint",
        "shoulder_lift_joint",
        "elbow_joint",
        "wrist_1_joint",
        "wrist_2_joint",
        "wrist_3_joint"
    ],
    "metrics": {
        "cart_traj_len": 2.4103479026525734,
        "distance_elbow_joint": 2.158809080404092,
        "distance_shoulder_lift_joint": 0.45884273214172233,
        "distance_shoulder_pan_joint": 2.228902057025387,
        "distance_wrist_1_joint": 2.9881852731658354,
        "distance_wrist_2_joint": 2.7187447733575936,
        "distance_wrist_3_joint": 4.700575128934716,
        "smoothness": 0.3269657734680819,
        "time": 0.291574574,
        "traj_len": 3.9056445108367632,
        "weighted_distance": 5.510185055823643
    },
    "planner": "BKPIECE",
    "start": {
        "state": {
            "elbow_joint": 1.6649325340416963,
            "shoulder_lift_joint": -0.6616387945129425,
            "shoulder_pan_joint": -0.9139837929255878,
            "wrist_1_joint": 2.1467571094334352,
            "wrist_2_joint": -2.234195976750228,
            "wrist_3_joint": 0.005470921511140723
        }
    },
    "waypoints": [
        {
            "positions": [
                -0.9139837929255878,
                -0.6616387945129425,
                1.6649325340416963,
                2.1467571094334352,
                -2.234195976750228,
                0.005470921511140723
            ]
        },
        {
            "positions": [
                -0.8911310252832989,
                -0.6691652369748797,
                1.6439242573476704,
                2.1212210403788383,
                -2.2035415437690182,
                -0.014639041074324476
            ]
        },
        {
            "positions": [
                -0.8322193047103879,
                -0.6953775658979572,
                1.5919884714741612,
                2.0060096609456908,
                -2.1116439427443185,
                -0.05944939932252937
            ]
        },
        {
            "positions": [
                -0.7733075841374768,
                -0.7215898948210347,
                1.5400526856006522,
                1.8907982815125433,
                -2.0197463417196184,
                -0.10425975757073427
            ]
        },
        {
            "positions": [
                -0.7143958635645657,
                -0.7478022237441122,
                1.4881168997271432,
                1.7755869020793955,
                -1.9278487406949185,
                -0.14907011581893917
            ]
        },
        {
            "positions": [
                -0.6554841429916547,
                -0.7740145526671898,
                1.436181113853634,
                1.660375522646248,
                -1.8359511396702186,
                -0.19388047406714407
            ]
        },
        {
            "positions": [
                -0.5965724224187436,
                -0.8002268815902672,
                1.3842453279801248,
                1.5451641432131002,
                -1.744053538645519,
                -0.23869083231534896
            ]
        },
        {
            "positions": [
                -0.5376607018458326,
                -0.8264392105133447,
                1.3323095421066158,
                1.4299527637799527,
                -1.6521559376208188,
                -0.28350119056355383
            ]
        },
        {
            "positions": [
                -0.47874898127292154,
                -0.8526515394364222,
                1.2803737562331068,
                1.3147413843468052,
                -1.5602583365961191,
                -0.3283115488117587
            ]
        },
        {
            "positions": [
                -0.4198372607000105,
                -0.8788638683594997,
                1.2284379703595976,
                1.1995300049136577,
                -1.4683607355714192,
                -0.3731219070599636
            ]
        },
        {
            "positions": [
                -0.36092554012709943,
                -0.9050761972825773,
                1.1765021844860883,
                1.0843186254805102,
                -1.3764631345467193,
                -0.4179322653081685
            ]
        },
        {
            "positions": [
                -0.3020138195541884,
                -0.9312885262056547,
                1.1245663986125793,
                0.9691072460473624,
                -1.2845655335220194,
                -0.4627426235563734
            ]
        },
        {
            "positions": [
                -0.24310209898127733,
                -0.9575008551287323,
                1.0726306127390703,
                0.8538958666142149,
                -1.1926679324973195,
                -0.5075529818045783
            ]
        },
        {
            "positions": [
                -0.18419037840836627,
                -0.9837131840518097,
                1.0206948268655611,
                0.7386844871810674,
                -1.1007703314726196,
                -0.5523633400527832
            ]
        },
        {
            "positions": [
                -0.12527865783545522,
                -1.0099255129748872,
                0.968759040992052,
                0.6234731077479199,
                -1.00887273044792,
                -0.5971736983009881
            ]
        },
        {
            "positions": [
                -0.06636693726254417,
                -1.0361378418979648,
                0.9168232551185429,
                0.5082617283147723,
                -0.91697512942322,
                -0.641984056549193
            ]
        },
        {
            "positions": [
                -0.007455216689633115,
                -1.062350170821042,
                0.8648874692450338,
                0.3930503488816248,
                -0.8250775283985201,
                -0.6867944147973979
            ]
        },
        {
            "positions": [
                0.05145650388327794,
                -1.0885624997441197,
                0.8129516833715247,
                0.2778389694484771,
                -0.7331799273738202,
                -0.7316047730456028
            ]
        },
        {
            "positions": [
                0.11036822445618902,
                -1.1147748286671972,
                0.7610158974980156,
                0.1626275900153295,
                -0.6412823263491203,
                -0.7764151312938077
            ]
        },
        {
            "positions": [
                0.055615949926934076,
                -1.115034224030264,
                0.8180564631280343,
                0.11698869211770546,
                -0.5901081843965528,
                -0.5982929005606364
            ]
        },
        {
            "positions": [
                0.0008636753976791339,
                -1.1152936193933307,
                0.875097028758053,
                0.0713497942200814,
                -0.5389340424439851,
                -0.4201706698274652
            ]
        },
        {
            "positions": [
                -0.05388859913157579,
                -1.1155530147563975,
                0.9321375943880716,
                0.025710896322457377,
                -0.4877599004914176,
                -0.24204843909429408
            ]
        },
        {
            "positions": [
                -0.10864087366083075,
                -1.115812410119464,
                0.9891781600180904,
                -0.019928001575166693,
                -0.43658575853885007,
                -0.06392620836112273
            ]
        },
        {
            "positions": [
                -0.16339314819008569,
                -1.1160718054825307,
                1.046218725648109,
                -0.06556689947279074,
                -0.3854116165862825,
                0.1141960223720484
            ]
        },
        {
            "positions": [
                -0.2181454227193406,
                -1.1163312008455974,
                1.1032592912781278,
                -0.11120579737041475,
                -0.33423747463371495,
                0.2923182531052195
            ]
        },
        {
            "positions": [
                -0.2728976972485956,
                -1.1165905962086642,
                1.1602998569081464,
                -0.15684469526803885,
                -0.28306333268114736,
                0.4704404838383909
            ]
        },
        {
            "positions": [
                -0.3276499717778505,
                -1.116849991571731,
                1.2173404225381652,
                -0.2024835931656629,
                -0.23188919072857977,
                0.6485627145715622
            ]
        },
        {
            "positions": [
                -0.3824022463071054,
                -1.1171093869347977,
                1.274380988168184,
                -0.24812249106328693,
                -0.18071504877601224,
                0.8266849453047336
            ]
        },
        {
            "positions": [
                -0.4371545208363604,
                -1.1173687822978644,
                1.3314215537982026,
                -0.293761388960911,
                -0.12954090682344466,
                1.0048071760379045
            ]
        },
        {
            "positions": [
                -0.4919067953656153,
                -1.1176281776609311,
                1.3884621194282212,
                -0.339400286858535,
                -0.07836676487087713,
                1.1829294067710758
            ]
        },
        {
            "positions": [
                -0.5466590698948702,
                -1.1178875730239977,
                1.44550268505824,
                -0.385039184756159,
                -0.027192622918309595,
                1.3610516375042467
            ]
        },
        {
            "positions": [
                -0.6014113444241252,
                -1.1181469683870644,
                1.5025432506882588,
                -0.4306780826537831,
                0.023981519034258048,
                1.5391738682374185
            ]
        },
        {
            "positions": [
                -0.6561636189533802,
                -1.1184063637501311,
                1.5595838163182774,
                -0.4763169805514072,
                0.07515566098682558,
                1.7172960989705894
            ]
        },
        {
            "positions": [
                -0.7109158934826351,
                -1.1186657591131979,
                1.616624381948296,
                -0.5219558784490312,
                0.1263298029393931,
                1.8954183297037603
            ]
        },
        {
            "positions": [
                -0.7656681680118901,
                -1.1189251544762646,
                1.673664947578315,
                -0.5675947763466553,
                0.17750394489196075,
                2.073540560436932
            ]
        },
        {
            "positions": [
                -0.8204204425411449,
                -1.1191845498393314,
                1.7307055132083335,
                -0.6132336742442792,
                0.22867808684452817,
                2.2516627911701033
            ]
        },
        {
            "positions": [
                -0.8751727170703999,
                -1.119443945202398,
                1.7877460788383521,
                -0.6588725721419033,
                0.2798522287970958,
                2.4297850219032746
            ]
        },
        {
            "positions": [
                -0.9299249915996548,
                -1.1197033405654646,
                1.8447866444683707,
                -0.7045114700395274,
                0.33102637074966335,
                2.607907252636446
            ]
        },
        {
            "positions": [
                -0.9846772661289098,
                -1.1199627359285313,
                1.9018272100983897,
                -0.7501503679371515,
                0.382200512702231,
                2.7860294833696164
            ]
        },
        {
            "positions": [
                -1.0394295406581648,
                -1.120222131291598,
                1.9588677757284083,
                -0.7957892658347756,
                0.4333746546547985,
                2.9641517141027887
            ]
        },
        {
            "positions": [
                -1.0941818151874196,
                -1.1204815266546648,
                2.015908341358427,
                -0.8414281637323995,
                0.484548796607366,
                3.1422739448359596
            ]
        }
    ]
}