{
    "goal": {
        "global_pose": {
            "orientation": {
                "w": 0.005598929693374612,
                "x": 0.007748599140229565,
                "y": 0.7110244013736278,
                "z": -0.7031023480610252
            },
            "position": {
                "x": -0.8858502320852131,
                "y": -0.7141253447532654,
                "z": 0.3711530566215515
            }
        },
        "name": "move_to_auspresseinheit_C"
    },
    "id": "BKPIECE_move_to_auspresseinheit_C_75",
    "joint_names": [
        "shoulder_pan_joint",
        "shoulder_lift_joint",
        "elbow_joint",
        "wrist_1_joint",
        "wrist_2_joint",
        "wrist_3_joint"
    ],
    "metrics": {
        "cart_traj_len": 0.4920804797826251,
        "distance_elbow_joint": 0.9869403584821889,
        "distance_shoulder_lift_joint": 0.31905307012698036,
        "distance_shoulder_pan_joint": 0.2564122785051719,
        "distance_wrist_1_joint": 0.6534958883659754,
        "distance_wrist_2_joint": 1.3123282479035037,
        "distance_wrist_3_joint": 0.049642618706121855,
        "smoothness": 1.6148698667872622e-16,
        "time": 0.21306387100000002,
        "traj_len": 1.8915264899255158,
        "weighted_distance": 2.37549612413316
    },
    "planner": "BKPIECE",
    "start": {
        "state": {
            "elbow_joint": 1.7527959577730765,
            "shoulder_lift_joint": -0.9740617694224828,
            "shoulder_pan_joint": -2.967991417825869,
            "wrist_1_joint": -0.7595177689779385,
            "wrist_2_joint": 1.7443932448376545,
            "wrist_3_joint": 3.1991315425061013
        }
    },
    "waypoints": [
        {
            "positions": [
                -2.967991417825869,
                -0.9740617694224828,
                1.7527959577730765,
                -0.7595177689779385,
                1.7443932448376545,
                3.1991315425061013
            ]
        },
        {
            "positions": [
                -2.9423501899753517,
                -0.9421564624097848,
                1.6541019219248576,
                -0.694168180141341,
                1.6131604200473042,
                3.1941672806354893
            ]
        },
        {
            "positions": [
                -2.9167089621248348,
                -0.9102511553970867,
                1.5554078860766387,
                -0.6288185913047435,
                1.4819275952569537,
                3.1892030187648768
            ]
        },
        {
            "positions": [
                -2.8910677342743174,
                -0.8783458483843887,
                1.4567138502284198,
                -0.5634690024681459,
                1.3506947704666032,
                3.1842387568942647
            ]
        },
        {
            "positions": [
                -2.8654265064238005,
                -0.8464405413716907,
                1.358019814380201,
                -0.4981194136315484,
                1.219461945676253,
                3.1792744950236527
            ]
        },
        {
            "positions": [
                -2.839785278573283,
                -0.8145352343589927,
                1.259325778531982,
                -0.43276982479495085,
                1.0882291208859027,
                3.17431023315304
            ]
        },
        {
            "positions": [
                -2.8141440507227657,
                -0.7826299273462946,
                1.1606317426837633,
                -0.3674202359583533,
                0.9569962960955523,
                3.169345971282428
            ]
        },
        {
            "positions": [
                -2.788502822872249,
                -0.7507246203335965,
                1.0619377068355442,
                -0.3020706471217558,
                0.825763471305202,
                3.164381709411816
            ]
        },
        {
            "positions": [
                -2.7628615950217315,
                -0.7188193133208984,
                0.9632436709873253,
                -0.23672105828515821,
                0.6945306465148515,
                3.159417447541204
            ]
        },
        {
            "positions": [
                -2.7372203671712145,
                -0.6869140063082004,
                0.8645496351391065,
                -0.17137146944856063,
                0.563297821724501,
                3.1544531856705915
            ]
        },
        {
            "positions": [
                -2.711579139320697,
                -0.6550086992955024,
                0.7658555992908876,
                -0.10602188061196313,
                0.4320649969341508,
                3.1494889237999795
            ]
        }
    ]
}