{
    "goal": {
        "global_pose": {
            "orientation": {
                "w": 0.005598929693374612,
                "x": 0.007748599140229565,
                "y": 0.7110244013736278,
                "z": -0.7031023480610252
            },
            "position": {
                "x": -0.8858502320852131,
                "y": -0.7141253447532654,
                "z": 0.3711530566215515
            }
        },
        "name": "move_to_auspresseinheit_C"
    },
    "id": "BKPIECE_move_to_auspresseinheit_C_24",
    "joint_names": [
        "shoulder_pan_joint",
        "shoulder_lift_joint",
        "elbow_joint",
        "wrist_1_joint",
        "wrist_2_joint",
        "wrist_3_joint"
    ],
    "metrics": {
        "cart_traj_len": 0.4937446042839645,
        "distance_elbow_joint": 1.0054303740521582,
        "distance_shoulder_lift_joint": 0.3273124910066061,
        "distance_shoulder_pan_joint": 0.25724727402727376,
        "distance_wrist_1_joint": 0.6952882152381159,
        "distance_wrist_2_joint": 1.3021429387525139,
        "distance_wrist_3_joint": 0.08088002152277562,
        "smoothness": 1.6148698667872622e-16,
        "time": 0.37168100800000003,
        "traj_len": 1.9152810014719623,
        "weighted_distance": 2.4140199898997574
    },
    "planner": "BKPIECE",
    "start": {
        "state": {
            "elbow_joint": 1.7527959577730765,
            "shoulder_lift_joint": -0.9740617694224828,
            "shoulder_pan_joint": -2.967991417825869,
            "wrist_1_joint": -0.7595177689779385,
            "wrist_2_joint": 1.7443932448376545,
            "wrist_3_joint": 3.1991315425061013
        }
    },
    "waypoints": [
        {
            "positions": [
                -2.967991417825869,
                -0.9740617694224828,
                1.7527959577730765,
                -0.7595177689779385,
                1.7443932448376545,
                3.1991315425061013
            ]
        },
        {
            "positions": [
                -2.942266690423142,
                -0.9413305203218222,
                1.6522529203678606,
                -0.689988947454127,
                1.6141789509624032,
                3.1910435403538235
            ]
        },
        {
            "positions": [
                -2.916541963020414,
                -0.9085992712211616,
                1.5517098829626448,
                -0.6204601259303153,
                1.4839646570871516,
                3.182955538201546
            ]
        },
        {
            "positions": [
                -2.890817235617687,
                -0.875868022120501,
                1.4511668455574291,
                -0.5509313044065038,
                1.3537503632119003,
                3.174867536049269
            ]
        },
        {
            "positions": [
                -2.8650925082149596,
                -0.8431367730198404,
                1.3506238081522133,
                -0.48140248288269216,
                1.223536069336649,
                3.166779533896991
            ]
        },
        {
            "positions": [
                -2.839367780812232,
                -0.8104055239191797,
                1.2500807707469974,
                -0.4118736613588806,
                1.0933217754613975,
                3.1586915317447133
            ]
        },
        {
            "positions": [
                -2.8136430534095047,
                -0.7776742748185191,
                1.1495377333417816,
                -0.342344839835069,
                0.9631074815861461,
                3.150603529592436
            ]
        },
        {
            "positions": [
                -2.7879183260067775,
                -0.7449430257178585,
                1.0489946959365657,
                -0.27281601831125746,
                0.8328931877108948,
                3.1425155274401586
            ]
        },
        {
            "positions": [
                -2.7621935986040502,
                -0.7122117766171979,
                0.9484516585313499,
                -0.20328719678744578,
                0.7026788938356434,
                3.134427525287881
            ]
        },
        {
            "positions": [
                -2.7364688712013225,
                -0.6794805275165373,
                0.8479086211261341,
                -0.1337583752636342,
                0.5724645999603919,
                3.126339523135603
            ]
        },
        {
            "positions": [
                -2.7107441437985953,
                -0.6467492784158767,
                0.7473655837209184,
                -0.06422955373982268,
                0.44225030608514065,
                3.1182515209833257
            ]
        }
    ]
}