{
    "goal": {
        "global_pose": {
            "orientation": {
                "w": -0.00223480608172531,
                "x": 0.0024358444001904467,
                "y": 0.7094548369677653,
                "z": -0.704743149386269
            },
            "position": {
                "x": -0.37947507619857795,
                "y": -0.6371506643295288,
                "z": 0.19426114857196808
            }
        },
        "name": "move_to_magneteinheit_C"
    },
    "id": "BKPIECE_move_to_magneteinheit_C_144",
    "joint_names": [
        "shoulder_pan_joint",
        "shoulder_lift_joint",
        "elbow_joint",
        "wrist_1_joint",
        "wrist_2_joint",
        "wrist_3_joint"
    ],
    "metrics": {
        "cart_traj_len": 1.0468127153781617,
        "distance_elbow_joint": 0.6077399083003157,
        "distance_shoulder_lift_joint": 0.4606929579250947,
        "distance_shoulder_pan_joint": 1.4169055954206493,
        "distance_wrist_1_joint": 0.8448837393455882,
        "distance_wrist_2_joint": 1.420570299826979,
        "distance_wrist_3_joint": 5.961548463994223,
        "smoothness": 0.7779653060499555,
        "time": 0.19702463799999997,
        "traj_len": 3.272971274669677,
        "weighted_distance": 4.990079351270263
    },
    "planner": "BKPIECE",
    "start": {
        "state": {
            "elbow_joint": 1.9565354006593851,
            "shoulder_lift_joint": -1.4165861576512813,
            "shoulder_pan_joint": -1.6717766223278752,
            "wrist_1_joint": -0.528663328821883,
            "wrist_2_joint": 1.472756589259273,
            "wrist_3_joint": 3.159348288315503
        }
    },
    "waypoints": [
        {
            "positions": [
                -1.6717766223278752,
                -1.4165861576512813,
                1.9565354006593851,
                -0.528663328821883,
                1.472756589259273,
                3.159348288315503
            ]
        },
        {
            "positions": [
                -1.594828118651752,
                -1.44253868110235,
                1.9433303435571758,
                -0.4602040505310531,
                1.4325647545413394,
                3.027128539205203
            ]
        },
        {
            "positions": [
                -1.5178796149756286,
                -1.4684912045534184,
                1.9301252864549665,
                -0.3917447722402232,
                1.3923729198234058,
                2.8949087900949033
            ]
        },
        {
            "positions": [
                -1.4409311112995054,
                -1.494443728004487,
                1.9169202293527572,
                -0.32328549394939327,
                1.3521810851054723,
                2.762689040984603
            ]
        },
        {
            "positions": [
                -1.363982607623382,
                -1.5203962514555558,
                1.9037151722505479,
                -0.25482621565856334,
                1.3119892503875386,
                2.630469291874303
            ]
        },
        {
            "positions": [
                -1.4137096868990355,
                -1.5203376405092686,
                1.9293670872062416,
                -0.2699582156349096,
                1.291774375555938,
                2.383178571186911
            ]
        },
        {
            "positions": [
                -1.4634367661746888,
                -1.5202790295629813,
                1.9550190021619351,
                -0.2850902156112559,
                1.2715595007243377,
                2.135887850499519
            ]
        },
        {
            "positions": [
                -1.5131638454503422,
                -1.5202204186166939,
                1.9806709171176289,
                -0.3002222155876022,
                1.2513446258927372,
                1.8885971298121276
            ]
        },
        {
            "positions": [
                -1.5628909247259957,
                -1.5201618076704067,
                2.0063228320733226,
                -0.3153542155639485,
                1.2311297510611368,
                1.6413064091247356
            ]
        },
        {
            "positions": [
                -1.6126180040016491,
                -1.5201031967241194,
                2.0319747470290164,
                -0.3304862155402948,
                1.2109148762295363,
                1.3940156884373436
            ]
        },
        {
            "positions": [
                -1.6623450832773023,
                -1.5200445857778322,
                2.05762666198471,
                -0.34561821551664107,
                1.190700001397936,
                1.1467249677499518
            ]
        },
        {
            "positions": [
                -1.7120721625529558,
                -1.519985974831545,
                2.0832785769404034,
                -0.36075021549298736,
                1.1704851265663356,
                0.8994342470625598
            ]
        },
        {
            "positions": [
                -1.7617992418286093,
                -1.5199273638852575,
                2.108930491896097,
                -0.37588221546933365,
                1.1502702517347352,
                0.6521435263751678
            ]
        },
        {
            "positions": [
                -1.8115263211042625,
                -1.5198687529389703,
                2.134582406851791,
                -0.39101421544567994,
                1.1300553769031347,
                0.40485280568777604
            ]
        },
        {
            "positions": [
                -1.861253400379916,
                -1.519810141992683,
                2.1602343218074846,
                -0.4061462154220262,
                1.1098405020715343,
                0.157562085000384
            ]
        },
        {
            "positions": [
                -1.9502257321423966,
                -1.5054563998308668,
                2.1788280111479663,
                -0.4696638805506872,
                1.1885506108528952,
                0.24442681325341936
            ]
        },
        {
            "positions": [
                -2.0391980639048777,
                -1.4911026576690503,
                2.197421700488448,
                -0.5331815456793483,
                1.267260719634256,
                0.3312915415064547
            ]
        },
        {
            "positions": [
                -2.1281703956673583,
                -1.4767489155072338,
                2.2160153898289296,
                -0.5966992108080093,
                1.3459708284156169,
                0.41815626975949005
            ]
        },
        {
            "positions": [
                -2.217142727429839,
                -1.4623951733454175,
                2.2346090791694113,
                -0.6602168759366702,
                1.4246809371969777,
                0.5050209980125254
            ]
        },
        {
            "positions": [
                -2.2519406987136903,
                -1.4341254906685348,
                2.214962903744107,
                -0.6876588066691819,
                1.3772228004948326,
                0.7403582778445481
            ]
        },
        {
            "positions": [
                -2.286738669997541,
                -1.405855807991652,
                2.1953167283188026,
                -0.7151007374016936,
                1.3297646637926874,
                0.9756955576765707
            ]
        },
        {
            "positions": [
                -2.3215366412813925,
                -1.3775861253147694,
                2.175670552893498,
                -0.7425426681342053,
                1.2823065270905423,
                1.2110328375085933
            ]
        },
        {
            "positions": [
                -2.3563346125652433,
                -1.3493164426378867,
                2.1560243774681935,
                -0.769984598866717,
                1.234848390388397,
                1.4463701173406158
            ]
        },
        {
            "positions": [
                -2.3911325838490947,
                -1.321046759961004,
                2.136378202042889,
                -0.7974265295992287,
                1.187390253686252,
                1.6817073971726386
            ]
        },
        {
            "positions": [
                -2.4047928512641685,
                -1.294791197856626,
                2.1154123860685403,
                -0.8021675816394959,
                1.1031364046857401,
                1.9209768885904464
            ]
        },
        {
            "positions": [
                -2.4184531186792424,
                -1.268535635752248,
                2.0944465700941914,
                -0.8069086336797631,
                1.0188825556852283,
                2.160246380008254
            ]
        },
        {
            "positions": [
                -2.4321133860943167,
                -1.2422800736478699,
                2.073480754119843,
                -0.8116496857200303,
                0.9346287066847165,
                2.3995158714260616
            ]
        },
        {
            "positions": [
                -2.4457736535093906,
                -1.2160245115434918,
                2.052514938145494,
                -0.8163907377602975,
                0.8503748576842048,
                2.638785362843869
            ]
        },
        {
            "positions": [
                -2.4594339209244644,
                -1.1897689494391137,
                2.0315491221711452,
                -0.8211317898005647,
                0.7661210086836929,
                2.878054854261677
            ]
        },
        {
            "positions": [
                -2.4730941883395383,
                -1.1635133873347356,
                2.0105833061967964,
                -0.8258728418408319,
                0.6818671596831812,
                3.1173243456794846
            ]
        }
    ]
}