{
    "goal": {
        "global_pose": {
            "orientation": {
                "w": 0.7031023502349854,
                "x": -0.7110244035720825,
                "y": 0.007748599164187908,
                "z": 0.005598929710686207
            },
            "position": {
                "x": 0.11585023208521307,
                "y": 0.44412534475326537,
                "z": 0.3711530566215515
            }
        },
        "name": "move_to_auspresseinheit_A"
    },
    "id": "BKPIECE_move_to_auspresseinheit_A_81",
    "joint_names": [
        "shoulder_pan_joint",
        "shoulder_lift_joint",
        "elbow_joint",
        "wrist_1_joint",
        "wrist_2_joint",
        "wrist_3_joint"
    ],
    "metrics": {
        "cart_traj_len": 1.9049294798056557,
        "distance_elbow_joint": 3.003476107022434,
        "distance_shoulder_lift_joint": 0.692876083158686,
        "distance_shoulder_pan_joint": 1.0403736761285471,
        "distance_wrist_1_joint": 2.064706600925391,
        "distance_wrist_2_joint": 1.206508912141578,
        "distance_wrist_3_joint": 4.893744326470188,
        "smoothness": 0.8161151377614028,
        "time": 0.287576653,
        "traj_len": 3.591891661206784,
        "weighted_distance": 5.095133940521501
    },
    "planner": "BKPIECE",
    "start": {
        "state": {
            "elbow_joint": 2.4225746994637096,
            "shoulder_lift_joint": -1.373653595662188,
            "shoulder_pan_joint": -0.3378633848294565,
            "wrist_1_joint": -1.0288595594406726,
            "wrist_2_joint": 1.2330228066703421,
            "wrist_3_joint": 3.189163495502006
        }
    },
    "waypoints": [
        {
            "positions": [
                -0.3378633848294565,
                -1.373653595662188,
                2.4225746994637096,
                -1.0288595594406726,
                1.2330228066703421,
                3.189163495502006
            ]
        },
        {
            "positions": [
                -0.2984819892706793,
                -1.3845798832129264,
                2.338241314970944,
                -0.9556608420576461,
                1.1845790578611501,
                3.0518901741689475
            ]
        },
        {
            "positions": [
                -0.25910059371190214,
                -1.3955061707636647,
                2.253907930478178,
                -0.8824621246746197,
                1.1361353090519584,
                2.9146168528358896
            ]
        },
        {
            "positions": [
                -0.21971919815312493,
                -1.4064324583144028,
                2.1695745459854123,
                -0.8092634072915932,
                1.0876915602427664,
                2.777343531502831
            ]
        },
        {
            "positions": [
                -0.18033780259434776,
                -1.417358745865141,
                2.0852411614926467,
                -0.7360646899085668,
                1.0392478114335744,
                2.640070210169773
            ]
        },
        {
            "positions": [
                -0.14095640703557052,
                -1.4282850334158794,
                2.000907776999881,
                -0.6628659725255401,
                0.9908040626243825,
                2.5027968888367145
            ]
        },
        {
            "positions": [
                -0.10157501147679338,
                -1.4392113209666177,
                1.9165743925071153,
                -0.5896672551425137,
                0.9423603138151906,
                2.3655235675036566
            ]
        },
        {
            "positions": [
                -0.06219361591801614,
                -1.4501376085173558,
                1.8322410080143494,
                -0.5164685377594872,
                0.8939165650059986,
                2.228250246170598
            ]
        },
        {
            "positions": [
                -0.02281222035923902,
                -1.4610638960680942,
                1.7479076235215838,
                -0.4432698203764608,
                0.8454728161968066,
                2.0909769248375403
            ]
        },
        {
            "positions": [
                0.01656917519953821,
                -1.4719901836188325,
                1.663574239028818,
                -0.37007110299343426,
                0.7970290673876147,
                1.9537036035044817
            ]
        },
        {
            "positions": [
                0.05595057075831544,
                -1.4829164711695708,
                1.5792408545360521,
                -0.29687238561040774,
                0.7485853185784228,
                1.8164302821714233
            ]
        },
        {
            "positions": [
                0.09533196631709262,
                -1.4938427587203091,
                1.4949074700432865,
                -0.22367366822738122,
                0.7001415697692308,
                1.6791569608383652
            ]
        },
        {
            "positions": [
                0.13471336187586974,
                -1.5047690462710472,
                1.4105740855505209,
                -0.1504749508443548,
                0.6516978209600389,
                1.541883639505307
            ]
        },
        {
            "positions": [
                0.17409475743464692,
                -1.5156953338217856,
                1.326240701057755,
                -0.07727623346132828,
                0.6032540721508469,
                1.4046103181722487
            ]
        },
        {
            "positions": [
                0.2134761529934242,
                -1.5266216213725239,
                1.2419073165649892,
                -0.004077516078301757,
                0.554810323341655,
                1.2673369968391905
            ]
        },
        {
            "positions": [
                0.2528575485522014,
                -1.5375479089232622,
                1.1575739320722234,
                0.06912120130472466,
                0.506366574532463,
                1.1300636755061322
            ]
        },
        {
            "positions": [
                0.29223894411097845,
                -1.5484741964740003,
                1.0732405475794577,
                0.14231991868775107,
                0.45792282572327114,
                0.9927903541730743
            ]
        },
        {
            "positions": [
                0.33162033966975574,
                -1.5594004840247386,
                0.9889071630866921,
                0.2155186360707777,
                0.40947907691407925,
                0.8555170328400159
            ]
        },
        {
            "positions": [
                0.37100173522853297,
                -1.570326771575477,
                0.9045737785939262,
                0.2887173534538041,
                0.36103532810488725,
                0.7182437115069575
            ]
        },
        {
            "positions": [
                0.3840444092718025,
                -1.6081024698755746,
                1.0270260064459913,
                0.251382829527717,
                0.38098445720967616,
                0.8554153575857056
            ]
        },
        {
            "positions": [
                0.39708708331507203,
                -1.645878168175672,
                1.1494782342980565,
                0.2140483056016299,
                0.4009335863144651,
                0.9925870036644537
            ]
        },
        {
            "positions": [
                0.41012975735834156,
                -1.6836538664757696,
                1.2719304621501217,
                0.1767137816755428,
                0.420882715419254,
                1.129758649743202
            ]
        },
        {
            "positions": [
                0.4231724314016111,
                -1.7214295647758673,
                1.394382690002187,
                0.13937925774945567,
                0.4408318445240429,
                1.26693029582195
            ]
        },
        {
            "positions": [
                0.4362151054448806,
                -1.7592052630759647,
                1.516834917854252,
                0.10204473382336857,
                0.46078097362883186,
                1.4041019419006981
            ]
        },
        {
            "positions": [
                0.44925777948815016,
                -1.7969809613760623,
                1.6392871457063172,
                0.06471020989728149,
                0.4807301027336207,
                1.5412735879794464
            ]
        },
        {
            "positions": [
                0.4623004535314197,
                -1.83475665967616,
                1.7617393735583824,
                0.02737568597119433,
                0.5006792318384097,
                1.6784452340581946
            ]
        },
        {
            "positions": [
                0.4753431275746892,
                -1.8725323579762574,
                1.8841916014104476,
                -0.009958837954892774,
                0.5206283609431985,
                1.8156168801369426
            ]
        },
        {
            "positions": [
                0.48838580161795875,
                -1.910308056276355,
                2.006643829262513,
                -0.04729336188097988,
                0.5405774900479875,
                1.9527885262156908
            ]
        },
        {
            "positions": [
                0.5014284756612283,
                -1.9480837545764524,
                2.129096057114578,
                -0.08462788580706698,
                0.5605266191527765,
                2.0899601722944388
            ]
        },
        {
            "positions": [
                0.5144711497044978,
                -1.98585945287655,
                2.2515482849666433,
                -0.12196240973315409,
                0.5804757482575653,
                2.227131818373187
            ]
        },
        {
            "positions": [
                0.5520789780234164,
                -1.9697254076876853,
                2.27924842092263,
                -0.1892523947019451,
                0.6034919509422543,
                2.409919105494969
            ]
        },
        {
            "positions": [
                0.5896868063423351,
                -1.9535913624988206,
                2.3069485568786168,
                -0.2565423796707361,
                0.6265081536269433,
                2.5927063926167513
            ]
        },
        {
            "positions": [
                0.6272946346612536,
                -1.9374573173099556,
                2.3346486928346035,
                -0.32383236463952714,
                0.6495243563116323,
                2.7754936797385334
            ]
        },
        {
            "positions": [
                0.6649024629801722,
                -1.9213232721210909,
                2.3623488287905903,
                -0.39112234960831815,
                0.6725405589963214,
                2.9582809668603156
            ]
        },
        {
            "positions": [
                0.7025102912990908,
                -1.9051892269322261,
                2.390048964746577,
                -0.45841233457710917,
                0.6955567616810103,
                3.1410682539820978
            ]
        }
    ]
}