{
    "goal": {
        "global_pose": {
            "orientation": {
                "w": -0.00223480608172531,
                "x": 0.0024358444001904467,
                "y": 0.7094548369677653,
                "z": -0.704743149386269
            },
            "position": {
                "x": -0.37947507619857795,
                "y": -0.6371506643295288,
                "z": 0.19426114857196808
            }
        },
        "name": "move_to_magneteinheit_C"
    },
    "id": "BKPIECE_move_to_magneteinheit_C_23",
    "joint_names": [
        "shoulder_pan_joint",
        "shoulder_lift_joint",
        "elbow_joint",
        "wrist_1_joint",
        "wrist_2_joint",
        "wrist_3_joint"
    ],
    "metrics": {
        "cart_traj_len": 1.5549823469798847,
        "distance_elbow_joint": 1.4124557550000822,
        "distance_shoulder_lift_joint": 0.8542561572574658,
        "distance_shoulder_pan_joint": 1.0818143702855687,
        "distance_wrist_1_joint": 1.8667819115814814,
        "distance_wrist_2_joint": 2.127420599253474,
        "distance_wrist_3_joint": 7.318689191522106,
        "smoothness": 0.46118490375901355,
        "time": 0.25181686000000003,
        "traj_len": 3.829023111042839,
        "weighted_distance": 5.770008568345402
    },
    "planner": "BKPIECE",
    "start": {
        "state": {
            "elbow_joint": 1.9565354006593851,
            "shoulder_lift_joint": -1.4165861576512813,
            "shoulder_pan_joint": -1.6717766223278752,
            "wrist_1_joint": -0.528663328821883,
            "wrist_2_joint": 1.472756589259273,
            "wrist_3_joint": 3.159348288315503
        }
    },
    "waypoints": [
        {
            "positions": [
                -1.6717766223278752,
                -1.4165861576512813,
                1.9565354006593851,
                -0.528663328821883,
                1.472756589259273,
                3.159348288315503
            ]
        },
        {
            "positions": [
                -1.665398222407453,
                -1.4727759880807256,
                1.9484703905336382,
                -0.38801284649151796,
                1.4736201360933756,
                3.010605053912461
            ]
        },
        {
            "positions": [
                -1.6590198224870307,
                -1.5289658185101698,
                1.9404053804078913,
                -0.24736236416115287,
                1.4744836829274783,
                2.8618618195094196
            ]
        },
        {
            "positions": [
                -1.5950284421315035,
                -1.5623079623368192,
                1.9295826702500007,
                -0.215212102544451,
                1.3664729228151375,
                2.733665190412432
            ]
        },
        {
            "positions": [
                -1.531037061775976,
                -1.5956501061634687,
                1.9187599600921101,
                -0.18306184092774916,
                1.2584621627027965,
                2.605468561315444
            ]
        },
        {
            "positions": [
                -1.5455054529953545,
                -1.584395823806311,
                1.8603413519857066,
                -0.1699811050369865,
                1.227975120033152,
                2.348479088947937
            ]
        },
        {
            "positions": [
                -1.5599738442147326,
                -1.5731415414491534,
                1.801922743879303,
                -0.1569003691462238,
                1.1974880773635073,
                2.0914896165804304
            ]
        },
        {
            "positions": [
                -1.574442235434111,
                -1.5618872590919957,
                1.7435041357728995,
                -0.14381963325546113,
                1.1670010346938624,
                1.834500144212924
            ]
        },
        {
            "positions": [
                -1.5889106266534894,
                -1.5506329767348381,
                1.685085527666496,
                -0.13073889736469846,
                1.1365139920242178,
                1.577510671845417
            ]
        },
        {
            "positions": [
                -1.6033790178728675,
                -1.5393786943776804,
                1.6266669195600922,
                -0.11765816147393578,
                1.1060269493545731,
                1.3205211994779105
            ]
        },
        {
            "positions": [
                -1.617847409092246,
                -1.5281244120205228,
                1.5682483114536887,
                -0.10457742558317311,
                1.0755399066849285,
                1.063531727110404
            ]
        },
        {
            "positions": [
                -1.632315800311624,
                -1.516870129663365,
                1.5098297033472852,
                -0.09149668969241043,
                1.0450528640152836,
                0.8065422547428971
            ]
        },
        {
            "positions": [
                -1.6467841915310024,
                -1.5056158473062076,
                1.4514110952408816,
                -0.07841595380164774,
                1.014565821345639,
                0.5495527823753901
            ]
        },
        {
            "positions": [
                -1.6612525827503808,
                -1.4943615649490498,
                1.392992487134478,
                -0.06533521791088508,
                0.9840787786759944,
                0.29256331000788327
            ]
        },
        {
            "positions": [
                -1.675720973969759,
                -1.4831072825918923,
                1.3345738790280746,
                -0.052254482020122395,
                0.9535917360063497,
                0.035573837640376915
            ]
        },
        {
            "positions": [
                -1.6901893651891373,
                -1.4718530002347345,
                1.276155270921671,
                -0.03917374612935973,
                0.923104693336705,
                -0.22141563472712983
            ]
        },
        {
            "positions": [
                -1.761921475996653,
                -1.4861193514682283,
                1.2952228320317125,
                0.014211401594750109,
                1.010876842367795,
                -0.3129082668352066
            ]
        },
        {
            "positions": [
                -1.8336535868041688,
                -1.5003857027017218,
                1.314290393141754,
                0.06759654931885994,
                1.098648991398885,
                -0.4044008989432834
            ]
        },
        {
            "positions": [
                -1.926806119668258,
                -1.5190490887641293,
                1.3867522739928615,
                0.10568667153014173,
                1.196785752883078,
                -0.4265220453449331
            ]
        },
        {
            "positions": [
                -2.019958652532347,
                -1.5377124748265367,
                1.459214154843969,
                0.14377679374142352,
                1.2949225143672711,
                -0.44864319174658285
            ]
        },
        {
            "positions": [
                -2.113111185396437,
                -1.5563758608889442,
                1.5316760356950765,
                0.1818669159527053,
                1.393059275851464,
                -0.47076433814823254
            ]
        },
        {
            "positions": [
                -2.206263718260526,
                -1.5750392469513517,
                1.604137916546184,
                0.2199570381639871,
                1.491196037335657,
                -0.4928854845498823
            ]
        },
        {
            "positions": [
                -2.2994162511246152,
                -1.5937026330137591,
                1.6765997973972915,
                0.25804716037526887,
                1.58933279881985,
                -0.515006630951532
            ]
        },
        {
            "positions": [
                -2.3181799164657084,
                -1.577483098392425,
                1.7155169986667238,
                0.20541707917494073,
                1.5546378448230533,
                -0.3382065597178354
            ]
        },
        {
            "positions": [
                -2.336943581806802,
                -1.5612635637710912,
                1.7544341999361561,
                0.1527869979746126,
                1.5199428908262567,
                -0.16140648848413885
            ]
        },
        {
            "positions": [
                -2.3557072471478953,
                -1.5450440291497571,
                1.7933514012055882,
                0.10015691677428443,
                1.48524793682946,
                0.01539358274955771
            ]
        },
        {
            "positions": [
                -2.3744709124889884,
                -1.528824494528423,
                1.8322686024750205,
                0.04752683557395629,
                1.4505529828326633,
                0.19219365398325428
            ]
        },
        {
            "positions": [
                -2.393234577830082,
                -1.5126049599070892,
                1.8711858037444529,
                -0.005103245626371877,
                1.4158580288358666,
                0.36899372521695084
            ]
        },
        {
            "positions": [
                -2.4119982431711753,
                -1.4963854252857551,
                1.9101030050138852,
                -0.0577333268267,
                1.38116307483907,
                0.5457937964506473
            ]
        },
        {
            "positions": [
                -2.417007712199381,
                -1.4686997367599621,
                1.9182803292780646,
                -0.12142423809189672,
                1.3228366842948558,
                0.7610882835217216
            ]
        },
        {
            "positions": [
                -2.422017181227587,
                -1.4410140482341691,
                1.9264576535422442,
                -0.18511514935709344,
                1.2645102937506416,
                0.9763827705927961
            ]
        },
        {
            "positions": [
                -2.427026650255793,
                -1.4133283597083763,
                1.9346349778064238,
                -0.24880606062229016,
                1.2061839032064272,
                1.1916772576638706
            ]
        },
        {
            "positions": [
                -2.4320361192839988,
                -1.3856426711825833,
                1.9428123020706032,
                -0.3124969718874869,
                1.147857512662213,
                1.4069717447349448
            ]
        },
        {
            "positions": [
                -2.4370455883122046,
                -1.3579569826567903,
                1.9509896263347826,
                -0.37618788315268364,
                1.0895311221179989,
                1.6222662318060195
            ]
        },
        {
            "positions": [
                -2.4420550573404105,
                -1.3302712941309973,
                1.9591669505989622,
                -0.43987879441788036,
                1.0312047315737847,
                1.8375607188770937
            ]
        },
        {
            "positions": [
                -2.4470645263686164,
                -1.3025856056052043,
                1.9673442748631418,
                -0.5035697056830771,
                0.9728783410295704,
                2.0528552059481684
            ]
        },
        {
            "positions": [
                -2.4520739953968222,
                -1.2748999170794113,
                1.9755215991273212,
                -0.5672606169482737,
                0.9145519504853562,
                2.2681496930192426
            ]
        },
        {
            "positions": [
                -2.457083464425028,
                -1.2472142285536183,
                1.9836989233915006,
                -0.6309515282134704,
                0.8562255599411419,
                2.4834441800903173
            ]
        },
        {
            "positions": [
                -2.462092933453234,
                -1.2195285400278255,
                1.9918762476556802,
                -0.6946424394786672,
                0.7978991693969277,
                2.6987386671613915
            ]
        },
        {
            "positions": [
                -2.46710240248144,
                -1.1918428515020325,
                2.0000535719198598,
                -0.7583333507438639,
                0.7395727788527136,
                2.914033154232466
            ]
        },
        {
            "positions": [
                -2.4721118715096457,
                -1.1641571629762395,
                2.008230896184039,
                -0.8220242620090606,
                0.6812463883084993,
                3.1293276413035405
            ]
        }
    ]
}