{
    "goal": {
        "global_pose": {
            "orientation": {
                "w": -0.00223480608172531,
                "x": 0.0024358444001904467,
                "y": 0.7094548369677653,
                "z": -0.704743149386269
            },
            "position": {
                "x": 0.6205249238014221,
                "y": -0.6371506643295288,
                "z": 0.19426114857196808
            }
        },
        "name": "move_to_magneteinheit_B"
    },
    "id": "BKPIECE_move_to_magneteinheit_B_57",
    "joint_names": [
        "shoulder_pan_joint",
        "shoulder_lift_joint",
        "elbow_joint",
        "wrist_1_joint",
        "wrist_2_joint",
        "wrist_3_joint"
    ],
    "metrics": {
        "cart_traj_len": 1.4532955887929913,
        "distance_elbow_joint": 0.7311039002549125,
        "distance_shoulder_lift_joint": 1.2490192284898223,
        "distance_shoulder_pan_joint": 1.620556458490896,
        "distance_wrist_1_joint": 2.6069715262074755,
        "distance_wrist_2_joint": 2.9364552070391277,
        "distance_wrist_3_joint": 3.1554647382826913,
        "smoothness": 3.229739733574524e-16,
        "time": 0.30836462,
        "traj_len": 3.5070744301718095,
        "weighted_distance": 4.914664512311793
    },
    "planner": "BKPIECE",
    "start": {
        "state": {
            "elbow_joint": 2.393587130804639,
            "shoulder_lift_joint": -1.9085141043513325,
            "shoulder_pan_joint": 0.7066247066698809,
            "wrist_1_joint": -0.4678290934590222,
            "wrist_2_joint": 0.7096259084215963,
            "wrist_3_joint": 3.147370379541726
        }
    },
    "waypoints": [
        {
            "positions": [
                0.7066247066698809,
                -1.9085141043513325,
                2.393587130804639,
                -0.4678290934590222,
                0.7096259084215963,
                3.147370379541726
            ]
        },
        {
            "positions": [
                0.6559823173420404,
                -1.8694822534610256,
                2.370740133921673,
                -0.3863612332650386,
                0.6178616832016236,
                3.048762106470392
            ]
        },
        {
            "positions": [
                0.6053399280141999,
                -1.8304504025707187,
                2.3478931370387066,
                -0.3048933730710549,
                0.5260974579816509,
                2.950153833399058
            ]
        },
        {
            "positions": [
                0.5546975386863593,
                -1.7914185516804118,
                2.3250461401557407,
                -0.2234255128770713,
                0.4343332327616781,
                2.8515455603277235
            ]
        },
        {
            "positions": [
                0.5040551493585188,
                -1.7523867007901046,
                2.302199143272775,
                -0.1419576526830877,
                0.3425690075417054,
                2.7529372872563895
            ]
        },
        {
            "positions": [
                0.4534127600306784,
                -1.7133548498997977,
                2.2793521463898085,
                -0.06048979248910408,
                0.25080478232173264,
                2.6543290141850555
            ]
        },
        {
            "positions": [
                0.40277037070283783,
                -1.6743229990094908,
                2.2565051495068427,
                0.02097806770487959,
                0.1590405571017599,
                2.5557207411137215
            ]
        },
        {
            "positions": [
                0.35212798137499735,
                -1.6352911481191839,
                2.233658152623877,
                0.10244592789886314,
                0.06727633188178717,
                2.4571124680423875
            ]
        },
        {
            "positions": [
                0.30148559204715686,
                -1.596259297228877,
                2.2108111557409105,
                0.1839137880928468,
                -0.024487893338185573,
                2.3585041949710535
            ]
        },
        {
            "positions": [
                0.25084320271931637,
                -1.55722744633857,
                2.1879641588579446,
                0.2653816482868305,
                -0.11625211855815831,
                2.259895921899719
            ]
        },
        {
            "positions": [
                0.20020081339147588,
                -1.518195595448263,
                2.1651171619749787,
                0.34684950848081403,
                -0.20801634377813105,
                2.161287648828385
            ]
        },
        {
            "positions": [
                0.1495584240636354,
                -1.479163744557956,
                2.142270165092013,
                0.4283173686747977,
                -0.2997805689981037,
                2.062679375757051
            ]
        },
        {
            "positions": [
                0.0989160347357948,
                -1.4401318936676493,
                2.1194231682090465,
                0.5097852288687814,
                -0.39154479421807653,
                1.964071102685717
            ]
        },
        {
            "positions": [
                0.04827364540795431,
                -1.4011000427773421,
                2.0965761713260807,
                0.591253089062765,
                -0.4833090194380494,
                1.8654628296143827
            ]
        },
        {
            "positions": [
                -0.0023687439198861737,
                -1.3620681918870352,
                2.0737291744431148,
                0.6727209492567485,
                -0.575073244658022,
                1.7668545565430487
            ]
        },
        {
            "positions": [
                -0.05301113324772666,
                -1.3230363409967283,
                2.0508821775601485,
                0.7541888094507323,
                -0.6668374698779946,
                1.6682462834717144
            ]
        },
        {
            "positions": [
                -0.10365352257556715,
                -1.2840044901064214,
                2.0280351806771826,
                0.8356566696447159,
                -0.7586016950979675,
                1.5696380104003804
            ]
        },
        {
            "positions": [
                -0.15429591190340763,
                -1.2449726392161145,
                2.0051881837942167,
                0.9171245298386994,
                -0.8503659203179403,
                1.4710297373290464
            ]
        },
        {
            "positions": [
                -0.20493830123124812,
                -1.2059407883258075,
                1.9823411869112506,
                0.9985923900326832,
                -0.942130145537913,
                1.3724214642577122
            ]
        },
        {
            "positions": [
                -0.2555806905590886,
                -1.1669089374355006,
                1.9594941900282845,
                1.0800602502266667,
                -1.0338943707578856,
                1.2738131911863781
            ]
        },
        {
            "positions": [
                -0.3062230798869291,
                -1.1278770865451935,
                1.9366471931453186,
                1.1615281104206503,
                -1.1256585959778584,
                1.175204918115044
            ]
        },
        {
            "positions": [
                -0.3568654692147696,
                -1.0888452356548868,
                1.9138001962623525,
                1.242995970614634,
                -1.2174228211978313,
                1.0765966450437099
            ]
        },
        {
            "positions": [
                -0.40750785854261007,
                -1.0498133847645796,
                1.8909531993793864,
                1.3244638308086176,
                -1.3091870464178037,
                0.9779883719723759
            ]
        },
        {
            "positions": [
                -0.45815024787045056,
                -1.0107815338742727,
                1.8681062024964206,
                1.4059316910026012,
                -1.4009512716377766,
                0.8793800989010419
            ]
        },
        {
            "positions": [
                -0.5087926371982913,
                -0.9717496829839658,
                1.8452592056134545,
                1.487399551196585,
                -1.4927154968577494,
                0.7807718258297078
            ]
        },
        {
            "positions": [
                -0.5594350265261318,
                -0.9327178320936589,
                1.8224122087304884,
                1.5688674113905685,
                -1.5844797220777223,
                0.6821635527583734
            ]
        },
        {
            "positions": [
                -0.6100774158539722,
                -0.893685981203352,
                1.7995652118475225,
                1.650335271584552,
                -1.676243947297695,
                0.5835552796870394
            ]
        },
        {
            "positions": [
                -0.6607198051818127,
                -0.854654130313045,
                1.7767182149645564,
                1.7318031317785356,
                -1.7680081725176675,
                0.48494700661570533
            ]
        },
        {
            "positions": [
                -0.7113621945096532,
                -0.8156222794227379,
                1.7538712180815903,
                1.8132709919725192,
                -1.8597723977376404,
                0.3863387335443713
            ]
        },
        {
            "positions": [
                -0.7620045838374937,
                -0.776590428532431,
                1.7310242211986244,
                1.8947388521665032,
                -1.9515366229576132,
                0.2877304604730373
            ]
        },
        {
            "positions": [
                -0.8126469731653342,
                -0.7375585776421241,
                1.7081772243156583,
                1.9762067123604867,
                -2.0433008481775854,
                0.18912218740170283
            ]
        },
        {
            "positions": [
                -0.8632893624931747,
                -0.6985267267518172,
                1.6853302274326922,
                2.05767457255447,
                -2.1350650733975582,
                0.09051391433036882
            ]
        },
        {
            "positions": [
                -0.913931751821015,
                -0.6594948758615102,
                1.6624832305497264,
                2.1391424327484536,
                -2.226829298617531,
                -0.008094358740965169
            ]
        }
    ]
}