{
    "goal": {
        "global_pose": {
            "orientation": {
                "w": 0.7031023502349854,
                "x": -0.7110244035720825,
                "y": 0.007748599164187908,
                "z": 0.005598929710686207
            },
            "position": {
                "x": 0.11585023208521307,
                "y": 0.44412534475326537,
                "z": 0.3711530566215515
            }
        },
        "name": "move_to_auspresseinheit_A"
    },
    "id": "BKPIECE_move_to_auspresseinheit_A_27",
    "joint_names": [
        "shoulder_pan_joint",
        "shoulder_lift_joint",
        "elbow_joint",
        "wrist_1_joint",
        "wrist_2_joint",
        "wrist_3_joint"
    ],
    "metrics": {
        "cart_traj_len": 1.4193951407406296,
        "distance_elbow_joint": 1.6980804253978476,
        "distance_shoulder_lift_joint": 0.5340660276530036,
        "distance_shoulder_pan_joint": 1.0408845528428494,
        "distance_wrist_1_joint": 1.0455782792761252,
        "distance_wrist_2_joint": 1.095265534427595,
        "distance_wrist_3_joint": 1.8825213702715509,
        "smoothness": 0.5401651237751129,
        "time": 0.288378071,
        "traj_len": 2.7011842199059606,
        "weighted_distance": 3.633494563655737
    },
    "planner": "BKPIECE",
    "start": {
        "state": {
            "elbow_joint": 2.4225746994637096,
            "shoulder_lift_joint": -1.373653595662188,
            "shoulder_pan_joint": -0.3378633848294565,
            "wrist_1_joint": -1.0288595594406726,
            "wrist_2_joint": 1.2330228066703421,
            "wrist_3_joint": 3.189163495502006
        }
    },
    "waypoints": [
        {
            "positions": [
                -0.3378633848294565,
                -1.373653595662188,
                2.4225746994637096,
                -1.0288595594406726,
                1.2330228066703421,
                3.189163495502006
            ]
        },
        {
            "positions": [
                -0.2802478778929165,
                -1.4004482153903328,
                2.336602872142464,
                -0.9774465199127625,
                1.1793325938174422,
                3.0939688014526197
            ]
        },
        {
            "positions": [
                -0.22263237095637656,
                -1.4272428351184776,
                2.2506310448212186,
                -0.9260334803848526,
                1.1256423809645422,
                2.9987741074032335
            ]
        },
        {
            "positions": [
                -0.16501686401983662,
                -1.4540374548466226,
                2.1646592174999735,
                -0.8746204408569425,
                1.0719521681116424,
                2.9035794133538473
            ]
        },
        {
            "positions": [
                -0.10740135708329662,
                -1.4808320745747674,
                2.078687390178728,
                -0.8232074013290325,
                1.0182619552587424,
                2.808384719304461
            ]
        },
        {
            "positions": [
                -0.04978585014675668,
                -1.5076266943029122,
                1.9927155628574824,
                -0.7717943618011224,
                0.9645717424058424,
                2.713190025255075
            ]
        },
        {
            "positions": [
                0.007829656789783257,
                -1.534421314031057,
                1.9067437355362369,
                -0.7203813222732123,
                0.9108815295529424,
                2.6179953312056887
            ]
        },
        {
            "positions": [
                0.0654451637263232,
                -1.5612159337592018,
                1.8207719082149916,
                -0.6689682827453023,
                0.8571913167000426,
                2.5228006371563025
            ]
        },
        {
            "positions": [
                0.12306067066286325,
                -1.5880105534873468,
                1.734800080893746,
                -0.6175552432173922,
                0.8035011038471426,
                2.4276059431069164
            ]
        },
        {
            "positions": [
                0.1806761775994032,
                -1.6148051732154916,
                1.6488282535725007,
                -0.5661422036894821,
                0.7498108909942427,
                2.33241124905753
            ]
        },
        {
            "positions": [
                0.23829168453594307,
                -1.6415997929436363,
                1.5628564262512552,
                -0.5147291641615721,
                0.6961206781413427,
                2.237216555008144
            ]
        },
        {
            "positions": [
                0.27463273195706084,
                -1.6510519135539108,
                1.5588769764241146,
                -0.4894358684076176,
                0.6572320872748131,
                2.2197752072424652
            ]
        },
        {
            "positions": [
                0.3054088593540642,
                -1.6818599159726917,
                1.6705456378727808,
                -0.44489034549174855,
                0.617352045994949,
                2.3115704674333752
            ]
        },
        {
            "positions": [
                0.3361849867510676,
                -1.7126679183914726,
                1.7822142993214471,
                -0.40034482257587944,
                0.5774720047150849,
                2.403365727624285
            ]
        },
        {
            "positions": [
                0.366961114148071,
                -1.7434759208102535,
                1.8938829607701133,
                -0.3557992996600104,
                0.5375919634352206,
                2.4951609878151944
            ]
        },
        {
            "positions": [
                0.39773724154507434,
                -1.7742839232290346,
                2.0055516222187797,
                -0.31125377674414134,
                0.4977119221553566,
                2.5869562480061044
            ]
        },
        {
            "positions": [
                0.42851336894207775,
                -1.8050919256478155,
                2.1172202836674456,
                -0.26670825382827223,
                0.4578318808754924,
                2.6787515081970144
            ]
        },
        {
            "positions": [
                0.4592894963390811,
                -1.8358999280665964,
                2.228888945116112,
                -0.2221627309124032,
                0.4179518395956283,
                2.770546768387924
            ]
        },
        {
            "positions": [
                0.520222414257659,
                -1.8538548518787452,
                2.2699816285326757,
                -0.2818830935993671,
                0.4880004814338486,
                2.861137148604562
            ]
        },
        {
            "positions": [
                0.581155332176237,
                -1.871809775690894,
                2.3110743119492394,
                -0.341603456286331,
                0.5580491232720689,
                2.9517275288211997
            ]
        },
        {
            "positions": [
                0.642088250094815,
                -1.8897646995030428,
                2.3521669953658035,
                -0.40132381897329483,
                0.6280977651102893,
                3.0423179090378376
            ]
        },
        {
            "positions": [
                0.7030211680133929,
                -1.9077196233151916,
                2.3932596787823672,
                -0.46104418166025873,
                0.6981464069485095,
                3.1329082892544755
            ]
        }
    ]
}