{
    "goal": {
        "global_pose": {
            "orientation": {
                "w": 0.7031023480610252,
                "x": -0.7110244013736278,
                "y": 0.0077485991402295624,
                "z": 0.005598929693374583
            },
            "position": {
                "x": -0.8841497679147869,
                "y": 0.44412534475326537,
                "z": 0.3711530566215515
            }
        },
        "name": "move_to_auspresseinheit_D"
    },
    "id": "BKPIECE_move_to_auspresseinheit_D_67",
    "joint_names": [
        "shoulder_pan_joint",
        "shoulder_lift_joint",
        "elbow_joint",
        "wrist_1_joint",
        "wrist_2_joint",
        "wrist_3_joint"
    ],
    "metrics": {
        "cart_traj_len": 0.34344803747051866,
        "distance_elbow_joint": 0.6394160305520016,
        "distance_shoulder_lift_joint": 0.12188038311458893,
        "distance_shoulder_pan_joint": 0.13368274938855243,
        "distance_wrist_1_joint": 0.522534310975233,
        "distance_wrist_2_joint": 1.4500568071019946,
        "distance_wrist_3_joint": 0.008205785189276504,
        "smoothness": 1.9737298371844314e-16,
        "time": 0.290540217,
        "traj_len": 1.695811329812856,
        "weighted_distance": 2.2056243457981295
    },
    "planner": "BKPIECE",
    "start": {
        "state": {
            "elbow_joint": -1.8275484843655228,
            "shoulder_lift_joint": -2.1267897864000416,
            "shoulder_pan_joint": -0.035127520176001514,
            "wrist_1_joint": -2.3477863256791385,
            "wrist_2_joint": -1.605890476484521,
            "wrist_3_joint": -3.0880375317375353
        }
    },
    "waypoints": [
        {
            "positions": [
                -0.035127520176001514,
                -2.1267897864000416,
                -1.8275484843655228,
                -2.3477863256791385,
                -1.605890476484521,
                -3.0880375317375353
            ]
        },
        {
            "positions": [
                -0.051837863849570565,
                -2.1420248342893653,
                -1.7476214805465227,
                -2.4131031145510424,
                -1.4246333755967717,
                -3.0890632548861947
            ]
        },
        {
            "positions": [
                -0.06854820752313961,
                -2.157259882178689,
                -1.6676944767275224,
                -2.478419903422947,
                -1.2433762747090222,
                -3.0900889780348546
            ]
        },
        {
            "positions": [
                -0.08525855119670868,
                -2.1724949300680123,
                -1.587767472908522,
                -2.5437366922948508,
                -1.062119173821273,
                -3.091114701183514
            ]
        },
        {
            "positions": [
                -0.10196889487027773,
                -2.187729977957336,
                -1.507840469089522,
                -2.6090534811667547,
                -0.8808620729335237,
                -3.0921404243321735
            ]
        },
        {
            "positions": [
                -0.11867923854384678,
                -2.2029650258466598,
                -1.4279134652705219,
                -2.674370270038659,
                -0.6996049720457744,
                -3.093166147480833
            ]
        },
        {
            "positions": [
                -0.13538958221741584,
                -2.218200073735983,
                -1.3479864614515216,
                -2.739687058910563,
                -0.5183478711580249,
                -3.0941918706294924
            ]
        },
        {
            "positions": [
                -0.1520999258909849,
                -2.2334351216253068,
                -1.2680594576325213,
                -2.8050038477824675,
                -0.3370907702702757,
                -3.0952175937781523
            ]
        },
        {
            "positions": [
                -0.16881026956455394,
                -2.2486701695146305,
                -1.1881324538135212,
                -2.8703206366543714,
                -0.15583366938252638,
                -3.0962433169268118
            ]
        }
    ]
}