{
    "goal": {
        "global_pose": {
            "orientation": {
                "w": -0.00223480608172531,
                "x": 0.0024358444001904467,
                "y": 0.7094548369677653,
                "z": -0.704743149386269
            },
            "position": {
                "x": -0.37947507619857795,
                "y": -0.6371506643295288,
                "z": 0.19426114857196808
            }
        },
        "name": "move_to_magneteinheit_C"
    },
    "id": "BKPIECE_move_to_magneteinheit_C_34",
    "joint_names": [
        "shoulder_pan_joint",
        "shoulder_lift_joint",
        "elbow_joint",
        "wrist_1_joint",
        "wrist_2_joint",
        "wrist_3_joint"
    ],
    "metrics": {
        "cart_traj_len": 2.862863333668772,
        "distance_elbow_joint": 2.22330555337547,
        "distance_shoulder_lift_joint": 0.6540798896177129,
        "distance_shoulder_pan_joint": 2.9495939848130535,
        "distance_wrist_1_joint": 1.6409696245088936,
        "distance_wrist_2_joint": 2.6934596255513368,
        "distance_wrist_3_joint": 3.05932985058855,
        "smoothness": 0.9802376264097542,
        "time": 0.459386908,
        "traj_len": 3.636033350844711,
        "weighted_distance": 4.8655757603486505
    },
    "planner": "BKPIECE",
    "start": {
        "state": {
            "elbow_joint": 1.9565354006593851,
            "shoulder_lift_joint": -1.4165861576512813,
            "shoulder_pan_joint": -1.6717766223278752,
            "wrist_1_joint": -0.528663328821883,
            "wrist_2_joint": 1.472756589259273,
            "wrist_3_joint": 3.159348288315503
        }
    },
    "waypoints": [
        {
            "positions": [
                -1.6717766223278752,
                -1.4165861576512813,
                1.9565354006593851,
                -0.528663328821883,
                1.472756589259273,
                3.159348288315503
            ]
        },
        {
            "positions": [
                -1.6011873735069526,
                -1.3988996778550642,
                1.9252848031105914,
                -0.459052261847558,
                1.3729445514010665,
                3.1003956105291914
            ]
        },
        {
            "positions": [
                -1.53059812468603,
                -1.3812131980588473,
                1.8940342055617978,
                -0.3894411948732329,
                1.27313251354286,
                3.04144293274288
            ]
        },
        {
            "positions": [
                -1.4600088758651073,
                -1.3635267182626305,
                1.8627836080130042,
                -0.3198301278989078,
                1.1733204756846534,
                2.982490254956568
            ]
        },
        {
            "positions": [
                -1.3894196270441848,
                -1.3458402384664134,
                1.8315330104642105,
                -0.25021906092458274,
                1.0735084378264468,
                2.923537577170256
            ]
        },
        {
            "positions": [
                -1.3188303782232622,
                -1.3281537586701964,
                1.8002824129154167,
                -0.18060799395025762,
                0.9736963999682402,
                2.8645848993839444
            ]
        },
        {
            "positions": [
                -1.2482411294023397,
                -1.3104672788739795,
                1.7690318153666231,
                -0.11099692697593258,
                0.8738843621100336,
                2.805632221597633
            ]
        },
        {
            "positions": [
                -1.2105923438211599,
                -1.3080166522071628,
                1.665318697406169,
                -0.15580890114369014,
                0.9003071827268386,
                2.6796290215199625
            ]
        },
        {
            "positions": [
                -1.1729435582399803,
                -1.3055660255403463,
                1.5616055794457144,
                -0.2006208753114477,
                0.9267300033436436,
                2.553625821442292
            ]
        },
        {
            "positions": [
                -1.1352947726588005,
                -1.3031153988735296,
                1.4578924614852602,
                -0.24543284947920524,
                0.9531528239604488,
                2.4276226213646215
            ]
        },
        {
            "positions": [
                -1.097645987077621,
                -1.300664772206713,
                1.3541793435248057,
                -0.2902448236469628,
                0.9795756445772538,
                2.301619421286951
            ]
        },
        {
            "positions": [
                -1.0599972014964412,
                -1.2982141455398963,
                1.2504662255643515,
                -0.33505679781472036,
                1.0059984651940588,
                2.175616221209281
            ]
        },
        {
            "positions": [
                -1.1727606049422645,
                -1.312208489368084,
                1.259647314225968,
                -0.4300670380521777,
                1.0866111886917644,
                2.0926880734924906
            ]
        },
        {
            "positions": [
                -1.2855240083880877,
                -1.3262028331962719,
                1.268828402887585,
                -0.525077278289635,
                1.16722391218947,
                2.0097599257757004
            ]
        },
        {
            "positions": [
                -1.398287411833911,
                -1.3401971770244596,
                1.2780094915492015,
                -0.6200875185270924,
                1.2478366356871757,
                1.9268317780589101
            ]
        },
        {
            "positions": [
                -1.5110508152797344,
                -1.3541915208526474,
                1.2871905802108181,
                -0.7150977587645497,
                1.3284493591848814,
                1.84390363034212
            ]
        },
        {
            "positions": [
                -1.6238142187255575,
                -1.3681858646808351,
                1.296371668872435,
                -0.810107999002007,
                1.409062082682587,
                1.7609754826253297
            ]
        },
        {
            "positions": [
                -1.736577622171381,
                -1.382180208509023,
                1.3055527575340515,
                -0.9051182392394643,
                1.4896748061802927,
                1.6780473349085394
            ]
        },
        {
            "positions": [
                -1.8754779765823855,
                -1.411197469666677,
                1.4076648305176356,
                -0.9492991107546607,
                1.4999067840895774,
                1.708532892914398
            ]
        },
        {
            "positions": [
                -2.01437833099339,
                -1.440214730824331,
                1.5097769035012194,
                -0.993479982269857,
                1.5101387619988624,
                1.7390184509202564
            ]
        },
        {
            "positions": [
                -2.1532786854043944,
                -1.469231991981985,
                1.6118889764848032,
                -1.0376608537850533,
                1.5203707399081474,
                1.769504008926115
            ]
        },
        {
            "positions": [
                -2.292179039815399,
                -1.498249253139639,
                1.7140010494683873,
                -1.0818417253002497,
                1.5306027178174322,
                1.7999895669319734
            ]
        },
        {
            "positions": [
                -2.3506045443088874,
                -1.4813375202409358,
                1.7753158081113127,
                -1.0784123519508284,
                1.4267262407434236,
                1.9262144039855764
            ]
        },
        {
            "positions": [
                -2.409030048802376,
                -1.4644257873422324,
                1.8366305667542382,
                -1.074982978601407,
                1.322849763669415,
                2.0524392410391794
            ]
        },
        {
            "positions": [
                -2.4674555532958644,
                -1.4475140544435292,
                1.8979453253971637,
                -1.0715536052519856,
                1.2189732865954064,
                2.178664078092783
            ]
        },
        {
            "positions": [
                -2.525881057789353,
                -1.4306023215448258,
                1.9592600840400891,
                -1.0681242319025643,
                1.1150968095213978,
                2.304888915146386
            ]
        },
        {
            "positions": [
                -2.5843065622828414,
                -1.4136905886461226,
                2.0205748426830143,
                -1.064694858553143,
                1.011220332447389,
                2.431113752199989
            ]
        },
        {
            "positions": [
                -2.64273206677633,
                -1.3967788557474192,
                2.08188960132594,
                -1.0612654852037215,
                0.9073438553733805,
                2.5573385892535923
            ]
        },
        {
            "positions": [
                -2.701157571269819,
                -1.379867122848716,
                2.1432043599688653,
                -1.0578361118543003,
                0.8034673782993719,
                2.6835634263071952
            ]
        },
        {
            "positions": [
                -2.7595830757633073,
                -1.3629553899500126,
                2.204519118611791,
                -1.054406738504879,
                0.6995909012253632,
                2.8097882633607982
            ]
        },
        {
            "positions": [
                -2.818008580256796,
                -1.3460436570513095,
                2.265833877254716,
                -1.0509773651554577,
                0.5957144241513546,
                2.9360131004144012
            ]
        },
        {
            "positions": [
                -2.8764340847502843,
                -1.3291319241526063,
                2.3271486358976414,
                -1.0475479918060362,
                0.49183794707734596,
                3.062237937468004
            ]
        },
        {
            "positions": [
                -2.9348595892437728,
                -1.3122201912539029,
                2.388463394540567,
                -1.044118618456615,
                0.3879614700033373,
                3.1884627745216076
            ]
        },
        {
            "positions": [
                -2.819121545185201,
                -1.2748092642486906,
                2.293653592214512,
                -0.990434789082867,
                0.4617684187234882,
                3.171559410129478
            ]
        },
        {
            "positions": [
                -2.7033835011266287,
                -1.2373983372434783,
                2.198843789888457,
                -0.936750959709119,
                0.5355753674436392,
                3.1546560457373487
            ]
        },
        {
            "positions": [
                -2.587645457068057,
                -1.199987410238266,
                2.1040339875624015,
                -0.8830671303353712,
                0.6093823161637901,
                3.1377526813452192
            ]
        },
        {
            "positions": [
                -2.471907413009485,
                -1.1625764832330536,
                2.0092241852363464,
                -0.8293833009616233,
                0.683189264883941,
                3.1208493169530898
            ]
        }
    ]
}