{
    "goal": {
        "global_pose": {
            "orientation": {
                "w": 0.005598929693374612,
                "x": 0.007748599140229565,
                "y": 0.7110244013736278,
                "z": -0.7031023480610252
            },
            "position": {
                "x": -0.8858502320852131,
                "y": -0.7141253447532654,
                "z": 0.3711530566215515
            }
        },
        "name": "move_to_auspresseinheit_C"
    },
    "id": "BKPIECE_move_to_auspresseinheit_C_62",
    "joint_names": [
        "shoulder_pan_joint",
        "shoulder_lift_joint",
        "elbow_joint",
        "wrist_1_joint",
        "wrist_2_joint",
        "wrist_3_joint"
    ],
    "metrics": {
        "cart_traj_len": 0.4933950562127678,
        "distance_elbow_joint": 0.9917360571545796,
        "distance_shoulder_lift_joint": 0.3207413875189281,
        "distance_shoulder_pan_joint": 0.2566157359605139,
        "distance_wrist_1_joint": 0.6547499933313881,
        "distance_wrist_2_joint": 1.317880181263539,
        "distance_wrist_3_joint": 0.03429425402372299,
        "smoothness": 8.074349282788172e-16,
        "time": 0.19876524499999998,
        "traj_len": 1.891036120557371,
        "weighted_distance": 2.3700709465952796
    },
    "planner": "BKPIECE",
    "start": {
        "state": {
            "elbow_joint": 1.7527959577730765,
            "shoulder_lift_joint": -0.9740617694224828,
            "shoulder_pan_joint": -2.967991417825869,
            "wrist_1_joint": -0.7595177689779385,
            "wrist_2_joint": 1.7443932448376545,
            "wrist_3_joint": 3.1991315425061013
        }
    },
    "waypoints": [
        {
            "positions": [
                -2.967991417825869,
                -0.9740617694224828,
                1.7527959577730765,
                -0.7595177689779385,
                1.7443932448376545,
                3.1991315425061013
            ]
        },
        {
            "positions": [
                -2.9423298442298176,
                -0.94198763067059,
                1.6536223520576185,
                -0.6940427696447997,
                1.6126052267113005,
                3.195702117103729
            ]
        },
        {
            "positions": [
                -2.916668270633766,
                -0.9099134919186972,
                1.5544487463421606,
                -0.6285677703116609,
                1.4808172085849467,
                3.1922726917013566
            ]
        },
        {
            "positions": [
                -2.891006697037715,
                -0.8778393531668044,
                1.4552751406267026,
                -0.5630927709785222,
                1.3490291904585927,
                3.1888432662989845
            ]
        },
        {
            "positions": [
                -2.8653451234416636,
                -0.8457652144149115,
                1.3561015349112446,
                -0.4976177716453833,
                1.2172411723322387,
                3.185413840896612
            ]
        },
        {
            "positions": [
                -2.839683549845612,
                -0.8136910756630187,
                1.2569279291957867,
                -0.4321427723122445,
                1.085453154205885,
                3.18198441549424
            ]
        },
        {
            "positions": [
                -2.8140219762495606,
                -0.7816169369111259,
                1.157754323480329,
                -0.36666777297910574,
                0.9536651360795311,
                3.1785549900918677
            ]
        },
        {
            "positions": [
                -2.788360402653509,
                -0.7495427981592331,
                1.0585807177648707,
                -0.3011927736459669,
                0.8218771179531772,
                3.175125564689495
            ]
        },
        {
            "positions": [
                -2.762698829057458,
                -0.7174686594073403,
                0.9594071120494128,
                -0.23571777431282803,
                0.6900890998268232,
                3.171696139287123
            ]
        },
        {
            "positions": [
                -2.7370372554614066,
                -0.6853945206554475,
                0.8602335063339549,
                -0.17024277497968932,
                0.5583010817004692,
                3.1682667138847505
            ]
        },
        {
            "positions": [
                -2.711375681865355,
                -0.6533203819035547,
                0.7610599006184969,
                -0.10476777564655054,
                0.4265130635741154,
                3.1648372884823783
            ]
        }
    ]
}