{
    "goal": {
        "global_pose": {
            "orientation": {
                "w": -0.4816463035849501,
                "x": 0.5182115481033762,
                "y": 0.4908360881923453,
                "z": -0.5084816262002911
            },
            "position": {
                "x": -0.8240239810943604,
                "y": 0.19912469901144506,
                "z": 0.16403168439865112
            }
        },
        "name": "move_to_storage_D"
    },
    "id": "BKPIECE_move_to_storage_D_126",
    "joint_names": [
        "shoulder_pan_joint",
        "shoulder_lift_joint",
        "elbow_joint",
        "wrist_1_joint",
        "wrist_2_joint",
        "wrist_3_joint"
    ],
    "metrics": {
        "cart_traj_len": 3.6018349594004304,
        "distance_elbow_joint": 4.975508475598081,
        "distance_shoulder_lift_joint": 1.265228888456655,
        "distance_shoulder_pan_joint": 3.520834499345433,
        "distance_wrist_1_joint": 4.34604815830016,
        "distance_wrist_2_joint": 4.789797636618857,
        "distance_wrist_3_joint": 4.237815803807894,
        "smoothness": 0.43678590219729696,
        "time": 0.271565148,
        "traj_len": 4.809909922454588,
        "weighted_distance": 6.383315037240594
    },
    "planner": "BKPIECE",
    "start": {
        "state": {
            "elbow_joint": -2.384821990628643,
            "shoulder_lift_joint": -2.278805467437664,
            "shoulder_pan_joint": -0.18546946439364564,
            "wrist_1_joint": 1.4845938187801415,
            "wrist_2_joint": 0.178987772454074,
            "wrist_3_joint": 0.03710569632802521
        }
    },
    "waypoints": [
        {
            "positions": [
                -0.18546946439364564,
                -2.278805467437664,
                -2.384821990628643,
                1.4845938187801415,
                0.178987772454074,
                0.03710569632802521
            ]
        },
        {
            "positions": [
                -0.24145282124254513,
                -2.2270836661632725,
                -2.45728932075344,
                1.4418406733399063,
                0.22062294710660932,
                -0.030055018552552118
            ]
        },
        {
            "positions": [
                -0.2974361780914446,
                -2.1753618648888815,
                -2.5297566508782374,
                1.399087527899671,
                0.26225812175914465,
                -0.09721573343312945
            ]
        },
        {
            "positions": [
                -0.3319885989436203,
                -2.1055385580186647,
                -2.5637857824467063,
                1.307374104247124,
                0.16192302476959675,
                -0.15663721150841223
            ]
        },
        {
            "positions": [
                -0.366541019795796,
                -2.035715251148448,
                -2.5978149140151756,
                1.215660680594577,
                0.06158792778004882,
                -0.216058689583695
            ]
        },
        {
            "positions": [
                -0.40109344064797176,
                -1.965891944278231,
                -2.6318440455836445,
                1.1239472569420301,
                -0.03874716920949911,
                -0.27548016765897776
            ]
        },
        {
            "positions": [
                -0.43564586150014745,
                -1.8960686374080142,
                -2.6658731771521134,
                1.0322338332894831,
                -0.139082266199047,
                -0.3349016457342605
            ]
        },
        {
            "positions": [
                -0.4701982823523232,
                -1.8262453305377973,
                -2.6999023087205822,
                0.9405204096369362,
                -0.23941736318859497,
                -0.3943231238095433
            ]
        },
        {
            "positions": [
                -0.5047507032044989,
                -1.7564220236675805,
                -2.7339314402890516,
                0.8488069859843892,
                -0.33975246017814287,
                -0.45374460188482607
            ]
        },
        {
            "positions": [
                -0.5393031240566746,
                -1.6865987167973637,
                -2.7679605718575204,
                0.7570935623318422,
                -0.4400875571676908,
                -0.5131660799601089
            ]
        },
        {
            "positions": [
                -0.4623834830779888,
                -1.6750530214486796,
                -2.6526190902067377,
                0.7986669246277397,
                -0.4903461333175875,
                -0.42613114580431727
            ]
        },
        {
            "positions": [
                -0.38546384209930307,
                -1.6635073260999957,
                -2.5372776085559554,
                0.8402402869236373,
                -0.5406047094674841,
                -0.33909621164852566
            ]
        },
        {
            "positions": [
                -0.30854420112061737,
                -1.6519616307513116,
                -2.421936126905173,
                0.8818136492195348,
                -0.5908632856173808,
                -0.2520612774927341
            ]
        },
        {
            "positions": [
                -0.2316245601419316,
                -1.6404159354026275,
                -2.3065946452543904,
                0.9233870115154323,
                -0.6411218617672774,
                -0.16502634333694244
            ]
        },
        {
            "positions": [
                -0.15470491916324586,
                -1.6288702400539434,
                -2.1912531636036077,
                0.9649603738113298,
                -0.691380437917174,
                -0.07799140918115083
            ]
        },
        {
            "positions": [
                -0.07778527818456016,
                -1.6173245447052595,
                -2.0759116819528254,
                1.0065337361072273,
                -0.7416390140670707,
                0.009043524974640671
            ]
        },
        {
            "positions": [
                -0.0008656372058742923,
                -1.6057788493565754,
                -1.9605702003020429,
                1.0481070984031249,
                -0.7918975902169674,
                0.09607845913043245
            ]
        },
        {
            "positions": [
                0.07605400377281135,
                -1.5942331540078913,
                -1.8452287186512604,
                1.0896804606990225,
                -0.842156166366864,
                0.183113393286224
            ]
        },
        {
            "positions": [
                0.1529736447514971,
                -1.5826874586592075,
                -1.729887237000478,
                1.1312538229949198,
                -0.8924147425167606,
                0.27014832744201556
            ]
        },
        {
            "positions": [
                0.22989328573018286,
                -1.5711417633105234,
                -1.6145457553496954,
                1.1728271852908174,
                -0.9426733186666572,
                0.3571832615978072
            ]
        },
        {
            "positions": [
                0.3068129267088686,
                -1.5595960679618392,
                -1.4992042736989128,
                1.214400547586715,
                -0.9929318948165538,
                0.4442181957535988
            ]
        },
        {
            "positions": [
                0.38373256768755426,
                -1.5480503726131551,
                -1.3838627920481306,
                1.2559739098826124,
                -1.0431904709664506,
                0.5312531299093902
            ]
        },
        {
            "positions": [
                0.4606522086662401,
                -1.5365046772644713,
                -1.2685213103973478,
                1.2975472721785102,
                -1.0934490471163472,
                0.6182880640651821
            ]
        },
        {
            "positions": [
                0.537571849644926,
                -1.5249589819157872,
                -1.1531798287465653,
                1.3391206344744075,
                -1.1437076232662438,
                0.7053229982209738
            ]
        },
        {
            "positions": [
                0.6144914906236114,
                -1.513413286567103,
                -1.037838347095783,
                1.380693996770305,
                -1.1939661994161404,
                0.7923579323767652
            ]
        },
        {
            "positions": [
                0.6914111316022973,
                -1.501867591218419,
                -0.9224968654450003,
                1.4222673590662027,
                -1.2442247755660372,
                0.8793928665325569
            ]
        },
        {
            "positions": [
                0.7683307725809831,
                -1.490321895869735,
                -0.8071553837942178,
                1.4638407213621,
                -1.2944833517159338,
                0.9664278006883485
            ]
        },
        {
            "positions": [
                0.8452504135596688,
                -1.478776200521051,
                -0.6918139021434357,
                1.5054140836579977,
                -1.3447419278658304,
                1.0534627348441399
            ]
        },
        {
            "positions": [
                0.9221700545383544,
                -1.4672305051723669,
                -0.576472420492653,
                1.5469874459538953,
                -1.395000504015727,
                1.1404976689999318
            ]
        },
        {
            "positions": [
                0.9990896955170403,
                -1.455684809823683,
                -0.4611309388418703,
                1.5885608082497926,
                -1.4452590801656235,
                1.2275326031557232
            ]
        },
        {
            "positions": [
                1.076009336495726,
                -1.4441391144749989,
                -0.345789457191088,
                1.6301341705456902,
                -1.4955176563155201,
                1.3145675373115147
            ]
        },
        {
            "positions": [
                1.1529289774744118,
                -1.4325934191263148,
                -0.23044797554030527,
                1.6717075328415878,
                -1.5457762324654167,
                1.4016024714673065
            ]
        },
        {
            "positions": [
                1.2298486184530975,
                -1.4210477237776309,
                -0.11510649388952299,
                1.7132808951374852,
                -1.5960348086153135,
                1.488637405623098
            ]
        },
        {
            "positions": [
                1.306768259431783,
                -1.4095020284289468,
                0.00023498776125929766,
                1.7548542574333827,
                -1.6462933847652101,
                1.5756723397788894
            ]
        },
        {
            "positions": [
                1.383687900410469,
                -1.3979563330802627,
                0.11557646941204203,
                1.7964276197292803,
                -1.6965519609151067,
                1.6627072739346813
            ]
        },
        {
            "positions": [
                1.4327119124586005,
                -1.3805232357887343,
                0.15826338561632133,
                1.6939379948215039,
                -1.5626047920445865,
                1.694233701434594
            ]
        },
        {
            "positions": [
                1.481735924506732,
                -1.3630901384972058,
                0.20095030182060064,
                1.5914483699137274,
                -1.428657623174066,
                1.7257601289345066
            ]
        },
        {
            "positions": [
                1.5307599365548639,
                -1.3456570412056776,
                0.24363721802487995,
                1.488958745005951,
                -1.2947104543035457,
                1.7572865564344193
            ]
        },
        {
            "positions": [
                1.5797839486029954,
                -1.3282239439141492,
                0.28632413422915926,
                1.3864691200981745,
                -1.1607632854330254,
                1.788812983934332
            ]
        },
        {
            "positions": [
                1.628807960651127,
                -1.3107908466226208,
                0.3290110504334386,
                1.283979495190398,
                -1.0268161165625052,
                1.8203394114342446
            ]
        },
        {
            "positions": [
                1.6778319726992585,
                -1.2933577493310924,
                0.37169796663771787,
                1.1814898702826215,
                -0.8928689476919848,
                1.8518658389341573
            ]
        },
        {
            "positions": [
                1.7268559847473903,
                -1.275924652039564,
                0.4143848828419972,
                1.079000245374845,
                -0.7589217788214644,
                1.88339226643407
            ]
        },
        {
            "positions": [
                1.7758799967955219,
                -1.2584915547480355,
                0.4570717990462765,
                0.9765106204670685,
                -0.6249746099509441,
                1.9149186939339828
            ]
        },
        {
            "positions": [
                1.8249040088436534,
                -1.2410584574565071,
                0.4997587152505558,
                0.874020995559292,
                -0.4910274410804236,
                1.9464451214338954
            ]
        },
        {
            "positions": [
                1.873928020891785,
                -1.223625360164979,
                0.5424456314548352,
                0.7715313706515154,
                -0.35708027220990335,
                1.977971548933808
            ]
        },
        {
            "positions": [
                1.9229520329399166,
                -1.2061922628734505,
                0.5851325476591145,
                0.669041745743739,
                -0.22313310333938285,
                2.0094979764337206
            ]
        },
        {
            "positions": [
                1.9719760449880481,
                -1.188759165581922,
                0.6278194638633937,
                0.5665521208359625,
                -0.0891859344688628,
                2.0410244039336334
            ]
        },
        {
            "positions": [
                2.02100005703618,
                -1.1713260682903937,
                0.670506380067673,
                0.4640624959281858,
                0.04476123440165769,
                2.072550831433546
            ]
        },
        {
            "positions": [
                2.0700240690843117,
                -1.1538929709988652,
                0.7131932962719524,
                0.3615728710204096,
                0.17870840327217796,
                2.104077258933459
            ]
        },
        {
            "positions": [
                2.1190480811324433,
                -1.1364598737073368,
                0.7558802124762317,
                0.2590832461126329,
                0.31265557214269823,
                2.1356036864333716
            ]
        },
        {
            "positions": [
                2.168072093180575,
                -1.1190267764158084,
                0.7985671286805109,
                0.15659362120485665,
                0.4466027410132185,
                2.1671301139332844
            ]
        },
        {
            "positions": [
                2.2170961052287064,
                -1.1015936791242802,
                0.8412540448847903,
                0.05410399629707996,
                0.5805499098837392,
                2.1986565414331967
            ]
        },
        {
            "positions": [
                2.266120117276838,
                -1.0841605818327518,
                0.8839409610890696,
                -0.048385628610696285,
                0.7144970787542595,
                2.2301829689331094
            ]
        },
        {
            "positions": [
                2.3151441293249695,
                -1.0667274845412233,
                0.926627877293349,
                -0.15087525351847286,
                0.8484442476247798,
                2.261709396433022
            ]
        },
        {
            "positions": [
                2.3542133276125643,
                -1.0600836213461966,
                1.0388505579456406,
                -0.2298641249193066,
                0.8737843721372359,
                2.3757929653238508
            ]
        },
        {
            "positions": [
                2.3932825259001596,
                -1.0534397581511699,
                1.1510732385979323,
                -0.30885299632014035,
                0.8991244966496921,
                2.4898765342146794
            ]
        },
        {
            "positions": [
                2.432351724187755,
                -1.046795894956143,
                1.2632959192502238,
                -0.38784186772097407,
                0.9244646211621481,
                2.603960103105508
            ]
        },
        {
            "positions": [
                2.4714209224753496,
                -1.0401520317611161,
                1.3755185999025155,
                -0.46683073912180784,
                0.9498047456746043,
                2.7180436719963366
            ]
        },
        {
            "positions": [
                2.5104901207629444,
                -1.0335081685660894,
                1.4877412805548071,
                -0.5458196105226416,
                0.9751448701870604,
                2.832127240887165
            ]
        },
        {
            "positions": [
                2.5495593190505397,
                -1.0268643053710624,
                1.5999639612070986,
                -0.6248084819234754,
                1.0004849946995165,
                2.9462108097779938
            ]
        },
        {
            "positions": [
                2.588628517338135,
                -1.0202204421760357,
                1.7121866418593903,
                -0.703797353324309,
                1.0258251192119727,
                3.0602943786688224
            ]
        },
        {
            "positions": [
                2.6276977156257297,
                -1.013576578981009,
                1.824409322511682,
                -0.7827862247251428,
                1.0511652437244288,
                3.174377947559651
            ]
        }
    ]
}