{
    "goal": {
        "global_pose": {
            "orientation": {
                "w": 0.7047431468963623,
                "x": -0.7094548344612122,
                "y": 0.0024358443915843964,
                "z": -0.0022348060738295317
            },
            "position": {
                "x": 0.6094750761985779,
                "y": 0.3671506643295288,
                "z": 0.19426114857196808
            }
        },
        "name": "move_to_magneteinheit_A"
    },
    "id": "BKPIECE_move_to_magneteinheit_A_136",
    "joint_names": [
        "shoulder_pan_joint",
        "shoulder_lift_joint",
        "elbow_joint",
        "wrist_1_joint",
        "wrist_2_joint",
        "wrist_3_joint"
    ],
    "metrics": {
        "cart_traj_len": 1.5936534980484351,
        "distance_elbow_joint": 3.5400670955378977,
        "distance_shoulder_lift_joint": 1.1421768330778128,
        "distance_shoulder_pan_joint": 1.2419941831336803,
        "distance_wrist_1_joint": 3.8931265121744008,
        "distance_wrist_2_joint": 1.695231508647935,
        "distance_wrist_3_joint": 5.085979146486551,
        "smoothness": 2.685190586622542e-16,
        "time": 0.283674454,
        "traj_len": 4.074134911739949,
        "weighted_distance": 5.688487636696921
    },
    "planner": "BKPIECE",
    "start": {
        "state": {
            "elbow_joint": -1.5739458827952972,
            "shoulder_lift_joint": 0.006533473998580023,
            "shoulder_pan_joint": -1.1188671628667068,
            "wrist_1_joint": 3.138208179676308,
            "wrist_2_joint": -1.5706037135050406,
            "wrist_3_joint": -2.0226958329764257
        }
    },
    "waypoints": [
        {
            "positions": [
                -1.1188671628667068,
                0.006533473998580023,
                -1.5739458827952972,
                3.138208179676308,
                -1.5706037135050406,
                -2.0226958329764257
            ]
        },
        {
            "positions": [
                -1.0892958727920954,
                -0.02066121250327266,
                -1.4896585709967758,
                3.0455146912912032,
                -1.5302410585372326,
                -1.9016010913934127
            ]
        },
        {
            "positions": [
                -1.059724582717484,
                -0.047855899005125345,
                -1.4053712591982546,
                2.9528212029060987,
                -1.4898784035694246,
                -1.7805063498103995
            ]
        },
        {
            "positions": [
                -1.0301532926428725,
                -0.07505058550697803,
                -1.3210839473997331,
                2.860127714520994,
                -1.4495157486016166,
                -1.6594116082273864
            ]
        },
        {
            "positions": [
                -1.000582002568261,
                -0.10224527200883071,
                -1.2367966356012117,
                2.7674342261358893,
                -1.4091530936338086,
                -1.5383168666443732
            ]
        },
        {
            "positions": [
                -0.9710107124936497,
                -0.12943995851068338,
                -1.1525093238026904,
                2.6747407377507844,
                -1.3687904386660006,
                -1.4172221250613601
            ]
        },
        {
            "positions": [
                -0.9414394224190382,
                -0.15663464501253607,
                -1.068222012004169,
                2.5820472493656794,
                -1.3284277836981928,
                -1.296127383478347
            ]
        },
        {
            "positions": [
                -0.9118681323444269,
                -0.18382933151438877,
                -0.9839347002056477,
                2.489353760980575,
                -1.2880651287303848,
                -1.175032641895334
            ]
        },
        {
            "positions": [
                -0.8822968422698154,
                -0.21102401801624143,
                -0.8996473884071263,
                2.39666027259547,
                -1.2477024737625768,
                -1.0539379003123208
            ]
        },
        {
            "positions": [
                -0.852725552195204,
                -0.23821870451809413,
                -0.8153600766086049,
                2.303966784210365,
                -1.2073398187947688,
                -0.9328431587293078
            ]
        },
        {
            "positions": [
                -0.8231542621205925,
                -0.2654133910199468,
                -0.7310727648100835,
                2.2112732958252606,
                -1.1669771638269608,
                -0.8117484171462945
            ]
        },
        {
            "positions": [
                -0.793582972045981,
                -0.29260807752179957,
                -0.6467854530115621,
                2.1185798074401556,
                -1.1266145088591528,
                -0.6906536755632815
            ]
        },
        {
            "positions": [
                -0.7640116819713696,
                -0.3198027640236522,
                -0.5624981412130408,
                2.0258863190550507,
                -1.0862518538913448,
                -0.5695589339802685
            ]
        },
        {
            "positions": [
                -0.7344403918967581,
                -0.3469974505255049,
                -0.4782108294145193,
                1.933192830669946,
                -1.0458891989235368,
                -0.4484641923972552
            ]
        },
        {
            "positions": [
                -0.7048691018221468,
                -0.3741921370273576,
                -0.3939235176159981,
                1.8404993422848412,
                -1.005526543955729,
                -0.3273694508142422
            ]
        },
        {
            "positions": [
                -0.6752978117475353,
                -0.4013868235292103,
                -0.30963620581747664,
                1.7478058538997365,
                -0.9651638889879209,
                -0.20627470923122893
            ]
        },
        {
            "positions": [
                -0.645726521672924,
                -0.42858151003106293,
                -0.22534889401895541,
                1.6551123655146318,
                -0.9248012340201129,
                -0.08517996764821589
            ]
        },
        {
            "positions": [
                -0.6161552315983124,
                -0.4557761965329157,
                -0.14106158222043397,
                1.5624188771295269,
                -0.8844385790523049,
                0.03591477393479714
            ]
        },
        {
            "positions": [
                -0.5865839415237011,
                -0.4829708830347683,
                -0.05677427042191252,
                1.4697253887444222,
                -0.844075924084497,
                0.15700951551781017
            ]
        },
        {
            "positions": [
                -0.5570126514490896,
                -0.510165569536621,
                0.027513041376608927,
                1.3770319003593174,
                -0.803713269116689,
                0.27810425710082365
            ]
        },
        {
            "positions": [
                -0.5274413613744782,
                -0.5373602560384736,
                0.11180035317513015,
                1.2843384119742127,
                -0.7633506141488811,
                0.3991989986838367
            ]
        },
        {
            "positions": [
                -0.4978700712998667,
                -0.5645549425403263,
                0.1960876649736516,
                1.1916449235891078,
                -0.7229879591810731,
                0.5202937402668497
            ]
        },
        {
            "positions": [
                -0.46829878122525526,
                -0.5917496290421791,
                0.28037497677217305,
                1.098951435204003,
                -0.6826253042132651,
                0.6413884818498627
            ]
        },
        {
            "positions": [
                -0.4387274911506438,
                -0.6189443155440317,
                0.3646622885706945,
                1.0062579468188981,
                -0.6422626492454571,
                0.7624832234328762
            ]
        },
        {
            "positions": [
                -0.40915620107603246,
                -0.6461390020458844,
                0.4489496003692157,
                0.9135644584337936,
                -0.6018999942776492,
                0.8835779650158888
            ]
        },
        {
            "positions": [
                -0.379584911001421,
                -0.6733336885477371,
                0.5332369121677372,
                0.8208709700486887,
                -0.5615373393098411,
                1.0046727065989023
            ]
        },
        {
            "positions": [
                -0.35001362092680954,
                -0.7005283750495898,
                0.6175242239662586,
                0.7281774816635838,
                -0.5211746843420331,
                1.1257674481819153
            ]
        },
        {
            "positions": [
                -0.3204423308521981,
                -0.7277230615514425,
                0.7018115357647801,
                0.6354839932784788,
                -0.48081202937422507,
                1.2468621897649288
            ]
        },
        {
            "positions": [
                -0.29087104077758674,
                -0.7549177480532951,
                0.7860988475633011,
                0.5427905048933743,
                -0.4404493744064173,
                1.3679569313479414
            ]
        },
        {
            "positions": [
                -0.2612997507029753,
                -0.7821124345551478,
                0.8703861593618225,
                0.4500970165082694,
                -0.4000867194386093,
                1.4890516729309544
            ]
        },
        {
            "positions": [
                -0.23172846062836383,
                -0.8093071210570005,
                0.954673471160344,
                0.3574035281231649,
                -0.3597240644708013,
                1.610146414513968
            ]
        },
        {
            "positions": [
                -0.20215717055375226,
                -0.8365018075588533,
                1.0389607829588654,
                0.26471003973805995,
                -0.3193614095029933,
                1.731241156096981
            ]
        },
        {
            "positions": [
                -0.17258588047914103,
                -0.8636964940607058,
                1.1232480947573864,
                0.17201655135295546,
                -0.2789987545351853,
                1.852335897679994
            ]
        },
        {
            "positions": [
                -0.14301459040452946,
                -0.8908911805625586,
                1.2075354065559079,
                0.07932306296785052,
                -0.2386360995673773,
                1.973430639263007
            ]
        },
        {
            "positions": [
                -0.113443300329918,
                -0.9180858670644113,
                1.2918227183544293,
                -0.013370425417254417,
                -0.1982734445995693,
                2.09452538084602
            ]
        },
        {
            "positions": [
                -0.08387201025530655,
                -0.945280553566264,
                1.3761100301529507,
                -0.10606391380235936,
                -0.1579107896317613,
                2.215620122429034
            ]
        },
        {
            "positions": [
                -0.05430072018069532,
                -0.9724752400681166,
                1.4603973419514722,
                -0.19875740218746385,
                -0.11754813466395353,
                2.336714864012046
            ]
        },
        {
            "positions": [
                -0.02472943010608386,
                -0.9996699265699693,
                1.5446846537499936,
                -0.2914508905725688,
                -0.07718547969614553,
                2.457809605595059
            ]
        },
        {
            "positions": [
                0.004841859968527595,
                -1.026864613071822,
                1.628971965548515,
                -0.3841443789576733,
                -0.03682282472833753,
                2.578904347178073
            ]
        },
        {
            "positions": [
                0.03441315004313905,
                -1.0540592995736748,
                1.7132592773470365,
                -0.4768378673427782,
                0.003539830239470687,
                2.699999088761086
            ]
        },
        {
            "positions": [
                0.06398444011775051,
                -1.0812539860755273,
                1.7975465891455575,
                -0.5695313557278827,
                0.04390248520727846,
                2.821093830344099
            ]
        },
        {
            "positions": [
                0.09355573019236196,
                -1.1084486725773801,
                1.881833900944079,
                -0.6622248441129877,
                0.08426514017508646,
                2.942188571927112
            ]
        },
        {
            "positions": [
                0.12312702026697342,
                -1.1356433590792328,
                1.9661212127426004,
                -0.7549183324980927,
                0.12462779514289442,
                3.0632833135101256
            ]
        }
    ]
}