{
    "goal": {
        "global_pose": {
            "orientation": {
                "w": 0.005598929693374612,
                "x": 0.007748599140229565,
                "y": 0.7110244013736278,
                "z": -0.7031023480610252
            },
            "position": {
                "x": -0.8858502320852131,
                "y": -0.7141253447532654,
                "z": 0.3711530566215515
            }
        },
        "name": "move_to_auspresseinheit_C"
    },
    "id": "BKPIECE_move_to_auspresseinheit_C_109",
    "joint_names": [
        "shoulder_pan_joint",
        "shoulder_lift_joint",
        "elbow_joint",
        "wrist_1_joint",
        "wrist_2_joint",
        "wrist_3_joint"
    ],
    "metrics": {
        "cart_traj_len": 0.494509818877401,
        "distance_elbow_joint": 1.012040955597142,
        "distance_shoulder_lift_joint": 0.33038586045832896,
        "distance_shoulder_pan_joint": 0.25698058214210207,
        "distance_wrist_1_joint": 0.7014734521794385,
        "distance_wrist_2_joint": 1.3056495497374523,
        "distance_wrist_3_joint": 0.07305400849896815,
        "smoothness": 3.2297397335745243e-16,
        "time": 0.189621892,
        "traj_len": 1.9182242852736047,
        "weighted_distance": 2.415122238630637
    },
    "planner": "BKPIECE",
    "start": {
        "state": {
            "elbow_joint": 1.7527959577730765,
            "shoulder_lift_joint": -0.9740617694224828,
            "shoulder_pan_joint": -2.967991417825869,
            "wrist_1_joint": -0.7595177689779385,
            "wrist_2_joint": 1.7443932448376545,
            "wrist_3_joint": 3.1991315425061013
        }
    },
    "waypoints": [
        {
            "positions": [
                -2.967991417825869,
                -0.9740617694224828,
                1.7527959577730765,
                -0.7595177689779385,
                1.7443932448376545,
                3.1991315425061013
            ]
        },
        {
            "positions": [
                -2.942293359611659,
                -0.9410231833766499,
                1.6515918622133623,
                -0.6893704237599947,
                1.6138282898639091,
                3.1918261416562044
            ]
        },
        {
            "positions": [
                -2.916595301397449,
                -0.907984597330817,
                1.550387766653648,
                -0.6192230785420508,
                1.483263334890164,
                3.184520740806308
            ]
        },
        {
            "positions": [
                -2.8908972431832383,
                -0.8749460112849841,
                1.4491836710939339,
                -0.549075733324107,
                1.3526983799164187,
                3.177215339956411
            ]
        },
        {
            "positions": [
                -2.865199184969028,
                -0.8419074252391512,
                1.3479795755342197,
                -0.47892838810616317,
                1.2221334249426734,
                3.169909939106514
            ]
        },
        {
            "positions": [
                -2.839501126754818,
                -0.8088688391933183,
                1.2467754799745054,
                -0.4087810428882193,
                1.0915684699689283,
                3.162604538256617
            ]
        },
        {
            "positions": [
                -2.813803068540608,
                -0.7758302531474854,
                1.1455713844147914,
                -0.33863369767027546,
                0.9610035149951831,
                3.1552991374067205
            ]
        },
        {
            "positions": [
                -2.788105010326398,
                -0.7427916671016526,
                1.0443672888550772,
                -0.26848635245233166,
                0.8304385600214379,
                3.1479937365568236
            ]
        },
        {
            "positions": [
                -2.7624069521121872,
                -0.7097530810558197,
                0.9431631932953629,
                -0.1983390072343878,
                0.6998736050476926,
                3.1406883357069266
            ]
        },
        {
            "positions": [
                -2.736708893897977,
                -0.6767144950099867,
                0.8419590977356488,
                -0.12819166201644394,
                0.5693086500739473,
                3.13338293485703
            ]
        },
        {
            "positions": [
                -2.711010835683767,
                -0.6436759089641538,
                0.7407550021759346,
                -0.05804431679850005,
                0.4387436951002022,
                3.126077534007133
            ]
        }
    ]
}