{
    "goal": {
        "global_pose": {
            "orientation": {
                "w": -0.00223480608172531,
                "x": 0.0024358444001904467,
                "y": 0.7094548369677653,
                "z": -0.704743149386269
            },
            "position": {
                "x": -0.37947507619857795,
                "y": -0.6371506643295288,
                "z": 0.19426114857196808
            }
        },
        "name": "move_to_magneteinheit_C"
    },
    "id": "BKPIECE_move_to_magneteinheit_C_68",
    "joint_names": [
        "shoulder_pan_joint",
        "shoulder_lift_joint",
        "elbow_joint",
        "wrist_1_joint",
        "wrist_2_joint",
        "wrist_3_joint"
    ],
    "metrics": {
        "cart_traj_len": 2.923984809679265,
        "distance_elbow_joint": 3.7018403852593997,
        "distance_shoulder_lift_joint": 1.5547382920009323,
        "distance_shoulder_pan_joint": 2.544133826137421,
        "distance_wrist_1_joint": 4.5053254101773925,
        "distance_wrist_2_joint": 2.1071735944501873,
        "distance_wrist_3_joint": 7.694783417567035,
        "smoothness": 0.41709687586817185,
        "time": 0.251743841,
        "traj_len": 4.701913964078071,
        "weighted_distance": 6.641540541572716
    },
    "planner": "BKPIECE",
    "start": {
        "state": {
            "elbow_joint": 1.9565354006593851,
            "shoulder_lift_joint": -1.4165861576512813,
            "shoulder_pan_joint": -1.6717766223278752,
            "wrist_1_joint": -0.528663328821883,
            "wrist_2_joint": 1.472756589259273,
            "wrist_3_joint": 3.159348288315503
        }
    },
    "waypoints": [
        {
            "positions": [
                -1.6717766223278752,
                -1.4165861576512813,
                1.9565354006593851,
                -0.528663328821883,
                1.472756589259273,
                3.159348288315503
            ]
        },
        {
            "positions": [
                -1.5710383510771742,
                -1.441942299039172,
                1.9424206734800298,
                -0.5387578245306317,
                1.35820166473504,
                3.0396736734154777
            ]
        },
        {
            "positions": [
                -1.4703000798264731,
                -1.4672984404270626,
                1.9283059463006744,
                -0.5488523202393802,
                1.2436467402108065,
                2.9199990585154527
            ]
        },
        {
            "positions": [
                -1.3695618085757721,
                -1.4926545818149533,
                1.914191219121319,
                -0.5589468159481289,
                1.1290918156865732,
                2.8003244436154273
            ]
        },
        {
            "positions": [
                -1.2688235373250714,
                -1.518010723202844,
                1.9000764919419637,
                -0.5690413116568774,
                1.01453689116234,
                2.680649828715402
            ]
        },
        {
            "positions": [
                -1.1680852660743701,
                -1.5433668645907346,
                1.8859617647626084,
                -0.5791358073656261,
                0.8999819666381066,
                2.560975213815377
            ]
        },
        {
            "positions": [
                -1.0673469948236693,
                -1.5687230059786252,
                1.871847037583253,
                -0.5892303030743746,
                0.7854270421138734,
                2.4413005989153516
            ]
        },
        {
            "positions": [
                -0.9666087235729683,
                -1.594079147366516,
                1.8577323104038976,
                -0.5993247987831233,
                0.67087211758964,
                2.321625984015326
            ]
        },
        {
            "positions": [
                -1.007940634702162,
                -1.563307537024928,
                1.7872165315171549,
                -0.5132550946099262,
                0.6417125276090363,
                2.1923901557785213
            ]
        },
        {
            "positions": [
                -1.0492725458313554,
                -1.53253592668334,
                1.716700752630412,
                -0.4271853904367292,
                0.6125529376284325,
                2.0631543275417163
            ]
        },
        {
            "positions": [
                -1.090604456960549,
                -1.5017643163417522,
                1.6461849737436691,
                -0.3411156862635321,
                0.5833933476478288,
                1.9339184993049114
            ]
        },
        {
            "positions": [
                -1.1319363680897425,
                -1.4709927060001644,
                1.5756691948569264,
                -0.2550459820903351,
                0.5542337576672252,
                1.8046826710681063
            ]
        },
        {
            "positions": [
                -1.1732682792189362,
                -1.4402210956585764,
                1.5051534159701836,
                -0.16897627791713793,
                0.5250741676866213,
                1.6754468428313014
            ]
        },
        {
            "positions": [
                -1.2146001903481296,
                -1.4094494853169885,
                1.4346376370834408,
                -0.08290657374394095,
                0.49591457770601766,
                1.5462110145944965
            ]
        },
        {
            "positions": [
                -1.2559321014773233,
                -1.3786778749754005,
                1.364121858196698,
                0.0031631304292562,
                0.4667549877254139,
                1.4169751863576914
            ]
        },
        {
            "positions": [
                -1.2972640126065167,
                -1.3479062646338127,
                1.293606079309955,
                0.08923283460245313,
                0.43759539774481016,
                1.2877393581208865
            ]
        },
        {
            "positions": [
                -1.3385959237357103,
                -1.3171346542922246,
                1.2230903004232123,
                0.17530253877565027,
                0.4084358077642064,
                1.1585035298840816
            ]
        },
        {
            "positions": [
                -1.379927834864904,
                -1.2863630439506368,
                1.1525745215364696,
                0.2613722429488474,
                0.37927621778360265,
                1.0292677016472767
            ]
        },
        {
            "positions": [
                -1.4212597459940974,
                -1.255591433609049,
                1.0820587426497266,
                0.34744194712204446,
                0.3501166278029989,
                0.9000318734104715
            ]
        },
        {
            "positions": [
                -1.462591657123291,
                -1.224819823267461,
                1.011542963762984,
                0.4335116512952414,
                0.3209570378223952,
                0.7707960451736668
            ]
        },
        {
            "positions": [
                -1.5039235682524845,
                -1.1940482129258732,
                0.941027184876241,
                0.5195813554684384,
                0.29179744784179146,
                0.6415602169368617
            ]
        },
        {
            "positions": [
                -1.5452554793816782,
                -1.1632766025842853,
                0.8705114059894983,
                0.6056510596416357,
                0.2626378578611877,
                0.5123243887000568
            ]
        },
        {
            "positions": [
                -1.5865873905108718,
                -1.1325049922426973,
                0.7999956271027553,
                0.6917207638148327,
                0.23347826788058396,
                0.3830885604632517
            ]
        },
        {
            "positions": [
                -1.6279193016400653,
                -1.1017333819011095,
                0.7294798482160127,
                0.7777904679880295,
                0.20431867789998026,
                0.2538527322264468
            ]
        },
        {
            "positions": [
                -1.6692512127692587,
                -1.0709617715595217,
                0.6589640693292698,
                0.8638601721612268,
                0.1751590879193765,
                0.12461690398964187
            ]
        },
        {
            "positions": [
                -1.7105831238984524,
                -1.0401901612179336,
                0.588448290442527,
                0.9499298763344237,
                0.1459994979387727,
                -0.00461892424716287
            ]
        },
        {
            "positions": [
                -1.8074059618369214,
                -1.000489258546172,
                0.5311918764745143,
                1.0195530055335904,
                0.12994706107496518,
                -0.09228979974292079
            ]
        },
        {
            "positions": [
                -1.9042287997753906,
                -0.9607883558744104,
                0.4739354625065015,
                1.089176134732757,
                0.11389462421115767,
                -0.1799606752386787
            ]
        },
        {
            "positions": [
                -2.00105163771386,
                -0.9210874532026487,
                0.41667904853848875,
                1.1587992639319238,
                0.09784218734735016,
                -0.2676315507344366
            ]
        },
        {
            "positions": [
                -2.0978744756523287,
                -0.8813865505308871,
                0.35942263457047596,
                1.2284223931310905,
                0.08178975048354264,
                -0.35530242623019453
            ]
        },
        {
            "positions": [
                -2.194697313590798,
                -0.8416856478591255,
                0.30216622060246323,
                1.2980455223302574,
                0.06573731361973513,
                -0.44297330172595245
            ]
        },
        {
            "positions": [
                -2.2915201515292667,
                -0.801984745187364,
                0.2449098066344505,
                1.367668651529424,
                0.049684876755927615,
                -0.5306441772217103
            ]
        },
        {
            "positions": [
                -2.388342989467736,
                -0.7622838425156023,
                0.1876533926664377,
                1.4372917807285908,
                0.0336324398921201,
                -0.6183150527174683
            ]
        },
        {
            "positions": [
                -2.485165827406205,
                -0.7225829398438407,
                0.13039697869842498,
                1.5069149099277575,
                0.0175800030283126,
                -0.7059859282132261
            ]
        },
        {
            "positions": [
                -2.639397432903832,
                -0.6889045049538647,
                0.16050742799626044,
                1.4652601508266885,
                0.03855360718996928,
                -0.5965700286000343
            ]
        },
        {
            "positions": [
                -2.6363296833887366,
                -0.7080281861235039,
                0.23926761993416026,
                1.367405564082059,
                0.06575999137850946,
                -0.4366328008700636
            ]
        },
        {
            "positions": [
                -2.6332619338736407,
                -0.7271518672931431,
                0.3180278118720601,
                1.2695509773374298,
                0.09296637556704963,
                -0.276695573140093
            ]
        },
        {
            "positions": [
                -2.6301941843585452,
                -0.7462755484627823,
                0.39678800380995993,
                1.1716963905928004,
                0.12017275975558982,
                -0.11675834541012237
            ]
        },
        {
            "positions": [
                -2.6271264348434493,
                -0.7653992296324215,
                0.4755481957478597,
                1.073841803848171,
                0.14737914394413,
                0.04317888231984823
            ]
        },
        {
            "positions": [
                -2.624058685328354,
                -0.7845229108020607,
                0.5543083876857595,
                0.9759872171035416,
                0.17458552813267017,
                0.2031161100498189
            ]
        },
        {
            "positions": [
                -2.620990935813258,
                -0.8036465919717,
                0.6330685796236594,
                0.8781326303589122,
                0.20179191232121035,
                0.36305333777978954
            ]
        },
        {
            "positions": [
                -2.6179231862981625,
                -0.8227702731413391,
                0.7118287715615592,
                0.7802780436142829,
                0.2289982965097505,
                0.5229905655097601
            ]
        },
        {
            "positions": [
                -2.6148554367830665,
                -0.8418939543109784,
                0.790588963499459,
                0.6824234568696536,
                0.2562046806982907,
                0.6829277932397307
            ]
        },
        {
            "positions": [
                -2.611787687267971,
                -0.8610176354806175,
                0.8693491554373587,
                0.5845688701250241,
                0.2834110648868309,
                0.8428650209697014
            ]
        },
        {
            "positions": [
                -2.608719937752875,
                -0.8801413166502567,
                0.9481093473752586,
                0.4867142833803948,
                0.31061744907537103,
                1.002802248699672
            ]
        },
        {
            "positions": [
                -2.6056521882377797,
                -0.8992649978198959,
                1.0268695393131584,
                0.38885969663576536,
                0.3378238332639112,
                1.1627394764296426
            ]
        },
        {
            "positions": [
                -2.6025844387226837,
                -0.9183886789895351,
                1.1056297312510583,
                0.2910051098911359,
                0.36503021745245146,
                1.3226767041596132
            ]
        },
        {
            "positions": [
                -2.5995166892075883,
                -0.9375123601591744,
                1.1843899231889579,
                0.19315052314650671,
                0.3922366016409915,
                1.482613931889584
            ]
        },
        {
            "positions": [
                -2.5964489396924924,
                -0.9566360413288135,
                1.2631501151268578,
                0.09529593640187728,
                0.41944298582953177,
                1.6425511596195546
            ]
        },
        {
            "positions": [
                -2.593381190177397,
                -0.9757597224984527,
                1.3419103070647576,
                -0.0025586503427519336,
                0.4466493700180719,
                1.8024883873495252
            ]
        },
        {
            "positions": [
                -2.590313440662301,
                -0.994883403668092,
                1.4206704990026575,
                -0.10041323708738137,
                0.4738557542066121,
                1.9624256150794959
            ]
        },
        {
            "positions": [
                -2.5872456911472055,
                -1.0140070848377312,
                1.4994306909405573,
                -0.1982678238320107,
                0.5010621383951522,
                2.1223628428094665
            ]
        },
        {
            "positions": [
                -2.5709563373907733,
                -1.0350025248361854,
                1.571811869662887,
                -0.2873023235099399,
                0.525135691659779,
                2.2653771899545543
            ]
        },
        {
            "positions": [
                -2.5546669836343416,
                -1.0559979648346398,
                1.6441930483852167,
                -0.3763368231878691,
                0.5492092449244057,
                2.4083915370996416
            ]
        },
        {
            "positions": [
                -2.5383776298779095,
                -1.076993404833094,
                1.7165742271075466,
                -0.46537132286579835,
                0.5732827981890325,
                2.5514058842447294
            ]
        },
        {
            "positions": [
                -2.522088276121478,
                -1.0979888448315485,
                1.7889554058298762,
                -0.5544058225437276,
                0.5973563514536592,
                2.6944202313898167
            ]
        },
        {
            "positions": [
                -2.5057989223650456,
                -1.1189842848300027,
                1.861336584552206,
                -0.6434403222216568,
                0.621429904718286,
                2.8374345785349044
            ]
        },
        {
            "positions": [
                -2.489509568608614,
                -1.139979724828457,
                1.9337177632745357,
                -0.732474821899586,
                0.6455034579829126,
                2.9804489256799918
            ]
        },
        {
            "positions": [
                -2.473220214852182,
                -1.1609751648269113,
                2.0060989419968656,
                -0.8215093215775152,
                0.6695770112475394,
                3.1234632728250795
            ]
        }
    ]
}