{
    "goal": {
        "global_pose": {
            "orientation": {
                "w": 0.7031023502349854,
                "x": -0.7110244035720825,
                "y": 0.007748599164187908,
                "z": 0.005598929710686207
            },
            "position": {
                "x": 0.11585023208521307,
                "y": 0.44412534475326537,
                "z": 0.3711530566215515
            }
        },
        "name": "move_to_auspresseinheit_A"
    },
    "id": "BKPIECE_move_to_auspresseinheit_A_10",
    "joint_names": [
        "shoulder_pan_joint",
        "shoulder_lift_joint",
        "elbow_joint",
        "wrist_1_joint",
        "wrist_2_joint",
        "wrist_3_joint"
    ],
    "metrics": {
        "cart_traj_len": 0.7151344099500365,
        "distance_elbow_joint": 0.14614175271555752,
        "distance_shoulder_lift_joint": 0.5335728941796396,
        "distance_shoulder_pan_joint": 1.0451237679097947,
        "distance_wrist_1_joint": 0.8340807648841517,
        "distance_wrist_2_joint": 0.520916366551413,
        "distance_wrist_3_joint": 0.1364914714407135,
        "smoothness": 1.0492556221165437,
        "time": 0.201827998,
        "traj_len": 1.7934121159625498,
        "weighted_distance": 2.2009786668657787
    },
    "planner": "BKPIECE",
    "start": {
        "state": {
            "elbow_joint": 2.4225746994637096,
            "shoulder_lift_joint": -1.373653595662188,
            "shoulder_pan_joint": -0.3378633848294565,
            "wrist_1_joint": -1.0288595594406726,
            "wrist_2_joint": 1.2330228066703421,
            "wrist_3_joint": 3.189163495502006
        }
    },
    "waypoints": [
        {
            "positions": [
                -0.3378633848294565,
                -1.373653595662188,
                2.4225746994637096,
                -1.0288595594406726,
                1.2330228066703421,
                3.189163495502006
            ]
        },
        {
            "positions": [
                -0.32481903506497994,
                -1.3743794962756857,
                2.400070084339463,
                -1.019757309718042,
                1.2196359975912916,
                3.1709530124820553
            ]
        },
        {
            "positions": [
                -0.19434209057350874,
                -1.4483382585933957,
                2.390472362321503,
                -0.920321758452799,
                1.1506745870663353,
                3.1595464852246877
            ]
        },
        {
            "positions": [
                -0.06386514608203753,
                -1.5222970209111057,
                2.3808746403035426,
                -0.820886207187556,
                1.0817131765413788,
                3.1481399579673206
            ]
        },
        {
            "positions": [
                0.06661179840943371,
                -1.5962557832288158,
                2.3712769182855826,
                -0.7214506559223131,
                1.0127517660164225,
                3.136733430709953
            ]
        },
        {
            "positions": [
                0.1970887429009049,
                -1.6702145455465256,
                2.3616791962676227,
                -0.6220151046570702,
                0.943790355491466,
                3.1253269034525855
            ]
        },
        {
            "positions": [
                0.3275656873923762,
                -1.7441733078642356,
                2.3520814742496627,
                -0.5225795533918272,
                0.8748289449665096,
                3.113920376195218
            ]
        },
        {
            "positions": [
                0.45804263188384736,
                -1.8181320701819457,
                2.3424837522317024,
                -0.4231440021265843,
                0.8058675344415532,
                3.1025138489378508
            ]
        },
        {
            "positions": [
                0.5885195763753186,
                -1.8920908324996557,
                2.3328860302137424,
                -0.32370845086134137,
                0.7369061239165968,
                3.091107321680483
            ]
        },
        {
            "positions": [
                0.7072603830803381,
                -1.9072264898418276,
                2.3893391136793327,
                -0.4526381071661618,
                0.7121064401189291,
                3.129542619299674
            ]
        }
    ]
}