{
    "goal": {
        "global_pose": {
            "orientation": {
                "w": 0.5084816217422485,
                "x": -0.49083608388900757,
                "y": 0.5182115435600281,
                "z": -0.4816462993621826
            },
            "position": {
                "x": 0.5540239810943604,
                "y": 0.030875300988554955,
                "z": 0.16403168439865112
            }
        },
        "name": "move_to_storage_A"
    },
    "id": "BKPIECE_move_to_storage_A_40",
    "joint_names": [
        "shoulder_pan_joint",
        "shoulder_lift_joint",
        "elbow_joint",
        "wrist_1_joint",
        "wrist_2_joint",
        "wrist_3_joint"
    ],
    "metrics": {
        "cart_traj_len": 0.3521455200877919,
        "distance_elbow_joint": 0.4480562120167779,
        "distance_shoulder_lift_joint": 0.23531356282950044,
        "distance_shoulder_pan_joint": 0.45746615295870363,
        "distance_wrist_1_joint": 0.23376730872948426,
        "distance_wrist_2_joint": 1.1103043037821334,
        "distance_wrist_3_joint": 0.08887650705437755,
        "smoothness": 0.0,
        "time": 0.18343911699999998,
        "traj_len": 1.604301732022682,
        "weighted_distance": 2.0237610219567306
    },
    "planner": "BKPIECE",
    "start": {
        "state": {
            "elbow_joint": 1.971548880431181,
            "shoulder_lift_joint": -1.1394869514688781,
            "shoulder_pan_joint": 0.12281150262730567,
            "wrist_1_joint": -0.7804693444481463,
            "wrist_2_joint": 0.12958644648617612,
            "wrist_3_joint": 3.0906942077768043
        }
    },
    "waypoints": [
        {
            "positions": [
                0.12281150262730567,
                -1.1394869514688781,
                1.971548880431181,
                -0.7804693444481463,
                0.12958644648617612,
                3.0906942077768043
            ]
        },
        {
            "positions": [
                0.05745919506177659,
                -1.1731031747302354,
                2.035556910719292,
                -0.8138646742666441,
                0.2882013470264809,
                3.1033908516417155
            ]
        },
        {
            "positions": [
                -0.007893112503752492,
                -1.2067193979915924,
                2.099564941007403,
                -0.8472600040851418,
                0.4468162475667857,
                3.1160874955066262
            ]
        },
        {
            "positions": [
                -0.07324542006928159,
                -1.2403356212529497,
                2.1635729712955145,
                -0.8806553339036396,
                0.6054311481070904,
                3.1287841393715374
            ]
        },
        {
            "positions": [
                -0.13859772763481065,
                -1.273951844514307,
                2.2275810015836255,
                -0.9140506637221373,
                0.7640460486473952,
                3.1414807832364486
            ]
        },
        {
            "positions": [
                -0.20395003520033977,
                -1.3075680677756643,
                2.2915890318717365,
                -0.9474459935406351,
                0.9226609491877,
                3.15417742710136
            ]
        },
        {
            "positions": [
                -0.26930234276586884,
                -1.3411842910370213,
                2.355597062159848,
                -0.9808413233591328,
                1.0812758497280046,
                3.1668740709662706
            ]
        },
        {
            "positions": [
                -0.33465465033139796,
                -1.3748005142983786,
                2.419605092447959,
                -1.0142366531776306,
                1.2398907502683094,
                3.179570714831182
            ]
        }
    ]
}