{
    "goal": {
        "global_pose": {
            "orientation": {
                "w": 0.7047431468963623,
                "x": -0.7094548344612122,
                "y": 0.0024358443915843964,
                "z": -0.0022348060738295317
            },
            "position": {
                "x": 0.6094750761985779,
                "y": 0.3671506643295288,
                "z": 0.19426114857196808
            }
        },
        "name": "move_to_magneteinheit_A"
    },
    "id": "BKPIECE_move_to_magneteinheit_A_88",
    "joint_names": [
        "shoulder_pan_joint",
        "shoulder_lift_joint",
        "elbow_joint",
        "wrist_1_joint",
        "wrist_2_joint",
        "wrist_3_joint"
    ],
    "metrics": {
        "cart_traj_len": 1.592261361264388,
        "distance_elbow_joint": 3.5242329763051234,
        "distance_shoulder_lift_joint": 1.1347726390640367,
        "distance_shoulder_pan_joint": 1.2416553178726242,
        "distance_wrist_1_joint": 3.830199587094949,
        "distance_wrist_2_joint": 1.6958443530297935,
        "distance_wrist_3_joint": 5.036111956809237,
        "smoothness": 1.6524249799683613e-16,
        "time": 0.331647217,
        "traj_len": 4.057439689037381,
        "weighted_distance": 5.662250849610866
    },
    "planner": "BKPIECE",
    "start": {
        "state": {
            "elbow_joint": -1.5739458827952972,
            "shoulder_lift_joint": 0.006533473998580023,
            "shoulder_pan_joint": -1.1188671628667068,
            "wrist_1_joint": 3.138208179676308,
            "wrist_2_joint": -1.5706037135050406,
            "wrist_3_joint": -2.0226958329764257
        }
    },
    "waypoints": [
        {
            "positions": [
                -1.1188671628667068,
                0.006533473998580023,
                -1.5739458827952972,
                3.138208179676308,
                -1.5706037135050406,
                -2.0226958329764257
            ]
        },
        {
            "positions": [
                -1.0893039410125966,
                -0.020484922169611328,
                -1.4900355738356514,
                3.047012951412143,
                -1.5302264670043313,
                -1.9027884054333486
            ]
        },
        {
            "positions": [
                -1.0597407191584867,
                -0.04750331833780268,
                -1.4061252648760056,
                2.955817723147977,
                -1.4898492205036218,
                -1.7828809778902717
            ]
        },
        {
            "positions": [
                -1.0301774973043765,
                -0.07452171450599403,
                -1.3222149559163598,
                2.864622494883812,
                -1.4494719740029125,
                -1.6629735503471945
            ]
        },
        {
            "positions": [
                -1.0006142754502665,
                -0.10154011067418538,
                -1.238304646956714,
                2.7734272666196462,
                -1.409094727502203,
                -1.5430661228041176
            ]
        },
        {
            "positions": [
                -0.9710510535961563,
                -0.1285585068423767,
                -1.1543943379970683,
                2.682232038355481,
                -1.3687174810014937,
                -1.4231586952610404
            ]
        },
        {
            "positions": [
                -0.9414878317420463,
                -0.15557690301056806,
                -1.0704840290374225,
                2.5910368100913157,
                -1.3283402345007844,
                -1.3032512677179633
            ]
        },
        {
            "positions": [
                -0.9119246098879361,
                -0.1825952991787594,
                -0.9865737200777767,
                2.49984158182715,
                -1.287962988000075,
                -1.1833438401748864
            ]
        },
        {
            "positions": [
                -0.882361388033826,
                -0.20961369534695076,
                -0.9026634111181309,
                2.4086463535629847,
                -1.2475857414993656,
                -1.0634364126318092
            ]
        },
        {
            "positions": [
                -0.8527981661797159,
                -0.2366320915151421,
                -0.8187531021584851,
                2.317451125298819,
                -1.2072084949986563,
                -0.9435289850887321
            ]
        },
        {
            "positions": [
                -0.8232349443256058,
                -0.2636504876833335,
                -0.7348427931988393,
                2.2262558970346538,
                -1.1668312484979468,
                -0.8236215575456551
            ]
        },
        {
            "positions": [
                -0.7936717224714958,
                -0.29066888385152484,
                -0.6509324842391935,
                2.135060668770488,
                -1.1264540019972376,
                -0.7037141300025778
            ]
        },
        {
            "positions": [
                -0.7641085006173857,
                -0.3176872800197162,
                -0.5670221752795477,
                2.043865440506323,
                -1.0860767554965283,
                -0.5838067024595008
            ]
        },
        {
            "positions": [
                -0.7345452787632756,
                -0.34470567618790754,
                -0.4831118663199019,
                1.9526702122421573,
                -1.0456995089958188,
                -0.4638992749164237
            ]
        },
        {
            "positions": [
                -0.7049820569091655,
                -0.3717240723560989,
                -0.3992015573602561,
                1.8614749839779918,
                -1.0053222624951095,
                -0.34399184737334676
            ]
        },
        {
            "positions": [
                -0.6754188350550554,
                -0.39874246852429024,
                -0.3152912484006103,
                1.7702797557138263,
                -0.9649450159944,
                -0.2240844198302696
            ]
        },
        {
            "positions": [
                -0.6458556132009452,
                -0.4257608646924816,
                -0.2313809394409645,
                1.679084527449661,
                -0.9245677694936907,
                -0.10417699228719268
            ]
        },
        {
            "positions": [
                -0.6162923913468351,
                -0.45277926086067294,
                -0.1474706304813187,
                1.5878892991854954,
                -0.8841905229929813,
                0.01573043525588469
            ]
        },
        {
            "positions": [
                -0.5867291694927251,
                -0.4797976570288643,
                -0.0635603215216729,
                1.49669407092133,
                -0.843813276492272,
                0.13563786279896162
            ]
        },
        {
            "positions": [
                -0.5571659476386149,
                -0.5068160531970556,
                0.020349987437972894,
                1.4054988426571646,
                -0.8034360299915625,
                0.25554529034203854
            ]
        },
        {
            "positions": [
                -0.5276027257845048,
                -0.5338344493652469,
                0.10426029639761869,
                1.3143036143929991,
                -0.7630587834908532,
                0.37545271788511547
            ]
        },
        {
            "positions": [
                -0.49803950393039476,
                -0.5608528455334383,
                0.1881706053572645,
                1.2231083861288337,
                -0.7226815369901438,
                0.49536014542819284
            ]
        },
        {
            "positions": [
                -0.46847628207628467,
                -0.5878712417016296,
                0.2720809143169103,
                1.131913157864668,
                -0.6823042904894344,
                0.6152675729712702
            ]
        },
        {
            "positions": [
                -0.43891306022217447,
                -0.6148896378698211,
                0.3559912232765563,
                1.0407179296005027,
                -0.641927043988725,
                0.7351750005143471
            ]
        },
        {
            "positions": [
                -0.4093498383680645,
                -0.6419080340380123,
                0.4399015322362019,
                0.9495227013363374,
                -0.6015497974880157,
                0.8550824280574241
            ]
        },
        {
            "positions": [
                -0.3797866165139544,
                -0.6689264302062037,
                0.5238118411958477,
                0.8583274730721717,
                -0.5611725509873065,
                0.974989855600501
            ]
        },
        {
            "positions": [
                -0.3502233946598442,
                -0.695944826374395,
                0.6077221501554935,
                0.7671322448080065,
                -0.5207953044865969,
                1.0948972831435784
            ]
        },
        {
            "positions": [
                -0.3206601728057341,
                -0.7229632225425864,
                0.6916324591151393,
                0.6759370165438408,
                -0.48041805798588744,
                1.2148047106866557
            ]
        },
        {
            "positions": [
                -0.29109695095162413,
                -0.7499816187107777,
                0.7755427680747851,
                0.5847417882796755,
                -0.4400408114851784,
                1.3347121382297322
            ]
        },
        {
            "positions": [
                -0.26153372909751393,
                -0.7770000148789691,
                0.8594530770344309,
                0.4935465600155102,
                -0.39966356498446887,
                1.4546195657728096
            ]
        },
        {
            "positions": [
                -0.23197050724340385,
                -0.8040184110471604,
                0.9433633859940767,
                0.4023513317513445,
                -0.35928631848375936,
                1.5745269933158865
            ]
        },
        {
            "positions": [
                -0.20240728538929376,
                -0.8310368072153518,
                1.0272736949537224,
                0.3111561034871788,
                -0.3189090719830501,
                1.694434420858964
            ]
        },
        {
            "positions": [
                -0.17284406353518367,
                -0.8580552033835431,
                1.1111840039133682,
                0.219960875223014,
                -0.2785318254823408,
                1.8143418484020404
            ]
        },
        {
            "positions": [
                -0.14328084168107358,
                -0.8850735995517345,
                1.195094312873014,
                0.1287656469588483,
                -0.2381545789816315,
                1.9342492759451178
            ]
        },
        {
            "positions": [
                -0.11371761982696338,
                -0.9120919957199258,
                1.2790046218326598,
                0.037570418694682584,
                -0.197777332480922,
                2.054156703488195
            ]
        },
        {
            "positions": [
                -0.0841543979728534,
                -0.9391103918881172,
                1.3629149307923056,
                -0.05362480956948268,
                -0.1574000859802125,
                2.174064131031272
            ]
        },
        {
            "positions": [
                -0.05459117611874342,
                -0.9661287880563085,
                1.4468252397519514,
                -0.14482003783364794,
                -0.11702283947950343,
                2.293971558574349
            ]
        },
        {
            "positions": [
                -0.025027954264633223,
                -0.9931471842244999,
                1.5307355487115972,
                -0.23601526609781365,
                -0.07664559297879392,
                2.413878986117426
            ]
        },
        {
            "positions": [
                0.004535267589476977,
                -1.0201655803926912,
                1.614645857671243,
                -0.3272104943619789,
                -0.03626834647808441,
                2.533786413660503
            ]
        },
        {
            "positions": [
                0.03409848944358718,
                -1.0471839765608826,
                1.6985561666308888,
                -0.4184057226261446,
                0.004108900022624873,
                2.6536938412035807
            ]
        },
        {
            "positions": [
                0.06366171129769715,
                -1.074202372729074,
                1.7824664755905346,
                -0.5096009508903099,
                0.04448614652333416,
                2.7736012687466567
            ]
        },
        {
            "positions": [
                0.09322493315180713,
                -1.1012207688972653,
                1.8663767845501804,
                -0.6007961791544751,
                0.08486339302404344,
                2.8935086962897345
            ]
        },
        {
            "positions": [
                0.12278815500591732,
                -1.1282391650654566,
                1.950287093509826,
                -0.6919914074186408,
                0.12524063952475287,
                3.0134161238328114
            ]
        }
    ]
}