{
    "goal": {
        "global_pose": {
            "orientation": {
                "w": 0.005598929693374612,
                "x": 0.007748599140229565,
                "y": 0.7110244013736278,
                "z": -0.7031023480610252
            },
            "position": {
                "x": -0.8858502320852131,
                "y": -0.7141253447532654,
                "z": 0.3711530566215515
            }
        },
        "name": "move_to_auspresseinheit_C"
    },
    "id": "BKPIECE_move_to_auspresseinheit_C_119",
    "joint_names": [
        "shoulder_pan_joint",
        "shoulder_lift_joint",
        "elbow_joint",
        "wrist_1_joint",
        "wrist_2_joint",
        "wrist_3_joint"
    ],
    "metrics": {
        "cart_traj_len": 0.4922276921021834,
        "distance_elbow_joint": 0.9912625048572582,
        "distance_shoulder_lift_joint": 0.32139958971021665,
        "distance_shoulder_pan_joint": 0.25606209789328416,
        "distance_wrist_1_joint": 0.6587220752437531,
        "distance_wrist_2_joint": 1.318085876566584,
        "distance_wrist_3_joint": 0.046655169980723166,
        "smoothness": 0.0,
        "time": 0.192079686,
        "traj_len": 1.8953066544102617,
        "weighted_distance": 2.379559960585907
    },
    "planner": "BKPIECE",
    "start": {
        "state": {
            "elbow_joint": 1.7527959577730765,
            "shoulder_lift_joint": -0.9740617694224828,
            "shoulder_pan_joint": -2.967991417825869,
            "wrist_1_joint": -0.7595177689779385,
            "wrist_2_joint": 1.7443932448376545,
            "wrist_3_joint": 3.1991315425061013
        }
    },
    "waypoints": [
        {
            "positions": [
                -2.967991417825869,
                -0.9740617694224828,
                1.7527959577730765,
                -0.7595177689779385,
                1.7443932448376545,
                3.1991315425061013
            ]
        },
        {
            "positions": [
                -2.9423852080365407,
                -0.9419218104514612,
                1.6536697072873507,
                -0.6936455614535633,
                1.612584657180996,
                3.194466025508029
            ]
        },
        {
            "positions": [
                -2.9167789982472123,
                -0.9097818514804394,
                1.5545434568016248,
                -0.6277733539291879,
                1.4807760695243377,
                3.1898005085099568
            ]
        },
        {
            "positions": [
                -2.891172788457884,
                -0.8776418925094178,
                1.455417206315899,
                -0.5619011464048126,
                1.3489674818676793,
                3.1851349915118843
            ]
        },
        {
            "positions": [
                -2.8655665786685556,
                -0.8455019335383961,
                1.3562909558301732,
                -0.49602893888043725,
                1.2171588942110207,
                3.1804694745138122
            ]
        },
        {
            "positions": [
                -2.839960368879227,
                -0.8133619745673745,
                1.2571647053444475,
                -0.43015673135606197,
                1.0853503065543624,
                3.1758039575157397
            ]
        },
        {
            "positions": [
                -2.8143541590898984,
                -0.7812220155963528,
                1.1580384548587217,
                -0.3642845238316867,
                0.9535417188977041,
                3.1711384405176672
            ]
        },
        {
            "positions": [
                -2.78874794930057,
                -0.7490820566253311,
                1.0589122043729957,
                -0.29841231630731135,
                0.8217331312410457,
                3.166472923519595
            ]
        },
        {
            "positions": [
                -2.7631417395112416,
                -0.7169420976543095,
                0.95978595388727,
                -0.23254010878293596,
                0.6899245435843873,
                3.1618074065215227
            ]
        },
        {
            "positions": [
                -2.7375355297219133,
                -0.6848021386832879,
                0.8606597034015441,
                -0.16666790125856068,
                0.5581159559277289,
                3.1571418895234507
            ]
        },
        {
            "positions": [
                -2.711929319932585,
                -0.6526621797122661,
                0.7615334529158183,
                -0.10079569373418536,
                0.42630736827107046,
                3.152476372525378
            ]
        }
    ]
}