{
    "goal": {
        "global_pose": {
            "orientation": {
                "w": 0.7031023502349854,
                "x": -0.7110244035720825,
                "y": 0.007748599164187908,
                "z": 0.005598929710686207
            },
            "position": {
                "x": 0.11585023208521307,
                "y": 0.44412534475326537,
                "z": 0.3711530566215515
            }
        },
        "name": "move_to_auspresseinheit_A"
    },
    "id": "BKPIECE_move_to_auspresseinheit_A_138",
    "joint_names": [
        "shoulder_pan_joint",
        "shoulder_lift_joint",
        "elbow_joint",
        "wrist_1_joint",
        "wrist_2_joint",
        "wrist_3_joint"
    ],
    "metrics": {
        "cart_traj_len": 3.2734218158920707,
        "distance_elbow_joint": 4.528370789138967,
        "distance_shoulder_lift_joint": 0.88595413986826,
        "distance_shoulder_pan_joint": 1.8314893838689583,
        "distance_wrist_1_joint": 7.48663653550064,
        "distance_wrist_2_joint": 1.8800181212233629,
        "distance_wrist_3_joint": 7.5635668557600875,
        "smoothness": 0.5486718770205735,
        "time": 0.197843525,
        "traj_len": 4.916913241593784,
        "weighted_distance": 6.976376150524315
    },
    "planner": "BKPIECE",
    "start": {
        "state": {
            "elbow_joint": 2.4225746994637096,
            "shoulder_lift_joint": -1.373653595662188,
            "shoulder_pan_joint": -0.3378633848294565,
            "wrist_1_joint": -1.0288595594406726,
            "wrist_2_joint": 1.2330228066703421,
            "wrist_3_joint": 3.189163495502006
        }
    },
    "waypoints": [
        {
            "positions": [
                -0.3378633848294565,
                -1.373653595662188,
                2.4225746994637096,
                -1.0288595594406726,
                1.2330228066703421,
                3.189163495502006
            ]
        },
        {
            "positions": [
                -0.35021984905051395,
                -1.39501766754816,
                2.351312077754823,
                -0.9029840054188403,
                1.1952763648800286,
                3.0703847581549653
            ]
        },
        {
            "positions": [
                -0.36257631327157136,
                -1.416381739434132,
                2.2800494560459366,
                -0.777108451397008,
                1.1575299230897151,
                2.9516060208079247
            ]
        },
        {
            "positions": [
                -0.3749327774926288,
                -1.4377458113201038,
                2.20878683433705,
                -0.6512328973751758,
                1.1197834812994016,
                2.832827283460884
            ]
        },
        {
            "positions": [
                -0.3872892417136863,
                -1.4591098832060758,
                2.137524212628163,
                -0.5253573433533434,
                1.0820370395090881,
                2.714048546113844
            ]
        },
        {
            "positions": [
                -0.3996457059347437,
                -1.4804739550920478,
                2.0662615909192765,
                -0.399481789331511,
                1.0442905977187746,
                2.5952698087668034
            ]
        },
        {
            "positions": [
                -0.41200217015580115,
                -1.5018380269780198,
                1.99499896921039,
                -0.27360623530967876,
                1.0065441559284611,
                2.4764910714197628
            ]
        },
        {
            "positions": [
                -0.4243586343768586,
                -1.5232020988639918,
                1.9237363475015035,
                -0.1477306812878465,
                0.9687977141381477,
                2.357712334072722
            ]
        },
        {
            "positions": [
                -0.436715098597916,
                -1.5445661707499636,
                1.852473725792617,
                -0.02185512726601413,
                0.9310512723478342,
                2.2389335967256816
            ]
        },
        {
            "positions": [
                -0.4490715628189735,
                -1.5659302426359356,
                1.7812111040837304,
                0.10402042675581824,
                0.8933048305575207,
                2.1201548593786415
            ]
        },
        {
            "positions": [
                -0.46142802704003094,
                -1.5872943145219076,
                1.7099484823748439,
                0.2298959807776506,
                0.8555583887672072,
                2.001376122031601
            ]
        },
        {
            "positions": [
                -0.47378449126108835,
                -1.6086583864078796,
                1.6386858606659571,
                0.35577153479948276,
                0.8178119469768939,
                1.8825973846845603
            ]
        },
        {
            "positions": [
                -0.4861409554821458,
                -1.6300224582938516,
                1.5674232389570706,
                0.48164708882131513,
                0.7800655051865804,
                1.7638186473375197
            ]
        },
        {
            "positions": [
                -0.49849741970320327,
                -1.6513865301798236,
                1.496160617248184,
                0.6075226428431475,
                0.7423190633962669,
                1.6450399099904793
            ]
        },
        {
            "positions": [
                -0.5108538839242607,
                -1.6727506020657956,
                1.4248979955392973,
                0.7333981968649796,
                0.7045726216059534,
                1.5262611726434387
            ]
        },
        {
            "positions": [
                -0.5232103481453181,
                -1.6941146739517674,
                1.3536353738304108,
                0.859273750886812,
                0.6668261798156399,
                1.4074824352963984
            ]
        },
        {
            "positions": [
                -0.5355668123663756,
                -1.7154787458377394,
                1.2823727521215242,
                0.9851493049086444,
                0.6290797380253264,
                1.2887036979493578
            ]
        },
        {
            "positions": [
                -0.547923276587433,
                -1.7368428177237114,
                1.2111101304126377,
                1.1110248589304765,
                0.5913332962350129,
                1.1699249606023172
            ]
        },
        {
            "positions": [
                -0.5602797408084905,
                -1.7582068896096832,
                1.1398475087037512,
                1.2369004129523091,
                0.5535868544446993,
                1.0511462232552766
            ]
        },
        {
            "positions": [
                -0.5726362050295479,
                -1.7795709614956552,
                1.0685848869948644,
                1.3627759669741413,
                0.5158404126543858,
                0.9323674859082365
            ]
        },
        {
            "positions": [
                -0.5849926692506053,
                -1.8009350333816272,
                0.9973222652859779,
                1.4886515209959739,
                0.47809397086407235,
                0.8135887485611959
            ]
        },
        {
            "positions": [
                -0.5973491334716627,
                -1.8222991052675992,
                0.9260596435770914,
                1.614527075017806,
                0.44034752907375896,
                0.6948100112141553
            ]
        },
        {
            "positions": [
                -0.6097055976927201,
                -1.8436631771535712,
                0.8547970218682046,
                1.7404026290396382,
                0.40260108728344546,
                0.5760312738671147
            ]
        },
        {
            "positions": [
                -0.6220620619137777,
                -1.8650272490395432,
                0.7835344001593181,
                1.8662781830614708,
                0.36485464549313196,
                0.45725253652007414
            ]
        },
        {
            "positions": [
                -0.6344185261348352,
                -1.8863913209255152,
                0.7122717784504315,
                1.992153737083303,
                0.32710820370281846,
                0.33847379917303355
            ]
        },
        {
            "positions": [
                -0.6467749903558926,
                -1.9077553928114872,
                0.641009156741545,
                2.118029291105135,
                0.28936176191250496,
                0.2196950618259934
            ]
        },
        {
            "positions": [
                -0.65913145457695,
                -1.929119464697459,
                0.5697465350326585,
                2.2439048451269676,
                0.25161532012219145,
                0.10091632447895282
            ]
        },
        {
            "positions": [
                -0.6714879187980074,
                -1.950483536583431,
                0.49848391332377173,
                2.3697803991488,
                0.21386887833187807,
                -0.017862412868087763
            ]
        },
        {
            "positions": [
                -0.6838443830190648,
                -1.971847608469403,
                0.4272212916148852,
                2.495655953170632,
                0.17612243654156456,
                -0.13664115021512835
            ]
        },
        {
            "positions": [
                -0.6962008472401223,
                -1.9932116803553748,
                0.35595866990599845,
                2.6215315071924645,
                0.13837599475125106,
                -0.25541988756216893
            ]
        },
        {
            "positions": [
                -0.7085573114611798,
                -2.0145757522413468,
                0.2846960481971119,
                2.7474070612142967,
                0.10062955296093756,
                -0.3741986249092091
            ]
        },
        {
            "positions": [
                -0.7209137756822372,
                -2.0359398241273188,
                0.2134334264882254,
                2.8732826152361293,
                0.06288311117062406,
                -0.49297736225624966
            ]
        },
        {
            "positions": [
                -0.7332702399032947,
                -2.0573038960132908,
                0.14217080477933886,
                2.9991581692579614,
                0.02513666938031056,
                -0.6117560996032902
            ]
        },
        {
            "positions": [
                -0.6877417691167577,
                -2.050744661011247,
                0.21968350168225537,
                2.87964195223224,
                0.04650860949115461,
                -0.49053940880641955
            ]
        },
        {
            "positions": [
                -0.6422132983302207,
                -2.0441854260092036,
                0.2971961985851719,
                2.760125735206519,
                0.06788054960199866,
                -0.36932271800954886
            ]
        },
        {
            "positions": [
                -0.5966848275436838,
                -2.03762619100716,
                0.3747088954880884,
                2.640609518180798,
                0.0892524897128427,
                -0.24810602721267822
            ]
        },
        {
            "positions": [
                -0.5511563567571468,
                -2.031066956005116,
                0.45222159239100485,
                2.5210933011550765,
                0.11062442982368675,
                -0.12688933641580752
            ]
        },
        {
            "positions": [
                -0.5056278859706098,
                -2.024507721003072,
                0.5297342892939214,
                2.4015770841293556,
                0.1319963699345308,
                -0.005672645618936767
            ]
        },
        {
            "positions": [
                -0.4600994151840728,
                -2.017948486001029,
                0.6072469861968379,
                2.282060867103634,
                0.15336831004537485,
                0.11554404517793382
            ]
        },
        {
            "positions": [
                -0.4145709443975359,
                -2.011389250998985,
                0.6847596830997543,
                2.162544650077913,
                0.17474025015621888,
                0.23676073597480451
            ]
        },
        {
            "positions": [
                -0.3690424736109989,
                -2.004830015996941,
                0.7622723800026708,
                2.043028433052192,
                0.19611219026706295,
                0.3579774267716752
            ]
        },
        {
            "positions": [
                -0.32351400282446197,
                -1.9982707809948976,
                0.8397850769055873,
                1.9235122160264706,
                0.21748413037790698,
                0.4791941175685459
            ]
        },
        {
            "positions": [
                -0.277985532037925,
                -1.991711545992854,
                0.9172977738085039,
                1.8039959990007493,
                0.23885607048875104,
                0.6004108083654167
            ]
        },
        {
            "positions": [
                -0.232457061251388,
                -1.9851523109908105,
                0.9948104707114204,
                1.6844797819750281,
                0.2602280105995951,
                0.7216274991622873
            ]
        },
        {
            "positions": [
                -0.186928590464851,
                -1.9785930759887667,
                1.072323167614337,
                1.5649635649493068,
                0.28159995071043914,
                0.8428441899591579
            ]
        },
        {
            "positions": [
                -0.14140011967831412,
                -1.972033840986723,
                1.1498358645172533,
                1.4454473479235856,
                0.3029718908212832,
                0.9640608807560287
            ]
        },
        {
            "positions": [
                -0.09587164889177713,
                -1.9654746059846793,
                1.2273485614201698,
                1.3259311308978645,
                0.3243438309321272,
                1.0852775715528993
            ]
        },
        {
            "positions": [
                -0.05034317810524014,
                -1.9589153709826357,
                1.3048612583230865,
                1.2064149138721432,
                0.3457157710429713,
                1.2064942623497703
            ]
        },
        {
            "positions": [
                -0.004814707318703149,
                -1.952356135980592,
                1.3823739552260028,
                1.086898696846422,
                0.36708771115381533,
                1.3277109531466407
            ]
        },
        {
            "positions": [
                0.04071376346783384,
                -1.9457969009785483,
                1.4598866521289195,
                0.9673824798207007,
                0.3884596512646594,
                1.4489276439435117
            ]
        },
        {
            "positions": [
                0.08624223425437072,
                -1.9392376659765047,
                1.5373993490318358,
                0.8478662627949798,
                0.4098315913755034,
                1.570144334740382
            ]
        },
        {
            "positions": [
                0.13177070504090782,
                -1.932678430974461,
                1.6149120459347523,
                0.7283500457692584,
                0.4312035314863475,
                1.6913610255372529
            ]
        },
        {
            "positions": [
                0.1772991758274447,
                -1.9261191959724173,
                1.6924247428376689,
                0.6088338287435371,
                0.4525754715971915,
                1.8125777163341237
            ]
        },
        {
            "positions": [
                0.2228276466139817,
                -1.9195599609703735,
                1.7699374397405854,
                0.48931761171781574,
                0.4739474117080356,
                1.9337944071309945
            ]
        },
        {
            "positions": [
                0.2683561174005187,
                -1.91300072596833,
                1.8474501366435019,
                0.36980139469209483,
                0.4953193518188796,
                2.055011097927865
            ]
        },
        {
            "positions": [
                0.31388458818705556,
                -1.9064414909662863,
                1.9249628335464184,
                0.2502851776663735,
                0.5166912919297237,
                2.1762277887247357
            ]
        },
        {
            "positions": [
                0.35941305897359266,
                -1.8998822559642425,
                2.0024755304493347,
                0.13076896064065213,
                0.5380632320405677,
                2.297444479521606
            ]
        },
        {
            "positions": [
                0.40494152976012954,
                -1.893323020962199,
                2.0799882273522514,
                0.011252743614930782,
                0.5594351721514118,
                2.4186611703184773
            ]
        },
        {
            "positions": [
                0.4504700005466664,
                -1.8867637859601554,
                2.1575009242551677,
                -0.10826347341079012,
                0.5808071122622558,
                2.5398778611153476
            ]
        },
        {
            "positions": [
                0.49599847133320346,
                -1.8802045509581116,
                2.2350136211580844,
                -0.22777969043651136,
                0.6021790523730999,
                2.6610945519122184
            ]
        },
        {
            "positions": [
                0.547701925722859,
                -1.886505674573606,
                2.273794640677048,
                -0.28569992721339676,
                0.625951452608235,
                2.7835437041970383
            ]
        },
        {
            "positions": [
                0.5994053801125145,
                -1.8928067981891006,
                2.312575660196011,
                -0.34362016399028217,
                0.6497238528433702,
                2.9059928564818582
            ]
        },
        {
            "positions": [
                0.65110883450217,
                -1.8991079218045952,
                2.351356679714974,
                -0.4015404007671675,
                0.6734962530785055,
                3.0284420087666786
            ]
        },
        {
            "positions": [
                0.7028122888918257,
                -1.9054090454200896,
                2.3901376992339376,
                -0.4594606375440529,
                0.6972686533136406,
                3.1508911610514985
            ]
        }
    ]
}