{
    "goal": {
        "global_pose": {
            "orientation": {
                "w": 0.7047431468963623,
                "x": -0.7094548344612122,
                "y": 0.0024358443915843964,
                "z": -0.0022348060738295317
            },
            "position": {
                "x": 0.6094750761985779,
                "y": 0.3671506643295288,
                "z": 0.19426114857196808
            }
        },
        "name": "move_to_magneteinheit_A"
    },
    "id": "BKPIECE_move_to_magneteinheit_A_47",
    "joint_names": [
        "shoulder_pan_joint",
        "shoulder_lift_joint",
        "elbow_joint",
        "wrist_1_joint",
        "wrist_2_joint",
        "wrist_3_joint"
    ],
    "metrics": {
        "cart_traj_len": 1.5938284406170693,
        "distance_elbow_joint": 3.5251533780884365,
        "distance_shoulder_lift_joint": 1.1329857532980518,
        "distance_shoulder_pan_joint": 1.2414049609843039,
        "distance_wrist_1_joint": 3.8314800720448803,
        "distance_wrist_2_joint": 1.6928132794812047,
        "distance_wrist_3_joint": 5.041070311146672,
        "smoothness": 2.4786374583004523e-16,
        "time": 0.19961979000000002,
        "traj_len": 4.057697346407633,
        "weighted_distance": 5.66315651636638
    },
    "planner": "BKPIECE",
    "start": {
        "state": {
            "elbow_joint": -1.5739458827952972,
            "shoulder_lift_joint": 0.006533473998580023,
            "shoulder_pan_joint": -1.1188671628667068,
            "wrist_1_joint": 3.138208179676308,
            "wrist_2_joint": -1.5706037135050406,
            "wrist_3_joint": -2.0226958329764257
        }
    },
    "waypoints": [
        {
            "positions": [
                -1.1188671628667068,
                0.006533473998580023,
                -1.5739458827952972,
                3.138208179676308,
                -1.5706037135050406,
                -2.0226958329764257
            ]
        },
        {
            "positions": [
                -1.08930990189089,
                -0.02044237727042121,
                -1.4900136595074773,
                3.0469824636752394,
                -1.5302986354221548,
                -1.9026703493776955
            ]
        },
        {
            "positions": [
                -1.0597526409150733,
                -0.047418228539422444,
                -1.4060814362196574,
                2.955756747674171,
                -1.4899935573392689,
                -1.782644865778965
            ]
        },
        {
            "positions": [
                -1.0301953799392565,
                -0.07439407980842368,
                -1.3221492129318375,
                2.8645310316731023,
                -1.4496884792563831,
                -1.6626193821802349
            ]
        },
        {
            "positions": [
                -1.00063811896344,
                -0.10136993107742491,
                -1.2382169896440176,
                2.773305315672034,
                -1.4093834011734974,
                -1.5425938985815046
            ]
        },
        {
            "positions": [
                -0.9710808579876231,
                -0.12834578234642613,
                -1.1542847663561977,
                2.682079599670965,
                -1.3690783230906114,
                -1.4225684149827744
            ]
        },
        {
            "positions": [
                -0.9415235970118063,
                -0.15532163361542736,
                -1.0703525430683778,
                2.590853883669897,
                -1.3287732450077256,
                -1.302542931384044
            ]
        },
        {
            "positions": [
                -0.9119663360359895,
                -0.1822974848844286,
                -0.9864203197805579,
                2.499628167668828,
                -1.2884681669248397,
                -1.1825174477853138
            ]
        },
        {
            "positions": [
                -0.8824090750601727,
                -0.20927333615342983,
                -0.902488096492738,
                2.40840245166776,
                -1.248163088841954,
                -1.0624919641865835
            ]
        },
        {
            "positions": [
                -0.852851814084356,
                -0.23624918742243106,
                -0.8185558732049181,
                2.317176735666691,
                -1.2078580107590682,
                -0.9424664805878531
            ]
        },
        {
            "positions": [
                -0.8232945531085393,
                -0.2632250386914323,
                -0.734623649917098,
                2.2259510196656223,
                -1.1675529326761822,
                -0.8224409969891229
            ]
        },
        {
            "positions": [
                -0.7937372921327225,
                -0.2902008899604336,
                -0.6506914266292781,
                2.1347253036645535,
                -1.1272478545932965,
                -0.7024155133903924
            ]
        },
        {
            "positions": [
                -0.7641800311569058,
                -0.3171767412294348,
                -0.5667592033414584,
                2.0434995876634856,
                -1.0869427765104107,
                -0.5823900297916622
            ]
        },
        {
            "positions": [
                -0.734622770181089,
                -0.34415259249843605,
                -0.4828269800536382,
                1.9522738716624166,
                -1.0466376984275247,
                -0.46236454619293177
            ]
        },
        {
            "positions": [
                -0.7050655092052722,
                -0.37112844376743725,
                -0.39889475676581854,
                1.861048155661348,
                -1.006332620344639,
                -0.34233906259420177
            ]
        },
        {
            "positions": [
                -0.6755082482294554,
                -0.3981042950364385,
                -0.3149625334779984,
                1.7698224396602795,
                -0.9660275422617531,
                -0.22231357899547133
            ]
        },
        {
            "positions": [
                -0.6459509872536388,
                -0.4250801463054397,
                -0.23103031019017872,
                1.678596723659211,
                -0.9257224641788674,
                -0.10228809539674111
            ]
        },
        {
            "positions": [
                -0.616393726277822,
                -0.452055997574441,
                -0.1470980869023586,
                1.5873710076581422,
                -0.8854173860959815,
                0.017737388201989113
            ]
        },
        {
            "positions": [
                -0.5868364653020052,
                -0.4790318488434422,
                -0.06316586361453891,
                1.4961452916570739,
                -0.8451123080130958,
                0.13776287180071956
            ]
        },
        {
            "positions": [
                -0.5572792043261884,
                -0.5060077001124434,
                0.02076635967328122,
                1.4049195756560051,
                -0.8048072299302098,
                0.25778835539945
            ]
        },
        {
            "positions": [
                -0.5277219433503717,
                -0.5329835513814446,
                0.10469858296110113,
                1.3136938596549368,
                -0.7645021518473241,
                0.37781383899818
            ]
        },
        {
            "positions": [
                -0.4981646823745549,
                -0.5599594026504459,
                0.18863080624892103,
                1.222468143653868,
                -0.7241970737644382,
                0.49783932259691044
            ]
        },
        {
            "positions": [
                -0.4686074213987381,
                -0.5869352539194471,
                0.27256302953674094,
                1.1312424276527993,
                -0.6838919956815523,
                0.6178648061956409
            ]
        },
        {
            "positions": [
                -0.43905016042292133,
                -0.6139111051884484,
                0.35649525282456107,
                1.0400167116517305,
                -0.6435869175986665,
                0.7378902897943713
            ]
        },
        {
            "positions": [
                -0.40949289944710465,
                -0.6408869564574495,
                0.44042747611238053,
                0.9487909956506626,
                -0.6032818395157807,
                0.8579157733931013
            ]
        },
        {
            "positions": [
                -0.37993563847128786,
                -0.6678628077264508,
                0.5243596994002007,
                0.8575652796495938,
                -0.5629767614328949,
                0.9779412569918318
            ]
        },
        {
            "positions": [
                -0.35037837749547107,
                -0.694838658995452,
                0.6082919226880208,
                0.7663395636485251,
                -0.5226716833500091,
                1.0979667405905622
            ]
        },
        {
            "positions": [
                -0.3208211165196543,
                -0.7218145102644533,
                0.6922241459758409,
                0.6751138476474563,
                -0.48236660526712316,
                1.2179922241892926
            ]
        },
        {
            "positions": [
                -0.2912638555438376,
                -0.7487903615334545,
                0.7761563692636602,
                0.583888131646388,
                -0.4420615271842374,
                1.3380177077880222
            ]
        },
        {
            "positions": [
                -0.2617065945680208,
                -0.7757662128024557,
                0.8600885925514803,
                0.49266241564531965,
                -0.40175644910135166,
                1.4580431913867526
            ]
        },
        {
            "positions": [
                -0.23214933359220402,
                -0.802742064071457,
                0.9440208158393004,
                0.4014366996442509,
                -0.3614513710184657,
                1.578068674985483
            ]
        },
        {
            "positions": [
                -0.20259207261638723,
                -0.8297179153404582,
                1.0279530391271205,
                0.3102109836431821,
                -0.32114629293557995,
                1.6980941585842135
            ]
        },
        {
            "positions": [
                -0.17303481164057066,
                -0.8566937666094594,
                1.1118852624149398,
                0.2189852676421138,
                -0.2808412148526942,
                1.8181196421829435
            ]
        },
        {
            "positions": [
                -0.14347755066475387,
                -0.8836696178784607,
                1.19581748570276,
                0.12775955164104502,
                -0.24053613676980823,
                1.938145125781674
            ]
        },
        {
            "positions": [
                -0.11392028968893708,
                -0.9106454691474619,
                1.27974970899058,
                0.03653383563997625,
                -0.20023105868692248,
                2.058170609380404
            ]
        },
        {
            "positions": [
                -0.08436302871312029,
                -0.9376213204164632,
                1.3636819322784002,
                -0.05469188036109207,
                -0.1599259806040365,
                2.178196092979135
            ]
        },
        {
            "positions": [
                -0.0548057677373035,
                -0.9645971716854643,
                1.4476141555662194,
                -0.1459175963621604,
                -0.11962090252115098,
                2.298221576577865
            ]
        },
        {
            "positions": [
                -0.02524850676148671,
                -0.9915730229544656,
                1.5315463788540395,
                -0.23714331236322916,
                -0.07931582443826501,
                2.418247060176595
            ]
        },
        {
            "positions": [
                0.0043087542143300794,
                -1.018548874223467,
                1.6154786021418597,
                -0.32836902836429793,
                -0.039010746355379045,
                2.5382725437753257
            ]
        },
        {
            "positions": [
                0.03386601519014687,
                -1.0455247254924682,
                1.6994108254296798,
                -0.4195947443653667,
                0.0012943317275067034,
                2.6582980273740557
            ]
        },
        {
            "positions": [
                0.06342327616596344,
                -1.0725005767614693,
                1.7833430487174995,
                -0.5108204603664346,
                0.04159940981039245,
                2.7783235109727857
            ]
        },
        {
            "positions": [
                0.09298053714178023,
                -1.0994764280304705,
                1.8672752720053192,
                -0.6020461763675033,
                0.0819044878932782,
                2.8983489945715166
            ]
        },
        {
            "positions": [
                0.12253779811759696,
                -1.1264522792994718,
                1.951207495293139,
                -0.6932718923685723,
                0.12220956597616417,
                3.018374478170247
            ]
        }
    ]
}