{
    "goal": {
        "global_pose": {
            "orientation": {
                "w": -0.4816463035849501,
                "x": 0.5182115481033762,
                "y": 0.4908360881923453,
                "z": -0.5084816262002911
            },
            "position": {
                "x": -0.8240239810943604,
                "y": 0.19912469901144506,
                "z": 0.16403168439865112
            }
        },
        "name": "move_to_storage_D"
    },
    "id": "BKPIECE_move_to_storage_D_36",
    "joint_names": [
        "shoulder_pan_joint",
        "shoulder_lift_joint",
        "elbow_joint",
        "wrist_1_joint",
        "wrist_2_joint",
        "wrist_3_joint"
    ],
    "metrics": {
        "cart_traj_len": 3.922976950701954,
        "distance_elbow_joint": 4.209224832319517,
        "distance_shoulder_lift_joint": 1.2636148309020785,
        "distance_shoulder_pan_joint": 2.8127255071003727,
        "distance_wrist_1_joint": 2.6481691096602136,
        "distance_wrist_2_joint": 1.224739754654773,
        "distance_wrist_3_joint": 3.137408490889818,
        "smoothness": 0.13269873257262121,
        "time": 0.230113931,
        "traj_len": 3.9109950812455354,
        "weighted_distance": 5.044165775588804
    },
    "planner": "BKPIECE",
    "start": {
        "state": {
            "elbow_joint": -2.384821990628643,
            "shoulder_lift_joint": -2.278805467437664,
            "shoulder_pan_joint": -0.18546946439364564,
            "wrist_1_joint": 1.4845938187801415,
            "wrist_2_joint": 0.178987772454074,
            "wrist_3_joint": 0.03710569632802521
        }
    },
    "waypoints": [
        {
            "positions": [
                -0.18546946439364564,
                -2.278805467437664,
                -2.384821990628643,
                1.4845938187801415,
                0.178987772454074,
                0.03710569632802521
            ]
        },
        {
            "positions": [
                -0.05513996601403534,
                -2.2371849055757886,
                -2.329821469633857,
                1.4030974686414612,
                0.1438464093184648,
                0.05824696076768947
            ]
        },
        {
            "positions": [
                0.07518953236557496,
                -2.1955643437139134,
                -2.2748209486390705,
                1.3216011185027807,
                0.10870504618285559,
                0.07938822520735372
            ]
        },
        {
            "positions": [
                0.20551903074518524,
                -2.1539437818520377,
                -2.2198204276442843,
                1.2401047683641004,
                0.07356368304724639,
                0.10052948964701797
            ]
        },
        {
            "positions": [
                0.33584852912479557,
                -2.1123232199901625,
                -2.1648199066494977,
                1.15860841822542,
                0.03842231991163719,
                0.12167075408668224
            ]
        },
        {
            "positions": [
                0.46617802750440585,
                -2.0707026581282872,
                -2.1098193856547116,
                1.0771120680867396,
                0.0032809567760279934,
                0.14281201852634648
            ]
        },
        {
            "positions": [
                0.5306009581583173,
                -2.0436637603999066,
                -1.983015752799876,
                1.006491389299016,
                0.03482101527917211,
                0.20725265440876947
            ]
        },
        {
            "positions": [
                0.5950238888122288,
                -2.016624862671526,
                -1.8562121199450405,
                0.935870710511292,
                0.06636107378231623,
                0.2716932902911925
            ]
        },
        {
            "positions": [
                0.6594468194661403,
                -1.9895859649431453,
                -1.729408487090205,
                0.8652500317235683,
                0.09790113228546035,
                0.3361339261736155
            ]
        },
        {
            "positions": [
                0.7238697501200517,
                -1.9625470672147645,
                -1.6026048542353695,
                0.7946293529358444,
                0.12944119078860447,
                0.4005745620560385
            ]
        },
        {
            "positions": [
                0.7882926807739633,
                -1.9355081694863838,
                -1.4758012213805336,
                0.7240086741481206,
                0.1609812492917486,
                0.46501519793846147
            ]
        },
        {
            "positions": [
                0.8527156114278748,
                -1.9084692717580032,
                -1.3489975885256982,
                0.6533879953603968,
                0.1925213077948927,
                0.5294558338208845
            ]
        },
        {
            "positions": [
                0.9171385420817862,
                -1.8814303740296225,
                -1.2221939556708628,
                0.582767316572673,
                0.22406136629803683,
                0.5938964697033075
            ]
        },
        {
            "positions": [
                0.9815614727356977,
                -1.854391476301242,
                -1.095390322816027,
                0.5121466377849492,
                0.255601424801181,
                0.6583371055857304
            ]
        },
        {
            "positions": [
                1.045984403389609,
                -1.827352578572861,
                -0.9685866899611915,
                0.44152595899722535,
                0.2871414833043251,
                0.7227777414681534
            ]
        },
        {
            "positions": [
                1.1104073340435208,
                -1.8003136808444804,
                -0.8417830571063558,
                0.37090528020950153,
                0.3186815418074692,
                0.7872183773505764
            ]
        },
        {
            "positions": [
                1.174830264697432,
                -1.7732747831160998,
                -0.7149794242515204,
                0.3002846014217778,
                0.35022160031061333,
                0.8516590132329994
            ]
        },
        {
            "positions": [
                1.2392531953513437,
                -1.7462358853877191,
                -0.588175791396685,
                0.229663922634054,
                0.38176165881375745,
                0.9160996491154224
            ]
        },
        {
            "positions": [
                1.3036761260052552,
                -1.7191969876593385,
                -0.4613721585418493,
                0.15904324384633017,
                0.4133017173169016,
                0.9805402849978454
            ]
        },
        {
            "positions": [
                1.3680990566591666,
                -1.6921580899309578,
                -0.3345685256870137,
                0.08842256505860635,
                0.4448417758200457,
                1.0449809208802683
            ]
        },
        {
            "positions": [
                1.4325219873130783,
                -1.665119192202577,
                -0.20776489283217803,
                0.017801886270882417,
                0.4763818343231898,
                1.1094215567626915
            ]
        },
        {
            "positions": [
                1.4969449179669896,
                -1.6380802944741963,
                -0.0809612599773426,
                -0.052818792516841295,
                0.5079218928263339,
                1.1738621926451143
            ]
        },
        {
            "positions": [
                1.561367848620901,
                -1.6110413967458157,
                0.04584237287749282,
                -0.12343947130456501,
                0.539461951329478,
                1.2383028285275373
            ]
        },
        {
            "positions": [
                1.6257907792748125,
                -1.584002499017435,
                0.1726460057323287,
                -0.19406015009228894,
                0.5710020098326222,
                1.3027434644099603
            ]
        },
        {
            "positions": [
                1.690213709928724,
                -1.5569636012890544,
                0.2994496385871641,
                -0.26468082888001265,
                0.6025420683357663,
                1.3671841002923832
            ]
        },
        {
            "positions": [
                1.7546366405826357,
                -1.5299247035606736,
                0.426253271442,
                -0.3353015076677366,
                0.6340821268389104,
                1.4316247361748062
            ]
        },
        {
            "positions": [
                1.819059571236547,
                -1.502885805832293,
                0.5530569042968354,
                -0.4059221864554603,
                0.6656221853420545,
                1.4960653720572292
            ]
        },
        {
            "positions": [
                1.8834825018904584,
                -1.4758469081039123,
                0.6798605371516708,
                -0.476542865243184,
                0.6971622438451986,
                1.5605060079396522
            ]
        },
        {
            "positions": [
                1.94790543254437,
                -1.4488080103755316,
                0.8066641700065063,
                -0.5471635440309079,
                0.7287023023483428,
                1.6249466438220752
            ]
        },
        {
            "positions": [
                2.0123283631982813,
                -1.421769112647151,
                0.9334678028613417,
                -0.6177842228186317,
                0.7602423608514869,
                1.6893872797044982
            ]
        },
        {
            "positions": [
                2.076751293852193,
                -1.3947302149187704,
                1.060271435716177,
                -0.6884049016063554,
                0.791782419354631,
                1.7538279155869212
            ]
        },
        {
            "positions": [
                2.1411742245061047,
                -1.3676913171903897,
                1.187075068571013,
                -0.7590255803940793,
                0.8233224778577751,
                1.8182685514693442
            ]
        },
        {
            "positions": [
                2.205597155160016,
                -1.340652419462009,
                1.3138787014258484,
                -0.829646259181803,
                0.8548625363609192,
                1.8827091873517672
            ]
        },
        {
            "positions": [
                2.2700200858139272,
                -1.3136135217336282,
                1.4406823342806843,
                -0.900266937969527,
                0.8864025948640634,
                1.9471498232341902
            ]
        },
        {
            "positions": [
                2.334443016467839,
                -1.2865746240052476,
                1.5674859671355197,
                -0.9708876167572507,
                0.9179426533672075,
                2.011590459116613
            ]
        },
        {
            "positions": [
                2.3832451875076535,
                -1.2413439594269706,
                1.6103054462280784,
                -0.938773004403447,
                0.9403378604314654,
                2.2054110804668183
            ]
        },
        {
            "positions": [
                2.432047358547468,
                -1.1961132948486934,
                1.6531249253206373,
                -0.9066583920496434,
                0.9627330674957232,
                2.399231701817023
            ]
        },
        {
            "positions": [
                2.4808495295872826,
                -1.1508826302704165,
                1.6959444044131962,
                -0.8745437796958397,
                0.9851282745599811,
                2.5930523231672282
            ]
        },
        {
            "positions": [
                2.5296517006270975,
                -1.1056519656921395,
                1.7387638835057548,
                -0.8424291673420361,
                1.0075234816242389,
                2.786872944517433
            ]
        },
        {
            "positions": [
                2.578453871666912,
                -1.0604213011138623,
                1.7815833625983135,
                -0.8103145549882323,
                1.0299186886884968,
                2.9806935658676386
            ]
        },
        {
            "positions": [
                2.6272560427067266,
                -1.0151906365355854,
                1.8244028416908724,
                -0.7781999426344287,
                1.0523138957527547,
                3.1745141872178433
            ]
        }
    ]
}