{
    "goal": {
        "global_pose": {
            "orientation": {
                "w": -0.00223480608172531,
                "x": 0.0024358444001904467,
                "y": 0.7094548369677653,
                "z": -0.704743149386269
            },
            "position": {
                "x": 0.6205249238014221,
                "y": -0.6371506643295288,
                "z": 0.19426114857196808
            }
        },
        "name": "move_to_magneteinheit_B"
    },
    "id": "BKPIECE_move_to_magneteinheit_B_147",
    "joint_names": [
        "shoulder_pan_joint",
        "shoulder_lift_joint",
        "elbow_joint",
        "wrist_1_joint",
        "wrist_2_joint",
        "wrist_3_joint"
    ],
    "metrics": {
        "cart_traj_len": 6.157109712984655,
        "distance_elbow_joint": 4.98521756198657,
        "distance_shoulder_lift_joint": 0.9773877032202305,
        "distance_shoulder_pan_joint": 7.5847330072415975,
        "distance_wrist_1_joint": 3.89674287739194,
        "distance_wrist_2_joint": 3.117278763344288,
        "distance_wrist_3_joint": 6.654985933330881,
        "smoothness": 0.39205759931576106,
        "time": 0.243176501,
        "traj_len": 5.216928775296393,
        "weighted_distance": 6.8949502792923365
    },
    "planner": "BKPIECE",
    "start": {
        "state": {
            "elbow_joint": 2.393587130804639,
            "shoulder_lift_joint": -1.9085141043513325,
            "shoulder_pan_joint": 0.7066247066698809,
            "wrist_1_joint": -0.4678290934590222,
            "wrist_2_joint": 0.7096259084215963,
            "wrist_3_joint": 3.147370379541726
        }
    },
    "waypoints": [
        {
            "positions": [
                0.7066247066698809,
                -1.9085141043513325,
                2.393587130804639,
                -0.4678290934590222,
                0.7096259084215963,
                3.147370379541726
            ]
        },
        {
            "positions": [
                0.5803756830812975,
                -1.8991904163800348,
                2.3971211392116034,
                -0.5227112662629548,
                0.6334393284219137,
                3.0306807834942506
            ]
        },
        {
            "positions": [
                0.4541266594927141,
                -1.8898667284087372,
                2.400655147618568,
                -0.5775934390668875,
                0.5572527484222313,
                2.9139911874467748
            ]
        },
        {
            "positions": [
                0.3278776359041307,
                -1.8805430404374395,
                2.4041891560255326,
                -0.6324756118708202,
                0.48106616842254873,
                2.7973015913992993
            ]
        },
        {
            "positions": [
                0.2016286123155473,
                -1.8712193524661416,
                2.4077231644324972,
                -0.687357784674753,
                0.40487958842286614,
                2.680611995351824
            ]
        },
        {
            "positions": [
                0.07537958872696393,
                -1.861895664494844,
                2.411257172839462,
                -0.7422399574786857,
                0.32869300842318366,
                2.5639223993043485
            ]
        },
        {
            "positions": [
                -0.050869434861619434,
                -1.8525719765235462,
                2.4147911812464264,
                -0.7971221302826184,
                0.25250642842350113,
                2.4472328032568726
            ]
        },
        {
            "positions": [
                -0.1771184584502028,
                -1.8432482885522485,
                2.418325189653391,
                -0.8520043030865511,
                0.17631984842381854,
                2.3305432072093972
            ]
        },
        {
            "positions": [
                -0.3033674820387863,
                -1.8339246005809509,
                2.4218591980603557,
                -0.9068864758904838,
                0.10013326842413595,
                2.2138536111619214
            ]
        },
        {
            "positions": [
                -0.42961650562736964,
                -1.8246009126096532,
                2.4253932064673203,
                -0.9617686486944165,
                0.023946688424453466,
                2.097164015114446
            ]
        },
        {
            "positions": [
                -0.555865529215953,
                -1.8152772246383555,
                2.428927214874285,
                -1.0166508214983492,
                -0.052239891575229014,
                1.9804744190669705
            ]
        },
        {
            "positions": [
                -0.6821145528045364,
                -1.8059535366670576,
                2.4324612232812495,
                -1.0715329943022818,
                -0.1284264715749116,
                1.8637848230194949
            ]
        },
        {
            "positions": [
                -0.8083635763931197,
                -1.79662984869576,
                2.435995231688214,
                -1.1264151671062144,
                -0.20461305157459408,
                1.7470952269720195
            ]
        },
        {
            "positions": [
                -0.9346125999817033,
                -1.7873061607244622,
                2.4395292400951787,
                -1.1812973399101472,
                -0.2807996315742768,
                1.6304056309245436
            ]
        },
        {
            "positions": [
                -1.0608616235702866,
                -1.7779824727531646,
                2.4430632485021433,
                -1.23617951271408,
                -0.35698621157395927,
                1.5137160348770682
            ]
        },
        {
            "positions": [
                -1.1871106471588697,
                -1.7686587847818669,
                2.446597256909108,
                -1.2910616855180126,
                -0.43317279157364164,
                1.3970264388295928
            ]
        },
        {
            "positions": [
                -1.3133596707474533,
                -1.7593350968105692,
                2.4501312653160725,
                -1.3459438583219454,
                -0.5093593715733244,
                1.2803368427821171
            ]
        },
        {
            "positions": [
                -1.4396086943360364,
                -1.7500114088392715,
                2.453665273723037,
                -1.400826031125878,
                -0.5855459515730068,
                1.1636472467346415
            ]
        },
        {
            "positions": [
                -1.56585771792462,
                -1.7406877208679736,
                2.4571992821300017,
                -1.4557082039298108,
                -0.6617325315726894,
                1.0469576506871658
            ]
        },
        {
            "positions": [
                -1.6921067415132032,
                -1.731364032896676,
                2.4607332905369663,
                -1.5105903767337434,
                -0.737919111572372,
                0.9302680546396904
            ]
        },
        {
            "positions": [
                -1.8183557651017868,
                -1.7220403449253783,
                2.464267298943931,
                -1.565472549537676,
                -0.8141056915720544,
                0.813578458592215
            ]
        },
        {
            "positions": [
                -1.9446047886903703,
                -1.7127166569540806,
                2.4678013073508955,
                -1.6203547223416088,
                -0.8902922715717372,
                0.6968888625447391
            ]
        },
        {
            "positions": [
                -2.0708538122789535,
                -1.703392968982783,
                2.47133531575786,
                -1.6752368951455414,
                -0.9664788515714196,
                0.5801992664972637
            ]
        },
        {
            "positions": [
                -1.9379461939157572,
                -1.7047762567273292,
                2.3336078779041127,
                -1.6422752111335006,
                -0.9334835745718648,
                0.6351327773110419
            ]
        },
        {
            "positions": [
                -1.8050385755525609,
                -1.7061595444718758,
                2.1958804400503658,
                -1.60931352712146,
                -0.90048829757231,
                0.6900662881248201
            ]
        },
        {
            "positions": [
                -1.6721309571893643,
                -1.7075428322164221,
                2.0581530021966183,
                -1.5763518431094192,
                -0.8674930205727552,
                0.7449997989385982
            ]
        },
        {
            "positions": [
                -1.5392233388261682,
                -1.7089261199609687,
                1.920425564342871,
                -1.5433901590973786,
                -0.8344977435732004,
                0.7999333097523764
            ]
        },
        {
            "positions": [
                -1.4063157204629717,
                -1.710309407705515,
                1.7826981264891237,
                -1.5104284750853378,
                -0.8015024665736457,
                0.8548668205661546
            ]
        },
        {
            "positions": [
                -1.2734081020997754,
                -1.7116926954500615,
                1.6449706886353765,
                -1.4774667910732973,
                -0.7685071895740909,
                0.9098003313799328
            ]
        },
        {
            "positions": [
                -1.140500483736579,
                -1.7130759831946079,
                1.5072432507816291,
                -1.4445051070612565,
                -0.7355119125745361,
                0.9647338421937109
            ]
        },
        {
            "positions": [
                -1.0075928653733828,
                -1.7144592709391544,
                1.369515812927882,
                -1.4115434230492157,
                -0.7025166355749812,
                1.0196673530074891
            ]
        },
        {
            "positions": [
                -0.8746852470101865,
                -1.7158425586837007,
                1.2317883750741347,
                -1.378581739037175,
                -0.6695213585754265,
                1.0746008638212672
            ]
        },
        {
            "positions": [
                -0.7417776286469902,
                -1.7172258464282473,
                1.0940609372203873,
                -1.3456200550251343,
                -0.6365260815758718,
                1.1295343746350455
            ]
        },
        {
            "positions": [
                -0.6088700102837938,
                -1.7186091341727936,
                0.9563334993666401,
                -1.3126583710130935,
                -0.6035308045763169,
                1.1844678854488238
            ]
        },
        {
            "positions": [
                -0.4759623919205973,
                -1.7199924219173401,
                0.818606061512893,
                -1.2796966870010529,
                -0.5705355275767622,
                1.2394013962626018
            ]
        },
        {
            "positions": [
                -0.343054773557401,
                -1.7213757096618865,
                0.6808786236591455,
                -1.246735002989012,
                -0.5375402505772073,
                1.2943349070763799
            ]
        },
        {
            "positions": [
                -0.21014715519420468,
                -1.722758997406433,
                0.5431511858053983,
                -1.2137733189769715,
                -0.5045449735776526,
                1.3492684178901582
            ]
        },
        {
            "positions": [
                -0.07723953683100837,
                -1.7241422851509793,
                0.40542374795165115,
                -1.1808116349649307,
                -0.4715496965780978,
                1.4042019287039365
            ]
        },
        {
            "positions": [
                0.05566808153218794,
                -1.7255255728955259,
                0.26769631009790373,
                -1.14784995095289,
                -0.438554419578543,
                1.4591354395177145
            ]
        },
        {
            "positions": [
                0.18857569989538447,
                -1.7269088606400722,
                0.12996887224415632,
                -1.1148882669408493,
                -0.4055591425789883,
                1.5140689503314926
            ]
        },
        {
            "positions": [
                0.32148331825858056,
                -1.7282921483846185,
                -0.007758565609590651,
                -1.0819265829288085,
                -0.37256386557943344,
                1.5690024611452709
            ]
        },
        {
            "positions": [
                0.4543909366217771,
                -1.729675436129165,
                -0.14548600346333806,
                -1.048964898916768,
                -0.3395685885798787,
                1.6239359719590492
            ]
        },
        {
            "positions": [
                0.5872985549849732,
                -1.7310587238737114,
                -0.2832134413170855,
                -1.0160032149047271,
                -0.30657331158032386,
                1.6788694827728272
            ]
        },
        {
            "positions": [
                0.7202061733481697,
                -1.732442011618258,
                -0.42094087917083245,
                -0.9830415308926864,
                -0.2735780345807691,
                1.7338029935866053
            ]
        },
        {
            "positions": [
                0.8531137917113658,
                -1.7338252993628043,
                -0.5586683170245799,
                -0.9500798468806457,
                -0.24058275758121428,
                1.7887365044003836
            ]
        },
        {
            "positions": [
                0.9860214100745623,
                -1.7352085871073508,
                -0.6963957548783273,
                -0.917118162868605,
                -0.20758748058165954,
                1.8436700152141619
            ]
        },
        {
            "positions": [
                1.1189290284377589,
                -1.7365918748518971,
                -0.8341231927320742,
                -0.8841564788565643,
                -0.1745922035821048,
                1.89860352602794
            ]
        },
        {
            "positions": [
                1.251836646800955,
                -1.7379751625964437,
                -0.9718506305858217,
                -0.8511947948445235,
                -0.14159692658254996,
                1.953537036841718
            ]
        },
        {
            "positions": [
                1.3847442651641515,
                -1.73935845034099,
                -1.109578068439569,
                -0.8182331108324828,
                -0.10860164958299523,
                2.008470547655496
            ]
        },
        {
            "positions": [
                1.5176518835273476,
                -1.7407417380855366,
                -1.2473055062933165,
                -0.7852714268204422,
                -0.07560637258344038,
                2.0634040584692745
            ]
        },
        {
            "positions": [
                1.6505595018905441,
                -1.7421250258300829,
                -1.3850329441470635,
                -0.7523097428084015,
                -0.04261109558388565,
                2.1183375692830526
            ]
        },
        {
            "positions": [
                1.7834671202537402,
                -1.7435083135746294,
                -1.5227603820008109,
                -0.7193480587963608,
                -0.009615818584330804,
                2.1732710800968307
            ]
        },
        {
            "positions": [
                1.9163747386169367,
                -1.7448916013191758,
                -1.6604878198545578,
                -0.68638637478432,
                0.02337945841522393,
                2.228204590910609
            ]
        },
        {
            "positions": [
                2.049282356980133,
                -1.7462748890637223,
                -1.7982152577083057,
                -0.6534246907722794,
                0.056374735414778776,
                2.2831381017243872
            ]
        },
        {
            "positions": [
                2.1821899753433294,
                -1.7476581768082686,
                -1.935942695562053,
                -0.6204630067602386,
                0.08937001241433354,
                2.3380716125381653
            ]
        },
        {
            "positions": [
                2.3340136612659004,
                -1.758756718620816,
                -2.0537750433051065,
                -0.6386321614870321,
                0.11019565623794748,
                2.3472994555933218
            ]
        },
        {
            "positions": [
                2.3947330850594346,
                -1.7976430061635726,
                -2.0505732401477332,
                -0.5439135150198209,
                0.17086487429469938,
                2.233616670127079
            ]
        },
        {
            "positions": [
                2.455452508852969,
                -1.8365292937063296,
                -2.04737143699036,
                -0.4491948685526096,
                0.23153409235145123,
                2.1199338846608367
            ]
        },
        {
            "positions": [
                2.516171932646503,
                -1.8754155812490865,
                -2.0441696338329867,
                -0.35447622208539836,
                0.29220331040820313,
                2.0062510991945945
            ]
        },
        {
            "positions": [
                2.5768913564400373,
                -1.9143018687918432,
                -2.0409678306756134,
                -0.25975757561818713,
                0.352872528464955,
                1.892568313728352
            ]
        },
        {
            "positions": [
                2.6376107802335715,
                -1.9531881563345999,
                -2.03776602751824,
                -0.1650389291509759,
                0.4135417465217069,
                1.7788855282621094
            ]
        },
        {
            "positions": [
                2.6983302040271058,
                -1.9920744438773568,
                -2.034564224360867,
                -0.07032028268376463,
                0.47421096457845874,
                1.665202742795867
            ]
        },
        {
            "positions": [
                2.694523156828436,
                -2.0404329531730676,
                -1.9982494044582528,
                0.03448773269524122,
                0.47425938329859774,
                1.5013409509565763
            ]
        },
        {
            "positions": [
                2.690716109629766,
                -2.088791462468778,
                -1.9619345845556386,
                0.13929574807424705,
                0.4743078020187368,
                1.3374791591172854
            ]
        },
        {
            "positions": [
                2.6869090624310963,
                -2.137149971764489,
                -1.9256197646530246,
                0.2441037634532529,
                0.47435622073887584,
                1.1736173672779948
            ]
        },
        {
            "positions": [
                2.6831020152324263,
                -2.1855084810601997,
                -1.8893049447504104,
                0.34891177883225877,
                0.47440463945901484,
                1.009755575438704
            ]
        },
        {
            "positions": [
                2.6792949680337563,
                -2.23386699035591,
                -1.8529901248477965,
                0.45371979421126457,
                0.47445305817915384,
                0.8458937835994131
            ]
        },
        {
            "positions": [
                2.6754879208350864,
                -2.282225499651621,
                -1.8166753049451825,
                0.5585278095902704,
                0.4745014768992929,
                0.6820319917601224
            ]
        },
        {
            "positions": [
                2.6716808736364164,
                -2.3305840089473318,
                -1.7803604850425683,
                0.6633358249692761,
                0.47454989561943195,
                0.5181701999208317
            ]
        },
        {
            "positions": [
                2.667873826437747,
                -2.3789425182430426,
                -1.7440456651399543,
                0.7681438403482821,
                0.47459831433957095,
                0.3543084080815406
            ]
        },
        {
            "positions": [
                2.664066779239077,
                -2.427301027538753,
                -1.70773084523734,
                0.8729518557272878,
                0.47464673305970995,
                0.19044661624225
            ]
        },
        {
            "positions": [
                2.660259732040407,
                -2.475659536834464,
                -1.671416025334726,
                0.9777598711062938,
                0.474695151779849,
                0.026584824402959194
            ]
        }
    ]
}