{
    "goal": {
        "global_pose": {
            "orientation": {
                "w": 0.5084816217422485,
                "x": -0.49083608388900757,
                "y": 0.5182115435600281,
                "z": -0.4816462993621826
            },
            "position": {
                "x": 0.5540239810943604,
                "y": 0.030875300988554955,
                "z": 0.16403168439865112
            }
        },
        "name": "move_to_storage_A"
    },
    "id": "BKPIECE_move_to_storage_A_79",
    "joint_names": [
        "shoulder_pan_joint",
        "shoulder_lift_joint",
        "elbow_joint",
        "wrist_1_joint",
        "wrist_2_joint",
        "wrist_3_joint"
    ],
    "metrics": {
        "cart_traj_len": 0.35309447479365386,
        "distance_elbow_joint": 0.4501967161021845,
        "distance_shoulder_lift_joint": 0.23373250692807357,
        "distance_shoulder_pan_joint": 0.46036965077472697,
        "distance_wrist_1_joint": 0.24670691103480458,
        "distance_wrist_2_joint": 1.1041950989999232,
        "distance_wrist_3_joint": 0.09580850214738224,
        "smoothness": 1.1102230263833737e-15,
        "time": 0.164972933,
        "traj_len": 1.6096612643618826,
        "weighted_distance": 2.0331080641020014
    },
    "planner": "BKPIECE",
    "start": {
        "state": {
            "elbow_joint": 1.971548880431181,
            "shoulder_lift_joint": -1.1394869514688781,
            "shoulder_pan_joint": 0.12281150262730567,
            "wrist_1_joint": -0.7804693444481463,
            "wrist_2_joint": 0.12958644648617612,
            "wrist_3_joint": 3.0906942077768043
        }
    },
    "waypoints": [
        {
            "positions": [
                0.12281150262730567,
                -1.1394869514688781,
                1.971548880431181,
                -0.7804693444481463,
                0.12958644648617612,
                3.0906942077768043
            ]
        },
        {
            "positions": [
                0.05704440965948754,
                -1.17287730960146,
                2.0358626970172073,
                -0.8157131888816899,
                0.2873286034861652,
                3.1043811366550016
            ]
        },
        {
            "positions": [
                -0.008722683308330592,
                -1.206267667734042,
                2.1001765136032335,
                -0.8509570333152333,
                0.4450707604861542,
                3.1180680655331994
            ]
        },
        {
            "positions": [
                -0.07448977627614872,
                -1.2396580258666239,
                2.16449033018926,
                -0.8862008777487769,
                0.6028129174861432,
                3.1317549944113967
            ]
        },
        {
            "positions": [
                -0.14025686924396685,
                -1.273048383999206,
                2.2288041467752864,
                -0.9214447221823203,
                0.7605550744861322,
                3.145441923289594
            ]
        },
        {
            "positions": [
                -0.20602396221178504,
                -1.3064387421317878,
                2.2931179633613126,
                -0.9566885666158639,
                0.9182972314861213,
                3.1591288521677914
            ]
        },
        {
            "positions": [
                -0.2717910551796031,
                -1.3398291002643696,
                2.357431779947339,
                -0.9919324110494073,
                1.0760393884861101,
                3.172815781045989
            ]
        },
        {
            "positions": [
                -0.3375581481474213,
                -1.3732194583969517,
                2.4217455965333654,
                -1.0271762554829509,
                1.2337815454860992,
                3.1865027099241865
            ]
        }
    ]
}