{
    "goal": {
        "global_pose": {
            "orientation": {
                "w": -0.4816463035849501,
                "x": 0.5182115481033762,
                "y": 0.4908360881923453,
                "z": -0.5084816262002911
            },
            "position": {
                "x": -0.8240239810943604,
                "y": -0.300875300988555,
                "z": 0.16403168439865112
            }
        },
        "name": "move_to_storage_C"
    },
    "id": "BKPIECE_move_to_storage_C_138",
    "joint_names": [
        "shoulder_pan_joint",
        "shoulder_lift_joint",
        "elbow_joint",
        "wrist_1_joint",
        "wrist_2_joint",
        "wrist_3_joint"
    ],
    "metrics": {
        "cart_traj_len": 0.5772681121422873,
        "distance_elbow_joint": 0.25533032558094937,
        "distance_shoulder_lift_joint": 0.1898569387772866,
        "distance_shoulder_pan_joint": 0.4960712189244272,
        "distance_wrist_1_joint": 0.06718734128166604,
        "distance_wrist_2_joint": 1.062977779368188,
        "distance_wrist_3_joint": 0.062381632616268945,
        "smoothness": 0.0,
        "time": 0.3770708,
        "traj_len": 1.4607550227703432,
        "weighted_distance": 1.840851330887744
    },
    "planner": "BKPIECE",
    "start": {
        "state": {
            "elbow_joint": 2.0108683149792914,
            "shoulder_lift_joint": -1.1634956873317392,
            "shoulder_pan_joint": -2.4736205022346,
            "wrist_1_joint": -0.8367026793690192,
            "wrist_2_joint": 0.6746043897045053,
            "wrist_3_joint": 3.133522094754363
        }
    },
    "waypoints": [
        {
            "positions": [
                -2.4736205022346,
                -1.1634956873317392,
                2.0108683149792914,
                -0.8367026793690192,
                0.6746043897045053,
                3.133522094754363
            ]
        },
        {
            "positions": [
                -2.5562990387220044,
                -1.1318528642021914,
                1.9683132607157998,
                -0.8255047891554081,
                0.8517673529325367,
                3.1439190335237415
            ]
        },
        {
            "positions": [
                -2.638977575209409,
                -1.1002100410726436,
                1.9257582064523082,
                -0.8143068989417972,
                1.0289303161605678,
                3.1543159722931193
            ]
        },
        {
            "positions": [
                -2.721656111696814,
                -1.0685672179430958,
                1.8832031521888166,
                -0.8031090087281862,
                1.2060932793885994,
                3.1647129110624976
            ]
        },
        {
            "positions": [
                -2.804334648184218,
                -1.0369243948135483,
                1.8406480979253252,
                -0.7919111185145752,
                1.3832562426166306,
                3.175109849831876
            ]
        },
        {
            "positions": [
                -2.8870131846716225,
                -1.0052815716840005,
                1.7980930436618336,
                -0.7807132283009641,
                1.5604192058446622,
                3.185506788601254
            ]
        },
        {
            "positions": [
                -2.9696917211590272,
                -0.9736387485544526,
                1.755537989398342,
                -0.7695153380873532,
                1.7375821690726934,
                3.195903727370632
            ]
        }
    ]
}