{
    "goal": {
        "global_pose": {
            "orientation": {
                "w": 0.7047431468963623,
                "x": -0.7094548344612122,
                "y": 0.0024358443915843964,
                "z": -0.0022348060738295317
            },
            "position": {
                "x": 0.6094750761985779,
                "y": 0.3671506643295288,
                "z": 0.19426114857196808
            }
        },
        "name": "move_to_magneteinheit_A"
    },
    "id": "BKPIECE_move_to_magneteinheit_A_139",
    "joint_names": [
        "shoulder_pan_joint",
        "shoulder_lift_joint",
        "elbow_joint",
        "wrist_1_joint",
        "wrist_2_joint",
        "wrist_3_joint"
    ],
    "metrics": {
        "cart_traj_len": 1.593812861183757,
        "distance_elbow_joint": 3.524361063692189,
        "distance_shoulder_lift_joint": 1.1331637489732846,
        "distance_shoulder_pan_joint": 1.2425109434457657,
        "distance_wrist_1_joint": 3.8325064021309867,
        "distance_wrist_2_joint": 1.6967880674079268,
        "distance_wrist_3_joint": 5.0288731538806655,
        "smoothness": 5.783487374901325e-16,
        "time": 0.131208908,
        "traj_len": 4.056871131738204,
        "weighted_distance": 5.660851893207511
    },
    "planner": "BKPIECE",
    "start": {
        "state": {
            "elbow_joint": -1.5739458827952972,
            "shoulder_lift_joint": 0.006533473998580023,
            "shoulder_pan_joint": -1.1188671628667068,
            "wrist_1_joint": 3.138208179676308,
            "wrist_2_joint": -1.5706037135050406,
            "wrist_3_joint": -2.0226958329764257
        }
    },
    "waypoints": [
        {
            "positions": [
                -1.1188671628667068,
                0.006533473998580023,
                -1.5739458827952972,
                3.138208179676308,
                -1.5706037135050406,
                -2.0226958329764257
            ]
        },
        {
            "positions": [
                -1.089283568975141,
                -0.020446615262688664,
                -1.4900325241359593,
                3.046958027244618,
                -1.5302039976143758,
                -1.9029607578840289
            ]
        },
        {
            "positions": [
                -1.0596999750835752,
                -0.04742670452395735,
                -1.4061191654766216,
                2.9557078748129277,
                -1.4898042817237107,
                -1.7832256827916322
            ]
        },
        {
            "positions": [
                -1.0301163811920093,
                -0.07440679378522604,
                -1.3222058068172837,
                2.8644577223812377,
                -1.4494045658330459,
                -1.6634906076992353
            ]
        },
        {
            "positions": [
                -1.0005327873004435,
                -0.10138688304649472,
                -1.2382924481579458,
                2.7732075699495473,
                -1.4090048499423808,
                -1.5437555326068386
            ]
        },
        {
            "positions": [
                -0.9709491934088776,
                -0.1283669723077634,
                -1.1543790894986081,
                2.6819574175178573,
                -1.368605134051716,
                -1.424020457514442
            ]
        },
        {
            "positions": [
                -0.9413655995173118,
                -0.15534706156903208,
                -1.0704657308392702,
                2.5907072650861673,
                -1.328205418161051,
                -1.304285382422045
            ]
        },
        {
            "positions": [
                -0.911782005625746,
                -0.18232715083030077,
                -0.9865523721799324,
                2.4994571126544773,
                -1.2878057022703862,
                -1.1845503073296482
            ]
        },
        {
            "positions": [
                -0.88219841173418,
                -0.20930724009156945,
                -0.9026390135205946,
                2.408206960222787,
                -1.247405986379721,
                -1.0648152322372515
            ]
        },
        {
            "positions": [
                -0.8526148178426143,
                -0.23628732935283814,
                -0.8187256548612567,
                2.316956807791097,
                -1.2070062704890563,
                -0.9450801571448546
            ]
        },
        {
            "positions": [
                -0.8230312239510483,
                -0.26326741861410685,
                -0.7348122962019189,
                2.2257066553594065,
                -1.1666065545983915,
                -0.8253450820524579
            ]
        },
        {
            "positions": [
                -0.7934476300594825,
                -0.29024750787537557,
                -0.650898937542581,
                2.1344565029277165,
                -1.1262068387077264,
                -0.7056100069600608
            ]
        },
        {
            "positions": [
                -0.7638640361679166,
                -0.3172275971366442,
                -0.5669855788832432,
                2.0432063504960265,
                -1.0858071228170616,
                -0.5858749318676644
            ]
        },
        {
            "positions": [
                -0.7342804422763507,
                -0.34420768639791294,
                -0.4830722202239053,
                1.951956198064336,
                -1.0454074069263966,
                -0.46613985677526726
            ]
        },
        {
            "positions": [
                -0.704696848384785,
                -0.3711877756591816,
                -0.3991588615645676,
                1.860706045632646,
                -1.0050076910357317,
                -0.3464047816828706
            ]
        },
        {
            "positions": [
                -0.675113254493219,
                -0.3981678649204503,
                -0.3152455029052297,
                1.7694558932009556,
                -0.9646079751450667,
                -0.2266697065904737
            ]
        },
        {
            "positions": [
                -0.6455296606016532,
                -0.42514795418171897,
                -0.231332144245892,
                1.6782057407692657,
                -0.9242082592544019,
                -0.10693463149807703
            ]
        },
        {
            "positions": [
                -0.6159460667100873,
                -0.4521280434429877,
                -0.14741878558655408,
                1.5869555883375754,
                -0.8838085433637369,
                0.012800443594319866
            ]
        },
        {
            "positions": [
                -0.5863624728185216,
                -0.47910813270425634,
                -0.06350542692721617,
                1.4957054359058854,
                -0.843408827473072,
                0.13253551868671654
            ]
        },
        {
            "positions": [
                -0.5567788789269557,
                -0.506088221965525,
                0.020407931732121742,
                1.404455283474195,
                -0.8030091115824071,
                0.2522705937791132
            ]
        },
        {
            "positions": [
                -0.5271952850353898,
                -0.5330683112267937,
                0.10432129039145943,
                1.313205131042505,
                -0.7626093956917421,
                0.3720056688715099
            ]
        },
        {
            "positions": [
                -0.497611691143824,
                -0.5600484004880624,
                0.18823464905079734,
                1.2219549786108148,
                -0.7222096798010772,
                0.491740743963907
            ]
        },
        {
            "positions": [
                -0.46802809725225814,
                -0.5870284897493311,
                0.27214800771013525,
                1.1307048261791244,
                -0.6818099639104123,
                0.6114758190563041
            ]
        },
        {
            "positions": [
                -0.4384445033606922,
                -0.6140085790105998,
                0.35606136636947316,
                1.0394546737474344,
                -0.6414102480197472,
                0.7312108941487008
            ]
        },
        {
            "positions": [
                -0.40886090946912645,
                -0.6409886682718684,
                0.43997472502881085,
                0.9482045213157444,
                -0.6010105321290825,
                0.850945969241097
            ]
        },
        {
            "positions": [
                -0.3792773155775606,
                -0.6679687575331371,
                0.5238880836881485,
                0.8569543688840544,
                -0.5606108162384176,
                0.9706810443334941
            ]
        },
        {
            "positions": [
                -0.34969372168599466,
                -0.6949488467944058,
                0.6078014423474867,
                0.765704216452364,
                -0.5202111003477525,
                1.0904161194258912
            ]
        },
        {
            "positions": [
                -0.3201101277944288,
                -0.7219289360556745,
                0.6917148010068244,
                0.6744540640206735,
                -0.4798113844570875,
                1.210151194518288
            ]
        },
        {
            "positions": [
                -0.2905265339028631,
                -0.7489090253169431,
                0.775628159666162,
                0.583203911588984,
                -0.4394116685664229,
                1.3298862696106846
            ]
        },
        {
            "positions": [
                -0.26094294001129714,
                -0.7758891145782119,
                0.8595415183255002,
                0.49195375915729356,
                -0.39901195267575784,
                1.4496213447030812
            ]
        },
        {
            "positions": [
                -0.2313593461197313,
                -0.8028692038394806,
                0.9434548769848379,
                0.4007036067256031,
                -0.3586122367850928,
                1.5693564197954784
            ]
        },
        {
            "positions": [
                -0.20177575222816546,
                -0.8298492931007493,
                1.027368235644176,
                0.30945345429391313,
                -0.318212520894428,
                1.689091494887875
            ]
        },
        {
            "positions": [
                -0.17219215833659962,
                -0.8568293823620179,
                1.1112815943035133,
                0.21820330186222314,
                -0.27781280500376315,
                1.8088265699802717
            ]
        },
        {
            "positions": [
                -0.14260856444503378,
                -0.8838094716232866,
                1.1951949529628514,
                0.12695314943053315,
                -0.2374130891130981,
                1.9285616450726684
            ]
        },
        {
            "positions": [
                -0.11302497055346783,
                -0.9107895608845553,
                1.279108311622189,
                0.03570299699884272,
                -0.19701337322243329,
                2.0482967201650655
            ]
        },
        {
            "positions": [
                -0.08344137666190199,
                -0.937769650145824,
                1.3630216702815272,
                -0.05554715543284772,
                -0.15661365733176824,
                2.168031795257462
            ]
        },
        {
            "positions": [
                -0.05385778277033637,
                -0.9647497394070926,
                1.446935028940865,
                -0.14679730786453726,
                -0.11621394144110342,
                2.287766870349859
            ]
        },
        {
            "positions": [
                -0.02427418887877031,
                -0.9917298286683613,
                1.5308483876002026,
                -0.2380474602962277,
                -0.07581422555043837,
                2.4075019454422555
            ]
        },
        {
            "positions": [
                0.005309405012795532,
                -1.0187099179296302,
                1.6147617462595407,
                -0.32929761272791813,
                -0.03541450965977355,
                2.527237020534652
            ]
        },
        {
            "positions": [
                0.03489299890436137,
                -1.0456900071908988,
                1.6986751049188784,
                -0.4205477651596081,
                0.004985206230891492,
                2.6469720956270497
            ]
        },
        {
            "positions": [
                0.06447659279592721,
                -1.0726700964521674,
                1.782588463578216,
                -0.5117979175912981,
                0.045384922121556315,
                2.7667071707194455
            ]
        },
        {
            "positions": [
                0.09406018668749305,
                -1.099650185713436,
                1.8665018222375538,
                -0.6030480700229881,
                0.08578463801222114,
                2.886442245811843
            ]
        },
        {
            "positions": [
                0.12364378057905895,
                -1.1266302749747048,
                1.9504151808968917,
                -0.6942982224546786,
                0.12618435390288618,
                3.0061773209042393
            ]
        }
    ]
}