{
    "goal": {
        "global_pose": {
            "orientation": {
                "w": 0.7047431468963623,
                "x": -0.7094548344612122,
                "y": 0.0024358443915843964,
                "z": -0.0022348060738295317
            },
            "position": {
                "x": 0.6094750761985779,
                "y": 0.3671506643295288,
                "z": 0.19426114857196808
            }
        },
        "name": "move_to_magneteinheit_A"
    },
    "id": "BKPIECE_move_to_magneteinheit_A_37",
    "joint_names": [
        "shoulder_pan_joint",
        "shoulder_lift_joint",
        "elbow_joint",
        "wrist_1_joint",
        "wrist_2_joint",
        "wrist_3_joint"
    ],
    "metrics": {
        "cart_traj_len": 1.5926449558385667,
        "distance_elbow_joint": 3.532969025065046,
        "distance_shoulder_lift_joint": 1.138680927598214,
        "distance_shoulder_pan_joint": 1.240932831689165,
        "distance_wrist_1_joint": 3.8643139253822176,
        "distance_wrist_2_joint": 1.6906455031791743,
        "distance_wrist_3_joint": 5.068151796716853,
        "smoothness": 4.957274916600904e-16,
        "time": 0.300579302,
        "traj_len": 4.066410457594102,
        "weighted_distance": 5.676879163028378
    },
    "planner": "BKPIECE",
    "start": {
        "state": {
            "elbow_joint": -1.5739458827952972,
            "shoulder_lift_joint": 0.006533473998580023,
            "shoulder_pan_joint": -1.1188671628667068,
            "wrist_1_joint": 3.138208179676308,
            "wrist_2_joint": -1.5706037135050406,
            "wrist_3_joint": -2.0226958329764257
        }
    },
    "waypoints": [
        {
            "positions": [
                -1.1188671628667068,
                0.006533473998580023,
                -1.5739458827952972,
                3.138208179676308,
                -1.5706037135050406,
                -2.0226958329764257
            ]
        },
        {
            "positions": [
                -1.089321143064584,
                -0.02057797665852031,
                -1.489827572674701,
                3.046200705262446,
                -1.5303502491436316,
                -1.902025552102215
            ]
        },
        {
            "positions": [
                -1.0597751232624608,
                -0.04768942731562064,
                -1.4057092625541046,
                2.9541932308485834,
                -1.4900967847822228,
                -1.781355271228004
            ]
        },
        {
            "positions": [
                -1.030229103460338,
                -0.07480087797272097,
                -1.3215909524335083,
                2.8621857564347213,
                -1.4498433204208139,
                -1.6606849903537935
            ]
        },
        {
            "positions": [
                -1.000683083658215,
                -0.1019123286298213,
                -1.2374726423129119,
                2.7701782820208587,
                -1.409589856059405,
                -1.5400147094795826
            ]
        },
        {
            "positions": [
                -0.971137063856092,
                -0.1290237792869216,
                -1.1533543321923156,
                2.6781708076069966,
                -1.369336391697996,
                -1.4193444286053718
            ]
        },
        {
            "positions": [
                -0.941591044053969,
                -0.15613522994402196,
                -1.0692360220717192,
                2.5861633331931344,
                -1.3290829273365872,
                -1.2986741477311612
            ]
        },
        {
            "positions": [
                -0.9120450242518461,
                -0.18324668060112229,
                -0.985117711951123,
                2.494155858779272,
                -1.2888294629751782,
                -1.1780038668569504
            ]
        },
        {
            "positions": [
                -0.8824990044497231,
                -0.2103581312582226,
                -0.9009994018305266,
                2.4021483843654097,
                -1.2485759986137692,
                -1.0573335859827395
            ]
        },
        {
            "positions": [
                -0.8529529846476,
                -0.23746958191532294,
                -0.8168810917099303,
                2.3101409099515475,
                -1.2083225342523605,
                -0.9366633051085287
            ]
        },
        {
            "positions": [
                -0.8234069648454772,
                -0.26458103257242327,
                -0.732762781589334,
                2.218133435537685,
                -1.1680690698909515,
                -0.8159930242343181
            ]
        },
        {
            "positions": [
                -0.793860945043354,
                -0.2916924832295237,
                -0.6486444714687375,
                2.1261259611238223,
                -1.1278156055295425,
                -0.695322743360107
            ]
        },
        {
            "positions": [
                -0.7643149252412311,
                -0.318803933886624,
                -0.5645261613481414,
                2.0341184867099606,
                -1.0875621411681338,
                -0.5746524624858964
            ]
        },
        {
            "positions": [
                -0.7347689054391081,
                -0.34591538454372434,
                -0.4804078512275449,
                1.9421110122960978,
                -1.0473086768067246,
                -0.4539821816116856
            ]
        },
        {
            "positions": [
                -0.7052228856369852,
                -0.37302683520082464,
                -0.3962895411069487,
                1.8501035378822357,
                -1.0070552124453158,
                -0.33331190073747496
            ]
        },
        {
            "positions": [
                -0.6756768658348622,
                -0.400138285857925,
                -0.31217123098635224,
                1.7580960634683733,
                -0.9668017480839068,
                -0.2126416198632639
            ]
        },
        {
            "positions": [
                -0.6461308460327393,
                -0.4272497365150253,
                -0.22805292086575601,
                1.666088589054511,
                -0.926548283722498,
                -0.0919713389890533
            ]
        },
        {
            "positions": [
                -0.6165848262306163,
                -0.45436118717212565,
                -0.14393461074515956,
                1.5740811146406486,
                -0.8862948193610891,
                0.028698941885157758
            ]
        },
        {
            "positions": [
                -0.5870388064284933,
                -0.48147263782922595,
                -0.059816300624563334,
                1.4820736402267864,
                -0.8460413549996803,
                0.14936922275936837
            ]
        },
        {
            "positions": [
                -0.5574927866263703,
                -0.5085840884863262,
                0.024302009496033117,
                1.390066165812924,
                -0.8057878906382713,
                0.270039503633579
            ]
        },
        {
            "positions": [
                -0.5279467668242473,
                -0.5356955391434265,
                0.10842031961662935,
                1.2980586913990617,
                -0.7655344262768624,
                0.3907097845077896
            ]
        },
        {
            "positions": [
                -0.49840074702212434,
                -0.5628069898005269,
                0.1925386297372258,
                1.2060512169851993,
                -0.7252809619154534,
                0.5113800653820006
            ]
        },
        {
            "positions": [
                -0.4688547272200013,
                -0.5899184404576273,
                0.27665693985782225,
                1.114043742571337,
                -0.6850274975540445,
                0.6320503462562117
            ]
        },
        {
            "positions": [
                -0.4393087074178783,
                -0.6170298911147276,
                0.3607752499784187,
                1.0220362681574744,
                -0.6447740331926355,
                0.7527206271304223
            ]
        },
        {
            "positions": [
                -0.4097626876157554,
                -0.6441413417718279,
                0.4448935600990145,
                0.9300287937436127,
                -0.6045205688312267,
                0.8733909080046329
            ]
        },
        {
            "positions": [
                -0.3802166678136324,
                -0.6712527924289282,
                0.5290118702196109,
                0.8380213193297501,
                -0.5642671044698178,
                0.9940611888788435
            ]
        },
        {
            "positions": [
                -0.3506706480115094,
                -0.6983642430860286,
                0.6131301803402074,
                0.7460138449158875,
                -0.5240136401084088,
                1.1147314697530546
            ]
        },
        {
            "positions": [
                -0.32112462820938636,
                -0.7254756937431289,
                0.6972484904608038,
                0.6540063705020254,
                -0.4837601757469998,
                1.2354017506272656
            ]
        },
        {
            "positions": [
                -0.2915786084072636,
                -0.7525871444002292,
                0.7813668005813998,
                0.5619988960881632,
                -0.44350671138559106,
                1.3560720315014758
            ]
        },
        {
            "positions": [
                -0.26203258860514056,
                -0.7796985950573295,
                0.8654851107019963,
                0.46999142167430064,
                -0.4032532470241821,
                1.4767423123756869
            ]
        },
        {
            "positions": [
                -0.23248656880301755,
                -0.8068100457144299,
                0.9496034208225927,
                0.3779839472604385,
                -0.3629997826627731,
                1.597412593249898
            ]
        },
        {
            "positions": [
                -0.20294054900089453,
                -0.8339214963715302,
                1.0337217309431892,
                0.2859764728465759,
                -0.32274631830136435,
                1.7180828741241085
            ]
        },
        {
            "positions": [
                -0.17339452919877163,
                -0.8610329470286305,
                1.1178400410637852,
                0.19396899843271376,
                -0.2824928539399554,
                1.8387531549983192
            ]
        },
        {
            "positions": [
                -0.14384850939664862,
                -0.8881443976857308,
                1.2019583511843817,
                0.10196152401885161,
                -0.24223938957854663,
                1.9594234358725298
            ]
        },
        {
            "positions": [
                -0.11430248959452571,
                -0.9152558483428312,
                1.286076661304978,
                0.009954049604989024,
                -0.20198592521713765,
                2.0800937167467413
            ]
        },
        {
            "positions": [
                -0.08475646979240259,
                -0.9423672989999315,
                1.3701949714255746,
                -0.08205342480887312,
                -0.16173246085572868,
                2.200763997620952
            ]
        },
        {
            "positions": [
                -0.055210449990279686,
                -0.9694787496570318,
                1.4543132815461706,
                -0.17406089922273527,
                -0.12147899649431992,
                2.3214342784951625
            ]
        },
        {
            "positions": [
                -0.025664430188156784,
                -0.9965902003141323,
                1.538431591666767,
                -0.26606837363659785,
                -0.08122553213291095,
                2.442104559369373
            ]
        },
        {
            "positions": [
                0.003881589613966341,
                -1.0237016509712324,
                1.6225499017873635,
                -0.35807584805046,
                -0.040972067771501974,
                2.5627748402435837
            ]
        },
        {
            "positions": [
                0.03342760941608924,
                -1.0508131016283329,
                1.70666821190796,
                -0.4500833224643226,
                -0.0007186034100929994,
                2.683445121117795
            ]
        },
        {
            "positions": [
                0.06297362921821215,
                -1.077924552285433,
                1.790786522028556,
                -0.5420907968781847,
                0.03953486095131575,
                2.804115401992005
            ]
        },
        {
            "positions": [
                0.09251964902033527,
                -1.1050360029425335,
                1.8749048321491524,
                -0.6340982712920469,
                0.07978832531272473,
                2.9247856828662164
            ]
        },
        {
            "positions": [
                0.12206566882245816,
                -1.1321474535996339,
                1.9590231422697488,
                -0.7261057457059095,
                0.12004178967413359,
                3.0454559637404266
            ]
        }
    ]
}