{
    "goal": {
        "global_pose": {
            "orientation": {
                "w": 0.7031023502349854,
                "x": -0.7110244035720825,
                "y": 0.007748599164187908,
                "z": 0.005598929710686207
            },
            "position": {
                "x": 0.11585023208521307,
                "y": 0.44412534475326537,
                "z": 0.3711530566215515
            }
        },
        "name": "move_to_auspresseinheit_A"
    },
    "id": "BKPIECE_move_to_auspresseinheit_A_68",
    "joint_names": [
        "shoulder_pan_joint",
        "shoulder_lift_joint",
        "elbow_joint",
        "wrist_1_joint",
        "wrist_2_joint",
        "wrist_3_joint"
    ],
    "metrics": {
        "cart_traj_len": 0.8559877393851482,
        "distance_elbow_joint": 0.5813837256940633,
        "distance_shoulder_lift_joint": 0.6742629721714881,
        "distance_shoulder_pan_joint": 1.0451746398012536,
        "distance_wrist_1_joint": 1.9119811067074548,
        "distance_wrist_2_joint": 1.3738455640683167,
        "distance_wrist_3_joint": 0.3950084583854636,
        "smoothness": 1.5992373761932372,
        "time": 0.182738065,
        "traj_len": 2.445742518505994,
        "weighted_distance": 3.171356185352686
    },
    "planner": "BKPIECE",
    "start": {
        "state": {
            "elbow_joint": 2.4225746994637096,
            "shoulder_lift_joint": -1.373653595662188,
            "shoulder_pan_joint": -0.3378633848294565,
            "wrist_1_joint": -1.0288595594406726,
            "wrist_2_joint": 1.2330228066703421,
            "wrist_3_joint": 3.189163495502006
        }
    },
    "waypoints": [
        {
            "positions": [
                -0.3378633848294565,
                -1.373653595662188,
                2.4225746994637096,
                -1.0288595594406726,
                1.2330228066703421,
                3.189163495502006
            ]
        },
        {
            "positions": [
                -0.28275930170308855,
                -1.4288926280523557,
                2.3920439107356843,
                -0.9050141794787855,
                1.1381485398770343,
                3.166771937542652
            ]
        },
        {
            "positions": [
                -0.22765521857672066,
                -1.4841316604425236,
                2.361513122007659,
                -0.7811687995168983,
                1.0432742730837266,
                3.1443803795832985
            ]
        },
        {
            "positions": [
                -0.17255113545035275,
                -1.5393706928326913,
                2.3309823332796338,
                -0.6573234195550113,
                0.9484000062904188,
                3.1219888216239444
            ]
        },
        {
            "positions": [
                -0.11744705232398481,
                -1.5946097252228593,
                2.3004515445516085,
                -0.533478039593124,
                0.8535257394971109,
                3.0995972636645908
            ]
        },
        {
            "positions": [
                -0.06234296919761689,
                -1.649848757613027,
                2.269920755823583,
                -0.40963265963123696,
                0.7586514727038031,
                3.077205705705237
            ]
        },
        {
            "positions": [
                -0.007238886071249007,
                -1.7050877900031947,
                2.2393899670955575,
                -0.2857872796693498,
                0.6637772059104953,
                3.0548141477458834
            ]
        },
        {
            "positions": [
                0.047865197055118935,
                -1.7603268223933626,
                2.208859178367532,
                -0.16194189970746276,
                0.5689029391171875,
                3.03242258978653
            ]
        },
        {
            "positions": [
                0.10296928018148688,
                -1.8155658547835303,
                2.178328389639507,
                -0.038096519745575486,
                0.4740286723238796,
                3.0100310318271757
            ]
        },
        {
            "positions": [
                0.15807336330785482,
                -1.8708048871736982,
                2.1477976009114816,
                0.08574886021631167,
                0.3791544055305718,
                2.987639473867822
            ]
        },
        {
            "positions": [
                0.21317744643422276,
                -1.926043919563866,
                2.1172668121834564,
                0.20959424017819872,
                0.284280138737264,
                2.9652479159084684
            ]
        },
        {
            "positions": [
                0.29568986929475316,
                -1.9084917931819005,
                2.1740826042033525,
                0.07421153596533678,
                0.3698106904822122,
                2.9764438192122946
            ]
        },
        {
            "positions": [
                0.3782022921552836,
                -1.8909396667999352,
                2.2308983962232487,
                -0.061171168247525165,
                0.45534124222716044,
                2.9876397225161204
            ]
        },
        {
            "positions": [
                0.46071471501581407,
                -1.8733875404179698,
                2.2877141882431444,
                -0.19655387246038714,
                0.5408717939721086,
                2.9988356258199467
            ]
        },
        {
            "positions": [
                0.5432271378763445,
                -1.8558354140360045,
                2.3445299802630406,
                -0.33193657667324905,
                0.6264023457170569,
                3.010031529123773
            ]
        },
        {
            "positions": [
                0.6252691964240709,
                -1.8816674854069788,
                2.3689363154301537,
                -0.397934821791817,
                0.6678926902947798,
                3.0731861619120835
            ]
        },
        {
            "positions": [
                0.7073112549717971,
                -1.9074995567779534,
                2.3933426505972664,
                -0.46393306691038494,
                0.7093830348725028,
                3.1363407947003945
            ]
        }
    ]
}