{
    "goal": {
        "global_pose": {
            "orientation": {
                "w": -0.00223480608172531,
                "x": 0.0024358444001904467,
                "y": 0.7094548369677653,
                "z": -0.704743149386269
            },
            "position": {
                "x": -0.37947507619857795,
                "y": -0.6371506643295288,
                "z": 0.19426114857196808
            }
        },
        "name": "move_to_magneteinheit_C"
    },
    "id": "BKPIECE_move_to_magneteinheit_C_136",
    "joint_names": [
        "shoulder_pan_joint",
        "shoulder_lift_joint",
        "elbow_joint",
        "wrist_1_joint",
        "wrist_2_joint",
        "wrist_3_joint"
    ],
    "metrics": {
        "cart_traj_len": 1.944858880310714,
        "distance_elbow_joint": 0.6293711990826913,
        "distance_shoulder_lift_joint": 2.5183865699882064,
        "distance_shoulder_pan_joint": 2.348295177225711,
        "distance_wrist_1_joint": 3.7559714907890926,
        "distance_wrist_2_joint": 2.3323599995700057,
        "distance_wrist_3_joint": 4.401465949791742,
        "smoothness": 0.9740580506900283,
        "time": 0.416912557,
        "traj_len": 3.9982309070947184,
        "weighted_distance": 5.556717896059692
    },
    "planner": "BKPIECE",
    "start": {
        "state": {
            "elbow_joint": 1.9565354006593851,
            "shoulder_lift_joint": -1.4165861576512813,
            "shoulder_pan_joint": -1.6717766223278752,
            "wrist_1_joint": -0.528663328821883,
            "wrist_2_joint": 1.472756589259273,
            "wrist_3_joint": 3.159348288315503
        }
    },
    "waypoints": [
        {
            "positions": [
                -1.6717766223278752,
                -1.4165861576512813,
                1.9565354006593851,
                -0.528663328821883,
                1.472756589259273,
                3.159348288315503
            ]
        },
        {
            "positions": [
                -1.6652497533938817,
                -1.4742997510191087,
                1.860134880767766,
                -0.5999924922357662,
                1.4911008413949782,
                3.1449156282276345
            ]
        },
        {
            "positions": [
                -1.658722884459888,
                -1.532013344386936,
                1.7637343608761469,
                -0.6713216556496495,
                1.5094450935306836,
                3.130482968139766
            ]
        },
        {
            "positions": [
                -1.6521960155258946,
                -1.5897269377547634,
                1.6673338409845277,
                -0.7426508190635327,
                1.5277893456663887,
                3.1160503080518973
            ]
        },
        {
            "positions": [
                -1.7272403840204704,
                -1.6354239661579464,
                1.6791592295330913,
                -0.6602243647169497,
                1.4530321772466064,
                3.0127399416327716
            ]
        },
        {
            "positions": [
                -1.8022847525150463,
                -1.6811209945611294,
                1.6909846180816548,
                -0.5777979103703667,
                1.3782750088268243,
                2.909429575213646
            ]
        },
        {
            "positions": [
                -1.877329121009622,
                -1.7268180229643122,
                1.7028100066302183,
                -0.49537145602378363,
                1.303517840407042,
                2.8061192087945206
            ]
        },
        {
            "positions": [
                -1.9523734895041978,
                -1.7725150513674952,
                1.7146353951787818,
                -0.41294500167720055,
                1.22876067198726,
                2.702808842375395
            ]
        },
        {
            "positions": [
                -2.0274178579987736,
                -1.8182120797706782,
                1.7264607837273453,
                -0.33051854733061753,
                1.1540035035674776,
                2.599498475956269
            ]
        },
        {
            "positions": [
                -2.1024622264933495,
                -1.8639091081738612,
                1.7382861722759089,
                -0.2480920929840345,
                1.0792463351476953,
                2.496188109537144
            ]
        },
        {
            "positions": [
                -2.1775065949879253,
                -1.909606136577044,
                1.7501115608244724,
                -0.16566563863745143,
                1.0044891667279132,
                2.392877743118018
            ]
        },
        {
            "positions": [
                -2.252550963482501,
                -1.955303164980227,
                1.761936949373036,
                -0.0832391842908684,
                0.9297319983081309,
                2.2895673766988924
            ]
        },
        {
            "positions": [
                -2.327595331977077,
                -2.00100019338341,
                1.7737623379215994,
                -0.0008127299442853841,
                0.8549748298883486,
                2.1862570102797667
            ]
        },
        {
            "positions": [
                -2.402639700471653,
                -2.046697221786593,
                1.785587726470163,
                0.08161372440229764,
                0.7802176614685664,
                2.082946643860641
            ]
        },
        {
            "positions": [
                -2.4776840689662287,
                -2.092394250189776,
                1.7974131150187267,
                0.16404017874888077,
                0.7054604930487841,
                1.9796362774415155
            ]
        },
        {
            "positions": [
                -2.5527284374608046,
                -2.138091278592959,
                1.8092385035672902,
                0.24646663309546368,
                0.6307033246290019,
                1.87632591102239
            ]
        },
        {
            "positions": [
                -2.6277728059553804,
                -2.183788306996142,
                1.8210638921158537,
                0.3288930874420469,
                0.5559461562092196,
                1.7730155446032643
            ]
        },
        {
            "positions": [
                -2.7028171744499563,
                -2.2294853353993247,
                1.8328892806644173,
                0.41131954178862984,
                0.48118898778943753,
                1.6697051781841388
            ]
        },
        {
            "positions": [
                -2.7778615429445317,
                -2.275182363802508,
                1.8447146692129808,
                0.49374599613521297,
                0.4064318193696552,
                1.566394811765013
            ]
        },
        {
            "positions": [
                -2.8529059114391075,
                -2.3208793922056907,
                1.8565400577615443,
                0.5761724504817959,
                0.33167465094987314,
                1.4630844453458876
            ]
        },
        {
            "positions": [
                -2.9279502799336834,
                -2.366576420608874,
                1.8683654463101078,
                0.658598904828379,
                0.25691748253009083,
                1.3597740789267618
            ]
        },
        {
            "positions": [
                -3.0029946484282593,
                -2.4122734490120568,
                1.8801908348586713,
                0.7410253591749619,
                0.18216031411030853,
                1.2564637125076363
            ]
        },
        {
            "positions": [
                -3.078039016922835,
                -2.4579704774152398,
                1.8920162234072349,
                0.8234518135215451,
                0.10740314569052622,
                1.1531533460885106
            ]
        },
        {
            "positions": [
                -3.153083385417411,
                -2.503667505818423,
                1.9038416119557984,
                0.905878267868128,
                0.03264597727074414,
                1.0498429796693851
            ]
        },
        {
            "positions": [
                -3.228127753911987,
                -2.549364534221606,
                1.915667000504362,
                0.988304722214711,
                -0.04211119114903816,
                0.9465326132502594
            ]
        },
        {
            "positions": [
                -3.1863064854654515,
                -2.4723863012539455,
                1.9207690271648064,
                0.8876920300330887,
                -0.002809707463068016,
                1.0681242951795094
            ]
        },
        {
            "positions": [
                -3.1444852170189157,
                -2.3954080682862857,
                1.9258710538252508,
                0.7870793378514664,
                0.03649177622290213,
                1.1897159771087593
            ]
        },
        {
            "positions": [
                -3.1026639485723804,
                -2.3184298353186255,
                1.9309730804856953,
                0.6864666456698443,
                0.07579325990887227,
                1.3113076590380093
            ]
        },
        {
            "positions": [
                -3.060842680125845,
                -2.2414516023509656,
                1.9360751071461397,
                0.5858539534882219,
                0.11509474359484242,
                1.4328993409672592
            ]
        },
        {
            "positions": [
                -3.0190214116793097,
                -2.1644733693833054,
                1.941177133806584,
                0.4852412613065996,
                0.15439622728081256,
                1.5544910228965092
            ]
        },
        {
            "positions": [
                -2.977200143232774,
                -2.087495136415645,
                1.9462791604670284,
                0.38462856912497745,
                0.1936977109667827,
                1.6760827048257592
            ]
        },
        {
            "positions": [
                -2.9353788747862386,
                -2.0105169034479853,
                1.9513811871274729,
                0.28401587694335517,
                0.23299919465275287,
                1.7976743867550093
            ]
        },
        {
            "positions": [
                -2.8935576063397033,
                -1.933538670480325,
                1.9564832137879173,
                0.1834031847617329,
                0.272300678338723,
                1.919266068684259
            ]
        },
        {
            "positions": [
                -2.8517363378931675,
                -1.856560437512665,
                1.9615852404483618,
                0.08279049258011062,
                0.31160216202469315,
                2.040857750613509
            ]
        },
        {
            "positions": [
                -2.809915069446632,
                -1.779582204545005,
                1.9666872671088063,
                -0.017822199601511768,
                0.3509036457106633,
                2.1624494325427595
            ]
        },
        {
            "positions": [
                -2.768093801000097,
                -1.7026039715773447,
                1.9717892937692507,
                -0.11843489178313393,
                0.3902051293966335,
                2.2840411144720094
            ]
        },
        {
            "positions": [
                -2.7262725325535615,
                -1.6256257386096848,
                1.9768913204296952,
                -0.2190475839647561,
                0.42950661308260357,
                2.4056327964012594
            ]
        },
        {
            "positions": [
                -2.684451264107026,
                -1.5486475056420246,
                1.9819933470901396,
                -0.3196602761463785,
                0.4688080967685737,
                2.527224478330509
            ]
        },
        {
            "positions": [
                -2.6426299956604904,
                -1.4716692726743645,
                1.9870953737505839,
                -0.42027296832800065,
                0.5081095804545439,
                2.6488161602597593
            ]
        },
        {
            "positions": [
                -2.600808727213955,
                -1.3946910397067043,
                1.9921974004110283,
                -0.520885660509623,
                0.5474110641405141,
                2.7704078421890093
            ]
        },
        {
            "positions": [
                -2.5589874587674197,
                -1.3177128067390445,
                1.9972994270714728,
                -0.6214983526912452,
                0.5867125478264842,
                2.8919995241182592
            ]
        },
        {
            "positions": [
                -2.517166190320884,
                -1.2407345737713842,
                2.0024014537319172,
                -0.7221110448728674,
                0.6260140315124543,
                3.013591206047509
            ]
        },
        {
            "positions": [
                -2.4753449218743486,
                -1.1637563408037241,
                2.0075034803923617,
                -0.8227237370544898,
                0.6653155151984245,
                3.135182887976759
            ]
        }
    ]
}