{
    "goal": {
        "global_pose": {
            "orientation": {
                "w": -0.00223480608172531,
                "x": 0.0024358444001904467,
                "y": 0.7094548369677653,
                "z": -0.704743149386269
            },
            "position": {
                "x": 0.6205249238014221,
                "y": -0.6371506643295288,
                "z": 0.19426114857196808
            }
        },
        "name": "move_to_magneteinheit_B"
    },
    "id": "BKPIECE_move_to_magneteinheit_B_54",
    "joint_names": [
        "shoulder_pan_joint",
        "shoulder_lift_joint",
        "elbow_joint",
        "wrist_1_joint",
        "wrist_2_joint",
        "wrist_3_joint"
    ],
    "metrics": {
        "cart_traj_len": 1.4537362929798885,
        "distance_elbow_joint": 0.7317633896760458,
        "distance_shoulder_lift_joint": 1.250036690162183,
        "distance_shoulder_pan_joint": 1.621510335598582,
        "distance_wrist_1_joint": 2.604260630656177,
        "distance_wrist_2_joint": 2.940174360694345,
        "distance_wrist_3_joint": 3.141992946739577,
        "smoothness": 2.69144977797877e-16,
        "time": 0.47062036799999996,
        "traj_len": 3.5056723112017907,
        "weighted_distance": 4.911024255525175
    },
    "planner": "BKPIECE",
    "start": {
        "state": {
            "elbow_joint": 2.393587130804639,
            "shoulder_lift_joint": -1.9085141043513325,
            "shoulder_pan_joint": 0.7066247066698809,
            "wrist_1_joint": -0.4678290934590222,
            "wrist_2_joint": 0.7096259084215963,
            "wrist_3_joint": 3.147370379541726
        }
    },
    "waypoints": [
        {
            "positions": [
                0.7066247066698809,
                -1.9085141043513325,
                2.393587130804639,
                -0.4678290934590222,
                0.7096259084215963,
                3.147370379541726
            ]
        },
        {
            "positions": [
                0.6559525086824252,
                -1.8694504577837643,
                2.3707195248772623,
                -0.3864459487510166,
                0.6177454596498981,
                3.0491830999561143
            ]
        },
        {
            "positions": [
                0.6052803106949695,
                -1.830386811216196,
                2.347851918949886,
                -0.3050628040430111,
                0.5258650108781998,
                2.9509958203705025
            ]
        },
        {
            "positions": [
                0.5546081127075138,
                -1.7913231646486278,
                2.3249843130225094,
                -0.22367965933500555,
                0.43398456210650155,
                2.8528085407848907
            ]
        },
        {
            "positions": [
                0.5039359147200582,
                -1.7522595180810596,
                2.302116707095133,
                -0.142296514627,
                0.3421041133348033,
                2.754621261199279
            ]
        },
        {
            "positions": [
                0.4532637167326024,
                -1.7131958715134914,
                2.2792491011677565,
                -0.06091336991899443,
                0.250223664563105,
                2.656433981613667
            ]
        },
        {
            "positions": [
                0.40259151874514676,
                -1.6741322249459232,
                2.2563814952403805,
                0.020469774789011075,
                0.15834321579140676,
                2.5582467020280553
            ]
        },
        {
            "positions": [
                0.35191932075769106,
                -1.635068578378355,
                2.233513889313004,
                0.10185291949701664,
                0.06646276701970844,
                2.4600594224424435
            ]
        },
        {
            "positions": [
                0.30124712277023535,
                -1.5960049318107867,
                2.2106462833856275,
                0.1832360642050222,
                -0.025417681751989774,
                2.3618721428568317
            ]
        },
        {
            "positions": [
                0.25057492478277965,
                -1.5569412852432185,
                2.187778677458251,
                0.26461920891302776,
                -0.11729813052368798,
                2.26368486327122
            ]
        },
        {
            "positions": [
                0.19990272679532395,
                -1.5178776386756503,
                2.1649110715308746,
                0.3460023536210333,
                -0.2091785792953863,
                2.165497583685608
            ]
        },
        {
            "positions": [
                0.14923052880786825,
                -1.478813992108082,
                2.142043465603498,
                0.4273854983290389,
                -0.3010590280670846,
                2.0673103040999967
            ]
        },
        {
            "positions": [
                0.09855833082041265,
                -1.4397503455405138,
                2.1191758596761217,
                0.5087686430370444,
                -0.39293947683878283,
                1.9691230245143847
            ]
        },
        {
            "positions": [
                0.04788613283295695,
                -1.4006866989729456,
                2.096308253748745,
                0.59015178774505,
                -0.48481992561048104,
                1.870935744928773
            ]
        },
        {
            "positions": [
                -0.0027860651544987514,
                -1.3616230524053774,
                2.0734406478213687,
                0.6715349324530555,
                -0.5767003743821795,
                1.772748465343161
            ]
        },
        {
            "positions": [
                -0.053458263141954454,
                -1.3225594058378092,
                2.0505730418939923,
                0.7529180771610611,
                -0.6685808231538777,
                1.6745611857575493
            ]
        },
        {
            "positions": [
                -0.10413046112941016,
                -1.283495759270241,
                2.027705435966616,
                0.8343012218690666,
                -0.7604612719255759,
                1.5763739061719375
            ]
        },
        {
            "positions": [
                -0.15480265911686586,
                -1.2444321127026727,
                2.0048378300392393,
                0.9156843665770722,
                -0.8523417206972741,
                1.4781866265863257
            ]
        },
        {
            "positions": [
                -0.20547485710432156,
                -1.2053684661351045,
                1.981970224111863,
                0.9970675112850778,
                -0.9442221694689723,
                1.379999347000714
            ]
        },
        {
            "positions": [
                -0.25614705509177726,
                -1.1663048195675363,
                1.9591026181844866,
                1.0784506559930833,
                -1.0361026182406707,
                1.2818120674151021
            ]
        },
        {
            "positions": [
                -0.30681925307923297,
                -1.127241172999968,
                1.9362350122571101,
                1.1598338007010889,
                -1.127983067012369,
                1.1836247878294903
            ]
        },
        {
            "positions": [
                -0.35749145106668856,
                -1.0881775264323998,
                1.9133674063297337,
                1.2412169454090944,
                -1.2198635157840672,
                1.0854375082438787
            ]
        },
        {
            "positions": [
                -0.4081636490541444,
                -1.0491138798648316,
                1.8904998004023574,
                1.3226000901171,
                -1.3117439645557656,
                0.987250228658267
            ]
        },
        {
            "positions": [
                -0.45883584704159996,
                -1.0100502332972634,
                1.867632194474981,
                1.4039832348251056,
                -1.4036244133274638,
                0.8890629490726552
            ]
        },
        {
            "positions": [
                -0.5095080450290556,
                -0.9709865867296952,
                1.8447645885476045,
                1.485366379533111,
                -1.495504862099162,
                0.7908756694870434
            ]
        },
        {
            "positions": [
                -0.5601802430165114,
                -0.931922940162127,
                1.821896982620228,
                1.5667495242411167,
                -1.5873853108708602,
                0.6926883899014316
            ]
        },
        {
            "positions": [
                -0.610852441003967,
                -0.8928592935945587,
                1.7990293766928516,
                1.648132668949122,
                -1.6792657596425584,
                0.5945011103158198
            ]
        },
        {
            "positions": [
                -0.6615246389914228,
                -0.8537956470269905,
                1.776161770765475,
                1.7295158136571278,
                -1.7711462084142566,
                0.49631383073020796
            ]
        },
        {
            "positions": [
                -0.7121968369788784,
                -0.8147320004594223,
                1.7532941648380986,
                1.8108989583651331,
                -1.8630266571859553,
                0.39812655114459616
            ]
        },
        {
            "positions": [
                -0.7628690349663342,
                -0.7756683538918541,
                1.7304265589107222,
                1.892282103073139,
                -1.9549071059576535,
                0.29993927155898437
            ]
        },
        {
            "positions": [
                -0.8135412329537898,
                -0.7366047073242858,
                1.7075589529833457,
                1.9736652477811443,
                -2.0467875547293515,
                0.20175199197337257
            ]
        },
        {
            "positions": [
                -0.8642134309412456,
                -0.6975410607567176,
                1.6846913470559695,
                2.05504839248915,
                -2.13866800350105,
                0.10356471238776077
            ]
        },
        {
            "positions": [
                -0.9148856289287012,
                -0.6584774141891495,
                1.661823741128593,
                2.136431537197155,
                -2.2305484522727483,
                0.005377432802149003
            ]
        }
    ]
}