{
    "goal": {
        "global_pose": {
            "orientation": {
                "w": 0.5084816262002911,
                "x": -0.4908360881923452,
                "y": 0.5182115481033761,
                "z": -0.48164630358495003
            },
            "position": {
                "x": 0.5540239810943604,
                "y": -0.46912469901144505,
                "z": 0.16403168439865112
            }
        },
        "name": "move_to_storage_B"
    },
    "id": "BKPIECE_move_to_storage_B_42",
    "joint_names": [
        "shoulder_pan_joint",
        "shoulder_lift_joint",
        "elbow_joint",
        "wrist_1_joint",
        "wrist_2_joint",
        "wrist_3_joint"
    ],
    "metrics": {
        "cart_traj_len": 1.2952612611957368,
        "distance_elbow_joint": 1.6107289877010518,
        "distance_shoulder_lift_joint": 0.461563554477189,
        "distance_shoulder_pan_joint": 0.927010472215283,
        "distance_wrist_1_joint": 2.9995843947917185,
        "distance_wrist_2_joint": 2.7175471630185606,
        "distance_wrist_3_joint": 3.3607449709483177,
        "smoothness": 0.38268611978597006,
        "time": 0.249884622,
        "traj_len": 3.475223668075498,
        "weighted_distance": 4.951343357398983
    },
    "planner": "BKPIECE",
    "start": {
        "state": {
            "elbow_joint": 1.6649325340416963,
            "shoulder_lift_joint": -0.6616387945129425,
            "shoulder_pan_joint": -0.9139837929255878,
            "wrist_1_joint": 2.1467571094334352,
            "wrist_2_joint": -2.234195976750228,
            "wrist_3_joint": 0.005470921511140723
        }
    },
    "waypoints": [
        {
            "positions": [
                -0.9139837929255878,
                -0.6616387945129425,
                1.6649325340416963,
                2.1467571094334352,
                -2.234195976750228,
                0.005470921511140723
            ]
        },
        {
            "positions": [
                -0.8589972321647598,
                -0.6947850066637201,
                1.6993046300328896,
                2.0322479143510694,
                -2.204152272322363,
                0.042985856010462856
            ]
        },
        {
            "positions": [
                -0.8040106714039316,
                -0.7279312188144976,
                1.7336767260240826,
                1.9177387192687039,
                -2.1741085678944976,
                0.08050079050978498
            ]
        },
        {
            "positions": [
                -0.7490241106431035,
                -0.7610774309652752,
                1.768048822015276,
                1.8032295241863383,
                -2.1440648634666326,
                0.11801572500910712
            ]
        },
        {
            "positions": [
                -0.7247364551838718,
                -0.7756689322829947,
                1.6332268805117254,
                1.7671294046388093,
                -2.06323545477975,
                0.08188601030676695
            ]
        },
        {
            "positions": [
                -0.70044879972464,
                -0.7902604336007143,
                1.4984049390081748,
                1.7310292850912803,
                -1.9824060460928676,
                0.0457562956044268
            ]
        },
        {
            "positions": [
                -0.6761611442654083,
                -0.8048519349184338,
                1.3635829975046243,
                1.6949291655437513,
                -1.9015766374059853,
                0.009626580902086639
            ]
        },
        {
            "positions": [
                -0.6308993600590546,
                -0.8371467353606958,
                1.2978354199620301,
                1.5840494393212075,
                -1.8168702881409662,
                0.023058249111862474
            ]
        },
        {
            "positions": [
                -0.5856375758527008,
                -0.8694415358029579,
                1.2320878424194361,
                1.4731697130986636,
                -1.732163938875947,
                0.03648991732163831
            ]
        },
        {
            "positions": [
                -0.5707391256932565,
                -0.88826276935943,
                1.2014069333606632,
                1.373123390280015,
                -1.6473489430547308,
                0.10218216076945105
            ]
        },
        {
            "positions": [
                -0.5558406755338122,
                -0.9070840029159021,
                1.1707260243018904,
                1.2730770674613665,
                -1.5625339472335142,
                0.1678744042172638
            ]
        },
        {
            "positions": [
                -0.5409422253743679,
                -0.9259052364723742,
                1.1400451152431175,
                1.173030744642718,
                -1.477718951412298,
                0.23356664766507654
            ]
        },
        {
            "positions": [
                -0.5661226301318253,
                -0.9348732870413632,
                1.1800273421956318,
                1.0809462887335815,
                -1.388579399699542,
                0.3661062366005466
            ]
        },
        {
            "positions": [
                -0.5913030348892827,
                -0.9438413376103522,
                1.220009569148146,
                0.9888618328244452,
                -1.299439847986786,
                0.49864582553601666
            ]
        },
        {
            "positions": [
                -0.6164834396467401,
                -0.9528093881793411,
                1.2599917961006601,
                0.8967773769153088,
                -1.2103002962740301,
                0.6311854144714867
            ]
        },
        {
            "positions": [
                -0.6416638444041975,
                -0.9617774387483301,
                1.2999740230531744,
                0.8046929210061724,
                -1.1211607445612741,
                0.7637250034069567
            ]
        },
        {
            "positions": [
                -0.6668442491616549,
                -0.9707454893173191,
                1.3399562500056887,
                0.7126084650970359,
                -1.0320211928485181,
                0.8962645923424267
            ]
        },
        {
            "positions": [
                -0.6920246539191123,
                -0.979713539886308,
                1.379938476958203,
                0.6205240091878996,
                -0.9428816411357622,
                1.0288041812778967
            ]
        },
        {
            "positions": [
                -0.7172050586765697,
                -0.988681590455297,
                1.4199207039107173,
                0.5284395532787631,
                -0.8537420894230062,
                1.1613437702133669
            ]
        },
        {
            "positions": [
                -0.7423854634340271,
                -0.997649641024286,
                1.4599029308632314,
                0.43635509736962674,
                -0.7646025377102502,
                1.293883359148837
            ]
        },
        {
            "positions": [
                -0.7675658681914845,
                -1.006617691593275,
                1.4998851578157457,
                0.34427064146049036,
                -0.6754629859974942,
                1.4264229480843071
            ]
        },
        {
            "positions": [
                -0.792746272948942,
                -1.0155857421622638,
                1.53986738476826,
                0.25218618555135397,
                -0.5863234342847383,
                1.558962537019777
            ]
        },
        {
            "positions": [
                -0.8179266777063994,
                -1.024553792731253,
                1.5798496117207743,
                0.16010172964221758,
                -0.4971838825719823,
                1.6915021259552472
            ]
        },
        {
            "positions": [
                -0.8431070824638567,
                -1.0335218433002418,
                1.6198318386732886,
                0.06801727373308131,
                -0.40804433085922653,
                1.824041714890717
            ]
        },
        {
            "positions": [
                -0.8682874872213142,
                -1.0424898938692309,
                1.659814065625803,
                -0.02406718217605519,
                -0.3189047791464703,
                1.9565813038261874
            ]
        },
        {
            "positions": [
                -0.8934678919787715,
                -1.0514579444382197,
                1.6997962925783172,
                -0.11615163808519169,
                -0.22976522743371453,
                2.0891208927616574
            ]
        },
        {
            "positions": [
                -0.918648296736229,
                -1.0604259950072088,
                1.7397785195308313,
                -0.20823609399432796,
                -0.14062567572095852,
                2.221660481697127
            ]
        },
        {
            "positions": [
                -0.9438287014936864,
                -1.0693940455761977,
                1.7797607464833456,
                -0.30032054990346446,
                -0.051486124008202516,
                2.354200070632597
            ]
        },
        {
            "positions": [
                -0.9690091062511439,
                -1.0783620961451867,
                1.81974297343586,
                -0.39240500581260074,
                0.03765342770455349,
                2.4867396595680673
            ]
        },
        {
            "positions": [
                -0.9941895110086012,
                -1.0873301467141756,
                1.8597252003883742,
                -0.48448946172173724,
                0.1267929794173095,
                2.6192792485035374
            ]
        },
        {
            "positions": [
                -1.0193699157660587,
                -1.0962981972831647,
                1.8997074273408883,
                -0.5765739176308735,
                0.2159325311300655,
                2.7518188374390076
            ]
        },
        {
            "positions": [
                -1.044550320523516,
                -1.1052662478521535,
                1.9396896542934026,
                -0.66865837354001,
                0.3050720828428213,
                2.8843584263744773
            ]
        },
        {
            "positions": [
                -1.0697307252809733,
                -1.1142342984211426,
                1.9796718812459169,
                -0.7607428294491465,
                0.3942116345555775,
                3.0168980153099474
            ]
        },
        {
            "positions": [
                -1.0949111300384309,
                -1.1232023489901315,
                2.019654108198431,
                -0.8528272853582829,
                0.48335118626833323,
                3.1494376042454175
            ]
        }
    ]
}