{
    "goal": {
        "global_pose": {
            "orientation": {
                "w": 0.005598929693374612,
                "x": 0.007748599140229565,
                "y": 0.7110244013736278,
                "z": -0.7031023480610252
            },
            "position": {
                "x": 0.1141497679147869,
                "y": -0.7141253447532654,
                "z": 0.3711530566215515
            }
        },
        "name": "move_to_auspresseinheit_B"
    },
    "id": "BKPIECE_move_to_auspresseinheit_B_30",
    "joint_names": [
        "shoulder_pan_joint",
        "shoulder_lift_joint",
        "elbow_joint",
        "wrist_1_joint",
        "wrist_2_joint",
        "wrist_3_joint"
    ],
    "metrics": {
        "cart_traj_len": 0.5637889577871898,
        "distance_elbow_joint": 0.059360747861301855,
        "distance_shoulder_lift_joint": 0.29592959993366774,
        "distance_shoulder_pan_joint": 0.5775553684137955,
        "distance_wrist_1_joint": 0.3199319635084341,
        "distance_wrist_2_joint": 0.9880488785362076,
        "distance_wrist_3_joint": 0.003633889959345993,
        "smoothness": 0.0,
        "time": 0.277965374,
        "traj_len": 1.4981523447943312,
        "weighted_distance": 1.8867191285869995
    },
    "planner": "BKPIECE",
    "start": {
        "state": {
            "elbow_joint": 2.0193061681459312,
            "shoulder_lift_joint": -1.1220205130644991,
            "shoulder_pan_joint": -1.0952072088045026,
            "wrist_1_joint": -0.8559671810662515,
            "wrist_2_joint": 0.4759638712940361,
            "wrist_3_joint": 3.159081874192446
        }
    },
    "waypoints": [
        {
            "positions": [
                -1.0952072088045026,
                -1.1220205130644991,
                2.0193061681459312,
                -0.8559671810662515,
                0.4759638712940361,
                3.159081874192446
            ]
        },
        {
            "positions": [
                -1.1914664368734686,
                -1.1713421130534438,
                2.0094127101690478,
                -0.8026451871481791,
                0.640638684383404,
                3.1584762258658885
            ]
        },
        {
            "positions": [
                -1.2877256649424345,
                -1.2206637130423883,
                1.9995192521921639,
                -0.7493231932301068,
                0.805313497472772,
                3.1578705775393305
            ]
        },
        {
            "positions": [
                -1.3839848930114003,
                -1.269985313031333,
                1.9896257942152804,
                -0.6960011993120344,
                0.9699883105621399,
                3.157264929212773
            ]
        },
        {
            "positions": [
                -1.4802441210803663,
                -1.3193069130202777,
                1.9797323362383967,
                -0.6426792053939621,
                1.134663123651508,
                3.1566592808862155
            ]
        },
        {
            "positions": [
                -1.5765033491493323,
                -1.3686285130092222,
                1.969838878261513,
                -0.5893572114758897,
                1.2993379367408757,
                3.1560536325596575
            ]
        },
        {
            "positions": [
                -1.6727625772182981,
                -1.4179501129981669,
                1.9599454202846294,
                -0.5360352175578174,
                1.4640127498302438,
                3.1554479842331
            ]
        }
    ]
}