{
    "goal": {
        "global_pose": {
            "orientation": {
                "w": 0.7047431468963623,
                "x": -0.7094548344612122,
                "y": 0.0024358443915843964,
                "z": -0.0022348060738295317
            },
            "position": {
                "x": 0.6094750761985779,
                "y": 0.3671506643295288,
                "z": 0.19426114857196808
            }
        },
        "name": "move_to_magneteinheit_A"
    },
    "id": "BKPIECE_move_to_magneteinheit_A_26",
    "joint_names": [
        "shoulder_pan_joint",
        "shoulder_lift_joint",
        "elbow_joint",
        "wrist_1_joint",
        "wrist_2_joint",
        "wrist_3_joint"
    ],
    "metrics": {
        "cart_traj_len": 1.8182686108852673,
        "distance_elbow_joint": 3.542068022319804,
        "distance_shoulder_lift_joint": 1.1434180361620736,
        "distance_shoulder_pan_joint": 1.2410473921990044,
        "distance_wrist_1_joint": 3.8954483833080737,
        "distance_wrist_2_joint": 1.701201489083178,
        "distance_wrist_3_joint": 1.2441478538198925,
        "smoothness": 0.004906877299846747,
        "time": 0.198279627,
        "traj_len": 3.573140240305721,
        "weighted_distance": 4.566429322449112
    },
    "planner": "BKPIECE",
    "start": {
        "state": {
            "elbow_joint": -1.5739458827952972,
            "shoulder_lift_joint": 0.006533473998580023,
            "shoulder_pan_joint": -1.1188671628667068,
            "wrist_1_joint": 3.138208179676308,
            "wrist_2_joint": -1.5706037135050406,
            "wrist_3_joint": -2.0226958329764257
        }
    },
    "waypoints": [
        {
            "positions": [
                -1.1188671628667068,
                0.006533473998580023,
                -1.5739458827952972,
                3.138208179676308,
                -1.5706037135050406,
                -2.0226958329764257
            ]
        },
        {
            "positions": [
                -1.1056962518027054,
                -0.07170653628500519,
                -1.478644625124655,
                3.013991902081663,
                -1.5021403140648146,
                -2.0206845849024306
            ]
        },
        {
            "positions": [
                -1.0925253407387039,
                -0.14994654656859038,
                -1.3833433674540128,
                2.8897756244870183,
                -1.4336769146245887,
                -2.0186733368284355
            ]
        },
        {
            "positions": [
                -1.0793544296747022,
                -0.2281865568521756,
                -1.2880421097833703,
                2.765559346892373,
                -1.3652135151843627,
                -2.0166620887544404
            ]
        },
        {
            "positions": [
                -1.0661835186107007,
                -0.30642656713576083,
                -1.192740852112728,
                2.641343069297728,
                -1.2967501157441368,
                -2.014650840680445
            ]
        },
        {
            "positions": [
                -1.0530126075466992,
                -0.38466657741934607,
                -1.0974395944420858,
                2.517126791703083,
                -1.2282867163039106,
                -2.0126395926064498
            ]
        },
        {
            "positions": [
                -1.0398416964826978,
                -0.46290658770293125,
                -1.0021383367714436,
                2.392910514108438,
                -1.1598233168636847,
                -2.0106283445324546
            ]
        },
        {
            "positions": [
                -1.026670785418696,
                -0.5411465979865164,
                -0.9068370791008012,
                2.268694236513793,
                -1.0913599174234587,
                -2.0086170964584595
            ]
        },
        {
            "positions": [
                -1.0134998743546946,
                -0.6193866082701016,
                -0.811535821430159,
                2.144477958919148,
                -1.0228965179832328,
                -2.0066058483844644
            ]
        },
        {
            "positions": [
                -1.000328963290693,
                -0.6976266185536869,
                -0.7162345637595167,
                2.020261681324503,
                -0.9544331185430067,
                -2.0045946003104693
            ]
        },
        {
            "positions": [
                -0.9871580522266916,
                -0.7758666288372721,
                -0.6209333060888744,
                1.896045403729858,
                -0.8859697191027808,
                -2.002583352236474
            ]
        },
        {
            "positions": [
                -0.97398714116269,
                -0.8541066391208573,
                -0.5256320484182322,
                1.7718291261352128,
                -0.8175063196625548,
                -2.0005721041624787
            ]
        },
        {
            "positions": [
                -0.9608162300986886,
                -0.9323466494044425,
                -0.43033079074758995,
                1.6476128485405679,
                -0.7490429202223289,
                -1.9985608560884838
            ]
        },
        {
            "positions": [
                -0.947645319034687,
                -1.0105866596880277,
                -0.3350295330769475,
                1.5233965709459227,
                -0.6805795207821028,
                -1.9965496080144884
            ]
        },
        {
            "positions": [
                -0.9344744079706855,
                -1.088826669971613,
                -0.23972827540630526,
                1.3991802933512778,
                -0.6121161213418769,
                -1.9945383599404933
            ]
        },
        {
            "positions": [
                -0.8788610060073706,
                -1.091356032718554,
                -0.12352562198889411,
                1.2856844777205914,
                -0.5730259162408234,
                -2.058537853665965
            ]
        },
        {
            "positions": [
                -0.8232476040440557,
                -1.093885395465495,
                -0.007322968571482957,
                1.1721886620899047,
                -0.53393571113977,
                -2.1225373473914364
            ]
        },
        {
            "positions": [
                -0.7676342020807407,
                -1.0964147582124362,
                0.10887968484592819,
                1.0586928464592182,
                -0.4948455060387167,
                -2.186536841116908
            ]
        },
        {
            "positions": [
                -0.712020800117426,
                -1.0989441209593773,
                0.22508233826333934,
                0.9451970308285318,
                -0.45575530093766325,
                -2.2505363348423795
            ]
        },
        {
            "positions": [
                -0.656407398154111,
                -1.1014734837063183,
                0.34128499168075055,
                0.8317012151978452,
                -0.4166650958366098,
                -2.314535828567851
            ]
        },
        {
            "positions": [
                -0.6007939961907961,
                -1.1040028464532594,
                0.45748764509816164,
                0.7182053995671588,
                -0.37757489073555645,
                -2.378535322293323
            ]
        },
        {
            "positions": [
                -0.5451805942274812,
                -1.1065322092002006,
                0.5736902985155728,
                0.6047095839364722,
                -0.338484685634503,
                -2.4425348160187945
            ]
        },
        {
            "positions": [
                -0.48956719226416634,
                -1.1090615719471415,
                0.6898929519329839,
                0.49121376830578567,
                -0.29939448053344964,
                -2.506534309744266
            ]
        },
        {
            "positions": [
                -0.43395379030085146,
                -1.1115909346940827,
                0.8060956053503952,
                0.3777179526750991,
                -0.2603042754323962,
                -2.5705338034697376
            ]
        },
        {
            "positions": [
                -0.3783403883375366,
                -1.1141202974410238,
                0.9222982587678064,
                0.26422213704441266,
                -0.22121407033134283,
                -2.634533297195209
            ]
        },
        {
            "positions": [
                -0.3227269863742216,
                -1.116649660187965,
                1.0385009121852176,
                0.150726321413726,
                -0.18212386523028934,
                -2.6985327909206807
            ]
        },
        {
            "positions": [
                -0.2671135844109067,
                -1.119179022934906,
                1.1547035656026285,
                0.03723050578303977,
                -0.14303366012923602,
                -2.762532284646152
            ]
        },
        {
            "positions": [
                -0.21150018244759183,
                -1.121708385681847,
                1.2709062190200398,
                -0.0762653098476469,
                -0.10394345502818259,
                -2.826531778371624
            ]
        },
        {
            "positions": [
                -0.15588678048427695,
                -1.1242377484287882,
                1.387108872437451,
                -0.18976112547833335,
                -0.06485324992712915,
                -2.8905312720970953
            ]
        },
        {
            "positions": [
                -0.10027337852096208,
                -1.1267671111757291,
                1.5033115258548622,
                -0.30325694110902,
                -0.02576304482607572,
                -2.9545307658225672
            ]
        },
        {
            "positions": [
                -0.044659976557647196,
                -1.1292964739226703,
                1.6195141792722731,
                -0.41675275673970646,
                0.0133271602749776,
                -3.0185302595480383
            ]
        },
        {
            "positions": [
                0.010953425405667794,
                -1.1318258366696115,
                1.7357168326896844,
                -0.5302485723703929,
                0.05241736537603103,
                -3.0825297532735103
            ]
        },
        {
            "positions": [
                0.06656682736898256,
                -1.1343551994165524,
                1.8519194861070956,
                -0.6437443880010796,
                0.09150757047708447,
                -3.146529246998982
            ]
        },
        {
            "positions": [
                0.12218022933229758,
                -1.1368845621634935,
                1.9681221395245068,
                -0.7572402036317659,
                0.13059777557813793,
                -3.2105287407244534
            ]
        }
    ]
}