{
    "goal": {
        "global_pose": {
            "orientation": {
                "w": 0.7031023480610252,
                "x": -0.7110244013736278,
                "y": 0.0077485991402295624,
                "z": 0.005598929693374583
            },
            "position": {
                "x": -0.8841497679147869,
                "y": 0.44412534475326537,
                "z": 0.3711530566215515
            }
        },
        "name": "move_to_auspresseinheit_D"
    },
    "id": "BKPIECE_move_to_auspresseinheit_D_114",
    "joint_names": [
        "shoulder_pan_joint",
        "shoulder_lift_joint",
        "elbow_joint",
        "wrist_1_joint",
        "wrist_2_joint",
        "wrist_3_joint"
    ],
    "metrics": {
        "cart_traj_len": 0.34468394418624115,
        "distance_elbow_joint": 0.6619128649839614,
        "distance_shoulder_lift_joint": 0.13436899091284626,
        "distance_shoulder_pan_joint": 0.1349220289163075,
        "distance_wrist_1_joint": 0.6150991763032478,
        "distance_wrist_2_joint": 1.4303886650666984,
        "distance_wrist_3_joint": 0.07315616427192628,
        "smoothness": 1.9737298371844314e-16,
        "time": 0.10364257300000002,
        "traj_len": 1.7463813702782642,
        "weighted_distance": 2.2894645794090778
    },
    "planner": "BKPIECE",
    "start": {
        "state": {
            "elbow_joint": -1.8275484843655228,
            "shoulder_lift_joint": -2.1267897864000416,
            "shoulder_pan_joint": -0.035127520176001514,
            "wrist_1_joint": -2.3477863256791385,
            "wrist_2_joint": -1.605890476484521,
            "wrist_3_joint": -3.0880375317375353
        }
    },
    "waypoints": [
        {
            "positions": [
                -0.035127520176001514,
                -2.1267897864000416,
                -1.8275484843655228,
                -2.3477863256791385,
                -1.605890476484521,
                -3.0880375317375353
            ]
        },
        {
            "positions": [
                -0.05199277379053995,
                -2.1435859102641475,
                -1.7448093762425276,
                -2.4246737227170443,
                -1.4270918933511836,
                -3.0788930112035446
            ]
        },
        {
            "positions": [
                -0.06885802740507839,
                -2.1603820341282534,
                -1.6620702681195323,
                -2.5015611197549505,
                -1.2482933102178464,
                -3.0697484906695536
            ]
        },
        {
            "positions": [
                -0.08572328101961682,
                -2.177178157992359,
                -1.5793311599965372,
                -2.5784485167928564,
                -1.0694947270845092,
                -3.060603970135563
            ]
        },
        {
            "positions": [
                -0.10258853463415527,
                -2.1939742818564647,
                -1.496592051873542,
                -2.655335913830762,
                -0.8906961439511718,
                -3.0514594496015723
            ]
        },
        {
            "positions": [
                -0.11945378824869371,
                -2.2107704057205706,
                -1.413852943750547,
                -2.7322233108686684,
                -0.7118975608178345,
                -3.0423149290675813
            ]
        },
        {
            "positions": [
                -0.13631904186323213,
                -2.227566529584676,
                -1.3311138356275518,
                -2.8091107079065742,
                -0.5330989776844972,
                -3.0331704085335907
            ]
        },
        {
            "positions": [
                -0.15318429547777057,
                -2.244362653448782,
                -1.2483747275045565,
                -2.8859981049444805,
                -0.3543003945511598,
                -3.0240258879995996
            ]
        },
        {
            "positions": [
                -0.17004954909230902,
                -2.261158777312888,
                -1.1656356193815613,
                -2.9628855019823863,
                -0.17550181141782256,
                -3.014881367465609
            ]
        }
    ]
}