{
    "goal": {
        "global_pose": {
            "orientation": {
                "w": 0.7047431493862688,
                "x": -0.7094548369677653,
                "y": 0.0024358444001904,
                "z": -0.0022348060817251984
            },
            "position": {
                "x": -0.39052492380142206,
                "y": 0.3671506643295288,
                "z": 0.19426114857196808
            }
        },
        "name": "move_to_magneteinheit_D"
    },
    "id": "BKPIECE_move_to_magneteinheit_D_129",
    "joint_names": [
        "shoulder_pan_joint",
        "shoulder_lift_joint",
        "elbow_joint",
        "wrist_1_joint",
        "wrist_2_joint",
        "wrist_3_joint"
    ],
    "metrics": {
        "cart_traj_len": 7.174069676642473,
        "distance_elbow_joint": 4.112279949695136,
        "distance_shoulder_lift_joint": 1.6343598652987363,
        "distance_shoulder_pan_joint": 7.933252146614242,
        "distance_wrist_1_joint": 2.4556447549888736,
        "distance_wrist_2_joint": 2.632981480472036,
        "distance_wrist_3_joint": 3.112438907155229,
        "smoothness": 0.376249407678361,
        "time": 0.212888352,
        "traj_len": 4.677708531345689,
        "weighted_distance": 5.761463455928158
    },
    "planner": "BKPIECE",
    "start": {
        "state": {
            "elbow_joint": 0.7495348899011911,
            "shoulder_lift_joint": -0.6476975780737668,
            "shoulder_pan_joint": -2.711696901376276,
            "wrist_1_joint": -0.0750647808097303,
            "wrist_2_joint": 0.43296659715458535,
            "wrist_3_joint": 3.1361499051832418
        }
    },
    "waypoints": [
        {
            "positions": [
                -2.711696901376276,
                -0.6476975780737668,
                0.7495348899011911,
                -0.0750647808097303,
                0.43296659715458535,
                3.1361499051832418
            ]
        },
        {
            "positions": [
                -2.724855205557982,
                -0.6973725904162419,
                0.7020812586931582,
                -0.07193672953292338,
                0.3991467337170028,
                3.1172096932712954
            ]
        },
        {
            "positions": [
                -2.7438952718797998,
                -0.8014323558246927,
                0.6032537532737791,
                -0.05905908589412247,
                0.32806109370554565,
                3.067086617310807
            ]
        },
        {
            "positions": [
                -2.7629353382016175,
                -0.9054921212331436,
                0.5044262478543999,
                -0.04618144225532155,
                0.2569754536940885,
                3.016963541350319
            ]
        },
        {
            "positions": [
                -2.7819754045234353,
                -1.0095518866415945,
                0.40559874243502075,
                -0.033303798616520636,
                0.1858898136826313,
                2.9668404653898306
            ]
        },
        {
            "positions": [
                -2.6076775639201286,
                -1.0147949243495737,
                0.421980662843323,
                0.03258290913292046,
                0.14634669653591198,
                2.8838133606513896
            ]
        },
        {
            "positions": [
                -2.4333797233168224,
                -1.0200379620575528,
                0.4383625832516252,
                0.09846961688236155,
                0.10680357938919267,
                2.800786255912948
            ]
        },
        {
            "positions": [
                -2.2590818827135157,
                -1.025280999765532,
                0.4547445036599274,
                0.16435632463180264,
                0.06726046224247335,
                2.7177591511745067
            ]
        },
        {
            "positions": [
                -2.084784042110209,
                -1.0305240374735114,
                0.4711264240682297,
                0.23024303238124375,
                0.027717345095754048,
                2.6347320464360657
            ]
        },
        {
            "positions": [
                -1.9104862015069028,
                -1.0357670751814905,
                0.4875083444765319,
                0.2961297401306848,
                -0.011825772050965244,
                2.5517049416976247
            ]
        },
        {
            "positions": [
                -1.7361883609035962,
                -1.0410101128894698,
                0.5038902648848341,
                0.3620164478801259,
                -0.05136888919768459,
                2.4686778369591833
            ]
        },
        {
            "positions": [
                -1.5618905203002897,
                -1.046253150597449,
                0.5202721852931363,
                0.42790315562956704,
                -0.09091200634440388,
                2.385650732220742
            ]
        },
        {
            "positions": [
                -1.387592679696983,
                -1.0514961883054281,
                0.5366541057014386,
                0.4937898633790081,
                -0.1304551234911232,
                2.302623627482301
            ]
        },
        {
            "positions": [
                -1.2132948390936766,
                -1.0567392260134074,
                0.5530360261097408,
                0.5596765711284492,
                -0.16999824063784252,
                2.21959652274386
            ]
        },
        {
            "positions": [
                -1.0389969984903702,
                -1.0619822637213867,
                0.569417946518043,
                0.6255632788778902,
                -0.2095413577845618,
                2.1365694180054184
            ]
        },
        {
            "positions": [
                -0.8646991578870638,
                -1.0672253014293658,
                0.5857998669263452,
                0.6914499866273313,
                -0.2490844749312811,
                2.0535423132669774
            ]
        },
        {
            "positions": [
                -0.6904013172837571,
                -1.072468339137345,
                0.6021817873346474,
                0.7573366943767724,
                -0.2886275920780005,
                1.970515208528536
            ]
        },
        {
            "positions": [
                -0.5161034766804504,
                -1.0777113768453244,
                0.6185637077429497,
                0.8232234021262136,
                -0.32817070922471975,
                1.8874881037900948
            ]
        },
        {
            "positions": [
                -0.3418056360771442,
                -1.0829544145533034,
                0.6349456281512519,
                0.8891101098756546,
                -0.36771382637143907,
                1.8044609990516536
            ]
        },
        {
            "positions": [
                -0.16750779547383754,
                -1.0881974522612827,
                0.6513275485595541,
                0.9549968176250957,
                -0.4072569435181584,
                1.7214338943132124
            ]
        },
        {
            "positions": [
                0.006790045129469124,
                -1.093440489969262,
                0.6677094689678564,
                1.020883525374537,
                -0.4468000606648777,
                1.6384067895747711
            ]
        },
        {
            "positions": [
                0.18108788573277534,
                -1.098683527677241,
                0.6840913893761587,
                1.086770233123978,
                -0.486343177811597,
                1.55537968483633
            ]
        },
        {
            "positions": [
                0.355385726336082,
                -1.1039265653852204,
                0.7004733097844609,
                1.152656940873419,
                -0.5258862949583163,
                1.4723525800978887
            ]
        },
        {
            "positions": [
                0.5296835669393882,
                -1.1091696030931997,
                0.7168552301927631,
                1.21854364862286,
                -0.5654294121050356,
                1.3893254753594475
            ]
        },
        {
            "positions": [
                0.7039814075426949,
                -1.1144126408011787,
                0.7332371506010653,
                1.2844303563723012,
                -0.6049725292517549,
                1.3062983706210063
            ]
        },
        {
            "positions": [
                0.8782792481460011,
                -1.119655678509158,
                0.7496190710093675,
                1.3503170641217423,
                -0.6445156463984743,
                1.223271265882565
            ]
        },
        {
            "positions": [
                1.0525770887493078,
                -1.1248987162171373,
                0.7660009914176698,
                1.4162037718711833,
                -0.6840587635451936,
                1.140244161144124
            ]
        },
        {
            "positions": [
                1.2268749293526149,
                -1.1301417539251164,
                0.782382911825972,
                1.4820904796206247,
                -0.7236018806919129,
                1.0572170564056824
            ]
        },
        {
            "positions": [
                1.401172769955921,
                -1.1353847916330957,
                0.7987648322342742,
                1.5479771873700656,
                -0.7631449978386322,
                0.9741899516672414
            ]
        },
        {
            "positions": [
                1.5754706105592282,
                -1.140627829341075,
                0.8151467526425764,
                1.6138638951195068,
                -0.8026881149853515,
                0.8911628469288
            ]
        },
        {
            "positions": [
                1.7497684511625344,
                -1.145870867049054,
                0.8315286730508786,
                1.679750602868948,
                -0.8422312321320709,
                0.808135742190359
            ]
        },
        {
            "positions": [
                1.9240662917658407,
                -1.1511139047570333,
                0.8479105934591809,
                1.745637310618389,
                -0.8817743492787902,
                0.7251086374519176
            ]
        },
        {
            "positions": [
                2.098364132369147,
                -1.1563569424650126,
                0.8642925138674831,
                1.81152401836783,
                -0.9213174664255095,
                0.6420815327134766
            ]
        },
        {
            "positions": [
                2.272661972972454,
                -1.1615999801729917,
                0.8806744342757853,
                1.877410726117271,
                -0.9608605835722288,
                0.5590544279750351
            ]
        },
        {
            "positions": [
                2.44695981357576,
                -1.166843017880971,
                0.8970563546840875,
                1.9432974338667122,
                -1.0004037007189481,
                0.47602732323659414
            ]
        },
        {
            "positions": [
                2.3331692100570662,
                -1.2150056165344478,
                0.7552362893215336,
                1.9245069794272125,
                -0.9485360338097599,
                0.45671656300317265
            ]
        },
        {
            "positions": [
                2.2193786065383723,
                -1.2631682151879247,
                0.6134162239589797,
                1.9057165249877126,
                -0.8966683669005718,
                0.4374058027697511
            ]
        },
        {
            "positions": [
                2.1055880030196783,
                -1.3113308138414015,
                0.47159615859642573,
                1.886926070548213,
                -0.8448006999913836,
                0.4180950425363296
            ]
        },
        {
            "positions": [
                1.9917973995009841,
                -1.3594934124948783,
                0.3297760932338718,
                1.8681356161087133,
                -0.7929330330821955,
                0.3987842823029081
            ]
        },
        {
            "positions": [
                1.8780067959822901,
                -1.4076560111483551,
                0.18795602787131782,
                1.8493451616692136,
                -0.7410653661730073,
                0.3794735220694866
            ]
        },
        {
            "positions": [
                1.764216192463596,
                -1.455818609801832,
                0.04613596250876395,
                1.8305547072297137,
                -0.6891976992638191,
                0.3601627618360651
            ]
        },
        {
            "positions": [
                1.650425588944902,
                -1.503981208455309,
                -0.09568410285379014,
                1.811764252790214,
                -0.637330032354631,
                0.34085200160264356
            ]
        },
        {
            "positions": [
                1.536634985426208,
                -1.5521438071087856,
                -0.2375041682163439,
                1.7929737983507144,
                -0.585462365445443,
                0.3215412413692221
            ]
        },
        {
            "positions": [
                1.4228443819075138,
                -1.6003064057622627,
                -0.379324233578898,
                1.7741833439112145,
                -0.5335946985362547,
                0.30223048113580053
            ]
        },
        {
            "positions": [
                1.30905377838882,
                -1.6484690044157393,
                -0.5211442989414519,
                1.7553928894717148,
                -0.48172703162706654,
                0.28291972090237905
            ]
        },
        {
            "positions": [
                1.195263174870126,
                -1.6966316030692163,
                -0.662964364304006,
                1.7366024350322151,
                -0.42985936471787844,
                0.26360896066895756
            ]
        },
        {
            "positions": [
                1.081472571351432,
                -1.744794201722693,
                -0.8047844296665596,
                1.7178119805927152,
                -0.37799169780869024,
                0.24429820043553604
            ]
        },
        {
            "positions": [
                0.967681967832738,
                -1.79295680037617,
                -0.9466044950291135,
                1.6990215261532156,
                -0.32612403089950215,
                0.22498744020211453
            ]
        },
        {
            "positions": [
                0.8538913643140438,
                -1.8411193990296468,
                -1.0884245603916678,
                1.6802310717137159,
                -0.27425636399031394,
                0.205676679968693
            ]
        },
        {
            "positions": [
                0.7401007607953498,
                -1.8892819976831237,
                -1.2302446257542217,
                1.661440617274216,
                -0.22238869708112574,
                0.1863659197352715
            ]
        },
        {
            "positions": [
                0.6263101572766558,
                -1.9374445963366003,
                -1.3720646911167753,
                1.6426501628347163,
                -0.17052103017193765,
                0.16705515950185001
            ]
        },
        {
            "positions": [
                0.5125195537579619,
                -1.9856071949900773,
                -1.5138847564793294,
                1.6238597083952166,
                -0.11865336326274956,
                0.14774439926842853
            ]
        },
        {
            "positions": [
                0.39872895023926747,
                -2.033769793643554,
                -1.6557048218418835,
                1.6050692539557168,
                -0.06678569635356124,
                0.12843363903500699
            ]
        },
        {
            "positions": [
                0.2849383467205735,
                -2.081932392297031,
                -1.7975248872044371,
                1.586278799516217,
                -0.014918029444373149,
                0.1091228788015855
            ]
        },
        {
            "positions": [
                0.17114774320187998,
                -2.1300949909505076,
                -1.9393449525669912,
                1.5674883450767174,
                0.036949637464815055,
                0.08981211856816396
            ]
        },
        {
            "positions": [
                0.05735713968318601,
                -2.1782575896039846,
                -2.081165017929545,
                1.5486978906372177,
                0.08881730437400304,
                0.07050135833474247
            ]
        },
        {
            "positions": [
                -0.0564334638355084,
                -2.2264201882574612,
                -2.2229850832920994,
                1.5299074361977179,
                0.14068497128319124,
                0.05119059810132093
            ]
        },
        {
            "positions": [
                -0.1702240673542022,
                -2.2745827869109383,
                -2.364805148654653,
                1.5111169817582182,
                0.1925526381923794,
                0.03187983786789943
            ]
        },
        {
            "positions": [
                -0.18707861179212434,
                -2.282057443372503,
                -2.379829835295812,
                1.5060148935542805,
                0.1858977945052034,
                0.023710998028012083
            ]
        }
    ]
}