{
    "goal": {
        "global_pose": {
            "orientation": {
                "w": 0.7047431493862688,
                "x": -0.7094548369677653,
                "y": 0.0024358444001904,
                "z": -0.0022348060817251984
            },
            "position": {
                "x": -0.39052492380142206,
                "y": 0.3671506643295288,
                "z": 0.19426114857196808
            }
        },
        "name": "move_to_magneteinheit_D"
    },
    "id": "BKPIECE_move_to_magneteinheit_D_89",
    "joint_names": [
        "shoulder_pan_joint",
        "shoulder_lift_joint",
        "elbow_joint",
        "wrist_1_joint",
        "wrist_2_joint",
        "wrist_3_joint"
    ],
    "metrics": {
        "cart_traj_len": 4.173798476610696,
        "distance_elbow_joint": 3.116839539752337,
        "distance_shoulder_lift_joint": 1.484743377328798,
        "distance_shoulder_pan_joint": 2.9222751864925094,
        "distance_wrist_1_joint": 5.6401062339604415,
        "distance_wrist_2_joint": 1.223413847063352,
        "distance_wrist_3_joint": 5.502427843412148,
        "smoothness": 0.3044924180663304,
        "time": 0.347550723,
        "traj_len": 4.459798877529074,
        "weighted_distance": 6.144768652753144
    },
    "planner": "BKPIECE",
    "start": {
        "state": {
            "elbow_joint": 0.7495348899011911,
            "shoulder_lift_joint": -0.6476975780737668,
            "shoulder_pan_joint": -2.711696901376276,
            "wrist_1_joint": -0.0750647808097303,
            "wrist_2_joint": 0.43296659715458535,
            "wrist_3_joint": 3.1361499051832418
        }
    },
    "waypoints": [
        {
            "positions": [
                -2.711696901376276,
                -0.6476975780737668,
                0.7495348899011911,
                -0.0750647808097303,
                0.43296659715458535,
                3.1361499051832418
            ]
        },
        {
            "positions": [
                -2.7109331855996577,
                -0.6336316429595229,
                0.7114249344464136,
                0.04305745137982567,
                0.4565442971454002,
                2.9682492703908485
            ]
        },
        {
            "positions": [
                -2.7101694698230396,
                -0.619565707845279,
                0.6733149789916363,
                0.16117968356938162,
                0.480121997136215,
                2.8003486355984553
            ]
        },
        {
            "positions": [
                -2.709405754046421,
                -0.605499772731035,
                0.6352050235368589,
                0.2793019157589376,
                0.5036996971270299,
                2.632448000806062
            ]
        },
        {
            "positions": [
                -2.7086420382698027,
                -0.591433837616791,
                0.5970950680820815,
                0.39742414794849357,
                0.5272773971178447,
                2.4645473660136687
            ]
        },
        {
            "positions": [
                -2.7078783224931846,
                -0.5773679025025471,
                0.558985112627304,
                0.5155463801380494,
                0.5508550971086595,
                2.2966467312212755
            ]
        },
        {
            "positions": [
                -2.707114606716566,
                -0.5633019673883031,
                0.5208751571725266,
                0.6336686123276054,
                0.5744327970994744,
                2.1287460964288822
            ]
        },
        {
            "positions": [
                -2.706350890939948,
                -0.5492360322740591,
                0.4827652017177492,
                0.7517908445171614,
                0.5980104970902892,
                1.9608454616364892
            ]
        },
        {
            "positions": [
                -2.7055871751633296,
                -0.5351700971598152,
                0.4446552462629718,
                0.8699130767067174,
                0.621588197081104,
                1.792944826844096
            ]
        },
        {
            "positions": [
                -2.7047493791155865,
                -0.5233226815984369,
                0.39593753480988925,
                0.9889988398647889,
                0.637815645224951,
                1.5964657191102218
            ]
        },
        {
            "positions": [
                -2.7039115830678435,
                -0.5114752660370585,
                0.3472198233568067,
                1.1080846030228604,
                0.654043093368798,
                1.3999866113763475
            ]
        },
        {
            "positions": [
                -2.7030737870201005,
                -0.4996278504756801,
                0.2985021119037241,
                1.227170366180932,
                0.670270541512645,
                1.2035075036424734
            ]
        },
        {
            "positions": [
                -2.7022359909723574,
                -0.48778043491430173,
                0.24978440045064149,
                1.3462561293390034,
                0.686497989656492,
                1.0070283959085993
            ]
        },
        {
            "positions": [
                -2.7013981949246144,
                -0.4759330193529233,
                0.2010666889975589,
                1.4653418924970751,
                0.702725437800339,
                0.8105492881747249
            ]
        },
        {
            "positions": [
                -2.7005603988768714,
                -0.46408560379154495,
                0.15234897754447635,
                1.5844276556551464,
                0.7189528859441859,
                0.6140701804408508
            ]
        },
        {
            "positions": [
                -2.6997226028291283,
                -0.4522381882301666,
                0.10363126609139375,
                1.7035134188132182,
                0.735180334088033,
                0.4175910727069764
            ]
        },
        {
            "positions": [
                -2.6387721188740896,
                -0.4902374437138616,
                0.03283348484720981,
                1.5711810912017934,
                0.6794681099097054,
                0.413576335087357
            ]
        },
        {
            "positions": [
                -2.5778216349190513,
                -0.5282366991975566,
                -0.03796429639697413,
                1.4388487635903684,
                0.6237558857313779,
                0.4095615974677376
            ]
        },
        {
            "positions": [
                -2.5168711509640125,
                -0.5662359546812515,
                -0.10876207764115808,
                1.3065164359789434,
                0.5680436615530503,
                0.4055468598481183
            ]
        },
        {
            "positions": [
                -2.455920667008974,
                -0.6042352101649465,
                -0.179559858885342,
                1.1741841083675186,
                0.5123314373747228,
                0.4015321222284989
            ]
        },
        {
            "positions": [
                -2.3949701830539354,
                -0.6422344656486415,
                -0.250357640129526,
                1.0418517807560936,
                0.45661921319639515,
                0.39751738460887953
            ]
        },
        {
            "positions": [
                -2.334019699098897,
                -0.6802337211323365,
                -0.3211554213737099,
                0.9095194531446689,
                0.4009069890180676,
                0.39350264698926013
            ]
        },
        {
            "positions": [
                -2.2730692151438583,
                -0.7182329766160315,
                -0.3919532026178939,
                0.7771871255332439,
                0.34519476483974,
                0.3894879093696408
            ]
        },
        {
            "positions": [
                -2.21211873118882,
                -0.7562322320997265,
                -0.4627509838620778,
                0.6448547979218191,
                0.2894825406614125,
                0.3854731717500214
            ]
        },
        {
            "positions": [
                -2.151168247233781,
                -0.7942314875834214,
                -0.5335487651062618,
                0.5125224703103942,
                0.23377031648308488,
                0.38145843413040204
            ]
        },
        {
            "positions": [
                -2.041596821891477,
                -0.830563624971567,
                -0.5801196312525894,
                0.4243379938120456,
                0.22419269784057577,
                0.47825289670851595
            ]
        },
        {
            "positions": [
                -1.932025396549173,
                -0.8668957623597127,
                -0.6266904973989169,
                0.3361535173136971,
                0.21461507919806666,
                0.5750473592866299
            ]
        },
        {
            "positions": [
                -1.8224539712068688,
                -0.9032278997478582,
                -0.6732613635452445,
                0.24796904081534848,
                0.20503746055555752,
                0.6718418218647437
            ]
        },
        {
            "positions": [
                -1.7128825458645647,
                -0.9395600371360039,
                -0.719832229691572,
                0.15978456431699994,
                0.1954598419130484,
                0.7686362844428576
            ]
        },
        {
            "positions": [
                -1.6033111205222603,
                -0.9758921745241494,
                -0.7664030958378996,
                0.07160008781865135,
                0.1858822232705393,
                0.8654307470209716
            ]
        },
        {
            "positions": [
                -1.4937396951799564,
                -1.0122243119122951,
                -0.8129739619842271,
                -0.01658438867969725,
                0.17630460462803016,
                0.9622252095990854
            ]
        },
        {
            "positions": [
                -1.3841682698376523,
                -1.0485564493004407,
                -0.8595448281305546,
                -0.10476886517804573,
                0.16672698598552105,
                1.0590196721771994
            ]
        },
        {
            "positions": [
                -1.2745968444953482,
                -1.0848885866885862,
                -0.9061156942768821,
                -0.19295334167639433,
                0.15714936734301194,
                1.1558141347553132
            ]
        },
        {
            "positions": [
                -1.1650254191530438,
                -1.1212207240767318,
                -0.9526865604232096,
                -0.2811378181747429,
                0.14757174870050283,
                1.252608597333427
            ]
        },
        {
            "positions": [
                -1.0554539938107397,
                -1.1575528614648776,
                -0.9992574265695372,
                -0.3693222946730915,
                0.1379941300579937,
                1.3494030599115412
            ]
        },
        {
            "positions": [
                -0.9458825684684355,
                -1.1938849988530231,
                -1.0458282927158646,
                -0.4575067711714401,
                0.12841651141548457,
                1.4461975224896548
            ]
        },
        {
            "positions": [
                -0.8363111431261314,
                -1.2302171362411687,
                -1.0923991588621922,
                -0.5456912476697887,
                0.11883889277297546,
                1.542991985067769
            ]
        },
        {
            "positions": [
                -0.7267397177838275,
                -1.2665492736293142,
                -1.1389700250085197,
                -0.6338757241681371,
                0.10926127413046635,
                1.6397864476458826
            ]
        },
        {
            "positions": [
                -0.6171682924415234,
                -1.3028814110174598,
                -1.1855408911548473,
                -0.7220602006664857,
                0.09968365548795724,
                1.7365809102239966
            ]
        },
        {
            "positions": [
                -0.507596867099219,
                -1.3392135484056054,
                -1.2321117573011748,
                -0.8102446771648343,
                0.09010603684544813,
                1.8333753728021103
            ]
        },
        {
            "positions": [
                -0.3980254417569149,
                -1.3755456857937511,
                -1.2786826234475024,
                -0.8984291536631829,
                0.08052841820293899,
                1.9301698353802244
            ]
        },
        {
            "positions": [
                -0.28845401641461077,
                -1.4118778231818967,
                -1.32525348959383,
                -0.9866136301615315,
                0.07095079956042986,
                2.0269642979583384
            ]
        },
        {
            "positions": [
                -0.2584281485169853,
                -1.4427717882630473,
                -1.4049696138975813,
                -1.0914706862713879,
                0.048661189735856175,
                2.1277900839768966
            ]
        },
        {
            "positions": [
                -0.22840228061935985,
                -1.4736657533441977,
                -1.484685738201333,
                -1.1963277423812444,
                0.02637157991128248,
                2.228615869995455
            ]
        },
        {
            "positions": [
                -0.1983764127217344,
                -1.504559718425348,
                -1.5644018625050844,
                -1.301184798491101,
                0.004081970086708797,
                2.329441656014013
            ]
        },
        {
            "positions": [
                -0.1683505448241089,
                -1.5354536835064987,
                -1.644117986808836,
                -1.4060418546009574,
                -0.018207639737864906,
                2.430267442032571
            ]
        },
        {
            "positions": [
                -0.13832467692648345,
                -1.5663476485876493,
                -1.7238341111125874,
                -1.510898910710814,
                -0.040497249562438595,
                2.5310932280511294
            ]
        },
        {
            "positions": [
                -0.108298809028858,
                -1.5972416136687997,
                -1.8035502354163389,
                -1.6157559668206702,
                -0.06278685938701227,
                2.6319190140696875
            ]
        },
        {
            "positions": [
                -0.07827294113123254,
                -1.62813557874995,
                -1.8832663597200905,
                -1.7206130229305268,
                -0.08507646921158597,
                2.7327448000882457
            ]
        },
        {
            "positions": [
                -0.04824707323360705,
                -1.6590295438311007,
                -1.9629824840238421,
                -1.8254700790403833,
                -0.10736607903615968,
                2.833570586106804
            ]
        },
        {
            "positions": [
                -0.018221205335981594,
                -1.6899235089122513,
                -2.0426986083275933,
                -1.9303271351502398,
                -0.12965568886073336,
                2.934396372125362
            ]
        },
        {
            "positions": [
                0.011804662561643878,
                -1.7208174739934017,
                -2.122414732631345,
                -2.0351841912600963,
                -0.15194529868530704,
                3.0352221581439203
            ]
        },
        {
            "positions": [
                -0.0875821487156503,
                -1.731169824854383,
                -2.244859691241245,
                -2.096599403392188,
                -0.16898253736358865,
                3.0822084823168154
            ]
        },
        {
            "positions": [
                -0.18696895999294447,
                -1.7415221757153643,
                -2.367304649851145,
                -2.1580146155242796,
                -0.18601977604187023,
                3.1291948064897106
            ]
        }
    ]
}