{
    "goal": {
        "global_pose": {
            "orientation": {
                "w": 0.5084816217422485,
                "x": -0.49083608388900757,
                "y": 0.5182115435600281,
                "z": -0.4816462993621826
            },
            "position": {
                "x": 0.5540239810943604,
                "y": 0.030875300988554955,
                "z": 0.16403168439865112
            }
        },
        "name": "move_to_storage_A"
    },
    "id": "BKPIECE_move_to_storage_A_139",
    "joint_names": [
        "shoulder_pan_joint",
        "shoulder_lift_joint",
        "elbow_joint",
        "wrist_1_joint",
        "wrist_2_joint",
        "wrist_3_joint"
    ],
    "metrics": {
        "cart_traj_len": 0.353158487670236,
        "distance_elbow_joint": 0.45155212881506546,
        "distance_shoulder_lift_joint": 0.23363708457541832,
        "distance_shoulder_pan_joint": 0.45933966857362996,
        "distance_wrist_1_joint": 0.2561389314154914,
        "distance_wrist_2_joint": 1.1088548449953217,
        "distance_wrist_3_joint": 0.09284357877177296,
        "smoothness": 8.881784197001252e-16,
        "time": 0.217971022,
        "traj_len": 1.6131851217844466,
        "weighted_distance": 2.0379026402409557
    },
    "planner": "BKPIECE",
    "start": {
        "state": {
            "elbow_joint": 1.971548880431181,
            "shoulder_lift_joint": -1.1394869514688781,
            "shoulder_pan_joint": 0.12281150262730567,
            "wrist_1_joint": -0.7804693444481463,
            "wrist_2_joint": 0.12958644648617612,
            "wrist_3_joint": 3.0906942077768043
        }
    },
    "waypoints": [
        {
            "positions": [
                0.12281150262730567,
                -1.1394869514688781,
                1.971548880431181,
                -0.7804693444481463,
                0.12958644648617612,
                3.0906942077768043
            ]
        },
        {
            "positions": [
                0.05719154997392996,
                -1.1728636778367951,
                2.036056327404762,
                -0.8170606203646451,
                0.28799428148550776,
                3.103957576172772
            ]
        },
        {
            "positions": [
                -0.008428402679445751,
                -1.206240404204712,
                2.1005637743783425,
                -0.8536518962811438,
                0.44640211648483946,
                3.1172209445687393
            ]
        },
        {
            "positions": [
                -0.07404835533282145,
                -1.239617130572629,
                2.165071221351923,
                -0.8902431721976426,
                0.6048099514841712,
                3.130484312964707
            ]
        },
        {
            "positions": [
                -0.13966830798619717,
                -1.2729938569405457,
                2.229578668325504,
                -0.9268344481141414,
                0.7632177864835028,
                3.1437476813606744
            ]
        },
        {
            "positions": [
                -0.2052882606395729,
                -1.3063705833084627,
                2.294086115299085,
                -0.9634257240306401,
                0.9216256214828346,
                3.157011049756642
            ]
        },
        {
            "positions": [
                -0.27090821329294856,
                -1.3397473096763794,
                2.3585935622726657,
                -1.0000169999471389,
                1.080033456482166,
                3.1702744181526095
            ]
        },
        {
            "positions": [
                -0.3365281659463243,
                -1.3731240360442964,
                2.4231010092462464,
                -1.0366082758636377,
                1.238441291481498,
                3.183537786548577
            ]
        }
    ]
}