{
    "goal": {
        "global_pose": {
            "orientation": {
                "w": 0.7031023480610252,
                "x": -0.7110244013736278,
                "y": 0.0077485991402295624,
                "z": 0.005598929693374583
            },
            "position": {
                "x": -0.8841497679147869,
                "y": 0.44412534475326537,
                "z": 0.3711530566215515
            }
        },
        "name": "move_to_auspresseinheit_D"
    },
    "id": "BKPIECE_move_to_auspresseinheit_D_60",
    "joint_names": [
        "shoulder_pan_joint",
        "shoulder_lift_joint",
        "elbow_joint",
        "wrist_1_joint",
        "wrist_2_joint",
        "wrist_3_joint"
    ],
    "metrics": {
        "cart_traj_len": 0.34451576875545775,
        "distance_elbow_joint": 0.6512428412311715,
        "distance_shoulder_lift_joint": 0.12757908412567787,
        "distance_shoulder_pan_joint": 0.1338583455039139,
        "distance_wrist_1_joint": 0.5643685003368364,
        "distance_wrist_2_joint": 1.447303275234946,
        "distance_wrist_3_joint": 0.02161300963570234,
        "smoothness": 0.0,
        "time": 0.21616339199999998,
        "traj_len": 1.7163813842116349,
        "weighted_distance": 2.2362609085058556
    },
    "planner": "BKPIECE",
    "start": {
        "state": {
            "elbow_joint": -1.8275484843655228,
            "shoulder_lift_joint": -2.1267897864000416,
            "shoulder_pan_joint": -0.035127520176001514,
            "wrist_1_joint": -2.3477863256791385,
            "wrist_2_joint": -1.605890476484521,
            "wrist_3_joint": -3.0880375317375353
        }
    },
    "waypoints": [
        {
            "positions": [
                -0.035127520176001514,
                -2.1267897864000416,
                -1.8275484843655228,
                -2.3477863256791385,
                -1.605890476484521,
                -3.0880375317375353
            ]
        },
        {
            "positions": [
                -0.05185981336399075,
                -2.1427371719157513,
                -1.7461431292116263,
                -2.418332388221243,
                -1.4249775670801528,
                -3.0853359055330722
            ]
        },
        {
            "positions": [
                -0.06859210655197999,
                -2.158684557431461,
                -1.6647377740577298,
                -2.4888784507633477,
                -1.2440646576757846,
                -3.0826342793286097
            ]
        },
        {
            "positions": [
                -0.08532439973996922,
                -2.1746319429471708,
                -1.5833324189038334,
                -2.5594245133054523,
                -1.0631517482714163,
                -3.079932653124147
            ]
        },
        {
            "positions": [
                -0.10205669292795846,
                -2.1905793284628805,
                -1.5019270637499371,
                -2.6299705758475564,
                -0.882238838867048,
                -3.077231026919684
            ]
        },
        {
            "positions": [
                -0.11878898611594771,
                -2.2065267139785902,
                -1.4205217085960404,
                -2.700516638389661,
                -0.7013259294626798,
                -3.074529400715221
            ]
        },
        {
            "positions": [
                -0.13552127930393693,
                -2.2224740994943,
                -1.3391163534421442,
                -2.7710627009317657,
                -0.5204130200583115,
                -3.0718277745107585
            ]
        },
        {
            "positions": [
                -0.15225357249192617,
                -2.2384214850100097,
                -1.2577109982882477,
                -2.8416087634738703,
                -0.33950011065394325,
                -3.069126148306296
            ]
        },
        {
            "positions": [
                -0.16898586567991541,
                -2.2543688705257194,
                -1.1763056431343513,
                -2.912154826015975,
                -0.15858720124957504,
                -3.066424522101833
            ]
        }
    ]
}