{
    "goal": {
        "global_pose": {
            "orientation": {
                "w": -0.00223480608172531,
                "x": 0.0024358444001904467,
                "y": 0.7094548369677653,
                "z": -0.704743149386269
            },
            "position": {
                "x": -0.37947507619857795,
                "y": -0.6371506643295288,
                "z": 0.19426114857196808
            }
        },
        "name": "move_to_magneteinheit_C"
    },
    "id": "BKPIECE_move_to_magneteinheit_C_118",
    "joint_names": [
        "shoulder_pan_joint",
        "shoulder_lift_joint",
        "elbow_joint",
        "wrist_1_joint",
        "wrist_2_joint",
        "wrist_3_joint"
    ],
    "metrics": {
        "cart_traj_len": 2.487915285657312,
        "distance_elbow_joint": 1.4962548394295945,
        "distance_shoulder_lift_joint": 0.6646293013907933,
        "distance_shoulder_pan_joint": 2.2368349664726295,
        "distance_wrist_1_joint": 1.1296727455756783,
        "distance_wrist_2_joint": 2.1825982135643587,
        "distance_wrist_3_joint": 5.448404547052904,
        "smoothness": 1.4029014312561354,
        "time": 0.40242590999999994,
        "traj_len": 3.6274501531359404,
        "weighted_distance": 5.231393186019552
    },
    "planner": "BKPIECE",
    "start": {
        "state": {
            "elbow_joint": 1.9565354006593851,
            "shoulder_lift_joint": -1.4165861576512813,
            "shoulder_pan_joint": -1.6717766223278752,
            "wrist_1_joint": -0.528663328821883,
            "wrist_2_joint": 1.472756589259273,
            "wrist_3_joint": 3.159348288315503
        }
    },
    "waypoints": [
        {
            "positions": [
                -1.6717766223278752,
                -1.4165861576512813,
                1.9565354006593851,
                -0.528663328821883,
                1.472756589259273,
                3.159348288315503
            ]
        },
        {
            "positions": [
                -1.6221017772943145,
                -1.4290998983127279,
                1.9605701705944871,
                -0.5252810173772225,
                1.4748139132514049,
                3.158149959388808
            ]
        },
        {
            "positions": [
                -1.5576214423821604,
                -1.4624799579924854,
                1.9315182533317696,
                -0.5666244569116625,
                1.4324029332273667,
                2.9999659788018267
            ]
        },
        {
            "positions": [
                -1.5632223625209596,
                -1.4785692103317467,
                1.9046627877610256,
                -0.6351860306192345,
                1.3896735552662984,
                2.79768901260274
            ]
        },
        {
            "positions": [
                -1.5688232826597588,
                -1.4946584626710082,
                1.8778073221902816,
                -0.7037476043268065,
                1.3469441773052302,
                2.5954120464036525
            ]
        },
        {
            "positions": [
                -1.574424202798558,
                -1.5107477150102695,
                1.8509518566195375,
                -0.7723091780343785,
                1.304214799344162,
                2.3931350802045657
            ]
        },
        {
            "positions": [
                -1.5800251229373572,
                -1.5268369673495308,
                1.8240963910487935,
                -0.8408707517419506,
                1.2614854213830937,
                2.1908581140054784
            ]
        },
        {
            "positions": [
                -1.5856260430761564,
                -1.542926219688792,
                1.7972409254780493,
                -0.9094323254495226,
                1.2187560434220255,
                1.9885811478063915
            ]
        },
        {
            "positions": [
                -1.5912269632149556,
                -1.5590154720280536,
                1.7703854599073052,
                -0.9779938991570946,
                1.1760266654609575,
                1.7863041816073044
            ]
        },
        {
            "positions": [
                -1.5968278833537548,
                -1.5751047243673149,
                1.7435299943365612,
                -1.0465554728646667,
                1.1332972874998892,
                1.5840272154082176
            ]
        },
        {
            "positions": [
                -1.602428803492554,
                -1.5911939767065761,
                1.7166745287658172,
                -1.1151170465722386,
                1.090567909538821,
                1.3817502492091303
            ]
        },
        {
            "positions": [
                -1.6080297236313532,
                -1.6072832290458376,
                1.6898190631950731,
                -1.1836786202798106,
                1.0478385315777528,
                1.1794732830100434
            ]
        },
        {
            "positions": [
                -1.6136306437701524,
                -1.623372481385099,
                1.662963597624329,
                -1.2522401939873826,
                1.0051091536166845,
                0.9771963168109563
            ]
        },
        {
            "positions": [
                -1.7261463643960882,
                -1.622237070810795,
                1.6306230647951623,
                -1.2491285182782281,
                0.9347930814213782,
                1.151775557011687
            ]
        },
        {
            "positions": [
                -1.8386620850220239,
                -1.621101660236491,
                1.5982825319659955,
                -1.2460168425690734,
                0.8644770092260717,
                1.3263547972124177
            ]
        },
        {
            "positions": [
                -1.9511778056479596,
                -1.619966249662187,
                1.5659419991368289,
                -1.242905166859919,
                0.7941609370307654,
                1.5009340374131486
            ]
        },
        {
            "positions": [
                -2.0636935262738954,
                -1.618830839087883,
                1.533601466307662,
                -1.2397934911507644,
                0.723844864835459,
                1.675513277613879
            ]
        },
        {
            "positions": [
                -2.1762092468998313,
                -1.617695428513579,
                1.5012609334784952,
                -1.2366818154416097,
                0.6535287926401526,
                1.85009251781461
            ]
        },
        {
            "positions": [
                -2.288724967525767,
                -1.616560017939275,
                1.4689204006493284,
                -1.2335701397324552,
                0.5832127204448463,
                2.024671758015341
            ]
        },
        {
            "positions": [
                -2.4012406881517028,
                -1.6154246073649707,
                1.4365798678201618,
                -1.2304584640233007,
                0.5128966482495398,
                2.199250998216071
            ]
        },
        {
            "positions": [
                -2.5137564087776383,
                -1.6142891967906667,
                1.404239334990995,
                -1.2273467883141462,
                0.4425805760542335,
                2.3738302384168017
            ]
        },
        {
            "positions": [
                -2.6262721294035742,
                -1.6131537862163627,
                1.3718988021618281,
                -1.2242351126049915,
                0.3722645038589272,
                2.5484094786175326
            ]
        },
        {
            "positions": [
                -2.73878785002951,
                -1.6120183756420587,
                1.3395582693326613,
                -1.221123436895837,
                0.30194843166362073,
                2.7229887188182635
            ]
        },
        {
            "positions": [
                -2.8513035706554457,
                -1.6108829650677547,
                1.3072177365034947,
                -1.2180117611866825,
                0.2316323594683144,
                2.897567959018994
            ]
        },
        {
            "positions": [
                -2.963819291281381,
                -1.6097475544934507,
                1.2748772036743279,
                -1.2149000854775278,
                0.16131628727300795,
                3.072147199219725
            ]
        },
        {
            "positions": [
                -3.076335011907317,
                -1.6086121439191468,
                1.242536670845161,
                -1.2117884097683733,
                0.09100021507770156,
                3.2467264394204554
            ]
        },
        {
            "positions": [
                -3.0112739925841945,
                -1.5597123656631537,
                1.3219413849663828,
                -1.18461445017027,
                0.168208758415066,
                3.1855888586208243
            ]
        },
        {
            "positions": [
                -2.9462129732610722,
                -1.5108125874071607,
                1.4013460990876048,
                -1.1574404905721665,
                0.24541730175243046,
                3.1244512778211937
            ]
        },
        {
            "positions": [
                -2.8811519539379495,
                -1.461912809151168,
                1.4807508132088265,
                -1.1302665309740632,
                0.3226258450897949,
                3.0633136970215626
            ]
        },
        {
            "positions": [
                -2.8160909346148273,
                -1.413013030895175,
                1.5601555273300483,
                -1.1030925713759596,
                0.39983438842715935,
                3.0021761162219316
            ]
        },
        {
            "positions": [
                -2.7510299152917046,
                -1.364113252639182,
                1.6395602414512702,
                -1.0759186117778563,
                0.47704293176452384,
                2.941038535422301
            ]
        },
        {
            "positions": [
                -2.6859688959685823,
                -1.3152134743831891,
                1.718964955572492,
                -1.0487446521797528,
                0.5542514751018883,
                2.87990095462267
            ]
        },
        {
            "positions": [
                -2.6209078766454597,
                -1.2663136961271961,
                1.798369669693714,
                -1.0215706925816495,
                0.6314600184392527,
                2.818763373823039
            ]
        },
        {
            "positions": [
                -2.5558468573223374,
                -1.2174139178712031,
                1.8777743838149354,
                -0.994396732983546,
                0.7086685617766171,
                2.7576257930234083
            ]
        },
        {
            "positions": [
                -2.4907858379992147,
                -1.1685141396152101,
                1.9571790979361574,
                -0.9672227733854426,
                0.7858771051139817,
                2.696488212223777
            ]
        },
        {
            "positions": [
                -2.481577316452387,
                -1.1670218216716668,
                1.9869511692632424,
                -0.9100658549259837,
                0.73495195443286,
                2.919730325094866
            ]
        },
        {
            "positions": [
                -2.4723687949055595,
                -1.1655295037281233,
                2.0167232405903275,
                -0.8529089364665248,
                0.6840268037517382,
                3.142972437965955
            ]
        }
    ]
}