{
    "goal": {
        "global_pose": {
            "orientation": {
                "w": -0.4816463035849501,
                "x": 0.5182115481033762,
                "y": 0.4908360881923453,
                "z": -0.5084816262002911
            },
            "position": {
                "x": -0.8240239810943604,
                "y": -0.300875300988555,
                "z": 0.16403168439865112
            }
        },
        "name": "move_to_storage_C"
    },
    "id": "BKPIECE_move_to_storage_C_140",
    "joint_names": [
        "shoulder_pan_joint",
        "shoulder_lift_joint",
        "elbow_joint",
        "wrist_1_joint",
        "wrist_2_joint",
        "wrist_3_joint"
    ],
    "metrics": {
        "cart_traj_len": 0.57702409552299,
        "distance_elbow_joint": 0.261620133643631,
        "distance_shoulder_lift_joint": 0.1898690605812876,
        "distance_shoulder_pan_joint": 0.49398165795127724,
        "distance_wrist_1_joint": 0.08835294156245466,
        "distance_wrist_2_joint": 1.0733896363333626,
        "distance_wrist_3_joint": 0.05806928174262804,
        "smoothness": 0.0,
        "time": 0.25141033,
        "traj_len": 1.4714899632055398,
        "weighted_distance": 1.855576420737156
    },
    "planner": "BKPIECE",
    "start": {
        "state": {
            "elbow_joint": 2.0108683149792914,
            "shoulder_lift_joint": -1.1634956873317392,
            "shoulder_pan_joint": -2.4736205022346,
            "wrist_1_joint": -0.8367026793690192,
            "wrist_2_joint": 0.6746043897045053,
            "wrist_3_joint": 3.133522094754363
        }
    },
    "waypoints": [
        {
            "positions": [
                -2.4736205022346,
                -1.1634956873317392,
                2.0108683149792914,
                -0.8367026793690192,
                0.6746043897045053,
                3.133522094754363
            ]
        },
        {
            "positions": [
                -2.555950778559813,
                -1.1318508439015247,
                1.9672649593720195,
                -0.8219771891086101,
                0.8535026624267323,
                3.1432003083781344
            ]
        },
        {
            "positions": [
                -2.638281054885026,
                -1.1002060004713101,
                1.9236616037647478,
                -0.807251698848201,
                1.0324009351489596,
                3.152878522001906
            ]
        },
        {
            "positions": [
                -2.7206113312102387,
                -1.0685611570410956,
                1.880058248157476,
                -0.7925262085877919,
                1.2112992078711866,
                3.162556735625677
            ]
        },
        {
            "positions": [
                -2.8029416075354514,
                -1.0369163136108808,
                1.836454892550204,
                -0.7778007183273827,
                1.3901974805934136,
                3.1722349492494484
            ]
        },
        {
            "positions": [
                -2.8852718838606646,
                -1.0052714701806662,
                1.7928515369429323,
                -0.7630752280669737,
                1.5690957533156409,
                3.18191316287322
            ]
        },
        {
            "positions": [
                -2.9676021601858773,
                -0.9736266267504516,
                1.7492481813356604,
                -0.7483497378065646,
                1.747994026037868,
                3.191591376496991
            ]
        }
    ]
}