{
    "goal": {
        "global_pose": {
            "orientation": {
                "w": 0.5084816217422485,
                "x": -0.49083608388900757,
                "y": 0.5182115435600281,
                "z": -0.4816462993621826
            },
            "position": {
                "x": 0.5540239810943604,
                "y": 0.030875300988554955,
                "z": 0.16403168439865112
            }
        },
        "name": "move_to_storage_A"
    },
    "id": "BKPIECE_move_to_storage_A_68",
    "joint_names": [
        "shoulder_pan_joint",
        "shoulder_lift_joint",
        "elbow_joint",
        "wrist_1_joint",
        "wrist_2_joint",
        "wrist_3_joint"
    ],
    "metrics": {
        "cart_traj_len": 0.3519953703116131,
        "distance_elbow_joint": 0.4481539871666229,
        "distance_shoulder_lift_joint": 0.23448720679341095,
        "distance_shoulder_pan_joint": 0.4599797004739292,
        "distance_wrist_1_joint": 0.23727605608860758,
        "distance_wrist_2_joint": 1.0977419306496086,
        "distance_wrist_3_joint": 0.08736507239994751,
        "smoothness": 0.0,
        "time": 0.12084905200000001,
        "traj_len": 1.6015629720907407,
        "weighted_distance": 2.0186015171673275
    },
    "planner": "BKPIECE",
    "start": {
        "state": {
            "elbow_joint": 1.971548880431181,
            "shoulder_lift_joint": -1.1394869514688781,
            "shoulder_pan_joint": 0.12281150262730567,
            "wrist_1_joint": -0.7804693444481463,
            "wrist_2_joint": 0.12958644648617612,
            "wrist_3_joint": 3.0906942077768043
        }
    },
    "waypoints": [
        {
            "positions": [
                0.12281150262730567,
                -1.1394869514688781,
                1.971548880431181,
                -0.7804693444481463,
                0.12958644648617612,
                3.0906942077768043
            ]
        },
        {
            "positions": [
                0.05710011684531578,
                -1.1729851238679367,
                2.0355708785978415,
                -0.814365923889376,
                0.286406722293263,
                3.103174932405368
            ]
        },
        {
            "positions": [
                -0.008611268936674105,
                -1.2064832962669956,
                2.099592876764502,
                -0.8482625033306056,
                0.44322699810035,
                3.115655657033932
            ]
        },
        {
            "positions": [
                -0.07432265471866398,
                -1.2399814686660542,
                2.163614874931162,
                -0.8821590827718353,
                0.600047273907437,
                3.128136381662496
            ]
        },
        {
            "positions": [
                -0.14003404050065388,
                -1.273479641065113,
                2.2276368730978224,
                -0.9160556622130649,
                0.7568675497145239,
                3.14061710629106
            ]
        },
        {
            "positions": [
                -0.2057454262826438,
                -1.3069778134641716,
                2.291658871264483,
                -0.9499522416542946,
                0.9136878255216109,
                3.153097830919624
            ]
        },
        {
            "positions": [
                -0.2714568120646336,
                -1.3404759858632302,
                2.3556808694311435,
                -0.9838488210955242,
                1.0705081013286977,
                3.165578555548188
            ]
        },
        {
            "positions": [
                -0.33716819784662355,
                -1.373974158262289,
                2.419702867597804,
                -1.0177454005367539,
                1.2273283771357846,
                3.1780592801767518
            ]
        }
    ]
}