{
    "goal": {
        "global_pose": {
            "orientation": {
                "w": 0.005598929693374612,
                "x": 0.007748599140229565,
                "y": 0.7110244013736278,
                "z": -0.7031023480610252
            },
            "position": {
                "x": 0.1141497679147869,
                "y": -0.7141253447532654,
                "z": 0.3711530566215515
            }
        },
        "name": "move_to_auspresseinheit_B"
    },
    "id": "BKPIECE_move_to_auspresseinheit_B_22",
    "joint_names": [
        "shoulder_pan_joint",
        "shoulder_lift_joint",
        "elbow_joint",
        "wrist_1_joint",
        "wrist_2_joint",
        "wrist_3_joint"
    ],
    "metrics": {
        "cart_traj_len": 0.5655599366764913,
        "distance_elbow_joint": 0.06700884926599948,
        "distance_shoulder_lift_joint": 0.29371729858573614,
        "distance_shoulder_pan_joint": 0.5776450014359797,
        "distance_wrist_1_joint": 0.3397860767415234,
        "distance_wrist_2_joint": 0.9935395144417007,
        "distance_wrist_3_joint": 0.00809819357557462,
        "smoothness": 2.5376526478085547e-16,
        "time": 0.168432853,
        "traj_len": 1.5098989814045556,
        "weighted_distance": 1.9050766158821244
    },
    "planner": "BKPIECE",
    "start": {
        "state": {
            "elbow_joint": 2.0193061681459312,
            "shoulder_lift_joint": -1.1220205130644991,
            "shoulder_pan_joint": -1.0952072088045026,
            "wrist_1_joint": -0.8559671810662515,
            "wrist_2_joint": 0.4759638712940361,
            "wrist_3_joint": 3.159081874192446
        }
    },
    "waypoints": [
        {
            "positions": [
                -1.0952072088045026,
                -1.1220205130644991,
                2.0193061681459312,
                -0.8559671810662515,
                0.4759638712940361,
                3.159081874192446
            ]
        },
        {
            "positions": [
                -1.1914813757104992,
                -1.1709733961621218,
                2.008138026601598,
                -0.7993361682759976,
                0.6415537903676529,
                3.1604315731217083
            ]
        },
        {
            "positions": [
                -1.287755542616496,
                -1.2199262792597445,
                1.9969698850572648,
                -0.7427051554857437,
                0.8071437094412697,
                3.161781272050971
            ]
        },
        {
            "positions": [
                -1.3840297095224925,
                -1.2688791623573672,
                1.9858017435129316,
                -0.6860741426954897,
                0.9727336285148864,
                3.1631309709802333
            ]
        },
        {
            "positions": [
                -1.480303876428489,
                -1.3178320454549899,
                1.9746336019685982,
                -0.6294431299052359,
                1.1383235475885032,
                3.1644806699094956
            ]
        },
        {
            "positions": [
                -1.5765780433344858,
                -1.3667849285526126,
                1.963465460424265,
                -0.572812117114982,
                1.3039134666621202,
                3.1658303688387583
            ]
        },
        {
            "positions": [
                -1.6728522102404824,
                -1.4157378116502353,
                1.9522973188799317,
                -0.5161811043247281,
                1.469503385735737,
                3.1671800677680206
            ]
        }
    ]
}