{
    "goal": {
        "global_pose": {
            "orientation": {
                "w": 0.005598929693374612,
                "x": 0.007748599140229565,
                "y": 0.7110244013736278,
                "z": -0.7031023480610252
            },
            "position": {
                "x": -0.8858502320852131,
                "y": -0.7141253447532654,
                "z": 0.3711530566215515
            }
        },
        "name": "move_to_auspresseinheit_C"
    },
    "id": "BKPIECE_move_to_auspresseinheit_C_148",
    "joint_names": [
        "shoulder_pan_joint",
        "shoulder_lift_joint",
        "elbow_joint",
        "wrist_1_joint",
        "wrist_2_joint",
        "wrist_3_joint"
    ],
    "metrics": {
        "cart_traj_len": 0.4944039041426606,
        "distance_elbow_joint": 1.0156138667645707,
        "distance_shoulder_lift_joint": 0.33251802639826433,
        "distance_shoulder_pan_joint": 0.2567282803651989,
        "distance_wrist_1_joint": 0.7085213127305311,
        "distance_wrist_2_joint": 1.3115863970341664,
        "distance_wrist_3_joint": 0.0869173597870061,
        "smoothness": 3.2297397080004555e-16,
        "time": 0.307837616,
        "traj_len": 1.9266253509906222,
        "weighted_distance": 2.430190871602156
    },
    "planner": "BKPIECE",
    "start": {
        "state": {
            "elbow_joint": 1.7527959577730765,
            "shoulder_lift_joint": -0.9740617694224828,
            "shoulder_pan_joint": -2.967991417825869,
            "wrist_1_joint": -0.7595177689779385,
            "wrist_2_joint": 1.7443932448376545,
            "wrist_3_joint": 3.1991315425061013
        }
    },
    "waypoints": [
        {
            "positions": [
                -2.967991417825869,
                -0.9740617694224828,
                1.7527959577730765,
                -0.7595177689779385,
                1.7443932448376545,
                3.1991315425061013
            ]
        },
        {
            "positions": [
                -2.942318589789349,
                -0.9408099667826564,
                1.6512345710966194,
                -0.6886656377048854,
                1.6132346051342379,
                3.190439806527401
            ]
        },
        {
            "positions": [
                -2.916645761752829,
                -0.90755816414283,
                1.5496731844201623,
                -0.6178135064318323,
                1.482075965430821,
                3.1817480705487
            ]
        },
        {
            "positions": [
                -2.8909729337163093,
                -0.8743063615030034,
                1.4481117977437052,
                -0.5469613751587792,
                1.3509173257274045,
                3.1730563345699996
            ]
        },
        {
            "positions": [
                -2.8653001056797893,
                -0.841054558863177,
                1.3465504110672482,
                -0.4761092438857261,
                1.219758686023988,
                3.1643645985912987
            ]
        },
        {
            "positions": [
                -2.8396272776432694,
                -0.8078027562233506,
                1.244989024390791,
                -0.405257112612673,
                1.0886000463205714,
                3.1556728626125983
            ]
        },
        {
            "positions": [
                -2.81395444960675,
                -0.7745509535835242,
                1.1434276377143342,
                -0.3344049813396199,
                0.9574414066171547,
                3.146981126633898
            ]
        },
        {
            "positions": [
                -2.78828162157023,
                -0.7412991509436978,
                1.0418662510378771,
                -0.2635528500665668,
                0.826282766913738,
                3.138289390655197
            ]
        },
        {
            "positions": [
                -2.76260879353371,
                -0.7080473483038714,
                0.9403048643614199,
                -0.1927007187935137,
                0.6951241272103212,
                3.1295976546764965
            ]
        },
        {
            "positions": [
                -2.73693596549719,
                -0.6747955456640449,
                0.8387434776849629,
                -0.12184858752046057,
                0.5639654875069047,
                3.1209059186977957
            ]
        },
        {
            "positions": [
                -2.71126313746067,
                -0.6415437430242185,
                0.7371820910085058,
                -0.05099645624740747,
                0.4328068478034881,
                3.1122141827190952
            ]
        }
    ]
}