{
    "goal": {
        "global_pose": {
            "orientation": {
                "w": -0.4816463035849501,
                "x": 0.5182115481033762,
                "y": 0.4908360881923453,
                "z": -0.5084816262002911
            },
            "position": {
                "x": -0.8240239810943604,
                "y": -0.300875300988555,
                "z": 0.16403168439865112
            }
        },
        "name": "move_to_storage_C"
    },
    "id": "BKPIECE_move_to_storage_C_57",
    "joint_names": [
        "shoulder_pan_joint",
        "shoulder_lift_joint",
        "elbow_joint",
        "wrist_1_joint",
        "wrist_2_joint",
        "wrist_3_joint"
    ],
    "metrics": {
        "cart_traj_len": 0.5774120733779362,
        "distance_elbow_joint": 0.2588957304277626,
        "distance_shoulder_lift_joint": 0.1892607102928302,
        "distance_shoulder_pan_joint": 0.4954488345821444,
        "distance_wrist_1_joint": 0.078382895733075,
        "distance_wrist_2_joint": 1.066564467838825,
        "distance_wrist_3_joint": 0.06145162978296215,
        "smoothness": 2.5376526478085547e-16,
        "time": 0.347500546,
        "traj_len": 1.4662892854609555,
        "weighted_distance": 1.8487441390834545
    },
    "planner": "BKPIECE",
    "start": {
        "state": {
            "elbow_joint": 2.0108683149792914,
            "shoulder_lift_joint": -1.1634956873317392,
            "shoulder_pan_joint": -2.4736205022346,
            "wrist_1_joint": -0.8367026793690192,
            "wrist_2_joint": 0.6746043897045053,
            "wrist_3_joint": 3.133522094754363
        }
    },
    "waypoints": [
        {
            "positions": [
                -2.4736205022346,
                -1.1634956873317392,
                2.0108683149792914,
                -0.8367026793690192,
                0.6746043897045053,
                3.133522094754363
            ]
        },
        {
            "positions": [
                -2.5561953079982906,
                -1.1319522356162675,
                1.9677190265746642,
                -0.8236388634135067,
                0.8523651343443095,
                3.1437640330515233
            ]
        },
        {
            "positions": [
                -2.6387701137619817,
                -1.1004087839007959,
                1.9245697381700373,
                -0.8105750474579942,
                1.0301258789841137,
                3.154005971348684
            ]
        },
        {
            "positions": [
                -2.7213449195256723,
                -1.068865332185324,
                1.8814204497654101,
                -0.7975112315024817,
                1.2078866236239179,
                3.1642479096458445
            ]
        },
        {
            "positions": [
                -2.803919725289363,
                -1.0373218804698525,
                1.838271161360783,
                -0.7844474155469692,
                1.385647368263722,
                3.1744898479430046
            ]
        },
        {
            "positions": [
                -2.886494531053054,
                -1.0057784287543807,
                1.795121872956156,
                -0.7713835995914567,
                1.5634081129035262,
                3.1847317862401647
            ]
        },
        {
            "positions": [
                -2.9690693368167445,
                -0.974234977038909,
                1.7519725845515288,
                -0.7583197836359442,
                1.7411688575433304,
                3.1949737245373253
            ]
        }
    ]
}