{
    "goal": {
        "global_pose": {
            "orientation": {
                "w": 0.7047431468963623,
                "x": -0.7094548344612122,
                "y": 0.0024358443915843964,
                "z": -0.0022348060738295317
            },
            "position": {
                "x": 0.6094750761985779,
                "y": 0.3671506643295288,
                "z": 0.19426114857196808
            }
        },
        "name": "move_to_magneteinheit_A"
    },
    "id": "BKPIECE_move_to_magneteinheit_A_70",
    "joint_names": [
        "shoulder_pan_joint",
        "shoulder_lift_joint",
        "elbow_joint",
        "wrist_1_joint",
        "wrist_2_joint",
        "wrist_3_joint"
    ],
    "metrics": {
        "cart_traj_len": 1.9615411723548102,
        "distance_elbow_joint": 3.5657604218227092,
        "distance_shoulder_lift_joint": 0.7832212970947505,
        "distance_shoulder_pan_joint": 1.242197953722581,
        "distance_wrist_1_joint": 1.223367798055411,
        "distance_wrist_2_joint": 1.4346021734751795,
        "distance_wrist_3_joint": 2.036154899470886,
        "smoothness": 2.631639764355545e-16,
        "time": 0.140935099,
        "traj_len": 3.2070710225440155,
        "weighted_distance": 4.124995068374492
    },
    "planner": "BKPIECE",
    "start": {
        "state": {
            "elbow_joint": -1.5739458827952972,
            "shoulder_lift_joint": 0.006533473998580023,
            "shoulder_pan_joint": -1.1188671628667068,
            "wrist_1_joint": 3.138208179676308,
            "wrist_2_joint": -1.5706037135050406,
            "wrist_3_joint": -2.0226958329764257
        }
    },
    "waypoints": [
        {
            "positions": [
                -1.1188671628667068,
                0.006533473998580023,
                -1.5739458827952972,
                3.138208179676308,
                -1.5706037135050406,
                -2.0226958329764257
            ]
        },
        {
            "positions": [
                -1.0710903184927614,
                -0.023590422043525773,
                -1.4368012511867314,
                3.0911555720587924,
                -1.5154267068329184,
                -1.9443821829967762
            ]
        },
        {
            "positions": [
                -1.023313474118816,
                -0.05371431808563157,
                -1.2996566195781658,
                3.0441029644412767,
                -1.460249700160796,
                -1.8660685330171267
            ]
        },
        {
            "positions": [
                -0.9755366297448705,
                -0.08383821412773737,
                -1.1625119879696,
                2.9970503568237605,
                -1.4050726934886737,
                -1.7877548830374774
            ]
        },
        {
            "positions": [
                -0.9277597853709252,
                -0.11396211016984316,
                -1.0253673563610342,
                2.949997749206245,
                -1.3498956868165515,
                -1.709441233057828
            ]
        },
        {
            "positions": [
                -0.8799829409969797,
                -0.14408600621194895,
                -0.8882227247524686,
                2.902945141588729,
                -1.2947186801444293,
                -1.6311275830781784
            ]
        },
        {
            "positions": [
                -0.8322060966230342,
                -0.17420990225405475,
                -0.7510780931439027,
                2.8558925339712133,
                -1.2395416734723068,
                -1.5528139330985289
            ]
        },
        {
            "positions": [
                -0.784429252249089,
                -0.2043337982961605,
                -0.6139334615353371,
                2.8088399263536976,
                -1.1843646668001846,
                -1.4745002831188794
            ]
        },
        {
            "positions": [
                -0.7366524078751435,
                -0.23445769433826633,
                -0.4767888299267713,
                2.761787318736182,
                -1.1291876601280624,
                -1.39618663313923
            ]
        },
        {
            "positions": [
                -0.688875563501198,
                -0.2645815903803721,
                -0.3396441983182057,
                2.714734711118666,
                -1.07401065345594,
                -1.3178729831595806
            ]
        },
        {
            "positions": [
                -0.6410987191272526,
                -0.29470548642247796,
                -0.20249956670963987,
                2.66768210350115,
                -1.0188336467838177,
                -1.239559333179931
            ]
        },
        {
            "positions": [
                -0.5933218747533072,
                -0.3248293824645837,
                -0.06535493510107404,
                2.6206294958836343,
                -0.9636566401116954,
                -1.1612456832002818
            ]
        },
        {
            "positions": [
                -0.5455450303793618,
                -0.35495327850668956,
                0.07178969650749178,
                2.5735768882661185,
                -0.908479633439573,
                -1.082932033220632
            ]
        },
        {
            "positions": [
                -0.4977681860054164,
                -0.3850771745487953,
                0.2089343281160574,
                2.526524280648603,
                -0.8533026267674508,
                -1.0046183832409827
            ]
        },
        {
            "positions": [
                -0.44999134163147103,
                -0.41520107059090106,
                0.346078959724623,
                2.479471673031087,
                -0.7981256200953286,
                -0.9263047332613332
            ]
        },
        {
            "positions": [
                -0.40221449725752556,
                -0.44532496663300686,
                0.4832235913331886,
                2.432419065413571,
                -0.7429486134232063,
                -0.8479910832816839
            ]
        },
        {
            "positions": [
                -0.3544376528835801,
                -0.4754488626751127,
                0.6203682229417546,
                2.385366457796055,
                -0.687771606751084,
                -0.7696774333020342
            ]
        },
        {
            "positions": [
                -0.30666080850963473,
                -0.5055727587172184,
                0.7575128545503202,
                2.3383138501785394,
                -0.6325946000789616,
                -0.6913637833223849
            ]
        },
        {
            "positions": [
                -0.25888396413568926,
                -0.5356966547593242,
                0.8946574861588859,
                2.2912612425610237,
                -0.5774175934068394,
                -0.6130501333427354
            ]
        },
        {
            "positions": [
                -0.2111071197617439,
                -0.56582055080143,
                1.031802117767452,
                2.244208634943508,
                -0.5222405867347171,
                -0.5347364833630861
            ]
        },
        {
            "positions": [
                -0.16333027538779843,
                -0.5959444468435359,
                1.1689467493760175,
                2.197156027325992,
                -0.46706358006259485,
                -0.45642283338343637
            ]
        },
        {
            "positions": [
                -0.11555343101385307,
                -0.6260683428856416,
                1.3060913809845835,
                2.150103419708476,
                -0.4118865733904724,
                -0.3781091834037871
            ]
        },
        {
            "positions": [
                -0.0677765866399076,
                -0.6561922389277474,
                1.4432360125931492,
                2.1030508120909603,
                -0.3567095667183502,
                -0.29979553342413756
            ]
        },
        {
            "positions": [
                -0.019999742265962128,
                -0.6863161349698531,
                1.5803806442017148,
                2.0559982044734446,
                -0.30153256004622797,
                -0.22148188344448827
            ]
        },
        {
            "positions": [
                0.027777102107983342,
                -0.7164400310119591,
                1.7175252758102808,
                2.008945596855929,
                -0.24635555337410553,
                -0.14316823346483853
            ]
        },
        {
            "positions": [
                0.07555394648192859,
                -0.7465639270540648,
                1.8546699074188464,
                1.961892989238413,
                -0.1911785467019833,
                -0.06485458348518924
            ]
        },
        {
            "positions": [
                0.123330790855874,
                -0.7766878230961706,
                1.9918145390274122,
                1.9148403816208972,
                -0.13600154002986103,
                0.01345906649446022
            ]
        }
    ]
}