{
    "goal": {
        "global_pose": {
            "orientation": {
                "w": -0.00223480608172531,
                "x": 0.0024358444001904467,
                "y": 0.7094548369677653,
                "z": -0.704743149386269
            },
            "position": {
                "x": -0.37947507619857795,
                "y": -0.6371506643295288,
                "z": 0.19426114857196808
            }
        },
        "name": "move_to_magneteinheit_C"
    },
    "id": "BKPIECE_move_to_magneteinheit_C_124",
    "joint_names": [
        "shoulder_pan_joint",
        "shoulder_lift_joint",
        "elbow_joint",
        "wrist_1_joint",
        "wrist_2_joint",
        "wrist_3_joint"
    ],
    "metrics": {
        "cart_traj_len": 2.8835612595141473,
        "distance_elbow_joint": 1.9084718740660993,
        "distance_shoulder_lift_joint": 0.2993921496272858,
        "distance_shoulder_pan_joint": 2.4219263180933313,
        "distance_wrist_1_joint": 1.5627310963621206,
        "distance_wrist_2_joint": 1.9152480454483507,
        "distance_wrist_3_joint": 2.1205425936671722,
        "smoothness": 0.7834908973265488,
        "time": 0.26957822600000003,
        "traj_len": 3.198173240658542,
        "weighted_distance": 4.236434397746432
    },
    "planner": "BKPIECE",
    "start": {
        "state": {
            "elbow_joint": 1.9565354006593851,
            "shoulder_lift_joint": -1.4165861576512813,
            "shoulder_pan_joint": -1.6717766223278752,
            "wrist_1_joint": -0.528663328821883,
            "wrist_2_joint": 1.472756589259273,
            "wrist_3_joint": 3.159348288315503
        }
    },
    "waypoints": [
        {
            "positions": [
                -1.6717766223278752,
                -1.4165861576512813,
                1.9565354006593851,
                -0.528663328821883,
                1.472756589259273,
                3.159348288315503
            ]
        },
        {
            "positions": [
                -1.6137176708873562,
                -1.436302293648552,
                1.9549553879215453,
                -0.5346373072378655,
                1.4062338055596286,
                3.116706487878034
            ]
        },
        {
            "positions": [
                -1.5262934005044047,
                -1.4367387914880174,
                1.8390501983269478,
                -0.5342039796609538,
                1.327972502083449,
                3.0282084991787497
            ]
        },
        {
            "positions": [
                -1.4388691301214533,
                -1.4371752893274825,
                1.7231450087323505,
                -0.533770652084042,
                1.2497111986072693,
                2.9397105104794656
            ]
        },
        {
            "positions": [
                -1.3514448597385018,
                -1.4376117871669478,
                1.607239819137753,
                -0.5333373245071302,
                1.1714498951310897,
                2.851212521780181
            ]
        },
        {
            "positions": [
                -1.2640205893555505,
                -1.438048285006413,
                1.4913346295431555,
                -0.5329039969302185,
                1.09318859165491,
                2.7627145330808967
            ]
        },
        {
            "positions": [
                -1.176596318972599,
                -1.4384847828458782,
                1.3754294399485583,
                -0.5324706693533067,
                1.0149272881787303,
                2.6742165443816126
            ]
        },
        {
            "positions": [
                -1.0891720485896474,
                -1.4389212806853435,
                1.2595242503539608,
                -0.532037341776395,
                0.9366659847025509,
                2.585718555682328
            ]
        },
        {
            "positions": [
                -1.001747778206696,
                -1.4393577785248086,
                1.1436190607593635,
                -0.5316040141994831,
                0.8584046812263713,
                2.497220566983044
            ]
        },
        {
            "positions": [
                -0.9143235078237446,
                -1.439794276364274,
                1.027713871164766,
                -0.5311706866225714,
                0.7801433777501916,
                2.4087225782837596
            ]
        },
        {
            "positions": [
                -1.0842840273678045,
                -1.4332256384386755,
                1.040832027919299,
                -0.45281134043969695,
                0.8428434249334941,
                2.3675527022072256
            ]
        },
        {
            "positions": [
                -1.2542445469118642,
                -1.4266570005130772,
                1.0539501846738322,
                -0.37445199425682246,
                0.9055434721167965,
                2.3263828261306916
            ]
        },
        {
            "positions": [
                -1.424205066455924,
                -1.4200883625874787,
                1.067068341428365,
                -0.296092648073948,
                0.9682435193000991,
                2.285212950054157
            ]
        },
        {
            "positions": [
                -1.594165585999984,
                -1.4135197246618803,
                1.0801864981828981,
                -0.21773330189107354,
                1.0309435664834017,
                2.244043073977623
            ]
        },
        {
            "positions": [
                -1.7641261055440436,
                -1.406951086736282,
                1.0933046549374312,
                -0.1393739557081991,
                1.093643613666704,
                2.202873197901089
            ]
        },
        {
            "positions": [
                -1.9340866250881035,
                -1.4003824488106835,
                1.106422811691964,
                -0.061014609525324615,
                1.1563436608500066,
                2.1617033218245547
            ]
        },
        {
            "positions": [
                -2.104047144632163,
                -1.3938138108850853,
                1.1195409684464972,
                0.017344736657549875,
                1.219043708033309,
                2.1205334457480207
            ]
        },
        {
            "positions": [
                -2.274007664176223,
                -1.3872451729594868,
                1.1326591252010303,
                0.09570408284042434,
                1.2817437552166115,
                2.0793635696714867
            ]
        },
        {
            "positions": [
                -2.36982172643452,
                -1.382450872805486,
                1.2332501790594768,
                0.09865417797278456,
                1.3122757813642996,
                2.146268875075496
            ]
        },
        {
            "positions": [
                -2.465635788692817,
                -1.3776565726514856,
                1.3338412329179232,
                0.10160427310514478,
                1.3428078075119874,
                2.2131741804795055
            ]
        },
        {
            "positions": [
                -2.47422800859926,
                -1.3555722523189992,
                1.4186420173480825,
                0.01589120054183084,
                1.2836357278593686,
                2.3161893376996083
            ]
        },
        {
            "positions": [
                -2.482820228505703,
                -1.3334879319865132,
                1.503442801778242,
                -0.0698218720214831,
                1.2244636482067501,
                2.4192044949197107
            ]
        },
        {
            "positions": [
                -2.491412448412146,
                -1.3114036116540269,
                1.5882435862084012,
                -0.15553494458479702,
                1.1652915685541314,
                2.5222196521398135
            ]
        },
        {
            "positions": [
                -2.5000046683185895,
                -1.2893192913215408,
                1.6730443706385607,
                -0.24124801714811098,
                1.106119488901513,
                2.6252348093599163
            ]
        },
        {
            "positions": [
                -2.5085968882250325,
                -1.2672349709890545,
                1.75784515506872,
                -0.3269610897114249,
                1.0469474092488942,
                2.7282499665800186
            ]
        },
        {
            "positions": [
                -2.5171891081314755,
                -1.2451506506565684,
                1.8426459394988792,
                -0.41267416227473885,
                0.9877753295962757,
                2.8312651238001214
            ]
        },
        {
            "positions": [
                -2.5257813280379184,
                -1.223066330324082,
                1.9274467239290387,
                -0.4983872348380528,
                0.928603249943657,
                2.934280281020224
            ]
        },
        {
            "positions": [
                -2.5081095335795762,
                -1.2032476353660484,
                1.9540858878647744,
                -0.6052285780580297,
                0.8466813010739426,
                2.996160668911697
            ]
        },
        {
            "positions": [
                -2.4904377391212336,
                -1.1834289404080145,
                1.9807250518005104,
                -0.7120699212780064,
                0.7647593522042282,
                3.05804105680317
            ]
        },
        {
            "positions": [
                -2.4727659446628913,
                -1.1636102454499808,
                2.007364215736246,
                -0.8189112644979832,
                0.6828374033345137,
                3.1199214446946426
            ]
        }
    ]
}