{
    "goal": {
        "global_pose": {
            "orientation": {
                "w": 0.5084816262002911,
                "x": -0.4908360881923452,
                "y": 0.5182115481033761,
                "z": -0.48164630358495003
            },
            "position": {
                "x": 0.5540239810943604,
                "y": -0.46912469901144505,
                "z": 0.16403168439865112
            }
        },
        "name": "move_to_storage_B"
    },
    "id": "BKPIECE_move_to_storage_B_71",
    "joint_names": [
        "shoulder_pan_joint",
        "shoulder_lift_joint",
        "elbow_joint",
        "wrist_1_joint",
        "wrist_2_joint",
        "wrist_3_joint"
    ],
    "metrics": {
        "cart_traj_len": 3.2598051839718503,
        "distance_elbow_joint": 4.075128037175147,
        "distance_shoulder_lift_joint": 0.459314546334481,
        "distance_shoulder_pan_joint": 2.4317276775879266,
        "distance_wrist_1_joint": 3.0055949188648374,
        "distance_wrist_2_joint": 2.8731290690028275,
        "distance_wrist_3_joint": 3.117758587941383,
        "smoothness": 0.3352770058065477,
        "time": 0.141203607,
        "traj_len": 3.995328877189787,
        "weighted_distance": 5.298763440714922
    },
    "planner": "BKPIECE",
    "start": {
        "state": {
            "elbow_joint": 1.6649325340416963,
            "shoulder_lift_joint": -0.6616387945129425,
            "shoulder_pan_joint": -0.9139837929255878,
            "wrist_1_joint": 2.1467571094334352,
            "wrist_2_joint": -2.234195976750228,
            "wrist_3_joint": 0.005470921511140723
        }
    },
    "waypoints": [
        {
            "positions": [
                -0.9139837929255878,
                -0.6616387945129425,
                1.6649325340416963,
                2.1467571094334352,
                -2.234195976750228,
                0.005470921511140723
            ]
        },
        {
            "positions": [
                -0.898666698978416,
                -0.6708236704117678,
                1.6656365915121105,
                2.1317659979701125,
                -2.2180572553995597,
                -0.008601826794754196
            ]
        },
        {
            "positions": [
                -0.8402171271821426,
                -0.6880523754121523,
                1.5677082389931978,
                2.0935186925992526,
                -2.0719009908081527,
                -0.04126136867043194
            ]
        },
        {
            "positions": [
                -0.7817675553858691,
                -0.7052810804125366,
                1.4697798864742848,
                2.0552713872283923,
                -1.925744726216746,
                -0.07392091054610968
            ]
        },
        {
            "positions": [
                -0.7233179835895956,
                -0.722509785412921,
                1.371851533955372,
                2.0170240818575325,
                -1.779588461625339,
                -0.10658045242178743
            ]
        },
        {
            "positions": [
                -0.6648684117933222,
                -0.7397384904133053,
                1.273923181436459,
                1.9787767764866722,
                -1.6334321970339323,
                -0.13923999429746514
            ]
        },
        {
            "positions": [
                -0.6064188399970487,
                -0.7569671954136897,
                1.1759948289175464,
                1.940529471115812,
                -1.4872759324425253,
                -0.17189953617314288
            ]
        },
        {
            "positions": [
                -0.5479692682007753,
                -0.7741959004140742,
                1.0780664763986336,
                1.902282165744952,
                -1.3411196678511184,
                -0.20455907804882065
            ]
        },
        {
            "positions": [
                -0.4895196964045019,
                -0.7914246054144585,
                0.9801381238797207,
                1.8640348603740922,
                -1.1949634032597114,
                -0.2372186199244984
            ]
        },
        {
            "positions": [
                -0.4310701246082284,
                -0.8086533104148429,
                0.8822097713608079,
                1.8257875550032319,
                -1.0488071386683047,
                -0.2698781618001761
            ]
        },
        {
            "positions": [
                -0.37262055281195494,
                -0.8258820154152273,
                0.7842814188418951,
                1.787540249632372,
                -0.9026508740768977,
                -0.30253770367585386
            ]
        },
        {
            "positions": [
                -0.3141709810156815,
                -0.8431107204156116,
                0.6863530663229822,
                1.7492929442615117,
                -0.756494609485491,
                -0.3351972455515316
            ]
        },
        {
            "positions": [
                -0.255721409219408,
                -0.8603394254159961,
                0.5884247138040692,
                1.7110456388906519,
                -0.6103383448940838,
                -0.3678567874272094
            ]
        },
        {
            "positions": [
                -0.1972718374231347,
                -0.8775681304163805,
                0.4904963612851565,
                1.6727983335197918,
                -0.46418208030267705,
                -0.4005163293028871
            ]
        },
        {
            "positions": [
                -0.13882226562686117,
                -0.8947968354167648,
                0.39256800876624354,
                1.6345510281489317,
                -0.3180258157112701,
                -0.4331758711785649
            ]
        },
        {
            "positions": [
                -0.08037269383058776,
                -0.9120255404171492,
                0.2946396562473308,
                1.5963037227780716,
                -0.17186955111986313,
                -0.4658354130542426
            ]
        },
        {
            "positions": [
                -0.021923122034314235,
                -0.9292542454175337,
                0.19671130372841805,
                1.5580564174072116,
                -0.02571328652845617,
                -0.49849495492992035
            ]
        },
        {
            "positions": [
                0.03652644976195918,
                -0.946482950417918,
                0.09878295120950531,
                1.5198091120363515,
                0.12044297806295035,
                -0.531154496805598
            ]
        },
        {
            "positions": [
                0.09497602155823259,
                -0.9637116554183024,
                0.0008545986905923453,
                1.4815618066654914,
                0.2665992426543573,
                -0.5638140386812758
            ]
        },
        {
            "positions": [
                0.15342559335450612,
                -0.9809403604186867,
                -0.0970737538283204,
                1.4433145012946313,
                0.41275550724576426,
                -0.5964735805569535
            ]
        },
        {
            "positions": [
                0.21187516515077948,
                -0.9981690654190711,
                -0.19500210634723336,
                1.4050671959237713,
                0.5589117718371712,
                -0.6291331224326313
            ]
        },
        {
            "positions": [
                0.1525174960820722,
                -1.0037501688476327,
                -0.09437550262698845,
                1.3021624229530817,
                0.5552744390910155,
                -0.7420037835234318
            ]
        },
        {
            "positions": [
                0.09315982701336498,
                -1.009331272276194,
                0.006251101093256467,
                1.199257649982392,
                0.5516371063448597,
                -0.8548744446142322
            ]
        },
        {
            "positions": [
                0.03380215794465774,
                -1.0149123757047556,
                0.10687770481350134,
                1.0963528770117024,
                0.547999773598704,
                -0.9677451057050327
            ]
        },
        {
            "positions": [
                -0.025555511124049524,
                -1.0204934791333171,
                0.2075043085337463,
                0.9934481040410127,
                0.5443624408525483,
                -1.0806157667958332
            ]
        },
        {
            "positions": [
                -0.08491318019275673,
                -1.0260745825618784,
                0.30813091225399114,
                0.8905433310703231,
                0.5407251081063925,
                -1.1934864278866337
            ]
        },
        {
            "positions": [
                -0.144270849261464,
                -1.03165568599044,
                0.40875751597423604,
                0.7876385580996335,
                0.5370877753602368,
                -1.306357088977434
            ]
        },
        {
            "positions": [
                -0.20362851833017126,
                -1.0372367894190013,
                0.509384119694481,
                0.6847337851289438,
                0.533450442614081,
                -1.4192277500682347
            ]
        },
        {
            "positions": [
                -0.2629861873988785,
                -1.0428178928475629,
                0.610010723414726,
                0.5818290121582541,
                0.5298131098679253,
                -1.5320984111590352
            ]
        },
        {
            "positions": [
                -0.32234385646758584,
                -1.0483989962761244,
                0.7106373271349709,
                0.47892423918756444,
                0.5261757771217696,
                -1.6449690722498356
            ]
        },
        {
            "positions": [
                -0.38170152553629294,
                -1.0539800997046858,
                0.8112639308552156,
                0.376019466216875,
                0.5225384443756138,
                -1.757839733340636
            ]
        },
        {
            "positions": [
                -0.44105919460500026,
                -1.0595612031332473,
                0.9118905345754607,
                0.2731146932461852,
                0.5189011116294582,
                -1.8707103944314365
            ]
        },
        {
            "positions": [
                -0.5004168636737074,
                -1.0651423065618089,
                1.0125171382957054,
                0.17020992027549564,
                0.5152637788833024,
                -1.9835810555222368
            ]
        },
        {
            "positions": [
                -0.5597745327424148,
                -1.0707234099903702,
                1.1131437420159505,
                0.06730514730480586,
                0.5116264461371467,
                -2.0964517166130374
            ]
        },
        {
            "positions": [
                -0.619132201811122,
                -1.0763045134189317,
                1.2137703457361955,
                -0.035599625665883705,
                0.507989113390991,
                -2.209322377703838
            ]
        },
        {
            "positions": [
                -0.6784898708798293,
                -1.0818856168474933,
                1.3143969494564403,
                -0.13850439863657327,
                0.5043517806448352,
                -2.322193038794638
            ]
        },
        {
            "positions": [
                -0.7378475399485365,
                -1.0874667202760546,
                1.4150235531766853,
                -0.24140917160726305,
                0.5007144478986795,
                -2.435063699885439
            ]
        },
        {
            "positions": [
                -0.7972052090172437,
                -1.0930478237046162,
                1.51565015689693,
                -0.3443139445779526,
                0.49707711515252373,
                -2.5479343609762393
            ]
        },
        {
            "positions": [
                -0.8565628780859511,
                -1.0986289271331775,
                1.616276760617175,
                -0.4472187175486424,
                0.493439782406368,
                -2.6608050220670396
            ]
        },
        {
            "positions": [
                -0.9159205471546583,
                -1.104210030561739,
                1.7169033643374199,
                -0.550123490519332,
                0.48980244966021225,
                -2.7736756831578404
            ]
        },
        {
            "positions": [
                -0.9752782162233653,
                -1.1097911339903006,
                1.8175299680576646,
                -0.6530282634900213,
                0.4861651169140565,
                -2.8865463442486403
            ]
        },
        {
            "positions": [
                -1.0346358852920727,
                -1.115372237418862,
                1.9181565717779097,
                -0.7559330364607115,
                0.48252778416790076,
                -2.999417005339441
            ]
        },
        {
            "positions": [
                -1.09399355436078,
                -1.1209533408474235,
                2.0187831754981547,
                -0.858837809431401,
                0.478890451421745,
                -3.112287666430242
            ]
        }
    ]
}