{
    "goal": {
        "global_pose": {
            "orientation": {
                "w": 0.7047431493862688,
                "x": -0.7094548369677653,
                "y": 0.0024358444001904,
                "z": -0.0022348060817251984
            },
            "position": {
                "x": -0.39052492380142206,
                "y": 0.3671506643295288,
                "z": 0.19426114857196808
            }
        },
        "name": "move_to_magneteinheit_D"
    },
    "id": "BKPIECE_move_to_magneteinheit_D_120",
    "joint_names": [
        "shoulder_pan_joint",
        "shoulder_lift_joint",
        "elbow_joint",
        "wrist_1_joint",
        "wrist_2_joint",
        "wrist_3_joint"
    ],
    "metrics": {
        "cart_traj_len": 4.097262260060378,
        "distance_elbow_joint": 3.677606256901329,
        "distance_shoulder_lift_joint": 1.6289855083062321,
        "distance_shoulder_pan_joint": 2.928934852583359,
        "distance_wrist_1_joint": 1.945672470874202,
        "distance_wrist_2_joint": 0.6962781061641173,
        "distance_wrist_3_joint": 3.5311774957441506,
        "smoothness": 0.44687308323649927,
        "time": 0.335436911,
        "traj_len": 3.795873376520006,
        "weighted_distance": 4.9104949097927
    },
    "planner": "BKPIECE",
    "start": {
        "state": {
            "elbow_joint": 0.7495348899011911,
            "shoulder_lift_joint": -0.6476975780737668,
            "shoulder_pan_joint": -2.711696901376276,
            "wrist_1_joint": -0.0750647808097303,
            "wrist_2_joint": 0.43296659715458535,
            "wrist_3_joint": 3.1361499051832418
        }
    },
    "waypoints": [
        {
            "positions": [
                -2.711696901376276,
                -0.6476975780737668,
                0.7495348899011911,
                -0.0750647808097303,
                0.43296659715458535,
                3.1361499051832418
            ]
        },
        {
            "positions": [
                -2.729028754377244,
                -0.7219294086074749,
                0.7794618080759877,
                -0.16371400349348858,
                0.4356335265065606,
                3.128783785889289
            ]
        },
        {
            "positions": [
                -2.746360607378212,
                -0.796161239141183,
                0.8093887262507844,
                -0.2523632261772469,
                0.43830045585853583,
                3.121417666595337
            ]
        },
        {
            "positions": [
                -2.747710006966887,
                -0.8737950199871815,
                0.8793268673777971,
                -0.26043176553637304,
                0.37580640636792256,
                3.075096947020011
            ]
        },
        {
            "positions": [
                -2.7490594065555625,
                -0.9514288008331798,
                0.9492650085048098,
                -0.2685003048954992,
                0.3133123568773093,
                3.0287762274446854
            ]
        },
        {
            "positions": [
                -2.7504088061442378,
                -1.0290625816791783,
                1.0192031496318226,
                -0.27656884425462536,
                0.250818307386696,
                2.9824555078693598
            ]
        },
        {
            "positions": [
                -2.6552627444676387,
                -1.0570498242957462,
                0.9234677775750166,
                -0.23430501639878518,
                0.24264378022524202,
                2.8689033698397823
            ]
        },
        {
            "positions": [
                -2.560116682791039,
                -1.0850370669123142,
                0.8277324055182106,
                -0.192041188542945,
                0.234469253063788,
                2.7553512318102054
            ]
        },
        {
            "positions": [
                -2.46497062111444,
                -1.113024309528882,
                0.7319970334614047,
                -0.14977736068710482,
                0.226294725902334,
                2.641799093780628
            ]
        },
        {
            "positions": [
                -2.3698245594378404,
                -1.14101155214545,
                0.6362616614045986,
                -0.10751353283126464,
                0.21812019874087996,
                2.528246955751051
            ]
        },
        {
            "positions": [
                -2.2746784977612413,
                -1.1689987947620177,
                0.5405262893477927,
                -0.06524970497542446,
                0.20994567157942595,
                2.4146948177214735
            ]
        },
        {
            "positions": [
                -2.179532436084642,
                -1.1969860373785857,
                0.44479091729098674,
                -0.022985877119584275,
                0.20177114441797192,
                2.3011426796918966
            ]
        },
        {
            "positions": [
                -2.0843863744080426,
                -1.2249732799951536,
                0.3490555452341808,
                0.019277950736255878,
                0.19359661725651792,
                2.187590541662319
            ]
        },
        {
            "positions": [
                -1.9892403127314433,
                -1.2529605226117215,
                0.25332017317737476,
                0.061541778592096086,
                0.18542209009506389,
                2.074038403632742
            ]
        },
        {
            "positions": [
                -1.894094251054844,
                -1.2809477652282895,
                0.15758480112056883,
                0.10380560644793624,
                0.17724756293360988,
                1.9604862656031647
            ]
        },
        {
            "positions": [
                -1.7989481893782449,
                -1.3089350078448574,
                0.061849429063762784,
                0.14606943430377645,
                0.16907303577215588,
                1.8469341275735875
            ]
        },
        {
            "positions": [
                -1.7038021277016455,
                -1.3369222504614253,
                -0.03388594299304315,
                0.1883332621596166,
                0.16089850861070187,
                1.7333819895440103
            ]
        },
        {
            "positions": [
                -1.6086560660250462,
                -1.3649094930779933,
                -0.12962131504984908,
                0.2305970900154568,
                0.15272398144924781,
                1.6198298515144331
            ]
        },
        {
            "positions": [
                -1.5135100043484468,
                -1.3928967356945612,
                -0.22535668710665502,
                0.27286091787129696,
                0.1445494542877938,
                1.506277713484856
            ]
        },
        {
            "positions": [
                -1.4183639426718475,
                -1.420883978311129,
                -0.32109205916346095,
                0.3151247457271371,
                0.1363749271263398,
                1.3927255754552788
            ]
        },
        {
            "positions": [
                -1.3232178809952484,
                -1.4488712209276968,
                -0.4168274312202669,
                0.35738857358297726,
                0.1282003999648858,
                1.2791734374257018
            ]
        },
        {
            "positions": [
                -1.2280718193186488,
                -1.4768584635442648,
                -0.512562803277073,
                0.39965240143881753,
                0.12002587280343177,
                1.1656212993961241
            ]
        },
        {
            "positions": [
                -1.1329257576420497,
                -1.5048457061608327,
                -0.608298175333879,
                0.4419162292946577,
                0.11185134564197777,
                1.0520691613665472
            ]
        },
        {
            "positions": [
                -1.0377796959654504,
                -1.5328329487774006,
                -0.7040335473906849,
                0.48418005715049783,
                0.10367681848052376,
                0.9385170233369697
            ]
        },
        {
            "positions": [
                -0.942633634288851,
                -1.5608201913939683,
                -0.7997689194474906,
                0.526443885006338,
                0.09550229131906973,
                0.8249648853073928
            ]
        },
        {
            "positions": [
                -0.8474875726122517,
                -1.5888074340105365,
                -0.895504291504297,
                0.5687077128621782,
                0.0873277641576157,
                0.7114127472778153
            ]
        },
        {
            "positions": [
                -0.7523415109356524,
                -1.6167946766271042,
                -0.9912396635611027,
                0.6109715407180184,
                0.0791532369961617,
                0.5978606092482384
            ]
        },
        {
            "positions": [
                -0.6571954492590533,
                -1.6447819192436723,
                -1.0869750356179089,
                0.6532353685738586,
                0.07097870983470769,
                0.48430847121866094
            ]
        },
        {
            "positions": [
                -0.5620493875824537,
                -1.67276916186024,
                -1.1827104076747146,
                0.6954991964296987,
                0.06280418267325369,
                0.37075633318908396
            ]
        },
        {
            "positions": [
                -0.4669033259058546,
                -1.7007564044768082,
                -1.2784457797315207,
                0.737763024285539,
                0.05462965551179963,
                0.25720419515950654
            ]
        },
        {
            "positions": [
                -0.37175726422925504,
                -1.728743647093376,
                -1.374181151788327,
                0.7800268521413792,
                0.046455128350345626,
                0.14365205712992912
            ]
        },
        {
            "positions": [
                -0.2766112025526558,
                -1.7567308897099438,
                -1.4699165238451326,
                0.8222906799972194,
                0.03828060118889162,
                0.03009991910035218
            ]
        },
        {
            "positions": [
                -0.2253386681614275,
                -1.779055696935001,
                -1.5797502462950508,
                0.8961327771069356,
                0.07005476678527095,
                -0.010845759680593418
            ]
        },
        {
            "positions": [
                -0.17406613377019917,
                -1.8013805041600581,
                -1.689583968744969,
                0.969974874216652,
                0.10182893238165029,
                -0.05179143846153902
            ]
        },
        {
            "positions": [
                -0.12279359937897083,
                -1.8237053113851154,
                -1.7994176911948874,
                1.0438169713263683,
                0.13360309797802963,
                -0.09273711724248462
            ]
        },
        {
            "positions": [
                -0.07152106498774252,
                -1.8460301186101726,
                -1.9092514136448056,
                1.1176590684360845,
                0.16537726357440896,
                -0.13368279602343022
            ]
        },
        {
            "positions": [
                -0.023428133525433853,
                -1.871545077603789,
                -2.0209407654482003,
                1.1934641267499846,
                0.1982742239230645,
                -0.17159999895472444
            ]
        },
        {
            "positions": [
                -0.042229076069268956,
                -1.9484522402015558,
                -2.1382267133604316,
                1.2799187883133742,
                0.1744097862287664,
                -0.14693341989261627
            ]
        },
        {
            "positions": [
                -0.06103001861310406,
                -2.0253594027993227,
                -2.2555126612726624,
                1.3663734498767641,
                0.15054534853446833,
                -0.12226684083050812
            ]
        },
        {
            "positions": [
                -0.07983096115693916,
                -2.1022665653970893,
                -2.3727986091848936,
                1.4528281114401538,
                0.12668091084017022,
                -0.09760026176839995
            ]
        },
        {
            "positions": [
                -0.1332506849394838,
                -2.189474825888544,
                -2.3807667283618845,
                1.460213837307418,
                0.15634963932689785,
                -0.022886334558469973
            ]
        },
        {
            "positions": [
                -0.18667040872202845,
                -2.276683086379999,
                -2.3887348475388754,
                1.4675995631746823,
                0.1860183678136255,
                0.05182759265145999
            ]
        }
    ]
}