{
    "goal": {
        "global_pose": {
            "orientation": {
                "w": 0.005598929693374612,
                "x": 0.007748599140229565,
                "y": 0.7110244013736278,
                "z": -0.7031023480610252
            },
            "position": {
                "x": -0.8858502320852131,
                "y": -0.7141253447532654,
                "z": 0.3711530566215515
            }
        },
        "name": "move_to_auspresseinheit_C"
    },
    "id": "BKPIECE_move_to_auspresseinheit_C_139",
    "joint_names": [
        "shoulder_pan_joint",
        "shoulder_lift_joint",
        "elbow_joint",
        "wrist_1_joint",
        "wrist_2_joint",
        "wrist_3_joint"
    ],
    "metrics": {
        "cart_traj_len": 0.4932404476992601,
        "distance_elbow_joint": 1.0123516687391523,
        "distance_shoulder_lift_joint": 0.33160521212321425,
        "distance_shoulder_pan_joint": 0.2555193322387508,
        "distance_wrist_1_joint": 0.6993941151325538,
        "distance_wrist_2_joint": 1.3220314251000742,
        "distance_wrist_3_joint": 0.0792963774144897,
        "smoothness": 6.459479416000911e-16,
        "time": 0.275122336,
        "traj_len": 1.923589907113321,
        "weighted_distance": 2.424915756435642
    },
    "planner": "BKPIECE",
    "start": {
        "state": {
            "elbow_joint": 1.7527959577730765,
            "shoulder_lift_joint": -0.9740617694224828,
            "shoulder_pan_joint": -2.967991417825869,
            "wrist_1_joint": -0.7595177689779385,
            "wrist_2_joint": 1.7443932448376545,
            "wrist_3_joint": 3.1991315425061013
        }
    },
    "waypoints": [
        {
            "positions": [
                -2.967991417825869,
                -0.9740617694224828,
                1.7527959577730765,
                -0.7595177689779385,
                1.7443932448376545,
                3.1991315425061013
            ]
        },
        {
            "positions": [
                -2.942439484601994,
                -0.9409012482101614,
                1.6515607908991612,
                -0.6895783574646832,
                1.612190102327647,
                3.1912019047646525
            ]
        },
        {
            "positions": [
                -2.9168875513781187,
                -0.9077407269978399,
                1.550325624025246,
                -0.6196389459514278,
                1.4799869598176396,
                3.183272267023203
            ]
        },
        {
            "positions": [
                -2.891335618154244,
                -0.8745802057855185,
                1.4490904571513308,
                -0.5496995344381724,
                1.3477838173076322,
                3.1753426292817544
            ]
        },
        {
            "positions": [
                -2.865783684930369,
                -0.841419684573197,
                1.3478552902774155,
                -0.47976012292491704,
                1.2155806747976248,
                3.1674129915403055
            ]
        },
        {
            "positions": [
                -2.8402317517064937,
                -0.8082591633608757,
                1.2466201234035004,
                -0.40982071141166165,
                1.0833775322876174,
                3.1594833537988567
            ]
        },
        {
            "positions": [
                -2.8146798184826185,
                -0.7750986421485543,
                1.1453849565295853,
                -0.33988129989840626,
                0.9511743897776099,
                3.1515537160574074
            ]
        },
        {
            "positions": [
                -2.7891278852587433,
                -0.7419381209362328,
                1.04414978965567,
                -0.26994188838515093,
                0.8189712472676026,
                3.1436240783159586
            ]
        },
        {
            "positions": [
                -2.7635759520348686,
                -0.7087775997239114,
                0.9429146227817546,
                -0.20000247687189554,
                0.6867681047575951,
                3.1356944405745097
            ]
        },
        {
            "positions": [
                -2.7380240188109934,
                -0.67561707851159,
                0.8416794559078394,
                -0.1300630653586401,
                0.5545649622475877,
                3.1277648028330605
            ]
        },
        {
            "positions": [
                -2.7124720855871183,
                -0.6424565572992685,
                0.7404442890339243,
                -0.060123653845384734,
                0.4223618197375803,
                3.1198351650916116
            ]
        }
    ]
}