{
    "goal": {
        "global_pose": {
            "orientation": {
                "w": -0.4816463035849501,
                "x": 0.5182115481033762,
                "y": 0.4908360881923453,
                "z": -0.5084816262002911
            },
            "position": {
                "x": -0.8240239810943604,
                "y": 0.19912469901144506,
                "z": 0.16403168439865112
            }
        },
        "name": "move_to_storage_D"
    },
    "id": "BKPIECE_move_to_storage_D_76",
    "joint_names": [
        "shoulder_pan_joint",
        "shoulder_lift_joint",
        "elbow_joint",
        "wrist_1_joint",
        "wrist_2_joint",
        "wrist_3_joint"
    ],
    "metrics": {
        "cart_traj_len": 3.9366259383334685,
        "distance_elbow_joint": 4.2108110069081395,
        "distance_shoulder_lift_joint": 1.2643932820893309,
        "distance_shoulder_pan_joint": 2.812778010505785,
        "distance_wrist_1_joint": 2.2761297801808014,
        "distance_wrist_2_joint": 0.8752664197834563,
        "distance_wrist_3_joint": 3.1287556414039397,
        "smoothness": 0.0017306869258036973,
        "time": 0.295787621,
        "traj_len": 3.8168225189116995,
        "weighted_distance": 4.896635745452544
    },
    "planner": "BKPIECE",
    "start": {
        "state": {
            "elbow_joint": -2.384821990628643,
            "shoulder_lift_joint": -2.278805467437664,
            "shoulder_pan_joint": -0.18546946439364564,
            "wrist_1_joint": 1.4845938187801415,
            "wrist_2_joint": 0.178987772454074,
            "wrist_3_joint": 0.03710569632802521
        }
    },
    "waypoints": [
        {
            "positions": [
                -0.18546946439364564,
                -2.278805467437664,
                -2.384821990628643,
                1.4845938187801415,
                0.178987772454074,
                0.03710569632802521
            ]
        },
        {
            "positions": [
                0.0046407276923334795,
                -2.273338680707029,
                -2.2980822479631127,
                1.4853996955943891,
                0.2562922138450359,
                0.023377471630454894
            ]
        },
        {
            "positions": [
                0.1947509197783126,
                -2.2678718939763933,
                -2.211342505297582,
                1.4862055724086367,
                0.33359665523599785,
                0.009649246932884575
            ]
        },
        {
            "positions": [
                0.3848611118642917,
                -2.2624051072457583,
                -2.1246027626320516,
                1.4870114492228843,
                0.4109010966269598,
                -0.004078977764685743
            ]
        },
        {
            "positions": [
                0.4585472959810398,
                -2.232217834862883,
                -2.005000130617102,
                1.4091099089109171,
                0.41308870592613445,
                -0.09110784166379803
            ]
        },
        {
            "positions": [
                0.5322334800977879,
                -2.2020305624800085,
                -1.8853974986021524,
                1.33120836859895,
                0.41527631522530917,
                -0.1781367055629103
            ]
        },
        {
            "positions": [
                0.6059196642145359,
                -2.1718432900971334,
                -1.765794866587203,
                1.2533068282869828,
                0.41746392452448383,
                -0.2651655694620226
            ]
        },
        {
            "positions": [
                0.6796058483312841,
                -2.1416560177142583,
                -1.6461922345722533,
                1.1754052879750156,
                0.4196515338236585,
                -0.3521944333611349
            ]
        },
        {
            "positions": [
                0.7532920324480321,
                -2.111468745331383,
                -1.5265896025573036,
                1.0975037476630485,
                0.4218391431228332,
                -0.43922329726024717
            ]
        },
        {
            "positions": [
                0.8269782165647802,
                -2.0812814729485085,
                -1.406986970542354,
                1.0196022073510815,
                0.4240267524220079,
                -0.5262521611593594
            ]
        },
        {
            "positions": [
                0.9006644006815283,
                -2.0510942005656334,
                -1.2873843385274046,
                0.9417006670391143,
                0.42621436172118254,
                -0.6132810250584717
            ]
        },
        {
            "positions": [
                0.9743505847982764,
                -2.0209069281827583,
                -1.167781706512455,
                0.8637991267271471,
                0.42840197102035726,
                -0.7003098889575841
            ]
        },
        {
            "positions": [
                1.0480367689150245,
                -1.9907196557998834,
                -1.0481790744975052,
                0.7858975864151799,
                0.43058958031953193,
                -0.7873387528566964
            ]
        },
        {
            "positions": [
                1.1217229530317727,
                -1.9605323834170085,
                -0.9285764424825558,
                0.7079960461032128,
                0.4327771896187066,
                -0.8743676167558085
            ]
        },
        {
            "positions": [
                1.1954091371485207,
                -1.9303451110341334,
                -0.8089738104676063,
                0.6300945057912457,
                0.4349647989178813,
                -0.9613964806549209
            ]
        },
        {
            "positions": [
                1.2690953212652687,
                -1.9001578386512585,
                -0.6893711784526566,
                0.5521929654792785,
                0.437152408217056,
                -1.048425344554033
            ]
        },
        {
            "positions": [
                1.3427815053820167,
                -1.8699705662683834,
                -0.5697685464377069,
                0.4742914251673114,
                0.43934001751623064,
                -1.1354542084531454
            ]
        },
        {
            "positions": [
                1.416467689498765,
                -1.8397832938855085,
                -0.45016591442275744,
                0.3963898848553442,
                0.44152762681540536,
                -1.2224830723522577
            ]
        },
        {
            "positions": [
                1.4901538736155129,
                -1.8095960215026337,
                -0.33056328240780797,
                0.31848834454337704,
                0.44371523611458,
                -1.30951193625137
            ]
        },
        {
            "positions": [
                1.563840057732261,
                -1.7794087491197585,
                -0.21096065039285827,
                0.24058680423140988,
                0.4459028454137547,
                -1.3965408001504822
            ]
        },
        {
            "positions": [
                1.637526241849009,
                -1.7492214767368837,
                -0.09135801837790902,
                0.16268526391944294,
                0.44809045471292935,
                -1.4835696640495946
            ]
        },
        {
            "positions": [
                1.7112124259657573,
                -1.7190342043540086,
                0.028244613637041116,
                0.08478372360747555,
                0.4502780640121041,
                -1.570598527948707
            ]
        },
        {
            "positions": [
                1.7848986100825053,
                -1.6888469319711334,
                0.14784724565199037,
                0.006882183295508382,
                0.45246567331127874,
                -1.6576273918478193
            ]
        },
        {
            "positions": [
                1.8585847941992535,
                -1.6586596595882588,
                0.26744987766694006,
                -0.07101935701645878,
                0.45465328261045346,
                -1.7446562557469314
            ]
        },
        {
            "positions": [
                1.9322709783160015,
                -1.6284723872053837,
                0.38705250968188976,
                -0.14892089732842595,
                0.4568408919096281,
                -1.8316851196460437
            ]
        },
        {
            "positions": [
                2.0059571624327495,
                -1.5982851148225086,
                0.506655141696839,
                -0.2268224376403929,
                0.4590285012088028,
                -1.918713983545156
            ]
        },
        {
            "positions": [
                2.0796433465494975,
                -1.568097842439634,
                0.6262577737117887,
                -0.30472397795236006,
                0.46121611050797745,
                -2.0057428474442687
            ]
        },
        {
            "positions": [
                2.1533295306662454,
                -1.5379105700567588,
                0.7458604057267384,
                -0.3826255182643272,
                0.46340371980715217,
                -2.0927717113433806
            ]
        },
        {
            "positions": [
                2.227015714782994,
                -1.5077232976738837,
                0.8654630377416881,
                -0.4605270585762946,
                0.46559132910632683,
                -2.1798005752424934
            ]
        },
        {
            "positions": [
                2.300701898899742,
                -1.4775360252910086,
                0.9850656697566378,
                -0.5384285988882616,
                0.4677789384055015,
                -2.2668294391416053
            ]
        },
        {
            "positions": [
                2.3743880830164903,
                -1.447348752908134,
                1.104668301771587,
                -0.6163301392002289,
                0.4699665477046762,
                -2.3538583030407176
            ]
        },
        {
            "positions": [
                2.448074267133238,
                -1.4171614805252588,
                1.2242709337865367,
                -0.6942316795121959,
                0.4721541570038509,
                -2.44088716693983
            ]
        },
        {
            "positions": [
                2.473679164130224,
                -1.359625866928555,
                1.3102306598569595,
                -0.7074415396554786,
                0.5553113048943765,
                -2.5338532781021277
            ]
        },
        {
            "positions": [
                2.49928406112721,
                -1.3020902533318515,
                1.3961903859273823,
                -0.7206513997987612,
                0.6384684527849022,
                -2.6268193892644254
            ]
        },
        {
            "positions": [
                2.524888958124196,
                -1.2445546397351477,
                1.482150111997805,
                -0.733861259942044,
                0.7216256006754278,
                -2.719785500426723
            ]
        },
        {
            "positions": [
                2.5504938551211813,
                -1.1870190261384441,
                1.568109838068228,
                -0.7470711200853266,
                0.8047827485659534,
                -2.8127516115890208
            ]
        },
        {
            "positions": [
                2.5760987521181673,
                -1.1294834125417403,
                1.654069564138651,
                -0.7602809802286093,
                0.8879398964564791,
                -2.905717722751319
            ]
        },
        {
            "positions": [
                2.6017036491151533,
                -1.0719477989450368,
                1.7400292902090735,
                -0.773490840371892,
                0.9710970443470047,
                -2.9986838339136166
            ]
        },
        {
            "positions": [
                2.6273085461121393,
                -1.014412185348333,
                1.8259890162794965,
                -0.7867007005151747,
                1.0542541922375304,
                -3.0916499450759143
            ]
        }
    ]
}