{
    "goal": {
        "global_pose": {
            "orientation": {
                "w": 0.005598929693374612,
                "x": 0.007748599140229565,
                "y": 0.7110244013736278,
                "z": -0.7031023480610252
            },
            "position": {
                "x": 0.1141497679147869,
                "y": -0.7141253447532654,
                "z": 0.3711530566215515
            }
        },
        "name": "move_to_auspresseinheit_B"
    },
    "id": "BKPIECE_move_to_auspresseinheit_B_31",
    "joint_names": [
        "shoulder_pan_joint",
        "shoulder_lift_joint",
        "elbow_joint",
        "wrist_1_joint",
        "wrist_2_joint",
        "wrist_3_joint"
    ],
    "metrics": {
        "cart_traj_len": 0.5651496152113811,
        "distance_elbow_joint": 0.0647486036922158,
        "distance_shoulder_lift_joint": 0.29479888865390214,
        "distance_shoulder_pan_joint": 0.5776324145168727,
        "distance_wrist_1_joint": 0.3365092463655196,
        "distance_wrist_2_joint": 0.9945338759790852,
        "distance_wrist_3_joint": 0.00829256372859355,
        "smoothness": 3.806478935924272e-16,
        "time": 0.281674178,
        "traj_len": 1.5088126434173956,
        "weighted_distance": 1.9037184252766954
    },
    "planner": "BKPIECE",
    "start": {
        "state": {
            "elbow_joint": 2.0193061681459312,
            "shoulder_lift_joint": -1.1220205130644991,
            "shoulder_pan_joint": -1.0952072088045026,
            "wrist_1_joint": -0.8559671810662515,
            "wrist_2_joint": 0.4759638712940361,
            "wrist_3_joint": 3.159081874192446
        }
    },
    "waypoints": [
        {
            "positions": [
                -1.0952072088045026,
                -1.1220205130644991,
                2.0193061681459312,
                -0.8559671810662515,
                0.4759638712940361,
                3.159081874192446
            ]
        },
        {
            "positions": [
                -1.191479277890648,
                -1.1711536611734827,
                2.0085147341972287,
                -0.7998823066719982,
                0.6417195172905503,
                3.1576997802376803
            ]
        },
        {
            "positions": [
                -1.2877513469767936,
                -1.2202868092824666,
                1.997723300248526,
                -0.743797432277745,
                0.8074751632870645,
                3.156317686282915
            ]
        },
        {
            "positions": [
                -1.384023416062939,
                -1.2694199573914502,
                1.9869318662998232,
                -0.6877125578834917,
                0.9732308092835786,
                3.1549355923281492
            ]
        },
        {
            "positions": [
                -1.4802954851490844,
                -1.3185531055004338,
                1.9761404323511207,
                -0.6316276834892385,
                1.1389864552800928,
                3.1535534983733835
            ]
        },
        {
            "positions": [
                -1.57656755423523,
                -1.3676862536094176,
                1.9653489984024182,
                -0.5755428090949851,
                1.3047421012766072,
                3.152171404418618
            ]
        },
        {
            "positions": [
                -1.6728396233213754,
                -1.4168194017184013,
                1.9545575644537154,
                -0.5194579347007319,
                1.4704977472731213,
                3.1507893104638525
            ]
        }
    ]
}