{
    "goal": {
        "global_pose": {
            "orientation": {
                "w": 0.5084816262002911,
                "x": -0.4908360881923452,
                "y": 0.5182115481033761,
                "z": -0.48164630358495003
            },
            "position": {
                "x": 0.5540239810943604,
                "y": -0.46912469901144505,
                "z": 0.16403168439865112
            }
        },
        "name": "move_to_storage_B"
    },
    "id": "BKPIECE_move_to_storage_B_138",
    "joint_names": [
        "shoulder_pan_joint",
        "shoulder_lift_joint",
        "elbow_joint",
        "wrist_1_joint",
        "wrist_2_joint",
        "wrist_3_joint"
    ],
    "metrics": {
        "cart_traj_len": 1.8888881237248314,
        "distance_elbow_joint": 1.52598162219114,
        "distance_shoulder_lift_joint": 0.6697187415352053,
        "distance_shoulder_pan_joint": 1.53863908645514,
        "distance_wrist_1_joint": 2.9955581899195325,
        "distance_wrist_2_joint": 2.7021214554761697,
        "distance_wrist_3_joint": 3.1480536079729995,
        "smoothness": 0.26469148471809256,
        "time": 0.320385552,
        "traj_len": 3.546839819268723,
        "weighted_distance": 4.957202796425811
    },
    "planner": "BKPIECE",
    "start": {
        "state": {
            "elbow_joint": 1.6649325340416963,
            "shoulder_lift_joint": -0.6616387945129425,
            "shoulder_pan_joint": -0.9139837929255878,
            "wrist_1_joint": 2.1467571094334352,
            "wrist_2_joint": -2.234195976750228,
            "wrist_3_joint": 0.005470921511140723
        }
    },
    "waypoints": [
        {
            "positions": [
                -0.9139837929255878,
                -0.6616387945129425,
                1.6649325340416963,
                2.1467571094334352,
                -2.234195976750228,
                0.005470921511140723
            ]
        },
        {
            "positions": [
                -0.8223759978869011,
                -0.6483541965011688,
                1.6393086029475188,
                2.152983783842001,
                -2.1785235908875435,
                0.00298891459794947
            ]
        },
        {
            "positions": [
                -0.7878789362456484,
                -0.6815469299086049,
                1.6062165151398742,
                2.0453758320881406,
                -2.06436739778358,
                0.056448019356612845
            ]
        },
        {
            "positions": [
                -0.7533818746043957,
                -0.7147396633160409,
                1.5731244273322293,
                1.9377678803342802,
                -1.9502112046796167,
                0.10990712411527623
            ]
        },
        {
            "positions": [
                -0.718884812963143,
                -0.747932396723477,
                1.5400323395245847,
                1.8301599285804198,
                -1.8360550115756533,
                0.16336622887393962
            ]
        },
        {
            "positions": [
                -0.6843877513218903,
                -0.7811251301309131,
                1.5069402517169401,
                1.7225519768265594,
                -1.7218988184716901,
                0.21682533363260298
            ]
        },
        {
            "positions": [
                -0.6498906896806376,
                -0.8143178635383492,
                1.4738481639092953,
                1.614944025072699,
                -1.6077426253677267,
                0.27028443839126637
            ]
        },
        {
            "positions": [
                -0.6153936280393849,
                -0.8475105969457852,
                1.4407560761016507,
                1.5073360733188383,
                -1.4935864322637633,
                0.32374354314992976
            ]
        },
        {
            "positions": [
                -0.5808965663981323,
                -0.8807033303532213,
                1.407663988294006,
                1.3997281215649782,
                -1.3794302391598001,
                0.3772026479085931
            ]
        },
        {
            "positions": [
                -0.5463995047568795,
                -0.9138960637606575,
                1.3745719004863615,
                1.2921201698111175,
                -1.2652740460558367,
                0.4306617526672565
            ]
        },
        {
            "positions": [
                -0.5119024431156269,
                -0.9470887971680935,
                1.3414798126787166,
                1.1845122180572571,
                -1.1511178529518733,
                0.4841208574259198
            ]
        },
        {
            "positions": [
                -0.47740538147437417,
                -0.9802815305755296,
                1.308387724871072,
                1.0769042663033968,
                -1.0369616598479099,
                0.5375799621845833
            ]
        },
        {
            "positions": [
                -0.44290831983312146,
                -1.0134742639829657,
                1.2752956370634274,
                0.9692963145495361,
                -0.9228054667439465,
                0.5910390669432466
            ]
        },
        {
            "positions": [
                -0.40841125819186874,
                -1.0466669973904017,
                1.2422035492557826,
                0.8616883627956757,
                -0.8086492736399831,
                0.64449817170191
            ]
        },
        {
            "positions": [
                -0.37391419655061614,
                -1.0798597307978377,
                1.209111461448138,
                0.7540804110418156,
                -0.6944930805360199,
                0.6979572764605733
            ]
        },
        {
            "positions": [
                -0.3394171349093634,
                -1.113052464205274,
                1.1760193736404934,
                0.6464724592879552,
                -0.5803368874320565,
                0.7514163812192367
            ]
        },
        {
            "positions": [
                -0.30492007326811077,
                -1.14624519761271,
                1.1429272858328487,
                0.5388645075340945,
                -0.46618069432809306,
                0.8048754859779
            ]
        },
        {
            "positions": [
                -0.270423011626858,
                -1.179437931020146,
                1.1098351980252041,
                0.43125655578023414,
                -0.35202450122412965,
                0.8583345907365635
            ]
        },
        {
            "positions": [
                -0.23592594998560537,
                -1.2126306644275822,
                1.0767431102175593,
                0.32364860402637374,
                -0.23786830812016627,
                0.9117936954952268
            ]
        },
        {
            "positions": [
                -0.2897122777053027,
                -1.2068708097027685,
                1.135355122615497,
                0.2511488330454149,
                -0.19375619644228462,
                1.0515916217553851
            ]
        },
        {
            "positions": [
                -0.3434986054250001,
                -1.2011109549779548,
                1.1939671350134347,
                0.17864906206445613,
                -0.14964408476440297,
                1.1913895480155432
            ]
        },
        {
            "positions": [
                -0.3972849331446975,
                -1.1953511002531412,
                1.2525791474113723,
                0.10614929108349733,
                -0.10553197308652132,
                1.3311874742757013
            ]
        },
        {
            "positions": [
                -0.45107126086439486,
                -1.1895912455283275,
                1.31119115980931,
                0.03364952010253852,
                -0.06141986140863967,
                1.4709854005358596
            ]
        },
        {
            "positions": [
                -0.5048575885840922,
                -1.183831390803514,
                1.3698031722072477,
                -0.03885025087842031,
                -0.01730774973075802,
                1.6107833267960179
            ]
        },
        {
            "positions": [
                -0.5586439163037896,
                -1.1780715360787004,
                1.4284151846051856,
                -0.11135002185937909,
                0.02680436194712363,
                1.750581253056176
            ]
        },
        {
            "positions": [
                -0.612430244023487,
                -1.1723116813538867,
                1.487027197003123,
                -0.18384979284033787,
                0.07091647362500528,
                1.890379179316334
            ]
        },
        {
            "positions": [
                -0.6662165717431844,
                -1.166551826629073,
                1.545639209401061,
                -0.2563495638212967,
                0.11502858530288693,
                2.0301771055764926
            ]
        },
        {
            "positions": [
                -0.7200028994628818,
                -1.1607919719042594,
                1.6042512217989984,
                -0.32884933480225553,
                0.15914069698076858,
                2.1699750318366506
            ]
        },
        {
            "positions": [
                -0.773789227182579,
                -1.1550321171794458,
                1.6628632341969363,
                -0.40134910578321437,
                0.20325280865865022,
                2.3097729580968087
            ]
        },
        {
            "positions": [
                -0.8275755549022764,
                -1.149272262454632,
                1.7214752465948737,
                -0.4738488767641731,
                0.24736492033653187,
                2.449570884356967
            ]
        },
        {
            "positions": [
                -0.8813618826219738,
                -1.1435124077298187,
                1.7800872589928116,
                -0.5463486477451319,
                0.29147703201441355,
                2.589368810617125
            ]
        },
        {
            "positions": [
                -0.9351482103416712,
                -1.137752553005005,
                1.8386992713907493,
                -0.6188484187260908,
                0.3355891436922952,
                2.729166736877283
            ]
        },
        {
            "positions": [
                -0.9889345380613686,
                -1.1319926982801913,
                1.897311283788687,
                -0.6913481897070495,
                0.37970125537017685,
                2.8689646631374415
            ]
        },
        {
            "positions": [
                -1.042720865781066,
                -1.1262328435553777,
                1.9559232961866246,
                -0.7638479606880084,
                0.4238133670480585,
                3.0087625893976
            ]
        },
        {
            "positions": [
                -1.0965071935007633,
                -1.120472988830564,
                2.0145353085845623,
                -0.836347731668967,
                0.46792547872594015,
                3.1485605156577576
            ]
        }
    ]
}