{
    "goal": {
        "global_pose": {
            "orientation": {
                "w": 0.7031023480610252,
                "x": -0.7110244013736278,
                "y": 0.0077485991402295624,
                "z": 0.005598929693374583
            },
            "position": {
                "x": -0.8841497679147869,
                "y": 0.44412534475326537,
                "z": 0.3711530566215515
            }
        },
        "name": "move_to_auspresseinheit_D"
    },
    "id": "BKPIECE_move_to_auspresseinheit_D_147",
    "joint_names": [
        "shoulder_pan_joint",
        "shoulder_lift_joint",
        "elbow_joint",
        "wrist_1_joint",
        "wrist_2_joint",
        "wrist_3_joint"
    ],
    "metrics": {
        "cart_traj_len": 0.34358268104901496,
        "distance_elbow_joint": 0.6494089032345041,
        "distance_shoulder_lift_joint": 0.12670693060000549,
        "distance_shoulder_pan_joint": 0.13336847822534117,
        "distance_wrist_1_joint": 0.5726435215678092,
        "distance_wrist_2_joint": 1.4347251457711214,
        "distance_wrist_3_joint": 0.04184617666598767,
        "smoothness": 8.881784241622594e-16,
        "time": 0.258981089,
        "traj_len": 1.720086961773959,
        "weighted_distance": 2.2471671448149277
    },
    "planner": "BKPIECE",
    "start": {
        "state": {
            "elbow_joint": -1.8275484843655228,
            "shoulder_lift_joint": -2.1267897864000416,
            "shoulder_pan_joint": -0.035127520176001514,
            "wrist_1_joint": -2.3477863256791385,
            "wrist_2_joint": -1.605890476484521,
            "wrist_3_joint": -3.0880375317375353
        }
    },
    "waypoints": [
        {
            "positions": [
                -0.035127520176001514,
                -2.1267897864000416,
                -1.8275484843655228,
                -2.3477863256791385,
                -1.605890476484521,
                -3.0880375317375353
            ]
        },
        {
            "positions": [
                -0.05179857995416916,
                -2.142628152725042,
                -1.7463723714612098,
                -2.4193667658751146,
                -1.4265498332631308,
                -3.0828067596542867
            ]
        },
        {
            "positions": [
                -0.0684696397323368,
                -2.1584665190500427,
                -1.6651962585568967,
                -2.4909472060710907,
                -1.2472091900417406,
                -3.0775759875710382
            ]
        },
        {
            "positions": [
                -0.08514069951050446,
                -2.1743048853750437,
                -1.5840201456525838,
                -2.5625276462670667,
                -1.0678685468203506,
                -3.0723452154877897
            ]
        },
        {
            "positions": [
                -0.1018117592886721,
                -2.1901432517000443,
                -1.5028440327482708,
                -2.6341080864630433,
                -0.8885279035989603,
                -3.0671144434045416
            ]
        },
        {
            "positions": [
                -0.11848281906683975,
                -2.205981618025045,
                -1.4216679198439577,
                -2.7056885266590194,
                -0.7091872603775701,
                -3.061883671321293
            ]
        },
        {
            "positions": [
                -0.1351538788450074,
                -2.221819984350046,
                -1.3404918069396448,
                -2.7772689668549955,
                -0.52984661715618,
                -3.0566528992380446
            ]
        },
        {
            "positions": [
                -0.15182493862317503,
                -2.2376583506750465,
                -1.2593156940353318,
                -2.8488494070509716,
                -0.35050597393478977,
                -3.051422127154796
            ]
        },
        {
            "positions": [
                -0.1684959984013427,
                -2.253496717000047,
                -1.1781395811310187,
                -2.9204298472469477,
                -0.1711653307133995,
                -3.0461913550715476
            ]
        }
    ]
}