{
    "goal": {
        "global_pose": {
            "orientation": {
                "w": -0.00223480608172531,
                "x": 0.0024358444001904467,
                "y": 0.7094548369677653,
                "z": -0.704743149386269
            },
            "position": {
                "x": 0.6205249238014221,
                "y": -0.6371506643295288,
                "z": 0.19426114857196808
            }
        },
        "name": "move_to_magneteinheit_B"
    },
    "id": "BKPIECE_move_to_magneteinheit_B_123",
    "joint_names": [
        "shoulder_pan_joint",
        "shoulder_lift_joint",
        "elbow_joint",
        "wrist_1_joint",
        "wrist_2_joint",
        "wrist_3_joint"
    ],
    "metrics": {
        "cart_traj_len": 6.87877699900378,
        "distance_elbow_joint": 4.508221177647844,
        "distance_shoulder_lift_joint": 3.471250693955785,
        "distance_shoulder_pan_joint": 2.8768715362705723,
        "distance_wrist_1_joint": 3.653832625398619,
        "distance_wrist_2_joint": 2.7065437358135225,
        "distance_wrist_3_joint": 3.535200011636779,
        "smoothness": 0.6356297861193461,
        "time": 0.407468968,
        "traj_len": 4.555427508008784,
        "weighted_distance": 5.846596973044133
    },
    "planner": "BKPIECE",
    "start": {
        "state": {
            "elbow_joint": 2.393587130804639,
            "shoulder_lift_joint": -1.9085141043513325,
            "shoulder_pan_joint": 0.7066247066698809,
            "wrist_1_joint": -0.4678290934590222,
            "wrist_2_joint": 0.7096259084215963,
            "wrist_3_joint": 3.147370379541726
        }
    },
    "waypoints": [
        {
            "positions": [
                0.7066247066698809,
                -1.9085141043513325,
                2.393587130804639,
                -0.4678290934590222,
                0.7096259084215963,
                3.147370379541726
            ]
        },
        {
            "positions": [
                0.6485612491985714,
                -1.9011665450516029,
                2.3668788939078507,
                -0.4839282961321063,
                0.7104679341541982,
                3.0044372071903425
            ]
        },
        {
            "positions": [
                0.5904977917272619,
                -1.8938189857518735,
                2.340170657011063,
                -0.5000274988051904,
                0.7113099598867999,
                2.8615040348389584
            ]
        },
        {
            "positions": [
                0.5791221892515142,
                -1.8805688031853187,
                2.2275170504673616,
                -0.5255773873754193,
                0.6831396052781629,
                2.6824137841011413
            ]
        },
        {
            "positions": [
                0.5677465867757663,
                -1.867318620618764,
                2.11486344392366,
                -0.551127275945648,
                0.6549692506695259,
                2.503323533363324
            ]
        },
        {
            "positions": [
                0.6567084404179134,
                -1.8641033699073895,
                1.9412352553037993,
                -0.5802736006977579,
                0.6120747336569905,
                2.4494850972141227
            ]
        },
        {
            "positions": [
                0.7456702940600606,
                -1.860888119196015,
                1.7676070666839385,
                -0.6094199254498678,
                0.5691802166444551,
                2.395646661064921
            ]
        },
        {
            "positions": [
                0.8346321477022076,
                -1.8576728684846402,
                1.5939788780640778,
                -0.6385662502019777,
                0.5262856996319196,
                2.3418082249157197
            ]
        },
        {
            "positions": [
                0.9235940013443549,
                -1.8544576177732657,
                1.4203506894442168,
                -0.6677125749540875,
                0.48339118261938424,
                2.287969788766518
            ]
        },
        {
            "positions": [
                1.012555854986502,
                -1.8512423670618912,
                1.2467225008243559,
                -0.6968588997061974,
                0.4404966656068488,
                2.2341313526173163
            ]
        },
        {
            "positions": [
                1.101517708628649,
                -1.8480271163505166,
                1.0730943122044951,
                -0.7260052244583073,
                0.39760214859431336,
                2.180292916468115
            ]
        },
        {
            "positions": [
                1.1904795622707962,
                -1.844811865639142,
                0.8994661235846342,
                -0.755151549210417,
                0.354707631581778,
                2.1264544803189134
            ]
        },
        {
            "positions": [
                1.2794414159129435,
                -1.8415966149277674,
                0.7258379349647732,
                -0.784297873962527,
                0.31181311456924254,
                2.072616044169712
            ]
        },
        {
            "positions": [
                1.3684032695550905,
                -1.8383813642163929,
                0.5522097463449125,
                -0.8134441987146368,
                0.2689185975567071,
                2.0187776080205104
            ]
        },
        {
            "positions": [
                1.4573651231972375,
                -1.8351661135050183,
                0.37858155772505153,
                -0.8425905234667468,
                0.22602408054417167,
                1.964939171871309
            ]
        },
        {
            "positions": [
                1.546326976839385,
                -1.8319508627936436,
                0.20495336910519057,
                -0.8717368482188566,
                0.18312956353163623,
                1.911100735722107
            ]
        },
        {
            "positions": [
                1.6352888304815318,
                -1.828735612082269,
                0.03132518048533006,
                -0.9008831729709665,
                0.1402350465191008,
                1.8572622995729056
            ]
        },
        {
            "positions": [
                1.724250684123679,
                -1.8255203613708946,
                -0.14230300813453134,
                -0.9300294977230763,
                0.09734052950656535,
                1.803423863423704
            ]
        },
        {
            "positions": [
                1.8132125377658261,
                -1.82230511065952,
                -0.31593119675439185,
                -0.9591758224751862,
                0.05444601249403003,
                1.7495854272745026
            ]
        },
        {
            "positions": [
                1.9021743914079734,
                -1.8190898599481453,
                -0.4895593853742528,
                -0.988322147227296,
                0.011551495481494478,
                1.6957469911253011
            ]
        },
        {
            "positions": [
                1.9911362450501204,
                -1.8158746092367708,
                -0.6631875739941138,
                -1.0174684719794058,
                -0.03134302153104085,
                1.6419085549760997
            ]
        },
        {
            "positions": [
                2.0800980986922677,
                -1.8126593585253963,
                -0.8368157626139747,
                -1.0466147967315158,
                -0.07423753854357629,
                1.588070118826898
            ]
        },
        {
            "positions": [
                2.1690599523344147,
                -1.8094441078140218,
                -1.0104439512338352,
                -1.0757611214836258,
                -0.11713205555611172,
                1.5342316826776965
            ]
        },
        {
            "positions": [
                2.258021805976562,
                -1.806228857102647,
                -1.1840721398536962,
                -1.1049074462357356,
                -0.16002657256864716,
                1.480393246528495
            ]
        },
        {
            "positions": [
                2.346983659618709,
                -1.8030136063912725,
                -1.3577003284735571,
                -1.1340537709878453,
                -0.2029210895811826,
                1.4265548103792935
            ]
        },
        {
            "positions": [
                2.4359455132608563,
                -1.799798355679898,
                -1.5313285170934183,
                -1.1632000957399553,
                -0.24581560659371807,
                1.3727163742300919
            ]
        },
        {
            "positions": [
                2.485743324443227,
                -1.6644691054100973,
                -1.5201072329882763,
                -1.086790377169812,
                -0.3310818317884776,
                1.3883919323308453
            ]
        },
        {
            "positions": [
                2.5355411356255977,
                -1.5291398551402966,
                -1.5088859488831343,
                -1.0103806585996686,
                -0.4163480569832372,
                1.404067490431599
            ]
        },
        {
            "positions": [
                2.5853389468079686,
                -1.3938106048704961,
                -1.4976646647779923,
                -0.9339709400295252,
                -0.5016142821779968,
                1.4197430485323526
            ]
        },
        {
            "positions": [
                2.635136757990339,
                -1.2584813546006952,
                -1.4864433806728503,
                -0.8575612214593817,
                -0.5868805073727563,
                1.435418606633106
            ]
        },
        {
            "positions": [
                2.68493456917271,
                -1.1231521043308947,
                -1.4752220965677083,
                -0.7811515028892384,
                -0.6721467325675158,
                1.4510941647338595
            ]
        },
        {
            "positions": [
                2.7347323803550805,
                -0.987822854061094,
                -1.464000812462566,
                -0.7047417843190951,
                -0.7574129577622754,
                1.4667697228346133
            ]
        },
        {
            "positions": [
                2.7845301915374514,
                -0.8524936037912932,
                -1.452779528357424,
                -0.6283320657489517,
                -0.8426791829570349,
                1.4824452809353668
            ]
        },
        {
            "positions": [
                2.834328002719822,
                -0.7171643535214927,
                -1.441558244252282,
                -0.5519223471788083,
                -0.9279454081517945,
                1.4981208390361203
            ]
        },
        {
            "positions": [
                2.884125813902193,
                -0.5818351032516917,
                -1.43033696014714,
                -0.47551262860866483,
                -1.0132116333465542,
                1.5137963971368738
            ]
        },
        {
            "positions": [
                2.9339236250845633,
                -0.44650585298189127,
                -1.419115676041998,
                -0.3991029100385216,
                -1.0984778585413135,
                1.5294719552376275
            ]
        },
        {
            "positions": [
                2.983721436266934,
                -0.3111766027120906,
                -1.407894391936856,
                -0.32269319146837816,
                -1.183744083736073,
                1.545147513338381
            ]
        },
        {
            "positions": [
                2.9650956682428067,
                -0.4257410216747097,
                -1.4314271679285406,
                -0.4304319391097172,
                -1.1330520812822535,
                1.6069508406036175
            ]
        },
        {
            "positions": [
                2.946469900218679,
                -0.5403054406373288,
                -1.4549599439202252,
                -0.5381706867510563,
                -1.0823600788284338,
                1.668754167868854
            ]
        },
        {
            "positions": [
                2.9278441321945516,
                -0.6548698595999478,
                -1.4784927199119098,
                -0.6459094343923955,
                -1.0316680763746142,
                1.7305574951340907
            ]
        },
        {
            "positions": [
                2.9092183641704246,
                -0.769434278562567,
                -1.5020254959035944,
                -0.7536481820337344,
                -0.9809760739207947,
                1.7923608223993273
            ]
        },
        {
            "positions": [
                2.890592596146297,
                -0.8839986975251859,
                -1.5255582718952791,
                -0.8613869296750735,
                -0.930284071466975,
                1.8541641496645638
            ]
        },
        {
            "positions": [
                2.8719668281221695,
                -0.998563116487805,
                -1.5490910478869637,
                -0.9691256773164126,
                -0.8795920690131553,
                1.9159674769298003
            ]
        },
        {
            "positions": [
                2.853341060098042,
                -1.113127535450424,
                -1.5726238238786483,
                -1.0768644249577517,
                -0.8289000665593358,
                1.9777708041950368
            ]
        },
        {
            "positions": [
                2.8347152920739145,
                -1.2276919544130434,
                -1.5961565998703329,
                -1.1846031725990906,
                -0.7782080641055162,
                2.0395741314602733
            ]
        },
        {
            "positions": [
                2.816089524049787,
                -1.3422563733756623,
                -1.6196893758620174,
                -1.2923419202404296,
                -0.7275160616516966,
                2.10137745872551
            ]
        },
        {
            "positions": [
                2.7974637560256594,
                -1.4568207923382812,
                -1.643222151853702,
                -1.4000806678817688,
                -0.6768240591978769,
                2.163180785990747
            ]
        },
        {
            "positions": [
                2.7788379880015324,
                -1.5713852113009004,
                -1.6667549278453868,
                -1.5078194155231077,
                -0.6261320567440574,
                2.2249841132559833
            ]
        },
        {
            "positions": [
                2.760212219977405,
                -1.6859496302635195,
                -1.6902877038370714,
                -1.6155581631644471,
                -0.5754400542902376,
                2.28678744052122
            ]
        },
        {
            "positions": [
                2.7415864519532773,
                -1.8005140492261387,
                -1.713820479828756,
                -1.723296910805786,
                -0.524748051836418,
                2.3485907677864564
            ]
        },
        {
            "positions": [
                2.72296068392915,
                -1.9150784681887576,
                -1.7373532558204405,
                -1.8310356584471252,
                -0.4740560493825984,
                2.410394095051693
            ]
        },
        {
            "positions": [
                2.7043349159050223,
                -2.0296428871513768,
                -1.760886031812125,
                -1.9387744060884642,
                -0.4233640469287788,
                2.4721974223169294
            ]
        },
        {
            "positions": [
                2.6936769042741777,
                -2.068504614120691,
                -1.7341660906326364,
                -2.0642427821449703,
                -0.4357204479083169,
                2.6374636618765064
            ]
        },
        {
            "positions": [
                2.683018892643333,
                -2.1073663410900054,
                -1.7074461494531477,
                -2.189711158201476,
                -0.4480768488878549,
                2.8027299014360834
            ]
        },
        {
            "positions": [
                2.672360881012489,
                -2.1462280680593198,
                -1.680726208273659,
                -2.3151795342579815,
                -0.46043324986739287,
                2.96799614099566
            ]
        },
        {
            "positions": [
                2.6617028693816445,
                -2.185089795028634,
                -1.6540062670941702,
                -2.4406479103144876,
                -0.4727896508469309,
                3.133262380555237
            ]
        }
    ]
}