{
    "goal": {
        "global_pose": {
            "orientation": {
                "w": -0.00223480608172531,
                "x": 0.0024358444001904467,
                "y": 0.7094548369677653,
                "z": -0.704743149386269
            },
            "position": {
                "x": 0.6205249238014221,
                "y": -0.6371506643295288,
                "z": 0.19426114857196808
            }
        },
        "name": "move_to_magneteinheit_B"
    },
    "id": "BKPIECE_move_to_magneteinheit_B_103",
    "joint_names": [
        "shoulder_pan_joint",
        "shoulder_lift_joint",
        "elbow_joint",
        "wrist_1_joint",
        "wrist_2_joint",
        "wrist_3_joint"
    ],
    "metrics": {
        "cart_traj_len": 1.4516346976815362,
        "distance_elbow_joint": 0.7257513240527091,
        "distance_shoulder_lift_joint": 1.2460120116561182,
        "distance_shoulder_pan_joint": 1.6209928691379512,
        "distance_wrist_1_joint": 2.610633376242112,
        "distance_wrist_2_joint": 2.9346036464334553,
        "distance_wrist_3_joint": 3.1456741242080057,
        "smoothness": 7.536059364318365e-16,
        "time": 0.175864267,
        "traj_len": 3.504806321571899,
        "weighted_distance": 4.911237382047617
    },
    "planner": "BKPIECE",
    "start": {
        "state": {
            "elbow_joint": 2.393587130804639,
            "shoulder_lift_joint": -1.9085141043513325,
            "shoulder_pan_joint": 0.7066247066698809,
            "wrist_1_joint": -0.4678290934590222,
            "wrist_2_joint": 0.7096259084215963,
            "wrist_3_joint": 3.147370379541726
        }
    },
    "waypoints": [
        {
            "positions": [
                0.7066247066698809,
                -1.9085141043513325,
                2.393587130804639,
                -0.4678290934590222,
                0.7096259084215963,
                3.147370379541726
            ]
        },
        {
            "positions": [
                0.6559686795093199,
                -1.8695762289870788,
                2.3709074019279917,
                -0.3862468004514562,
                0.6179195444705509,
                3.049068063160226
            ]
        },
        {
            "positions": [
                0.6053126523487589,
                -1.8306383536228252,
                2.3482276730513445,
                -0.3046645074438902,
                0.5262131805195054,
                2.9507657467787256
            ]
        },
        {
            "positions": [
                0.5546566251881979,
                -1.7917004782585715,
                2.3255479441746973,
                -0.22308221443632417,
                0.4345068165684599,
                2.8524634303972256
            ]
        },
        {
            "positions": [
                0.504000598027637,
                -1.7527626028943177,
                2.30286821529805,
                -0.14149992142875817,
                0.34280045261741443,
                2.754161114015725
            ]
        },
        {
            "positions": [
                0.453344570867076,
                -1.713824727530064,
                2.280188486421403,
                -0.05991762842119214,
                0.25109408866636895,
                2.655858797634225
            ]
        },
        {
            "positions": [
                0.402688543706515,
                -1.6748868521658102,
                2.257508757544756,
                0.02166466458637384,
                0.15938772471532348,
                2.5575564812527247
            ]
        },
        {
            "positions": [
                0.352032516545954,
                -1.6359489768015567,
                2.2348290286681087,
                0.10324695759393981,
                0.067681360764278,
                2.4592541648712247
            ]
        },
        {
            "positions": [
                0.3013764893853931,
                -1.597011101437303,
                2.2121492997914616,
                0.18482925060150585,
                -0.02402500318676748,
                2.3609518484897247
            ]
        },
        {
            "positions": [
                0.25072046222483213,
                -1.5580732260730492,
                2.1894695709148144,
                0.2664115436090719,
                -0.11573136713781296,
                2.2626495321082243
            ]
        },
        {
            "positions": [
                0.20006443506427118,
                -1.5191353507087957,
                2.1667898420381673,
                0.3479938366166379,
                -0.20743773108885843,
                2.1643472157267243
            ]
        },
        {
            "positions": [
                0.14940840790371013,
                -1.480197475344542,
                2.14411011316152,
                0.42957612962420383,
                -0.2991440950399038,
                2.066044899345224
            ]
        },
        {
            "positions": [
                0.09875238074314918,
                -1.4412595999802882,
                2.121430384284873,
                0.5111584226317698,
                -0.3908504589909494,
                1.9677425829637238
            ]
        },
        {
            "positions": [
                0.048096353582588236,
                -1.4023217246160344,
                2.098750655408226,
                0.5927407156393358,
                -0.482556822941995,
                1.8694402665822236
            ]
        },
        {
            "positions": [
                -0.002559673577972821,
                -1.3633838492517807,
                2.0760709265315787,
                0.6743230086469019,
                -0.5742631868930403,
                1.7711379502007236
            ]
        },
        {
            "positions": [
                -0.05321570073853377,
                -1.3244459738875272,
                2.0533911976549315,
                0.7559053016544679,
                -0.6659695508440857,
                1.6728356338192234
            ]
        },
        {
            "positions": [
                -0.10387172789909471,
                -1.2855080985232734,
                2.0307114687782843,
                0.8374875946620339,
                -0.7576759147951313,
                1.5745333174377232
            ]
        },
        {
            "positions": [
                -0.15452775505965566,
                -1.2465702231590197,
                2.008031739901637,
                0.9190698876696,
                -0.8493822787461769,
                1.476231001056223
            ]
        },
        {
            "positions": [
                -0.2051837822202166,
                -1.2076323477947661,
                1.98535201102499,
                1.000652180677166,
                -0.9410886426972223,
                1.3779286846747227
            ]
        },
        {
            "positions": [
                -0.25583980938077766,
                -1.1686944724305124,
                1.9626722821483429,
                1.082234473684732,
                -1.0327950066482676,
                1.2796263682932227
            ]
        },
        {
            "positions": [
                -0.3064958365413385,
                -1.1297565970662586,
                1.9399925532716957,
                1.163816766692298,
                -1.1245013705993132,
                1.1813240519117225
            ]
        },
        {
            "positions": [
                -0.35715186370189966,
                -1.090818721702005,
                1.9173128243950484,
                1.2453990596998639,
                -1.2162077345503588,
                1.083021735530222
            ]
        },
        {
            "positions": [
                -0.4078078908624606,
                -1.0518808463377511,
                1.8946330955184012,
                1.32698135270743,
                -1.307914098501404,
                0.9847194191487221
            ]
        },
        {
            "positions": [
                -0.45846391802302155,
                -1.0129429709734976,
                1.8719533666417543,
                1.408563645714996,
                -1.3996204624524495,
                0.8864171027672221
            ]
        },
        {
            "positions": [
                -0.5091199451835825,
                -0.9740050956092439,
                1.849273637765107,
                1.490145938722562,
                -1.4913268264034951,
                0.7881147863857216
            ]
        },
        {
            "positions": [
                -0.5597759723441434,
                -0.9350672202449901,
                1.8265939088884597,
                1.571728231730128,
                -1.5830331903545407,
                0.6898124700042216
            ]
        },
        {
            "positions": [
                -0.6104319995047044,
                -0.8961293448807364,
                1.8039141800118126,
                1.6533105247376938,
                -1.6747395543055863,
                0.5915101536227212
            ]
        },
        {
            "positions": [
                -0.6610880266652653,
                -0.8571914695164828,
                1.7812344511351654,
                1.73489281774526,
                -1.7664459182566314,
                0.4932078372412212
            ]
        },
        {
            "positions": [
                -0.7117440538258265,
                -0.8182535941522291,
                1.7585547222585183,
                1.8164751107528259,
                -1.858152282207677,
                0.3949055208597212
            ]
        },
        {
            "positions": [
                -0.7624000809863875,
                -0.7793157187879753,
                1.7358749933818711,
                1.8980574037603921,
                -1.9498586461587226,
                0.29660320447822075
            ]
        },
        {
            "positions": [
                -0.8130561081469484,
                -0.7403778434237218,
                1.713195264505224,
                1.979639696767958,
                -2.0415650101097675,
                0.19830088809672075
            ]
        },
        {
            "positions": [
                -0.8637121353075093,
                -0.7014399680594681,
                1.6905155356285768,
                2.061221989775524,
                -2.133271374060813,
                0.09999857171522031
            ]
        },
        {
            "positions": [
                -0.9143681624680702,
                -0.6625020926952144,
                1.6678358067519297,
                2.1428042827830898,
                -2.2249777380118587,
                0.0016962553337202485
            ]
        }
    ]
}