{
    "goal": {
        "global_pose": {
            "orientation": {
                "w": 0.7047431468963623,
                "x": -0.7094548344612122,
                "y": 0.0024358443915843964,
                "z": -0.0022348060738295317
            },
            "position": {
                "x": 0.6094750761985779,
                "y": 0.3671506643295288,
                "z": 0.19426114857196808
            }
        },
        "name": "move_to_magneteinheit_A"
    },
    "id": "BKPIECE_move_to_magneteinheit_A_41",
    "joint_names": [
        "shoulder_pan_joint",
        "shoulder_lift_joint",
        "elbow_joint",
        "wrist_1_joint",
        "wrist_2_joint",
        "wrist_3_joint"
    ],
    "metrics": {
        "cart_traj_len": 1.9668476147320273,
        "distance_elbow_joint": 3.5744174571994822,
        "distance_shoulder_lift_joint": 0.7866977045281626,
        "distance_shoulder_pan_joint": 1.242307304861505,
        "distance_wrist_1_joint": 1.1937951624085787,
        "distance_wrist_2_joint": 1.4324784592230153,
        "distance_wrist_3_joint": 1.9935788933751006,
        "smoothness": 3.6185046736692446e-16,
        "time": 0.397756378,
        "traj_len": 3.1973856479311102,
        "weighted_distance": 4.103255584286414
    },
    "planner": "BKPIECE",
    "start": {
        "state": {
            "elbow_joint": -1.5739458827952972,
            "shoulder_lift_joint": 0.006533473998580023,
            "shoulder_pan_joint": -1.1188671628667068,
            "wrist_1_joint": 3.138208179676308,
            "wrist_2_joint": -1.5706037135050406,
            "wrist_3_joint": -2.0226958329764257
        }
    },
    "waypoints": [
        {
            "positions": [
                -1.1188671628667068,
                0.006533473998580023,
                -1.5739458827952972,
                3.138208179676308,
                -1.5706037135050406,
                -2.0226958329764257
            ]
        },
        {
            "positions": [
                -1.071086112679726,
                -0.02372413002173393,
                -1.4364682882876247,
                3.092292981122132,
                -1.5155083881503093,
                -1.946019721692768
            ]
        },
        {
            "positions": [
                -1.0233050624927449,
                -0.05398173404204788,
                -1.2989906937799525,
                3.046377782567956,
                -1.4604130627955778,
                -1.8693436104091103
            ]
        },
        {
            "positions": [
                -0.975524012305764,
                -0.08423933806236183,
                -1.16151309927228,
                3.0004625840137797,
                -1.4053177374408465,
                -1.7926674991254525
            ]
        },
        {
            "positions": [
                -0.9277429621187829,
                -0.11449694208267579,
                -1.0240355047646075,
                2.9545473854596036,
                -1.350222412086115,
                -1.715991387841795
            ]
        },
        {
            "positions": [
                -0.8799619119318021,
                -0.1447545461029897,
                -0.8865579102569352,
                2.9086321869054275,
                -1.2951270867313838,
                -1.6393152765581371
            ]
        },
        {
            "positions": [
                -0.8321808617448211,
                -0.17501215012330368,
                -0.7490803157492628,
                2.8627169883512513,
                -1.2400317613766525,
                -1.5626391652744793
            ]
        },
        {
            "positions": [
                -0.7843998115578401,
                -0.2052697541436176,
                -0.6116027212415905,
                2.8168017897970756,
                -1.1849364360219212,
                -1.4859630539908217
            ]
        },
        {
            "positions": [
                -0.7366187613708591,
                -0.23552735816393158,
                -0.47412512673391793,
                2.7708865912428995,
                -1.1298411106671897,
                -1.409286942707164
            ]
        },
        {
            "positions": [
                -0.6888377111838782,
                -0.2657849621842455,
                -0.33664753222624566,
                2.7249713926887233,
                -1.0747457853124582,
                -1.3326108314235063
            ]
        },
        {
            "positions": [
                -0.6410566609968973,
                -0.2960425662045595,
                -0.19916993771857316,
                2.679056194134547,
                -1.019650459957727,
                -1.2559347201398485
            ]
        },
        {
            "positions": [
                -0.5932756108099163,
                -0.32630017022487345,
                -0.06169234321090089,
                2.633140995580371,
                -0.9645551346029957,
                -1.1792586088561907
            ]
        },
        {
            "positions": [
                -0.5454945606229353,
                -0.3565577742451874,
                0.0757852512967716,
                2.587225797026195,
                -0.9094598092482642,
                -1.1025824975725331
            ]
        },
        {
            "positions": [
                -0.49771351043595435,
                -0.38681537826550133,
                0.21326284580444388,
                2.541310598472019,
                -0.8543644838935329,
                -1.0259063862888755
            ]
        },
        {
            "positions": [
                -0.4499324602489734,
                -0.41707298228581524,
                0.35074044031211615,
                2.4953953999178426,
                -0.7992691585388016,
                -0.9492302750052177
            ]
        },
        {
            "positions": [
                -0.4021514100619925,
                -0.4473305863061292,
                0.4882180348197884,
                2.4494802013636665,
                -0.7441738331840703,
                -0.8725541637215601
            ]
        },
        {
            "positions": [
                -0.3543703598750114,
                -0.47758819032644323,
                0.6256956293274614,
                2.4035650028094904,
                -0.6890785078293388,
                -0.7958780524379021
            ]
        },
        {
            "positions": [
                -0.30658930968803055,
                -0.507845794346757,
                0.7631732238351334,
                2.3576498042553142,
                -0.6339831824746075,
                -0.7192019411542445
            ]
        },
        {
            "positions": [
                -0.2588082595010496,
                -0.538103398367071,
                0.9006508183428059,
                2.3117346057011385,
                -0.5788878571198761,
                -0.6425258298705869
            ]
        },
        {
            "positions": [
                -0.2110272093140686,
                -0.568361002387385,
                1.038128412850478,
                2.265819407146962,
                -0.5237925317651448,
                -0.5658497185869291
            ]
        },
        {
            "positions": [
                -0.16324615912708762,
                -0.5986186064076989,
                1.175606007358151,
                2.2199042085927863,
                -0.46869720641041335,
                -0.4891736073032713
            ]
        },
        {
            "positions": [
                -0.11546510894010664,
                -0.6288762104280129,
                1.313083601865823,
                2.1739890100386097,
                -0.4136018810556821,
                -0.4124974960196137
            ]
        },
        {
            "positions": [
                -0.06768405875312578,
                -0.6591338144483269,
                1.4505611963734955,
                2.128073811484434,
                -0.3585065557009508,
                -0.3358213847359559
            ]
        },
        {
            "positions": [
                -0.019903008566144686,
                -0.6893914184686407,
                1.5880387908811675,
                2.082158612930258,
                -0.3034112303462193,
                -0.2591452734522983
            ]
        },
        {
            "positions": [
                0.02787804162083618,
                -0.7196490224889548,
                1.7255163853888404,
                2.0362434143760817,
                -0.2483159049914878,
                -0.1824691621686405
            ]
        },
        {
            "positions": [
                0.07565909180781727,
                -0.7499066265092686,
                1.8629939798965125,
                1.9903282158219056,
                -0.19322057963675654,
                -0.1057930508849827
            ]
        },
        {
            "positions": [
                0.12344014199479804,
                -0.7801642305295826,
                2.000471574404185,
                1.9444130172677294,
                -0.1381252542820252,
                -0.029116939601325116
            ]
        }
    ]
}