{
    "goal": {
        "global_pose": {
            "orientation": {
                "w": 0.005598929693374612,
                "x": 0.007748599140229565,
                "y": 0.7110244013736278,
                "z": -0.7031023480610252
            },
            "position": {
                "x": 0.1141497679147869,
                "y": -0.7141253447532654,
                "z": 0.3711530566215515
            }
        },
        "name": "move_to_auspresseinheit_B"
    },
    "id": "BKPIECE_move_to_auspresseinheit_B_93",
    "joint_names": [
        "shoulder_pan_joint",
        "shoulder_lift_joint",
        "elbow_joint",
        "wrist_1_joint",
        "wrist_2_joint",
        "wrist_3_joint"
    ],
    "metrics": {
        "cart_traj_len": 0.5657292604376007,
        "distance_elbow_joint": 0.0664392799375646,
        "distance_shoulder_lift_joint": 0.294396576601633,
        "distance_shoulder_pan_joint": 0.5771308841837346,
        "distance_wrist_1_joint": 0.3389389522515417,
        "distance_wrist_2_joint": 0.9984236916773246,
        "distance_wrist_3_joint": 0.0023913240013002657,
        "smoothness": 7.612957943425664e-16,
        "time": 0.421925728,
        "traj_len": 1.5092119495462188,
        "weighted_distance": 1.9025945444535903
    },
    "planner": "BKPIECE",
    "start": {
        "state": {
            "elbow_joint": 2.0193061681459312,
            "shoulder_lift_joint": -1.1220205130644991,
            "shoulder_pan_joint": -1.0952072088045026,
            "wrist_1_joint": -0.8559671810662515,
            "wrist_2_joint": 0.4759638712940361,
            "wrist_3_joint": 3.159081874192446
        }
    },
    "waypoints": [
        {
            "positions": [
                -1.0952072088045026,
                -1.1220205130644991,
                2.0193061681459312,
                -0.8559671810662515,
                0.4759638712940361,
                3.159081874192446
            ]
        },
        {
            "positions": [
                -1.1913956895017916,
                -1.1710866091647714,
                2.008232954823004,
                -0.7994773556909945,
                0.6423678199069236,
                3.158683320192229
            ]
        },
        {
            "positions": [
                -1.287584170199081,
                -1.2201527052650434,
                1.9971597415000764,
                -0.7429875303157376,
                0.808771768519811,
                3.1582847661920126
            ]
        },
        {
            "positions": [
                -1.38377265089637,
                -1.2692188013653156,
                1.986086528177149,
                -0.6864977049404806,
                0.9751757171326985,
                3.157886212191796
            ]
        },
        {
            "positions": [
                -1.479961131593659,
                -1.3182848974655879,
                1.9750133148542215,
                -0.6300078795652237,
                1.141579665745586,
                3.157487658191579
            ]
        },
        {
            "positions": [
                -1.5761496122909482,
                -1.3673509935658599,
                1.963940101531294,
                -0.5735180541899667,
                1.3079836143584733,
                3.1570891041913622
            ]
        },
        {
            "positions": [
                -1.6723380929882372,
                -1.4164170896661321,
                1.9528668882083666,
                -0.5170282288147098,
                1.4743875629713608,
                3.1566905501911457
            ]
        }
    ]
}