{
    "goal": {
        "global_pose": {
            "orientation": {
                "w": 0.5084816262002911,
                "x": -0.4908360881923452,
                "y": 0.5182115481033761,
                "z": -0.48164630358495003
            },
            "position": {
                "x": 0.5540239810943604,
                "y": -0.46912469901144505,
                "z": 0.16403168439865112
            }
        },
        "name": "move_to_storage_B"
    },
    "id": "BKPIECE_move_to_storage_B_22",
    "joint_names": [
        "shoulder_pan_joint",
        "shoulder_lift_joint",
        "elbow_joint",
        "wrist_1_joint",
        "wrist_2_joint",
        "wrist_3_joint"
    ],
    "metrics": {
        "cart_traj_len": 2.0942005111086326,
        "distance_elbow_joint": 2.9883569610175797,
        "distance_shoulder_lift_joint": 0.6145765220398303,
        "distance_shoulder_pan_joint": 0.4489107452285812,
        "distance_wrist_1_joint": 2.9824619758398767,
        "distance_wrist_2_joint": 2.7956930584162936,
        "distance_wrist_3_joint": 3.136943343133653,
        "smoothness": 0.4178230804200884,
        "time": 0.214945849,
        "traj_len": 3.600964121686831,
        "weighted_distance": 5.0018980723520645
    },
    "planner": "BKPIECE",
    "start": {
        "state": {
            "elbow_joint": 1.6649325340416963,
            "shoulder_lift_joint": -0.6616387945129425,
            "shoulder_pan_joint": -0.9139837929255878,
            "wrist_1_joint": 2.1467571094334352,
            "wrist_2_joint": -2.234195976750228,
            "wrist_3_joint": 0.005470921511140723
        }
    },
    "waypoints": [
        {
            "positions": [
                -0.9139837929255878,
                -0.6616387945129425,
                1.6649325340416963,
                2.1467571094334352,
                -2.234195976750228,
                0.005470921511140723
            ]
        },
        {
            "positions": [
                -0.8955487125411331,
                -0.664572224405315,
                1.6450056103384365,
                2.124268045516863,
                -2.2105603555188873,
                0.01309909176490857
            ]
        },
        {
            "positions": [
                -0.8378270463646234,
                -0.6861674041157284,
                1.6158777607718755,
                2.0409391786285442,
                -2.2339843443906493,
                0.08724659947201407
            ]
        },
        {
            "positions": [
                -0.7801053801881135,
                -0.7077625838261418,
                1.5867499112053145,
                1.9576103117402255,
                -2.2574083332624113,
                0.16139410717911956
            ]
        },
        {
            "positions": [
                -0.7805760614743565,
                -0.738410625759784,
                1.5091705425059072,
                1.8822603090996521,
                -2.137887862682656,
                0.2305955571881967
            ]
        },
        {
            "positions": [
                -0.7810467427605995,
                -0.7690586676934261,
                1.4315911738064997,
                1.806910306459079,
                -2.018367392102901,
                0.29979700719727376
            ]
        },
        {
            "positions": [
                -0.7815174240468425,
                -0.7997067096270684,
                1.3540118051070924,
                1.731560303818506,
                -1.8988469215231458,
                0.3689984572063509
            ]
        },
        {
            "positions": [
                -0.7819881053330855,
                -0.8303547515607105,
                1.276432436407685,
                1.6562103011779326,
                -1.7793264509433908,
                0.438199907215428
            ]
        },
        {
            "positions": [
                -0.7824587866193286,
                -0.8610027934943527,
                1.1988530677082776,
                1.5808602985373592,
                -1.6598059803636356,
                0.5074013572245051
            ]
        },
        {
            "positions": [
                -0.7829294679055716,
                -0.8916508354279948,
                1.1212736990088703,
                1.505510295896786,
                -1.5402855097838803,
                0.5766028072335823
            ]
        },
        {
            "positions": [
                -0.7834001491918146,
                -0.9222988773616371,
                1.0436943303094628,
                1.430160293256213,
                -1.4207650392041251,
                0.6458042572426593
            ]
        },
        {
            "positions": [
                -0.7838708304780576,
                -0.9529469192952793,
                0.9661149616100554,
                1.3548102906156396,
                -1.30124456862437,
                0.7150057072517364
            ]
        },
        {
            "positions": [
                -0.7843415117643007,
                -0.9835949612289214,
                0.888535592910648,
                1.2794602879750663,
                -1.1817240980446149,
                0.7842071572608136
            ]
        },
        {
            "positions": [
                -0.7848121930505436,
                -1.0142430031625636,
                0.8109562242112406,
                1.2041102853344932,
                -1.0622036274648599,
                0.8534086072698908
            ]
        },
        {
            "positions": [
                -0.7852828743367867,
                -1.0448910450962057,
                0.7333768555118332,
                1.12876028269392,
                -0.9426831568851046,
                0.9226100572789677
            ]
        },
        {
            "positions": [
                -0.7857535556230297,
                -1.075539087029848,
                0.6557974868124259,
                1.0534102800533467,
                -0.8231626863053494,
                0.9918115072880449
            ]
        },
        {
            "positions": [
                -0.7862242369092727,
                -1.1061871289634901,
                0.5782181181130184,
                0.9780602774127735,
                -0.7036422157255944,
                1.061012957297122
            ]
        },
        {
            "positions": [
                -0.7866949181955157,
                -1.1368351708971325,
                0.5006387494136111,
                0.9027102747722002,
                -0.5841217451458391,
                1.130214407306199
            ]
        },
        {
            "positions": [
                -0.7871655994817587,
                -1.1674832128307746,
                0.42305938071420357,
                0.8273602721316271,
                -0.46460127456608413,
                1.1994158573152762
            ]
        },
        {
            "positions": [
                -0.7876362807680017,
                -1.1981312547644167,
                0.3454800120147963,
                0.7520102694910538,
                -0.345080803986329,
                1.2686173073243534
            ]
        },
        {
            "positions": [
                -0.8068551202624529,
                -1.1932510009026445,
                0.44978653945171376,
                0.6527780734974604,
                -0.29427568335099474,
                1.385729617156881
            ]
        },
        {
            "positions": [
                -0.826073959756904,
                -1.1883707470408722,
                0.5540930668886312,
                0.5535458775038671,
                -0.24347056271566048,
                1.5028419269894084
            ]
        },
        {
            "positions": [
                -0.8452927992513553,
                -1.1834904931791,
                0.6583995943255487,
                0.4543136815102736,
                -0.19266544208032618,
                1.6199542368219362
            ]
        },
        {
            "positions": [
                -0.8645116387458064,
                -1.1786102393173277,
                0.7627061217624662,
                0.3550814855166803,
                -0.14186032144499192,
                1.7370665466544635
            ]
        },
        {
            "positions": [
                -0.8837304782402575,
                -1.1737299854555554,
                0.8670126491993836,
                0.25584928952308694,
                -0.09105520080965762,
                1.8541788564869912
            ]
        },
        {
            "positions": [
                -0.9029493177347088,
                -1.1688497315937831,
                0.9713191766363011,
                0.1566170935294935,
                -0.040250080174323355,
                1.9712911663195187
            ]
        },
        {
            "positions": [
                -0.9221681572291599,
                -1.1639694777320109,
                1.0756257040732184,
                0.05738489753590015,
                0.010555040461010912,
                2.0884034761520462
            ]
        },
        {
            "positions": [
                -0.941386996723611,
                -1.1590892238702386,
                1.179932231510136,
                -0.041847298457693194,
                0.06136016109634518,
                2.2055157859845735
            ]
        },
        {
            "positions": [
                -0.9606058362180622,
                -1.1542089700084666,
                1.2842387589470534,
                -0.14107949445128654,
                0.11216528173167944,
                2.3226280958171013
            ]
        },
        {
            "positions": [
                -0.9798246757125133,
                -1.1493287161466943,
                1.388545286383971,
                -0.24031169044487988,
                0.16297040236701377,
                2.439740405649629
            ]
        },
        {
            "positions": [
                -0.9990435152069645,
                -1.144448462284922,
                1.4928518138208884,
                -0.3395438864384732,
                0.21377552300234803,
                2.5568527154821563
            ]
        },
        {
            "positions": [
                -1.0182623547014158,
                -1.1395682084231498,
                1.5971583412578059,
                -0.4387760824320668,
                0.2645806436376823,
                2.673965025314684
            ]
        },
        {
            "positions": [
                -1.0374811941958668,
                -1.1346879545613775,
                1.7014648686947234,
                -0.5380082784256601,
                0.31538576427301657,
                2.791077335147212
            ]
        },
        {
            "positions": [
                -1.056700033690318,
                -1.1298077006996052,
                1.8057713961316408,
                -0.6372404744192535,
                0.36619088490835083,
                2.908189644979739
            ]
        },
        {
            "positions": [
                -1.075918873184769,
                -1.124927446837833,
                1.9100779235685583,
                -0.7364726704128468,
                0.4169960055436851,
                3.0253019548122664
            ]
        },
        {
            "positions": [
                -1.0951377126792203,
                -1.1200471929760607,
                2.014384451005476,
                -0.83570486640644,
                0.46780112617901937,
                3.142414264644794
            ]
        }
    ]
}