{
    "goal": {
        "global_pose": {
            "orientation": {
                "w": -0.00223480608172531,
                "x": 0.0024358444001904467,
                "y": 0.7094548369677653,
                "z": -0.704743149386269
            },
            "position": {
                "x": -0.37947507619857795,
                "y": -0.6371506643295288,
                "z": 0.19426114857196808
            }
        },
        "name": "move_to_magneteinheit_C"
    },
    "id": "BKPIECE_move_to_magneteinheit_C_5",
    "joint_names": [
        "shoulder_pan_joint",
        "shoulder_lift_joint",
        "elbow_joint",
        "wrist_1_joint",
        "wrist_2_joint",
        "wrist_3_joint"
    ],
    "metrics": {
        "cart_traj_len": 1.7251045398875187,
        "distance_elbow_joint": 1.2922226868032356,
        "distance_shoulder_lift_joint": 0.6711812292818309,
        "distance_shoulder_pan_joint": 1.1285458293628265,
        "distance_wrist_1_joint": 1.4857437934163737,
        "distance_wrist_2_joint": 1.0272987091904557,
        "distance_wrist_3_joint": 2.646580618235959,
        "smoothness": 1.48836060285521,
        "time": 0.20677914000000003,
        "traj_len": 2.872555111097206,
        "weighted_distance": 4.007215567619171
    },
    "planner": "BKPIECE",
    "start": {
        "state": {
            "elbow_joint": 1.9565354006593851,
            "shoulder_lift_joint": -1.4165861576512813,
            "shoulder_pan_joint": -1.6717766223278752,
            "wrist_1_joint": -0.528663328821883,
            "wrist_2_joint": 1.472756589259273,
            "wrist_3_joint": 3.159348288315503
        }
    },
    "waypoints": [
        {
            "positions": [
                -1.6717766223278752,
                -1.4165861576512813,
                1.9565354006593851,
                -0.528663328821883,
                1.472756589259273,
                3.159348288315503
            ]
        },
        {
            "positions": [
                -1.5897013947944676,
                -1.4248045610061206,
                1.9599097619452648,
                -0.5552197243358719,
                1.4176457496642048,
                3.0480505915567804
            ]
        },
        {
            "positions": [
                -1.50762616726106,
                -1.43302296436096,
                1.9632841232311444,
                -0.5817761198498606,
                1.3625349100691362,
                2.936752894798058
            ]
        },
        {
            "positions": [
                -1.5116200955125012,
                -1.457069619213379,
                1.8903467585258786,
                -0.5080072820076715,
                1.2906034466712488,
                2.796838280079875
            ]
        },
        {
            "positions": [
                -1.5156140237639426,
                -1.4811162740657977,
                1.817409393820613,
                -0.4342384441654825,
                1.2186719832733615,
                2.6569236653616914
            ]
        },
        {
            "positions": [
                -1.519607952015384,
                -1.5051629289182167,
                1.7444720291153473,
                -0.3604696063232935,
                1.146740519875474,
                2.5170090506435083
            ]
        },
        {
            "positions": [
                -1.5236018802668252,
                -1.5292095837706356,
                1.6715346644100815,
                -0.2867007684811045,
                1.0748090564775867,
                2.3770944359253248
            ]
        },
        {
            "positions": [
                -1.5275958085182664,
                -1.5532562386230546,
                1.598597299704816,
                -0.21293193063891547,
                1.0028775930796994,
                2.2371798212071417
            ]
        },
        {
            "positions": [
                -1.5315897367697078,
                -1.5773028934754736,
                1.52565993499955,
                -0.13916309279672645,
                0.9309461296818118,
                2.0972652064889585
            ]
        },
        {
            "positions": [
                -1.5355836650211492,
                -1.6013495483278923,
                1.4527225702942843,
                -0.06539425495453743,
                0.8590146662839244,
                1.9573505917707752
            ]
        },
        {
            "positions": [
                -1.5395775932725904,
                -1.6253962031803113,
                1.3797852055890187,
                0.008374582887651597,
                0.7870832028860371,
                1.8174359770525919
            ]
        },
        {
            "positions": [
                -1.5771742701994917,
                -1.5858470329573762,
                1.4630405136905367,
                -0.040460411788389924,
                0.7588096109942917,
                1.957297485041229
            ]
        },
        {
            "positions": [
                -1.6147709471263931,
                -1.5462978627344408,
                1.5462958217920546,
                -0.08929540646443145,
                0.7305360191025463,
                2.097158993029866
            ]
        },
        {
            "positions": [
                -1.6523676240532945,
                -1.5067486925115057,
                1.6295511298935725,
                -0.13813040114047298,
                0.7022624272108008,
                2.2370205010185034
            ]
        },
        {
            "positions": [
                -1.6899643009801957,
                -1.4671995222885705,
                1.7128064379950905,
                -0.1869653958165145,
                0.6739888353190554,
                2.37688200900714
            ]
        },
        {
            "positions": [
                -1.727560977907097,
                -1.4276503520656354,
                1.7960617460966084,
                -0.23580039049255602,
                0.64571524342731,
                2.5167435169957777
            ]
        },
        {
            "positions": [
                -1.7651576548339984,
                -1.3881011818427003,
                1.8793170541981263,
                -0.28463538516859754,
                0.6174416515355645,
                2.6566050249844144
            ]
        },
        {
            "positions": [
                -1.8027543317608998,
                -1.348552011619765,
                1.9625723622996443,
                -0.33347037984463906,
                0.5891680596438191,
                2.7964665329730516
            ]
        },
        {
            "positions": [
                -1.8403510086878012,
                -1.3090028413968298,
                2.045827670401162,
                -0.3823053745206806,
                0.5608944677520737,
                2.9363280409616888
            ]
        },
        {
            "positions": [
                -1.9982686419051188,
                -1.2725083859044999,
                2.0368445249568605,
                -0.4952554600813185,
                0.5897536146728879,
                2.9827721017276767
            ]
        },
        {
            "positions": [
                -2.1561862751224363,
                -1.2360139304121702,
                2.027861379512559,
                -0.6082055456419564,
                0.6186127615937019,
                3.029216162493664
            ]
        },
        {
            "positions": [
                -2.314103908339754,
                -1.1995194749198403,
                2.0188782340682567,
                -0.7211556312025944,
                0.647471908514516,
                3.0756602232596517
            ]
        },
        {
            "positions": [
                -2.4720215415570714,
                -1.1630250194275105,
                2.009895088623955,
                -0.8341057167632323,
                0.6763310554353301,
                3.1221042840256397
            ]
        }
    ]
}