{
    "goal": {
        "global_pose": {
            "orientation": {
                "w": -0.4816463035849501,
                "x": 0.5182115481033762,
                "y": 0.4908360881923453,
                "z": -0.5084816262002911
            },
            "position": {
                "x": -0.8240239810943604,
                "y": 0.19912469901144506,
                "z": 0.16403168439865112
            }
        },
        "name": "move_to_storage_D"
    },
    "id": "BKPIECE_move_to_storage_D_54",
    "joint_names": [
        "shoulder_pan_joint",
        "shoulder_lift_joint",
        "elbow_joint",
        "wrist_1_joint",
        "wrist_2_joint",
        "wrist_3_joint"
    ],
    "metrics": {
        "cart_traj_len": 3.9632837959721443,
        "distance_elbow_joint": 4.322687387169089,
        "distance_shoulder_lift_joint": 1.2648221212312716,
        "distance_shoulder_pan_joint": 2.8146007656550576,
        "distance_wrist_1_joint": 3.0893546281321718,
        "distance_wrist_2_joint": 0.8804426716577283,
        "distance_wrist_3_joint": 3.2810825643235444,
        "smoothness": 0.5295130765667049,
        "time": 0.274765504,
        "traj_len": 3.9563859945875937,
        "weighted_distance": 5.117123466031073
    },
    "planner": "BKPIECE",
    "start": {
        "state": {
            "elbow_joint": -2.384821990628643,
            "shoulder_lift_joint": -2.278805467437664,
            "shoulder_pan_joint": -0.18546946439364564,
            "wrist_1_joint": 1.4845938187801415,
            "wrist_2_joint": 0.178987772454074,
            "wrist_3_joint": 0.03710569632802521
        }
    },
    "waypoints": [
        {
            "positions": [
                -0.18546946439364564,
                -2.278805467437664,
                -2.384821990628643,
                1.4845938187801415,
                0.178987772454074,
                0.03710569632802521
            ]
        },
        {
            "positions": [
                -0.07001234560318123,
                -2.2372286363297227,
                -2.439528070850659,
                1.5175316229660847,
                0.19590721116355225,
                -0.0328451057754378
            ]
        },
        {
            "positions": [
                0.0036720019315767682,
                -2.2097398111046775,
                -2.33066376469035,
                1.4407922726718891,
                0.217608754078313,
                0.05073440042525461
            ]
        },
        {
            "positions": [
                0.07735634946633477,
                -2.182250985879633,
                -2.221799458530041,
                1.3640529223776936,
                0.23931029699307377,
                0.134313906625947
            ]
        },
        {
            "positions": [
                0.1510406970010928,
                -2.154762160654588,
                -2.112935152369732,
                1.287313572083498,
                0.2610118399078345,
                0.21789341282663943
            ]
        },
        {
            "positions": [
                0.22472504453585077,
                -2.127273335429543,
                -2.004070846209423,
                1.2105742217893023,
                0.2827133828225953,
                0.3014729190273318
            ]
        },
        {
            "positions": [
                0.2984093920706088,
                -2.099784510204498,
                -1.8952065400491143,
                1.133834871495107,
                0.304414925737356,
                0.38505242522802424
            ]
        },
        {
            "positions": [
                0.37209373960536685,
                -2.072295684979453,
                -1.786342233888805,
                1.0570955212009112,
                0.32611646865211674,
                0.4686319314287167
            ]
        },
        {
            "positions": [
                0.4457780871401248,
                -2.0448068597544085,
                -1.6774779277284964,
                0.9803561709067157,
                0.3478180115668775,
                0.5522114376294092
            ]
        },
        {
            "positions": [
                0.5194624346748827,
                -2.0173180345293633,
                -1.5686136215681874,
                0.9036168206125201,
                0.36951955448163826,
                0.6357909438301015
            ]
        },
        {
            "positions": [
                0.5931467822096408,
                -1.9898292093043184,
                -1.4597493154078784,
                0.8268774703183246,
                0.391221097396399,
                0.7193704500307939
            ]
        },
        {
            "positions": [
                0.6668311297443987,
                -1.9623403840792735,
                -1.3508850092475695,
                0.750138120024129,
                0.41292264031115977,
                0.8029499562314864
            ]
        },
        {
            "positions": [
                0.7405154772791568,
                -1.9348515588542285,
                -1.2420207030872605,
                0.6733987697299334,
                0.4346241832259205,
                0.8865294624321788
            ]
        },
        {
            "positions": [
                0.8141998248139148,
                -1.9073627336291836,
                -1.1331563969269516,
                0.5966594194357377,
                0.4563257261406813,
                0.9701089686328712
            ]
        },
        {
            "positions": [
                0.8878841723486729,
                -1.8798739084041387,
                -1.0242920907666426,
                0.5199200691415422,
                0.478027269055442,
                1.0536884748335635
            ]
        },
        {
            "positions": [
                0.9615685198834308,
                -1.8523850831790938,
                -0.9154277846063337,
                0.44318071884734667,
                0.4997288119702028,
                1.137267981034256
            ]
        },
        {
            "positions": [
                1.035252867418189,
                -1.8248962579540489,
                -0.8065634784460249,
                0.3664413685531511,
                0.5214303548849635,
                1.2208474872349484
            ]
        },
        {
            "positions": [
                1.1089372149529468,
                -1.797407432729004,
                -0.697699172285716,
                0.2897020182589556,
                0.5431318977997243,
                1.3044269934356407
            ]
        },
        {
            "positions": [
                1.182621562487705,
                -1.769918607503959,
                -0.588834866125407,
                0.21296266796476004,
                0.564833440714485,
                1.3880064996363333
            ]
        },
        {
            "positions": [
                1.256305910022463,
                -1.742429782278914,
                -0.4799705599650981,
                0.1362233176705645,
                0.5865349836292457,
                1.4715860058370256
            ]
        },
        {
            "positions": [
                1.329990257557221,
                -1.7149409570538692,
                -0.37110625380478934,
                0.05948396737636896,
                0.6082365265440064,
                1.555165512037718
            ]
        },
        {
            "positions": [
                1.4036746050919788,
                -1.6874521318288243,
                -0.26224194764448017,
                -0.01725538291782658,
                0.6299380694587673,
                1.6387450182384105
            ]
        },
        {
            "positions": [
                1.477358952626737,
                -1.6599633066037793,
                -0.15337764148417143,
                -0.09399473321202234,
                0.651639612373528,
                1.7223245244391028
            ]
        },
        {
            "positions": [
                1.551043300161495,
                -1.6324744813787344,
                -0.04451333532386226,
                -0.17073408350621788,
                0.6733411552882888,
                1.8059040306397953
            ]
        },
        {
            "positions": [
                1.624727647696253,
                -1.6049856561536895,
                0.06435097083644647,
                -0.24747343380041342,
                0.6950426982030495,
                1.8894835368404876
            ]
        },
        {
            "positions": [
                1.698411995231011,
                -1.5774968309286446,
                0.17321527699675565,
                -0.3242127840946092,
                0.7167442411178103,
                1.9730630430411802
            ]
        },
        {
            "positions": [
                1.772096342765769,
                -1.5500080057035996,
                0.28207958315706483,
                -0.4009521343888047,
                0.738445784032571,
                2.0566425492418725
            ]
        },
        {
            "positions": [
                1.8457806903005272,
                -1.5225191804785547,
                0.39094388931737356,
                -0.47769148468300027,
                0.7601473269473318,
                2.140222055442565
            ]
        },
        {
            "positions": [
                1.919465037835285,
                -1.4950303552535098,
                0.49980819547768274,
                -0.554430834977196,
                0.7818488698620926,
                2.2238015616432576
            ]
        },
        {
            "positions": [
                1.993149385370043,
                -1.4675415300284649,
                0.6086725016379915,
                -0.6311701852713913,
                0.8035504127768534,
                2.30738106784395
            ]
        },
        {
            "positions": [
                2.0668337329048008,
                -1.44005270480342,
                0.7175368077983006,
                -0.7079095355655871,
                0.825251955691614,
                2.3909605740446422
            ]
        },
        {
            "positions": [
                2.1405180804395587,
                -1.412563879578375,
                0.8264011139586089,
                -0.7846488858597824,
                0.8469534986063747,
                2.4745400802453346
            ]
        },
        {
            "positions": [
                2.2142024279743167,
                -1.3850750543533301,
                0.9352654201189181,
                -0.8613882361539777,
                0.8686550415211355,
                2.558119586446027
            ]
        },
        {
            "positions": [
                2.2878867755090746,
                -1.3575862291282852,
                1.0441297262792268,
                -0.9381275864481735,
                0.8903565844358963,
                2.641699092646719
            ]
        },
        {
            "positions": [
                2.361571123043833,
                -1.3300974039032403,
                1.152994032439536,
                -1.0148669367423693,
                0.9120581273506569,
                2.7252785988474115
            ]
        },
        {
            "positions": [
                2.435255470578591,
                -1.3026085786781954,
                1.2618583385998448,
                -1.0916062870365646,
                0.9337596702654177,
                2.8088581050481043
            ]
        },
        {
            "positions": [
                2.508939818113349,
                -1.2751197534531504,
                1.370722644760154,
                -1.1683456373307604,
                0.9554612131801785,
                2.8924376112487966
            ]
        },
        {
            "positions": [
                2.5329781147429613,
                -1.2228924720037988,
                1.4622687630274058,
                -1.0942377246008836,
                0.9762550593665033,
                2.949607420287966
            ]
        },
        {
            "positions": [
                2.557016411372574,
                -1.1706651905544472,
                1.5538148812946577,
                -1.0201298118710072,
                0.997048905552828,
                3.0067772293271355
            ]
        },
        {
            "positions": [
                2.5810547080021866,
                -1.1184379091050956,
                1.6453609995619096,
                -0.9460218991411304,
                1.0178427517391528,
                3.0639470383663046
            ]
        },
        {
            "positions": [
                2.6050930046317995,
                -1.066210627655744,
                1.7369071178291615,
                -0.8719139864112537,
                1.0386365979254775,
                3.121116847405474
            ]
        },
        {
            "positions": [
                2.629131301261412,
                -1.0139833462063923,
                1.8284532360964134,
                -0.7978060736813771,
                1.0594304441118023,
                3.1782866564446435
            ]
        }
    ]
}