{
    "goal": {
        "global_pose": {
            "orientation": {
                "w": 0.7031023480610252,
                "x": -0.7110244013736278,
                "y": 0.0077485991402295624,
                "z": 0.005598929693374583
            },
            "position": {
                "x": -0.8841497679147869,
                "y": 0.44412534475326537,
                "z": 0.3711530566215515
            }
        },
        "name": "move_to_auspresseinheit_D"
    },
    "id": "BKPIECE_move_to_auspresseinheit_D_111",
    "joint_names": [
        "shoulder_pan_joint",
        "shoulder_lift_joint",
        "elbow_joint",
        "wrist_1_joint",
        "wrist_2_joint",
        "wrist_3_joint"
    ],
    "metrics": {
        "cart_traj_len": 0.34467258484558844,
        "distance_elbow_joint": 0.6638403740775727,
        "distance_shoulder_lift_joint": 0.134962407880459,
        "distance_shoulder_pan_joint": 0.13400564606110676,
        "distance_wrist_1_joint": 0.616696124845177,
        "distance_wrist_2_joint": 1.4334870003091258,
        "distance_wrist_3_joint": 0.06349097861314501,
        "smoothness": 7.894919295194831e-16,
        "time": 0.195314855,
        "traj_len": 1.7454175809205619,
        "weighted_distance": 2.2855300510313095
    },
    "planner": "BKPIECE",
    "start": {
        "state": {
            "elbow_joint": -1.8275484843655228,
            "shoulder_lift_joint": -2.1267897864000416,
            "shoulder_pan_joint": -0.035127520176001514,
            "wrist_1_joint": -2.3477863256791385,
            "wrist_2_joint": -1.605890476484521,
            "wrist_3_joint": -3.0880375317375353
        }
    },
    "waypoints": [
        {
            "positions": [
                -0.035127520176001514,
                -2.1267897864000416,
                -1.8275484843655228,
                -2.3477863256791385,
                -1.605890476484521,
                -3.0880375317375353
            ]
        },
        {
            "positions": [
                -0.05187822593363986,
                -2.143660087385099,
                -1.7445684376058261,
                -2.4248733412847856,
                -1.4267046014458802,
                -3.080101159410892
            ]
        },
        {
            "positions": [
                -0.0686289316912782,
                -2.160530388370156,
                -1.6615883908461295,
                -2.5019603568904327,
                -1.2475187264072396,
                -3.0721647870842492
            ]
        },
        {
            "positions": [
                -0.08537963744891655,
                -2.177400689355214,
                -1.578608344086433,
                -2.57904737249608,
                -1.0683328513685988,
                -3.064228414757606
            ]
        },
        {
            "positions": [
                -0.1021303432065549,
                -2.194270990340271,
                -1.4956282973267365,
                -2.656134388101727,
                -0.8891469763299581,
                -3.0562920424309628
            ]
        },
        {
            "positions": [
                -0.11888104896419324,
                -2.2111412913253283,
                -1.41264825056704,
                -2.733221403707374,
                -0.7099611012913174,
                -3.0483556701043195
            ]
        },
        {
            "positions": [
                -0.1356317547218316,
                -2.228011592310386,
                -1.3296682038073433,
                -2.8103084193130212,
                -0.5307752262526766,
                -3.0404192977776763
            ]
        },
        {
            "positions": [
                -0.15238246047946993,
                -2.2448818932954433,
                -1.2466881570476467,
                -2.8873954349186683,
                -0.351589351214036,
                -3.0324829254510335
            ]
        },
        {
            "positions": [
                -0.16913316623710828,
                -2.2617521942805006,
                -1.16370811028795,
                -2.9644824505243155,
                -0.17240347617539512,
                -3.0245465531243902
            ]
        }
    ]
}