{
    "goal": {
        "global_pose": {
            "orientation": {
                "w": 0.005598929693374612,
                "x": 0.007748599140229565,
                "y": 0.7110244013736278,
                "z": -0.7031023480610252
            },
            "position": {
                "x": 0.1141497679147869,
                "y": -0.7141253447532654,
                "z": 0.3711530566215515
            }
        },
        "name": "move_to_auspresseinheit_B"
    },
    "id": "BKPIECE_move_to_auspresseinheit_B_96",
    "joint_names": [
        "shoulder_pan_joint",
        "shoulder_lift_joint",
        "elbow_joint",
        "wrist_1_joint",
        "wrist_2_joint",
        "wrist_3_joint"
    ],
    "metrics": {
        "cart_traj_len": 0.5655681604612364,
        "distance_elbow_joint": 0.0659468224633113,
        "distance_shoulder_lift_joint": 0.2935140153831153,
        "distance_shoulder_pan_joint": 0.5777442358937699,
        "distance_wrist_1_joint": 0.33620371101908375,
        "distance_wrist_2_joint": 0.994309180532831,
        "distance_wrist_3_joint": 0.0022197664733005773,
        "smoothness": 3.806478935924272e-16,
        "time": 0.271665051,
        "traj_len": 1.506631252750789,
        "weighted_distance": 1.898654828099075
    },
    "planner": "BKPIECE",
    "start": {
        "state": {
            "elbow_joint": 2.0193061681459312,
            "shoulder_lift_joint": -1.1220205130644991,
            "shoulder_pan_joint": -1.0952072088045026,
            "wrist_1_joint": -0.8559671810662515,
            "wrist_2_joint": 0.4759638712940361,
            "wrist_3_joint": 3.159081874192446
        }
    },
    "waypoints": [
        {
            "positions": [
                -1.0952072088045026,
                -1.1220205130644991,
                2.0193061681459312,
                -0.8559671810662515,
                0.4759638712940361,
                3.159081874192446
            ]
        },
        {
            "positions": [
                -1.1914979147867977,
                -1.1709395156283517,
                2.0083150310687126,
                -0.7999332292297375,
                0.6416820680495079,
                3.158711913113563
            ]
        },
        {
            "positions": [
                -1.2877886207690925,
                -1.2198585181922041,
                1.9973238939914941,
                -0.7438992773932236,
                0.8074002648049798,
                3.158341952034679
            ]
        },
        {
            "positions": [
                -1.3840793267513876,
                -1.2687775207560568,
                1.9863327569142757,
                -0.6878653255567095,
                0.9731184615604516,
                3.1579719909557955
            ]
        },
        {
            "positions": [
                -1.4803700327336826,
                -1.3176965233199094,
                1.975341619837057,
                -0.6318313737201957,
                1.1388366583159235,
                3.1576020298769123
            ]
        },
        {
            "positions": [
                -1.5766607387159777,
                -1.3666155258837618,
                1.9643504827598384,
                -0.5757974218836817,
                1.3045548550713952,
                3.157232068798029
            ]
        },
        {
            "positions": [
                -1.6729514446982725,
                -1.4155345284476144,
                1.95335934568262,
                -0.5197634700471677,
                1.4702730518268672,
                3.1568621077191454
            ]
        }
    ]
}