{
    "goal": {
        "global_pose": {
            "orientation": {
                "w": -0.4816463035849501,
                "x": 0.5182115481033762,
                "y": 0.4908360881923453,
                "z": -0.5084816262002911
            },
            "position": {
                "x": -0.8240239810943604,
                "y": 0.19912469901144506,
                "z": 0.16403168439865112
            }
        },
        "name": "move_to_storage_D"
    },
    "id": "BKPIECE_move_to_storage_D_39",
    "joint_names": [
        "shoulder_pan_joint",
        "shoulder_lift_joint",
        "elbow_joint",
        "wrist_1_joint",
        "wrist_2_joint",
        "wrist_3_joint"
    ],
    "metrics": {
        "cart_traj_len": 3.9097918138581416,
        "distance_elbow_joint": 4.209413219997403,
        "distance_shoulder_lift_joint": 1.2643362268312885,
        "distance_shoulder_pan_joint": 2.8141932760959802,
        "distance_wrist_1_joint": 2.268388624419143,
        "distance_wrist_2_joint": 1.0669987865747932,
        "distance_wrist_3_joint": 3.1464227529701185,
        "smoothness": 0.024904610685734737,
        "time": 0.172856499,
        "traj_len": 3.8431436203827616,
        "weighted_distance": 4.9394317288351
    },
    "planner": "BKPIECE",
    "start": {
        "state": {
            "elbow_joint": -2.384821990628643,
            "shoulder_lift_joint": -2.278805467437664,
            "shoulder_pan_joint": -0.18546946439364564,
            "wrist_1_joint": 1.4845938187801415,
            "wrist_2_joint": 0.178987772454074,
            "wrist_3_joint": 0.03710569632802521
        }
    },
    "waypoints": [
        {
            "positions": [
                -0.18546946439364564,
                -2.278805467437664,
                -2.384821990628643,
                1.4845938187801415,
                0.178987772454074,
                0.03710569632802521
            ]
        },
        {
            "positions": [
                -0.10521949506603093,
                -2.248683468475048,
                -2.2607339706761342,
                1.414047489248742,
                0.21043816950488542,
                0.08413436066938823
            ]
        },
        {
            "positions": [
                -0.02496952573841621,
                -2.218561469512432,
                -2.136645950723625,
                1.3435011597173425,
                0.24188856655569685,
                0.13116302501075128
            ]
        },
        {
            "positions": [
                0.05528044358919848,
                -2.188439470549816,
                -2.012557930771116,
                1.2729548301859428,
                0.2733389636065083,
                0.1781916893521143
            ]
        },
        {
            "positions": [
                0.13553041291681323,
                -2.1583174715871998,
                -1.888469910818607,
                1.2024085006545433,
                0.30478936065731965,
                0.22522035369347732
            ]
        },
        {
            "positions": [
                0.21578038224442792,
                -2.1281954726245838,
                -1.7643818908660978,
                1.1318621711231438,
                0.3362397577081311,
                0.27224901803484036
            ]
        },
        {
            "positions": [
                0.2960303515720426,
                -2.0980734736619673,
                -1.6402938709135886,
                1.0613158415917443,
                0.3676901547589425,
                0.31927768237620335
            ]
        },
        {
            "positions": [
                0.37628032089965735,
                -2.0679514746993513,
                -1.5162058509610796,
                0.9907695120603447,
                0.39914055180975394,
                0.36630634671756646
            ]
        },
        {
            "positions": [
                0.4565302902272721,
                -2.0378294757367352,
                -1.3921178310085707,
                0.9202231825289452,
                0.43059094886056537,
                0.41333501105892945
            ]
        },
        {
            "positions": [
                0.5367802595548868,
                -2.007707476774119,
                -1.2680298110560613,
                0.8496768529975456,
                0.46204134591137686,
                0.46036367540029255
            ]
        },
        {
            "positions": [
                0.6170302288825015,
                -1.9775854778115032,
                -1.1439417911035523,
                0.7791305234661461,
                0.49349174296218823,
                0.5073923397416555
            ]
        },
        {
            "positions": [
                0.6972801982101162,
                -1.9474634788488872,
                -1.0198537711510431,
                0.7085841939347465,
                0.5249421400129997,
                0.5544210040830185
            ]
        },
        {
            "positions": [
                0.7775301675377309,
                -1.9173414798862711,
                -0.8957657511985342,
                0.638037864403347,
                0.5563925370638111,
                0.6014496684243815
            ]
        },
        {
            "positions": [
                0.8577801368653457,
                -1.887219480923655,
                -0.771677731246025,
                0.5674915348719474,
                0.5878429341146225,
                0.6484783327657446
            ]
        },
        {
            "positions": [
                0.9380301061929603,
                -1.8570974819610389,
                -0.6475897112935161,
                0.49694520534054787,
                0.619293331165434,
                0.6955069971071076
            ]
        },
        {
            "positions": [
                1.018280075520575,
                -1.8269754829984228,
                -0.5235016913410069,
                0.42639887580914815,
                0.6507437282162454,
                0.7425356614484707
            ]
        },
        {
            "positions": [
                1.0985300448481898,
                -1.7968534840358068,
                -0.3994136713884979,
                0.35585254627774887,
                0.6821941252670567,
                0.7895643257898336
            ]
        },
        {
            "positions": [
                1.1787800141758045,
                -1.7667314850731908,
                -0.27532565143598875,
                0.2853062167463494,
                0.7136445223178682,
                0.8365929901311966
            ]
        },
        {
            "positions": [
                1.2590299835034193,
                -1.7366094861105745,
                -0.15123763148347935,
                0.21475988721494965,
                0.7450949193686798,
                0.8836216544725598
            ]
        },
        {
            "positions": [
                1.339279952831034,
                -1.7064874871479585,
                -0.027149611530970397,
                0.14421355768355015,
                0.7765453164194911,
                0.9306503188139228
            ]
        },
        {
            "positions": [
                1.4195299221586486,
                -1.6763654881853425,
                0.09693840842153856,
                0.07366722815215065,
                0.8079957134703024,
                0.9776789831552858
            ]
        },
        {
            "positions": [
                1.4997798914862632,
                -1.6462434892227265,
                0.2210264283740475,
                0.0031208986207511558,
                0.839446110521114,
                1.0247076474966488
            ]
        },
        {
            "positions": [
                1.580029860813878,
                -1.6161214902601104,
                0.3451144483265569,
                -0.06742543091064856,
                0.8708965075719255,
                1.0717363118380119
            ]
        },
        {
            "positions": [
                1.6602798301414927,
                -1.5859994912974944,
                0.46920246827906587,
                -0.13797176044204806,
                0.9023469046227368,
                1.118764976179375
            ]
        },
        {
            "positions": [
                1.7405297994691074,
                -1.5558774923348784,
                0.5932904882315748,
                -0.20851808997344756,
                0.9337973016735481,
                1.1657936405207379
            ]
        },
        {
            "positions": [
                1.8207797687967222,
                -1.5257554933722624,
                0.7173785081840838,
                -0.27906441950484706,
                0.9652476987243597,
                1.212822304862101
            ]
        },
        {
            "positions": [
                1.901029738124337,
                -1.495633494409646,
                0.8414665281365932,
                -0.3496107490362468,
                0.996698095775171,
                1.259850969203464
            ]
        },
        {
            "positions": [
                1.9812797074519515,
                -1.46551149544703,
                0.9655545480891021,
                -0.4201570785676463,
                1.0281484928259825,
                1.306879633544827
            ]
        },
        {
            "positions": [
                2.0615296767795663,
                -1.4353894964844138,
                1.089642568041611,
                -0.4907034080990458,
                1.0595988898767938,
                1.35390829788619
            ]
        },
        {
            "positions": [
                2.1417796461071807,
                -1.4052674975217978,
                1.21373058799412,
                -0.5612497376304455,
                1.0910492869276054,
                1.400936962227553
            ]
        },
        {
            "positions": [
                2.2220296154347956,
                -1.3751454985591818,
                1.3378186079466294,
                -0.6317960671618452,
                1.1224996839784167,
                1.4479656265689163
            ]
        },
        {
            "positions": [
                2.3022795847624105,
                -1.3450234995965658,
                1.4619066278991384,
                -0.7023423966932447,
                1.1539500810292282,
                1.4949942909102791
            ]
        },
        {
            "positions": [
                2.343085113129901,
                -1.303704217222792,
                1.507242203082841,
                -0.7125239478114642,
                1.1424455212792735,
                1.706061060708762
            ]
        },
        {
            "positions": [
                2.3838906414973913,
                -1.2623849348490181,
                1.5525777782665435,
                -0.7227054989296837,
                1.1309409615293184,
                1.9171278305072452
            ]
        },
        {
            "positions": [
                2.424696169864882,
                -1.2210656524752443,
                1.597913353450246,
                -0.7328870500479032,
                1.1194364017793637,
                2.1281946003057284
            ]
        },
        {
            "positions": [
                2.4655016982323725,
                -1.1797463701014705,
                1.6432489286339487,
                -0.7430686011661227,
                1.1079318420294086,
                2.3392613701042113
            ]
        },
        {
            "positions": [
                2.506307226599863,
                -1.1384270877276967,
                1.688584503817651,
                -0.7532501522843421,
                1.0964272822794539,
                2.5503281399026942
            ]
        },
        {
            "positions": [
                2.547112754967354,
                -1.097107805353923,
                1.7339200790013536,
                -0.7634317034025616,
                1.084922722529499,
                2.7613949097011776
            ]
        },
        {
            "positions": [
                2.587918283334844,
                -1.0557885229801491,
                1.7792556541850562,
                -0.7736132545207811,
                1.073418162779544,
                2.9724616794996606
            ]
        },
        {
            "positions": [
                2.6287238117023346,
                -1.0144692406063753,
                1.8245912293687587,
                -0.7837948056390006,
                1.0619136030295893,
                3.1835284492981435
            ]
        }
    ]
}