{
    "goal": {
        "global_pose": {
            "orientation": {
                "w": 0.005598929693374612,
                "x": 0.007748599140229565,
                "y": 0.7110244013736278,
                "z": -0.7031023480610252
            },
            "position": {
                "x": -0.8858502320852131,
                "y": -0.7141253447532654,
                "z": 0.3711530566215515
            }
        },
        "name": "move_to_auspresseinheit_C"
    },
    "id": "BKPIECE_move_to_auspresseinheit_C_39",
    "joint_names": [
        "shoulder_pan_joint",
        "shoulder_lift_joint",
        "elbow_joint",
        "wrist_1_joint",
        "wrist_2_joint",
        "wrist_3_joint"
    ],
    "metrics": {
        "cart_traj_len": 0.49386792507355315,
        "distance_elbow_joint": 1.0173695042780055,
        "distance_shoulder_lift_joint": 0.3333610011796201,
        "distance_shoulder_pan_joint": 0.2559597747513882,
        "distance_wrist_1_joint": 0.7138155623181884,
        "distance_wrist_2_joint": 1.3207878863425369,
        "distance_wrist_3_joint": 0.08664595393566366,
        "smoothness": 6.459479416000911e-16,
        "time": 0.32761943899999996,
        "traj_len": 1.9307873220024525,
        "weighted_distance": 2.4363569195291266
    },
    "planner": "BKPIECE",
    "start": {
        "state": {
            "elbow_joint": 1.7527959577730765,
            "shoulder_lift_joint": -0.9740617694224828,
            "shoulder_pan_joint": -2.967991417825869,
            "wrist_1_joint": -0.7595177689779385,
            "wrist_2_joint": 1.7443932448376545,
            "wrist_3_joint": 3.1991315425061013
        }
    },
    "waypoints": [
        {
            "positions": [
                -2.967991417825869,
                -0.9740617694224828,
                1.7527959577730765,
                -0.7595177689779385,
                1.7443932448376545,
                3.1991315425061013
            ]
        },
        {
            "positions": [
                -2.9423954403507304,
                -0.9407256693045207,
                1.651059007345276,
                -0.6881362127461197,
                1.6123144562034009,
                3.190466947112535
            ]
        },
        {
            "positions": [
                -2.9167994628755913,
                -0.9073895691865588,
                1.5493220569174753,
                -0.6167546565143008,
                1.480235667569147,
                3.1818023517189684
            ]
        },
        {
            "positions": [
                -2.8912034854004527,
                -0.8740534690685968,
                1.447585106489675,
                -0.545373100282482,
                1.3481568789348934,
                3.1731377563254024
            ]
        },
        {
            "positions": [
                -2.8656075079253136,
                -0.8407173689506348,
                1.3458481560618742,
                -0.4739915440506632,
                1.2160780903006398,
                3.164473160931836
            ]
        },
        {
            "positions": [
                -2.840011530450175,
                -0.8073812688326727,
                1.2441112056340737,
                -0.40260998781884433,
                1.083999301666386,
                3.1558085655382695
            ]
        },
        {
            "positions": [
                -2.8144155529750363,
                -0.7740451687147107,
                1.1423742552062732,
                -0.3312284315870255,
                0.9519205130321323,
                3.147143970144703
            ]
        },
        {
            "positions": [
                -2.7888195754998972,
                -0.7407090685967488,
                1.0406373047784727,
                -0.2598468753552067,
                0.8198417243978787,
                3.1384793747511366
            ]
        },
        {
            "positions": [
                -2.7632235980247586,
                -0.7073729684787867,
                0.938900354350672,
                -0.18846531912338782,
                0.687762935763625,
                3.1298147793575706
            ]
        },
        {
            "positions": [
                -2.7376276205496195,
                -0.6740368683608247,
                0.8371634039228715,
                -0.11708376289156897,
                0.5556841471293712,
                3.121150183964004
            ]
        },
        {
            "positions": [
                -2.712031643074481,
                -0.6407007682428627,
                0.7354264534950711,
                -0.045702206659750076,
                0.4236053584951176,
                3.1124855885704377
            ]
        }
    ]
}