{
    "goal": {
        "global_pose": {
            "orientation": {
                "w": -0.4816463035849501,
                "x": 0.5182115481033762,
                "y": 0.4908360881923453,
                "z": -0.5084816262002911
            },
            "position": {
                "x": -0.8240239810943604,
                "y": -0.300875300988555,
                "z": 0.16403168439865112
            }
        },
        "name": "move_to_storage_C"
    },
    "id": "BKPIECE_move_to_storage_C_108",
    "joint_names": [
        "shoulder_pan_joint",
        "shoulder_lift_joint",
        "elbow_joint",
        "wrist_1_joint",
        "wrist_2_joint",
        "wrist_3_joint"
    ],
    "metrics": {
        "cart_traj_len": 0.5757278599834174,
        "distance_elbow_joint": 0.2590005274089755,
        "distance_shoulder_lift_joint": 0.18822725331190915,
        "distance_shoulder_pan_joint": 0.4941289811341876,
        "distance_wrist_1_joint": 0.08842618008750014,
        "distance_wrist_2_joint": 1.0684326915167521,
        "distance_wrist_3_joint": 0.05800348874694894,
        "smoothness": 0.0,
        "time": 0.21124300899999998,
        "traj_len": 1.4684070015517747,
        "weighted_distance": 1.8517788667398771
    },
    "planner": "BKPIECE",
    "start": {
        "state": {
            "elbow_joint": 2.0108683149792914,
            "shoulder_lift_joint": -1.1634956873317392,
            "shoulder_pan_joint": -2.4736205022346,
            "wrist_1_joint": -0.8367026793690192,
            "wrist_2_joint": 0.6746043897045053,
            "wrist_3_joint": 3.133522094754363
        }
    },
    "waypoints": [
        {
            "positions": [
                -2.4736205022346,
                -1.1634956873317392,
                2.0108683149792914,
                -0.8367026793690192,
                0.6746043897045053,
                3.133522094754363
            ]
        },
        {
            "positions": [
                -2.5559753324236314,
                -1.132124478446421,
                1.9677015604111288,
                -0.8219649826877692,
                0.8526765049572973,
                3.1431893428788547
            ]
        },
        {
            "positions": [
                -2.6383301626126627,
                -1.1007532695611029,
                1.9245348058429663,
                -0.8072272860065192,
                1.0307486202100893,
                3.152856591003346
            ]
        },
        {
            "positions": [
                -2.7206849928016936,
                -1.0693820606757847,
                1.8813680512748037,
                -0.7924895893252691,
                1.2088207354628815,
                3.1625238391278376
            ]
        },
        {
            "positions": [
                -2.803039822990725,
                -1.0380108517904665,
                1.838201296706641,
                -0.7777518926440191,
                1.3868928507156735,
                3.172191087252329
            ]
        },
        {
            "positions": [
                -2.8853946531797563,
                -1.0066396429051483,
                1.7950345421384786,
                -0.7630141959627691,
                1.5649649659684655,
                3.1818583353768206
            ]
        },
        {
            "positions": [
                -2.9677494833687876,
                -0.9752684340198301,
                1.751867787570316,
                -0.7482764992815191,
                1.7430370812212574,
                3.191525583501312
            ]
        }
    ]
}