{
    "goal": {
        "global_pose": {
            "orientation": {
                "w": 0.5084816262002911,
                "x": -0.4908360881923452,
                "y": 0.5182115481033761,
                "z": -0.48164630358495003
            },
            "position": {
                "x": 0.5540239810943604,
                "y": -0.46912469901144505,
                "z": 0.16403168439865112
            }
        },
        "name": "move_to_storage_B"
    },
    "id": "BKPIECE_move_to_storage_B_106",
    "joint_names": [
        "shoulder_pan_joint",
        "shoulder_lift_joint",
        "elbow_joint",
        "wrist_1_joint",
        "wrist_2_joint",
        "wrist_3_joint"
    ],
    "metrics": {
        "cart_traj_len": 1.0260380438080956,
        "distance_elbow_joint": 0.3561142820201255,
        "distance_shoulder_lift_joint": 0.7400285166814489,
        "distance_shoulder_pan_joint": 0.5507830553288848,
        "distance_wrist_1_joint": 3.945219034428993,
        "distance_wrist_2_joint": 2.74117398000209,
        "distance_wrist_3_joint": 3.1963525782830304,
        "smoothness": 0.3688647870951627,
        "time": 0.323628563,
        "traj_len": 3.395536989453152,
        "weighted_distance": 4.960722691074529
    },
    "planner": "BKPIECE",
    "start": {
        "state": {
            "elbow_joint": 1.6649325340416963,
            "shoulder_lift_joint": -0.6616387945129425,
            "shoulder_pan_joint": -0.9139837929255878,
            "wrist_1_joint": 2.1467571094334352,
            "wrist_2_joint": -2.234195976750228,
            "wrist_3_joint": 0.005470921511140723
        }
    },
    "waypoints": [
        {
            "positions": [
                -0.9139837929255878,
                -0.6616387945129425,
                1.6649325340416963,
                2.1467571094334352,
                -2.234195976750228,
                0.005470921511140723
            ]
        },
        {
            "positions": [
                -0.8769377608744435,
                -0.7817252720085823,
                1.735189900641012,
                2.2407470398816662,
                -2.2366387575716935,
                0.0017590956619277054
            ]
        },
        {
            "positions": [
                -0.8398917288232993,
                -0.901811749504222,
                1.8054472672403281,
                2.3347369703298972,
                -2.239081538393159,
                -0.001952730187285312
            ]
        },
        {
            "positions": [
                -0.802845696772155,
                -1.0218982269998618,
                1.875704633839644,
                2.4287269007781287,
                -2.241524319214624,
                -0.005664556036498329
            ]
        },
        {
            "positions": [
                -0.7657996647210108,
                -1.1419847044955016,
                1.94596200043896,
                2.5227168312263597,
                -2.2439671000360897,
                -0.009376381885711348
            ]
        },
        {
            "positions": [
                -0.7287536326698665,
                -1.2620711819911414,
                2.0162193670382758,
                2.6167067616745907,
                -2.246409880857555,
                -0.013088207734924362
            ]
        },
        {
            "positions": [
                -0.743375748472793,
                -1.2564873368230114,
                2.0164124649992177,
                2.477695986387077,
                -2.137251477821765,
                0.11402353022655426
            ]
        },
        {
            "positions": [
                -0.7579978642757196,
                -1.2509034916548813,
                2.0166055629601596,
                2.3386852110995635,
                -2.028093074785974,
                0.24113526818803288
            ]
        },
        {
            "positions": [
                -0.7726199800786461,
                -1.2453196464867515,
                2.0167986609211015,
                2.1996744358120504,
                -1.9189346717501836,
                0.36824700614951145
            ]
        },
        {
            "positions": [
                -0.7872420958815727,
                -1.2397358013186215,
                2.016991758882043,
                2.0606636605245368,
                -1.8097762687143932,
                0.4953587441109901
            ]
        },
        {
            "positions": [
                -0.8018642116844992,
                -1.2341519561504914,
                2.017184856842985,
                1.9216528852370232,
                -1.7006178656786026,
                0.6224704820724687
            ]
        },
        {
            "positions": [
                -0.8164863274874257,
                -1.2285681109823614,
                2.017377954803927,
                1.7826421099495096,
                -1.591459462642812,
                0.7495822200339473
            ]
        },
        {
            "positions": [
                -0.8311084432903523,
                -1.2229842658142314,
                2.0175710527648687,
                1.643631334661996,
                -1.4823010596070216,
                0.876693957995426
            ]
        },
        {
            "positions": [
                -0.8457305590932788,
                -1.2174004206461015,
                2.0177641507258106,
                1.5046205593744826,
                -1.3731426565712312,
                1.0038056959569046
            ]
        },
        {
            "positions": [
                -0.8603526748962054,
                -1.2118165754779715,
                2.0179572486867525,
                1.3656097840869692,
                -1.2639842535354406,
                1.1309174339183832
            ]
        },
        {
            "positions": [
                -0.8749747906991319,
                -1.2062327303098415,
                2.018150346647694,
                1.2265990087994556,
                -1.15482585049965,
                1.2580291718798617
            ]
        },
        {
            "positions": [
                -0.8895969065020584,
                -1.2006488851417114,
                2.018343444608636,
                1.087588233511942,
                -1.0456674474638596,
                1.3851409098413403
            ]
        },
        {
            "positions": [
                -0.904219022304985,
                -1.1950650399735814,
                2.018536542569578,
                0.9485774582244286,
                -0.936509044428069,
                1.5122526478028189
            ]
        },
        {
            "positions": [
                -0.9188411381079115,
                -1.1894811948054516,
                2.0187296405305197,
                0.809566682936915,
                -0.8273506413922787,
                1.6393643857642977
            ]
        },
        {
            "positions": [
                -0.9334632539108381,
                -1.1838973496373215,
                2.0189227384914616,
                0.6705559076494014,
                -0.718192238356488,
                1.7664761237257764
            ]
        },
        {
            "positions": [
                -0.9480853697137646,
                -1.1783135044691915,
                2.0191158364524036,
                0.531545132361888,
                -0.6090338353206977,
                1.8935878616872548
            ]
        },
        {
            "positions": [
                -0.962707485516691,
                -1.1727296593010614,
                2.019308934413345,
                0.39253435707437445,
                -0.49987543228490705,
                2.020699599648734
            ]
        },
        {
            "positions": [
                -0.9773296013196177,
                -1.1671458141329314,
                2.019502032374287,
                0.25352358178686085,
                -0.39071702924911644,
                2.1478113376102126
            ]
        },
        {
            "positions": [
                -0.9919517171225442,
                -1.1615619689648016,
                2.019695130335229,
                0.1145128064993477,
                -0.28155862621332606,
                2.2749230755716905
            ]
        },
        {
            "positions": [
                -1.0065738329254708,
                -1.1559781237966715,
                2.0198882282961708,
                -0.024497968788165903,
                -0.17240022317753567,
                2.4020348135331693
            ]
        },
        {
            "positions": [
                -1.0211959487283973,
                -1.1503942786285415,
                2.0200813262571127,
                -0.1635087440756795,
                -0.06324182014174484,
                2.529146551494648
            ]
        },
        {
            "positions": [
                -1.0358180645313237,
                -1.1448104334604114,
                2.0202744242180546,
                -0.3025195193631931,
                0.04591658289404554,
                2.656258289456126
            ]
        },
        {
            "positions": [
                -1.0504401803342502,
                -1.1392265882922814,
                2.020467522178996,
                -0.4415302946507067,
                0.15507498592983593,
                2.7833700274176048
            ]
        },
        {
            "positions": [
                -1.065062296137177,
                -1.1336427431241516,
                2.020660620139938,
                -0.5805410699382203,
                0.26423338896562676,
                2.9104817653790835
            ]
        },
        {
            "positions": [
                -1.0796844119401035,
                -1.1280588979560215,
                2.02085371810088,
                -0.7195518452257335,
                0.37339179200141714,
                3.0375935033405623
            ]
        },
        {
            "positions": [
                -1.09430652774303,
                -1.1224750527878915,
                2.021046816061822,
                -0.8585626205132468,
                0.48255019503720736,
                3.164705241302041
            ]
        }
    ]
}