{
    "goal": {
        "global_pose": {
            "orientation": {
                "w": -0.00223480608172531,
                "x": 0.0024358444001904467,
                "y": 0.7094548369677653,
                "z": -0.704743149386269
            },
            "position": {
                "x": -0.37947507619857795,
                "y": -0.6371506643295288,
                "z": 0.19426114857196808
            }
        },
        "name": "move_to_magneteinheit_C"
    },
    "id": "BKPIECE_move_to_magneteinheit_C_106",
    "joint_names": [
        "shoulder_pan_joint",
        "shoulder_lift_joint",
        "elbow_joint",
        "wrist_1_joint",
        "wrist_2_joint",
        "wrist_3_joint"
    ],
    "metrics": {
        "cart_traj_len": 2.6803946826312193,
        "distance_elbow_joint": 1.1641512471202626,
        "distance_shoulder_lift_joint": 0.34688722975549613,
        "distance_shoulder_pan_joint": 3.2297016709411346,
        "distance_wrist_1_joint": 2.438813593785149,
        "distance_wrist_2_joint": 1.7979914642898849,
        "distance_wrist_3_joint": 1.578922287492353,
        "smoothness": 1.8429824839026676,
        "time": 0.24209036,
        "traj_len": 3.249071789509164,
        "weighted_distance": 4.23687586866125
    },
    "planner": "BKPIECE",
    "start": {
        "state": {
            "elbow_joint": 1.9565354006593851,
            "shoulder_lift_joint": -1.4165861576512813,
            "shoulder_pan_joint": -1.6717766223278752,
            "wrist_1_joint": -0.528663328821883,
            "wrist_2_joint": 1.472756589259273,
            "wrist_3_joint": 3.159348288315503
        }
    },
    "waypoints": [
        {
            "positions": [
                -1.6717766223278752,
                -1.4165861576512813,
                1.9565354006593851,
                -0.528663328821883,
                1.472756589259273,
                3.159348288315503
            ]
        },
        {
            "positions": [
                -1.550382511136617,
                -1.4077481756379802,
                1.958230992431198,
                -0.4859972437654687,
                1.5072898130245074,
                3.066850253923072
            ]
        },
        {
            "positions": [
                -1.4289883999453588,
                -1.3989101936246788,
                1.9599265842030111,
                -0.4433311587090544,
                1.5418230367897416,
                2.9743522195306404
            ]
        },
        {
            "positions": [
                -1.3075942887541006,
                -1.3900722116113777,
                1.961622175974824,
                -0.40066507365264,
                1.576356260554976,
                2.8818541851382093
            ]
        },
        {
            "positions": [
                -1.2070034289059786,
                -1.3751744608957048,
                1.8742959116034006,
                -0.36857035535358273,
                1.4916994635243856,
                2.8225064430845377
            ]
        },
        {
            "positions": [
                -1.1064125690578563,
                -1.3602767101800317,
                1.7869696472319772,
                -0.3364756370545255,
                1.4070426664937954,
                2.763158701030866
            ]
        },
        {
            "positions": [
                -1.0058217092097341,
                -1.3453789594643588,
                1.699643382860554,
                -0.30438091875546824,
                1.3223858694632051,
                2.7038109589771944
            ]
        },
        {
            "positions": [
                -0.9052308493616121,
                -1.330481208748686,
                1.6123171184891305,
                -0.27228620045641094,
                1.237729072432615,
                2.644463216923523
            ]
        },
        {
            "positions": [
                -0.80463998951349,
                -1.3155834580330128,
                1.524990854117707,
                -0.2401914821573537,
                1.1530722754020248,
                2.5851154748698515
            ]
        },
        {
            "positions": [
                -0.7040491296653679,
                -1.30068570731734,
                1.4376645897462836,
                -0.20809676385829645,
                1.0684154783714346,
                2.52576773281618
            ]
        },
        {
            "positions": [
                -0.8794977380847259,
                -1.3000652909500263,
                1.4807275867581255,
                -0.13646835327603332,
                0.9982262954441469,
                2.5588480539412157
            ]
        },
        {
            "positions": [
                -1.0549463465040838,
                -1.2994448745827127,
                1.5237905837699675,
                -0.06483994269377019,
                0.9280371125168592,
                2.5919283750662516
            ]
        },
        {
            "positions": [
                -1.2303949549234416,
                -1.2988244582153994,
                1.5668535807818094,
                0.006788467888492911,
                0.8578479295895715,
                2.625008696191288
            ]
        },
        {
            "positions": [
                -1.4058435633427995,
                -1.2982040418480858,
                1.6099165777936513,
                0.07841687847075607,
                0.7876587466622837,
                2.658089017316324
            ]
        },
        {
            "positions": [
                -1.5812921717621573,
                -1.2975836254807722,
                1.6529795748054932,
                0.15004528905301917,
                0.717469563734996,
                2.6911693384413597
            ]
        },
        {
            "positions": [
                -1.7567407801815154,
                -1.2969632091134586,
                1.696042571817335,
                0.22167369963528227,
                0.6472803808077083,
                2.7242496595663956
            ]
        },
        {
            "positions": [
                -1.9321893886008732,
                -1.296342792746145,
                1.739105568829177,
                0.2933021102175454,
                0.5770911978804207,
                2.7573299806914315
            ]
        },
        {
            "positions": [
                -2.1076379970202312,
                -1.2957223763788317,
                1.782168565841019,
                0.3649305207998086,
                0.5069020149531329,
                2.790410301816468
            ]
        },
        {
            "positions": [
                -2.283086605439589,
                -1.2951019600115181,
                1.8252315628528608,
                0.4365589313820717,
                0.4367128320258452,
                2.8234906229415038
            ]
        },
        {
            "positions": [
                -2.458535213858947,
                -1.2944815436442045,
                1.8682945598647027,
                0.5081873419643348,
                0.3665236490985575,
                2.8565709440665397
            ]
        },
        {
            "positions": [
                -2.5022134145488955,
                -1.3022214237280807,
                1.8629788694238152,
                0.3292810115395119,
                0.422957799055681,
                2.922754758768384
            ]
        },
        {
            "positions": [
                -2.545891615238844,
                -1.309961303811957,
                1.8576631789829277,
                0.150374681114689,
                0.47939194901280446,
                2.9889385734702283
            ]
        },
        {
            "positions": [
                -2.589569815928792,
                -1.3177011838958332,
                1.8523474885420401,
                -0.028531649310133966,
                0.5358260989699279,
                3.055122388172072
            ]
        },
        {
            "positions": [
                -2.6332480166187406,
                -1.3254410639797094,
                1.8470317981011524,
                -0.2074379797349568,
                0.5922602489270514,
                3.1213062028739165
            ]
        },
        {
            "positions": [
                -2.676926217308689,
                -1.3331809440635858,
                1.8417161076602648,
                -0.3863443101597799,
                0.6486943988841749,
                3.187490017575761
            ]
        },
        {
            "positions": [
                -2.7206044179986377,
                -1.340920824147462,
                1.8364004172193773,
                -0.5652506405846026,
                0.7051285488412984,
                3.253673832277605
            ]
        },
        {
            "positions": [
                -2.644877856831829,
                -1.2908297458450084,
                1.8881212879989688,
                -0.5549592864931076,
                0.6739394480733284,
                3.196141784276349
            ]
        },
        {
            "positions": [
                -2.56915129566502,
                -1.240738667542555,
                1.9398421587785601,
                -0.5446679324016124,
                0.6427503473053585,
                3.1386097362750927
            ]
        },
        {
            "positions": [
                -2.4934247344982117,
                -1.1906475892401014,
                1.9915630295581517,
                -0.5343765783101173,
                0.6115612465373885,
                3.0810776882738367
            ]
        },
        {
            "positions": [
                -2.484305131275746,
                -1.1766125390712006,
                2.000273109795034,
                -0.6832020173978712,
                0.6377547362829452,
                3.103497432537755
            ]
        },
        {
            "positions": [
                -2.4751855280532795,
                -1.1625774889023,
                2.008983190031916,
                -0.832027456485625,
                0.6639482260285018,
                3.1259171768016727
            ]
        }
    ]
}