{
    "goal": {
        "global_pose": {
            "orientation": {
                "w": 0.005598929693374612,
                "x": 0.007748599140229565,
                "y": 0.7110244013736278,
                "z": -0.7031023480610252
            },
            "position": {
                "x": 0.1141497679147869,
                "y": -0.7141253447532654,
                "z": 0.3711530566215515
            }
        },
        "name": "move_to_auspresseinheit_B"
    },
    "id": "BKPIECE_move_to_auspresseinheit_B_59",
    "joint_names": [
        "shoulder_pan_joint",
        "shoulder_lift_joint",
        "elbow_joint",
        "wrist_1_joint",
        "wrist_2_joint",
        "wrist_3_joint"
    ],
    "metrics": {
        "cart_traj_len": 0.5648750343580229,
        "distance_elbow_joint": 0.0629713226115205,
        "distance_shoulder_lift_joint": 0.2937345756297609,
        "distance_shoulder_pan_joint": 0.5785547911032898,
        "distance_wrist_1_joint": 0.3249833866517303,
        "distance_wrist_2_joint": 0.9849828508271159,
        "distance_wrist_3_joint": 0.008068009673205978,
        "smoothness": 7.612957903237841e-16,
        "time": 0.253964859,
        "traj_len": 1.5010979103631525,
        "weighted_distance": 1.8919294895217111
    },
    "planner": "BKPIECE",
    "start": {
        "state": {
            "elbow_joint": 2.0193061681459312,
            "shoulder_lift_joint": -1.1220205130644991,
            "shoulder_pan_joint": -1.0952072088045026,
            "wrist_1_joint": -0.8559671810662515,
            "wrist_2_joint": 0.4759638712940361,
            "wrist_3_joint": 3.159081874192446
        }
    },
    "waypoints": [
        {
            "positions": [
                -1.0952072088045026,
                -1.1220205130644991,
                2.0193061681459312,
                -0.8559671810662515,
                0.4759638712940361,
                3.159081874192446
            ]
        },
        {
            "positions": [
                -1.1916330073217176,
                -1.1709762756694593,
                2.008810947710678,
                -0.8018032832909631,
                0.6401276797652221,
                3.157737205913578
            ]
        },
        {
            "positions": [
                -1.2880588058389326,
                -1.2199320382744194,
                1.9983157272754244,
                -0.7476393855156747,
                0.8042914882364081,
                3.156392537634711
            ]
        },
        {
            "positions": [
                -1.3844846043561474,
                -1.2688878008793796,
                1.9878205068401709,
                -0.6934754877403864,
                0.9684552967075941,
                3.155047869355843
            ]
        },
        {
            "positions": [
                -1.4809104028733624,
                -1.3178435634843397,
                1.9773252864049176,
                -0.639311589965098,
                1.13261910517878,
                3.153703201076975
            ]
        },
        {
            "positions": [
                -1.5773362013905774,
                -1.3667993260892999,
                1.9668300659696643,
                -0.5851476921898096,
                1.296782913649966,
                3.152358532798108
            ]
        },
        {
            "positions": [
                -1.6737619999077924,
                -1.41575508869426,
                1.9563348455344107,
                -0.5309837944145211,
                1.460946722121152,
                3.15101386451924
            ]
        }
    ]
}