{
    "goal": {
        "global_pose": {
            "orientation": {
                "w": -0.00223480608172531,
                "x": 0.0024358444001904467,
                "y": 0.7094548369677653,
                "z": -0.704743149386269
            },
            "position": {
                "x": -0.37947507619857795,
                "y": -0.6371506643295288,
                "z": 0.19426114857196808
            }
        },
        "name": "move_to_magneteinheit_C"
    },
    "id": "BKPIECE_move_to_magneteinheit_C_10",
    "joint_names": [
        "shoulder_pan_joint",
        "shoulder_lift_joint",
        "elbow_joint",
        "wrist_1_joint",
        "wrist_2_joint",
        "wrist_3_joint"
    ],
    "metrics": {
        "cart_traj_len": 1.5329344526516293,
        "distance_elbow_joint": 1.1989676582319617,
        "distance_shoulder_lift_joint": 0.41684660006946306,
        "distance_shoulder_pan_joint": 1.5826775344571546,
        "distance_wrist_1_joint": 1.7035668005832507,
        "distance_wrist_2_joint": 2.1790554503862167,
        "distance_wrist_3_joint": 4.301660841602242,
        "smoothness": 0.5638611000045829,
        "time": 0.436309509,
        "traj_len": 3.373836819606171,
        "weighted_distance": 4.885562282839534
    },
    "planner": "BKPIECE",
    "start": {
        "state": {
            "elbow_joint": 1.9565354006593851,
            "shoulder_lift_joint": -1.4165861576512813,
            "shoulder_pan_joint": -1.6717766223278752,
            "wrist_1_joint": -0.528663328821883,
            "wrist_2_joint": 1.472756589259273,
            "wrist_3_joint": 3.159348288315503
        }
    },
    "waypoints": [
        {
            "positions": [
                -1.6717766223278752,
                -1.4165861576512813,
                1.9565354006593851,
                -0.528663328821883,
                1.472756589259273,
                3.159348288315503
            ]
        },
        {
            "positions": [
                -1.634841202341535,
                -1.4281203010870964,
                1.9707778730822998,
                -0.4542959645777448,
                1.4479305186197902,
                3.1159421385403445
            ]
        },
        {
            "positions": [
                -1.597905782355195,
                -1.4396544445229114,
                1.9850203455052144,
                -0.37992860033360654,
                1.423104447980307,
                3.072535988765186
            ]
        },
        {
            "positions": [
                -1.5779703317463285,
                -1.4386486410018557,
                1.9371762827445809,
                -0.33351560668795927,
                1.3399308870320292,
                2.89941372076279
            ]
        },
        {
            "positions": [
                -1.5580348811374618,
                -1.4376428374808004,
                1.8893322199839475,
                -0.28710261304231205,
                1.2567573260837515,
                2.7262914527603934
            ]
        },
        {
            "positions": [
                -1.5380994305285953,
                -1.4366370339597447,
                1.841488157223314,
                -0.24068961939666478,
                1.1735837651354735,
                2.553169184757997
            ]
        },
        {
            "positions": [
                -1.5181639799197286,
                -1.4356312304386893,
                1.7936440944626804,
                -0.19427662575101753,
                1.090410204187196,
                2.380046916755601
            ]
        },
        {
            "positions": [
                -1.4982285293108621,
                -1.4346254269176337,
                1.7458000317020468,
                -0.14786363210537026,
                1.007236643238918,
                2.206924648753205
            ]
        },
        {
            "positions": [
                -1.4782930787019954,
                -1.4336196233965781,
                1.6979559689414132,
                -0.10145063845972302,
                0.9240630822906402,
                2.0338023807508083
            ]
        },
        {
            "positions": [
                -1.458357628093129,
                -1.4326138198755227,
                1.6501119061807799,
                -0.05503764481407575,
                0.8408895213423623,
                1.860680112748412
            ]
        },
        {
            "positions": [
                -1.4384221774842625,
                -1.431608016354467,
                1.6022678434201463,
                -0.008624651168428532,
                0.7577159603940846,
                1.6875578447460158
            ]
        },
        {
            "positions": [
                -1.4184867268753958,
                -1.4306022128334117,
                1.5544237806595127,
                0.03778834247721874,
                0.6745423994458067,
                1.5144355767436195
            ]
        },
        {
            "positions": [
                -1.3985512762665293,
                -1.429596409312356,
                1.5065797178988793,
                0.08420133612286601,
                0.5913688384975289,
                1.3413133087412232
            ]
        },
        {
            "positions": [
                -1.3786158256576626,
                -1.4285906057913007,
                1.4587356551382458,
                0.13061432976851317,
                0.5081952775492512,
                1.168191040738827
            ]
        },
        {
            "positions": [
                -1.3586803750487961,
                -1.427584802270245,
                1.4108915923776122,
                0.17702732341416055,
                0.4250217166009734,
                0.9950687727364306
            ]
        },
        {
            "positions": [
                -1.5290801713889013,
                -1.381473878092125,
                1.4687819473839099,
                0.15376601915758303,
                0.36181658036827935,
                1.017974471465399
            ]
        },
        {
            "positions": [
                -1.6994799677290067,
                -1.3353629539140048,
                1.5266723023902073,
                0.1305047149010055,
                0.2986114441355854,
                1.0408801701943677
            ]
        },
        {
            "positions": [
                -1.869879764069112,
                -1.2892520297358847,
                1.584562657396505,
                0.10724341064442795,
                0.23540630790289133,
                1.0637858689233364
            ]
        },
        {
            "positions": [
                -2.040279560409217,
                -1.2431411055577644,
                1.6424530124028027,
                0.08398210638785042,
                0.17220117167019733,
                1.086691567652305
            ]
        },
        {
            "positions": [
                -2.2106793567493224,
                -1.1970301813796442,
                1.7003433674091002,
                0.06072080213127287,
                0.1089960354375033,
                1.1095972663812734
            ]
        },
        {
            "positions": [
                -2.381079153089428,
                -1.150919257201524,
                1.7582337224153979,
                0.03745949787469535,
                0.04579089920480928,
                1.132502965110242
            ]
        },
        {
            "positions": [
                -2.551478949429533,
                -1.104808333023404,
                1.8161240774216956,
                0.014198193618117798,
                -0.01741423702788476,
                1.1554086638392107
            ]
        },
        {
            "positions": [
                -2.546341681060625,
                -1.109675125244641,
                1.8343277986628006,
                -0.060706992975121145,
                0.044208223895002424,
                1.3335471118280786
            ]
        },
        {
            "positions": [
                -2.5412044126917177,
                -1.1145419174658782,
                1.8525315199039056,
                -0.13561217956836008,
                0.1058306848178896,
                1.5116855598169465
            ]
        },
        {
            "positions": [
                -2.5360671443228098,
                -1.1194087096871153,
                1.8707352411450107,
                -0.21051736616159905,
                0.1674531457407768,
                1.6898240078058144
            ]
        },
        {
            "positions": [
                -2.530929875953902,
                -1.1242755019083521,
                1.8889389623861157,
                -0.28542255275483797,
                0.22907560666366397,
                1.8679624557946823
            ]
        },
        {
            "positions": [
                -2.5257926075849944,
                -1.1291422941295892,
                1.9071426836272207,
                -0.360327739348077,
                0.2906980675865512,
                2.0461009037835503
            ]
        },
        {
            "positions": [
                -2.5206553392160864,
                -1.1340090863508263,
                1.9253464048683258,
                -0.4352329259413159,
                0.35232052850943835,
                2.224239351772418
            ]
        },
        {
            "positions": [
                -2.511463518699308,
                -1.139955376025007,
                1.941726234421889,
                -0.5123561057396621,
                0.4161505002217855,
                2.4058815011698544
            ]
        },
        {
            "positions": [
                -2.5022716981825295,
                -1.1459016656991876,
                1.9581060639754524,
                -0.5894792855380082,
                0.4799804719341326,
                2.5875236505672907
            ]
        },
        {
            "positions": [
                -2.4930798776657515,
                -1.1518479553733683,
                1.9744858935290157,
                -0.6666024653363543,
                0.5438104436464798,
                2.7691657999647266
            ]
        },
        {
            "positions": [
                -2.483888057148973,
                -1.157794245047549,
                1.990865723082579,
                -0.7437256451347005,
                0.607640415358827,
                2.950807949362163
            ]
        },
        {
            "positions": [
                -2.4746962366321945,
                -1.1637405347217296,
                2.0072455526361423,
                -0.8208488249330466,
                0.6714703870711741,
                3.132450098759599
            ]
        }
    ]
}