{
    "goal": {
        "global_pose": {
            "orientation": {
                "w": -0.00223480608172531,
                "x": 0.0024358444001904467,
                "y": 0.7094548369677653,
                "z": -0.704743149386269
            },
            "position": {
                "x": 0.6205249238014221,
                "y": -0.6371506643295288,
                "z": 0.19426114857196808
            }
        },
        "name": "move_to_magneteinheit_B"
    },
    "id": "BKPIECE_move_to_magneteinheit_B_92",
    "joint_names": [
        "shoulder_pan_joint",
        "shoulder_lift_joint",
        "elbow_joint",
        "wrist_1_joint",
        "wrist_2_joint",
        "wrist_3_joint"
    ],
    "metrics": {
        "cart_traj_len": 1.4525570302525128,
        "distance_elbow_joint": 0.7290790461708161,
        "distance_shoulder_lift_joint": 1.2476255953407192,
        "distance_shoulder_pan_joint": 1.6207914776262338,
        "distance_wrist_1_joint": 2.6081404340142877,
        "distance_wrist_2_joint": 2.941891347336349,
        "distance_wrist_3_joint": 3.143307896222593,
        "smoothness": 1.8840148369936264e-16,
        "time": 0.462538794,
        "traj_len": 3.5058288316332558,
        "weighted_distance": 4.911973470053235
    },
    "planner": "BKPIECE",
    "start": {
        "state": {
            "elbow_joint": 2.393587130804639,
            "shoulder_lift_joint": -1.9085141043513325,
            "shoulder_pan_joint": 0.7066247066698809,
            "wrist_1_joint": -0.4678290934590222,
            "wrist_2_joint": 0.7096259084215963,
            "wrist_3_joint": 3.147370379541726
        }
    },
    "waypoints": [
        {
            "positions": [
                0.7066247066698809,
                -1.9085141043513325,
                2.393587130804639,
                -0.4678290934590222,
                0.7096259084215963,
                3.147370379541726
            ]
        },
        {
            "positions": [
                0.655974972994061,
                -1.869525804496935,
                2.370803410611801,
                -0.3863247048960757,
                0.6176918038173355,
                3.04914200778477
            ]
        },
        {
            "positions": [
                0.6053252393182412,
                -1.8305375046425376,
                2.3480196904189627,
                -0.30482031633312917,
                0.5257576992130746,
                2.950913636027814
            ]
        },
        {
            "positions": [
                0.5546755056424215,
                -1.79154920478814,
                2.325235970226125,
                -0.22331592777018267,
                0.4338235946088136,
                2.852685264270858
            ]
        },
        {
            "positions": [
                0.5040257719666017,
                -1.7525609049337425,
                2.3024522500332867,
                -0.14181153920723616,
                0.3418894900045527,
                2.754456892513902
            ]
        },
        {
            "positions": [
                0.4533760382907818,
                -1.7135726050793452,
                2.279668529840449,
                -0.06030715064428965,
                0.24995538540029183,
                2.656228520756946
            ]
        },
        {
            "positions": [
                0.40272630461496206,
                -1.6745843052249476,
                2.2568848096476106,
                0.021197237918656853,
                0.15802128079603084,
                2.55800014899999
            ]
        },
        {
            "positions": [
                0.35207657093914224,
                -1.6355960053705503,
                2.234101089454773,
                0.10270162648160336,
                0.06608717619176996,
                2.459771777243034
            ]
        },
        {
            "positions": [
                0.3014268372633224,
                -1.5966077055161527,
                2.211317369261935,
                0.18420601504454986,
                -0.02584692841249092,
                2.3615434054860778
            ]
        },
        {
            "positions": [
                0.2507771035875026,
                -1.5576194056617552,
                2.1885336490690968,
                0.26571040360749637,
                -0.1177810330167518,
                2.263315033729122
            ]
        },
        {
            "positions": [
                0.20012736991168278,
                -1.5186311058073578,
                2.165749928876259,
                0.3472147921704429,
                -0.20971513762101268,
                2.1650866619721656
            ]
        },
        {
            "positions": [
                0.14947763623586297,
                -1.4796428059529603,
                2.1429662086834207,
                0.4287191807333894,
                -0.3016492422252737,
                2.06685829021521
            ]
        },
        {
            "positions": [
                0.09882790256004326,
                -1.440654506098563,
                2.120182488490583,
                0.5102235692963359,
                -0.39358334682953466,
                1.9686299184582539
            ]
        },
        {
            "positions": [
                0.04817816888422344,
                -1.4016662062441654,
                2.0973987682977446,
                0.5917279578592824,
                -0.48551745143379543,
                1.8704015467012978
            ]
        },
        {
            "positions": [
                -0.002471564791596381,
                -1.3626779063897678,
                2.074615048104907,
                0.673232346422229,
                -0.5774515560380564,
                1.7721731749443417
            ]
        },
        {
            "positions": [
                -0.0531212984674162,
                -1.3236896065353703,
                2.051831327912069,
                0.7547367349851755,
                -0.6693856606423172,
                1.6739448031873858
            ]
        },
        {
            "positions": [
                -0.10377103214323602,
                -1.284701306680973,
                2.0290476077192308,
                0.836241123548122,
                -0.7613197652465782,
                1.5757164314304297
            ]
        },
        {
            "positions": [
                -0.15442076581905584,
                -1.2457130068265756,
                2.0062638875263925,
                0.9177455121110685,
                -0.8532538698508392,
                1.4774880596734736
            ]
        },
        {
            "positions": [
                -0.20507049949487566,
                -1.206724706972178,
                1.9834801673335547,
                0.999249900674015,
                -0.9451879744550999,
                1.3792596879165178
            ]
        },
        {
            "positions": [
                -0.2557202331706955,
                -1.1677364071177805,
                1.960696447140717,
                1.0807542892369615,
                -1.037122079059361,
                1.2810313161595617
            ]
        },
        {
            "positions": [
                -0.3063699668465153,
                -1.128748107263383,
                1.9379127269478786,
                1.162258677799908,
                -1.1290561836636217,
                1.1828029444026056
            ]
        },
        {
            "positions": [
                -0.3570197005223351,
                -1.0897598074089856,
                1.9151290067550408,
                1.2437630663628545,
                -1.2209902882678827,
                1.0845745726456495
            ]
        },
        {
            "positions": [
                -0.40766943419815493,
                -1.050771507554588,
                1.8923452865622028,
                1.325267454925801,
                -1.3129243928721437,
                0.9863462008886934
            ]
        },
        {
            "positions": [
                -0.45831916787397475,
                -1.0117832077001907,
                1.8695615663693648,
                1.4067718434887475,
                -1.4048584974764047,
                0.8881178291317378
            ]
        },
        {
            "positions": [
                -0.5089689015497944,
                -0.9727949078457931,
                1.8467778461765267,
                1.488276232051694,
                -1.4967926020806657,
                0.7898894573747817
            ]
        },
        {
            "positions": [
                -0.5596186352256142,
                -0.9338066079913957,
                1.8239941259836887,
                1.5697806206146405,
                -1.5887267066849262,
                0.6916610856178256
            ]
        },
        {
            "positions": [
                -0.610268368901434,
                -0.8948183081369983,
                1.8012104057908507,
                1.651285009177587,
                -1.6806608112891872,
                0.5934327138608695
            ]
        },
        {
            "positions": [
                -0.6609181025772538,
                -0.8558300082826007,
                1.7784266855980126,
                1.7327893977405335,
                -1.7725949158934482,
                0.4952043421039134
            ]
        },
        {
            "positions": [
                -0.7115678362530736,
                -0.8168417084282031,
                1.7556429654051748,
                1.81429378630348,
                -1.8645290204977092,
                0.3969759703469573
            ]
        },
        {
            "positions": [
                -0.7622175699288934,
                -0.7778534085738058,
                1.7328592452123366,
                1.8957981748664265,
                -1.9564631251019702,
                0.29874759859000166
            ]
        },
        {
            "positions": [
                -0.8128673036047133,
                -0.7388651087194082,
                1.7100755250194988,
                1.977302563429373,
                -2.0483972297062305,
                0.20051922683304557
            ]
        },
        {
            "positions": [
                -0.8635170372805331,
                -0.6998768088650109,
                1.6872918048266607,
                2.0588069519923193,
                -2.140331334310492,
                0.10229085507608948
            ]
        },
        {
            "positions": [
                -0.9141667709563528,
                -0.6608885090106135,
                1.6645080846338227,
                2.140311340555266,
                -2.2322654389147525,
                0.0040624833191331726
            ]
        }
    ]
}