{
    "goal": {
        "global_pose": {
            "orientation": {
                "w": -0.4816463035849501,
                "x": 0.5182115481033762,
                "y": 0.4908360881923453,
                "z": -0.5084816262002911
            },
            "position": {
                "x": -0.8240239810943604,
                "y": 0.19912469901144506,
                "z": 0.16403168439865112
            }
        },
        "name": "move_to_storage_D"
    },
    "id": "BKPIECE_move_to_storage_D_5",
    "joint_names": [
        "shoulder_pan_joint",
        "shoulder_lift_joint",
        "elbow_joint",
        "wrist_1_joint",
        "wrist_2_joint",
        "wrist_3_joint"
    ],
    "metrics": {
        "cart_traj_len": 3.7715792116171327,
        "distance_elbow_joint": 4.214444993371502,
        "distance_shoulder_lift_joint": 1.8064722140679583,
        "distance_shoulder_pan_joint": 2.8130715682780156,
        "distance_wrist_1_joint": 2.4135392617246523,
        "distance_wrist_2_joint": 1.6019695071912183,
        "distance_wrist_3_joint": 3.14482135833384,
        "smoothness": 0.299758866491745,
        "time": 0.223288531,
        "traj_len": 3.9992897998228623,
        "weighted_distance": 5.12830092609148
    },
    "planner": "BKPIECE",
    "start": {
        "state": {
            "elbow_joint": -2.384821990628643,
            "shoulder_lift_joint": -2.278805467437664,
            "shoulder_pan_joint": -0.18546946439364564,
            "wrist_1_joint": 1.4845938187801415,
            "wrist_2_joint": 0.178987772454074,
            "wrist_3_joint": 0.03710569632802521
        }
    },
    "waypoints": [
        {
            "positions": [
                -0.18546946439364564,
                -2.278805467437664,
                -2.384821990628643,
                1.4845938187801415,
                0.178987772454074,
                0.03710569632802521
            ]
        },
        {
            "positions": [
                -0.13364418527976207,
                -2.230220558661045,
                -2.349845606767615,
                1.5167261174736721,
                0.11211270394230756,
                0.041189336920544266
            ]
        },
        {
            "positions": [
                -0.08181890616587847,
                -2.1816356498844263,
                -2.3148692229065873,
                1.5488584161672028,
                0.04523763543054113,
                0.04527297751306332
            ]
        },
        {
            "positions": [
                0.00838163767245255,
                -2.1320351995726634,
                -2.2196842448610035,
                1.4998229040966535,
                0.08798962232075555,
                -0.023478459920061645
            ]
        },
        {
            "positions": [
                0.09858218151078357,
                -2.082434749260901,
                -2.1244992668154197,
                1.4507873920261045,
                0.13074160921096994,
                -0.09222989735318661
            ]
        },
        {
            "positions": [
                0.18878272534911464,
                -2.032834298949138,
                -2.029314288769836,
                1.4017518799555553,
                0.17349359610118437,
                -0.1609813347863116
            ]
        },
        {
            "positions": [
                0.27898326918744565,
                -1.9832338486373753,
                -1.934129310724252,
                1.352716367885006,
                0.2162455829913988,
                -0.22973277221943655
            ]
        },
        {
            "positions": [
                0.36918381302577674,
                -1.9336333983256127,
                -1.8389443326786683,
                1.303680855814457,
                0.2589975698816132,
                -0.29848420965256156
            ]
        },
        {
            "positions": [
                0.4593843568641077,
                -1.8840329480138498,
                -1.7437593546330845,
                1.2546453437439078,
                0.3017495567718276,
                -0.3672356470856865
            ]
        },
        {
            "positions": [
                0.5495849007024387,
                -1.8344324977020872,
                -1.6485743765875007,
                1.2056098316733586,
                0.344501543662042,
                -0.4359870845188115
            ]
        },
        {
            "positions": [
                0.6397854445407697,
                -1.7848320473903243,
                -1.553389398541917,
                1.1565743196028095,
                0.3872535305522564,
                -0.5047385219519364
            ]
        },
        {
            "positions": [
                0.7299859883791008,
                -1.7352315970785617,
                -1.4582044204963331,
                1.1075388075322603,
                0.43000551744247084,
                -0.5734899593850614
            ]
        },
        {
            "positions": [
                0.8201865322174319,
                -1.6856311467667988,
                -1.3630194424507491,
                1.058503295461711,
                0.47275750433268526,
                -0.6422413968181864
            ]
        },
        {
            "positions": [
                0.9103870760557627,
                -1.6360306964550362,
                -1.2678344644051653,
                1.009467783391162,
                0.5155094912228997,
                -0.7109928342513113
            ]
        },
        {
            "positions": [
                1.000587619894094,
                -1.5864302461432733,
                -1.1726494863595815,
                0.9604322713206128,
                0.5582614781131141,
                -0.7797442716844363
            ]
        },
        {
            "positions": [
                1.090788163732425,
                -1.5368297958315107,
                -1.0774645083139978,
                0.9113967592500637,
                0.6010134650033285,
                -0.8484957091175612
            ]
        },
        {
            "positions": [
                1.180988707570756,
                -1.487229345519748,
                -0.982279530268414,
                0.8623612471795145,
                0.643765451893543,
                -0.9172471465506863
            ]
        },
        {
            "positions": [
                1.271189251409087,
                -1.4376288952079852,
                -0.8870945522228302,
                0.8133257351089653,
                0.6865174387837574,
                -0.9859985839838112
            ]
        },
        {
            "positions": [
                1.3613897952474179,
                -1.3880284448962226,
                -0.7919095741772464,
                0.7642902230384162,
                0.7292694256739718,
                -1.054750021416936
            ]
        },
        {
            "positions": [
                1.451590339085749,
                -1.33842799458446,
                -0.6967245961316626,
                0.7152547109678671,
                0.7720214125641861,
                -1.1235014588500611
            ]
        },
        {
            "positions": [
                1.54179088292408,
                -1.288827544272697,
                -0.6015396180860788,
                0.6662191988973178,
                0.8147733994544006,
                -1.1922528962831862
            ]
        },
        {
            "positions": [
                1.631991426762411,
                -1.2392270939609342,
                -0.506354640040495,
                0.6171836868267687,
                0.857525386344615,
                -1.261004333716311
            ]
        },
        {
            "positions": [
                1.7221919706007423,
                -1.1896266436491714,
                -0.411169661994911,
                0.5681481747562195,
                0.9002773732348295,
                -1.329755771149436
            ]
        },
        {
            "positions": [
                1.8123925144390731,
                -1.140026193337409,
                -0.31598468394932744,
                0.5191126626856704,
                0.9430293601250439,
                -1.398507208582561
            ]
        },
        {
            "positions": [
                1.902593058277404,
                -1.090425743025646,
                -0.22079970590374343,
                0.47007715061512134,
                0.9857813470152582,
                -1.467258646015686
            ]
        },
        {
            "positions": [
                1.9927936021157353,
                -1.0408252927138832,
                -0.12561472785815964,
                0.4210416385445721,
                1.0285333339054727,
                -1.536010083448811
            ]
        },
        {
            "positions": [
                2.0829941459540664,
                -0.9912248424021206,
                -0.030429749812575846,
                0.37200612647402287,
                1.071285320795687,
                -1.604761520881936
            ]
        },
        {
            "positions": [
                2.173194689792397,
                -0.941624392090358,
                0.06475522823300794,
                0.32297061440347385,
                1.1140373076859014,
                -1.6735129583150608
            ]
        },
        {
            "positions": [
                2.2633952336307286,
                -0.8920239417785951,
                0.15994020627859173,
                0.2739351023329246,
                1.1567892945761158,
                -1.7422643957481858
            ]
        },
        {
            "positions": [
                2.3535957774690592,
                -0.8424234914668325,
                0.2551251843241755,
                0.22489959026237538,
                1.1995412814663302,
                -1.8110158331813109
            ]
        },
        {
            "positions": [
                2.4437963213073903,
                -0.7928230411550696,
                0.3503101623697593,
                0.17586407819182615,
                1.2422932683565446,
                -1.879767270614436
            ]
        },
        {
            "positions": [
                2.5339968651457214,
                -0.743222590843307,
                0.44549514041534305,
                0.12682856612127721,
                1.285045255246759,
                -1.9485187080475608
            ]
        },
        {
            "positions": [
                2.5425064323037803,
                -0.767848894249998,
                0.5713249460814809,
                0.04253358300385304,
                1.2642805506693529,
                -2.0524152891010314
            ]
        },
        {
            "positions": [
                2.551015999461839,
                -0.7924751976566892,
                0.6971547517476187,
                -0.04176140011357113,
                1.2435158460919467,
                -2.156311870154502
            ]
        },
        {
            "positions": [
                2.5595255666198984,
                -0.8171015010633802,
                0.8229845574137565,
                -0.12605638323099524,
                1.2227511415145407,
                -2.2602084512079728
            ]
        },
        {
            "positions": [
                2.5680351337779572,
                -0.8417278044700712,
                0.9488143630798944,
                -0.21035136634841947,
                1.2019864369371345,
                -2.3641050322614436
            ]
        },
        {
            "positions": [
                2.576544700936016,
                -0.8663541078767623,
                1.0746441687460322,
                -0.29464634946584356,
                1.1812217323597283,
                -2.468001613314914
            ]
        },
        {
            "positions": [
                2.585054268094075,
                -0.8909804112834534,
                1.20047397441217,
                -0.3789413325832677,
                1.160457027782322,
                -2.5718981943683845
            ]
        },
        {
            "positions": [
                2.5935638352521337,
                -0.9156067146901444,
                1.326303780078308,
                -0.4632363157006919,
                1.1396923232049159,
                -2.6757947754218554
            ]
        },
        {
            "positions": [
                2.6020734024101926,
                -0.9402330180968355,
                1.4521335857444457,
                -0.5475312988181161,
                1.1189276186275097,
                -2.7796913564753263
            ]
        },
        {
            "positions": [
                2.610582969568252,
                -0.9648593215035266,
                1.5779633914105837,
                -0.6318262819355404,
                1.0981629140501037,
                -2.8835879375287967
            ]
        },
        {
            "positions": [
                2.6190925367263107,
                -0.9894856249102176,
                1.7037931970767215,
                -0.7161212650529644,
                1.0773982094726975,
                -2.987484518582267
            ]
        },
        {
            "positions": [
                2.6276021038843695,
                -1.0141119283169087,
                1.8296230027428593,
                -0.8004162481703886,
                1.0566335048952913,
                -3.091381099635738
            ]
        }
    ]
}