{
    "goal": {
        "global_pose": {
            "orientation": {
                "w": 0.005598929693374612,
                "x": 0.007748599140229565,
                "y": 0.7110244013736278,
                "z": -0.7031023480610252
            },
            "position": {
                "x": 0.1141497679147869,
                "y": -0.7141253447532654,
                "z": 0.3711530566215515
            }
        },
        "name": "move_to_auspresseinheit_B"
    },
    "id": "BKPIECE_move_to_auspresseinheit_B_49",
    "joint_names": [
        "shoulder_pan_joint",
        "shoulder_lift_joint",
        "elbow_joint",
        "wrist_1_joint",
        "wrist_2_joint",
        "wrist_3_joint"
    ],
    "metrics": {
        "cart_traj_len": 0.5656227289179622,
        "distance_elbow_joint": 0.06630935426164863,
        "distance_shoulder_lift_joint": 0.2937074598450389,
        "distance_shoulder_pan_joint": 0.5772710090023809,
        "distance_wrist_1_joint": 0.33775832749941204,
        "distance_wrist_2_joint": 0.9971997341568613,
        "distance_wrist_3_joint": 0.01034334057141173,
        "smoothness": 5.075305295617109e-16,
        "time": 0.140728633,
        "traj_len": 1.510824021961775,
        "weighted_distance": 1.9074155205764292
    },
    "planner": "BKPIECE",
    "start": {
        "state": {
            "elbow_joint": 2.0193061681459312,
            "shoulder_lift_joint": -1.1220205130644991,
            "shoulder_pan_joint": -1.0952072088045026,
            "wrist_1_joint": -0.8559671810662515,
            "wrist_2_joint": 0.4759638712940361,
            "wrist_3_joint": 3.159081874192446
        }
    },
    "waypoints": [
        {
            "positions": [
                -1.0952072088045026,
                -1.1220205130644991,
                2.0193061681459312,
                -0.8559671810662515,
                0.4759638712940361,
                3.159081874192446
            ]
        },
        {
            "positions": [
                -1.1914190436382328,
                -1.1709717563720057,
                2.0082546091023232,
                -0.7996741264830162,
                0.6421638269868464,
                3.1573579840972106
            ]
        },
        {
            "positions": [
                -1.287630878471963,
                -1.219922999679512,
                1.997203050058715,
                -0.7433810718997808,
                0.8083637826796566,
                3.1556340940019756
            ]
        },
        {
            "positions": [
                -1.3838427133056932,
                -1.2688742429870186,
                1.9861514910151068,
                -0.6870880173165455,
                0.9745637383724668,
                3.15391020390674
            ]
        },
        {
            "positions": [
                -1.4800545481394232,
                -1.3178254862945251,
                1.9750999319714988,
                -0.6307949627333101,
                1.140763694065277,
                3.1521863138115047
            ]
        },
        {
            "positions": [
                -1.5762663829731534,
                -1.3667767296020314,
                1.9640483729278908,
                -0.5745019081500747,
                1.3069636497580872,
                3.1504624237162697
            ]
        },
        {
            "positions": [
                -1.6724782178068835,
                -1.415727972909538,
                1.9529968138842826,
                -0.5182088535668394,
                1.4731636054508974,
                3.1487385336210343
            ]
        }
    ]
}