{
    "goal": {
        "global_pose": {
            "orientation": {
                "w": -0.4816463035849501,
                "x": 0.5182115481033762,
                "y": 0.4908360881923453,
                "z": -0.5084816262002911
            },
            "position": {
                "x": -0.8240239810943604,
                "y": 0.19912469901144506,
                "z": 0.16403168439865112
            }
        },
        "name": "move_to_storage_D"
    },
    "id": "BKPIECE_move_to_storage_D_111",
    "joint_names": [
        "shoulder_pan_joint",
        "shoulder_lift_joint",
        "elbow_joint",
        "wrist_1_joint",
        "wrist_2_joint",
        "wrist_3_joint"
    ],
    "metrics": {
        "cart_traj_len": 0.5753322556213533,
        "distance_elbow_joint": 0.9002094863268675,
        "distance_shoulder_lift_joint": 0.20920805375597107,
        "distance_shoulder_pan_joint": 0.2496762023257354,
        "distance_wrist_1_joint": 3.8206392230189037,
        "distance_wrist_2_joint": 1.780893804101819,
        "distance_wrist_3_joint": 3.5577185427833107,
        "smoothness": 0.41108358121361854,
        "time": 0.24580280799999998,
        "traj_len": 3.243199856979617,
        "weighted_distance": 4.820302420491888
    },
    "planner": "BKPIECE",
    "start": {
        "state": {
            "elbow_joint": -2.384821990628643,
            "shoulder_lift_joint": -2.278805467437664,
            "shoulder_pan_joint": -0.18546946439364564,
            "wrist_1_joint": 1.4845938187801415,
            "wrist_2_joint": 0.178987772454074,
            "wrist_3_joint": 0.03710569632802521
        }
    },
    "waypoints": [
        {
            "positions": [
                -0.18546946439364564,
                -2.278805467437664,
                -2.384821990628643,
                1.4845938187801415,
                0.178987772454074,
                0.03710569632802521
            ]
        },
        {
            "positions": [
                -0.1186952468147963,
                -2.2885451318474477,
                -2.442342254646562,
                1.4710018503160425,
                0.12713905687206664,
                0.10991855416651328
            ]
        },
        {
            "positions": [
                -0.051921029235946964,
                -2.2982847962572315,
                -2.499862518664481,
                1.4574098818519432,
                0.07529034129005928,
                0.18273141200500134
            ]
        },
        {
            "positions": [
                0.01485318834290239,
                -2.3080244606670153,
                -2.5573827826824,
                1.4438179133878442,
                0.023441625708051916,
                0.25554426984348944
            ]
        },
        {
            "positions": [
                0.012879046359334886,
                -2.3008248982459505,
                -2.5282768349114755,
                1.2926233806827798,
                -0.041572280586179955,
                0.12197307107277558
            ]
        },
        {
            "positions": [
                0.010904904375767382,
                -2.2936253358248857,
                -2.499170887140551,
                1.1414288479777155,
                -0.10658618688041183,
                -0.011598127697938276
            ]
        },
        {
            "positions": [
                0.008930762392199879,
                -2.286425773403821,
                -2.4700649393696263,
                0.9902343152726514,
                -0.1716000931746437,
                -0.1451693264686521
            ]
        },
        {
            "positions": [
                0.006956620408632375,
                -2.279226210982756,
                -2.440958991598702,
                0.839039782567587,
                -0.23661399946887557,
                -0.278740525239366
            ]
        },
        {
            "positions": [
                0.004982478425064871,
                -2.2720266485616913,
                -2.4118530438277777,
                0.6878452498625228,
                -0.30162790576310744,
                -0.41231172401007987
            ]
        },
        {
            "positions": [
                0.003008336441497367,
                -2.2648270861406266,
                -2.3827470960568533,
                0.5366507171574586,
                -0.3666418120573393,
                -0.5458829227807936
            ]
        },
        {
            "positions": [
                0.0010341944579298611,
                -2.2576275237195618,
                -2.353641148285929,
                0.38545618445239427,
                -0.43165571835157124,
                -0.6794541215515076
            ]
        },
        {
            "positions": [
                -0.0009399475256376411,
                -2.250427961298497,
                -2.324535200515004,
                0.23426165174732994,
                -0.49666962464580305,
                -0.8130253203222214
            ]
        },
        {
            "positions": [
                -0.002914089509205145,
                -2.243228398877432,
                -2.29542925274408,
                0.08306711904226582,
                -0.561683530940035,
                -0.9465965190929352
            ]
        },
        {
            "positions": [
                -0.004888231492772649,
                -2.2360288364563674,
                -2.2663233049731555,
                -0.06812741366279851,
                -0.6266974372342669,
                -1.0801677178636493
            ]
        },
        {
            "positions": [
                -0.006862373476340153,
                -2.2288292740353026,
                -2.237217357202231,
                -0.21932194636786284,
                -0.6917113435284987,
                -1.2137389166343628
            ]
        },
        {
            "positions": [
                -0.008836515459907657,
                -2.221629711614238,
                -2.208111409431307,
                -0.37051647907292695,
                -0.7567252498227306,
                -1.3473101154050768
            ]
        },
        {
            "positions": [
                -0.01081065744347516,
                -2.214430149193173,
                -2.179005461660382,
                -0.5217110117779913,
                -0.8217391561169625,
                -1.4808813141757908
            ]
        },
        {
            "positions": [
                -0.012784799427042668,
                -2.2072305867721083,
                -2.1498995138894577,
                -0.6729055444830556,
                -0.8867530624111943,
                -1.6144525129465048
            ]
        },
        {
            "positions": [
                -0.014758941410610169,
                -2.2000310243510435,
                -2.1207935661185333,
                -0.8241000771881195,
                -0.9517669687054262,
                -1.7480237117172184
            ]
        },
        {
            "positions": [
                -0.016733083394177672,
                -2.1928314619299787,
                -2.091687618347609,
                -0.9752946098931843,
                -1.016780874999658,
                -1.8815949104879324
            ]
        },
        {
            "positions": [
                -0.018707225377745176,
                -2.185631899508914,
                -2.0625816705766846,
                -1.1264891425982486,
                -1.08179478129389,
                -2.0151661092586464
            ]
        },
        {
            "positions": [
                -0.02068136736131268,
                -2.178432337087849,
                -2.0334757228057603,
                -1.2776836753033125,
                -1.1468086875881218,
                -2.14873730802936
            ]
        },
        {
            "positions": [
                -0.022655509344880184,
                -2.1712327746667843,
                -2.0043697750348355,
                -1.4288782080083768,
                -1.2118225938823537,
                -2.282308506800074
            ]
        },
        {
            "positions": [
                -0.024629651328447688,
                -2.1640332122457195,
                -1.9752638272639111,
                -1.5800727407134412,
                -1.2768365001765856,
                -2.415879705570788
            ]
        },
        {
            "positions": [
                -0.026603793312015192,
                -2.1568336498246548,
                -1.9461578794929868,
                -1.731267273418505,
                -1.3418504064708174,
                -2.5494509043415015
            ]
        },
        {
            "positions": [
                -0.028577935295582696,
                -2.14963408740359,
                -1.9170519317220622,
                -1.8824618061235698,
                -1.4068643127650493,
                -2.6830221031122155
            ]
        },
        {
            "positions": [
                -0.0305520772791502,
                -2.142434524982525,
                -1.8879459839511377,
                -2.033656338828634,
                -1.4718782190592812,
                -2.8165933018829294
            ]
        },
        {
            "positions": [
                -0.032526219262717704,
                -2.1352349625614604,
                -1.8588400361802133,
                -2.184850871533698,
                -1.536892125353513,
                -2.950164500653643
            ]
        },
        {
            "positions": [
                -0.03450036124628521,
                -2.1280354001403956,
                -1.829734088409289,
                -2.3360454042387624,
                -1.601906031647745,
                -3.083735699424357
            ]
        }
    ]
}