{
    "goal": {
        "global_pose": {
            "orientation": {
                "w": 0.7031023480610252,
                "x": -0.7110244013736278,
                "y": 0.0077485991402295624,
                "z": 0.005598929693374583
            },
            "position": {
                "x": -0.8841497679147869,
                "y": 0.44412534475326537,
                "z": 0.3711530566215515
            }
        },
        "name": "move_to_auspresseinheit_D"
    },
    "id": "BKPIECE_move_to_auspresseinheit_D_16",
    "joint_names": [
        "shoulder_pan_joint",
        "shoulder_lift_joint",
        "elbow_joint",
        "wrist_1_joint",
        "wrist_2_joint",
        "wrist_3_joint"
    ],
    "metrics": {
        "cart_traj_len": 0.3446344193202257,
        "distance_elbow_joint": 0.660850928064914,
        "distance_shoulder_lift_joint": 0.13366499010228194,
        "distance_shoulder_pan_joint": 0.1342077633505141,
        "distance_wrist_1_joint": 0.6000022343161993,
        "distance_wrist_2_joint": 1.4378139932056748,
        "distance_wrist_3_joint": 0.06493941166908757,
        "smoothness": 0.0,
        "time": 0.263935623,
        "traj_len": 1.7411143904719966,
        "weighted_distance": 2.2801698120027645
    },
    "planner": "BKPIECE",
    "start": {
        "state": {
            "elbow_joint": -1.8275484843655228,
            "shoulder_lift_joint": -2.1267897864000416,
            "shoulder_pan_joint": -0.035127520176001514,
            "wrist_1_joint": -2.3477863256791385,
            "wrist_2_joint": -1.605890476484521,
            "wrist_3_joint": -3.0880375317375353
        }
    },
    "waypoints": [
        {
            "positions": [
                -0.035127520176001514,
                -2.1267897864000416,
                -1.8275484843655228,
                -2.3477863256791385,
                -1.605890476484521,
                -3.0880375317375353
            ]
        },
        {
            "positions": [
                -0.05190349059481578,
                -2.143497910162827,
                -1.7449421183574085,
                -2.4227866049686635,
                -1.4261637273338117,
                -3.0799201052788994
            ]
        },
        {
            "positions": [
                -0.06867946101363004,
                -2.160206033925612,
                -1.6623357523492943,
                -2.497786884258188,
                -1.2464369781831022,
                -3.0718026788202635
            ]
        },
        {
            "positions": [
                -0.0854554314324443,
                -2.1769141576883975,
                -1.57972938634118,
                -2.572787163547713,
                -1.0667102290323929,
                -3.0636852523616276
            ]
        },
        {
            "positions": [
                -0.10223140185125856,
                -2.1936222814511828,
                -1.4971230203330657,
                -2.647787442837238,
                -0.8869834798816836,
                -3.0555678259029913
            ]
        },
        {
            "positions": [
                -0.11900737227007283,
                -2.2103304052139676,
                -1.4145166543249514,
                -2.722787722126763,
                -0.7072567307309743,
                -3.0474503994443554
            ]
        },
        {
            "positions": [
                -0.1357833426888871,
                -2.227038528976753,
                -1.3319102883168372,
                -2.797788001416288,
                -0.5275299815802648,
                -3.0393329729857195
            ]
        },
        {
            "positions": [
                -0.15255931310770135,
                -2.243746652739538,
                -1.249303922308723,
                -2.8727882807058127,
                -0.34780323242955546,
                -3.0312155465270836
            ]
        },
        {
            "positions": [
                -0.1693352835265156,
                -2.2604547765023235,
                -1.1666975563006088,
                -2.9477885599953377,
                -0.1680764832788461,
                -3.0230981200684477
            ]
        }
    ]
}