{
    "goal": {
        "global_pose": {
            "orientation": {
                "w": 0.5084816262002911,
                "x": -0.4908360881923452,
                "y": 0.5182115481033761,
                "z": -0.48164630358495003
            },
            "position": {
                "x": 0.5540239810943604,
                "y": -0.46912469901144505,
                "z": 0.16403168439865112
            }
        },
        "name": "move_to_storage_B"
    },
    "id": "BKPIECE_move_to_storage_B_35",
    "joint_names": [
        "shoulder_pan_joint",
        "shoulder_lift_joint",
        "elbow_joint",
        "wrist_1_joint",
        "wrist_2_joint",
        "wrist_3_joint"
    ],
    "metrics": {
        "cart_traj_len": 2.0789610478137917,
        "distance_elbow_joint": 0.6762473532508044,
        "distance_shoulder_lift_joint": 1.3034708670654467,
        "distance_shoulder_pan_joint": 1.929352720659026,
        "distance_wrist_1_joint": 2.99345092347499,
        "distance_wrist_2_joint": 2.715825639048825,
        "distance_wrist_3_joint": 3.128243473934483,
        "smoothness": 0.21352585379884675,
        "time": 0.163674073,
        "traj_len": 3.5702368237182216,
        "weighted_distance": 4.971152229395752
    },
    "planner": "BKPIECE",
    "start": {
        "state": {
            "elbow_joint": 1.6649325340416963,
            "shoulder_lift_joint": -0.6616387945129425,
            "shoulder_pan_joint": -0.9139837929255878,
            "wrist_1_joint": 2.1467571094334352,
            "wrist_2_joint": -2.234195976750228,
            "wrist_3_joint": 0.005470921511140723
        }
    },
    "waypoints": [
        {
            "positions": [
                -0.9139837929255878,
                -0.6616387945129425,
                1.6649325340416963,
                2.1467571094334352,
                -2.234195976750228,
                0.005470921511140723
            ]
        },
        {
            "positions": [
                -0.8702338578229984,
                -0.7057311170653537,
                1.6568413402632551,
                2.03600441694372,
                -2.1109258410911766,
                -0.05238534115000685
            ]
        },
        {
            "positions": [
                -0.8264839227204092,
                -0.7498234396177649,
                1.648750146484814,
                1.9252517244540048,
                -1.9876557054321258,
                -0.11024160381115443
            ]
        },
        {
            "positions": [
                -0.7827339876178199,
                -0.7939157621701761,
                1.6406589527063729,
                1.8144990319642897,
                -1.8643855697730745,
                -0.168097866472302
            ]
        },
        {
            "positions": [
                -0.7389840525152305,
                -0.8380080847225873,
                1.6325677589279317,
                1.7037463394745747,
                -1.7411154341140234,
                -0.22595412913344956
            ]
        },
        {
            "positions": [
                -0.6952341174126411,
                -0.8821004072749985,
                1.6244765651494908,
                1.5929936469848593,
                -1.6178452984549723,
                -0.28381039179459716
            ]
        },
        {
            "positions": [
                -0.6514841823100518,
                -0.9261927298274097,
                1.6163853713710497,
                1.4822409544951443,
                -1.4945751627959212,
                -0.34166665445574473
            ]
        },
        {
            "positions": [
                -0.6077342472074625,
                -0.9702850523798209,
                1.6082941775926085,
                1.3714882620054292,
                -1.37130502713687,
                -0.3995229171168923
            ]
        },
        {
            "positions": [
                -0.5639843121048731,
                -1.014377374932232,
                1.6002029838141674,
                1.260735569515714,
                -1.2480348914778188,
                -0.4573791797780399
            ]
        },
        {
            "positions": [
                -0.5202343770022837,
                -1.0584696974846433,
                1.5921117900357262,
                1.1499828770259988,
                -1.1247647558187677,
                -0.5152354424391875
            ]
        },
        {
            "positions": [
                -0.47648444189969436,
                -1.1025620200370545,
                1.584020596257285,
                1.0392301845362837,
                -1.0014946201597166,
                -0.573091705100335
            ]
        },
        {
            "positions": [
                -0.43273450679710496,
                -1.1466543425894657,
                1.575929402478844,
                0.9284774920465684,
                -0.8782244845006653,
                -0.6309479677614827
            ]
        },
        {
            "positions": [
                -0.3889845716945157,
                -1.190746665141877,
                1.5678382087004028,
                0.8177247995568535,
                -0.7549543488416144,
                -0.6888042304226302
            ]
        },
        {
            "positions": [
                -0.3452346365919263,
                -1.234838987694288,
                1.5597470149219617,
                0.7069721070671382,
                -0.6316842131825631,
                -0.7466604930837778
            ]
        },
        {
            "positions": [
                -0.30148470148933704,
                -1.2789313102466993,
                1.5516558211435205,
                0.5962194145774231,
                -0.5084140775235122,
                -0.8045167557449253
            ]
        },
        {
            "positions": [
                -0.25773476638674764,
                -1.3230236327991105,
                1.5435646273650794,
                0.485466722087708,
                -0.3851439418644609,
                -0.8623730184060728
            ]
        },
        {
            "positions": [
                -0.21398483128415824,
                -1.3671159553515217,
                1.5354734335866385,
                0.3747140295979927,
                -0.26187380620540956,
                -0.9202292810672205
            ]
        },
        {
            "positions": [
                -0.17023489618156895,
                -1.411208277903933,
                1.5273822398081973,
                0.2639613371082776,
                -0.1386036705463587,
                -0.978085543728368
            ]
        },
        {
            "positions": [
                -0.12648496107897955,
                -1.455300600456344,
                1.5192910460297562,
                0.15320864461856232,
                -0.015333534887307376,
                -1.0359418063895156
            ]
        },
        {
            "positions": [
                -0.08273502597639026,
                -1.4993929230087553,
                1.511199852251315,
                0.04245595212884723,
                0.1079366007717435,
                -1.093798069050663
            ]
        },
        {
            "positions": [
                -0.038985090873800865,
                -1.5434852455611665,
                1.503108658472874,
                -0.06829674036086772,
                0.23120673643079476,
                -1.1516543317118106
            ]
        },
        {
            "positions": [
                -0.12008924615128078,
                -1.5110525981752263,
                1.5426796952176418,
                -0.12817343833630507,
                0.2504700384206258,
                -1.3032788102280823
            ]
        },
        {
            "positions": [
                -0.2011934014287607,
                -1.478619950789286,
                1.5822507319624095,
                -0.1880501363117424,
                0.26973334041045693,
                -1.454903288744354
            ]
        },
        {
            "positions": [
                -0.2822975567062406,
                -1.446187303403346,
                1.6218217687071774,
                -0.24792683428717974,
                0.288996642400288,
                -1.6065277672606257
            ]
        },
        {
            "positions": [
                -0.3634017119837205,
                -1.4137546560174057,
                1.6613928054519453,
                -0.30780353226261703,
                0.30825994439011906,
                -1.7581522457768974
            ]
        },
        {
            "positions": [
                -0.44450586726120045,
                -1.3813220086314655,
                1.700963842196713,
                -0.3676802302380544,
                0.3275232463799501,
                -1.9097767242931691
            ]
        },
        {
            "positions": [
                -0.5256100225386804,
                -1.3488893612455253,
                1.740534878941481,
                -0.4275569282134918,
                0.3467865483697812,
                -2.061401202809441
            ]
        },
        {
            "positions": [
                -0.6067141778161602,
                -1.316456713859585,
                1.7801059156862489,
                -0.48743362618892905,
                0.36604985035961224,
                -2.2130256813257123
            ]
        },
        {
            "positions": [
                -0.6878183330936402,
                -1.2840240664736449,
                1.8196769524310166,
                -0.5473103241643664,
                0.38531315234944336,
                -2.3646501598419842
            ]
        },
        {
            "positions": [
                -0.7689224883711201,
                -1.2515914190877047,
                1.8592479891757845,
                -0.6071870221398037,
                0.4045764543392744,
                -2.5162746383582557
            ]
        },
        {
            "positions": [
                -0.8500266436486,
                -1.2191587717017645,
                1.8988190259205524,
                -0.6670637201152411,
                0.42383975632910553,
                -2.6678991168745276
            ]
        },
        {
            "positions": [
                -0.9311307989260799,
                -1.1867261243158242,
                1.93839006266532,
                -0.7269404180906784,
                0.4431030583189366,
                -2.819523595390799
            ]
        },
        {
            "positions": [
                -1.01223495420356,
                -1.154293476929884,
                1.9779610994100882,
                -0.7868171160661158,
                0.46236636030876765,
                -2.971148073907071
            ]
        },
        {
            "positions": [
                -1.0933391094810396,
                -1.1218608295439438,
                2.017532136154856,
                -0.8466938140415531,
                0.4816296622985987,
                -3.1227725524233425
            ]
        }
    ]
}