{
    "goal": {
        "global_pose": {
            "orientation": {
                "w": -0.4816463035849501,
                "x": 0.5182115481033762,
                "y": 0.4908360881923453,
                "z": -0.5084816262002911
            },
            "position": {
                "x": -0.8240239810943604,
                "y": -0.300875300988555,
                "z": 0.16403168439865112
            }
        },
        "name": "move_to_storage_C"
    },
    "id": "BKPIECE_move_to_storage_C_82",
    "joint_names": [
        "shoulder_pan_joint",
        "shoulder_lift_joint",
        "elbow_joint",
        "wrist_1_joint",
        "wrist_2_joint",
        "wrist_3_joint"
    ],
    "metrics": {
        "cart_traj_len": 0.5759743269873918,
        "distance_elbow_joint": 0.25767124399209607,
        "distance_shoulder_lift_joint": 0.18896802504934562,
        "distance_shoulder_pan_joint": 0.49550337313422066,
        "distance_wrist_1_joint": 0.0823559252363133,
        "distance_wrist_2_joint": 1.0584629250574815,
        "distance_wrist_3_joint": 0.057496496536470154,
        "smoothness": 0.0,
        "time": 0.47705068,
        "traj_len": 1.463030412877985,
        "weighted_distance": 1.8428971301656158
    },
    "planner": "BKPIECE",
    "start": {
        "state": {
            "elbow_joint": 2.0108683149792914,
            "shoulder_lift_joint": -1.1634956873317392,
            "shoulder_pan_joint": -2.4736205022346,
            "wrist_1_joint": -0.8367026793690192,
            "wrist_2_joint": 0.6746043897045053,
            "wrist_3_joint": 3.133522094754363
        }
    },
    "waypoints": [
        {
            "positions": [
                -2.4736205022346,
                -1.1634956873317392,
                2.0108683149792914,
                -0.8367026793690192,
                0.6746043897045053,
                3.133522094754363
            ]
        },
        {
            "positions": [
                -2.55620439775697,
                -1.1320010164901817,
                1.9679231076472754,
                -0.8229766918296336,
                0.8510148772140855,
                3.1431048441771083
            ]
        },
        {
            "positions": [
                -2.6387882932793403,
                -1.1005063456486242,
                1.9249779003152594,
                -0.8092507042902481,
                1.0274253647236657,
                3.152687593599853
            ]
        },
        {
            "positions": [
                -2.7213721888017104,
                -1.0690116748070664,
                1.8820326929832434,
                -0.7955247167508626,
                1.203835852233246,
                3.1622703430225982
            ]
        },
        {
            "positions": [
                -2.8039560843240805,
                -1.0375170039655088,
                1.8390874856512274,
                -0.781798729211477,
                1.3802463397428264,
                3.1718530924453434
            ]
        },
        {
            "positions": [
                -2.8865399798464506,
                -1.0060223331239513,
                1.7961422783192114,
                -0.7680727416720915,
                1.5566568272524066,
                3.181435841868088
            ]
        },
        {
            "positions": [
                -2.9691238753688207,
                -0.9745276622823936,
                1.7531970709871953,
                -0.7543467541327059,
                1.7330673147619868,
                3.1910185912908333
            ]
        }
    ]
}