{
    "goal": {
        "global_pose": {
            "orientation": {
                "w": 0.7047431468963623,
                "x": -0.7094548344612122,
                "y": 0.0024358443915843964,
                "z": -0.0022348060738295317
            },
            "position": {
                "x": 0.6094750761985779,
                "y": 0.3671506643295288,
                "z": 0.19426114857196808
            }
        },
        "name": "move_to_magneteinheit_A"
    },
    "id": "BKPIECE_move_to_magneteinheit_A_137",
    "joint_names": [
        "shoulder_pan_joint",
        "shoulder_lift_joint",
        "elbow_joint",
        "wrist_1_joint",
        "wrist_2_joint",
        "wrist_3_joint"
    ],
    "metrics": {
        "cart_traj_len": 1.59245041083958,
        "distance_elbow_joint": 3.525704414621795,
        "distance_shoulder_lift_joint": 1.1350871447963482,
        "distance_shoulder_pan_joint": 1.2417740341991357,
        "distance_wrist_1_joint": 3.8404008225260937,
        "distance_wrist_2_joint": 1.6956573695716604,
        "distance_wrist_3_joint": 5.041241817377819,
        "smoothness": 2.6851905870679793e-16,
        "time": 0.182697911,
        "traj_len": 4.059540072852201,
        "weighted_distance": 5.665545642737886
    },
    "planner": "BKPIECE",
    "start": {
        "state": {
            "elbow_joint": -1.5739458827952972,
            "shoulder_lift_joint": 0.006533473998580023,
            "shoulder_pan_joint": -1.1188671628667068,
            "wrist_1_joint": 3.138208179676308,
            "wrist_2_joint": -1.5706037135050406,
            "wrist_3_joint": -2.0226958329764257
        }
    },
    "waypoints": [
        {
            "positions": [
                -1.1188671628667068,
                0.006533473998580023,
                -1.5739458827952972,
                3.138208179676308,
                -1.5706037135050406,
                -2.0226958329764257
            ]
        },
        {
            "positions": [
                -1.0893011144333942,
                -0.02049241040133303,
                -1.4900005395900164,
                3.0467700648542584,
                -1.5302309189914296,
                -1.9026662658960014
            ]
        },
        {
            "positions": [
                -1.0597350660000813,
                -0.04751829480124608,
                -1.4060551963847356,
                2.9553319500322086,
                -1.4898581244778186,
                -1.7826366988155773
            ]
        },
        {
            "positions": [
                -1.0301690175667686,
                -0.07454417920115913,
                -1.3221098531794548,
                2.863893835210159,
                -1.4494853299642076,
                -1.662607131735153
            ]
        },
        {
            "positions": [
                -1.000602969133456,
                -0.10157006360107218,
                -1.2381645099741738,
                2.7724557203881086,
                -1.4091125354505967,
                -1.5425775646547288
            ]
        },
        {
            "positions": [
                -0.971036920700143,
                -0.12859594800098523,
                -1.1542191667688932,
                2.681017605566059,
                -1.3687397409369857,
                -1.4225479975743045
            ]
        },
        {
            "positions": [
                -0.9414708722668303,
                -0.15562183240089827,
                -1.0702738235636122,
                2.589579490744009,
                -1.3283669464233747,
                -1.3025184304938802
            ]
        },
        {
            "positions": [
                -0.9119048238335176,
                -0.18264771680081132,
                -0.9863284803583314,
                2.4981413759219593,
                -1.2879941519097637,
                -1.182488863413456
            ]
        },
        {
            "positions": [
                -0.8823387754002048,
                -0.20967360120072437,
                -0.9023831371530506,
                2.4067032610999095,
                -1.247621357396153,
                -1.0624592963330317
            ]
        },
        {
            "positions": [
                -0.8527727269668921,
                -0.23669948560063742,
                -0.8184377939477698,
                2.3152651462778593,
                -1.207248562882542,
                -0.9424297292526074
            ]
        },
        {
            "positions": [
                -0.8232066785335793,
                -0.2637253700005505,
                -0.734492450742489,
                2.2238270314558095,
                -1.166875768368931,
                -0.8224001621721833
            ]
        },
        {
            "positions": [
                -0.7936406301002665,
                -0.29075125440046357,
                -0.650547107537208,
                2.1323889166337597,
                -1.12650297385532,
                -0.7023705950917587
            ]
        },
        {
            "positions": [
                -0.7640745816669539,
                -0.3177771388003766,
                -0.5666017643319274,
                2.04095080181171,
                -1.086130179341709,
                -0.5823410280113346
            ]
        },
        {
            "positions": [
                -0.734508533233641,
                -0.34480302320028966,
                -0.4826564211266464,
                1.94951268698966,
                -1.045757384828098,
                -0.46231146093091025
            ]
        },
        {
            "positions": [
                -0.7049424848003283,
                -0.3718289076002027,
                -0.3987110779213656,
                1.8580745721676104,
                -1.0053845903144871,
                -0.34228189385048613
            ]
        },
        {
            "positions": [
                -0.6753764363670155,
                -0.3988547920001158,
                -0.3147657347160848,
                1.7666364573455604,
                -0.9650117958008761,
                -0.2222523267700618
            ]
        },
        {
            "positions": [
                -0.6458103879337028,
                -0.4258806764000288,
                -0.23082039151080402,
                1.6751983425235106,
                -0.9246390012872653,
                -0.10222275968963768
            ]
        },
        {
            "positions": [
                -0.61624433950039,
                -0.4529065607999419,
                -0.146875048305523,
                1.5837602277014606,
                -0.8842662067736542,
                0.017806807390786883
            ]
        },
        {
            "positions": [
                -0.5866782910670773,
                -0.4799324451998549,
                -0.06292970510024243,
                1.4923221128794109,
                -0.8438934122600433,
                0.137836374471211
            ]
        },
        {
            "positions": [
                -0.5571122426337645,
                -0.5069583295997679,
                0.021015638105038592,
                1.400883998057361,
                -0.8035206177464324,
                0.2578659415516351
            ]
        },
        {
            "positions": [
                -0.5275461942004518,
                -0.533984213999681,
                0.10496098131031917,
                1.3094458832353113,
                -0.7631478232328214,
                0.37789550863205923
            ]
        },
        {
            "positions": [
                -0.497980145767139,
                -0.561010098399594,
                0.1889063245156002,
                1.2180077684132613,
                -0.7227750287192104,
                0.4979250757124838
            ]
        },
        {
            "positions": [
                -0.4684140973338262,
                -0.5880359827995071,
                0.2728516677208812,
                1.1265696535912113,
                -0.6824022342055994,
                0.6179546427929083
            ]
        },
        {
            "positions": [
                -0.43884804890051343,
                -0.6150618671994202,
                0.356797010926162,
                1.0351315387691615,
                -0.6420294396919883,
                0.7379842098733325
            ]
        },
        {
            "positions": [
                -0.40928200046720076,
                -0.6420877515993332,
                0.44074235413144236,
                0.9436934239471118,
                -0.6016566451783776,
                0.8580137769537566
            ]
        },
        {
            "positions": [
                -0.37971595203388797,
                -0.6691136359992462,
                0.5246876973367234,
                0.852255309125062,
                -0.5612838506647666,
                0.9780433440341807
            ]
        },
        {
            "positions": [
                -0.3501499036005752,
                -0.6961395203991593,
                0.6086330405420044,
                0.7608171943030118,
                -0.5209110561511556,
                1.0980729111146053
            ]
        },
        {
            "positions": [
                -0.3205838551672624,
                -0.7231654047990724,
                0.6925783837472854,
                0.669379079480962,
                -0.48053826163754465,
                1.2181024781950298
            ]
        },
        {
            "positions": [
                -0.2910178067339497,
                -0.7501912891989854,
                0.776523726952566,
                0.5779409646589126,
                -0.4401654671239337,
                1.3381320452754535
            ]
        },
        {
            "positions": [
                -0.26145175830063694,
                -0.7772171735988984,
                0.8604690701578466,
                0.4865028498368624,
                -0.3997926726103227,
                1.458161612355878
            ]
        },
        {
            "positions": [
                -0.23188570986732415,
                -0.8042430579988116,
                0.9444144133631276,
                0.39506473501481265,
                -0.3594198780967117,
                1.5781911794363022
            ]
        },
        {
            "positions": [
                -0.20231966143401137,
                -0.8312689423987246,
                1.0283597565684086,
                0.30362662019276243,
                -0.31904708358310074,
                1.6982207465167267
            ]
        },
        {
            "positions": [
                -0.1727536130006988,
                -0.8582948267986376,
                1.1123050997736892,
                0.2121885053707131,
                -0.27867428906949,
                1.8182503135971504
            ]
        },
        {
            "positions": [
                -0.14318756456738602,
                -0.8853207111985506,
                1.1962504429789702,
                0.12075039054866332,
                -0.2383014945558788,
                1.938279880677575
            ]
        },
        {
            "positions": [
                -0.11362151613407323,
                -0.9123465955984638,
                1.2801957861842512,
                0.029312275726613102,
                -0.1979287000422678,
                2.0583094477579995
            ]
        },
        {
            "positions": [
                -0.08405546770076033,
                -0.9393724799983768,
                1.3641411293895318,
                -0.062125839095436675,
                -0.15755590552865684,
                2.1783390148384236
            ]
        },
        {
            "positions": [
                -0.05448941926744766,
                -0.9663983643982897,
                1.4480864725948124,
                -0.15356395391748645,
                -0.11718311101504608,
                2.2983685819188477
            ]
        },
        {
            "positions": [
                -0.024923370834134984,
                -0.9934242487982029,
                1.5320318158000934,
                -0.24500206873953623,
                -0.0768103165014351,
                2.418398148999272
            ]
        },
        {
            "positions": [
                0.0046426775991779135,
                -1.020450133198116,
                1.6159771590053744,
                -0.336440183561586,
                -0.03643752198782413,
                2.538427716079696
            ]
        },
        {
            "positions": [
                0.03420872603249059,
                -1.047476017598029,
                1.6999225022106554,
                -0.4278782983836362,
                0.003935272525786848,
                2.658457283160121
            ]
        },
        {
            "positions": [
                0.06377477446580326,
                -1.074501901997942,
                1.7838678454159356,
                -0.5193164132056856,
                0.044308067039397825,
                2.778486850240544
            ]
        },
        {
            "positions": [
                0.09334082289911594,
                -1.101527786397855,
                1.8678131886212166,
                -0.6107545280277358,
                0.0846808615530088,
                2.898516417320969
            ]
        },
        {
            "positions": [
                0.12290687133242888,
                -1.1285536707977681,
                1.9517585318264978,
                -0.7021926428497856,
                0.12505365606661983,
                3.0185459844013933
            ]
        }
    ]
}