{
    "goal": {
        "global_pose": {
            "orientation": {
                "w": 0.7047431493862688,
                "x": -0.7094548369677653,
                "y": 0.0024358444001904,
                "z": -0.0022348060817251984
            },
            "position": {
                "x": -0.39052492380142206,
                "y": 0.3671506643295288,
                "z": 0.19426114857196808
            }
        },
        "name": "move_to_magneteinheit_D"
    },
    "id": "BKPIECE_move_to_magneteinheit_D_5",
    "joint_names": [
        "shoulder_pan_joint",
        "shoulder_lift_joint",
        "elbow_joint",
        "wrist_1_joint",
        "wrist_2_joint",
        "wrist_3_joint"
    ],
    "metrics": {
        "cart_traj_len": 4.565341971404397,
        "distance_elbow_joint": 3.5536759680236547,
        "distance_shoulder_lift_joint": 2.0603892136387305,
        "distance_shoulder_pan_joint": 3.4024344954115664,
        "distance_wrist_1_joint": 1.776672262632385,
        "distance_wrist_2_joint": 1.656172142815313,
        "distance_wrist_3_joint": 4.622076142660103,
        "smoothness": 0.8335767311398593,
        "time": 0.43809029299999996,
        "traj_len": 4.131757522554022,
        "weighted_distance": 5.454210934310266
    },
    "planner": "BKPIECE",
    "start": {
        "state": {
            "elbow_joint": 0.7495348899011911,
            "shoulder_lift_joint": -0.6476975780737668,
            "shoulder_pan_joint": -2.711696901376276,
            "wrist_1_joint": -0.0750647808097303,
            "wrist_2_joint": 0.43296659715458535,
            "wrist_3_joint": 3.1361499051832418
        }
    },
    "waypoints": [
        {
            "positions": [
                -2.711696901376276,
                -0.6476975780737668,
                0.7495348899011911,
                -0.0750647808097303,
                0.43296659715458535,
                3.1361499051832418
            ]
        },
        {
            "positions": [
                -2.75077575716874,
                -0.6997420839575722,
                0.6400368260249345,
                -0.035815726596209636,
                0.33773943888046204,
                3.1665682288645094
            ]
        },
        {
            "positions": [
                -2.7898546129612045,
                -0.7517865898413776,
                0.530538762148678,
                0.0034333276173110217,
                0.24251228060633873,
                3.1969865525457766
            ]
        },
        {
            "positions": [
                -2.8289334687536685,
                -0.803831095725183,
                0.42104069827242147,
                0.04268238183083167,
                0.1472851223322154,
                3.227404876227044
            ]
        },
        {
            "positions": [
                -2.8680123245461324,
                -0.8558756016089883,
                0.3115426343961649,
                0.08193143604435234,
                0.0520579640580921,
                3.257823199908312
            ]
        },
        {
            "positions": [
                -2.9070911803385964,
                -0.9079201074927938,
                0.20204457051990832,
                0.12118049025787302,
                -0.043169194216031215,
                3.2882415235895794
            ]
        },
        {
            "positions": [
                -2.9461700361310608,
                -0.9599646133765991,
                0.09254650664365183,
                0.16042954447139363,
                -0.13839635249015453,
                3.3186598472708466
            ]
        },
        {
            "positions": [
                -2.9852488919235247,
                -1.0120091192604046,
                -0.016951557232604754,
                0.19967859868491433,
                -0.2336235107642779,
                3.3490781709521142
            ]
        },
        {
            "positions": [
                -2.8955213010192864,
                -1.040139715559575,
                -0.0019099383670505166,
                0.2415431953593415,
                -0.2155157317084939,
                3.1530969953264165
            ]
        },
        {
            "positions": [
                -2.8057937101150476,
                -1.0682703118587453,
                0.01313168049850372,
                0.28340779203376865,
                -0.1974079526527099,
                2.957115819700719
            ]
        },
        {
            "positions": [
                -2.716066119210809,
                -1.0964009081579156,
                0.028173299364057956,
                0.32527238870819586,
                -0.1793001735969259,
                2.761134644075021
            ]
        },
        {
            "positions": [
                -2.6263385283065706,
                -1.124531504457086,
                0.043214918229612195,
                0.36713698538262296,
                -0.16119239454114193,
                2.565153468449323
            ]
        },
        {
            "positions": [
                -2.5366109374023322,
                -1.1526621007562565,
                0.058256537095166434,
                0.4090015820570502,
                -0.1430846154853579,
                2.369172292823625
            ]
        },
        {
            "positions": [
                -2.4468833464980935,
                -1.1807926970554268,
                0.07329815596072067,
                0.45086617873147733,
                -0.12497683642957391,
                2.1731911171979275
            ]
        },
        {
            "positions": [
                -2.3571557555938547,
                -1.208923293354597,
                0.08833977482627492,
                0.4927307754059045,
                -0.1068690573737899,
                1.9772099415722295
            ]
        },
        {
            "positions": [
                -2.2674281646896164,
                -1.2370538896537675,
                0.10338139369182914,
                0.5345953720803316,
                -0.08876127831800593,
                1.7812287659465318
            ]
        },
        {
            "positions": [
                -2.1777005737853776,
                -1.265184485952938,
                0.11842301255738341,
                0.5764599687547589,
                -0.07065349926222189,
                1.5852475903208338
            ]
        },
        {
            "positions": [
                -2.0879729828811393,
                -1.2933150822521082,
                0.13346463142293763,
                0.618324565429186,
                -0.05254572020643791,
                1.3892664146951361
            ]
        },
        {
            "positions": [
                -1.9982453919769008,
                -1.3214456785512785,
                0.14850625028849188,
                0.6601891621036131,
                -0.034437941150653906,
                1.1932852390694384
            ]
        },
        {
            "positions": [
                -1.9085178010726622,
                -1.349576274850449,
                0.1635478691540461,
                0.7020537587780403,
                -0.016330162094869927,
                0.9973040634437407
            ]
        },
        {
            "positions": [
                -1.8187902101684237,
                -1.3777068711496194,
                0.17858948801960037,
                0.7439183554524675,
                0.001777616960914108,
                0.8013228878180425
            ]
        },
        {
            "positions": [
                -1.7290626192641851,
                -1.4058374674487897,
                0.19363110688515459,
                0.7857829521268946,
                0.01988539601669811,
                0.6053417121923448
            ]
        },
        {
            "positions": [
                -1.6212035691748203,
                -1.4524670364860992,
                0.05397725984034804,
                0.7788956219747949,
                0.03800325477492969,
                0.5537160354406859
            ]
        },
        {
            "positions": [
                -1.5133445190854553,
                -1.4990966055234087,
                -0.0856765872044585,
                0.772008291822695,
                0.056121113533161265,
                0.5020903586890272
            ]
        },
        {
            "positions": [
                -1.4054854689960905,
                -1.545726174560718,
                -0.2253304342492651,
                0.7651209616705953,
                0.07423897229139285,
                0.4504646819373683
            ]
        },
        {
            "positions": [
                -1.2976264189067255,
                -1.5923557435980276,
                -0.36498428129407157,
                0.7582336315184955,
                0.09235683104962443,
                0.39883900518570947
            ]
        },
        {
            "positions": [
                -1.1897673688173607,
                -1.638985312635337,
                -0.5046381283388781,
                0.7513463013663957,
                0.110474689807856,
                0.3472133284340507
            ]
        },
        {
            "positions": [
                -1.0819083187279959,
                -1.6856148816726466,
                -0.6442919753836848,
                0.7444589712142959,
                0.1285925485660876,
                0.29558765168239187
            ]
        },
        {
            "positions": [
                -0.9740492686386308,
                -1.7322444507099561,
                -0.7839458224284913,
                0.7375716410621962,
                0.14671040732431917,
                0.24396197493073307
            ]
        },
        {
            "positions": [
                -0.866190218549266,
                -1.7788740197472657,
                -0.9235996694732977,
                0.7306843109100963,
                0.16482826608255075,
                0.19233629817907422
            ]
        },
        {
            "positions": [
                -0.7583311684599011,
                -1.825503588784575,
                -1.0632535165181043,
                0.7237969807579966,
                0.18294612484078232,
                0.14071062142741542
            ]
        },
        {
            "positions": [
                -0.6504721183705362,
                -1.8721331578218845,
                -1.2029073635629108,
                0.7169096506058968,
                0.2010639835990139,
                0.08908494467575667
            ]
        },
        {
            "positions": [
                -0.5426130682811714,
                -1.9187627268591938,
                -1.3425612106077174,
                0.710022320453797,
                0.21918184235724547,
                0.03745926792409782
            ]
        },
        {
            "positions": [
                -0.43475401819180637,
                -1.9653922958965033,
                -1.4822150576525241,
                0.7031349903016972,
                0.23729970111547707,
                -0.014166408827561039
            ]
        },
        {
            "positions": [
                -0.32689496810244156,
                -2.012021864933813,
                -1.6218689046973307,
                0.6962476601495975,
                0.2554175598737086,
                -0.0657920855792199
            ]
        },
        {
            "positions": [
                -0.21903591801307654,
                -2.0586514339711224,
                -1.7615227517421372,
                0.6893603299974976,
                0.2735354186319402,
                -0.11741776233087864
            ]
        },
        {
            "positions": [
                -0.11117686792371179,
                -2.105281003008432,
                -1.901176598786944,
                0.6824729998453979,
                0.2916532773901718,
                -0.16904343908253744
            ]
        },
        {
            "positions": [
                -0.08668867150754281,
                -2.0868905772773902,
                -1.9395441676837495,
                0.7709801457893367,
                0.25521365565716847,
                -0.11047233549503416
            ]
        },
        {
            "positions": [
                -0.062200475091373844,
                -2.068500151546348,
                -1.9779117365805547,
                0.8594872917332756,
                0.2187740339241651,
                -0.051901231907530876
            ]
        },
        {
            "positions": [
                -0.037712278675204866,
                -2.0501097258153065,
                -2.0162793054773602,
                0.9479944376772145,
                0.18233441219116178,
                0.006669871679972393
            ]
        },
        {
            "positions": [
                -0.03340507529655158,
                -2.0102416917305326,
                -2.1037363942992995,
                1.0531221439680372,
                0.13747662499514723,
                0.09810568561934657
            ]
        },
        {
            "positions": [
                -0.029097871917898303,
                -1.9703736576457587,
                -2.191193483121239,
                1.1582498502588598,
                0.09261883779913271,
                0.18954149955872077
            ]
        },
        {
            "positions": [
                -0.024790668539245022,
                -1.9305056235609848,
                -2.2786505719431784,
                1.2633775565496828,
                0.047761050603118166,
                0.28097731349809496
            ]
        },
        {
            "positions": [
                -0.02048346516059174,
                -1.8906375894762109,
                -2.3661076607651177,
                1.3685052628405054,
                0.0029032634071036456,
                0.3724131274374691
            ]
        },
        {
            "positions": [
                -0.06151273468593757,
                -1.987678183269172,
                -2.3703246830455744,
                1.4001258414452944,
                0.04679207159683674,
                0.2850207023533255
            ]
        },
        {
            "positions": [
                -0.1025420042112834,
                -2.084718777062133,
                -2.374541705326031,
                1.4317464200500831,
                0.09068087978656983,
                0.1976282772691819
            ]
        },
        {
            "positions": [
                -0.14357127373662923,
                -2.1817593708550937,
                -2.378758727606488,
                1.463366998654872,
                0.13456968797630292,
                0.11023585218503829
            ]
        },
        {
            "positions": [
                -0.18460054326197506,
                -2.278799964648055,
                -2.3829757498869446,
                1.494987577259661,
                0.178458496166036,
                0.02284342710089464
            ]
        }
    ]
}