{
    "goal": {
        "global_pose": {
            "orientation": {
                "w": -0.4816463035849501,
                "x": 0.5182115481033762,
                "y": 0.4908360881923453,
                "z": -0.5084816262002911
            },
            "position": {
                "x": -0.8240239810943604,
                "y": 0.19912469901144506,
                "z": 0.16403168439865112
            }
        },
        "name": "move_to_storage_D"
    },
    "id": "BKPIECE_move_to_storage_D_53",
    "joint_names": [
        "shoulder_pan_joint",
        "shoulder_lift_joint",
        "elbow_joint",
        "wrist_1_joint",
        "wrist_2_joint",
        "wrist_3_joint"
    ],
    "metrics": {
        "cart_traj_len": 0.6082062415055767,
        "distance_elbow_joint": 0.5552827498928024,
        "distance_shoulder_lift_joint": 0.1725223176989883,
        "distance_shoulder_pan_joint": 0.23356611123061677,
        "distance_wrist_1_joint": 3.964761182528654,
        "distance_wrist_2_joint": 1.7886161084690924,
        "distance_wrist_3_joint": 3.1197795407455273,
        "smoothness": 0.14758380420712583,
        "time": 0.36718040900000004,
        "traj_len": 3.1360051037212426,
        "weighted_distance": 4.67198719851141
    },
    "planner": "BKPIECE",
    "start": {
        "state": {
            "elbow_joint": -2.384821990628643,
            "shoulder_lift_joint": -2.278805467437664,
            "shoulder_pan_joint": -0.18546946439364564,
            "wrist_1_joint": 1.4845938187801415,
            "wrist_2_joint": 0.178987772454074,
            "wrist_3_joint": 0.03710569632802521
        }
    },
    "waypoints": [
        {
            "positions": [
                -0.18546946439364564,
                -2.278805467437664,
                -2.384821990628643,
                1.4845938187801415,
                0.178987772454074,
                0.03710569632802521
            ]
        },
        {
            "positions": [
                -0.08951217942184148,
                -2.1975940506716,
                -2.380857527982798,
                1.5204764740438836,
                0.121022454213256,
                0.03829149699780547
            ]
        },
        {
            "positions": [
                0.006445105549962693,
                -2.1163826339055363,
                -2.376893065336953,
                1.556359129307626,
                0.063057135972438,
                0.03947729766758573
            ]
        },
        {
            "positions": [
                0.004709624663004,
                -2.116803445745822,
                -2.3540866559785734,
                1.3941509679742439,
                -0.006638092027039355,
                -0.09041469980766287
            ]
        },
        {
            "positions": [
                0.0029741437760453064,
                -2.117224257586108,
                -2.3312802466201936,
                1.2319428066408618,
                -0.07633332002651672,
                -0.22030669728291147
            ]
        },
        {
            "positions": [
                0.0012386628890866131,
                -2.117645069426394,
                -2.308473837261814,
                1.0697346453074799,
                -0.14602854802599408,
                -0.3501986947581601
            ]
        },
        {
            "positions": [
                -0.0004968179978720802,
                -2.1180658812666797,
                -2.2856674279034346,
                0.9075264839740977,
                -0.21572377602547144,
                -0.48009069223340867
            ]
        },
        {
            "positions": [
                -0.0022322988848307735,
                -2.1184866931069655,
                -2.262861018545055,
                0.7453183226407155,
                -0.2854190040249488,
                -0.6099826897086573
            ]
        },
        {
            "positions": [
                -0.003967779771789467,
                -2.118907504947251,
                -2.240054609186675,
                0.5831101613073335,
                -0.35511423202442616,
                -0.7398746871839059
            ]
        },
        {
            "positions": [
                -0.00570326065874816,
                -2.1193283167875374,
                -2.2172481998282954,
                0.4209019999739514,
                -0.4248094600239036,
                -0.8697666846591547
            ]
        },
        {
            "positions": [
                -0.007438741545706853,
                -2.119749128627823,
                -2.1944417904699156,
                0.2586938386405695,
                -0.4945046880233809,
                -0.9996586821344031
            ]
        },
        {
            "positions": [
                -0.009174222432665547,
                -2.120169940468109,
                -2.171635381111536,
                0.09648567730718716,
                -0.5641999160228582,
                -1.129550679609652
            ]
        },
        {
            "positions": [
                -0.01090970331962424,
                -2.120590752308395,
                -2.148828971753156,
                -0.06572248402619496,
                -0.6338951440223356,
                -1.2594426770849005
            ]
        },
        {
            "positions": [
                -0.012645184206582932,
                -2.121011564148681,
                -2.126022562394777,
                -0.22793064535957686,
                -0.703590372021813,
                -1.3893346745601491
            ]
        },
        {
            "positions": [
                -0.014380665093541627,
                -2.1214323759889666,
                -2.103216153036397,
                -0.390138806692959,
                -0.7732856000212903,
                -1.5192266720353977
            ]
        },
        {
            "positions": [
                -0.016116145980500318,
                -2.1218531878292524,
                -2.0804097436780173,
                -0.5523469680263409,
                -0.8429808280207676,
                -1.6491186695106463
            ]
        },
        {
            "positions": [
                -0.017851626867459013,
                -2.122273999669538,
                -2.0576033343196376,
                -0.7145551293597232,
                -0.9126760560202452,
                -1.7790106669858952
            ]
        },
        {
            "positions": [
                -0.01958710775441771,
                -2.1226948115098243,
                -2.034796924961258,
                -0.8767632906931051,
                -0.9823712840197224,
                -1.9089026644611435
            ]
        },
        {
            "positions": [
                -0.0213225886413764,
                -2.12311562335011,
                -2.011990515602878,
                -1.038971452026487,
                -1.0520665120191999,
                -2.0387946619363917
            ]
        },
        {
            "positions": [
                -0.023058069528335095,
                -2.123536435190396,
                -1.9891841062444986,
                -1.2011796133598693,
                -1.1217617400186772,
                -2.1686866594116405
            ]
        },
        {
            "positions": [
                -0.024793550415293786,
                -2.123957247030682,
                -1.9663776968861189,
                -1.3633877746932517,
                -1.1914569680181546,
                -2.2985786568868893
            ]
        },
        {
            "positions": [
                -0.02652903130225248,
                -2.1243780588709678,
                -1.9435712875277393,
                -1.5255959360266336,
                -1.261152196017632,
                -2.4284706543621377
            ]
        },
        {
            "positions": [
                -0.028264512189211173,
                -2.1247988707112535,
                -1.9207648781693596,
                -1.687804097360016,
                -1.3308474240171093,
                -2.5583626518373865
            ]
        },
        {
            "positions": [
                -0.029999993076169865,
                -2.1252196825515393,
                -1.8979584688109798,
                -1.8500122586933978,
                -1.4005426520165867,
                -2.688254649312635
            ]
        },
        {
            "positions": [
                -0.031735473963128556,
                -2.125640494391825,
                -1.8751520594526,
                -2.0122204200267797,
                -1.470237880016064,
                -2.8181466467878837
            ]
        },
        {
            "positions": [
                -0.033470954850087255,
                -2.126061306232111,
                -1.8523456500942204,
                -2.174428581360162,
                -1.5399331080155414,
                -2.9480386442631326
            ]
        },
        {
            "positions": [
                -0.035206435737045946,
                -2.126482118072397,
                -1.8295392407358408,
                -2.336636742693544,
                -1.6096283360150185,
                -3.077930641738381
            ]
        }
    ]
}