{
    "goal": {
        "global_pose": {
            "orientation": {
                "w": -0.00223480608172531,
                "x": 0.0024358444001904467,
                "y": 0.7094548369677653,
                "z": -0.704743149386269
            },
            "position": {
                "x": -0.37947507619857795,
                "y": -0.6371506643295288,
                "z": 0.19426114857196808
            }
        },
        "name": "move_to_magneteinheit_C"
    },
    "id": "BKPIECE_move_to_magneteinheit_C_21",
    "joint_names": [
        "shoulder_pan_joint",
        "shoulder_lift_joint",
        "elbow_joint",
        "wrist_1_joint",
        "wrist_2_joint",
        "wrist_3_joint"
    ],
    "metrics": {
        "cart_traj_len": 1.8600772791494606,
        "distance_elbow_joint": 1.9416970008923158,
        "distance_shoulder_lift_joint": 0.6630214929459686,
        "distance_shoulder_pan_joint": 1.074217399753022,
        "distance_wrist_1_joint": 1.705413410526522,
        "distance_wrist_2_joint": 1.8953049095981576,
        "distance_wrist_3_joint": 3.342210153171688,
        "smoothness": 1.6603814064067242,
        "time": 0.31885979000000003,
        "traj_len": 3.259120182946262,
        "weighted_distance": 4.572417631117671
    },
    "planner": "BKPIECE",
    "start": {
        "state": {
            "elbow_joint": 1.9565354006593851,
            "shoulder_lift_joint": -1.4165861576512813,
            "shoulder_pan_joint": -1.6717766223278752,
            "wrist_1_joint": -0.528663328821883,
            "wrist_2_joint": 1.472756589259273,
            "wrist_3_joint": 3.159348288315503
        }
    },
    "waypoints": [
        {
            "positions": [
                -1.6717766223278752,
                -1.4165861576512813,
                1.9565354006593851,
                -0.528663328821883,
                1.472756589259273,
                3.159348288315503
            ]
        },
        {
            "positions": [
                -1.6626101733536314,
                -1.4526493604098247,
                1.908154450672434,
                -0.5823091003466058,
                1.5104824055724428,
                3.1181994217462092
            ]
        },
        {
            "positions": [
                -1.6534437243793876,
                -1.4887125631683684,
                1.8597735006854827,
                -0.6359548718713285,
                1.5482082218856128,
                3.077050555176915
            ]
        },
        {
            "positions": [
                -1.6437415959264463,
                -1.5120396569347532,
                1.742514465053304,
                -0.6543498475046504,
                1.5141287245204704,
                2.9190712254414106
            ]
        },
        {
            "positions": [
                -1.634039467473505,
                -1.5353667507011377,
                1.625255429421125,
                -0.6727448231379723,
                1.4800492271553278,
                2.761091895705906
            ]
        },
        {
            "positions": [
                -1.6243373390205638,
                -1.5586938444675225,
                1.5079963937889462,
                -0.6911397987712943,
                1.4459697297901855,
                2.6031125659704015
            ]
        },
        {
            "positions": [
                -1.706450564438159,
                -1.5354198519542661,
                1.463176157291026,
                -0.6436595554253389,
                1.379391019573106,
                2.4900196450877243
            ]
        },
        {
            "positions": [
                -1.788563789855754,
                -1.5121458594410098,
                1.418355920793106,
                -0.5961793120793835,
                1.3128123093560267,
                2.3769267242050476
            ]
        },
        {
            "positions": [
                -1.8706770152733492,
                -1.4888718669277534,
                1.3735356842951858,
                -0.5486990687334281,
                1.2462335991389475,
                2.2638338033223704
            ]
        },
        {
            "positions": [
                -1.9527902406909443,
                -1.465597874414497,
                1.3287154477972658,
                -0.5012188253874728,
                1.179654888921868,
                2.150740882439693
            ]
        },
        {
            "positions": [
                -2.0349034661085392,
                -1.4423238819012407,
                1.2838952112993456,
                -0.4537385820415173,
                1.1130761787047887,
                2.037647961557016
            ]
        },
        {
            "positions": [
                -2.1170166915261346,
                -1.4190498893879844,
                1.2390749748014254,
                -0.40625833869556194,
                1.0464974684877093,
                1.9245550406743392
            ]
        },
        {
            "positions": [
                -2.19912991694373,
                -1.395775896874728,
                1.1942547383035054,
                -0.35877809534960653,
                0.97991875827063,
                1.811462119791662
            ]
        },
        {
            "positions": [
                -2.281243142361325,
                -1.3725019043614717,
                1.1494345018055852,
                -0.3112978520036511,
                0.9133400480535506,
                1.6983691989089849
            ]
        },
        {
            "positions": [
                -2.3633563677789198,
                -1.3492279118482153,
                1.104614265307665,
                -0.26381760865769577,
                0.8467613378364712,
                1.5852762780263079
            ]
        },
        {
            "positions": [
                -2.445469593196515,
                -1.325953919334959,
                1.059794028809745,
                -0.21633736531174036,
                0.7801826276193919,
                1.472183357143631
            ]
        },
        {
            "positions": [
                -2.459707161348987,
                -1.333761712667397,
                1.1734991265951573,
                -0.3026974171594805,
                0.8393534590790468,
                1.5732576305615376
            ]
        },
        {
            "positions": [
                -2.4739447295014587,
                -1.3415695059998352,
                1.2872042243805697,
                -0.3890574690072207,
                0.8985242905387016,
                1.6743319039794442
            ]
        },
        {
            "positions": [
                -2.48818229765393,
                -1.3493772993322732,
                1.4009093221659819,
                -0.47541752085496086,
                0.9576951219983566,
                1.7754061773973508
            ]
        },
        {
            "positions": [
                -2.502419865806402,
                -1.3571850926647113,
                1.5146144199513945,
                -0.561777572702701,
                1.0168659534580113,
                1.8764804508152575
            ]
        },
        {
            "positions": [
                -2.5166574339588736,
                -1.3649928859971496,
                1.6283195177368066,
                -0.6481376245504413,
                1.0760367849176662,
                1.9775547242331641
            ]
        },
        {
            "positions": [
                -2.530895002111345,
                -1.3728006793295877,
                1.742024615522219,
                -0.7344976763981814,
                1.1352076163773213,
                2.078628997651071
            ]
        },
        {
            "positions": [
                -2.545132570263817,
                -1.3806084726620258,
                1.8557297133076314,
                -0.8208577282459215,
                1.194378447836976,
                2.1797032710689774
            ]
        },
        {
            "positions": [
                -2.5593701384162886,
                -1.3884162659944639,
                1.9694348110930437,
                -0.9072177800936618,
                1.253549279296631,
                2.280777544486884
            ]
        },
        {
            "positions": [
                -2.5600237985397745,
                -1.3477419498347634,
                1.9597215540045902,
                -0.8607643346821559,
                1.159101203156681,
                2.410014917322859
            ]
        },
        {
            "positions": [
                -2.56067745866326,
                -1.3070676336750626,
                1.9500082969161368,
                -0.8143108892706499,
                1.0646531270167312,
                2.5392522901588332
            ]
        },
        {
            "positions": [
                -2.561331118786746,
                -1.266393317515362,
                1.940295039827683,
                -0.767857443859144,
                0.9702050508767812,
                2.668489662994808
            ]
        },
        {
            "positions": [
                -2.5619847789102312,
                -1.2257190013556614,
                1.9305817827392295,
                -0.721403998447638,
                0.8757569747368313,
                2.797727035830783
            ]
        },
        {
            "positions": [
                -2.562638439033717,
                -1.1850446851959608,
                1.920868525650776,
                -0.674950553036132,
                0.7813088985968815,
                2.9269644086667572
            ]
        },
        {
            "positions": [
                -2.5183999308174387,
                -1.173874708426383,
                1.9642428063093305,
                -0.7474439856751849,
                0.7281985734325774,
                3.027096493905102
            ]
        },
        {
            "positions": [
                -2.47416142260116,
                -1.1627047316568049,
                2.007617086967885,
                -0.8199374183142378,
                0.6750882482682734,
                3.1272285791434467
            ]
        }
    ]
}