{
    "goal": {
        "global_pose": {
            "orientation": {
                "w": 0.5084816217422485,
                "x": -0.49083608388900757,
                "y": 0.5182115435600281,
                "z": -0.4816462993621826
            },
            "position": {
                "x": 0.5540239810943604,
                "y": 0.030875300988554955,
                "z": 0.16403168439865112
            }
        },
        "name": "move_to_storage_A"
    },
    "id": "BKPIECE_move_to_storage_A_75",
    "joint_names": [
        "shoulder_pan_joint",
        "shoulder_lift_joint",
        "elbow_joint",
        "wrist_1_joint",
        "wrist_2_joint",
        "wrist_3_joint"
    ],
    "metrics": {
        "cart_traj_len": 0.3534748191753302,
        "distance_elbow_joint": 0.4504893850084135,
        "distance_shoulder_lift_joint": 0.23575759374485838,
        "distance_shoulder_pan_joint": 0.46329136544441907,
        "distance_wrist_1_joint": 0.23805416498800258,
        "distance_wrist_2_joint": 1.096148270790842,
        "distance_wrist_3_joint": 0.10287659725070952,
        "smoothness": 7.771561204992932e-16,
        "time": 0.180202572,
        "traj_len": 1.6082964208214994,
        "weighted_distance": 2.031396811927081
    },
    "planner": "BKPIECE",
    "start": {
        "state": {
            "elbow_joint": 1.971548880431181,
            "shoulder_lift_joint": -1.1394869514688781,
            "shoulder_pan_joint": 0.12281150262730567,
            "wrist_1_joint": -0.7804693444481463,
            "wrist_2_joint": 0.12958644648617612,
            "wrist_3_joint": 3.0906942077768043
        }
    },
    "waypoints": [
        {
            "positions": [
                0.12281150262730567,
                -1.1394869514688781,
                1.971548880431181,
                -0.7804693444481463,
                0.12958644648617612,
                3.0906942077768043
            ]
        },
        {
            "positions": [
                0.056627021849531514,
                -1.1731666077181435,
                2.0359045068609545,
                -0.8144770823035753,
                0.28617905659915355,
                3.1053908645269055
            ]
        },
        {
            "positions": [
                -0.00955745892824264,
                -1.2068462639674091,
                2.100260133290728,
                -0.8484848201590042,
                0.442771666712131,
                3.120087521277007
            ]
        },
        {
            "positions": [
                -0.07574193970601678,
                -1.2405259202166745,
                2.164615759720501,
                -0.8824925580144332,
                0.5993642768251084,
                3.1347841780271084
            ]
        },
        {
            "positions": [
                -0.14192642048379095,
                -1.2742055764659401,
                2.2289713861502745,
                -0.916500295869862,
                0.7559568869380858,
                3.1494808347772096
            ]
        },
        {
            "positions": [
                -0.20811090126156512,
                -1.3078852327152055,
                2.293327012580048,
                -0.950508033725291,
                0.9125494970510634,
                3.164177491527311
            ]
        },
        {
            "positions": [
                -0.27429538203933923,
                -1.341564888964471,
                2.357682639009821,
                -0.9845157715807199,
                1.0691421071640406,
                3.1788741482774125
            ]
        },
        {
            "positions": [
                -0.3404798628171134,
                -1.3752445452137365,
                2.4220382654395944,
                -1.0185235094361489,
                1.225734717277018,
                3.193570805027514
            ]
        }
    ]
}