{
    "goal": {
        "global_pose": {
            "orientation": {
                "w": 0.5084816262002911,
                "x": -0.4908360881923452,
                "y": 0.5182115481033761,
                "z": -0.48164630358495003
            },
            "position": {
                "x": 0.5540239810943604,
                "y": -0.46912469901144505,
                "z": 0.16403168439865112
            }
        },
        "name": "move_to_storage_B"
    },
    "id": "BKPIECE_move_to_storage_B_66",
    "joint_names": [
        "shoulder_pan_joint",
        "shoulder_lift_joint",
        "elbow_joint",
        "wrist_1_joint",
        "wrist_2_joint",
        "wrist_3_joint"
    ],
    "metrics": {
        "cart_traj_len": 2.0552729172246216,
        "distance_elbow_joint": 0.3591639155309443,
        "distance_shoulder_lift_joint": 1.1409034655451202,
        "distance_shoulder_pan_joint": 1.9786146199341799,
        "distance_wrist_1_joint": 3.0261163238849242,
        "distance_wrist_2_joint": 2.700602822764497,
        "distance_wrist_3_joint": 4.858073251232808,
        "smoothness": 0.30743599208572775,
        "time": 0.314127166,
        "traj_len": 3.7501299176018525,
        "weighted_distance": 5.431973862971683
    },
    "planner": "BKPIECE",
    "start": {
        "state": {
            "elbow_joint": 1.6649325340416963,
            "shoulder_lift_joint": -0.6616387945129425,
            "shoulder_pan_joint": -0.9139837929255878,
            "wrist_1_joint": 2.1467571094334352,
            "wrist_2_joint": -2.234195976750228,
            "wrist_3_joint": 0.005470921511140723
        }
    },
    "waypoints": [
        {
            "positions": [
                -0.9139837929255878,
                -0.6616387945129425,
                1.6649325340416963,
                2.1467571094334352,
                -2.234195976750228,
                0.005470921511140723
            ]
        },
        {
            "positions": [
                -0.8391147502812384,
                -0.7284048741646242,
                1.670418973355757,
                2.0758204725678304,
                -2.1514161611516482,
                0.07863182854228429
            ]
        },
        {
            "positions": [
                -0.7642457076368889,
                -0.7951709538163059,
                1.675905412669818,
                2.004883835702225,
                -2.068636345553068,
                0.15179273557342787
            ]
        },
        {
            "positions": [
                -0.6893766649925395,
                -0.8619370334679877,
                1.6813918519838789,
                1.9339471988366204,
                -1.9858565299544884,
                0.22495364260457146
            ]
        },
        {
            "positions": [
                -0.61450762234819,
                -0.9287031131196694,
                1.6868782912979396,
                1.8630105619710156,
                -1.9030767143559086,
                0.298114549635715
            ]
        },
        {
            "positions": [
                -0.5396385797038404,
                -0.9954691927713512,
                1.6923647306120004,
                1.7920739251054103,
                -1.8202968987573287,
                0.37127545666685857
            ]
        },
        {
            "positions": [
                -0.464769537059491,
                -1.0622352724230328,
                1.6978511699260612,
                1.7211372882398055,
                -1.7375170831587488,
                0.44443636369800216
            ]
        },
        {
            "positions": [
                -0.3899004944151415,
                -1.1290013520747146,
                1.7033376092401222,
                1.6502006513742005,
                -1.654737267560169,
                0.5175972707291457
            ]
        },
        {
            "positions": [
                -0.31503145177079206,
                -1.1957674317263962,
                1.708824048554183,
                1.5792640145085957,
                -1.5719574519615893,
                0.5907581777602893
            ]
        },
        {
            "positions": [
                -0.2401624091264425,
                -1.262533511378078,
                1.7143104878682438,
                1.5083273776429906,
                -1.4891776363630094,
                0.6639190847914329
            ]
        },
        {
            "positions": [
                -0.16529336648209303,
                -1.3292995910297598,
                1.7197969271823048,
                1.4373907407773856,
                -1.4063978207644294,
                0.7370799918225764
            ]
        },
        {
            "positions": [
                -0.09042432383774357,
                -1.3960656706814414,
                1.7252833664963656,
                1.3664541039117808,
                -1.3236180051658497,
                0.81024089885372
            ]
        },
        {
            "positions": [
                -0.01555528119339409,
                -1.4628317503331232,
                1.7307698058104264,
                1.2955174670461758,
                -1.2408381895672698,
                0.8834018058848636
            ]
        },
        {
            "positions": [
                -0.05876272552147353,
                -1.4492433299441256,
                1.742502871560915,
                1.208522399786269,
                -1.1725483881440082,
                0.7241961112105002
            ]
        },
        {
            "positions": [
                -0.10197016984955298,
                -1.435654909555128,
                1.7542359373114036,
                1.1215273325263626,
                -1.1042585867207466,
                0.5649904165361368
            ]
        },
        {
            "positions": [
                -0.14517761417763242,
                -1.4220664891661305,
                1.7659690030618922,
                1.034532265266456,
                -1.035968785297485,
                0.4057847218617733
            ]
        },
        {
            "positions": [
                -0.18838505850571186,
                -1.4084780687771328,
                1.7777020688123806,
                0.9475371980065495,
                -0.9676789838742236,
                0.24657902718740987
            ]
        },
        {
            "positions": [
                -0.23159250283379132,
                -1.3948896483881352,
                1.7894351345628692,
                0.8605421307466428,
                -0.899389182450962,
                0.08737333251304635
            ]
        },
        {
            "positions": [
                -0.2747999471618708,
                -1.3813012279991377,
                1.8011682003133578,
                0.7735470634867362,
                -0.8310993810277005,
                -0.07183236216131705
            ]
        },
        {
            "positions": [
                -0.3180073914899503,
                -1.3677128076101401,
                1.8129012660638464,
                0.6865519962268296,
                -0.762809579604439,
                -0.23103805683568068
            ]
        },
        {
            "positions": [
                -0.36121483581802966,
                -1.3541243872211426,
                1.824634331814335,
                0.599556928966923,
                -0.6945197781811774,
                -0.39024375151004387
            ]
        },
        {
            "positions": [
                -0.4044222801461091,
                -1.340535966832145,
                1.8363673975648236,
                0.5125618617070165,
                -0.6262299767579158,
                -0.5494494461844073
            ]
        },
        {
            "positions": [
                -0.4476297244741886,
                -1.3269475464431473,
                1.848100463315312,
                0.42556679444710976,
                -0.5579401753346542,
                -0.7086551408587709
            ]
        },
        {
            "positions": [
                -0.490837168802268,
                -1.3133591260541497,
                1.8598335290658006,
                0.3385717271872033,
                -0.48965037391139277,
                -0.8678608355331343
            ]
        },
        {
            "positions": [
                -0.5340446131303475,
                -1.2997707056651522,
                1.8715665948162892,
                0.2515766599272966,
                -0.4213605724881312,
                -1.0270665302074977
            ]
        },
        {
            "positions": [
                -0.5772520574584269,
                -1.2861822852761546,
                1.8832996605667778,
                0.16458159266739014,
                -0.3530707710648696,
                -1.1862722248818611
            ]
        },
        {
            "positions": [
                -0.6204595017865064,
                -1.272593864887157,
                1.8950327263172664,
                0.07758652540748345,
                -0.28478096964160804,
                -1.345477919556225
            ]
        },
        {
            "positions": [
                -0.6636669461145858,
                -1.2590054444981595,
                1.906765792067755,
                -0.009408541852423014,
                -0.21649116821834657,
                -1.504683614230588
            ]
        },
        {
            "positions": [
                -0.7068743904426652,
                -1.2454170241091618,
                1.9184988578182436,
                -0.0964036091123297,
                -0.148201366795085,
                -1.6638893089049513
            ]
        },
        {
            "positions": [
                -0.7500818347707447,
                -1.2318286037201642,
                1.930231923568732,
                -0.1833986763722364,
                -0.07991156537182342,
                -1.8230950035793152
            ]
        },
        {
            "positions": [
                -0.7932892790988241,
                -1.2182401833311667,
                1.9419649893192206,
                -0.27039374363214286,
                -0.011621763948561847,
                -1.9823006982536782
            ]
        },
        {
            "positions": [
                -0.8364967234269036,
                -1.2046517629421691,
                1.9536980550697092,
                -0.35738881089204955,
                0.05666803747469973,
                -2.141506392928042
            ]
        },
        {
            "positions": [
                -0.8797041677549831,
                -1.1910633425531716,
                1.9654311208201978,
                -0.44438387815195624,
                0.1249578388979613,
                -2.300712087602405
            ]
        },
        {
            "positions": [
                -0.9229116120830624,
                -1.177474922164174,
                1.9771641865706864,
                -0.5313789454118625,
                0.19324764032122266,
                -2.4599177822767686
            ]
        },
        {
            "positions": [
                -0.9661190564111419,
                -1.1638865017751763,
                1.9888972523211748,
                -0.6183740126717692,
                0.26153744174448423,
                -2.619123476951132
            ]
        },
        {
            "positions": [
                -1.0093265007392214,
                -1.1502980813861787,
                2.0006303180716634,
                -0.7053690799316761,
                0.32982724316774603,
                -2.7783291716254954
            ]
        },
        {
            "positions": [
                -1.0525339450673008,
                -1.1367096609971812,
                2.012363383822152,
                -0.7923641471915825,
                0.3981170445910074,
                -2.937534866299859
            ]
        },
        {
            "positions": [
                -1.0957413893953802,
                -1.1231212406081836,
                2.0240964495726406,
                -0.879359214451489,
                0.46640684601426896,
                -3.0967405609742227
            ]
        }
    ]
}