{
    "goal": {
        "global_pose": {
            "orientation": {
                "w": -0.4816463035849501,
                "x": 0.5182115481033762,
                "y": 0.4908360881923453,
                "z": -0.5084816262002911
            },
            "position": {
                "x": -0.8240239810943604,
                "y": -0.300875300988555,
                "z": 0.16403168439865112
            }
        },
        "name": "move_to_storage_C"
    },
    "id": "BKPIECE_move_to_storage_C_127",
    "joint_names": [
        "shoulder_pan_joint",
        "shoulder_lift_joint",
        "elbow_joint",
        "wrist_1_joint",
        "wrist_2_joint",
        "wrist_3_joint"
    ],
    "metrics": {
        "cart_traj_len": 0.5768177491590957,
        "distance_elbow_joint": 0.25819475677880566,
        "distance_shoulder_lift_joint": 0.18828496933998884,
        "distance_shoulder_pan_joint": 0.49689532442848705,
        "distance_wrist_1_joint": 0.08667306057507596,
        "distance_wrist_2_joint": 1.0577305555960468,
        "distance_wrist_3_joint": 0.07039792699224501,
        "smoothness": 0.0,
        "time": 0.49127227799999995,
        "traj_len": 1.4690733792805075,
        "weighted_distance": 1.8556336017291404
    },
    "planner": "BKPIECE",
    "start": {
        "state": {
            "elbow_joint": 2.0108683149792914,
            "shoulder_lift_joint": -1.1634956873317392,
            "shoulder_pan_joint": -2.4736205022346,
            "wrist_1_joint": -0.8367026793690192,
            "wrist_2_joint": 0.6746043897045053,
            "wrist_3_joint": 3.133522094754363
        }
    },
    "waypoints": [
        {
            "positions": [
                -2.4736205022346,
                -1.1634956873317392,
                2.0108683149792914,
                -0.8367026793690192,
                0.6746043897045053,
                3.133522094754363
            ]
        },
        {
            "positions": [
                -2.556436389639348,
                -1.1321148591084078,
                1.967835855516157,
                -0.8222571692731733,
                0.8508928156371798,
                3.145255082586404
            ]
        },
        {
            "positions": [
                -2.6392522770440956,
                -1.1007340308850764,
                1.9248033960530229,
                -0.8078116591773272,
                1.0271812415698542,
                3.156988070418445
            ]
        },
        {
            "positions": [
                -2.7220681644488436,
                -1.0693532026617447,
                1.8817709365898887,
                -0.7933661490814812,
                1.2034696675025287,
                3.168721058250486
            ]
        },
        {
            "positions": [
                -2.8048840518535916,
                -1.0379723744384133,
                1.8387384771267543,
                -0.7789206389856352,
                1.3797580934352032,
                3.1804540460825264
            ]
        },
        {
            "positions": [
                -2.887699939258339,
                -1.0065915462150818,
                1.79570601766362,
                -0.7644751288897893,
                1.5560465193678776,
                3.1921870339145673
            ]
        },
        {
            "positions": [
                -2.970515826663087,
                -0.9752107179917504,
                1.7526735582004858,
                -0.7500296187939433,
                1.732334945300552,
                3.203920021746608
            ]
        }
    ]
}