{
    "goal": {
        "global_pose": {
            "orientation": {
                "w": -0.4816463035849501,
                "x": 0.5182115481033762,
                "y": 0.4908360881923453,
                "z": -0.5084816262002911
            },
            "position": {
                "x": -0.8240239810943604,
                "y": -0.300875300988555,
                "z": 0.16403168439865112
            }
        },
        "name": "move_to_storage_C"
    },
    "id": "BKPIECE_move_to_storage_C_148",
    "joint_names": [
        "shoulder_pan_joint",
        "shoulder_lift_joint",
        "elbow_joint",
        "wrist_1_joint",
        "wrist_2_joint",
        "wrist_3_joint"
    ],
    "metrics": {
        "cart_traj_len": 0.5761363937875165,
        "distance_elbow_joint": 0.25236988278946226,
        "distance_shoulder_lift_joint": 0.1881926034584397,
        "distance_shoulder_pan_joint": 0.49558745841919727,
        "distance_wrist_1_joint": 0.062820491305977,
        "distance_wrist_2_joint": 1.0628510460328737,
        "distance_wrist_3_joint": 0.05855686656799586,
        "smoothness": 0.0,
        "time": 0.403460367,
        "traj_len": 1.4561518974935086,
        "weighted_distance": 1.8338930227929842
    },
    "planner": "BKPIECE",
    "start": {
        "state": {
            "elbow_joint": 2.0108683149792914,
            "shoulder_lift_joint": -1.1634956873317392,
            "shoulder_pan_joint": -2.4736205022346,
            "wrist_1_joint": -0.8367026793690192,
            "wrist_2_joint": 0.6746043897045053,
            "wrist_3_joint": 3.133522094754363
        }
    },
    "waypoints": [
        {
            "positions": [
                -2.4736205022346,
                -1.1634956873317392,
                2.0108683149792914,
                -0.8367026793690192,
                0.6746043897045053,
                3.133522094754363
            ]
        },
        {
            "positions": [
                -2.556218411971133,
                -1.1321302534219992,
                1.9688066678477143,
                -0.8262325974846897,
                0.8517462307099842,
                3.1432815725156957
            ]
        },
        {
            "positions": [
                -2.6388163217076657,
                -1.1007648195122592,
                1.9267450207161374,
                -0.8157625156003602,
                1.0288880717154631,
                3.1530410502770283
            ]
        },
        {
            "positions": [
                -2.7214142314441987,
                -1.0693993856025195,
                1.8846833735845603,
                -0.8052924337160308,
                1.2060299127209422,
                3.1628005280383613
            ]
        },
        {
            "positions": [
                -2.8040121411807317,
                -1.0380339516927795,
                1.8426217264529832,
                -0.7948223518317012,
                1.3831717537264212,
                3.172560005799694
            ]
        },
        {
            "positions": [
                -2.8866100509172643,
                -1.0066685177830395,
                1.8005600793214063,
                -0.7843522699473717,
                1.5603135947319,
                3.1823194835610265
            ]
        },
        {
            "positions": [
                -2.9692079606537973,
                -0.9753030838732996,
                1.7584984321898292,
                -0.7738821880630422,
                1.737455435737379,
                3.192078961322359
            ]
        }
    ]
}