{
    "goal": {
        "global_pose": {
            "orientation": {
                "w": 0.7047431493862688,
                "x": -0.7094548369677653,
                "y": 0.0024358444001904,
                "z": -0.0022348060817251984
            },
            "position": {
                "x": -0.39052492380142206,
                "y": 0.3671506643295288,
                "z": 0.19426114857196808
            }
        },
        "name": "move_to_magneteinheit_D"
    },
    "id": "BKPIECE_move_to_magneteinheit_D_75",
    "joint_names": [
        "shoulder_pan_joint",
        "shoulder_lift_joint",
        "elbow_joint",
        "wrist_1_joint",
        "wrist_2_joint",
        "wrist_3_joint"
    ],
    "metrics": {
        "cart_traj_len": 4.348016441750981,
        "distance_elbow_joint": 3.6818309430452616,
        "distance_shoulder_lift_joint": 1.6853858771830776,
        "distance_shoulder_pan_joint": 4.939351735117106,
        "distance_wrist_1_joint": 5.206684075867516,
        "distance_wrist_2_joint": 4.5325064851586045,
        "distance_wrist_3_joint": 3.783676626785486,
        "smoothness": 0.5617656613114017,
        "time": 0.285486464,
        "traj_len": 4.881540304366752,
        "weighted_distance": 6.413733667510224
    },
    "planner": "BKPIECE",
    "start": {
        "state": {
            "elbow_joint": 0.7495348899011911,
            "shoulder_lift_joint": -0.6476975780737668,
            "shoulder_pan_joint": -2.711696901376276,
            "wrist_1_joint": -0.0750647808097303,
            "wrist_2_joint": 0.43296659715458535,
            "wrist_3_joint": 3.1361499051832418
        }
    },
    "waypoints": [
        {
            "positions": [
                -2.711696901376276,
                -0.6476975780737668,
                0.7495348899011911,
                -0.0750647808097303,
                0.43296659715458535,
                3.1361499051832418
            ]
        },
        {
            "positions": [
                -2.716948525862586,
                -0.6814249422231047,
                0.8036498133658037,
                -0.15743389038890354,
                0.4617902946560679,
                3.0182689645734198
            ]
        },
        {
            "positions": [
                -2.7222001503488955,
                -0.7151523063724426,
                0.8577647368304163,
                -0.2398029999680768,
                0.4906139921575504,
                2.9003880239635977
            ]
        },
        {
            "positions": [
                -2.727451774835205,
                -0.7488796705217805,
                0.9118796602950289,
                -0.32217210954725006,
                0.5194376896590329,
                2.7825070833537753
            ]
        },
        {
            "positions": [
                -2.732703399321515,
                -0.7826070346711185,
                0.9659945837596415,
                -0.4045412191264233,
                0.5482613871605155,
                2.6646261427439533
            ]
        },
        {
            "positions": [
                -2.7379550238078245,
                -0.8163343988204563,
                1.020109507224254,
                -0.4869103287055966,
                0.577085084661998,
                2.5467452021341312
            ]
        },
        {
            "positions": [
                -2.7943501106629234,
                -0.8889528114621612,
                0.9384543956310969,
                -0.46454269224249467,
                0.5258768134409393,
                2.443077460065033
            ]
        },
        {
            "positions": [
                -2.8507451975180222,
                -0.9615712241038662,
                0.8567992840379396,
                -0.4421750557793928,
                0.4746685422198806,
                2.3394097179959346
            ]
        },
        {
            "positions": [
                -2.9071402843731216,
                -1.0341896367455712,
                0.7751441724447823,
                -0.41980741931629095,
                0.4234602709988219,
                2.235741975926836
            ]
        },
        {
            "positions": [
                -2.9635353712282204,
                -1.106808049387276,
                0.6934890608516251,
                -0.39743978285318904,
                0.37225199977776313,
                2.132074233857738
            ]
        },
        {
            "positions": [
                -2.859841752957883,
                -1.106042670126921,
                0.6217385860320489,
                -0.30626979378193514,
                0.31154270089597813,
                2.0647107250114853
            ]
        },
        {
            "positions": [
                -2.756148134687546,
                -1.1052772908665662,
                0.5499881112124728,
                -0.21509980471068127,
                0.2508334020141931,
                1.9973472161652324
            ]
        },
        {
            "positions": [
                -2.6524545164172086,
                -1.1045119116062112,
                0.4782376363928966,
                -0.1239298156394274,
                0.19012410313240807,
                1.9299837073189796
            ]
        },
        {
            "positions": [
                -2.5487608981468717,
                -1.1037465323458564,
                0.4064871615733205,
                -0.0327598265681735,
                0.12941480425062304,
                1.8626201984727269
            ]
        },
        {
            "positions": [
                -2.4450672798765343,
                -1.1029811530855014,
                0.3347366867537443,
                0.058410162503080454,
                0.06870550536883802,
                1.7952566896264741
            ]
        },
        {
            "positions": [
                -2.3413736616061973,
                -1.1022157738251463,
                0.26298621193416816,
                0.14958015157433424,
                0.007996206487053015,
                1.7278931807802214
            ]
        },
        {
            "positions": [
                -2.23768004333586,
                -1.1014503945647915,
                0.19123573711459196,
                0.2407501406455882,
                -0.05271309239473204,
                1.6605296719339686
            ]
        },
        {
            "positions": [
                -2.133986425065523,
                -1.1006850153044365,
                0.11948526229501588,
                0.33192012971684204,
                -0.11342239127651704,
                1.5931661630877159
            ]
        },
        {
            "positions": [
                -2.0302928067951855,
                -1.0999196360440817,
                0.04773478747543969,
                0.423090118788096,
                -0.1741316901583021,
                1.5258026542414633
            ]
        },
        {
            "positions": [
                -1.9265991885248483,
                -1.0991542567837267,
                -0.024015687344136505,
                0.51426010785935,
                -0.2348409890400871,
                1.4584391453952104
            ]
        },
        {
            "positions": [
                -1.822905570254511,
                -1.0983888775233717,
                -0.0957661621637127,
                0.6054300969306039,
                -0.2955502879218722,
                1.3910756365489578
            ]
        },
        {
            "positions": [
                -1.719211951984174,
                -1.0976234982630169,
                -0.16751663698328878,
                0.6966000860018575,
                -0.3562595868036571,
                1.323712127702705
            ]
        },
        {
            "positions": [
                -1.6155183337138368,
                -1.0968581190026618,
                -0.23926711180286497,
                0.7877700750731116,
                -0.4169688856854422,
                1.2563486188564523
            ]
        },
        {
            "positions": [
                -1.5118247154434994,
                -1.0960927397423068,
                -0.31101758662244117,
                0.8789400641443654,
                -0.4776781845672272,
                1.1889851100101994
            ]
        },
        {
            "positions": [
                -1.4081310971731622,
                -1.095327360481952,
                -0.38276806144201725,
                0.9701100532156195,
                -0.5383874834490123,
                1.1216216011639468
            ]
        },
        {
            "positions": [
                -1.3044374789028252,
                -1.094561981221597,
                -0.45451853626159333,
                1.0612800422868731,
                -0.5990967823307972,
                1.054258092317694
            ]
        },
        {
            "positions": [
                -1.2007438606324878,
                -1.0937966019612422,
                -0.5262690110811696,
                1.1524500313581272,
                -0.6598060812125823,
                0.9868945834714413
            ]
        },
        {
            "positions": [
                -1.0970502423621507,
                -1.0930312227008872,
                -0.5980194859007457,
                1.243620020429381,
                -0.7205153800943673,
                0.9195310746251886
            ]
        },
        {
            "positions": [
                -0.9933566240918135,
                -1.0922658434405321,
                -0.6697699607203218,
                1.3347900095006349,
                -0.7812246789761523,
                0.8521675657789358
            ]
        },
        {
            "positions": [
                -0.8896630058214763,
                -1.0915004641801773,
                -0.7415204355398981,
                1.425959998571889,
                -0.8419339778579373,
                0.7848040569326831
            ]
        },
        {
            "positions": [
                -0.7859693875511389,
                -1.0907350849198223,
                -0.8132709103594742,
                1.5171299876431428,
                -0.9026432767397226,
                0.7174405480864303
            ]
        },
        {
            "positions": [
                -0.6822757692808015,
                -1.0899697056594675,
                -0.8850213851790505,
                1.6082999767143968,
                -0.9633525756215076,
                0.6500770392401776
            ]
        },
        {
            "positions": [
                -0.578582151010465,
                -1.0892043263991125,
                -0.9567718599986264,
                1.6994699657856505,
                -1.0240618745032923,
                0.582713530393925
            ]
        },
        {
            "positions": [
                -0.47488853274012754,
                -1.0884389471387574,
                -1.0285223348182027,
                1.790639954856904,
                -1.0847711733850773,
                0.5153500215476723
            ]
        },
        {
            "positions": [
                -0.37119491446979014,
                -1.0876735678784026,
                -1.1002728096377787,
                1.8818099439281581,
                -1.1454804722668626,
                0.44798651270141954
            ]
        },
        {
            "positions": [
                -0.2675012961994532,
                -1.0869081886180476,
                -1.172023284457355,
                1.9729799329994122,
                -1.2061897711486476,
                0.3806230038551668
            ]
        },
        {
            "positions": [
                -0.16380767792911577,
                -1.0861428093576926,
                -1.2437737592769311,
                2.0641499220706665,
                -1.2668990700304326,
                0.3132594950089138
            ]
        },
        {
            "positions": [
                -0.06011405965877836,
                -1.0853774300973378,
                -1.3155242340965074,
                2.1553199111419197,
                -1.3276083689122176,
                0.24589598616266106
            ]
        },
        {
            "positions": [
                0.0435795586115586,
                -1.0846120508369828,
                -1.3872747089160833,
                2.2464899002131737,
                -1.3883176677940026,
                0.1785324773164083
            ]
        },
        {
            "positions": [
                0.147273176881896,
                -1.083846671576628,
                -1.4590251837356596,
                2.337659889284428,
                -1.4490269666757878,
                0.11116896847015578
            ]
        },
        {
            "positions": [
                0.2509667951522334,
                -1.083081292316273,
                -1.530775658555236,
                2.428829878355682,
                -1.5097362655575728,
                0.04380545962390281
            ]
        },
        {
            "positions": [
                0.35466041342256993,
                -1.082315913055918,
                -1.6025261333748118,
                2.519999867426935,
                -1.5704455644393576,
                -0.02355804922234972
            ]
        },
        {
            "positions": [
                0.45835403169290734,
                -1.081550533795563,
                -1.674276608194388,
                2.611169856498189,
                -1.6311548633211426,
                -0.09092155806860225
            ]
        },
        {
            "positions": [
                0.5620476499632447,
                -1.080785154535208,
                -1.7460270830139644,
                2.702339845569443,
                -1.6918641622029278,
                -0.15828506691485522
            ]
        },
        {
            "positions": [
                0.6657412682335817,
                -1.0800197752748533,
                -1.8177775578335402,
                2.7935098346406972,
                -1.7525734610847126,
                -0.22564857576110775
            ]
        },
        {
            "positions": [
                0.7694348865039191,
                -1.0792543960144982,
                -1.8895280326531163,
                2.884679823711951,
                -1.8132827599664976,
                -0.2930120846073607
            ]
        },
        {
            "positions": [
                0.7132852978255063,
                -1.1497674402790152,
                -1.9190350200557533,
                2.8009593310322978,
                -1.6957521627298684,
                -0.272158282431191
            ]
        },
        {
            "positions": [
                0.6571357091470934,
                -1.2202804845435324,
                -1.9485420074583901,
                2.7172388383526447,
                -1.5782215654932394,
                -0.2513044802550213
            ]
        },
        {
            "positions": [
                0.6009861204686806,
                -1.2907935288080497,
                -1.9780489948610271,
                2.6335183456729916,
                -1.4606909682566103,
                -0.23045067807885156
            ]
        },
        {
            "positions": [
                0.5448365317902677,
                -1.3613065730725666,
                -2.007555982263664,
                2.5497978529933385,
                -1.343160371019981,
                -0.20959687590268183
            ]
        },
        {
            "positions": [
                0.48868694311185484,
                -1.4318196173370836,
                -2.037062969666301,
                2.4660773603136854,
                -1.2256297737833521,
                -0.1887430737265121
            ]
        },
        {
            "positions": [
                0.432537354433442,
                -1.5023326616016008,
                -2.066569957068938,
                2.3823568676340323,
                -1.1080991765467227,
                -0.1678892715503424
            ]
        },
        {
            "positions": [
                0.3763877657550292,
                -1.5728457058661178,
                -2.0960769444715748,
                2.2986363749543792,
                -0.9905685793100938,
                -0.14703546937417267
            ]
        },
        {
            "positions": [
                0.32023817707661634,
                -1.643358750130635,
                -2.125583931874212,
                2.214915882274726,
                -0.8730379820734647,
                -0.12618166719800294
            ]
        },
        {
            "positions": [
                0.2640885883982035,
                -1.713871794395152,
                -2.155090919276849,
                2.131195389595073,
                -0.7555073848368357,
                -0.10532786502183322
            ]
        },
        {
            "positions": [
                0.20793899971979057,
                -1.7843848386596692,
                -2.184597906679486,
                2.04747489691542,
                -0.6379767876002065,
                -0.0844740628456635
            ]
        },
        {
            "positions": [
                0.15178941104137778,
                -1.8548978829241864,
                -2.214104894082123,
                1.9637544042357669,
                -0.5204461903635773,
                -0.06362026066949378
            ]
        },
        {
            "positions": [
                0.09563982236296487,
                -1.9254109271887034,
                -2.24361188148476,
                1.8800339115561138,
                -0.40291559312694813,
                -0.042766458493324055
            ]
        },
        {
            "positions": [
                0.03949023368455207,
                -1.9959239714532204,
                -2.273118868887397,
                1.7963134188764607,
                -0.2853849958903192,
                -0.021912656317154333
            ]
        },
        {
            "positions": [
                -0.01665935499386073,
                -2.0664370157177374,
                -2.3026258562900335,
                1.7125929261968076,
                -0.16785439865369,
                -0.0010588541409846108
            ]
        },
        {
            "positions": [
                -0.07280894367227364,
                -2.1369500599822544,
                -2.3321328436926705,
                1.6288724335171545,
                -0.050323801417061054,
                0.01979494803518511
            ]
        },
        {
            "positions": [
                -0.12895853235068644,
                -2.207463104246772,
                -2.3616398310953075,
                1.5451519408375014,
                0.06720679581956812,
                0.040648750211354834
            ]
        },
        {
            "positions": [
                -0.18510812102909932,
                -2.277976148511289,
                -2.3911468184979445,
                1.4614314481578483,
                0.18473739305619732,
                0.06150255238752458
            ]
        }
    ]
}