{
    "goal": {
        "global_pose": {
            "orientation": {
                "w": -0.00223480608172531,
                "x": 0.0024358444001904467,
                "y": 0.7094548369677653,
                "z": -0.704743149386269
            },
            "position": {
                "x": 0.6205249238014221,
                "y": -0.6371506643295288,
                "z": 0.19426114857196808
            }
        },
        "name": "move_to_magneteinheit_B"
    },
    "id": "BKPIECE_move_to_magneteinheit_B_72",
    "joint_names": [
        "shoulder_pan_joint",
        "shoulder_lift_joint",
        "elbow_joint",
        "wrist_1_joint",
        "wrist_2_joint",
        "wrist_3_joint"
    ],
    "metrics": {
        "cart_traj_len": 3.671879151272614,
        "distance_elbow_joint": 4.453868277282742,
        "distance_shoulder_lift_joint": 0.9518636235695601,
        "distance_shoulder_pan_joint": 2.728480134556628,
        "distance_wrist_1_joint": 2.3108256406130385,
        "distance_wrist_2_joint": 1.5617288148382755,
        "distance_wrist_3_joint": 9.523034432124078,
        "smoothness": 0.29255949145001364,
        "time": 0.924575076,
        "traj_len": 4.640021651133142,
        "weighted_distance": 6.666965144852924
    },
    "planner": "BKPIECE",
    "start": {
        "state": {
            "elbow_joint": 2.393587130804639,
            "shoulder_lift_joint": -1.9085141043513325,
            "shoulder_pan_joint": 0.7066247066698809,
            "wrist_1_joint": -0.4678290934590222,
            "wrist_2_joint": 0.7096259084215963,
            "wrist_3_joint": 3.147370379541726
        }
    },
    "waypoints": [
        {
            "positions": [
                0.7066247066698809,
                -1.9085141043513325,
                2.393587130804639,
                -0.4678290934590222,
                0.7096259084215963,
                3.147370379541726
            ]
        },
        {
            "positions": [
                0.6266049034488382,
                -1.9369275529704895,
                2.386777000119616,
                -0.4200739268186741,
                0.6110202693597292,
                3.1191254038234275
            ]
        },
        {
            "positions": [
                0.5465851002277956,
                -1.9653410015896464,
                2.3799668694345923,
                -0.37231876017832605,
                0.5124146302978622,
                3.0908804281051294
            ]
        },
        {
            "positions": [
                0.466565297006753,
                -1.9937544502088034,
                2.3731567387495693,
                -0.324563593537978,
                0.413808991235995,
                3.062635452386831
            ]
        },
        {
            "positions": [
                0.4419308153090434,
                -2.0099777607587472,
                2.2754242825303885,
                -0.31638543211932874,
                0.33529112937623323,
                2.8976990399351945
            ]
        },
        {
            "positions": [
                0.41729633361133384,
                -2.026201071308691,
                2.1776918263112073,
                -0.3082072707006795,
                0.25677326751647145,
                2.732762627483558
            ]
        },
        {
            "positions": [
                0.39266185191362424,
                -2.042424381858635,
                2.0799593700920265,
                -0.30002910928203025,
                0.1782554056567096,
                2.5678262150319218
            ]
        },
        {
            "positions": [
                0.35583945051756066,
                -2.0340934031341815,
                1.9103467512166792,
                -0.37655780730124555,
                0.17976098560241427,
                2.4986326691661858
            ]
        },
        {
            "positions": [
                0.3190170491214971,
                -2.0257624244097276,
                1.7407341323413321,
                -0.4530865053204608,
                0.18126656554811893,
                2.4294391233004498
            ]
        },
        {
            "positions": [
                0.38258520439974,
                -2.01470758685039,
                1.6289967843694781,
                -0.4904148921916766,
                0.15213373906928745,
                2.2900692031376546
            ]
        },
        {
            "positions": [
                0.44615335967798286,
                -2.0036527492910525,
                1.517259436397624,
                -0.5277432790628924,
                0.12300091259045598,
                2.1506992829748595
            ]
        },
        {
            "positions": [
                0.5097215149562258,
                -1.9925979117317147,
                1.40552208842577,
                -0.5650716659341082,
                0.09386808611162452,
                2.0113293628120648
            ]
        },
        {
            "positions": [
                0.5732896702344688,
                -1.9815430741723772,
                1.293784740453916,
                -0.602400052805324,
                0.06473525963279304,
                1.8719594426492696
            ]
        },
        {
            "positions": [
                0.6368578255127115,
                -1.9704882366130394,
                1.1820473924820618,
                -0.6397284396765399,
                0.035602433153961555,
                1.7325895224864745
            ]
        },
        {
            "positions": [
                0.7004259807909545,
                -1.9594333990537018,
                1.0703100445102078,
                -0.6770568265477557,
                0.006469606675130107,
                1.5932196023236793
            ]
        },
        {
            "positions": [
                0.7639941360691974,
                -1.9483785614943643,
                0.9585726965383536,
                -0.7143852134189714,
                -0.022663219803701395,
                1.4538496821608842
            ]
        },
        {
            "positions": [
                0.8275622913474403,
                -1.9373237239350267,
                0.8468353485664997,
                -0.7517136002901873,
                -0.05179604628253284,
                1.3144797619980892
            ]
        },
        {
            "positions": [
                0.8911304466256832,
                -1.926268886375689,
                0.7350980005946455,
                -0.7890419871614032,
                -0.08092887276136435,
                1.1751098418352943
            ]
        },
        {
            "positions": [
                0.9546986019039261,
                -1.9152140488163514,
                0.6233606526227915,
                -0.8263703740326189,
                -0.11006169924019582,
                1.0357399216724992
            ]
        },
        {
            "positions": [
                1.018266757182169,
                -1.9041592112570138,
                0.5116233046509375,
                -0.8636987609038347,
                -0.13919452571902724,
                0.8963700015097043
            ]
        },
        {
            "positions": [
                1.0818349124604119,
                -1.893104373697676,
                0.39988595667908355,
                -0.9010271477750504,
                -0.16832735219785872,
                0.7570000813469091
            ]
        },
        {
            "positions": [
                1.1454030677386546,
                -1.8820495361383385,
                0.28814860870722936,
                -0.9383555346462664,
                -0.19746017867669025,
                0.617630161184114
            ]
        },
        {
            "positions": [
                1.2089712230168979,
                -1.870994698579001,
                0.17641126073537516,
                -0.9756839215174822,
                -0.22659300515552172,
                0.4782602410213188
            ]
        },
        {
            "positions": [
                1.2725393782951406,
                -1.8599398610196631,
                0.06467391276352119,
                -1.013012308388698,
                -0.2557258316343532,
                0.3388903208585239
            ]
        },
        {
            "positions": [
                1.3361075335733834,
                -1.8488850234603256,
                -0.04706343520833278,
                -1.050340695259914,
                -0.2848586581131846,
                0.19952040069572874
            ]
        },
        {
            "positions": [
                1.3996756888516262,
                -1.837830185900988,
                -0.15880078318018676,
                -1.0876690821311294,
                -0.3139914845920161,
                0.060150480532934036
            ]
        },
        {
            "positions": [
                1.4632438441298694,
                -1.8267753483416502,
                -0.2705381311520412,
                -1.1249974690023454,
                -0.3431243110708476,
                -0.07921943962986111
            ]
        },
        {
            "positions": [
                1.5268119994081122,
                -1.8157205107823127,
                -0.3822754791238949,
                -1.1623258558735612,
                -0.37225713754967904,
                -0.21858935979265626
            ]
        },
        {
            "positions": [
                1.590380154686355,
                -1.804665673222975,
                -0.4940128270957491,
                -1.199654242744777,
                -0.40138996402851057,
                -0.3579592799554514
            ]
        },
        {
            "positions": [
                1.6539483099645982,
                -1.7936108356636375,
                -0.6057501750676033,
                -1.236982629615993,
                -0.430522790507342,
                -0.49732920011824655
            ]
        },
        {
            "positions": [
                1.717516465242841,
                -1.7825559981042998,
                -0.7174875230394571,
                -1.2743110164872085,
                -0.4596556169861734,
                -0.6366991202810413
            ]
        },
        {
            "positions": [
                1.7810846205210837,
                -1.7715011605449622,
                -0.8292248710113113,
                -1.3116394033584244,
                -0.48878844346500494,
                -0.7760690404438368
            ]
        },
        {
            "positions": [
                1.8446527757993265,
                -1.7604463229856244,
                -0.940962218983165,
                -1.3489677902296402,
                -0.5179212699438364,
                -0.9154389606066315
            ]
        },
        {
            "positions": [
                1.9082209310775693,
                -1.7493914854262869,
                -1.0526995669550192,
                -1.386296177100856,
                -0.5470540964226679,
                -1.0548088807694262
            ]
        },
        {
            "positions": [
                1.9717890863558125,
                -1.7383366478669493,
                -1.1644369149268734,
                -1.423624563972072,
                -0.5761869229014994,
                -1.1941788009322218
            ]
        },
        {
            "positions": [
                2.0353572416340553,
                -1.7272818103076117,
                -1.2761742628987272,
                -1.4609529508432875,
                -0.6053197493803308,
                -1.3335487210950165
            ]
        },
        {
            "positions": [
                2.0989253969122985,
                -1.716226972748274,
                -1.3879116108705818,
                -1.4982813377145034,
                -0.6344525758591624,
                -1.4729186412578121
            ]
        },
        {
            "positions": [
                2.1624935521905413,
                -1.7051721351889364,
                -1.4996489588424353,
                -1.5356097245857194,
                -0.6635854023379938,
                -1.612288561420607
            ]
        },
        {
            "positions": [
                2.2182328015185986,
                -1.7345551463102662,
                -1.5711982606541124,
                -1.6285233441035016,
                -0.6429194635539087,
                -1.5232392321426749
            ]
        },
        {
            "positions": [
                2.273972050846656,
                -1.763938157431596,
                -1.6427475624657892,
                -1.7214369636212838,
                -0.6222535247698238,
                -1.4341899028647425
            ]
        },
        {
            "positions": [
                2.3297113001747136,
                -1.793321168552926,
                -1.7142968642774663,
                -1.814350583139066,
                -0.6015875859857387,
                -1.3451405735868103
            ]
        },
        {
            "positions": [
                2.385450549502771,
                -1.8227041796742558,
                -1.7858461660891431,
                -1.9072642026568483,
                -0.5809216472016536,
                -1.256091244308878
            ]
        },
        {
            "positions": [
                2.441189798830828,
                -1.8520871907955856,
                -1.8573954679008202,
                -2.0001778221746305,
                -0.5602557084175687,
                -1.167041915030946
            ]
        },
        {
            "positions": [
                2.4557697806507557,
                -1.8743395937146463,
                -1.843869755995668,
                -2.0297029517441936,
                -0.5549780090592059,
                -0.879166658712807
            ]
        },
        {
            "positions": [
                2.470349762470683,
                -1.8965919966337068,
                -1.8303440440905159,
                -2.0592280813137567,
                -0.5497003097008432,
                -0.591291402394668
            ]
        },
        {
            "positions": [
                2.4849297442906106,
                -1.9188443995527675,
                -1.816818332185364,
                -2.0887532108833198,
                -0.5444226103424803,
                -0.303416146076529
            ]
        },
        {
            "positions": [
                2.499509726110538,
                -1.9410968024718283,
                -1.8032926202802118,
                -2.118278340452883,
                -0.5391449109841175,
                -0.015540889758390186
            ]
        },
        {
            "positions": [
                2.5140897079304656,
                -1.963349205390889,
                -1.7897669083750596,
                -2.147803470022446,
                -0.5338672116257548,
                0.27233436655974863
            ]
        },
        {
            "positions": [
                2.528669689750393,
                -1.9856016083099495,
                -1.7762411964699074,
                -2.177328599592009,
                -0.528589512267392,
                0.5602096228778879
            ]
        },
        {
            "positions": [
                2.5432496715703206,
                -2.00785401122901,
                -1.7627154845647552,
                -2.206853729161572,
                -0.5233118129090293,
                0.8480848791960267
            ]
        },
        {
            "positions": [
                2.5578296533902485,
                -2.030106414148071,
                -1.7491897726596033,
                -2.2363788587311353,
                -0.5180341135506664,
                1.1359601355141655
            ]
        },
        {
            "positions": [
                2.572409635210176,
                -2.0523588170671316,
                -1.7356640607544511,
                -2.2659039883006984,
                -0.5127564141923037,
                1.4238353918323043
            ]
        },
        {
            "positions": [
                2.5869896170301034,
                -2.0746112199861924,
                -1.722138348849299,
                -2.2954291178702615,
                -0.5074787148339409,
                1.7117106481504432
            ]
        },
        {
            "positions": [
                2.601569598850031,
                -2.0968636229052526,
                -1.7086126369441468,
                -2.3249542474398246,
                -0.5022010154755782,
                1.999585904468582
            ]
        },
        {
            "positions": [
                2.6161495806699584,
                -2.1191160258243134,
                -1.6950869250389946,
                -2.3544793770093877,
                -0.49692331611721535,
                2.2874611607867217
            ]
        },
        {
            "positions": [
                2.630729562489886,
                -2.141368428743374,
                -1.6815612131338427,
                -2.384004506578951,
                -0.4916456167588526,
                2.5753364171048605
            ]
        },
        {
            "positions": [
                2.6453095443098134,
                -2.163620831662435,
                -1.6680355012286905,
                -2.413529636148514,
                -0.4863679174004898,
                2.8632116734229993
            ]
        },
        {
            "positions": [
                2.659889526129741,
                -2.1858732345814955,
                -1.6545097893235383,
                -2.443054765718077,
                -0.48109021804212704,
                3.151086929741138
            ]
        }
    ]
}