{
    "goal": {
        "global_pose": {
            "orientation": {
                "w": -0.4816463035849501,
                "x": 0.5182115481033762,
                "y": 0.4908360881923453,
                "z": -0.5084816262002911
            },
            "position": {
                "x": -0.8240239810943604,
                "y": 0.19912469901144506,
                "z": 0.16403168439865112
            }
        },
        "name": "move_to_storage_D"
    },
    "id": "BKPIECE_move_to_storage_D_120",
    "joint_names": [
        "shoulder_pan_joint",
        "shoulder_lift_joint",
        "elbow_joint",
        "wrist_1_joint",
        "wrist_2_joint",
        "wrist_3_joint"
    ],
    "metrics": {
        "cart_traj_len": 3.775454000783126,
        "distance_elbow_joint": 4.210877809336706,
        "distance_shoulder_lift_joint": 1.2633594730809303,
        "distance_shoulder_pan_joint": 2.8156662438308504,
        "distance_wrist_1_joint": 2.7317361081713605,
        "distance_wrist_2_joint": 2.4709152130982117,
        "distance_wrist_3_joint": 3.1534381861876875,
        "smoothness": 0.07950394062219698,
        "time": 0.222228449,
        "traj_len": 4.0799501263748,
        "weighted_distance": 5.3061776004342995
    },
    "planner": "BKPIECE",
    "start": {
        "state": {
            "elbow_joint": -2.384821990628643,
            "shoulder_lift_joint": -2.278805467437664,
            "shoulder_pan_joint": -0.18546946439364564,
            "wrist_1_joint": 1.4845938187801415,
            "wrist_2_joint": 0.178987772454074,
            "wrist_3_joint": 0.03710569632802521
        }
    },
    "waypoints": [
        {
            "positions": [
                -0.18546946439364564,
                -2.278805467437664,
                -2.384821990628643,
                1.4845938187801415,
                0.178987772454074,
                0.03710569632802521
            ]
        },
        {
            "positions": [
                -0.108257322599923,
                -2.2243357110526203,
                -2.383143931024083,
                1.4026877948354748,
                0.09661311832481581,
                0.04987597315597621
            ]
        },
        {
            "positions": [
                -0.028703666566615715,
                -2.1903346831820936,
                -2.279780525460061,
                1.3019097838712894,
                0.06709491539128519,
                0.08279731118973958
            ]
        },
        {
            "positions": [
                0.05084998946669157,
                -2.1563336553115673,
                -2.176417119896039,
                1.2011317729071038,
                0.03757671245775456,
                0.11571864922350296
            ]
        },
        {
            "positions": [
                0.1304036454999989,
                -2.1223326274410406,
                -2.073053714332017,
                1.1003537619429185,
                0.008058509524223934,
                0.14863998725726635
            ]
        },
        {
            "positions": [
                0.20995730153330616,
                -2.088331599570514,
                -1.969690308767995,
                0.9995757509787331,
                -0.021459693409306688,
                0.1815613252910297
            ]
        },
        {
            "positions": [
                0.2895109575666135,
                -2.054330571699987,
                -1.8663269032039727,
                0.8987977400145475,
                -0.05097789634283734,
                0.2144826633247931
            ]
        },
        {
            "positions": [
                0.36906461359992077,
                -2.020329543829461,
                -1.7629634976399506,
                0.7980197290503621,
                -0.08049609927636794,
                0.24740400135855645
            ]
        },
        {
            "positions": [
                0.4486182696332281,
                -1.9863285159589341,
                -1.6596000920759284,
                0.6972417180861766,
                -0.11001430220989858,
                0.28032533939231985
            ]
        },
        {
            "positions": [
                0.5281719256665353,
                -1.9523274880884076,
                -1.5562366865119066,
                0.5964637071219913,
                -0.1395325051434292,
                0.3132466774260832
            ]
        },
        {
            "positions": [
                0.6077255816998426,
                -1.918326460217881,
                -1.4528732809478844,
                0.4956856961578058,
                -0.16905070807695985,
                0.3461680154598466
            ]
        },
        {
            "positions": [
                0.6872792377331499,
                -1.8843254323473544,
                -1.3495098753838621,
                0.3949076851936202,
                -0.19856891101049048,
                0.37908935349360995
            ]
        },
        {
            "positions": [
                0.7668328937664571,
                -1.8503244044768277,
                -1.2461464698198403,
                0.29412967422943503,
                -0.22808711394402106,
                0.4120106915273733
            ]
        },
        {
            "positions": [
                0.8463865497997645,
                -1.8163233766063012,
                -1.142783064255818,
                0.19335166326524944,
                -0.2576053168775517,
                0.4449320295611367
            ]
        },
        {
            "positions": [
                0.9259402058330717,
                -1.7823223487357747,
                -1.039419658691796,
                0.09257365230106407,
                -0.2871235198110823,
                0.47785336759490005
            ]
        },
        {
            "positions": [
                1.0054938618663791,
                -1.748321320865248,
                -0.9360562531277739,
                -0.008204358663121525,
                -0.316641722744613,
                0.5107747056286636
            ]
        },
        {
            "positions": [
                1.0850475178996863,
                -1.7143202929947214,
                -0.8326928475637518,
                -0.1089823696273069,
                -0.3461599256781436,
                0.5436960436624269
            ]
        },
        {
            "positions": [
                1.1646011739329936,
                -1.680319265124195,
                -0.7293294419997298,
                -0.20976038059149227,
                -0.37567812861167416,
                0.5766173816961903
            ]
        },
        {
            "positions": [
                1.244154829966301,
                -1.6463182372536682,
                -0.6259660364357076,
                -0.31053839155567786,
                -0.40519633154520485,
                0.6095387197299537
            ]
        },
        {
            "positions": [
                1.3237084859996082,
                -1.6123172093831415,
                -0.5226026308716856,
                -0.41131640251986323,
                -0.43471453447873554,
                0.6424600577637171
            ]
        },
        {
            "positions": [
                1.4032621420329154,
                -1.578316181512615,
                -0.41923922530766355,
                -0.5120944134840486,
                -0.4642327374122661,
                0.6753813957974804
            ]
        },
        {
            "positions": [
                1.4828157980662229,
                -1.5443151536420885,
                -0.3158758197436411,
                -0.6128724244482344,
                -0.4937509403457968,
                0.7083027338312438
            ]
        },
        {
            "positions": [
                1.56236945409953,
                -1.5103141257715618,
                -0.2125124141796193,
                -0.7136504354124196,
                -0.5232691432793274,
                0.7412240718650072
            ]
        },
        {
            "positions": [
                1.6419231101328373,
                -1.4763130979010353,
                -0.10914900861559751,
                -0.8144284463766047,
                -0.552787346212858,
                0.7741454098987705
            ]
        },
        {
            "positions": [
                1.7214767661661448,
                -1.4423120700305088,
                -0.005785603051574828,
                -0.9152064573407908,
                -0.5823055491463887,
                0.807066747932534
            ]
        },
        {
            "positions": [
                1.801030422199452,
                -1.408311042159982,
                0.09757780251244719,
                -1.0159844683049761,
                -0.6118237520799192,
                0.8399880859662973
            ]
        },
        {
            "positions": [
                1.8446707567909126,
                -1.3876339343808637,
                0.1885503296806374,
                -1.0038182671951736,
                -0.5233972421554868,
                0.9637015489425823
            ]
        },
        {
            "positions": [
                1.8883110913823733,
                -1.3669568266017453,
                0.2795228568488276,
                -0.9916520660853713,
                -0.4349707322310543,
                1.0874150119188672
            ]
        },
        {
            "positions": [
                1.9319514259738342,
                -1.346279718822627,
                0.3704953840170178,
                -0.9794858649755688,
                -0.3465442223066218,
                1.2111284748951523
            ]
        },
        {
            "positions": [
                1.9755917605652948,
                -1.3256026110435086,
                0.461467911185208,
                -0.9673196638657663,
                -0.25811771238218933,
                1.3348419378714373
            ]
        },
        {
            "positions": [
                2.0192320951567555,
                -1.3049255032643903,
                0.5524404383533983,
                -0.9551534627559639,
                -0.16969120245775687,
                1.4585554008477224
            ]
        },
        {
            "positions": [
                2.062872429748216,
                -1.284248395485272,
                0.6434129655215884,
                -0.9429872616461614,
                -0.08126469253332436,
                1.5822688638240074
            ]
        },
        {
            "positions": [
                2.106512764339677,
                -1.2635712877061536,
                0.7343854926897787,
                -0.9308210605363589,
                0.007161817391108105,
                1.7059823268002925
            ]
        },
        {
            "positions": [
                2.1501530989311375,
                -1.2428941799270352,
                0.8253580198579689,
                -0.9186548594265566,
                0.09558832731554057,
                1.8296957897765775
            ]
        },
        {
            "positions": [
                2.193793433522598,
                -1.222217072147917,
                0.9163305470261591,
                -0.9064886583167541,
                0.18401483723997303,
                1.9534092527528624
            ]
        },
        {
            "positions": [
                2.237433768114059,
                -1.2015399643687987,
                1.0073030741943492,
                -0.8943224572069516,
                0.2724413471644055,
                2.0771227157291476
            ]
        },
        {
            "positions": [
                2.2810741027055195,
                -1.1808628565896804,
                1.0982756013625397,
                -0.8821562560971492,
                0.36086785708883806,
                2.200836178705433
            ]
        },
        {
            "positions": [
                2.32471443729698,
                -1.160185748810562,
                1.1892481285307297,
                -0.8699900549873467,
                0.4492943670132705,
                2.3245496416817177
            ]
        },
        {
            "positions": [
                2.3683547718884412,
                -1.1395086410314437,
                1.28022065569892,
                -0.8578238538775442,
                0.5377208769377031,
                2.448263104658003
            ]
        },
        {
            "positions": [
                2.4119951064799015,
                -1.1188315332523253,
                1.3711931828671102,
                -0.8456576527677417,
                0.6261473868621354,
                2.571976567634288
            ]
        },
        {
            "positions": [
                2.4556354410713626,
                -1.098154425473207,
                1.4621657100353005,
                -0.8334914516579394,
                0.714573896786568,
                2.6956900306105727
            ]
        },
        {
            "positions": [
                2.499275775662823,
                -1.0774773176940886,
                1.5531382372034905,
                -0.8213252505481369,
                0.8030004067110004,
                2.819403493586858
            ]
        },
        {
            "positions": [
                2.542916110254284,
                -1.0568002099149703,
                1.6441107643716808,
                -0.8091590494383344,
                0.8914269166354329,
                2.9431169565631428
            ]
        },
        {
            "positions": [
                2.5865564448457445,
                -1.036123102135852,
                1.735083291539871,
                -0.796992848328532,
                0.9798534265598653,
                3.0668304195394276
            ]
        },
        {
            "positions": [
                2.630196779437205,
                -1.0154459943567336,
                1.8260558187080613,
                -0.7848266472187295,
                1.0682799364842979,
                3.190543882515713
            ]
        }
    ]
}