{
    "goal": {
        "global_pose": {
            "orientation": {
                "w": -0.4816463035849501,
                "x": 0.5182115481033762,
                "y": 0.4908360881923453,
                "z": -0.5084816262002911
            },
            "position": {
                "x": -0.8240239810943604,
                "y": 0.19912469901144506,
                "z": 0.16403168439865112
            }
        },
        "name": "move_to_storage_D"
    },
    "id": "BKPIECE_move_to_storage_D_143",
    "joint_names": [
        "shoulder_pan_joint",
        "shoulder_lift_joint",
        "elbow_joint",
        "wrist_1_joint",
        "wrist_2_joint",
        "wrist_3_joint"
    ],
    "metrics": {
        "cart_traj_len": 3.800655985921806,
        "distance_elbow_joint": 4.516924489466567,
        "distance_shoulder_lift_joint": 1.2647305122843004,
        "distance_shoulder_pan_joint": 2.8143981197622767,
        "distance_wrist_1_joint": 2.563350522601696,
        "distance_wrist_2_joint": 1.5399623698798761,
        "distance_wrist_3_joint": 3.86287709030187,
        "smoothness": 0.40051038029497454,
        "time": 0.39603603600000004,
        "traj_len": 4.06967358694731,
        "weighted_distance": 5.328349667334334
    },
    "planner": "BKPIECE",
    "start": {
        "state": {
            "elbow_joint": -2.384821990628643,
            "shoulder_lift_joint": -2.278805467437664,
            "shoulder_pan_joint": -0.18546946439364564,
            "wrist_1_joint": 1.4845938187801415,
            "wrist_2_joint": 0.178987772454074,
            "wrist_3_joint": 0.03710569632802521
        }
    },
    "waypoints": [
        {
            "positions": [
                -0.18546946439364564,
                -2.278805467437664,
                -2.384821990628643,
                1.4845938187801415,
                0.178987772454074,
                0.03710569632802521
            ]
        },
        {
            "positions": [
                -0.13181646612392703,
                -2.242575391971354,
                -2.423281624633221,
                1.522238496100184,
                0.09636596851168322,
                -0.054086577223208504
            ]
        },
        {
            "positions": [
                -0.07816346785420841,
                -2.206345316505044,
                -2.4617412586377982,
                1.5598831734202263,
                0.01374416456929245,
                -0.14527885077444222
            ]
        },
        {
            "positions": [
                -0.024510469584489797,
                -2.170115241038734,
                -2.5002008926423755,
                1.5975278507402688,
                -0.06887763937309832,
                -0.23647112432567594
            ]
        },
        {
            "positions": [
                0.02914252868522882,
                -2.133885165572424,
                -2.5386605266469533,
                1.6351725280603113,
                -0.15149944331548912,
                -0.3276633978769096
            ]
        },
        {
            "positions": [
                0.09877083137414999,
                -2.102831525123285,
                -2.431628891454488,
                1.5656408136335445,
                -0.12741666000815866,
                -0.2431078721991991
            ]
        },
        {
            "positions": [
                0.16839913406307117,
                -2.071777884674146,
                -2.324597256262023,
                1.4961090992067774,
                -0.10333387670082816,
                -0.1585523465214886
            ]
        },
        {
            "positions": [
                0.23802743675199237,
                -2.0407242442250073,
                -2.217565621069558,
                1.4265773847800105,
                -0.07925109339349769,
                -0.07399682084377807
            ]
        },
        {
            "positions": [
                0.3076557394409135,
                -2.0096706037758683,
                -2.1105339858770926,
                1.3570456703532436,
                -0.05516831008616721,
                0.010558704833932397
            ]
        },
        {
            "positions": [
                0.3772840421298347,
                -1.9786169633267292,
                -2.0035023506846272,
                1.2875139559264768,
                -0.031085526778836733,
                0.09511423051164292
            ]
        },
        {
            "positions": [
                0.4469123448187559,
                -1.9475633228775902,
                -1.8964707154921623,
                1.2179822414997097,
                -0.007002743471506256,
                0.1796697561893535
            ]
        },
        {
            "positions": [
                0.516540647507677,
                -1.9165096824284513,
                -1.7894390802996971,
                1.1484505270729428,
                0.017080039835824234,
                0.264225281867064
            ]
        },
        {
            "positions": [
                0.5861689501965982,
                -1.8854560419793123,
                -1.682407445107232,
                1.078918812646176,
                0.0411628231431547,
                0.3487808075447744
            ]
        },
        {
            "positions": [
                0.6557972528855194,
                -1.8544024015301734,
                -1.575375809914767,
                1.009387098219409,
                0.06524560645048516,
                0.43333633322248494
            ]
        },
        {
            "positions": [
                0.7254255555744406,
                -1.8233487610810344,
                -1.4683441747223016,
                0.939855383792642,
                0.08932838975781565,
                0.5178918589001955
            ]
        },
        {
            "positions": [
                0.7950538582633617,
                -1.7922951206318953,
                -1.3613125395298367,
                0.8703236693658751,
                0.11341117306514611,
                0.6024473845779059
            ]
        },
        {
            "positions": [
                0.864682160952283,
                -1.7612414801827565,
                -1.2542809043373713,
                0.8007919549391082,
                0.1374939563724766,
                0.6870029102556166
            ]
        },
        {
            "positions": [
                0.9343104636412041,
                -1.7301878397336174,
                -1.1472492691449063,
                0.7312602405123413,
                0.1615767396798071,
                0.771558435933327
            ]
        },
        {
            "positions": [
                1.0039387663301254,
                -1.6991341992844786,
                -1.040217633952441,
                0.6617285260855743,
                0.1856595229871376,
                0.8561139616110376
            ]
        },
        {
            "positions": [
                1.0735670690190466,
                -1.6680805588353396,
                -0.933185998759976,
                0.5921968116588074,
                0.20974230629446802,
                0.940669487288748
            ]
        },
        {
            "positions": [
                1.1431953717079675,
                -1.6370269183862005,
                -0.8261543635675106,
                0.5226650972320404,
                0.2338250896017985,
                1.0252250129664584
            ]
        },
        {
            "positions": [
                1.2128236743968888,
                -1.6059732779370617,
                -0.7191227283750457,
                0.4531333828052737,
                0.257907872909129,
                1.109780538644169
            ]
        },
        {
            "positions": [
                1.28245197708581,
                -1.5749196374879229,
                -0.6120910931825805,
                0.38360166837850684,
                0.28199065621645947,
                1.1943360643218794
            ]
        },
        {
            "positions": [
                1.3520802797747313,
                -1.5438659970387838,
                -0.5050594579901149,
                0.31406995395173953,
                0.30607343952378996,
                1.27889158999959
            ]
        },
        {
            "positions": [
                1.4217085824636522,
                -1.5128123565896447,
                -0.3980278227976499,
                0.24453823952497267,
                0.33015622283112045,
                1.3634471156773005
            ]
        },
        {
            "positions": [
                1.4913368851525735,
                -1.4817587161405057,
                -0.290996187605185,
                0.1750065250982058,
                0.35423900613845083,
                1.4480026413550109
            ]
        },
        {
            "positions": [
                1.5609651878414947,
                -1.4507050756913669,
                -0.18396455241272003,
                0.10547481067143893,
                0.3783217894457813,
                1.5325581670327215
            ]
        },
        {
            "positions": [
                1.630593490530416,
                -1.4196514352422278,
                -0.0769329172202542,
                0.035943096244671846,
                0.4024045727531119,
                1.6171136927104321
            ]
        },
        {
            "positions": [
                1.7002217932193373,
                -1.388597794793089,
                0.030098717972210753,
                -0.03358861818209502,
                0.4264873560604423,
                1.7016692183881428
            ]
        },
        {
            "positions": [
                1.7698500959082581,
                -1.35754415434395,
                0.1371303531646757,
                -0.10312033260886189,
                0.4505701393677728,
                1.786224744065853
            ]
        },
        {
            "positions": [
                1.8394783985971794,
                -1.3264905138948109,
                0.24416198835714065,
                -0.17265204703562875,
                0.4746529226751033,
                1.8707802697435636
            ]
        },
        {
            "positions": [
                1.9091067012861007,
                -1.2954368734456718,
                0.35119362354960604,
                -0.24218376146239584,
                0.4987357059824338,
                1.9553357954212742
            ]
        },
        {
            "positions": [
                1.978735003975022,
                -1.264383232996533,
                0.45822525874207143,
                -0.3117154758891627,
                0.5228184892897643,
                2.039891321098985
            ]
        },
        {
            "positions": [
                2.048363306663943,
                -1.2333295925473942,
                0.5652568939345364,
                -0.38124719031592935,
                0.5469012725970946,
                2.1244468467766953
            ]
        },
        {
            "positions": [
                2.117991609352864,
                -1.202275952098255,
                0.6722885291270013,
                -0.45077890474269644,
                0.5709840559044251,
                2.209002372454406
            ]
        },
        {
            "positions": [
                2.1876199120417854,
                -1.171222311649116,
                0.7793201643194667,
                -0.5203106191694635,
                0.5950668392117557,
                2.2935578981321165
            ]
        },
        {
            "positions": [
                2.2572482147307062,
                -1.140168671199977,
                0.8863517995119321,
                -0.5898423335962306,
                0.6191496225190861,
                2.3781134238098267
            ]
        },
        {
            "positions": [
                2.3268765174196275,
                -1.1091150307508382,
                0.9933834347043968,
                -0.6593740480229972,
                0.6432324058264166,
                2.4626689494875373
            ]
        },
        {
            "positions": [
                2.370026822840914,
                -1.095537877094056,
                1.1121037192896694,
                -0.6762633676284567,
                0.7024814493933319,
                2.563779756449321
            ]
        },
        {
            "positions": [
                2.4131771282622,
                -1.081960723437274,
                1.2308240038749418,
                -0.6931526872339164,
                0.7617304929602472,
                2.6648905634111055
            ]
        },
        {
            "positions": [
                2.4563274336834864,
                -1.0683835697804918,
                1.3495442884602145,
                -0.710042006839376,
                0.8209795365271625,
                2.7660013703728894
            ]
        },
        {
            "positions": [
                2.4994777391047722,
                -1.0548064161237098,
                1.4682645730454869,
                -0.7269313264448356,
                0.8802285800940779,
                2.8671121773346737
            ]
        },
        {
            "positions": [
                2.5426280445260585,
                -1.0412292624669277,
                1.5869848576307595,
                -0.7438206460502952,
                0.9394776236609932,
                2.9682229842964576
            ]
        },
        {
            "positions": [
                2.585778349947345,
                -1.0276521088101456,
                1.7057051422160319,
                -0.7607099656557549,
                0.9987266672279085,
                3.0693337912582415
            ]
        },
        {
            "positions": [
                2.628928655368631,
                -1.0140749551533634,
                1.8244254268013045,
                -0.7775992852612145,
                1.0579757107948238,
                3.1704445982200258
            ]
        }
    ]
}