{
    "goal": {
        "global_pose": {
            "orientation": {
                "w": 0.005598929693374612,
                "x": 0.007748599140229565,
                "y": 0.7110244013736278,
                "z": -0.7031023480610252
            },
            "position": {
                "x": 0.1141497679147869,
                "y": -0.7141253447532654,
                "z": 0.3711530566215515
            }
        },
        "name": "move_to_auspresseinheit_B"
    },
    "id": "BKPIECE_move_to_auspresseinheit_B_138",
    "joint_names": [
        "shoulder_pan_joint",
        "shoulder_lift_joint",
        "elbow_joint",
        "wrist_1_joint",
        "wrist_2_joint",
        "wrist_3_joint"
    ],
    "metrics": {
        "cart_traj_len": 0.5654954689433445,
        "distance_elbow_joint": 0.06620688152695409,
        "distance_shoulder_lift_joint": 0.2930938406026877,
        "distance_shoulder_pan_joint": 0.5770379692258327,
        "distance_wrist_1_joint": 0.3351302877371001,
        "distance_wrist_2_joint": 0.9963935809193667,
        "distance_wrist_3_joint": 0.0020177491229111943,
        "smoothness": 3.806478935924272e-16,
        "time": 0.24423108400000001,
        "traj_len": 1.5066121959996384,
        "weighted_distance": 1.8987995355058263
    },
    "planner": "BKPIECE",
    "start": {
        "state": {
            "elbow_joint": 2.0193061681459312,
            "shoulder_lift_joint": -1.1220205130644991,
            "shoulder_pan_joint": -1.0952072088045026,
            "wrist_1_joint": -0.8559671810662515,
            "wrist_2_joint": 0.4759638712940361,
            "wrist_3_joint": 3.159081874192446
        }
    },
    "waypoints": [
        {
            "positions": [
                -1.0952072088045026,
                -1.1220205130644991,
                2.0193061681459312,
                -0.8559671810662515,
                0.4759638712940361,
                3.159081874192446
            ]
        },
        {
            "positions": [
                -1.1913802036754748,
                -1.1708694864982805,
                2.008271687891439,
                -0.8001121331100681,
                0.6420294681139306,
                3.158745582671961
            ]
        },
        {
            "positions": [
                -1.2875531985464468,
                -1.2197184599320616,
                1.9972372076369465,
                -0.7442570851538848,
                0.808095064933825,
                3.1584092911514756
            ]
        },
        {
            "positions": [
                -1.383726193417419,
                -1.268567433365843,
                1.9862027273824543,
                -0.6884020371977014,
                0.9741606617537195,
                3.15807299963099
            ]
        },
        {
            "positions": [
                -1.4798991882883912,
                -1.3174164067996244,
                1.975168247127962,
                -0.6325469892415181,
                1.1402262585736138,
                3.157736708110505
            ]
        },
        {
            "positions": [
                -1.5760721831593631,
                -1.3662653802334055,
                1.9641337668734695,
                -0.5766919412853347,
                1.3062918553935083,
                3.1574004165900202
            ]
        },
        {
            "positions": [
                -1.6722451780303353,
                -1.4151143536671869,
                1.9530992866189771,
                -0.5208368933291514,
                1.4723574522134029,
                3.157064125069535
            ]
        }
    ]
}