{
    "goal": {
        "global_pose": {
            "orientation": {
                "w": 0.7031023502349854,
                "x": -0.7110244035720825,
                "y": 0.007748599164187908,
                "z": 0.005598929710686207
            },
            "position": {
                "x": 0.11585023208521307,
                "y": 0.44412534475326537,
                "z": 0.3711530566215515
            }
        },
        "name": "move_to_auspresseinheit_A"
    },
    "id": "BKPIECE_move_to_auspresseinheit_A_114",
    "joint_names": [
        "shoulder_pan_joint",
        "shoulder_lift_joint",
        "elbow_joint",
        "wrist_1_joint",
        "wrist_2_joint",
        "wrist_3_joint"
    ],
    "metrics": {
        "cart_traj_len": 0.751031821942935,
        "distance_elbow_joint": 0.6353749034335503,
        "distance_shoulder_lift_joint": 1.2625643916924787,
        "distance_shoulder_pan_joint": 1.0439668941131592,
        "distance_wrist_1_joint": 0.5588441653897545,
        "distance_wrist_2_joint": 0.5277692870295378,
        "distance_wrist_3_joint": 0.8447355851369993,
        "smoothness": 1.1305847603453607,
        "time": 0.182095098,
        "traj_len": 2.2075450678967985,
        "weighted_distance": 2.7657439956526653
    },
    "planner": "BKPIECE",
    "start": {
        "state": {
            "elbow_joint": 2.4225746994637096,
            "shoulder_lift_joint": -1.373653595662188,
            "shoulder_pan_joint": -0.3378633848294565,
            "wrist_1_joint": -1.0288595594406726,
            "wrist_2_joint": 1.2330228066703421,
            "wrist_3_joint": 3.189163495502006
        }
    },
    "waypoints": [
        {
            "positions": [
                -0.3378633848294565,
                -1.373653595662188,
                2.4225746994637096,
                -1.0288595594406726,
                1.2330228066703421,
                3.189163495502006
            ]
        },
        {
            "positions": [
                -0.23285857265882065,
                -1.4859817212590511,
                2.4604744370707774,
                -0.9897648068829341,
                1.1878270185385658,
                3.133272470230898
            ]
        },
        {
            "positions": [
                -0.1278537604881848,
                -1.5983098468559143,
                2.498374174677845,
                -0.9506700543251955,
                1.1426312304067894,
                3.07738144495979
            ]
        },
        {
            "positions": [
                -0.022848948317548967,
                -1.7106379724527772,
                2.536273912284913,
                -0.9115753017674569,
                1.097435442275013,
                3.021490419688682
            ]
        },
        {
            "positions": [
                0.08215586385308687,
                -1.8229660980496403,
                2.5741736498919807,
                -0.8724805492097183,
                1.0522396541432366,
                2.9655993944175743
            ]
        },
        {
            "positions": [
                0.18716067602372272,
                -1.9352942236465034,
                2.6120733874990485,
                -0.8333857966519798,
                1.0070438660114605,
                2.9097083691464665
            ]
        },
        {
            "positions": [
                0.29216548819435856,
                -2.0476223492433663,
                2.6499731251061163,
                -0.7942910440942412,
                0.9618480778796841,
                2.8538173438753587
            ]
        },
        {
            "positions": [
                0.3971703003649944,
                -2.1599504748402296,
                2.687872862713184,
                -0.7551962915365027,
                0.9166522897479077,
                2.7979263186042505
            ]
        },
        {
            "positions": [
                0.5021751125356302,
                -2.2722786004370925,
                2.725772600320252,
                -0.716101538978764,
                0.8714565016161313,
                2.7420352933331427
            ]
        },
        {
            "positions": [
                0.5429607918852447,
                -2.199490723053578,
                2.6593371998048503,
                -0.6668843099931949,
                0.8382159052210659,
                2.82155676992677
            ]
        },
        {
            "positions": [
                0.5837464712348592,
                -2.1267028456700627,
                2.5929017992894487,
                -0.6176670810076257,
                0.8049753088260005,
                2.901078246520397
            ]
        },
        {
            "positions": [
                0.6245321505844738,
                -2.053914968286548,
                2.5264663987740468,
                -0.5684498520220564,
                0.771734712430935,
                2.9805997231140244
            ]
        },
        {
            "positions": [
                0.6653178299340883,
                -1.9811270909030332,
                2.4600309982586452,
                -0.5192326230364873,
                0.7384941160358697,
                3.060121199707652
            ]
        },
        {
            "positions": [
                0.7061035092837028,
                -1.9083392135195183,
                2.3935955977432437,
                -0.47001539405091813,
                0.7052535196408043,
                3.139642676301279
            ]
        }
    ]
}