{
    "goal": {
        "global_pose": {
            "orientation": {
                "w": 0.7047431468963623,
                "x": -0.7094548344612122,
                "y": 0.0024358443915843964,
                "z": -0.0022348060738295317
            },
            "position": {
                "x": 0.6094750761985779,
                "y": 0.3671506643295288,
                "z": 0.19426114857196808
            }
        },
        "name": "move_to_magneteinheit_A"
    },
    "id": "BKPIECE_move_to_magneteinheit_A_126",
    "joint_names": [
        "shoulder_pan_joint",
        "shoulder_lift_joint",
        "elbow_joint",
        "wrist_1_joint",
        "wrist_2_joint",
        "wrist_3_joint"
    ],
    "metrics": {
        "cart_traj_len": 1.960936903334172,
        "distance_elbow_joint": 3.563877504632295,
        "distance_shoulder_lift_joint": 0.7825433562463454,
        "distance_shoulder_pan_joint": 1.2419285211578843,
        "distance_wrist_1_joint": 1.224438102600496,
        "distance_wrist_2_joint": 1.4426608950642723,
        "distance_wrist_3_joint": 2.0446534803616805,
        "smoothness": 2.631639764355545e-16,
        "time": 0.16005911,
        "traj_len": 3.209377176347924,
        "weighted_distance": 4.129952520120674
    },
    "planner": "BKPIECE",
    "start": {
        "state": {
            "elbow_joint": -1.5739458827952972,
            "shoulder_lift_joint": 0.006533473998580023,
            "shoulder_pan_joint": -1.1188671628667068,
            "wrist_1_joint": 3.138208179676308,
            "wrist_2_joint": -1.5706037135050406,
            "wrist_3_joint": -2.0226958329764257
        }
    },
    "waypoints": [
        {
            "positions": [
                -1.1188671628667068,
                0.006533473998580023,
                -1.5739458827952972,
                3.138208179676308,
                -1.5706037135050406,
                -2.0226958329764257
            ]
        },
        {
            "positions": [
                -1.0711006812837114,
                -0.023564347395510186,
                -1.4368736710786705,
                3.091114406499366,
                -1.5151167560025685,
                -1.9440553145009765
            ]
        },
        {
            "positions": [
                -1.0233341997007157,
                -0.053662168789600395,
                -1.2998014593620437,
                3.044020633322424,
                -1.4596297985000966,
                -1.8654147960255272
            ]
        },
        {
            "positions": [
                -0.9755677181177203,
                -0.08375999018369061,
                -1.162729247645417,
                2.9969268601454817,
                -1.4041428409976247,
                -1.786774277550078
            ]
        },
        {
            "positions": [
                -0.9278012365347246,
                -0.11385781157778081,
                -1.0256570359287904,
                2.9498330869685394,
                -1.3486558834951525,
                -1.7081337590746286
            ]
        },
        {
            "positions": [
                -0.8800347549517291,
                -0.143955632971871,
                -0.8885848242121636,
                2.9027393137915976,
                -1.2931689259926804,
                -1.6294932405991795
            ]
        },
        {
            "positions": [
                -0.8322682733687335,
                -0.17405345436596123,
                -0.7515126124955368,
                2.8556455406146553,
                -1.2376819684902085,
                -1.5508527221237303
            ]
        },
        {
            "positions": [
                -0.784501791785738,
                -0.2041512757600514,
                -0.6144404007789103,
                2.808551767437713,
                -1.1821950109877366,
                -1.472212203648281
            ]
        },
        {
            "positions": [
                -0.7367353102027424,
                -0.23424909715414163,
                -0.4773681890622834,
                2.761457994260771,
                -1.1267080534852645,
                -1.3935716851728317
            ]
        },
        {
            "positions": [
                -0.6889688286197468,
                -0.26434691854823184,
                -0.34029597734565686,
                2.714364221083829,
                -1.0712210959827924,
                -1.3149311666973826
            ]
        },
        {
            "positions": [
                -0.6412023470367514,
                -0.29444473994232206,
                -0.20322376562902988,
                2.6672704479068865,
                -1.0157341384803205,
                -1.2362906482219334
            ]
        },
        {
            "positions": [
                -0.5934358654537558,
                -0.3245425613364123,
                -0.06615155391240335,
                2.6201766747299446,
                -0.9602471809778484,
                -1.157650129746484
            ]
        },
        {
            "positions": [
                -0.5456693838707602,
                -0.3546403827305025,
                0.07092065780422363,
                2.5730829015530023,
                -0.9047602234753764,
                -1.0790096112710348
            ]
        },
        {
            "positions": [
                -0.4979029022877647,
                -0.3847382041245927,
                0.20799286952085017,
                2.52598912837606,
                -0.8492732659729044,
                -1.0003690927955855
            ]
        },
        {
            "positions": [
                -0.4501364207047691,
                -0.41483602551868287,
                0.3450650812374767,
                2.478895355199118,
                -0.7937863084704324,
                -0.9217285743201362
            ]
        },
        {
            "positions": [
                -0.40236993912177366,
                -0.4449338469127731,
                0.48213729295410324,
                2.431801582022176,
                -0.7382993509679605,
                -0.8430880558446872
            ]
        },
        {
            "positions": [
                -0.354603457538778,
                -0.47503166830686333,
                0.6192095046707304,
                2.3847078088452336,
                -0.6828123934654884,
                -0.7644475373692377
            ]
        },
        {
            "positions": [
                -0.3068369759557825,
                -0.5051294897009535,
                0.7562817163873572,
                2.3376140356682917,
                -0.6273254359630164,
                -0.6858070188937886
            ]
        },
        {
            "positions": [
                -0.25907049437278695,
                -0.5352273110950436,
                0.8933539281039835,
                2.2905202624913494,
                -0.5718384784605444,
                -0.6071665004183393
            ]
        },
        {
            "positions": [
                -0.21130401278979138,
                -0.5653251324891339,
                1.0304261398206103,
                2.243426489314407,
                -0.5163515209580725,
                -0.52852598194289
            ]
        },
        {
            "positions": [
                -0.16353753120679582,
                -0.5954229538832241,
                1.1674983515372375,
                2.196332716137465,
                -0.46086456345560034,
                -0.44988546346744074
            ]
        },
        {
            "positions": [
                -0.11577104962380025,
                -0.6255207752773143,
                1.3045705632538642,
                2.149238942960523,
                -0.4053776059531282,
                -0.37124494499199145
            ]
        },
        {
            "positions": [
                -0.06800456804080479,
                -0.6556185966714045,
                1.4416427749704905,
                2.1021451697835807,
                -0.3498906484506563,
                -0.29260442651654217
            ]
        },
        {
            "positions": [
                -0.020238086457809112,
                -0.6857164180654947,
                1.5787149866871173,
                2.055051396606639,
                -0.2944036909481844,
                -0.2139639080410931
            ]
        },
        {
            "positions": [
                0.027528395125186345,
                -0.715814239459585,
                1.7157871984037445,
                2.0079576234296965,
                -0.2389167334457123,
                -0.1353233895656436
            ]
        },
        {
            "positions": [
                0.07529487670818202,
                -0.7459120608536751,
                1.8528594101203708,
                1.9608638502527542,
                -0.18342977594324017,
                -0.05668287109019454
            ]
        },
        {
            "positions": [
                0.12306135829117752,
                -0.7760098822477653,
                1.9899316218369978,
                1.9137700770758121,
                -0.12794281844076824,
                0.02195764738525473
            ]
        }
    ]
}