{
    "goal": {
        "global_pose": {
            "orientation": {
                "w": 0.7047431493862688,
                "x": -0.7094548369677653,
                "y": 0.0024358444001904,
                "z": -0.0022348060817251984
            },
            "position": {
                "x": -0.39052492380142206,
                "y": 0.3671506643295288,
                "z": 0.19426114857196808
            }
        },
        "name": "move_to_magneteinheit_D"
    },
    "id": "BKPIECE_move_to_magneteinheit_D_106",
    "joint_names": [
        "shoulder_pan_joint",
        "shoulder_lift_joint",
        "elbow_joint",
        "wrist_1_joint",
        "wrist_2_joint",
        "wrist_3_joint"
    ],
    "metrics": {
        "cart_traj_len": 4.244739527502585,
        "distance_elbow_joint": 3.188491711407885,
        "distance_shoulder_lift_joint": 1.6506407299173633,
        "distance_shoulder_pan_joint": 3.361354219623898,
        "distance_wrist_1_joint": 1.5277796266228945,
        "distance_wrist_2_joint": 0.8298861944778937,
        "distance_wrist_3_joint": 4.894566063824803,
        "smoothness": 0.2915535644337327,
        "time": 0.25307503400000003,
        "traj_len": 3.930994600082114,
        "weighted_distance": 5.2535241975863345
    },
    "planner": "BKPIECE",
    "start": {
        "state": {
            "elbow_joint": 0.7495348899011911,
            "shoulder_lift_joint": -0.6476975780737668,
            "shoulder_pan_joint": -2.711696901376276,
            "wrist_1_joint": -0.0750647808097303,
            "wrist_2_joint": 0.43296659715458535,
            "wrist_3_joint": 3.1361499051832418
        }
    },
    "waypoints": [
        {
            "positions": [
                -2.711696901376276,
                -0.6476975780737668,
                0.7495348899011911,
                -0.0750647808097303,
                0.43296659715458535,
                3.1361499051832418
            ]
        },
        {
            "positions": [
                -2.7255500414216143,
                -0.6447919844717237,
                0.7341279445846671,
                -0.03730664454032834,
                0.39677660530545344,
                2.9000531435736034
            ]
        },
        {
            "positions": [
                -2.739403181466952,
                -0.6418863908696806,
                0.718720999268143,
                0.00045149172907361923,
                0.3605866134563216,
                2.6639563819639647
            ]
        },
        {
            "positions": [
                -2.75325632151229,
                -0.6389807972676375,
                0.703314053951619,
                0.038209627998475576,
                0.3243966216071897,
                2.427859620354326
            ]
        },
        {
            "positions": [
                -2.767109461557628,
                -0.6360752036655943,
                0.687907108635095,
                0.07596776426787755,
                0.2882066297580578,
                2.1917628587446876
            ]
        },
        {
            "positions": [
                -2.768592337751797,
                -0.6413348631653613,
                0.6676507333525019,
                0.11356661179519001,
                0.24021810035804733,
                1.9234280002484576
            ]
        },
        {
            "positions": [
                -2.7700752139459657,
                -0.6465945226651282,
                0.6473943580699087,
                0.15116545932250247,
                0.1922295709580369,
                1.6550931417522274
            ]
        },
        {
            "positions": [
                -2.771558090140134,
                -0.6518541821648951,
                0.6271379827873156,
                0.18876430684981496,
                0.14424104155802642,
                1.3867582832559973
            ]
        },
        {
            "positions": [
                -2.773040966334303,
                -0.657113841664662,
                0.6068816075047225,
                0.22636315437712742,
                0.09625251215801597,
                1.1184234247597673
            ]
        },
        {
            "positions": [
                -2.6559220607106804,
                -0.7087042902498092,
                0.5102004385233828,
                0.23959454227360208,
                0.08622577930131793,
                1.024961645625083
            ]
        },
        {
            "positions": [
                -2.538803155087058,
                -0.7602947388349564,
                0.41351926954204304,
                0.25282593017007676,
                0.07619904644461989,
                0.9314998664903984
            ]
        },
        {
            "positions": [
                -2.421684249463435,
                -0.8118851874201035,
                0.31683810056070333,
                0.2660573180665514,
                0.06617231358792186,
                0.8380380873557141
            ]
        },
        {
            "positions": [
                -2.3045653438398124,
                -0.8634756360052507,
                0.22015693157936356,
                0.2792887059630261,
                0.05614558073122382,
                0.7445763082210295
            ]
        },
        {
            "positions": [
                -2.18744643821619,
                -0.9150660845903977,
                0.12347576259802384,
                0.29252009385950073,
                0.04611884787452578,
                0.6511145290863452
            ]
        },
        {
            "positions": [
                -2.070327532592567,
                -0.966656533175545,
                0.026794593616684126,
                0.3057514817559754,
                0.03609211501782774,
                0.5576527499516607
            ]
        },
        {
            "positions": [
                -1.9532086269689444,
                -1.018246981760692,
                -0.06988657536465559,
                0.31898286965245004,
                0.026065382161129705,
                0.46419097081697624
            ]
        },
        {
            "positions": [
                -1.8360897213453218,
                -1.0698374303458393,
                -0.16656774434599542,
                0.3322142575489247,
                0.016038649304431662,
                0.3707291916822918
            ]
        },
        {
            "positions": [
                -1.718970815721699,
                -1.1214278789309864,
                -0.26324891332733513,
                0.34544564544539935,
                0.006011916447733634,
                0.27726741254760734
            ]
        },
        {
            "positions": [
                -1.6018519100980764,
                -1.1730183275161337,
                -0.35993008230867485,
                0.358677033341874,
                -0.004014816408964408,
                0.1838056334129229
            ]
        },
        {
            "positions": [
                -1.4847330044744536,
                -1.224608776101281,
                -0.4566112512900147,
                0.37190842123834866,
                -0.014041549265662465,
                0.09034385427823843
            ]
        },
        {
            "positions": [
                -1.367614098850831,
                -1.2761992246864278,
                -0.5532924202713543,
                0.3851398091348233,
                -0.024068282122360493,
                -0.0031179248564459083
            ]
        },
        {
            "positions": [
                -1.2504951932272081,
                -1.327789673271575,
                -0.6499735892526941,
                0.398371197031298,
                -0.034095014979058536,
                -0.09657970399113047
            ]
        },
        {
            "positions": [
                -1.1333762876035856,
                -1.3793801218567223,
                -0.7466547582340337,
                0.41160258492777263,
                -0.044121747835756564,
                -0.19004148312581481
            ]
        },
        {
            "positions": [
                -1.0162573819799627,
                -1.4309705704418694,
                -0.8433359272153735,
                0.4248339728242473,
                -0.05414848069245462,
                -0.2835032622604994
            ]
        },
        {
            "positions": [
                -0.8991384763563404,
                -1.4825610190270164,
                -0.9400170961967134,
                0.43806536072072194,
                -0.06417521354915265,
                -0.3769650413951837
            ]
        },
        {
            "positions": [
                -0.7820195707327176,
                -1.5341514676121637,
                -1.0366982651780532,
                0.4512967486171966,
                -0.0742019464058507,
                -0.4704268205298683
            ]
        },
        {
            "positions": [
                -0.6649006651090947,
                -1.585741916197311,
                -1.1333794341593928,
                0.46452813651367125,
                -0.0842286792625487,
                -0.5638885996645526
            ]
        },
        {
            "positions": [
                -0.5477817594854719,
                -1.637332364782458,
                -1.2300606031407326,
                0.4777595244101459,
                -0.09425541211924676,
                -0.6573503787992372
            ]
        },
        {
            "positions": [
                -0.43066285386184955,
                -1.688922813367605,
                -1.3267417721220722,
                0.4909909123066206,
                -0.10428214497594479,
                -0.7508121579339215
            ]
        },
        {
            "positions": [
                -0.3135439482382265,
                -1.7405132619527524,
                -1.423422941103412,
                0.5042223002030952,
                -0.11430887783264285,
                -0.8442739370686061
            ]
        },
        {
            "positions": [
                -0.26563710287287257,
                -1.7627898431782851,
                -1.493546183498594,
                0.5440914824180919,
                -0.10390722305881217,
                -0.7900364208549776
            ]
        },
        {
            "positions": [
                -0.21773025750751857,
                -1.785066424403818,
                -1.5636694258937756,
                0.5839606646330886,
                -0.0935055682849815,
                -0.7357989046413491
            ]
        },
        {
            "positions": [
                -0.16908568049411568,
                -1.8222229325412063,
                -1.6701588149276592,
                0.6601457320660913,
                -0.07046947077155977,
                -0.6680466883637712
            ]
        },
        {
            "positions": [
                -0.12044110348071281,
                -1.8593794406785946,
                -1.7766482039615428,
                0.736330799499094,
                -0.047433373258138053,
                -0.6002944720861935
            ]
        },
        {
            "positions": [
                -0.07179652646730994,
                -1.8965359488159832,
                -1.8831375929954266,
                0.8125158669320967,
                -0.02439727574471634,
                -0.5325422558086156
            ]
        },
        {
            "positions": [
                -0.023151949453907056,
                -1.9336924569533716,
                -1.9896269820293102,
                0.8887009343650993,
                -0.001361178231294613,
                -0.46479003953103776
            ]
        },
        {
            "positions": [
                0.02549262755949583,
                -1.97084896509076,
                -2.096116371063194,
                0.964886001798102,
                0.021674919282127114,
                -0.39703782325345993
            ]
        },
        {
            "positions": [
                0.07413720457289869,
                -2.0080054732281485,
                -2.2026057600970774,
                1.0410710692311047,
                0.044711016795548814,
                -0.32928560697588205
            ]
        },
        {
            "positions": [
                0.1227817815863016,
                -2.0451619813655366,
                -2.309095149130961,
                1.1172561366641074,
                0.06774711430897054,
                -0.2615333906983042
            ]
        },
        {
            "positions": [
                0.17142635859970445,
                -2.082318489502925,
                -2.4155845381648446,
                1.19344120409711,
                0.09078321182239227,
                -0.1937811744207264
            ]
        },
        {
            "positions": [
                0.05291208202241629,
                -2.1465768460602117,
                -2.407793777050895,
                1.2798657513357947,
                0.11662275510093575,
                -0.10589802144570068
            ]
        },
        {
            "positions": [
                -0.06560219455487187,
                -2.2108352026174987,
                -2.4000030159369454,
                1.3662902985744794,
                0.14246229837947924,
                -0.01801486847067496
            ]
        },
        {
            "positions": [
                -0.18411647113216006,
                -2.275093559174785,
                -2.392212254822996,
                1.452714845813164,
                0.16830184165802273,
                0.06986828450435081
            ]
        }
    ]
}