{
    "goal": {
        "global_pose": {
            "orientation": {
                "w": 0.7031023480610252,
                "x": -0.7110244013736278,
                "y": 0.0077485991402295624,
                "z": 0.005598929693374583
            },
            "position": {
                "x": -0.8841497679147869,
                "y": 0.44412534475326537,
                "z": 0.3711530566215515
            }
        },
        "name": "move_to_auspresseinheit_D"
    },
    "id": "BKPIECE_move_to_auspresseinheit_D_4",
    "joint_names": [
        "shoulder_pan_joint",
        "shoulder_lift_joint",
        "elbow_joint",
        "wrist_1_joint",
        "wrist_2_joint",
        "wrist_3_joint"
    ],
    "metrics": {
        "cart_traj_len": 0.34551704558888047,
        "distance_elbow_joint": 0.6753700353453853,
        "distance_shoulder_lift_joint": 0.1421256550597607,
        "distance_shoulder_pan_joint": 0.1343985397542422,
        "distance_wrist_1_joint": 0.6445064106465455,
        "distance_wrist_2_joint": 1.4440608701288387,
        "distance_wrist_3_joint": 0.10171639670860388,
        "smoothness": 0.0,
        "time": 0.12381020699999999,
        "traj_len": 1.7726189403375379,
        "weighted_distance": 2.3311323389794856
    },
    "planner": "BKPIECE",
    "start": {
        "state": {
            "elbow_joint": -1.8275484843655228,
            "shoulder_lift_joint": -2.1267897864000416,
            "shoulder_pan_joint": -0.035127520176001514,
            "wrist_1_joint": -2.3477863256791385,
            "wrist_2_joint": -1.605890476484521,
            "wrist_3_joint": -3.0880375317375353
        }
    },
    "waypoints": [
        {
            "positions": [
                -0.035127520176001514,
                -2.1267897864000416,
                -1.8275484843655228,
                -2.3477863256791385,
                -1.605890476484521,
                -3.0880375317375353
            ]
        },
        {
            "positions": [
                -0.05192733764528179,
                -2.1445554932825117,
                -1.7431272299473495,
                -2.4283496270099567,
                -1.4253828677184162,
                -3.07532298214896
            ]
        },
        {
            "positions": [
                -0.06872715511456207,
                -2.162321200164982,
                -1.6587059755291764,
                -2.508912928340775,
                -1.2448752589523113,
                -3.0626084325603844
            ]
        },
        {
            "positions": [
                -0.08552697258384234,
                -2.180086907047452,
                -1.5742847211110034,
                -2.589476229671593,
                -1.0643676501862065,
                -3.049893882971809
            ]
        },
        {
            "positions": [
                -0.10232679005312262,
                -2.197852613929922,
                -1.48986346669283,
                -2.670039531002411,
                -0.8838600414201017,
                -3.037179333383233
            ]
        },
        {
            "positions": [
                -0.1191266075224029,
                -2.215618320812392,
                -1.4054422122746568,
                -2.750602832333229,
                -0.7033524326539968,
                -3.0244647837946577
            ]
        },
        {
            "positions": [
                -0.13592642499168317,
                -2.233384027694862,
                -1.3210209578564838,
                -2.8311661336640475,
                -0.522844823887892,
                -3.0117502342060822
            ]
        },
        {
            "positions": [
                -0.15272624246096345,
                -2.251149734577332,
                -1.2365997034383107,
                -2.9117294349948657,
                -0.34233721512178716,
                -2.999035684617507
            ]
        },
        {
            "positions": [
                -0.16952605993024372,
                -2.2689154414598023,
                -1.1521784490201374,
                -2.992292736325684,
                -0.16182960635568241,
                -2.9863211350289314
            ]
        }
    ]
}