{
    "goal": {
        "global_pose": {
            "orientation": {
                "w": 0.005598929693374612,
                "x": 0.007748599140229565,
                "y": 0.7110244013736278,
                "z": -0.7031023480610252
            },
            "position": {
                "x": 0.1141497679147869,
                "y": -0.7141253447532654,
                "z": 0.3711530566215515
            }
        },
        "name": "move_to_auspresseinheit_B"
    },
    "id": "BKPIECE_move_to_auspresseinheit_B_42",
    "joint_names": [
        "shoulder_pan_joint",
        "shoulder_lift_joint",
        "elbow_joint",
        "wrist_1_joint",
        "wrist_2_joint",
        "wrist_3_joint"
    ],
    "metrics": {
        "cart_traj_len": 4.296421551643369,
        "distance_elbow_joint": 4.131088810875205,
        "distance_shoulder_lift_joint": 0.6009990778319421,
        "distance_shoulder_pan_joint": 3.1435942144044478,
        "distance_wrist_1_joint": 1.7468193170857638,
        "distance_wrist_2_joint": 2.3414411496832512,
        "distance_wrist_3_joint": 6.271641723665291,
        "smoothness": 0.0704928413636226,
        "time": 0.33332751299999996,
        "traj_len": 4.270314308519445,
        "weighted_distance": 5.9048393888102915
    },
    "planner": "BKPIECE",
    "start": {
        "state": {
            "elbow_joint": 2.0193061681459312,
            "shoulder_lift_joint": -1.1220205130644991,
            "shoulder_pan_joint": -1.0952072088045026,
            "wrist_1_joint": -0.8559671810662515,
            "wrist_2_joint": 0.4759638712940361,
            "wrist_3_joint": 3.159081874192446
        }
    },
    "waypoints": [
        {
            "positions": [
                -1.0952072088045026,
                -1.1220205130644991,
                2.0193061681459312,
                -0.8559671810662515,
                0.4759638712940361,
                3.159081874192446
            ]
        },
        {
            "positions": [
                -1.029494966641226,
                -1.1296346364566816,
                1.9198000282403602,
                -0.8944024329265964,
                0.4244507460096417,
                3.0316947179309848
            ]
        },
        {
            "positions": [
                -0.9637827244779495,
                -1.1372487598488639,
                1.8202938883347892,
                -0.9328376847869413,
                0.37293762072524733,
                2.904307561669524
            ]
        },
        {
            "positions": [
                -0.898070482314673,
                -1.1448628832410463,
                1.7207877484292182,
                -0.9712729366472862,
                0.32142449544085294,
                2.7769204054080627
            ]
        },
        {
            "positions": [
                -0.8323582401513965,
                -1.1524770066332288,
                1.6212816085236474,
                -1.009708188507631,
                0.2699113701564585,
                2.6495332491466015
            ]
        },
        {
            "positions": [
                -0.7666459979881199,
                -1.160091130025411,
                1.5217754686180764,
                -1.0481434403679761,
                0.2183982448720641,
                2.5221460928851407
            ]
        },
        {
            "positions": [
                -0.7009337558248434,
                -1.1677052534175936,
                1.4222693287125054,
                -1.086578692228321,
                0.16688511958766972,
                2.3947589366236794
            ]
        },
        {
            "positions": [
                -0.6352215136615669,
                -1.175319376809776,
                1.3227631888069347,
                -1.125013944088666,
                0.11537199430327533,
                2.267371780362218
            ]
        },
        {
            "positions": [
                -0.5695092714982903,
                -1.1829335002019583,
                1.2232570489013637,
                -1.1634491959490108,
                0.06385886901888094,
                2.139984624100757
            ]
        },
        {
            "positions": [
                -0.5037970293350138,
                -1.1905476235941408,
                1.1237509089957927,
                -1.2018844478093558,
                0.012345743734486547,
                2.012597467839296
            ]
        },
        {
            "positions": [
                -0.43808478717173727,
                -1.1981617469863233,
                1.0242447690902217,
                -1.2403196996697006,
                -0.0391673815499079,
                1.8852103115778351
            ]
        },
        {
            "positions": [
                -0.37237254500846073,
                -1.2057758703785055,
                0.9247386291846507,
                -1.2787549515300456,
                -0.09068050683430234,
                1.757823155316374
            ]
        },
        {
            "positions": [
                -0.3066603028451842,
                -1.213389993770688,
                0.8252324892790797,
                -1.3171902033903904,
                -0.14219363211869668,
                1.6304359990549129
            ]
        },
        {
            "positions": [
                -0.24094806068190766,
                -1.2210041171628705,
                0.7257263493735087,
                -1.3556254552507354,
                -0.19370675740309112,
                1.5030488427934516
            ]
        },
        {
            "positions": [
                -0.17523581851863113,
                -1.2286182405550528,
                0.6262202094679379,
                -1.3940607071110802,
                -0.24521988268748546,
                1.3756616865319906
            ]
        },
        {
            "positions": [
                -0.10952357635535459,
                -1.2362323639472352,
                0.5267140695623667,
                -1.4324959589714252,
                -0.2967330079718799,
                1.2482745302705294
            ]
        },
        {
            "positions": [
                -0.043811334192078055,
                -1.2438464873394177,
                0.4272079296567959,
                -1.47093121083177,
                -0.34824613325627424,
                1.1208873740090683
            ]
        },
        {
            "positions": [
                0.02190090797119848,
                -1.2514606107316,
                0.3277017897512249,
                -1.509366462692115,
                -0.3997592585406687,
                0.9935002177476071
            ]
        },
        {
            "positions": [
                0.08761315013447502,
                -1.2590747341237825,
                0.22819564984565388,
                -1.54780171455246,
                -0.451272383825063,
                0.8661130614861463
            ]
        },
        {
            "positions": [
                0.15332539229775155,
                -1.2666888575159647,
                0.12868950994008288,
                -1.5862369664128049,
                -0.5027855091094575,
                0.7387259052246851
            ]
        },
        {
            "positions": [
                0.21903763446102809,
                -1.2743029809081472,
                0.0291833700345121,
                -1.6246722182731497,
                -0.5542986343938519,
                0.6113387489632243
            ]
        },
        {
            "positions": [
                0.28474987662430484,
                -1.2819171043003297,
                -0.07032276987105934,
                -1.663107470133495,
                -0.6058117596782464,
                0.4839515927017626
            ]
        },
        {
            "positions": [
                0.35046211878758116,
                -1.2895312276925122,
                -0.1698289097766299,
                -1.7015427219938397,
                -0.6573248849626407,
                0.3565644364403018
            ]
        },
        {
            "positions": [
                0.4161743609508577,
                -1.2971453510846944,
                -0.2693350496822009,
                -1.7399779738541845,
                -0.7088380102470351,
                0.22917728017884054
            ]
        },
        {
            "positions": [
                0.4818866031141342,
                -1.304759474476877,
                -0.3688411895877719,
                -1.7784132257145293,
                -0.7603511355314294,
                0.10179012391737974
            ]
        },
        {
            "positions": [
                0.547598845277411,
                -1.3123735978690592,
                -0.4683473294933429,
                -1.8168484775748746,
                -0.811864260815824,
                -0.02559703234408195
            ]
        },
        {
            "positions": [
                0.6133110874406873,
                -1.3199877212612416,
                -0.5678534693989139,
                -1.8552837294352194,
                -0.8633773861002183,
                -0.15298418860554275
            ]
        },
        {
            "positions": [
                0.6790233296039638,
                -1.3276018446534241,
                -0.6673596093044849,
                -1.8937189812955642,
                -0.9148905113846126,
                -0.28037134486700355
            ]
        },
        {
            "positions": [
                0.7447355717672404,
                -1.3352159680456064,
                -0.7668657492100555,
                -1.932154233155909,
                -0.966403636669007,
                -0.4077585011284648
            ]
        },
        {
            "positions": [
                0.8104478139305169,
                -1.3428300914377889,
                -0.8663718891156269,
                -1.9705894850162542,
                -1.0179167619534015,
                -0.535145657389926
            ]
        },
        {
            "positions": [
                0.8761600560937934,
                -1.3504442148299713,
                -0.9658780290211979,
                -2.009024736876599,
                -1.0694298872377959,
                -0.6625328136513873
            ]
        },
        {
            "positions": [
                0.94187229825707,
                -1.3580583382221536,
                -1.0653841689267685,
                -2.047459988736944,
                -1.1209430125221902,
                -0.7899199699128481
            ]
        },
        {
            "positions": [
                1.0075845404203465,
                -1.365672461614336,
                -1.1648903088323395,
                -2.0858952405972886,
                -1.1724561378065845,
                -0.9173071261743093
            ]
        },
        {
            "positions": [
                1.073296782583623,
                -1.3732865850065186,
                -1.264396448737911,
                -2.124330492457634,
                -1.223969263090979,
                -1.0446942824357706
            ]
        },
        {
            "positions": [
                1.1390090247468996,
                -1.380900708398701,
                -1.3639025886434815,
                -2.1627657443179786,
                -1.2754823883753734,
                -1.1720814386972318
            ]
        },
        {
            "positions": [
                1.2047212669101761,
                -1.3885148317908833,
                -1.4634087285490525,
                -2.2012009961783234,
                -1.3269955136597678,
                -1.2994685949586922
            ]
        },
        {
            "positions": [
                1.2704335090734526,
                -1.3961289551830656,
                -1.5629148684546235,
                -2.2396362480386687,
                -1.378508638944162,
                -1.4268557512201534
            ]
        },
        {
            "positions": [
                1.3361457512367292,
                -1.403743078575248,
                -1.6624210083601945,
                -2.2780714998990135,
                -1.4300217642285566,
                -1.5542429074816146
            ]
        },
        {
            "positions": [
                1.401857993400006,
                -1.4113572019674305,
                -1.7619271482657655,
                -2.3165067517593583,
                -1.481534889512951,
                -1.6816300637430754
            ]
        },
        {
            "positions": [
                1.4795270686232698,
                -1.4418458804721574,
                -1.8010647306680723,
                -2.354541503833506,
                -1.4701982635942499,
                -1.8374552121356664
            ]
        },
        {
            "positions": [
                1.5571961438465336,
                -1.4723345589768841,
                -1.8402023130703793,
                -2.3925762559076533,
                -1.4588616376755486,
                -1.9932803605282574
            ]
        },
        {
            "positions": [
                1.6348652190697974,
                -1.502823237481611,
                -1.879339895472686,
                -2.430611007981801,
                -1.4475250117568474,
                -2.1491055089208486
            ]
        },
        {
            "positions": [
                1.7125342942930613,
                -1.5333119159863378,
                -1.9184774778749931,
                -2.468645760055949,
                -1.4361883858381461,
                -2.3049306573134394
            ]
        },
        {
            "positions": [
                1.790203369516325,
                -1.5638005944910647,
                -1.9576150602773,
                -2.5066805121300963,
                -1.424851759919445,
                -2.4607558057060306
            ]
        },
        {
            "positions": [
                1.867872444739589,
                -1.5942892729957914,
                -1.9967526426796067,
                -2.544715264204244,
                -1.4135151340007437,
                -2.6165809540986213
            ]
        },
        {
            "positions": [
                1.9455415199628527,
                -1.6247779515005183,
                -2.0358902250819138,
                -2.5827500162783914,
                -1.4021785080820426,
                -2.7724061024912126
            ]
        },
        {
            "positions": [
                1.9798233485085504,
                -1.6575251646324927,
                -2.0105927525327942,
                -2.5894288435695993,
                -1.3006498389335905,
                -2.885790684818424
            ]
        },
        {
            "positions": [
                2.014105177054248,
                -1.6902723777644668,
                -1.9852952799836747,
                -2.5961076708608073,
                -1.1991211697851387,
                -2.9991752671456346
            ]
        },
        {
            "positions": [
                2.0483870055999454,
                -1.7230195908964412,
                -1.9599978074345552,
                -2.6027864981520152,
                -1.0975925006366867,
                -3.112559849472846
            ]
        }
    ]
}