{
    "goal": {
        "global_pose": {
            "orientation": {
                "w": -0.4816463035849501,
                "x": 0.5182115481033762,
                "y": 0.4908360881923453,
                "z": -0.5084816262002911
            },
            "position": {
                "x": -0.8240239810943604,
                "y": -0.300875300988555,
                "z": 0.16403168439865112
            }
        },
        "name": "move_to_storage_C"
    },
    "id": "BKPIECE_move_to_storage_C_116",
    "joint_names": [
        "shoulder_pan_joint",
        "shoulder_lift_joint",
        "elbow_joint",
        "wrist_1_joint",
        "wrist_2_joint",
        "wrist_3_joint"
    ],
    "metrics": {
        "cart_traj_len": 0.5761136973533929,
        "distance_elbow_joint": 0.261243996465339,
        "distance_shoulder_lift_joint": 0.18909051715500091,
        "distance_shoulder_pan_joint": 0.49324022734043504,
        "distance_wrist_1_joint": 0.08941923388066675,
        "distance_wrist_2_joint": 1.0725095752032971,
        "distance_wrist_3_joint": 0.06065226905448817,
        "smoothness": 0.0,
        "time": 0.237968046,
        "traj_len": 1.4717866078678754,
        "weighted_distance": 1.8572531239150378
    },
    "planner": "BKPIECE",
    "start": {
        "state": {
            "elbow_joint": 2.0108683149792914,
            "shoulder_lift_joint": -1.1634956873317392,
            "shoulder_pan_joint": -2.4736205022346,
            "wrist_1_joint": -0.8367026793690192,
            "wrist_2_joint": 0.6746043897045053,
            "wrist_3_joint": 3.133522094754363
        }
    },
    "waypoints": [
        {
            "positions": [
                -2.4736205022346,
                -1.1634956873317392,
                2.0108683149792914,
                -0.8367026793690192,
                0.6746043897045053,
                3.133522094754363
            ]
        },
        {
            "positions": [
                -2.5558272067913395,
                -1.131980601139239,
                1.9673276489017348,
                -0.8217994737222414,
                0.8533559855717214,
                3.1436308062634444
            ]
        },
        {
            "positions": [
                -2.6380339113480784,
                -1.1004655149467388,
                1.9237869828241785,
                -0.8068962680754637,
                1.0321075814389378,
                3.153739517772526
            ]
        },
        {
            "positions": [
                -2.7202406159048174,
                -1.0689504287542388,
                1.880246316746622,
                -0.7919930624286858,
                1.2108591773061539,
                3.1638482292816072
            ]
        },
        {
            "positions": [
                -2.8024473204615568,
                -1.0374353425617386,
                1.8367056506690653,
                -0.777089856781908,
                1.38961077317337,
                3.1739569407906885
            ]
        },
        {
            "positions": [
                -2.884654025018296,
                -1.0059202563692384,
                1.793164984591509,
                -0.7621866511351303,
                1.5683623690405863,
                3.18406565229977
            ]
        },
        {
            "positions": [
                -2.966860729575035,
                -0.9744051701767383,
                1.7496243185139524,
                -0.7472834454883525,
                1.7471139649078025,
                3.1941743638088513
            ]
        }
    ]
}