{
    "goal": {
        "global_pose": {
            "orientation": {
                "w": -0.4816463035849501,
                "x": 0.5182115481033762,
                "y": 0.4908360881923453,
                "z": -0.5084816262002911
            },
            "position": {
                "x": -0.8240239810943604,
                "y": 0.19912469901144506,
                "z": 0.16403168439865112
            }
        },
        "name": "move_to_storage_D"
    },
    "id": "BKPIECE_move_to_storage_D_137",
    "joint_names": [
        "shoulder_pan_joint",
        "shoulder_lift_joint",
        "elbow_joint",
        "wrist_1_joint",
        "wrist_2_joint",
        "wrist_3_joint"
    ],
    "metrics": {
        "cart_traj_len": 0.6335849831632544,
        "distance_elbow_joint": 0.5579552413047744,
        "distance_shoulder_lift_joint": 0.1628950169891339,
        "distance_shoulder_pan_joint": 0.3266362252026534,
        "distance_wrist_1_joint": 3.838154951140332,
        "distance_wrist_2_joint": 1.7801281779113836,
        "distance_wrist_3_joint": 3.1923831057524774,
        "smoothness": 0.08319586833419312,
        "time": 0.151540655,
        "traj_len": 3.1397695326728607,
        "weighted_distance": 4.675596438836165
    },
    "planner": "BKPIECE",
    "start": {
        "state": {
            "elbow_joint": -2.384821990628643,
            "shoulder_lift_joint": -2.278805467437664,
            "shoulder_pan_joint": -0.18546946439364564,
            "wrist_1_joint": 1.4845938187801415,
            "wrist_2_joint": 0.178987772454074,
            "wrist_3_joint": 0.03710569632802521
        }
    },
    "waypoints": [
        {
            "positions": [
                -0.18546946439364564,
                -2.278805467437664,
                -2.384821990628643,
                1.4845938187801415,
                0.178987772454074,
                0.03710569632802521
            ]
        },
        {
            "positions": [
                -0.06598970476285518,
                -2.2815944644327373,
                -2.202594927031705,
                1.4863618110392354,
                0.12365684136402148,
                0.054616180275793014
            ]
        },
        {
            "positions": [
                0.05349005486793529,
                -2.2843834614278107,
                -2.0203678634347675,
                1.4881298032983294,
                0.06832591027396898,
                0.07212666422356082
            ]
        },
        {
            "positions": [
                0.04967802417484518,
                -2.277543590862637,
                -2.011954771516902,
                1.3214072395321492,
                -0.004259581714347496,
                -0.06514995046587146
            ]
        },
        {
            "positions": [
                0.045865993481755074,
                -2.270703720297464,
                -2.0035416795990373,
                1.154684675765969,
                -0.07684507370266397,
                -0.20242656515530374
            ]
        },
        {
            "positions": [
                0.04205396278866497,
                -2.2638638497322905,
                -1.995128587681172,
                0.9879621119997889,
                -0.14943056569098043,
                -0.33970317984473597
            ]
        },
        {
            "positions": [
                0.03824193209557486,
                -2.2570239791671174,
                -1.9867154957633069,
                0.8212395482336087,
                -0.2220160576792969,
                -0.4769797945341683
            ]
        },
        {
            "positions": [
                0.03442990140248475,
                -2.250184108601944,
                -1.9783024038454418,
                0.6545169844674286,
                -0.2946015496676133,
                -0.6142564092236005
            ]
        },
        {
            "positions": [
                0.030617870709394642,
                -2.2433442380367707,
                -1.9698893119275764,
                0.48779442070124834,
                -0.36718704165592986,
                -0.7515330239130328
            ]
        },
        {
            "positions": [
                0.02680584001630453,
                -2.236504367471597,
                -1.9614762200097113,
                0.3210718569350681,
                -0.4397725336442464,
                -0.8888096386024651
            ]
        },
        {
            "positions": [
                0.022993809323214428,
                -2.2296644969064237,
                -1.9530631280918462,
                0.1543492931688879,
                -0.5123580256325628,
                -1.0260862532918975
            ]
        },
        {
            "positions": [
                0.019181778630124317,
                -2.2228246263412506,
                -1.9446500361739811,
                -0.012373270597292318,
                -0.5849435176208793,
                -1.1633628679813297
            ]
        },
        {
            "positions": [
                0.01536974793703421,
                -2.215984755776077,
                -1.9362369442561158,
                -0.17909583436347232,
                -0.6575290096091957,
                -1.300639482670762
            ]
        },
        {
            "positions": [
                0.011557717243944103,
                -2.209144885210904,
                -1.9278238523382507,
                -0.34581839812965276,
                -0.7301145015975122,
                -1.4379160973601943
            ]
        },
        {
            "positions": [
                0.007745686550853996,
                -2.2023050146457304,
                -1.9194107604203856,
                -0.5125409618958328,
                -0.8026999935858287,
                -1.5751927120496265
            ]
        },
        {
            "positions": [
                0.003933655857763889,
                -2.1954651440805573,
                -1.9109976685025205,
                -0.6792635256620128,
                -0.8752854855741451,
                -1.7124693267390587
            ]
        },
        {
            "positions": [
                0.00012162516467377482,
                -2.1886252735153837,
                -1.9025845765846552,
                -0.8459860894281932,
                -0.9478709775624617,
                -1.8497459414284911
            ]
        },
        {
            "positions": [
                -0.0036904055284163254,
                -2.1817854029502106,
                -1.89417148466679,
                -1.0127086531943736,
                -1.020456469550778,
                -1.9870225561179236
            ]
        },
        {
            "positions": [
                -0.0075024362215064325,
                -2.174945532385037,
                -1.885758392748925,
                -1.1794312169605536,
                -1.0930419615390945,
                -2.1242991708073555
            ]
        },
        {
            "positions": [
                -0.011314466914596533,
                -2.1681056618198635,
                -1.8773453008310599,
                -1.3461537807267336,
                -1.165627453527411,
                -2.2615757854967877
            ]
        },
        {
            "positions": [
                -0.015126497607686654,
                -2.1612657912546904,
                -1.8689322089131946,
                -1.512876344492914,
                -1.2382129455157274,
                -2.39885240018622
            ]
        },
        {
            "positions": [
                -0.01893852830077676,
                -2.154425920689517,
                -1.8605191169953295,
                -1.679598908259094,
                -1.3107984375040438,
                -2.536129014875652
            ]
        },
        {
            "positions": [
                -0.022750558993866868,
                -2.147586050124344,
                -1.8521060250774644,
                -1.846321472025274,
                -1.3833839294923602,
                -2.6734056295650843
            ]
        },
        {
            "positions": [
                -0.026562589686956975,
                -2.1407461795591702,
                -1.8436929331595993,
                -2.0130440357914545,
                -1.4559694214806767,
                -2.8106822442545165
            ]
        },
        {
            "positions": [
                -0.030374620380047082,
                -2.133906308993997,
                -1.835279841241734,
                -2.179766599557635,
                -1.5285549134689933,
                -2.947958858943949
            ]
        },
        {
            "positions": [
                -0.03418665107313719,
                -2.1270664384288236,
                -1.8268667493238688,
                -2.346489163323815,
                -1.6011404054573097,
                -3.0852354736333814
            ]
        }
    ]
}