{
    "goal": {
        "global_pose": {
            "orientation": {
                "w": 0.7047431468963623,
                "x": -0.7094548344612122,
                "y": 0.0024358443915843964,
                "z": -0.0022348060738295317
            },
            "position": {
                "x": 0.6094750761985779,
                "y": 0.3671506643295288,
                "z": 0.19426114857196808
            }
        },
        "name": "move_to_magneteinheit_A"
    },
    "id": "BKPIECE_move_to_magneteinheit_A_119",
    "joint_names": [
        "shoulder_pan_joint",
        "shoulder_lift_joint",
        "elbow_joint",
        "wrist_1_joint",
        "wrist_2_joint",
        "wrist_3_joint"
    ],
    "metrics": {
        "cart_traj_len": 1.9779052230443517,
        "distance_elbow_joint": 3.525515223220829,
        "distance_shoulder_lift_joint": 1.1348449036184056,
        "distance_shoulder_pan_joint": 1.2402545337834259,
        "distance_wrist_1_joint": 3.8318085743590817,
        "distance_wrist_2_joint": 1.6941678081965001,
        "distance_wrist_3_joint": 1.5229507886443394,
        "smoothness": 0.047902948759122155,
        "time": 0.41292635099999997,
        "traj_len": 3.598547183492608,
        "weighted_distance": 4.639118428286439
    },
    "planner": "BKPIECE",
    "start": {
        "state": {
            "elbow_joint": -1.5739458827952972,
            "shoulder_lift_joint": 0.006533473998580023,
            "shoulder_pan_joint": -1.1188671628667068,
            "wrist_1_joint": 3.138208179676308,
            "wrist_2_joint": -1.5706037135050406,
            "wrist_3_joint": -2.0226958329764257
        }
    },
    "waypoints": [
        {
            "positions": [
                -1.1188671628667068,
                0.006533473998580023,
                -1.5739458827952972,
                3.138208179676308,
                -1.5706037135050406,
                -2.0226958329764257
            ]
        },
        {
            "positions": [
                -1.0865840969063147,
                -0.010896597443313477,
                -1.4753314404498068,
                3.003594614856989,
                -1.5225861359403488,
                -2.074000106635775
            ]
        },
        {
            "positions": [
                -1.0543010309459226,
                -0.028326668885206976,
                -1.3767169981043164,
                2.8689810500376693,
                -1.4745685583756571,
                -2.125304380295124
            ]
        },
        {
            "positions": [
                -1.0220179649855305,
                -0.045756740327100476,
                -1.278102555758826,
                2.73436748521835,
                -1.4265509808109655,
                -2.1766086539544736
            ]
        },
        {
            "positions": [
                -0.9897348990251384,
                -0.06318681176899398,
                -1.1794881134133355,
                2.5997539203990305,
                -1.3785334032462737,
                -2.2279129276138225
            ]
        },
        {
            "positions": [
                -0.9574518330647463,
                -0.08061688321088747,
                -1.080873671067845,
                2.4651403555797113,
                -1.3305158256815819,
                -2.279217201273172
            ]
        },
        {
            "positions": [
                -0.9251687671043543,
                -0.09804695465278097,
                -0.9822592287223545,
                2.330526790760392,
                -1.2824982481168903,
                -2.330521474932521
            ]
        },
        {
            "positions": [
                -0.8928857011439623,
                -0.11547702609467447,
                -0.883644786376864,
                2.1959132259410725,
                -1.2344806705521987,
                -2.3818257485918704
            ]
        },
        {
            "positions": [
                -0.86060263518357,
                -0.13290709753656796,
                -0.7850303440313736,
                2.061299661121753,
                -1.1864630929875069,
                -2.4331300222512193
            ]
        },
        {
            "positions": [
                -0.8283195692231781,
                -0.15033716897846147,
                -0.6864159016858832,
                1.9266860963024337,
                -1.138445515422815,
                -2.4844342959105687
            ]
        },
        {
            "positions": [
                -0.796036503262786,
                -0.16776724042035496,
                -0.5878014593403927,
                1.7920725314831143,
                -1.0904279378581234,
                -2.5357385695699177
            ]
        },
        {
            "positions": [
                -0.7637534373023939,
                -0.18519731186224847,
                -0.4891870169949022,
                1.657458966663795,
                -1.0424103602934318,
                -2.587042843229267
            ]
        },
        {
            "positions": [
                -0.7314703713420018,
                -0.20262738330414196,
                -0.39057257464941175,
                1.5228454018444757,
                -0.99439278272874,
                -2.6383471168886166
            ]
        },
        {
            "positions": [
                -0.6991873053816097,
                -0.22005745474603547,
                -0.2919581323039213,
                1.3882318370251563,
                -0.9463752051640483,
                -2.6896513905479655
            ]
        },
        {
            "positions": [
                -0.6669042394212177,
                -0.23748752618792895,
                -0.19334368995843088,
                1.2536182722058369,
                -0.8983576275993566,
                -2.740955664207315
            ]
        },
        {
            "positions": [
                -0.6346211734608255,
                -0.2549175976298225,
                -0.09472924761294044,
                1.1190047073865173,
                -0.8503400500346647,
                -2.792259937866664
            ]
        },
        {
            "positions": [
                -0.6023381075004334,
                -0.272347669071716,
                0.0038851947325500014,
                0.9843911425671981,
                -0.8023224724699731,
                -2.8435642115260134
            ]
        },
        {
            "positions": [
                -0.5700550415400413,
                -0.2897777405136095,
                0.10249963707804066,
                0.8497775777478784,
                -0.7543048949052813,
                -2.8948684851853628
            ]
        },
        {
            "positions": [
                -0.5377719755796493,
                -0.307207811955503,
                0.20111407942353088,
                0.7151640129285592,
                -0.7062873173405897,
                -2.9461727588447117
            ]
        },
        {
            "positions": [
                -0.5054889096192571,
                -0.3246378833973965,
                0.29972852176902154,
                0.5805504481092396,
                -0.6582697397758979,
                -2.9974770325040607
            ]
        },
        {
            "positions": [
                -0.4732058436588651,
                -0.34206795483929,
                0.39834296411451176,
                0.4459368832899204,
                -0.6102521622112063,
                -3.04878130616341
            ]
        },
        {
            "positions": [
                -0.4409227776984729,
                -0.3594980262811835,
                0.4969574064600024,
                0.31132331847060124,
                -0.5622345846465144,
                -3.1000855798227596
            ]
        },
        {
            "positions": [
                -0.4086397117380809,
                -0.376928097723077,
                0.5955718488054929,
                0.17670975365128205,
                -0.5142170070818228,
                -3.1513898534821085
            ]
        },
        {
            "positions": [
                -0.3763566457776888,
                -0.3943581691649705,
                0.6941862911509833,
                0.04209618883196242,
                -0.466199429517131,
                -3.202694127141458
            ]
        },
        {
            "positions": [
                -0.3440735798172967,
                -0.411788240606864,
                0.7928007334964737,
                -0.09251737598735676,
                -0.4181818519524394,
                -3.253998400800807
            ]
        },
        {
            "positions": [
                -0.3117905138569046,
                -0.4292183120487575,
                0.8914151758419642,
                -0.2271309408066764,
                -0.37016427438774757,
                -3.3053026744601564
            ]
        },
        {
            "positions": [
                -0.2795074478965125,
                -0.446648383490651,
                0.9900296181874546,
                -0.3617445056259956,
                -0.32214669682305597,
                -3.3566069481195058
            ]
        },
        {
            "positions": [
                -0.24722438193612045,
                -0.4640784549325445,
                1.088644060532945,
                -0.496358070445315,
                -0.27412911925836414,
                -3.4079112217788547
            ]
        },
        {
            "positions": [
                -0.19456556010000048,
                -0.5589688798878704,
                1.2119191005176004,
                -0.5245355453363805,
                -0.21731580297981787,
                -3.388234736087153
            ]
        },
        {
            "positions": [
                -0.1419067382638805,
                -0.6538593048431963,
                1.3351941405022558,
                -0.5527130202274458,
                -0.1605024867012716,
                -3.3685582503954516
            ]
        },
        {
            "positions": [
                -0.0892479164277605,
                -0.7487497297985222,
                1.4584691804869112,
                -0.5808904951185113,
                -0.10368917042272535,
                -3.34888176470375
            ]
        },
        {
            "positions": [
                -0.03658909459164053,
                -0.8436401547538481,
                1.5817442204715666,
                -0.6090679700095768,
                -0.04687585414417908,
                -3.329205279012049
            ]
        },
        {
            "positions": [
                0.01606972724447947,
                -0.938530579709174,
                1.705019260456222,
                -0.6372454449006422,
                0.009937462134367192,
                -3.3095287933203474
            ]
        },
        {
            "positions": [
                0.06872854908059944,
                -1.0334210046644998,
                1.8282943004408774,
                -0.6654229197917076,
                0.06675077841291344,
                -3.289852307628646
            ]
        },
        {
            "positions": [
                0.12138737091671944,
                -1.1283114296198258,
                1.9515693404255328,
                -0.6936003946827731,
                0.12356409469145972,
                -3.2701758219369443
            ]
        }
    ]
}