{
    "goal": {
        "global_pose": {
            "orientation": {
                "w": 0.7047431468963623,
                "x": -0.7094548344612122,
                "y": 0.0024358443915843964,
                "z": -0.0022348060738295317
            },
            "position": {
                "x": 0.6094750761985779,
                "y": 0.3671506643295288,
                "z": 0.19426114857196808
            }
        },
        "name": "move_to_magneteinheit_A"
    },
    "id": "BKPIECE_move_to_magneteinheit_A_52",
    "joint_names": [
        "shoulder_pan_joint",
        "shoulder_lift_joint",
        "elbow_joint",
        "wrist_1_joint",
        "wrist_2_joint",
        "wrist_3_joint"
    ],
    "metrics": {
        "cart_traj_len": 1.5926118001845175,
        "distance_elbow_joint": 3.5620914949484117,
        "distance_shoulder_lift_joint": 1.1547507110465396,
        "distance_shoulder_pan_joint": 1.2411074103994273,
        "distance_wrist_1_joint": 3.9944078194091,
        "distance_wrist_2_joint": 1.6929591942656876,
        "distance_wrist_3_joint": 5.179070399159079,
        "smoothness": 4.239033363659253e-16,
        "time": 0.168036878,
        "traj_len": 4.101754140514549,
        "weighted_distance": 5.733227262303596
    },
    "planner": "BKPIECE",
    "start": {
        "state": {
            "elbow_joint": -1.5739458827952972,
            "shoulder_lift_joint": 0.006533473998580023,
            "shoulder_pan_joint": -1.1188671628667068,
            "wrist_1_joint": 3.138208179676308,
            "wrist_2_joint": -1.5706037135050406,
            "wrist_3_joint": -2.0226958329764257
        }
    },
    "waypoints": [
        {
            "positions": [
                -1.1188671628667068,
                0.006533473998580023,
                -1.5739458827952972,
                3.138208179676308,
                -1.5706037135050406,
                -2.0226958329764257
            ]
        },
        {
            "positions": [
                -1.090004199834162,
                -0.020321193700176717,
                -1.4911065457034738,
                3.045314974573771,
                -1.53123256945235,
                -1.9022523353215635
            ]
        },
        {
            "positions": [
                -1.061141236801617,
                -0.047175861398933455,
                -1.4082672086116501,
                2.9524217694712336,
                -1.4918614253996598,
                -1.7818088376667012
            ]
        },
        {
            "positions": [
                -1.0322782737690723,
                -0.0740305290976902,
                -1.3254278715198267,
                2.8595285643686967,
                -1.4524902813469693,
                -1.6613653400118389
            ]
        },
        {
            "positions": [
                -1.0034153107365276,
                -0.10088519679644693,
                -1.2425885344280032,
                2.7666353592661594,
                -1.4131191372942788,
                -1.5409218423569766
            ]
        },
        {
            "positions": [
                -0.9745523477039828,
                -0.12773986449520366,
                -1.1597491973361795,
                2.673742154163622,
                -1.3737479932415886,
                -1.420478344702114
            ]
        },
        {
            "positions": [
                -0.9456893846714379,
                -0.1545945321939604,
                -1.076909860244356,
                2.580848949061085,
                -1.334376849188898,
                -1.300034847047252
            ]
        },
        {
            "positions": [
                -0.916826421638893,
                -0.18144919989271716,
                -0.9940705231525325,
                2.4879557439585476,
                -1.2950057051362076,
                -1.1795913493923895
            ]
        },
        {
            "positions": [
                -0.8879634586063483,
                -0.20830386759147387,
                -0.9112311860607091,
                2.3950625388560107,
                -1.2556345610835173,
                -1.0591478517375272
            ]
        },
        {
            "positions": [
                -0.8591004955738035,
                -0.23515853529023065,
                -0.8283918489688854,
                2.302169333753473,
                -1.2162634170308269,
                -0.938704354082665
            ]
        },
        {
            "positions": [
                -0.8302375325412586,
                -0.2620132029889874,
                -0.745552511877062,
                2.209276128650936,
                -1.1768922729781366,
                -0.8182608564278027
            ]
        },
        {
            "positions": [
                -0.8013745695087138,
                -0.28886787068774417,
                -0.6627131747852384,
                2.116382923548399,
                -1.137521128925446,
                -0.6978173587729402
            ]
        },
        {
            "positions": [
                -0.772511606476169,
                -0.3157225383865009,
                -0.5798738376934149,
                2.0234897184458616,
                -1.0981499848727556,
                -0.5773738611180781
            ]
        },
        {
            "positions": [
                -0.7436486434436242,
                -0.3425772060852576,
                -0.4970345006015915,
                1.9305965133433245,
                -1.0587788408200653,
                -0.4569303634632158
            ]
        },
        {
            "positions": [
                -0.7147856804110793,
                -0.3694318737840144,
                -0.4141951635097678,
                1.8377033082407872,
                -1.0194076967673746,
                -0.3364868658083533
            ]
        },
        {
            "positions": [
                -0.6859227173785345,
                -0.3962865414827711,
                -0.33135582641794437,
                1.74481010313825,
                -0.9800365527146844,
                -0.216043368153491
            ]
        },
        {
            "positions": [
                -0.6570597543459897,
                -0.4231412091815278,
                -0.24851648932612092,
                1.6519168980357128,
                -0.940665408661994,
                -0.09559987049862873
            ]
        },
        {
            "positions": [
                -0.628196791313445,
                -0.44999587688028453,
                -0.16567715223429724,
                1.5590236929331758,
                -0.9012942646093036,
                0.02484362715623334
            ]
        },
        {
            "positions": [
                -0.5993338282809001,
                -0.47685054457904136,
                -0.08283781514247357,
                1.4661304878306383,
                -0.8619231205566131,
                0.14528712481109585
            ]
        },
        {
            "positions": [
                -0.5704708652483552,
                -0.503705212277798,
                1.5219493498808134e-06,
                1.3732372827281012,
                -0.8225519765039228,
                0.26573062246595835
            ]
        },
        {
            "positions": [
                -0.5416079022158105,
                -0.5305598799765547,
                0.08284085904117333,
                1.2803440776255641,
                -0.7831808324512324,
                0.3861741201208204
            ]
        },
        {
            "positions": [
                -0.5127449391832656,
                -0.5574145476753114,
                0.16568019613299678,
                1.1874508725230268,
                -0.743809688398542,
                0.5066176177756825
            ]
        },
        {
            "positions": [
                -0.4838819761507208,
                -0.5842692153740683,
                0.24851953322482045,
                1.0945576674204895,
                -0.7044385443458515,
                0.6270611154305454
            ]
        },
        {
            "positions": [
                -0.45501901311817605,
                -0.611123883072825,
                0.3313588703166437,
                1.0016644623179527,
                -0.6650674002931612,
                0.747504613085407
            ]
        },
        {
            "positions": [
                -0.4261560500856312,
                -0.6379785507715817,
                0.41419820740846736,
                0.9087712572154154,
                -0.6256962562404708,
                0.8679481107402696
            ]
        },
        {
            "positions": [
                -0.3972930870530863,
                -0.6648332184703385,
                0.49703754450029103,
                0.8158780521128777,
                -0.5863251121877803,
                0.9883916083951321
            ]
        },
        {
            "positions": [
                -0.36843012402054154,
                -0.6916878861690952,
                0.5798768815921143,
                0.7229848470103408,
                -0.5469539681350899,
                1.1088351060499941
            ]
        },
        {
            "positions": [
                -0.33956716098799666,
                -0.7185425538678519,
                0.6627162186839379,
                0.6300916419078035,
                -0.5075828240823994,
                1.2292786037048566
            ]
        },
        {
            "positions": [
                -0.3107041979554518,
                -0.7453972215666087,
                0.7455555557757616,
                0.5371984368052662,
                -0.4682116800297089,
                1.3497221013597192
            ]
        },
        {
            "positions": [
                -0.281841234922907,
                -0.7722518892653654,
                0.8283948928675848,
                0.4443052317027294,
                -0.42884053597701866,
                1.4701655990145812
            ]
        },
        {
            "positions": [
                -0.25297827189036215,
                -0.7991065569641221,
                0.9112342299594085,
                0.35141202660019166,
                -0.38946939192432817,
                1.5906090966694437
            ]
        },
        {
            "positions": [
                -0.2241153088578175,
                -0.8259612246628788,
                0.9940735670512317,
                0.2585188214976548,
                -0.3500982478716379,
                1.7110525943243058
            ]
        },
        {
            "positions": [
                -0.19525234582527262,
                -0.8528158923616356,
                1.0769129041430554,
                0.16562561639511753,
                -0.3107271038189474,
                1.8314960919791683
            ]
        },
        {
            "positions": [
                -0.16638938279272775,
                -0.8796705600603923,
                1.1597522412348795,
                0.07273241129258023,
                -0.2713559597662569,
                1.9519395896340308
            ]
        },
        {
            "positions": [
                -0.13752641976018298,
                -0.906525227759149,
                1.2425915783267028,
                -0.020160793809956612,
                -0.23198481571356666,
                2.0723830872888924
            ]
        },
        {
            "positions": [
                -0.10866345672763811,
                -0.9333798954579058,
                1.3254309154185264,
                -0.11305399891249435,
                -0.19261367166087617,
                2.1928265849437554
            ]
        },
        {
            "positions": [
                -0.07980049369509334,
                -0.9602345631566627,
                1.40827025251035,
                -0.20594720401503164,
                -0.15324252760818569,
                2.3132700825986174
            ]
        },
        {
            "positions": [
                -0.05093753066254858,
                -0.9870892308554193,
                1.4911095896021733,
                -0.2988404091175685,
                -0.11387138355549542,
                2.4337135802534795
            ]
        },
        {
            "positions": [
                -0.022074567630003594,
                -1.013943898554176,
                1.573948926693997,
                -0.3917336142201058,
                -0.07450023950280493,
                2.5541570779083425
            ]
        },
        {
            "positions": [
                0.00678839540254117,
                -1.0407985662529327,
                1.6567882637858202,
                -0.4846268193226426,
                -0.03512909545011467,
                2.6746005755632045
            ]
        },
        {
            "positions": [
                0.035651358435085934,
                -1.0676532339516895,
                1.739627600877644,
                -0.5775200244251799,
                0.004242048602575821,
                2.7950440732180666
            ]
        },
        {
            "positions": [
                0.06451432146763092,
                -1.0945079016504462,
                1.8224669379694676,
                -0.6704132295277176,
                0.04361319265526631,
                2.9154875708729295
            ]
        },
        {
            "positions": [
                0.09337728450017568,
                -1.1213625693492029,
                1.9053062750612908,
                -0.7633064346302545,
                0.08298433670795657,
                3.0359310685277907
            ]
        },
        {
            "positions": [
                0.12224024753272054,
                -1.1482172370479597,
                1.9881456121531143,
                -0.8561996397327918,
                0.122355480760647,
                3.1563745661826537
            ]
        }
    ]
}