{
    "goal": {
        "global_pose": {
            "orientation": {
                "w": 0.7031023480610252,
                "x": -0.7110244013736278,
                "y": 0.0077485991402295624,
                "z": 0.005598929693374583
            },
            "position": {
                "x": -0.8841497679147869,
                "y": 0.44412534475326537,
                "z": 0.3711530566215515
            }
        },
        "name": "move_to_auspresseinheit_D"
    },
    "id": "BKPIECE_move_to_auspresseinheit_D_131",
    "joint_names": [
        "shoulder_pan_joint",
        "shoulder_lift_joint",
        "elbow_joint",
        "wrist_1_joint",
        "wrist_2_joint",
        "wrist_3_joint"
    ],
    "metrics": {
        "cart_traj_len": 0.34277436111358406,
        "distance_elbow_joint": 0.6350839880333832,
        "distance_shoulder_lift_joint": 0.12022917891871998,
        "distance_shoulder_pan_joint": 0.13400980143722255,
        "distance_wrist_1_joint": 0.5162826015974153,
        "distance_wrist_2_joint": 1.4455180616591923,
        "distance_wrist_3_joint": 0.006601756992852259,
        "smoothness": 0.0,
        "time": 0.18891646499999998,
        "traj_len": 1.6904808158150701,
        "weighted_distance": 2.198347007613015
    },
    "planner": "BKPIECE",
    "start": {
        "state": {
            "elbow_joint": -1.8275484843655228,
            "shoulder_lift_joint": -2.1267897864000416,
            "shoulder_pan_joint": -0.035127520176001514,
            "wrist_1_joint": -2.3477863256791385,
            "wrist_2_joint": -1.605890476484521,
            "wrist_3_joint": -3.0880375317375353
        }
    },
    "waypoints": [
        {
            "positions": [
                -0.035127520176001514,
                -2.1267897864000416,
                -1.8275484843655228,
                -2.3477863256791385,
                -1.605890476484521,
                -3.0880375317375353
            ]
        },
        {
            "positions": [
                -0.05187874535565433,
                -2.1418184337648816,
                -1.7481629858613499,
                -2.4123216508788152,
                -1.425200718777122,
                -3.088862751361642
            ]
        },
        {
            "positions": [
                -0.06862997053530714,
                -2.1568470811297216,
                -1.668777487357177,
                -2.4768569760784924,
                -1.244510961069723,
                -3.0896879709857483
            ]
        },
        {
            "positions": [
                -0.08538119571495997,
                -2.1718757284945616,
                -1.5893919888530041,
                -2.541392301278169,
                -1.0638212033623238,
                -3.0905131906098546
            ]
        },
        {
            "positions": [
                -0.10213242089461279,
                -2.1869043758594016,
                -1.510006490348831,
                -2.605927626477846,
                -0.8831314456549249,
                -3.0913384102339614
            ]
        },
        {
            "positions": [
                -0.1188836460742656,
                -2.2019330232242416,
                -1.4306209918446582,
                -2.670462951677523,
                -0.7024416879475258,
                -3.092163629858068
            ]
        },
        {
            "positions": [
                -0.13563487125391843,
                -2.2169616705890816,
                -1.3512354933404853,
                -2.7349982768772,
                -0.5217519302401268,
                -3.0929888494821745
            ]
        },
        {
            "positions": [
                -0.15238609643357126,
                -2.2319903179539216,
                -1.2718499948363124,
                -2.799533602076877,
                -0.34106217253272786,
                -3.0938140691062808
            ]
        },
        {
            "positions": [
                -0.16913732161322406,
                -2.2470189653187616,
                -1.1924644963321396,
                -2.864068927276554,
                -0.16037241482532863,
                -3.0946392887303875
            ]
        }
    ]
}