{
    "goal": {
        "global_pose": {
            "orientation": {
                "w": 0.7031023480610252,
                "x": -0.7110244013736278,
                "y": 0.0077485991402295624,
                "z": 0.005598929693374583
            },
            "position": {
                "x": -0.8841497679147869,
                "y": 0.44412534475326537,
                "z": 0.3711530566215515
            }
        },
        "name": "move_to_auspresseinheit_D"
    },
    "id": "BKPIECE_move_to_auspresseinheit_D_119",
    "joint_names": [
        "shoulder_pan_joint",
        "shoulder_lift_joint",
        "elbow_joint",
        "wrist_1_joint",
        "wrist_2_joint",
        "wrist_3_joint"
    ],
    "metrics": {
        "cart_traj_len": 0.34471468696594887,
        "distance_elbow_joint": 0.6584488991464639,
        "distance_shoulder_lift_joint": 0.13209876781978647,
        "distance_shoulder_pan_joint": 0.13402099292583766,
        "distance_wrist_1_joint": 0.587127676223222,
        "distance_wrist_2_joint": 1.4464448831097099,
        "distance_wrist_3_joint": 0.0518544776941976,
        "smoothness": 3.9474596431116675e-16,
        "time": 0.281445854,
        "traj_len": 1.7349339171620393,
        "weighted_distance": 2.268761162317564
    },
    "planner": "BKPIECE",
    "start": {
        "state": {
            "elbow_joint": -1.8275484843655228,
            "shoulder_lift_joint": -2.1267897864000416,
            "shoulder_pan_joint": -0.035127520176001514,
            "wrist_1_joint": -2.3477863256791385,
            "wrist_2_joint": -1.605890476484521,
            "wrist_3_joint": -3.0880375317375353
        }
    },
    "waypoints": [
        {
            "positions": [
                -0.035127520176001514,
                -2.1267897864000416,
                -1.8275484843655228,
                -2.3477863256791385,
                -1.605890476484521,
                -3.0880375317375353
            ]
        },
        {
            "positions": [
                -0.051880144291731226,
                -2.143302132377515,
                -1.7452423719722148,
                -2.4211772852070412,
                -1.4250848660958073,
                -3.081555722025761
            ]
        },
        {
            "positions": [
                -0.06863276840746094,
                -2.1598144783549884,
                -1.6629362595789068,
                -2.494568244734944,
                -1.2442792557070934,
                -3.075073912313986
            ]
        },
        {
            "positions": [
                -0.08538539252319063,
                -2.1763268243324614,
                -1.5806301471855988,
                -2.5679592042628467,
                -1.0634736453183797,
                -3.068592102602211
            ]
        },
        {
            "positions": [
                -0.10213801663892035,
                -2.192839170309935,
                -1.4983240347922908,
                -2.6413501637907495,
                -0.8826680349296661,
                -3.0621102928904365
            ]
        },
        {
            "positions": [
                -0.11889064075465006,
                -2.2093515162874082,
                -1.4160179223989828,
                -2.7147411233186522,
                -0.7018624245409524,
                -3.055628483178662
            ]
        },
        {
            "positions": [
                -0.13564326487037975,
                -2.225863862264881,
                -1.3337118100056748,
                -2.788132082846555,
                -0.5210568141522385,
                -3.049146673466887
            ]
        },
        {
            "positions": [
                -0.15239588898610945,
                -2.2423762082423546,
                -1.2514056976123669,
                -2.8615230423744578,
                -0.3402512037635248,
                -3.042664863755112
            ]
        },
        {
            "positions": [
                -0.16914851310183918,
                -2.258888554219828,
                -1.1690995852190589,
                -2.9349140019023605,
                -0.1594455933748111,
                -3.0361830540433377
            ]
        }
    ]
}