{
    "goal": {
        "global_pose": {
            "orientation": {
                "w": 0.5084816262002911,
                "x": -0.4908360881923452,
                "y": 0.5182115481033761,
                "z": -0.48164630358495003
            },
            "position": {
                "x": 0.5540239810943604,
                "y": -0.46912469901144505,
                "z": 0.16403168439865112
            }
        },
        "name": "move_to_storage_B"
    },
    "id": "BKPIECE_move_to_storage_B_88",
    "joint_names": [
        "shoulder_pan_joint",
        "shoulder_lift_joint",
        "elbow_joint",
        "wrist_1_joint",
        "wrist_2_joint",
        "wrist_3_joint"
    ],
    "metrics": {
        "cart_traj_len": 1.945468822260638,
        "distance_elbow_joint": 1.2146611311525872,
        "distance_shoulder_lift_joint": 1.386594806106661,
        "distance_shoulder_pan_joint": 1.4223458129238264,
        "distance_wrist_1_joint": 2.9949017136752456,
        "distance_wrist_2_joint": 2.716049650079645,
        "distance_wrist_3_joint": 3.1384488882506982,
        "smoothness": 0.2976799121246101,
        "time": 0.319234781,
        "traj_len": 3.5878965985920863,
        "weighted_distance": 4.986065697766622
    },
    "planner": "BKPIECE",
    "start": {
        "state": {
            "elbow_joint": 1.6649325340416963,
            "shoulder_lift_joint": -0.6616387945129425,
            "shoulder_pan_joint": -0.9139837929255878,
            "wrist_1_joint": 2.1467571094334352,
            "wrist_2_joint": -2.234195976750228,
            "wrist_3_joint": 0.005470921511140723
        }
    },
    "waypoints": [
        {
            "positions": [
                -0.9139837929255878,
                -0.6616387945129425,
                1.6649325340416963,
                2.1467571094334352,
                -2.234195976750228,
                0.005470921511140723
            ]
        },
        {
            "positions": [
                -0.8051382495845286,
                -0.6508025209582626,
                1.6028427339928533,
                2.1084735462480144,
                -2.1743094948361814,
                0.03658261038002204
            ]
        },
        {
            "positions": [
                -0.6962927062434694,
                -0.6399662474035829,
                1.5407529339440103,
                2.0701899830625936,
                -2.114423012922135,
                0.06769429924890337
            ]
        },
        {
            "positions": [
                -0.5874471629024102,
                -0.6291299738489031,
                1.4786631338951672,
                2.031906419877173,
                -2.0545365310080883,
                0.09880598811778468
            ]
        },
        {
            "positions": [
                -0.47860161956135094,
                -0.6182937002942233,
                1.4165733338463242,
                1.9936228566917522,
                -1.9946500490940418,
                0.129917676986666
            ]
        },
        {
            "positions": [
                -0.5231427755641325,
                -0.6695906704022938,
                1.406479568140435,
                1.9267575101944239,
                -1.868784358693101,
                0.2178734242937273
            ]
        },
        {
            "positions": [
                -0.567683931566914,
                -0.7208876405103644,
                1.3963858024345457,
                1.8598921636970958,
                -1.7429186682921602,
                0.3058291716007886
            ]
        },
        {
            "positions": [
                -0.6122250875696954,
                -0.7721846106184349,
                1.3862920367286562,
                1.7930268171997674,
                -1.6170529778912195,
                0.3937849189078499
            ]
        },
        {
            "positions": [
                -0.6567662435724769,
                -0.8234815807265055,
                1.376198271022767,
                1.726161470702439,
                -1.4911872874902787,
                0.4817406662149112
            ]
        },
        {
            "positions": [
                -0.7013073995752584,
                -0.874778550834576,
                1.3661045053168777,
                1.6592961242051107,
                -1.3653215970893378,
                0.5696964135219725
            ]
        },
        {
            "positions": [
                -0.7458485555780399,
                -0.9260755209426464,
                1.3560107396109884,
                1.5924307777077824,
                -1.2394559066883972,
                0.6576521608290338
            ]
        },
        {
            "positions": [
                -0.7903897115808214,
                -0.9773724910507171,
                1.345916973905099,
                1.5255654312104543,
                -1.1135902162874562,
                0.7456079081360951
            ]
        },
        {
            "positions": [
                -0.8349308675836029,
                -1.0286694611587874,
                1.3358232081992096,
                1.458700084713126,
                -0.9877245258865155,
                0.8335636554431564
            ]
        },
        {
            "positions": [
                -0.8794720235863844,
                -1.079966431266858,
                1.3257294424933204,
                1.3918347382157976,
                -0.8618588354855747,
                0.9215194027502177
            ]
        },
        {
            "positions": [
                -0.924013179589166,
                -1.1312634013749285,
                1.315635676787431,
                1.3249693917184693,
                -0.735993145084634,
                1.0094751500572792
            ]
        },
        {
            "positions": [
                -0.9685543355919475,
                -1.182560371482999,
                1.3055419110815416,
                1.258104045221141,
                -0.610127454683693,
                1.0974308973643403
            ]
        },
        {
            "positions": [
                -1.0130954915947288,
                -1.2338573415910696,
                1.2954481453756523,
                1.1912386987238128,
                -0.48426176428275247,
                1.1853866446714014
            ]
        },
        {
            "positions": [
                -1.0576366475975103,
                -1.2851543116991402,
                1.285354379669763,
                1.1243733522264845,
                -0.3583960738818117,
                1.273342391978463
            ]
        },
        {
            "positions": [
                -1.1021778036002918,
                -1.3364512818072107,
                1.2752606139638738,
                1.0575080057291562,
                -0.23253038348087074,
                1.3612981392855241
            ]
        },
        {
            "positions": [
                -1.1467189596030734,
                -1.3877482519152813,
                1.2651668482579845,
                0.9906426592318278,
                -0.10666469307992998,
                1.4492538865925857
            ]
        },
        {
            "positions": [
                -1.1912601156058549,
                -1.4390452220233518,
                1.2550730825520953,
                0.9237773127344997,
                0.01920099732101077,
                1.5372096338996468
            ]
        },
        {
            "positions": [
                -1.2358012716086364,
                -1.4903421921314224,
                1.2449793168462058,
                0.8569119662371714,
                0.1450666877219513,
                1.625165381206708
            ]
        },
        {
            "positions": [
                -1.280342427611418,
                -1.541639162239493,
                1.2348855511403165,
                0.790046619739843,
                0.27093237812289206,
                1.7131211285137695
            ]
        },
        {
            "positions": [
                -1.264907191652291,
                -1.5066471414109368,
                1.3002700634945838,
                0.6535306844080386,
                0.2885091527234356,
                1.8323543519511087
            ]
        },
        {
            "positions": [
                -1.2494719556931642,
                -1.471655120582381,
                1.365654575848851,
                0.5170147490762341,
                0.3060859273239791,
                1.9515875753884477
            ]
        },
        {
            "positions": [
                -1.2340367197340374,
                -1.436663099753825,
                1.4310390882031183,
                0.3804988137444296,
                0.3236627019245226,
                2.0708207988257867
            ]
        },
        {
            "positions": [
                -1.2186014837749104,
                -1.4016710789252689,
                1.4964236005573857,
                0.24398287841262523,
                0.34123947652506614,
                2.190054022263126
            ]
        },
        {
            "positions": [
                -1.2031662478157834,
                -1.3666790580967128,
                1.561808112911653,
                0.10746694308082061,
                0.3588162511256097,
                2.309287245700465
            ]
        },
        {
            "positions": [
                -1.1877310118566566,
                -1.3316870372681568,
                1.6271926252659203,
                -0.029048992250983785,
                0.37639302572615324,
                2.428520469137804
            ]
        },
        {
            "positions": [
                -1.1722957758975299,
                -1.2966950164396007,
                1.6925771376201877,
                -0.1655649275827883,
                0.39396980032669676,
                2.547753692575143
            ]
        },
        {
            "positions": [
                -1.1568605399384029,
                -1.2617029956110448,
                1.7579616499744548,
                -0.3020808629145926,
                0.4115465749272403,
                2.6669869160124824
            ]
        },
        {
            "positions": [
                -1.1414253039792759,
                -1.2267109747824887,
                1.8233461623287222,
                -0.4385967982463972,
                0.42912334952778386,
                2.7862201394498216
            ]
        },
        {
            "positions": [
                -1.1259900680201491,
                -1.1917189539539328,
                1.8887306746829893,
                -0.5751127335782018,
                0.4467001241283274,
                2.905453362887161
            ]
        },
        {
            "positions": [
                -1.1105548320610223,
                -1.1567269331253769,
                1.9541151870372566,
                -0.711628668910006,
                0.4642768987288709,
                3.0246865863244996
            ]
        },
        {
            "positions": [
                -1.0951195961018954,
                -1.1217349122968208,
                2.019499699391524,
                -0.8481446042418107,
                0.4818536733294144,
                3.143919809761839
            ]
        }
    ]
}