{
    "goal": {
        "global_pose": {
            "orientation": {
                "w": 0.7031023502349854,
                "x": -0.7110244035720825,
                "y": 0.007748599164187908,
                "z": 0.005598929710686207
            },
            "position": {
                "x": 0.11585023208521307,
                "y": 0.44412534475326537,
                "z": 0.3711530566215515
            }
        },
        "name": "move_to_auspresseinheit_A"
    },
    "id": "BKPIECE_move_to_auspresseinheit_A_50",
    "joint_names": [
        "shoulder_pan_joint",
        "shoulder_lift_joint",
        "elbow_joint",
        "wrist_1_joint",
        "wrist_2_joint",
        "wrist_3_joint"
    ],
    "metrics": {
        "cart_traj_len": 1.3581528641447502,
        "distance_elbow_joint": 1.6612944427040404,
        "distance_shoulder_lift_joint": 0.5323796826733418,
        "distance_shoulder_pan_joint": 1.0449178158008183,
        "distance_wrist_1_joint": 1.2857126061074071,
        "distance_wrist_2_joint": 1.3188045314397518,
        "distance_wrist_3_joint": 2.1808022811921024,
        "smoothness": 0.7903994498196544,
        "time": 0.30822510000000003,
        "traj_len": 2.8326509421242605,
        "weighted_distance": 3.8716964059503463
    },
    "planner": "BKPIECE",
    "start": {
        "state": {
            "elbow_joint": 2.4225746994637096,
            "shoulder_lift_joint": -1.373653595662188,
            "shoulder_pan_joint": -0.3378633848294565,
            "wrist_1_joint": -1.0288595594406726,
            "wrist_2_joint": 1.2330228066703421,
            "wrist_3_joint": 3.189163495502006
        }
    },
    "waypoints": [
        {
            "positions": [
                -0.3378633848294565,
                -1.373653595662188,
                2.4225746994637096,
                -1.0288595594406726,
                1.2330228066703421,
                3.189163495502006
            ]
        },
        {
            "positions": [
                -0.3289026595459026,
                -1.3976839668260588,
                2.345559788824113,
                -0.9516490447917239,
                1.1513912726184545,
                3.0876711103467906
            ]
        },
        {
            "positions": [
                -0.3199419342623487,
                -1.4217143379899297,
                2.268544878184516,
                -0.8744385301427752,
                1.0697597385665671,
                2.9861787251915755
            ]
        },
        {
            "positions": [
                -0.3109812089787948,
                -1.4457447091538005,
                2.1915299675449194,
                -0.7972280154938265,
                0.9881282045146795,
                2.8846863400363603
            ]
        },
        {
            "positions": [
                -0.30202048369524087,
                -1.4697750803176712,
                2.1145150569053226,
                -0.7200175008448777,
                0.9064966704627919,
                2.783193954881145
            ]
        },
        {
            "positions": [
                -0.29305975841168697,
                -1.4938054514815422,
                2.0375001462657263,
                -0.642806986195929,
                0.8248651364109045,
                2.68170156972593
            ]
        },
        {
            "positions": [
                -0.284099033128133,
                -1.517835822645413,
                1.9604852356261293,
                -0.5655964715469803,
                0.7432336023590169,
                2.5802091845707147
            ]
        },
        {
            "positions": [
                -0.27513830784457916,
                -1.541866193809284,
                1.8834703249865328,
                -0.48838595689803155,
                0.6616020683071294,
                2.4787167994154995
            ]
        },
        {
            "positions": [
                -0.2661775825610252,
                -1.5658965649731547,
                1.806455414346936,
                -0.41117544224908276,
                0.5799705342552418,
                2.3772244142602843
            ]
        },
        {
            "positions": [
                -0.2572168572774713,
                -1.5899269361370254,
                1.7294405037073393,
                -0.3339649276001341,
                0.4983390002033542,
                2.275732029105069
            ]
        },
        {
            "positions": [
                -0.24825613199391738,
                -1.6139573073008964,
                1.6524255930677425,
                -0.2567544129511854,
                0.4167074661514668,
                2.174239643949854
            ]
        },
        {
            "positions": [
                -0.23929540671036348,
                -1.6379876784647671,
                1.5754106824281457,
                -0.17954389830223666,
                0.3350759320995792,
                2.0727472587946387
            ]
        },
        {
            "positions": [
                -0.13671810079938806,
                -1.6706925251160754,
                1.6515846989315401,
                -0.16339891504553938,
                0.33093852619147124,
                2.1639911684015556
            ]
        },
        {
            "positions": [
                -0.03414079488841262,
                -1.7033973717673836,
                1.7277587154349345,
                -0.14725393178884208,
                0.3268011202833632,
                2.255235078008472
            ]
        },
        {
            "positions": [
                0.06843651102256276,
                -1.736102218418692,
                1.8039327319383291,
                -0.1311089485321448,
                0.32266371437525526,
                2.346478987615389
            ]
        },
        {
            "positions": [
                0.17101381693353823,
                -1.7688070650700003,
                1.8801067484417235,
                -0.11496396527544751,
                0.31852630846714725,
                2.4377228972223053
            ]
        },
        {
            "positions": [
                0.27359112284451365,
                -1.8015119117213085,
                1.956280764945118,
                -0.09881898201875022,
                0.3143889025590393,
                2.528966806829222
            ]
        },
        {
            "positions": [
                0.33475992103932484,
                -1.8123930221922162,
                2.0371342154896026,
                -0.1435088212106166,
                0.3598650205462541,
                2.6354171861007933
            ]
        },
        {
            "positions": [
                0.3959287192341361,
                -1.8232741326631237,
                2.1179876660340877,
                -0.18819866040248295,
                0.40534113853346887,
                2.741867565372365
            ]
        },
        {
            "positions": [
                0.4570975174289473,
                -1.8341552431340313,
                2.1988411165785724,
                -0.23288849959434932,
                0.4508172565206837,
                2.848317944643936
            ]
        },
        {
            "positions": [
                0.5182663156237585,
                -1.845036353604939,
                2.279694567123057,
                -0.2775783387862157,
                0.4962933745078985,
                2.9547683239155074
            ]
        },
        {
            "positions": [
                0.5811956874062928,
                -1.8653686618484693,
                2.3163100807809123,
                -0.3365492294255554,
                0.5690487596344285,
                3.0155566503701294
            ]
        },
        {
            "positions": [
                0.6441250591888272,
                -1.8857009700919996,
                2.352925594438767,
                -0.395520120064895,
                0.6418041447609584,
                3.076344976824752
            ]
        },
        {
            "positions": [
                0.7070544309713616,
                -1.9060332783355298,
                2.3895411080966222,
                -0.4544910107042347,
                0.7145595298874883,
                3.137133303279374
            ]
        }
    ]
}