{
    "goal": {
        "global_pose": {
            "orientation": {
                "w": 0.005598929693374612,
                "x": 0.007748599140229565,
                "y": 0.7110244013736278,
                "z": -0.7031023480610252
            },
            "position": {
                "x": 0.1141497679147869,
                "y": -0.7141253447532654,
                "z": 0.3711530566215515
            }
        },
        "name": "move_to_auspresseinheit_B"
    },
    "id": "BKPIECE_move_to_auspresseinheit_B_81",
    "joint_names": [
        "shoulder_pan_joint",
        "shoulder_lift_joint",
        "elbow_joint",
        "wrist_1_joint",
        "wrist_2_joint",
        "wrist_3_joint"
    ],
    "metrics": {
        "cart_traj_len": 0.5653573983785722,
        "distance_elbow_joint": 0.0660931363666255,
        "distance_shoulder_lift_joint": 0.2938683273997649,
        "distance_shoulder_pan_joint": 0.5764313251435658,
        "distance_wrist_1_joint": 0.3360835265785319,
        "distance_wrist_2_joint": 0.9988873678653647,
        "distance_wrist_3_joint": 0.0030596270366531897,
        "smoothness": 3.806478935924272e-16,
        "time": 0.187705339,
        "traj_len": 1.5081191300393038,
        "weighted_distance": 1.9014503566771628
    },
    "planner": "BKPIECE",
    "start": {
        "state": {
            "elbow_joint": 2.0193061681459312,
            "shoulder_lift_joint": -1.1220205130644991,
            "shoulder_pan_joint": -1.0952072088045026,
            "wrist_1_joint": -0.8559671810662515,
            "wrist_2_joint": 0.4759638712940361,
            "wrist_3_joint": 3.159081874192446
        }
    },
    "waypoints": [
        {
            "positions": [
                -1.0952072088045026,
                -1.1220205130644991,
                2.0193061681459312,
                -0.8559671810662515,
                0.4759638712940361,
                3.159081874192446
            ]
        },
        {
            "positions": [
                -1.1912790963284303,
                -1.1709985676311265,
                2.0082906454181604,
                -0.7999532599698295,
                0.6424450992715969,
                3.158571936353004
            ]
        },
        {
            "positions": [
                -1.2873509838523578,
                -1.2199766221977542,
                1.9972751226903893,
                -0.7439393388734075,
                0.8089263272491576,
                3.1580619985135616
            ]
        },
        {
            "positions": [
                -1.3834228713762855,
                -1.2689546767643816,
                1.9862595999626185,
                -0.6879254177769856,
                0.9754075552267185,
                3.1575520606741194
            ]
        },
        {
            "positions": [
                -1.4794947589002132,
                -1.317932731331009,
                1.9752440772348476,
                -0.6319114966805636,
                1.1418887832042792,
                3.1570421228346772
            ]
        },
        {
            "positions": [
                -1.5755666464241407,
                -1.3669107858976366,
                1.9642285545070766,
                -0.5758975755841416,
                1.3083700111818402,
                3.156532184995235
            ]
        },
        {
            "positions": [
                -1.6716385339480684,
                -1.415888840464264,
                1.9532130317793057,
                -0.5198836544877196,
                1.4748512391594009,
                3.156022247155793
            ]
        }
    ]
}