{
    "goal": {
        "global_pose": {
            "orientation": {
                "w": 0.7047431493862688,
                "x": -0.7094548369677653,
                "y": 0.0024358444001904,
                "z": -0.0022348060817251984
            },
            "position": {
                "x": -0.39052492380142206,
                "y": 0.3671506643295288,
                "z": 0.19426114857196808
            }
        },
        "name": "move_to_magneteinheit_D"
    },
    "id": "BKPIECE_move_to_magneteinheit_D_19",
    "joint_names": [
        "shoulder_pan_joint",
        "shoulder_lift_joint",
        "elbow_joint",
        "wrist_1_joint",
        "wrist_2_joint",
        "wrist_3_joint"
    ],
    "metrics": {
        "cart_traj_len": 4.702356425684083,
        "distance_elbow_joint": 6.9858535204600445,
        "distance_shoulder_lift_joint": 2.1288449921642028,
        "distance_shoulder_pan_joint": 3.854061327653234,
        "distance_wrist_1_joint": 5.753419971611514,
        "distance_wrist_2_joint": 0.7673563637945982,
        "distance_wrist_3_joint": 3.0610551048618255,
        "smoothness": 0.40035290731001133,
        "time": 0.22385873699999997,
        "traj_len": 4.748746285130994,
        "weighted_distance": 5.93240910808376
    },
    "planner": "BKPIECE",
    "start": {
        "state": {
            "elbow_joint": 0.7495348899011911,
            "shoulder_lift_joint": -0.6476975780737668,
            "shoulder_pan_joint": -2.711696901376276,
            "wrist_1_joint": -0.0750647808097303,
            "wrist_2_joint": 0.43296659715458535,
            "wrist_3_joint": 3.1361499051832418
        }
    },
    "waypoints": [
        {
            "positions": [
                -2.711696901376276,
                -0.6476975780737668,
                0.7495348899011911,
                -0.0750647808097303,
                0.43296659715458535,
                3.1361499051832418
            ]
        },
        {
            "positions": [
                -2.7336974525299267,
                -0.7225822430556446,
                0.8368332349238728,
                -0.1713045468614569,
                0.4325990965720366,
                3.0248231225548405
            ]
        },
        {
            "positions": [
                -2.755698003683577,
                -0.7974669080375223,
                0.9241315799465546,
                -0.26754431291318354,
                0.43223159598948785,
                2.9134963399264393
            ]
        },
        {
            "positions": [
                -2.7776985548372277,
                -0.8723515730194,
                1.0114299249692362,
                -0.3637840789649101,
                0.4318640954069391,
                2.802169557298038
            ]
        },
        {
            "positions": [
                -2.7996991059908787,
                -0.9472362380012778,
                1.098728269991918,
                -0.4600238450166368,
                0.43149659482439034,
                2.690842774669637
            ]
        },
        {
            "positions": [
                -2.821699657144529,
                -1.0221209029831555,
                1.1860266150145997,
                -0.5562636110683634,
                0.4311290942418416,
                2.5795159920412356
            ]
        },
        {
            "positions": [
                -2.8437002082981797,
                -1.097005567965033,
                1.2733249600372814,
                -0.65250337712009,
                0.43076159365929284,
                2.4681892094128344
            ]
        },
        {
            "positions": [
                -2.8657007594518302,
                -1.171890232946911,
                1.3606233050599632,
                -0.7487431431718167,
                0.4303940930767441,
                2.356862426784433
            ]
        },
        {
            "positions": [
                -2.8877013106054807,
                -1.2467748979287885,
                1.447921650082645,
                -0.8449829092235434,
                0.43002659249419534,
                2.2455356441560315
            ]
        },
        {
            "positions": [
                -2.9097018617591313,
                -1.3216595629106664,
                1.5352199951053267,
                -0.94122267527527,
                0.4296590919116466,
                2.1342088615276302
            ]
        },
        {
            "positions": [
                -2.9317024129127818,
                -1.396544227892544,
                1.6225183401280083,
                -1.0374624413269964,
                0.42929159132909783,
                2.022882078899229
            ]
        },
        {
            "positions": [
                -2.9537029640664327,
                -1.471428892874422,
                1.7098166851506902,
                -1.133702207378723,
                0.4289240907465491,
                1.9115552962708278
            ]
        },
        {
            "positions": [
                -2.9757035152200833,
                -1.5463135578562994,
                1.7971150301733718,
                -1.2299419734304495,
                0.42855659016400033,
                1.8002285136424265
            ]
        },
        {
            "positions": [
                -2.9977040663737338,
                -1.6211982228381774,
                1.8844133751960537,
                -1.3261817394821764,
                0.4281890895814516,
                1.688901731014025
            ]
        },
        {
            "positions": [
                -3.0197046175273843,
                -1.696082887820055,
                1.9717117202187353,
                -1.422421505533903,
                0.4278215889989028,
                1.577574948385624
            ]
        },
        {
            "positions": [
                -3.041705168681035,
                -1.7709675528019326,
                2.059010065241417,
                -1.5186612715856294,
                0.42745408841635407,
                1.4662481657572228
            ]
        },
        {
            "positions": [
                -3.0637057198346853,
                -1.8458522177838104,
                2.1463084102640986,
                -1.6149010376373563,
                0.4270865878338053,
                1.3549213831288214
            ]
        },
        {
            "positions": [
                -3.085706270988336,
                -1.920736882765688,
                2.2336067552867807,
                -1.7111408036890827,
                0.42671908725125657,
                1.2435946005004201
            ]
        },
        {
            "positions": [
                -3.107706822141987,
                -1.995621547747566,
                2.3209051003094627,
                -1.8073805697408096,
                0.4263515866687078,
                1.1322678178720187
            ]
        },
        {
            "positions": [
                -3.1297073732956373,
                -2.070506212729444,
                2.408203445332144,
                -1.903620335792536,
                0.42598408608615906,
                1.0209410352436175
            ]
        },
        {
            "positions": [
                -3.151707924449288,
                -2.1453908777113213,
                2.495501790354826,
                -1.9998601018442625,
                0.4256165855036103,
                0.9096142526152162
            ]
        },
        {
            "positions": [
                -3.1737084756029383,
                -2.220275542693199,
                2.5828001353775076,
                -2.0960998678959895,
                0.42524908492106156,
                0.798287469986815
            ]
        },
        {
            "positions": [
                -3.195709026756589,
                -2.295160207675077,
                2.6700984804001893,
                -2.192339633947716,
                0.4248815843385128,
                0.686960687358414
            ]
        },
        {
            "positions": [
                -3.091844824406183,
                -2.2868185339560405,
                2.522119222840741,
                -2.092633353432598,
                0.4106211216431457,
                0.6708134530894064
            ]
        },
        {
            "positions": [
                -2.987980622055777,
                -2.278476860237004,
                2.3741399652812927,
                -1.9929270729174797,
                0.3963606589477785,
                0.6546662188203989
            ]
        },
        {
            "positions": [
                -2.884116419705371,
                -2.2701351865179675,
                2.2261607077218444,
                -1.8932207924023614,
                0.3821001962524114,
                0.6385189845513913
            ]
        },
        {
            "positions": [
                -2.780252217354965,
                -2.2617935127989313,
                2.078181450162396,
                -1.7935145118872433,
                0.36783973355704425,
                0.6223717502823838
            ]
        },
        {
            "positions": [
                -2.676388015004559,
                -2.2534518390798945,
                1.930202192602948,
                -1.693808231372125,
                0.35357927086167706,
                0.6062245160133763
            ]
        },
        {
            "positions": [
                -2.572523812654153,
                -2.2451101653608583,
                1.7822229350434995,
                -1.5941019508570067,
                0.33931880816630994,
                0.5900772817443687
            ]
        },
        {
            "positions": [
                -2.468659610303747,
                -2.236768491641822,
                1.6342436774840514,
                -1.4943956703418886,
                0.3250583454709428,
                0.5739300474753612
            ]
        },
        {
            "positions": [
                -2.3647954079533413,
                -2.2284268179227857,
                1.4862644199246031,
                -1.3946893898267703,
                0.31079788277557563,
                0.5577828132063537
            ]
        },
        {
            "positions": [
                -2.260931205602935,
                -2.220085144203749,
                1.3382851623651548,
                -1.294983109311652,
                0.2965374200802085,
                0.5416355789373462
            ]
        },
        {
            "positions": [
                -2.1570670032525294,
                -2.2117434704847128,
                1.1903059048057067,
                -1.1952768287965339,
                0.2822769573848414,
                0.5254883446683386
            ]
        },
        {
            "positions": [
                -2.053202800902123,
                -2.2034017967656765,
                1.0423266472462585,
                -1.0955705482814158,
                0.2680164946894742,
                0.509341110399331
            ]
        },
        {
            "positions": [
                -1.949338598551717,
                -2.1950601230466398,
                0.8943473896868099,
                -0.9958642677662974,
                0.253756031994107,
                0.4931938761303235
            ]
        },
        {
            "positions": [
                -1.8454743962013112,
                -2.1867184493276035,
                0.7463681321273616,
                -0.8961579872511791,
                0.23949556929873989,
                0.47704664186131596
            ]
        },
        {
            "positions": [
                -1.7416101938509052,
                -2.1783767756085672,
                0.5983888745679136,
                -0.796451706736061,
                0.22523510660337276,
                0.4608994075923084
            ]
        },
        {
            "positions": [
                -1.6377459915004993,
                -2.170035101889531,
                0.45040961700846527,
                -0.6967454262209427,
                0.2109746439080056,
                0.44475217332330086
            ]
        },
        {
            "positions": [
                -1.5338817891500933,
                -2.1616934281704943,
                0.30243035944901697,
                -0.5970391457058244,
                0.19671418121263845,
                0.42860493905429337
            ]
        },
        {
            "positions": [
                -1.4300175867996874,
                -2.153351754451458,
                0.15445110188956868,
                -0.4973328651907063,
                0.18245371851727132,
                0.4124577047852858
            ]
        },
        {
            "positions": [
                -1.3261533844492814,
                -2.1450100807324217,
                0.00647184433012038,
                -0.397626584675588,
                0.1681932558219042,
                0.39631047051627827
            ]
        },
        {
            "positions": [
                -1.2222891820988755,
                -2.136668407013385,
                -0.14150741322932747,
                -0.2979203041604699,
                0.15393279312653702,
                0.3801632362472707
            ]
        },
        {
            "positions": [
                -1.1184249797484695,
                -2.1283267332943487,
                -0.28948667078877577,
                -0.19821402364535157,
                0.1396723304311699,
                0.3640160019782632
            ]
        },
        {
            "positions": [
                -1.0145607773980636,
                -2.1199850595753125,
                -0.43746592834822406,
                -0.09850774313023347,
                0.12541186773580276,
                0.3478687677092557
            ]
        },
        {
            "positions": [
                -0.9106965750476577,
                -2.1116433858562758,
                -0.5854451859076724,
                0.0011985373848846237,
                0.11115140504043558,
                0.33172153344024813
            ]
        },
        {
            "positions": [
                -0.8068323726972513,
                -2.1033017121372395,
                -0.7334244434671211,
                0.10090481790000316,
                0.0968909423450684,
                0.3155742991712405
            ]
        },
        {
            "positions": [
                -0.7029681703468453,
                -2.094960038418203,
                -0.8814037010265694,
                0.20061109841512126,
                0.08263047964970127,
                0.29942706490223303
            ]
        },
        {
            "positions": [
                -0.5991039679964394,
                -2.0866183646991665,
                -1.0293829585860177,
                0.3003173789302398,
                0.06837001695433415,
                0.2832798306332255
            ]
        },
        {
            "positions": [
                -0.49523976564603345,
                -2.0782766909801302,
                -1.177362216145466,
                0.4000236594453579,
                0.05410955425896696,
                0.26713259636421793
            ]
        },
        {
            "positions": [
                -0.3913755632956275,
                -2.069935017261094,
                -1.3253414737049138,
                0.499729939960476,
                0.03984909156359984,
                0.2509853620952104
            ]
        },
        {
            "positions": [
                -0.28751136094522156,
                -2.0615933435420577,
                -1.4733207312643621,
                0.5994362204755941,
                0.02558862886823271,
                0.2348381278262029
            ]
        },
        {
            "positions": [
                -0.18364715859481562,
                -2.053251669823021,
                -1.6212999888238109,
                0.6991425009907126,
                0.011328166172865528,
                0.21869089355719534
            ]
        },
        {
            "positions": [
                -0.0797829562444099,
                -2.0449099961039847,
                -1.7692792463832592,
                0.7988487815058306,
                -0.0029322965225015984,
                0.2025436592881878
            ]
        },
        {
            "positions": [
                -0.061191249959504854,
                -2.0613919605573656,
                -1.9108172772649943,
                0.9183845008310068,
                -0.021869551638833223,
                0.19373118664254035
            ]
        },
        {
            "positions": [
                -0.04259954367459981,
                -2.077873925010746,
                -2.05235530814673,
                1.037920220156183,
                -0.04080680675516485,
                0.18491871399689294
            ]
        },
        {
            "positions": [
                -0.024007837389694767,
                -2.0943558894641265,
                -2.193893339028465,
                1.157455939481359,
                -0.05974406187149647,
                0.17610624135124553
            ]
        },
        {
            "positions": [
                -0.005416131104789723,
                -2.1108378539175074,
                -2.3354313699102,
                1.2769916588065353,
                -0.0786813169878281,
                0.1672937687055981
            ]
        },
        {
            "positions": [
                -0.06533489997849733,
                -2.1659059516436003,
                -2.355351396460418,
                1.3325962673796279,
                0.006554832896233487,
                0.1365607792442031
            ]
        },
        {
            "positions": [
                -0.12525366885220493,
                -2.220974049369693,
                -2.375271423010636,
                1.3882008759527205,
                0.09179098278029507,
                0.10582778978280813
            ]
        },
        {
            "positions": [
                -0.18517243772591255,
                -2.2760421470957857,
                -2.395191449560854,
                1.443805484525813,
                0.17702713266435666,
                0.07509480032141314
            ]
        }
    ]
}