{
    "goal": {
        "global_pose": {
            "orientation": {
                "w": -0.00223480608172531,
                "x": 0.0024358444001904467,
                "y": 0.7094548369677653,
                "z": -0.704743149386269
            },
            "position": {
                "x": -0.37947507619857795,
                "y": -0.6371506643295288,
                "z": 0.19426114857196808
            }
        },
        "name": "move_to_magneteinheit_C"
    },
    "id": "BKPIECE_move_to_magneteinheit_C_40",
    "joint_names": [
        "shoulder_pan_joint",
        "shoulder_lift_joint",
        "elbow_joint",
        "wrist_1_joint",
        "wrist_2_joint",
        "wrist_3_joint"
    ],
    "metrics": {
        "cart_traj_len": 2.597764313832101,
        "distance_elbow_joint": 1.2836717374808717,
        "distance_shoulder_lift_joint": 0.7646001716167465,
        "distance_shoulder_pan_joint": 2.771935452811878,
        "distance_wrist_1_joint": 2.2820631759486343,
        "distance_wrist_2_joint": 1.1970990174094425,
        "distance_wrist_3_joint": 2.521960072306658,
        "smoothness": 0.8019912943355437,
        "time": 0.173556533,
        "traj_len": 3.2895789438124496,
        "weighted_distance": 4.398228275743043
    },
    "planner": "BKPIECE",
    "start": {
        "state": {
            "elbow_joint": 1.9565354006593851,
            "shoulder_lift_joint": -1.4165861576512813,
            "shoulder_pan_joint": -1.6717766223278752,
            "wrist_1_joint": -0.528663328821883,
            "wrist_2_joint": 1.472756589259273,
            "wrist_3_joint": 3.159348288315503
        }
    },
    "waypoints": [
        {
            "positions": [
                -1.6717766223278752,
                -1.4165861576512813,
                1.9565354006593851,
                -0.528663328821883,
                1.472756589259273,
                3.159348288315503
            ]
        },
        {
            "positions": [
                -1.6284365248075536,
                -1.4367385902392567,
                1.959404613602667,
                -0.5294075859930814,
                1.3988935366551845,
                3.124848311585499
            ]
        },
        {
            "positions": [
                -1.5347681805856064,
                -1.4634818655924247,
                1.9057849180522806,
                -0.531297516621016,
                1.298694937039659,
                3.027594042617337
            ]
        },
        {
            "positions": [
                -1.4410998363636591,
                -1.4902251409455929,
                1.852165222501894,
                -0.5331874472489506,
                1.1984963374241335,
                2.9303397736491754
            ]
        },
        {
            "positions": [
                -1.347431492141712,
                -1.516968416298761,
                1.7985455269515078,
                -0.5350773778768854,
                1.098297737808608,
                2.8330855046810135
            ]
        },
        {
            "positions": [
                -1.2537631479197648,
                -1.5437116916519291,
                1.7449258314011213,
                -0.53696730850482,
                0.9980991381930826,
                2.735831235712852
            ]
        },
        {
            "positions": [
                -1.1600948036978176,
                -1.5704549670050971,
                1.6913061358507349,
                -0.5388572391327546,
                0.8979005385775573,
                2.63857696674469
            ]
        },
        {
            "positions": [
                -1.0770614511283734,
                -1.5905560536247143,
                1.6213951256596206,
                -0.5347062512952542,
                0.818800094376813,
                2.5337556849187415
            ]
        },
        {
            "positions": [
                -0.994028098558929,
                -1.6106571402443313,
                1.5514841154685062,
                -0.5305552634577536,
                0.7396996501760688,
                2.428934403092793
            ]
        },
        {
            "positions": [
                -0.9109947459894848,
                -1.6307582268639484,
                1.481573105277392,
                -0.5264042756202532,
                0.6605992059753245,
                2.3241131212668447
            ]
        },
        {
            "positions": [
                -0.8279613934200405,
                -1.6508593134835654,
                1.4116620950862775,
                -0.5222532877827526,
                0.5814987617745803,
                2.219291839440896
            ]
        },
        {
            "positions": [
                -0.7449280408505963,
                -1.6709604001031826,
                1.3417510848951633,
                -0.5181022999452521,
                0.502398317573836,
                2.1144705576149474
            ]
        },
        {
            "positions": [
                -0.9385576703534685,
                -1.6492373847713055,
                1.3813437038608625,
                -0.40974656807569537,
                0.49882080680728186,
                2.088872618033822
            ]
        },
        {
            "positions": [
                -1.1321872998563407,
                -1.6275143694394285,
                1.420936322826562,
                -0.3013908362061386,
                0.4952432960407277,
                2.0632746784526974
            ]
        },
        {
            "positions": [
                -1.3258169293592128,
                -1.6057913541075515,
                1.4605289417922611,
                -0.19303510433658178,
                0.4916657852741735,
                2.037676738871572
            ]
        },
        {
            "positions": [
                -1.5194465588620851,
                -1.5840683387756744,
                1.5001215607579603,
                -0.084679372467025,
                0.4880882745076193,
                2.0120787992904474
            ]
        },
        {
            "positions": [
                -1.7130761883649575,
                -1.5623453234437972,
                1.5397141797236598,
                0.023676359402531877,
                0.48451076374106516,
                1.9864808597093222
            ]
        },
        {
            "positions": [
                -1.9067058178678296,
                -1.5406223081119201,
                1.579306798689359,
                0.1320320912720886,
                0.480933252974511,
                1.9608829201281972
            ]
        },
        {
            "positions": [
                -2.1003354473707017,
                -1.518899292780043,
                1.6188994176550582,
                0.24038782314164542,
                0.4773557422079568,
                1.935284980547072
            ]
        },
        {
            "positions": [
                -2.293965076873574,
                -1.497176277448166,
                1.6584920366207574,
                0.34874355501120213,
                0.47377823144140263,
                1.909687040965947
            ]
        },
        {
            "positions": [
                -2.4875947063764463,
                -1.475453262116289,
                1.6980846555864568,
                0.4570992868807589,
                0.47020072067484847,
                1.884089101384822
            ]
        },
        {
            "positions": [
                -2.5025850222740735,
                -1.4522912434798378,
                1.7346159194210762,
                0.37040896159003633,
                0.4905660894839448,
                1.9891995460493457
            ]
        },
        {
            "positions": [
                -2.5175753381717008,
                -1.4291292248433867,
                1.7711471832556958,
                0.28371863629931376,
                0.5109314582930411,
                2.0943099907138696
            ]
        },
        {
            "positions": [
                -2.532565654069328,
                -1.4059672062069355,
                1.807678447090315,
                0.1970283110085912,
                0.5312968271021374,
                2.1994204353783933
            ]
        },
        {
            "positions": [
                -2.5315257948674126,
                -1.3797406402754395,
                1.8332463991852146,
                0.09070224937323705,
                0.5475087561708889,
                2.3033121758263913
            ]
        },
        {
            "positions": [
                -2.530485935665497,
                -1.3535140743439436,
                1.8588143512801139,
                -0.015623812262117093,
                0.5637206852396404,
                2.4072039162743897
            ]
        },
        {
            "positions": [
                -2.5294460764635818,
                -1.3272875084124476,
                1.8843823033750133,
                -0.12194987389747122,
                0.5799326143083918,
                2.5110956567223877
            ]
        },
        {
            "positions": [
                -2.5185801403615575,
                -1.2939769009176256,
                1.9084858588450606,
                -0.2613225896666751,
                0.5968948653466867,
                2.63503452273007
            ]
        },
        {
            "positions": [
                -2.5077142042595333,
                -1.2606662934228035,
                1.9325894143151077,
                -0.40069530543587906,
                0.6138571163849816,
                2.7589733887377523
            ]
        },
        {
            "positions": [
                -2.496848268157509,
                -1.2273556859279815,
                1.956692969785155,
                -0.5400680212050829,
                0.6308193674232765,
                2.8829122547454342
            ]
        },
        {
            "positions": [
                -2.485982332055485,
                -1.1940450784331593,
                1.980796525255202,
                -0.6794407369742869,
                0.6477816184615715,
                3.0068511207531166
            ]
        },
        {
            "positions": [
                -2.4751163959534606,
                -1.1607344709383374,
                2.0049000807252493,
                -0.8188134527434907,
                0.6647438694998663,
                3.130789986760799
            ]
        }
    ]
}