{
    "goal": {
        "global_pose": {
            "orientation": {
                "w": 0.5084816262002911,
                "x": -0.4908360881923452,
                "y": 0.5182115481033761,
                "z": -0.48164630358495003
            },
            "position": {
                "x": 0.5540239810943604,
                "y": -0.46912469901144505,
                "z": 0.16403168439865112
            }
        },
        "name": "move_to_storage_B"
    },
    "id": "BKPIECE_move_to_storage_B_15",
    "joint_names": [
        "shoulder_pan_joint",
        "shoulder_lift_joint",
        "elbow_joint",
        "wrist_1_joint",
        "wrist_2_joint",
        "wrist_3_joint"
    ],
    "metrics": {
        "cart_traj_len": 2.145456556706721,
        "distance_elbow_joint": 1.4314347562514855,
        "distance_shoulder_lift_joint": 1.592641968366058,
        "distance_shoulder_pan_joint": 0.9329447234589383,
        "distance_wrist_1_joint": 3.0418043850881755,
        "distance_wrist_2_joint": 2.7024253598093106,
        "distance_wrist_3_joint": 3.372081622741382,
        "smoothness": 0.45183898088560415,
        "time": 0.417060309,
        "traj_len": 3.615706406183355,
        "weighted_distance": 5.055860540609838
    },
    "planner": "BKPIECE",
    "start": {
        "state": {
            "elbow_joint": 1.6649325340416963,
            "shoulder_lift_joint": -0.6616387945129425,
            "shoulder_pan_joint": -0.9139837929255878,
            "wrist_1_joint": 2.1467571094334352,
            "wrist_2_joint": -2.234195976750228,
            "wrist_3_joint": 0.005470921511140723
        }
    },
    "waypoints": [
        {
            "positions": [
                -0.9139837929255878,
                -0.6616387945129425,
                1.6649325340416963,
                2.1467571094334352,
                -2.234195976750228,
                0.005470921511140723
            ]
        },
        {
            "positions": [
                -0.8245245657957976,
                -0.6973482823590818,
                1.7041430619708309,
                2.1789731108908184,
                -2.161830709429323,
                -0.11115647485835581
            ]
        },
        {
            "positions": [
                -0.8054432571893279,
                -0.7633300041443793,
                1.6679946766567977,
                2.059949811654102,
                -2.0612661052600845,
                -0.08174742767814253
            ]
        },
        {
            "positions": [
                -0.786361948582858,
                -0.8293117259296771,
                1.6318462913427645,
                1.9409265124173862,
                -1.960701501090846,
                -0.05233838049792925
            ]
        },
        {
            "positions": [
                -0.7672806399763883,
                -0.8952934477149748,
                1.595697906028731,
                1.82190321318067,
                -1.8601368969216072,
                -0.02292933331771596
            ]
        },
        {
            "positions": [
                -0.7481993313699186,
                -0.9612751695002724,
                1.5595495207146979,
                1.7028799139439539,
                -1.7595722927523687,
                0.006479713862497308
            ]
        },
        {
            "positions": [
                -0.7291180227634487,
                -1.02725689128557,
                1.5234011354006647,
                1.583856614707238,
                -1.6590076885831302,
                0.035888761042710576
            ]
        },
        {
            "positions": [
                -0.710036714156979,
                -1.0932386130708678,
                1.4872527500866313,
                1.4648333154705218,
                -1.5584430844138915,
                0.06529780822292389
            ]
        },
        {
            "positions": [
                -0.6909554055505093,
                -1.1592203348561654,
                1.451104364772598,
                1.3458100162338056,
                -1.457878480244653,
                0.09470685540313717
            ]
        },
        {
            "positions": [
                -0.6718740969440394,
                -1.225202056641463,
                1.4149559794585649,
                1.2267867169970894,
                -1.3573138760754144,
                0.12411590258335042
            ]
        },
        {
            "positions": [
                -0.6527927883375697,
                -1.2911837784267606,
                1.3788075941445317,
                1.1077634177603735,
                -1.256749271906176,
                0.1535249497635637
            ]
        },
        {
            "positions": [
                -0.6337114797311,
                -1.3571655002120582,
                1.3426592088304985,
                0.9887401185236575,
                -1.1561846677369374,
                0.18293399694377696
            ]
        },
        {
            "positions": [
                -0.6146301711246303,
                -1.4231472219973558,
                1.306510823516465,
                0.8697168192869413,
                -1.0556200635676989,
                0.21234304412399027
            ]
        },
        {
            "positions": [
                -0.5955488625181604,
                -1.4891289437826538,
                1.2703624382024319,
                0.7506935200502252,
                -0.9550554593984601,
                0.24175209130420358
            ]
        },
        {
            "positions": [
                -0.5764675539116906,
                -1.5551106655679514,
                1.2342140528883987,
                0.631670220813509,
                -0.8544908552292216,
                0.2711611384844168
            ]
        },
        {
            "positions": [
                -0.557386245305221,
                -1.621092387353249,
                1.1980656675743653,
                0.512646921576793,
                -0.7539262510599831,
                0.3005701856646301
            ]
        },
        {
            "positions": [
                -0.5383049366987511,
                -1.6870741091385466,
                1.161917282260332,
                0.3936236223400768,
                -0.6533616468907446,
                0.32997923284484343
            ]
        },
        {
            "positions": [
                -0.5676347191846512,
                -1.6572211273627333,
                1.2066540427135874,
                0.32918999628323203,
                -0.5943305400512799,
                0.4781012601431953
            ]
        },
        {
            "positions": [
                -0.5969645016705513,
                -1.62736814558692,
                1.2513908031668428,
                0.26475637022638726,
                -0.5352994332118154,
                0.6262232874415472
            ]
        },
        {
            "positions": [
                -0.6262942841564514,
                -1.5975151638111065,
                1.2961275636200982,
                0.2003227441695425,
                -0.4762683263723507,
                0.7743453147398992
            ]
        },
        {
            "positions": [
                -0.6556240666423514,
                -1.5676621820352932,
                1.3408643240733535,
                0.13588911811269772,
                -0.41723721953288617,
                0.9224673420382511
            ]
        },
        {
            "positions": [
                -0.6849538491282515,
                -1.5378092002594799,
                1.385601084526609,
                0.07145549205585294,
                -0.35820611269342156,
                1.070589369336603
            ]
        },
        {
            "positions": [
                -0.7142836316141516,
                -1.5079562184836663,
                1.4303378449798643,
                0.00702186599900817,
                -0.2991750058539569,
                1.218711396634955
            ]
        },
        {
            "positions": [
                -0.7436134141000517,
                -1.478103236707853,
                1.4750746054331196,
                -0.0574117600578366,
                -0.2401438990144923,
                1.3668334239333069
            ]
        },
        {
            "positions": [
                -0.7729431965859518,
                -1.4482502549320397,
                1.519811365886375,
                -0.12184538611468138,
                -0.18111279217502768,
                1.5149554512316588
            ]
        },
        {
            "positions": [
                -0.8022729790718519,
                -1.4183972731562264,
                1.5645481263396304,
                -0.18627901217152615,
                -0.12208168533556307,
                1.6630774785300109
            ]
        },
        {
            "positions": [
                -0.8316027615577519,
                -1.3885442913804131,
                1.609284886792886,
                -0.2507126382283709,
                -0.06305057849609852,
                1.8111995058283628
            ]
        },
        {
            "positions": [
                -0.860932544043652,
                -1.3586913096045996,
                1.6540216472461413,
                -0.3151462642852157,
                -0.004019471656633744,
                1.9593215331267149
            ]
        },
        {
            "positions": [
                -0.8902623265295522,
                -1.3288383278287863,
                1.6987584076993967,
                -0.37957989034206047,
                0.05501163518283081,
                2.1074435604250663
            ]
        },
        {
            "positions": [
                -0.9195921090154522,
                -1.298985346052973,
                1.743495168152652,
                -0.44401351639890524,
                0.11404274202229547,
                2.2555655877234186
            ]
        },
        {
            "positions": [
                -0.9489218915013522,
                -1.2691323642771595,
                1.7882319286059074,
                -0.50844714245575,
                0.17307384886176003,
                2.40368761502177
            ]
        },
        {
            "positions": [
                -0.9782516739872524,
                -1.2392793825013462,
                1.8329686890591628,
                -0.5728807685125947,
                0.2321049557012247,
                2.551809642320123
            ]
        },
        {
            "positions": [
                -1.0075814564731524,
                -1.2094264007255329,
                1.8777054495124181,
                -0.6373143945694395,
                0.29113606254068924,
                2.699931669618474
            ]
        },
        {
            "positions": [
                -1.0369112389590525,
                -1.1795734189497193,
                1.9224422099656735,
                -0.7017480206262843,
                0.3501671693801538,
                2.8480536969168266
            ]
        },
        {
            "positions": [
                -1.0662410214449527,
                -1.1497204371739063,
                1.9671789704189289,
                -0.766181646683129,
                0.40919827621961846,
                2.9961757242151785
            ]
        },
        {
            "positions": [
                -1.0955708039308527,
                -1.1198674553980927,
                2.0119157308721842,
                -0.8306152727399738,
                0.4682293830590832,
                3.1442977515135304
            ]
        }
    ]
}