{
    "goal": {
        "global_pose": {
            "orientation": {
                "w": 0.7047431493862688,
                "x": -0.7094548369677653,
                "y": 0.0024358444001904,
                "z": -0.0022348060817251984
            },
            "position": {
                "x": -0.39052492380142206,
                "y": 0.3671506643295288,
                "z": 0.19426114857196808
            }
        },
        "name": "move_to_magneteinheit_D"
    },
    "id": "BKPIECE_move_to_magneteinheit_D_82",
    "joint_names": [
        "shoulder_pan_joint",
        "shoulder_lift_joint",
        "elbow_joint",
        "wrist_1_joint",
        "wrist_2_joint",
        "wrist_3_joint"
    ],
    "metrics": {
        "cart_traj_len": 4.693654424399424,
        "distance_elbow_joint": 3.117994818198006,
        "distance_shoulder_lift_joint": 1.1301979256770553,
        "distance_shoulder_pan_joint": 3.451009602276035,
        "distance_wrist_1_joint": 2.1710017722758455,
        "distance_wrist_2_joint": 1.931982557161924,
        "distance_wrist_3_joint": 3.3397752372476046,
        "smoothness": 0.5100977338465058,
        "time": 0.33761061000000003,
        "traj_len": 3.891267391588051,
        "weighted_distance": 5.091610424685834
    },
    "planner": "BKPIECE",
    "start": {
        "state": {
            "elbow_joint": 0.7495348899011911,
            "shoulder_lift_joint": -0.6476975780737668,
            "shoulder_pan_joint": -2.711696901376276,
            "wrist_1_joint": -0.0750647808097303,
            "wrist_2_joint": 0.43296659715458535,
            "wrist_3_joint": 3.1361499051832418
        }
    },
    "waypoints": [
        {
            "positions": [
                -2.711696901376276,
                -0.6476975780737668,
                0.7495348899011911,
                -0.0750647808097303,
                0.43296659715458535,
                3.1361499051832418
            ]
        },
        {
            "positions": [
                -2.7321838764589907,
                -0.6416861632984707,
                0.7399165693869485,
                -0.1761850408884783,
                0.5078515570001015,
                2.972863539971749
            ]
        },
        {
            "positions": [
                -2.752670851541705,
                -0.6356747485231746,
                0.7302982488727059,
                -0.27730530096722633,
                0.5827365168456178,
                2.809577174760256
            ]
        },
        {
            "positions": [
                -2.7731578266244195,
                -0.6296633337478785,
                0.7206799283584633,
                -0.37842556104597436,
                0.6576214766911339,
                2.646290809548763
            ]
        },
        {
            "positions": [
                -2.7590811491856475,
                -0.6367403656649118,
                0.6914200001105099,
                -0.49027391241812773,
                0.719881292379232,
                2.4763275919595316
            ]
        },
        {
            "positions": [
                -2.7450044717468756,
                -0.6438173975819451,
                0.6621600718625564,
                -0.6021222637902811,
                0.7821411080673302,
                2.3063643743703
            ]
        },
        {
            "positions": [
                -2.7309277943081036,
                -0.6508944294989784,
                0.632900143614603,
                -0.7139706151624345,
                0.8444009237554283,
                2.1364011567810683
            ]
        },
        {
            "positions": [
                -2.716851116869332,
                -0.6579714614160116,
                0.6036402153666496,
                -0.8258189665345879,
                0.9066607394435264,
                1.9664379391918372
            ]
        },
        {
            "positions": [
                -2.70277443943056,
                -0.6650484933330448,
                0.5743802871186962,
                -0.9376673179067413,
                0.9689205551316247,
                1.7964747216026056
            ]
        },
        {
            "positions": [
                -2.6886977619917882,
                -0.6721255252500782,
                0.5451203588707427,
                -1.0495156692788945,
                1.0311803708197227,
                1.626511504013374
            ]
        },
        {
            "positions": [
                -2.6746210845530163,
                -0.6792025571671114,
                0.5158604306227893,
                -1.161364020651048,
                1.093440186507821,
                1.4565482864241424
            ]
        },
        {
            "positions": [
                -2.55149823614189,
                -0.7254074088734608,
                0.4206636480848718,
                -1.1822919693904943,
                1.0357970665608434,
                1.5050625692008226
            ]
        },
        {
            "positions": [
                -2.4283753877307634,
                -0.77161226057981,
                0.32546686554695425,
                -1.2032199181299403,
                0.9781539466138658,
                1.5535768519775028
            ]
        },
        {
            "positions": [
                -2.3052525393196373,
                -0.8178171122861593,
                0.23027008300903673,
                -1.2241478668693866,
                0.9205108266668882,
                1.602091134754183
            ]
        },
        {
            "positions": [
                -2.1821296909085106,
                -0.8640219639925086,
                0.1350733004711192,
                -1.2450758156088326,
                0.8628677067199106,
                1.6506054175308633
            ]
        },
        {
            "positions": [
                -2.0590068424973844,
                -0.910226815698858,
                0.03987651793320168,
                -1.2660037643482789,
                0.8052245867729331,
                1.6991197003075433
            ]
        },
        {
            "positions": [
                -1.9358839940862578,
                -0.9564316674052072,
                -0.05532026460471584,
                -1.286931713087725,
                0.7475814668259556,
                1.7476339830842236
            ]
        },
        {
            "positions": [
                -1.8127611456751316,
                -1.0026365191115565,
                -0.15051704714263336,
                -1.3078596618271712,
                0.689938346878978,
                1.7961482658609038
            ]
        },
        {
            "positions": [
                -1.689638297264005,
                -1.0488413708179058,
                -0.2457138296805509,
                -1.3287876105666174,
                0.6322952269320005,
                1.844662548637584
            ]
        },
        {
            "positions": [
                -1.5665154488528787,
                -1.0950462225242552,
                -0.3409106122184684,
                -1.3497155593060635,
                0.5746521069850229,
                1.8931768314142643
            ]
        },
        {
            "positions": [
                -1.4433926004417523,
                -1.1412510742306043,
                -0.43610739475638594,
                -1.3706435080455097,
                0.5170089870380453,
                1.9416911141909445
            ]
        },
        {
            "positions": [
                -1.320269752030626,
                -1.1874559259369537,
                -0.5313041772943033,
                -1.3915714567849558,
                0.45936586709106775,
                1.9902053969676246
            ]
        },
        {
            "positions": [
                -1.1971469036194995,
                -1.233660777643303,
                -0.626500959832221,
                -1.412499405524402,
                0.4017227471440903,
                2.038719679744305
            ]
        },
        {
            "positions": [
                -1.074024055208373,
                -1.2798656293496524,
                -0.7216977423701386,
                -1.433427354263848,
                0.3440796271971127,
                2.087233962520985
            ]
        },
        {
            "positions": [
                -0.9509012067972467,
                -1.3260704810560018,
                -0.816894524908056,
                -1.4543553030032943,
                0.28643650725013514,
                2.1357482452976653
            ]
        },
        {
            "positions": [
                -0.8277783583861202,
                -1.372275332762351,
                -0.9120913074459734,
                -1.4752832517427406,
                0.22879338730315757,
                2.1842625280743455
            ]
        },
        {
            "positions": [
                -0.7046555099749938,
                -1.4184801844687003,
                -1.007288089983891,
                -1.4962112004821866,
                0.17115026735618,
                2.2327768108510258
            ]
        },
        {
            "positions": [
                -0.612547287861339,
                -1.4360138151093853,
                -1.1194040882922065,
                -1.56666400497966,
                0.15765552129510227,
                2.31858204480593
            ]
        },
        {
            "positions": [
                -0.5204390657476843,
                -1.45354744575007,
                -1.231520086600522,
                -1.6371168094771336,
                0.14416077523402454,
                2.4043872787608347
            ]
        },
        {
            "positions": [
                -0.4283308436340295,
                -1.471081076390755,
                -1.3436360849088378,
                -1.7075696139746068,
                0.13066602917294684,
                2.4901925127157387
            ]
        },
        {
            "positions": [
                -0.3362226215203747,
                -1.48861470703144,
                -1.4557520832171533,
                -1.7780224184720803,
                0.11717128311186911,
                2.575997746670643
            ]
        },
        {
            "positions": [
                -0.24411439940671992,
                -1.506148337672125,
                -1.5678680815254689,
                -1.8484752229695538,
                0.10367653705079138,
                2.6618029806255477
            ]
        },
        {
            "positions": [
                -0.1520061772930652,
                -1.5236819683128098,
                -1.6799840798337844,
                -1.9189280274670273,
                0.09018179098971367,
                2.747608214580452
            ]
        },
        {
            "positions": [
                -0.059897955179410434,
                -1.5412155989534946,
                -1.7921000781421,
                -1.9893808319645006,
                0.07668704492863594,
                2.8334134485353566
            ]
        },
        {
            "positions": [
                0.03221026693424445,
                -1.5587492295941796,
                -1.9042160764504157,
                -2.059833636461974,
                0.06319229886755821,
                2.9192186824902606
            ]
        },
        {
            "positions": [
                0.12431848904789922,
                -1.5762828602348646,
                -2.016332074758731,
                -2.1302864409594475,
                0.049697552806480486,
                3.005023916445165
            ]
        },
        {
            "positions": [
                0.216426711161554,
                -1.5938164908755494,
                -2.1284480730670468,
                -2.200739245456921,
                0.03620280674540277,
                3.0908291504000696
            ]
        },
        {
            "positions": [
                0.08310533141424764,
                -1.6431533322833816,
                -2.208452024810303,
                -2.1856301429140363,
                -0.03522105593668734,
                3.099460068570929
            ]
        },
        {
            "positions": [
                -0.050216048333058705,
                -1.6924901736912135,
                -2.2884559765535597,
                -2.1705210403711512,
                -0.10664491861877745,
                3.108090986741788
            ]
        },
        {
            "positions": [
                -0.18353742808036513,
                -1.7418270150990456,
                -2.368459928296816,
                -2.1554119378282666,
                -0.1780687813008676,
                3.1167219049126476
            ]
        }
    ]
}