{
    "goal": {
        "global_pose": {
            "orientation": {
                "w": 0.7047431493862688,
                "x": -0.7094548369677653,
                "y": 0.0024358444001904,
                "z": -0.0022348060817251984
            },
            "position": {
                "x": -0.39052492380142206,
                "y": 0.3671506643295288,
                "z": 0.19426114857196808
            }
        },
        "name": "move_to_magneteinheit_D"
    },
    "id": "BKPIECE_move_to_magneteinheit_D_38",
    "joint_names": [
        "shoulder_pan_joint",
        "shoulder_lift_joint",
        "elbow_joint",
        "wrist_1_joint",
        "wrist_2_joint",
        "wrist_3_joint"
    ],
    "metrics": {
        "cart_traj_len": 5.285096177914237,
        "distance_elbow_joint": 3.128861162288248,
        "distance_shoulder_lift_joint": 2.1808615901287673,
        "distance_shoulder_pan_joint": 3.7884159043716332,
        "distance_wrist_1_joint": 2.6919393574234713,
        "distance_wrist_2_joint": 3.3168282474081536,
        "distance_wrist_3_joint": 3.1146400035642996,
        "smoothness": 0.5097138740424743,
        "time": 0.284650248,
        "traj_len": 4.268670315822548,
        "weighted_distance": 5.519021097726009
    },
    "planner": "BKPIECE",
    "start": {
        "state": {
            "elbow_joint": 0.7495348899011911,
            "shoulder_lift_joint": -0.6476975780737668,
            "shoulder_pan_joint": -2.711696901376276,
            "wrist_1_joint": -0.0750647808097303,
            "wrist_2_joint": 0.43296659715458535,
            "wrist_3_joint": 3.1361499051832418
        }
    },
    "waypoints": [
        {
            "positions": [
                -2.711696901376276,
                -0.6476975780737668,
                0.7495348899011911,
                -0.0750647808097303,
                0.43296659715458535,
                3.1361499051832418
            ]
        },
        {
            "positions": [
                -2.790719592733601,
                -0.5593015456901556,
                0.670197358850422,
                -0.07187067156414448,
                0.3946620877625207,
                3.0528458025032057
            ]
        },
        {
            "positions": [
                -2.8697422840909264,
                -0.4709055133065444,
                0.5908598277996528,
                -0.06867656231855866,
                0.356357578370456,
                2.96954169982317
            ]
        },
        {
            "positions": [
                -2.9487649754482512,
                -0.38250948092293313,
                0.5115222967488837,
                -0.06548245307297285,
                0.31805306897839136,
                2.886237597143134
            ]
        },
        {
            "positions": [
                -2.9225360988944944,
                -0.3882600443260844,
                0.47664855361109754,
                -0.10520552586653228,
                0.42762580327034255,
                2.7108240723504995
            ]
        },
        {
            "positions": [
                -2.8963072223407376,
                -0.3940106077292357,
                0.44177481047331135,
                -0.14492859866009172,
                0.5371985375622937,
                2.5354105475578654
            ]
        },
        {
            "positions": [
                -2.870078345786981,
                -0.39976117113238696,
                0.40690106733552517,
                -0.18465167145365116,
                0.646771271854245,
                2.3599970227652314
            ]
        },
        {
            "positions": [
                -2.8438494692332243,
                -0.40551173453553824,
                0.372027324197739,
                -0.2243747442472106,
                0.7563440061461961,
                2.184583497972597
            ]
        },
        {
            "positions": [
                -2.8176205926794675,
                -0.4112622979386895,
                0.3371535810599528,
                -0.26409781704077007,
                0.8659167404381475,
                2.0091699731799624
            ]
        },
        {
            "positions": [
                -2.7913917161257107,
                -0.4170128613418408,
                0.3022798379221666,
                -0.3038208898343295,
                0.9754894747300986,
                1.8337564483873283
            ]
        },
        {
            "positions": [
                -2.7651628395719543,
                -0.42276342474499207,
                0.26740609478438043,
                -0.34354396262788894,
                1.0850622090220499,
                1.658342923594694
            ]
        },
        {
            "positions": [
                -2.7389339630181975,
                -0.42851398814814334,
                0.23253235164659425,
                -0.38326703542144835,
                1.1946349433140009,
                1.4829293988020598
            ]
        },
        {
            "positions": [
                -2.7127050864644406,
                -0.4342645515512946,
                0.19765860850880806,
                -0.4229901082150079,
                1.3042076776059524,
                1.3075158740094253
            ]
        },
        {
            "positions": [
                -2.686476209910684,
                -0.4400151149544459,
                0.16278486537102188,
                -0.4627131810085673,
                1.4137804118979036,
                1.1321023492167912
            ]
        },
        {
            "positions": [
                -2.660247333356927,
                -0.4457656783575972,
                0.1279111222332357,
                -0.5024362538021268,
                1.5233531461898546,
                0.9566888244241569
            ]
        },
        {
            "positions": [
                -2.6340184568031706,
                -0.45151624176074845,
                0.09303737909544951,
                -0.5421593265956861,
                1.6329258804818059,
                0.7812752996315226
            ]
        },
        {
            "positions": [
                -2.6077895802494138,
                -0.4572668051638997,
                0.05816363595766333,
                -0.5818823993892456,
                1.7424986147737571,
                0.6058617748388881
            ]
        },
        {
            "positions": [
                -2.581560703695657,
                -0.463017368567051,
                0.023289892819877173,
                -0.621605472182805,
                1.8520713490657084,
                0.430448250046254
            ]
        },
        {
            "positions": [
                -2.4782140213757065,
                -0.5306554690626943,
                -0.04953688809416676,
                -0.5515508717060451,
                1.7921779812147993,
                0.4186798434917711
            ]
        },
        {
            "positions": [
                -2.3748673390557555,
                -0.5982935695583376,
                -0.12236366900821069,
                -0.4814962712292853,
                1.73228461336389,
                0.4069114369372883
            ]
        },
        {
            "positions": [
                -2.271520656735805,
                -0.6659316700539809,
                -0.19519044992225462,
                -0.41144167075252536,
                1.672391245512981,
                0.39514303038280546
            ]
        },
        {
            "positions": [
                -2.168173974415854,
                -0.7335697705496242,
                -0.2680172308362986,
                -0.3413870702757655,
                1.612497877662072,
                0.38337462382832266
            ]
        },
        {
            "positions": [
                -2.0648272920959037,
                -0.8012078710452675,
                -0.3408440117503425,
                -0.2713324697990056,
                1.5526045098111627,
                0.3716062172738398
            ]
        },
        {
            "positions": [
                -1.9614806097759532,
                -0.8688459715409108,
                -0.41367079266438644,
                -0.20127786932224573,
                1.4927111419602537,
                0.359837810719357
            ]
        },
        {
            "positions": [
                -1.8581339274560023,
                -0.9364840720365541,
                -0.4864975735784304,
                -0.13122326884548585,
                1.4328177741093446,
                0.34806940416487414
            ]
        },
        {
            "positions": [
                -1.7547872451360518,
                -1.0041221725321974,
                -0.5593243544924743,
                -0.06116866836872592,
                1.3729244062584354,
                0.33630099761039134
            ]
        },
        {
            "positions": [
                -1.651440562816101,
                -1.0717602730278406,
                -0.6321511354065182,
                0.0088859321080339,
                1.3130310384075263,
                0.3245325910559085
            ]
        },
        {
            "positions": [
                -1.5480938804961504,
                -1.139398373523484,
                -0.7049779163205622,
                0.07894053258479383,
                1.253137670556617,
                0.3127641845014256
            ]
        },
        {
            "positions": [
                -1.4447471981761997,
                -1.2070364740191273,
                -0.7778046972346061,
                0.14899513306155376,
                1.193244302705708,
                0.3009957779469428
            ]
        },
        {
            "positions": [
                -1.3414005158562492,
                -1.2746745745147705,
                -0.85063147814865,
                0.21904973353831358,
                1.133350934854799,
                0.28922737139246
            ]
        },
        {
            "positions": [
                -1.2380538335362985,
                -1.342312675010414,
                -0.923458259062694,
                0.2891043340150735,
                1.07345756700389,
                0.27745896483797716
            ]
        },
        {
            "positions": [
                -1.1347071512163478,
                -1.4099507755060572,
                -0.9962850399767379,
                0.35915893449183334,
                1.0135641991529807,
                0.2656905582834943
            ]
        },
        {
            "positions": [
                -1.0313604688963969,
                -1.4775888760017004,
                -1.069111820890782,
                0.42921353496859327,
                0.9536708313020715,
                0.25392215172901145
            ]
        },
        {
            "positions": [
                -0.9280137865764464,
                -1.5452269764973439,
                -1.1419386018048256,
                0.4992681354453532,
                0.8937774634511625,
                0.24215374517452867
            ]
        },
        {
            "positions": [
                -0.8246671042564957,
                -1.6128650769929873,
                -1.2147653827188698,
                0.5693227359221131,
                0.8338840956002533,
                0.23038533862004582
            ]
        },
        {
            "positions": [
                -0.7213204219365452,
                -1.6805031774886303,
                -1.2875921636329135,
                0.6393773363988728,
                0.7739907277493443,
                0.21861693206556299
            ]
        },
        {
            "positions": [
                -0.6179737396165943,
                -1.7481412779842738,
                -1.3604189445469577,
                0.709431936875633,
                0.714097359898435,
                0.20684852551108016
            ]
        },
        {
            "positions": [
                -0.5146270572966438,
                -1.8157793784799168,
                -1.4332457254610014,
                0.7794865373523927,
                0.654203992047526,
                0.19508011895659733
            ]
        },
        {
            "positions": [
                -0.4112803749766929,
                -1.8834174789755602,
                -1.5060725063750455,
                0.8495411378291526,
                0.5943106241966167,
                0.1833117124021145
            ]
        },
        {
            "positions": [
                -0.3079336926567424,
                -1.9510555794712037,
                -1.5788992872890892,
                0.9195957383059126,
                0.5344172563457077,
                0.17154330584763167
            ]
        },
        {
            "positions": [
                -0.20458701033679194,
                -2.018693679966847,
                -1.6517260682031334,
                0.9896503387826725,
                0.47452388849479843,
                0.1597748992931488
            ]
        },
        {
            "positions": [
                -0.10124032801684146,
                -2.08633178046249,
                -1.724552849117177,
                1.0597049392594322,
                0.4146305206438894,
                0.148006492738666
            ]
        },
        {
            "positions": [
                0.002106354303109459,
                -2.1539698809581336,
                -1.7973796300312213,
                1.1297595397361921,
                0.35473715279298035,
                0.13623808618418315
            ]
        },
        {
            "positions": [
                0.10545303662305994,
                -2.2216079814537766,
                -1.870206410945265,
                1.199814140212952,
                0.2948437849420713,
                0.12446967962970035
            ]
        },
        {
            "positions": [
                0.20879971894301108,
                -2.28924608194942,
                -1.9430331918593091,
                1.269868740689712,
                0.23495041709116204,
                0.11270127307521749
            ]
        },
        {
            "positions": [
                0.11035393496591198,
                -2.2870118589615585,
                -2.0521064619912464,
                1.3285586901158033,
                0.22225654029863756,
                0.08990343021114933
            ]
        },
        {
            "positions": [
                0.011908150988812871,
                -2.284777635973697,
                -2.161179732123183,
                1.3872486395418946,
                0.20956266350611305,
                0.06710558734708115
            ]
        },
        {
            "positions": [
                -0.0865376329882862,
                -2.282543412985835,
                -2.27025300225512,
                1.445938588967986,
                0.19686878671358854,
                0.04430774448301297
            ]
        },
        {
            "positions": [
                -0.18498341696538534,
                -2.2803091899979733,
                -2.379326272387057,
                1.5046285383940774,
                0.18417490992106406,
                0.02150990161894481
            ]
        }
    ]
}