{
    "goal": {
        "global_pose": {
            "orientation": {
                "w": 0.5084816262002911,
                "x": -0.4908360881923452,
                "y": 0.5182115481033761,
                "z": -0.48164630358495003
            },
            "position": {
                "x": 0.5540239810943604,
                "y": -0.46912469901144505,
                "z": 0.16403168439865112
            }
        },
        "name": "move_to_storage_B"
    },
    "id": "BKPIECE_move_to_storage_B_95",
    "joint_names": [
        "shoulder_pan_joint",
        "shoulder_lift_joint",
        "elbow_joint",
        "wrist_1_joint",
        "wrist_2_joint",
        "wrist_3_joint"
    ],
    "metrics": {
        "cart_traj_len": 2.6437279741964534,
        "distance_elbow_joint": 1.5014605517219273,
        "distance_shoulder_lift_joint": 1.0061001986975646,
        "distance_shoulder_pan_joint": 2.3403587564312502,
        "distance_wrist_1_joint": 3.011395957496749,
        "distance_wrist_2_joint": 2.711670735267887,
        "distance_wrist_3_joint": 3.1675136352596365,
        "smoothness": 0.2665980475662151,
        "time": 0.174072765,
        "traj_len": 3.706548237224901,
        "weighted_distance": 5.079034730946317
    },
    "planner": "BKPIECE",
    "start": {
        "state": {
            "elbow_joint": 1.6649325340416963,
            "shoulder_lift_joint": -0.6616387945129425,
            "shoulder_pan_joint": -0.9139837929255878,
            "wrist_1_joint": 2.1467571094334352,
            "wrist_2_joint": -2.234195976750228,
            "wrist_3_joint": 0.005470921511140723
        }
    },
    "waypoints": [
        {
            "positions": [
                -0.9139837929255878,
                -0.6616387945129425,
                1.6649325340416963,
                2.1467571094334352,
                -2.234195976750228,
                0.005470921511140723
            ]
        },
        {
            "positions": [
                -0.8504954956896605,
                -0.7047636964349983,
                1.6312360611401064,
                2.086181355593982,
                -2.129446302332077,
                0.07388013685042005
            ]
        },
        {
            "positions": [
                -0.7870071984537332,
                -0.747888598357054,
                1.5975395882385166,
                2.025605601754529,
                -2.024696627913926,
                0.1422893521896994
            ]
        },
        {
            "positions": [
                -0.723518901217806,
                -0.7910135002791097,
                1.5638431153369265,
                1.9650298479150758,
                -1.9199469534957747,
                0.21069856752897873
            ]
        },
        {
            "positions": [
                -0.6600306039818787,
                -0.8341384022011654,
                1.5301466424353367,
                1.9044540940756227,
                -1.8151972790776236,
                0.27910778286825805
            ]
        },
        {
            "positions": [
                -0.5965423067459514,
                -0.8772633041232212,
                1.4964501695337469,
                1.8438783402361696,
                -1.7104476046594725,
                0.34751699820753734
            ]
        },
        {
            "positions": [
                -0.5330540095100242,
                -0.9203882060452769,
                1.462753696632157,
                1.7833025863967165,
                -1.6056979302413215,
                0.4159262135468167
            ]
        },
        {
            "positions": [
                -0.46956571227409694,
                -0.9635131079673327,
                1.4290572237305672,
                1.7227268325572633,
                -1.5009482558231704,
                0.484335428886096
            ]
        },
        {
            "positions": [
                -0.40607741503816963,
                -1.0066380098893883,
                1.3953607508289774,
                1.6621510787178102,
                -1.3961985814050193,
                0.5527446442253754
            ]
        },
        {
            "positions": [
                -0.34258911780224244,
                -1.0497629118114442,
                1.3616642779273875,
                1.601575324878357,
                -1.2914489069868682,
                0.6211538595646546
            ]
        },
        {
            "positions": [
                -0.27910082056631513,
                -1.0928878137334999,
                1.3279678050257975,
                1.540999571038904,
                -1.1866992325687171,
                0.689563074903934
            ]
        },
        {
            "positions": [
                -0.21561252333038783,
                -1.1360127156555557,
                1.2942713321242076,
                1.4804238171994508,
                -1.081949558150566,
                0.7579722902432133
            ]
        },
        {
            "positions": [
                -0.15212422609446052,
                -1.1791376175776114,
                1.2605748592226178,
                1.4198480633599977,
                -0.977199883732415,
                0.8263815055824927
            ]
        },
        {
            "positions": [
                -0.08863592885853333,
                -1.222262519499667,
                1.226878386321028,
                1.3592723095205446,
                -0.8724502093142639,
                0.8947907209217719
            ]
        },
        {
            "positions": [
                -0.025147631622606026,
                -1.265387421421723,
                1.1931819134194381,
                1.2986965556810914,
                -0.7677005348961128,
                0.9631999362610513
            ]
        },
        {
            "positions": [
                0.03834066561332117,
                -1.3085123233437785,
                1.159485440517848,
                1.2381208018416383,
                -0.6629508604779617,
                1.0316091516003307
            ]
        },
        {
            "positions": [
                0.10182896284924858,
                -1.3516372252658342,
                1.1257889676162582,
                1.1775450480021852,
                -0.5582011860598106,
                1.1000183669396102
            ]
        },
        {
            "positions": [
                0.16531726008517572,
                -1.39476212718789,
                1.0920924947146684,
                1.116969294162732,
                -0.45345151164165964,
                1.1684275822788894
            ]
        },
        {
            "positions": [
                0.09894580201041328,
                -1.3803949237130155,
                1.1409672585249262,
                1.012674128782414,
                -0.40445539215959014,
                1.2739305809363572
            ]
        },
        {
            "positions": [
                0.03257434393565084,
                -1.3660277202381408,
                1.1898420223351842,
                0.9083789634020957,
                -0.3554592726775207,
                1.379433579593825
            ]
        },
        {
            "positions": [
                -0.0337971141391116,
                -1.3516605167632663,
                1.238716786145442,
                0.8040837980217774,
                -0.30646315319545125,
                1.4849365782512929
            ]
        },
        {
            "positions": [
                -0.10016857221387404,
                -1.3372933132883917,
                1.2875915499556998,
                0.6997886326414593,
                -0.25746703371338175,
                1.5904395769087607
            ]
        },
        {
            "positions": [
                -0.16654003028863645,
                -1.3229261098135172,
                1.3364663137659578,
                0.5954934672611412,
                -0.20847091423131228,
                1.6959425755662285
            ]
        },
        {
            "positions": [
                -0.23291148836339892,
                -1.3085589063386425,
                1.3853410775762156,
                0.4911983018808229,
                -0.1594747947492428,
                1.8014455742236961
            ]
        },
        {
            "positions": [
                -0.29928294643816133,
                -1.294191702863768,
                1.4342158413864734,
                0.3869031365005048,
                -0.11047867526717331,
                1.906948572881164
            ]
        },
        {
            "positions": [
                -0.3656544045129238,
                -1.2798244993888934,
                1.4830906051967312,
                0.28260797112018654,
                -0.061482555785103865,
                2.012451571538632
            ]
        },
        {
            "positions": [
                -0.4320258625876862,
                -1.265457295914019,
                1.5319653690069892,
                0.1783128057398684,
                -0.012486436303034365,
                2.1179545701960993
            ]
        },
        {
            "positions": [
                -0.49839732066244863,
                -1.2510900924391442,
                1.580840132817247,
                0.07401764035955027,
                0.03650968317903508,
                2.2234575688535676
            ]
        },
        {
            "positions": [
                -0.5647687787372111,
                -1.2367228889642696,
                1.629714896627505,
                -0.03027752502076808,
                0.08550580266110464,
                2.328960567511035
            ]
        },
        {
            "positions": [
                -0.6311402368119736,
                -1.222355685489395,
                1.6785896604377628,
                -0.13457269040108621,
                0.13450192214317402,
                2.434463566168503
            ]
        },
        {
            "positions": [
                -0.6975116948867361,
                -1.2079884820145206,
                1.7274644242480206,
                -0.23886785578140457,
                0.18349804162524352,
                2.5399665648259706
            ]
        },
        {
            "positions": [
                -0.7638831529614984,
                -1.1936212785396458,
                1.7763391880582784,
                -0.3431630211617225,
                0.23249416110731302,
                2.6454695634834384
            ]
        },
        {
            "positions": [
                -0.830254611036261,
                -1.1792540750647713,
                1.8252139518685364,
                -0.44745818654204084,
                0.2814902805893825,
                2.7509725621409062
            ]
        },
        {
            "positions": [
                -0.8966260691110233,
                -1.1648868715898968,
                1.8740887156787942,
                -0.551753351922359,
                0.3304864000714519,
                2.856475560798374
            ]
        },
        {
            "positions": [
                -0.9629975271857858,
                -1.150519668115022,
                1.9229634794890522,
                -0.6560485173026773,
                0.3794825195535214,
                2.961978559455842
            ]
        },
        {
            "positions": [
                -1.029368985260548,
                -1.1361524646401475,
                1.97183824329931,
                -0.7603436826829952,
                0.4284786390355909,
                3.0674815581133097
            ]
        },
        {
            "positions": [
                -1.0957404433353106,
                -1.121785261165273,
                2.020713007109568,
                -0.8646388480633136,
                0.4774747585176604,
                3.1729845567707775
            ]
        }
    ]
}