{
    "goal": {
        "global_pose": {
            "orientation": {
                "w": -0.00223480608172531,
                "x": 0.0024358444001904467,
                "y": 0.7094548369677653,
                "z": -0.704743149386269
            },
            "position": {
                "x": 0.6205249238014221,
                "y": -0.6371506643295288,
                "z": 0.19426114857196808
            }
        },
        "name": "move_to_magneteinheit_B"
    },
    "id": "BKPIECE_move_to_magneteinheit_B_24",
    "joint_names": [
        "shoulder_pan_joint",
        "shoulder_lift_joint",
        "elbow_joint",
        "wrist_1_joint",
        "wrist_2_joint",
        "wrist_3_joint"
    ],
    "metrics": {
        "cart_traj_len": 1.4530759018890795,
        "distance_elbow_joint": 0.7310570349859769,
        "distance_shoulder_lift_joint": 1.2483147989493841,
        "distance_shoulder_pan_joint": 1.6212511556368365,
        "distance_wrist_1_joint": 2.605340642872687,
        "distance_wrist_2_joint": 2.9367023946009216,
        "distance_wrist_3_joint": 3.154299113191371,
        "smoothness": 1.3457248813978723e-16,
        "time": 0.295252356,
        "traj_len": 3.5067028873625974,
        "weighted_distance": 4.91402140859129
    },
    "planner": "BKPIECE",
    "start": {
        "state": {
            "elbow_joint": 2.393587130804639,
            "shoulder_lift_joint": -1.9085141043513325,
            "shoulder_pan_joint": 0.7066247066698809,
            "wrist_1_joint": -0.4678290934590222,
            "wrist_2_joint": 0.7096259084215963,
            "wrist_3_joint": 3.147370379541726
        }
    },
    "waypoints": [
        {
            "positions": [
                0.7066247066698809,
                -1.9085141043513325,
                2.393587130804639,
                -0.4678290934590222,
                0.7096259084215963,
                3.147370379541726
            ]
        },
        {
            "positions": [
                0.6559606080562297,
                -1.8695042668841642,
                2.370741598461327,
                -0.38641219836925067,
                0.6178539585903176,
                3.0487985322544957
            ]
        },
        {
            "positions": [
                0.6052965094425786,
                -1.830494429416996,
                2.347896066118015,
                -0.3049953032794792,
                0.5260820087590388,
                2.9502266849672654
            ]
        },
        {
            "positions": [
                0.5546324108289274,
                -1.7914845919498277,
                2.3250505337747036,
                -0.22357840818970773,
                0.43431005892776,
                2.851654837680035
            ]
        },
        {
            "positions": [
                0.5039683122152763,
                -1.7524747544826595,
                2.3022050014313917,
                -0.14216151309993624,
                0.3425381090964812,
                2.7530829903928047
            ]
        },
        {
            "positions": [
                0.45330421360162515,
                -1.7134649170154912,
                2.27935946908808,
                -0.060744618010164786,
                0.2507661592652024,
                2.6545111431055743
            ]
        },
        {
            "positions": [
                0.40264011498797403,
                -1.674455079548323,
                2.256513936744768,
                0.020672277079606727,
                0.15899420943392362,
                2.555939295818344
            ]
        },
        {
            "positions": [
                0.35197601637432285,
                -1.6354452420811547,
                2.2336684044014565,
                0.10208917216937824,
                0.06722225960264483,
                2.4573674485311137
            ]
        },
        {
            "positions": [
                0.30131191776067173,
                -1.5964354046139864,
                2.2108228720581447,
                0.1835060672591497,
                -0.024549690228633958,
                2.3587956012438833
            ]
        },
        {
            "positions": [
                0.2506478191470206,
                -1.5574255671468182,
                2.1879773397148328,
                0.26492296234892115,
                -0.11632164005991275,
                2.260223753956653
            ]
        },
        {
            "positions": [
                0.19998372053336944,
                -1.51841572967965,
                2.165131807371521,
                0.3463398574386926,
                -0.20809358989119153,
                2.1616519066694226
            ]
        },
        {
            "positions": [
                0.14931962191971826,
                -1.4794058922124818,
                2.1422862750282095,
                0.4277567525284642,
                -0.2998655397224703,
                2.0630800593821923
            ]
        },
        {
            "positions": [
                0.0986555233060672,
                -1.4403960547453134,
                2.1194407426848976,
                0.5091736476182356,
                -0.3916374895537491,
                1.964508212094962
            ]
        },
        {
            "positions": [
                0.04799142469241602,
                -1.4013862172781453,
                2.0965952103415857,
                0.5905905427080071,
                -0.4834094393850279,
                1.8659363648077316
            ]
        },
        {
            "positions": [
                -0.002672673921235158,
                -1.362376379810977,
                2.073749677998274,
                0.6720074377977787,
                -0.5751813892163067,
                1.7673645175205013
            ]
        },
        {
            "positions": [
                -0.05333677253488622,
                -1.3233665423438086,
                2.050904145654962,
                0.7534243328875501,
                -0.6669533390475855,
                1.668792670233271
            ]
        },
        {
            "positions": [
                -0.1040008711485374,
                -1.2843567048766404,
                2.0280586133116505,
                0.8348412279773216,
                -0.7587252888788643,
                1.5702208229460406
            ]
        },
        {
            "positions": [
                -0.15466496976218858,
                -1.2453468674094723,
                2.0052130809683386,
                0.9162581230670932,
                -0.850497238710143,
                1.4716489756588103
            ]
        },
        {
            "positions": [
                -0.20532906837583964,
                -1.206337029942304,
                1.9823675486250267,
                0.9976750181568645,
                -0.9422691885414218,
                1.37307712837158
            ]
        },
        {
            "positions": [
                -0.2559931669894908,
                -1.1673271924751356,
                1.959522016281715,
                1.0790919132466361,
                -1.0340411383727006,
                1.2745052810843496
            ]
        },
        {
            "positions": [
                -0.306657265603142,
                -1.1283173550079675,
                1.9366764839384034,
                1.1605088083364075,
                -1.1258130882039794,
                1.1759334337971192
            ]
        },
        {
            "positions": [
                -0.35732136421679306,
                -1.0893075175407991,
                1.9138309515950915,
                1.241925703426179,
                -1.2175850380352582,
                1.077361586509889
            ]
        },
        {
            "positions": [
                -0.40798546283044435,
                -1.0502976800736308,
                1.8909854192517797,
                1.3233425985159506,
                -1.309356987866537,
                0.9787897392226586
            ]
        },
        {
            "positions": [
                -0.4586495614440954,
                -1.0112878426064627,
                1.868139886908468,
                1.404759493605722,
                -1.4011289376978155,
                0.8802178919354282
            ]
        },
        {
            "positions": [
                -0.5093136600577465,
                -0.9722780051392944,
                1.8452943545651561,
                1.4861763886954935,
                -1.4929008875290946,
                0.7816460446481979
            ]
        },
        {
            "positions": [
                -0.5599777586713978,
                -0.9332681676721262,
                1.8224488222218445,
                1.5675932837852649,
                -1.5846728373603736,
                0.6830741973609675
            ]
        },
        {
            "positions": [
                -0.6106418572850488,
                -0.8942583302049578,
                1.7996032898785326,
                1.6490101788750364,
                -1.6764447871916521,
                0.5845023500737372
            ]
        },
        {
            "positions": [
                -0.6613059558986999,
                -0.8552484927377897,
                1.7767577575352207,
                1.730427073964808,
                -1.7682167370229307,
                0.48593050278650685
            ]
        },
        {
            "positions": [
                -0.7119700545123512,
                -0.8162386552706213,
                1.753912225191909,
                1.8118439690545796,
                -1.8599886868542097,
                0.3873586554992765
            ]
        },
        {
            "positions": [
                -0.7626341531260022,
                -0.7772288178034532,
                1.7310666928485974,
                1.8932608641443511,
                -1.9517606366854887,
                0.28878680821204616
            ]
        },
        {
            "positions": [
                -0.8132982517396533,
                -0.7382189803362849,
                1.7082211605052855,
                1.9746777592341223,
                -2.0435325865167675,
                0.19021496092481582
            ]
        },
        {
            "positions": [
                -0.8639623503533046,
                -0.6992091428691167,
                1.6853756281619736,
                2.0560946543238936,
                -2.1353045363480456,
                0.09164311363758548
            ]
        },
        {
            "positions": [
                -0.9146264489669557,
                -0.6601993054019485,
                1.662530095818662,
                2.137511549413665,
                -2.227076486179325,
                -0.006928733649644831
            ]
        }
    ]
}