{
    "goal": {
        "global_pose": {
            "orientation": {
                "w": 0.5084816217422485,
                "x": -0.49083608388900757,
                "y": 0.5182115435600281,
                "z": -0.4816462993621826
            },
            "position": {
                "x": 0.5540239810943604,
                "y": 0.030875300988554955,
                "z": 0.16403168439865112
            }
        },
        "name": "move_to_storage_A"
    },
    "id": "BKPIECE_move_to_storage_A_8",
    "joint_names": [
        "shoulder_pan_joint",
        "shoulder_lift_joint",
        "elbow_joint",
        "wrist_1_joint",
        "wrist_2_joint",
        "wrist_3_joint"
    ],
    "metrics": {
        "cart_traj_len": 0.3532886931513274,
        "distance_elbow_joint": 0.44832017360918264,
        "distance_shoulder_lift_joint": 0.23512875433398173,
        "distance_shoulder_pan_joint": 0.4620341987867895,
        "distance_wrist_1_joint": 0.23825350825999547,
        "distance_wrist_2_joint": 1.098799225639861,
        "distance_wrist_3_joint": 0.09411238669650235,
        "smoothness": 1.8873791337340653e-15,
        "time": 0.310310526,
        "traj_len": 1.605194146303279,
        "weighted_distance": 2.025321148514273
    },
    "planner": "BKPIECE",
    "start": {
        "state": {
            "elbow_joint": 1.971548880431181,
            "shoulder_lift_joint": -1.1394869514688781,
            "shoulder_pan_joint": 0.12281150262730567,
            "wrist_1_joint": -0.7804693444481463,
            "wrist_2_joint": 0.12958644648617612,
            "wrist_3_joint": 3.0906942077768043
        }
    },
    "waypoints": [
        {
            "positions": [
                0.12281150262730567,
                -1.1394869514688781,
                1.971548880431181,
                -0.7804693444481463,
                0.12958644648617612,
                3.0906942077768043
            ]
        },
        {
            "positions": [
                0.05680661708633575,
                -1.17307677351659,
                2.035594619518207,
                -0.81450555991386,
                0.2865577644347277,
                3.104138834447733
            ]
        },
        {
            "positions": [
                -0.009198268454634173,
                -1.2066665955643014,
                2.099640358605233,
                -0.8485417753795735,
                0.44352908238327926,
                3.117583461118662
            ]
        },
        {
            "positions": [
                -0.0752031539956041,
                -1.2402564176120132,
                2.1636860976922594,
                -0.8825779908452872,
                0.6005004003318308,
                3.131028087789591
            ]
        },
        {
            "positions": [
                -0.14120803953657401,
                -1.2738462396597248,
                2.2277318367792853,
                -0.9166142063110009,
                0.7574717182803824,
                3.14447271446052
            ]
        },
        {
            "positions": [
                -0.20721292507754396,
                -1.3074360617074365,
                2.2917775758663113,
                -0.9506504217767144,
                0.9144430362289341,
                3.1579173411314487
            ]
        },
        {
            "positions": [
                -0.27321781061851386,
                -1.341025883755148,
                2.3558233149533376,
                -0.9846866372424281,
                1.0714143541774854,
                3.171361967802378
            ]
        },
        {
            "positions": [
                -0.3392226961594838,
                -1.3746157058028599,
                2.4198690540403636,
                -1.0187228527081418,
                1.228385672126037,
                3.1848065944733066
            ]
        }
    ]
}