{
    "goal": {
        "global_pose": {
            "orientation": {
                "w": -0.00223480608172531,
                "x": 0.0024358444001904467,
                "y": 0.7094548369677653,
                "z": -0.704743149386269
            },
            "position": {
                "x": -0.37947507619857795,
                "y": -0.6371506643295288,
                "z": 0.19426114857196808
            }
        },
        "name": "move_to_magneteinheit_C"
    },
    "id": "BKPIECE_move_to_magneteinheit_C_96",
    "joint_names": [
        "shoulder_pan_joint",
        "shoulder_lift_joint",
        "elbow_joint",
        "wrist_1_joint",
        "wrist_2_joint",
        "wrist_3_joint"
    ],
    "metrics": {
        "cart_traj_len": 3.2982600893067344,
        "distance_elbow_joint": 0.5448663930783912,
        "distance_shoulder_lift_joint": 0.9638698577155047,
        "distance_shoulder_pan_joint": 5.167598201561548,
        "distance_wrist_1_joint": 4.08950759721763,
        "distance_wrist_2_joint": 6.157145640569663,
        "distance_wrist_3_joint": 0.9222629908015842,
        "smoothness": 1.0743274485912198,
        "time": 0.521665872,
        "traj_len": 4.224363938031893,
        "weighted_distance": 5.471419367982571
    },
    "planner": "BKPIECE",
    "start": {
        "state": {
            "elbow_joint": 1.9565354006593851,
            "shoulder_lift_joint": -1.4165861576512813,
            "shoulder_pan_joint": -1.6717766223278752,
            "wrist_1_joint": -0.528663328821883,
            "wrist_2_joint": 1.472756589259273,
            "wrist_3_joint": 3.159348288315503
        }
    },
    "waypoints": [
        {
            "positions": [
                -1.6717766223278752,
                -1.4165861576512813,
                1.9565354006593851,
                -0.528663328821883,
                1.472756589259273,
                3.159348288315503
            ]
        },
        {
            "positions": [
                -1.7166271196571854,
                -1.4011423028915642,
                1.913600235775554,
                -0.3586047140309534,
                1.3588102545344116,
                3.163937152186679
            ]
        },
        {
            "positions": [
                -1.7614776169864956,
                -1.385698448131847,
                1.8706650708917225,
                -0.18854609924002375,
                1.2448639198095501,
                3.168526016057855
            ]
        },
        {
            "positions": [
                -1.8063281143158059,
                -1.3702545933721297,
                1.8277299060078913,
                -0.018487484449094205,
                1.1309175850846886,
                3.173114879929031
            ]
        },
        {
            "positions": [
                -1.851178611645116,
                -1.3548107386124126,
                1.78479474112406,
                0.15157113034183556,
                1.016971250359827,
                3.177703743800207
            ]
        },
        {
            "positions": [
                -1.8960291089744263,
                -1.3393668838526955,
                1.7418595762402287,
                0.3216297451327651,
                0.9030249156349656,
                3.182292607671383
            ]
        },
        {
            "positions": [
                -1.821060200064292,
                -1.3718907963232825,
                1.7364736546831214,
                0.19197005592043231,
                0.7992981144347138,
                3.1463143830075935
            ]
        },
        {
            "positions": [
                -1.7460912911541577,
                -1.4044147087938696,
                1.7310877331260144,
                0.06231036670809953,
                0.6955713132344619,
                3.1103361583438045
            ]
        },
        {
            "positions": [
                -1.6711223822440233,
                -1.4369386212644568,
                1.7257018115689071,
                -0.06734932250423331,
                0.5918445120342101,
                3.074357933680015
            ]
        },
        {
            "positions": [
                -1.5961534733338891,
                -1.4694625337350438,
                1.7203158900117999,
                -0.19700901171656604,
                0.4881177108339583,
                3.0383797090162257
            ]
        },
        {
            "positions": [
                -1.5211845644237547,
                -1.5019864462056307,
                1.7149299684546928,
                -0.326668700928899,
                0.38439090963370637,
                3.0024014843524367
            ]
        },
        {
            "positions": [
                -1.4462156555136203,
                -1.5345103586762179,
                1.7095440468975855,
                -0.4563283901412318,
                0.28066410843345463,
                2.9664232596886473
            ]
        },
        {
            "positions": [
                -1.3379793087619387,
                -1.5444967607416926,
                1.725847025458026,
                -0.5447074853744477,
                0.13746544279226933,
                2.950054419854071
            ]
        },
        {
            "positions": [
                -1.2297429620102571,
                -1.5544831628071676,
                1.7421500040184665,
                -0.6330865806076637,
                -0.005733222848915975,
                2.933685580019494
            ]
        },
        {
            "positions": [
                -1.1215066152585758,
                -1.5644695648726423,
                1.7584529825789073,
                -0.7214656758408796,
                -0.14893188849010125,
                2.9173167401849174
            ]
        },
        {
            "positions": [
                -1.0132702685068942,
                -1.574455966938117,
                1.7747559611393477,
                -0.8098447710740956,
                -0.2921305541312866,
                2.900947900350341
            ]
        },
        {
            "positions": [
                -0.9050339217552126,
                -1.584442369003592,
                1.7910589396997882,
                -0.8982238663073115,
                -0.4353292197724719,
                2.884579060515764
            ]
        },
        {
            "positions": [
                -0.7967975750035311,
                -1.5944287710690668,
                1.807361918260229,
                -0.9866029615405274,
                -0.5785278854136571,
                2.8682102206811875
            ]
        },
        {
            "positions": [
                -0.6885612282518496,
                -1.6044151731345417,
                1.8236648968206695,
                -1.0749820567737434,
                -0.7217265510548425,
                2.851841380846611
            ]
        },
        {
            "positions": [
                -0.580324881500168,
                -1.6144015752000165,
                1.83996787538111,
                -1.1633611520069593,
                -0.8649252166960277,
                2.8354725410120345
            ]
        },
        {
            "positions": [
                -0.47208853474848644,
                -1.6243879772654912,
                1.8562708539415504,
                -1.2517402472401753,
                -1.008123882337213,
                2.8191037011774576
            ]
        },
        {
            "positions": [
                -0.36385218799680485,
                -1.6343743793309662,
                1.872573832501991,
                -1.3401193424733913,
                -1.1513225479783984,
                2.802734861342881
            ]
        },
        {
            "positions": [
                -0.2556158412451235,
                -1.644360781396441,
                1.8888768110624317,
                -1.4284984377066072,
                -1.2945212136195836,
                2.7863660215083046
            ]
        },
        {
            "positions": [
                -0.1473794944934419,
                -1.654347183461916,
                1.9051797896228722,
                -1.5168775329398232,
                -1.4377198792607688,
                2.7699971816737277
            ]
        },
        {
            "positions": [
                -0.03914314774176031,
                -1.6643335855273906,
                1.9214827681833127,
                -1.6052566281730392,
                -1.5809185449019543,
                2.753628341839151
            ]
        },
        {
            "positions": [
                0.06909319900992106,
                -1.6743199875928654,
                1.9377857467437534,
                -1.6936357234062551,
                -1.7241172105431397,
                2.7372595020045747
            ]
        },
        {
            "positions": [
                0.17732954576160265,
                -1.6843063896583403,
                1.9540887253041939,
                -1.782014818639471,
                -1.867315876184325,
                2.7208906621699978
            ]
        },
        {
            "positions": [
                0.28556589251328424,
                -1.694292791723815,
                1.9703917038646344,
                -1.870393913872687,
                -2.0105145418255104,
                2.7045218223354213
            ]
        },
        {
            "positions": [
                0.14021059180658488,
                -1.6663072824582468,
                1.9723405134619787,
                -1.8152786052275538,
                -1.869784304484201,
                2.7267085531833026
            ]
        },
        {
            "positions": [
                -0.005144708900114481,
                -1.6383217731926782,
                1.974289323059323,
                -1.7601632965824205,
                -1.7290540671428916,
                2.7488952840311836
            ]
        },
        {
            "positions": [
                -0.15050000960681387,
                -1.61033626392711,
                1.9762381326566674,
                -1.7050479879372873,
                -1.588323829801582,
                2.771082014879065
            ]
        },
        {
            "positions": [
                -0.2958553103135132,
                -1.5823507546615416,
                1.9781869422540117,
                -1.6499326792921543,
                -1.4475935924602727,
                2.7932687457269463
            ]
        },
        {
            "positions": [
                -0.44121061102021253,
                -1.554365245395973,
                1.9801357518513563,
                -1.594817370647021,
                -1.3068633551189635,
                2.815455476574827
            ]
        },
        {
            "positions": [
                -0.586565911726912,
                -1.5263797361304048,
                1.9820845614487006,
                -1.5397020620018878,
                -1.166133117777654,
                2.8376422074227086
            ]
        },
        {
            "positions": [
                -0.7319212124336114,
                -1.4983942268648365,
                1.984033371046045,
                -1.4845867533567545,
                -1.0254028804363444,
                2.8598289382705895
            ]
        },
        {
            "positions": [
                -0.8772765131403106,
                -1.470408717599268,
                1.9859821806433893,
                -1.4294714447116212,
                -0.8846726430950351,
                2.882015669118471
            ]
        },
        {
            "positions": [
                -1.02263181384701,
                -1.4424232083336996,
                1.9879309902407336,
                -1.374356136066488,
                -0.7439424057537258,
                2.904202399966352
            ]
        },
        {
            "positions": [
                -1.1679871145537093,
                -1.4144376990681313,
                1.989879799838078,
                -1.3192408274213547,
                -0.6032121684124163,
                2.926389130814233
            ]
        },
        {
            "positions": [
                -1.313342415260409,
                -1.3864521898025628,
                1.9918286094354223,
                -1.2641255187762215,
                -0.4624819310711068,
                2.9485758616621145
            ]
        },
        {
            "positions": [
                -1.4586977159671082,
                -1.3584666805369945,
                1.9937774190327666,
                -1.2090102101310882,
                -0.3217516937297975,
                2.9707625925099954
            ]
        },
        {
            "positions": [
                -1.6040530166738076,
                -1.330481171271426,
                1.995726228630111,
                -1.153894901485955,
                -0.181021456388488,
                2.992949323357877
            ]
        },
        {
            "positions": [
                -1.749408317380507,
                -1.3024956620058576,
                1.9976750382274553,
                -1.0987795928408217,
                -0.040291219047178695,
                3.015136054205758
            ]
        },
        {
            "positions": [
                -1.8947636180872065,
                -1.2745101527402891,
                1.9996238478247998,
                -1.0436642841956885,
                0.10043901829413082,
                3.0373227850536395
            ]
        },
        {
            "positions": [
                -2.0401189187939055,
                -1.2465246434747208,
                2.001572657422144,
                -0.9885489755505554,
                0.24116925563544012,
                3.0595095159015204
            ]
        },
        {
            "positions": [
                -2.185474219500605,
                -1.2185391342091525,
                2.0035214670194885,
                -0.9334336669054222,
                0.38189949297674985,
                3.081696246749402
            ]
        },
        {
            "positions": [
                -2.3308295202073044,
                -1.190553624943584,
                2.005470276616833,
                -0.8783183582602889,
                0.5226297303180587,
                3.1038829775972827
            ]
        },
        {
            "positions": [
                -2.476184820914004,
                -1.1625681156780157,
                2.007419086214177,
                -0.8232030496151558,
                0.6633599676593684,
                3.126069708445164
            ]
        }
    ]
}