{
    "goal": {
        "global_pose": {
            "orientation": {
                "w": -0.4816463035849501,
                "x": 0.5182115481033762,
                "y": 0.4908360881923453,
                "z": -0.5084816262002911
            },
            "position": {
                "x": -0.8240239810943604,
                "y": 0.19912469901144506,
                "z": 0.16403168439865112
            }
        },
        "name": "move_to_storage_D"
    },
    "id": "BKPIECE_move_to_storage_D_22",
    "joint_names": [
        "shoulder_pan_joint",
        "shoulder_lift_joint",
        "elbow_joint",
        "wrist_1_joint",
        "wrist_2_joint",
        "wrist_3_joint"
    ],
    "metrics": {
        "cart_traj_len": 2.696340035259488,
        "distance_elbow_joint": 5.22254295599191,
        "distance_shoulder_lift_joint": 3.3455578866429327,
        "distance_shoulder_pan_joint": 2.8133851455013352,
        "distance_wrist_1_joint": 5.035148161632885,
        "distance_wrist_2_joint": 1.9306133711002982,
        "distance_wrist_3_joint": 3.3013166275388404,
        "smoothness": 0.6167221649151401,
        "time": 0.245883882,
        "traj_len": 4.65280175253666,
        "weighted_distance": 5.934387831631759
    },
    "planner": "BKPIECE",
    "start": {
        "state": {
            "elbow_joint": -2.384821990628643,
            "shoulder_lift_joint": -2.278805467437664,
            "shoulder_pan_joint": -0.18546946439364564,
            "wrist_1_joint": 1.4845938187801415,
            "wrist_2_joint": 0.178987772454074,
            "wrist_3_joint": 0.03710569632802521
        }
    },
    "waypoints": [
        {
            "positions": [
                -0.18546946439364564,
                -2.278805467437664,
                -2.384821990628643,
                1.4845938187801415,
                0.178987772454074,
                0.03710569632802521
            ]
        },
        {
            "positions": [
                -0.1524968662487861,
                -2.260713222584869,
                -2.383022395637667,
                1.495634482809154,
                0.14582230730440926,
                0.03897342033061975
            ]
        },
        {
            "positions": [
                -0.07931670786942972,
                -2.2183101802958,
                -2.2633402776224507,
                1.4200887475858393,
                0.17086907146036917,
                0.027942360335722158
            ]
        },
        {
            "positions": [
                -0.006136549490073334,
                -2.175907138006731,
                -2.143658159607235,
                1.3445430123625246,
                0.19591583561632905,
                0.016911300340824564
            ]
        },
        {
            "positions": [
                0.06704360888928307,
                -2.1335040957176616,
                -2.0239760415920185,
                1.2689972771392097,
                0.22096259977228896,
                0.0058802403459269695
            ]
        },
        {
            "positions": [
                0.14022376726863944,
                -2.0911010534285923,
                -1.9042939235768026,
                1.193451541915895,
                0.24600936392824885,
                -0.005150819648970621
            ]
        },
        {
            "positions": [
                0.21340392564799587,
                -2.048698011139523,
                -1.7846118055615863,
                1.1179058066925804,
                0.27105612808420876,
                -0.01618187964386822
            ]
        },
        {
            "positions": [
                0.28658408402735225,
                -2.006294968850454,
                -1.6649296875463704,
                1.0423600714692658,
                0.29610289224016867,
                -0.02721293963876581
            ]
        },
        {
            "positions": [
                0.3597642424067087,
                -1.9638919265613848,
                -1.545247569531154,
                0.966814336245951,
                0.3211496563961286,
                -0.0382439996336634
            ]
        },
        {
            "positions": [
                0.36523012806618754,
                -2.0134084778770545,
                -1.3606102774406454,
                1.0318301515077681,
                0.29748085935216934,
                0.02231963041808322
            ]
        },
        {
            "positions": [
                0.37069601372566646,
                -2.0629250291927237,
                -1.1759729853501366,
                1.0968459667695853,
                0.27381206230821015,
                0.08288326046982984
            ]
        },
        {
            "positions": [
                0.3761618993851453,
                -2.1124415805083934,
                -0.9913356932596279,
                1.1618617820314026,
                0.2501432652642509,
                0.14344689052157647
            ]
        },
        {
            "positions": [
                0.38162778504462425,
                -2.1619581318240626,
                -0.8066984011691192,
                1.2268775972932198,
                0.2264744682202917,
                0.20401052057332308
            ]
        },
        {
            "positions": [
                0.3870936707041031,
                -2.2114746831397323,
                -0.6220611090786105,
                1.2918934125550368,
                0.20280567117633247,
                0.2645741506250697
            ]
        },
        {
            "positions": [
                0.392559556363582,
                -2.260991234455402,
                -0.43742381698810173,
                1.356909227816854,
                0.17913687413237325,
                0.3251377806768163
            ]
        },
        {
            "positions": [
                0.3980254420230609,
                -2.310507785771071,
                -0.2527865248975929,
                1.4219250430786712,
                0.15546807708841404,
                0.3857014107285629
            ]
        },
        {
            "positions": [
                0.40349132768253976,
                -2.360024337086741,
                -0.06814923280708429,
                1.4869408583404882,
                0.13179928004445482,
                0.4462650407803096
            ]
        },
        {
            "positions": [
                0.4089572133420187,
                -2.40954088840241,
                0.11648805928342454,
                1.5519566736023054,
                0.1081304830004956,
                0.5068286708320562
            ]
        },
        {
            "positions": [
                0.41442309900149754,
                -2.4590574397180798,
                0.30112535137393315,
                1.6169724888641226,
                0.08446168595653639,
                0.5673923008838028
            ]
        },
        {
            "positions": [
                0.41988898466097646,
                -2.5085739910337495,
                0.485762643464442,
                1.6819883041259398,
                0.060792888912577114,
                0.6279559309355495
            ]
        },
        {
            "positions": [
                0.4253548703204553,
                -2.5580905423494187,
                0.6703999355549506,
                1.747004119387757,
                0.037124091868617926,
                0.688519560987296
            ]
        },
        {
            "positions": [
                0.4308207559799342,
                -2.6076070936650884,
                0.8550372276454596,
                1.812019934649574,
                0.013455294824658681,
                0.7490831910390428
            ]
        },
        {
            "positions": [
                0.4362866416394131,
                -2.657123644980758,
                1.0396745197359682,
                1.8770357499113912,
                -0.010213502219300508,
                0.8096468210907892
            ]
        },
        {
            "positions": [
                0.44175252729889203,
                -2.7066401962964273,
                1.2243118118264769,
                1.9420515651732084,
                -0.03388229926325975,
                0.8702104511425359
            ]
        },
        {
            "positions": [
                0.4472184129583709,
                -2.756156747612097,
                1.4089491039169855,
                2.0070673804350254,
                -0.05755109630721894,
                0.9307740811942825
            ]
        },
        {
            "positions": [
                0.45268429861784976,
                -2.8056732989277666,
                1.5935863960074945,
                2.072083195696843,
                -0.08121989335117819,
                0.9913377112460291
            ]
        },
        {
            "positions": [
                0.4581501842773287,
                -2.855189850243436,
                1.7782236880980031,
                2.13709901095866,
                -0.10488869039513737,
                1.0519013412977758
            ]
        },
        {
            "positions": [
                0.46361606993680754,
                -2.9047064015591055,
                1.9628609801885117,
                2.2021148262204773,
                -0.12855748743909662,
                1.1124649713495225
            ]
        },
        {
            "positions": [
                0.4690819555962864,
                -2.9542229528747748,
                2.1474982722790203,
                2.2671306414822943,
                -0.1522262844830558,
                1.173028601401269
            ]
        },
        {
            "positions": [
                0.4745478412557653,
                -3.0037395041904444,
                2.3321355643695294,
                2.3321464567441113,
                -0.17589508152701505,
                1.2335922314530157
            ]
        },
        {
            "positions": [
                0.5514538355361911,
                -2.932639619614102,
                2.314078942905467,
                2.220362341367593,
                -0.13214237370788037,
                1.3032492047560615
            ]
        },
        {
            "positions": [
                0.628359829816617,
                -2.861539735037759,
                2.296022321441405,
                2.108578225991075,
                -0.08838966588874568,
                1.3729061780591074
            ]
        },
        {
            "positions": [
                0.7052658240970427,
                -2.7904398504614165,
                2.2779656999773423,
                1.9967941106145566,
                -0.04463695806961099,
                1.442563151362153
            ]
        },
        {
            "positions": [
                0.7821718183774686,
                -2.719339965885074,
                2.2599090785132803,
                1.8850099952380384,
                -0.0008842502504763095,
                1.512220124665199
            ]
        },
        {
            "positions": [
                0.8590778126578944,
                -2.6482400813087312,
                2.2418524570492178,
                1.7732258798615201,
                0.0428684575686584,
                1.5818770979682448
            ]
        },
        {
            "positions": [
                0.9359838069383202,
                -2.5771401967323886,
                2.2237958355851557,
                1.661441764485002,
                0.08662116538779308,
                1.6515340712712905
            ]
        },
        {
            "positions": [
                1.012889801218746,
                -2.506040312156046,
                2.205739214121093,
                1.5496576491084837,
                0.13037387320692778,
                1.7211910445743364
            ]
        },
        {
            "positions": [
                1.089795795499172,
                -2.4349404275797033,
                2.187682592657031,
                1.4378735337319655,
                0.17412658102606243,
                1.7908480178773822
            ]
        },
        {
            "positions": [
                1.1667017897795977,
                -2.3638405430033607,
                2.1696259711929686,
                1.3260894183554472,
                0.2178792888451972,
                1.8605049911804281
            ]
        },
        {
            "positions": [
                1.2436077840600235,
                -2.292740658427018,
                2.151569349728906,
                1.214305302978929,
                0.26163199666433185,
                1.930161964483474
            ]
        },
        {
            "positions": [
                1.3205137783404495,
                -2.2216407738506754,
                2.133512728264844,
                1.1025211876024108,
                0.30538470448346655,
                1.9998189377865199
            ]
        },
        {
            "positions": [
                1.397419772620875,
                -2.1505408892743327,
                2.1154561068007816,
                0.9907370722258926,
                0.3491374123026012,
                2.0694759110895653
            ]
        },
        {
            "positions": [
                1.474325766901301,
                -2.07944100469799,
                2.0973994853367195,
                0.8789529568493744,
                0.39289012012173596,
                2.1391328843926116
            ]
        },
        {
            "positions": [
                1.5512317611817268,
                -2.0083411201216474,
                2.079342863872657,
                0.7671688414728561,
                0.4366428279408706,
                2.208789857695657
            ]
        },
        {
            "positions": [
                1.6281377554621526,
                -1.937241235545305,
                2.061286242408595,
                0.6553847260963379,
                0.48039553576000527,
                2.2784468309987034
            ]
        },
        {
            "positions": [
                1.7050437497425783,
                -1.8661413509689624,
                2.0432296209445324,
                0.5436006107198197,
                0.5241482435791399,
                2.348103804301749
            ]
        },
        {
            "positions": [
                1.781949744023004,
                -1.7950414663926197,
                2.0251729994804704,
                0.4318164953433017,
                0.5679009513982747,
                2.4177607776047947
            ]
        },
        {
            "positions": [
                1.85885573830343,
                -1.7239415818162769,
                2.007116378016408,
                0.32003237996678324,
                0.6116536592174094,
                2.4874177509078406
            ]
        },
        {
            "positions": [
                1.9357617325838559,
                -1.6528416972399342,
                1.9890597565523456,
                0.20824826459026502,
                0.6554063670365441,
                2.5570747242108864
            ]
        },
        {
            "positions": [
                2.0126677268642816,
                -1.5817418126635918,
                1.9710031350882833,
                0.0964641492137468,
                0.6991590748556787,
                2.6267316975139323
            ]
        },
        {
            "positions": [
                2.0895737211447076,
                -1.5106419280872492,
                1.952946513624221,
                -0.015319966162771426,
                0.7429117826748135,
                2.696388670816978
            ]
        },
        {
            "positions": [
                2.166479715425133,
                -1.4395420435109065,
                1.9348898921601587,
                -0.12710408153928965,
                0.7866644904939482,
                2.766045644120024
            ]
        },
        {
            "positions": [
                2.243385709705559,
                -1.368442158934564,
                1.9168332706960962,
                -0.23888819691580787,
                0.8304171983130828,
                2.8357026174230695
            ]
        },
        {
            "positions": [
                2.320291703985985,
                -1.2973422743582212,
                1.8987766492320342,
                -0.3506723122923261,
                0.8741699061322175,
                2.9053595907261154
            ]
        },
        {
            "positions": [
                2.397197698266411,
                -1.2262423897818784,
                1.8807200277679716,
                -0.4624564276688443,
                0.9179226139513523,
                2.9750165640291613
            ]
        },
        {
            "positions": [
                2.4741036925468367,
                -1.155142505205536,
                1.8626634063039094,
                -0.5742405430453625,
                0.961675321770487,
                3.0446735373322076
            ]
        },
        {
            "positions": [
                2.5510096868272623,
                -1.0840426206291933,
                1.844606784839847,
                -0.6860246584218808,
                1.0054280295896216,
                3.114330510635253
            ]
        },
        {
            "positions": [
                2.6279156811076883,
                -1.0129427360528507,
                1.8265501633757848,
                -0.797808773798399,
                1.0491807374087563,
                3.183987483938299
            ]
        }
    ]
}