{
    "goal": {
        "global_pose": {
            "orientation": {
                "w": 0.005598929693374612,
                "x": 0.007748599140229565,
                "y": 0.7110244013736278,
                "z": -0.7031023480610252
            },
            "position": {
                "x": -0.8858502320852131,
                "y": -0.7141253447532654,
                "z": 0.3711530566215515
            }
        },
        "name": "move_to_auspresseinheit_C"
    },
    "id": "BKPIECE_move_to_auspresseinheit_C_116",
    "joint_names": [
        "shoulder_pan_joint",
        "shoulder_lift_joint",
        "elbow_joint",
        "wrist_1_joint",
        "wrist_2_joint",
        "wrist_3_joint"
    ],
    "metrics": {
        "cart_traj_len": 0.4950740132800793,
        "distance_elbow_joint": 1.0195233527086844,
        "distance_shoulder_lift_joint": 0.33412043812496994,
        "distance_shoulder_pan_joint": 0.2564335696244693,
        "distance_wrist_1_joint": 0.7091616784922274,
        "distance_wrist_2_joint": 1.318342515414389,
        "distance_wrist_3_joint": 0.08496834205365644,
        "smoothness": 0.0,
        "time": 0.437441887,
        "traj_len": 1.929391068813784,
        "weighted_distance": 2.4331031162760706
    },
    "planner": "BKPIECE",
    "start": {
        "state": {
            "elbow_joint": 1.7527959577730765,
            "shoulder_lift_joint": -0.9740617694224828,
            "shoulder_pan_joint": -2.967991417825869,
            "wrist_1_joint": -0.7595177689779385,
            "wrist_2_joint": 1.7443932448376545,
            "wrist_3_joint": 3.1991315425061013
        }
    },
    "waypoints": [
        {
            "positions": [
                -2.967991417825869,
                -0.9740617694224828,
                1.7527959577730765,
                -0.7595177689779385,
                1.7443932448376545,
                3.1991315425061013
            ]
        },
        {
            "positions": [
                -2.9423480608634223,
                -0.9406497256099858,
                1.650843622502208,
                -0.6886016011287158,
                1.6125589932962154,
                3.1906347083007356
            ]
        },
        {
            "positions": [
                -2.916704703900975,
                -0.9072376817974888,
                1.5488912872313396,
                -0.617685433279493,
                1.4807247417547766,
                3.18213787409537
            ]
        },
        {
            "positions": [
                -2.8910613469385282,
                -0.8738256379849918,
                1.4469389519604712,
                -0.5467692654302703,
                1.3488904902133378,
                3.1736410398900046
            ]
        },
        {
            "positions": [
                -2.8654179899760814,
                -0.8404135941724948,
                1.3449866166896027,
                -0.47585309758104755,
                1.2170562386718988,
                3.165144205684639
            ]
        },
        {
            "positions": [
                -2.8397746330136346,
                -0.8070015503599979,
                1.2430342814187343,
                -0.4049369297318248,
                1.0852219871304598,
                3.156647371479273
            ]
        },
        {
            "positions": [
                -2.8141312760511874,
                -0.7735895065475008,
                1.1410819461478658,
                -0.3340207618826021,
                0.953387735589021,
                3.1481505372739074
            ]
        },
        {
            "positions": [
                -2.7884879190887406,
                -0.7401774627350038,
                1.0391296108769974,
                -0.2631045940333794,
                0.8215534840475822,
                3.1396537030685416
            ]
        },
        {
            "positions": [
                -2.762844562126294,
                -0.7067654189225068,
                0.937177275606129,
                -0.19218842618415655,
                0.6897192325061432,
                3.1311568688631763
            ]
        },
        {
            "positions": [
                -2.7372012051638466,
                -0.6733533751100098,
                0.8352249403352605,
                -0.12127225833493382,
                0.5578849809647042,
                3.1226600346578106
            ]
        },
        {
            "positions": [
                -2.7115578482014,
                -0.6399413312975128,
                0.7332726050643921,
                -0.05035609048571108,
                0.42605072942326544,
                3.114163200452445
            ]
        }
    ]
}