{
    "goal": {
        "global_pose": {
            "orientation": {
                "w": 0.7031023502349854,
                "x": -0.7110244035720825,
                "y": 0.007748599164187908,
                "z": 0.005598929710686207
            },
            "position": {
                "x": 0.11585023208521307,
                "y": 0.44412534475326537,
                "z": 0.3711530566215515
            }
        },
        "name": "move_to_auspresseinheit_A"
    },
    "id": "BKPIECE_move_to_auspresseinheit_A_31",
    "joint_names": [
        "shoulder_pan_joint",
        "shoulder_lift_joint",
        "elbow_joint",
        "wrist_1_joint",
        "wrist_2_joint",
        "wrist_3_joint"
    ],
    "metrics": {
        "cart_traj_len": 2.284896562868797,
        "distance_elbow_joint": 2.520389661836396,
        "distance_shoulder_lift_joint": 1.355060132576064,
        "distance_shoulder_pan_joint": 2.5605431091898434,
        "distance_wrist_1_joint": 4.533335019019134,
        "distance_wrist_2_joint": 1.4148870331001193,
        "distance_wrist_3_joint": 4.002354331134942,
        "smoothness": 0.7025788463636718,
        "time": 0.149080229,
        "traj_len": 4.048032767512696,
        "weighted_distance": 5.508130354416609
    },
    "planner": "BKPIECE",
    "start": {
        "state": {
            "elbow_joint": 2.4225746994637096,
            "shoulder_lift_joint": -1.373653595662188,
            "shoulder_pan_joint": -0.3378633848294565,
            "wrist_1_joint": -1.0288595594406726,
            "wrist_2_joint": 1.2330228066703421,
            "wrist_3_joint": 3.189163495502006
        }
    },
    "waypoints": [
        {
            "positions": [
                -0.3378633848294565,
                -1.373653595662188,
                2.4225746994637096,
                -1.0288595594406726,
                1.2330228066703421,
                3.189163495502006
            ]
        },
        {
            "positions": [
                -0.3739826290955183,
                -1.4186847575898824,
                2.3618681709548777,
                -0.9074056066838188,
                1.2543909778655489,
                3.0925690253740523
            ]
        },
        {
            "positions": [
                -0.4101018733615801,
                -1.4637159195175768,
                2.301161642446046,
                -0.785951653926965,
                1.2757591490607558,
                2.9959745552460992
            ]
        },
        {
            "positions": [
                -0.44622111762764194,
                -1.5087470814452713,
                2.240455113937214,
                -0.6644977011701112,
                1.2971273202559626,
                2.8993800851181457
            ]
        },
        {
            "positions": [
                -0.4823403618937038,
                -1.5537782433729657,
                2.1797485854283822,
                -0.5430437484132573,
                1.3184954914511695,
                2.8027856149901926
            ]
        },
        {
            "positions": [
                -0.5184596061597656,
                -1.5988094053006603,
                2.1190420569195507,
                -0.42158979565640353,
                1.3398636626463762,
                2.706191144862239
            ]
        },
        {
            "positions": [
                -0.5545788504258274,
                -1.6438405672283547,
                2.0583355284107188,
                -0.30013584289954964,
                1.361231833841583,
                2.609596674734286
            ]
        },
        {
            "positions": [
                -0.5906980946918892,
                -1.688871729156049,
                1.997628999901887,
                -0.17868189014269587,
                1.38260000503679,
                2.5130022046063325
            ]
        },
        {
            "positions": [
                -0.626817338957951,
                -1.7339028910837435,
                1.9369224713930553,
                -0.057227937385841976,
                1.4039681762319967,
                2.416407734478379
            ]
        },
        {
            "positions": [
                -0.6629365832240128,
                -1.778934053011438,
                1.8762159428842233,
                0.06422601537101191,
                1.4253363474272034,
                2.319813264350426
            ]
        },
        {
            "positions": [
                -0.6990558274900747,
                -1.8239652149391323,
                1.8155094143753916,
                0.18567996812786558,
                1.4467045186224103,
                2.223218794222473
            ]
        },
        {
            "positions": [
                -0.7351750717561365,
                -1.868996376866827,
                1.7548028858665596,
                0.3071339208847197,
                1.468072689817617,
                2.126624324094519
            ]
        },
        {
            "positions": [
                -0.7712943160221983,
                -1.9140275387945214,
                1.694096357357728,
                0.42858787364157336,
                1.4894408610128238,
                2.0300298539665658
            ]
        },
        {
            "positions": [
                -0.8074135602882602,
                -1.9590587007222158,
                1.633389828848896,
                0.5500418263984272,
                1.5108090322080308,
                1.9334353838386125
            ]
        },
        {
            "positions": [
                -0.843532804554322,
                -2.00408986264991,
                1.5726833003400644,
                0.6714957791552809,
                1.5321772034032375,
                1.8368409137106592
            ]
        },
        {
            "positions": [
                -0.8796520488203838,
                -2.0491210245776044,
                1.5119767718312325,
                0.792949731912135,
                1.5535453745984444,
                1.7402464435827059
            ]
        },
        {
            "positions": [
                -0.9157712930864457,
                -2.094152186505299,
                1.4512702433224007,
                0.9144036846689887,
                1.5749135457936512,
                1.6436519734547526
            ]
        },
        {
            "positions": [
                -0.9518905373525075,
                -2.1391833484329936,
                1.3905637148135688,
                1.0358576374258428,
                1.596281716988858,
                1.547057503326799
            ]
        },
        {
            "positions": [
                -0.9880097816185693,
                -2.184214510360688,
                1.329857186304737,
                1.1573115901826965,
                1.6176498881840649,
                1.450463033198846
            ]
        },
        {
            "positions": [
                -1.0241290258846312,
                -2.2292456722883824,
                1.2691506577959053,
                1.2787655429395501,
                1.6390180593792716,
                1.3538685630708924
            ]
        },
        {
            "positions": [
                -1.060248270150693,
                -2.2742768342160766,
                1.2084441292870736,
                1.4002194956964038,
                1.6603862305744785,
                1.2572740929429393
            ]
        },
        {
            "positions": [
                -1.0963675144167548,
                -2.3193079961437713,
                1.1477376007782416,
                1.521673448453258,
                1.6817544017696853,
                1.1606796228149858
            ]
        },
        {
            "positions": [
                -1.0144566517075482,
                -2.3006986446849313,
                1.204353626376011,
                1.4315460843112033,
                1.6378382454969227,
                1.2504010072898915
            ]
        },
        {
            "positions": [
                -0.9325457889983417,
                -2.282089293226091,
                1.2609696519737805,
                1.3414187201691485,
                1.5939220892241601,
                1.340122391764797
            ]
        },
        {
            "positions": [
                -0.8506349262891351,
                -2.263479941767251,
                1.31758567757155,
                1.251291356027094,
                1.5500059329513975,
                1.4298437762397025
            ]
        },
        {
            "positions": [
                -0.7687240635799285,
                -2.244870590308411,
                1.3742017031693194,
                1.1611639918850392,
                1.5060897766786352,
                1.5195651607146081
            ]
        },
        {
            "positions": [
                -0.686813200870722,
                -2.2262612388495713,
                1.430817728767089,
                1.0710366277429846,
                1.4621736204058726,
                1.6092865451895138
            ]
        },
        {
            "positions": [
                -0.6049023381615153,
                -2.207651887390731,
                1.4874337543648584,
                0.9809092636009299,
                1.41825746413311,
                1.6990079296644192
            ]
        },
        {
            "positions": [
                -0.5229914754523087,
                -2.189042535931891,
                1.5440497799626278,
                0.8907818994588752,
                1.3743413078603475,
                1.7887293141393248
            ]
        },
        {
            "positions": [
                -0.4410806127431022,
                -2.170433184473051,
                1.6006658055603973,
                0.8006545353168205,
                1.330425151587585,
                1.8784506986142304
            ]
        },
        {
            "positions": [
                -0.3591697500338955,
                -2.1518238330142108,
                1.6572818311581667,
                0.7105271711747657,
                1.2865089953148223,
                1.968172083089136
            ]
        },
        {
            "positions": [
                -0.27725888732468906,
                -2.133214481555371,
                1.7138978567559362,
                0.6203998070327111,
                1.24259283904206,
                2.0578934675640417
            ]
        },
        {
            "positions": [
                -0.1953480246154824,
                -2.114605130096531,
                1.7705138823537057,
                0.5302724428906564,
                1.1986766827692974,
                2.1476148520389473
            ]
        },
        {
            "positions": [
                -0.11343716190627584,
                -2.0959957786376906,
                1.8271299079514751,
                0.44014507874860187,
                1.1547605264965348,
                2.237336236513853
            ]
        },
        {
            "positions": [
                -0.03152629919706906,
                -2.0773864271788507,
                1.8837459335492446,
                0.35001771460654707,
                1.1108443702237722,
                2.3270576209887586
            ]
        },
        {
            "positions": [
                0.05038456351213738,
                -2.058777075720011,
                1.940361959147014,
                0.2598903504644925,
                1.0669282139510097,
                2.416779005463664
            ]
        },
        {
            "positions": [
                0.13229542622134383,
                -2.040167724261171,
                1.9969779847447833,
                0.16976298632243791,
                1.023012057678247,
                2.5065003899385694
            ]
        },
        {
            "positions": [
                0.2142062889305505,
                -2.0215583728023305,
                2.053594010342553,
                0.07963562218038311,
                0.9790959014054846,
                2.5962217744134755
            ]
        },
        {
            "positions": [
                0.29611715163975716,
                -2.0029490213434906,
                2.110210035940322,
                -0.010491741961671686,
                0.9351797451327222,
                2.6859431588883806
            ]
        },
        {
            "positions": [
                0.3780280143489638,
                -1.9843396698846505,
                2.166826061538092,
                -0.10061910610372649,
                0.8912635888599595,
                2.7756645433632867
            ]
        },
        {
            "positions": [
                0.45993887705817027,
                -1.9657303184258106,
                2.2234420871358616,
                -0.19074647024578106,
                0.847347432587197,
                2.865385927838192
            ]
        },
        {
            "positions": [
                0.5418497397673767,
                -1.9471209669669705,
                2.280058112733631,
                -0.28087383438783564,
                0.8034312763144346,
                2.9551073123130975
            ]
        },
        {
            "positions": [
                0.6237606024765836,
                -1.9285116155081306,
                2.3366741383314,
                -0.37100119852989044,
                0.7595151200416719,
                3.044828696788003
            ]
        },
        {
            "positions": [
                0.70567146518579,
                -1.9099022640492904,
                2.3932901639291697,
                -0.46112856267194513,
                0.7155989637689094,
                3.134550081262909
            ]
        }
    ]
}