{
    "goal": {
        "global_pose": {
            "orientation": {
                "w": -0.00223480608172531,
                "x": 0.0024358444001904467,
                "y": 0.7094548369677653,
                "z": -0.704743149386269
            },
            "position": {
                "x": 0.6205249238014221,
                "y": -0.6371506643295288,
                "z": 0.19426114857196808
            }
        },
        "name": "move_to_magneteinheit_B"
    },
    "id": "BKPIECE_move_to_magneteinheit_B_71",
    "joint_names": [
        "shoulder_pan_joint",
        "shoulder_lift_joint",
        "elbow_joint",
        "wrist_1_joint",
        "wrist_2_joint",
        "wrist_3_joint"
    ],
    "metrics": {
        "cart_traj_len": 1.4541379028927575,
        "distance_elbow_joint": 0.7289781576846603,
        "distance_shoulder_lift_joint": 1.2478058862328685,
        "distance_shoulder_pan_joint": 1.6216542882108942,
        "distance_wrist_1_joint": 2.612965747375362,
        "distance_wrist_2_joint": 2.9345537384491616,
        "distance_wrist_3_joint": 3.143542373887181,
        "smoothness": 2.153159822383016e-16,
        "time": 0.23193994499999998,
        "traj_len": 3.5056383429897795,
        "weighted_distance": 4.911629508161115
    },
    "planner": "BKPIECE",
    "start": {
        "state": {
            "elbow_joint": 2.393587130804639,
            "shoulder_lift_joint": -1.9085141043513325,
            "shoulder_pan_joint": 0.7066247066698809,
            "wrist_1_joint": -0.4678290934590222,
            "wrist_2_joint": 0.7096259084215963,
            "wrist_3_joint": 3.147370379541726
        }
    },
    "waypoints": [
        {
            "positions": [
                0.7066247066698809,
                -1.9085141043513325,
                2.393587130804639,
                -0.4678290934590222,
                0.7096259084215963,
                3.147370379541726
            ]
        },
        {
            "positions": [
                0.6559480101632904,
                -1.8695201704065554,
                2.370806563376993,
                -0.3861739138535421,
                0.6179211040950601,
                3.0491346803577515
            ]
        },
        {
            "positions": [
                0.6052713136567,
                -1.8305262364617783,
                2.3480259959493477,
                -0.3045187342480621,
                0.5262162997685238,
                2.9508989811737774
            ]
        },
        {
            "positions": [
                0.5545946171501095,
                -1.7915323025170011,
                2.325245428521702,
                -0.222863554642582,
                0.4345114954419874,
                2.852663281989803
            ]
        },
        {
            "positions": [
                0.5039179206435191,
                -1.752538368572224,
                2.302464861094056,
                -0.14120837503710193,
                0.34280669111545115,
                2.7544275828058282
            ]
        },
        {
            "positions": [
                0.45324122413692863,
                -1.7135444346274469,
                2.279684293666411,
                -0.05955319543162185,
                0.2511018867889149,
                2.656191883621854
            ]
        },
        {
            "positions": [
                0.40256452763033823,
                -1.6745505006826698,
                2.256903726238765,
                0.02210198417385817,
                0.1593970824623785,
                2.5579561844378795
            ]
        },
        {
            "positions": [
                0.3518878311237478,
                -1.6355565667378924,
                2.2341231588111192,
                0.10375716377933825,
                0.06769227813584222,
                2.4597204852539054
            ]
        },
        {
            "positions": [
                0.3012111346171573,
                -1.5965626327931153,
                2.211342591383474,
                0.18541234338481832,
                -0.02401252619069405,
                2.361484786069931
            ]
        },
        {
            "positions": [
                0.25053443811056686,
                -1.5575686988483382,
                2.188562023955828,
                0.2670675229902984,
                -0.11571733051723032,
                2.2632490868859563
            ]
        },
        {
            "positions": [
                0.1998577416039764,
                -1.518574764903561,
                2.1657814565281823,
                0.3487227025957785,
                -0.2074221348437666,
                2.165013387701982
            ]
        },
        {
            "positions": [
                0.14918104509738594,
                -1.479580830958784,
                2.143000889100537,
                0.43037788220125855,
                -0.29912693917030286,
                2.0667776885180076
            ]
        },
        {
            "positions": [
                0.0985043485907956,
                -1.4405868970140068,
                2.120220321672891,
                0.5120330618067386,
                -0.39083174349683936,
                1.9685419893340332
            ]
        },
        {
            "positions": [
                0.04782765208420514,
                -1.4015929630692296,
                2.0974397542452454,
                0.5936882414122187,
                -0.48253654782337563,
                1.870306290150059
            ]
        },
        {
            "positions": [
                -0.002849044422385316,
                -1.3625990291244525,
                2.0746591868176,
                0.6753434210176987,
                -0.5742413521499119,
                1.7720705909660843
            ]
        },
        {
            "positions": [
                -0.053525740928975774,
                -1.3236050951796754,
                2.0518786193899543,
                0.7569986006231788,
                -0.6659461564764482,
                1.67383489178211
            ]
        },
        {
            "positions": [
                -0.10420243743556623,
                -1.2846111612348983,
                2.0290980519623085,
                0.8386537802286589,
                -0.7576509608029844,
                1.5755991925981356
            ]
        },
        {
            "positions": [
                -0.1548791339421567,
                -1.2456172272901211,
                2.006317484534663,
                0.920308959834139,
                -0.8493557651295207,
                1.4773634934141613
            ]
        },
        {
            "positions": [
                -0.20555583044874715,
                -1.206623293345344,
                1.9835369171070174,
                1.001964139439619,
                -0.941060569456057,
                1.379127794230187
            ]
        },
        {
            "positions": [
                -0.2562325269553376,
                -1.167629359400567,
                1.9607563496793716,
                1.0836193190450991,
                -1.0327653737825933,
                1.2808920950462124
            ]
        },
        {
            "positions": [
                -0.30690922346192806,
                -1.1286354254557898,
                1.937975782251726,
                1.1652744986505792,
                -1.1244701781091295,
                1.182656395862238
            ]
        },
        {
            "positions": [
                -0.3575859199685184,
                -1.0896414915110126,
                1.9151952148240805,
                1.2469296782560593,
                -1.216174982435666,
                1.0844206966782637
            ]
        },
        {
            "positions": [
                -0.408262616475109,
                -1.0506475575662355,
                1.8924146473964347,
                1.3285848578615393,
                -1.307879786762202,
                0.9861849974942891
            ]
        },
        {
            "positions": [
                -0.4589393129816993,
                -1.0116536236214584,
                1.8696340799687892,
                1.4102400374670194,
                -1.3995845910887386,
                0.887949298310315
            ]
        },
        {
            "positions": [
                -0.5096160094882897,
                -0.9726596896766811,
                1.8468535125411436,
                1.4918952170724993,
                -1.491289395415275,
                0.7897135991263404
            ]
        },
        {
            "positions": [
                -0.5602927059948802,
                -0.933665755731904,
                1.8240729451134978,
                1.5735503966779796,
                -1.582994199741811,
                0.6914778999423659
            ]
        },
        {
            "positions": [
                -0.6109694025014706,
                -0.8946718217871268,
                1.8012923776858523,
                1.6552055762834594,
                -1.6746990040683476,
                0.5932422007583917
            ]
        },
        {
            "positions": [
                -0.6616460990080612,
                -0.8556778878423497,
                1.7785118102582067,
                1.7368607558889397,
                -1.7664038083948836,
                0.49500650157441717
            ]
        },
        {
            "positions": [
                -0.7123227955146515,
                -0.8166839538975725,
                1.755731242830561,
                1.8185159354944196,
                -1.8581086127214201,
                0.3967708023904426
            ]
        },
        {
            "positions": [
                -0.7629994920212421,
                -0.7776900199527954,
                1.7329506754029154,
                1.9001711150998999,
                -1.9498134170479562,
                0.2985351032064685
            ]
        },
        {
            "positions": [
                -0.8136761885278324,
                -0.7386960860080183,
                1.7101701079752698,
                1.9818262947053797,
                -2.041518221374493,
                0.2002994040224939
            ]
        },
        {
            "positions": [
                -0.864352885034423,
                -0.6997021520632412,
                1.687389540547624,
                2.06348147431086,
                -2.133223025701029,
                0.10206370483851979
            ]
        },
        {
            "positions": [
                -0.9150295815410132,
                -0.6607082181184641,
                1.6646089731199785,
                2.1451366539163397,
                -2.224927830027565,
                0.0038280056545451084
            ]
        }
    ]
}