{
    "goal": {
        "global_pose": {
            "orientation": {
                "w": -0.4816463035849501,
                "x": 0.5182115481033762,
                "y": 0.4908360881923453,
                "z": -0.5084816262002911
            },
            "position": {
                "x": -0.8240239810943604,
                "y": -0.300875300988555,
                "z": 0.16403168439865112
            }
        },
        "name": "move_to_storage_C"
    },
    "id": "BKPIECE_move_to_storage_C_87",
    "joint_names": [
        "shoulder_pan_joint",
        "shoulder_lift_joint",
        "elbow_joint",
        "wrist_1_joint",
        "wrist_2_joint",
        "wrist_3_joint"
    ],
    "metrics": {
        "cart_traj_len": 0.5756634230265829,
        "distance_elbow_joint": 0.2524483400223412,
        "distance_shoulder_lift_joint": 0.1878103478105776,
        "distance_shoulder_pan_joint": 0.49514241676955617,
        "distance_wrist_1_joint": 0.06282914521861416,
        "distance_wrist_2_joint": 1.0613871791075717,
        "distance_wrist_3_joint": 0.06457001288935427,
        "smoothness": 0.0,
        "time": 0.23077410399999998,
        "traj_len": 1.4574592419062755,
        "weighted_distance": 1.837809509150203
    },
    "planner": "BKPIECE",
    "start": {
        "state": {
            "elbow_joint": 2.0108683149792914,
            "shoulder_lift_joint": -1.1634956873317392,
            "shoulder_pan_joint": -2.4736205022346,
            "wrist_1_joint": -0.8367026793690192,
            "wrist_2_joint": 0.6746043897045053,
            "wrist_3_joint": 3.133522094754363
        }
    },
    "waypoints": [
        {
            "positions": [
                -2.4736205022346,
                -1.1634956873317392,
                2.0108683149792914,
                -0.8367026793690192,
                0.6746043897045053,
                3.133522094754363
            ]
        },
        {
            "positions": [
                -2.5561442383628594,
                -1.132193962696643,
                1.9687935916422346,
                -0.8262311551659168,
                0.8515022528891005,
                3.1442837635692555
            ]
        },
        {
            "positions": [
                -2.638667974491119,
                -1.1008922380615467,
                1.9267188683051777,
                -0.8157596309628145,
                1.028400116073696,
                3.155045432384148
            ]
        },
        {
            "positions": [
                -2.721191710619378,
                -1.0695905134264505,
                1.8846441449681208,
                -0.8052881067597122,
                1.2052979792582912,
                3.1658071011990403
            ]
        },
        {
            "positions": [
                -2.8037154467476375,
                -1.0382887887913541,
                1.842569421631064,
                -0.7948165825566098,
                1.3821958424428864,
                3.1765687700139327
            ]
        },
        {
            "positions": [
                -2.886239182875897,
                -1.006987064156258,
                1.800494698294007,
                -0.7843450583535074,
                1.5590937056274818,
                3.187330438828825
            ]
        },
        {
            "positions": [
                -2.9687629190041562,
                -0.9756853395211617,
                1.7584199749569502,
                -0.773873534150405,
                1.735991568812077,
                3.1980921076437174
            ]
        }
    ]
}