{
    "goal": {
        "global_pose": {
            "orientation": {
                "w": 0.005598929693374612,
                "x": 0.007748599140229565,
                "y": 0.7110244013736278,
                "z": -0.7031023480610252
            },
            "position": {
                "x": -0.8858502320852131,
                "y": -0.7141253447532654,
                "z": 0.3711530566215515
            }
        },
        "name": "move_to_auspresseinheit_C"
    },
    "id": "BKPIECE_move_to_auspresseinheit_C_11",
    "joint_names": [
        "shoulder_pan_joint",
        "shoulder_lift_joint",
        "elbow_joint",
        "wrist_1_joint",
        "wrist_2_joint",
        "wrist_3_joint"
    ],
    "metrics": {
        "cart_traj_len": 0.49339975971951394,
        "distance_elbow_joint": 1.0059641609464611,
        "distance_shoulder_lift_joint": 0.3272583541214371,
        "distance_shoulder_pan_joint": 0.2564707843750904,
        "distance_wrist_1_joint": 0.695537937099191,
        "distance_wrist_2_joint": 1.303704251034339,
        "distance_wrist_3_joint": 0.07298084109021463,
        "smoothness": 3.2297397335745243e-16,
        "time": 0.520954641,
        "traj_len": 1.913613421949881,
        "weighted_distance": 2.4097967132064673
    },
    "planner": "BKPIECE",
    "start": {
        "state": {
            "elbow_joint": 1.7527959577730765,
            "shoulder_lift_joint": -0.9740617694224828,
            "shoulder_pan_joint": -2.967991417825869,
            "wrist_1_joint": -0.7595177689779385,
            "wrist_2_joint": 1.7443932448376545,
            "wrist_3_joint": 3.1991315425061013
        }
    },
    "waypoints": [
        {
            "positions": [
                -2.967991417825869,
                -0.9740617694224828,
                1.7527959577730765,
                -0.7595177689779385,
                1.7443932448376545,
                3.1991315425061013
            ]
        },
        {
            "positions": [
                -2.94234433938836,
                -0.9413359340103391,
                1.6521995416784303,
                -0.6899639752680194,
                1.6140228197342206,
                3.1918334583970798
            ]
        },
        {
            "positions": [
                -2.916697260950851,
                -0.9086100985981954,
                1.5516031255837843,
                -0.6204101815581003,
                1.4836523946307867,
                3.184535374288058
            ]
        },
        {
            "positions": [
                -2.891050182513342,
                -0.8758842631860516,
                1.4510067094891381,
                -0.5508563878481813,
                1.3532819695273528,
                3.177237290179037
            ]
        },
        {
            "positions": [
                -2.865403104075833,
                -0.8431584277739079,
                1.350410293394492,
                -0.48130259413826215,
                1.2229115444239187,
                3.1699392060700156
            ]
        },
        {
            "positions": [
                -2.839756025638324,
                -0.8104325923617642,
                1.249813877299846,
                -0.41174880042834305,
                1.0925411193204848,
                3.162641121960994
            ]
        },
        {
            "positions": [
                -2.8141089472008147,
                -0.7777067569496205,
                1.1492174612052,
                -0.34219500671842396,
                0.962170694217051,
                3.1553430378519725
            ]
        },
        {
            "positions": [
                -2.7884618687633056,
                -0.7449809215374769,
                1.0486210451105538,
                -0.2726412130085049,
                0.8318002691136172,
                3.148044953742951
            ]
        },
        {
            "positions": [
                -2.762814790325797,
                -0.7122550861253332,
                0.9480246290159076,
                -0.20308741929858576,
                0.7014298440101832,
                3.14074686963393
            ]
        },
        {
            "positions": [
                -2.737167711888288,
                -0.6795292507131894,
                0.8474282129212615,
                -0.13353362558866666,
                0.5710594189067493,
                3.1334487855249082
            ]
        },
        {
            "positions": [
                -2.7115206334507787,
                -0.6468034153010457,
                0.7468317968266153,
                -0.0639798318787475,
                0.4406889938033154,
                3.1261507014158867
            ]
        }
    ]
}