{
    "goal": {
        "global_pose": {
            "orientation": {
                "w": 0.005598929693374612,
                "x": 0.007748599140229565,
                "y": 0.7110244013736278,
                "z": -0.7031023480610252
            },
            "position": {
                "x": -0.8858502320852131,
                "y": -0.7141253447532654,
                "z": 0.3711530566215515
            }
        },
        "name": "move_to_auspresseinheit_C"
    },
    "id": "BKPIECE_move_to_auspresseinheit_C_29",
    "joint_names": [
        "shoulder_pan_joint",
        "shoulder_lift_joint",
        "elbow_joint",
        "wrist_1_joint",
        "wrist_2_joint",
        "wrist_3_joint"
    ],
    "metrics": {
        "cart_traj_len": 0.4935304961440814,
        "distance_elbow_joint": 1.013707622005447,
        "distance_shoulder_lift_joint": 0.3313434522296609,
        "distance_shoulder_pan_joint": 0.2562200364468361,
        "distance_wrist_1_joint": 0.7113129661607733,
        "distance_wrist_2_joint": 1.3056039399097519,
        "distance_wrist_3_joint": 0.08672951669224505,
        "smoothness": 0.0,
        "time": 0.353995933,
        "traj_len": 1.9248162336817283,
        "weighted_distance": 2.428022543737955
    },
    "planner": "BKPIECE",
    "start": {
        "state": {
            "elbow_joint": 1.7527959577730765,
            "shoulder_lift_joint": -0.9740617694224828,
            "shoulder_pan_joint": -2.967991417825869,
            "wrist_1_joint": -0.7595177689779385,
            "wrist_2_joint": 1.7443932448376545,
            "wrist_3_joint": 3.1991315425061013
        }
    },
    "waypoints": [
        {
            "positions": [
                -2.967991417825869,
                -0.9740617694224828,
                1.7527959577730765,
                -0.7595177689779385,
                1.7443932448376545,
                3.1991315425061013
            ]
        },
        {
            "positions": [
                -2.9423694141811856,
                -0.9409274241995167,
                1.6514251955725319,
                -0.6883864723618612,
                1.6138328508466793,
                3.1904585908368768
            ]
        },
        {
            "positions": [
                -2.9167474105365017,
                -0.9077930789765506,
                1.550054433371987,
                -0.6172551757457838,
                1.483272456855704,
                3.1817856391676522
            ]
        },
        {
            "positions": [
                -2.891125406891818,
                -0.8746587337535845,
                1.4486836711714424,
                -0.5461238791297065,
                1.352712062864729,
                3.1731126874984277
            ]
        },
        {
            "positions": [
                -2.8655034032471347,
                -0.8415243885306184,
                1.3473129089708977,
                -0.4749925825136292,
                1.2221516688737537,
                3.164439735829203
            ]
        },
        {
            "positions": [
                -2.839881399602451,
                -0.8083900433076523,
                1.245942146770353,
                -0.4038612858975519,
                1.0915912748827785,
                3.1557667841599786
            ]
        },
        {
            "positions": [
                -2.8142593959577673,
                -0.7752556980846863,
                1.1445713845698084,
                -0.33272998928147457,
                0.9610308808918033,
                3.1470938324907545
            ]
        },
        {
            "positions": [
                -2.788637392313084,
                -0.7421213528617202,
                1.0432006223692636,
                -0.26159869266539726,
                0.8304704869008283,
                3.13842088082153
            ]
        },
        {
            "positions": [
                -2.7630153886684004,
                -0.7089870076387541,
                0.9418298601687188,
                -0.19046739604931984,
                0.699910092909853,
                3.1297479291523054
            ]
        },
        {
            "positions": [
                -2.7373933850237164,
                -0.675852662415788,
                0.8404590979681741,
                -0.11933609943324253,
                0.5693496989188778,
                3.121074977483081
            ]
        },
        {
            "positions": [
                -2.711771381379033,
                -0.6427183171928219,
                0.7390883357676294,
                -0.04820480281716518,
                0.4387893049279026,
                3.1124020258138563
            ]
        }
    ]
}