{
    "goal": {
        "global_pose": {
            "orientation": {
                "w": 0.7031023502349854,
                "x": -0.7110244035720825,
                "y": 0.007748599164187908,
                "z": 0.005598929710686207
            },
            "position": {
                "x": 0.11585023208521307,
                "y": 0.44412534475326537,
                "z": 0.3711530566215515
            }
        },
        "name": "move_to_auspresseinheit_A"
    },
    "id": "BKPIECE_move_to_auspresseinheit_A_92",
    "joint_names": [
        "shoulder_pan_joint",
        "shoulder_lift_joint",
        "elbow_joint",
        "wrist_1_joint",
        "wrist_2_joint",
        "wrist_3_joint"
    ],
    "metrics": {
        "cart_traj_len": 1.3423790978824641,
        "distance_elbow_joint": 0.48332013656832684,
        "distance_shoulder_lift_joint": 0.636071892109318,
        "distance_shoulder_pan_joint": 1.0421414577708463,
        "distance_wrist_1_joint": 7.711336264374404,
        "distance_wrist_2_joint": 1.3833445933169848,
        "distance_wrist_3_joint": 2.938260432543562,
        "smoothness": 0.8378397209978885,
        "time": 0.296557858,
        "traj_len": 3.767555543941382,
        "weighted_distance": 5.400525576225147
    },
    "planner": "BKPIECE",
    "start": {
        "state": {
            "elbow_joint": 2.4225746994637096,
            "shoulder_lift_joint": -1.373653595662188,
            "shoulder_pan_joint": -0.3378633848294565,
            "wrist_1_joint": -1.0288595594406726,
            "wrist_2_joint": 1.2330228066703421,
            "wrist_3_joint": 3.189163495502006
        }
    },
    "waypoints": [
        {
            "positions": [
                -0.3378633848294565,
                -1.373653595662188,
                2.4225746994637096,
                -1.0288595594406726,
                1.2330228066703421,
                3.189163495502006
            ]
        },
        {
            "positions": [
                -0.32522845919437104,
                -1.4029059337359,
                2.4097249812955983,
                -0.821882533372766,
                1.1850847609489645,
                3.1145659405662602
            ]
        },
        {
            "positions": [
                -0.3125935335592856,
                -1.432158271809612,
                2.3968752631274866,
                -0.6149055073048593,
                1.137146715227587,
                3.039968385630515
            ]
        },
        {
            "positions": [
                -0.29995860792420015,
                -1.461410609883324,
                2.3840255449593752,
                -0.4079284812369527,
                1.089208669506209,
                2.9653708306947695
            ]
        },
        {
            "positions": [
                -0.2873236822891147,
                -1.490662947957036,
                2.371175826791264,
                -0.200951455169046,
                1.0412706237848315,
                2.8907732757590243
            ]
        },
        {
            "positions": [
                -0.27468875665402925,
                -1.519915286030748,
                2.358326108623152,
                0.006025570898860577,
                0.9933325780634539,
                2.8161757208232787
            ]
        },
        {
            "positions": [
                -0.2620538310189438,
                -1.54916762410446,
                2.345476390455041,
                0.21300259696676727,
                0.9453945323420763,
                2.741578165887533
            ]
        },
        {
            "positions": [
                -0.24941890538385839,
                -1.578419962178172,
                2.3326266722869295,
                0.41997962303467373,
                0.8974564866206987,
                2.666980610951788
            ]
        },
        {
            "positions": [
                -0.2367839797487729,
                -1.607672300251884,
                2.319776954118818,
                0.6269566491025806,
                0.8495184408993208,
                2.5923830560160424
            ]
        },
        {
            "positions": [
                -0.2241490541136875,
                -1.636924638325596,
                2.3069272359507065,
                0.8339336751704871,
                0.8015803951779432,
                2.517785501080297
            ]
        },
        {
            "positions": [
                -0.21151412847860204,
                -1.666176976399308,
                2.294077517782595,
                1.0409107012383938,
                0.7536423494565656,
                2.4431879461445516
            ]
        },
        {
            "positions": [
                -0.1988792028435166,
                -1.69542931447302,
                2.2812277996144834,
                1.2478877273063005,
                0.7057043037351879,
                2.368590391208806
            ]
        },
        {
            "positions": [
                -0.18624427720843115,
                -1.724681652546732,
                2.268378081446372,
                1.4548647533742072,
                0.6577662580138103,
                2.293992836273061
            ]
        },
        {
            "positions": [
                -0.1736093515733457,
                -1.7539339906204439,
                2.2555283632782603,
                1.6618417794421139,
                0.6098282122924327,
                2.2193952813373152
            ]
        },
        {
            "positions": [
                -0.16097442593826028,
                -1.7831863286941558,
                2.242678645110149,
                1.86881880551002,
                0.5618901665710551,
                2.1447977264015696
            ]
        },
        {
            "positions": [
                -0.14833950030317483,
                -1.8124386667678678,
                2.2298289269420377,
                2.0757958315779272,
                0.5139521208496773,
                2.0702001714658245
            ]
        },
        {
            "positions": [
                -0.13570457466808936,
                -1.84169100484158,
                2.216979208773926,
                2.282772857645834,
                0.4660140751282996,
                1.995602616530079
            ]
        },
        {
            "positions": [
                -0.12306964903300394,
                -1.870943342915292,
                2.2041294906058146,
                2.48974988371374,
                0.418076029406922,
                1.9210050615943337
            ]
        },
        {
            "positions": [
                -0.11043472339791849,
                -1.900195680989004,
                2.1912797724377033,
                2.696726909781647,
                0.3701379836855444,
                1.846407506658588
            ]
        },
        {
            "positions": [
                -0.09779979776283304,
                -1.929448019062716,
                2.1784300542695916,
                2.9037039358495536,
                0.3221999379641668,
                1.7718099517228427
            ]
        },
        {
            "positions": [
                -0.08516487212774759,
                -1.9587003571364279,
                2.1655803361014803,
                3.1106809619174602,
                0.2742618922427891,
                1.6972123967870973
            ]
        },
        {
            "positions": [
                -0.03872705182956303,
                -1.9556988788637761,
                2.1788936168783097,
                2.9005753299753265,
                0.2992374027656968,
                1.782289416424077
            ]
        },
        {
            "positions": [
                0.007710768468621537,
                -1.9526974005911246,
                2.1922068976551388,
                2.690469698033193,
                0.3242129132886046,
                1.8673664360610567
            ]
        },
        {
            "positions": [
                0.054148588766806116,
                -1.9496959223184729,
                2.2055201784319682,
                2.480364066091059,
                0.3491884238115124,
                1.9524434556980361
            ]
        },
        {
            "positions": [
                0.10058640906499067,
                -1.9466944440458211,
                2.2188334592087973,
                2.270258434148926,
                0.37416393433442013,
                2.0375204753350156
            ]
        },
        {
            "positions": [
                0.14702422936317525,
                -1.9436929657731696,
                2.2321467399856267,
                2.060152802206792,
                0.3991394448573279,
                2.1225974949719957
            ]
        },
        {
            "positions": [
                0.19346204966135983,
                -1.940691487500518,
                2.2454600207624558,
                1.8500471702646581,
                0.42411495538023564,
                2.207674514608975
            ]
        },
        {
            "positions": [
                0.23989986995954432,
                -1.9376900092278662,
                2.2587733015392852,
                1.6399415383225247,
                0.4490904659031434,
                2.2927515342459546
            ]
        },
        {
            "positions": [
                0.2863376902577289,
                -1.9346885309552146,
                2.2720865823161143,
                1.429835906380391,
                0.4740659764260512,
                2.3778285538829342
            ]
        },
        {
            "positions": [
                0.3327755105559135,
                -1.931687052682563,
                2.2853998630929437,
                1.2197302744382572,
                0.4990414869489589,
                2.462905573519914
            ]
        },
        {
            "positions": [
                0.3792133308540981,
                -1.9286855744099114,
                2.2987131438697728,
                1.0096246424961235,
                0.5240169974718667,
                2.5479825931568936
            ]
        },
        {
            "positions": [
                0.4256511511522827,
                -1.9256840961372597,
                2.3120264246466022,
                0.7995190105539898,
                0.5489925079947744,
                2.6330596127938732
            ]
        },
        {
            "positions": [
                0.47208897145046724,
                -1.922682617864608,
                2.3253397054234313,
                0.589413378611856,
                0.5739680185176822,
                2.718136632430853
            ]
        },
        {
            "positions": [
                0.5185267917486517,
                -1.9196811395919564,
                2.3386529862002607,
                0.3793077466697228,
                0.59894352904059,
                2.803213652067832
            ]
        },
        {
            "positions": [
                0.5649646120468362,
                -1.9166796613193047,
                2.3519662669770898,
                0.16920211472758906,
                0.6239190395634977,
                2.888290671704812
            ]
        },
        {
            "positions": [
                0.6114024323450209,
                -1.913678183046653,
                2.3652795477539192,
                -0.04090351721454466,
                0.6488945500864054,
                2.9733676913417915
            ]
        },
        {
            "positions": [
                0.6578402526432054,
                -1.9106767047740014,
                2.3785928285307483,
                -0.2510091491566784,
                0.6738700606093133,
                3.058444710978771
            ]
        },
        {
            "positions": [
                0.70427807294139,
                -1.9076752265013497,
                2.3919061093075777,
                -0.461114781098812,
                0.698845571132221,
                3.143521730615751
            ]
        }
    ]
}