{
    "goal": {
        "global_pose": {
            "orientation": {
                "w": 0.7031023502349854,
                "x": -0.7110244035720825,
                "y": 0.007748599164187908,
                "z": 0.005598929710686207
            },
            "position": {
                "x": 0.11585023208521307,
                "y": 0.44412534475326537,
                "z": 0.3711530566215515
            }
        },
        "name": "move_to_auspresseinheit_A"
    },
    "id": "BKPIECE_move_to_auspresseinheit_A_135",
    "joint_names": [
        "shoulder_pan_joint",
        "shoulder_lift_joint",
        "elbow_joint",
        "wrist_1_joint",
        "wrist_2_joint",
        "wrist_3_joint"
    ],
    "metrics": {
        "cart_traj_len": 0.6884975378483735,
        "distance_elbow_joint": 0.033548198435694676,
        "distance_shoulder_lift_joint": 0.5320296745664443,
        "distance_shoulder_pan_joint": 1.0438431738312004,
        "distance_wrist_1_joint": 0.5768951783020788,
        "distance_wrist_2_joint": 0.5291745508972049,
        "distance_wrist_3_joint": 0.060483476296640415,
        "smoothness": 0.0,
        "time": 0.130411461,
        "traj_len": 1.666125521180581,
        "weighted_distance": 2.000752591931803
    },
    "planner": "BKPIECE",
    "start": {
        "state": {
            "elbow_joint": 2.4225746994637096,
            "shoulder_lift_joint": -1.373653595662188,
            "shoulder_pan_joint": -0.3378633848294565,
            "wrist_1_joint": -1.0288595594406726,
            "wrist_2_joint": 1.2330228066703421,
            "wrist_3_joint": 3.189163495502006
        }
    },
    "waypoints": [
        {
            "positions": [
                -0.3378633848294565,
                -1.373653595662188,
                2.4225746994637096,
                -1.0288595594406726,
                1.2330228066703421,
                3.189163495502006
            ]
        },
        {
            "positions": [
                -0.20738298810055647,
                -1.4401573049829937,
                2.4183811746592476,
                -0.9567476621529127,
                1.1668759878081916,
                3.181603060964926
            ]
        },
        {
            "positions": [
                -0.07690259137165645,
                -1.506661014303799,
                2.414187649854786,
                -0.8846357648651529,
                1.100729168946041,
                3.1740426264278456
            ]
        },
        {
            "positions": [
                0.0535778053572436,
                -1.5731647236246047,
                2.409994125050324,
                -0.8125238675773931,
                1.0345823500838902,
                3.1664821918907657
            ]
        },
        {
            "positions": [
                0.1840582020861436,
                -1.63966843294541,
                2.405800600245862,
                -0.7404119702896332,
                0.9684355312217396,
                3.158921757353686
            ]
        },
        {
            "positions": [
                0.3145385988150436,
                -1.7061721422662157,
                2.4016070754414005,
                -0.6683000730018733,
                0.9022887123595891,
                3.1513613228166055
            ]
        },
        {
            "positions": [
                0.4450189955439437,
                -1.7726758515870213,
                2.3974135506369385,
                -0.5961881757141135,
                0.8361418934974385,
                3.1438008882795256
            ]
        },
        {
            "positions": [
                0.5754993922728437,
                -1.839179560907827,
                2.393220025832477,
                -0.5240762784263537,
                0.7699950746352879,
                3.1362404537424453
            ]
        },
        {
            "positions": [
                0.7059797890017437,
                -1.9056832702286324,
                2.389026501028015,
                -0.4519643811385939,
                0.7038482557731373,
                3.1286800192053654
            ]
        }
    ]
}