{
    "goal": {
        "global_pose": {
            "orientation": {
                "w": 0.7047431493862688,
                "x": -0.7094548369677653,
                "y": 0.0024358444001904,
                "z": -0.0022348060817251984
            },
            "position": {
                "x": -0.39052492380142206,
                "y": 0.3671506643295288,
                "z": 0.19426114857196808
            }
        },
        "name": "move_to_magneteinheit_D"
    },
    "id": "BKPIECE_move_to_magneteinheit_D_47",
    "joint_names": [
        "shoulder_pan_joint",
        "shoulder_lift_joint",
        "elbow_joint",
        "wrist_1_joint",
        "wrist_2_joint",
        "wrist_3_joint"
    ],
    "metrics": {
        "cart_traj_len": 4.326407196751812,
        "distance_elbow_joint": 3.571289043733703,
        "distance_shoulder_lift_joint": 3.050921108404018,
        "distance_shoulder_pan_joint": 4.583318233424256,
        "distance_wrist_1_joint": 2.080802097101266,
        "distance_wrist_2_joint": 5.1530934219250435,
        "distance_wrist_3_joint": 7.0659597515350185,
        "smoothness": 0.48004727831229393,
        "time": 0.37816670100000005,
        "traj_len": 5.050285502436796,
        "weighted_distance": 6.846254353894516
    },
    "planner": "BKPIECE",
    "start": {
        "state": {
            "elbow_joint": 0.7495348899011911,
            "shoulder_lift_joint": -0.6476975780737668,
            "shoulder_pan_joint": -2.711696901376276,
            "wrist_1_joint": -0.0750647808097303,
            "wrist_2_joint": 0.43296659715458535,
            "wrist_3_joint": 3.1361499051832418
        }
    },
    "waypoints": [
        {
            "positions": [
                -2.711696901376276,
                -0.6476975780737668,
                0.7495348899011911,
                -0.0750647808097303,
                0.43296659715458535,
                3.1361499051832418
            ]
        },
        {
            "positions": [
                -2.7866795032658227,
                -0.5979858230458982,
                0.7028132696541145,
                -0.10450698936725429,
                0.40532714497854555,
                3.0344542986039347
            ]
        },
        {
            "positions": [
                -2.8616621051553697,
                -0.5482740680180296,
                0.6560916494070379,
                -0.13394919792477827,
                0.3776876928025058,
                2.932758692024627
            ]
        },
        {
            "positions": [
                -2.936644707044916,
                -0.49856231299016085,
                0.6093700291599613,
                -0.16339140648230227,
                0.350048240626466,
                2.8310630854453196
            ]
        },
        {
            "positions": [
                -3.0116273089344627,
                -0.44885055796229223,
                0.5626484089128847,
                -0.19283361503982627,
                0.3224087884504262,
                2.7293674788660125
            ]
        },
        {
            "positions": [
                -3.0065085175817114,
                -0.542927936903819,
                0.5235774460364405,
                -0.2720651801957143,
                0.4206107539938584,
                2.784623824614367
            ]
        },
        {
            "positions": [
                -3.00138972622896,
                -0.6370053158453458,
                0.4845064831599964,
                -0.35129674535160227,
                0.5188127195372907,
                2.8398801703627217
            ]
        },
        {
            "positions": [
                -2.996270934876209,
                -0.7310826947868727,
                0.4454355202835522,
                -0.4305283105074903,
                0.6170146850807228,
                2.895136516111076
            ]
        },
        {
            "positions": [
                -2.991152143523457,
                -0.8251600737283995,
                0.4063645574071081,
                -0.5097598756633783,
                0.7152166506241551,
                2.9503928618594304
            ]
        },
        {
            "positions": [
                -2.986033352170706,
                -0.9192374526699263,
                0.3672935945306639,
                -0.5889914408192664,
                0.8134186161675874,
                3.005649207607785
            ]
        },
        {
            "positions": [
                -2.9809145608179546,
                -1.013314831611453,
                0.3282226316542197,
                -0.6682230059751544,
                0.9116205817110195,
                3.0609055533561396
            ]
        },
        {
            "positions": [
                -2.9757957694652033,
                -1.1073922105529799,
                0.28915166877777554,
                -0.7474545711310424,
                1.0098225472544518,
                3.116161899104494
            ]
        },
        {
            "positions": [
                -2.8658001136441142,
                -1.083031546696886,
                0.1997181234767406,
                -0.7703768071763161,
                1.0592317807122156,
                3.021388268812683
            ]
        },
        {
            "positions": [
                -2.755804457823025,
                -1.0586708828407922,
                0.11028457817570564,
                -0.7932990432215898,
                1.1086410141699794,
                2.9266146385208724
            ]
        },
        {
            "positions": [
                -2.6458088020019366,
                -1.0343102189846982,
                0.020851032874670716,
                -0.8162212792668635,
                1.1580502476277432,
                2.8318410082290617
            ]
        },
        {
            "positions": [
                -2.5358131461808475,
                -1.0099495551286044,
                -0.06858251242636426,
                -0.8391435153121372,
                1.207459481085507,
                2.737067377937251
            ]
        },
        {
            "positions": [
                -2.4258174903597585,
                -0.9855888912725106,
                -0.15801605772739924,
                -0.8620657513574108,
                1.2568687145432709,
                2.64229374764544
            ]
        },
        {
            "positions": [
                -2.3158218345386694,
                -0.9612282274164168,
                -0.2474496030284341,
                -0.8849879874026846,
                1.3062779480010347,
                2.547520117353629
            ]
        },
        {
            "positions": [
                -2.2058261787175804,
                -0.936867563560323,
                -0.3368831483294691,
                -0.9079102234479582,
                1.3556871814587985,
                2.4527464870618183
            ]
        },
        {
            "positions": [
                -2.0958305228964917,
                -0.912506899704229,
                -0.42631669363050406,
                -0.9308324594932319,
                1.4050964149165623,
                2.3579728567700076
            ]
        },
        {
            "positions": [
                -1.9858348670754027,
                -0.8881462358481351,
                -0.515750238931539,
                -0.9537546955385057,
                1.4545056483743262,
                2.263199226478197
            ]
        },
        {
            "positions": [
                -1.8758392112543136,
                -0.8637855719920413,
                -0.605183784232574,
                -0.9766769315837793,
                1.50391488183209,
                2.168425596186386
            ]
        },
        {
            "positions": [
                -1.7658435554332248,
                -0.8394249081359475,
                -0.6946173295336089,
                -0.999599167629053,
                1.5533241152898538,
                2.073651965894575
            ]
        },
        {
            "positions": [
                -1.6558478996121357,
                -0.8150642442798537,
                -0.7840508748346438,
                -1.0225214036743266,
                1.6027333487476176,
                1.9788783356027644
            ]
        },
        {
            "positions": [
                -1.545852243791047,
                -0.7907035804237598,
                -0.8734844201356788,
                -1.0454436397196003,
                1.6521425822053815,
                1.8841047053109536
            ]
        },
        {
            "positions": [
                -1.4358565879699579,
                -0.766342916567666,
                -0.9629179654367137,
                -1.068365875764874,
                1.7015518156631453,
                1.7893310750191427
            ]
        },
        {
            "positions": [
                -1.325860932148869,
                -0.741982252711572,
                -1.0523515107377488,
                -1.0912881118101478,
                1.750961049120909,
                1.694557444727332
            ]
        },
        {
            "positions": [
                -1.21586527632778,
                -0.7176215888554782,
                -1.1417850560387837,
                -1.1142103478554215,
                1.800370282578673,
                1.5997838144355212
            ]
        },
        {
            "positions": [
                -1.105869620506691,
                -0.6932609249993844,
                -1.2312186013398185,
                -1.1371325839006952,
                1.8497795160364368,
                1.5050101841437105
            ]
        },
        {
            "positions": [
                -0.9958739646856021,
                -0.6689002611432905,
                -1.3206521466408536,
                -1.1600548199459688,
                1.8991887494942006,
                1.4102365538518997
            ]
        },
        {
            "positions": [
                -0.885878308864513,
                -0.6445395972871967,
                -1.4100856919418885,
                -1.1829770559912425,
                1.9485979829519644,
                1.3154629235600888
            ]
        },
        {
            "positions": [
                -0.775882653043424,
                -0.6201789334311028,
                -1.4995192372429236,
                -1.2058992920365161,
                1.9980072164097282,
                1.220689293268278
            ]
        },
        {
            "positions": [
                -0.6658869972223354,
                -0.5958182695750089,
                -1.5889527825439584,
                -1.2288215280817898,
                2.047416449867492,
                1.1259156629764673
            ]
        },
        {
            "positions": [
                -0.5558913414012463,
                -0.5714576057189151,
                -1.6783863278449933,
                -1.2517437641270637,
                2.096825683325256,
                1.0311420326846563
            ]
        },
        {
            "positions": [
                -0.44589568558015724,
                -0.5470969418628212,
                -1.7678198731460284,
                -1.274666000172337,
                2.14623491678302,
                0.9363684023928456
            ]
        },
        {
            "positions": [
                -0.3359000297590682,
                -0.5227362780067274,
                -1.857253418447063,
                -1.297588236217611,
                2.1956441502407835,
                0.8415947721010348
            ]
        },
        {
            "positions": [
                -0.22590437393797913,
                -0.4983756141506336,
                -1.9466869637480981,
                -1.3205104722628846,
                2.245053383698547,
                0.7468211418092241
            ]
        },
        {
            "positions": [
                -0.11590871811689052,
                -0.47401495029453966,
                -2.036120509049133,
                -1.3434327083081583,
                2.294462617156311,
                0.6520475115174134
            ]
        },
        {
            "positions": [
                -0.005913062295801463,
                -0.44965428643844585,
                -2.125554054350168,
                -1.3663549443534322,
                2.343871850614075,
                0.5572738812256026
            ]
        },
        {
            "positions": [
                0.10408259352528759,
                -0.42529362258235204,
                -2.214987599651203,
                -1.3892771803987056,
                2.393281084071839,
                0.46250025093379143
            ]
        },
        {
            "positions": [
                0.21407824934637665,
                -0.4009329587262581,
                -2.3044211449522383,
                -1.4121994164439795,
                2.4426903175296024,
                0.3677266206419807
            ]
        },
        {
            "positions": [
                0.32407390516746526,
                -0.3765722948701643,
                -2.3938546902532734,
                -1.435121652489253,
                2.4920995509873665,
                0.27295299035016996
            ]
        },
        {
            "positions": [
                0.4340695609885543,
                -0.3522116310140704,
                -2.4832882355543076,
                -1.4580438885345268,
                2.5415087844451305,
                0.17817936005835922
            ]
        },
        {
            "positions": [
                0.5440652168096434,
                -0.32785096715797657,
                -2.5727217808553426,
                -1.4809661245798005,
                2.590918017902894,
                0.08340572976654848
            ]
        },
        {
            "positions": [
                0.5133706068499596,
                -0.3892902254933202,
                -2.562869111549614,
                -1.5100912795333785,
                2.470352894355158,
                -0.05541979121419349
            ]
        },
        {
            "positions": [
                0.48267599689027585,
                -0.45072948382866385,
                -2.5530164422438855,
                -1.5392164344869566,
                2.349787770807422,
                -0.19424531219493546
            ]
        },
        {
            "positions": [
                0.45198138693059203,
                -0.5121687421640074,
                -2.543163772938157,
                -1.5683415894405348,
                2.229222647259686,
                -0.3330708331756774
            ]
        },
        {
            "positions": [
                0.42128677697090827,
                -0.5736080004993511,
                -2.5333111036324283,
                -1.5974667443941128,
                2.10865752371195,
                -0.4718963541564194
            ]
        },
        {
            "positions": [
                0.3905921670112245,
                -0.6350472588346947,
                -2.5234584343266997,
                -1.6265918993476909,
                1.9880924001642137,
                -0.6107218751371614
            ]
        },
        {
            "positions": [
                0.3598975570515407,
                -0.6964865171700383,
                -2.513605765020971,
                -1.655717054301269,
                1.8675272766164777,
                -0.7495473961179033
            ]
        },
        {
            "positions": [
                0.32920294709185693,
                -0.7579257755053821,
                -2.5037530957152425,
                -1.6848422092548472,
                1.7469621530687416,
                -0.8883729170986454
            ]
        },
        {
            "positions": [
                0.2985083371321732,
                -0.8193650338407257,
                -2.493900426409514,
                -1.7139673642084252,
                1.6263970295210055,
                -1.0271984380793873
            ]
        },
        {
            "positions": [
                0.26781372717248936,
                -0.8808042921760693,
                -2.4840477571037853,
                -1.7430925191620033,
                1.5058319059732694,
                -1.1660239590601293
            ]
        },
        {
            "positions": [
                0.23711911721280565,
                -0.9422435505114128,
                -2.4741950877980567,
                -1.7722176741155813,
                1.3852667824255334,
                -1.3048494800408712
            ]
        },
        {
            "positions": [
                0.20642450725312184,
                -1.0036828088467566,
                -2.464342418492328,
                -1.8013428290691595,
                1.2647016588777973,
                -1.4436750010216133
            ]
        },
        {
            "positions": [
                0.17572989729343808,
                -1.0651220671821,
                -2.4544897491866,
                -1.8304679840227376,
                1.1441365353300612,
                -1.5825005220023551
            ]
        },
        {
            "positions": [
                0.14503528733375431,
                -1.1265613255174438,
                -2.4446370798808714,
                -1.8595931389763156,
                1.0235714117823254,
                -1.721326042983097
            ]
        },
        {
            "positions": [
                0.1143406773740705,
                -1.1880005838527876,
                -2.434784410575143,
                -1.8887182939298937,
                0.9030062882345891,
                -1.8601515639638393
            ]
        },
        {
            "positions": [
                0.08364606741438674,
                -1.249439842188131,
                -2.4249317412694142,
                -1.9178434488834717,
                0.782441164686853,
                -1.9989770849445812
            ]
        },
        {
            "positions": [
                0.05295145745470298,
                -1.3108791005234748,
                -2.4150790719636857,
                -1.9469686038370497,
                0.6618760411391169,
                -2.137802605925323
            ]
        },
        {
            "positions": [
                0.022256847495019216,
                -1.3723183588588181,
                -2.405226402657957,
                -1.9760937587906278,
                0.5413109175913808,
                -2.276628126906065
            ]
        },
        {
            "positions": [
                -0.008437762464664655,
                -1.433757617194162,
                -2.3953737333522285,
                -2.005218913744206,
                0.42074579404364476,
                -2.415453647886807
            ]
        },
        {
            "positions": [
                -0.039132372424348416,
                -1.4951968755295055,
                -2.3855210640465,
                -2.0343440686977843,
                0.3001806704959087,
                -2.554279168867549
            ]
        },
        {
            "positions": [
                -0.06982698238403207,
                -1.5566361338648491,
                -2.3756683947407713,
                -2.0634692236513623,
                0.1796155469481726,
                -2.693104689848291
            ]
        },
        {
            "positions": [
                -0.10052159234371583,
                -1.6180753922001927,
                -2.3658157254350427,
                -2.0925943786049404,
                0.059050423400436536,
                -2.8319302108290327
            ]
        },
        {
            "positions": [
                -0.1312162023033997,
                -1.6795146505355365,
                -2.355963056129314,
                -2.1217195335585184,
                -0.06151470014729954,
                -2.970755731809775
            ]
        },
        {
            "positions": [
                -0.1619108122630835,
                -1.74095390887088,
                -2.3461103868235855,
                -2.1508446885120964,
                -0.18207982369503578,
                -3.109581252790517
            ]
        },
        {
            "positions": [
                -0.18363008331231445,
                -1.741842159464831,
                -2.3685313657689973,
                -2.1558668779109964,
                -0.18105128152455194,
                -3.156221005874817
            ]
        }
    ]
}