{
    "goal": {
        "global_pose": {
            "orientation": {
                "w": -0.4816463035849501,
                "x": 0.5182115481033762,
                "y": 0.4908360881923453,
                "z": -0.5084816262002911
            },
            "position": {
                "x": -0.8240239810943604,
                "y": -0.300875300988555,
                "z": 0.16403168439865112
            }
        },
        "name": "move_to_storage_C"
    },
    "id": "BKPIECE_move_to_storage_C_71",
    "joint_names": [
        "shoulder_pan_joint",
        "shoulder_lift_joint",
        "elbow_joint",
        "wrist_1_joint",
        "wrist_2_joint",
        "wrist_3_joint"
    ],
    "metrics": {
        "cart_traj_len": 0.5757238602791239,
        "distance_elbow_joint": 0.25502972467751017,
        "distance_shoulder_lift_joint": 0.18897647470202272,
        "distance_shoulder_pan_joint": 0.4948021976060395,
        "distance_wrist_1_joint": 0.06928986625627687,
        "distance_wrist_2_joint": 1.060369140857825,
        "distance_wrist_3_joint": 0.06698328257580632,
        "smoothness": 2.5376526478085547e-16,
        "time": 0.246134941,
        "traj_len": 1.461318133287711,
        "weighted_distance": 1.8436583899793353
    },
    "planner": "BKPIECE",
    "start": {
        "state": {
            "elbow_joint": 2.0108683149792914,
            "shoulder_lift_joint": -1.1634956873317392,
            "shoulder_pan_joint": -2.4736205022346,
            "wrist_1_joint": -0.8367026793690192,
            "wrist_2_joint": 0.6746043897045053,
            "wrist_3_joint": 3.133522094754363
        }
    },
    "waypoints": [
        {
            "positions": [
                -2.4736205022346,
                -1.1634956873317392,
                2.0108683149792914,
                -0.8367026793690192,
                0.6746043897045053,
                3.133522094754363
            ]
        },
        {
            "positions": [
                -2.55608753516894,
                -1.1319996082147354,
                1.968363360866373,
                -0.8251543683263064,
                0.8513325798474761,
                3.1446859751836644
            ]
        },
        {
            "positions": [
                -2.63855456810328,
                -1.1005035290977316,
                1.9258584067534548,
                -0.8136060572835936,
                1.028060769990447,
                3.1558498556129653
            ]
        },
        {
            "positions": [
                -2.72102160103762,
                -1.0690074499807278,
                1.8833534526405362,
                -0.8020577462408808,
                1.2047889601334179,
                3.167013736042266
            ]
        },
        {
            "positions": [
                -2.8034886339719596,
                -1.037511370863724,
                1.840848498527618,
                -0.790509435198168,
                1.3815171502763888,
                3.1781776164715674
            ]
        },
        {
            "positions": [
                -2.8859556669062996,
                -1.0060152917467202,
                1.7983435444146996,
                -0.7789611241554552,
                1.5582453404193597,
                3.1893414969008687
            ]
        },
        {
            "positions": [
                -2.9684226998406396,
                -0.9745192126297165,
                1.7558385903017812,
                -0.7674128131127423,
                1.7349735305623304,
                3.2005053773301695
            ]
        }
    ]
}