{
    "goal": {
        "global_pose": {
            "orientation": {
                "w": -0.00223480608172531,
                "x": 0.0024358444001904467,
                "y": 0.7094548369677653,
                "z": -0.704743149386269
            },
            "position": {
                "x": -0.37947507619857795,
                "y": -0.6371506643295288,
                "z": 0.19426114857196808
            }
        },
        "name": "move_to_magneteinheit_C"
    },
    "id": "BKPIECE_move_to_magneteinheit_C_82",
    "joint_names": [
        "shoulder_pan_joint",
        "shoulder_lift_joint",
        "elbow_joint",
        "wrist_1_joint",
        "wrist_2_joint",
        "wrist_3_joint"
    ],
    "metrics": {
        "cart_traj_len": 2.914587617183228,
        "distance_elbow_joint": 1.6756368689221965,
        "distance_shoulder_lift_joint": 3.13920449394252,
        "distance_shoulder_pan_joint": 3.419198000465633,
        "distance_wrist_1_joint": 3.8256094714635727,
        "distance_wrist_2_joint": 3.9284950903384304,
        "distance_wrist_3_joint": 7.300810798353197,
        "smoothness": 0.6839186804006605,
        "time": 0.47035584900000005,
        "traj_len": 4.825863106583685,
        "weighted_distance": 6.756084730226076
    },
    "planner": "BKPIECE",
    "start": {
        "state": {
            "elbow_joint": 1.9565354006593851,
            "shoulder_lift_joint": -1.4165861576512813,
            "shoulder_pan_joint": -1.6717766223278752,
            "wrist_1_joint": -0.528663328821883,
            "wrist_2_joint": 1.472756589259273,
            "wrist_3_joint": 3.159348288315503
        }
    },
    "waypoints": [
        {
            "positions": [
                -1.6717766223278752,
                -1.4165861576512813,
                1.9565354006593851,
                -0.528663328821883,
                1.472756589259273,
                3.159348288315503
            ]
        },
        {
            "positions": [
                -1.5711464393976555,
                -1.4325449481284316,
                1.910926459526232,
                -0.46796407195763623,
                1.378151404057587,
                3.092913633513357
            ]
        },
        {
            "positions": [
                -1.4705162564674357,
                -1.4485037386055817,
                1.8653175183930788,
                -0.4072648150933894,
                1.2835462188559008,
                3.0264789787112116
            ]
        },
        {
            "positions": [
                -1.369886073537216,
                -1.464462529082732,
                1.8197085772599257,
                -0.3465655582291426,
                1.1889410336542148,
                2.9600443239090657
            ]
        },
        {
            "positions": [
                -1.2692558906069964,
                -1.480421319559882,
                1.7740996361267725,
                -0.2858663013648958,
                1.0943358484525287,
                2.8936096691069197
            ]
        },
        {
            "positions": [
                -1.1686257076767768,
                -1.4963801100370324,
                1.7284906949936194,
                -0.225167044500649,
                0.9997306632508425,
                2.8271750143047742
            ]
        },
        {
            "positions": [
                -1.067995524746557,
                -1.5123389005141825,
                1.6828817538604661,
                -0.16446778763640219,
                0.9051254780491564,
                2.7607403595026283
            ]
        },
        {
            "positions": [
                -0.9673653418163373,
                -1.5282976909913328,
                1.637272812727313,
                -0.10376853077215548,
                0.8105202928474704,
                2.694305704700483
            ]
        },
        {
            "positions": [
                -0.8667351588861175,
                -1.544256481468483,
                1.5916638715941598,
                -0.0430692739079086,
                0.7159151076457843,
                2.627871049898337
            ]
        },
        {
            "positions": [
                -0.7661049759558979,
                -1.5602152719456333,
                1.5460549304610067,
                0.01762998295633811,
                0.6213099224440982,
                2.561436395096191
            ]
        },
        {
            "positions": [
                -0.6654747930256781,
                -1.5761740624227834,
                1.5004459893278534,
                0.07832923982058504,
                0.526704737242412,
                2.4950017402940454
            ]
        },
        {
            "positions": [
                -0.5648446100954585,
                -1.5921328528999337,
                1.4548370481947004,
                0.13902849668483175,
                0.43209955204072603,
                2.4285670854918995
            ]
        },
        {
            "positions": [
                -0.46421442716523864,
                -1.608091643377084,
                1.4092281070615473,
                0.19972775354907868,
                0.33749436683903977,
                2.362132430689754
            ]
        },
        {
            "positions": [
                -0.363584244235019,
                -1.624050433854234,
                1.363619165928394,
                0.2604270104133254,
                0.2428891816373538,
                2.295697775887608
            ]
        },
        {
            "positions": [
                -0.44656944749659744,
                -1.6755467856750657,
                1.3995900577824711,
                0.3012028588452964,
                0.3080417603572562,
                2.1787682205025316
            ]
        },
        {
            "positions": [
                -0.5295546507581759,
                -1.727043137495897,
                1.435560949636548,
                0.3419787072772674,
                0.3731943390771586,
                2.061838665117455
            ]
        },
        {
            "positions": [
                -0.6125398540197542,
                -1.7785394893167286,
                1.471531841490625,
                0.3827545557092385,
                0.43834691779706103,
                1.944909109732379
            ]
        },
        {
            "positions": [
                -0.6955250572813326,
                -1.8300358411375601,
                1.507502733344702,
                0.4235304041412095,
                0.5034994965169635,
                1.8279795543473027
            ]
        },
        {
            "positions": [
                -0.7785102605429111,
                -1.8815321929583915,
                1.543473625198779,
                0.4643062525731806,
                0.5686520752368659,
                1.7110499989622263
            ]
        },
        {
            "positions": [
                -0.8614954638044894,
                -1.933028544779223,
                1.5794445170528562,
                0.5050821010051516,
                0.6338046539567683,
                1.5941204435771499
            ]
        },
        {
            "positions": [
                -0.9444806670660679,
                -1.9845248966000546,
                1.615415408906933,
                0.5458579494371226,
                0.6989572326766708,
                1.4771908881920734
            ]
        },
        {
            "positions": [
                -1.0274658703276462,
                -2.036021248420886,
                1.65138630076101,
                0.5866337978690936,
                0.7641098113965732,
                1.3602613328069972
            ]
        },
        {
            "positions": [
                -1.1104510735892248,
                -2.0875176002417173,
                1.687357192615087,
                0.6274096463010647,
                0.8292623901164755,
                1.2433317774219208
            ]
        },
        {
            "positions": [
                -1.1934362768508031,
                -2.139013952062549,
                1.723328084469164,
                0.6681854947330357,
                0.894414968836378,
                1.1264022220368444
            ]
        },
        {
            "positions": [
                -1.2764214801123814,
                -2.1905103038833804,
                1.759298976323241,
                0.7089613431650067,
                0.9595675475562804,
                1.0094726666517682
            ]
        },
        {
            "positions": [
                -1.35940668337396,
                -2.2420066557042118,
                1.795269868177318,
                0.7497371915969777,
                1.024720126276183,
                0.8925431112666917
            ]
        },
        {
            "positions": [
                -1.4423918866355383,
                -2.293503007525043,
                1.831240760031395,
                0.7905130400289487,
                1.0898727049960852,
                0.7756135558816155
            ]
        },
        {
            "positions": [
                -1.5253770898971168,
                -2.344999359345875,
                1.867211651885472,
                0.8312888884609199,
                1.1550252837159878,
                0.6586840004965389
            ]
        },
        {
            "positions": [
                -1.6083622931586952,
                -2.3964957111667062,
                1.903182543739549,
                0.8720647368928909,
                1.22017786243589,
                0.5417544451114626
            ]
        },
        {
            "positions": [
                -1.6913474964202735,
                -2.447992062987538,
                1.939153435593626,
                0.9128405853248619,
                1.2853304411557924,
                0.42482488972638643
            ]
        },
        {
            "positions": [
                -1.774332699681852,
                -2.4994884148083694,
                1.975124327447703,
                0.9536164337568329,
                1.350483019875695,
                0.3078953343413098
            ]
        },
        {
            "positions": [
                -1.8573179029434304,
                -2.5509847666292007,
                2.01109521930178,
                0.9943922821888039,
                1.4156355985955973,
                0.19096577895623357
            ]
        },
        {
            "positions": [
                -1.9403031062050087,
                -2.602481118450032,
                2.047066111155857,
                1.035168130620775,
                1.4807881773154996,
                0.07403622357115713
            ]
        },
        {
            "positions": [
                -2.0232883094665874,
                -2.653977470270864,
                2.083037003009934,
                1.075943979052746,
                1.5459407560354022,
                -0.0428933318139193
            ]
        },
        {
            "positions": [
                -2.1062735127281655,
                -2.705473822091695,
                2.119007894864011,
                1.116719827484717,
                1.6110933347553047,
                -0.1598228871989953
            ]
        },
        {
            "positions": [
                -2.1892587159897436,
                -2.756970173912527,
                2.154978786718088,
                1.157495675916688,
                1.676245913475207,
                -0.2767524425840717
            ]
        },
        {
            "positions": [
                -2.2722439192513226,
                -2.8084665257333583,
                2.190949678572165,
                1.1982715243486592,
                1.7413984921951096,
                -0.39368199796914816
            ]
        },
        {
            "positions": [
                -2.3552291225129007,
                -2.8599628775541897,
                2.226920570426242,
                1.2390473727806302,
                1.8065510709150119,
                -0.5106115533542246
            ]
        },
        {
            "positions": [
                -2.360418720082244,
                -2.7862312352046414,
                2.217380603917835,
                1.1495735132214537,
                1.7572047320698445,
                -0.35274846828103035
            ]
        },
        {
            "positions": [
                -2.365608317651587,
                -2.712499592855093,
                2.2078406374094284,
                1.0600996536622773,
                1.7078583932246771,
                -0.19488538320783616
            ]
        },
        {
            "positions": [
                -2.3707979152209306,
                -2.6387679505055446,
                2.1983006709010215,
                0.9706257941031008,
                1.6585120543795095,
                -0.03702229813464192
            ]
        },
        {
            "positions": [
                -2.3759875127902736,
                -2.565036308155996,
                2.1887607043926147,
                0.8811519345439243,
                1.6091657155343422,
                0.12084078693855227
            ]
        },
        {
            "positions": [
                -2.381177110359617,
                -2.4913046658064477,
                2.179220737884208,
                0.7916780749847478,
                1.5598193766891748,
                0.2787038720117465
            ]
        },
        {
            "positions": [
                -2.38636670792896,
                -2.4175730234568995,
                2.169680771375801,
                0.7022042154255714,
                1.5104730378440072,
                0.43656695708494075
            ]
        },
        {
            "positions": [
                -2.3915563054983036,
                -2.343841381107351,
                2.1601408048673942,
                0.6127303558663949,
                1.4611266989988398,
                0.594430042158135
            ]
        },
        {
            "positions": [
                -2.396745903067647,
                -2.2701097387578026,
                2.1506008383589874,
                0.5232564963072185,
                1.4117803601536725,
                0.7522931272313291
            ]
        },
        {
            "positions": [
                -2.40193550063699,
                -2.196378096408254,
                2.1410608718505806,
                0.43378263674804196,
                1.362434021308505,
                0.9101562123045235
            ]
        },
        {
            "positions": [
                -2.4071250982063335,
                -2.122646454058706,
                2.1315209053421738,
                0.34430877718886554,
                1.3130876824633377,
                1.0680192973777176
            ]
        },
        {
            "positions": [
                -2.4123146957756765,
                -2.0489148117091576,
                2.121980938833767,
                0.254834917629689,
                1.2637413436181701,
                1.225882382450912
            ]
        },
        {
            "positions": [
                -2.41750429334502,
                -1.9751831693596091,
                2.11244097232536,
                0.1653610580705127,
                1.2143950047730028,
                1.383745467524106
            ]
        },
        {
            "positions": [
                -2.422693890914363,
                -1.9014515270100607,
                2.102901005816953,
                0.0758871985113363,
                1.1650486659278354,
                1.5416085525973
            ]
        },
        {
            "positions": [
                -2.4278834884837064,
                -1.8277198846605123,
                2.093361039308546,
                -0.013586661047840343,
                1.1157023270826678,
                1.6994716376704946
            ]
        },
        {
            "positions": [
                -2.4330730860530494,
                -1.753988242310964,
                2.083821072800139,
                -0.10306052060701676,
                1.0663559882375004,
                1.8573347227436887
            ]
        },
        {
            "positions": [
                -2.438262683622393,
                -1.6802565999614156,
                2.0742811062917323,
                -0.19253438016619318,
                1.017009649392333,
                2.015197807816883
            ]
        },
        {
            "positions": [
                -2.4434522811917363,
                -1.6065249576118674,
                2.0647411397833255,
                -0.2820082397253696,
                0.9676633105471657,
                2.173060892890077
            ]
        },
        {
            "positions": [
                -2.4486418787610793,
                -1.5327933152623188,
                2.0552011732749187,
                -0.37148209928454623,
                0.9183169717019981,
                2.3309239779632716
            ]
        },
        {
            "positions": [
                -2.4538314763304228,
                -1.4590616729127706,
                2.045661206766512,
                -0.46095595884372265,
                0.8689706328568307,
                2.4887870630364657
            ]
        },
        {
            "positions": [
                -2.4590210738997658,
                -1.3853300305632221,
                2.036121240258105,
                -0.5504298184028991,
                0.8196242940116634,
                2.64665014810966
            ]
        },
        {
            "positions": [
                -2.464210671469109,
                -1.311598388213674,
                2.026581273749698,
                -0.6399036779620755,
                0.770277955166496,
                2.804513233182854
            ]
        },
        {
            "positions": [
                -2.4694002690384522,
                -1.2378667458641255,
                2.0170413072412914,
                -0.7293775375212521,
                0.7209316163213284,
                2.9623763182560485
            ]
        },
        {
            "positions": [
                -2.4745898666077957,
                -1.164135103514577,
                2.0075013407328846,
                -0.8188513970804284,
                0.671585277476161,
                3.1202394033292427
            ]
        }
    ]
}