{
    "goal": {
        "global_pose": {
            "orientation": {
                "w": 0.7031023480610252,
                "x": -0.7110244013736278,
                "y": 0.0077485991402295624,
                "z": 0.005598929693374583
            },
            "position": {
                "x": -0.8841497679147869,
                "y": 0.44412534475326537,
                "z": 0.3711530566215515
            }
        },
        "name": "move_to_auspresseinheit_D"
    },
    "id": "BKPIECE_move_to_auspresseinheit_D_78",
    "joint_names": [
        "shoulder_pan_joint",
        "shoulder_lift_joint",
        "elbow_joint",
        "wrist_1_joint",
        "wrist_2_joint",
        "wrist_3_joint"
    ],
    "metrics": {
        "cart_traj_len": 0.343273143612047,
        "distance_elbow_joint": 0.6395735884379647,
        "distance_shoulder_lift_joint": 0.12163594763277041,
        "distance_shoulder_pan_joint": 0.13426845761585182,
        "distance_wrist_1_joint": 0.5451239133003996,
        "distance_wrist_2_joint": 1.4308996282208044,
        "distance_wrist_3_joint": 0.018354564567669485,
        "smoothness": 1.9737298371844314e-16,
        "time": 0.188416625,
        "traj_len": 1.699957675877685,
        "weighted_distance": 2.2141790285412792
    },
    "planner": "BKPIECE",
    "start": {
        "state": {
            "elbow_joint": -1.8275484843655228,
            "shoulder_lift_joint": -2.1267897864000416,
            "shoulder_pan_joint": -0.035127520176001514,
            "wrist_1_joint": -2.3477863256791385,
            "wrist_2_joint": -1.605890476484521,
            "wrist_3_joint": -3.0880375317375353
        }
    },
    "waypoints": [
        {
            "positions": [
                -0.035127520176001514,
                -2.1267897864000416,
                -1.8275484843655228,
                -2.3477863256791385,
                -1.605890476484521,
                -3.0880375317375353
            ]
        },
        {
            "positions": [
                -0.05191107737798299,
                -2.141994279854138,
                -1.747601785810777,
                -2.4159268148416886,
                -1.4270280229569203,
                -3.0857432111665766
            ]
        },
        {
            "positions": [
                -0.06869463457996447,
                -2.157198773308234,
                -1.6676550872560316,
                -2.4840673040042383,
                -1.2481655694293199,
                -3.083448890595618
            ]
        },
        {
            "positions": [
                -0.08547819178194595,
                -2.1724032667623305,
                -1.587708388701286,
                -2.5522077931667884,
                -1.0693031159017194,
                -3.081154570024659
            ]
        },
        {
            "positions": [
                -0.10226174898392743,
                -2.1876077602164266,
                -1.5077616901465403,
                -2.6203482823293385,
                -0.8904406623741188,
                -3.0788602494537005
            ]
        },
        {
            "positions": [
                -0.1190453061859089,
                -2.202812253670523,
                -1.4278149915917948,
                -2.688488771491888,
                -0.7115782088465182,
                -3.076565928882742
            ]
        },
        {
            "positions": [
                -0.13582886338789038,
                -2.2180167471246195,
                -1.3478682930370491,
                -2.7566292606544383,
                -0.5327157553189177,
                -3.074271608311783
            ]
        },
        {
            "positions": [
                -0.15261242058987184,
                -2.2332212405787155,
                -1.2679215944823037,
                -2.824769749816988,
                -0.353853301791317,
                -3.0719772877408245
            ]
        },
        {
            "positions": [
                -0.16939597779185334,
                -2.248425734032812,
                -1.187974895927558,
                -2.892910238979538,
                -0.17499084826371647,
                -3.0696829671698658
            ]
        }
    ]
}