{
    "goal": {
        "global_pose": {
            "orientation": {
                "w": 0.7031023480610252,
                "x": -0.7110244013736278,
                "y": 0.0077485991402295624,
                "z": 0.005598929693374583
            },
            "position": {
                "x": -0.8841497679147869,
                "y": 0.44412534475326537,
                "z": 0.3711530566215515
            }
        },
        "name": "move_to_auspresseinheit_D"
    },
    "id": "BKPIECE_move_to_auspresseinheit_D_122",
    "joint_names": [
        "shoulder_pan_joint",
        "shoulder_lift_joint",
        "elbow_joint",
        "wrist_1_joint",
        "wrist_2_joint",
        "wrist_3_joint"
    ],
    "metrics": {
        "cart_traj_len": 0.3423100217102237,
        "distance_elbow_joint": 0.6309656806851236,
        "distance_shoulder_lift_joint": 0.11829522868506315,
        "distance_shoulder_pan_joint": 0.13388308236695126,
        "distance_wrist_1_joint": 0.5032901974027242,
        "distance_wrist_2_joint": 1.4471667927629484,
        "distance_wrist_3_joint": 0.019531947753792078,
        "smoothness": 3.9474596431116675e-16,
        "time": 0.230613239,
        "traj_len": 1.6891219404343203,
        "weighted_distance": 2.2006030571936095
    },
    "planner": "BKPIECE",
    "start": {
        "state": {
            "elbow_joint": -1.8275484843655228,
            "shoulder_lift_joint": -2.1267897864000416,
            "shoulder_pan_joint": -0.035127520176001514,
            "wrist_1_joint": -2.3477863256791385,
            "wrist_2_joint": -1.605890476484521,
            "wrist_3_joint": -3.0880375317375353
        }
    },
    "waypoints": [
        {
            "positions": [
                -0.035127520176001514,
                -2.1267897864000416,
                -1.8275484843655228,
                -2.3477863256791385,
                -1.605890476484521,
                -3.0880375317375353
            ]
        },
        {
            "positions": [
                -0.05186290547187042,
                -2.1415766899856745,
                -1.7486777742798822,
                -2.410697600354479,
                -1.4249946273891525,
                -3.090479025206759
            ]
        },
        {
            "positions": [
                -0.06859829076773932,
                -2.1563635935713075,
                -1.669807064194242,
                -2.4736088750298197,
                -1.2440987782937838,
                -3.0929205186759834
            ]
        },
        {
            "positions": [
                -0.08533367606360824,
                -2.1711504971569404,
                -1.5909363541086015,
                -2.53652014970516,
                -1.0632029291984153,
                -3.0953620121452072
            ]
        },
        {
            "positions": [
                -0.10206906135947715,
                -2.1859374007425734,
                -1.512065644022961,
                -2.5994314243805006,
                -0.8823070801030468,
                -3.097803505614431
            ]
        },
        {
            "positions": [
                -0.11880444665534605,
                -2.200724304328206,
                -1.4331949339373204,
                -2.662342699055841,
                -0.7014112310076783,
                -3.1002449990836554
            ]
        },
        {
            "positions": [
                -0.13553983195121497,
                -2.215511207913839,
                -1.35432422385168,
                -2.7252539737311814,
                -0.5205153819123096,
                -3.102686492552879
            ]
        },
        {
            "positions": [
                -0.15227521724708387,
                -2.2302981114994718,
                -1.2754535137660397,
                -2.7881652484065222,
                -0.3396195328169411,
                -3.1051279860221035
            ]
        },
        {
            "positions": [
                -0.16901060254295278,
                -2.2450850150851047,
                -1.1965828036803992,
                -2.8510765230818627,
                -0.15872368372157253,
                -3.1075694794913273
            ]
        }
    ]
}