{
    "goal": {
        "global_pose": {
            "orientation": {
                "w": -0.4816463035849501,
                "x": 0.5182115481033762,
                "y": 0.4908360881923453,
                "z": -0.5084816262002911
            },
            "position": {
                "x": -0.8240239810943604,
                "y": 0.19912469901144506,
                "z": 0.16403168439865112
            }
        },
        "name": "move_to_storage_D"
    },
    "id": "BKPIECE_move_to_storage_D_43",
    "joint_names": [
        "shoulder_pan_joint",
        "shoulder_lift_joint",
        "elbow_joint",
        "wrist_1_joint",
        "wrist_2_joint",
        "wrist_3_joint"
    ],
    "metrics": {
        "cart_traj_len": 0.6566091256379079,
        "distance_elbow_joint": 0.5542842480197951,
        "distance_shoulder_lift_joint": 0.16670032678044366,
        "distance_shoulder_pan_joint": 0.24503155762934453,
        "distance_wrist_1_joint": 3.8206332479303344,
        "distance_wrist_2_joint": 1.9125802212395913,
        "distance_wrist_3_joint": 3.2381155276981124,
        "smoothness": 0.18417287745019853,
        "time": 0.192687619,
        "traj_len": 3.152355489042696,
        "weighted_distance": 4.706037574633651
    },
    "planner": "BKPIECE",
    "start": {
        "state": {
            "elbow_joint": -2.384821990628643,
            "shoulder_lift_joint": -2.278805467437664,
            "shoulder_pan_joint": -0.18546946439364564,
            "wrist_1_joint": 1.4845938187801415,
            "wrist_2_joint": 0.178987772454074,
            "wrist_3_joint": 0.03710569632802521
        }
    },
    "waypoints": [
        {
            "positions": [
                -0.18546946439364564,
                -2.278805467437664,
                -2.384821990628643,
                1.4845938187801415,
                0.178987772454074,
                0.03710569632802521
            ]
        },
        {
            "positions": [
                -0.0865064414573553,
                -2.198974556668345,
                -2.2458302924563656,
                1.469362595229859,
                0.21353350675774851,
                0.01556387320820616
            ]
        },
        {
            "positions": [
                0.012456581478935053,
                -2.1191436458990256,
                -2.1068385942840884,
                1.4541313716795767,
                0.24807924106142304,
                -0.005977949911612893
            ]
        },
        {
            "positions": [
                0.01049385182240322,
                -2.1194369169507676,
                -2.09532605879762,
                1.2962075883116697,
                0.17126720970174628,
                0.12714837848249022
            ]
        },
        {
            "positions": [
                0.00853112216587139,
                -2.1197301880025092,
                -2.083813523311152,
                1.1382838049437627,
                0.09445517834206951,
                0.2602747068765933
            ]
        },
        {
            "positions": [
                0.0065683925093395585,
                -2.1200234590542513,
                -2.072300987824683,
                0.9803600215758556,
                0.01764314698239275,
                0.3934010352706964
            ]
        },
        {
            "positions": [
                0.004605662852807727,
                -2.1203167301059933,
                -2.060788452338215,
                0.8224362382079485,
                -0.059168884377284015,
                0.5265273636647995
            ]
        },
        {
            "positions": [
                0.002642933196275895,
                -2.120610001157735,
                -2.0492759168517467,
                0.6645124548400414,
                -0.1359809157369608,
                0.6596536920589026
            ]
        },
        {
            "positions": [
                0.0006802035397440644,
                -2.120903272209477,
                -2.0377633813652785,
                0.5065886714721344,
                -0.21279294709663754,
                0.7927800204530057
            ]
        },
        {
            "positions": [
                -0.0012825261167877678,
                -2.121196543261219,
                -2.0262508458788098,
                0.34866488810422736,
                -0.28960497845631433,
                0.9259063488471089
            ]
        },
        {
            "positions": [
                -0.0032452557733195983,
                -2.1214898143129606,
                -2.0147383103923415,
                0.19074110473632033,
                -0.36641700981599107,
                1.059032677241212
            ]
        },
        {
            "positions": [
                -0.0052079854298514305,
                -2.1217830853647026,
                -2.0032257749058733,
                0.03281732136841331,
                -0.4432290411756678,
                1.192159005635315
            ]
        },
        {
            "positions": [
                -0.007170715086383263,
                -2.1220763564164447,
                -1.9917132394194048,
                -0.12510646199949393,
                -0.5200410725353446,
                1.3252853340294182
            ]
        },
        {
            "positions": [
                -0.009133444742915092,
                -2.1223696274681862,
                -1.9802007039329366,
                -0.28303024536740096,
                -0.5968531038950213,
                1.4584116624235213
            ]
        },
        {
            "positions": [
                -0.011096174399446924,
                -2.1226628985199283,
                -1.968688168446468,
                -0.440954028735308,
                -0.6736651352546981,
                1.5915379908176244
            ]
        },
        {
            "positions": [
                -0.013058904055978753,
                -2.1229561695716703,
                -1.9571756329599999,
                -0.5988778121032148,
                -0.7504771666143748,
                1.7246643192117272
            ]
        },
        {
            "positions": [
                -0.015021633712510588,
                -2.123249440623412,
                -1.9456630974735316,
                -0.756801595471122,
                -0.8272891979740518,
                1.8577906476058308
            ]
        },
        {
            "positions": [
                -0.016984363369042417,
                -2.123542711675154,
                -1.9341505619870631,
                -0.9147253788390293,
                -0.9041012293337285,
                1.9909169759999337
            ]
        },
        {
            "positions": [
                -0.01894709302557425,
                -2.123835982726896,
                -1.922638026500595,
                -1.072649162206936,
                -0.9809132606934052,
                2.1240433043940365
            ]
        },
        {
            "positions": [
                -0.02090982268210608,
                -2.1241292537786376,
                -1.9111254910141264,
                -1.2305729455748433,
                -1.057725292053082,
                2.25716963278814
            ]
        },
        {
            "positions": [
                -0.022872552338637914,
                -2.1244225248303796,
                -1.8996129555276582,
                -1.3884967289427501,
                -1.1345373234127587,
                2.3902959611822427
            ]
        },
        {
            "positions": [
                -0.02483528199516974,
                -2.1247157958821217,
                -1.8881004200411897,
                -1.5464205123106574,
                -1.2113493547724354,
                2.5234222895763456
            ]
        },
        {
            "positions": [
                -0.026798011651701578,
                -2.1250090669338633,
                -1.8765878845547215,
                -1.7043442956785646,
                -1.2881613861321124,
                2.656548617970449
            ]
        },
        {
            "positions": [
                -0.028760741308233403,
                -2.1253023379856053,
                -1.865075349068253,
                -1.8622680790464714,
                -1.3649734174917891,
                2.789674946364552
            ]
        },
        {
            "positions": [
                -0.030723470964765236,
                -2.1255956090373473,
                -1.8535628135817848,
                -2.0201918624143786,
                -1.4417854488514656,
                2.922801274758655
            ]
        },
        {
            "positions": [
                -0.03268620062129707,
                -2.125888880089089,
                -1.8420502780953165,
                -2.178115645782286,
                -1.5185974802111426,
                3.0559276031527585
            ]
        },
        {
            "positions": [
                -0.0346489302778289,
                -2.126182151140831,
                -1.830537742608848,
                -2.3360394291501927,
                -1.5954095115708193,
                3.1890539315468613
            ]
        }
    ]
}