{
    "goal": {
        "global_pose": {
            "orientation": {
                "w": 0.7031023502349854,
                "x": -0.7110244035720825,
                "y": 0.007748599164187908,
                "z": 0.005598929710686207
            },
            "position": {
                "x": 0.11585023208521307,
                "y": 0.44412534475326537,
                "z": 0.3711530566215515
            }
        },
        "name": "move_to_auspresseinheit_A"
    },
    "id": "BKPIECE_move_to_auspresseinheit_A_40",
    "joint_names": [
        "shoulder_pan_joint",
        "shoulder_lift_joint",
        "elbow_joint",
        "wrist_1_joint",
        "wrist_2_joint",
        "wrist_3_joint"
    ],
    "metrics": {
        "cart_traj_len": 0.6872766075280283,
        "distance_elbow_joint": 0.032736200855559616,
        "distance_shoulder_lift_joint": 0.5331347019222306,
        "distance_shoulder_pan_joint": 1.0404765705531078,
        "distance_wrist_1_joint": 0.5771196124681619,
        "distance_wrist_2_joint": 0.5321052704374778,
        "distance_wrist_3_joint": 0.06059996013423552,
        "smoothness": 9.868649107779169e-17,
        "time": 0.19205773199999998,
        "traj_len": 1.666184958631776,
        "weighted_distance": 2.0016486004153884
    },
    "planner": "BKPIECE",
    "start": {
        "state": {
            "elbow_joint": 2.4225746994637096,
            "shoulder_lift_joint": -1.373653595662188,
            "shoulder_pan_joint": -0.3378633848294565,
            "wrist_1_joint": -1.0288595594406726,
            "wrist_2_joint": 1.2330228066703421,
            "wrist_3_joint": 3.189163495502006
        }
    },
    "waypoints": [
        {
            "positions": [
                -0.3378633848294565,
                -1.373653595662188,
                2.4225746994637096,
                -1.0288595594406726,
                1.2330228066703421,
                3.189163495502006
            ]
        },
        {
            "positions": [
                -0.20780381351031801,
                -1.440295433402467,
                2.4184826743567647,
                -0.9567196078821524,
                1.1665096478656574,
                3.1815885004852262
            ]
        },
        {
            "positions": [
                -0.07774424219117954,
                -1.5069372711427458,
                2.4143906492498197,
                -0.8845796563236321,
                1.0999964890609726,
                3.174013505468447
            ]
        },
        {
            "positions": [
                0.05231532912795894,
                -1.5735791088830244,
                2.4102986241428748,
                -0.812439704765112,
                1.033483330256288,
                3.1664385104516675
            ]
        },
        {
            "positions": [
                0.18237490044709742,
                -1.6402209466233033,
                2.40620659903593,
                -0.7402997532065917,
                0.9669701714516032,
                3.158863515434888
            ]
        },
        {
            "positions": [
                0.3124344717662359,
                -1.7068627843635822,
                2.402114573928985,
                -0.6681598016480714,
                0.9004570126469185,
                3.1512885204181087
            ]
        },
        {
            "positions": [
                0.4424940430853744,
                -1.7735046221038608,
                2.39802254882204,
                -0.5960198500895513,
                0.8339438538422338,
                3.143713525401329
            ]
        },
        {
            "positions": [
                0.5725536144045129,
                -1.8401464598441397,
                2.393930523715095,
                -0.523879898531031,
                0.7674306950375491,
                3.13613853038455
            ]
        },
        {
            "positions": [
                0.7026131857236513,
                -1.9067882975844186,
                2.38983849860815,
                -0.4517399469725108,
                0.7009175362328643,
                3.1285635353677703
            ]
        }
    ]
}