{
    "goal": {
        "global_pose": {
            "orientation": {
                "w": -0.00223480608172531,
                "x": 0.0024358444001904467,
                "y": 0.7094548369677653,
                "z": -0.704743149386269
            },
            "position": {
                "x": -0.37947507619857795,
                "y": -0.6371506643295288,
                "z": 0.19426114857196808
            }
        },
        "name": "move_to_magneteinheit_C"
    },
    "id": "BKPIECE_move_to_magneteinheit_C_122",
    "joint_names": [
        "shoulder_pan_joint",
        "shoulder_lift_joint",
        "elbow_joint",
        "wrist_1_joint",
        "wrist_2_joint",
        "wrist_3_joint"
    ],
    "metrics": {
        "cart_traj_len": 1.3067108053157015,
        "distance_elbow_joint": 0.7667148720302925,
        "distance_shoulder_lift_joint": 0.5519756561230078,
        "distance_shoulder_pan_joint": 1.914224790169578,
        "distance_wrist_1_joint": 0.38074999992358893,
        "distance_wrist_2_joint": 1.643350335842332,
        "distance_wrist_3_joint": 1.7341336789366388,
        "smoothness": 1.5989138132688672,
        "time": 0.336503259,
        "traj_len": 2.644078163183804,
        "weighted_distance": 3.5332020925308867
    },
    "planner": "BKPIECE",
    "start": {
        "state": {
            "elbow_joint": 1.9565354006593851,
            "shoulder_lift_joint": -1.4165861576512813,
            "shoulder_pan_joint": -1.6717766223278752,
            "wrist_1_joint": -0.528663328821883,
            "wrist_2_joint": 1.472756589259273,
            "wrist_3_joint": 3.159348288315503
        }
    },
    "waypoints": [
        {
            "positions": [
                -1.6717766223278752,
                -1.4165861576512813,
                1.9565354006593851,
                -0.528663328821883,
                1.472756589259273,
                3.159348288315503
            ]
        },
        {
            "positions": [
                -1.648575573614404,
                -1.4202610526734198,
                1.9530655331292373,
                -0.5332514179241086,
                1.4638014972536895,
                3.1336982709991057
            ]
        },
        {
            "positions": [
                -1.5614480748214103,
                -1.4567558530925138,
                1.9492621222068482,
                -0.522106350149862,
                1.422225087689446,
                2.919236008188414
            ]
        },
        {
            "positions": [
                -1.4743205760284166,
                -1.4932506535116077,
                1.9454587112844592,
                -0.5109612823756153,
                1.3806486781252023,
                2.704773745377723
            ]
        },
        {
            "positions": [
                -1.3871930772354226,
                -1.5297454539307016,
                1.9416553003620702,
                -0.4998162146013686,
                1.3390722685609586,
                2.490311482567032
            ]
        },
        {
            "positions": [
                -1.3000655784424289,
                -1.5662402543497955,
                1.9378518894396812,
                -0.488671146827122,
                1.2974958589967152,
                2.2758492197563402
            ]
        },
        {
            "positions": [
                -1.4358596849149765,
                -1.5439329481922413,
                1.9787669269876005,
                -0.507964760051008,
                1.1930703783972174,
                2.3264554830680386
            ]
        },
        {
            "positions": [
                -1.5716537913875244,
                -1.5216256420346872,
                2.0196819645355197,
                -0.5272583732748941,
                1.0886448977977197,
                2.3770617463797374
            ]
        },
        {
            "positions": [
                -1.707447897860072,
                -1.499318335877133,
                2.0605970020834388,
                -0.5465519864987801,
                0.9842194171982218,
                2.427668009691436
            ]
        },
        {
            "positions": [
                -1.8432420043326196,
                -1.4770110297195789,
                2.1015120396313582,
                -0.5658455997226662,
                0.879793936598724,
                2.4782742730031346
            ]
        },
        {
            "positions": [
                -1.9790361108051675,
                -1.4547037235620246,
                2.1424270771792777,
                -0.5851392129465522,
                0.7753684559992262,
                2.528880536314833
            ]
        },
        {
            "positions": [
                -2.114830217277715,
                -1.4323964174044703,
                2.1833421147271967,
                -0.6044328261704383,
                0.6709429753997285,
                2.5794867996265314
            ]
        },
        {
            "positions": [
                -2.250624323750263,
                -1.4100891112469163,
                2.224257152275116,
                -0.6237264393943244,
                0.5665174948002307,
                2.63009306293823
            ]
        },
        {
            "positions": [
                -2.3864184302228106,
                -1.387781805089362,
                2.2651721898230353,
                -0.6430200526182104,
                0.46209201420073276,
                2.6806993262499286
            ]
        },
        {
            "positions": [
                -2.522212536695358,
                -1.365474498931808,
                2.3060872273709547,
                -0.6623136658420965,
                0.357666533601235,
                2.7313055895616274
            ]
        },
        {
            "positions": [
                -2.658006643167906,
                -1.3431671927742537,
                2.3470022649188738,
                -0.6816072790659825,
                0.2532410530017374,
                2.7819118528733258
            ]
        },
        {
            "positions": [
                -2.621092106856175,
                -1.3073174932044633,
                2.2792260678525946,
                -0.7093363805630858,
                0.33800801291869664,
                2.850826248325424
            ]
        },
        {
            "positions": [
                -2.584177570544444,
                -1.271467793634673,
                2.2114498707863155,
                -0.7370654820601891,
                0.42277497283565596,
                2.919740643777522
            ]
        },
        {
            "positions": [
                -2.547263034232713,
                -1.2356180940648827,
                2.143673673720036,
                -0.7647945835572922,
                0.5075419327526152,
                2.98865503922962
            ]
        },
        {
            "positions": [
                -2.5103484979209822,
                -1.1997683944950923,
                2.075897476653757,
                -0.7925236850543955,
                0.5923088926695745,
                3.057569434681718
            ]
        },
        {
            "positions": [
                -2.4734339616092513,
                -1.163918694925302,
                2.0081212795874777,
                -0.8202527865514988,
                0.6770758525865338,
                3.1264838301338163
            ]
        }
    ]
}