{
    "goal": {
        "global_pose": {
            "orientation": {
                "w": 0.7047431493862688,
                "x": -0.7094548369677653,
                "y": 0.0024358444001904,
                "z": -0.0022348060817251984
            },
            "position": {
                "x": -0.39052492380142206,
                "y": 0.3671506643295288,
                "z": 0.19426114857196808
            }
        },
        "name": "move_to_magneteinheit_D"
    },
    "id": "BKPIECE_move_to_magneteinheit_D_25",
    "joint_names": [
        "shoulder_pan_joint",
        "shoulder_lift_joint",
        "elbow_joint",
        "wrist_1_joint",
        "wrist_2_joint",
        "wrist_3_joint"
    ],
    "metrics": {
        "cart_traj_len": 5.948250655085567,
        "distance_elbow_joint": 3.100551477069179,
        "distance_shoulder_lift_joint": 1.1031213622404155,
        "distance_shoulder_pan_joint": 6.052828225820949,
        "distance_wrist_1_joint": 2.1731113983045756,
        "distance_wrist_2_joint": 2.257925919486145,
        "distance_wrist_3_joint": 6.949833660821618,
        "smoothness": 0.3738940585551572,
        "time": 0.40364336900000003,
        "traj_len": 4.6515988696084785,
        "weighted_distance": 6.322031056802619
    },
    "planner": "BKPIECE",
    "start": {
        "state": {
            "elbow_joint": 0.7495348899011911,
            "shoulder_lift_joint": -0.6476975780737668,
            "shoulder_pan_joint": -2.711696901376276,
            "wrist_1_joint": -0.0750647808097303,
            "wrist_2_joint": 0.43296659715458535,
            "wrist_3_joint": 3.1361499051832418
        }
    },
    "waypoints": [
        {
            "positions": [
                -2.711696901376276,
                -0.6476975780737668,
                0.7495348899011911,
                -0.0750647808097303,
                0.43296659715458535,
                3.1361499051832418
            ]
        },
        {
            "positions": [
                -2.697354992103998,
                -0.7097890510916812,
                0.6304289195871019,
                -0.17941198907107325,
                0.43002183389816856,
                3.091131165799259
            ]
        },
        {
            "positions": [
                -2.68301308283172,
                -0.7718805241095956,
                0.5113229492730127,
                -0.28375919733241617,
                0.42707707064175177,
                3.0461124264152764
            ]
        },
        {
            "positions": [
                -2.570875866489478,
                -0.7885672462374643,
                0.4589589659932777,
                -0.30380415917312725,
                0.4485884735347394,
                2.8758620863172673
            ]
        },
        {
            "positions": [
                -2.458738650147236,
                -0.8052539683653329,
                0.4065949827135427,
                -0.3238491210138384,
                0.4700998764277271,
                2.7056117462192577
            ]
        },
        {
            "positions": [
                -2.3466014338049943,
                -0.8219406904932016,
                0.35423099943380776,
                -0.3438940828545495,
                0.49161127932071474,
                2.5353614061212486
            ]
        },
        {
            "positions": [
                -2.2344642174627523,
                -0.8386274126210703,
                0.30186701615407274,
                -0.3639390446952606,
                0.5131226822137024,
                2.365111066023239
            ]
        },
        {
            "positions": [
                -2.12232700112051,
                -0.855314134748939,
                0.24950303287433773,
                -0.3839840065359717,
                0.5346340851066901,
                2.19486072592523
            ]
        },
        {
            "positions": [
                -2.010189784778268,
                -0.8720008568768076,
                0.19713904959460277,
                -0.4040289683766828,
                0.5561454879996777,
                2.024610385827221
            ]
        },
        {
            "positions": [
                -1.8980525684360263,
                -0.8886875790046763,
                0.14477506631486775,
                -0.4240739302173939,
                0.5776568908926654,
                1.8543600457292113
            ]
        },
        {
            "positions": [
                -1.7859153520937845,
                -0.905374301132545,
                0.09241108303513279,
                -0.444118892058105,
                0.5991682937856531,
                1.684109705631202
            ]
        },
        {
            "positions": [
                -1.6737781357515424,
                -0.9220610232604136,
                0.040047099755397775,
                -0.4641638538988161,
                0.6206796966786406,
                1.5138593655331927
            ]
        },
        {
            "positions": [
                -1.5616409194093004,
                -0.9387477453882823,
                -0.012316883524337241,
                -0.48420881573952723,
                0.6421910995716283,
                1.3436090254351833
            ]
        },
        {
            "positions": [
                -1.4495037030670583,
                -0.955434467516151,
                -0.06468086680407226,
                -0.5042537775802384,
                0.6637025024646159,
                1.1733586853371738
            ]
        },
        {
            "positions": [
                -1.3373664867248165,
                -0.9721211896440197,
                -0.11704485008380716,
                -0.5242987394209495,
                0.6852139053576036,
                1.003108345239165
            ]
        },
        {
            "positions": [
                -1.2252292703825745,
                -0.9888079117718884,
                -0.16940883336354218,
                -0.5443437012616605,
                0.7067253082505913,
                0.8328580051411554
            ]
        },
        {
            "positions": [
                -1.1130920540403326,
                -1.005494633899757,
                -0.2217728166432772,
                -0.5643886631023717,
                0.7282367111435789,
                0.6626076650431463
            ]
        },
        {
            "positions": [
                -1.0009548376980906,
                -1.0221813560276258,
                -0.2741367999230122,
                -0.5844336249430828,
                0.7497481140365666,
                0.49235732494513673
            ]
        },
        {
            "positions": [
                -0.8888176213558487,
                -1.0388680781554944,
                -0.3265007832027471,
                -0.6044785867837938,
                0.7712595169295542,
                0.32210698484712763
            ]
        },
        {
            "positions": [
                -0.7766804050136067,
                -1.055554800283363,
                -0.37886476648248213,
                -0.624523548624505,
                0.7927709198225419,
                0.15185664474911809
            ]
        },
        {
            "positions": [
                -0.6645431886713649,
                -1.0722415224112316,
                -0.43122874976221715,
                -0.6445685104652161,
                0.8142823227155296,
                -0.018393695348891015
            ]
        },
        {
            "positions": [
                -0.5524059723291228,
                -1.0889282445391004,
                -0.48359273304195216,
                -0.6646134723059272,
                0.8357937256085173,
                -0.18864403544690056
            ]
        },
        {
            "positions": [
                -0.44026875598688076,
                -1.105614966666969,
                -0.5359567163216872,
                -0.6846584341466383,
                0.8573051285015049,
                -0.35889437554490966
            ]
        },
        {
            "positions": [
                -0.3281315396446387,
                -1.1223016887948378,
                -0.5883206996014223,
                -0.7047033959873494,
                0.8788165313944926,
                -0.5291447156429196
            ]
        },
        {
            "positions": [
                -0.21599432330239665,
                -1.1389884109227064,
                -0.6406846828811572,
                -0.7247483578280606,
                0.9003279342874801,
                -0.6993950557409288
            ]
        },
        {
            "positions": [
                -0.10385710696015504,
                -1.155675133050575,
                -0.6930486661608921,
                -0.7447933196687717,
                0.9218393371804678,
                -0.8696453958389379
            ]
        },
        {
            "positions": [
                0.008280109382087009,
                -1.1723618551784438,
                -0.745412649440627,
                -0.7648382815094827,
                0.9433507400734555,
                -1.0398957359369465
            ]
        },
        {
            "positions": [
                0.12041732572432906,
                -1.1890485773063124,
                -0.7977766327203621,
                -0.7848832433501939,
                0.9648621429664432,
                -1.210146076034957
            ]
        },
        {
            "positions": [
                0.2325545420665711,
                -1.2057352994341812,
                -0.850140616000097,
                -0.804928205190905,
                0.9863735458594309,
                -1.3803964161329656
            ]
        },
        {
            "positions": [
                0.3446917584088127,
                -1.2224220215620498,
                -0.9025045992798322,
                -0.824973167031616,
                1.0078849487524184,
                -1.5506467562309751
            ]
        },
        {
            "positions": [
                0.4568289747510548,
                -1.2391087436899184,
                -0.9548685825595671,
                -0.8450181288723272,
                1.029396351645406,
                -1.7208970963289838
            ]
        },
        {
            "positions": [
                0.5689661910932968,
                -1.2557954658177872,
                -1.0072325658393022,
                -0.8650630907130383,
                1.0509077545383938,
                -1.8911474364269942
            ]
        },
        {
            "positions": [
                0.6811034074355389,
                -1.2724821879456558,
                -1.0595965491190371,
                -0.8851080525537494,
                1.0724191574313815,
                -2.061397776525003
            ]
        },
        {
            "positions": [
                0.7932406237777805,
                -1.2891689100735246,
                -1.111960532398772,
                -0.9051530143944605,
                1.093930560324369,
                -2.2316481166230124
            ]
        },
        {
            "positions": [
                0.9053778401200225,
                -1.3058556322013932,
                -1.164324515678507,
                -0.9251979762351715,
                1.1154419632173567,
                -2.401898456721021
            ]
        },
        {
            "positions": [
                1.0175150564622646,
                -1.3225423543292618,
                -1.216688498958242,
                -0.9452429380758828,
                1.1369533661103444,
                -2.5721487968190315
            ]
        },
        {
            "positions": [
                1.1296522728045066,
                -1.3392290764571304,
                -1.269052482237977,
                -0.9652878999165938,
                1.158464769003332,
                -2.74239913691704
            ]
        },
        {
            "positions": [
                1.2417894891467482,
                -1.3559157985849992,
                -1.321416465517712,
                -0.985332861757305,
                1.1799761718963198,
                -2.9126494770150497
            ]
        },
        {
            "positions": [
                1.3539267054889903,
                -1.3726025207128678,
                -1.373780448797447,
                -1.005377823598016,
                1.2014875747893072,
                -3.0828998171130584
            ]
        },
        {
            "positions": [
                1.4660639218312328,
                -1.3892892428407366,
                -1.4261444320771821,
                -1.0254227854387272,
                1.2229989776822952,
                -3.253150157211068
            ]
        },
        {
            "positions": [
                1.5782011381734742,
                -1.4059759649686052,
                -1.478508415356917,
                -1.0454677472794383,
                1.2445103805752826,
                -3.423400497309077
            ]
        },
        {
            "positions": [
                1.4623245397416196,
                -1.4283617914286648,
                -1.535245924272918,
                -1.1255149065606154,
                1.1490892425022199,
                -3.3989353266737052
            ]
        },
        {
            "positions": [
                1.346447941309765,
                -1.4507476178887244,
                -1.591983433188919,
                -1.2055620658417925,
                1.0536681044291574,
                -3.374470156038334
            ]
        },
        {
            "positions": [
                1.2305713428779104,
                -1.4731334443487842,
                -1.64872094210492,
                -1.2856092251229694,
                0.9582469663560946,
                -3.350004985402962
            ]
        },
        {
            "positions": [
                1.1146947444460558,
                -1.4955192708088438,
                -1.7054584510209212,
                -1.3656563844041465,
                0.8628258282830319,
                -3.3255398147675908
            ]
        },
        {
            "positions": [
                0.9988181460142012,
                -1.5179050972689034,
                -1.7621959599369221,
                -1.4457035436853234,
                0.7674046902099693,
                -3.301074644132219
            ]
        },
        {
            "positions": [
                0.8829415475823464,
                -1.540290923728963,
                -1.818933468852923,
                -1.5257507029665005,
                0.6719835521369065,
                -3.2766094734968476
            ]
        },
        {
            "positions": [
                0.7670649491504918,
                -1.5626767501890226,
                -1.8756709777689242,
                -1.6057978622476776,
                0.5765624140638439,
                -3.252144302861476
            ]
        },
        {
            "positions": [
                0.6511883507186372,
                -1.5850625766490825,
                -1.9324084866849252,
                -1.6858450215288547,
                0.48114127599078116,
                -3.2276791322261045
            ]
        },
        {
            "positions": [
                0.5353117522867827,
                -1.607448403109142,
                -1.9891459956009263,
                -1.7658921808100319,
                0.38572013791771853,
                -3.2032139615907327
            ]
        },
        {
            "positions": [
                0.41943515385492813,
                -1.6298342295692017,
                -2.0458835045169272,
                -1.8459393400912087,
                0.2902989998446559,
                -3.1787487909553613
            ]
        },
        {
            "positions": [
                0.30355855542307353,
                -1.6522200560292613,
                -2.102621013432928,
                -1.9259864993723859,
                0.19487786177159316,
                -3.1542836203199895
            ]
        },
        {
            "positions": [
                0.1876819569912187,
                -1.6746058824893209,
                -2.1593585223489296,
                -2.006033658653563,
                0.09945672369853042,
                -3.129818449684618
            ]
        },
        {
            "positions": [
                0.0718053585593641,
                -1.6969917089493807,
                -2.2160960312649305,
                -2.0860808179347403,
                0.004035585625467686,
                -3.1053532790492464
            ]
        },
        {
            "positions": [
                -0.04407123987249051,
                -1.7193775354094403,
                -2.2728335401809314,
                -2.166127977215917,
                -0.09138555244759483,
                -3.080888108413875
            ]
        },
        {
            "positions": [
                -0.15994783830434503,
                -1.7417633618694999,
                -2.3295710490969324,
                -2.246175136497094,
                -0.18680669052065763,
                -3.0564229377785033
            ]
        },
        {
            "positions": [
                -0.1847290480977277,
                -1.7508189403141823,
                -2.351016587167988,
                -2.2441740938798826,
                -0.18352067857681728,
                -3.0797286365772254
            ]
        }
    ]
}