{
    "goal": {
        "global_pose": {
            "orientation": {
                "w": 0.7047431493862688,
                "x": -0.7094548369677653,
                "y": 0.0024358444001904,
                "z": -0.0022348060817251984
            },
            "position": {
                "x": -0.39052492380142206,
                "y": 0.3671506643295288,
                "z": 0.19426114857196808
            }
        },
        "name": "move_to_magneteinheit_D"
    },
    "id": "BKPIECE_move_to_magneteinheit_D_60",
    "joint_names": [
        "shoulder_pan_joint",
        "shoulder_lift_joint",
        "elbow_joint",
        "wrist_1_joint",
        "wrist_2_joint",
        "wrist_3_joint"
    ],
    "metrics": {
        "cart_traj_len": 4.468020667401143,
        "distance_elbow_joint": 3.140842580174098,
        "distance_shoulder_lift_joint": 1.6285777395628276,
        "distance_shoulder_pan_joint": 2.9452419278239654,
        "distance_wrist_1_joint": 2.0051989931380305,
        "distance_wrist_2_joint": 0.24708787101505625,
        "distance_wrist_3_joint": 3.1276818653773475,
        "smoothness": 0.35595436500902194,
        "time": 0.165024229,
        "traj_len": 3.6186504358795597,
        "weighted_distance": 4.647825467032848
    },
    "planner": "BKPIECE",
    "start": {
        "state": {
            "elbow_joint": 0.7495348899011911,
            "shoulder_lift_joint": -0.6476975780737668,
            "shoulder_pan_joint": -2.711696901376276,
            "wrist_1_joint": -0.0750647808097303,
            "wrist_2_joint": 0.43296659715458535,
            "wrist_3_joint": 3.1361499051832418
        }
    },
    "waypoints": [
        {
            "positions": [
                -2.711696901376276,
                -0.6476975780737668,
                0.7495348899011911,
                -0.0750647808097303,
                0.43296659715458535,
                3.1361499051832418
            ]
        },
        {
            "positions": [
                -2.728300340996169,
                -0.7064897578136022,
                0.7103476548271859,
                -0.048939550514662186,
                0.4088560896482445,
                3.0578775832990255
            ]
        },
        {
            "positions": [
                -2.7449037806160614,
                -0.7652819375534377,
                0.6711604197531806,
                -0.022814320219594085,
                0.3847455821419037,
                2.9796052614148096
            ]
        },
        {
            "positions": [
                -2.657890376395821,
                -0.8193151554197263,
                0.6415420806569051,
                -0.0439706701508265,
                0.37516318596638215,
                2.8144305317172993
            ]
        },
        {
            "positions": [
                -2.5708769721755806,
                -0.8733483732860149,
                0.6119237415606295,
                -0.06512702008205892,
                0.36558078979086067,
                2.649255802019789
            ]
        },
        {
            "positions": [
                -2.48386356795534,
                -0.9273815911523036,
                0.5823054024643539,
                -0.08628337001329134,
                0.35599839361533914,
                2.4840810723222786
            ]
        },
        {
            "positions": [
                -2.3968501637350994,
                -0.9814148090185921,
                0.5526870633680783,
                -0.10743971994452375,
                0.3464159974398176,
                2.3189063426247682
            ]
        },
        {
            "positions": [
                -2.3098367595148592,
                -1.0354480268848807,
                0.5230687242718027,
                -0.12859606987575617,
                0.33683360126429607,
                2.153731612927258
            ]
        },
        {
            "positions": [
                -2.2228233552946186,
                -1.0894812447511693,
                0.49345038517552714,
                -0.14975241980698858,
                0.3272512050887746,
                1.9885568832297476
            ]
        },
        {
            "positions": [
                -2.1358099510743784,
                -1.143514462617458,
                0.46383204607925155,
                -0.170908769738221,
                0.31766880891325305,
                1.8233821535322372
            ]
        },
        {
            "positions": [
                -2.048796546854138,
                -1.1975476804837466,
                0.4342137069829759,
                -0.19206511966945342,
                0.3080864127377315,
                1.6582074238347269
            ]
        },
        {
            "positions": [
                -1.9617831426338972,
                -1.2515808983500354,
                0.40459536788670036,
                -0.21322146960068583,
                0.29850401656221,
                1.4930326941372165
            ]
        },
        {
            "positions": [
                -1.874769738413657,
                -1.305614116216324,
                0.37497702879042477,
                -0.23437781953191825,
                0.2889216203866885,
                1.3278579644397062
            ]
        },
        {
            "positions": [
                -1.7877563341934164,
                -1.3596473340826125,
                0.3453586896941492,
                -0.25553416946315066,
                0.27933922421116697,
                1.1626832347421958
            ]
        },
        {
            "positions": [
                -1.6941773536488531,
                -1.4023886712642335,
                0.225763674081951,
                -0.17544146740961145,
                0.2793166407706845,
                1.1098402177758073
            ]
        },
        {
            "positions": [
                -1.6005983731042899,
                -1.4451300084458545,
                0.10616865846975282,
                -0.09534876535607223,
                0.2792940573302021,
                1.0569972008094188
            ]
        },
        {
            "positions": [
                -1.5070193925597266,
                -1.4878713456274757,
                -0.013426357142445389,
                -0.01525606330253304,
                0.2792714738897197,
                1.0041541838430301
            ]
        },
        {
            "positions": [
                -1.4134404120151631,
                -1.5306126828090967,
                -0.13302137275464354,
                0.0648366387510062,
                0.27924889044923723,
                0.9513111668766416
            ]
        },
        {
            "positions": [
                -1.3198614314705999,
                -1.5733540199907177,
                -0.25261638836684175,
                0.1449293408045454,
                0.2792263070087548,
                0.8984681499102531
            ]
        },
        {
            "positions": [
                -1.2262824509260366,
                -1.6160953571723387,
                -0.37221140397903996,
                0.22502204285808458,
                0.27920372356827233,
                0.8456251329438647
            ]
        },
        {
            "positions": [
                -1.1327034703814731,
                -1.6588366943539596,
                -0.49180641959123805,
                0.3051147449116238,
                0.2791811401277899,
                0.792782115977476
            ]
        },
        {
            "positions": [
                -1.0391244898369099,
                -1.7015780315355806,
                -0.6114014352034363,
                0.38520744696516307,
                0.2791585566873075,
                0.7399390990110876
            ]
        },
        {
            "positions": [
                -0.9455455092923467,
                -1.7443193687172016,
                -0.7309964508156346,
                0.4653001490187022,
                0.27913597324682504,
                0.687096082044699
            ]
        },
        {
            "positions": [
                -0.8519665287477833,
                -1.7870607058988228,
                -0.8505914664278327,
                0.5453928510722414,
                0.2791133898063426,
                0.6342530650783105
            ]
        },
        {
            "positions": [
                -0.7583875482032199,
                -1.8298020430804438,
                -0.970186482040031,
                0.6254855531257807,
                0.27909080636586014,
                0.5814100481119219
            ]
        },
        {
            "positions": [
                -0.6648085676586568,
                -1.8725433802620648,
                -1.089781497652229,
                0.7055782551793198,
                0.27906822292537775,
                0.5285670311455334
            ]
        },
        {
            "positions": [
                -0.5712295871140933,
                -1.9152847174436858,
                -1.2093765132644274,
                0.7856709572328592,
                0.2790456394848953,
                0.4757240141791448
            ]
        },
        {
            "positions": [
                -0.47765060656953007,
                -1.9580260546253068,
                -1.3289715288766253,
                0.8657636592863983,
                0.27902305604441285,
                0.4228809972127563
            ]
        },
        {
            "positions": [
                -0.3840716260249668,
                -2.000767391806928,
                -1.4485665444888236,
                0.9458563613399377,
                0.2790004726039304,
                0.3700379802463678
            ]
        },
        {
            "positions": [
                -0.29049264548040354,
                -2.0435087289885487,
                -1.5681615601010217,
                1.025949063393477,
                0.27897788916344796,
                0.3171949632799793
            ]
        },
        {
            "positions": [
                -0.19691366493584006,
                -2.08625006617017,
                -1.6877565757132202,
                1.1060417654470158,
                0.27895530572296556,
                0.2643519463135907
            ]
        },
        {
            "positions": [
                -0.10333468439127702,
                -2.1289914033517907,
                -1.8073515913254183,
                1.1861344675005552,
                0.2789327222824831,
                0.21150892934720222
            ]
        },
        {
            "positions": [
                -0.009755703846713537,
                -2.171732740533412,
                -1.9269466069376162,
                1.2662271695540945,
                0.27891013884200067,
                0.1586659123808137
            ]
        },
        {
            "positions": [
                -0.0702037097290035,
                -2.2187571298816557,
                -2.0102661228157856,
                1.3089734379181976,
                0.23323320571027994,
                0.09781478221547055
            ]
        },
        {
            "positions": [
                -0.13065171561129346,
                -2.2657815192298996,
                -2.0935856386939546,
                1.3517197062823005,
                0.18755627257855922,
                0.03696365205012739
            ]
        },
        {
            "positions": [
                -0.1489097798746976,
                -2.2691749011715614,
                -2.191148436856899,
                1.3885659234985746,
                0.18843861485252553,
                0.046575315707475695
            ]
        },
        {
            "positions": [
                -0.1866426756615465,
                -2.2762753176365944,
                -2.3913076902729067,
                1.4646945138411864,
                0.1876434106874617,
                0.06545926429436179
            ]
        }
    ]
}