{
    "goal": {
        "global_pose": {
            "orientation": {
                "w": 0.7047431493862688,
                "x": -0.7094548369677653,
                "y": 0.0024358444001904,
                "z": -0.0022348060817251984
            },
            "position": {
                "x": -0.39052492380142206,
                "y": 0.3671506643295288,
                "z": 0.19426114857196808
            }
        },
        "name": "move_to_magneteinheit_D"
    },
    "id": "BKPIECE_move_to_magneteinheit_D_33",
    "joint_names": [
        "shoulder_pan_joint",
        "shoulder_lift_joint",
        "elbow_joint",
        "wrist_1_joint",
        "wrist_2_joint",
        "wrist_3_joint"
    ],
    "metrics": {
        "cart_traj_len": 4.655063814407197,
        "distance_elbow_joint": 3.7391633641989257,
        "distance_shoulder_lift_joint": 1.7731767678347627,
        "distance_shoulder_pan_joint": 3.818524478594015,
        "distance_wrist_1_joint": 5.480268853048615,
        "distance_wrist_2_joint": 0.8110847928149779,
        "distance_wrist_3_joint": 6.721247526077274,
        "smoothness": 0.5189924572880544,
        "time": 0.274958651,
        "traj_len": 4.726887536484084,
        "weighted_distance": 6.4867028975117025
    },
    "planner": "BKPIECE",
    "start": {
        "state": {
            "elbow_joint": 0.7495348899011911,
            "shoulder_lift_joint": -0.6476975780737668,
            "shoulder_pan_joint": -2.711696901376276,
            "wrist_1_joint": -0.0750647808097303,
            "wrist_2_joint": 0.43296659715458535,
            "wrist_3_joint": 3.1361499051832418
        }
    },
    "waypoints": [
        {
            "positions": [
                -2.711696901376276,
                -0.6476975780737668,
                0.7495348899011911,
                -0.0750647808097303,
                0.43296659715458535,
                3.1361499051832418
            ]
        },
        {
            "positions": [
                -2.717601066380983,
                -0.6235833301467081,
                0.6736009017168396,
                0.009402994534443307,
                0.43627585849930106,
                2.9478799770261346
            ]
        },
        {
            "positions": [
                -2.72350523138569,
                -0.5994690822196493,
                0.5976669135324881,
                0.09387076987861691,
                0.4395851198440168,
                2.7596100488690274
            ]
        },
        {
            "positions": [
                -2.729409396390397,
                -0.5753548342925907,
                0.5217329253481366,
                0.17833854522279052,
                0.4428943811887326,
                2.57134012071192
            ]
        },
        {
            "positions": [
                -2.7353135613951034,
                -0.551240586365532,
                0.4457989371637852,
                0.2628063205669641,
                0.4462036425334483,
                2.383070192554813
            ]
        },
        {
            "positions": [
                -2.7412177263998103,
                -0.5271263384384732,
                0.3698649489794337,
                0.3472740959111377,
                0.449512903878164,
                2.194800264397706
            ]
        },
        {
            "positions": [
                -2.7471218914045172,
                -0.5030120905114146,
                0.2939309607950823,
                0.4317418712553113,
                0.45282216522287977,
                2.0065303362405986
            ]
        },
        {
            "positions": [
                -2.753026056409224,
                -0.47889784258435586,
                0.2179969726107308,
                0.5162096465994849,
                0.45613142656759553,
                1.8182604080834914
            ]
        },
        {
            "positions": [
                -2.758930221413931,
                -0.4547835946572971,
                0.14206298442637932,
                0.6006774219436585,
                0.45944068791231124,
                1.6299904799263842
            ]
        },
        {
            "positions": [
                -2.764834386418638,
                -0.4306693467302384,
                0.06612899624202784,
                0.6851451972878322,
                0.462749949257027,
                1.4417205517692768
            ]
        },
        {
            "positions": [
                -2.770738551423345,
                -0.4065550988031797,
                -0.009804991942323649,
                0.7696129726320057,
                0.4660592106017427,
                1.2534506236121699
            ]
        },
        {
            "positions": [
                -2.7766427164280514,
                -0.382440850876121,
                -0.08573898012667502,
                0.8540807479761793,
                0.4693684719464585,
                1.0651806954550627
            ]
        },
        {
            "positions": [
                -2.7825468814327583,
                -0.35832660294906227,
                -0.1616729683110265,
                0.9385485233203529,
                0.4726777332911742,
                0.8769107672979555
            ]
        },
        {
            "positions": [
                -2.788451046437465,
                -0.3342123550220035,
                -0.237606956495378,
                1.0230162986645266,
                0.4759869946358899,
                0.6886408391408483
            ]
        },
        {
            "positions": [
                -2.794355211442172,
                -0.31009810709494484,
                -0.3135409446797295,
                1.1074840740087002,
                0.47929625598060566,
                0.500370910983741
            ]
        },
        {
            "positions": [
                -2.738047145372839,
                -0.32329824956774234,
                -0.4042682931754178,
                1.208910358419109,
                0.4789846672714664,
                0.404734891167036
            ]
        },
        {
            "positions": [
                -2.681739079303506,
                -0.3364983920405399,
                -0.4949956416711061,
                1.310336642829518,
                0.47867307856232716,
                0.309098871350331
            ]
        },
        {
            "positions": [
                -2.6254310132341723,
                -0.3496985345133374,
                -0.5857229901667944,
                1.4117629272399268,
                0.4783614898531879,
                0.21346285153362599
            ]
        },
        {
            "positions": [
                -2.569122947164839,
                -0.3628986769861349,
                -0.6764503386624827,
                1.5131892116503358,
                0.47804990114404866,
                0.11782683171692093
            ]
        },
        {
            "positions": [
                -2.512814881095506,
                -0.3760988194589324,
                -0.767177687158171,
                1.6146154960607446,
                0.4777383124349094,
                0.022190811900215945
            ]
        },
        {
            "positions": [
                -2.3605402455631794,
                -0.41956500082589043,
                -0.7539718763272305,
                1.5137727361815514,
                0.4746840149019531,
                0.06870170977027659
            ]
        },
        {
            "positions": [
                -2.2082656100308524,
                -0.46303118219284845,
                -0.7407660654962901,
                1.4129299763023582,
                0.4716297173689969,
                0.11521260764033725
            ]
        },
        {
            "positions": [
                -2.055990974498526,
                -0.5064973635598065,
                -0.7275602546653496,
                1.312087216423165,
                0.4685754198360406,
                0.16172350551039788
            ]
        },
        {
            "positions": [
                -1.9037163389661989,
                -0.5499635449267645,
                -0.7143544438344092,
                1.2112444565439717,
                0.4655211223030844,
                0.20823440338045854
            ]
        },
        {
            "positions": [
                -1.7514417034338723,
                -0.5934297262937225,
                -0.7011486330034686,
                1.1104016966647783,
                0.4624668247701281,
                0.2547453012505192
            ]
        },
        {
            "positions": [
                -1.5991670679015457,
                -0.6368959076606804,
                -0.6879428221725281,
                1.0095589367855853,
                0.45941252723717185,
                0.3012561991205798
            ]
        },
        {
            "positions": [
                -1.446892432369219,
                -0.6803620890276384,
                -0.6747370113415877,
                0.908716176906392,
                0.45635822970421563,
                0.34776709699064046
            ]
        },
        {
            "positions": [
                -1.294617796836892,
                -0.7238282703945964,
                -0.6615312005106472,
                0.8078734170271986,
                0.45330393217125936,
                0.39427799486070114
            ]
        },
        {
            "positions": [
                -1.1423431613045654,
                -0.7672944517615544,
                -0.6483253896797068,
                0.7070306571480054,
                0.45024963463830314,
                0.44078889273076177
            ]
        },
        {
            "positions": [
                -0.9900685257722386,
                -0.8107606331285124,
                -0.6351195788487662,
                0.6061878972688122,
                0.44719533710534687,
                0.4872997906008224
            ]
        },
        {
            "positions": [
                -0.9353045894690061,
                -0.8444044786193765,
                -0.7114678913713673,
                0.5024864280206418,
                0.4494759365879502,
                0.6031514185455205
            ]
        },
        {
            "positions": [
                -0.8805406531657736,
                -0.8780483241102407,
                -0.7878162038939684,
                0.39878495877247133,
                0.4517565360705536,
                0.7190030464902185
            ]
        },
        {
            "positions": [
                -0.825776716862541,
                -0.9116921696011048,
                -0.8641645164165696,
                0.29508348952430097,
                0.45403713555315695,
                0.8348546744349166
            ]
        },
        {
            "positions": [
                -0.7710127805593084,
                -0.9453360150919689,
                -0.9405128289391707,
                0.19138202027613055,
                0.45631773503576034,
                0.9507063023796146
            ]
        },
        {
            "positions": [
                -0.7162488442560759,
                -0.978979860582833,
                -1.0168611414617719,
                0.08768055102796013,
                0.4585983345183637,
                1.0665579303243127
            ]
        },
        {
            "positions": [
                -0.6614849079528434,
                -1.0126237060736971,
                -1.0932094539843729,
                -0.016020918220210234,
                0.4608789340009671,
                1.1824095582690108
            ]
        },
        {
            "positions": [
                -0.6067209716496109,
                -1.0462675515645612,
                -1.169557766506974,
                -0.11972238746838071,
                0.4631595334835704,
                1.298261186213709
            ]
        },
        {
            "positions": [
                -0.5519570353463783,
                -1.0799113970554253,
                -1.245906079029575,
                -0.22342385671655107,
                0.4654401329661738,
                1.4141128141584067
            ]
        },
        {
            "positions": [
                -0.49719309904314585,
                -1.1135552425462896,
                -1.3222543915521763,
                -0.32712532596472144,
                0.46772073244877715,
                1.529964442103105
            ]
        },
        {
            "positions": [
                -0.4424291627399133,
                -1.1471990880371536,
                -1.3986027040747775,
                -0.4308267952128919,
                0.4700013319313805,
                1.645816070047803
            ]
        },
        {
            "positions": [
                -0.3876652264366808,
                -1.1808429335280177,
                -1.4749510165973785,
                -0.5345282644610623,
                0.4722819314139839,
                1.7616676979925012
            ]
        },
        {
            "positions": [
                -0.33290129013344827,
                -1.2144867790188818,
                -1.5512993291199795,
                -0.6382297337092326,
                0.47456253089658723,
                1.877519325937199
            ]
        },
        {
            "positions": [
                -0.27813735383021565,
                -1.2481306245097459,
                -1.627647641642581,
                -0.7419312029574032,
                0.4768431303791906,
                1.9933709538818971
            ]
        },
        {
            "positions": [
                -0.22337341752698314,
                -1.28177447000061,
                -1.703995954165182,
                -0.8456326722055736,
                0.47912372986179397,
                2.1092225818265953
            ]
        },
        {
            "positions": [
                -0.16860948122375063,
                -1.315418315491474,
                -1.780344266687783,
                -0.949334141453744,
                0.48140432934439736,
                2.2250742097712934
            ]
        },
        {
            "positions": [
                -0.11384554492051813,
                -1.349062160982338,
                -1.856692579210384,
                -1.0530356107019143,
                0.4836849288270007,
                2.340925837715991
            ]
        },
        {
            "positions": [
                -0.05908160861728551,
                -1.3827060064732024,
                -1.9330408917329853,
                -1.156737079950085,
                0.48596552830960404,
                2.4567774656606893
            ]
        },
        {
            "positions": [
                -0.0043176723140531115,
                -1.4163498519640665,
                -2.0093892042555863,
                -1.260438549198255,
                0.48824612779220744,
                2.5726290936053875
            ]
        },
        {
            "positions": [
                0.050446263989179396,
                -1.4499936974549306,
                -2.0857375167781873,
                -1.3641400184464256,
                0.4905267272748108,
                2.688480721550085
            ]
        },
        {
            "positions": [
                0.10521020029241201,
                -1.4836375429457949,
                -2.1620858293007887,
                -1.467841487694596,
                0.4928073267574142,
                2.8043323494947834
            ]
        },
        {
            "positions": [
                0.1599741365956444,
                -1.5172813884366587,
                -2.2384341418233893,
                -1.5715429569427661,
                0.4950879262400175,
                2.9201839774394815
            ]
        },
        {
            "positions": [
                0.21473807289887703,
                -1.550925233927523,
                -2.3147824543459907,
                -1.6752444261909367,
                0.4973685257226209,
                3.0360356053841797
            ]
        },
        {
            "positions": [
                0.26950200920210965,
                -1.584569079418387,
                -2.391130766868592,
                -1.7789458954391073,
                0.49964912520522425,
                3.151887233328878
            ]
        },
        {
            "positions": [
                0.32426594550534205,
                -1.6182129249092512,
                -2.467479079391193,
                -1.8826473646872774,
                0.5019297246878276,
                3.2677388612735756
            ]
        },
        {
            "positions": [
                0.37902988180857466,
                -1.6518567704001152,
                -2.543827391913794,
                -1.986348833935448,
                0.504210324170431,
                3.3835904892182738
            ]
        },
        {
            "positions": [
                0.2665336667531005,
                -1.6706204971102694,
                -2.507490418760768,
                -2.024273683171838,
                0.369082478560708,
                3.3344127381230355
            ]
        },
        {
            "positions": [
                0.15403745169762628,
                -1.6893842238204235,
                -2.4711534456077415,
                -2.062198532408228,
                0.23395463295098506,
                3.2852349870277973
            ]
        },
        {
            "positions": [
                0.041541236642152146,
                -1.7081479505305774,
                -2.4348164724547154,
                -2.100123381644618,
                0.09882678734126216,
                3.236057235932559
            ]
        },
        {
            "positions": [
                -0.0709549784133221,
                -1.7269116772407316,
                -2.398479499301689,
                -2.138048230881008,
                -0.03630105826846086,
                3.1868794848373208
            ]
        },
        {
            "positions": [
                -0.1834511934687962,
                -1.7456754039508857,
                -2.362142526148663,
                -2.175973080117398,
                -0.17142890387818377,
                3.1377017337420825
            ]
        }
    ]
}