{
    "goal": {
        "global_pose": {
            "orientation": {
                "w": 0.7047431493862688,
                "x": -0.7094548369677653,
                "y": 0.0024358444001904,
                "z": -0.0022348060817251984
            },
            "position": {
                "x": -0.39052492380142206,
                "y": 0.3671506643295288,
                "z": 0.19426114857196808
            }
        },
        "name": "move_to_magneteinheit_D"
    },
    "id": "BKPIECE_move_to_magneteinheit_D_84",
    "joint_names": [
        "shoulder_pan_joint",
        "shoulder_lift_joint",
        "elbow_joint",
        "wrist_1_joint",
        "wrist_2_joint",
        "wrist_3_joint"
    ],
    "metrics": {
        "cart_traj_len": 4.618890760904828,
        "distance_elbow_joint": 3.534449776962928,
        "distance_shoulder_lift_joint": 1.1049132360808256,
        "distance_shoulder_pan_joint": 3.045637499995451,
        "distance_wrist_1_joint": 2.1584787130157115,
        "distance_wrist_2_joint": 0.873938665141589,
        "distance_wrist_3_joint": 6.225721834931225,
        "smoothness": 0.20884976449653986,
        "time": 0.20100942300000002,
        "traj_len": 4.11620452919042,
        "weighted_distance": 5.694471070621703
    },
    "planner": "BKPIECE",
    "start": {
        "state": {
            "elbow_joint": 0.7495348899011911,
            "shoulder_lift_joint": -0.6476975780737668,
            "shoulder_pan_joint": -2.711696901376276,
            "wrist_1_joint": -0.0750647808097303,
            "wrist_2_joint": 0.43296659715458535,
            "wrist_3_joint": 3.1361499051832418
        }
    },
    "waypoints": [
        {
            "positions": [
                -2.711696901376276,
                -0.6476975780737668,
                0.7495348899011911,
                -0.0750647808097303,
                0.43296659715458535,
                3.1361499051832418
            ]
        },
        {
            "positions": [
                -2.72077043830218,
                -0.7534560919105995,
                0.8220072334765031,
                -0.16442466744590706,
                0.4784616903050353,
                3.0856862630380317
            ]
        },
        {
            "positions": [
                -2.7298439752280834,
                -0.859214605747432,
                0.894479577051815,
                -0.2537845540820838,
                0.5239567834554852,
                3.0352226208928212
            ]
        },
        {
            "positions": [
                -2.738917512153987,
                -0.9649731195842647,
                0.9669519206271271,
                -0.34314444071826056,
                0.5694518766059352,
                2.984758978747611
            ]
        },
        {
            "positions": [
                -2.6490285811902954,
                -0.9864076935326226,
                0.8898474260400646,
                -0.37549882299038495,
                0.5562305512484909,
                2.826294153278297
            ]
        },
        {
            "positions": [
                -2.5591396502266033,
                -1.0078422674809804,
                0.8127429314530021,
                -0.40785320526250934,
                0.5430092258910466,
                2.667829327808983
            ]
        },
        {
            "positions": [
                -2.4692507192629116,
                -1.0292768414293383,
                0.7356384368659398,
                -0.4402075875346338,
                0.5297879005336023,
                2.5093645023396687
            ]
        },
        {
            "positions": [
                -2.37936178829922,
                -1.0507114153776962,
                0.6585339422788773,
                -0.4725619698067582,
                0.516566575176158,
                2.3508996768703545
            ]
        },
        {
            "positions": [
                -2.2894728573355283,
                -1.072145989326054,
                0.5814294476918148,
                -0.5049163520788826,
                0.5033452498187136,
                2.1924348514010403
            ]
        },
        {
            "positions": [
                -2.1995839263718366,
                -1.093580563274412,
                0.5043249531047524,
                -0.537270734351007,
                0.49012392446126934,
                2.033970025931726
            ]
        },
        {
            "positions": [
                -2.1096949954081445,
                -1.11501513722277,
                0.42722045851768986,
                -0.5696251166231314,
                0.47690259910382504,
                1.8755052004624122
            ]
        },
        {
            "positions": [
                -2.019806064444453,
                -1.1364497111711278,
                0.3501159639306275,
                -0.6019794988952558,
                0.46368127374638074,
                1.717040374993098
            ]
        },
        {
            "positions": [
                -1.929917133480761,
                -1.1578842851194857,
                0.2730114693435649,
                -0.6343338811673802,
                0.45045994838893644,
                1.5585755495237836
            ]
        },
        {
            "positions": [
                -1.8400282025170693,
                -1.1793188590678436,
                0.19590697475650254,
                -0.6666882634395046,
                0.4372386230314921,
                1.4001107240544697
            ]
        },
        {
            "positions": [
                -1.7501392715533775,
                -1.2007534330162015,
                0.11880248016944006,
                -0.699042645711629,
                0.4240172976740478,
                1.2416458985851553
            ]
        },
        {
            "positions": [
                -1.6602503405896858,
                -1.2221880069645592,
                0.041697985582377695,
                -0.7313970279837534,
                0.4107959723166035,
                1.0831810731158413
            ]
        },
        {
            "positions": [
                -1.570361409625994,
                -1.243622580912917,
                -0.035406509004684894,
                -0.7637514102558779,
                0.3975746469591592,
                0.9247162476465269
            ]
        },
        {
            "positions": [
                -1.4804724786623022,
                -1.265057154861275,
                -0.11251100359174737,
                -0.7961057925280022,
                0.38435332160171487,
                0.7662514221772132
            ]
        },
        {
            "positions": [
                -1.3905835476986104,
                -1.286491728809633,
                -0.18961549817880985,
                -0.8284601748001267,
                0.3711319962442705,
                0.6077865967078986
            ]
        },
        {
            "positions": [
                -1.3006946167349187,
                -1.3079263027579908,
                -0.2667199927658721,
                -0.8608145570722511,
                0.35791067088682627,
                0.44932177123858486
            ]
        },
        {
            "positions": [
                -1.210805685771227,
                -1.3293608767063487,
                -0.3438244873529346,
                -0.8931689393443755,
                0.3446893455293819,
                0.2908569457692707
            ]
        },
        {
            "positions": [
                -1.120916754807535,
                -1.3507954506547066,
                -0.4209289819399973,
                -0.9255233216165,
                0.3314680201719376,
                0.13239212029995606
            ]
        },
        {
            "positions": [
                -1.0310278238438433,
                -1.3722300246030645,
                -0.49803347652705954,
                -0.9578777038886244,
                0.3182466948144933,
                -0.026072705169358112
            ]
        },
        {
            "positions": [
                -0.9411388928801516,
                -1.3936645985514224,
                -0.575137971114122,
                -0.9902320861607486,
                0.305025369457049,
                -0.18453753063867184
            ]
        },
        {
            "positions": [
                -0.85124996191646,
                -1.4150991724997803,
                -0.6522424657011843,
                -1.022586468432873,
                0.2918040440996047,
                -0.343002356107986
            ]
        },
        {
            "positions": [
                -0.7613610309527679,
                -1.4365337464481382,
                -0.729346960288247,
                -1.0549408507049975,
                0.27858271874216034,
                -0.5014671815773006
            ]
        },
        {
            "positions": [
                -0.6714720999890762,
                -1.4579683203964962,
                -0.8064514548753094,
                -1.087295232977122,
                0.26536139338471604,
                -0.6599320070466144
            ]
        },
        {
            "positions": [
                -0.5815831690253845,
                -1.479402894344854,
                -0.8835559494623717,
                -1.1196496152492463,
                0.25214006802727174,
                -0.8183968325159285
            ]
        },
        {
            "positions": [
                -0.4916942380616929,
                -1.500837468293212,
                -0.9606604440494342,
                -1.1520039975213707,
                0.23891874266982743,
                -0.9768616579852427
            ]
        },
        {
            "positions": [
                -0.4018053070980008,
                -1.5222720422415699,
                -1.0377649386364969,
                -1.1843583797934953,
                0.22569741731238313,
                -1.1353264834545573
            ]
        },
        {
            "positions": [
                -0.3119163761343091,
                -1.5437066161899278,
                -1.1148694332235591,
                -1.2167127620656197,
                0.21247609195493883,
                -1.293791308923871
            ]
        },
        {
            "positions": [
                -0.22202744517061745,
                -1.5651411901382855,
                -1.1919739278106218,
                -1.249067144337744,
                0.19925476659749453,
                -1.4522561343931848
            ]
        },
        {
            "positions": [
                -0.1321385142069258,
                -1.5865757640866434,
                -1.269078422397684,
                -1.2814215266098683,
                0.18603344124005022,
                -1.6107209598624994
            ]
        },
        {
            "positions": [
                -0.04224958324323369,
                -1.6080103380350013,
                -1.3461829169847468,
                -1.313775908881993,
                0.17281211588260587,
                -1.769185785331814
            ]
        },
        {
            "positions": [
                0.04763934772045796,
                -1.6294449119833592,
                -1.4232874115718088,
                -1.3461302911541173,
                0.15959079052516156,
                -1.9276506108011275
            ]
        },
        {
            "positions": [
                0.03454102202402669,
                -1.6357724634647661,
                -1.5388573833945647,
                -1.419533227669903,
                0.12865610012258508,
                -2.054129177423919
            ]
        },
        {
            "positions": [
                0.021442696327595406,
                -1.642100014946173,
                -1.6544273552173205,
                -1.4929361641856889,
                0.0977214097200086,
                -2.1806077440467106
            ]
        },
        {
            "positions": [
                0.008344370631164132,
                -1.64842756642758,
                -1.7699973270400766,
                -1.5663391007014746,
                0.06678671931743213,
                -2.307086310669502
            ]
        },
        {
            "positions": [
                -0.00475395506526715,
                -1.6547551179089868,
                -1.8855672988628325,
                -1.6397420372172604,
                0.035852028914855644,
                -2.4335648772922935
            ]
        },
        {
            "positions": [
                -0.01785228076169843,
                -1.6610826693903937,
                -2.0011372706855886,
                -1.7131449737330462,
                0.004917338512279157,
                -2.560043443915085
            ]
        },
        {
            "positions": [
                -0.0309506064581297,
                -1.6674102208718007,
                -2.1167072425083444,
                -1.786547910248832,
                -0.026017351890297302,
                -2.6865220105378764
            ]
        },
        {
            "positions": [
                -0.04404893215456098,
                -1.6737377723532076,
                -2.2322772143311003,
                -1.8599508467646177,
                -0.05695204229287379,
                -2.813000577160668
            ]
        },
        {
            "positions": [
                -0.057147257850992256,
                -1.6800653238346146,
                -2.347847186153856,
                -1.9333537832804035,
                -0.08788673269545029,
                -2.9394791437834593
            ]
        },
        {
            "positions": [
                -0.12068396973691416,
                -1.7163380689946035,
                -2.348964005881861,
                -2.0834486385529223,
                -0.12794412088987725,
                -3.0145255367657198
            ]
        },
        {
            "positions": [
                -0.18422068162283606,
                -1.7526108141545924,
                -2.350080825609865,
                -2.2335434938254415,
                -0.1680015090843042,
                -3.0895719297479807
            ]
        }
    ]
}