{
    "goal": {
        "global_pose": {
            "orientation": {
                "w": 0.7031023502349854,
                "x": -0.7110244035720825,
                "y": 0.007748599164187908,
                "z": 0.005598929710686207
            },
            "position": {
                "x": 0.11585023208521307,
                "y": 0.44412534475326537,
                "z": 0.3711530566215515
            }
        },
        "name": "move_to_auspresseinheit_A"
    },
    "id": "BKPIECE_move_to_auspresseinheit_A_118",
    "joint_names": [
        "shoulder_pan_joint",
        "shoulder_lift_joint",
        "elbow_joint",
        "wrist_1_joint",
        "wrist_2_joint",
        "wrist_3_joint"
    ],
    "metrics": {
        "cart_traj_len": 0.9615567269539506,
        "distance_elbow_joint": 0.8317670677606626,
        "distance_shoulder_lift_joint": 0.6618169394552813,
        "distance_shoulder_pan_joint": 1.0439525332181248,
        "distance_wrist_1_joint": 1.4167133304441046,
        "distance_wrist_2_joint": 1.7626192987524343,
        "distance_wrist_3_joint": 2.0098771365281065,
        "smoothness": 1.5859163229229845,
        "time": 0.273576616,
        "traj_len": 2.7797025571378526,
        "weighted_distance": 3.8633965895842826
    },
    "planner": "BKPIECE",
    "start": {
        "state": {
            "elbow_joint": 2.4225746994637096,
            "shoulder_lift_joint": -1.373653595662188,
            "shoulder_pan_joint": -0.3378633848294565,
            "wrist_1_joint": -1.0288595594406726,
            "wrist_2_joint": 1.2330228066703421,
            "wrist_3_joint": 3.189163495502006
        }
    },
    "waypoints": [
        {
            "positions": [
                -0.3378633848294565,
                -1.373653595662188,
                2.4225746994637096,
                -1.0288595594406726,
                1.2330228066703421,
                3.189163495502006
            ]
        },
        {
            "positions": [
                -0.29780361089958696,
                -1.4213318177067018,
                2.383326148549814,
                -0.9617202299344483,
                1.1286617151137652,
                3.0956287244983245
            ]
        },
        {
            "positions": [
                -0.2577438369697174,
                -1.4690100397512156,
                2.344077597635919,
                -0.894580900428224,
                1.0243006235571885,
                3.002093953494643
            ]
        },
        {
            "positions": [
                -0.2176840630398479,
                -1.5166882617957294,
                2.3048290467220234,
                -0.8274415709219998,
                0.9199395320006117,
                2.908559182490962
            ]
        },
        {
            "positions": [
                -0.17762428910997838,
                -1.5643664838402431,
                2.265580495808128,
                -0.7603022414157754,
                0.8155784404440349,
                2.8150244114872804
            ]
        },
        {
            "positions": [
                -0.13756451518010884,
                -1.612044705884757,
                2.2263319448942327,
                -0.693162911909551,
                0.7112173488874581,
                2.721489640483599
            ]
        },
        {
            "positions": [
                -0.09750474125023934,
                -1.6597229279292707,
                2.187083393980337,
                -0.6260235824033268,
                0.6068562573308813,
                2.6279548694799173
            ]
        },
        {
            "positions": [
                -0.0574449673203698,
                -1.7074011499737844,
                2.1478348430664416,
                -0.5588842528971024,
                0.5024951657743044,
                2.534420098476236
            ]
        },
        {
            "positions": [
                -0.017385193390500264,
                -1.7550793720182984,
                2.1085862921525464,
                -0.49174492339087816,
                0.3981340742177276,
                2.4408853274725546
            ]
        },
        {
            "positions": [
                0.022674580539369327,
                -1.8027575940628122,
                2.069337741238651,
                -0.4246055938846538,
                0.2937729826611508,
                2.3473505564688733
            ]
        },
        {
            "positions": [
                0.0627343544692388,
                -1.850435816107326,
                2.0300891903247553,
                -0.35746626437842954,
                0.18941189110457413,
                2.253815785465192
            ]
        },
        {
            "positions": [
                0.10279412839910831,
                -1.8981140381518398,
                1.99084063941086,
                -0.2903269348722052,
                0.08505079954799727,
                2.1602810144615106
            ]
        },
        {
            "positions": [
                0.13247373096744905,
                -1.9126037241659324,
                2.0361450908729193,
                -0.3755037080768363,
                0.1775534571001342,
                2.2472397261199157
            ]
        },
        {
            "positions": [
                0.16215333353578978,
                -1.9270934101800252,
                2.081449542334979,
                -0.46068048128146744,
                0.27005611465227114,
                2.334198437778321
            ]
        },
        {
            "positions": [
                0.1918329361041305,
                -1.9415830961941178,
                2.1267539937970383,
                -0.5458572544860986,
                0.362558772204408,
                2.421157149436726
            ]
        },
        {
            "positions": [
                0.22151253867247123,
                -1.9560727822082107,
                2.172058445259098,
                -0.6310340276907297,
                0.455061429756545,
                2.5081158610951313
            ]
        },
        {
            "positions": [
                0.25119214124081196,
                -1.9705624682223033,
                2.2173628967211574,
                -0.7162108008953608,
                0.5475640873086819,
                2.5950745727535365
            ]
        },
        {
            "positions": [
                0.3421715426703832,
                -1.95758085484327,
                2.2520650468006607,
                -0.6657514329248644,
                0.5779908880825629,
                2.7043147921926534
            ]
        },
        {
            "positions": [
                0.4331509440999544,
                -1.9445992414642368,
                2.2867671968801635,
                -0.6152920649543681,
                0.6084176888564439,
                2.8135550116317707
            ]
        },
        {
            "positions": [
                0.5241303455295256,
                -1.9316176280852038,
                2.321469346959667,
                -0.5648326969838716,
                0.6388444896303249,
                2.9227952310708876
            ]
        },
        {
            "positions": [
                0.6151097469590969,
                -1.9186360147061705,
                2.3561714970391696,
                -0.5143733290133752,
                0.669271290404206,
                3.032035450510005
            ]
        },
        {
            "positions": [
                0.7060891483886681,
                -1.9056544013271373,
                2.390873647118673,
                -0.4639139610428788,
                0.6996980911780869,
                3.1412756699491218
            ]
        }
    ]
}