{
    "goal": {
        "global_pose": {
            "orientation": {
                "w": -0.00223480608172531,
                "x": 0.0024358444001904467,
                "y": 0.7094548369677653,
                "z": -0.704743149386269
            },
            "position": {
                "x": -0.37947507619857795,
                "y": -0.6371506643295288,
                "z": 0.19426114857196808
            }
        },
        "name": "move_to_magneteinheit_C"
    },
    "id": "BKPIECE_move_to_magneteinheit_C_148",
    "joint_names": [
        "shoulder_pan_joint",
        "shoulder_lift_joint",
        "elbow_joint",
        "wrist_1_joint",
        "wrist_2_joint",
        "wrist_3_joint"
    ],
    "metrics": {
        "cart_traj_len": 2.2691589885677463,
        "distance_elbow_joint": 0.9835012627184223,
        "distance_shoulder_lift_joint": 1.1940088777305007,
        "distance_shoulder_pan_joint": 1.847330128238793,
        "distance_wrist_1_joint": 1.5897089953158035,
        "distance_wrist_2_joint": 1.5547118503952424,
        "distance_wrist_3_joint": 1.4758411137294831,
        "smoothness": 2.2764503564269294,
        "time": 0.259804955,
        "traj_len": 2.940255469874726,
        "weighted_distance": 3.8394277309643763
    },
    "planner": "BKPIECE",
    "start": {
        "state": {
            "elbow_joint": 1.9565354006593851,
            "shoulder_lift_joint": -1.4165861576512813,
            "shoulder_pan_joint": -1.6717766223278752,
            "wrist_1_joint": -0.528663328821883,
            "wrist_2_joint": 1.472756589259273,
            "wrist_3_joint": 3.159348288315503
        }
    },
    "waypoints": [
        {
            "positions": [
                -1.6717766223278752,
                -1.4165861576512813,
                1.9565354006593851,
                -0.528663328821883,
                1.472756589259273,
                3.159348288315503
            ]
        },
        {
            "positions": [
                -1.6228712257198736,
                -1.4337245031162598,
                1.9424469321787636,
                -0.524041951775621,
                1.4673019793425026,
                3.124526397281304
            ]
        },
        {
            "positions": [
                -1.6707232572559514,
                -1.5093077701884312,
                1.8704376377847516,
                -0.5804845350531085,
                1.486616612518886,
                3.0338077945390136
            ]
        },
        {
            "positions": [
                -1.7185752887920294,
                -1.5848910372606024,
                1.7984283433907395,
                -0.636927118330596,
                1.5059312456952691,
                2.9430891917967235
            ]
        },
        {
            "positions": [
                -1.7664273203281073,
                -1.6604743043327739,
                1.7264190489967275,
                -0.6933697016080835,
                1.5252458788716525,
                2.8523705890544333
            ]
        },
        {
            "positions": [
                -1.814279351864185,
                -1.7360575714049453,
                1.6544097546027157,
                -0.7498122848855711,
                1.544560512048036,
                2.7616519863121427
            ]
        },
        {
            "positions": [
                -1.8621313834002629,
                -1.8116408384771168,
                1.5824004602087036,
                -0.8062548681630586,
                1.563875145224419,
                2.670933383569852
            ]
        },
        {
            "positions": [
                -1.9099834149363408,
                -1.887224105549288,
                1.5103911658146916,
                -0.8626974514405461,
                1.5831897784008024,
                2.580214780827562
            ]
        },
        {
            "positions": [
                -2.0043228823947676,
                -1.8292590155466502,
                1.519651320821616,
                -0.8040911780705834,
                1.4770279507376298,
                2.634413887669054
            ]
        },
        {
            "positions": [
                -2.098662349853195,
                -1.7712939255440123,
                1.5289114758285403,
                -0.7454849047006208,
                1.3708661230744572,
                2.688612994510546
            ]
        },
        {
            "positions": [
                -2.1930018173116217,
                -1.7133288355413747,
                1.5381716308354647,
                -0.6868786313306581,
                1.2647042954112846,
                2.742812101352038
            ]
        },
        {
            "positions": [
                -2.287341284770049,
                -1.6553637455387369,
                1.5474317858423892,
                -0.6282723579606955,
                1.158542467748112,
                2.7970112081935303
            ]
        },
        {
            "positions": [
                -2.3816807522284758,
                -1.597398655536099,
                1.5566919408493136,
                -0.5696660845907328,
                1.0523806400849391,
                2.8512103150350225
            ]
        },
        {
            "positions": [
                -2.476020219686903,
                -1.5394335655334612,
                1.5659520958562378,
                -0.51105981122077,
                0.9462188124217666,
                2.9054094218765143
            ]
        },
        {
            "positions": [
                -2.57035968714533,
                -1.4814684755308234,
                1.5752122508631623,
                -0.4524535378508074,
                0.840056984758594,
                2.9596085287180065
            ]
        },
        {
            "positions": [
                -2.664699154603757,
                -1.4235033855281856,
                1.5844724058700868,
                -0.3938472644808447,
                0.7338951570954213,
                3.0138076355594987
            ]
        },
        {
            "positions": [
                -2.759038622062184,
                -1.365538295525548,
                1.5937325608770112,
                -0.335240991110882,
                0.6277333294322487,
                3.068006742400991
            ]
        },
        {
            "positions": [
                -2.8533780895206107,
                -1.3075732055229101,
                1.6029927158839354,
                -0.2766347177409194,
                0.5215715017690761,
                3.1222058492424827
            ]
        },
        {
            "positions": [
                -2.947717556979038,
                -1.2496081155202723,
                1.61225287089086,
                -0.2180284443709567,
                0.4154096741059034,
                3.176404956083975
            ]
        },
        {
            "positions": [
                -2.8558407133387553,
                -1.2383690726994603,
                1.695495099587136,
                -0.3177803903531809,
                0.45576771493972934,
                3.1407847118717958
            ]
        },
        {
            "positions": [
                -2.7639638696984727,
                -1.227130029878648,
                1.778737328283412,
                -0.4175323363354051,
                0.49612575577355533,
                3.1051644676596166
            ]
        },
        {
            "positions": [
                -2.6720870260581906,
                -1.215890987057836,
                1.8619795569796882,
                -0.5172842823176294,
                0.5364837966073812,
                3.069544223447438
            ]
        },
        {
            "positions": [
                -2.580210182417908,
                -1.2046519442370238,
                1.9452217856759644,
                -0.6170362282998536,
                0.5768418374412072,
                3.033923979235259
            ]
        },
        {
            "positions": [
                -2.4883333387776254,
                -1.1934129014162118,
                2.0284640143722403,
                -0.7167881742820778,
                0.6171998782750332,
                2.9983037350230797
            ]
        },
        {
            "positions": [
                -2.4741391566074107,
                -1.163853175716794,
                2.0091798350560603,
                -0.8197915559059834,
                0.6809990112311765,
                3.1207199449473135
            ]
        }
    ]
}