{
    "goal": {
        "global_pose": {
            "orientation": {
                "w": 0.7047431493862688,
                "x": -0.7094548369677653,
                "y": 0.0024358444001904,
                "z": -0.0022348060817251984
            },
            "position": {
                "x": -0.39052492380142206,
                "y": 0.3671506643295288,
                "z": 0.19426114857196808
            }
        },
        "name": "move_to_magneteinheit_D"
    },
    "id": "BKPIECE_move_to_magneteinheit_D_17",
    "joint_names": [
        "shoulder_pan_joint",
        "shoulder_lift_joint",
        "elbow_joint",
        "wrist_1_joint",
        "wrist_2_joint",
        "wrist_3_joint"
    ],
    "metrics": {
        "cart_traj_len": 4.349314162796378,
        "distance_elbow_joint": 3.2935728566665357,
        "distance_shoulder_lift_joint": 1.6506210980553602,
        "distance_shoulder_pan_joint": 3.2009624523383065,
        "distance_wrist_1_joint": 1.5483089050859813,
        "distance_wrist_2_joint": 0.531532675959239,
        "distance_wrist_3_joint": 3.555892079587419,
        "smoothness": 0.5353171176013307,
        "time": 0.23542074200000002,
        "traj_len": 3.7122621227080446,
        "weighted_distance": 4.792965241675856
    },
    "planner": "BKPIECE",
    "start": {
        "state": {
            "elbow_joint": 0.7495348899011911,
            "shoulder_lift_joint": -0.6476975780737668,
            "shoulder_pan_joint": -2.711696901376276,
            "wrist_1_joint": -0.0750647808097303,
            "wrist_2_joint": 0.43296659715458535,
            "wrist_3_joint": 3.1361499051832418
        }
    },
    "waypoints": [
        {
            "positions": [
                -2.711696901376276,
                -0.6476975780737668,
                0.7495348899011911,
                -0.0750647808097303,
                0.43296659715458535,
                3.1361499051832418
            ]
        },
        {
            "positions": [
                -2.770746173054089,
                -0.7745610604614239,
                0.7380170307915326,
                -0.05252160725735457,
                0.37227978642170206,
                3.0267253443520157
            ]
        },
        {
            "positions": [
                -2.829795444731902,
                -0.9014245428490811,
                0.7264991716818741,
                -0.029978433704978852,
                0.3115929756888187,
                2.91730078352079
            ]
        },
        {
            "positions": [
                -2.888844716409715,
                -1.0282880252367383,
                0.7149813125722155,
                -0.007435260152603124,
                0.25090616495593543,
                2.807876222689564
            ]
        },
        {
            "positions": [
                -2.7794195961275614,
                -1.06411164558199,
                0.6135361758834154,
                0.021857582587004487,
                0.2529160536847997,
                2.696515147974519
            ]
        },
        {
            "positions": [
                -2.669994475845408,
                -1.0999352659272414,
                0.5120910391946153,
                0.0511504253266121,
                0.2549259424136639,
                2.585154073259474
            ]
        },
        {
            "positions": [
                -2.5605693555632545,
                -1.1357588862724932,
                0.4106459025058151,
                0.08044326806621971,
                0.25693583114252816,
                2.473792998544429
            ]
        },
        {
            "positions": [
                -2.4511442352811006,
                -1.1715825066177448,
                0.309200765817015,
                0.10973611080582732,
                0.2589457198713924,
                2.362431923829384
            ]
        },
        {
            "positions": [
                -2.341719114998947,
                -1.2074061269629963,
                0.20775562912821488,
                0.13902895354543493,
                0.26095560860025663,
                2.251070849114339
            ]
        },
        {
            "positions": [
                -2.2322939947167937,
                -1.2432297473082479,
                0.1063104924394147,
                0.16832179628504254,
                0.2629654973291209,
                2.139709774399294
            ]
        },
        {
            "positions": [
                -2.1228688744346402,
                -1.2790533676534994,
                0.004865355750614642,
                0.19761463902465012,
                0.26497538605798515,
                2.0283486996842495
            ]
        },
        {
            "positions": [
                -2.0134437541524868,
                -1.3148769879987512,
                -0.09657978093818553,
                0.22690748176425776,
                0.26698527478684936,
                1.9169876249692042
            ]
        },
        {
            "positions": [
                -1.9040186338703333,
                -1.3507006083440027,
                -0.1980249176269856,
                0.2562003245038653,
                0.2689951635157136,
                1.8056265502541593
            ]
        },
        {
            "positions": [
                -1.7945935135881796,
                -1.3865242286892543,
                -0.29947005431578577,
                0.28549316724347296,
                0.2710050522445779,
                1.6942654755391142
            ]
        },
        {
            "positions": [
                -1.6851683933060264,
                -1.4223478490345058,
                -0.40091519100458584,
                0.3147860099830806,
                0.2730149409734421,
                1.5829044008240694
            ]
        },
        {
            "positions": [
                -1.5757432730238727,
                -1.4581714693797574,
                -0.5023603276933861,
                0.34407885272268823,
                0.27502482970230635,
                1.4715433261090243
            ]
        },
        {
            "positions": [
                -1.4663181527417193,
                -1.4939950897250092,
                -0.6038054643821862,
                0.37337169546229576,
                0.27703471843117056,
                1.3601822513939794
            ]
        },
        {
            "positions": [
                -1.3568930324595658,
                -1.5298187100702605,
                -0.7052506010709862,
                0.4026645382019034,
                0.2790446071600348,
                1.2488211766789346
            ]
        },
        {
            "positions": [
                -1.2474679121774124,
                -1.5656423304155123,
                -0.8066957377597863,
                0.4319573809415109,
                0.2810544958888991,
                1.1374601019638897
            ]
        },
        {
            "positions": [
                -1.1380427918952587,
                -1.6014659507607638,
                -0.9081408744485866,
                0.4612502236811187,
                0.2830643846177633,
                1.0260990272488444
            ]
        },
        {
            "positions": [
                -1.0286176716131052,
                -1.6372895711060154,
                -1.0095860111373867,
                0.4905430664207262,
                0.28507427334662755,
                0.9147379525337995
            ]
        },
        {
            "positions": [
                -0.9191925513309518,
                -1.6731131914512671,
                -1.1110311478261867,
                0.5198359091603338,
                0.2870841620754918,
                0.8033768778187547
            ]
        },
        {
            "positions": [
                -0.8097674310487983,
                -1.7089368117965185,
                -1.2124762845149868,
                0.5491287518999415,
                0.289094050804356,
                0.6920158031037098
            ]
        },
        {
            "positions": [
                -0.7003423107666444,
                -1.7447604321417702,
                -1.313921421203787,
                0.5784215946395491,
                0.2911039395332203,
                0.5806547283886645
            ]
        },
        {
            "positions": [
                -0.590917190484491,
                -1.7805840524870218,
                -1.4153665578925874,
                0.6077144373791566,
                0.29311382826208454,
                0.46929365367361964
            ]
        },
        {
            "positions": [
                -0.481492070202338,
                -1.8164076728322733,
                -1.5168116945813872,
                0.6370072801187643,
                0.29512371699094875,
                0.3579325789585748
            ]
        },
        {
            "positions": [
                -0.3720669499201845,
                -1.852231293177525,
                -1.6182568312701875,
                0.6663001228583719,
                0.297133605719813,
                0.24657150424352992
            ]
        },
        {
            "positions": [
                -0.2626418296380306,
                -1.8880549135227767,
                -1.7197019679589878,
                0.6955929655979796,
                0.29914349444867727,
                0.1352104295284846
            ]
        },
        {
            "positions": [
                -0.15321670935587717,
                -1.9238785338680282,
                -1.8211471046477876,
                0.7248858083375871,
                0.3011533831775415,
                0.02384935481343975
            ]
        },
        {
            "positions": [
                -0.043791589073723845,
                -1.9597021542132798,
                -1.922592241336588,
                0.7541786510771947,
                0.30316327190640574,
                -0.08751171990160511
            ]
        },
        {
            "positions": [
                -0.038978780217952536,
                -1.956978553509726,
                -2.058713729987923,
                0.8448964303725688,
                0.2505536438310377,
                -0.029882545200455732
            ]
        },
        {
            "positions": [
                -0.03416597136218123,
                -1.954254952806172,
                -2.194835218639258,
                0.9356142096679427,
                0.1979440157556696,
                0.027746629500693648
            ]
        },
        {
            "positions": [
                -0.029353162506409923,
                -1.951531352102618,
                -2.330956707290593,
                1.026331988963317,
                0.14533438768030157,
                0.08537580420184304
            ]
        },
        {
            "positions": [
                -0.024540353650638613,
                -1.9488077513990643,
                -2.467078195941928,
                1.1170497682586908,
                0.09272475960493351,
                0.1430049789029924
            ]
        },
        {
            "positions": [
                -0.0777104451659022,
                -2.058048457766275,
                -2.441424939000789,
                1.2357812202645442,
                0.12165030110781566,
                0.10910039367033442
            ]
        },
        {
            "positions": [
                -0.13088053668116578,
                -2.1672891641334853,
                -2.41577168205965,
                1.3545126722703975,
                0.1505758426106978,
                0.07519580843767643
            ]
        },
        {
            "positions": [
                -0.18405062819642937,
                -2.276529870500696,
                -2.3901184251185112,
                1.4732441242762508,
                0.17950138411357996,
                0.041291223205018435
            ]
        }
    ]
}