{
    "goal": {
        "global_pose": {
            "orientation": {
                "w": 0.5084816217422485,
                "x": -0.49083608388900757,
                "y": 0.5182115435600281,
                "z": -0.4816462993621826
            },
            "position": {
                "x": 0.5540239810943604,
                "y": 0.030875300988554955,
                "z": 0.16403168439865112
            }
        },
        "name": "move_to_storage_A"
    },
    "id": "BKPIECE_move_to_storage_A_76",
    "joint_names": [
        "shoulder_pan_joint",
        "shoulder_lift_joint",
        "elbow_joint",
        "wrist_1_joint",
        "wrist_2_joint",
        "wrist_3_joint"
    ],
    "metrics": {
        "cart_traj_len": 0.35302679842010254,
        "distance_elbow_joint": 0.4494454523935014,
        "distance_shoulder_lift_joint": 0.23367320819720638,
        "distance_shoulder_pan_joint": 0.457677999822858,
        "distance_wrist_1_joint": 0.2409251942751245,
        "distance_wrist_2_joint": 1.115451652341711,
        "distance_wrist_3_joint": 0.08893949107130306,
        "smoothness": 6.661338165333112e-16,
        "time": 0.438918887,
        "traj_len": 1.6081396077771681,
        "weighted_distance": 2.0298691649614136
    },
    "planner": "BKPIECE",
    "start": {
        "state": {
            "elbow_joint": 1.971548880431181,
            "shoulder_lift_joint": -1.1394869514688781,
            "shoulder_pan_joint": 0.12281150262730567,
            "wrist_1_joint": -0.7804693444481463,
            "wrist_2_joint": 0.12958644648617612,
            "wrist_3_joint": 3.0906942077768043
        }
    },
    "waypoints": [
        {
            "positions": [
                0.12281150262730567,
                -1.1394869514688781,
                1.971548880431181,
                -0.7804693444481463,
                0.12958644648617612,
                3.0906942077768043
            ]
        },
        {
            "positions": [
                0.05742893122404025,
                -1.1728688383541934,
                2.0357553736302525,
                -0.8148872293445927,
                0.28893668253499194,
                3.103399849358419
            ]
        },
        {
            "positions": [
                -0.007953640179225174,
                -1.2062507252395085,
                2.0999618668293243,
                -0.849305114241039,
                0.4482869185838078,
                3.1161054909400336
            ]
        },
        {
            "positions": [
                -0.0733362115824906,
                -1.2396326121248238,
                2.1641683600283956,
                -0.8837229991374853,
                0.6076371546326237,
                3.1288111325216486
            ]
        },
        {
            "positions": [
                -0.13871878298575602,
                -1.2730144990101389,
                2.2283748532274674,
                -0.9181408840339317,
                0.7669873906814395,
                3.141516774103263
            ]
        },
        {
            "positions": [
                -0.2041013543890215,
                -1.3063963858954541,
                2.292581346426539,
                -0.952558768930378,
                0.9263376267302554,
                3.154222415684878
            ]
        },
        {
            "positions": [
                -0.26948392579228686,
                -1.3397782727807692,
                2.3567878396256106,
                -0.9869766538268244,
                1.0856878627790714,
                3.1669280572664924
            ]
        },
        {
            "positions": [
                -0.33486649719555234,
                -1.3731601596660845,
                2.4209943328246823,
                -1.0213945387232708,
                1.245038098827887,
                3.1796336988481073
            ]
        }
    ]
}