{
    "goal": {
        "global_pose": {
            "orientation": {
                "w": 0.5084816217422485,
                "x": -0.49083608388900757,
                "y": 0.5182115435600281,
                "z": -0.4816462993621826
            },
            "position": {
                "x": 0.5540239810943604,
                "y": 0.030875300988554955,
                "z": 0.16403168439865112
            }
        },
        "name": "move_to_storage_A"
    },
    "id": "BKPIECE_move_to_storage_A_104",
    "joint_names": [
        "shoulder_pan_joint",
        "shoulder_lift_joint",
        "elbow_joint",
        "wrist_1_joint",
        "wrist_2_joint",
        "wrist_3_joint"
    ],
    "metrics": {
        "cart_traj_len": 0.35399306059599256,
        "distance_elbow_joint": 0.44933993842561715,
        "distance_shoulder_lift_joint": 0.23517817674906105,
        "distance_shoulder_pan_joint": 0.46093261177244915,
        "distance_wrist_1_joint": 0.2364950466277198,
        "distance_wrist_2_joint": 1.1095798108100752,
        "distance_wrist_3_joint": 0.08778122745693295,
        "smoothness": 6.661338200497456e-16,
        "time": 0.267390972,
        "traj_len": 1.6060220458766608,
        "weighted_distance": 2.025078794564181
    },
    "planner": "BKPIECE",
    "start": {
        "state": {
            "elbow_joint": 1.971548880431181,
            "shoulder_lift_joint": -1.1394869514688781,
            "shoulder_pan_joint": 0.12281150262730567,
            "wrist_1_joint": -0.7804693444481463,
            "wrist_2_joint": 0.12958644648617612,
            "wrist_3_joint": 3.0906942077768043
        }
    },
    "waypoints": [
        {
            "positions": [
                0.12281150262730567,
                -1.1394869514688781,
                1.971548880431181,
                -0.7804693444481463,
                0.12958644648617612,
                3.0906942077768043
            ]
        },
        {
            "positions": [
                0.056963986659812935,
                -1.1730838338616012,
                2.0357403002062693,
                -0.8142543511092492,
                0.28809784803047256,
                3.103234383127795
            ]
        },
        {
            "positions": [
                -0.0088835293076798,
                -1.206680716254324,
                2.0999317199813574,
                -0.848039357770352,
                0.446609249574769,
                3.115774558478785
            ]
        },
        {
            "positions": [
                -0.07473104527517252,
                -1.2402775986470471,
                2.1641231397564455,
                -0.8818243644314547,
                0.6051206511190654,
                3.1283147338297757
            ]
        },
        {
            "positions": [
                -0.14057856124266527,
                -1.2738744810397702,
                2.2283145595315337,
                -0.9156093710925576,
                0.7636320526633619,
                3.140854909180766
            ]
        },
        {
            "positions": [
                -0.20642607721015804,
                -1.3074713634324933,
                2.292505979306622,
                -0.9493943777536604,
                0.9221434542076584,
                3.1533950845317564
            ]
        },
        {
            "positions": [
                -0.2722735931776507,
                -1.341068245825216,
                2.35669739908171,
                -0.9831793844147633,
                1.0806548557519546,
                3.1659352598827466
            ]
        },
        {
            "positions": [
                -0.3381211091451435,
                -1.3746651282179392,
                2.420888818856798,
                -1.0169643910758661,
                1.2391662572962512,
                3.178475435233737
            ]
        }
    ]
}