{
    "goal": {
        "global_pose": {
            "orientation": {
                "w": 0.7031023480610252,
                "x": -0.7110244013736278,
                "y": 0.0077485991402295624,
                "z": 0.005598929693374583
            },
            "position": {
                "x": -0.8841497679147869,
                "y": 0.44412534475326537,
                "z": 0.3711530566215515
            }
        },
        "name": "move_to_auspresseinheit_D"
    },
    "id": "BKPIECE_move_to_auspresseinheit_D_105",
    "joint_names": [
        "shoulder_pan_joint",
        "shoulder_lift_joint",
        "elbow_joint",
        "wrist_1_joint",
        "wrist_2_joint",
        "wrist_3_joint"
    ],
    "metrics": {
        "cart_traj_len": 0.34480685128880656,
        "distance_elbow_joint": 0.6666861570405571,
        "distance_shoulder_lift_joint": 0.13740454086068388,
        "distance_shoulder_pan_joint": 0.13415686528780166,
        "distance_wrist_1_joint": 0.6152964494952484,
        "distance_wrist_2_joint": 1.4451077918630992,
        "distance_wrist_3_joint": 0.06016758202975403,
        "smoothness": 8.881784183823303e-16,
        "time": 0.181982449,
        "traj_len": 1.7489480800118522,
        "weighted_distance": 2.2890082551172677
    },
    "planner": "BKPIECE",
    "start": {
        "state": {
            "elbow_joint": -1.8275484843655228,
            "shoulder_lift_joint": -2.1267897864000416,
            "shoulder_pan_joint": -0.035127520176001514,
            "wrist_1_joint": -2.3477863256791385,
            "wrist_2_joint": -1.605890476484521,
            "wrist_3_joint": -3.0880375317375353
        }
    },
    "waypoints": [
        {
            "positions": [
                -0.035127520176001514,
                -2.1267897864000416,
                -1.8275484843655228,
                -2.3477863256791385,
                -1.605890476484521,
                -3.0880375317375353
            ]
        },
        {
            "positions": [
                -0.051897128336976725,
                -2.143965354007627,
                -1.7442127147354531,
                -2.4246983818660444,
                -1.4252520025016335,
                -3.0805165839838162
            ]
        },
        {
            "positions": [
                -0.06866673649795194,
                -2.1611409216152127,
                -1.6608769451053835,
                -2.5016104380529507,
                -1.2446135285187463,
                -3.0729956362300967
            ]
        },
        {
            "positions": [
                -0.08543634465892713,
                -2.178316489222798,
                -1.577541175475314,
                -2.5785224942398566,
                -1.0639750545358588,
                -3.0654746884763773
            ]
        },
        {
            "positions": [
                -0.10220595281990234,
                -2.1954920568303837,
                -1.494205405845244,
                -2.6554345504267625,
                -0.8833365805529714,
                -3.0579537407226582
            ]
        },
        {
            "positions": [
                -0.11897556098087755,
                -2.212667624437969,
                -1.4108696362151747,
                -2.732346606613669,
                -0.7026981065700839,
                -3.050432792968939
            ]
        },
        {
            "positions": [
                -0.13574516914185275,
                -2.2298431920455544,
                -1.3275338665851049,
                -2.8092586628005747,
                -0.5220596325871967,
                -3.0429118452152197
            ]
        },
        {
            "positions": [
                -0.15251477730282798,
                -2.24701875965314,
                -1.2441980969550352,
                -2.886170718987481,
                -0.3414211586043092,
                -3.0353908974615003
            ]
        },
        {
            "positions": [
                -0.16928438546380317,
                -2.2641943272607254,
                -1.1608623273249656,
                -2.963082775174387,
                -0.16078268462142187,
                -3.0278699497077812
            ]
        }
    ]
}