{
    "goal": {
        "global_pose": {
            "orientation": {
                "w": 0.005598929693374612,
                "x": 0.007748599140229565,
                "y": 0.7110244013736278,
                "z": -0.7031023480610252
            },
            "position": {
                "x": -0.8858502320852131,
                "y": -0.7141253447532654,
                "z": 0.3711530566215515
            }
        },
        "name": "move_to_auspresseinheit_C"
    },
    "id": "BKPIECE_move_to_auspresseinheit_C_45",
    "joint_names": [
        "shoulder_pan_joint",
        "shoulder_lift_joint",
        "elbow_joint",
        "wrist_1_joint",
        "wrist_2_joint",
        "wrist_3_joint"
    ],
    "metrics": {
        "cart_traj_len": 0.49407385977549484,
        "distance_elbow_joint": 1.0090148870447255,
        "distance_shoulder_lift_joint": 0.3286268007158666,
        "distance_shoulder_pan_joint": 0.2572712626919116,
        "distance_wrist_1_joint": 0.7038277881332426,
        "distance_wrist_2_joint": 1.3033995552927373,
        "distance_wrist_3_joint": 0.08534087955843495,
        "smoothness": 9.689219124001365e-16,
        "time": 0.18777887199999999,
        "traj_len": 1.920281534941405,
        "weighted_distance": 2.421856782714405
    },
    "planner": "BKPIECE",
    "start": {
        "state": {
            "elbow_joint": 1.7527959577730765,
            "shoulder_lift_joint": -0.9740617694224828,
            "shoulder_pan_joint": -2.967991417825869,
            "wrist_1_joint": -0.7595177689779385,
            "wrist_2_joint": 1.7443932448376545,
            "wrist_3_joint": 3.1991315425061013
        }
    },
    "waypoints": [
        {
            "positions": [
                -2.967991417825869,
                -0.9740617694224828,
                1.7527959577730765,
                -0.7595177689779385,
                1.7443932448376545,
                3.1991315425061013
            ]
        },
        {
            "positions": [
                -2.942264291556678,
                -0.9411990893508961,
                1.651894469068604,
                -0.6891349901646143,
                1.6140532893083808,
                3.190597454550258
            ]
        },
        {
            "positions": [
                -2.9165371652874867,
                -0.9083364092793095,
                1.5509929803641314,
                -0.61875221135129,
                1.4837133337791069,
                3.1820633665944142
            ]
        },
        {
            "positions": [
                -2.8908100390182954,
                -0.8754737292077228,
                1.4500914916596588,
                -0.5483694325379658,
                1.3533733782498332,
                3.1735292786385707
            ]
        },
        {
            "positions": [
                -2.8650829127491044,
                -0.8426110491361362,
                1.3491900029551862,
                -0.4779866537246415,
                1.2230334227205595,
                3.164995190682727
            ]
        },
        {
            "positions": [
                -2.8393557864799135,
                -0.8097483690645495,
                1.2482885142507136,
                -0.4076038749113172,
                1.0926934671912858,
                3.156461102726884
            ]
        },
        {
            "positions": [
                -2.813628660210722,
                -0.7768856889929628,
                1.1473870255462413,
                -0.33722109609799295,
                0.9623535116620121,
                3.1479270147710405
            ]
        },
        {
            "positions": [
                -2.7879015339415307,
                -0.7440230089213762,
                1.0464855368417687,
                -0.2668383172846687,
                0.8320135561327384,
                3.139392926815197
            ]
        },
        {
            "positions": [
                -2.76217440767234,
                -0.7111603288497895,
                0.945584048137296,
                -0.19645553847134445,
                0.7016736006034645,
                3.1308588388593535
            ]
        },
        {
            "positions": [
                -2.736447281403149,
                -0.6782976487782029,
                0.8446825594328236,
                -0.12607275965802012,
                0.5713336450741908,
                3.12232475090351
            ]
        },
        {
            "positions": [
                -2.7107201551339575,
                -0.6454349687066162,
                0.743781070728351,
                -0.05568998084469585,
                0.44099368954491713,
                3.1137906629476664
            ]
        }
    ]
}