{
    "goal": {
        "global_pose": {
            "orientation": {
                "w": -0.4816463035849501,
                "x": 0.5182115481033762,
                "y": 0.4908360881923453,
                "z": -0.5084816262002911
            },
            "position": {
                "x": -0.8240239810943604,
                "y": -0.300875300988555,
                "z": 0.16403168439865112
            }
        },
        "name": "move_to_storage_C"
    },
    "id": "BKPIECE_move_to_storage_C_89",
    "joint_names": [
        "shoulder_pan_joint",
        "shoulder_lift_joint",
        "elbow_joint",
        "wrist_1_joint",
        "wrist_2_joint",
        "wrist_3_joint"
    ],
    "metrics": {
        "cart_traj_len": 0.577137349104674,
        "distance_elbow_joint": 0.25825593579830297,
        "distance_shoulder_lift_joint": 0.1894988660070167,
        "distance_shoulder_pan_joint": 0.4962369210761808,
        "distance_wrist_1_joint": 0.07891790944413002,
        "distance_wrist_2_joint": 1.0594101062049044,
        "distance_wrist_3_joint": 0.06843070290218733,
        "smoothness": 0.0,
        "time": 0.167088443,
        "traj_len": 1.466543705940168,
        "weighted_distance": 1.8509294591869596
    },
    "planner": "BKPIECE",
    "start": {
        "state": {
            "elbow_joint": 2.0108683149792914,
            "shoulder_lift_joint": -1.1634956873317392,
            "shoulder_pan_joint": -2.4736205022346,
            "wrist_1_joint": -0.8367026793690192,
            "wrist_2_joint": 0.6746043897045053,
            "wrist_3_joint": 3.133522094754363
        }
    },
    "waypoints": [
        {
            "positions": [
                -2.4736205022346,
                -1.1634956873317392,
                2.0108683149792914,
                -0.8367026793690192,
                0.6746043897045053,
                3.133522094754363
            ]
        },
        {
            "positions": [
                -2.556326655747297,
                -1.1319125429972365,
                1.9678256590129075,
                -0.8235496944616643,
                0.851172740738656,
                3.1449272119047276
            ]
        },
        {
            "positions": [
                -2.6390328092599935,
                -1.1003293986627336,
                1.9247830030465238,
                -0.8103967095543092,
                1.0277410917728067,
                3.1563323290550924
            ]
        },
        {
            "positions": [
                -2.7217389627726902,
                -1.068746254328231,
                1.88174034708014,
                -0.7972437246469541,
                1.2043094428069576,
                3.167737446205457
            ]
        },
        {
            "positions": [
                -2.8044451162853874,
                -1.0371631099937282,
                1.838697691113756,
                -0.7840907397395992,
                1.3808777938411083,
                3.1791425633558212
            ]
        },
        {
            "positions": [
                -2.887151269798084,
                -1.0055799656592253,
                1.7956550351473723,
                -0.7709377548322442,
                1.557446144875259,
                3.190547680506186
            ]
        },
        {
            "positions": [
                -2.969857423310781,
                -0.9739968213247225,
                1.7526123791809884,
                -0.7577847699248892,
                1.7340144959094097,
                3.2019527976565505
            ]
        }
    ]
}