{
    "goal": {
        "global_pose": {
            "orientation": {
                "w": -0.4816463035849501,
                "x": 0.5182115481033762,
                "y": 0.4908360881923453,
                "z": -0.5084816262002911
            },
            "position": {
                "x": -0.8240239810943604,
                "y": 0.19912469901144506,
                "z": 0.16403168439865112
            }
        },
        "name": "move_to_storage_D"
    },
    "id": "BKPIECE_move_to_storage_D_47",
    "joint_names": [
        "shoulder_pan_joint",
        "shoulder_lift_joint",
        "elbow_joint",
        "wrist_1_joint",
        "wrist_2_joint",
        "wrist_3_joint"
    ],
    "metrics": {
        "cart_traj_len": 3.886861089206964,
        "distance_elbow_joint": 5.053532213215071,
        "distance_shoulder_lift_joint": 1.2636462613672819,
        "distance_shoulder_pan_joint": 2.812260204524376,
        "distance_wrist_1_joint": 3.4768169033697003,
        "distance_wrist_2_joint": 3.067201272906191,
        "distance_wrist_3_joint": 7.085601635254349,
        "smoothness": 0.2526753734106703,
        "time": 0.348245891,
        "traj_len": 4.770645500415743,
        "weighted_distance": 6.593502857921693
    },
    "planner": "BKPIECE",
    "start": {
        "state": {
            "elbow_joint": -2.384821990628643,
            "shoulder_lift_joint": -2.278805467437664,
            "shoulder_pan_joint": -0.18546946439364564,
            "wrist_1_joint": 1.4845938187801415,
            "wrist_2_joint": 0.178987772454074,
            "wrist_3_joint": 0.03710569632802521
        }
    },
    "waypoints": [
        {
            "positions": [
                -0.18546946439364564,
                -2.278805467437664,
                -2.384821990628643,
                1.4845938187801415,
                0.178987772454074,
                0.03710569632802521
            ]
        },
        {
            "positions": [
                -0.11821694723720216,
                -2.22826451411873,
                -2.4031801557910373,
                1.3598615807805978,
                0.13116449206266934,
                0.12273900363885967
            ]
        },
        {
            "positions": [
                -0.05096443008075868,
                -2.1777235607997962,
                -2.421538320953432,
                1.2351293427810544,
                0.0833412116712647,
                0.20837231094969413
            ]
        },
        {
            "positions": [
                0.016288087075684826,
                -2.1271826074808624,
                -2.439896486115826,
                1.1103971047815109,
                0.03551793127986003,
                0.2940056182605286
            ]
        },
        {
            "positions": [
                0.08354060423212828,
                -2.076641654161928,
                -2.4582546512782204,
                0.9856648667819672,
                -0.0123053491115446,
                0.37963892557136303
            ]
        },
        {
            "positions": [
                0.15079312138857176,
                -2.0261007008429943,
                -2.4766128164406145,
                0.8609326287824236,
                -0.060128629502949255,
                0.46527223288219755
            ]
        },
        {
            "positions": [
                0.2180456385450153,
                -1.9755597475240605,
                -2.494970981603009,
                0.73620039078288,
                -0.10795190989435394,
                0.550905540193032
            ]
        },
        {
            "positions": [
                0.2852981557014588,
                -1.9250187942051267,
                -2.513329146765403,
                0.6114681527833363,
                -0.1557751902857586,
                0.6365388475038665
            ]
        },
        {
            "positions": [
                0.3525506728579022,
                -1.8744778408861926,
                -2.531687311927797,
                0.48673591478379286,
                -0.2035984706771632,
                0.7221721548147009
            ]
        },
        {
            "positions": [
                0.41980319001434574,
                -1.8239368875672588,
                -2.5500454770901917,
                0.36200367678424916,
                -0.2514217510685679,
                0.8078054621255354
            ]
        },
        {
            "positions": [
                0.48705570717078916,
                -1.7733959342483248,
                -2.5684036422525858,
                0.2372714387847057,
                -0.2992450314599725,
                0.8934387694363698
            ]
        },
        {
            "positions": [
                0.5543082243272327,
                -1.722854980929391,
                -2.5867618074149803,
                0.112539200785162,
                -0.34706831185137715,
                0.9790720767472043
            ]
        },
        {
            "positions": [
                0.6215607414836762,
                -1.672314027610457,
                -2.6051199725773744,
                -0.012193037214381475,
                -0.39489159224278186,
                1.0647053840580387
            ]
        },
        {
            "positions": [
                0.6888132586401197,
                -1.6217730742915233,
                -2.623478137739769,
                -0.13692527521392495,
                -0.44271487263418646,
                1.1503386913688731
            ]
        },
        {
            "positions": [
                0.7560657757965632,
                -1.5712321209725892,
                -2.641836302902163,
                -0.26165751321346886,
                -0.4905381530255912,
                1.2359719986797078
            ]
        },
        {
            "positions": [
                0.8233182929530067,
                -1.5206911676536552,
                -2.6601944680645575,
                -0.38638975121301233,
                -0.5383614334169957,
                1.3216053059905422
            ]
        },
        {
            "positions": [
                0.89057081010945,
                -1.4701502143347214,
                -2.6785526332269516,
                -0.5111219892125558,
                -0.5861847138084004,
                1.4072386133013766
            ]
        },
        {
            "positions": [
                0.9578233272658936,
                -1.4196092610157875,
                -2.6969107983893457,
                -0.6358542272120993,
                -0.6340079941998051,
                1.492871920612211
            ]
        },
        {
            "positions": [
                1.0250758444223371,
                -1.3690683076968537,
                -2.71526896355174,
                -0.7605864652116432,
                -0.6818312745912098,
                1.5785052279230456
            ]
        },
        {
            "positions": [
                1.0923283615787807,
                -1.31852735437792,
                -2.7336271287141343,
                -0.8853187032111867,
                -0.7296545549826143,
                1.66413853523388
            ]
        },
        {
            "positions": [
                1.159580878735224,
                -1.2679864010589859,
                -2.751985293876529,
                -1.0100509412107301,
                -0.777477835374019,
                1.7497718425447144
            ]
        },
        {
            "positions": [
                1.2268333958916675,
                -1.217445447740052,
                -2.770343459038923,
                -1.1347831792102736,
                -0.8253011157654235,
                1.8354051498555488
            ]
        },
        {
            "positions": [
                1.294085913048111,
                -1.166904494421118,
                -2.7887016242013174,
                -1.2595154172098175,
                -0.8731243961568282,
                1.9210384571663834
            ]
        },
        {
            "positions": [
                1.3613384302045546,
                -1.1163635411021842,
                -2.8070597893637115,
                -1.3842476552093608,
                -0.920947676548233,
                2.006671764477218
            ]
        },
        {
            "positions": [
                1.3974942104881596,
                -1.113471988672704,
                -2.67473709180714,
                -1.366876928655641,
                -0.8647400815795505,
                1.8604993197027848
            ]
        },
        {
            "positions": [
                1.4336499907717646,
                -1.1105804362432241,
                -2.542414394250568,
                -1.3495062021019213,
                -0.8085324866108682,
                1.7143268749283518
            ]
        },
        {
            "positions": [
                1.4698057710553696,
                -1.107688883813744,
                -2.4100916966939967,
                -1.3321354755482016,
                -0.7523248916421859,
                1.568154430153919
            ]
        },
        {
            "positions": [
                1.5059615513389746,
                -1.1047973313842638,
                -2.2777689991374253,
                -1.3147647489944816,
                -0.6961172966735034,
                1.421981985379486
            ]
        },
        {
            "positions": [
                1.5421173316225798,
                -1.101905778954784,
                -2.145446301580854,
                -1.2973940224407619,
                -0.639909701704821,
                1.275809540605053
            ]
        },
        {
            "positions": [
                1.5782731119061848,
                -1.0990142265253038,
                -2.0131236040242824,
                -1.2800232958870421,
                -0.5837021067361386,
                1.12963709583062
            ]
        },
        {
            "positions": [
                1.6144288921897898,
                -1.0961226740958236,
                -1.8808009064677105,
                -1.2626525693333224,
                -0.5274945117674563,
                0.9834646510561871
            ]
        },
        {
            "positions": [
                1.6505846724733948,
                -1.0932311216663437,
                -1.748478208911139,
                -1.2452818427796026,
                -0.4712869167987739,
                0.837292206281754
            ]
        },
        {
            "positions": [
                1.6867404527569998,
                -1.0903395692368636,
                -1.6161555113545676,
                -1.227911116225883,
                -0.41507932183009155,
                0.6911197615073212
            ]
        },
        {
            "positions": [
                1.7228962330406048,
                -1.0874480168073835,
                -1.483832813797996,
                -1.210540389672163,
                -0.3588717268614091,
                0.5449473167328882
            ]
        },
        {
            "positions": [
                1.7590520133242098,
                -1.0845564643779035,
                -1.3515101162414243,
                -1.1931696631184432,
                -0.3026641318927268,
                0.3987748719584552
            ]
        },
        {
            "positions": [
                1.795207793607815,
                -1.0816649119484234,
                -1.2191874186848528,
                -1.1757989365647235,
                -0.24645653692404434,
                0.25260242718402215
            ]
        },
        {
            "positions": [
                1.83136357389142,
                -1.0787733595189433,
                -1.0868647211282811,
                -1.1584282100110037,
                -0.1902489419553619,
                0.10642998240958912
            ]
        },
        {
            "positions": [
                1.867519354175025,
                -1.0758818070894633,
                -0.9545420235717095,
                -1.141057483457284,
                -0.13404134698667958,
                -0.03974246236484369
            ]
        },
        {
            "positions": [
                1.90367513445863,
                -1.0729902546599832,
                -0.8222193260151383,
                -1.1236867569035642,
                -0.07783375201799725,
                -0.1859149071392765
            ]
        },
        {
            "positions": [
                1.939830914742235,
                -1.0700987022305033,
                -0.6898966284585666,
                -1.1063160303498445,
                -0.02162615704931481,
                -0.33208735191370975
            ]
        },
        {
            "positions": [
                1.9759866950258402,
                -1.0672071498010232,
                -0.5575739309019951,
                -1.0889453037961245,
                0.03458143791936752,
                -0.47825979668814256
            ]
        },
        {
            "positions": [
                2.012142475309445,
                -1.064315597371543,
                -0.4252512333454237,
                -1.0715745772424048,
                0.09078903288804985,
                -0.6244322414625754
            ]
        },
        {
            "positions": [
                2.0482982555930502,
                -1.061424044942063,
                -0.29292853578885225,
                -1.054203850688685,
                0.1469966278567323,
                -0.7706046862370086
            ]
        },
        {
            "positions": [
                2.084454035876655,
                -1.058532492512583,
                -0.16060583823228036,
                -1.0368331241349653,
                0.20320422282541473,
                -0.9167771310114414
            ]
        },
        {
            "positions": [
                2.1206098161602602,
                -1.0556409400831028,
                -0.028283140675708918,
                -1.0194623975812456,
                0.25941181779409694,
                -1.0629495757858747
            ]
        },
        {
            "positions": [
                2.156765596443865,
                -1.052749387653623,
                0.10403955688086297,
                -1.0020916710275256,
                0.3156194127627794,
                -1.2091220205603075
            ]
        },
        {
            "positions": [
                2.1929213767274702,
                -1.0498578352241428,
                0.23636225443743442,
                -0.984720944473806,
                0.3718270077314618,
                -1.3552944653347407
            ]
        },
        {
            "positions": [
                2.2290771570110754,
                -1.0469662827946626,
                0.36868495199400586,
                -0.9673502179200861,
                0.42803460270014426,
                -1.5014669101091735
            ]
        },
        {
            "positions": [
                2.2652329372946802,
                -1.0440747303651827,
                0.5010076495505777,
                -0.9499794913663664,
                0.4842421976688267,
                -1.6476393548836064
            ]
        },
        {
            "positions": [
                2.3013887175782854,
                -1.0411831779357026,
                0.6333303471071492,
                -0.9326087648126467,
                0.5404497926375091,
                -1.7938117996580396
            ]
        },
        {
            "positions": [
                2.3375444978618907,
                -1.0382916255062224,
                0.7656530446637206,
                -0.9152380382589269,
                0.5966573876061914,
                -1.9399842444324724
            ]
        },
        {
            "positions": [
                2.3737002781454954,
                -1.0354000730767425,
                0.8979757422202925,
                -0.8978673117052071,
                0.6528649825748738,
                -2.0861566892069052
            ]
        },
        {
            "positions": [
                2.4098560584291002,
                -1.0325085206472624,
                1.030298439776864,
                -0.8804965851514873,
                0.7090725775435562,
                -2.2323291339813385
            ]
        },
        {
            "positions": [
                2.4460118387127054,
                -1.0296169682177823,
                1.162621137333435,
                -0.8631258585977676,
                0.7652801725122385,
                -2.378501578755771
            ]
        },
        {
            "positions": [
                2.4821676189963107,
                -1.0267254157883023,
                1.2949438348900064,
                -0.8457551320440477,
                0.8214877674809209,
                -2.524674023530204
            ]
        },
        {
            "positions": [
                2.5183233992799154,
                -1.0238338633588222,
                1.4272665324465783,
                -0.828384405490328,
                0.8776953624496033,
                -2.6708464683046373
            ]
        },
        {
            "positions": [
                2.5544791795635207,
                -1.020942310929342,
                1.5595892300031502,
                -0.8110136789366083,
                0.9339029574182856,
                -2.8170189130790706
            ]
        },
        {
            "positions": [
                2.590634959847126,
                -1.0180507584998622,
                1.6919119275597212,
                -0.7936429523828884,
                0.990110552386968,
                -2.963191357853503
            ]
        },
        {
            "positions": [
                2.6267907401307307,
                -1.015159206070382,
                1.8242346251162926,
                -0.7762722258291687,
                1.0463181473556504,
                -3.1093638026279367
            ]
        }
    ]
}