{
    "goal": {
        "global_pose": {
            "orientation": {
                "w": -0.00223480608172531,
                "x": 0.0024358444001904467,
                "y": 0.7094548369677653,
                "z": -0.704743149386269
            },
            "position": {
                "x": 0.6205249238014221,
                "y": -0.6371506643295288,
                "z": 0.19426114857196808
            }
        },
        "name": "move_to_magneteinheit_B"
    },
    "id": "BKPIECE_move_to_magneteinheit_B_7",
    "joint_names": [
        "shoulder_pan_joint",
        "shoulder_lift_joint",
        "elbow_joint",
        "wrist_1_joint",
        "wrist_2_joint",
        "wrist_3_joint"
    ],
    "metrics": {
        "cart_traj_len": 3.6445773083266273,
        "distance_elbow_joint": 6.339160305406151,
        "distance_shoulder_lift_joint": 1.6046115950345679,
        "distance_shoulder_pan_joint": 2.2826308253934453,
        "distance_wrist_1_joint": 2.3517391061583037,
        "distance_wrist_2_joint": 1.555287429585974,
        "distance_wrist_3_joint": 3.736542308744233,
        "smoothness": 0.6870728735878515,
        "time": 0.32560001699999996,
        "traj_len": 4.227288914933859,
        "weighted_distance": 5.40833456098598
    },
    "planner": "BKPIECE",
    "start": {
        "state": {
            "elbow_joint": 2.393587130804639,
            "shoulder_lift_joint": -1.9085141043513325,
            "shoulder_pan_joint": 0.7066247066698809,
            "wrist_1_joint": -0.4678290934590222,
            "wrist_2_joint": 0.7096259084215963,
            "wrist_3_joint": 3.147370379541726
        }
    },
    "waypoints": [
        {
            "positions": [
                0.7066247066698809,
                -1.9085141043513325,
                2.393587130804639,
                -0.4678290934590222,
                0.7096259084215963,
                3.147370379541726
            ]
        },
        {
            "positions": [
                0.7608664280064635,
                -1.9836143817548744,
                2.44593654582534,
                -0.37710694404351314,
                0.6365892199437851,
                3.1782423141624614
            ]
        },
        {
            "positions": [
                0.8151081493430462,
                -2.0587146591584164,
                2.4982859608460415,
                -0.2863847946280041,
                0.5635525314659738,
                3.2091142487831967
            ]
        },
        {
            "positions": [
                0.869349870679629,
                -2.1338149365619583,
                2.550635375866743,
                -0.19566264521249505,
                0.49051584298816264,
                3.239986183403932
            ]
        },
        {
            "positions": [
                0.9235915920162117,
                -2.2089152139655,
                2.6029847908874446,
                -0.104940495796986,
                0.4174791545103514,
                3.270858118024667
            ]
        },
        {
            "positions": [
                0.9778333133527943,
                -2.284015491369042,
                2.655334205908146,
                -0.014218346381476954,
                0.34444246603254014,
                3.3017300526454023
            ]
        },
        {
            "positions": [
                1.032075034689377,
                -2.359115768772584,
                2.7076836209288473,
                0.07650380303403215,
                0.2714057775547289,
                3.3326019872661377
            ]
        },
        {
            "positions": [
                1.0864196772028947,
                -2.3435004884365838,
                2.5501836504262405,
                0.11800600898079067,
                0.29138050084198275,
                3.228206418279775
            ]
        },
        {
            "positions": [
                1.1407643197164126,
                -2.327885208100584,
                2.3926836799236337,
                0.15950821492754919,
                0.3113552241292366,
                3.123810849293412
            ]
        },
        {
            "positions": [
                1.1951089622299302,
                -2.312269927764584,
                2.2351837094210265,
                0.2010104208743077,
                0.33132994741649047,
                3.019415280307049
            ]
        },
        {
            "positions": [
                1.2494536047434481,
                -2.2966546474285843,
                2.0776837389184197,
                0.24251262682106625,
                0.3513046707037444,
                2.9150197113206864
            ]
        },
        {
            "positions": [
                1.3037982472569658,
                -2.281039367092584,
                1.920183768415813,
                0.2840148327678248,
                0.3712793939909982,
                2.8106241423343232
            ]
        },
        {
            "positions": [
                1.3581428897704835,
                -2.2654240867565845,
                1.762683797913206,
                0.32551703871458326,
                0.3912541172782521,
                2.7062285733479605
            ]
        },
        {
            "positions": [
                1.4124875322840014,
                -2.2498088064205843,
                1.605183827410599,
                0.36701924466134184,
                0.4112288405655059,
                2.6018330043615974
            ]
        },
        {
            "positions": [
                1.466832174797519,
                -2.234193526084584,
                1.4476838569079922,
                0.40852145060810036,
                0.4312035638527598,
                2.4974374353752347
            ]
        },
        {
            "positions": [
                1.5211768173110367,
                -2.2185782457485845,
                1.2901838864053854,
                0.4500236565548588,
                0.4511782871400136,
                2.393041866388872
            ]
        },
        {
            "positions": [
                1.5755214598245546,
                -2.2029629654125844,
                1.1326839159027784,
                0.4915258625016174,
                0.47115301042726754,
                2.288646297402509
            ]
        },
        {
            "positions": [
                1.6298661023380723,
                -2.1873476850765847,
                0.9751839454001716,
                0.5330280684483759,
                0.4911277337145214,
                2.1842507284161465
            ]
        },
        {
            "positions": [
                1.6842107448515902,
                -2.1717324047405846,
                0.8176839748975646,
                0.5745302743951344,
                0.5111024570017753,
                2.0798551594297834
            ]
        },
        {
            "positions": [
                1.7385553873651078,
                -2.156117124404585,
                0.6601840043949578,
                0.616032480341893,
                0.5310771802890291,
                1.9754595904434207
            ]
        },
        {
            "positions": [
                1.7929000298786257,
                -2.140501844068585,
                0.5026840338923506,
                0.6575346862886515,
                0.551051903576283,
                1.8710640214570575
            ]
        },
        {
            "positions": [
                1.8472446723921434,
                -2.1248865637325847,
                0.3451840633897443,
                0.69903689223541,
                0.5710266268635369,
                1.7666684524706948
            ]
        },
        {
            "positions": [
                1.901589314905661,
                -2.109271283396585,
                0.18768409288713706,
                0.7405390981821686,
                0.5910013501507907,
                1.6622728834843319
            ]
        },
        {
            "positions": [
                1.955933957419179,
                -2.093656003060585,
                0.030184122384530276,
                0.782041304128927,
                0.6109760734380445,
                1.5578773144979692
            ]
        },
        {
            "positions": [
                2.010278599932697,
                -2.078040722724585,
                -0.1273158481180765,
                0.8235435100756855,
                0.6309507967252984,
                1.4534817455116065
            ]
        },
        {
            "positions": [
                2.0646232424462143,
                -2.062425442388585,
                -0.2848158186206837,
                0.8650457160224442,
                0.6509255200125523,
                1.3490861765252433
            ]
        },
        {
            "positions": [
                2.118967884959732,
                -2.0468101620525854,
                -0.4423157891232905,
                0.9065479219692026,
                0.6709002432998061,
                1.2446906075388804
            ]
        },
        {
            "positions": [
                2.17331252747325,
                -2.0311948817165852,
                -0.5998157596258973,
                0.9480501279159611,
                0.69087496658706,
                1.1402950385525177
            ]
        },
        {
            "positions": [
                2.2276571699867675,
                -2.015579601380585,
                -0.7573157301285041,
                0.9895523338627197,
                0.710849689874314,
                1.035899469566155
            ]
        },
        {
            "positions": [
                2.2820018125002854,
                -1.9999643210445854,
                -0.9148157006311113,
                1.0310545398094781,
                0.7308244131615678,
                0.9315039005797918
            ]
        },
        {
            "positions": [
                2.3363464550138033,
                -1.9843490407085853,
                -1.072315671133718,
                1.0725567457562368,
                0.7507991364488216,
                0.8271083315934291
            ]
        },
        {
            "positions": [
                2.390691097527321,
                -1.9687337603725854,
                -1.2298156416363248,
                1.1140589517029953,
                0.7707738597360755,
                0.7227127626070664
            ]
        },
        {
            "positions": [
                2.4450357400408387,
                -1.9531184800365855,
                -1.3873156121389316,
                1.1555611576497538,
                0.7907485830233294,
                0.6183171936207037
            ]
        },
        {
            "positions": [
                2.4993803825543566,
                -1.9375031997005856,
                -1.5448155826415393,
                1.1970633635965124,
                0.8107233063105832,
                0.5139216246343405
            ]
        },
        {
            "positions": [
                2.553725025067874,
                -1.9218879193645857,
                -1.702315553144146,
                1.238565569543271,
                0.830698029597837,
                0.4095260556479774
            ]
        },
        {
            "positions": [
                2.608069667581392,
                -1.9062726390285856,
                -1.859815523646752,
                1.2800677754900294,
                0.850672752885091,
                0.3051304866616147
            ]
        },
        {
            "positions": [
                2.66241431009491,
                -1.8906573586925859,
                -2.0173154941493587,
                1.3215699814367878,
                0.8706474761723448,
                0.20073491767525198
            ]
        },
        {
            "positions": [
                2.7167589526084277,
                -1.8750420783565858,
                -2.1748154646519664,
                1.3630721873835465,
                0.8906221994595986,
                0.09633934868888883
            ]
        },
        {
            "positions": [
                2.7711035951219456,
                -1.8594267980205859,
                -2.332315435154573,
                1.404574393330305,
                0.9105969227468527,
                -0.008056220297473882
            ]
        },
        {
            "positions": [
                2.825448237635463,
                -1.843811517684586,
                -2.48981540565718,
                1.4460765992770634,
                0.9305716460341065,
                -0.11245178928383637
            ]
        },
        {
            "positions": [
                2.80204719557434,
                -1.9350551861882028,
                -2.3715918644149063,
                1.383528968788175,
                0.8651571559998595,
                -0.09727222864528687
            ]
        },
        {
            "positions": [
                2.7786461535132165,
                -2.0262988546918197,
                -2.2533683231726327,
                1.3209813382992868,
                0.7997426659656126,
                -0.08209266800673737
            ]
        },
        {
            "positions": [
                2.7552451114520933,
                -2.1175425231954366,
                -2.135144781930359,
                1.2584337078103984,
                0.7343281759313657,
                -0.06691310736818787
            ]
        },
        {
            "positions": [
                2.7318440693909696,
                -2.208786191699054,
                -2.0169212406880854,
                1.1958860773215099,
                0.6689136858971187,
                -0.051733546729638355
            ]
        },
        {
            "positions": [
                2.7084430273298463,
                -2.3000298602026708,
                -1.8986976994458118,
                1.1333384468326215,
                0.6034991958628717,
                -0.03655398609108884
            ]
        },
        {
            "positions": [
                2.685041985268723,
                -2.3912735287062876,
                -1.7804741582035382,
                1.0707908163437332,
                0.5380847058286249,
                -0.021374425452539356
            ]
        },
        {
            "positions": [
                2.6616409432076,
                -2.4825171972099045,
                -1.6622506169612645,
                1.0082431858548448,
                0.4726702157943779,
                -0.006194864813989836
            ]
        }
    ]
}