{
    "goal": {
        "global_pose": {
            "orientation": {
                "w": 0.005598929693374612,
                "x": 0.007748599140229565,
                "y": 0.7110244013736278,
                "z": -0.7031023480610252
            },
            "position": {
                "x": 0.1141497679147869,
                "y": -0.7141253447532654,
                "z": 0.3711530566215515
            }
        },
        "name": "move_to_auspresseinheit_B"
    },
    "id": "BKPIECE_move_to_auspresseinheit_B_91",
    "joint_names": [
        "shoulder_pan_joint",
        "shoulder_lift_joint",
        "elbow_joint",
        "wrist_1_joint",
        "wrist_2_joint",
        "wrist_3_joint"
    ],
    "metrics": {
        "cart_traj_len": 0.5653254077048507,
        "distance_elbow_joint": 0.06356103314977157,
        "distance_shoulder_lift_joint": 0.2951370859029574,
        "distance_shoulder_pan_joint": 0.5791810552755794,
        "distance_wrist_1_joint": 0.33001907206562586,
        "distance_wrist_2_joint": 0.9853108998528639,
        "distance_wrist_3_joint": 0.002164585494830895,
        "smoothness": 5.075305255429287e-16,
        "time": 0.324714802,
        "traj_len": 1.501790175670899,
        "weighted_distance": 1.8907757335680455
    },
    "planner": "BKPIECE",
    "start": {
        "state": {
            "elbow_joint": 2.0193061681459312,
            "shoulder_lift_joint": -1.1220205130644991,
            "shoulder_pan_joint": -1.0952072088045026,
            "wrist_1_joint": -0.8559671810662515,
            "wrist_2_joint": 0.4759638712940361,
            "wrist_3_joint": 3.159081874192446
        }
    },
    "waypoints": [
        {
            "positions": [
                -1.0952072088045026,
                -1.1220205130644991,
                2.0193061681459312,
                -0.8559671810662515,
                0.4759638712940361,
                3.159081874192446
            ]
        },
        {
            "positions": [
                -1.1917373846837658,
                -1.1712100273816586,
                2.0087126626209693,
                -0.8009640023886472,
                0.6401823546028468,
                3.1587211099433077
            ]
        },
        {
            "positions": [
                -1.2882675605630292,
                -1.2203995416988183,
                1.9981191570960073,
                -0.7459608237110429,
                0.8044008379116574,
                3.158360345694169
            ]
        },
        {
            "positions": [
                -1.3847977364422923,
                -1.269589056015978,
                1.9875256515710453,
                -0.6909576450334385,
                0.9686193212204681,
                3.1579995814450306
            ]
        },
        {
            "positions": [
                -1.4813279123215555,
                -1.3187785703331374,
                1.9769321460460836,
                -0.6359544663558343,
                1.1328378045292786,
                3.1576388171958922
            ]
        },
        {
            "positions": [
                -1.5778580882008189,
                -1.3679680846502968,
                1.9663386405211216,
                -0.5809512876782299,
                1.2970562878380894,
                3.1572780529467535
            ]
        },
        {
            "positions": [
                -1.674388264080082,
                -1.4171575989674565,
                1.9557451349961597,
                -0.5259481090006256,
                1.4612747711469,
                3.156917288697615
            ]
        }
    ]
}