{
    "goal": {
        "global_pose": {
            "orientation": {
                "w": 0.7031023502349854,
                "x": -0.7110244035720825,
                "y": 0.007748599164187908,
                "z": 0.005598929710686207
            },
            "position": {
                "x": 0.11585023208521307,
                "y": 0.44412534475326537,
                "z": 0.3711530566215515
            }
        },
        "name": "move_to_auspresseinheit_A"
    },
    "id": "BKPIECE_move_to_auspresseinheit_A_143",
    "joint_names": [
        "shoulder_pan_joint",
        "shoulder_lift_joint",
        "elbow_joint",
        "wrist_1_joint",
        "wrist_2_joint",
        "wrist_3_joint"
    ],
    "metrics": {
        "cart_traj_len": 1.1337249951258177,
        "distance_elbow_joint": 0.4135945576111113,
        "distance_shoulder_lift_joint": 1.7995306770828816,
        "distance_shoulder_pan_joint": 1.0452165554431243,
        "distance_wrist_1_joint": 2.7998312621985235,
        "distance_wrist_2_joint": 2.740480690030804,
        "distance_wrist_3_joint": 0.39421463399786205,
        "smoothness": 1.1420677812102606,
        "time": 0.28522214700000004,
        "traj_len": 3.0319743363630747,
        "weighted_distance": 3.939747402637555
    },
    "planner": "BKPIECE",
    "start": {
        "state": {
            "elbow_joint": 2.4225746994637096,
            "shoulder_lift_joint": -1.373653595662188,
            "shoulder_pan_joint": -0.3378633848294565,
            "wrist_1_joint": -1.0288595594406726,
            "wrist_2_joint": 1.2330228066703421,
            "wrist_3_joint": 3.189163495502006
        }
    },
    "waypoints": [
        {
            "positions": [
                -0.3378633848294565,
                -1.373653595662188,
                2.4225746994637096,
                -1.0288595594406726,
                1.2330228066703421,
                3.189163495502006
            ]
        },
        {
            "positions": [
                -0.3284713564518919,
                -1.4635430208496327,
                2.4056378131954106,
                -0.8998841765454603,
                1.1076061816957972,
                3.1729666533788117
            ]
        },
        {
            "positions": [
                -0.3190793280743273,
                -1.5534324460370774,
                2.3887009269271116,
                -0.7709087936502479,
                0.9821895567212523,
                3.156769811255618
            ]
        },
        {
            "positions": [
                -0.3096872996967627,
                -1.6433218712245221,
                2.3717640406588125,
                -0.6419334107550354,
                0.8567729317467074,
                3.140572969132424
            ]
        },
        {
            "positions": [
                -0.3002952713191981,
                -1.7332112964119668,
                2.3548271543905135,
                -0.512958027859823,
                0.7313563067721625,
                3.12437612700923
            ]
        },
        {
            "positions": [
                -0.2909032429416335,
                -1.8231007215994115,
                2.3378902681222145,
                -0.38398264496461065,
                0.6059396817976176,
                3.108179284886036
            ]
        },
        {
            "positions": [
                -0.2815112145640689,
                -1.9129901467868562,
                2.3209533818539154,
                -0.2550072620693983,
                0.4805230568230726,
                3.0919824427628417
            ]
        },
        {
            "positions": [
                -0.2721191861865043,
                -2.002879571974301,
                2.304016495585616,
                -0.126031879174186,
                0.35510643184852786,
                3.075785600639648
            ]
        },
        {
            "positions": [
                -0.26272715780893974,
                -2.0927689971617456,
                2.287079609317317,
                0.0029435037210265858,
                0.22968980687398277,
                3.059588758516454
            ]
        },
        {
            "positions": [
                -0.25333512943137515,
                -2.1826584223491903,
                2.270142723049018,
                0.13191888661623885,
                0.10427318189943802,
                3.0433919163932597
            ]
        },
        {
            "positions": [
                -0.2439431010538105,
                -2.272547847536635,
                2.253205836780719,
                0.26089426951145134,
                -0.02114344307510696,
                3.027195074270066
            ]
        },
        {
            "positions": [
                -0.23455107267624592,
                -2.3624372727240797,
                2.23626895051242,
                0.3898696524066636,
                -0.14656006804965194,
                3.010998232146872
            ]
        },
        {
            "positions": [
                -0.22515904429868133,
                -2.4523266979115244,
                2.2193320642441208,
                0.5188450353018761,
                -0.2719766930241969,
                2.994801390023678
            ]
        },
        {
            "positions": [
                -0.21576701592111674,
                -2.542216123098969,
                2.2023951779758217,
                0.6478204181970884,
                -0.39739331799874167,
                2.978604547900484
            ]
        },
        {
            "positions": [
                -0.13184699896340904,
                -2.484855382222051,
                2.219978363077933,
                0.5457157559642918,
                -0.2964783575113125,
                2.9953005193910602
            ]
        },
        {
            "positions": [
                -0.047926982005701335,
                -2.4274946413451324,
                2.2375615481800444,
                0.4436110937314951,
                -0.19556339702388334,
                3.0119964908816366
            ]
        },
        {
            "positions": [
                0.03599303495200634,
                -2.3701339004682143,
                2.2551447332821555,
                0.3415064314986985,
                -0.09464843653645422,
                3.028692462372213
            ]
        },
        {
            "positions": [
                0.11991305190971407,
                -2.312773159591296,
                2.2727279183842666,
                0.2394017692659019,
                0.006266523950974989,
                3.0453884338627892
            ]
        },
        {
            "positions": [
                0.20383306886742175,
                -2.255412418714378,
                2.2903111034863777,
                0.13729710703310527,
                0.10718148443840414,
                3.0620844053533656
            ]
        },
        {
            "positions": [
                0.28775308582512943,
                -2.1980516778374595,
                2.307894288588489,
                0.0351924448003087,
                0.20809644492583323,
                3.0787803768439423
            ]
        },
        {
            "positions": [
                0.3716731027828371,
                -2.1406909369605414,
                2.3254774736906003,
                -0.06691221743248787,
                0.30901140541326244,
                3.0954763483345187
            ]
        },
        {
            "positions": [
                0.4555931197405449,
                -2.0833301960836232,
                2.3430606587927114,
                -0.16901687966528456,
                0.40992636590069165,
                3.112172319825095
            ]
        },
        {
            "positions": [
                0.5395131366982526,
                -2.025969455206705,
                2.360643843894823,
                -0.27112154189808124,
                0.5108413263881207,
                3.1288682913156713
            ]
        },
        {
            "positions": [
                0.6234331536559603,
                -1.9686087143297866,
                2.378227028996934,
                -0.3732262041308778,
                0.61175628687555,
                3.1455642628062477
            ]
        },
        {
            "positions": [
                0.7073531706136679,
                -1.9112479734528685,
                2.395810214099045,
                -0.47533086636367433,
                0.712671247362979,
                3.162260234296824
            ]
        }
    ]
}