{
    "goal": {
        "global_pose": {
            "orientation": {
                "w": 0.7047431493862688,
                "x": -0.7094548369677653,
                "y": 0.0024358444001904,
                "z": -0.0022348060817251984
            },
            "position": {
                "x": -0.39052492380142206,
                "y": 0.3671506643295288,
                "z": 0.19426114857196808
            }
        },
        "name": "move_to_magneteinheit_D"
    },
    "id": "BKPIECE_move_to_magneteinheit_D_81",
    "joint_names": [
        "shoulder_pan_joint",
        "shoulder_lift_joint",
        "elbow_joint",
        "wrist_1_joint",
        "wrist_2_joint",
        "wrist_3_joint"
    ],
    "metrics": {
        "cart_traj_len": 4.440822075711391,
        "distance_elbow_joint": 4.193059353288541,
        "distance_shoulder_lift_joint": 1.1189884913952928,
        "distance_shoulder_pan_joint": 3.4151427577189732,
        "distance_wrist_1_joint": 3.3227511313483427,
        "distance_wrist_2_joint": 2.340057662269717,
        "distance_wrist_3_joint": 3.3435257270367607,
        "smoothness": 0.9164139644066679,
        "time": 0.282279847,
        "traj_len": 4.211119224512365,
        "weighted_distance": 5.484832301059824
    },
    "planner": "BKPIECE",
    "start": {
        "state": {
            "elbow_joint": 0.7495348899011911,
            "shoulder_lift_joint": -0.6476975780737668,
            "shoulder_pan_joint": -2.711696901376276,
            "wrist_1_joint": -0.0750647808097303,
            "wrist_2_joint": 0.43296659715458535,
            "wrist_3_joint": 3.1361499051832418
        }
    },
    "waypoints": [
        {
            "positions": [
                -2.711696901376276,
                -0.6476975780737668,
                0.7495348899011911,
                -0.0750647808097303,
                0.43296659715458535,
                3.1361499051832418
            ]
        },
        {
            "positions": [
                -2.7055492365222995,
                -0.6780385989248384,
                0.7869510289312263,
                -0.01754451537926756,
                0.37420836083682135,
                3.010078308270671
            ]
        },
        {
            "positions": [
                -2.6994015716683224,
                -0.70837961977591,
                0.8243671679612614,
                0.03997575005119518,
                0.3154501245190574,
                2.8840067113581
            ]
        },
        {
            "positions": [
                -2.6932539068143457,
                -0.7387206406269815,
                0.8617833069912967,
                0.09749601548165791,
                0.2566918882012934,
                2.7579351144455293
            ]
        },
        {
            "positions": [
                -2.687106241960369,
                -0.7690616614780531,
                0.8991994460213318,
                0.15501628091212066,
                0.1979336518835294,
                2.6318635175329583
            ]
        },
        {
            "positions": [
                -2.710038847909369,
                -0.8387052299338259,
                0.9512132057027846,
                0.19246595720249407,
                0.1561516246084892,
                2.4718663853680445
            ]
        },
        {
            "positions": [
                -2.732971453858369,
                -0.9083487983895987,
                1.0032269653842372,
                0.22991563349286748,
                0.11436959733344895,
                2.3118692532031306
            ]
        },
        {
            "positions": [
                -2.755904059807369,
                -0.9779923668453714,
                1.0552407250656899,
                0.26736530978324086,
                0.07258757005840874,
                2.151872121038217
            ]
        },
        {
            "positions": [
                -2.778836665756369,
                -1.0476359353011442,
                1.1072544847471426,
                0.30481498607361424,
                0.0308055427833685,
                1.9918749888733027
            ]
        },
        {
            "positions": [
                -2.8017692717053686,
                -1.117279503756917,
                1.159268244428595,
                0.34226466236398767,
                -0.01097648449167174,
                1.8318778567083887
            ]
        },
        {
            "positions": [
                -2.824701877654369,
                -1.1869230722126898,
                1.2112820041100478,
                0.3797143386543611,
                -0.052758511766711924,
                1.6718807245434748
            ]
        },
        {
            "positions": [
                -2.8476344836033687,
                -1.2565666406684626,
                1.2632957637915005,
                0.4171640149447345,
                -0.09454053904175219,
                1.511883592378561
            ]
        },
        {
            "positions": [
                -2.7350361669926953,
                -1.275874735404535,
                1.1353205198188387,
                0.3298848763666446,
                -0.1357175663736977,
                1.5091684272543064
            ]
        },
        {
            "positions": [
                -2.622437850382022,
                -1.2951828301406074,
                1.0073452758461767,
                0.24260573778855474,
                -0.1768945937056432,
                1.506453262130052
            ]
        },
        {
            "positions": [
                -2.5098395337713484,
                -1.31449092487668,
                0.8793700318735148,
                0.15532659921046488,
                -0.2180716210375887,
                1.5037380970057974
            ]
        },
        {
            "positions": [
                -2.397241217160675,
                -1.3337990196127525,
                0.7513947879008529,
                0.06804746063237499,
                -0.2592486483695342,
                1.501022931881543
            ]
        },
        {
            "positions": [
                -2.2846429005500015,
                -1.353107114348825,
                0.623419543928191,
                -0.019231677945714842,
                -0.3004256757014797,
                1.4983077667572884
            ]
        },
        {
            "positions": [
                -2.172044583939328,
                -1.3724152090848973,
                0.4954442999555291,
                -0.10651081652380473,
                -0.3416027030334252,
                1.4955926016330339
            ]
        },
        {
            "positions": [
                -2.0594462673286547,
                -1.39172330382097,
                0.36746905598286705,
                -0.19378995510189462,
                -0.3827797303653707,
                1.4928774365087794
            ]
        },
        {
            "positions": [
                -1.9468479507179814,
                -1.4110313985570424,
                0.23949381201020525,
                -0.2810690936799845,
                -0.4239567576973162,
                1.4901622713845248
            ]
        },
        {
            "positions": [
                -1.834249634107308,
                -1.4303394932931148,
                0.11151856803754323,
                -0.3683482322580743,
                -0.4651337850292617,
                1.4874471062602703
            ]
        },
        {
            "positions": [
                -1.7216513174966346,
                -1.4496475880291873,
                -0.01645667593511857,
                -0.45562737083616417,
                -0.5063108123612072,
                1.4847319411360158
            ]
        },
        {
            "positions": [
                -1.6090530008859611,
                -1.46895568276526,
                -0.14443191990778081,
                -0.5429065094142542,
                -0.5474878396931528,
                1.4820167760117613
            ]
        },
        {
            "positions": [
                -1.4964546842752877,
                -1.4882637775013323,
                -0.2724071638804424,
                -0.630185647992344,
                -0.5886648670250982,
                1.4793016108875068
            ]
        },
        {
            "positions": [
                -1.3838563676646143,
                -1.5075718722374047,
                -0.40038240785310464,
                -0.717464786570434,
                -0.6298418943570439,
                1.4765864457632523
            ]
        },
        {
            "positions": [
                -1.271258051053941,
                -1.5268799669734772,
                -0.5283576518257664,
                -0.8047439251485238,
                -0.6710189216889892,
                1.4738712806389977
            ]
        },
        {
            "positions": [
                -1.1586597344432674,
                -1.5461880617095498,
                -0.6563328957984285,
                -0.8920230637266138,
                -0.7121959490209349,
                1.4711561155147432
            ]
        },
        {
            "positions": [
                -1.0460614178325942,
                -1.5654961564456222,
                -0.78430813977109,
                -0.9793022023047036,
                -0.7533729763528803,
                1.4684409503904887
            ]
        },
        {
            "positions": [
                -0.9334631012219208,
                -1.5848042511816947,
                -0.9122833837437523,
                -1.0665813408827933,
                -0.7945500036848259,
                1.4657257852662342
            ]
        },
        {
            "positions": [
                -0.8208647846112473,
                -1.604112345917767,
                -1.040258627716414,
                -1.153860479460883,
                -0.8357270310167713,
                1.4630106201419797
            ]
        },
        {
            "positions": [
                -0.7082664680005739,
                -1.6234204406538395,
                -1.1682338716890759,
                -1.241139618038973,
                -0.8769040583487169,
                1.4602954550177252
            ]
        },
        {
            "positions": [
                -0.5956681513899005,
                -1.6427285353899121,
                -1.2962091156617377,
                -1.3284187566170629,
                -0.9180810856806624,
                1.4575802898934707
            ]
        },
        {
            "positions": [
                -0.48306983477922694,
                -1.6620366301259846,
                -1.4241843596344,
                -1.4156978951951529,
                -0.9592581130126079,
                1.4548651247692161
            ]
        },
        {
            "positions": [
                -0.4373990011377078,
                -1.6707023062527782,
                -1.5050089171234944,
                -1.4654100552786813,
                -0.9006793082365523,
                1.57115267618141
            ]
        },
        {
            "positions": [
                -0.3917281674961886,
                -1.6793679823795715,
                -1.5858334746125888,
                -1.5151222153622097,
                -0.8421005034604966,
                1.6874402275936042
            ]
        },
        {
            "positions": [
                -0.34605733385466947,
                -1.6880336585063649,
                -1.6666580321016835,
                -1.5648343754457383,
                -0.7835216986844409,
                1.8037277790057982
            ]
        },
        {
            "positions": [
                -0.3003865002131503,
                -1.6966993346331585,
                -1.747482589590778,
                -1.6145465355292667,
                -0.7249428939083853,
                1.9200153304179923
            ]
        },
        {
            "positions": [
                -0.25471566657163114,
                -1.705365010759952,
                -1.8283071470798724,
                -1.6642586956127952,
                -0.6663640891323297,
                2.0363028818301863
            ]
        },
        {
            "positions": [
                -0.209044832930112,
                -1.7140306868867454,
                -1.9091317045689669,
                -1.7139708556963236,
                -0.607785284356274,
                2.15259043324238
            ]
        },
        {
            "positions": [
                -0.16337399928859286,
                -1.7226963630135388,
                -1.9899562620580613,
                -1.763683015779852,
                -0.5492064795802183,
                2.268877984654574
            ]
        },
        {
            "positions": [
                -0.11770316564707362,
                -1.7313620391403324,
                -2.070780819547156,
                -1.8133951758633806,
                -0.4906276748041627,
                2.3851655360667685
            ]
        },
        {
            "positions": [
                -0.07203233200555448,
                -1.740027715267126,
                -2.15160537703625,
                -1.863107335946909,
                -0.432048870028107,
                2.5014530874789624
            ]
        },
        {
            "positions": [
                -0.026361498364035327,
                -1.7486933913939193,
                -2.232429934525345,
                -1.9128194960304374,
                -0.3734700652520514,
                2.6177406388911564
            ]
        },
        {
            "positions": [
                -0.03763083814501086,
                -1.751152915648814,
                -2.2995947814451645,
                -1.9876037674145568,
                -0.30676715242814867,
                2.7775252822284595
            ]
        },
        {
            "positions": [
                -0.04890017792598639,
                -1.7536124399037085,
                -2.3667596283649837,
                -2.062388038798676,
                -0.24006423960424592,
                2.9373099255657626
            ]
        },
        {
            "positions": [
                -0.1795688695261224,
                -1.7500280695591912,
                -2.379722497395133,
                -2.173907084921879,
                -0.28429567523394866,
                3.019400644822681
            ]
        },
        {
            "positions": [
                -0.3102375611262584,
                -1.7464436992146737,
                -2.3926853664252827,
                -2.2854261310450816,
                -0.32852711086365144,
                3.1014913640795996
            ]
        },
        {
            "positions": [
                -0.24780015679700323,
                -1.7434912547765156,
                -2.3810266918345597,
                -2.2214600362430503,
                -0.25843900714627327,
                3.1092987177357756
            ]
        },
        {
            "positions": [
                -0.18536275246774808,
                -1.7405388103383574,
                -2.3693680172438367,
                -2.157493941441019,
                -0.1883509034288951,
                3.1171060713919516
            ]
        }
    ]
}