{
    "goal": {
        "global_pose": {
            "orientation": {
                "w": 0.7031023480610252,
                "x": -0.7110244013736278,
                "y": 0.0077485991402295624,
                "z": 0.005598929693374583
            },
            "position": {
                "x": -0.8841497679147869,
                "y": 0.44412534475326537,
                "z": 0.3711530566215515
            }
        },
        "name": "move_to_auspresseinheit_D"
    },
    "id": "BKPIECE_move_to_auspresseinheit_D_39",
    "joint_names": [
        "shoulder_pan_joint",
        "shoulder_lift_joint",
        "elbow_joint",
        "wrist_1_joint",
        "wrist_2_joint",
        "wrist_3_joint"
    ],
    "metrics": {
        "cart_traj_len": 0.3429260509241675,
        "distance_elbow_joint": 0.63484793893709,
        "distance_shoulder_lift_joint": 0.12000049139268443,
        "distance_shoulder_pan_joint": 0.134098089307909,
        "distance_wrist_1_joint": 0.5138328522913791,
        "distance_wrist_2_joint": 1.447561203643205,
        "distance_wrist_3_joint": 0.016086662284741315,
        "smoothness": 0.0,
        "time": 0.105321341,
        "traj_len": 1.6930526388322984,
        "weighted_distance": 2.2045395479240275
    },
    "planner": "BKPIECE",
    "start": {
        "state": {
            "elbow_joint": -1.8275484843655228,
            "shoulder_lift_joint": -2.1267897864000416,
            "shoulder_pan_joint": -0.035127520176001514,
            "wrist_1_joint": -2.3477863256791385,
            "wrist_2_joint": -1.605890476484521,
            "wrist_3_joint": -3.0880375317375353
        }
    },
    "waypoints": [
        {
            "positions": [
                -0.035127520176001514,
                -2.1267897864000416,
                -1.8275484843655228,
                -2.3477863256791385,
                -1.605890476484521,
                -3.0880375317375353
            ]
        },
        {
            "positions": [
                -0.05188978133949014,
                -2.141789847824127,
                -1.7481924919983864,
                -2.412015432215561,
                -1.4249453260291203,
                -3.090048364523128
            ]
        },
        {
            "positions": [
                -0.06865204250297877,
                -2.1567899092482126,
                -1.6688364996312504,
                -2.4762445387519834,
                -1.2440001755737198,
                -3.0920591973087204
            ]
        },
        {
            "positions": [
                -0.08541430366646739,
                -2.171789970672298,
                -1.589480507264114,
                -2.540473645288406,
                -1.063055025118319,
                -3.094070030094313
            ]
        },
        {
            "positions": [
                -0.10217656482995602,
                -2.1867900320963836,
                -1.5101245148969777,
                -2.604702751824828,
                -0.8821098746629185,
                -3.096080862879906
            ]
        },
        {
            "positions": [
                -0.11893882599344464,
                -2.2017900935204695,
                -1.4307685225298414,
                -2.6689318583612502,
                -0.7011647242075179,
                -3.0980916956654987
            ]
        },
        {
            "positions": [
                -0.13570108715693327,
                -2.216790154944555,
                -1.3514125301627051,
                -2.7331609648976727,
                -0.5202195737521171,
                -3.1001025284510915
            ]
        },
        {
            "positions": [
                -0.1524633483204219,
                -2.2317902163686405,
                -1.272056537795569,
                -2.797390071434095,
                -0.33927442329671664,
                -3.102113361236684
            ]
        },
        {
            "positions": [
                -0.16922560948391052,
                -2.246790277792726,
                -1.1927005454284327,
                -2.8616191779705176,
                -0.15832927284131584,
                -3.1041241940222766
            ]
        }
    ]
}