{
    "goal": {
        "global_pose": {
            "orientation": {
                "w": 0.005598929693374612,
                "x": 0.007748599140229565,
                "y": 0.7110244013736278,
                "z": -0.7031023480610252
            },
            "position": {
                "x": 0.1141497679147869,
                "y": -0.7141253447532654,
                "z": 0.3711530566215515
            }
        },
        "name": "move_to_auspresseinheit_B"
    },
    "id": "BKPIECE_move_to_auspresseinheit_B_145",
    "joint_names": [
        "shoulder_pan_joint",
        "shoulder_lift_joint",
        "elbow_joint",
        "wrist_1_joint",
        "wrist_2_joint",
        "wrist_3_joint"
    ],
    "metrics": {
        "cart_traj_len": 0.5656389142564018,
        "distance_elbow_joint": 0.06587253623738709,
        "distance_shoulder_lift_joint": 0.2934349637311098,
        "distance_shoulder_pan_joint": 0.5772128178296725,
        "distance_wrist_1_joint": 0.338868637094381,
        "distance_wrist_2_joint": 1.0008863888701827,
        "distance_wrist_3_joint": 0.0028102408700485526,
        "smoothness": 0.0,
        "time": 0.282638681,
        "traj_len": 1.5096640635031298,
        "weighted_distance": 1.903801747120073
    },
    "planner": "BKPIECE",
    "start": {
        "state": {
            "elbow_joint": 2.0193061681459312,
            "shoulder_lift_joint": -1.1220205130644991,
            "shoulder_pan_joint": -1.0952072088045026,
            "wrist_1_joint": -0.8559671810662515,
            "wrist_2_joint": 0.4759638712940361,
            "wrist_3_joint": 3.159081874192446
        }
    },
    "waypoints": [
        {
            "positions": [
                -1.0952072088045026,
                -1.1220205130644991,
                2.0193061681459312,
                -0.8559671810662515,
                0.4759638712940361,
                3.159081874192446
            ]
        },
        {
            "positions": [
                -1.191409345109448,
                -1.1709263403530175,
                2.008327412106367,
                -0.7994890748838547,
                0.6427782694390666,
                3.1586135007141047
            ]
        },
        {
            "positions": [
                -1.2876114814143935,
                -1.2198321676415358,
                1.9973486560668021,
                -0.7430109687014578,
                0.809592667584097,
                3.158145127235763
            ]
        },
        {
            "positions": [
                -1.3838136177193388,
                -1.2687379949300541,
                1.9863699000272377,
                -0.686532862519061,
                0.9764070657291275,
                3.1576767537574217
            ]
        },
        {
            "positions": [
                -1.4800157540242842,
                -1.3176438222185722,
                1.9753911439876732,
                -0.6300547563366642,
                1.1432214638741578,
                3.1572083802790805
            ]
        },
        {
            "positions": [
                -1.5762178903292297,
                -1.3665496495070906,
                1.9644123879481086,
                -0.5735766501542673,
                1.3100358620191883,
                3.1567400068007387
            ]
        },
        {
            "positions": [
                -1.672420026634175,
                -1.415455476795609,
                1.9534336319085441,
                -0.5170985439718705,
                1.4768502601642188,
                3.1562716333223975
            ]
        }
    ]
}