{
    "goal": {
        "global_pose": {
            "orientation": {
                "w": -0.00223480608172531,
                "x": 0.0024358444001904467,
                "y": 0.7094548369677653,
                "z": -0.704743149386269
            },
            "position": {
                "x": -0.37947507619857795,
                "y": -0.6371506643295288,
                "z": 0.19426114857196808
            }
        },
        "name": "move_to_magneteinheit_C"
    },
    "id": "BKPIECE_move_to_magneteinheit_C_145",
    "joint_names": [
        "shoulder_pan_joint",
        "shoulder_lift_joint",
        "elbow_joint",
        "wrist_1_joint",
        "wrist_2_joint",
        "wrist_3_joint"
    ],
    "metrics": {
        "cart_traj_len": 1.99984205908615,
        "distance_elbow_joint": 2.9452561387260143,
        "distance_shoulder_lift_joint": 1.343890689755781,
        "distance_shoulder_pan_joint": 1.0855615584095928,
        "distance_wrist_1_joint": 1.884732463426864,
        "distance_wrist_2_joint": 1.765119795549687,
        "distance_wrist_3_joint": 4.615157652768255,
        "smoothness": 1.0164233855511884,
        "time": 0.269212238,
        "traj_len": 3.693198924866652,
        "weighted_distance": 5.14974619405163
    },
    "planner": "BKPIECE",
    "start": {
        "state": {
            "elbow_joint": 1.9565354006593851,
            "shoulder_lift_joint": -1.4165861576512813,
            "shoulder_pan_joint": -1.6717766223278752,
            "wrist_1_joint": -0.528663328821883,
            "wrist_2_joint": 1.472756589259273,
            "wrist_3_joint": 3.159348288315503
        }
    },
    "waypoints": [
        {
            "positions": [
                -1.6717766223278752,
                -1.4165861576512813,
                1.9565354006593851,
                -0.528663328821883,
                1.472756589259273,
                3.159348288315503
            ]
        },
        {
            "positions": [
                -1.6756363744270268,
                -1.4689743690068542,
                1.9225388032127166,
                -0.616246591932208,
                1.4448250598553578,
                3.151740972924947
            ]
        },
        {
            "positions": [
                -1.6794961265261785,
                -1.5213625803624273,
                1.8885422057660484,
                -0.7038298550425328,
                1.4168935304514427,
                3.1441336575343906
            ]
        },
        {
            "positions": [
                -1.6923460879884362,
                -1.6190506489354592,
                1.9093863463811402,
                -0.7387876480328975,
                1.3905273855713398,
                3.0985639311945397
            ]
        },
        {
            "positions": [
                -1.7051960494506937,
                -1.716738717508491,
                1.9302304869962323,
                -0.7737454410232623,
                1.3641612406912367,
                3.052994204854689
            ]
        },
        {
            "positions": [
                -1.6699116810829822,
                -1.6398927077156338,
                1.7922815073478122,
                -0.757767733604455,
                1.3488249979662097,
                2.965618953382547
            ]
        },
        {
            "positions": [
                -1.6346273127152706,
                -1.5630466979227764,
                1.6543325276993919,
                -0.7417900261856478,
                1.3334887552411827,
                2.8782437019104057
            ]
        },
        {
            "positions": [
                -1.6788505917681702,
                -1.529344645678187,
                1.5853752982815554,
                -0.6963530899024868,
                1.26441136053289,
                2.7504921668089697
            ]
        },
        {
            "positions": [
                -1.7230738708210696,
                -1.4956425934335973,
                1.516418068863719,
                -0.6509161536193258,
                1.195333965824597,
                2.6227406317075337
            ]
        },
        {
            "positions": [
                -1.7672971498739691,
                -1.4619405411890076,
                1.4474608394458826,
                -0.6054792173361647,
                1.1262565711163042,
                2.494989096606098
            ]
        },
        {
            "positions": [
                -1.8115204289268685,
                -1.4282384889444182,
                1.378503610028046,
                -0.5600422810530038,
                1.0571791764080114,
                2.367237561504662
            ]
        },
        {
            "positions": [
                -1.855743707979768,
                -1.3945364366998287,
                1.3095463806102094,
                -0.5146053447698428,
                0.9881017816997184,
                2.239486026403226
            ]
        },
        {
            "positions": [
                -1.8999669870326676,
                -1.360834384455239,
                1.240589151192373,
                -0.46916840848668173,
                0.9190243869914256,
                2.1117344913017906
            ]
        },
        {
            "positions": [
                -1.9441902660855672,
                -1.3271323322106494,
                1.1716319217745366,
                -0.42373147220352075,
                0.8499469922831328,
                1.9839829562003546
            ]
        },
        {
            "positions": [
                -1.9884135451384666,
                -1.29343027996606,
                1.1026746923567,
                -0.3782945359203597,
                0.7808695975748399,
                1.8562314210989186
            ]
        },
        {
            "positions": [
                -2.032636824191366,
                -1.2597282277214705,
                1.0337174629388635,
                -0.3328575996371987,
                0.711792202866547,
                1.7284798859974826
            ]
        },
        {
            "positions": [
                -2.0768601032442655,
                -1.2260261754768809,
                0.964760233521027,
                -0.2874206633540377,
                0.6427148081582541,
                1.6007283508960468
            ]
        },
        {
            "positions": [
                -2.121083382297165,
                -1.1923241232322912,
                0.8958030041031906,
                -0.24198372707087668,
                0.5736374134499613,
                1.472976815794611
            ]
        },
        {
            "positions": [
                -2.1653066613500647,
                -1.1586220709877018,
                0.8268457746853541,
                -0.19654679078771564,
                0.5045600187416684,
                1.345225280693175
            ]
        },
        {
            "positions": [
                -2.2095299404029642,
                -1.1249200187431123,
                0.7578885452675176,
                -0.1511098545045546,
                0.43548262403337556,
                1.217473745591739
            ]
        },
        {
            "positions": [
                -2.253753219455864,
                -1.0912179664985227,
                0.6889313158496811,
                -0.10567291822139369,
                0.3664052293250828,
                1.0897222104903033
            ]
        },
        {
            "positions": [
                -2.297976498508763,
                -1.057515914253933,
                0.6199740864318446,
                -0.06023598193823265,
                0.2973278346167898,
                0.9619706753888675
            ]
        },
        {
            "positions": [
                -2.3421997775616625,
                -1.0238138620093435,
                0.5510168570140082,
                -0.014799045655071619,
                0.22825043990849692,
                0.8342191402874313
            ]
        },
        {
            "positions": [
                -2.443716393265039,
                -0.9706900234415241,
                0.6265337925148431,
                0.0032554959069419284,
                0.20885783119062373,
                0.9045469977151263
            ]
        },
        {
            "positions": [
                -2.5452330089684154,
                -0.9175661848737046,
                0.702050728015678,
                0.021310037468955476,
                0.18946522247275055,
                0.9748748551428212
            ]
        },
        {
            "positions": [
                -2.5411939940895376,
                -0.929059944142997,
                0.7972431932682894,
                -0.03514368324642093,
                0.22983382952529852,
                1.1359576926348172
            ]
        },
        {
            "positions": [
                -2.5371549792106602,
                -0.9405537034122894,
                0.8924356585209007,
                -0.09159740396179733,
                0.2702024365778465,
                1.297040530126813
            ]
        },
        {
            "positions": [
                -2.5331159643317824,
                -0.9520474626815818,
                0.9876281237735121,
                -0.14805112467717374,
                0.3105710436303944,
                1.4581233676188092
            ]
        },
        {
            "positions": [
                -2.5290769494529046,
                -0.9635412219508742,
                1.0828205890261233,
                -0.20450484539255015,
                0.3509396506829424,
                1.6192062051108052
            ]
        },
        {
            "positions": [
                -2.5250379345740273,
                -0.9750349812201666,
                1.1780130542787348,
                -0.2609585661079265,
                0.39130825773549033,
                1.780289042602801
            ]
        },
        {
            "positions": [
                -2.5209989196951494,
                -0.9865287404894589,
                1.2732055195313459,
                -0.3174122868233029,
                0.43167686478803824,
                1.941371880094797
            ]
        },
        {
            "positions": [
                -2.5169599048162716,
                -0.9980224997587513,
                1.3683979847839574,
                -0.37386600753867927,
                0.4720454718405862,
                2.102454717586793
            ]
        },
        {
            "positions": [
                -2.512920889937394,
                -1.0095162590280438,
                1.4635904500365688,
                -0.43031972825405573,
                0.5124140788931342,
                2.263537555078789
            ]
        },
        {
            "positions": [
                -2.5088818750585165,
                -1.0210100182973363,
                1.5587829152891801,
                -0.48677344896943214,
                0.5527826859456821,
                2.4246203925707848
            ]
        },
        {
            "positions": [
                -2.5048428601796386,
                -1.0325037775666286,
                1.6539753805417914,
                -0.5432271696848086,
                0.5931512929982301,
                2.585703230062781
            ]
        },
        {
            "positions": [
                -2.4971984728022814,
                -1.0649107787093437,
                1.742326007814913,
                -0.6132415860796844,
                0.6126868825576512,
                2.7203393338039894
            ]
        },
        {
            "positions": [
                -2.489554085424924,
                -1.0973177798520588,
                1.8306766350880344,
                -0.6832560024745602,
                0.6322224721170723,
                2.854975437545198
            ]
        },
        {
            "positions": [
                -2.4819096980475663,
                -1.1297247809947737,
                1.9190272623611557,
                -0.7532704188694361,
                0.6517580616764933,
                2.9896115412864064
            ]
        },
        {
            "positions": [
                -2.474265310670209,
                -1.1621317821374888,
                2.0073778896342773,
                -0.823284835264312,
                0.6712936512359144,
                3.124247645027615
            ]
        }
    ]
}