{
    "goal": {
        "global_pose": {
            "orientation": {
                "w": 0.5084816262002911,
                "x": -0.4908360881923452,
                "y": 0.5182115481033761,
                "z": -0.48164630358495003
            },
            "position": {
                "x": 0.5540239810943604,
                "y": -0.46912469901144505,
                "z": 0.16403168439865112
            }
        },
        "name": "move_to_storage_B"
    },
    "id": "BKPIECE_move_to_storage_B_39",
    "joint_names": [
        "shoulder_pan_joint",
        "shoulder_lift_joint",
        "elbow_joint",
        "wrist_1_joint",
        "wrist_2_joint",
        "wrist_3_joint"
    ],
    "metrics": {
        "cart_traj_len": 2.30307862309589,
        "distance_elbow_joint": 2.449042256280203,
        "distance_shoulder_lift_joint": 0.46031365515667,
        "distance_shoulder_pan_joint": 1.7757159875739104,
        "distance_wrist_1_joint": 3.006189571076277,
        "distance_wrist_2_joint": 2.7107894141901343,
        "distance_wrist_3_joint": 3.1467711137631444,
        "smoothness": 0.2802622651968531,
        "time": 0.135949911,
        "traj_len": 3.6808724506617096,
        "weighted_distance": 5.055624908043816
    },
    "planner": "BKPIECE",
    "start": {
        "state": {
            "elbow_joint": 1.6649325340416963,
            "shoulder_lift_joint": -0.6616387945129425,
            "shoulder_pan_joint": -0.9139837929255878,
            "wrist_1_joint": 2.1467571094334352,
            "wrist_2_joint": -2.234195976750228,
            "wrist_3_joint": 0.005470921511140723
        }
    },
    "waypoints": [
        {
            "positions": [
                -0.9139837929255878,
                -0.6616387945129425,
                1.6649325340416963,
                2.1467571094334352,
                -2.234195976750228,
                0.005470921511140723
            ]
        },
        {
            "positions": [
                -0.9000133072243601,
                -0.6651903728111063,
                1.6559112070006603,
                2.138346772314291,
                -2.2196666438770882,
                0.01953452104925547
            ]
        },
        {
            "positions": [
                -0.847819378556042,
                -0.6917019860314647,
                1.5867092229534376,
                2.0691429298160404,
                -2.0995076420995673,
                0.06477545776836761
            ]
        },
        {
            "positions": [
                -0.7956254498877237,
                -0.7182135992518232,
                1.517507238906215,
                1.9999390873177896,
                -1.9793486403220466,
                0.11001639448747977
            ]
        },
        {
            "positions": [
                -0.7434315212194055,
                -0.7447252124721817,
                1.448305254858992,
                1.9307352448195387,
                -1.859189638544526,
                0.1552573312065919
            ]
        },
        {
            "positions": [
                -0.6912375925510872,
                -0.7712368256925402,
                1.3791032708117694,
                1.861531402321288,
                -1.7390306367670052,
                0.20049826792570405
            ]
        },
        {
            "positions": [
                -0.639043663882769,
                -0.7977484389128986,
                1.3099012867645468,
                1.7923275598230373,
                -1.6188716349894845,
                0.2457392046448162
            ]
        },
        {
            "positions": [
                -0.5868497352144508,
                -0.824260052133257,
                1.240699302717324,
                1.7231237173247864,
                -1.4987126332119636,
                0.29098014136392836
            ]
        },
        {
            "positions": [
                -0.5346558065461325,
                -0.8507716653536155,
                1.1714973186701014,
                1.6539198748265358,
                -1.3785536314344427,
                0.3362210780830405
            ]
        },
        {
            "positions": [
                -0.48246187787781436,
                -0.8772832785739739,
                1.1022953346228785,
                1.584716032328285,
                -1.2583946296569222,
                0.38146201480215264
            ]
        },
        {
            "positions": [
                -0.4302679492094961,
                -0.9037948917943325,
                1.033093350575656,
                1.515512189830034,
                -1.1382356278794012,
                0.4267029515212648
            ]
        },
        {
            "positions": [
                -0.3780740205411779,
                -0.9303065050146909,
                0.9638913665284332,
                1.4463083473317835,
                -1.0180766261018805,
                0.4719438882403769
            ]
        },
        {
            "positions": [
                -0.3258800918728597,
                -0.9568181182350494,
                0.8946893824812105,
                1.3771045048335329,
                -0.8979176243243598,
                0.5171848249594891
            ]
        },
        {
            "positions": [
                -0.2736861632045414,
                -0.9833297314554079,
                0.8254873984339878,
                1.3079006623352818,
                -0.7777586225468389,
                0.5624257616786013
            ]
        },
        {
            "positions": [
                -0.22149223453622324,
                -1.0098413446757664,
                0.7562854143867651,
                1.2386968198370312,
                -0.657599620769318,
                0.6076666983977135
            ]
        },
        {
            "positions": [
                -0.16929830586790495,
                -1.0363529578961248,
                0.6870834303395423,
                1.1694929773387805,
                -0.5374406189917973,
                0.6529076351168256
            ]
        },
        {
            "positions": [
                -0.11710437719958677,
                -1.0628645711164832,
                0.6178814462923197,
                1.1002891348405297,
                -0.4172816172142765,
                0.6981485718359377
            ]
        },
        {
            "positions": [
                -0.1660462057919822,
                -1.0658189650441396,
                0.687981004718861,
                1.0023030550163612,
                -0.3725878644815672,
                0.8208532450078551
            ]
        },
        {
            "positions": [
                -0.21498803438437764,
                -1.0687733589717963,
                0.7580805631454023,
                0.9043169751921926,
                -0.32789411174885796,
                0.9435579181797724
            ]
        },
        {
            "positions": [
                -0.26392986297677307,
                -1.0717277528994527,
                0.8281801215719437,
                0.8063308953680239,
                -0.28320035901614876,
                1.0662625913516899
            ]
        },
        {
            "positions": [
                -0.3128716915691685,
                -1.074682146827109,
                0.8982796799984849,
                0.7083448155438554,
                -0.2385066062834395,
                1.1889672645236073
            ]
        },
        {
            "positions": [
                -0.36181352016156393,
                -1.0776365407547654,
                0.9683792384250263,
                0.6103587357196869,
                -0.19381285355073027,
                1.3116719376955246
            ]
        },
        {
            "positions": [
                -0.41075534875395936,
                -1.080590934682422,
                1.0384787968515676,
                0.5123726558955183,
                -0.14911910081802104,
                1.4343766108674418
            ]
        },
        {
            "positions": [
                -0.4596971773463548,
                -1.0835453286100785,
                1.1085783552781088,
                0.41438657607134977,
                -0.10442534808531179,
                1.5570812840393593
            ]
        },
        {
            "positions": [
                -0.5086390059387502,
                -1.0864997225377349,
                1.1786779137046501,
                0.31640049624718114,
                -0.05973159535260253,
                1.6797859572112768
            ]
        },
        {
            "positions": [
                -0.5575808345311457,
                -1.0894541164653915,
                1.2487774721311915,
                0.21841441642301251,
                -0.015037842619893327,
                1.8024906303831942
            ]
        },
        {
            "positions": [
                -0.6065226631235411,
                -1.0924085103930479,
                1.3188770305577329,
                0.120428336598844,
                0.02965591011281593,
                1.9251953035551115
            ]
        },
        {
            "positions": [
                -0.6554644917159366,
                -1.0953629043207043,
                1.3889765889842742,
                0.022442256774675373,
                0.07434966284552519,
                2.047899976727029
            ]
        },
        {
            "positions": [
                -0.704406320308332,
                -1.0983172982483609,
                1.4590761474108156,
                -0.07554382304949314,
                0.11904341557823439,
                2.170604649898946
            ]
        },
        {
            "positions": [
                -0.7533481489007274,
                -1.1012716921760173,
                1.529175705837357,
                -0.17352990287366166,
                0.16373716831094365,
                2.2933093230708637
            ]
        },
        {
            "positions": [
                -0.8022899774931228,
                -1.1042260861036737,
                1.599275264263898,
                -0.27151598269783017,
                0.2084309210436529,
                2.416013996242781
            ]
        },
        {
            "positions": [
                -0.8512318060855182,
                -1.1071804800313303,
                1.6693748226904395,
                -0.3695020625219989,
                0.25312467377636216,
                2.538718669414698
            ]
        },
        {
            "positions": [
                -0.9001736346779137,
                -1.1101348739589867,
                1.7394743811169808,
                -0.4674881423461674,
                0.2978184265090714,
                2.661423342586616
            ]
        },
        {
            "positions": [
                -0.949115463270309,
                -1.113089267886643,
                1.809573939543522,
                -0.5654742221703359,
                0.34251217924178057,
                2.784128015758533
            ]
        },
        {
            "positions": [
                -0.9980572918627045,
                -1.1160436618142995,
                1.8796734979700636,
                -0.6634603019945047,
                0.3872059319744898,
                2.906832688930451
            ]
        },
        {
            "positions": [
                -1.0469991204551,
                -1.118998055741956,
                1.9497730563966047,
                -0.761446381818673,
                0.4318996847071991,
                3.029537362102368
            ]
        },
        {
            "positions": [
                -1.0959409490474954,
                -1.1219524496696125,
                2.019872614823146,
                -0.8594324616428417,
                0.47659343743990834,
                3.152242035274285
            ]
        }
    ]
}