{
    "goal": {
        "global_pose": {
            "orientation": {
                "w": 0.5084816262002911,
                "x": -0.4908360881923452,
                "y": 0.5182115481033761,
                "z": -0.48164630358495003
            },
            "position": {
                "x": 0.5540239810943604,
                "y": -0.46912469901144505,
                "z": 0.16403168439865112
            }
        },
        "name": "move_to_storage_B"
    },
    "id": "BKPIECE_move_to_storage_B_2",
    "joint_names": [
        "shoulder_pan_joint",
        "shoulder_lift_joint",
        "elbow_joint",
        "wrist_1_joint",
        "wrist_2_joint",
        "wrist_3_joint"
    ],
    "metrics": {
        "cart_traj_len": 1.4287008564277237,
        "distance_elbow_joint": 0.8899821041685902,
        "distance_shoulder_lift_joint": 0.4585192407963474,
        "distance_shoulder_pan_joint": 1.4702446917742191,
        "distance_wrist_1_joint": 2.9862554335325804,
        "distance_wrist_2_joint": 2.702016258336595,
        "distance_wrist_3_joint": 3.1368166599248877,
        "smoothness": 0.17428956877236784,
        "time": 0.19943394999999997,
        "traj_len": 3.4123063151676787,
        "weighted_distance": 4.858573803108498
    },
    "planner": "BKPIECE",
    "start": {
        "state": {
            "elbow_joint": 1.6649325340416963,
            "shoulder_lift_joint": -0.6616387945129425,
            "shoulder_pan_joint": -0.9139837929255878,
            "wrist_1_joint": 2.1467571094334352,
            "wrist_2_joint": -2.234195976750228,
            "wrist_3_joint": 0.005470921511140723
        }
    },
    "waypoints": [
        {
            "positions": [
                -0.9139837929255878,
                -0.6616387945129425,
                1.6649325340416963,
                2.1467571094334352,
                -2.234195976750228,
                0.005470921511140723
            ]
        },
        {
            "positions": [
                -0.8218955951010555,
                -0.7013570537624481,
                1.6262699006519914,
                2.0738995672014733,
                -2.1775212206411565,
                -0.06792655562122021
            ]
        },
        {
            "positions": [
                -0.7298073972765231,
                -0.7410753130119535,
                1.5876072672622865,
                2.001042024969512,
                -2.1208464645320846,
                -0.14132403275358113
            ]
        },
        {
            "positions": [
                -0.6377191994519907,
                -0.7807935722614591,
                1.5489446338725816,
                1.9281844827375498,
                -2.064171708423013,
                -0.21472150988594207
            ]
        },
        {
            "positions": [
                -0.5456310016274584,
                -0.8205118315109645,
                1.5102820004828768,
                1.855326940505588,
                -2.0074969523139417,
                -0.288118987018303
            ]
        },
        {
            "positions": [
                -0.453542803802926,
                -0.8602300907604701,
                1.4716193670931719,
                1.7824693982736264,
                -1.95082219620487,
                -0.36151646415066396
            ]
        },
        {
            "positions": [
                -0.36145460597839363,
                -0.8999483500099755,
                1.432956733703467,
                1.7096118560416644,
                -1.8941474400957985,
                -0.4349139412830249
            ]
        },
        {
            "positions": [
                -0.26936640815386126,
                -0.9396666092594811,
                1.394294100313762,
                1.6367543138097027,
                -1.8374726839867268,
                -0.5083114184153859
            ]
        },
        {
            "positions": [
                -0.30526324758875223,
                -0.9475140625659945,
                1.421222085985095,
                1.5290911556397528,
                -1.7372425550487662,
                -0.6223563888500973
            ]
        },
        {
            "positions": [
                -0.34116008702364314,
                -0.955361515872508,
                1.448150071656428,
                1.421427997469803,
                -1.6370124261108057,
                -0.7364013592848085
            ]
        },
        {
            "positions": [
                -0.3770569264585341,
                -0.9632089691790213,
                1.4750780573277606,
                1.313764839299853,
                -1.536782297172845,
                -0.8504463297195199
            ]
        },
        {
            "positions": [
                -0.41295376589342503,
                -0.9710564224855348,
                1.5020060429990936,
                1.206101681129903,
                -1.4365521682348843,
                -0.9644913001542312
            ]
        },
        {
            "positions": [
                -0.448850605328316,
                -0.9789038757920482,
                1.5289340286704265,
                1.0984385229599531,
                -1.3363220392969237,
                -1.0785362705889425
            ]
        },
        {
            "positions": [
                -0.48474744476320697,
                -0.9867513290985617,
                1.5558620143417594,
                0.9907753647900033,
                -1.2360919103589632,
                -1.192581241023654
            ]
        },
        {
            "positions": [
                -0.5206442841980979,
                -0.994598782405075,
                1.5827900000130923,
                0.8831122066200533,
                -1.1358617814210024,
                -1.3066262114583655
            ]
        },
        {
            "positions": [
                -0.5565411236329889,
                -1.0024462357115884,
                1.609717985684425,
                0.7754490484501034,
                -1.0356316524830418,
                -1.4206711818930766
            ]
        },
        {
            "positions": [
                -0.5924379630678798,
                -1.010293689018102,
                1.636645971355758,
                0.6677858902801534,
                -0.9354015235450813,
                -1.5347161523277881
            ]
        },
        {
            "positions": [
                -0.6283348025027707,
                -1.0181411423246154,
                1.6635739570270909,
                0.5601227321102036,
                -0.8351713946071206,
                -1.6487611227624994
            ]
        },
        {
            "positions": [
                -0.6642316419376617,
                -1.0259885956311288,
                1.6905019426984238,
                0.4524595739402535,
                -0.7349412656691601,
                -1.762806093197211
            ]
        },
        {
            "positions": [
                -0.7001284813725527,
                -1.0338360489376421,
                1.7174299283697565,
                0.34479641577030384,
                -0.6347111367311995,
                -1.876851063631922
            ]
        },
        {
            "positions": [
                -0.7360253208074437,
                -1.0416835022441557,
                1.7443579140410894,
                0.23713325760035397,
                -0.5344810077932389,
                -1.9908960340666333
            ]
        },
        {
            "positions": [
                -0.7719221602423346,
                -1.049530955550669,
                1.7712858997124223,
                0.12947009943040388,
                -0.43425087885527813,
                -2.1049410045013452
            ]
        },
        {
            "positions": [
                -0.8078189996772255,
                -1.0573784088571825,
                1.7982138853837553,
                0.021806941260454016,
                -0.33402074991731756,
                -2.2189859749360563
            ]
        },
        {
            "positions": [
                -0.8437158391121165,
                -1.0652258621636959,
                1.825141871055088,
                -0.08585621690949585,
                -0.233790620979357,
                -2.3330309453707674
            ]
        },
        {
            "positions": [
                -0.8796126785470074,
                -1.0730733154702095,
                1.8520698567264209,
                -0.19351937507944572,
                -0.13356049204139664,
                -2.447075915805479
            ]
        },
        {
            "positions": [
                -0.9155095179818984,
                -1.0809207687767228,
                1.8789978423977538,
                -0.3011825332493958,
                -0.033330363103435845,
                -2.5611208862401904
            ]
        },
        {
            "positions": [
                -0.9514063574167894,
                -1.0887682220832362,
                1.9059258280690867,
                -0.4088456914193459,
                0.06689976583452473,
                -2.6751658566749015
            ]
        },
        {
            "positions": [
                -0.9873031968516802,
                -1.0966156753897496,
                1.9328538137404196,
                -0.5165088495892955,
                0.16712989477248552,
                -2.789210827109613
            ]
        },
        {
            "positions": [
                -1.0232000362865712,
                -1.104463128696263,
                1.9597817994117523,
                -0.6241720077592452,
                0.2673600237104461,
                -2.903255797544324
            ]
        },
        {
            "positions": [
                -1.0590968757214623,
                -1.1123105820027765,
                1.9867097850830855,
                -0.7318351659291957,
                0.36759015264840667,
                -3.017300767979036
            ]
        },
        {
            "positions": [
                -1.0949937151563531,
                -1.12015803530929,
                2.013637770754418,
                -0.8394983240991455,
                0.46782028158636735,
                -3.131345738413747
            ]
        }
    ]
}