{
    "goal": {
        "global_pose": {
            "orientation": {
                "w": -0.4816463035849501,
                "x": 0.5182115481033762,
                "y": 0.4908360881923453,
                "z": -0.5084816262002911
            },
            "position": {
                "x": -0.8240239810943604,
                "y": -0.300875300988555,
                "z": 0.16403168439865112
            }
        },
        "name": "move_to_storage_C"
    },
    "id": "BKPIECE_move_to_storage_C_149",
    "joint_names": [
        "shoulder_pan_joint",
        "shoulder_lift_joint",
        "elbow_joint",
        "wrist_1_joint",
        "wrist_2_joint",
        "wrist_3_joint"
    ],
    "metrics": {
        "cart_traj_len": 0.5762285725693702,
        "distance_elbow_joint": 0.25843281404442275,
        "distance_shoulder_lift_joint": 0.18826762475955539,
        "distance_shoulder_pan_joint": 0.4950799595038995,
        "distance_wrist_1_joint": 0.08330109989469858,
        "distance_wrist_2_joint": 1.0632208416507523,
        "distance_wrist_3_joint": 0.06199132893119419,
        "smoothness": 1.0150610591234219e-15,
        "time": 0.355942748,
        "traj_len": 1.4663879666665716,
        "weighted_distance": 1.849540015299037
    },
    "planner": "BKPIECE",
    "start": {
        "state": {
            "elbow_joint": 2.0108683149792914,
            "shoulder_lift_joint": -1.1634956873317392,
            "shoulder_pan_joint": -2.4736205022346,
            "wrist_1_joint": -0.8367026793690192,
            "wrist_2_joint": 0.6746043897045053,
            "wrist_3_joint": 3.133522094754363
        }
    },
    "waypoints": [
        {
            "positions": [
                -2.4736205022346,
                -1.1634956873317392,
                2.0108683149792914,
                -0.8367026793690192,
                0.6746043897045053,
                3.133522094754363
            ]
        },
        {
            "positions": [
                -2.5561338288185835,
                -1.1321177498718134,
                1.967796179305221,
                -0.8228191627199027,
                0.851807863312964,
                3.143853982909562
            ]
        },
        {
            "positions": [
                -2.6386471554025666,
                -1.1007398124118875,
                1.9247240436311506,
                -0.8089356460707864,
                1.0290113369214227,
                3.1541858710647612
            ]
        },
        {
            "positions": [
                -2.7211604819865496,
                -1.0693618749519616,
                1.88165190795708,
                -0.7950521294216699,
                1.2062148105298816,
                3.1645177592199603
            ]
        },
        {
            "positions": [
                -2.803673808570533,
                -1.0379839374920357,
                1.8385797722830095,
                -0.7811686127725535,
                1.3834182841383402,
                3.1748496473751593
            ]
        },
        {
            "positions": [
                -2.8861871351545165,
                -1.0066060000321098,
                1.795507636608939,
                -0.7672850961234371,
                1.560621757746799,
                3.1851815355303583
            ]
        },
        {
            "positions": [
                -2.9687004617384996,
                -0.9752280625721839,
                1.7524355009348687,
                -0.7534015794743206,
                1.7378252313552576,
                3.1955134236855574
            ]
        }
    ]
}