{
    "goal": {
        "global_pose": {
            "orientation": {
                "w": 0.5084816217422485,
                "x": -0.49083608388900757,
                "y": 0.5182115435600281,
                "z": -0.4816462993621826
            },
            "position": {
                "x": 0.5540239810943604,
                "y": 0.030875300988554955,
                "z": 0.16403168439865112
            }
        },
        "name": "move_to_storage_A"
    },
    "id": "BKPIECE_move_to_storage_A_14",
    "joint_names": [
        "shoulder_pan_joint",
        "shoulder_lift_joint",
        "elbow_joint",
        "wrist_1_joint",
        "wrist_2_joint",
        "wrist_3_joint"
    ],
    "metrics": {
        "cart_traj_len": 0.3532978720693428,
        "distance_elbow_joint": 0.4507195058861482,
        "distance_shoulder_lift_joint": 0.2342792958013744,
        "distance_shoulder_pan_joint": 0.4641704257228203,
        "distance_wrist_1_joint": 0.24202082781332113,
        "distance_wrist_2_joint": 1.0902260698127804,
        "distance_wrist_3_joint": 0.08723900379194882,
        "smoothness": 2.2204460668324854e-16,
        "time": 0.23353995900000002,
        "traj_len": 1.602702445505214,
        "weighted_distance": 2.0187570517618987
    },
    "planner": "BKPIECE",
    "start": {
        "state": {
            "elbow_joint": 1.971548880431181,
            "shoulder_lift_joint": -1.1394869514688781,
            "shoulder_pan_joint": 0.12281150262730567,
            "wrist_1_joint": -0.7804693444481463,
            "wrist_2_joint": 0.12958644648617612,
            "wrist_3_joint": 3.0906942077768043
        }
    },
    "waypoints": [
        {
            "positions": [
                0.12281150262730567,
                -1.1394869514688781,
                1.971548880431181,
                -0.7804693444481463,
                0.12958644648617612,
                3.0906942077768043
            ]
        },
        {
            "positions": [
                0.05650144180975991,
                -1.172955422297646,
                2.0359373812720594,
                -0.8150437484214779,
                0.28533302788800186,
                3.1031569226042257
            ]
        },
        {
            "positions": [
                -0.009808619007785846,
                -1.2064238931264137,
                2.1003258821129376,
                -0.8496181523948094,
                0.44107960928982765,
                3.1156196374316467
            ]
        },
        {
            "positions": [
                -0.0761186798253316,
                -1.2398923639551815,
                2.164714382953816,
                -0.8841925563681411,
                0.5968261906916534,
                3.128082352259068
            ]
        },
        {
            "positions": [
                -0.14242874064287736,
                -1.2733608347839491,
                2.229102883794694,
                -0.9187669603414726,
                0.7525727720934792,
                3.140545067086489
            ]
        },
        {
            "positions": [
                -0.20873880146042312,
                -1.306829305612717,
                2.2934913846355727,
                -0.9533413643148043,
                0.908319353495305,
                3.1530077819139106
            ]
        },
        {
            "positions": [
                -0.2750488622779689,
                -1.3402977764414847,
                2.357879885476451,
                -0.9879157682881359,
                1.0640659348971306,
                3.1654704967413316
            ]
        },
        {
            "positions": [
                -0.34135892309551463,
                -1.3737662472702525,
                2.422268386317329,
                -1.0224901722614674,
                1.2198125162989566,
                3.177933211568753
            ]
        }
    ]
}