{
    "goal": {
        "global_pose": {
            "orientation": {
                "w": 0.005598929693374612,
                "x": 0.007748599140229565,
                "y": 0.7110244013736278,
                "z": -0.7031023480610252
            },
            "position": {
                "x": 0.1141497679147869,
                "y": -0.7141253447532654,
                "z": 0.3711530566215515
            }
        },
        "name": "move_to_auspresseinheit_B"
    },
    "id": "BKPIECE_move_to_auspresseinheit_B_64",
    "joint_names": [
        "shoulder_pan_joint",
        "shoulder_lift_joint",
        "elbow_joint",
        "wrist_1_joint",
        "wrist_2_joint",
        "wrist_3_joint"
    ],
    "metrics": {
        "cart_traj_len": 0.5638217074605372,
        "distance_elbow_joint": 0.06278502352941051,
        "distance_shoulder_lift_joint": 0.29536886672560403,
        "distance_shoulder_pan_joint": 0.5759831883522446,
        "distance_wrist_1_joint": 0.33131038124582646,
        "distance_wrist_2_joint": 0.9950278962511048,
        "distance_wrist_3_joint": 0.0023362867567500167,
        "smoothness": 2.5376526478085547e-16,
        "time": 0.191336479,
        "traj_len": 1.5042644856742915,
        "weighted_distance": 1.8957379813337527
    },
    "planner": "BKPIECE",
    "start": {
        "state": {
            "elbow_joint": 2.0193061681459312,
            "shoulder_lift_joint": -1.1220205130644991,
            "shoulder_pan_joint": -1.0952072088045026,
            "wrist_1_joint": -0.8559671810662515,
            "wrist_2_joint": 0.4759638712940361,
            "wrist_3_joint": 3.159081874192446
        }
    },
    "waypoints": [
        {
            "positions": [
                -1.0952072088045026,
                -1.1220205130644991,
                2.0193061681459312,
                -0.8559671810662515,
                0.4759638712940361,
                3.159081874192446
            ]
        },
        {
            "positions": [
                -1.1912044068632102,
                -1.1712486575187664,
                2.0088419975576963,
                -0.8007487841919471,
                0.6418018540025536,
                3.158692493066321
            ]
        },
        {
            "positions": [
                -1.2872016049219175,
                -1.2204768019730339,
                1.998377826969461,
                -0.7455303873176427,
                0.8076398367110711,
                3.158303111940196
            ]
        },
        {
            "positions": [
                -1.3831988029806248,
                -1.2697049464273011,
                1.987913656381226,
                -0.6903119904433382,
                0.9734778194195886,
                3.1579137308140712
            ]
        },
        {
            "positions": [
                -1.4791960010393324,
                -1.3189330908815684,
                1.977449485792991,
                -0.6350935935690338,
                1.139315802128106,
                3.157524349687946
            ]
        },
        {
            "positions": [
                -1.57519319909804,
                -1.368161235335836,
                1.9669853152047558,
                -0.5798751966947294,
                1.3051537848366235,
                3.157134968561821
            ]
        },
        {
            "positions": [
                -1.6711903971567472,
                -1.4173893797901032,
                1.9565211446165207,
                -0.524656799820425,
                1.470991767545141,
                3.156745587435696
            ]
        }
    ]
}