{
    "goal": {
        "global_pose": {
            "orientation": {
                "w": 0.7047431468963623,
                "x": -0.7094548344612122,
                "y": 0.0024358443915843964,
                "z": -0.0022348060738295317
            },
            "position": {
                "x": 0.6094750761985779,
                "y": 0.3671506643295288,
                "z": 0.19426114857196808
            }
        },
        "name": "move_to_magneteinheit_A"
    },
    "id": "BKPIECE_move_to_magneteinheit_A_31",
    "joint_names": [
        "shoulder_pan_joint",
        "shoulder_lift_joint",
        "elbow_joint",
        "wrist_1_joint",
        "wrist_2_joint",
        "wrist_3_joint"
    ],
    "metrics": {
        "cart_traj_len": 1.5919542248744283,
        "distance_elbow_joint": 3.5474614646897087,
        "distance_shoulder_lift_joint": 1.1464802037707817,
        "distance_shoulder_pan_joint": 1.2406044310490996,
        "distance_wrist_1_joint": 3.9390565298994504,
        "distance_wrist_2_joint": 1.6892728864702862,
        "distance_wrist_3_joint": 5.1252421588158,
        "smoothness": 5.248327055671331e-16,
        "time": 0.315491363,
        "traj_len": 4.085109261047386,
        "weighted_distance": 5.7067443791269
    },
    "planner": "BKPIECE",
    "start": {
        "state": {
            "elbow_joint": -1.5739458827952972,
            "shoulder_lift_joint": 0.006533473998580023,
            "shoulder_pan_joint": -1.1188671628667068,
            "wrist_1_joint": 3.138208179676308,
            "wrist_2_joint": -1.5706037135050406,
            "wrist_3_joint": -2.0226958329764257
        }
    },
    "waypoints": [
        {
            "positions": [
                -1.1188671628667068,
                0.006533473998580023,
                -1.5739458827952972,
                3.138208179676308,
                -1.5706037135050406,
                -2.0226958329764257
            ]
        },
        {
            "positions": [
                -1.0900158970283558,
                -0.020128856321670715,
                -1.491446778965304,
                3.046602213864693,
                -1.5313182975406152,
                -1.9035041548644305
            ]
        },
        {
            "positions": [
                -1.0611646311900045,
                -0.04679118664192145,
                -1.4089476751353107,
                2.954996248053078,
                -1.49203288157619,
                -1.784312476752435
            ]
        },
        {
            "positions": [
                -1.0323133653516534,
                -0.07345351696217219,
                -1.3264485713053176,
                2.863390282241463,
                -1.4527474656117647,
                -1.6651207986404397
            ]
        },
        {
            "positions": [
                -1.0034620995133023,
                -0.10011584728242293,
                -1.2439494674753244,
                2.771784316429848,
                -1.4134620496473396,
                -1.5459291205284444
            ]
        },
        {
            "positions": [
                -0.974610833674951,
                -0.12677817760267365,
                -1.161450363645331,
                2.6801783506182324,
                -1.3741766336829142,
                -1.426737442416449
            ]
        },
        {
            "positions": [
                -0.9457595678366,
                -0.15344050792292438,
                -1.078951259815338,
                2.5885723848066173,
                -1.334891217718489,
                -1.3075457643044537
            ]
        },
        {
            "positions": [
                -0.9169083019982488,
                -0.18010283824317513,
                -0.9964521559853446,
                2.4969664189950023,
                -1.2956058017540637,
                -1.1883540861924584
            ]
        },
        {
            "positions": [
                -0.8880570361598976,
                -0.20676516856342586,
                -0.9139530521553515,
                2.405360453183387,
                -1.2563203857896386,
                -1.0691624080804631
            ]
        },
        {
            "positions": [
                -0.8592057703215464,
                -0.23342749888367662,
                -0.8314539483253581,
                2.313754487371772,
                -1.2170349698252132,
                -0.9499707299684677
            ]
        },
        {
            "positions": [
                -0.8303545044831953,
                -0.26008982920392737,
                -0.748954844495365,
                2.222148521560157,
                -1.177749553860788,
                -0.8307790518564724
            ]
        },
        {
            "positions": [
                -0.8015032386448442,
                -0.28675215952417815,
                -0.6664557406653717,
                2.1305425557485416,
                -1.1384641378963627,
                -0.7115873737444769
            ]
        },
        {
            "positions": [
                -0.772651972806493,
                -0.3134144898444288,
                -0.5839566368353786,
                2.0389365899369265,
                -1.0991787219319376,
                -0.5923956956324816
            ]
        },
        {
            "positions": [
                -0.7438007069681418,
                -0.34007682016467955,
                -0.5014575330053854,
                1.9473306241253117,
                -1.0598933059675122,
                -0.47320401752048635
            ]
        },
        {
            "positions": [
                -0.7149494411297908,
                -0.36673915048493033,
                -0.41895842917539206,
                1.8557246583136964,
                -1.0206078900030868,
                -0.35401233940849086
            ]
        },
        {
            "positions": [
                -0.6860981752914395,
                -0.39340148080518106,
                -0.3364593253453989,
                1.7641186925020813,
                -0.9813224740386617,
                -0.2348206612964956
            ]
        },
        {
            "positions": [
                -0.6572469094530884,
                -0.4200638111254318,
                -0.25396022151540576,
                1.6725127266904662,
                -0.9420370580742364,
                -0.11562898318450032
            ]
        },
        {
            "positions": [
                -0.6283956436147373,
                -0.4467261414456825,
                -0.1714611176854124,
                1.5809067608788512,
                -0.9027516421098112,
                0.003562694927495169
            ]
        },
        {
            "positions": [
                -0.599544377776386,
                -0.4733884717659333,
                -0.08896201385541902,
                1.489300795067236,
                -0.8634662261453858,
                0.12275437303949044
            ]
        },
        {
            "positions": [
                -0.570693111938035,
                -0.500050802086184,
                -0.006462910025425872,
                1.3976948292556208,
                -0.8241808101809607,
                0.2419460511514857
            ]
        },
        {
            "positions": [
                -0.5418418460996838,
                -0.5267131324064347,
                0.07603619380456728,
                1.3060888634440058,
                -0.7848953942165354,
                0.361137729263481
            ]
        },
        {
            "positions": [
                -0.5129905802613327,
                -0.5533754627266854,
                0.15853529763456042,
                1.2144828976323907,
                -0.7456099782521102,
                0.48032940737547625
            ]
        },
        {
            "positions": [
                -0.4841393144229814,
                -0.5800377930469363,
                0.2410344014645538,
                1.1228769318207754,
                -0.7063245622876848,
                0.599521085487472
            ]
        },
        {
            "positions": [
                -0.45528804858463034,
                -0.6067001233671868,
                0.3235335052945467,
                1.0312709660091604,
                -0.6670391463232597,
                0.7187127635994668
            ]
        },
        {
            "positions": [
                -0.42643678274627916,
                -0.6333624536874376,
                0.4060326091245401,
                0.9396650001975453,
                -0.6277537303588343,
                0.8379044417114625
            ]
        },
        {
            "positions": [
                -0.397585516907928,
                -0.6600247840076884,
                0.48853171295453346,
                0.8480590343859298,
                -0.588468314394409,
                0.9570961198234578
            ]
        },
        {
            "positions": [
                -0.3687342510695769,
                -0.686687114327939,
                0.5710308167845264,
                0.7564530685743152,
                -0.5491828984299838,
                1.076287797935453
            ]
        },
        {
            "positions": [
                -0.33988298523122573,
                -0.7133494446481898,
                0.6535299206145198,
                0.6648471027626996,
                -0.5098974824655587,
                1.1954794760474483
            ]
        },
        {
            "positions": [
                -0.31103171939287455,
                -0.7400117749684406,
                0.7360290244445131,
                0.5732411369510846,
                -0.4706120665011333,
                1.314671154159444
            ]
        },
        {
            "positions": [
                -0.2821804535545235,
                -0.7666741052886913,
                0.818528128274506,
                0.4816351711394695,
                -0.43132665053670816,
                1.4338628322714388
            ]
        },
        {
            "positions": [
                -0.2533291877161722,
                -0.7933364356089421,
                0.9010272321044994,
                0.39002920532785446,
                -0.3920412345722828,
                1.5530545103834346
            ]
        },
        {
            "positions": [
                -0.22447792187782123,
                -0.8199987659291927,
                0.9835263359344923,
                0.2984232395162394,
                -0.35275581860785765,
                1.6722461884954294
            ]
        },
        {
            "positions": [
                -0.19562665603946994,
                -0.8466610962494435,
                1.0660254397644857,
                0.20681727370462433,
                -0.3134704026434323,
                1.791437866607425
            ]
        },
        {
            "positions": [
                -0.16677539020111876,
                -0.8733234265696943,
                1.1485245435944795,
                0.11521130789300882,
                -0.2741849866790069,
                1.9106295447194208
            ]
        },
        {
            "positions": [
                -0.13792412436276769,
                -0.899985756889945,
                1.2310236474244725,
                0.0236053420813942,
                -0.23489957071458178,
                2.029821222831416
            ]
        },
        {
            "positions": [
                -0.1090728585244165,
                -0.9266480872101958,
                1.3135227512544658,
                -0.06800062373022131,
                -0.19561415475015642,
                2.149012900943411
            ]
        },
        {
            "positions": [
                -0.08022159268606521,
                -0.9533104175304465,
                1.3960218550844592,
                -0.15960658954183637,
                -0.15632873878573106,
                2.2682045790554066
            ]
        },
        {
            "positions": [
                -0.05137032684771414,
                -0.9799727478506972,
                1.4785209589144521,
                -0.25121255535345144,
                -0.11704332282130592,
                2.3873962571674014
            ]
        },
        {
            "positions": [
                -0.022519061009363073,
                -1.006635078170948,
                1.5610200627444455,
                -0.3428185211650665,
                -0.07775790685688078,
                2.506587935279397
            ]
        },
        {
            "positions": [
                0.006332204828987997,
                -1.0332974084911988,
                1.6435191665744384,
                -0.43442448697668157,
                -0.038472490892455635,
                2.625779613391392
            ]
        },
        {
            "positions": [
                0.03518347066733929,
                -1.0599597388114494,
                1.7260182704044318,
                -0.5260304527882966,
                0.0008129250719697279,
                2.7449712915033877
            ]
        },
        {
            "positions": [
                0.06403473650569036,
                -1.0866220691317003,
                1.8085173742344252,
                -0.6176364185999121,
                0.04009834103639509,
                2.8641629696153834
            ]
        },
        {
            "positions": [
                0.09288600234404143,
                -1.1132843994519508,
                1.891016478064418,
                -0.7092423844115268,
                0.07938375700082023,
                2.9833546477273782
            ]
        },
        {
            "positions": [
                0.1217372681823927,
                -1.1399467297722017,
                1.9735155818944115,
                -0.8008483502231423,
                0.11866917296524568,
                3.1025463258393735
            ]
        }
    ]
}