{
    "goal": {
        "global_pose": {
            "orientation": {
                "w": -0.00223480608172531,
                "x": 0.0024358444001904467,
                "y": 0.7094548369677653,
                "z": -0.704743149386269
            },
            "position": {
                "x": 0.6205249238014221,
                "y": -0.6371506643295288,
                "z": 0.19426114857196808
            }
        },
        "name": "move_to_magneteinheit_B"
    },
    "id": "BKPIECE_move_to_magneteinheit_B_73",
    "joint_names": [
        "shoulder_pan_joint",
        "shoulder_lift_joint",
        "elbow_joint",
        "wrist_1_joint",
        "wrist_2_joint",
        "wrist_3_joint"
    ],
    "metrics": {
        "cart_traj_len": 1.4525101018757622,
        "distance_elbow_joint": 0.7274040429513275,
        "distance_shoulder_lift_joint": 1.2472150036074057,
        "distance_shoulder_pan_joint": 1.621144211943233,
        "distance_wrist_1_joint": 2.610231571118211,
        "distance_wrist_2_joint": 2.9378392279126797,
        "distance_wrist_3_joint": 3.134629439486581,
        "smoothness": 4.718447868532788e-16,
        "time": 0.327828438,
        "traj_len": 3.5040638545864766,
        "weighted_distance": 4.908746599186344
    },
    "planner": "BKPIECE",
    "start": {
        "state": {
            "elbow_joint": 2.393587130804639,
            "shoulder_lift_joint": -1.9085141043513325,
            "shoulder_pan_joint": 0.7066247066698809,
            "wrist_1_joint": -0.4678290934590222,
            "wrist_2_joint": 0.7096259084215963,
            "wrist_3_joint": 3.147370379541726
        }
    },
    "waypoints": [
        {
            "positions": [
                0.7066247066698809,
                -1.9085141043513325,
                2.393587130804639,
                -0.4678290934590222,
                0.7096259084215963,
                3.147370379541726
            ]
        },
        {
            "positions": [
                0.6543297320910669,
                -1.8682813622994807,
                2.3701224842578217,
                -0.38362807503585405,
                0.6148569010695745,
                3.0462533008486106
            ]
        },
        {
            "positions": [
                0.6020347575122529,
                -1.828048620247629,
                2.3466578377110046,
                -0.299427056612686,
                0.5200878937175525,
                2.945136222155495
            ]
        },
        {
            "positions": [
                0.549739782933439,
                -1.7878158781957771,
                2.323193191164188,
                -0.21522603818951785,
                0.4253188863655306,
                2.8440191434623796
            ]
        },
        {
            "positions": [
                0.497444808354625,
                -1.7475831361439254,
                2.2997285446173708,
                -0.13102501976634973,
                0.3305498790135087,
                2.742902064769264
            ]
        },
        {
            "positions": [
                0.445149833775811,
                -1.7073503940920736,
                2.2762638980705536,
                -0.0468240013431816,
                0.2357808716614868,
                2.6417849860761486
            ]
        },
        {
            "positions": [
                0.39285485919699703,
                -1.6671176520402218,
                2.2527992515237365,
                0.037377017079986474,
                0.14101186430946488,
                2.540667907383033
            ]
        },
        {
            "positions": [
                0.3405598846181831,
                -1.62688490998837,
                2.22933460497692,
                0.12157803550315466,
                0.04624285695744301,
                2.4395508286899172
            ]
        },
        {
            "positions": [
                0.2882649100393691,
                -1.5866521679365182,
                2.2058699584301027,
                0.20577905392632273,
                -0.04852615039457897,
                2.3384337499968018
            ]
        },
        {
            "positions": [
                0.2359699354605551,
                -1.5464194258846664,
                2.1824053118832856,
                0.2899800723494909,
                -0.14329515774660095,
                2.2373166713036863
            ]
        },
        {
            "positions": [
                0.18367496088174118,
                -1.5061866838328146,
                2.1589406653364684,
                0.374181090772659,
                -0.23806416509862272,
                2.136199592610571
            ]
        },
        {
            "positions": [
                0.13137998630292713,
                -1.4659539417809628,
                2.1354760187896518,
                0.45838210919582717,
                -0.3328331724506448,
                2.0350825139174553
            ]
        },
        {
            "positions": [
                0.0790850117241132,
                -1.425721199729111,
                2.1120113722428346,
                0.5425831276189952,
                -0.42760217980266657,
                1.93396543522434
            ]
        },
        {
            "positions": [
                0.02679003714529926,
                -1.3854884576772593,
                2.0885467256960175,
                0.6267841460421635,
                -0.5223711871546886,
                1.8328483565312244
            ]
        },
        {
            "positions": [
                -0.025504937433514674,
                -1.3452557156254072,
                2.0650820791492004,
                0.7109851644653316,
                -0.6171401945067103,
                1.7317312778381089
            ]
        },
        {
            "positions": [
                -0.07779991201232872,
                -1.3050229735735557,
                2.0416174326023837,
                0.7951861828884996,
                -0.7119092018587323,
                1.6306141991449934
            ]
        },
        {
            "positions": [
                -0.13009488659114266,
                -1.2647902315217037,
                2.0181527860555666,
                0.8793872013116677,
                -0.8066782092107543,
                1.529497120451878
            ]
        },
        {
            "positions": [
                -0.1823898611699566,
                -1.224557489469852,
                1.9946881395087495,
                0.9635882197348358,
                -0.901447216562776,
                1.4283800417587624
            ]
        },
        {
            "positions": [
                -0.23468483574877064,
                -1.184324747418,
                1.9712234929619323,
                1.047789238158004,
                -0.9962162239147982,
                1.3272629630656467
            ]
        },
        {
            "positions": [
                -0.2869798103275846,
                -1.1440920053661485,
                1.9477588464151154,
                1.1319902565811721,
                -1.09098523126682,
                1.2261458843725312
            ]
        },
        {
            "positions": [
                -0.3392747849063985,
                -1.1038592633142965,
                1.9242941998682985,
                1.2161912750043402,
                -1.1857542386188418,
                1.125028805679416
            ]
        },
        {
            "positions": [
                -0.39156975948521244,
                -1.063626521262445,
                1.9008295533214814,
                1.3003922934275083,
                -1.2805232459708638,
                1.0239117269863005
            ]
        },
        {
            "positions": [
                -0.4438647340640266,
                -1.023393779210593,
                1.8773649067746643,
                1.3845933118506766,
                -1.375292253322886,
                0.9227946482931846
            ]
        },
        {
            "positions": [
                -0.49615970864284054,
                -0.9831610371587411,
                1.8539002602278474,
                1.4687943302738447,
                -1.4700612606749075,
                0.8216775696000691
            ]
        },
        {
            "positions": [
                -0.5484546832216545,
                -0.9429282951068895,
                1.8304356136810305,
                1.5529953486970125,
                -1.5648302680269295,
                0.7205604909069541
            ]
        },
        {
            "positions": [
                -0.6007496578004684,
                -0.9026955530550376,
                1.8069709671342133,
                1.6371963671201806,
                -1.6595992753789515,
                0.6194434122138386
            ]
        },
        {
            "positions": [
                -0.6530446323792823,
                -0.8624628110031858,
                1.7835063205873962,
                1.721397385543349,
                -1.7543682827309734,
                0.5183263335207227
            ]
        },
        {
            "positions": [
                -0.7053396069580963,
                -0.822230068951334,
                1.7600416740405793,
                1.8055984039665172,
                -1.8491372900829954,
                0.4172092548276072
            ]
        },
        {
            "positions": [
                -0.7576345815369102,
                -0.7819973268994822,
                1.7365770274937624,
                1.8897994223896852,
                -1.943906297435017,
                0.3160921761344917
            ]
        },
        {
            "positions": [
                -0.8099295561157241,
                -0.7417645848476304,
                1.7131123809469453,
                1.9740004408128529,
                -2.0386753047870387,
                0.21497509744137666
            ]
        },
        {
            "positions": [
                -0.8622245306945383,
                -0.7015318427957786,
                1.6896477344001282,
                2.058201459236021,
                -2.133444312139061,
                0.11385801874826074
            ]
        },
        {
            "positions": [
                -0.9145195052733522,
                -0.6612991007439267,
                1.6661830878533113,
                2.1424024776591892,
                -2.228213319491083,
                0.012740940055145158
            ]
        }
    ]
}