{
    "goal": {
        "global_pose": {
            "orientation": {
                "w": 0.5084816262002911,
                "x": -0.4908360881923452,
                "y": 0.5182115481033761,
                "z": -0.48164630358495003
            },
            "position": {
                "x": 0.5540239810943604,
                "y": -0.46912469901144505,
                "z": 0.16403168439865112
            }
        },
        "name": "move_to_storage_B"
    },
    "id": "BKPIECE_move_to_storage_B_148",
    "joint_names": [
        "shoulder_pan_joint",
        "shoulder_lift_joint",
        "elbow_joint",
        "wrist_1_joint",
        "wrist_2_joint",
        "wrist_3_joint"
    ],
    "metrics": {
        "cart_traj_len": 0.7319899988708083,
        "distance_elbow_joint": 0.3486441183358353,
        "distance_shoulder_lift_joint": 0.45982796195236997,
        "distance_shoulder_pan_joint": 0.5385785589710355,
        "distance_wrist_1_joint": 2.9799858667172723,
        "distance_wrist_2_joint": 2.704434740708293,
        "distance_wrist_3_joint": 3.141649003702459,
        "smoothness": 0.049738150497993246,
        "time": 0.20129631,
        "traj_len": 3.189532920411273,
        "weighted_distance": 4.705405281717798
    },
    "planner": "BKPIECE",
    "start": {
        "state": {
            "elbow_joint": 1.6649325340416963,
            "shoulder_lift_joint": -0.6616387945129425,
            "shoulder_pan_joint": -0.9139837929255878,
            "wrist_1_joint": 2.1467571094334352,
            "wrist_2_joint": -2.234195976750228,
            "wrist_3_joint": 0.005470921511140723
        }
    },
    "waypoints": [
        {
            "positions": [
                -0.9139837929255878,
                -0.6616387945129425,
                1.6649325340416963,
                2.1467571094334352,
                -2.234195976750228,
                0.005470921511140723
            ]
        },
        {
            "positions": [
                -0.8248604197605893,
                -0.6986055219800339,
                1.6822591082676914,
                2.0705592167251075,
                -2.197953246754819,
                -0.03417716982834619
            ]
        },
        {
            "positions": [
                -0.7357370465955909,
                -0.7355722494471253,
                1.6995856824936864,
                1.9943613240167795,
                -2.1617105167594097,
                -0.07382526116783311
            ]
        },
        {
            "positions": [
                -0.7501503191012324,
                -0.7510080297278527,
                1.71214532128904,
                1.8812577207647547,
                -2.056432545530711,
                -0.19631937400877253
            ]
        },
        {
            "positions": [
                -0.764563591606874,
                -0.7664438100085803,
                1.724704960084394,
                1.7681541175127302,
                -1.9511545743020118,
                -0.31881348684971195
            ]
        },
        {
            "positions": [
                -0.7789768641125155,
                -0.7818795902893078,
                1.7372645988797477,
                1.6550505142607055,
                -1.8458766030733127,
                -0.44130759969065136
            ]
        },
        {
            "positions": [
                -0.793390136618157,
                -0.7973153705700352,
                1.7498242376751016,
                1.5419469110086808,
                -1.7405986318446138,
                -0.5638017125315908
            ]
        },
        {
            "positions": [
                -0.8078034091237987,
                -0.8127511508507628,
                1.7623838764704554,
                1.4288433077566562,
                -1.6353206606159147,
                -0.6862958253725302
            ]
        },
        {
            "positions": [
                -0.8222166816294402,
                -0.8281869311314902,
                1.7749435152658093,
                1.3157397045046315,
                -1.5300426893872157,
                -0.8087899382134696
            ]
        },
        {
            "positions": [
                -0.8366299541350817,
                -0.8436227114122177,
                1.787503154061163,
                1.2026361012526068,
                -1.4247647181585168,
                -0.9312840510544091
            ]
        },
        {
            "positions": [
                -0.8510432266407233,
                -0.8590584916929452,
                1.800062792856517,
                1.089532498000582,
                -1.319486746929818,
                -1.0537781638953485
            ]
        },
        {
            "positions": [
                -0.8654564991463648,
                -0.8744942719736727,
                1.8126224316518706,
                0.9764288947485575,
                -1.2142087757011188,
                -1.1762722767362879
            ]
        },
        {
            "positions": [
                -0.8798697716520063,
                -0.8899300522544001,
                1.8251820704472244,
                0.8633252914965328,
                -1.1089308044724198,
                -1.2987663895772275
            ]
        },
        {
            "positions": [
                -0.8942830441576479,
                -0.9053658325351277,
                1.8377417092425783,
                0.7502216882445081,
                -1.003652833243721,
                -1.4212605024181668
            ]
        },
        {
            "positions": [
                -0.9086963166632894,
                -0.9208016128158552,
                1.850301348037932,
                0.6371180849924836,
                -0.8983748620150218,
                -1.5437546152591062
            ]
        },
        {
            "positions": [
                -0.9231095891689309,
                -0.9362373930965826,
                1.862860986833286,
                0.5240144817404586,
                -0.793096890786323,
                -1.6662487281000455
            ]
        },
        {
            "positions": [
                -0.9375228616745725,
                -0.9516731733773102,
                1.8754206256286396,
                0.4109108784884339,
                -0.6878189195576239,
                -1.7887428409409851
            ]
        },
        {
            "positions": [
                -0.951936134180214,
                -0.9671089536580376,
                1.8879802644239936,
                0.2978072752364094,
                -0.582540948328925,
                -1.9112369537819243
            ]
        },
        {
            "positions": [
                -0.9663494066858556,
                -0.9825447339387651,
                1.9005399032193473,
                0.18470367198438464,
                -0.4772629771002259,
                -2.0337310666228636
            ]
        },
        {
            "positions": [
                -0.9807626791914972,
                -0.9979805142194926,
                1.913099542014701,
                0.07160006873235991,
                -0.37198500587152683,
                -2.156225179463803
            ]
        },
        {
            "positions": [
                -0.9951759516971386,
                -1.01341629450022,
                1.925659180810055,
                -0.041503534519664376,
                -0.26670703464282797,
                -2.2787192923047423
            ]
        },
        {
            "positions": [
                -1.0095892242027802,
                -1.0288520747809475,
                1.9382188196054086,
                -0.15460713777168933,
                -0.1614290634141291,
                -2.4012134051456817
            ]
        },
        {
            "positions": [
                -1.0240024967084218,
                -1.044287855061675,
                1.9507784584007626,
                -0.26771074102371384,
                -0.056151092185429796,
                -2.5237075179866215
            ]
        },
        {
            "positions": [
                -1.0384157692140632,
                -1.0597236353424024,
                1.9633380971961163,
                -0.38081434427573835,
                0.04912687904326907,
                -2.6462016308275604
            ]
        },
        {
            "positions": [
                -1.0528290417197048,
                -1.0751594156231299,
                1.9758977359914702,
                -0.4939179475277633,
                0.15440485027196793,
                -2.7686957436685002
            ]
        },
        {
            "positions": [
                -1.0672423142253464,
                -1.0905951959038576,
                1.988457374786824,
                -0.6070215507797883,
                0.25968282150066724,
                -2.8911898565094396
            ]
        },
        {
            "positions": [
                -1.0816555867309878,
                -1.106030976184585,
                2.0010170135821777,
                -0.7201251540318123,
                0.3649607927293661,
                -3.013683969350379
            ]
        },
        {
            "positions": [
                -1.0960688592366294,
                -1.1214667564653125,
                2.0135766523775316,
                -0.8332287572838372,
                0.47023876395806496,
                -3.1361780821913183
            ]
        }
    ]
}