{
    "goal": {
        "global_pose": {
            "orientation": {
                "w": 0.7031023502349854,
                "x": -0.7110244035720825,
                "y": 0.007748599164187908,
                "z": 0.005598929710686207
            },
            "position": {
                "x": 0.11585023208521307,
                "y": 0.44412534475326537,
                "z": 0.3711530566215515
            }
        },
        "name": "move_to_auspresseinheit_A"
    },
    "id": "BKPIECE_move_to_auspresseinheit_A_60",
    "joint_names": [
        "shoulder_pan_joint",
        "shoulder_lift_joint",
        "elbow_joint",
        "wrist_1_joint",
        "wrist_2_joint",
        "wrist_3_joint"
    ],
    "metrics": {
        "cart_traj_len": 3.963067061011502,
        "distance_elbow_joint": 1.720175037518909,
        "distance_shoulder_lift_joint": 2.195049356051165,
        "distance_shoulder_pan_joint": 5.006516855035633,
        "distance_wrist_1_joint": 5.5591594705605525,
        "distance_wrist_2_joint": 1.2203556768322172,
        "distance_wrist_3_joint": 4.589152506283583,
        "smoothness": 0.6204579839732538,
        "time": 0.453924484,
        "traj_len": 4.504487640373993,
        "weighted_distance": 6.020650219223998
    },
    "planner": "BKPIECE",
    "start": {
        "state": {
            "elbow_joint": 2.4225746994637096,
            "shoulder_lift_joint": -1.373653595662188,
            "shoulder_pan_joint": -0.3378633848294565,
            "wrist_1_joint": -1.0288595594406726,
            "wrist_2_joint": 1.2330228066703421,
            "wrist_3_joint": 3.189163495502006
        }
    },
    "waypoints": [
        {
            "positions": [
                -0.3378633848294565,
                -1.373653595662188,
                2.4225746994637096,
                -1.0288595594406726,
                1.2330228066703421,
                3.189163495502006
            ]
        },
        {
            "positions": [
                -0.38229986454333165,
                -1.3803906780420228,
                2.325259347934244,
                -0.9360210118975948,
                1.1624653142155124,
                3.1064591660014234
            ]
        },
        {
            "positions": [
                -0.42673634425720675,
                -1.3871277604218577,
                2.227943996404779,
                -0.8431824643545169,
                1.0919078217606828,
                3.0237548365008404
            ]
        },
        {
            "positions": [
                -0.47117282397108184,
                -1.3938648428016924,
                2.1306286448753133,
                -0.7503439168114392,
                1.021350329305853,
                2.941050507000258
            ]
        },
        {
            "positions": [
                -0.5156093036849569,
                -1.4006019251815274,
                2.0333132933458478,
                -0.6575053692683613,
                0.9507928368510234,
                2.858346177499675
            ]
        },
        {
            "positions": [
                -0.5600457833988322,
                -1.407339007561362,
                1.9359979418163824,
                -0.5646668217252835,
                0.8802353443961937,
                2.7756418479990925
            ]
        },
        {
            "positions": [
                -0.6044822631127073,
                -1.414076089941197,
                1.838682590286917,
                -0.47182827418220574,
                0.8096778519413641,
                2.6929375184985096
            ]
        },
        {
            "positions": [
                -0.6489187428265824,
                -1.4208131723210318,
                1.7413672387574515,
                -0.3789897266391278,
                0.7391203594865343,
                2.610233188997927
            ]
        },
        {
            "positions": [
                -0.6933552225404576,
                -1.4275502547008667,
                1.6440518872279863,
                -0.28615117909605003,
                0.6685628670317046,
                2.5275288594973446
            ]
        },
        {
            "positions": [
                -0.7377917022543327,
                -1.4342873370807014,
                1.5467365356985208,
                -0.19331263155297218,
                0.598005374576875,
                2.4448245299967617
            ]
        },
        {
            "positions": [
                -0.6062239662185231,
                -1.4909598034464235,
                1.562541110477669,
                -0.09630266421970243,
                0.5877624803638285,
                2.3764294105701196
            ]
        },
        {
            "positions": [
                -0.4746562301827136,
                -1.5476322698121456,
                1.5783456852568174,
                0.0007073031135673147,
                0.5775195861507819,
                2.3080342911434775
            ]
        },
        {
            "positions": [
                -0.343088494146904,
                -1.6043047361778677,
                1.5941502600359656,
                0.09771727044683709,
                0.5672766919377354,
                2.239639171716835
            ]
        },
        {
            "positions": [
                -0.2115207581110945,
                -1.6609772025435898,
                1.609954834815114,
                0.1947272377801068,
                0.5570337977246889,
                2.171244052290193
            ]
        },
        {
            "positions": [
                -0.07995302207528499,
                -1.717649668909312,
                1.6257594095942622,
                0.2917372051133766,
                0.5467909035116424,
                2.1028489328635507
            ]
        },
        {
            "positions": [
                0.05161471396052464,
                -1.774322135275034,
                1.6415639843734107,
                0.38874717244664636,
                0.5365480092985958,
                2.034453813436908
            ]
        },
        {
            "positions": [
                0.18318244999633426,
                -1.8309946016407563,
                1.6573685591525589,
                0.4857571397799162,
                0.5263051150855493,
                1.966058694010266
            ]
        },
        {
            "positions": [
                0.31475018603214366,
                -1.8876670680064782,
                1.6731731339317073,
                0.5827671071131858,
                0.5160622208725028,
                1.897663574583624
            ]
        },
        {
            "positions": [
                0.4463179220679533,
                -1.9443395343722005,
                1.6889777087108555,
                0.6797770744464556,
                0.5058193266594563,
                1.8292684551569816
            ]
        },
        {
            "positions": [
                0.5778856581037627,
                -2.0010120007379224,
                1.704782283490004,
                0.7767870417797254,
                0.4955764324464097,
                1.7608733357303394
            ]
        },
        {
            "positions": [
                0.7094533941395723,
                -2.0576844671036447,
                1.7205868582691521,
                0.8737970091129951,
                0.4853335382333632,
                1.692478216303697
            ]
        },
        {
            "positions": [
                0.8410211301753819,
                -2.1143569334693666,
                1.7363914330483006,
                0.9708069764462649,
                0.47509064402031664,
                1.624083096877055
            ]
        },
        {
            "positions": [
                0.9725888662111913,
                -2.171029399835089,
                1.7521960078274488,
                1.0678169437795346,
                0.46484774980727017,
                1.5556879774504129
            ]
        },
        {
            "positions": [
                1.1041566022470013,
                -2.2277018662008112,
                1.7680005826065972,
                1.1648269111128045,
                0.4546048555942236,
                1.4872928580237703
            ]
        },
        {
            "positions": [
                1.2357243382828105,
                -2.284374332566533,
                1.7838051573857454,
                1.2618368784460743,
                0.4443619613811771,
                1.4188977385971282
            ]
        },
        {
            "positions": [
                1.36729207431862,
                -2.341046798932255,
                1.7996097321648938,
                1.3588468457793437,
                0.4341190671681306,
                1.350502619170486
            ]
        },
        {
            "positions": [
                1.4988598103544297,
                -2.3977192652979773,
                1.815414306944042,
                1.4558568131126135,
                0.42387617295508406,
                1.2821074997438437
            ]
        },
        {
            "positions": [
                1.6304275463902393,
                -2.4543917316636996,
                1.8312188817231905,
                1.5528667804458833,
                0.4136332787420375,
                1.2137123803172014
            ]
        },
        {
            "positions": [
                1.761995282426049,
                -2.5110641980294215,
                1.8470234565023387,
                1.6498767477791532,
                0.403390384528991,
                1.1453172608905593
            ]
        },
        {
            "positions": [
                1.8935630184618581,
                -2.5677366643951434,
                1.862828031281487,
                1.746886715112423,
                0.3931474903159445,
                1.0769221414639172
            ]
        },
        {
            "positions": [
                2.0251307544976678,
                -2.6244091307608657,
                1.8786326060606353,
                1.8438966824456924,
                0.38290459610289795,
                1.0085270220372748
            ]
        },
        {
            "positions": [
                2.1566984905334774,
                -2.681081597126588,
                1.8944371808397835,
                1.9409066497789622,
                0.3726617018898514,
                0.9401319026106325
            ]
        },
        {
            "positions": [
                2.288266226569287,
                -2.73775406349231,
                1.910241755618932,
                2.037916617112232,
                0.3624188076768049,
                0.8717367831839904
            ]
        },
        {
            "positions": [
                2.2130028642460897,
                -2.698185068815117,
                1.9331385010395656,
                1.9192316983499633,
                0.37907364947864675,
                0.9799142019442555
            ]
        },
        {
            "positions": [
                2.1377395019228924,
                -2.658616074137925,
                1.9560352464601996,
                1.8005467795876946,
                0.39572849128048865,
                1.0880916207045206
            ]
        },
        {
            "positions": [
                2.0624761395996956,
                -2.6190470794607323,
                1.9789319918808332,
                1.6818618608254259,
                0.4123833330823305,
                1.1962690394647857
            ]
        },
        {
            "positions": [
                1.9872127772764983,
                -2.5794780847835397,
                2.001828737301467,
                1.5631769420631572,
                0.4290381748841724,
                1.3044464582250508
            ]
        },
        {
            "positions": [
                1.911949414953301,
                -2.539909090106347,
                2.0247254827221006,
                1.4444920233008884,
                0.44569301668601424,
                1.4126238769853159
            ]
        },
        {
            "positions": [
                1.8366860526301039,
                -2.500340095429155,
                2.0476222281427345,
                1.3258071045386197,
                0.46234785848785614,
                1.520801295745581
            ]
        },
        {
            "positions": [
                1.7614226903069068,
                -2.460771100751962,
                2.0705189735633684,
                1.207122185776351,
                0.479002700289698,
                1.628978714505846
            ]
        },
        {
            "positions": [
                1.6861593279837095,
                -2.4212021060747695,
                2.093415718984002,
                1.0884372670140823,
                0.4956575420915399,
                1.7371561332661112
            ]
        },
        {
            "positions": [
                1.6108959656605122,
                -2.3816331113975773,
                2.116312464404636,
                0.9697523482518136,
                0.5123123838933817,
                1.8453335520263763
            ]
        },
        {
            "positions": [
                1.535632603337315,
                -2.3420641167203846,
                2.1392092098252697,
                0.8510674294895448,
                0.5289672256952236,
                1.9535109707866416
            ]
        },
        {
            "positions": [
                1.4603692410141178,
                -2.302495122043192,
                2.162105955245903,
                0.7323825107272759,
                0.5456220674970655,
                2.061688389546907
            ]
        },
        {
            "positions": [
                1.3851058786909207,
                -2.2629261273659997,
                2.185002700666537,
                0.6136975919650074,
                0.5622769092989074,
                2.169865808307172
            ]
        },
        {
            "positions": [
                1.3098425163677234,
                -2.223357132688807,
                2.207899446087171,
                0.49501267320273845,
                0.5789317511007492,
                2.278043227067437
            ]
        },
        {
            "positions": [
                1.2345791540445263,
                -2.1837881380116144,
                2.2307961915078045,
                0.37632775444046995,
                0.5955865929025911,
                2.386220645827702
            ]
        },
        {
            "positions": [
                1.159315791721329,
                -2.1442191433344218,
                2.2536929369284384,
                0.257642835678201,
                0.6122414347044329,
                2.4943980645879673
            ]
        },
        {
            "positions": [
                1.084052429398132,
                -2.1046501486572295,
                2.2765896823490723,
                0.1389579169159325,
                0.6288962765062749,
                2.6025754833482324
            ]
        },
        {
            "positions": [
                1.0087890670749347,
                -2.065081153980037,
                2.299486427769706,
                0.02027299815366357,
                0.6455511183081167,
                2.7107529021084975
            ]
        },
        {
            "positions": [
                0.9335257047517376,
                -2.0255121593028442,
                2.3223831731903397,
                -0.09841192060860493,
                0.6622059601099586,
                2.8189303208687626
            ]
        },
        {
            "positions": [
                0.8582623424285403,
                -1.9859431646256518,
                2.3452799186109736,
                -0.21709683937087387,
                0.6788608019118005,
                2.9271077396290277
            ]
        },
        {
            "positions": [
                0.7829989801053432,
                -1.9463741699484594,
                2.368176664031607,
                -0.33578175813314237,
                0.6955156437136423,
                3.035285158389293
            ]
        },
        {
            "positions": [
                0.7077356177821459,
                -1.9068051752712667,
                2.391073409452241,
                -0.4544666768954115,
                0.7121704855154842,
                3.143462577149558
            ]
        }
    ]
}