{
    "goal": {
        "global_pose": {
            "orientation": {
                "w": 0.5084816262002911,
                "x": -0.4908360881923452,
                "y": 0.5182115481033761,
                "z": -0.48164630358495003
            },
            "position": {
                "x": 0.5540239810943604,
                "y": -0.46912469901144505,
                "z": 0.16403168439865112
            }
        },
        "name": "move_to_storage_B"
    },
    "id": "KPIECE_move_to_storage_B_8",
    "joint_names": [
        "shoulder_pan_joint",
        "shoulder_lift_joint",
        "elbow_joint",
        "wrist_1_joint",
        "wrist_2_joint",
        "wrist_3_joint"
    ],
    "metrics": {
        "cart_traj_len": 0.9001923521973364,
        "distance_elbow_joint": 0.3487004883175262,
        "distance_shoulder_lift_joint": 0.45813515733312604,
        "distance_shoulder_pan_joint": 0.7425233952692973,
        "distance_wrist_1_joint": 2.9792964511252493,
        "distance_wrist_2_joint": 2.7050287452753876,
        "distance_wrist_3_joint": 3.45526317129544,
        "smoothness": 0.18418457771964739,
        "time": 0.09837758899999999,
        "traj_len": 3.2693955723674715,
        "weighted_distance": 4.825328895278284
    },
    "planner": "KPIECE",
    "start": {
        "state": {
            "elbow_joint": 1.6649325340416963,
            "shoulder_lift_joint": -0.6616387945129425,
            "shoulder_pan_joint": -0.9139837929255878,
            "wrist_1_joint": 2.1467571094334352,
            "wrist_2_joint": -2.234195976750228,
            "wrist_3_joint": 0.005470921511140723
        }
    },
    "waypoints": [
        {
            "positions": [
                -0.9139837929255878,
                -0.6616387945129425,
                1.6649325340416963,
                2.1467571094334352,
                -2.234195976750228,
                0.005470921511140723
            ]
        },
        {
            "positions": [
                -0.8438602038879399,
                -0.7309118831108241,
                1.6996104881889837,
                2.068240991916699,
                -2.1904701590245303,
                0.04470600348879546
            ]
        },
        {
            "positions": [
                -0.7737366148502919,
                -0.8001849717087057,
                1.7342884423362714,
                1.9897248743999623,
                -2.1467443412988327,
                0.08394108546645018
            ]
        },
        {
            "positions": [
                -0.7036130258126438,
                -0.8694580603065875,
                1.768966396483559,
                1.9112087568832257,
                -2.1030185235731347,
                0.12317616744410491
            ]
        },
        {
            "positions": [
                -0.6334894367749959,
                -0.9387311489044691,
                1.8036443506308464,
                1.8326926393664893,
                -2.059292705847437,
                0.16241124942175966
            ]
        },
        {
            "positions": [
                -0.6527406467382753,
                -0.9462745990270357,
                1.8123938786195288,
                1.7216413068223932,
                -1.9538708110819123,
                0.024981130947392127
            ]
        },
        {
            "positions": [
                -0.6719918567015547,
                -0.9538180491496023,
                1.821143406608211,
                1.6105899742782974,
                -1.8484489163163873,
                -0.11244898752697541
            ]
        },
        {
            "positions": [
                -0.6912430666648341,
                -0.961361499272169,
                1.8298929345968933,
                1.4995386417342016,
                -1.7430270215508625,
                -0.249879106001343
            ]
        },
        {
            "positions": [
                -0.7104942766281135,
                -0.9689049493947357,
                1.8386424625855757,
                1.3884873091901055,
                -1.6376051267853375,
                -0.3873092244757105
            ]
        },
        {
            "positions": [
                -0.7297454865913928,
                -0.9764483995173023,
                1.8473919905742582,
                1.2774359766460095,
                -1.5321832320198128,
                -0.5247393429500782
            ]
        },
        {
            "positions": [
                -0.7489966965546723,
                -0.983991849639869,
                1.8561415185629404,
                1.1663846441019137,
                -1.426761337254288,
                -0.6621694614244457
            ]
        },
        {
            "positions": [
                -0.7682479065179517,
                -0.9915352997624356,
                1.8648910465516229,
                1.0553333115578178,
                -1.321339442488763,
                -0.7995995798988133
            ]
        },
        {
            "positions": [
                -0.787499116481231,
                -0.9990787498850022,
                1.873640574540305,
                0.9442819790137218,
                -1.2159175477232382,
                -0.9370296983731806
            ]
        },
        {
            "positions": [
                -0.8067503264445104,
                -1.0066222000075689,
                1.8823901025289875,
                0.8332306464696259,
                -1.1104956529577132,
                -1.0744598168475483
            ]
        },
        {
            "positions": [
                -0.8260015364077898,
                -1.0141656501301355,
                1.8911396305176698,
                0.7221793139255299,
                -1.0050737581921885,
                -1.2118899353219161
            ]
        },
        {
            "positions": [
                -0.8452527463710693,
                -1.0217091002527021,
                1.899889158506352,
                0.6111279813814341,
                -0.8996518634266637,
                -1.3493200537962835
            ]
        },
        {
            "positions": [
                -0.8645039563343486,
                -1.0292525503752687,
                1.9086386864950344,
                0.500076648837338,
                -0.7942299686611387,
                -1.4867501722706509
            ]
        },
        {
            "positions": [
                -0.883755166297628,
                -1.0367960004978354,
                1.9173882144837167,
                0.3890253162932422,
                -0.6888080738956139,
                -1.6241802907450182
            ]
        },
        {
            "positions": [
                -0.9030063762609074,
                -1.044339450620402,
                1.926137742472399,
                0.27797398374914617,
                -0.5833861791300889,
                -1.761610409219386
            ]
        },
        {
            "positions": [
                -0.9222575862241869,
                -1.0518829007429686,
                1.9348872704610813,
                0.16692265120505034,
                -0.4779642843645642,
                -1.8990405276937534
            ]
        },
        {
            "positions": [
                -0.9415087961874662,
                -1.0594263508655355,
                1.9436367984497638,
                0.055871318660954294,
                -0.3725423895990394,
                -2.036470646168121
            ]
        },
        {
            "positions": [
                -0.9607600061507455,
                -1.0669698009881021,
                1.9523863264384462,
                -0.055180013883141754,
                -0.2671204948335142,
                -2.1739007646424886
            ]
        },
        {
            "positions": [
                -0.980011216114025,
                -1.0745132511106688,
                1.9611358544271285,
                -0.16623134642723758,
                -0.16169860006798942,
                -2.3113308831168564
            ]
        },
        {
            "positions": [
                -0.9992624260773044,
                -1.0820567012332354,
                1.9698853824158107,
                -0.2772826789713334,
                -0.05627670530246487,
                -2.448761001591224
            ]
        },
        {
            "positions": [
                -1.0185136360405838,
                -1.089600151355802,
                1.9786349104044931,
                -0.38833401151542946,
                0.049145189463060124,
                -2.5861911200655916
            ]
        },
        {
            "positions": [
                -1.037764846003863,
                -1.0971436014783686,
                1.9873844383931756,
                -0.4993853440595255,
                0.15456708422858512,
                -2.723621238539959
            ]
        },
        {
            "positions": [
                -1.0570160559671424,
                -1.1046870516009353,
                1.9961339663818578,
                -0.6104366766036211,
                0.25998897899410967,
                -2.8610513570143263
            ]
        },
        {
            "positions": [
                -1.076267265930422,
                -1.112230501723502,
                2.00488349437054,
                -0.7214880091477172,
                0.3654108737596351,
                -2.998481475488694
            ]
        },
        {
            "positions": [
                -1.0955184758937013,
                -1.1197739518460685,
                2.0136330223592225,
                -0.8325393416918131,
                0.4708327685251597,
                -3.1359115939630615
            ]
        }
    ]
}