{
    "goal": {
        "global_pose": {
            "orientation": {
                "w": -0.00223480608172531,
                "x": 0.0024358444001904467,
                "y": 0.7094548369677653,
                "z": -0.704743149386269
            },
            "position": {
                "x": -0.37947507619857795,
                "y": -0.6371506643295288,
                "z": 0.19426114857196808
            }
        },
        "name": "move_to_magneteinheit_C"
    },
    "id": "KPIECE_move_to_magneteinheit_C_97",
    "joint_names": [
        "shoulder_pan_joint",
        "shoulder_lift_joint",
        "elbow_joint",
        "wrist_1_joint",
        "wrist_2_joint",
        "wrist_3_joint"
    ],
    "metrics": {
        "cart_traj_len": 1.968076764747071,
        "distance_elbow_joint": 1.2663055841827273,
        "distance_shoulder_lift_joint": 0.9617350329841918,
        "distance_shoulder_pan_joint": 1.813154321214962,
        "distance_wrist_1_joint": 1.1559604732748352,
        "distance_wrist_2_joint": 0.9320868984300326,
        "distance_wrist_3_joint": 1.75846079590068,
        "smoothness": 1.139662595923548,
        "time": 1.122256529,
        "traj_len": 2.808505493316228,
        "weighted_distance": 3.6732372737809436
    },
    "planner": "KPIECE",
    "start": {
        "state": {
            "elbow_joint": 1.9565354006593851,
            "shoulder_lift_joint": -1.4165861576512813,
            "shoulder_pan_joint": -1.6717766223278752,
            "wrist_1_joint": -0.528663328821883,
            "wrist_2_joint": 1.472756589259273,
            "wrist_3_joint": 3.159348288315503
        }
    },
    "waypoints": [
        {
            "positions": [
                -1.6717766223278752,
                -1.4165861576512813,
                1.9565354006593851,
                -0.528663328821883,
                1.472756589259273,
                3.159348288315503
            ]
        },
        {
            "positions": [
                -1.5848112320714942,
                -1.4326293636720946,
                1.9533978882969483,
                -0.5150818669764204,
                1.4933188662393575,
                3.0419101766625856
            ]
        },
        {
            "positions": [
                -1.4863045410917848,
                -1.4478530321707326,
                1.8793555622049292,
                -0.48536955748215455,
                1.478085943552201,
                2.8810695755833295
            ]
        },
        {
            "positions": [
                -1.3877978501120751,
                -1.4630767006693703,
                1.8053132361129098,
                -0.45565724798788865,
                1.4628530208650443,
                2.720228974504074
            ]
        },
        {
            "positions": [
                -1.2892911591323655,
                -1.478300369168008,
                1.7312709100208905,
                -0.4259449384936227,
                1.4476200981778875,
                2.5593883734248184
            ]
        },
        {
            "positions": [
                -1.190784468152656,
                -1.493524037666646,
                1.6572285839288714,
                -0.3962326289993568,
                1.432387175490731,
                2.3985477723455624
            ]
        },
        {
            "positions": [
                -1.332340252036065,
                -1.526378117691635,
                1.6059803551516163,
                -0.3792271005091249,
                1.3335421867677224,
                2.3754033696360954
            ]
        },
        {
            "positions": [
                -1.4738960359194737,
                -1.559232197716624,
                1.5547321263743612,
                -0.362221572018893,
                1.234697198044714,
                2.352258966926628
            ]
        },
        {
            "positions": [
                -1.6154518198028827,
                -1.5920862777416127,
                1.503483897597106,
                -0.3452160435286611,
                1.1358522093217052,
                2.329114564217161
            ]
        },
        {
            "positions": [
                -1.7570076036862914,
                -1.6249403577666015,
                1.452235668819851,
                -0.32821051503842924,
                1.0370072205986967,
                2.305970161507694
            ]
        },
        {
            "positions": [
                -1.8985633875697006,
                -1.6577944377915905,
                1.400987440042596,
                -0.31120498654819734,
                0.9381622318756881,
                2.282825758798227
            ]
        },
        {
            "positions": [
                -2.0401191714531093,
                -1.6906485178165793,
                1.3497392112653408,
                -0.29419945805796544,
                0.8393172431526796,
                2.25968135608876
            ]
        },
        {
            "positions": [
                -2.074432518087275,
                -1.6164897996036576,
                1.405866465010619,
                -0.2553870476552096,
                0.7743325355529966,
                2.3365065294725236
            ]
        },
        {
            "positions": [
                -2.1087458647214414,
                -1.5423310813907358,
                1.4619937187558973,
                -0.21657463725245368,
                0.7093478279533136,
                2.4133317028562873
            ]
        },
        {
            "positions": [
                -2.1430592113556073,
                -1.468172363177814,
                1.5181209725011755,
                -0.1777622268496978,
                0.6443631203536305,
                2.490156876240051
            ]
        },
        {
            "positions": [
                -2.2320342558463713,
                -1.488183752450713,
                1.6209931340862966,
                -0.15813261420761393,
                0.6393712178992164,
                2.5537900821502793
            ]
        },
        {
            "positions": [
                -2.3210093003371357,
                -1.5081951417236124,
                1.723865295671418,
                -0.13850300156553003,
                0.6343793154448021,
                2.6174232880605075
            ]
        },
        {
            "positions": [
                -2.4099843448279,
                -1.5282065309965116,
                1.8267374572565391,
                -0.11887338892344615,
                0.6293874129903879,
                2.6810564939707353
            ]
        },
        {
            "positions": [
                -2.498959389318664,
                -1.5482179202694106,
                1.9296096188416603,
                -0.09924377628136226,
                0.6243955105359738,
                2.7446896998809636
            ]
        },
        {
            "positions": [
                -2.493782223494713,
                -1.459057896966383,
                1.956782528160515,
                -0.26152646592330847,
                0.6407284424361878,
                2.8339298279817733
            ]
        },
        {
            "positions": [
                -2.4886050576707612,
                -1.3698978736633556,
                1.9839554374793695,
                -0.42380915556525467,
                0.6570613743364018,
                2.9231699560825835
            ]
        },
        {
            "positions": [
                -2.4840607529288175,
                -1.3009542355025299,
                1.992386493670921,
                -0.5578010027153955,
                0.6603731749851139,
                2.9882717106426213
            ]
        },
        {
            "positions": [
                -2.4795164481868732,
                -1.2320105973417044,
                2.0008175498624725,
                -0.6917928498655361,
                0.663684975633826,
                3.0533734652026587
            ]
        },
        {
            "positions": [
                -2.4749721434449294,
                -1.1630669591808787,
                2.0092486060540238,
                -0.8257846970156769,
                0.6669967762825382,
                3.1184752197626966
            ]
        }
    ]
}