{
    "goal": {
        "global_pose": {
            "orientation": {
                "w": -0.4816463035849501,
                "x": 0.5182115481033762,
                "y": 0.4908360881923453,
                "z": -0.5084816262002911
            },
            "position": {
                "x": -0.8240239810943604,
                "y": -0.300875300988555,
                "z": 0.16403168439865112
            }
        },
        "name": "move_to_storage_C"
    },
    "id": "KPIECE_move_to_storage_C_32",
    "joint_names": [
        "shoulder_pan_joint",
        "shoulder_lift_joint",
        "elbow_joint",
        "wrist_1_joint",
        "wrist_2_joint",
        "wrist_3_joint"
    ],
    "metrics": {
        "cart_traj_len": 0.5761907802082472,
        "distance_elbow_joint": 0.2599299275416771,
        "distance_shoulder_lift_joint": 0.19017217210292603,
        "distance_shoulder_pan_joint": 0.49467222194577287,
        "distance_wrist_1_joint": 0.08686247872738317,
        "distance_wrist_2_joint": 1.0630239021678076,
        "distance_wrist_3_joint": 0.05870504911844554,
        "smoothness": 5.075305295617109e-16,
        "time": 0.09062184400000001,
        "traj_len": 1.4674350928078599,
        "weighted_distance": 1.8495032389093278
    },
    "planner": "KPIECE",
    "start": {
        "state": {
            "elbow_joint": 2.0108683149792914,
            "shoulder_lift_joint": -1.1634956873317392,
            "shoulder_pan_joint": -2.4736205022346,
            "wrist_1_joint": -0.8367026793690192,
            "wrist_2_joint": 0.6746043897045053,
            "wrist_3_joint": 3.133522094754363
        }
    },
    "waypoints": [
        {
            "positions": [
                -2.4736205022346,
                -1.1634956873317392,
                2.0108683149792914,
                -0.8367026793690192,
                0.6746043897045053,
                3.133522094754363
            ]
        },
        {
            "positions": [
                -2.5560658725588956,
                -1.131800325314585,
                1.967546660389012,
                -0.8222255995811221,
                0.8517750400658066,
                3.1433062696074376
            ]
        },
        {
            "positions": [
                -2.638511242883191,
                -1.1001049632974307,
                1.9242250057987325,
                -0.8077485197932248,
                1.0289456904271077,
                3.1530904444605117
            ]
        },
        {
            "positions": [
                -2.7209566132074867,
                -1.0684096012802762,
                1.880903351208453,
                -0.7932714400053276,
                1.2061163407884092,
                3.1628746193135857
            ]
        },
        {
            "positions": [
                -2.803401983531782,
                -1.036714239263122,
                1.8375816966181733,
                -0.7787943602174304,
                1.3832869911497103,
                3.17265879416666
            ]
        },
        {
            "positions": [
                -2.8858473538560774,
                -1.0050188772459676,
                1.7942600420278938,
                -0.7643172804295333,
                1.5604576415110119,
                3.1824429690197347
            ]
        },
        {
            "positions": [
                -2.968292724180373,
                -0.9733235152288132,
                1.7509383874376143,
                -0.749840200641636,
                1.737628291872313,
                3.1922271438728087
            ]
        }
    ]
}