{
    "goal": {
        "global_pose": {
            "orientation": {
                "w": -0.4816463035849501,
                "x": 0.5182115481033762,
                "y": 0.4908360881923453,
                "z": -0.5084816262002911
            },
            "position": {
                "x": -0.8240239810943604,
                "y": -0.300875300988555,
                "z": 0.16403168439865112
            }
        },
        "name": "move_to_storage_C"
    },
    "id": "KPIECE_move_to_storage_C_61",
    "joint_names": [
        "shoulder_pan_joint",
        "shoulder_lift_joint",
        "elbow_joint",
        "wrist_1_joint",
        "wrist_2_joint",
        "wrist_3_joint"
    ],
    "metrics": {
        "cart_traj_len": 0.5775439410791693,
        "distance_elbow_joint": 0.2601193854572863,
        "distance_shoulder_lift_joint": 0.19059737772107865,
        "distance_shoulder_pan_joint": 0.49474645747400015,
        "distance_wrist_1_joint": 0.07892822239067021,
        "distance_wrist_2_joint": 1.0694569917573453,
        "distance_wrist_3_joint": 0.07131325876744699,
        "smoothness": 0.0,
        "time": 0.012956196,
        "traj_len": 1.4714488416414033,
        "weighted_distance": 1.8590786495602432
    },
    "planner": "KPIECE",
    "start": {
        "state": {
            "elbow_joint": 2.0108683149792914,
            "shoulder_lift_joint": -1.1634956873317392,
            "shoulder_pan_joint": -2.4736205022346,
            "wrist_1_joint": -0.8367026793690192,
            "wrist_2_joint": 0.6746043897045053,
            "wrist_3_joint": 3.133522094754363
        }
    },
    "waypoints": [
        {
            "positions": [
                -2.4736205022346,
                -1.1634956873317392,
                2.0108683149792914,
                -0.8367026793690192,
                0.6746043897045053,
                3.133522094754363
            ]
        },
        {
            "positions": [
                -2.5560782451469333,
                -1.1317294577115595,
                1.9675150840697437,
                -0.8235479756372408,
                0.8528472216640628,
                3.145407637882271
            ]
        },
        {
            "positions": [
                -2.638535988059267,
                -1.0999632280913798,
                1.924161853160196,
                -0.8103932719054625,
                1.0310900536236205,
                3.157293181010179
            ]
        },
        {
            "positions": [
                -2.7209937309716,
                -1.0681969984711999,
                1.8808086222506484,
                -0.7972385681736841,
                1.209332885583178,
                3.169178724138087
            ]
        },
        {
            "positions": [
                -2.8034514738839333,
                -1.0364307688510201,
                1.8374553913411005,
                -0.7840838644419057,
                1.3875757175427355,
                3.1810642672659943
            ]
        },
        {
            "positions": [
                -2.885909216796267,
                -1.0046645392308404,
                1.7941021604315528,
                -0.7709291607101274,
                1.5658185495022932,
                3.1929498103939022
            ]
        },
        {
            "positions": [
                -2.9683669597086,
                -0.9728983096106606,
                1.7507489295220051,
                -0.757774456978349,
                1.7440613814618506,
                3.20483535352181
            ]
        }
    ]
}