{
    "goal": {
        "global_pose": {
            "orientation": {
                "w": 0.005598929693374612,
                "x": 0.007748599140229565,
                "y": 0.7110244013736278,
                "z": -0.7031023480610252
            },
            "position": {
                "x": -0.8858502320852131,
                "y": -0.7141253447532654,
                "z": 0.3711530566215515
            }
        },
        "name": "move_to_auspresseinheit_C"
    },
    "id": "KPIECE_move_to_auspresseinheit_C_8",
    "joint_names": [
        "shoulder_pan_joint",
        "shoulder_lift_joint",
        "elbow_joint",
        "wrist_1_joint",
        "wrist_2_joint",
        "wrist_3_joint"
    ],
    "metrics": {
        "cart_traj_len": 0.49439116037397207,
        "distance_elbow_joint": 1.0132639518789213,
        "distance_shoulder_lift_joint": 0.33042593996626357,
        "distance_shoulder_pan_joint": 0.2566290192437273,
        "distance_wrist_1_joint": 0.7063691814058332,
        "distance_wrist_2_joint": 1.305560001345554,
        "distance_wrist_3_joint": 0.08650498272552154,
        "smoothness": 3.2297397080004555e-16,
        "time": 1.032004143,
        "traj_len": 1.92321425654185,
        "weighted_distance": 2.4256323350351865
    },
    "planner": "KPIECE",
    "start": {
        "state": {
            "elbow_joint": 1.7527959577730765,
            "shoulder_lift_joint": -0.9740617694224828,
            "shoulder_pan_joint": -2.967991417825869,
            "wrist_1_joint": -0.7595177689779385,
            "wrist_2_joint": 1.7443932448376545,
            "wrist_3_joint": 3.1991315425061013
        }
    },
    "waypoints": [
        {
            "positions": [
                -2.967991417825869,
                -0.9740617694224828,
                1.7527959577730765,
                -0.7595177689779385,
                1.7443932448376545,
                3.1991315425061013
            ]
        },
        {
            "positions": [
                -2.9423285159014965,
                -0.9410191754258564,
                1.6514695625851843,
                -0.6888808508373552,
                1.613837244703099,
                3.1904810442335494
            ]
        },
        {
            "positions": [
                -2.9166656139771234,
                -0.9079765814292301,
                1.5501431673972923,
                -0.6182439326967719,
                1.4832812445685437,
                3.181830545960997
            ]
        },
        {
            "positions": [
                -2.891002712052751,
                -0.8749339874326038,
                1.4488167722094,
                -0.5476070145561887,
                1.3527252444339883,
                3.1731800476884446
            ]
        },
        {
            "positions": [
                -2.8653398101283782,
                -0.8418913934359773,
                1.3474903770215079,
                -0.4769700964156053,
                1.2221692442994327,
                3.1645295494158927
            ]
        },
        {
            "positions": [
                -2.839676908204005,
                -0.808848799439351,
                1.2461639818336159,
                -0.40633317827502197,
                1.0916132441648774,
                3.1558790511433408
            ]
        },
        {
            "positions": [
                -2.8140140062796326,
                -0.7758062054427246,
                1.1448375866457239,
                -0.33569626013443865,
                0.9610572440303221,
                3.1472285528707884
            ]
        },
        {
            "positions": [
                -2.78835110435526,
                -0.7427636114460983,
                1.0435111914578317,
                -0.2650593419938554,
                0.8305012438957667,
                3.1385780545982365
            ]
        },
        {
            "positions": [
                -2.7626882024308874,
                -0.7097210174494719,
                0.9421847962699395,
                -0.19442242385327202,
                0.6999452437612113,
                3.129927556325684
            ]
        },
        {
            "positions": [
                -2.7370253005065144,
                -0.6766784234528456,
                0.8408584010820473,
                -0.12378550571268865,
                0.5693892436266559,
                3.121277058053132
            ]
        },
        {
            "positions": [
                -2.711362398582142,
                -0.6436358294562192,
                0.7395320058941551,
                -0.05314858757210541,
                0.43883324349210057,
                3.11262655978058
            ]
        }
    ]
}