{
    "goal": {
        "global_pose": {
            "orientation": {
                "w": 0.005598929693374612,
                "x": 0.007748599140229565,
                "y": 0.7110244013736278,
                "z": -0.7031023480610252
            },
            "position": {
                "x": -0.8858502320852131,
                "y": -0.7141253447532654,
                "z": 0.3711530566215515
            }
        },
        "name": "move_to_auspresseinheit_C"
    },
    "id": "KPIECE_move_to_auspresseinheit_C_78",
    "joint_names": [
        "shoulder_pan_joint",
        "shoulder_lift_joint",
        "elbow_joint",
        "wrist_1_joint",
        "wrist_2_joint",
        "wrist_3_joint"
    ],
    "metrics": {
        "cart_traj_len": 0.49176893566525426,
        "distance_elbow_joint": 0.9889060276064999,
        "distance_shoulder_lift_joint": 0.31952874806691756,
        "distance_shoulder_pan_joint": 0.255918220777239,
        "distance_wrist_1_joint": 0.6611385721505262,
        "distance_wrist_2_joint": 1.3096680718058127,
        "distance_wrist_3_joint": 0.03896514386555916,
        "smoothness": 3.2297397080004555e-16,
        "time": 0.011753652,
        "traj_len": 1.8905355813294165,
        "weighted_distance": 2.3712574124206784
    },
    "planner": "KPIECE",
    "start": {
        "state": {
            "elbow_joint": 1.7527959577730765,
            "shoulder_lift_joint": -0.9740617694224828,
            "shoulder_pan_joint": -2.967991417825869,
            "wrist_1_joint": -0.7595177689779385,
            "wrist_2_joint": 1.7443932448376545,
            "wrist_3_joint": 3.1991315425061013
        }
    },
    "waypoints": [
        {
            "positions": [
                -2.967991417825869,
                -0.9740617694224828,
                1.7527959577730765,
                -0.7595177689779385,
                1.7443932448376545,
                3.1991315425061013
            ]
        },
        {
            "positions": [
                -2.942399595748145,
                -0.9421088946157911,
                1.6539053550124265,
                -0.693403911762886,
                1.6134264376570733,
                3.195235028119545
            ]
        },
        {
            "positions": [
                -2.9168077736704214,
                -0.9101560198090993,
                1.5550147522517765,
                -0.6272900545478333,
                1.4824596304764919,
                3.1913385137329895
            ]
        },
        {
            "positions": [
                -2.8912159515926974,
                -0.8782031450024075,
                1.4561241494911266,
                -0.5611761973327807,
                1.3514928232959107,
                3.187441999346434
            ]
        },
        {
            "positions": [
                -2.8656241295149734,
                -0.8462502701957157,
                1.3572335467304766,
                -0.49506234011772804,
                1.2205260161153295,
                3.1835454849598777
            ]
        },
        {
            "positions": [
                -2.8400323074372498,
                -0.814297395389024,
                1.2583429439698266,
                -0.42894848290267545,
                1.0895592089347481,
                3.1796489705733215
            ]
        },
        {
            "positions": [
                -2.8144404853595257,
                -0.7823445205823323,
                1.1594523412091766,
                -0.36283462568762287,
                0.9585924017541668,
                3.175752456186766
            ]
        },
        {
            "positions": [
                -2.7888486632818017,
                -0.7503916457756405,
                1.0605617384485266,
                -0.29672076847257023,
                0.8276255945735856,
                3.17185594180021
            ]
        },
        {
            "positions": [
                -2.7632568412040777,
                -0.7184387709689488,
                0.9616711356878765,
                -0.23060691125751753,
                0.6966587873930044,
                3.167959427413654
            ]
        },
        {
            "positions": [
                -2.737665019126354,
                -0.686485896162257,
                0.8627805329272266,
                -0.16449305404246495,
                0.565691980212423,
                3.164062913027098
            ]
        },
        {
            "positions": [
                -2.71207319704863,
                -0.6545330213555652,
                0.7638899301665766,
                -0.09837919682741236,
                0.4347251730318418,
                3.160166398640542
            ]
        }
    ]
}