{
    "goal": {
        "global_pose": {
            "orientation": {
                "w": 0.7031023502349854,
                "x": -0.7110244035720825,
                "y": 0.007748599164187908,
                "z": 0.005598929710686207
            },
            "position": {
                "x": 0.11585023208521307,
                "y": 0.44412534475326537,
                "z": 0.3711530566215515
            }
        },
        "name": "move_to_auspresseinheit_A"
    },
    "id": "KPIECE_move_to_auspresseinheit_A_74",
    "joint_names": [
        "shoulder_pan_joint",
        "shoulder_lift_joint",
        "elbow_joint",
        "wrist_1_joint",
        "wrist_2_joint",
        "wrist_3_joint"
    ],
    "metrics": {
        "cart_traj_len": 3.139593126967395,
        "distance_elbow_joint": 2.532180913634581,
        "distance_shoulder_lift_joint": 1.65445105024945,
        "distance_shoulder_pan_joint": 2.3343190839450134,
        "distance_wrist_1_joint": 0.5582806735807653,
        "distance_wrist_2_joint": 3.3699666780403446,
        "distance_wrist_3_joint": 2.3466555416959847,
        "smoothness": 0.831671755267731,
        "time": 0.162785399,
        "traj_len": 3.577129287731454,
        "weighted_distance": 4.627895026484419
    },
    "planner": "KPIECE",
    "start": {
        "state": {
            "elbow_joint": 2.4225746994637096,
            "shoulder_lift_joint": -1.373653595662188,
            "shoulder_pan_joint": -0.3378633848294565,
            "wrist_1_joint": -1.0288595594406726,
            "wrist_2_joint": 1.2330228066703421,
            "wrist_3_joint": 3.189163495502006
        }
    },
    "waypoints": [
        {
            "positions": [
                -0.3378633848294565,
                -1.373653595662188,
                2.4225746994637096,
                -1.0288595594406726,
                1.2330228066703421,
                3.189163495502006
            ]
        },
        {
            "positions": [
                -0.38078510276215355,
                -1.446652300573577,
                2.3372363530312414,
                -1.018825729671211,
                1.3281597412726764,
                3.109355557757224
            ]
        },
        {
            "positions": [
                -0.42370682069485066,
                -1.519651005484966,
                2.2518980065987733,
                -1.0087918999017496,
                1.4232966758750107,
                3.0295476200124423
            ]
        },
        {
            "positions": [
                -0.4666285386275477,
                -1.5926497103963548,
                2.166559660166305,
                -0.9987580701322881,
                1.518433610477345,
                2.9497396822676603
            ]
        },
        {
            "positions": [
                -0.5095502565602448,
                -1.6656484153077438,
                2.081221313733837,
                -0.9887242403628267,
                1.6135705450796793,
                2.8699317445228782
            ]
        },
        {
            "positions": [
                -0.5524719744929418,
                -1.7386471202191327,
                1.9958829673013687,
                -0.9786904105933651,
                1.7087074796820136,
                2.7901238067780962
            ]
        },
        {
            "positions": [
                -0.5953936924256389,
                -1.8116458251305216,
                1.9105446208689003,
                -0.9686565808239036,
                1.803844414284348,
                2.7103158690333142
            ]
        },
        {
            "positions": [
                -0.6383154103583359,
                -1.8846445300419106,
                1.8252062744364321,
                -0.9586227510544422,
                1.8989813488866822,
                2.6305079312885327
            ]
        },
        {
            "positions": [
                -0.681237128291033,
                -1.9576432349532995,
                1.739867928003964,
                -0.9485889212849806,
                1.9941182834890165,
                2.5506999935437507
            ]
        },
        {
            "positions": [
                -0.7241588462237301,
                -2.0306419398646884,
                1.6545295815714958,
                -0.9385550915155192,
                2.089255218091351,
                2.470892055798969
            ]
        },
        {
            "positions": [
                -0.7670805641564271,
                -2.1036406447760774,
                1.5691912351390276,
                -0.9285212617460576,
                2.184392152693685,
                2.391084118054187
            ]
        },
        {
            "positions": [
                -0.8100022820891242,
                -2.1766393496874663,
                1.4838528887065594,
                -0.9184874319765961,
                2.2795290872960194,
                2.311276180309405
            ]
        },
        {
            "positions": [
                -0.8529240000218214,
                -2.2496380545988552,
                1.398514542274091,
                -0.9084536022071347,
                2.3746660218983537,
                2.231468242564623
            ]
        },
        {
            "positions": [
                -0.8958457179545185,
                -2.322636759510244,
                1.3131761958416228,
                -0.8984197724376731,
                2.469802956500688,
                2.151660304819841
            ]
        },
        {
            "positions": [
                -0.9387674358872156,
                -2.395635464421633,
                1.2278378494091546,
                -0.8883859426682117,
                2.5649398911030223,
                2.071852367075059
            ]
        },
        {
            "positions": [
                -0.9816891538199126,
                -2.468634169333022,
                1.1424995029766865,
                -0.8783521128987501,
                2.6600768257053566,
                1.9920444293302775
            ]
        },
        {
            "positions": [
                -0.8889065729189086,
                -2.4378028348048666,
                1.2117317119937567,
                -0.8574475412709038,
                2.553293142974415,
                2.0534001074143706
            ]
        },
        {
            "positions": [
                -0.7961239920179046,
                -2.406971500276711,
                1.280963921010827,
                -0.8365429696430574,
                2.4465094602434734,
                2.114755785498464
            ]
        },
        {
            "positions": [
                -0.7033414111169005,
                -2.3761401657485557,
                1.3501961300278973,
                -0.8156383980152111,
                2.3397257775125313,
                2.176111463582558
            ]
        },
        {
            "positions": [
                -0.6105588302158965,
                -2.3453088312204002,
                1.4194283390449676,
                -0.7947338263873647,
                2.2329420947815897,
                2.237467141666651
            ]
        },
        {
            "positions": [
                -0.5177762493148924,
                -2.314477496692245,
                1.4886605480620378,
                -0.7738292547595184,
                2.126158412050648,
                2.298822819750744
            ]
        },
        {
            "positions": [
                -0.4249936684138884,
                -2.2836461621640893,
                1.5578927570791081,
                -0.752924683131672,
                2.0193747293197064,
                2.3601784978348377
            ]
        },
        {
            "positions": [
                -0.3322110875128844,
                -2.252814827635934,
                1.6271249660961784,
                -0.7320201115038256,
                1.9125910465887648,
                2.4215341759189313
            ]
        },
        {
            "positions": [
                -0.23942850661188042,
                -2.2219834931077784,
                1.6963571751132487,
                -0.7111155398759792,
                1.8058073638578231,
                2.4828898540030244
            ]
        },
        {
            "positions": [
                -0.1466459257108763,
                -2.191152158579623,
                1.765589384130319,
                -0.6902109682481329,
                1.6990236811268813,
                2.5442455320871176
            ]
        },
        {
            "positions": [
                -0.053863344809872205,
                -2.1603208240514675,
                1.8348215931473892,
                -0.6693063966202866,
                1.5922399983959394,
                2.605601210171211
            ]
        },
        {
            "positions": [
                0.038919236091131904,
                -2.129489489523312,
                1.9040538021644595,
                -0.6484018249924401,
                1.4854563156649978,
                2.6669568882553047
            ]
        },
        {
            "positions": [
                0.1317018169921358,
                -2.0986581549951566,
                1.9732860111815298,
                -0.6274972533645938,
                1.3786726329340562,
                2.728312566339398
            ]
        },
        {
            "positions": [
                0.2244843978931399,
                -2.067826820467001,
                2.0425182201986,
                -0.6065926817367475,
                1.2718889502031145,
                2.789668244423491
            ]
        },
        {
            "positions": [
                0.3172669787941438,
                -2.0369954859388457,
                2.1117504292156704,
                -0.5856881101089011,
                1.1651052674721727,
                2.8510239225075846
            ]
        },
        {
            "positions": [
                0.4100495596951479,
                -2.0061641514106903,
                2.1809826382327406,
                -0.5647835384810547,
                1.058321584741231,
                2.912379600591678
            ]
        },
        {
            "positions": [
                0.5028321405961518,
                -1.9753328168825348,
                2.250214847249811,
                -0.5438789668532084,
                0.9515379020102894,
                2.9737352786757714
            ]
        },
        {
            "positions": [
                0.5956147214971559,
                -1.9445014823543794,
                2.319447056266881,
                -0.522974395225362,
                0.8447542192793478,
                3.0350909567598645
            ]
        },
        {
            "positions": [
                0.6883973023981599,
                -1.913670147826224,
                2.3886792652839515,
                -0.5020698235975156,
                0.7379705365484059,
                3.096446634843958
            ]
        },
        {
            "positions": [
                0.7088041611346454,
                -1.909163692754406,
                2.3946052201242445,
                -0.47057888585990737,
                0.7171641667000261,
                3.141580904854534
            ]
        }
    ]
}