{
    "goal": {
        "global_pose": {
            "orientation": {
                "w": 0.005598929693374612,
                "x": 0.007748599140229565,
                "y": 0.7110244013736278,
                "z": -0.7031023480610252
            },
            "position": {
                "x": -0.8858502320852131,
                "y": -0.7141253447532654,
                "z": 0.3711530566215515
            }
        },
        "name": "move_to_auspresseinheit_C"
    },
    "id": "KPIECE_move_to_auspresseinheit_C_72",
    "joint_names": [
        "shoulder_pan_joint",
        "shoulder_lift_joint",
        "elbow_joint",
        "wrist_1_joint",
        "wrist_2_joint",
        "wrist_3_joint"
    ],
    "metrics": {
        "cart_traj_len": 0.4932804750668929,
        "distance_elbow_joint": 0.9948763982941103,
        "distance_shoulder_lift_joint": 0.32212780251919526,
        "distance_shoulder_pan_joint": 0.2563227171628846,
        "distance_wrist_1_joint": 0.663005350917162,
        "distance_wrist_2_joint": 1.3147830438424704,
        "distance_wrist_3_joint": 0.04418152371899575,
        "smoothness": 1.2918958832001822e-15,
        "time": 2.486954034,
        "traj_len": 1.8961267986226074,
        "weighted_distance": 2.3793798096673093
    },
    "planner": "KPIECE",
    "start": {
        "state": {
            "elbow_joint": 1.7527959577730765,
            "shoulder_lift_joint": -0.9740617694224828,
            "shoulder_pan_joint": -2.967991417825869,
            "wrist_1_joint": -0.7595177689779385,
            "wrist_2_joint": 1.7443932448376545,
            "wrist_3_joint": 3.1991315425061013
        }
    },
    "waypoints": [
        {
            "positions": [
                -2.967991417825869,
                -0.9740617694224828,
                1.7527959577730765,
                -0.7595177689779385,
                1.7443932448376545,
                3.1991315425061013
            ]
        },
        {
            "positions": [
                -2.9423591461095806,
                -0.9418489891705633,
                1.6533083179436654,
                -0.6932172338862224,
                1.6129149404534073,
                3.1947133901342015
            ]
        },
        {
            "positions": [
                -2.916726874393292,
                -0.9096362089186437,
                1.5538206781142545,
                -0.6269166987945062,
                1.4814366360691604,
                3.190295237762302
            ]
        },
        {
            "positions": [
                -2.8910946026770037,
                -0.8774234286667242,
                1.4543330382848434,
                -0.56061616370279,
                1.3499583316849133,
                3.185877085390403
            ]
        },
        {
            "positions": [
                -2.8654623309607152,
                -0.8452106484148046,
                1.3548453984554323,
                -0.49431562861107375,
                1.2184800273006662,
                3.181458933018503
            ]
        },
        {
            "positions": [
                -2.8398300592444268,
                -0.8129978681628851,
                1.2553577586260214,
                -0.42801509351935757,
                1.0870017229164193,
                3.1770407806466032
            ]
        },
        {
            "positions": [
                -2.8141977875281383,
                -0.7807850879109657,
                1.1558701187966103,
                -0.3617145584276414,
                0.9555234185321723,
                3.172622628274704
            ]
        },
        {
            "positions": [
                -2.78856551581185,
                -0.7485723076590461,
                1.0563824789671994,
                -0.2954140233359252,
                0.8240451141479253,
                3.1682044759028045
            ]
        },
        {
            "positions": [
                -2.7629332440955614,
                -0.7163595274071266,
                0.9568948391377882,
                -0.22911348824420896,
                0.6925668097636781,
                3.1637863235309047
            ]
        },
        {
            "positions": [
                -2.737300972379273,
                -0.6841467471552071,
                0.8574071993083772,
                -0.16281295315249278,
                0.561088505379431,
                3.159368171159005
            ]
        },
        {
            "positions": [
                -2.7116687006629845,
                -0.6519339669032875,
                0.7579195594789662,
                -0.09651241806077664,
                0.42961020099518415,
                3.1549500187871056
            ]
        }
    ]
}