{
    "goal": {
        "global_pose": {
            "orientation": {
                "w": 0.7047431468963623,
                "x": -0.7094548344612122,
                "y": 0.0024358443915843964,
                "z": -0.0022348060738295317
            },
            "position": {
                "x": 0.6094750761985779,
                "y": 0.3671506643295288,
                "z": 0.19426114857196808
            }
        },
        "name": "move_to_magneteinheit_A"
    },
    "id": "KPIECE_move_to_magneteinheit_A_44",
    "joint_names": [
        "shoulder_pan_joint",
        "shoulder_lift_joint",
        "elbow_joint",
        "wrist_1_joint",
        "wrist_2_joint",
        "wrist_3_joint"
    ],
    "metrics": {
        "cart_traj_len": 1.6110616742787731,
        "distance_elbow_joint": 3.5521136320657956,
        "distance_shoulder_lift_joint": 1.1591884732923339,
        "distance_shoulder_pan_joint": 1.241211528305524,
        "distance_wrist_1_joint": 3.946862418898954,
        "distance_wrist_2_joint": 1.8867418482447151,
        "distance_wrist_3_joint": 1.146325526826803,
        "smoothness": 0.14482415281389036,
        "time": 0.257890326,
        "traj_len": 3.5961706616391447,
        "weighted_distance": 4.588975784249836
    },
    "planner": "KPIECE",
    "start": {
        "state": {
            "elbow_joint": -1.5739458827952972,
            "shoulder_lift_joint": 0.006533473998580023,
            "shoulder_pan_joint": -1.1188671628667068,
            "wrist_1_joint": 3.138208179676308,
            "wrist_2_joint": -1.5706037135050406,
            "wrist_3_joint": -2.0226958329764257
        }
    },
    "waypoints": [
        {
            "positions": [
                -1.1188671628667068,
                0.006533473998580023,
                -1.5739458827952972,
                3.138208179676308,
                -1.5706037135050406,
                -2.0226958329764257
            ]
        },
        {
            "positions": [
                -1.080401399471291,
                -0.02952932157336917,
                -1.4697235818093177,
                3.0155589497978235,
                -1.514566047919135,
                -2.055319276242179
            ]
        },
        {
            "positions": [
                -1.0419356360758756,
                -0.06559211714531836,
                -1.3655012808233384,
                2.8929097199193388,
                -1.4585283823332293,
                -2.087942719507932
            ]
        },
        {
            "positions": [
                -1.0034698726804598,
                -0.10165491271726755,
                -1.2612789798373591,
                2.770260490040854,
                -1.4024907167473237,
                -2.120566162773685
            ]
        },
        {
            "positions": [
                -0.9650041092850443,
                -0.13771770828921673,
                -1.1570566788513796,
                2.6476112601623694,
                -1.3464530511614181,
                -2.153189606039438
            ]
        },
        {
            "positions": [
                -0.9265383458896286,
                -0.17378050386116592,
                -1.0528343778654001,
                2.524962030283884,
                -1.2904153855755125,
                -2.1858130493051906
            ]
        },
        {
            "positions": [
                -0.888072582494213,
                -0.2098432994331151,
                -0.9486120768794208,
                2.4023128004053995,
                -1.2343777199896069,
                -2.2184364925709437
            ]
        },
        {
            "positions": [
                -0.8496068190987973,
                -0.2459060950050643,
                -0.8443897758934414,
                2.279663570526915,
                -1.1783400544037015,
                -2.2510599358366967
            ]
        },
        {
            "positions": [
                -0.8111410557033817,
                -0.2819688905770135,
                -0.740167474907462,
                2.15701434064843,
                -1.1223023888177956,
                -2.28368337910245
            ]
        },
        {
            "positions": [
                -0.772675292307966,
                -0.3180316861489627,
                -0.6359451739214826,
                2.0343651107699454,
                -1.0662647232318903,
                -2.316306822368203
            ]
        },
        {
            "positions": [
                -0.7342095289125504,
                -0.3540944817209119,
                -0.5317228729355032,
                1.9117158808914607,
                -1.0102270576459844,
                -2.348930265633956
            ]
        },
        {
            "positions": [
                -0.6957437655171348,
                -0.3901572772928611,
                -0.42750057194952373,
                1.7890666510129758,
                -0.9541893920600789,
                -2.381553708899709
            ]
        },
        {
            "positions": [
                -0.657278002121719,
                -0.4262200728648103,
                -0.32327827096354445,
                1.666417421134491,
                -0.8981517264741734,
                -2.414177152165462
            ]
        },
        {
            "positions": [
                -0.6188122387263034,
                -0.4622828684367595,
                -0.21905596997756516,
                1.5437681912560064,
                -0.8421140608882678,
                -2.446800595431215
            ]
        },
        {
            "positions": [
                -0.5803464753308878,
                -0.49834566400870867,
                -0.11483366899158565,
                1.4211189613775215,
                -0.7860763953023622,
                -2.479424038696968
            ]
        },
        {
            "positions": [
                -0.5418807119354722,
                -0.5344084595806577,
                -0.010611368005606137,
                1.2984697314990368,
                -0.7300387297164566,
                -2.512047481962721
            ]
        },
        {
            "positions": [
                -0.5034149485400565,
                -0.570471255152607,
                0.09361093298037315,
                1.175820501620552,
                -0.6740010641305509,
                -2.5446709252284743
            ]
        },
        {
            "positions": [
                -0.4649491851446409,
                -0.6065340507245562,
                0.19783323396635244,
                1.0531712717420674,
                -0.6179633985446453,
                -2.5772943684942273
            ]
        },
        {
            "positions": [
                -0.42648342174922527,
                -0.6425968462965054,
                0.30205553495233195,
                0.9305220418635827,
                -0.5619257329587397,
                -2.60991781175998
            ]
        },
        {
            "positions": [
                -0.38801765835380964,
                -0.6786596418684545,
                0.40627783593831146,
                0.807872811985098,
                -0.5058880673728341,
                -2.642541255025733
            ]
        },
        {
            "positions": [
                -0.349551894958394,
                -0.7147224374404038,
                0.5105001369242907,
                0.6852235821066133,
                -0.4498504017869285,
                -2.675164698291486
            ]
        },
        {
            "positions": [
                -0.31108613156297826,
                -0.750785233012353,
                0.61472243791027,
                0.5625743522281281,
                -0.39381273620102286,
                -2.707788141557239
            ]
        },
        {
            "positions": [
                -0.27262036816756263,
                -0.7868480285843021,
                0.7189447388962498,
                0.4399251223496434,
                -0.33777507061511725,
                -2.740411584822992
            ]
        },
        {
            "positions": [
                -0.234154604772147,
                -0.8229108241562513,
                0.8231670398822291,
                0.3172758924711587,
                -0.28173740502921163,
                -2.7730350280887452
            ]
        },
        {
            "positions": [
                -0.19568884137673137,
                -0.8589736197282005,
                0.9273893408682083,
                0.19462666259267403,
                -0.22569973944330624,
                -2.8056584713544983
            ]
        },
        {
            "positions": [
                -0.15722307798131574,
                -0.8950364153001498,
                1.0316116418541876,
                0.07197743271418933,
                -0.16966207385740062,
                -2.8382819146202514
            ]
        },
        {
            "positions": [
                -0.1187573145859,
                -0.9310992108720989,
                1.135833942840167,
                -0.050671797164295374,
                -0.113624408271495,
                -2.870905357886004
            ]
        },
        {
            "positions": [
                -0.08029155119048448,
                -0.967162006444048,
                1.2400562438261467,
                -0.17332102704278007,
                -0.05758674268558939,
                -2.903528801151757
            ]
        },
        {
            "positions": [
                -0.041825787795068736,
                -1.0032248020159973,
                1.344278544812126,
                -0.2959702569212652,
                -0.001549077099683771,
                -2.93615224441751
            ]
        },
        {
            "positions": [
                -0.0033600243996532164,
                -1.0392875975879465,
                1.4485008457981052,
                -0.4186194867997499,
                0.054488588486221845,
                -2.968775687683263
            ]
        },
        {
            "positions": [
                0.035105738995762525,
                -1.0753503931598956,
                1.552723146784085,
                -0.5412687166782346,
                0.11052625407212746,
                -3.0013991309490162
            ]
        },
        {
            "positions": [
                0.07357150239117805,
                -1.1114131887318448,
                1.6569454477700643,
                -0.6639179465567193,
                0.16656391965803308,
                -3.0340225742147693
            ]
        },
        {
            "positions": [
                0.11203726578659368,
                -1.147475984303794,
                1.7611677487560433,
                -0.7865671764352042,
                0.22260158524393864,
                -3.0666460174805223
            ]
        },
        {
            "positions": [
                0.12094024352169742,
                -1.1433910912731995,
                1.9489577257389008,
                -0.8077838012819503,
                0.1421365645809875,
                -3.1536046661492083
            ]
        },
        {
            "positions": [
                0.12234436543881719,
                -1.1422969693138343,
                1.9781677492704977,
                -0.8086542392226462,
                0.12906503574820272,
                -3.169021359803229
            ]
        }
    ]
}