{
    "goal": {
        "global_pose": {
            "orientation": {
                "w": 0.005598929693374612,
                "x": 0.007748599140229565,
                "y": 0.7110244013736278,
                "z": -0.7031023480610252
            },
            "position": {
                "x": -0.8858502320852131,
                "y": -0.7141253447532654,
                "z": 0.3711530566215515
            }
        },
        "name": "move_to_auspresseinheit_C"
    },
    "id": "KPIECE_move_to_auspresseinheit_C_56",
    "joint_names": [
        "shoulder_pan_joint",
        "shoulder_lift_joint",
        "elbow_joint",
        "wrist_1_joint",
        "wrist_2_joint",
        "wrist_3_joint"
    ],
    "metrics": {
        "cart_traj_len": 0.4935570485232821,
        "distance_elbow_joint": 1.0153139933861721,
        "distance_shoulder_lift_joint": 0.33200144939629805,
        "distance_shoulder_pan_joint": 0.25592073003120497,
        "distance_wrist_1_joint": 0.7134239775428296,
        "distance_wrist_2_joint": 1.309595289760938,
        "distance_wrist_3_joint": 0.08639572982380761,
        "smoothness": 9.689219149575435e-16,
        "time": 0.49099751199999997,
        "traj_len": 1.9268241149469898,
        "weighted_distance": 2.4307327901052047
    },
    "planner": "KPIECE",
    "start": {
        "state": {
            "elbow_joint": 1.7527959577730765,
            "shoulder_lift_joint": -0.9740617694224828,
            "shoulder_pan_joint": -2.967991417825869,
            "wrist_1_joint": -0.7595177689779385,
            "wrist_2_joint": 1.7443932448376545,
            "wrist_3_joint": 3.1991315425061013
        }
    },
    "waypoints": [
        {
            "positions": [
                -2.967991417825869,
                -0.9740617694224828,
                1.7527959577730765,
                -0.7595177689779385,
                1.7443932448376545,
                3.1991315425061013
            ]
        },
        {
            "positions": [
                -2.9423993448227486,
                -0.9408616244828529,
                1.6512645584344594,
                -0.6881753712236556,
                1.6134337158615606,
                3.1904919695237206
            ]
        },
        {
            "positions": [
                -2.916807271819628,
                -0.9076614795432232,
                1.549733159095842,
                -0.6168329734693726,
                1.482474186885467,
                3.18185239654134
            ]
        },
        {
            "positions": [
                -2.8912151988165076,
                -0.8744613346035934,
                1.4482017597572248,
                -0.5454905757150896,
                1.351514657909373,
                3.173212823558959
            ]
        },
        {
            "positions": [
                -2.865623125813387,
                -0.8412611896639636,
                1.3466703604186077,
                -0.4741481779608067,
                1.2205551289332792,
                3.1645732505765785
            ]
        },
        {
            "positions": [
                -2.8400310528102666,
                -0.8080610447243337,
                1.2451389610799906,
                -0.40280578020652374,
                1.0895955999571854,
                3.1559336775941977
            ]
        },
        {
            "positions": [
                -2.814438979807146,
                -0.774860899784704,
                1.1436075617413732,
                -0.3314633824522408,
                0.9586360709810917,
                3.1472941046118166
            ]
        },
        {
            "positions": [
                -2.7888469068040256,
                -0.7416607548450742,
                1.042076162402756,
                -0.26012098469795786,
                0.827676542004998,
                3.138654531629436
            ]
        },
        {
            "positions": [
                -2.763254833800905,
                -0.7084606099054443,
                0.9405447630641388,
                -0.1887785869436749,
                0.696717013028904,
                3.130014958647055
            ]
        },
        {
            "positions": [
                -2.7376627607977846,
                -0.6752604649658145,
                0.8390133637255216,
                -0.11743618918939192,
                0.5657574840528103,
                3.1213753856646744
            ]
        },
        {
            "positions": [
                -2.712070687794664,
                -0.6420603200261847,
                0.7374819643869044,
                -0.04609379143510892,
                0.43479795507671654,
                3.1127358126822937
            ]
        }
    ]
}