{
    "goal": {
        "global_pose": {
            "orientation": {
                "w": 0.7047431493862688,
                "x": -0.7094548369677653,
                "y": 0.0024358444001904,
                "z": -0.0022348060817251984
            },
            "position": {
                "x": -0.39052492380142206,
                "y": 0.3671506643295288,
                "z": 0.19426114857196808
            }
        },
        "name": "move_to_magneteinheit_D"
    },
    "id": "KPIECE_move_to_magneteinheit_D_100",
    "joint_names": [
        "shoulder_pan_joint",
        "shoulder_lift_joint",
        "elbow_joint",
        "wrist_1_joint",
        "wrist_2_joint",
        "wrist_3_joint"
    ],
    "metrics": {
        "cart_traj_len": 5.5530780001876785,
        "distance_elbow_joint": 5.884243950285889,
        "distance_shoulder_lift_joint": 2.1893515371017864,
        "distance_shoulder_pan_joint": 3.938866427003494,
        "distance_wrist_1_joint": 3.5454913730766116,
        "distance_wrist_2_joint": 2.64196856812653,
        "distance_wrist_3_joint": 11.82134193969559,
        "smoothness": 0.7530947749769469,
        "time": 0.255446527,
        "traj_len": 5.479166341268524,
        "weighted_distance": 7.736369149406214
    },
    "planner": "KPIECE",
    "start": {
        "state": {
            "elbow_joint": 0.7495348899011911,
            "shoulder_lift_joint": -0.6476975780737668,
            "shoulder_pan_joint": -2.711696901376276,
            "wrist_1_joint": -0.0750647808097303,
            "wrist_2_joint": 0.43296659715458535,
            "wrist_3_joint": 3.1361499051832418
        }
    },
    "waypoints": [
        {
            "positions": [
                -2.711696901376276,
                -0.6476975780737668,
                0.7495348899011911,
                -0.0750647808097303,
                0.43296659715458535,
                3.1361499051832418
            ]
        },
        {
            "positions": [
                -2.762366763379887,
                -0.5972754976298703,
                0.7975662474698256,
                -0.04618855441764679,
                0.36084422040181063,
                3.0628593805203272
            ]
        },
        {
            "positions": [
                -2.813036625383498,
                -0.5468534171859737,
                0.8455976050384603,
                -0.01731232802556329,
                0.28872184364903586,
                2.9895688558574127
            ]
        },
        {
            "positions": [
                -2.863706487387109,
                -0.4964313367420772,
                0.8936289626070948,
                0.01156389836652022,
                0.21659946689626114,
                2.916278331194498
            ]
        },
        {
            "positions": [
                -2.873391449738817,
                -0.5376430060195534,
                0.7716245493596606,
                0.04015891119756608,
                0.17335897667235134,
                2.7657664558198336
            ]
        },
        {
            "positions": [
                -2.8830764120905252,
                -0.5788546752970296,
                0.6496201361122265,
                0.06875392402861194,
                0.1301184864484415,
                2.6152545804451695
            ]
        },
        {
            "positions": [
                -2.8927613744422334,
                -0.6200663445745058,
                0.5276157228647924,
                0.09734893685965779,
                0.08687799622453171,
                2.464742705070505
            ]
        },
        {
            "positions": [
                -2.9024463367939415,
                -0.661278013851982,
                0.40561130961735814,
                0.12594394969070366,
                0.043637506000621884,
                2.3142308296958403
            ]
        },
        {
            "positions": [
                -2.9121312991456496,
                -0.7024896831294583,
                0.2836068963699241,
                0.1545389625217495,
                0.0003970157767120841,
                2.163718954321176
            ]
        },
        {
            "positions": [
                -2.9218162614973577,
                -0.7437013524069344,
                0.16160248312248993,
                0.18313397535279535,
                -0.042843474447197716,
                2.0132070789465115
            ]
        },
        {
            "positions": [
                -2.931501223849066,
                -0.7849130216844107,
                0.039598069875055764,
                0.21172898818384123,
                -0.08608396467110757,
                1.862695203571847
            ]
        },
        {
            "positions": [
                -2.941186186200774,
                -0.8261246909618869,
                -0.08240634337237851,
                0.2403240010148871,
                -0.12932445489501737,
                1.7121833281971823
            ]
        },
        {
            "positions": [
                -2.950871148552482,
                -0.8673363602393631,
                -0.20441075661981256,
                0.268919013845933,
                -0.17256494511892723,
                1.561671452822518
            ]
        },
        {
            "positions": [
                -2.9605561109041902,
                -0.9085480295168392,
                -0.3264151698672466,
                0.2975140266769788,
                -0.21580543534283697,
                1.4111595774478536
            ]
        },
        {
            "positions": [
                -2.970241073255898,
                -0.9497596987943154,
                -0.4484195831146809,
                0.32610903950802467,
                -0.2590459255667468,
                1.260647702073189
            ]
        },
        {
            "positions": [
                -2.979926035607606,
                -0.9909713680717915,
                -0.5704239963621149,
                0.3547040523390705,
                -0.30228641579065657,
                1.1101358266985246
            ]
        },
        {
            "positions": [
                -2.989610997959314,
                -1.032183037349268,
                -0.6924284096095492,
                0.3832990651701164,
                -0.34552690601456654,
                0.95962395132386
            ]
        },
        {
            "positions": [
                -2.9992959603110223,
                -1.0733947066267442,
                -0.8144328228569833,
                0.41189407800116223,
                -0.3887673962384763,
                0.8091120759491957
            ]
        },
        {
            "positions": [
                -3.0089809226627304,
                -1.1146063759042202,
                -0.9364372361044173,
                0.44048909083220805,
                -0.432007886462386,
                0.6586002005745311
            ]
        },
        {
            "positions": [
                -3.0186658850144386,
                -1.1558180451816966,
                -1.0584416493518518,
                0.469084103663254,
                -0.4752483766862959,
                0.5080883251998665
            ]
        },
        {
            "positions": [
                -3.0283508473661467,
                -1.1970297144591726,
                -1.1804460625992859,
                0.4976791164942998,
                -0.5184888669102057,
                0.3575764498252023
            ]
        },
        {
            "positions": [
                -3.038035809717855,
                -1.238241383736649,
                -1.30245047584672,
                0.5262741293253457,
                -0.5617293571341155,
                0.20706457445053772
            ]
        },
        {
            "positions": [
                -3.047720772069563,
                -1.279453053014125,
                -1.424454889094154,
                0.5548691421563916,
                -0.6049698473580254,
                0.056552699075873125
            ]
        },
        {
            "positions": [
                -3.057405734421271,
                -1.3206647222916013,
                -1.546459302341588,
                0.5834641549874373,
                -0.648210337581935,
                -0.09395917629879103
            ]
        },
        {
            "positions": [
                -3.067090696772979,
                -1.3618763915690775,
                -1.6684637155890225,
                0.6120591678184832,
                -0.6914508278058451,
                -0.24447105167345606
            ]
        },
        {
            "positions": [
                -3.0767756591246873,
                -1.4030880608465537,
                -1.7904681288364566,
                0.6406541806495292,
                -0.7346913180297547,
                -0.3949829270481202
            ]
        },
        {
            "positions": [
                -2.9852780502558507,
                -1.38512701740302,
                -1.7374024862006636,
                0.5888306124629448,
                -0.691002714372865,
                -0.26854811791185085
            ]
        },
        {
            "positions": [
                -2.8937804413870145,
                -1.367165973959486,
                -1.6843368435648707,
                0.5370070442763604,
                -0.6473141107159751,
                -0.14211330877558148
            ]
        },
        {
            "positions": [
                -2.802282832518178,
                -1.3492049305159521,
                -1.6312712009290777,
                0.48518347608977597,
                -0.6036255070590854,
                -0.015678499639312116
            ]
        },
        {
            "positions": [
                -2.7107852236493413,
                -1.3312438870724181,
                -1.5782055582932848,
                0.43335990790319157,
                -0.5599369034021955,
                0.11075630949695725
            ]
        },
        {
            "positions": [
                -2.619287614780505,
                -1.3132828436288844,
                -1.5251399156574919,
                0.38153633971660716,
                -0.5162482997453057,
                0.23719111863322662
            ]
        },
        {
            "positions": [
                -2.5277900059116685,
                -1.2953218001853504,
                -1.472074273021699,
                0.32971277153002276,
                -0.4725596960884159,
                0.363625927769496
            ]
        },
        {
            "positions": [
                -2.4362923970428323,
                -1.2773607567418166,
                -1.419008630385906,
                0.27788920334343836,
                -0.4288710924315261,
                0.49006073690576546
            ]
        },
        {
            "positions": [
                -2.3447947881739957,
                -1.2593997132982826,
                -1.365942987750113,
                0.22606563515685396,
                -0.3851824887746363,
                0.6164955460420347
            ]
        },
        {
            "positions": [
                -2.253297179305159,
                -1.2414386698547488,
                -1.31287734511432,
                0.1742420669702695,
                -0.3414938851177465,
                0.7429303551783042
            ]
        },
        {
            "positions": [
                -2.161799570436323,
                -1.2234776264112148,
                -1.2598117024785271,
                0.12241849878368516,
                -0.2978052814608567,
                0.8693651643145734
            ]
        },
        {
            "positions": [
                -2.0703019615674862,
                -1.205516582967681,
                -1.2067460598427342,
                0.07059493059710076,
                -0.2541166778039669,
                0.9957999734508429
            ]
        },
        {
            "positions": [
                -1.9788043526986498,
                -1.1875555395241473,
                -1.1536804172069413,
                0.018771362410516357,
                -0.2104280741470771,
                1.1222347825871122
            ]
        },
        {
            "positions": [
                -1.8873067438298132,
                -1.1695944960806133,
                -1.1006147745711483,
                -0.033052205776068044,
                -0.16673947049018722,
                1.2486695917233817
            ]
        },
        {
            "positions": [
                -1.7958091349609768,
                -1.1516334526370795,
                -1.0475491319353554,
                -0.08487577396265245,
                -0.12305086683329747,
                1.3751044008596511
            ]
        },
        {
            "positions": [
                -1.7043115260921404,
                -1.1336724091935455,
                -0.9944834892995625,
                -0.13669934214923674,
                -0.07936226317640771,
                1.5015392099959204
            ]
        },
        {
            "positions": [
                -1.6128139172233038,
                -1.1157113657500117,
                -0.9414178466637695,
                -0.18852291033582125,
                -0.03567365951951784,
                1.6279740191321896
            ]
        },
        {
            "positions": [
                -1.5213163083544676,
                -1.0977503223064777,
                -0.8883522040279765,
                -0.24034647852240565,
                0.008014944137371915,
                1.7544088282684593
            ]
        },
        {
            "positions": [
                -1.429818699485631,
                -1.079789278862944,
                -0.8352865613921835,
                -0.29217004670899016,
                0.051703547794261784,
                1.8808436374047286
            ]
        },
        {
            "positions": [
                -1.3383210906167946,
                -1.06182823541941,
                -0.7822209187563907,
                -0.34399361489557445,
                0.09539215145115154,
                2.007278446540998
            ]
        },
        {
            "positions": [
                -1.2468234817479582,
                -1.0438671919758762,
                -0.7291552761205977,
                -0.39581718308215885,
                0.1390807551080413,
                2.133713255677267
            ]
        },
        {
            "positions": [
                -1.1553258728791216,
                -1.0259061485323424,
                -0.6760896334848048,
                -0.44764075126874325,
                0.18276935876493117,
                2.260148064813537
            ]
        },
        {
            "positions": [
                -1.0638282640102852,
                -1.0079451050888084,
                -0.6230239908490118,
                -0.4994643194553277,
                0.22645796242182095,
                2.386582873949806
            ]
        },
        {
            "positions": [
                -1.0084319518369473,
                -1.0307715582827899,
                -0.7001859216963858,
                -0.5466523439357321,
                0.20559582032253237,
                2.227745855292555
            ]
        },
        {
            "positions": [
                -0.9530356396636094,
                -1.0535980114767711,
                -0.7773478525437598,
                -0.5938403684161366,
                0.18473367822324377,
                2.068908836635304
            ]
        },
        {
            "positions": [
                -0.8976393274902714,
                -1.0764244646707526,
                -0.8545097833911338,
                -0.641028392896541,
                0.1638715361239552,
                1.9100718179780534
            ]
        },
        {
            "positions": [
                -0.8422430153169336,
                -1.099250917864734,
                -0.9316717142385078,
                -0.6882164173769455,
                0.1430093940246666,
                1.7512347993208022
            ]
        },
        {
            "positions": [
                -0.7868467031435957,
                -1.1220773710587153,
                -1.0088336450858817,
                -0.7354044418573499,
                0.12214725192537801,
                1.5923977806635514
            ]
        },
        {
            "positions": [
                -0.7314503909702578,
                -1.1449038242526968,
                -1.0859955759332558,
                -0.7825924663377544,
                0.10128510982608943,
                1.4335607620063007
            ]
        },
        {
            "positions": [
                -0.6760540787969198,
                -1.1677302774466782,
                -1.16315750678063,
                -0.8297804908181587,
                0.08042296772680083,
                1.2747237433490495
            ]
        },
        {
            "positions": [
                -0.620657766623582,
                -1.1905567306406595,
                -1.2403194376280038,
                -0.8769685152985632,
                0.05956082562751222,
                1.1158867246917985
            ]
        },
        {
            "positions": [
                -0.565261454450244,
                -1.213383183834641,
                -1.3174813684753777,
                -0.9241565397789677,
                0.038698683528223615,
                0.9570497060345475
            ]
        },
        {
            "positions": [
                -0.5098651422769062,
                -1.2362096370286224,
                -1.3946432993227518,
                -0.9713445642593721,
                0.017836541428935065,
                0.7982126873772968
            ]
        },
        {
            "positions": [
                -0.4544688301035682,
                -1.2590360902226037,
                -1.4718052301701259,
                -1.0185325887397765,
                -0.00302560067035354,
                0.6393756687200458
            ]
        },
        {
            "positions": [
                -0.39907251793023035,
                -1.2818625434165851,
                -1.5489671610174995,
                -1.0657206132201809,
                -0.02388774276964209,
                0.48053865006279506
            ]
        },
        {
            "positions": [
                -0.3436762057568924,
                -1.3046889966105666,
                -1.6261290918648739,
                -1.1129086377005855,
                -0.04474988486893075,
                0.32170163140554386
            ]
        },
        {
            "positions": [
                -0.28827989358355444,
                -1.3275154498045478,
                -1.7032910227122477,
                -1.1600966621809898,
                -0.0656120269682193,
                0.1628646127482929
            ]
        },
        {
            "positions": [
                -0.2328835814102166,
                -1.3503419029985293,
                -1.7804529535596216,
                -1.2072846866613942,
                -0.08647416906750785,
                0.0040275940910423635
            ]
        },
        {
            "positions": [
                -0.17748726923687863,
                -1.3731683561925108,
                -1.8576148844069957,
                -1.2544727111417988,
                -0.10733631116679651,
                -0.15480942456620905
            ]
        },
        {
            "positions": [
                -0.12209095706354078,
                -1.395994809386492,
                -1.9347768152543696,
                -1.3016607356222032,
                -0.12819845326608506,
                -0.3136464432234596
            ]
        },
        {
            "positions": [
                -0.06669464489020283,
                -1.4188212625804737,
                -2.0119387461017437,
                -1.3488487601026076,
                -0.14906059536537372,
                -0.472483461880711
            ]
        },
        {
            "positions": [
                -0.011298332716864978,
                -1.441647715774455,
                -2.089100676949118,
                -1.396036784583012,
                -0.16992273746466227,
                -0.6313204805379615
            ]
        },
        {
            "positions": [
                0.04409797945647287,
                -1.4644741689684362,
                -2.166262607796492,
                -1.4432248090634165,
                -0.19078487956395082,
                -0.7901574991952125
            ]
        },
        {
            "positions": [
                0.09949429162981094,
                -1.4873006221624179,
                -2.2434245386438656,
                -1.490412833543821,
                -0.21164702166323948,
                -0.9489945178524635
            ]
        },
        {
            "positions": [
                0.15489060380314884,
                -1.5101270753563991,
                -2.3205864694912397,
                -1.5376008580242253,
                -0.232509163762528,
                -1.1078315365097144
            ]
        },
        {
            "positions": [
                0.11571973756644185,
                -1.5362233114674069,
                -2.3399961909199636,
                -1.5972014972419064,
                -0.23331833897986157,
                -1.3298008766153155
            ]
        },
        {
            "positions": [
                0.07654887132973485,
                -1.5623195475784146,
                -2.359405912348688,
                -1.6568021364595877,
                -0.23412751419719513,
                -1.5517702167209164
            ]
        },
        {
            "positions": [
                0.037378005093027855,
                -1.5884157836894222,
                -2.378815633777412,
                -1.716402775677269,
                -0.23493668941452872,
                -1.7737395568265175
            ]
        },
        {
            "positions": [
                -0.0017928611436791309,
                -1.61451201980043,
                -2.3982253552061357,
                -1.7760034148949502,
                -0.23574586463186228,
                -1.9957088969321184
            ]
        },
        {
            "positions": [
                -0.040963727380386145,
                -1.6406082559114377,
                -2.41763507663486,
                -1.8356040541126313,
                -0.23655503984919585,
                -2.2176782370377195
            ]
        },
        {
            "positions": [
                -0.08013459361709313,
                -1.6667044920224454,
                -2.437044798063584,
                -1.8952046933303126,
                -0.2373642150665294,
                -2.4396475771433206
            ]
        },
        {
            "positions": [
                -0.10690864584384427,
                -1.6860860492660048,
                -2.4183978378299784,
                -1.9686830777396898,
                -0.22502941631596235,
                -2.610250790986614
            ]
        },
        {
            "positions": [
                -0.1336826980705954,
                -1.7054676065095642,
                -2.3997508775963734,
                -2.042161462149067,
                -0.21269461756539532,
                -2.7808540048299077
            ]
        },
        {
            "positions": [
                -0.16045675029734655,
                -1.7248491637531236,
                -2.3811039173627684,
                -2.115639846558444,
                -0.20035981881482826,
                -2.9514572186732013
            ]
        },
        {
            "positions": [
                -0.18723080252409768,
                -1.744230720996683,
                -2.362456957129163,
                -2.1891182309678214,
                -0.1880250200642612,
                -3.122060432516495
            ]
        }
    ]
}