{
    "goal": {
        "global_pose": {
            "orientation": {
                "w": -0.4816463035849501,
                "x": 0.5182115481033762,
                "y": 0.4908360881923453,
                "z": -0.5084816262002911
            },
            "position": {
                "x": -0.8240239810943604,
                "y": 0.19912469901144506,
                "z": 0.16403168439865112
            }
        },
        "name": "move_to_storage_D"
    },
    "id": "KPIECE_move_to_storage_D_38",
    "joint_names": [
        "shoulder_pan_joint",
        "shoulder_lift_joint",
        "elbow_joint",
        "wrist_1_joint",
        "wrist_2_joint",
        "wrist_3_joint"
    ],
    "metrics": {
        "cart_traj_len": 3.78974028565181,
        "distance_elbow_joint": 4.208879022971422,
        "distance_shoulder_lift_joint": 1.2653186087026564,
        "distance_shoulder_pan_joint": 2.8128165757522785,
        "distance_wrist_1_joint": 2.3871959734082093,
        "distance_wrist_2_joint": 0.8834385981620808,
        "distance_wrist_3_joint": 3.192608707540369,
        "smoothness": 0.28222671479197714,
        "time": 0.324522891,
        "traj_len": 3.8406063956798553,
        "weighted_distance": 4.940253988732566
    },
    "planner": "KPIECE",
    "start": {
        "state": {
            "elbow_joint": -2.384821990628643,
            "shoulder_lift_joint": -2.278805467437664,
            "shoulder_pan_joint": -0.18546946439364564,
            "wrist_1_joint": 1.4845938187801415,
            "wrist_2_joint": 0.178987772454074,
            "wrist_3_joint": 0.03710569632802521
        }
    },
    "waypoints": [
        {
            "positions": [
                -0.18546946439364564,
                -2.278805467437664,
                -2.384821990628643,
                1.4845938187801415,
                0.178987772454074,
                0.03710569632802521
            ]
        },
        {
            "positions": [
                -0.15401254947267537,
                -2.2280959525772244,
                -2.38494907096024,
                1.5093879573393703,
                0.17195393318567012,
                0.06851086409569393
            ]
        },
        {
            "positions": [
                -0.07806803011375292,
                -2.2038105986155307,
                -2.266336527608503,
                1.440875712033625,
                0.19647016829057493,
                -0.005907761535491926
            ]
        },
        {
            "positions": [
                -0.002123510754830471,
                -2.1795252446538376,
                -2.1477239842567664,
                1.37236346672788,
                0.22098640339547976,
                -0.08032638716667778
            ]
        },
        {
            "positions": [
                0.07382100860409202,
                -2.155239890692144,
                -2.0291114409050293,
                1.303851221422135,
                0.24550263850038456,
                -0.15474501279786365
            ]
        },
        {
            "positions": [
                0.14976552796301443,
                -2.1309545367304503,
                -1.9104988975532922,
                1.2353389761163898,
                0.27001887360528937,
                -0.2291636384290495
            ]
        },
        {
            "positions": [
                0.22571004732193692,
                -2.1066691827687567,
                -1.7918863542015553,
                1.1668267308106446,
                0.29453510871019417,
                -0.30358226406023536
            ]
        },
        {
            "positions": [
                0.30165456668085944,
                -2.0823838288070635,
                -1.6732738108498184,
                1.0983144855048994,
                0.31905134381509903,
                -0.3780008896914212
            ]
        },
        {
            "positions": [
                0.37759908603978176,
                -2.05809847484537,
                -1.5546612674980813,
                1.0298022401991545,
                0.3435675789200038,
                -0.45241951532260705
            ]
        },
        {
            "positions": [
                0.4535436053987042,
                -2.0338131208836763,
                -1.4360487241463444,
                0.9612899948934093,
                0.36808381402490864,
                -0.5268381409537929
            ]
        },
        {
            "positions": [
                0.5294881247576267,
                -2.009527766921983,
                -1.3174361807946073,
                0.8927777495876641,
                0.39260004912981344,
                -0.6012567665849787
            ]
        },
        {
            "positions": [
                0.6054326441165492,
                -1.9852424129602895,
                -1.1988236374428705,
                0.824265504281919,
                0.41711628423471825,
                -0.6756753922161646
            ]
        },
        {
            "positions": [
                0.6813771634754716,
                -1.9609570589985958,
                -1.0802110940911334,
                0.7557532589761738,
                0.4416325193396231,
                -0.7500940178473505
            ]
        },
        {
            "positions": [
                0.7573216828343942,
                -1.9366717050369024,
                -0.9615985507393965,
                0.6872410136704287,
                0.46614875444452786,
                -0.8245126434785364
            ]
        },
        {
            "positions": [
                0.8332662021933165,
                -1.912386351075209,
                -0.8429860073876596,
                0.6187287683646837,
                0.4906649895494327,
                -0.8989312691097221
            ]
        },
        {
            "positions": [
                0.9092107215522389,
                -1.8881009971135154,
                -0.7243734640359227,
                0.5502165230589385,
                0.5151812246543375,
                -0.973349894740908
            ]
        },
        {
            "positions": [
                0.9851552409111615,
                -1.863815643151822,
                -0.6057609206841856,
                0.48170427775319347,
                0.5396974597592423,
                -1.047768520372094
            ]
        },
        {
            "positions": [
                1.0610997602700838,
                -1.8395302891901286,
                -0.48714837733244876,
                0.4131920324474483,
                0.5642136948641472,
                -1.1221871460032797
            ]
        },
        {
            "positions": [
                1.1370442796290063,
                -1.815244935228435,
                -0.36853583398071166,
                0.3446797871417031,
                0.5887299299690519,
                -1.1966057716344656
            ]
        },
        {
            "positions": [
                1.2129887989879289,
                -1.7909595812667414,
                -0.24992329062897456,
                0.27616754183595793,
                0.6132461650739568,
                -1.2710243972656514
            ]
        },
        {
            "positions": [
                1.2889333183468512,
                -1.766674227305048,
                -0.13131074727723746,
                0.20765529653021275,
                0.6377624001788617,
                -1.3454430228968373
            ]
        },
        {
            "positions": [
                1.3648778377057738,
                -1.7423888733433546,
                -0.012698203925500806,
                0.1391430512244678,
                0.6622786352837664,
                -1.419861648528023
            ]
        },
        {
            "positions": [
                1.4408223570646963,
                -1.718103519381661,
                0.10591433942623629,
                0.07063080591872262,
                0.6867948703886713,
                -1.4942802741592092
            ]
        },
        {
            "positions": [
                1.5167668764236186,
                -1.6938181654199675,
                0.2245268827779734,
                0.002118560612977438,
                0.711311105493576,
                -1.568698899790395
            ]
        },
        {
            "positions": [
                1.5927113957825412,
                -1.6695328114582741,
                0.3431394261297105,
                -0.06639368469276774,
                0.7358273405984809,
                -1.6431175254215808
            ]
        },
        {
            "positions": [
                1.6686559151414637,
                -1.6452474574965805,
                0.46175196948144714,
                -0.13490592999851292,
                0.7603435757033856,
                -1.7175361510527667
            ]
        },
        {
            "positions": [
                1.744600434500386,
                -1.620962103534887,
                0.5803645128331842,
                -0.2034181753042581,
                0.7848598108082905,
                -1.7919547766839525
            ]
        },
        {
            "positions": [
                1.8205449538593084,
                -1.5966767495731937,
                0.6989770561849209,
                -0.27193042061000283,
                0.8093760459131952,
                -1.8663734023151382
            ]
        },
        {
            "positions": [
                1.896489473218231,
                -1.5723913956115,
                0.817589599536658,
                -0.340442665915748,
                0.8338922810181001,
                -1.940792027946324
            ]
        },
        {
            "positions": [
                1.9724339925771532,
                -1.5481060416498065,
                0.9362021428883947,
                -0.4089549112214932,
                0.8584085161230048,
                -2.01521065357751
            ]
        },
        {
            "positions": [
                2.048378511936076,
                -1.523820687688113,
                1.0548146862401317,
                -0.47746715652723837,
                0.8829247512279097,
                -2.0896292792086957
            ]
        },
        {
            "positions": [
                2.1243230312949986,
                -1.4995353337264197,
                1.1734272295918688,
                -0.5459794018329833,
                0.9074409863328144,
                -2.1640479048398817
            ]
        },
        {
            "positions": [
                2.200267550653921,
                -1.475249979764726,
                1.292039772943606,
                -0.6144916471387285,
                0.9319572214377193,
                -2.2384665304710674
            ]
        },
        {
            "positions": [
                2.276212070012843,
                -1.4509646258030326,
                1.4106523162953426,
                -0.6830038924444737,
                0.9564734565426242,
                -2.3128851561022534
            ]
        },
        {
            "positions": [
                2.352156589371766,
                -1.4266792718413392,
                1.5292648596470797,
                -0.7515161377502189,
                0.9809896916475289,
                -2.387303781733439
            ]
        },
        {
            "positions": [
                2.4281011087306883,
                -1.4023939178796456,
                1.6478774029988166,
                -0.8200283830559639,
                1.0055059267524338,
                -2.461722407364625
            ]
        },
        {
            "positions": [
                2.4779126093876744,
                -1.305167153093486,
                1.6918587701690087,
                -0.8117820094425525,
                1.016219118084162,
                -2.6194649744427205
            ]
        },
        {
            "positions": [
                2.5277241100446606,
                -1.2079403883073265,
                1.735840137339201,
                -0.803535635829141,
                1.0269323094158904,
                -2.7772075415208155
            ]
        },
        {
            "positions": [
                2.577535610701647,
                -1.110713623521167,
                1.779821504509393,
                -0.7952892622157296,
                1.0376455007476189,
                -2.934950108598911
            ]
        },
        {
            "positions": [
                2.6273471113586333,
                -1.0134868587350074,
                1.823802871679585,
                -0.7870428886023182,
                1.048358692079347,
                -3.0926926756770063
            ]
        }
    ]
}