{
    "goal": {
        "global_pose": {
            "orientation": {
                "w": 0.005598929693374612,
                "x": 0.007748599140229565,
                "y": 0.7110244013736278,
                "z": -0.7031023480610252
            },
            "position": {
                "x": -0.8858502320852131,
                "y": -0.7141253447532654,
                "z": 0.3711530566215515
            }
        },
        "name": "move_to_auspresseinheit_C"
    },
    "id": "KPIECE_move_to_auspresseinheit_C_82",
    "joint_names": [
        "shoulder_pan_joint",
        "shoulder_lift_joint",
        "elbow_joint",
        "wrist_1_joint",
        "wrist_2_joint",
        "wrist_3_joint"
    ],
    "metrics": {
        "cart_traj_len": 0.4930965937991223,
        "distance_elbow_joint": 1.002950981062963,
        "distance_shoulder_lift_joint": 0.32559296169584784,
        "distance_shoulder_pan_joint": 0.2568398080429759,
        "distance_wrist_1_joint": 0.6963387301720644,
        "distance_wrist_2_joint": 1.3021363487125497,
        "distance_wrist_3_joint": 0.07426324153414887,
        "smoothness": 9.689219149575435e-16,
        "time": 1.589392624,
        "traj_len": 1.9126217794484484,
        "weighted_distance": 2.4093824173786653
    },
    "planner": "KPIECE",
    "start": {
        "state": {
            "elbow_joint": 1.7527959577730765,
            "shoulder_lift_joint": -0.9740617694224828,
            "shoulder_pan_joint": -2.967991417825869,
            "wrist_1_joint": -0.7595177689779385,
            "wrist_2_joint": 1.7443932448376545,
            "wrist_3_joint": 3.1991315425061013
        }
    },
    "waypoints": [
        {
            "positions": [
                -2.967991417825869,
                -0.9740617694224828,
                1.7527959577730765,
                -0.7595177689779385,
                1.7443932448376545,
                3.1991315425061013
            ]
        },
        {
            "positions": [
                -2.9423074370215714,
                -0.941502473252898,
                1.6525008596667803,
                -0.6898838959607321,
                1.6141796099663994,
                3.1917052183526864
            ]
        },
        {
            "positions": [
                -2.9166234562172737,
                -0.9089431770833132,
                1.5522057615604838,
                -0.6202500229435257,
                1.4839659750951446,
                3.1842788941992715
            ]
        },
        {
            "positions": [
                -2.8909394754129765,
                -0.8763838809137284,
                1.4519106634541876,
                -0.5506161499263192,
                1.3537523402238896,
                3.1768525700458565
            ]
        },
        {
            "positions": [
                -2.865255494608679,
                -0.8438245847441437,
                1.3516155653478912,
                -0.48098227690911277,
                1.2235387053526345,
                3.1694262458924416
            ]
        },
        {
            "positions": [
                -2.839571513804381,
                -0.8112652885745588,
                1.251320467241595,
                -0.41134840389190636,
                1.0933250704813795,
                3.161999921739027
            ]
        },
        {
            "positions": [
                -2.8138875330000834,
                -0.7787059924049741,
                1.1510253691352985,
                -0.34171453087469994,
                0.9631114356101247,
                3.154573597585612
            ]
        },
        {
            "positions": [
                -2.7882035521957858,
                -0.7461466962353893,
                1.0507302710290025,
                -0.2720806578574935,
                0.8328978007388698,
                3.1471472734321972
            ]
        },
        {
            "positions": [
                -2.7625195713914885,
                -0.7135874000658045,
                0.950435172922706,
                -0.202446784840287,
                0.7026841658676146,
                3.1397209492787823
            ]
        },
        {
            "positions": [
                -2.736835590587191,
                -0.6810281038962197,
                0.8501400748164097,
                -0.13281291182308064,
                0.5724705309963598,
                3.1322946251253674
            ]
        },
        {
            "positions": [
                -2.711151609782893,
                -0.648468807726635,
                0.7498449767101133,
                -0.06317903880587415,
                0.44225689612510477,
                3.1248683009719525
            ]
        }
    ]
}