{
    "goal": {
        "global_pose": {
            "orientation": {
                "w": 0.7047431493862688,
                "x": -0.7094548369677653,
                "y": 0.0024358444001904,
                "z": -0.0022348060817251984
            },
            "position": {
                "x": -0.39052492380142206,
                "y": 0.3671506643295288,
                "z": 0.19426114857196808
            }
        },
        "name": "move_to_magneteinheit_D"
    },
    "id": "KPIECE_move_to_magneteinheit_D_49",
    "joint_names": [
        "shoulder_pan_joint",
        "shoulder_lift_joint",
        "elbow_joint",
        "wrist_1_joint",
        "wrist_2_joint",
        "wrist_3_joint"
    ],
    "metrics": {
        "cart_traj_len": 4.084819702563299,
        "distance_elbow_joint": 3.146367384073969,
        "distance_shoulder_lift_joint": 1.6271594437067225,
        "distance_shoulder_pan_joint": 3.2310521165500594,
        "distance_wrist_1_joint": 1.8723531459299267,
        "distance_wrist_2_joint": 1.9224336732428047,
        "distance_wrist_3_joint": 3.0417948406234205,
        "smoothness": 0.20182400002090217,
        "time": 0.26594336900000004,
        "traj_len": 3.8524226928164182,
        "weighted_distance": 4.971874606679705
    },
    "planner": "KPIECE",
    "start": {
        "state": {
            "elbow_joint": 0.7495348899011911,
            "shoulder_lift_joint": -0.6476975780737668,
            "shoulder_pan_joint": -2.711696901376276,
            "wrist_1_joint": -0.0750647808097303,
            "wrist_2_joint": 0.43296659715458535,
            "wrist_3_joint": 3.1361499051832418
        }
    },
    "waypoints": [
        {
            "positions": [
                -2.711696901376276,
                -0.6476975780737668,
                0.7495348899011911,
                -0.0750647808097303,
                0.43296659715458535,
                3.1361499051832418
            ]
        },
        {
            "positions": [
                -2.710764865706806,
                -0.6547070815201647,
                0.7390554868017981,
                0.033357380702693715,
                0.3451825607115907,
                3.0481715016704363
            ]
        },
        {
            "positions": [
                -2.7098328300373358,
                -0.6617165849665626,
                0.7285760837024051,
                0.14177954221511774,
                0.2573985242685961,
                2.9601930981576303
            ]
        },
        {
            "positions": [
                -2.7089007943678656,
                -0.6687260884129604,
                0.7180966806030121,
                0.25020170372754175,
                0.16961448782560146,
                2.872214694644825
            ]
        },
        {
            "positions": [
                -2.696542938181,
                -0.6791253430582698,
                0.686614883298828,
                0.3656240001871055,
                0.08796265172416168,
                2.760978782829166
            ]
        },
        {
            "positions": [
                -2.6841850819941344,
                -0.6895245977035791,
                0.6551330859946438,
                0.4810462966466692,
                0.006310815622721899,
                2.6497428710135074
            ]
        },
        {
            "positions": [
                -2.671827225807269,
                -0.6999238523488884,
                0.6236512886904597,
                0.596468593106233,
                -0.07534102047871788,
                2.538506959197849
            ]
        },
        {
            "positions": [
                -2.6594693696204033,
                -0.7103231069941978,
                0.5921694913862755,
                0.7118908895657967,
                -0.15699285658015766,
                2.4272710473821903
            ]
        },
        {
            "positions": [
                -2.647111513433538,
                -0.7207223616395071,
                0.5606876940820914,
                0.8273131860253604,
                -0.23864469268159744,
                2.3160351355665316
            ]
        },
        {
            "positions": [
                -2.6347536572466725,
                -0.7311216162848164,
                0.5292058967779072,
                0.9427354824849241,
                -0.3202965287830372,
                2.204799223750873
            ]
        },
        {
            "positions": [
                -2.622395801059807,
                -0.7415208709301258,
                0.4977240994737231,
                1.058157778944488,
                -0.401948364884477,
                2.093563311935214
            ]
        },
        {
            "positions": [
                -2.6100379448729414,
                -0.7519201255754351,
                0.46624230216953894,
                1.1735800754040517,
                -0.4836002009859168,
                1.9823274001195557
            ]
        },
        {
            "positions": [
                -2.597680088686076,
                -0.7623193802207444,
                0.4347605048653548,
                1.2890023718636154,
                -0.5652520370873566,
                1.871091488303897
            ]
        },
        {
            "positions": [
                -2.471978086779293,
                -0.8156866743457734,
                0.33813820460134303,
                1.2809272815182988,
                -0.5324373880034168,
                1.8018137827912095
            ]
        },
        {
            "positions": [
                -2.3462760848725104,
                -0.8690539684708023,
                0.24151590433733133,
                1.2728521911729822,
                -0.49962273891947695,
                1.732536077278522
            ]
        },
        {
            "positions": [
                -2.2205740829657277,
                -0.9224212625958312,
                0.14489360407331964,
                1.2647771008276656,
                -0.4668080898355371,
                1.663258371765835
            ]
        },
        {
            "positions": [
                -2.094872081058945,
                -0.9757885567208602,
                0.048271303809307886,
                1.2567020104823492,
                -0.43399344075159724,
                1.5939806662531475
            ]
        },
        {
            "positions": [
                -1.9691700791521622,
                -1.0291558508458891,
                -0.04835099645470381,
                1.2486269201370326,
                -0.4011787916676574,
                1.52470296074046
            ]
        },
        {
            "positions": [
                -1.8434680772453798,
                -1.082523144970918,
                -0.1449732967187155,
                1.240551829791716,
                -0.3683641425837176,
                1.4554252552277727
            ]
        },
        {
            "positions": [
                -1.7177660753385968,
                -1.135890439095947,
                -0.24159559698272726,
                1.2324767394463993,
                -0.33554949349977775,
                1.3861475497150852
            ]
        },
        {
            "positions": [
                -1.5920640734318143,
                -1.189257733220976,
                -0.338217897246739,
                1.2244016491010827,
                -0.30273484441583787,
                1.3168698442023978
            ]
        },
        {
            "positions": [
                -1.4663620715250316,
                -1.2426250273460049,
                -0.43484019751075076,
                1.2163265587557661,
                -0.26992019533189804,
                1.2475921386897104
            ]
        },
        {
            "positions": [
                -1.340660069618249,
                -1.2959923214710338,
                -0.5314624977747624,
                1.2082514684104495,
                -0.2371055462479582,
                1.1783144331770232
            ]
        },
        {
            "positions": [
                -1.2149580677114662,
                -1.3493596155960628,
                -0.6280847980387742,
                1.2001763780651329,
                -0.20429089716401838,
                1.1090367276643358
            ]
        },
        {
            "positions": [
                -1.0892560658046837,
                -1.4027269097210917,
                -0.7247070983027858,
                1.1921012877198165,
                -0.17147624808007855,
                1.0397590221516486
            ]
        },
        {
            "positions": [
                -0.9635540638979008,
                -1.4560942038461209,
                -0.8213293985667977,
                1.1840261973744999,
                -0.13866159899613867,
                0.970481316638961
            ]
        },
        {
            "positions": [
                -0.8378520619911181,
                -1.5094614979711496,
                -0.9179516988308093,
                1.1759511070291833,
                -0.1058469499121989,
                0.9012036111262737
            ]
        },
        {
            "positions": [
                -0.7121500600843356,
                -1.5628287920961785,
                -1.014573999094821,
                1.1678760166838666,
                -0.07303230082825907,
                0.8319259056135864
            ]
        },
        {
            "positions": [
                -0.5864480581775529,
                -1.6161960862212077,
                -1.111196299358833,
                1.15980092633855,
                -0.04021765174431913,
                0.762648200100899
            ]
        },
        {
            "positions": [
                -0.46074605627077014,
                -1.6695633803462364,
                -1.2078185996228443,
                1.1517258359932334,
                -0.00740300266037941,
                0.6933704945882115
            ]
        },
        {
            "positions": [
                -0.33504405436398743,
                -1.7229306744712656,
                -1.3044408998868562,
                1.1436507456479168,
                0.02541164642356053,
                0.6240927890755241
            ]
        },
        {
            "positions": [
                -0.20934205245720472,
                -1.7762979685962945,
                -1.401063200150868,
                1.1355756553026004,
                0.05822629550750036,
                0.5548150835628367
            ]
        },
        {
            "positions": [
                -0.08364005055042201,
                -1.8296652627213235,
                -1.4976855004148795,
                1.1275005649572838,
                0.09104094459144019,
                0.4855373780501495
            ]
        },
        {
            "positions": [
                0.042061951356360705,
                -1.8830325568463524,
                -1.5943078006788918,
                1.1194254746119672,
                0.12385559367538002,
                0.4162596725374621
            ]
        },
        {
            "positions": [
                0.16776395326314353,
                -1.9363998509713813,
                -1.690930100942903,
                1.1113503842666506,
                0.1566702427593198,
                0.3469819670247746
            ]
        },
        {
            "positions": [
                0.15345883708498778,
                -1.9934924594005892,
                -1.8260123996271564,
                1.1553841662511546,
                0.19304028956079325,
                0.2713043698072429
            ]
        },
        {
            "positions": [
                0.13915372090683203,
                -2.050585067829797,
                -1.9610946983114101,
                1.1994179482356588,
                0.2294103363622667,
                0.19562677258971117
            ]
        },
        {
            "positions": [
                0.1248486047286763,
                -2.107677676259005,
                -2.0961769969956636,
                1.2434517302201629,
                0.2657803831637402,
                0.11994917537217947
            ]
        },
        {
            "positions": [
                0.021956633603285355,
                -2.1634041247661666,
                -2.1963954960547016,
                1.3096292834555308,
                0.23471951024715154,
                0.11141780510139336
            ]
        },
        {
            "positions": [
                -0.08093533752210559,
                -2.2191305732733277,
                -2.29661399511374,
                1.3758068366908989,
                0.20365863733056289,
                0.10288643483060725
            ]
        },
        {
            "positions": [
                -0.18382730864749655,
                -2.2748570217804893,
                -2.396832494172778,
                1.4419843899262668,
                0.1725977644139742,
                0.09435506455982112
            ]
        }
    ]
}