{
    "goal": {
        "global_pose": {
            "orientation": {
                "w": 0.7031023502349854,
                "x": -0.7110244035720825,
                "y": 0.007748599164187908,
                "z": 0.005598929710686207
            },
            "position": {
                "x": 0.11585023208521307,
                "y": 0.44412534475326537,
                "z": 0.3711530566215515
            }
        },
        "name": "move_to_auspresseinheit_A"
    },
    "id": "KPIECE_move_to_auspresseinheit_A_39",
    "joint_names": [
        "shoulder_pan_joint",
        "shoulder_lift_joint",
        "elbow_joint",
        "wrist_1_joint",
        "wrist_2_joint",
        "wrist_3_joint"
    ],
    "metrics": {
        "cart_traj_len": 0.6847960074978343,
        "distance_elbow_joint": 0.12379156426032356,
        "distance_shoulder_lift_joint": 0.7396200358312921,
        "distance_shoulder_pan_joint": 1.0457766271944051,
        "distance_wrist_1_joint": 0.6546645039304162,
        "distance_wrist_2_joint": 0.5222633455930195,
        "distance_wrist_3_joint": 0.19657520097850067,
        "smoothness": 0.9895616022563871,
        "time": 0.235157816,
        "traj_len": 1.8118198800620213,
        "weighted_distance": 2.2029002540442892
    },
    "planner": "KPIECE",
    "start": {
        "state": {
            "elbow_joint": 2.4225746994637096,
            "shoulder_lift_joint": -1.373653595662188,
            "shoulder_pan_joint": -0.3378633848294565,
            "wrist_1_joint": -1.0288595594406726,
            "wrist_2_joint": 1.2330228066703421,
            "wrist_3_joint": 3.189163495502006
        }
    },
    "waypoints": [
        {
            "positions": [
                -0.3378633848294565,
                -1.373653595662188,
                2.4225746994637096,
                -1.0288595594406726,
                1.2330228066703421,
                3.189163495502006
            ]
        },
        {
            "positions": [
                -0.20003835971199418,
                -1.4647293729781246,
                2.4293170347085495,
                -0.9423158845371389,
                1.1907698117409042,
                3.171968226405841
            ]
        },
        {
            "positions": [
                -0.06221333459453188,
                -1.555805150294061,
                2.43605936995339,
                -0.8557722096336051,
                1.1485168168114663,
                3.1547729573096754
            ]
        },
        {
            "positions": [
                0.07561169052293043,
                -1.6468809276099978,
                2.44280170519823,
                -0.7692285347300714,
                1.1062638218820284,
                3.1375776882135105
            ]
        },
        {
            "positions": [
                0.21343671564039274,
                -1.7379567049259343,
                2.4495440404430697,
                -0.6826848598265375,
                1.0640108269525907,
                3.120382419117345
            ]
        },
        {
            "positions": [
                0.35126174075785516,
                -1.829032482241871,
                2.4562863756879096,
                -0.5961411849230036,
                1.0217578320231528,
                3.10318715002118
            ]
        },
        {
            "positions": [
                0.48908676587531735,
                -1.9201082595578076,
                2.46302871093275,
                -0.50959751001947,
                0.9795048370937149,
                3.0859918809250146
            ]
        },
        {
            "positions": [
                0.6269117909927798,
                -2.011184036873744,
                2.46977104617759,
                -0.42305383511593603,
                0.937251842164277,
                3.0687966118288497
            ]
        },
        {
            "positions": [
                0.6674125166788643,
                -1.9601392395638761,
                2.4314734374043683,
                -0.4474832249187759,
                0.8240056516207999,
                3.1069007704815217
            ]
        },
        {
            "positions": [
                0.7079132423649488,
                -1.9090944422540082,
                2.3931758286311466,
                -0.4719126147216158,
                0.7107594610773227,
                3.145004929134194
            ]
        }
    ]
}