{
    "goal": {
        "global_pose": {
            "orientation": {
                "w": -0.4816463035849501,
                "x": 0.5182115481033762,
                "y": 0.4908360881923453,
                "z": -0.5084816262002911
            },
            "position": {
                "x": -0.8240239810943604,
                "y": -0.300875300988555,
                "z": 0.16403168439865112
            }
        },
        "name": "move_to_storage_C"
    },
    "id": "KPIECE_move_to_storage_C_63",
    "joint_names": [
        "shoulder_pan_joint",
        "shoulder_lift_joint",
        "elbow_joint",
        "wrist_1_joint",
        "wrist_2_joint",
        "wrist_3_joint"
    ],
    "metrics": {
        "cart_traj_len": 0.5763344976355633,
        "distance_elbow_joint": 0.2579360218947595,
        "distance_shoulder_lift_joint": 0.18858409586287384,
        "distance_shoulder_pan_joint": 0.49549990033047964,
        "distance_wrist_1_joint": 0.08035481952750323,
        "distance_wrist_2_joint": 1.0598611692169388,
        "distance_wrist_3_joint": 0.06753608208524442,
        "smoothness": 2.5376526478085547e-16,
        "time": 0.07417652599999999,
        "traj_len": 1.4662101107678258,
        "weighted_distance": 1.8506918278937556
    },
    "planner": "KPIECE",
    "start": {
        "state": {
            "elbow_joint": 2.0108683149792914,
            "shoulder_lift_joint": -1.1634956873317392,
            "shoulder_pan_joint": -2.4736205022346,
            "wrist_1_joint": -0.8367026793690192,
            "wrist_2_joint": 0.6746043897045053,
            "wrist_3_joint": 3.133522094754363
        }
    },
    "waypoints": [
        {
            "positions": [
                -2.4736205022346,
                -1.1634956873317392,
                2.0108683149792914,
                -0.8367026793690192,
                0.6746043897045053,
                3.133522094754363
            ]
        },
        {
            "positions": [
                -2.5562038189563467,
                -1.132065004687927,
                1.9678789779968315,
                -0.8233102094477687,
                0.8512479179073285,
                3.1447781084352373
            ]
        },
        {
            "positions": [
                -2.6387871356780934,
                -1.1006343220441146,
                1.9248896410143717,
                -0.8099177395265181,
                1.0278914461101516,
                3.1560341221161115
            ]
        },
        {
            "positions": [
                -2.7213704523998397,
                -1.0692036394003024,
                1.8819003040319116,
                -0.7965252696052676,
                1.2045349743129747,
                3.1672901357969856
            ]
        },
        {
            "positions": [
                -2.8039537691215863,
                -1.03777295675649,
                1.8389109670494517,
                -0.7831327996840171,
                1.3811785025157979,
                3.1785461494778593
            ]
        },
        {
            "positions": [
                -2.886537085843333,
                -1.0063422741126777,
                1.7959216300669918,
                -0.7697403297627665,
                1.557822030718621,
                3.1898021631587334
            ]
        },
        {
            "positions": [
                -2.9691204025650797,
                -0.9749115914688654,
                1.752932293084532,
                -0.756347859841516,
                1.7344655589214442,
                3.2010581768396076
            ]
        }
    ]
}