{
    "goal": {
        "global_pose": {
            "orientation": {
                "w": -0.4816463035849501,
                "x": 0.5182115481033762,
                "y": 0.4908360881923453,
                "z": -0.5084816262002911
            },
            "position": {
                "x": -0.8240239810943604,
                "y": 0.19912469901144506,
                "z": 0.16403168439865112
            }
        },
        "name": "move_to_storage_D"
    },
    "id": "KPIECE_move_to_storage_D_142",
    "joint_names": [
        "shoulder_pan_joint",
        "shoulder_lift_joint",
        "elbow_joint",
        "wrist_1_joint",
        "wrist_2_joint",
        "wrist_3_joint"
    ],
    "metrics": {
        "cart_traj_len": 0.7133427720220977,
        "distance_elbow_joint": 0.5566129063995007,
        "distance_shoulder_lift_joint": 0.3008722029736237,
        "distance_shoulder_pan_joint": 0.7484662523050641,
        "distance_wrist_1_joint": 3.8229301792277464,
        "distance_wrist_2_joint": 2.210565919089116,
        "distance_wrist_3_joint": 4.068674928539934,
        "smoothness": 0.5406043435491803,
        "time": 0.11766590900000001,
        "traj_len": 3.4217133703066045,
        "weighted_distance": 5.087137539317344
    },
    "planner": "KPIECE",
    "start": {
        "state": {
            "elbow_joint": -2.384821990628643,
            "shoulder_lift_joint": -2.278805467437664,
            "shoulder_pan_joint": -0.18546946439364564,
            "wrist_1_joint": 1.4845938187801415,
            "wrist_2_joint": 0.178987772454074,
            "wrist_3_joint": 0.03710569632802521
        }
    },
    "waypoints": [
        {
            "positions": [
                -0.18546946439364564,
                -2.278805467437664,
                -2.384821990628643,
                1.4845938187801415,
                0.178987772454074,
                0.03710569632802521
            ]
        },
        {
            "positions": [
                -0.07309389765920118,
                -2.2222662876430794,
                -2.3547665148335977,
                1.4666644332183671,
                0.23280066566801633,
                0.15593177011578216
            ]
        },
        {
            "positions": [
                0.039281669075243275,
                -2.165727107848495,
                -2.3247110390385526,
                1.4487350476565928,
                0.28661355888195866,
                0.2747578439035391
            ]
        },
        {
            "positions": [
                0.1516572358096877,
                -2.1091879280539105,
                -2.294655563243507,
                1.4308056620948184,
                0.340426452095901,
                0.3935839176912961
            ]
        },
        {
            "positions": [
                0.2640328025441322,
                -2.052648748259326,
                -2.2646000874484615,
                1.412876276533044,
                0.39423934530984334,
                0.512409991479053
            ]
        },
        {
            "positions": [
                0.25253418772231345,
                -2.055522420712991,
                -2.2478158180938723,
                1.2685988674184037,
                0.31749648583933,
                0.37420342865640266
            ]
        },
        {
            "positions": [
                0.24103557290049477,
                -2.058396093166656,
                -2.231031548739283,
                1.1243214583037635,
                0.24075362636881667,
                0.2359968658337524
            ]
        },
        {
            "positions": [
                0.22953695807867602,
                -2.0612697656203207,
                -2.214247279384694,
                0.980044049189123,
                0.16401076689830332,
                0.09779030301110209
            ]
        },
        {
            "positions": [
                0.2180383432568573,
                -2.0641434380739856,
                -2.1974630100301047,
                0.8357666400744828,
                0.08726790742779,
                -0.04041625981154817
            ]
        },
        {
            "positions": [
                0.2065397284350386,
                -2.0670171105276505,
                -2.1806787406755155,
                0.6914892309598424,
                0.010525047957276656,
                -0.17862282263419849
            ]
        },
        {
            "positions": [
                0.19504111361321985,
                -2.0698907829813153,
                -2.1638944713209263,
                0.547211821845202,
                -0.06621781151323669,
                -0.3168293854568488
            ]
        },
        {
            "positions": [
                0.18354249879140117,
                -2.07276445543498,
                -2.147110201966337,
                0.40293441273056185,
                -0.14296067098374993,
                -0.4550359482794989
            ]
        },
        {
            "positions": [
                0.17204388396958242,
                -2.0756381278886447,
                -2.130325932611748,
                0.2586570036159215,
                -0.21970353045426333,
                -0.5932425111021493
            ]
        },
        {
            "positions": [
                0.1605452691477637,
                -2.0785118003423095,
                -2.1135416632571586,
                0.1143795945012811,
                -0.2964463899247766,
                -0.7314490739247994
            ]
        },
        {
            "positions": [
                0.149046654325945,
                -2.0813854727959744,
                -2.0967573939025694,
                -0.029897814613359275,
                -0.37318924939529,
                -0.86965563674745
            ]
        },
        {
            "positions": [
                0.13754803950412628,
                -2.0842591452496393,
                -2.0799731245479802,
                -0.17417522372799943,
                -0.4499321088658033,
                -1.0078621995701
            ]
        },
        {
            "positions": [
                0.12604942468230754,
                -2.087132817703304,
                -2.063188855193391,
                -0.31845263284264,
                -0.5266749683363168,
                -1.1460687623927506
            ]
        },
        {
            "positions": [
                0.11455080986048882,
                -2.090006490156969,
                -2.0464045858388022,
                -0.4627300419572802,
                -0.6034178278068301,
                -1.2842753252154007
            ]
        },
        {
            "positions": [
                0.10305219503867011,
                -2.092880162610634,
                -2.029620316484213,
                -0.6070074510719203,
                -0.6801606872773431,
                -1.4224818880380508
            ]
        },
        {
            "positions": [
                0.0915535802168514,
                -2.095753835064299,
                -2.012836047129624,
                -0.7512848601865605,
                -0.7569035467478564,
                -1.560688450860701
            ]
        },
        {
            "positions": [
                0.08005496539503265,
                -2.0986275075179637,
                -1.9960517777750344,
                -0.8955622693012011,
                -0.8336464062183699,
                -1.6988950136833516
            ]
        },
        {
            "positions": [
                0.06855635057321394,
                -2.1015011799716286,
                -1.9792675084204452,
                -1.0398396784158417,
                -0.9103892656888832,
                -1.8371015765060017
            ]
        },
        {
            "positions": [
                0.05705773575139522,
                -2.1043748524252934,
                -1.9624832390658562,
                -1.1841170875304818,
                -0.9871321251593965,
                -1.9753081393286518
            ]
        },
        {
            "positions": [
                0.04555912092957651,
                -2.1072485248789583,
                -1.945698969711267,
                -1.328394496645122,
                -1.0638749846299098,
                -2.1135147021513023
            ]
        },
        {
            "positions": [
                0.034060506107757765,
                -2.1101221973326227,
                -1.9289147003566778,
                -1.4726719057597626,
                -1.1406178441004233,
                -2.251721264973953
            ]
        },
        {
            "positions": [
                0.02256189128593905,
                -2.1129958697862876,
                -1.9121304310020886,
                -1.6169493148744027,
                -1.2173607035709366,
                -2.389927827796603
            ]
        },
        {
            "positions": [
                0.011063276464120364,
                -2.1158695422399525,
                -1.8953461616474994,
                -1.761226723989043,
                -1.29410356304145,
                -2.528134390619253
            ]
        },
        {
            "positions": [
                -0.00043533835769837825,
                -2.1187432146936174,
                -1.8785618922929102,
                -1.9055041331036835,
                -1.3708464225119632,
                -2.666340953441903
            ]
        },
        {
            "positions": [
                -0.01193395317951712,
                -2.1216168871472822,
                -1.861777622938321,
                -2.049781542218324,
                -1.4475892819824767,
                -2.804547516264554
            ]
        },
        {
            "positions": [
                -0.023432568001335863,
                -2.124490559600947,
                -1.8449933535837317,
                -2.1940589513329645,
                -1.52433214145299,
                -2.942754079087204
            ]
        },
        {
            "positions": [
                -0.03493118282315458,
                -2.127364232054612,
                -1.8282090842291425,
                -2.3383363604476046,
                -1.6010750009235033,
                -3.0809606419098543
            ]
        }
    ]
}