{
    "goal": {
        "global_pose": {
            "orientation": {
                "w": 0.7047431493862688,
                "x": -0.7094548369677653,
                "y": 0.0024358444001904,
                "z": -0.0022348060817251984
            },
            "position": {
                "x": -0.39052492380142206,
                "y": 0.3671506643295288,
                "z": 0.19426114857196808
            }
        },
        "name": "move_to_magneteinheit_D"
    },
    "id": "KPIECE_move_to_magneteinheit_D_33",
    "joint_names": [
        "shoulder_pan_joint",
        "shoulder_lift_joint",
        "elbow_joint",
        "wrist_1_joint",
        "wrist_2_joint",
        "wrist_3_joint"
    ],
    "metrics": {
        "cart_traj_len": 5.137282360329894,
        "distance_elbow_joint": 3.852793762387031,
        "distance_shoulder_lift_joint": 1.1756720010117543,
        "distance_shoulder_pan_joint": 5.095219400016762,
        "distance_wrist_1_joint": 2.1415859607981997,
        "distance_wrist_2_joint": 0.6059460973156885,
        "distance_wrist_3_joint": 0.3415800083031022,
        "smoothness": 0.5081876005816846,
        "time": 0.548899947,
        "traj_len": 3.634941159060562,
        "weighted_distance": 4.079643281532422
    },
    "planner": "KPIECE",
    "start": {
        "state": {
            "elbow_joint": 0.7495348899011911,
            "shoulder_lift_joint": -0.6476975780737668,
            "shoulder_pan_joint": -2.711696901376276,
            "wrist_1_joint": -0.0750647808097303,
            "wrist_2_joint": 0.43296659715458535,
            "wrist_3_joint": 3.1361499051832418
        }
    },
    "waypoints": [
        {
            "positions": [
                -2.711696901376276,
                -0.6476975780737668,
                0.7495348899011911,
                -0.0750647808097303,
                0.43296659715458535,
                3.1361499051832418
            ]
        },
        {
            "positions": [
                -2.7200573998602118,
                -0.6864603721015676,
                0.6773424387021864,
                -0.08182299413924393,
                0.4095654842440156,
                3.0602450219109243
            ]
        },
        {
            "positions": [
                -2.7284178983441474,
                -0.7252231661293684,
                0.6051499875031816,
                -0.08858120746875758,
                0.38616437133344583,
                2.984340138638607
            ]
        },
        {
            "positions": [
                -2.5696047317869004,
                -0.7694330169296598,
                0.46625370593289306,
                -0.12669460270140517,
                0.37089614467738385,
                2.984897422202758
            ]
        },
        {
            "positions": [
                -2.410791565229653,
                -0.8136428677299512,
                0.32735742436260445,
                -0.16480799793405276,
                0.3556279180213219,
                2.9854547057669096
            ]
        },
        {
            "positions": [
                -2.2519783986724056,
                -0.8578527185302426,
                0.18846114279231585,
                -0.20292139316670035,
                0.3403596913652599,
                2.986011989331061
            ]
        },
        {
            "positions": [
                -2.0931652321151586,
                -0.902062569330534,
                0.0495648612220273,
                -0.24103478839934794,
                0.3250914647091979,
                2.9865692728952125
            ]
        },
        {
            "positions": [
                -1.9343520655579114,
                -0.9462724201308255,
                -0.08933142034826136,
                -0.27914818363199556,
                0.30982323805313594,
                2.987126556459364
            ]
        },
        {
            "positions": [
                -1.7755388990006642,
                -0.9904822709311167,
                -0.2282277019185499,
                -0.3172615788646431,
                0.29455501139707396,
                2.9876838400235153
            ]
        },
        {
            "positions": [
                -1.616725732443417,
                -1.0346921217314082,
                -0.36712398348883857,
                -0.35537497409729074,
                0.279286784741012,
                2.988241123587667
            ]
        },
        {
            "positions": [
                -1.4579125658861698,
                -1.0789019725316995,
                -0.506020265059127,
                -0.3934883693299383,
                0.26401855808495006,
                2.9887984071518185
            ]
        },
        {
            "positions": [
                -1.2990993993289226,
                -1.123111823331991,
                -0.6449165466294156,
                -0.43160176456258587,
                0.24875033142888808,
                2.98935569071597
            ]
        },
        {
            "positions": [
                -1.1402862327716754,
                -1.1673216741322823,
                -0.7838128281997043,
                -0.4697151597952335,
                0.23348210477282608,
                2.9899129742801214
            ]
        },
        {
            "positions": [
                -0.9814730662144282,
                -1.2115315249325738,
                -0.9227091097699929,
                -0.507828555027881,
                0.21821387811676413,
                2.990470257844273
            ]
        },
        {
            "positions": [
                -0.822659899657181,
                -1.2557413757328653,
                -1.0616053913402814,
                -0.5459419502605287,
                0.20294565146070215,
                2.991027541408424
            ]
        },
        {
            "positions": [
                -0.663846733099934,
                -1.2999512265331565,
                -1.20050167291057,
                -0.5840553454931763,
                0.1876774248046402,
                2.9915848249725756
            ]
        },
        {
            "positions": [
                -0.5050335665426866,
                -1.344161077333448,
                -1.3393979544808587,
                -0.6221687407258238,
                0.1724091981485782,
                2.992142108536727
            ]
        },
        {
            "positions": [
                -0.34622039998543963,
                -1.3883709281337393,
                -1.4782942360511473,
                -0.6602821359584714,
                0.1571409714925162,
                2.9926993921008784
            ]
        },
        {
            "positions": [
                -0.1874072334281922,
                -1.4325807789340308,
                -1.6171905176214356,
                -0.698395531191119,
                0.14187274483645426,
                2.99325667566503
            ]
        },
        {
            "positions": [
                -0.02859406687094479,
                -1.4767906297343223,
                -1.7560867991917244,
                -0.7365089264237668,
                0.12660451818039226,
                2.9938139592291813
            ]
        },
        {
            "positions": [
                0.1302190996863022,
                -1.5210004805346136,
                -1.8949830807620127,
                -0.7746223216564141,
                0.11133629152433033,
                2.994371242793333
            ]
        },
        {
            "positions": [
                0.28903226624354916,
                -1.5652103313349048,
                -2.0338793623323017,
                -0.8127357168890617,
                0.09606806486826835,
                2.9949285263574845
            ]
        },
        {
            "positions": [
                0.4478454328007966,
                -1.6094201821351963,
                -2.1727756439025905,
                -0.8508491121217094,
                0.08079983821220632,
                2.995485809921636
            ]
        },
        {
            "positions": [
                0.606658599358044,
                -1.6536300329354878,
                -2.3116719254728784,
                -0.888962507354357,
                0.0655316115561444,
                2.9960430934857873
            ]
        },
        {
            "positions": [
                0.765471765915291,
                -1.6978398837357789,
                -2.450568207043167,
                -0.9270759025870046,
                0.05026338490008242,
                2.9966003770499388
            ]
        },
        {
            "positions": [
                0.9242849324725384,
                -1.7420497345360706,
                -2.589464488613456,
                -0.9651892978196521,
                0.03499515824402044,
                2.99715766061409
            ]
        },
        {
            "positions": [
                1.0830980990297856,
                -1.7862595853363619,
                -2.7283607701837447,
                -1.0033026930522997,
                0.019726931587958463,
                2.9977149441782416
            ]
        },
        {
            "positions": [
                0.9423222761770123,
                -1.7821362526975664,
                -2.686705425483512,
                -1.138119142891814,
                -0.001684894161937258,
                3.017314437091445
            ]
        },
        {
            "positions": [
                0.8015464533242389,
                -1.7780129200587709,
                -2.645050080783279,
                -1.2729355927313286,
                -0.02309671991183298,
                3.0369139300046486
            ]
        },
        {
            "positions": [
                0.6607706304714657,
                -1.7738895874199754,
                -2.6033947360830463,
                -1.407752042570843,
                -0.044508545661728696,
                3.0565134229178526
            ]
        },
        {
            "positions": [
                0.5199948076186923,
                -1.7697662547811799,
                -2.5617393913828135,
                -1.5425684924103575,
                -0.06592037141162442,
                3.076112915831056
            ]
        },
        {
            "positions": [
                0.379218984765919,
                -1.7656429221423846,
                -2.5200840466825802,
                -1.677384942249872,
                -0.08733219716152014,
                3.0957124087442596
            ]
        },
        {
            "positions": [
                0.23844316191314574,
                -1.7615195895035891,
                -2.4784287019823474,
                -1.8122013920893862,
                -0.10874402291141586,
                3.115311901657463
            ]
        },
        {
            "positions": [
                0.09766733906037228,
                -1.7573962568647936,
                -2.4367733572821146,
                -1.9470178419289008,
                -0.13015584866131158,
                3.134911394570667
            ]
        },
        {
            "positions": [
                -0.04310848379240095,
                -1.7532729242259981,
                -2.395118012581882,
                -2.0818342917684154,
                -0.1515676744112073,
                3.1545108874838705
            ]
        },
        {
            "positions": [
                -0.18388430664517438,
                -1.7491495915872026,
                -2.353462667881649,
                -2.2166507416079297,
                -0.17297950016110303,
                3.174110380397074
            ]
        }
    ]
}