{
    "goal": {
        "global_pose": {
            "orientation": {
                "w": -0.00223480608172531,
                "x": 0.0024358444001904467,
                "y": 0.7094548369677653,
                "z": -0.704743149386269
            },
            "position": {
                "x": -0.37947507619857795,
                "y": -0.6371506643295288,
                "z": 0.19426114857196808
            }
        },
        "name": "move_to_magneteinheit_C"
    },
    "id": "KPIECE_move_to_magneteinheit_C_144",
    "joint_names": [
        "shoulder_pan_joint",
        "shoulder_lift_joint",
        "elbow_joint",
        "wrist_1_joint",
        "wrist_2_joint",
        "wrist_3_joint"
    ],
    "metrics": {
        "cart_traj_len": 1.2149241091248657,
        "distance_elbow_joint": 0.2459120662177996,
        "distance_shoulder_lift_joint": 0.4861145327347587,
        "distance_shoulder_pan_joint": 1.3723599506109514,
        "distance_wrist_1_joint": 0.5125812051521398,
        "distance_wrist_2_joint": 1.4202876707441234,
        "distance_wrist_3_joint": 0.4248638791073778,
        "smoothness": 1.2508798561724828,
        "time": 0.042385308999999996,
        "traj_len": 2.1123729085005682,
        "weighted_distance": 2.6916009991598253
    },
    "planner": "KPIECE",
    "start": {
        "state": {
            "elbow_joint": 1.9565354006593851,
            "shoulder_lift_joint": -1.4165861576512813,
            "shoulder_pan_joint": -1.6717766223278752,
            "wrist_1_joint": -0.528663328821883,
            "wrist_2_joint": 1.472756589259273,
            "wrist_3_joint": 3.159348288315503
        }
    },
    "waypoints": [
        {
            "positions": [
                -1.6717766223278752,
                -1.4165861576512813,
                1.9565354006593851,
                -0.528663328821883,
                1.472756589259273,
                3.159348288315503
            ]
        },
        {
            "positions": [
                -1.624360827172685,
                -1.4359806656636749,
                1.9811907508784556,
                -0.5100249355091493,
                1.287526338099846,
                3.120362536495473
            ]
        },
        {
            "positions": [
                -1.576945032017495,
                -1.4553751736760687,
                2.0058461010975264,
                -0.4913865421964155,
                1.1022960869404188,
                3.081376784675443
            ]
        },
        {
            "positions": [
                -1.529529236862305,
                -1.4747696816884623,
                2.030501451316597,
                -0.4727481488836817,
                0.9170658357809917,
                3.042391032855413
            ]
        },
        {
            "positions": [
                -1.482113441707115,
                -1.494164189700856,
                2.0551568015356674,
                -0.45410975557094796,
                0.7318355846215645,
                3.0034052810353833
            ]
        },
        {
            "positions": [
                -1.4346976465519248,
                -1.5135586977132498,
                2.079812151754738,
                -0.43547136225821415,
                0.5466053334621374,
                2.9644195292153532
            ]
        },
        {
            "positions": [
                -1.3872818513967347,
                -1.5329532057256434,
                2.104467501973809,
                -0.4168329689454804,
                0.36137508230271015,
                2.925433777395323
            ]
        },
        {
            "positions": [
                -1.5426911627795648,
                -1.4801321364884439,
                2.0904703641304696,
                -0.47408308969915713,
                0.40550453427236166,
                2.952712258564923
            ]
        },
        {
            "positions": [
                -1.6981004741623948,
                -1.4273110672512443,
                2.07647322628713,
                -0.5313332104528339,
                0.4496339862420131,
                2.9799907397345224
            ]
        },
        {
            "positions": [
                -1.853509785545225,
                -1.3744899980140448,
                2.0624760884437907,
                -0.5885833312065105,
                0.49376343821166463,
                3.007269220904122
            ]
        },
        {
            "positions": [
                -2.008919096928055,
                -1.3216689287768455,
                2.048478950600451,
                -0.6458334519601873,
                0.5378928901813161,
                3.034547702073722
            ]
        },
        {
            "positions": [
                -2.1643284083108854,
                -1.268847859539646,
                2.034481812757112,
                -0.703083572713864,
                0.5820223421509676,
                3.061826183243322
            ]
        },
        {
            "positions": [
                -2.3197377196937152,
                -1.2160267903024464,
                2.020484674913772,
                -0.7603336934675408,
                0.6261517941206192,
                3.0891046644129214
            ]
        },
        {
            "positions": [
                -2.4751470310765455,
                -1.163205721065247,
                2.006487537070433,
                -0.8175838142212175,
                0.6702812460902706,
                3.116383145582521
            ]
        }
    ]
}