{
    "goal": {
        "global_pose": {
            "orientation": {
                "w": -0.4816463035849501,
                "x": 0.5182115481033762,
                "y": 0.4908360881923453,
                "z": -0.5084816262002911
            },
            "position": {
                "x": -0.8240239810943604,
                "y": -0.300875300988555,
                "z": 0.16403168439865112
            }
        },
        "name": "move_to_storage_C"
    },
    "id": "KPIECE_move_to_storage_C_115",
    "joint_names": [
        "shoulder_pan_joint",
        "shoulder_lift_joint",
        "elbow_joint",
        "wrist_1_joint",
        "wrist_2_joint",
        "wrist_3_joint"
    ],
    "metrics": {
        "cart_traj_len": 0.5763281006713331,
        "distance_elbow_joint": 0.25845816141731026,
        "distance_shoulder_lift_joint": 0.18993446145431303,
        "distance_shoulder_pan_joint": 0.49309867666067175,
        "distance_wrist_1_joint": 0.07690900240633036,
        "distance_wrist_2_joint": 1.07531743063556,
        "distance_wrist_3_joint": 0.05911162384586177,
        "smoothness": 2.5376526478085547e-16,
        "time": 0.039664803,
        "traj_len": 1.4672523151864667,
        "weighted_distance": 1.8502105386019345
    },
    "planner": "KPIECE",
    "start": {
        "state": {
            "elbow_joint": 2.0108683149792914,
            "shoulder_lift_joint": -1.1634956873317392,
            "shoulder_pan_joint": -2.4736205022346,
            "wrist_1_joint": -0.8367026793690192,
            "wrist_2_joint": 0.6746043897045053,
            "wrist_3_joint": 3.133522094754363
        }
    },
    "waypoints": [
        {
            "positions": [
                -2.4736205022346,
                -1.1634956873317392,
                2.0108683149792914,
                -0.8367026793690192,
                0.6746043897045053,
                3.133522094754363
            ]
        },
        {
            "positions": [
                -2.5558036150113788,
                -1.1318399437560205,
                1.9677919547430731,
                -0.8238845123012974,
                0.8538239614770986,
                3.143374032062007
            ]
        },
        {
            "positions": [
                -2.6379867277881575,
                -1.1001842001803015,
                1.9247155945068546,
                -0.8110663452335758,
                1.033043533249692,
                3.1532259693696503
            ]
        },
        {
            "positions": [
                -2.720169840564936,
                -1.0685284566045827,
                1.8816392342706363,
                -0.798248178165854,
                1.2122631050222852,
                3.163077906677294
            ]
        },
        {
            "positions": [
                -2.8023529533417144,
                -1.036872713028864,
                1.838562874034418,
                -0.7854300110981323,
                1.3914826767948787,
                3.172929843984938
            ]
        },
        {
            "positions": [
                -2.884536066118493,
                -1.005216969453145,
                1.7954865137981995,
                -0.7726118440304106,
                1.570702248567472,
                3.182781781292581
            ]
        },
        {
            "positions": [
                -2.966719178895272,
                -0.9735612258774262,
                1.7524101535619812,
                -0.7597936769626888,
                1.7499218203400653,
                3.192633718600225
            ]
        }
    ]
}