{
    "goal": {
        "global_pose": {
            "orientation": {
                "w": -0.00223480608172531,
                "x": 0.0024358444001904467,
                "y": 0.7094548369677653,
                "z": -0.704743149386269
            },
            "position": {
                "x": 0.6205249238014221,
                "y": -0.6371506643295288,
                "z": 0.19426114857196808
            }
        },
        "name": "move_to_magneteinheit_B"
    },
    "id": "KPIECE_move_to_magneteinheit_B_104",
    "joint_names": [
        "shoulder_pan_joint",
        "shoulder_lift_joint",
        "elbow_joint",
        "wrist_1_joint",
        "wrist_2_joint",
        "wrist_3_joint"
    ],
    "metrics": {
        "cart_traj_len": 3.6619426624634612,
        "distance_elbow_joint": 4.324006661001747,
        "distance_shoulder_lift_joint": 0.9294146657527664,
        "distance_shoulder_pan_joint": 2.7201785605016484,
        "distance_wrist_1_joint": 2.087799718028349,
        "distance_wrist_2_joint": 1.2495938160156377,
        "distance_wrist_3_joint": 3.118888548894845,
        "smoothness": 0.16156270616777949,
        "time": 0.340249129,
        "traj_len": 3.7986684469949457,
        "weighted_distance": 4.899495137463518
    },
    "planner": "KPIECE",
    "start": {
        "state": {
            "elbow_joint": 2.393587130804639,
            "shoulder_lift_joint": -1.9085141043513325,
            "shoulder_pan_joint": 0.7066247066698809,
            "wrist_1_joint": -0.4678290934590222,
            "wrist_2_joint": 0.7096259084215963,
            "wrist_3_joint": 3.147370379541726
        }
    },
    "waypoints": [
        {
            "positions": [
                0.7066247066698809,
                -1.9085141043513325,
                2.393587130804639,
                -0.4678290934590222,
                0.7096259084215963,
                3.147370379541726
            ]
        },
        {
            "positions": [
                0.6685111066015077,
                -1.885431876273342,
                2.358537366278795,
                -0.3932816681683463,
                0.6244831437677201,
                3.0801090725015636
            ]
        },
        {
            "positions": [
                0.6303975065331346,
                -1.8623496481953512,
                2.3234876017529507,
                -0.31873424287767044,
                0.5393403791138437,
                3.012847765461401
            ]
        },
        {
            "positions": [
                0.5922839064647616,
                -1.8392674201173607,
                2.288437837227107,
                -0.24418681758699456,
                0.4541976144599674,
                2.945586458421239
            ]
        },
        {
            "positions": [
                0.5541703063963884,
                -1.8161851920393701,
                2.253388072701263,
                -0.16963939229631872,
                0.3690548498060911,
                2.8783251513810764
            ]
        },
        {
            "positions": [
                0.5148236572597957,
                -1.7931291571095844,
                2.2104183423007933,
                -0.09420969054219354,
                0.27955190295274635,
                2.793546667223863
            ]
        },
        {
            "positions": [
                0.475477008123203,
                -1.7700731221797987,
                2.167448611900324,
                -0.018779988788068358,
                0.19004895609940156,
                2.7087681830666495
            ]
        },
        {
            "positions": [
                0.43613035898661023,
                -1.747017087250013,
                2.1244788814998543,
                0.05664971296605684,
                0.10054600924605678,
                2.623989698909436
            ]
        },
        {
            "positions": [
                0.4208621385358922,
                -1.7405012314068824,
                2.050888280420618,
                0.08567377245167743,
                0.05536364429414772,
                2.473262273092506
            ]
        },
        {
            "positions": [
                0.40559391808517425,
                -1.733985375563752,
                1.9772976793413817,
                0.11469783193729803,
                0.010181279342238655,
                2.322534847275576
            ]
        },
        {
            "positions": [
                0.39032569763445624,
                -1.7274695197206213,
                1.9037070782621455,
                0.14372189142291864,
                -0.035001085609670426,
                2.171807421458646
            ]
        },
        {
            "positions": [
                0.4105727127071816,
                -1.7336763684403773,
                1.8044293207968485,
                0.13096951663733847,
                -0.026118543705381067,
                1.9999779047589301
            ]
        },
        {
            "positions": [
                0.43081972777990696,
                -1.7398832171601333,
                1.7051515633315515,
                0.11821714185175829,
                -0.017236001801091704,
                1.8281483880592142
            ]
        },
        {
            "positions": [
                0.4510667428526323,
                -1.7460900658798892,
                1.6058738058662547,
                0.1054647670661781,
                -0.008353459896802341,
                1.6563188713594983
            ]
        },
        {
            "positions": [
                0.4713137579253577,
                -1.7522969145996452,
                1.5065960484009577,
                0.09271239228059794,
                0.0005290820074870194,
                1.4844893546597824
            ]
        },
        {
            "positions": [
                0.5900488150420772,
                -1.7556217978208826,
                1.3324932774748088,
                0.0783922996845448,
                0.014345010625145631,
                1.4140567413093852
            ]
        },
        {
            "positions": [
                0.7087838721587967,
                -1.7589466810421197,
                1.1583905065486602,
                0.06407220708849165,
                0.02816093924280424,
                1.343624127958988
            ]
        },
        {
            "positions": [
                0.8275189292755161,
                -1.762271564263357,
                0.9842877356225114,
                0.04975211449243849,
                0.041976867860462855,
                1.2731915146085906
            ]
        },
        {
            "positions": [
                0.9462539863922356,
                -1.7655964474845942,
                0.8101849646963626,
                0.03543202189638535,
                0.055792796478121465,
                1.2027589012581934
            ]
        },
        {
            "positions": [
                1.064989043508955,
                -1.7689213307058316,
                0.6360821937702138,
                0.02111192930033219,
                0.06960872509578009,
                1.1323262879077962
            ]
        },
        {
            "positions": [
                1.1837241006256747,
                -1.7722462139270687,
                0.461979422844065,
                0.006791836704279047,
                0.0834246537134387,
                1.061893674557399
            ]
        },
        {
            "positions": [
                1.302459157742394,
                -1.775571097148306,
                0.28787665191791634,
                -0.007528255891774097,
                0.09724058233109731,
                0.9914610612070018
            ]
        },
        {
            "positions": [
                1.4211942148591135,
                -1.7788959803695432,
                0.11377388099176744,
                -0.02184834848782724,
                0.11105651094875592,
                0.9210284478566045
            ]
        },
        {
            "positions": [
                1.539929271975833,
                -1.7822208635907806,
                -0.060328889934381236,
                -0.0361684410838804,
                0.12487243956641453,
                0.8505958345062073
            ]
        },
        {
            "positions": [
                1.6586643290925525,
                -1.7855457468120177,
                -0.23443166086053013,
                -0.050488533679933556,
                0.13868836818407315,
                0.78016322115581
            ]
        },
        {
            "positions": [
                1.777399386209272,
                -1.788870630033255,
                -0.40853443178667903,
                -0.06480862627598671,
                0.15250429680173178,
                0.7097306078054127
            ]
        },
        {
            "positions": [
                1.8961344433259915,
                -1.7921955132544922,
                -0.5826372027128277,
                -0.07912871887203984,
                0.16632022541939037,
                0.6392979944550156
            ]
        },
        {
            "positions": [
                2.0148695004427113,
                -1.7955203964757296,
                -0.7567399736389768,
                -0.093448811468093,
                0.180136154037049,
                0.5688653811046183
            ]
        },
        {
            "positions": [
                2.1336045575594302,
                -1.7988452796969667,
                -0.9308427445651251,
                -0.10776890406414613,
                0.1939520826547076,
                0.4984327677542212
            ]
        },
        {
            "positions": [
                2.25233961467615,
                -1.802170162918204,
                -1.1049455154912742,
                -0.12208899666019929,
                0.20776801127236622,
                0.4280001544038239
            ]
        },
        {
            "positions": [
                2.3710746717928695,
                -1.8054950461394412,
                -1.2790482864174229,
                -0.13640908925625242,
                0.2215839398900248,
                0.3575675410534267
            ]
        },
        {
            "positions": [
                2.489809728909589,
                -1.8088199293606786,
                -1.453151057343572,
                -0.1507291818523056,
                0.23539986850768344,
                0.2871349277030293
            ]
        },
        {
            "positions": [
                2.6085447860263082,
                -1.8121448125819157,
                -1.6272538282697202,
                -0.16504927444835873,
                0.24921579712534203,
                0.21670231435263232
            ]
        },
        {
            "positions": [
                2.727279843143028,
                -1.815469695803153,
                -1.8013565991958695,
                -0.1793693670444119,
                0.26303172574300066,
                0.14626970100223496
            ]
        },
        {
            "positions": [
                2.726454176925408,
                -1.9224282346322772,
                -1.7908209929193302,
                0.009666152089882724,
                0.297556938447758,
                0.1285578506589219
            ]
        },
        {
            "positions": [
                2.725628510707788,
                -2.0293867734614013,
                -1.7802853866427908,
                0.19870167122417737,
                0.3320821511525154,
                0.11084600031560879
            ]
        },
        {
            "positions": [
                2.7125736960033056,
                -2.1186773389376565,
                -1.7586870429531587,
                0.35371895850627494,
                0.35965886819695225,
                0.09437316638186319
            ]
        },
        {
            "positions": [
                2.699518881298823,
                -2.2079679044139113,
                -1.7370886992635266,
                0.5087362457883725,
                0.3872355852413891,
                0.0779003324481176
            ]
        },
        {
            "positions": [
                2.686464066594341,
                -2.2972584698901666,
                -1.7154903555738945,
                0.66375353307047,
                0.414812302285826,
                0.061427498514372014
            ]
        },
        {
            "positions": [
                2.6734092518898587,
                -2.3865490353664214,
                -1.6938920118842624,
                0.8187708203525677,
                0.44238901933026287,
                0.04495466458062641
            ]
        },
        {
            "positions": [
                2.6603544371853762,
                -2.4758396008426766,
                -1.6722936681946303,
                0.9737881076346652,
                0.46996573637469974,
                0.028481830646880823
            ]
        }
    ]
}