{
    "goal": {
        "global_pose": {
            "orientation": {
                "w": 0.7031023502349854,
                "x": -0.7110244035720825,
                "y": 0.007748599164187908,
                "z": 0.005598929710686207
            },
            "position": {
                "x": 0.11585023208521307,
                "y": 0.44412534475326537,
                "z": 0.3711530566215515
            }
        },
        "name": "move_to_auspresseinheit_A"
    },
    "id": "KPIECE_move_to_auspresseinheit_A_38",
    "joint_names": [
        "shoulder_pan_joint",
        "shoulder_lift_joint",
        "elbow_joint",
        "wrist_1_joint",
        "wrist_2_joint",
        "wrist_3_joint"
    ],
    "metrics": {
        "cart_traj_len": 1.3153138205341668,
        "distance_elbow_joint": 1.4305361189037433,
        "distance_shoulder_lift_joint": 0.5472433636304335,
        "distance_shoulder_pan_joint": 1.045957689190034,
        "distance_wrist_1_joint": 0.7875040051117508,
        "distance_wrist_2_joint": 0.512063010278262,
        "distance_wrist_3_joint": 1.4904730121881755,
        "smoothness": 1.2218448363078915,
        "time": 0.593373954,
        "traj_len": 2.411177554495396,
        "weighted_distance": 3.177151277334582
    },
    "planner": "KPIECE",
    "start": {
        "state": {
            "elbow_joint": 2.4225746994637096,
            "shoulder_lift_joint": -1.373653595662188,
            "shoulder_pan_joint": -0.3378633848294565,
            "wrist_1_joint": -1.0288595594406726,
            "wrist_2_joint": 1.2330228066703421,
            "wrist_3_joint": 3.189163495502006
        }
    },
    "waypoints": [
        {
            "positions": [
                -0.3378633848294565,
                -1.373653595662188,
                2.4225746994637096,
                -1.0288595594406726,
                1.2330228066703421,
                3.189163495502006
            ]
        },
        {
            "positions": [
                -0.2753763246133669,
                -1.4206308426046765,
                2.341629069103262,
                -0.9613580446541954,
                1.1795096318353808,
                3.104659240430702
            ]
        },
        {
            "positions": [
                -0.21288926439727734,
                -1.467608089547165,
                2.2606834387428143,
                -0.8938565298677181,
                1.1259964570004195,
                3.020154985359398
            ]
        },
        {
            "positions": [
                -0.1504022041811878,
                -1.5145853364896535,
                2.1797378083823666,
                -0.8263550150812409,
                1.0724832821654582,
                2.935650730288094
            ]
        },
        {
            "positions": [
                -0.08791514396509822,
                -1.561562583432142,
                2.098792178021919,
                -0.7588535002947636,
                1.0189701073304969,
                2.85114647521679
            ]
        },
        {
            "positions": [
                -0.025428083749008623,
                -1.6085398303746308,
                2.017846547661471,
                -0.6913519855082864,
                0.9654569324955355,
                2.766642220145486
            ]
        },
        {
            "positions": [
                0.037058976467080895,
                -1.655517077317119,
                1.9369009173010234,
                -0.6238504707218091,
                0.9119437576605742,
                2.682137965074182
            ]
        },
        {
            "positions": [
                0.09954603668317047,
                -1.7024943242596078,
                1.8559552869405755,
                -0.5563489559353318,
                0.8584305828256129,
                2.597633710002878
            ]
        },
        {
            "positions": [
                0.16203309689926004,
                -1.7494715712020963,
                1.7750096565801279,
                -0.4888474411488546,
                0.8049174079906516,
                2.513129454931574
            ]
        },
        {
            "positions": [
                0.22452015711534962,
                -1.7964488181445848,
                1.6940640262196802,
                -0.42134592636237733,
                0.7514042331556903,
                2.42862519986027
            ]
        },
        {
            "positions": [
                0.313186536205209,
                -1.8202210890501813,
                1.8320038381200359,
                -0.44456704601422575,
                0.746706135350508,
                2.5448971043783772
            ]
        },
        {
            "positions": [
                0.4018529152950684,
                -1.8439933599557778,
                1.9699436500203915,
                -0.4677881656660742,
                0.7420080375453257,
                2.6611690088964846
            ]
        },
        {
            "positions": [
                0.49051929438492775,
                -1.8677656308613746,
                2.107883461920747,
                -0.49100928531792254,
                0.7373099397401436,
                2.7774409134145914
            ]
        },
        {
            "positions": [
                0.5791856734747871,
                -1.8915379017669711,
                2.245823273821103,
                -0.514230404969771,
                0.7326118419349613,
                2.8937128179326987
            ]
        },
        {
            "positions": [
                0.6678520525646465,
                -1.9153101726725676,
                2.3837630857214585,
                -0.5374515246216194,
                0.727913744129779,
                3.009984722450806
            ]
        },
        {
            "positions": [
                0.7080943043605774,
                -1.9097233860525138,
                2.396089471879394,
                -0.47356675084740585,
                0.7209597963920802,
                3.1585599164067095
            ]
        }
    ]
}