{
    "goal": {
        "global_pose": {
            "orientation": {
                "w": 0.005598929693374612,
                "x": 0.007748599140229565,
                "y": 0.7110244013736278,
                "z": -0.7031023480610252
            },
            "position": {
                "x": 0.1141497679147869,
                "y": -0.7141253447532654,
                "z": 0.3711530566215515
            }
        },
        "name": "move_to_auspresseinheit_B"
    },
    "id": "KPIECE_move_to_auspresseinheit_B_116",
    "joint_names": [
        "shoulder_pan_joint",
        "shoulder_lift_joint",
        "elbow_joint",
        "wrist_1_joint",
        "wrist_2_joint",
        "wrist_3_joint"
    ],
    "metrics": {
        "cart_traj_len": 0.5646469503637318,
        "distance_elbow_joint": 0.06412397217655696,
        "distance_shoulder_lift_joint": 0.29428246600114005,
        "distance_shoulder_pan_joint": 0.5779451380053844,
        "distance_wrist_1_joint": 0.33348285454752546,
        "distance_wrist_2_joint": 0.988964811571226,
        "distance_wrist_3_joint": 0.0077291870207596425,
        "smoothness": 5.075305255429287e-16,
        "time": 0.097892571,
        "traj_len": 1.5054993953245523,
        "weighted_distance": 1.898534821772533
    },
    "planner": "KPIECE",
    "start": {
        "state": {
            "elbow_joint": 2.0193061681459312,
            "shoulder_lift_joint": -1.1220205130644991,
            "shoulder_pan_joint": -1.0952072088045026,
            "wrist_1_joint": -0.8559671810662515,
            "wrist_2_joint": 0.4759638712940361,
            "wrist_3_joint": 3.159081874192446
        }
    },
    "waypoints": [
        {
            "positions": [
                -1.0952072088045026,
                -1.1220205130644991,
                2.0193061681459312,
                -0.8559671810662515,
                0.4759638712940361,
                3.159081874192446
            ]
        },
        {
            "positions": [
                -1.1915313984720668,
                -1.1710675907313557,
                2.0086188394498383,
                -0.8003867053083306,
                0.6407913398892404,
                3.1577936763556527
            ]
        },
        {
            "positions": [
                -1.2878555881396307,
                -1.2201146683982125,
                1.9979315107537456,
                -0.7448062295504096,
                0.8056188084844447,
                3.1565054785188593
            ]
        },
        {
            "positions": [
                -1.3841797778071947,
                -1.2691617460650693,
                1.9872441820576527,
                -0.6892257537924887,
                0.9704462770796491,
                3.1552172806820664
            ]
        },
        {
            "positions": [
                -1.4805039674747589,
                -1.3182088237319258,
                1.9765568533615598,
                -0.6336452780345678,
                1.1352737456748534,
                3.153929082845273
            ]
        },
        {
            "positions": [
                -1.576828157142323,
                -1.3672559013987824,
                1.9658695246654672,
                -0.5780648022766469,
                1.3001012142700579,
                3.1526408850084797
            ]
        },
        {
            "positions": [
                -1.673152346809887,
                -1.4163029790656392,
                1.9551821959693743,
                -0.522484326518726,
                1.4649286828652621,
                3.1513526871716864
            ]
        }
    ]
}