{
    "goal": {
        "global_pose": {
            "orientation": {
                "w": 0.7031023502349854,
                "x": -0.7110244035720825,
                "y": 0.007748599164187908,
                "z": 0.005598929710686207
            },
            "position": {
                "x": 0.11585023208521307,
                "y": 0.44412534475326537,
                "z": 0.3711530566215515
            }
        },
        "name": "move_to_auspresseinheit_A"
    },
    "id": "KPIECE_move_to_auspresseinheit_A_78",
    "joint_names": [
        "shoulder_pan_joint",
        "shoulder_lift_joint",
        "elbow_joint",
        "wrist_1_joint",
        "wrist_2_joint",
        "wrist_3_joint"
    ],
    "metrics": {
        "cart_traj_len": 2.2367238742438205,
        "distance_elbow_joint": 2.6743361928672087,
        "distance_shoulder_lift_joint": 0.7327352931298892,
        "distance_shoulder_pan_joint": 1.0456566505019007,
        "distance_wrist_1_joint": 1.1839951143403515,
        "distance_wrist_2_joint": 0.8955363916831122,
        "distance_wrist_3_joint": 4.70282078272,
        "smoothness": 0.833199925984577,
        "time": 0.29299069099999997,
        "traj_len": 3.3518771494854134,
        "weighted_distance": 4.766576706264772
    },
    "planner": "KPIECE",
    "start": {
        "state": {
            "elbow_joint": 2.4225746994637096,
            "shoulder_lift_joint": -1.373653595662188,
            "shoulder_pan_joint": -0.3378633848294565,
            "wrist_1_joint": -1.0288595594406726,
            "wrist_2_joint": 1.2330228066703421,
            "wrist_3_joint": 3.189163495502006
        }
    },
    "waypoints": [
        {
            "positions": [
                -0.3378633848294565,
                -1.373653595662188,
                2.4225746994637096,
                -1.0288595594406726,
                1.2330228066703421,
                3.189163495502006
            ]
        },
        {
            "positions": [
                -0.3297040463074155,
                -1.4131798578942982,
                2.337979398345748,
                -0.9739176702410955,
                1.1921599977062416,
                3.040478055502172
            ]
        },
        {
            "positions": [
                -0.3215447077853745,
                -1.4527061201264084,
                2.2533840972277863,
                -0.9189757810415184,
                1.1512971887421413,
                2.8917926155023377
            ]
        },
        {
            "positions": [
                -0.3133853692633335,
                -1.4922323823585188,
                2.1687887961098244,
                -0.8640338918419413,
                1.1104343797780407,
                2.7431071755025034
            ]
        },
        {
            "positions": [
                -0.3052260307412925,
                -1.531758644590629,
                2.084193494991863,
                -0.8090920026423642,
                1.0695715708139402,
                2.5944217355026695
            ]
        },
        {
            "positions": [
                -0.29706669221925147,
                -1.5712849068227392,
                1.9995981938739014,
                -0.7541501134427872,
                1.0287087618498396,
                2.4457362955028357
            ]
        },
        {
            "positions": [
                -0.2889073536972105,
                -1.6108111690548497,
                1.9150028927559397,
                -0.69920822424321,
                0.9878459528857393,
                2.2970508555030014
            ]
        },
        {
            "positions": [
                -0.28074801517516945,
                -1.6503374312869599,
                1.830407591637978,
                -0.644266335043633,
                0.9469831439216387,
                2.148365415503167
            ]
        },
        {
            "positions": [
                -0.27258867665312847,
                -1.68986369351907,
                1.7458122905200164,
                -0.5893244458440559,
                0.9061203349575383,
                1.9996799755033332
            ]
        },
        {
            "positions": [
                -0.2644293381310875,
                -1.7293899557511803,
                1.6612169894020548,
                -0.5343825566444788,
                0.8652575259934379,
                1.8509945355034991
            ]
        },
        {
            "positions": [
                -0.25626999960904645,
                -1.7689162179832905,
                1.576621688284093,
                -0.47944066744490166,
                0.8243947170293373,
                1.702309095503665
            ]
        },
        {
            "positions": [
                -0.24811066108700547,
                -1.8084424802154009,
                1.4920263871661315,
                -0.42449877824532456,
                0.7835319080652369,
                1.553623655503831
            ]
        },
        {
            "positions": [
                -0.23995132256496446,
                -1.847968742447511,
                1.4074310860481698,
                -0.36955688904574746,
                0.7426690991011364,
                1.404938215503997
            ]
        },
        {
            "positions": [
                -0.23179198404292345,
                -1.8874950046796213,
                1.3228357849302081,
                -0.31461499984617036,
                0.7018062901370359,
                1.2562527755041628
            ]
        },
        {
            "positions": [
                -0.22363264552088247,
                -1.9270212669117317,
                1.2382404838122465,
                -0.25967311064659326,
                0.6609434811729354,
                1.1075673355043287
            ]
        },
        {
            "positions": [
                -0.21547330699884146,
                -1.966547529143842,
                1.1536451826942848,
                -0.20473122144701617,
                0.6200806722088349,
                0.9588818955044949
            ]
        },
        {
            "positions": [
                -0.20731396847680045,
                -2.006073791375952,
                1.0690498815763232,
                -0.14978933224743907,
                0.5792178632447345,
                0.8101964555046607
            ]
        },
        {
            "positions": [
                -0.13974638891594898,
                -1.9971336044446266,
                1.1807883028543622,
                -0.1672085919959034,
                0.5739385301331814,
                0.9713014801982649
            ]
        },
        {
            "positions": [
                -0.07217880935509752,
                -1.9881934175133014,
                1.2925267241324012,
                -0.18462785174436774,
                0.5686591970216284,
                1.132406504891869
            ]
        },
        {
            "positions": [
                -0.00461122979424608,
                -1.9792532305819759,
                1.4042651454104402,
                -0.2020471114928321,
                0.5633798639100753,
                1.2935115295854733
            ]
        },
        {
            "positions": [
                0.06295634976660541,
                -1.9703130436506504,
                1.5160035666884795,
                -0.21946637124129645,
                0.5581005307985223,
                1.4546165542790774
            ]
        },
        {
            "positions": [
                0.13052392932745688,
                -1.9613728567193252,
                1.6277419879665185,
                -0.2368856309897608,
                0.5528211976869692,
                1.6157215789726815
            ]
        },
        {
            "positions": [
                0.1980915088883083,
                -1.9524326697879997,
                1.7394804092445575,
                -0.25430489073822515,
                0.5475418645754163,
                1.7768266036662856
            ]
        },
        {
            "positions": [
                0.2656590884491598,
                -1.9434924828566744,
                1.8512188305225965,
                -0.2717241504866895,
                0.5422625314638633,
                1.9379316283598897
            ]
        },
        {
            "positions": [
                0.3332266680100113,
                -1.934552295925349,
                1.9629572518006357,
                -0.28914341023515383,
                0.5369831983523102,
                2.0990366530534943
            ]
        },
        {
            "positions": [
                0.40079424757086274,
                -1.9256121089940235,
                2.0746956730786748,
                -0.3065626699836182,
                0.5317038652407572,
                2.2601416777470984
            ]
        },
        {
            "positions": [
                0.4683618271317142,
                -1.9166719220626982,
                2.1864340943567138,
                -0.3239819297320825,
                0.5264245321292041,
                2.4212467024407025
            ]
        },
        {
            "positions": [
                0.5359294066925657,
                -1.9077317351313727,
                2.2981725156347528,
                -0.3414011894805469,
                0.5211451990176511,
                2.5823517271343066
            ]
        },
        {
            "positions": [
                0.5932173596858586,
                -1.9070740547408576,
                2.328735429275217,
                -0.37917219945188346,
                0.5823647936944581,
                2.7662512174986427
            ]
        },
        {
            "positions": [
                0.6505053126791515,
                -1.9064163743503422,
                2.3592983429156815,
                -0.41694320942322,
                0.6435843883712652,
                2.9501507078629787
            ]
        },
        {
            "positions": [
                0.7077932656724444,
                -1.905758693959827,
                2.389861256556146,
                -0.4547142193945566,
                0.7048039830480722,
                3.134050198227315
            ]
        }
    ]
}