{
    "goal": {
        "global_pose": {
            "orientation": {
                "w": -0.00223480608172531,
                "x": 0.0024358444001904467,
                "y": 0.7094548369677653,
                "z": -0.704743149386269
            },
            "position": {
                "x": -0.37947507619857795,
                "y": -0.6371506643295288,
                "z": 0.19426114857196808
            }
        },
        "name": "move_to_magneteinheit_C"
    },
    "id": "KPIECE_move_to_magneteinheit_C_107",
    "joint_names": [
        "shoulder_pan_joint",
        "shoulder_lift_joint",
        "elbow_joint",
        "wrist_1_joint",
        "wrist_2_joint",
        "wrist_3_joint"
    ],
    "metrics": {
        "cart_traj_len": 2.3225984934596213,
        "distance_elbow_joint": 2.1637394014731632,
        "distance_shoulder_lift_joint": 0.9362838892381593,
        "distance_shoulder_pan_joint": 1.6860794586538213,
        "distance_wrist_1_joint": 0.6512275781871192,
        "distance_wrist_2_joint": 2.4307086157716693,
        "distance_wrist_3_joint": 3.9831729999384113,
        "smoothness": 0.8808606998543459,
        "time": 0.655229206,
        "traj_len": 3.442558923716825,
        "weighted_distance": 4.785341590429878
    },
    "planner": "KPIECE",
    "start": {
        "state": {
            "elbow_joint": 1.9565354006593851,
            "shoulder_lift_joint": -1.4165861576512813,
            "shoulder_pan_joint": -1.6717766223278752,
            "wrist_1_joint": -0.528663328821883,
            "wrist_2_joint": 1.472756589259273,
            "wrist_3_joint": 3.159348288315503
        }
    },
    "waypoints": [
        {
            "positions": [
                -1.6717766223278752,
                -1.4165861576512813,
                1.9565354006593851,
                -0.528663328821883,
                1.472756589259273,
                3.159348288315503
            ]
        },
        {
            "positions": [
                -1.6563532895913404,
                -1.417163376518996,
                1.9675027501076947,
                -0.5530124317970109,
                1.3959900784068378,
                3.088490707392646
            ]
        },
        {
            "positions": [
                -1.6409299568548055,
                -1.4177405953867106,
                1.978470099556004,
                -0.5773615347721388,
                1.3192235675544024,
                3.017633126469789
            ]
        },
        {
            "positions": [
                -1.595537638906104,
                -1.4372861868685802,
                1.9033206855847924,
                -0.567842387728999,
                1.244372718528045,
                2.8938994950028527
            ]
        },
        {
            "positions": [
                -1.5501453209574025,
                -1.4568317783504499,
                1.8281712716135807,
                -0.5583232406858591,
                1.1695218695016876,
                2.770165863535917
            ]
        },
        {
            "positions": [
                -1.5047530030087013,
                -1.4763773698323195,
                1.7530218576423688,
                -0.5488040936427193,
                1.0946710204753303,
                2.646432232068981
            ]
        },
        {
            "positions": [
                -1.4593606850599998,
                -1.4959229613141893,
                1.6778724436711572,
                -0.5392849465995795,
                1.0198201714489727,
                2.522698600602045
            ]
        },
        {
            "positions": [
                -1.4139683671112984,
                -1.515468552796059,
                1.6027230296999453,
                -0.5297657995564397,
                0.9449693224226154,
                2.398964969135109
            ]
        },
        {
            "positions": [
                -1.368576049162597,
                -1.5350141442779286,
                1.5275736157287336,
                -0.5202466525132998,
                0.870118473396258,
                2.275231337668173
            ]
        },
        {
            "positions": [
                -1.3231837312138954,
                -1.5545597357597982,
                1.452424201757522,
                -0.51072750547016,
                0.7952676243699006,
                2.151497706201237
            ]
        },
        {
            "positions": [
                -1.345472681232235,
                -1.5801377819186213,
                1.3943828538069216,
                -0.4975831477127535,
                0.6787147746872146,
                2.0269481355059584
            ]
        },
        {
            "positions": [
                -1.3677616312505747,
                -1.6057158280774444,
                1.3363415058563213,
                -0.48443878995534706,
                0.5621619250045288,
                1.9023985648106796
            ]
        },
        {
            "positions": [
                -1.3900505812689146,
                -1.6312938742362675,
                1.2783001579057207,
                -0.47129443219794054,
                0.44560907532184285,
                1.7778489941154008
            ]
        },
        {
            "positions": [
                -1.4123395312872542,
                -1.6568719203950906,
                1.2202588099551204,
                -0.45815007444053407,
                0.32905622563915693,
                1.6532994234201221
            ]
        },
        {
            "positions": [
                -1.4346284813055938,
                -1.6824499665539137,
                1.16221746200452,
                -0.4450057166831276,
                0.21250337595647095,
                1.5287498527248433
            ]
        },
        {
            "positions": [
                -1.4569174313239337,
                -1.7080280127127367,
                1.1041761140539197,
                -0.4318613589257211,
                0.09595052627378509,
                1.4042002820295645
            ]
        },
        {
            "positions": [
                -1.4792063813422733,
                -1.7336060588715598,
                1.0461347661033193,
                -0.4187170011683146,
                -0.02060232340890078,
                1.2796507113342859
            ]
        },
        {
            "positions": [
                -1.501495331360613,
                -1.759184105030383,
                0.9880934181527189,
                -0.40557264341090815,
                -0.13715517309158679,
                1.155101140639007
            ]
        },
        {
            "positions": [
                -1.596667352988085,
                -1.737536404328132,
                1.0805490694470854,
                -0.4349813017698431,
                -0.10652513677631198,
                1.2765991863731307
            ]
        },
        {
            "positions": [
                -1.6918393746155573,
                -1.7158887036258812,
                1.1730047207414518,
                -0.4643899601287781,
                -0.07589510046103716,
                1.3980972321072547
            ]
        },
        {
            "positions": [
                -1.7870113962430294,
                -1.6942410029236306,
                1.2654603720358182,
                -0.493798618487713,
                -0.045265064145762354,
                1.5195952778413786
            ]
        },
        {
            "positions": [
                -1.8821834178705017,
                -1.6725933022213797,
                1.3579160233301846,
                -0.523207276846648,
                -0.014635027830487535,
                1.6410933235755023
            ]
        },
        {
            "positions": [
                -1.9773554394979738,
                -1.6509456015191288,
                1.450371674624551,
                -0.5526159352055829,
                0.01599500848478727,
                1.762591369309626
            ]
        },
        {
            "positions": [
                -2.072527461125446,
                -1.629297900816878,
                1.5428273259189176,
                -0.5820245935645179,
                0.046625044800062077,
                1.88408941504375
            ]
        },
        {
            "positions": [
                -2.167699482752918,
                -1.6076502001146271,
                1.6352829772132838,
                -0.6114332519234529,
                0.07725508111533688,
                2.005587460777874
            ]
        },
        {
            "positions": [
                -2.2628715043803904,
                -1.5860024994123765,
                1.7277386285076504,
                -0.6408419102823878,
                0.10788511743061172,
                2.127085506511998
            ]
        },
        {
            "positions": [
                -2.3580435260078625,
                -1.5643547987101256,
                1.8201942798020168,
                -0.6702505686413227,
                0.13851515374588655,
                2.2485835522461217
            ]
        },
        {
            "positions": [
                -2.4532155476353346,
                -1.5427070980078748,
                1.9126499310963831,
                -0.6996592270002577,
                0.16914519006116133,
                2.370081597980245
            ]
        },
        {
            "positions": [
                -2.4980436943137314,
                -1.5219514745863694,
                1.961633865576594,
                -0.7217242564828431,
                0.19893619280230834,
                2.4512441897777695
            ]
        },
        {
            "positions": [
                -2.5428718409921283,
                -1.5011958511648638,
                2.0106178000568047,
                -0.7437892859654285,
                0.22872719554345533,
                2.532406781575294
            ]
        },
        {
            "positions": [
                -2.5508326018543097,
                -1.4540632819732642,
                2.032375860387952,
                -0.7681926515515355,
                0.29437233360944715,
                2.6364394424412074
            ]
        },
        {
            "positions": [
                -2.5587933627164916,
                -1.4069307127816648,
                2.0541339207190994,
                -0.7925960171376424,
                0.36001747167543896,
                2.7404721033071207
            ]
        },
        {
            "positions": [
                -2.566754123578673,
                -1.3597981435900652,
                2.0758919810502467,
                -0.8169993827237494,
                0.4256626097414308,
                2.844504764173034
            ]
        },
        {
            "positions": [
                -2.5354487318536516,
                -1.2950314834504852,
                2.054682161625003,
                -0.8234372965780132,
                0.511655633270695,
                2.9410121737489963
            ]
        },
        {
            "positions": [
                -2.5041433401286306,
                -1.2302648233109053,
                2.0334723421997594,
                -0.8298752104322771,
                0.597648656799959,
                3.037519583324959
            ]
        },
        {
            "positions": [
                -2.472837948403609,
                -1.1654981631713253,
                2.0122625227745154,
                -0.8363131242865409,
                0.6836416803292232,
                3.1340269929009215
            ]
        }
    ]
}