{
    "goal": {
        "global_pose": {
            "orientation": {
                "w": -0.4816463035849501,
                "x": 0.5182115481033762,
                "y": 0.4908360881923453,
                "z": -0.5084816262002911
            },
            "position": {
                "x": -0.8240239810943604,
                "y": -0.300875300988555,
                "z": 0.16403168439865112
            }
        },
        "name": "move_to_storage_C"
    },
    "id": "KPIECE_move_to_storage_C_81",
    "joint_names": [
        "shoulder_pan_joint",
        "shoulder_lift_joint",
        "elbow_joint",
        "wrist_1_joint",
        "wrist_2_joint",
        "wrist_3_joint"
    ],
    "metrics": {
        "cart_traj_len": 0.5769351360349451,
        "distance_elbow_joint": 0.25694345120357576,
        "distance_shoulder_lift_joint": 0.18829540488385343,
        "distance_shoulder_pan_joint": 0.49655353116485657,
        "distance_wrist_1_joint": 0.07766584110286867,
        "distance_wrist_2_joint": 1.0588040734728958,
        "distance_wrist_3_joint": 0.05755335523264016,
        "smoothness": 2.5376526478085547e-16,
        "time": 0.033291831,
        "traj_len": 1.4614430050674883,
        "weighted_distance": 1.8404869687399952
    },
    "planner": "KPIECE",
    "start": {
        "state": {
            "elbow_joint": 2.0108683149792914,
            "shoulder_lift_joint": -1.1634956873317392,
            "shoulder_pan_joint": -2.4736205022346,
            "wrist_1_joint": -0.8367026793690192,
            "wrist_2_joint": 0.6746043897045053,
            "wrist_3_joint": 3.133522094754363
        }
    },
    "waypoints": [
        {
            "positions": [
                -2.4736205022346,
                -1.1634956873317392,
                2.0108683149792914,
                -0.8367026793690192,
                0.6746043897045053,
                3.133522094754363
            ]
        },
        {
            "positions": [
                -2.5563794240954096,
                -1.132113119851097,
                1.9680444064453622,
                -0.8237583725185411,
                0.8510717352833213,
                3.14311432062647
            ]
        },
        {
            "positions": [
                -2.6391383459562188,
                -1.1007305523704547,
                1.925220497911433,
                -0.810814065668063,
                1.0275390808621372,
                3.1527065464985764
            ]
        },
        {
            "positions": [
                -2.7218972678170283,
                -1.0693479848898124,
                1.8823965893775036,
                -0.7978697588175849,
                1.2040064264409533,
                3.1622987723706832
            ]
        },
        {
            "positions": [
                -2.804656189677838,
                -1.0379654174091704,
                1.8395726808435742,
                -0.7849254519671067,
                1.3804737720197693,
                3.17189099824279
            ]
        },
        {
            "positions": [
                -2.887415111538647,
                -1.006582849928528,
                1.796748772309645,
                -0.7719811451166286,
                1.5569411175985852,
                3.1814832241148965
            ]
        },
        {
            "positions": [
                -2.9701740333994566,
                -0.9752002824478858,
                1.7539248637757157,
                -0.7590368382661505,
                1.7334084631774012,
                3.1910754499870033
            ]
        }
    ]
}