{
    "goal": {
        "global_pose": {
            "orientation": {
                "w": 0.7047431468963623,
                "x": -0.7094548344612122,
                "y": 0.0024358443915843964,
                "z": -0.0022348060738295317
            },
            "position": {
                "x": 0.6094750761985779,
                "y": 0.3671506643295288,
                "z": 0.19426114857196808
            }
        },
        "name": "move_to_magneteinheit_A"
    },
    "id": "KPIECE_move_to_magneteinheit_A_119",
    "joint_names": [
        "shoulder_pan_joint",
        "shoulder_lift_joint",
        "elbow_joint",
        "wrist_1_joint",
        "wrist_2_joint",
        "wrist_3_joint"
    ],
    "metrics": {
        "cart_traj_len": 1.9693244441812872,
        "distance_elbow_joint": 3.5779842820094343,
        "distance_shoulder_lift_joint": 0.7875244149862629,
        "distance_shoulder_pan_joint": 1.241726261023128,
        "distance_wrist_1_joint": 1.1797816893798154,
        "distance_wrist_2_joint": 1.4337985594962632,
        "distance_wrist_3_joint": 1.9912509386956945,
        "smoothness": 3.289549710083688e-16,
        "time": 0.107623322,
        "traj_len": 3.1956323545725027,
        "weighted_distance": 4.099774173275653
    },
    "planner": "KPIECE",
    "start": {
        "state": {
            "elbow_joint": -1.5739458827952972,
            "shoulder_lift_joint": 0.006533473998580023,
            "shoulder_pan_joint": -1.1188671628667068,
            "wrist_1_joint": 3.138208179676308,
            "wrist_2_joint": -1.5706037135050406,
            "wrist_3_joint": -2.0226958329764257
        }
    },
    "waypoints": [
        {
            "positions": [
                -1.1188671628667068,
                0.006533473998580023,
                -1.5739458827952972,
                3.138208179676308,
                -1.5706037135050406,
                -2.0226958329764257
            ]
        },
        {
            "positions": [
                -1.0711084605196635,
                -0.023755926577814706,
                -1.4363311027180112,
                3.0928319608540074,
                -1.5154576150628767,
                -1.9461092584112067
            ]
        },
        {
            "positions": [
                -1.02334975817262,
                -0.054045327154209434,
                -1.2987163226407255,
                3.047455742031707,
                -1.4603115166207126,
                -1.8695226838459877
            ]
        },
        {
            "positions": [
                -0.9755910558255767,
                -0.08433472773060416,
                -1.1611015425634394,
                3.002079523209406,
                -1.4051654181785487,
                -1.7929361092807687
            ]
        },
        {
            "positions": [
                -0.9278323534785333,
                -0.11462412830699889,
                -1.0234867624861534,
                2.956703304387106,
                -1.3500193197363846,
                -1.7163495347155497
            ]
        },
        {
            "positions": [
                -0.8800736511314899,
                -0.14491352888339362,
                -0.8858719824088676,
                2.911327085564805,
                -1.2948732212942207,
                -1.6397629601503305
            ]
        },
        {
            "positions": [
                -0.8323149487844466,
                -0.17520292945978833,
                -0.7482572023315816,
                2.8659508667425047,
                -1.2397271228520568,
                -1.5631763855851117
            ]
        },
        {
            "positions": [
                -0.7845562464374032,
                -0.20549233003618306,
                -0.6106424222542958,
                2.820574647920204,
                -1.1845810244098929,
                -1.4865898110198925
            ]
        },
        {
            "positions": [
                -0.7367975440903597,
                -0.2357817306125778,
                -0.47302764217700966,
                2.7751984290979035,
                -1.1294349259677288,
                -1.4100032364546735
            ]
        },
        {
            "positions": [
                -0.6890388417433164,
                -0.2660711311889725,
                -0.3354128620997239,
                2.7298222102756027,
                -1.0742888275255649,
                -1.3334166618894545
            ]
        },
        {
            "positions": [
                -0.6412801393962729,
                -0.2963605317653673,
                -0.19779808202243787,
                2.6844459914533023,
                -1.0191427290834008,
                -1.2568300873242355
            ]
        },
        {
            "positions": [
                -0.5935214370492295,
                -0.326649932341762,
                -0.06018330194515187,
                2.6390697726310015,
                -0.9639966306412369,
                -1.1802435127590165
            ]
        },
        {
            "positions": [
                -0.5457627347021862,
                -0.3569393329181567,
                0.07743147813213413,
                2.593693553808701,
                -0.9088505321990729,
                -1.1036569381937975
            ]
        },
        {
            "positions": [
                -0.4980040323551428,
                -0.38722873349455145,
                0.21504625820941992,
                2.5483173349864003,
                -0.853704433756909,
                -1.0270703636285785
            ]
        },
        {
            "positions": [
                -0.4502453300080994,
                -0.4175181340709462,
                0.3526610382867057,
                2.5029411161641,
                -0.7985583353147451,
                -0.9504837890633595
            ]
        },
        {
            "positions": [
                -0.40248662766105603,
                -0.44780753464734085,
                0.4902758183639915,
                2.457564897341799,
                -0.7434122368725811,
                -0.8738972144981405
            ]
        },
        {
            "positions": [
                -0.35472792531401254,
                -0.47809693522373564,
                0.6278905984412779,
                2.412188678519499,
                -0.688266138430417,
                -0.7973106399329213
            ]
        },
        {
            "positions": [
                -0.30696922296696927,
                -0.5083863358001303,
                0.7655053785185635,
                2.366812459697198,
                -0.6331200399882531,
                -0.7207240653677025
            ]
        },
        {
            "positions": [
                -0.2592105206199259,
                -0.538675736376525,
                0.9031201585958495,
                2.3214362408748976,
                -0.5779739415460892,
                -0.6441374908024835
            ]
        },
        {
            "positions": [
                -0.2114518182728825,
                -0.5689651369529197,
                1.0407349386731355,
                2.276060022052597,
                -0.5228278431039253,
                -0.5675509162372645
            ]
        },
        {
            "positions": [
                -0.16369311592583902,
                -0.5992545375293146,
                1.1783497187504215,
                2.2306838032302965,
                -0.46768174466176116,
                -0.4909643416720453
            ]
        },
        {
            "positions": [
                -0.11593441357879564,
                -0.6295439381057092,
                1.3159644988277075,
                2.1853075844079957,
                -0.41253564621959726,
                -0.4143777671068263
            ]
        },
        {
            "positions": [
                -0.06817571123175226,
                -0.6598333386821039,
                1.4535792789049935,
                2.139931365585695,
                -0.35738954777743315,
                -0.3377911925416073
            ]
        },
        {
            "positions": [
                -0.020417008884708876,
                -0.6901227392584987,
                1.591194058982279,
                2.0945551467633945,
                -0.30224344933526925,
                -0.2612046179763885
            ]
        },
        {
            "positions": [
                0.027341693462334504,
                -0.7204121398348934,
                1.7288088390595655,
                2.049178927941094,
                -0.24709735089310514,
                -0.18461804341116927
            ]
        },
        {
            "positions": [
                0.07510039580937788,
                -0.7507015404112881,
                1.866423619136851,
                2.0038027091187933,
                -0.19195125245094125,
                -0.10803146884595027
            ]
        },
        {
            "positions": [
                0.12285909815642118,
                -0.7809909409876828,
                2.004038399214137,
                1.9584264902964927,
                -0.13680515400877727,
                -0.031444894280731224
            ]
        }
    ]
}