{
    "goal": {
        "global_pose": {
            "orientation": {
                "w": 0.5084816217422485,
                "x": -0.49083608388900757,
                "y": 0.5182115435600281,
                "z": -0.4816462993621826
            },
            "position": {
                "x": 0.5540239810943604,
                "y": 0.030875300988554955,
                "z": 0.16403168439865112
            }
        },
        "name": "move_to_storage_A"
    },
    "id": "KPIECE_move_to_storage_A_108",
    "joint_names": [
        "shoulder_pan_joint",
        "shoulder_lift_joint",
        "elbow_joint",
        "wrist_1_joint",
        "wrist_2_joint",
        "wrist_3_joint"
    ],
    "metrics": {
        "cart_traj_len": 0.35371020062028286,
        "distance_elbow_joint": 0.4499657210419119,
        "distance_shoulder_lift_joint": 0.233881147939214,
        "distance_shoulder_pan_joint": 0.4621258772932909,
        "distance_wrist_1_joint": 0.24086704957111826,
        "distance_wrist_2_joint": 1.101754497225866,
        "distance_wrist_3_joint": 0.08632124103130456,
        "smoothness": 4.440892098500626e-16,
        "time": 0.131509931,
        "traj_len": 1.6046543347720423,
        "weighted_distance": 2.022419235213683
    },
    "planner": "KPIECE",
    "start": {
        "state": {
            "elbow_joint": 1.971548880431181,
            "shoulder_lift_joint": -1.1394869514688781,
            "shoulder_pan_joint": 0.12281150262730567,
            "wrist_1_joint": -0.7804693444481463,
            "wrist_2_joint": 0.12958644648617612,
            "wrist_3_joint": 3.0906942077768043
        }
    },
    "waypoints": [
        {
            "positions": [
                0.12281150262730567,
                -1.1394869514688781,
                1.971548880431181,
                -0.7804693444481463,
                0.12958644648617612,
                3.0906942077768043
            ]
        },
        {
            "positions": [
                0.056793520156835545,
                -1.172898544031623,
                2.0358296977228827,
                -0.8148789229583061,
                0.2869799460898712,
                3.103025813638419
            ]
        },
        {
            "positions": [
                -0.00922446231363458,
                -1.2063101365943678,
                2.1001105150145842,
                -0.8492885014684658,
                0.44437344569356635,
                3.115357419500034
            ]
        },
        {
            "positions": [
                -0.07524244478410472,
                -1.2397217291571128,
                2.164391332306286,
                -0.8836980799786256,
                0.6017669452972615,
                3.127689025361649
            ]
        },
        {
            "positions": [
                -0.14126042725457483,
                -1.2731333217198575,
                2.2286721495979878,
                -0.9181076584887853,
                0.7591604449009566,
                3.140020631223264
            ]
        },
        {
            "positions": [
                -0.20727840972504497,
                -1.3065449142826024,
                2.2929529668896893,
                -0.9525172369989451,
                0.9165539445046518,
                3.152352237084879
            ]
        },
        {
            "positions": [
                -0.2732963921955151,
                -1.3399565068453472,
                2.3572337841813913,
                -0.9869268155091048,
                1.073947444108347,
                3.164683842946494
            ]
        },
        {
            "positions": [
                -0.33931437466598524,
                -1.3733680994080921,
                2.421514601473093,
                -1.0213363940192646,
                1.2313409437120422,
                3.177015448808109
            ]
        }
    ]
}