{
    "goal": {
        "global_pose": {
            "orientation": {
                "w": -0.00223480608172531,
                "x": 0.0024358444001904467,
                "y": 0.7094548369677653,
                "z": -0.704743149386269
            },
            "position": {
                "x": -0.37947507619857795,
                "y": -0.6371506643295288,
                "z": 0.19426114857196808
            }
        },
        "name": "move_to_magneteinheit_C"
    },
    "id": "KPIECE_move_to_magneteinheit_C_126",
    "joint_names": [
        "shoulder_pan_joint",
        "shoulder_lift_joint",
        "elbow_joint",
        "wrist_1_joint",
        "wrist_2_joint",
        "wrist_3_joint"
    ],
    "metrics": {
        "cart_traj_len": 2.475204808701454,
        "distance_elbow_joint": 1.6017887776597506,
        "distance_shoulder_lift_joint": 1.437110807588043,
        "distance_shoulder_pan_joint": 2.7642199639723333,
        "distance_wrist_1_joint": 2.1605840619087964,
        "distance_wrist_2_joint": 1.7669502905912666,
        "distance_wrist_3_joint": 2.9617541802348857,
        "smoothness": 0.6879063037058573,
        "time": 1.021807782,
        "traj_len": 3.562640605218982,
        "weighted_distance": 4.747994397103362
    },
    "planner": "KPIECE",
    "start": {
        "state": {
            "elbow_joint": 1.9565354006593851,
            "shoulder_lift_joint": -1.4165861576512813,
            "shoulder_pan_joint": -1.6717766223278752,
            "wrist_1_joint": -0.528663328821883,
            "wrist_2_joint": 1.472756589259273,
            "wrist_3_joint": 3.159348288315503
        }
    },
    "waypoints": [
        {
            "positions": [
                -1.6717766223278752,
                -1.4165861576512813,
                1.9565354006593851,
                -0.528663328821883,
                1.472756589259273,
                3.159348288315503
            ]
        },
        {
            "positions": [
                -1.6458152951053338,
                -1.4292829540222183,
                1.905391436335218,
                -0.35777495365744894,
                1.4414997260031082,
                3.1430864420603966
            ]
        },
        {
            "positions": [
                -1.6198539678827926,
                -1.4419797503931555,
                1.8542474720110511,
                -0.1868865784930148,
                1.410242862746943,
                3.1268245958052905
            ]
        },
        {
            "positions": [
                -1.5354284973850714,
                -1.4600704169216685,
                1.779525616386441,
                -0.17057616512517146,
                1.3797714559967986,
                2.963823358718498
            ]
        },
        {
            "positions": [
                -1.4510030268873502,
                -1.4781610834501813,
                1.704803760761831,
                -0.15426575175732815,
                1.349300049246654,
                2.8008221216317053
            ]
        },
        {
            "positions": [
                -1.366577556389629,
                -1.4962517499786943,
                1.6300819051372206,
                -0.13795533838948482,
                1.3188286424965097,
                2.637820884544913
            ]
        },
        {
            "positions": [
                -1.2821520858919078,
                -1.5143424165072072,
                1.5553600495126105,
                -0.12164492502164148,
                1.2883572357463653,
                2.47481964745812
            ]
        },
        {
            "positions": [
                -1.1977266153941863,
                -1.53243308303572,
                1.4806381938880004,
                -0.10533451165379815,
                1.2578858289962207,
                2.3118184103713277
            ]
        },
        {
            "positions": [
                -1.1133011448964651,
                -1.550523749564233,
                1.4059163382633904,
                -0.08902409828595483,
                1.2274144222460763,
                2.1488171732845354
            ]
        },
        {
            "positions": [
                -1.028875674398744,
                -1.568614416092746,
                1.33119448263878,
                -0.07271368491811149,
                1.196943015495932,
                1.9858159361977425
            ]
        },
        {
            "positions": [
                -0.9444502039010227,
                -1.5867050826212588,
                1.25647262701417,
                -0.05640327155026817,
                1.1664716087457874,
                1.82281469911095
            ]
        },
        {
            "positions": [
                -0.8600247334033014,
                -1.6047957491497717,
                1.1817507713895599,
                -0.04009285818242482,
                1.136000201995643,
                1.6598134620241574
            ]
        },
        {
            "positions": [
                -1.0221154578886578,
                -1.6415567280184673,
                1.2148849450741375,
                0.00037058109126992395,
                1.0502105613558006,
                1.6700908999567639
            ]
        },
        {
            "positions": [
                -1.1842061823740142,
                -1.6783177068871629,
                1.2480191187587153,
                0.04083402036496467,
                0.9644209207159581,
                1.6803683378893703
            ]
        },
        {
            "positions": [
                -1.3462969068593704,
                -1.7150786857558582,
                1.281153292443293,
                0.0812974596386594,
                0.8786312800761157,
                1.6906457758219766
            ]
        },
        {
            "positions": [
                -1.5083876313447269,
                -1.7518396646245538,
                1.3142874661278707,
                0.12176089891235416,
                0.7928416394362732,
                1.700923213754583
            ]
        },
        {
            "positions": [
                -1.670478355830083,
                -1.7886006434932493,
                1.3474216398124483,
                0.16222433818604887,
                0.7070519987964308,
                1.7112006516871896
            ]
        },
        {
            "positions": [
                -1.8325690803154395,
                -1.8253616223619449,
                1.3805558134970262,
                0.20268777745974365,
                0.6212623581565884,
                1.721478089619796
            ]
        },
        {
            "positions": [
                -1.9946598048007957,
                -1.8621226012306404,
                1.4136899871816038,
                0.24315121673343837,
                0.5354727175167459,
                1.7317555275524026
            ]
        },
        {
            "positions": [
                -2.1567505292861524,
                -1.8988835800993358,
                1.4468241608661816,
                0.28361465600713315,
                0.44968307687690334,
                1.742032965485009
            ]
        },
        {
            "positions": [
                -2.3188412537715086,
                -1.9356445589680313,
                1.4799583345507592,
                0.3240780952808279,
                0.36389343623706083,
                1.7523104034176153
            ]
        },
        {
            "positions": [
                -2.480931978256865,
                -1.972405537836727,
                1.5130925082353368,
                0.3645415345545226,
                0.27810379559721854,
                1.7625878413502218
            ]
        },
        {
            "positions": [
                -2.643022702742221,
                -2.0091665167054225,
                1.5462266819199146,
                0.4050049738282174,
                0.19231415495737603,
                1.7728652792828283
            ]
        },
        {
            "positions": [
                -2.628304897694267,
                -1.9207028294500061,
                1.6008887090347235,
                0.3357318127452411,
                0.23702712422657155,
                1.8759889543646562
            ]
        },
        {
            "positions": [
                -2.613587092646313,
                -1.8322391421945898,
                1.6555507361495323,
                0.26645865166226484,
                0.28174009349576706,
                1.979112629446484
            ]
        },
        {
            "positions": [
                -2.598869287598359,
                -1.7437754549391737,
                1.710212763264341,
                0.19718549057928858,
                0.32645306276496255,
                2.082236304528312
            ]
        },
        {
            "positions": [
                -2.584151482550405,
                -1.6553117676837574,
                1.7648747903791497,
                0.12791232949631232,
                0.3711660320341581,
                2.1853599796101397
            ]
        },
        {
            "positions": [
                -2.5694336775024507,
                -1.5668480804283411,
                1.8195368174939586,
                0.05863916841333605,
                0.4158790013033536,
                2.2884836546919676
            ]
        },
        {
            "positions": [
                -2.554715872454497,
                -1.4783843931729248,
                1.8741988446087674,
                -0.010633992669640213,
                0.4605919705725491,
                2.3916073297737954
            ]
        },
        {
            "positions": [
                -2.5399980674065428,
                -1.3899207059175085,
                1.9288608717235762,
                -0.07990715375261648,
                0.5053049398417446,
                2.4947310048556233
            ]
        },
        {
            "positions": [
                -2.5267089733319104,
                -1.3448637783683108,
                1.944839681334758,
                -0.22830788008818897,
                0.5400083541227448,
                2.620191367078038
            ]
        },
        {
            "positions": [
                -2.513419879257278,
                -1.2998068508191134,
                1.9608184909459399,
                -0.37670860642376147,
                0.5747117684037452,
                2.745651729300453
            ]
        },
        {
            "positions": [
                -2.500130785182646,
                -1.2547499232699157,
                1.9767973005571216,
                -0.5251093327593339,
                0.6094151826847454,
                2.8711120915228676
            ]
        },
        {
            "positions": [
                -2.4868416911080136,
                -1.2096929957207183,
                1.9927761101683035,
                -0.6735100590949065,
                0.6441185969657457,
                2.9965724537452827
            ]
        },
        {
            "positions": [
                -2.473552597033381,
                -1.1646360681715207,
                2.008754919779485,
                -0.8219107854304789,
                0.6788220112467459,
                3.1220328159676973
            ]
        }
    ]
}