{
    "goal": {
        "global_pose": {
            "orientation": {
                "w": 0.5084816262002911,
                "x": -0.4908360881923452,
                "y": 0.5182115481033761,
                "z": -0.48164630358495003
            },
            "position": {
                "x": 0.5540239810943604,
                "y": -0.46912469901144505,
                "z": 0.16403168439865112
            }
        },
        "name": "move_to_storage_B"
    },
    "id": "KPIECE_move_to_storage_B_22",
    "joint_names": [
        "shoulder_pan_joint",
        "shoulder_lift_joint",
        "elbow_joint",
        "wrist_1_joint",
        "wrist_2_joint",
        "wrist_3_joint"
    ],
    "metrics": {
        "cart_traj_len": 2.037473807268902,
        "distance_elbow_joint": 2.016616671338953,
        "distance_shoulder_lift_joint": 0.45881941038953533,
        "distance_shoulder_pan_joint": 2.025937079378697,
        "distance_wrist_1_joint": 2.9765506230790164,
        "distance_wrist_2_joint": 2.706989112606545,
        "distance_wrist_3_joint": 3.139486176313273,
        "smoothness": 0.22226482779440182,
        "time": 0.07403175000000001,
        "traj_len": 3.6502601377307373,
        "weighted_distance": 5.028609267125268
    },
    "planner": "KPIECE",
    "start": {
        "state": {
            "elbow_joint": 1.6649325340416963,
            "shoulder_lift_joint": -0.6616387945129425,
            "shoulder_pan_joint": -0.9139837929255878,
            "wrist_1_joint": 2.1467571094334352,
            "wrist_2_joint": -2.234195976750228,
            "wrist_3_joint": 0.005470921511140723
        }
    },
    "waypoints": [
        {
            "positions": [
                -0.9139837929255878,
                -0.6616387945129425,
                1.6649325340416963,
                2.1467571094334352,
                -2.234195976750228,
                0.005470921511140723
            ]
        },
        {
            "positions": [
                -0.8114815827314931,
                -0.6760773921745329,
                1.572177608816053,
                2.0966053422264808,
                -2.1657049506100607,
                -0.05724860414116129
            ]
        },
        {
            "positions": [
                -0.7089793725373983,
                -0.6905159898361232,
                1.4794226835904096,
                2.0464535750195263,
                -2.097213924469894,
                -0.11996812979346332
            ]
        },
        {
            "positions": [
                -0.6064771623433035,
                -0.7049545874977136,
                1.3866677583647662,
                1.9963018078125716,
                -2.0287228983297267,
                -0.18268765544576535
            ]
        },
        {
            "positions": [
                -0.5039749521492087,
                -0.719393185159304,
                1.293912833139123,
                1.9461500406056171,
                -1.96023187218956,
                -0.24540718109806733
            ]
        },
        {
            "positions": [
                -0.40147274195511384,
                -0.7338317828208942,
                1.2011579079134798,
                1.8959982733986627,
                -1.8917408460493927,
                -0.30812670675036946
            ]
        },
        {
            "positions": [
                -0.2989705317610192,
                -0.7482703804824846,
                1.1084029826878363,
                1.8458465061917082,
                -1.823249819909226,
                -0.37084623240267145
            ]
        },
        {
            "positions": [
                -0.1964683215669243,
                -0.762708978144075,
                1.0156480574621929,
                1.7956947389847535,
                -1.7547587937690587,
                -0.4335657580549735
            ]
        },
        {
            "positions": [
                -0.09396611137282962,
                -0.7771475758056653,
                0.9228931322365497,
                1.745542971777799,
                -1.6862677676288917,
                -0.4962852837072754
            ]
        },
        {
            "positions": [
                0.008536098821265214,
                -0.7915861734672557,
                0.8301382070109063,
                1.6953912045708446,
                -1.6177767414887247,
                -0.5590048093595775
            ]
        },
        {
            "positions": [
                -0.03560058868400852,
                -0.8047410547246646,
                0.8774111007832328,
                1.5943838158421875,
                -1.534153946394923,
                -0.6620052271772797
            ]
        },
        {
            "positions": [
                -0.07973727618928225,
                -0.8178959359820734,
                0.9246839945555594,
                1.4933764271135304,
                -1.4505311513011212,
                -0.7650056449949819
            ]
        },
        {
            "positions": [
                -0.12387396369455597,
                -0.8310508172394824,
                0.9719568883278858,
                1.3923690383848735,
                -1.3669083562073197,
                -0.8680060628126841
            ]
        },
        {
            "positions": [
                -0.16801065119982972,
                -0.8442056984968912,
                1.0192297821002123,
                1.2913616496562164,
                -1.2832855611135179,
                -0.9710064806303864
            ]
        },
        {
            "positions": [
                -0.21214733870510344,
                -0.8573605797543001,
                1.0665026758725389,
                1.1903542609275592,
                -1.199662766019716,
                -1.0740068984480886
            ]
        },
        {
            "positions": [
                -0.25628402621037716,
                -0.870515461011709,
                1.1137755696448655,
                1.0893468721989024,
                -1.1160399709259146,
                -1.1770073162657906
            ]
        },
        {
            "positions": [
                -0.30042071371565093,
                -0.8836703422691179,
                1.161048463417192,
                0.9883394834702451,
                -1.0324171758321126,
                -1.280007734083493
            ]
        },
        {
            "positions": [
                -0.34455740122092465,
                -0.8968252235265268,
                1.2083213571895184,
                0.8873320947415881,
                -0.948794380738311,
                -1.3830081519011952
            ]
        },
        {
            "positions": [
                -0.3886940887261984,
                -0.9099801047839357,
                1.255594250961845,
                0.7863247060129311,
                -0.8651715856445094,
                -1.4860085697188974
            ]
        },
        {
            "positions": [
                -0.4328307762314721,
                -0.9231349860413446,
                1.3028671447341715,
                0.6853173172842741,
                -0.7815487905507076,
                -1.5890089875365998
            ]
        },
        {
            "positions": [
                -0.4769674637367458,
                -0.9362898672987534,
                1.350140038506498,
                0.584309928555617,
                -0.6979259954569059,
                -1.6920094053543018
            ]
        },
        {
            "positions": [
                -0.5211041512420196,
                -0.9494447485561623,
                1.3974129322788245,
                0.48330253982696014,
                -0.6143032003631044,
                -1.7950098231720037
            ]
        },
        {
            "positions": [
                -0.5652408387472934,
                -0.9625996298135712,
                1.444685826051151,
                0.3822951510983028,
                -0.5306804052693024,
                -1.8980102409897062
            ]
        },
        {
            "positions": [
                -0.6093775262525671,
                -0.9757545110709801,
                1.4919587198234776,
                0.2812877623696457,
                -0.4470576101755006,
                -2.0010106588074086
            ]
        },
        {
            "positions": [
                -0.6535142137578407,
                -0.9889093923283889,
                1.539231613595804,
                0.1802803736409888,
                -0.36343481508169906,
                -2.1040110766251106
            ]
        },
        {
            "positions": [
                -0.6976509012631145,
                -1.0020642735857979,
                1.5865045073681305,
                0.0792729849123317,
                -0.2798120199878973,
                -2.207011494442813
            ]
        },
        {
            "positions": [
                -0.7417875887683882,
                -1.0152191548432068,
                1.633777401140457,
                -0.02173440381632541,
                -0.19618922489409552,
                -2.310011912260515
            ]
        },
        {
            "positions": [
                -0.785924276273662,
                -1.0283740361006157,
                1.6810502949127835,
                -0.1227417925449823,
                -0.11256642980029397,
                -2.413012330078217
            ]
        },
        {
            "positions": [
                -0.8300609637789356,
                -1.0415289173580244,
                1.72832318868511,
                -0.2237491812736394,
                -0.028943634706492194,
                -2.5160127478959193
            ]
        },
        {
            "positions": [
                -0.8741976512842093,
                -1.0546837986154334,
                1.7755960824574366,
                -0.3247565700022963,
                0.05467916038730958,
                -2.6190131657136217
            ]
        },
        {
            "positions": [
                -0.9183343387894831,
                -1.0678386798728423,
                1.822868976229763,
                -0.4257639587309532,
                0.13830195548111113,
                -2.7220135835313237
            ]
        },
        {
            "positions": [
                -0.9624710262947569,
                -1.0809935611302512,
                1.8701418700020898,
                -0.5267713474596105,
                0.2219247505749129,
                -2.8250140013490257
            ]
        },
        {
            "positions": [
                -1.0066077138000307,
                -1.09414844238766,
                1.917414763774416,
                -0.6277787361882678,
                0.30554754566871467,
                -2.928014419166728
            ]
        },
        {
            "positions": [
                -1.0507444013053042,
                -1.107303323645069,
                1.9646876575467425,
                -0.7287861249169243,
                0.389170340762516,
                -3.03101483698443
            ]
        },
        {
            "positions": [
                -1.094881088810578,
                -1.1204582049024778,
                2.0119605513190693,
                -0.8297935136455818,
                0.47279313585631816,
                -3.1340152548021325
            ]
        }
    ]
}