{
    "goal": {
        "global_pose": {
            "orientation": {
                "w": -0.4816463035849501,
                "x": 0.5182115481033762,
                "y": 0.4908360881923453,
                "z": -0.5084816262002911
            },
            "position": {
                "x": -0.8240239810943604,
                "y": -0.300875300988555,
                "z": 0.16403168439865112
            }
        },
        "name": "move_to_storage_C"
    },
    "id": "KPIECE_move_to_storage_C_95",
    "joint_names": [
        "shoulder_pan_joint",
        "shoulder_lift_joint",
        "elbow_joint",
        "wrist_1_joint",
        "wrist_2_joint",
        "wrist_3_joint"
    ],
    "metrics": {
        "cart_traj_len": 0.5764261556275263,
        "distance_elbow_joint": 0.2566629603500852,
        "distance_shoulder_lift_joint": 0.18841032276421743,
        "distance_shoulder_pan_joint": 0.4940716949074888,
        "distance_wrist_1_joint": 0.07141182461731321,
        "distance_wrist_2_joint": 1.0704645253860872,
        "distance_wrist_3_joint": 0.060916556671656075,
        "smoothness": 2.5376526478085547e-16,
        "time": 0.010891074,
        "traj_len": 1.4635360893045473,
        "weighted_distance": 1.8454396083436488
    },
    "planner": "KPIECE",
    "start": {
        "state": {
            "elbow_joint": 2.0108683149792914,
            "shoulder_lift_joint": -1.1634956873317392,
            "shoulder_pan_joint": -2.4736205022346,
            "wrist_1_joint": -0.8367026793690192,
            "wrist_2_joint": 0.6746043897045053,
            "wrist_3_joint": 3.133522094754363
        }
    },
    "waypoints": [
        {
            "positions": [
                -2.4736205022346,
                -1.1634956873317392,
                2.0108683149792914,
                -0.8367026793690192,
                0.6746043897045053,
                3.133522094754363
            ]
        },
        {
            "positions": [
                -2.5559657847191817,
                -1.1320939668710364,
                1.9680911549209439,
                -0.824800708599467,
                0.8530151439355198,
                3.1436748541996393
            ]
        },
        {
            "positions": [
                -2.638311067203763,
                -1.1006922464103335,
                1.9253139948625964,
                -0.8128987378299148,
                1.0314258981665343,
                3.153827613644915
            ]
        },
        {
            "positions": [
                -2.7206563496883445,
                -1.0692905259496306,
                1.8825368348042488,
                -0.8009967670603626,
                1.209836652397549,
                3.163980373090191
            ]
        },
        {
            "positions": [
                -2.803001632172926,
                -1.0378888054889277,
                1.8397596747459013,
                -0.7890947962908104,
                1.3882474066285635,
                3.1741331325354674
            ]
        },
        {
            "positions": [
                -2.8853469146575073,
                -1.0064870850282248,
                1.7969825146875538,
                -0.7771928255212582,
                1.566658160859578,
                3.184285891980743
            ]
        },
        {
            "positions": [
                -2.967692197142089,
                -0.9750853645675218,
                1.7542053546292062,
                -0.765290854751706,
                1.7450689150905925,
                3.1944386514260192
            ]
        }
    ]
}