{
    "goal": {
        "global_pose": {
            "orientation": {
                "w": -0.00223480608172531,
                "x": 0.0024358444001904467,
                "y": 0.7094548369677653,
                "z": -0.704743149386269
            },
            "position": {
                "x": 0.6205249238014221,
                "y": -0.6371506643295288,
                "z": 0.19426114857196808
            }
        },
        "name": "move_to_magneteinheit_B"
    },
    "id": "KPIECE_move_to_magneteinheit_B_33",
    "joint_names": [
        "shoulder_pan_joint",
        "shoulder_lift_joint",
        "elbow_joint",
        "wrist_1_joint",
        "wrist_2_joint",
        "wrist_3_joint"
    ],
    "metrics": {
        "cart_traj_len": 3.83852628766278,
        "distance_elbow_joint": 4.32803047914901,
        "distance_shoulder_lift_joint": 0.9677126828075677,
        "distance_shoulder_pan_joint": 2.8598214203713894,
        "distance_wrist_1_joint": 1.7151982518941566,
        "distance_wrist_2_joint": 1.4634550306973013,
        "distance_wrist_3_joint": 3.3511444958682564,
        "smoothness": 0.44658958163413187,
        "time": 0.26861186000000004,
        "traj_len": 3.8321485306271312,
        "weighted_distance": 4.956440722445458
    },
    "planner": "KPIECE",
    "start": {
        "state": {
            "elbow_joint": 2.393587130804639,
            "shoulder_lift_joint": -1.9085141043513325,
            "shoulder_pan_joint": 0.7066247066698809,
            "wrist_1_joint": -0.4678290934590222,
            "wrist_2_joint": 0.7096259084215963,
            "wrist_3_joint": 3.147370379541726
        }
    },
    "waypoints": [
        {
            "positions": [
                0.7066247066698809,
                -1.9085141043513325,
                2.393587130804639,
                -0.4678290934590222,
                0.7096259084215963,
                3.147370379541726
            ]
        },
        {
            "positions": [
                0.560111720433706,
                -1.875617141878543,
                2.353815539444591,
                -0.45887549726564403,
                0.5601820980301266,
                3.1514853668133656
            ]
        },
        {
            "positions": [
                0.41359873419753135,
                -1.8427201794057535,
                2.3140439480845436,
                -0.4499219010722659,
                0.41073828763865694,
                3.155600354085005
            ]
        },
        {
            "positions": [
                0.44689410840506083,
                -1.8363573835684908,
                2.1606252975943736,
                -0.39861826146500057,
                0.38431869678117947,
                3.031337228148626
            ]
        },
        {
            "positions": [
                0.48018948261259037,
                -1.8299945877312283,
                2.007206647104203,
                -0.3473146218577352,
                0.35789910592370205,
                2.9070741022122473
            ]
        },
        {
            "positions": [
                0.5134848568201198,
                -1.8236317918939655,
                1.8537879966140334,
                -0.29601098225046985,
                0.33147951506622464,
                2.782810976275868
            ]
        },
        {
            "positions": [
                0.5467802310276494,
                -1.817268996056703,
                1.7003693461238631,
                -0.24470734264320454,
                0.30505992420874717,
                2.6585478503394895
            ]
        },
        {
            "positions": [
                0.5800756052351789,
                -1.8109062002194403,
                1.5469506956336931,
                -0.19340370303593923,
                0.2786403333512697,
                2.5342847244031104
            ]
        },
        {
            "positions": [
                0.6133709794427084,
                -1.8045434043821778,
                1.3935320451435231,
                -0.14210006342867387,
                0.2522207424937923,
                2.4100215984667317
            ]
        },
        {
            "positions": [
                0.6466663536502378,
                -1.798180608544915,
                1.240113394653353,
                -0.09079642382140857,
                0.22580115163631484,
                2.2857584725303526
            ]
        },
        {
            "positions": [
                0.6799617278577674,
                -1.7918178127076525,
                1.0866947441631827,
                -0.039492784214143206,
                0.1993815607788374,
                2.1614953465939735
            ]
        },
        {
            "positions": [
                0.7132571020652969,
                -1.7854550168703898,
                0.9332760936730127,
                0.0118108553931221,
                0.17296196992135995,
                2.037232220657595
            ]
        },
        {
            "positions": [
                0.7465524762728264,
                -1.7790922210331273,
                0.7798574431828427,
                0.0631144950003874,
                0.1465423790638825,
                1.912969094721216
            ]
        },
        {
            "positions": [
                0.7798478504803559,
                -1.7727294251958645,
                0.6264387926926722,
                0.11441813460765288,
                0.12012278820640504,
                1.7887059687848368
            ]
        },
        {
            "positions": [
                0.8131432246878854,
                -1.766366629358602,
                0.47302014220250244,
                0.16572177421491813,
                0.09370319734892762,
                1.6644428428484581
            ]
        },
        {
            "positions": [
                0.8464385988954148,
                -1.7600038335213393,
                0.3196014917123322,
                0.2170254138221835,
                0.06728360649145015,
                1.540179716912079
            ]
        },
        {
            "positions": [
                0.8797339731029443,
                -1.7536410376840768,
                0.1661828412221622,
                0.26832905342944874,
                0.04086401563397274,
                1.4159165909757
            ]
        },
        {
            "positions": [
                0.9130293473104739,
                -1.747278241846814,
                0.012764190731991754,
                0.3196326930367142,
                0.014444424776495268,
                1.2916534650393212
            ]
        },
        {
            "positions": [
                0.9463247215180034,
                -1.7409154460095515,
                -0.14065445975817825,
                0.37093633264397946,
                -0.011975166080982147,
                1.1673903391029423
            ]
        },
        {
            "positions": [
                0.9796200957255329,
                -1.7345526501722888,
                -0.29407311024834826,
                0.4222399722512448,
                -0.03839475693845962,
                1.0431272131665632
            ]
        },
        {
            "positions": [
                1.0129154699330623,
                -1.7281898543350263,
                -0.44749176073851826,
                0.47354361185851007,
                -0.06481434779593703,
                0.9188640872301845
            ]
        },
        {
            "positions": [
                1.046210844140592,
                -1.7218270584977635,
                -0.6009104112286887,
                0.5248472514657756,
                -0.09123393865341456,
                0.7946009612938054
            ]
        },
        {
            "positions": [
                1.0795062183481212,
                -1.7154642626605008,
                -0.7543290617188583,
                0.5761508910730406,
                -0.11765352951089192,
                0.6703378353574267
            ]
        },
        {
            "positions": [
                1.112801592555651,
                -1.7091014668232383,
                -0.907747712209029,
                0.6274545306803062,
                -0.1440731203683694,
                0.5460747094210479
            ]
        },
        {
            "positions": [
                1.2615321632204666,
                -1.74572556341916,
                -0.9947800127618093,
                0.6760301516632397,
                -0.1116585792013409,
                0.5567263431706373
            ]
        },
        {
            "positions": [
                1.4102627338852822,
                -1.7823496600150817,
                -1.0818123133145896,
                0.7246057726461732,
                -0.07924403803431242,
                0.5673779769202266
            ]
        },
        {
            "positions": [
                1.5589933045500977,
                -1.8189737566110034,
                -1.1688446138673698,
                0.7731813936291068,
                -0.046829496867283923,
                0.5780296106698161
            ]
        },
        {
            "positions": [
                1.7077238752149135,
                -1.855597853206925,
                -1.2558769144201503,
                0.8217570146120402,
                -0.014414955700255444,
                0.5886812444194054
            ]
        },
        {
            "positions": [
                1.856454445879729,
                -1.8922219498028467,
                -1.3429092149729305,
                0.8703326355949736,
                0.01799958546677305,
                0.5993328781689948
            ]
        },
        {
            "positions": [
                2.0051850165445444,
                -1.9288460463987684,
                -1.429941515525711,
                0.9189082565779072,
                0.05041412663380154,
                0.6099845119185843
            ]
        },
        {
            "positions": [
                2.15391558720936,
                -1.9654701429946901,
                -1.5169738160784911,
                0.9674838775608408,
                0.08282866780083001,
                0.6206361456681736
            ]
        },
        {
            "positions": [
                2.302646157874176,
                -2.002094239590612,
                -1.6040061166312714,
                1.016059498543774,
                0.1152432089678585,
                0.631287779417763
            ]
        },
        {
            "positions": [
                2.4513767285389916,
                -2.0387183361865335,
                -1.6910384171840516,
                1.0646351195267076,
                0.14765775013488702,
                0.6419394131673524
            ]
        },
        {
            "positions": [
                2.600107299203807,
                -2.0753424327824552,
                -1.778070717736832,
                1.1132107405096412,
                0.18007229130191546,
                0.6525910469169418
            ]
        },
        {
            "positions": [
                2.6738223690675342,
                -2.1818730967727578,
                -1.7859789537756943,
                1.0710715338810906,
                0.25454559951332767,
                0.6120524039856151
            ]
        },
        {
            "positions": [
                2.7475374389312615,
                -2.28840376076306,
                -1.7938871898145567,
                1.02893232725254,
                0.32901890772473985,
                0.5715137610542885
            ]
        },
        {
            "positions": [
                2.8212525087949887,
                -2.3949344247533624,
                -1.801795425853419,
                0.9867931206239892,
                0.4034922159361521,
                0.5309751181229618
            ]
        },
        {
            "positions": [
                2.768205284361128,
                -2.422423453869812,
                -1.7575794516897685,
                0.9842128546107088,
                0.4242224378037568,
                0.3625562479992468
            ]
        },
        {
            "positions": [
                2.715158059927267,
                -2.449912482986262,
                -1.7133634775261177,
                0.9816325885974284,
                0.44495265967136144,
                0.1941373778755317
            ]
        },
        {
            "positions": [
                2.662110835493406,
                -2.4774015121027118,
                -1.6691475033624672,
                0.9790523225841481,
                0.46568288153896614,
                0.025718507751816624
            ]
        }
    ]
}