{
    "goal": {
        "global_pose": {
            "orientation": {
                "w": 0.005598929693374612,
                "x": 0.007748599140229565,
                "y": 0.7110244013736278,
                "z": -0.7031023480610252
            },
            "position": {
                "x": 0.1141497679147869,
                "y": -0.7141253447532654,
                "z": 0.3711530566215515
            }
        },
        "name": "move_to_auspresseinheit_B"
    },
    "id": "KPIECE_move_to_auspresseinheit_B_35",
    "joint_names": [
        "shoulder_pan_joint",
        "shoulder_lift_joint",
        "elbow_joint",
        "wrist_1_joint",
        "wrist_2_joint",
        "wrist_3_joint"
    ],
    "metrics": {
        "cart_traj_len": 0.5643076167089992,
        "distance_elbow_joint": 0.06210638209541286,
        "distance_shoulder_lift_joint": 0.2932264839982981,
        "distance_shoulder_pan_joint": 0.5750428527873488,
        "distance_wrist_1_joint": 0.3210537148920153,
        "distance_wrist_2_joint": 1.0011641039333474,
        "distance_wrist_3_joint": 0.005728706752977875,
        "smoothness": 0.0,
        "time": 0.053979361000000003,
        "traj_len": 1.502771521043502,
        "weighted_distance": 1.895256572812958
    },
    "planner": "KPIECE",
    "start": {
        "state": {
            "elbow_joint": 2.0193061681459312,
            "shoulder_lift_joint": -1.1220205130644991,
            "shoulder_pan_joint": -1.0952072088045026,
            "wrist_1_joint": -0.8559671810662515,
            "wrist_2_joint": 0.4759638712940361,
            "wrist_3_joint": 3.159081874192446
        }
    },
    "waypoints": [
        {
            "positions": [
                -1.0952072088045026,
                -1.1220205130644991,
                2.0193061681459312,
                -0.8559671810662515,
                0.4759638712940361,
                3.159081874192446
            ]
        },
        {
            "positions": [
                -1.1910476842690607,
                -1.1708915937308821,
                2.0089551044633622,
                -0.802458228584249,
                0.6428245552829274,
                3.1581270897336164
            ]
        },
        {
            "positions": [
                -1.2868881597336188,
                -1.2197626743972652,
                1.9986040407807937,
                -0.7489492761022464,
                0.8096852392718186,
                3.157172305274787
            ]
        },
        {
            "positions": [
                -1.382728635198177,
                -1.2686337550636482,
                1.9882529770982247,
                -0.6954403236202438,
                0.9765459232607099,
                3.1562175208159573
            ]
        },
        {
            "positions": [
                -1.4785691106627352,
                -1.3175048357300312,
                1.977901913415656,
                -0.6419313711382413,
                1.143406607249601,
                3.1552627363571273
            ]
        },
        {
            "positions": [
                -1.5744095861272933,
                -1.3663759163964142,
                1.9675508497330871,
                -0.5884224186562388,
                1.3102672912384923,
                3.1543079518982977
            ]
        },
        {
            "positions": [
                -1.6702500615918514,
                -1.4152469970627972,
                1.9571997860505184,
                -0.5349134661742362,
                1.4771279752273836,
                3.153353167439468
            ]
        }
    ]
}