{
    "goal": {
        "global_pose": {
            "orientation": {
                "w": -0.00223480608172531,
                "x": 0.0024358444001904467,
                "y": 0.7094548369677653,
                "z": -0.704743149386269
            },
            "position": {
                "x": -0.37947507619857795,
                "y": -0.6371506643295288,
                "z": 0.19426114857196808
            }
        },
        "name": "move_to_magneteinheit_C"
    },
    "id": "KPIECE_move_to_magneteinheit_C_37",
    "joint_names": [
        "shoulder_pan_joint",
        "shoulder_lift_joint",
        "elbow_joint",
        "wrist_1_joint",
        "wrist_2_joint",
        "wrist_3_joint"
    ],
    "metrics": {
        "cart_traj_len": 1.5321882268247689,
        "distance_elbow_joint": 0.6537798182693038,
        "distance_shoulder_lift_joint": 0.6508878031209517,
        "distance_shoulder_pan_joint": 2.1012690451263896,
        "distance_wrist_1_joint": 4.932805500379259,
        "distance_wrist_2_joint": 0.8687448973437047,
        "distance_wrist_3_joint": 1.9547995668904439,
        "smoothness": 1.586793965902149,
        "time": 2.054784838,
        "traj_len": 3.3410008427311206,
        "weighted_distance": 4.568745578671885
    },
    "planner": "KPIECE",
    "start": {
        "state": {
            "elbow_joint": 1.9565354006593851,
            "shoulder_lift_joint": -1.4165861576512813,
            "shoulder_pan_joint": -1.6717766223278752,
            "wrist_1_joint": -0.528663328821883,
            "wrist_2_joint": 1.472756589259273,
            "wrist_3_joint": 3.159348288315503
        }
    },
    "waypoints": [
        {
            "positions": [
                -1.6717766223278752,
                -1.4165861576512813,
                1.9565354006593851,
                -0.528663328821883,
                1.472756589259273,
                3.159348288315503
            ]
        },
        {
            "positions": [
                -1.6281919825784126,
                -1.429640794519825,
                1.9436148229153534,
                -0.4886415390476274,
                1.4218088152742108,
                3.108638953275053
            ]
        },
        {
            "positions": [
                -1.58460734282895,
                -1.4426954313883686,
                1.9306942451713216,
                -0.4486197492733717,
                1.3708610412891482,
                3.057929618234603
            ]
        },
        {
            "positions": [
                -1.5243392422454987,
                -1.4621954538367756,
                1.874698478009723,
                -0.4191787447659592,
                1.3495821146083797,
                2.96641401260569
            ]
        },
        {
            "positions": [
                -1.639736937711905,
                -1.4577933109831431,
                1.917691706356261,
                -0.3331585222246599,
                1.256476270460197,
                2.9455482410346616
            ]
        },
        {
            "positions": [
                -1.7551346331783113,
                -1.4533911681295106,
                1.960684934702799,
                -0.24713829968336068,
                1.1633704263120146,
                2.9246824694636335
            ]
        },
        {
            "positions": [
                -1.8705323286447177,
                -1.4489890252758781,
                2.0036781630493374,
                -0.16111807714206144,
                1.070264582163832,
                2.903816697892605
            ]
        },
        {
            "positions": [
                -1.9859300241111242,
                -1.4445868824222454,
                2.046671391395875,
                -0.07509785460076218,
                0.9771587380156495,
                2.882950926321577
            ]
        },
        {
            "positions": [
                -2.1013277195775304,
                -1.440184739568613,
                2.0896646197424134,
                0.010922367940537081,
                0.8840528938674668,
                2.8620851547505484
            ]
        },
        {
            "positions": [
                -2.216725415043937,
                -1.4357825967149804,
                2.1326578480889515,
                0.09694259048183629,
                0.7909470497192842,
                2.8412193831795203
            ]
        },
        {
            "positions": [
                -2.3321231105103433,
                -1.431380453861348,
                2.1756510764354897,
                0.1829628130231356,
                0.6978412055711016,
                2.8203536116084917
            ]
        },
        {
            "positions": [
                -2.385733038286896,
                -1.3963359591927498,
                2.179999340990606,
                -0.03477477387051173,
                0.6932880235512047,
                2.7657015741772346
            ]
        },
        {
            "positions": [
                -2.4393429660634487,
                -1.3612914645241518,
                2.184347605545722,
                -0.25251236076415906,
                0.6887348415313077,
                2.7110495367459775
            ]
        },
        {
            "positions": [
                -2.492952893840002,
                -1.326246969855554,
                2.188695870100838,
                -0.4702499476578064,
                0.6841816595114107,
                2.65639749931472
            ]
        },
        {
            "positions": [
                -2.5465628216165546,
                -1.2912024751869557,
                2.1930441346559544,
                -0.6879875345514537,
                0.6796284774915139,
                2.601745461883463
            ]
        },
        {
            "positions": [
                -2.6001727493931073,
                -1.2561579805183576,
                2.1973923992110707,
                -0.9057251214451012,
                0.6750752954716169,
                2.5470934244522057
            ]
        },
        {
            "positions": [
                -2.6537826771696604,
                -1.2211134858497597,
                2.201740663766187,
                -1.1234627083387485,
                0.67052211345172,
                2.492441387020948
            ]
        },
        {
            "positions": [
                -2.707392604946213,
                -1.1860689911811615,
                2.2060889283213028,
                -1.341200295232396,
                0.665968931431823,
                2.437789349589691
            ]
        },
        {
            "positions": [
                -2.761002532722766,
                -1.1510244965125636,
                2.210437192876419,
                -1.5589378821260431,
                0.661415749411926,
                2.383137312158434
            ]
        },
        {
            "positions": [
                -2.8146124604993186,
                -1.1159800018439654,
                2.2147854574315353,
                -1.7766754690196904,
                0.6568625673920292,
                2.3284852747271767
            ]
        },
        {
            "positions": [
                -2.8682223882758713,
                -1.0809355071753675,
                2.219133721986651,
                -1.994413055913338,
                0.6523093853721322,
                2.2738332372959196
            ]
        },
        {
            "positions": [
                -2.9218323160524244,
                -1.0458910125067695,
                2.2234819865417674,
                -2.212150642806985,
                0.6477562033522353,
                2.219181199864662
            ]
        },
        {
            "positions": [
                -2.975442243828977,
                -1.0108465178381714,
                2.2278302510968837,
                -2.4298882297006323,
                0.6432030213323383,
                2.164529162433405
            ]
        },
        {
            "positions": [
                -2.9195835034444735,
                -1.0279498034978216,
                2.20351790414883,
                -2.2511850834994687,
                0.6475576134897572,
                2.2711936558787764
            ]
        },
        {
            "positions": [
                -2.8637247630599694,
                -1.045053089157472,
                2.1792055572007767,
                -2.072481937298305,
                0.6519122056471761,
                2.3778581493241484
            ]
        },
        {
            "positions": [
                -2.8078660226754657,
                -1.0621563748171223,
                2.1548932102527236,
                -1.8937787910971415,
                0.656266797804595,
                2.48452264276952
            ]
        },
        {
            "positions": [
                -2.7520072822909616,
                -1.0792596604767728,
                2.13058086330467,
                -1.7150756448959779,
                0.6606213899620138,
                2.591187136214892
            ]
        },
        {
            "positions": [
                -2.696148541906458,
                -1.096362946136423,
                2.1062685163566166,
                -1.5363724986948142,
                0.6649759821194328,
                2.6978516296602635
            ]
        },
        {
            "positions": [
                -2.640289801521954,
                -1.1134662317960735,
                2.081956169408563,
                -1.3576693524936507,
                0.6693305742768516,
                2.8045161231056355
            ]
        },
        {
            "positions": [
                -2.58443106113745,
                -1.1305695174557238,
                2.05764382246051,
                -1.1789662062924868,
                0.6736851664342705,
                2.911180616551007
            ]
        },
        {
            "positions": [
                -2.5285723207529465,
                -1.1476728031153742,
                2.0333314755124565,
                -1.0002630600913234,
                0.6780397585916894,
                3.0178451099963786
            ]
        },
        {
            "positions": [
                -2.4727135803684424,
                -1.1647760887750245,
                2.009019128564403,
                -0.8215599138901596,
                0.6823943507491083,
                3.1245096034417505
            ]
        }
    ]
}