{
    "goal": {
        "global_pose": {
            "orientation": {
                "w": 0.7031023502349854,
                "x": -0.7110244035720825,
                "y": 0.007748599164187908,
                "z": 0.005598929710686207
            },
            "position": {
                "x": 0.11585023208521307,
                "y": 0.44412534475326537,
                "z": 0.3711530566215515
            }
        },
        "name": "move_to_auspresseinheit_A"
    },
    "id": "KPIECE_move_to_auspresseinheit_A_15",
    "joint_names": [
        "shoulder_pan_joint",
        "shoulder_lift_joint",
        "elbow_joint",
        "wrist_1_joint",
        "wrist_2_joint",
        "wrist_3_joint"
    ],
    "metrics": {
        "cart_traj_len": 2.1128201749933293,
        "distance_elbow_joint": 2.714990556545081,
        "distance_shoulder_lift_joint": 0.5314463946535299,
        "distance_shoulder_pan_joint": 1.6093178642460517,
        "distance_wrist_1_joint": 1.375533356215679,
        "distance_wrist_2_joint": 1.0122237228568567,
        "distance_wrist_3_joint": 1.3125420260918763,
        "smoothness": 1.0779603732680834,
        "time": 0.313570013,
        "traj_len": 2.9250733188433204,
        "weighted_distance": 3.6835981121541157
    },
    "planner": "KPIECE",
    "start": {
        "state": {
            "elbow_joint": 2.4225746994637096,
            "shoulder_lift_joint": -1.373653595662188,
            "shoulder_pan_joint": -0.3378633848294565,
            "wrist_1_joint": -1.0288595594406726,
            "wrist_2_joint": 1.2330228066703421,
            "wrist_3_joint": 3.189163495502006
        }
    },
    "waypoints": [
        {
            "positions": [
                -0.3378633848294565,
                -1.373653595662188,
                2.4225746994637096,
                -1.0288595594406726,
                1.2330228066703421,
                3.189163495502006
            ]
        },
        {
            "positions": [
                -0.3614199144219773,
                -1.400364548451259,
                2.3080275149889493,
                -0.9482247175958347,
                1.1686070968165252,
                3.1323541769654892
            ]
        },
        {
            "positions": [
                -0.38497644401449804,
                -1.42707550124033,
                2.1934803305141894,
                -0.8675898757509968,
                1.1041913869627085,
                3.0755448584289726
            ]
        },
        {
            "positions": [
                -0.40853297360701885,
                -1.4537864540294008,
                2.078933146039429,
                -0.786955033906159,
                1.0397756771088915,
                3.018735539892456
            ]
        },
        {
            "positions": [
                -0.43208950319953965,
                -1.4804974068184718,
                1.964385961564669,
                -0.706320192061321,
                0.9753599672550746,
                2.9619262213559394
            ]
        },
        {
            "positions": [
                -0.45564603279206045,
                -1.5072083596075427,
                1.8498387770899087,
                -0.6256853502164831,
                0.9109442574012577,
                2.9051169028194224
            ]
        },
        {
            "positions": [
                -0.47920256238458125,
                -1.5339193123966137,
                1.7352915926151486,
                -0.5450505083716453,
                0.8465285475474409,
                2.8483075842829058
            ]
        },
        {
            "positions": [
                -0.502759091977102,
                -1.5606302651856847,
                1.6207444081403883,
                -0.4644156665268072,
                0.7821128376936239,
                2.791498265746389
            ]
        },
        {
            "positions": [
                -0.5263156215696227,
                -1.5873412179747557,
                1.5061972236656285,
                -0.3837808246819694,
                0.7176971278398071,
                2.7346889472098725
            ]
        },
        {
            "positions": [
                -0.5498721511621436,
                -1.6140521707638267,
                1.3916500391908682,
                -0.30314598283713146,
                0.6532814179859902,
                2.677879628673356
            ]
        },
        {
            "positions": [
                -0.5734286807546644,
                -1.6407631235528974,
                1.2771028547161078,
                -0.22251114099229352,
                0.5888657081321733,
                2.6210703101368393
            ]
        },
        {
            "positions": [
                -0.5969852103471851,
                -1.6674740763419684,
                1.162555670241348,
                -0.1418762991474557,
                0.5244499982783565,
                2.5642609916003227
            ]
        },
        {
            "positions": [
                -0.620541739939706,
                -1.6941850291310394,
                1.0480084857665877,
                -0.06124145730261779,
                0.46003428842453953,
                2.507451673063806
            ]
        },
        {
            "positions": [
                -0.503937979488071,
                -1.7151713176057588,
                1.1694306413580182,
                -0.10136087232625582,
                0.4816510535979607,
                2.5641098769498467
            ]
        },
        {
            "positions": [
                -0.38733421903643594,
                -1.7361576060804782,
                1.2908527969494488,
                -0.14148028734989385,
                0.5032678187713818,
                2.6207680808358873
            ]
        },
        {
            "positions": [
                -0.270730458584801,
                -1.7571438945551978,
                1.4122749525408793,
                -0.18159970237353187,
                0.524884583944803,
                2.677426284721928
            ]
        },
        {
            "positions": [
                -0.15412669813316598,
                -1.7781301830299172,
                1.5336971081323099,
                -0.2217191173971699,
                0.5465013491182242,
                2.7340844886079685
            ]
        },
        {
            "positions": [
                -0.03752293768153103,
                -1.7991164715046366,
                1.6551192637237404,
                -0.2618385324208079,
                0.5681181142916454,
                2.790742692494009
            ]
        },
        {
            "positions": [
                0.07908082277010398,
                -1.820102759979356,
                1.776541419315171,
                -0.30195794744444593,
                0.5897348794650665,
                2.8474008963800497
            ]
        },
        {
            "positions": [
                0.19568458322173887,
                -1.8410890484540754,
                1.8979635749066015,
                -0.34207736246808396,
                0.6113516446384877,
                2.9040591002660903
            ]
        },
        {
            "positions": [
                0.312288343673374,
                -1.862075336928795,
                2.019385730498032,
                -0.382196777491722,
                0.6329684098119088,
                2.960717304152131
            ]
        },
        {
            "positions": [
                0.4288921041250089,
                -1.8830616254035144,
                2.140807886089463,
                -0.42231619251536,
                0.65458517498533,
                3.0173755080381714
            ]
        },
        {
            "positions": [
                0.5454958645766439,
                -1.9040479138782338,
                2.262230041680893,
                -0.46243560753899804,
                0.6762019401587511,
                3.074033711924212
            ]
        },
        {
            "positions": [
                0.7060977691960961,
                -1.9029958374407496,
                2.3884328286145466,
                -0.45571450369775324,
                0.6992694930355937,
                3.1382818767174827
            ]
        }
    ]
}