{
    "goal": {
        "global_pose": {
            "orientation": {
                "w": 0.7031023480610252,
                "x": -0.7110244013736278,
                "y": 0.0077485991402295624,
                "z": 0.005598929693374583
            },
            "position": {
                "x": -0.8841497679147869,
                "y": 0.44412534475326537,
                "z": 0.3711530566215515
            }
        },
        "name": "move_to_auspresseinheit_D"
    },
    "id": "KPIECE_move_to_auspresseinheit_D_92",
    "joint_names": [
        "shoulder_pan_joint",
        "shoulder_lift_joint",
        "elbow_joint",
        "wrist_1_joint",
        "wrist_2_joint",
        "wrist_3_joint"
    ],
    "metrics": {
        "cart_traj_len": 0.3444511326654663,
        "distance_elbow_joint": 0.6656643606317876,
        "distance_shoulder_lift_joint": 0.13732656498620477,
        "distance_shoulder_pan_joint": 0.13424327006500522,
        "distance_wrist_1_joint": 0.6150542285530896,
        "distance_wrist_2_joint": 1.446318703742374,
        "distance_wrist_3_joint": 0.07404730183964015,
        "smoothness": 1.9737298371844314e-16,
        "time": 0.09991254299999999,
        "traj_len": 1.7528988646861807,
        "weighted_distance": 2.298286745772347
    },
    "planner": "KPIECE",
    "start": {
        "state": {
            "elbow_joint": -1.8275484843655228,
            "shoulder_lift_joint": -2.1267897864000416,
            "shoulder_pan_joint": -0.035127520176001514,
            "wrist_1_joint": -2.3477863256791385,
            "wrist_2_joint": -1.605890476484521,
            "wrist_3_joint": -3.0880375317375353
        }
    },
    "waypoints": [
        {
            "positions": [
                -0.035127520176001514,
                -2.1267897864000416,
                -1.8275484843655228,
                -2.3477863256791385,
                -1.605890476484521,
                -3.0880375317375353
            ]
        },
        {
            "positions": [
                -0.05190792893412717,
                -2.143955607023317,
                -1.7443404392865494,
                -2.4246681042482745,
                -1.4251006385167242,
                -3.07878161900758
            ]
        },
        {
            "positions": [
                -0.06868833769225283,
                -2.161121427646593,
                -1.6611323942075757,
                -2.501549882817411,
                -1.2443108005489276,
                -3.0695257062776253
            ]
        },
        {
            "positions": [
                -0.08546874645037847,
                -2.1782872482698683,
                -1.5779243491286024,
                -2.578431661386547,
                -1.0635209625811308,
                -3.06026979354767
            ]
        },
        {
            "positions": [
                -0.10224915520850412,
                -2.195453068893144,
                -1.494716304049629,
                -2.655313439955683,
                -0.882731124613334,
                -3.051013880817715
            ]
        },
        {
            "positions": [
                -0.11902956396662978,
                -2.2126188895164196,
                -1.4115082589706556,
                -2.7321952185248195,
                -0.7019412866455372,
                -3.0417579680877602
            ]
        },
        {
            "positions": [
                -0.13580997272475542,
                -2.229784710139695,
                -1.3283002138916822,
                -2.8090769970939555,
                -0.5211514486777407,
                -3.032502055357805
            ]
        },
        {
            "positions": [
                -0.15259038148288107,
                -2.246950530762971,
                -1.2450921688127086,
                -2.8859587756630916,
                -0.34036161070994386,
                -3.0232461426278503
            ]
        },
        {
            "positions": [
                -0.16937079024100674,
                -2.2641163513862463,
                -1.1618841237337352,
                -2.962840554232228,
                -0.15957177274214718,
                -3.013990229897895
            ]
        }
    ]
}