{
    "goal": {
        "global_pose": {
            "orientation": {
                "w": 0.7031023480610252,
                "x": -0.7110244013736278,
                "y": 0.0077485991402295624,
                "z": 0.005598929693374583
            },
            "position": {
                "x": -0.8841497679147869,
                "y": 0.44412534475326537,
                "z": 0.3711530566215515
            }
        },
        "name": "move_to_auspresseinheit_D"
    },
    "id": "KPIECE_move_to_auspresseinheit_D_50",
    "joint_names": [
        "shoulder_pan_joint",
        "shoulder_lift_joint",
        "elbow_joint",
        "wrist_1_joint",
        "wrist_2_joint",
        "wrist_3_joint"
    ],
    "metrics": {
        "cart_traj_len": 0.34415867763463925,
        "distance_elbow_joint": 0.6472047397512664,
        "distance_shoulder_lift_joint": 0.12545525080610087,
        "distance_shoulder_pan_joint": 0.13347585293938588,
        "distance_wrist_1_joint": 0.5466283583668425,
        "distance_wrist_2_joint": 1.450148325544637,
        "distance_wrist_3_joint": 0.009882137880597774,
        "smoothness": 9.868649154664964e-16,
        "time": 0.19656563999999999,
        "traj_len": 1.7066911452541231,
        "weighted_distance": 2.2202107163423714
    },
    "planner": "KPIECE",
    "start": {
        "state": {
            "elbow_joint": -1.8275484843655228,
            "shoulder_lift_joint": -2.1267897864000416,
            "shoulder_pan_joint": -0.035127520176001514,
            "wrist_1_joint": -2.3477863256791385,
            "wrist_2_joint": -1.605890476484521,
            "wrist_3_joint": -3.0880375317375353
        }
    },
    "waypoints": [
        {
            "positions": [
                -0.035127520176001514,
                -2.1267897864000416,
                -1.8275484843655228,
                -2.3477863256791385,
                -1.605890476484521,
                -3.0880375317375353
            ]
        },
        {
            "positions": [
                -0.05181200179342475,
                -2.1424716927508043,
                -1.7466478918966144,
                -2.4161148704749937,
                -1.4246219357914414,
                -3.0868022645024604
            ]
        },
        {
            "positions": [
                -0.06849648341084799,
                -2.158153599101567,
                -1.6657472994277063,
                -2.484443415270849,
                -1.2433533950983617,
                -3.085566997267386
            ]
        },
        {
            "positions": [
                -0.08518096502827122,
                -2.1738355054523293,
                -1.584846706958798,
                -2.5527719600667043,
                -1.062084854405282,
                -3.084331730032311
            ]
        },
        {
            "positions": [
                -0.10186544664569445,
                -2.189517411803092,
                -1.5039461144898896,
                -2.62110050486256,
                -0.8808163137122025,
                -3.0830964627972364
            ]
        },
        {
            "positions": [
                -0.1185499282631177,
                -2.2051993181538547,
                -1.4230455220209812,
                -2.6894290496584152,
                -0.6995477730191229,
                -3.0818611955621615
            ]
        },
        {
            "positions": [
                -0.13523440988054092,
                -2.220881224504617,
                -1.3421449295520729,
                -2.7577575944542705,
                -0.5182792323260432,
                -3.0806259283270867
            ]
        },
        {
            "positions": [
                -0.15191889149796417,
                -2.2365631308553797,
                -1.2612443370831647,
                -2.8260861392501258,
                -0.3370106916329636,
                -3.0793906610920123
            ]
        },
        {
            "positions": [
                -0.1686033731153874,
                -2.2522450372061424,
                -1.1803437446142564,
                -2.894414684045981,
                -0.155742150939884,
                -3.0781553938569375
            ]
        }
    ]
}