{
    "goal": {
        "global_pose": {
            "orientation": {
                "w": 0.005598929693374612,
                "x": 0.007748599140229565,
                "y": 0.7110244013736278,
                "z": -0.7031023480610252
            },
            "position": {
                "x": 0.1141497679147869,
                "y": -0.7141253447532654,
                "z": 0.3711530566215515
            }
        },
        "name": "move_to_auspresseinheit_B"
    },
    "id": "KPIECE_move_to_auspresseinheit_B_39",
    "joint_names": [
        "shoulder_pan_joint",
        "shoulder_lift_joint",
        "elbow_joint",
        "wrist_1_joint",
        "wrist_2_joint",
        "wrist_3_joint"
    ],
    "metrics": {
        "cart_traj_len": 0.5650457196826286,
        "distance_elbow_joint": 0.06503452028923196,
        "distance_shoulder_lift_joint": 0.29327295592210856,
        "distance_shoulder_pan_joint": 0.578574259267117,
        "distance_wrist_1_joint": 0.336132729509399,
        "distance_wrist_2_joint": 0.9890420545945131,
        "distance_wrist_3_joint": 0.0032012989500649347,
        "smoothness": 5.075305255429287e-16,
        "time": 0.035536883,
        "traj_len": 1.5050773463621179,
        "weighted_distance": 1.8965324148393765
    },
    "planner": "KPIECE",
    "start": {
        "state": {
            "elbow_joint": 2.0193061681459312,
            "shoulder_lift_joint": -1.1220205130644991,
            "shoulder_pan_joint": -1.0952072088045026,
            "wrist_1_joint": -0.8559671810662515,
            "wrist_2_joint": 0.4759638712940361,
            "wrist_3_joint": 3.159081874192446
        }
    },
    "waypoints": [
        {
            "positions": [
                -1.0952072088045026,
                -1.1220205130644991,
                2.0193061681459312,
                -0.8559671810662515,
                0.4759638712940361,
                3.159081874192446
            ]
        },
        {
            "positions": [
                -1.1916362520156887,
                -1.1708993390515172,
                2.0084670814310592,
                -0.7999450594813516,
                0.6408042137264549,
                3.1585483243674353
            ]
        },
        {
            "positions": [
                -1.288065295226875,
                -1.2197781650385353,
                1.9976279947161872,
                -0.7439229378964518,
                0.8056445561588739,
                3.1580147745424245
            ]
        },
        {
            "positions": [
                -1.3844943384380612,
                -1.2686569910255534,
                1.9867889080013152,
                -0.687900816311552,
                0.9704848985912926,
                3.1574812247174133
            ]
        },
        {
            "positions": [
                -1.4809233816492473,
                -1.3175358170125715,
                1.9759498212864433,
                -0.6318786947266521,
                1.1353252410237116,
                3.1569476748924026
            ]
        },
        {
            "positions": [
                -1.5773524248604334,
                -1.3664146429995896,
                1.9651107345715713,
                -0.5758565731417523,
                1.3001655834561303,
                3.156414125067392
            ]
        },
        {
            "positions": [
                -1.6737814680716196,
                -1.4152934689866077,
                1.9542716478566993,
                -0.5198344515568525,
                1.4650059258885493,
                3.155880575242381
            ]
        }
    ]
}