{
    "goal": {
        "global_pose": {
            "orientation": {
                "w": 0.5084816217422485,
                "x": -0.49083608388900757,
                "y": 0.5182115435600281,
                "z": -0.4816462993621826
            },
            "position": {
                "x": 0.5540239810943604,
                "y": 0.030875300988554955,
                "z": 0.16403168439865112
            }
        },
        "name": "move_to_storage_A"
    },
    "id": "KPIECE_move_to_storage_A_117",
    "joint_names": [
        "shoulder_pan_joint",
        "shoulder_lift_joint",
        "elbow_joint",
        "wrist_1_joint",
        "wrist_2_joint",
        "wrist_3_joint"
    ],
    "metrics": {
        "cart_traj_len": 0.35310448709222186,
        "distance_elbow_joint": 0.4494498921021719,
        "distance_shoulder_lift_joint": 0.2339908253877947,
        "distance_shoulder_pan_joint": 0.462321161356486,
        "distance_wrist_1_joint": 0.24505578265191486,
        "distance_wrist_2_joint": 1.0941189971798797,
        "distance_wrist_3_joint": 6.194049357328297,
        "smoothness": 5.792467945971718e-16,
        "time": 0.061098222,
        "traj_len": 2.9460118832086444,
        "weighted_distance": 4.733525061779533
    },
    "planner": "KPIECE",
    "start": {
        "state": {
            "elbow_joint": 1.971548880431181,
            "shoulder_lift_joint": -1.1394869514688781,
            "shoulder_pan_joint": 0.12281150262730567,
            "wrist_1_joint": -0.7804693444481463,
            "wrist_2_joint": 0.12958644648617612,
            "wrist_3_joint": 3.0906942077768043
        }
    },
    "waypoints": [
        {
            "positions": [
                0.12281150262730567,
                -1.1394869514688781,
                1.971548880431181,
                -0.7804693444481463,
                0.12958644648617612,
                3.0906942077768043
            ]
        },
        {
            "positions": [
                0.10179690438382903,
                -1.1501228980774143,
                1.9919784209812796,
                -0.791608243659597,
                0.17931912817617066,
                2.809146509716427
            ]
        },
        {
            "positions": [
                0.0807823061403524,
                -1.1607588446859505,
                2.0124079615313786,
                -0.8027471428710476,
                0.2290518098661652,
                2.52759881165605
            ]
        },
        {
            "positions": [
                0.05976770789687577,
                -1.1713947912944864,
                2.032837502081477,
                -0.8138860420824984,
                0.2787844915561597,
                2.246051113595673
            ]
        },
        {
            "positions": [
                0.03875310965339912,
                -1.1820307379030226,
                2.053267042631576,
                -0.825024941293949,
                0.32851717324615426,
                1.9645034155352956
            ]
        },
        {
            "positions": [
                0.017738511409922497,
                -1.1926666845115588,
                2.0736965831816745,
                -0.8361638405053997,
                0.3782498549361488,
                1.6829557174749186
            ]
        },
        {
            "positions": [
                -0.003276086833554126,
                -1.203302631120095,
                2.0941261237317734,
                -0.8473027397168503,
                0.42798253662614333,
                1.4014080194145415
            ]
        },
        {
            "positions": [
                -0.024290685077030777,
                -1.213938577728631,
                2.114555664281872,
                -0.858441638928301,
                0.4777152183161379,
                1.1198603213541642
            ]
        },
        {
            "positions": [
                -0.04530528332050743,
                -1.224574524337167,
                2.134985204831971,
                -0.8695805381397517,
                0.5274479000061325,
                0.838312623293787
            ]
        },
        {
            "positions": [
                -0.06631988156398408,
                -1.2352104709457032,
                2.1554147453820693,
                -0.8807194373512024,
                0.5771805816961271,
                0.5567649252334097
            ]
        },
        {
            "positions": [
                -0.08733447980746067,
                -1.2458464175542394,
                2.1758442859321683,
                -0.891858336562653,
                0.6269132633861215,
                0.2752172271730329
            ]
        },
        {
            "positions": [
                -0.10834907805093733,
                -1.2564823641627756,
                2.1962738264822668,
                -0.9029972357741037,
                0.6766459450761161,
                -0.006330470887344397
            ]
        },
        {
            "positions": [
                -0.12936367629441392,
                -1.2671183107713115,
                2.2167033670323657,
                -0.9141361349855543,
                0.7263786267661105,
                -0.2878781689477212
            ]
        },
        {
            "positions": [
                -0.1503782745378906,
                -1.2777542573798477,
                2.237132907582464,
                -0.9252750341970051,
                0.7761113084561052,
                -0.5694258670080989
            ]
        },
        {
            "positions": [
                -0.17139287278136722,
                -1.2883902039883839,
                2.257562448132563,
                -0.9364139334084558,
                0.8258439901460997,
                -0.8509735650684758
            ]
        },
        {
            "positions": [
                -0.19240747102484385,
                -1.2990261505969198,
                2.2779919886826616,
                -0.9475528326199064,
                0.8755766718360942,
                -1.132521263128853
            ]
        },
        {
            "positions": [
                -0.21342206926832052,
                -1.309662097205456,
                2.2984215292327606,
                -0.9586917318313571,
                0.9253093535260888,
                -1.4140689611892303
            ]
        },
        {
            "positions": [
                -0.23443666751179715,
                -1.3202980438139922,
                2.318851069782859,
                -0.9698306310428078,
                0.9750420352160833,
                -1.6956166592496076
            ]
        },
        {
            "positions": [
                -0.2554512657552738,
                -1.3309339904225284,
                2.339280610332958,
                -0.9809695302542585,
                1.024774716906078,
                -1.9771643573099849
            ]
        },
        {
            "positions": [
                -0.2764658639987504,
                -1.3415699370310645,
                2.359710150883057,
                -0.9921084294657092,
                1.0745073985960725,
                -2.2587120553703612
            ]
        },
        {
            "positions": [
                -0.297480462242227,
                -1.3522058836396005,
                2.3801396914331554,
                -1.0032473286771597,
                1.124240080286067,
                -2.5402597534307385
            ]
        },
        {
            "positions": [
                -0.3184950604857037,
                -1.3628418302481367,
                2.400569231983254,
                -1.0143862278886104,
                1.1739727619760614,
                -2.821807451491116
            ]
        },
        {
            "positions": [
                -0.3395096587291803,
                -1.3734777768566728,
                2.420998772533353,
                -1.0255251271000612,
                1.223705443666056,
                -3.103355149551493
            ]
        }
    ]
}