{
    "goal": {
        "global_pose": {
            "orientation": {
                "w": -0.4816463035849501,
                "x": 0.5182115481033762,
                "y": 0.4908360881923453,
                "z": -0.5084816262002911
            },
            "position": {
                "x": -0.8240239810943604,
                "y": -0.300875300988555,
                "z": 0.16403168439865112
            }
        },
        "name": "move_to_storage_C"
    },
    "id": "KPIECE_move_to_storage_C_109",
    "joint_names": [
        "shoulder_pan_joint",
        "shoulder_lift_joint",
        "elbow_joint",
        "wrist_1_joint",
        "wrist_2_joint",
        "wrist_3_joint"
    ],
    "metrics": {
        "cart_traj_len": 0.57707765053831,
        "distance_elbow_joint": 0.25769399232980805,
        "distance_shoulder_lift_joint": 0.18932720100010358,
        "distance_shoulder_pan_joint": 0.4964798172183045,
        "distance_wrist_1_joint": 0.08041229467696276,
        "distance_wrist_2_joint": 1.0601559468173407,
        "distance_wrist_3_joint": 0.06892626030563642,
        "smoothness": 7.612957943425664e-16,
        "time": 0.018206031999999997,
        "traj_len": 1.4673089355511182,
        "weighted_distance": 1.8524082364462031
    },
    "planner": "KPIECE",
    "start": {
        "state": {
            "elbow_joint": 2.0108683149792914,
            "shoulder_lift_joint": -1.1634956873317392,
            "shoulder_pan_joint": -2.4736205022346,
            "wrist_1_joint": -0.8367026793690192,
            "wrist_2_joint": 0.6746043897045053,
            "wrist_3_joint": 3.133522094754363
        }
    },
    "waypoints": [
        {
            "positions": [
                -2.4736205022346,
                -1.1634956873317392,
                2.0108683149792914,
                -0.8367026793690192,
                0.6746043897045053,
                3.133522094754363
            ]
        },
        {
            "positions": [
                -2.556367138437651,
                -1.131941153831722,
                1.9679193162576567,
                -0.823300630256192,
                0.8512970475073954,
                3.1450098048053023
            ]
        },
        {
            "positions": [
                -2.6391137746407014,
                -1.1003866203317048,
                1.924970317536022,
                -0.809898581143365,
                1.0279897053102856,
                3.156497514856242
            ]
        },
        {
            "positions": [
                -2.7218604108437523,
                -1.0688320868316874,
                1.8820213188143873,
                -0.7964965320305378,
                1.2046823631131756,
                3.1679852249071816
            ]
        },
        {
            "positions": [
                -2.804607047046803,
                -1.0372775533316703,
                1.8390723200927528,
                -0.7830944829177107,
                1.3813750209160658,
                3.1794729349581208
            ]
        },
        {
            "positions": [
                -2.8873536832498536,
                -1.005723019831653,
                1.796123321371118,
                -0.7696924338048836,
                1.558067678718956,
                3.19096064500906
            ]
        },
        {
            "positions": [
                -2.9701003194529045,
                -0.9741684863316357,
                1.7531743226494834,
                -0.7562903846920564,
                1.734760336521846,
                3.2024483550599996
            ]
        }
    ]
}