{
    "goal": {
        "global_pose": {
            "orientation": {
                "w": 0.5084816262002911,
                "x": -0.4908360881923452,
                "y": 0.5182115481033761,
                "z": -0.48164630358495003
            },
            "position": {
                "x": 0.5540239810943604,
                "y": -0.46912469901144505,
                "z": 0.16403168439865112
            }
        },
        "name": "move_to_storage_B"
    },
    "id": "KPIECE_move_to_storage_B_131",
    "joint_names": [
        "shoulder_pan_joint",
        "shoulder_lift_joint",
        "elbow_joint",
        "wrist_1_joint",
        "wrist_2_joint",
        "wrist_3_joint"
    ],
    "metrics": {
        "cart_traj_len": 2.206092132807235,
        "distance_elbow_joint": 1.0330762705791134,
        "distance_shoulder_lift_joint": 1.290843891020127,
        "distance_shoulder_pan_joint": 1.92916522029461,
        "distance_wrist_1_joint": 2.978578374893937,
        "distance_wrist_2_joint": 2.7016382016961566,
        "distance_wrist_3_joint": 3.131699980039467,
        "smoothness": 0.24751341692495374,
        "time": 0.110399565,
        "traj_len": 3.6145541825408314,
        "weighted_distance": 5.000861773253931
    },
    "planner": "KPIECE",
    "start": {
        "state": {
            "elbow_joint": 1.6649325340416963,
            "shoulder_lift_joint": -0.6616387945129425,
            "shoulder_pan_joint": -0.9139837929255878,
            "wrist_1_joint": 2.1467571094334352,
            "wrist_2_joint": -2.234195976750228,
            "wrist_3_joint": 0.005470921511140723
        }
    },
    "waypoints": [
        {
            "positions": [
                -0.9139837929255878,
                -0.6616387945129425,
                1.6649325340416963,
                2.1467571094334352,
                -2.234195976750228,
                0.005470921511140723
            ]
        },
        {
            "positions": [
                -0.8593706084220846,
                -0.7162998604865494,
                1.6434850074847105,
                2.027758974492562,
                -2.1311780338163437,
                0.02642632102609503
            ]
        },
        {
            "positions": [
                -0.8047574239185814,
                -0.7709609264601563,
                1.622037480927725,
                1.9087608395516888,
                -2.0281600908824595,
                0.04738172054104934
            ]
        },
        {
            "positions": [
                -0.7501442394150781,
                -0.8256219924337633,
                1.6005899543707391,
                1.7897627046108158,
                -1.9251421479485749,
                0.06833712005600363
            ]
        },
        {
            "positions": [
                -0.695531054911575,
                -0.8802830584073702,
                1.5791424278137534,
                1.6707645696699425,
                -1.8221242050146906,
                0.08929251957095795
            ]
        },
        {
            "positions": [
                -0.6409178704080717,
                -0.9349441243809771,
                1.5576949012567678,
                1.5517664347290694,
                -1.7191062620808064,
                0.11024791908591226
            ]
        },
        {
            "positions": [
                -0.5863046859045684,
                -0.989605190354584,
                1.536247374699782,
                1.4327682997881963,
                -1.616088319146922,
                0.13120331860086656
            ]
        },
        {
            "positions": [
                -0.5316915014010652,
                -1.044266256328191,
                1.5147998481427962,
                1.3137701648473232,
                -1.5130703762130375,
                0.15215871811582088
            ]
        },
        {
            "positions": [
                -0.477078316897562,
                -1.098927322301798,
                1.4933523215858107,
                1.19477202990645,
                -1.4100524332791533,
                0.1731141176307752
            ]
        },
        {
            "positions": [
                -0.4224651323940588,
                -1.1535883882754048,
                1.4719047950288249,
                1.0757738949655768,
                -1.307034490345269,
                0.1940695171457295
            ]
        },
        {
            "positions": [
                -0.36785194789055553,
                -1.2082494542490116,
                1.450457268471839,
                0.9567757600247035,
                -1.2040165474113846,
                0.21502491666068382
            ]
        },
        {
            "positions": [
                -0.31323876338705237,
                -1.2629105202226187,
                1.4290097419148533,
                0.8377776250838305,
                -1.1009986044775002,
                0.2359803161756381
            ]
        },
        {
            "positions": [
                -0.2586255788835491,
                -1.3175715861962256,
                1.4075622153578677,
                0.7187794901429574,
                -0.997980661543616,
                0.25693571569059237
            ]
        },
        {
            "positions": [
                -0.20401239438004592,
                -1.3722326521698325,
                1.386114688800882,
                0.5997813552020841,
                -0.8949627186097318,
                0.2778911152055467
            ]
        },
        {
            "positions": [
                -0.14939920987654265,
                -1.4268937181434396,
                1.3646671622438964,
                0.480783220261211,
                -0.7919447756758473,
                0.298846514720501
            ]
        },
        {
            "positions": [
                -0.09478602537303948,
                -1.4815547841170464,
                1.3432196356869106,
                0.3617850853203377,
                -0.6889268327419629,
                0.31980191423545534
            ]
        },
        {
            "positions": [
                -0.040172840869536194,
                -1.5362158500906533,
                1.3217721091299248,
                0.24278695037946452,
                -0.5859088898080786,
                0.34075731375040963
            ]
        },
        {
            "positions": [
                -0.09880363354945615,
                -1.5130899147882968,
                1.360100767222555,
                0.18308649394391063,
                -0.527389383432856,
                0.49611362418375393
            ]
        },
        {
            "positions": [
                -0.1574344262293761,
                -1.4899639794859405,
                1.398429425315185,
                0.12338603750835675,
                -0.4688698770576334,
                0.6514699346170982
            ]
        },
        {
            "positions": [
                -0.2160652189092961,
                -1.466838044183584,
                1.436758083407815,
                0.06368558107280287,
                -0.4103503706824108,
                0.8068262450504426
            ]
        },
        {
            "positions": [
                -0.274696011589216,
                -1.4437121088812275,
                1.4750867415004452,
                0.003985124637248982,
                -0.3518308643071882,
                0.962182555483787
            ]
        },
        {
            "positions": [
                -0.333326804269136,
                -1.420586173578871,
                1.5134153995930755,
                -0.0557153317983049,
                -0.29331135793196556,
                1.1175388659171315
            ]
        },
        {
            "positions": [
                -0.39195759694905596,
                -1.3974602382765147,
                1.5517440576857056,
                -0.11541578823385878,
                -0.23479185155674298,
                1.2728951763504757
            ]
        },
        {
            "positions": [
                -0.4505883896289759,
                -1.3743343029741582,
                1.5900727157783356,
                -0.17511624466941267,
                -0.1762723451815203,
                1.42825148678382
            ]
        },
        {
            "positions": [
                -0.5092191823088958,
                -1.3512083676718016,
                1.6284013738709657,
                -0.23481670110496655,
                -0.11775283880629772,
                1.5836077972171643
            ]
        },
        {
            "positions": [
                -0.5678499749888158,
                -1.3280824323694453,
                1.6667300319635958,
                -0.29451715754052044,
                -0.05923333243107509,
                1.7389641076505087
            ]
        },
        {
            "positions": [
                -0.6264807676687358,
                -1.3049564970670888,
                1.705058690056226,
                -0.3542176139760743,
                -0.0007138260558524623,
                1.894320418083853
            ]
        },
        {
            "positions": [
                -0.6851115603486558,
                -1.2818305617647323,
                1.7433873481488562,
                -0.4139180704116282,
                0.05780568031937017,
                2.0496767285171975
            ]
        },
        {
            "positions": [
                -0.7437423530285757,
                -1.258704626462376,
                1.781716006241486,
                -0.4736185268471821,
                0.11632518669459269,
                2.2050330389505417
            ]
        },
        {
            "positions": [
                -0.8023731457084957,
                -1.2355786911600195,
                1.8200446643341164,
                -0.533318983282736,
                0.17484469306981532,
                2.360389349383886
            ]
        },
        {
            "positions": [
                -0.8610039383884156,
                -1.212452755857663,
                1.8583733224267465,
                -0.5930194397182899,
                0.23336419944503806,
                2.5157456598172305
            ]
        },
        {
            "positions": [
                -0.9196347310683356,
                -1.1893268205553065,
                1.8967019805193766,
                -0.6527198961538437,
                0.2918837058202607,
                2.6711019702505747
            ]
        },
        {
            "positions": [
                -0.9782655237482555,
                -1.16620088525295,
                1.9350306386120066,
                -0.7124203525893976,
                0.3504032121954832,
                2.826458280683919
            ]
        },
        {
            "positions": [
                -1.0368963164281755,
                -1.1430749499505937,
                1.9733592967046367,
                -0.7721208090249515,
                0.40892271857070583,
                2.9818145911172635
            ]
        },
        {
            "positions": [
                -1.0955271091080954,
                -1.1199490146482372,
                2.011687954797267,
                -0.8318212654605053,
                0.46744222494592846,
                3.1371709015506077
            ]
        }
    ]
}