{
    "goal": {
        "global_pose": {
            "orientation": {
                "w": 0.7047431493862688,
                "x": -0.7094548369677653,
                "y": 0.0024358444001904,
                "z": -0.0022348060817251984
            },
            "position": {
                "x": -0.39052492380142206,
                "y": 0.3671506643295288,
                "z": 0.19426114857196808
            }
        },
        "name": "move_to_magneteinheit_D"
    },
    "id": "KPIECE_move_to_magneteinheit_D_38",
    "joint_names": [
        "shoulder_pan_joint",
        "shoulder_lift_joint",
        "elbow_joint",
        "wrist_1_joint",
        "wrist_2_joint",
        "wrist_3_joint"
    ],
    "metrics": {
        "cart_traj_len": 5.089288782110952,
        "distance_elbow_joint": 3.2032197302983154,
        "distance_shoulder_lift_joint": 1.6770878559688758,
        "distance_shoulder_pan_joint": 3.44203971956346,
        "distance_wrist_1_joint": 2.4177340391472635,
        "distance_wrist_2_joint": 1.303582337135975,
        "distance_wrist_3_joint": 3.251677378964868,
        "smoothness": 0.48119967335775626,
        "time": 1.524066641,
        "traj_len": 3.9109258572720034,
        "weighted_distance": 5.051733583166448
    },
    "planner": "KPIECE",
    "start": {
        "state": {
            "elbow_joint": 0.7495348899011911,
            "shoulder_lift_joint": -0.6476975780737668,
            "shoulder_pan_joint": -2.711696901376276,
            "wrist_1_joint": -0.0750647808097303,
            "wrist_2_joint": 0.43296659715458535,
            "wrist_3_joint": 3.1361499051832418
        }
    },
    "waypoints": [
        {
            "positions": [
                -2.711696901376276,
                -0.6476975780737668,
                0.7495348899011911,
                -0.0750647808097303,
                0.43296659715458535,
                3.1361499051832418
            ]
        },
        {
            "positions": [
                -2.771542348731259,
                -0.722855498280562,
                0.737054734249429,
                -0.13802366457178772,
                0.5428811780726543,
                3.0746635579409807
            ]
        },
        {
            "positions": [
                -2.8313877960862426,
                -0.7980134184873571,
                0.7245745785976669,
                -0.20098254833384516,
                0.6527957589907234,
                3.0131772106987196
            ]
        },
        {
            "positions": [
                -2.891233243441226,
                -0.8731713386941523,
                0.712094422945905,
                -0.26394143209590254,
                0.7627103399087924,
                2.9516908634564585
            ]
        },
        {
            "positions": [
                -2.951078690796209,
                -0.9483292589009474,
                0.6996142672941429,
                -0.32690031585796,
                0.8726249208268614,
                2.8902045162141974
            ]
        },
        {
            "positions": [
                -2.843741700504138,
                -0.949717122041848,
                0.6263063521437817,
                -0.34106210112503677,
                0.8321738350943662,
                2.7575035159322105
            ]
        },
        {
            "positions": [
                -2.736404710212067,
                -0.9511049851827486,
                0.5529984369934207,
                -0.35522388639211355,
                0.7917227493618709,
                2.6248025156502237
            ]
        },
        {
            "positions": [
                -2.6290677199199965,
                -0.9524928483236491,
                0.47969052184305955,
                -0.36938567165919034,
                0.7512716636293757,
                2.4921015153682373
            ]
        },
        {
            "positions": [
                -2.5217307296279254,
                -0.9538807114645497,
                0.40638260669269843,
                -0.38354745692626707,
                0.7108205778968804,
                2.3594005150862505
            ]
        },
        {
            "positions": [
                -2.4143937393358543,
                -0.9552685746054502,
                0.33307469154233726,
                -0.39770924219334386,
                0.6703694921643851,
                2.2266995148042636
            ]
        },
        {
            "positions": [
                -2.3070567490437837,
                -0.9566564377463508,
                0.2597667763919762,
                -0.41187102746042065,
                0.6299184064318899,
                2.093998514522277
            ]
        },
        {
            "positions": [
                -2.199719758751713,
                -0.9580443008872513,
                0.18645886124161504,
                -0.42603281272749743,
                0.5894673206993947,
                1.96129751424029
            ]
        },
        {
            "positions": [
                -2.092382768459642,
                -0.9594321640281519,
                0.11315094609125398,
                -0.4401945979945742,
                0.5490162349668994,
                1.8285965139583034
            ]
        },
        {
            "positions": [
                -1.9850457781675708,
                -0.9608200271690525,
                0.0398430309408927,
                -0.454356383261651,
                0.5085651492344041,
                1.6958955136763165
            ]
        },
        {
            "positions": [
                -1.8777087878755,
                -0.962207890309953,
                -0.03346488420946836,
                -0.46851816852872774,
                0.46811406350190893,
                1.5631945133943297
            ]
        },
        {
            "positions": [
                -1.7703717975834292,
                -0.9635957534508536,
                -0.10677279935982942,
                -0.48267995379580453,
                0.4276629777694137,
                1.430493513112343
            ]
        },
        {
            "positions": [
                -1.6630348072913583,
                -0.9649836165917541,
                -0.18008071451019048,
                -0.4968417390628813,
                0.38721189203691847,
                1.2977925128303565
            ]
        },
        {
            "positions": [
                -1.5556978169992874,
                -0.9663714797326547,
                -0.25338862966055176,
                -0.5110035243299581,
                0.3467608063044232,
                1.1650915125483694
            ]
        },
        {
            "positions": [
                -1.4483608267072166,
                -0.9677593428735553,
                -0.32669654481091287,
                -0.5251653095970349,
                0.306309720571928,
                1.0323905122663828
            ]
        },
        {
            "positions": [
                -1.3660330543438417,
                -1.0389090932075526,
                -0.41910203997836376,
                -0.4396759750703323,
                0.30011464301778973,
                0.9785117629297838
            ]
        },
        {
            "positions": [
                -1.2837052819804666,
                -1.11005884354155,
                -0.5115075351458147,
                -0.35418664054362964,
                0.29391956546365144,
                0.924633013593185
            ]
        },
        {
            "positions": [
                -1.2013775096170916,
                -1.1812085938755474,
                -0.6039130303132656,
                -0.268697306016927,
                0.2877244879095131,
                0.870754264256586
            ]
        },
        {
            "positions": [
                -1.1190497372537167,
                -1.2523583442095447,
                -0.6963185254807165,
                -0.18320797149022439,
                0.2815294103553748,
                0.8168755149199871
            ]
        },
        {
            "positions": [
                -1.0367219648903419,
                -1.3235080945435422,
                -0.7887240206481675,
                -0.09771863696352168,
                0.27533433280123654,
                0.762996765583388
            ]
        },
        {
            "positions": [
                -0.9543941925269668,
                -1.3946578448775395,
                -0.8811295158156183,
                -0.012229302436819078,
                0.26913925524709825,
                0.7091180162467892
            ]
        },
        {
            "positions": [
                -0.8720664201635918,
                -1.465807595211537,
                -0.9735350109830694,
                0.07326003208988352,
                0.26294417769295997,
                0.6552392669101903
            ]
        },
        {
            "positions": [
                -0.7897386478002169,
                -1.5369573455455343,
                -1.06594050615052,
                0.15874936661658612,
                0.2567491001388217,
                0.6013605175735913
            ]
        },
        {
            "positions": [
                -0.7074108754368419,
                -1.6081070958795318,
                -1.1583460013179712,
                0.24423870114328883,
                0.25055402258468334,
                0.5474817682369923
            ]
        },
        {
            "positions": [
                -0.6250831030734669,
                -1.679256846213529,
                -1.250751496485422,
                0.32972803566999154,
                0.24435894503054506,
                0.4936030189003934
            ]
        },
        {
            "positions": [
                -0.5427553307100919,
                -1.7504065965475264,
                -1.3431569916528732,
                0.41521737019669414,
                0.23816386747640678,
                0.4397242695637944
            ]
        },
        {
            "positions": [
                -0.460427558346717,
                -1.8215563468815237,
                -1.4355624868203238,
                0.5007067047233967,
                0.2319687899222685,
                0.38584552022719554
            ]
        },
        {
            "positions": [
                -0.37809978598334215,
                -1.8927060972155212,
                -1.5279679819877747,
                0.5861960392500994,
                0.22577371236813018,
                0.33196677089059656
            ]
        },
        {
            "positions": [
                -0.2957720136199671,
                -1.9638558475495187,
                -1.6203734771552258,
                0.6716853737768019,
                0.21957863481399187,
                0.2780880215539977
            ]
        },
        {
            "positions": [
                -0.213444241256592,
                -2.035005597883516,
                -1.7127789723226767,
                0.7571747083035046,
                0.21338355725985358,
                0.22420927221739873
            ]
        },
        {
            "positions": [
                -0.13111646889321715,
                -2.1061553482175133,
                -1.8051844674901274,
                0.8426640428302071,
                0.2071884797057153,
                0.17033052288079986
            ]
        },
        {
            "positions": [
                -0.0487886965298423,
                -2.1773050985515106,
                -1.8975899626575785,
                0.9281533773569098,
                0.20099340215157702,
                0.11645177354420089
            ]
        },
        {
            "positions": [
                0.03353907583353272,
                -2.2484548488855083,
                -1.9899954578250294,
                1.0136427118836124,
                0.1947983245974387,
                0.06257302420760186
            ]
        },
        {
            "positions": [
                0.028690936261536886,
                -2.2656548599161765,
                -2.1342669876850713,
                1.1272644260645068,
                0.22146372871875064,
                0.035685580236343294
            ]
        },
        {
            "positions": [
                0.023842796689541056,
                -2.2828548709468444,
                -2.2785385175451136,
                1.2408861402454014,
                0.24812913284006258,
                0.00879813626508473
            ]
        },
        {
            "positions": [
                0.01899465711754522,
                -2.3000548819775126,
                -2.4228100474051555,
                1.3545078544262958,
                0.2747945369613745,
                -0.01808930770617384
            ]
        },
        {
            "positions": [
                -0.0827532152813542,
                -2.287689605944948,
                -2.4073726509091715,
                1.3984880275946097,
                0.2217439345262041,
                0.030629775331550695
            ]
        },
        {
            "positions": [
                -0.1845010876802536,
                -2.2753243299123826,
                -2.391935254413187,
                1.4424682007629237,
                0.16869333209103374,
                0.07934885836927523
            ]
        }
    ]
}