{
    "goal": {
        "global_pose": {
            "orientation": {
                "w": -0.00223480608172531,
                "x": 0.0024358444001904467,
                "y": 0.7094548369677653,
                "z": -0.704743149386269
            },
            "position": {
                "x": -0.37947507619857795,
                "y": -0.6371506643295288,
                "z": 0.19426114857196808
            }
        },
        "name": "move_to_magneteinheit_C"
    },
    "id": "KPIECE_move_to_magneteinheit_C_114",
    "joint_names": [
        "shoulder_pan_joint",
        "shoulder_lift_joint",
        "elbow_joint",
        "wrist_1_joint",
        "wrist_2_joint",
        "wrist_3_joint"
    ],
    "metrics": {
        "cart_traj_len": 1.2840404047944398,
        "distance_elbow_joint": 1.2918569335357442,
        "distance_shoulder_lift_joint": 2.819991669051987,
        "distance_shoulder_pan_joint": 2.199148827729991,
        "distance_wrist_1_joint": 1.4047237533620685,
        "distance_wrist_2_joint": 3.981302701025812,
        "distance_wrist_3_joint": 10.504386085135748,
        "smoothness": 0.6414610861346347,
        "time": 0.366002991,
        "traj_len": 4.71183721809671,
        "weighted_distance": 6.971098091011251
    },
    "planner": "KPIECE",
    "start": {
        "state": {
            "elbow_joint": 1.9565354006593851,
            "shoulder_lift_joint": -1.4165861576512813,
            "shoulder_pan_joint": -1.6717766223278752,
            "wrist_1_joint": -0.528663328821883,
            "wrist_2_joint": 1.472756589259273,
            "wrist_3_joint": 3.159348288315503
        }
    },
    "waypoints": [
        {
            "positions": [
                -1.6717766223278752,
                -1.4165861576512813,
                1.9565354006593851,
                -0.528663328821883,
                1.472756589259273,
                3.159348288315503
            ]
        },
        {
            "positions": [
                -1.7515971351921635,
                -1.4323349590945758,
                1.9866143660447726,
                -0.5857123922145568,
                1.3148484382224939,
                3.111200620858585
            ]
        },
        {
            "positions": [
                -1.831417648056452,
                -1.44808376053787,
                2.01669333143016,
                -0.6427614556072307,
                1.1569402871857148,
                3.0630529534016673
            ]
        },
        {
            "positions": [
                -1.9112381609207403,
                -1.4638325619811643,
                2.0467722968155475,
                -0.6998105189999047,
                0.9990321361489357,
                3.0149052859447494
            ]
        },
        {
            "positions": [
                -1.9910586737850284,
                -1.4795813634244588,
                2.0768512622009347,
                -0.7568595823925784,
                0.8411239851121566,
                2.966757618487832
            ]
        },
        {
            "positions": [
                -2.070879186649317,
                -1.4953301648677533,
                2.1069302275863224,
                -0.8139086457852522,
                0.6832158340753774,
                2.918609951030914
            ]
        },
        {
            "positions": [
                -2.150699699513605,
                -1.5110789663110475,
                2.1370091929717097,
                -0.8709577091779261,
                0.5253076830385983,
                2.870462283573996
            ]
        },
        {
            "positions": [
                -2.1915492906076612,
                -1.5586296397237889,
                2.156651139123344,
                -0.8912322409158867,
                0.4677454784380928,
                2.6712954623797334
            ]
        },
        {
            "positions": [
                -2.2323988817017177,
                -1.6061803131365302,
                2.176293085274978,
                -0.9115067726538472,
                0.41018327383758724,
                2.4721286411854706
            ]
        },
        {
            "positions": [
                -2.273248472795774,
                -1.6537309865492718,
                2.1959350314266124,
                -0.9317813043918077,
                0.3526210692370817,
                2.272961819991208
            ]
        },
        {
            "positions": [
                -2.3140980638898303,
                -1.701281659962013,
                2.2155769775782463,
                -0.9520558361297683,
                0.29505886463657616,
                2.0737949987969446
            ]
        },
        {
            "positions": [
                -2.3549476549838864,
                -1.7488323333747544,
                2.2352189237298807,
                -0.9723303678677289,
                0.23749666003607067,
                1.8746281776026819
            ]
        },
        {
            "positions": [
                -2.395797246077943,
                -1.796383006787496,
                2.254860869881515,
                -0.9926048996056893,
                0.17993445543556513,
                1.675461356408419
            ]
        },
        {
            "positions": [
                -2.436646837171999,
                -1.8439336802002373,
                2.274502816033149,
                -1.01287943134365,
                0.12237225083505954,
                1.476294535214156
            ]
        },
        {
            "positions": [
                -2.4774964282660554,
                -1.8914843536129786,
                2.2941447621847835,
                -1.0331539630816104,
                0.06481004623455405,
                1.2771277140198933
            ]
        },
        {
            "positions": [
                -2.5183460193601115,
                -1.93903502702572,
                2.3137867083364174,
                -1.053428494819571,
                0.0072478416340485685,
                1.0779608928256306
            ]
        },
        {
            "positions": [
                -2.559195610454168,
                -1.9865857004384613,
                2.333428654488052,
                -1.0737030265575316,
                -0.05031436296645697,
                0.8787940716313676
            ]
        },
        {
            "positions": [
                -2.600045201548224,
                -2.0341363738512026,
                2.353070600639686,
                -1.093977558295492,
                -0.10787656756696251,
                0.6796272504371048
            ]
        },
        {
            "positions": [
                -2.6408947926422806,
                -2.0816870472639444,
                2.37271254679132,
                -1.1142520900334525,
                -0.16543877216746805,
                0.48046042924284205
            ]
        },
        {
            "positions": [
                -2.6817443837363366,
                -2.1292377206766853,
                2.3923544929429545,
                -1.1345266217714132,
                -0.2230009767679736,
                0.2812936080485793
            ]
        },
        {
            "positions": [
                -2.722593974830393,
                -2.176788394089427,
                2.4119964390945885,
                -1.1548011535093736,
                -0.28056318136847924,
                0.08212678685431607
            ]
        },
        {
            "positions": [
                -2.763443565924449,
                -2.2243390675021684,
                2.431638385246223,
                -1.175075685247334,
                -0.33812538596898467,
                -0.11704003433994625
            ]
        },
        {
            "positions": [
                -2.8042931570185057,
                -2.2718897409149097,
                2.4512803313978573,
                -1.1953502169852948,
                -0.3956875905694902,
                -0.31620685553420946
            ]
        },
        {
            "positions": [
                -2.8451427481125617,
                -2.319440414327651,
                2.4709222775494912,
                -1.2156247487232552,
                -0.45324979516999575,
                -0.5153736767284722
            ]
        },
        {
            "positions": [
                -2.8859923392066182,
                -2.3669910877403924,
                2.4905642237011256,
                -1.2358992804612159,
                -0.5108119997705012,
                -0.714540497922735
            ]
        },
        {
            "positions": [
                -2.9268419303006743,
                -2.4145417611531337,
                2.5102061698527596,
                -1.2561738121991763,
                -0.5683742043710067,
                -0.9137073191169978
            ]
        },
        {
            "positions": [
                -2.967691521394731,
                -2.462092434565875,
                2.529848116004394,
                -1.2764483439371368,
                -0.6259364089715123,
                -1.112874140311261
            ]
        },
        {
            "positions": [
                -3.008541112488787,
                -2.509643107978617,
                2.5494900621560284,
                -1.2967228756750973,
                -0.6834986135720178,
                -1.3120409615055237
            ]
        },
        {
            "positions": [
                -3.0493907035828434,
                -2.5571937813913577,
                2.5691320083076623,
                -1.316997407413058,
                -0.7410608181725233,
                -1.5112077826997865
            ]
        },
        {
            "positions": [
                -3.0902402946768994,
                -2.6047444548040994,
                2.5887739544592967,
                -1.3372719391510184,
                -0.7986230227730289,
                -1.7103746038940493
            ]
        },
        {
            "positions": [
                -3.1310898857709555,
                -2.6522951282168408,
                2.6084159006109306,
                -1.357546470888979,
                -0.8561852273735344,
                -1.909541425088312
            ]
        },
        {
            "positions": [
                -3.171939476865012,
                -2.699845801629582,
                2.628057846762565,
                -1.3778210026269395,
                -0.91374743197404,
                -2.1087082462825752
            ]
        },
        {
            "positions": [
                -3.145055400972979,
                -2.6407407237421325,
                2.604198828015159,
                -1.3564530764901315,
                -0.85240902121279,
                -1.9073109558772803
            ]
        },
        {
            "positions": [
                -3.1181713250809464,
                -2.581635645854683,
                2.5803398092677523,
                -1.3350851503533232,
                -0.7910706104515403,
                -1.705913665471985
            ]
        },
        {
            "positions": [
                -3.0912872491889134,
                -2.522530567967234,
                2.556480790520346,
                -1.3137172242165152,
                -0.7297321996902904,
                -1.50451637506669
            ]
        },
        {
            "positions": [
                -3.064403173296881,
                -2.4634254900797843,
                2.5326217717729396,
                -1.2923492980797069,
                -0.6683937889290406,
                -1.303119084661395
            ]
        },
        {
            "positions": [
                -3.037519097404848,
                -2.4043204121923347,
                2.5087627530255334,
                -1.2709813719428988,
                -0.6070553781677906,
                -1.1017217942560997
            ]
        },
        {
            "positions": [
                -3.010635021512815,
                -2.345215334304885,
                2.4849037342781273,
                -1.2496134458060906,
                -0.5457169674065407,
                -0.9003245038508048
            ]
        },
        {
            "positions": [
                -2.9837509456207822,
                -2.286110256417436,
                2.4610447155307207,
                -1.2282455196692825,
                -0.48437855664529095,
                -0.6989272134455098
            ]
        },
        {
            "positions": [
                -2.9568668697287492,
                -2.2270051785299865,
                2.4371856967833145,
                -1.2068775935324743,
                -0.42304014588404104,
                -0.4975299230402146
            ]
        },
        {
            "positions": [
                -2.9299827938367162,
                -2.167900100642537,
                2.4133266780359084,
                -1.1855096673956662,
                -0.36170173512279125,
                -0.2961326326349196
            ]
        },
        {
            "positions": [
                -2.9030987179446837,
                -2.1087950227550873,
                2.389467659288502,
                -1.1641417412588582,
                -0.30036332436154134,
                -0.09473534222962421
            ]
        },
        {
            "positions": [
                -2.8762146420526506,
                -2.0496899448676382,
                2.3656086405410957,
                -1.14277381512205,
                -0.23902491360029143,
                0.10666194817567032
            ]
        },
        {
            "positions": [
                -2.849330566160618,
                -1.9905848669801887,
                2.341749621793689,
                -1.1214058889852418,
                -0.17768650283904153,
                0.30805923858096573
            ]
        },
        {
            "positions": [
                -2.822446490268585,
                -1.931479789092739,
                2.317890603046283,
                -1.1000379628484336,
                -0.11634809207779173,
                0.5094565289862607
            ]
        },
        {
            "positions": [
                -2.795562414376552,
                -1.8723747112052895,
                2.2940315842988768,
                -1.0786700367116255,
                -0.055009681316541936,
                0.7108538193915557
            ]
        },
        {
            "positions": [
                -2.7686783384845195,
                -1.8132696333178404,
                2.27017256555147,
                -1.0573021105748173,
                0.006328729444707859,
                0.9122511097968506
            ]
        },
        {
            "positions": [
                -2.7417942625924865,
                -1.7541645554303906,
                2.246313546804064,
                -1.0359341844380092,
                0.06766714020595788,
                1.113648400202146
            ]
        },
        {
            "positions": [
                -2.714910186700454,
                -1.6950594775429413,
                2.222454528056658,
                -1.0145662583012012,
                0.12900555096720767,
                1.315045690607441
            ]
        },
        {
            "positions": [
                -2.688026110808421,
                -1.6359543996554917,
                2.1985955093092513,
                -0.9931983321643929,
                0.19034396172845747,
                1.516442981012736
            ]
        },
        {
            "positions": [
                -2.661142034916388,
                -1.5768493217680424,
                2.174736490561845,
                -0.9718304060275849,
                0.2516823724897075,
                1.717840271418031
            ]
        },
        {
            "positions": [
                -2.6342579590243553,
                -1.5177442438805928,
                2.1508774718144386,
                -0.9504624798907766,
                0.3130207832509573,
                1.9192375618233268
            ]
        },
        {
            "positions": [
                -2.6073738831323223,
                -1.4586391659931435,
                2.1270184530670324,
                -0.9290945537539685,
                0.3743591940122073,
                2.1206348522286214
            ]
        },
        {
            "positions": [
                -2.5804898072402898,
                -1.399534088105694,
                2.1031594343196263,
                -0.9077266276171603,
                0.4356976047734571,
                2.322032142633916
            ]
        },
        {
            "positions": [
                -2.5536057313482567,
                -1.3404290102182446,
                2.0793004155722197,
                -0.8863587014803522,
                0.4970360155347069,
                2.5234294330392113
            ]
        },
        {
            "positions": [
                -2.5267216554562237,
                -1.281323932330795,
                2.0554413968248135,
                -0.8649907753435441,
                0.5583744262959569,
                2.7248267234445067
            ]
        },
        {
            "positions": [
                -2.4998375795641907,
                -1.2222188544433454,
                2.031582378077407,
                -0.8436228492067359,
                0.6197128370572067,
                2.926224013849802
            ]
        },
        {
            "positions": [
                -2.472953503672158,
                -1.163113776555896,
                2.007723359330001,
                -0.8222549230699278,
                0.6810512478184566,
                3.1276213042550967
            ]
        }
    ]
}