{
    "goal": {
        "global_pose": {
            "orientation": {
                "w": 0.5084816217422485,
                "x": -0.49083608388900757,
                "y": 0.5182115435600281,
                "z": -0.4816462993621826
            },
            "position": {
                "x": 0.5540239810943604,
                "y": 0.030875300988554955,
                "z": 0.16403168439865112
            }
        },
        "name": "move_to_storage_A"
    },
    "id": "KPIECE_move_to_storage_A_143",
    "joint_names": [
        "shoulder_pan_joint",
        "shoulder_lift_joint",
        "elbow_joint",
        "wrist_1_joint",
        "wrist_2_joint",
        "wrist_3_joint"
    ],
    "metrics": {
        "cart_traj_len": 0.35299653849925,
        "distance_elbow_joint": 0.44898265281313887,
        "distance_shoulder_lift_joint": 0.23314005848482555,
        "distance_shoulder_pan_joint": 0.45799409191749574,
        "distance_wrist_1_joint": 0.23986252467196234,
        "distance_wrist_2_joint": 1.113547624496987,
        "distance_wrist_3_joint": 0.10520767305294809,
        "smoothness": 0.0,
        "time": 0.013044162,
        "traj_len": 1.612059125912371,
        "weighted_distance": 2.0402353101326827
    },
    "planner": "KPIECE",
    "start": {
        "state": {
            "elbow_joint": 1.971548880431181,
            "shoulder_lift_joint": -1.1394869514688781,
            "shoulder_pan_joint": 0.12281150262730567,
            "wrist_1_joint": -0.7804693444481463,
            "wrist_2_joint": 0.12958644648617612,
            "wrist_3_joint": 3.0906942077768043
        }
    },
    "waypoints": [
        {
            "positions": [
                0.12281150262730567,
                -1.1394869514688781,
                1.971548880431181,
                -0.7804693444481463,
                0.12958644648617612,
                3.0906942077768043
            ]
        },
        {
            "positions": [
                0.05738377521052057,
                -1.1727926741095676,
                2.0356892594044864,
                -0.8147354194012838,
                0.28866467855717426,
                3.105723875355797
            ]
        },
        {
            "positions": [
                -0.008043952206264526,
                -1.2060983967502568,
                2.099829638377792,
                -0.8490014943544213,
                0.4477429106281724,
                3.1207535429347892
            ]
        },
        {
            "positions": [
                -0.07347167962304962,
                -1.2394041193909462,
                2.1639700173510974,
                -0.8832675693075587,
                0.6068211426991705,
                3.135783210513782
            ]
        },
        {
            "positions": [
                -0.13889940703983472,
                -1.2727098420316356,
                2.228110396324403,
                -0.9175336442606962,
                0.7658993747701687,
                3.1508128780927747
            ]
        },
        {
            "positions": [
                -0.20432713445661987,
                -1.306015564672325,
                2.292250775297709,
                -0.9517997192138337,
                0.9249776068411669,
                3.1658425456717674
            ]
        },
        {
            "positions": [
                -0.2697548618734049,
                -1.3393212873130143,
                2.356391154271014,
                -0.9860657941669712,
                1.0840558389121648,
                3.1808722132507596
            ]
        },
        {
            "positions": [
                -0.33518258929019007,
                -1.3726270099537037,
                2.42053153324432,
                -1.0203318691201086,
                1.2431340709831633,
                3.1959018808297524
            ]
        }
    ]
}