{
    "goal": {
        "global_pose": {
            "orientation": {
                "w": 0.7031023480610252,
                "x": -0.7110244013736278,
                "y": 0.0077485991402295624,
                "z": 0.005598929693374583
            },
            "position": {
                "x": -0.8841497679147869,
                "y": 0.44412534475326537,
                "z": 0.3711530566215515
            }
        },
        "name": "move_to_auspresseinheit_D"
    },
    "id": "KPIECE_move_to_auspresseinheit_D_117",
    "joint_names": [
        "shoulder_pan_joint",
        "shoulder_lift_joint",
        "elbow_joint",
        "wrist_1_joint",
        "wrist_2_joint",
        "wrist_3_joint"
    ],
    "metrics": {
        "cart_traj_len": 0.34455581986735767,
        "distance_elbow_joint": 0.6608405410450002,
        "distance_shoulder_lift_joint": 0.13390205271054612,
        "distance_shoulder_pan_joint": 0.134292871904752,
        "distance_wrist_1_joint": 0.601857700257912,
        "distance_wrist_2_joint": 1.4460022164170907,
        "distance_wrist_3_joint": 0.06409899508707229,
        "smoothness": 2.269789279277309e-15,
        "time": 0.21458665600000001,
        "traj_len": 1.7438447113841224,
        "weighted_distance": 2.2840867506011064
    },
    "planner": "KPIECE",
    "start": {
        "state": {
            "elbow_joint": -1.8275484843655228,
            "shoulder_lift_joint": -2.1267897864000416,
            "shoulder_pan_joint": -0.035127520176001514,
            "wrist_1_joint": -2.3477863256791385,
            "wrist_2_joint": -1.605890476484521,
            "wrist_3_joint": -3.0880375317375353
        }
    },
    "waypoints": [
        {
            "positions": [
                -0.035127520176001514,
                -2.1267897864000416,
                -1.8275484843655228,
                -2.3477863256791385,
                -1.605890476484521,
                -3.0880375317375353
            ]
        },
        {
            "positions": [
                -0.05191412916409552,
                -2.14352754298886,
                -1.7449434167348978,
                -2.4230185382113776,
                -1.4251401994323847,
                -3.0800251573516513
            ]
        },
        {
            "positions": [
                -0.06870073815218952,
                -2.160265299577678,
                -1.6623383491042727,
                -2.4982507507436162,
                -1.2443899223802484,
                -3.0720127829657673
            ]
        },
        {
            "positions": [
                -0.08548734714028351,
                -2.1770030561664964,
                -1.5797332814736476,
                -2.5734829632758554,
                -1.063639645328112,
                -3.0640004085798833
            ]
        },
        {
            "positions": [
                -0.10227395612837752,
                -2.1937408127553146,
                -1.4971282138430226,
                -2.6487151758080945,
                -0.8828893682759756,
                -3.055988034193999
            ]
        },
        {
            "positions": [
                -0.11906056511647152,
                -2.210478569344133,
                -1.4145231462123977,
                -2.7239473883403336,
                -0.7021390912238393,
                -3.047975659808115
            ]
        },
        {
            "positions": [
                -0.1358471741045655,
                -2.227216325932951,
                -1.3319180785817726,
                -2.7991796008725727,
                -0.5213888141717029,
                -3.039963285422231
            ]
        },
        {
            "positions": [
                -0.15263378309265951,
                -2.2439540825217694,
                -1.2493130109511474,
                -2.8744118134048113,
                -0.3406385371195666,
                -3.031950911036347
            ]
        },
        {
            "positions": [
                -0.16942039208075352,
                -2.2606918391105877,
                -1.1667079433205225,
                -2.9496440259370504,
                -0.15988826006743037,
                -3.023938536650463
            ]
        }
    ]
}