{
    "goal": {
        "global_pose": {
            "orientation": {
                "w": 0.5084816262002911,
                "x": -0.4908360881923452,
                "y": 0.5182115481033761,
                "z": -0.48164630358495003
            },
            "position": {
                "x": 0.5540239810943604,
                "y": -0.46912469901144505,
                "z": 0.16403168439865112
            }
        },
        "name": "move_to_storage_B"
    },
    "id": "KPIECE_move_to_storage_B_95",
    "joint_names": [
        "shoulder_pan_joint",
        "shoulder_lift_joint",
        "elbow_joint",
        "wrist_1_joint",
        "wrist_2_joint",
        "wrist_3_joint"
    ],
    "metrics": {
        "cart_traj_len": 1.3372533707383807,
        "distance_elbow_joint": 1.2660686925410454,
        "distance_shoulder_lift_joint": 0.4580289552142325,
        "distance_shoulder_pan_joint": 1.0949147084171256,
        "distance_wrist_1_joint": 2.978077567702506,
        "distance_wrist_2_joint": 2.7002927167094275,
        "distance_wrist_3_joint": 3.3709957724933513,
        "smoothness": 0.22495854668832588,
        "time": 0.160417036,
        "traj_len": 3.4450512932433512,
        "weighted_distance": 4.928360806848086
    },
    "planner": "KPIECE",
    "start": {
        "state": {
            "elbow_joint": 1.6649325340416963,
            "shoulder_lift_joint": -0.6616387945129425,
            "shoulder_pan_joint": -0.9139837929255878,
            "wrist_1_joint": 2.1467571094334352,
            "wrist_2_joint": -2.234195976750228,
            "wrist_3_joint": 0.005470921511140723
        }
    },
    "waypoints": [
        {
            "positions": [
                -0.9139837929255878,
                -0.6616387945129425,
                1.6649325340416963,
                2.1467571094334352,
                -2.234195976750228,
                0.005470921511140723
            ]
        },
        {
            "positions": [
                -0.8226959395385468,
                -0.7040346373096387,
                1.5731921191845546,
                2.1359716093368544,
                -2.1612265252735674,
                0.027660960756720393
            ]
        },
        {
            "positions": [
                -0.7314080861515058,
                -0.7464304801063347,
                1.4814517043274127,
                2.1251861092402735,
                -2.088257073796907,
                0.04985100000230006
            ]
        },
        {
            "positions": [
                -0.6401202327644648,
                -0.7888263229030309,
                1.389711289470271,
                2.114400609143693,
                -2.0152876223202463,
                0.07204103924787972
            ]
        },
        {
            "positions": [
                -0.5488323793774237,
                -0.831222165699727,
                1.2979708746131293,
                2.1036151090471122,
                -1.942318170843586,
                0.0942310784934594
            ]
        },
        {
            "positions": [
                -0.45754452599038276,
                -0.8736180084964231,
                1.2062304597559876,
                2.0928296089505314,
                -1.8693487193669254,
                0.11642111773903906
            ]
        },
        {
            "positions": [
                -0.48210127373968736,
                -0.8830814600822213,
                1.2372830219965776,
                1.9803622986728544,
                -1.7795238940082283,
                -0.00896525057886298
            ]
        },
        {
            "positions": [
                -0.506658021488992,
                -0.8925449116680194,
                1.2683355842371673,
                1.8678949883951774,
                -1.689699068649531,
                -0.134351618896765
            ]
        },
        {
            "positions": [
                -0.5312147692382967,
                -0.9020083632538176,
                1.2993881464777572,
                1.7554276781175004,
                -1.599874243290834,
                -0.259737987214667
            ]
        },
        {
            "positions": [
                -0.5557715169876013,
                -0.9114718148396157,
                1.3304407087183472,
                1.6429603678398232,
                -1.5100494179321369,
                -0.3851243555325691
            ]
        },
        {
            "positions": [
                -0.5803282647369059,
                -0.9209352664254139,
                1.361493270958937,
                1.5304930575621463,
                -1.4202245925734398,
                -0.510510723850471
            ]
        },
        {
            "positions": [
                -0.6048850124862106,
                -0.930398718011212,
                1.3925458331995269,
                1.4180257472844693,
                -1.3303997672147427,
                -0.6358970921683731
            ]
        },
        {
            "positions": [
                -0.6294417602355151,
                -0.9398621695970102,
                1.4235983954401168,
                1.3055584370067923,
                -1.2405749418560457,
                -0.761283460486275
            ]
        },
        {
            "positions": [
                -0.6539985079848198,
                -0.9493256211828083,
                1.4546509576807067,
                1.193091126729115,
                -1.1507501164973484,
                -0.8866698288041772
            ]
        },
        {
            "positions": [
                -0.6785552557341245,
                -0.9587890727686065,
                1.4857035199212965,
                1.0806238164514383,
                -1.0609252911386513,
                -1.0120561971220792
            ]
        },
        {
            "positions": [
                -0.7031120034834291,
                -0.9682525243544046,
                1.5167560821618864,
                0.9681565061737611,
                -0.9711004657799541,
                -1.1374425654399811
            ]
        },
        {
            "positions": [
                -0.7276687512327338,
                -0.9777159759402028,
                1.5478086444024761,
                0.8556891958960842,
                -0.8812756404212571,
                -1.262828933757883
            ]
        },
        {
            "positions": [
                -0.7522254989820384,
                -0.9871794275260009,
                1.578861206643066,
                0.7432218856184072,
                -0.7914508150625599,
                -1.3882153020757853
            ]
        },
        {
            "positions": [
                -0.776782246731343,
                -0.996642879111799,
                1.609913768883656,
                0.6307545753407302,
                -0.7016259897038628,
                -1.5136016703936872
            ]
        },
        {
            "positions": [
                -0.8013389944806476,
                -1.0061063306975973,
                1.640966331124246,
                0.5182872650630532,
                -0.6118011643451657,
                -1.6389880387115892
            ]
        },
        {
            "positions": [
                -0.8258957422299522,
                -1.0155697822833953,
                1.6720188933648357,
                0.40581995478537625,
                -0.5219763389864687,
                -1.764374407029491
            ]
        },
        {
            "positions": [
                -0.8504524899792569,
                -1.0250332338691934,
                1.7030714556054256,
                0.29335264450769905,
                -0.4321515136277714,
                -1.8897607753473935
            ]
        },
        {
            "positions": [
                -0.8750092377285615,
                -1.0344966854549917,
                1.7341240178460156,
                0.18088533423002207,
                -0.3423266882690743,
                -2.0151471436652955
            ]
        },
        {
            "positions": [
                -0.8995659854778661,
                -1.0439601370407898,
                1.7651765800866053,
                0.06841802395234531,
                -0.25250186291037724,
                -2.1405335119831976
            ]
        },
        {
            "positions": [
                -0.9241227332271708,
                -1.053423588626588,
                1.7962291423271952,
                -0.04404928632533167,
                -0.16267703755168017,
                -2.2659198803010994
            ]
        },
        {
            "positions": [
                -0.9486794809764755,
                -1.062887040212386,
                1.8272817045677852,
                -0.1565165966030091,
                -0.07285221219298288,
                -2.3913062486190015
            ]
        },
        {
            "positions": [
                -0.9732362287257801,
                -1.0723504917981843,
                1.858334266808375,
                -0.2689839068806861,
                0.01697261316571419,
                -2.5166926169369037
            ]
        },
        {
            "positions": [
                -0.9977929764750847,
                -1.0818139433839824,
                1.8893868290489648,
                -0.38145121715836305,
                0.10679743852441126,
                -2.6420789852548054
            ]
        },
        {
            "positions": [
                -1.0223497242243893,
                -1.0912773949697805,
                1.9204393912895548,
                -0.49391852743604003,
                0.1966222638831081,
                -2.7674653535727076
            ]
        },
        {
            "positions": [
                -1.046906471973694,
                -1.1007408465555786,
                1.9514919535301447,
                -0.606385837713717,
                0.2864470892418056,
                -2.89285172189061
            ]
        },
        {
            "positions": [
                -1.0714632197229985,
                -1.1102042981413769,
                1.9825445157707344,
                -0.718853147991394,
                0.3762719146005027,
                -3.018238090208512
            ]
        },
        {
            "positions": [
                -1.0960199674723032,
                -1.119667749727175,
                2.0135970780113244,
                -0.8313204582690711,
                0.4660967399591996,
                -3.1436244585264137
            ]
        }
    ]
}