{
    "goal": {
        "global_pose": {
            "orientation": {
                "w": 0.005598929693374612,
                "x": 0.007748599140229565,
                "y": 0.7110244013736278,
                "z": -0.7031023480610252
            },
            "position": {
                "x": 0.1141497679147869,
                "y": -0.7141253447532654,
                "z": 0.3711530566215515
            }
        },
        "name": "move_to_auspresseinheit_B"
    },
    "id": "KPIECE_move_to_auspresseinheit_B_61",
    "joint_names": [
        "shoulder_pan_joint",
        "shoulder_lift_joint",
        "elbow_joint",
        "wrist_1_joint",
        "wrist_2_joint",
        "wrist_3_joint"
    ],
    "metrics": {
        "cart_traj_len": 0.5653576036821157,
        "distance_elbow_joint": 0.06609015800393281,
        "distance_shoulder_lift_joint": 0.29300067984383715,
        "distance_shoulder_pan_joint": 0.5772464595867772,
        "distance_wrist_1_joint": 0.33591741464816993,
        "distance_wrist_2_joint": 0.9953562664006768,
        "distance_wrist_3_joint": 0.000521353326358831,
        "smoothness": 3.806478935924272e-16,
        "time": 0.07501171000000001,
        "traj_len": 1.5060319823329624,
        "weighted_distance": 1.897484840390383
    },
    "planner": "KPIECE",
    "start": {
        "state": {
            "elbow_joint": 2.0193061681459312,
            "shoulder_lift_joint": -1.1220205130644991,
            "shoulder_pan_joint": -1.0952072088045026,
            "wrist_1_joint": -0.8559671810662515,
            "wrist_2_joint": 0.4759638712940361,
            "wrist_3_joint": 3.159081874192446
        }
    },
    "waypoints": [
        {
            "positions": [
                -1.0952072088045026,
                -1.1220205130644991,
                2.0193061681459312,
                -0.8559671810662515,
                0.4759638712940361,
                3.159081874192446
            ]
        },
        {
            "positions": [
                -1.1914149520689654,
                -1.1708539597051386,
                2.0082911418119425,
                -0.7999809452915565,
                0.6418565823608156,
                3.1591687664135057
            ]
        },
        {
            "positions": [
                -1.2876226953334284,
                -1.219687406345778,
                1.9972761154779537,
                -0.7439947095168615,
                0.8077492934275949,
                3.1592556586345655
            ]
        },
        {
            "positions": [
                -1.3838304385978912,
                -1.2685208529864176,
                1.986261089143965,
                -0.6880084737421666,
                0.9736420044943745,
                3.1593425508556257
            ]
        },
        {
            "positions": [
                -1.480038181862354,
                -1.3173542996270573,
                1.975246062809976,
                -0.6320222379674716,
                1.139534715561154,
                3.1594294430766854
            ]
        },
        {
            "positions": [
                -1.576245925126817,
                -1.3661877462676968,
                1.9642310364759872,
                -0.5760360021927765,
                1.3054274266279335,
                3.159516335297745
            ]
        },
        {
            "positions": [
                -1.6724536683912798,
                -1.4150211929083363,
                1.9532160101419984,
                -0.5200497664180815,
                1.471320137694713,
                3.159603227518805
            ]
        }
    ]
}