{
    "goal": {
        "global_pose": {
            "orientation": {
                "w": 0.7031023480610252,
                "x": -0.7110244013736278,
                "y": 0.0077485991402295624,
                "z": 0.005598929693374583
            },
            "position": {
                "x": -0.8841497679147869,
                "y": 0.44412534475326537,
                "z": 0.3711530566215515
            }
        },
        "name": "move_to_auspresseinheit_D"
    },
    "id": "KPIECE_move_to_auspresseinheit_D_68",
    "joint_names": [
        "shoulder_pan_joint",
        "shoulder_lift_joint",
        "elbow_joint",
        "wrist_1_joint",
        "wrist_2_joint",
        "wrist_3_joint"
    ],
    "metrics": {
        "cart_traj_len": 0.34274059655449307,
        "distance_elbow_joint": 0.6325168490048738,
        "distance_shoulder_lift_joint": 0.11842053152546317,
        "distance_shoulder_pan_joint": 0.13415980013578122,
        "distance_wrist_1_joint": 0.5150795175429095,
        "distance_wrist_2_joint": 1.4356646559340664,
        "distance_wrist_3_joint": 0.02238272991344381,
        "smoothness": 0.0,
        "time": 0.08223238499999999,
        "traj_len": 1.6906283104386184,
        "weighted_distance": 2.203119088329181
    },
    "planner": "KPIECE",
    "start": {
        "state": {
            "elbow_joint": -1.8275484843655228,
            "shoulder_lift_joint": -2.1267897864000416,
            "shoulder_pan_joint": -0.035127520176001514,
            "wrist_1_joint": -2.3477863256791385,
            "wrist_2_joint": -1.605890476484521,
            "wrist_3_joint": -3.0880375317375353
        }
    },
    "waypoints": [
        {
            "positions": [
                -0.035127520176001514,
                -2.1267897864000416,
                -1.8275484843655228,
                -2.3477863256791385,
                -1.605890476484521,
                -3.0880375317375353
            ]
        },
        {
            "positions": [
                -0.051897495192974166,
                -2.1415923528407244,
                -1.7484838782399135,
                -2.412171265372002,
                -1.4264323944927626,
                -3.0908353729767155
            ]
        },
        {
            "positions": [
                -0.06866747020994682,
                -2.156394919281407,
                -1.6694192721143044,
                -2.476556205064866,
                -1.2469743125010044,
                -3.093633214215896
            ]
        },
        {
            "positions": [
                -0.08543744522691947,
                -2.1711974857220904,
                -1.5903546659886951,
                -2.5409411447577295,
                -1.067516230509246,
                -3.096431055455077
            ]
        },
        {
            "positions": [
                -0.10220742024389212,
                -2.186000052162773,
                -1.5112900598630858,
                -2.605326084450593,
                -0.8880581485174878,
                -3.099228896694257
            ]
        },
        {
            "positions": [
                -0.11897739526086477,
                -2.200802618603456,
                -1.4322254537374766,
                -2.669711024143457,
                -0.7086000665257295,
                -3.1020267379334374
            ]
        },
        {
            "positions": [
                -0.13574737027783743,
                -2.215605185044139,
                -1.3531608476118673,
                -2.7340959638363205,
                -0.5291419845339711,
                -3.104824579172618
            ]
        },
        {
            "positions": [
                -0.1525173452948101,
                -2.230407751484822,
                -1.2740962414862582,
                -2.7984809035291844,
                -0.34968390254221293,
                -3.107622420411799
            ]
        },
        {
            "positions": [
                -0.16928732031178273,
                -2.2452103179255047,
                -1.195031635360649,
                -2.862865843222048,
                -0.17022582055045454,
                -3.110420261650979
            ]
        }
    ]
}