{
    "goal": {
        "global_pose": {
            "orientation": {
                "w": 0.005598929693374612,
                "x": 0.007748599140229565,
                "y": 0.7110244013736278,
                "z": -0.7031023480610252
            },
            "position": {
                "x": 0.1141497679147869,
                "y": -0.7141253447532654,
                "z": 0.3711530566215515
            }
        },
        "name": "move_to_auspresseinheit_B"
    },
    "id": "KPIECE_move_to_auspresseinheit_B_142",
    "joint_names": [
        "shoulder_pan_joint",
        "shoulder_lift_joint",
        "elbow_joint",
        "wrist_1_joint",
        "wrist_2_joint",
        "wrist_3_joint"
    ],
    "metrics": {
        "cart_traj_len": 0.5636806515482734,
        "distance_elbow_joint": 0.059446236951346654,
        "distance_shoulder_lift_joint": 0.2952967536664235,
        "distance_shoulder_pan_joint": 0.5751559005805467,
        "distance_wrist_1_joint": 0.31546764819034656,
        "distance_wrist_2_joint": 0.9975264917990891,
        "distance_wrist_3_joint": 0.01093478158579142,
        "smoothness": 0.0,
        "time": 0.195750805,
        "traj_len": 1.5012753953800562,
        "weighted_distance": 1.8943842049422188
    },
    "planner": "KPIECE",
    "start": {
        "state": {
            "elbow_joint": 2.0193061681459312,
            "shoulder_lift_joint": -1.1220205130644991,
            "shoulder_pan_joint": -1.0952072088045026,
            "wrist_1_joint": -0.8559671810662515,
            "wrist_2_joint": 0.4759638712940361,
            "wrist_3_joint": 3.159081874192446
        }
    },
    "waypoints": [
        {
            "positions": [
                -1.0952072088045026,
                -1.1220205130644991,
                2.0193061681459312,
                -0.8559671810662515,
                0.4759638712940361,
                3.159081874192446
            ]
        },
        {
            "positions": [
                -1.1910665255679271,
                -1.1712366386755697,
                2.0093984619873733,
                -0.8033892397011937,
                0.6422182865938844,
                3.160904337790078
            ]
        },
        {
            "positions": [
                -1.2869258423313514,
                -1.2204527642866403,
                1.9994907558288157,
                -0.7508112983361359,
                0.8084727018937325,
                3.1627268013877097
            ]
        },
        {
            "positions": [
                -1.382785159094776,
                -1.2696688898977109,
                1.9895830496702578,
                -0.6982333569710781,
                0.9747271171935807,
                3.1645492649853417
            ]
        },
        {
            "positions": [
                -1.4786444758582005,
                -1.3188850155087815,
                1.9796753435117,
                -0.6456554156060205,
                1.140981532493429,
                3.1663717285829738
            ]
        },
        {
            "positions": [
                -1.5745037926216248,
                -1.368101141119852,
                1.9697676373531423,
                -0.5930774742409626,
                1.3072359477932771,
                3.1681941921806054
            ]
        },
        {
            "positions": [
                -1.6703631093850493,
                -1.4173172667309226,
                1.9598599311945846,
                -0.5404995328759049,
                1.4734903630931253,
                3.1700166557782374
            ]
        }
    ]
}